,Unnamed: 0,prediction,real,time,split
706,706,14.070608139038086,26.0,2021-01-29 09:49:41.314,train
707,707,25.12008285522461,22.0,2021-01-29 09:50:41.314,train
708,708,82.05265808105469,89.0,2021-01-29 09:51:41.314,train
709,709,161.33799743652344,208.0,2021-01-29 09:52:41.314,train
710,710,214.71261596679688,147.0,2021-01-29 09:53:41.314,train
711,711,147.8035125732422,203.0,2021-01-29 09:54:41.314,train
712,712,81.5809097290039,109.0,2021-01-29 09:55:41.314,train
713,713,49.11751937866211,47.0,2021-01-29 09:56:41.314,train
714,714,16.668525695800778,5.0,2021-01-29 09:57:41.314,train
715,715,21.84444236755371,46.0,2021-01-29 09:58:41.314,train
716,716,73.81871032714844,141.0,2021-01-29 09:59:41.314,train
717,717,200.2646942138672,116.0,2021-01-29 10:00:41.314,train
718,718,217.9660186767578,238.0,2021-01-29 10:01:41.314,train
719,719,149.4382781982422,138.0,2021-01-29 10:02:41.314,train
720,720,90.0991668701172,41.0,2021-01-29 10:03:41.314,train
721,721,54.4395637512207,39.0,2021-01-29 10:04:41.314,train
722,722,28.12675857543945,17.0,2021-01-29 10:05:41.314,train
723,723,61.34645080566406,47.0,2021-01-29 10:06:41.314,train
724,724,127.98216247558594,152.0,2021-01-29 10:07:41.314,train
725,725,214.6096343994141,253.0,2021-01-29 10:08:41.314,train
726,726,163.333984375,165.0,2021-01-29 10:09:41.314,train
727,727,85.21197509765625,53.0,2021-01-29 10:10:41.314,train
728,728,49.68328094482422,69.0,2021-01-29 10:11:41.314,train
729,729,20.44056701660156,28.0,2021-01-29 10:12:41.314,train
730,730,31.30031013488769,36.0,2021-01-29 10:13:41.314,train
731,731,95.7026824951172,144.0,2021-01-29 10:14:41.314,train
732,732,202.74554443359372,242.0,2021-01-29 10:15:41.314,train
733,733,208.12777709960938,100.0,2021-01-29 10:16:41.314,train
734,734,97.90965270996094,130.0,2021-01-29 10:17:41.314,train
735,735,61.2131233215332,74.0,2021-01-29 10:18:41.314,train
736,736,24.3297176361084,19.0,2021-01-29 10:19:41.314,train
737,737,10.1608304977417,15.0,2021-01-29 10:20:41.314,train
738,738,54.73075866699219,82.0,2021-01-29 10:21:41.314,train
739,739,100.65158081054688,84.0,2021-01-29 10:22:41.314,train
740,740,214.94178771972656,251.0,2021-01-29 10:23:41.314,train
741,741,188.9126739501953,204.0,2021-01-29 10:24:41.314,train
742,742,88.92269134521484,66.0,2021-01-29 10:25:41.314,train
743,743,59.4556884765625,83.0,2021-01-29 10:26:41.314,train
744,744,26.138586044311523,20.0,2021-01-29 10:27:41.314,train
745,745,22.08565330505371,27.0,2021-01-29 10:28:41.314,train
746,746,73.15525817871094,96.0,2021-01-29 10:29:41.314,train
747,747,163.2245635986328,192.0,2021-01-29 10:30:41.314,train
748,748,228.2781219482422,138.0,2021-01-29 10:31:41.314,train
749,749,150.02134704589844,202.0,2021-01-29 10:32:41.314,train
750,750,80.29796600341797,100.0,2021-01-29 10:33:41.314,train
751,751,48.89183044433594,30.0,2021-01-29 10:34:41.314,train
752,752,15.779354095458984,14.0,2021-01-29 10:35:41.314,train
753,753,35.212860107421875,70.0,2021-01-29 10:36:41.314,train
754,754,86.98278045654297,56.0,2021-01-29 10:37:41.314,train
755,755,213.2115478515625,205.0,2021-01-29 10:38:41.314,train
756,756,211.06283569335938,229.0,2021-01-29 10:39:41.314,train
757,757,119.38986206054688,75.0,2021-01-29 10:40:41.314,train
758,758,75.50130462646484,103.0,2021-01-29 10:41:41.314,train
759,759,35.15153121948242,55.0,2021-01-29 10:42:41.314,train
760,760,16.556194305419922,9.0,2021-01-29 10:43:41.314,train
761,761,47.58889770507813,45.0,2021-01-29 10:44:41.314,train
762,762,96.75054168701172,126.0,2021-01-29 10:45:41.314,train
763,763,216.053955078125,101.0,2021-01-29 10:46:41.314,train
764,764,209.9298553466797,235.0,2021-01-29 10:47:41.314,train
765,765,121.0593719482422,139.0,2021-01-29 10:48:41.314,train
766,766,76.9090805053711,49.0,2021-01-29 10:49:41.314,train
767,767,44.04864883422852,54.0,2021-01-29 10:50:41.314,train
768,768,19.11851692199707,30.0,2021-01-29 10:51:41.314,train
769,769,34.969593048095696,35.0,2021-01-29 10:52:41.314,train
770,770,105.31171417236328,128.0,2021-01-29 10:53:41.314,train
771,771,207.6376800537109,220.0,2021-01-29 10:54:41.314,train
772,772,204.25303649902344,135.0,2021-01-29 10:55:41.314,train
773,773,99.22892761230469,129.0,2021-01-29 10:56:41.314,train
774,774,60.687889099121094,90.0,2021-01-29 10:57:41.314,train
775,775,22.157182693481445,10.0,2021-01-29 10:58:41.314,train
776,776,7.76774263381958,36.0,2021-01-29 10:59:41.314,train
777,777,52.380714416503906,101.0,2021-01-29 11:00:41.314,train
778,778,115.69966888427734,78.0,2021-01-29 11:01:41.314,train
779,779,220.09722900390625,254.0,2021-01-29 11:02:41.314,train
780,780,186.838623046875,187.0,2021-01-29 11:03:41.314,train
781,781,84.47422790527344,53.0,2021-01-29 11:04:41.314,train
782,782,56.37590789794922,80.0,2021-01-29 11:05:41.314,train
783,783,31.17998695373535,25.0,2021-01-29 11:06:41.314,train
784,784,33.498046875,26.0,2021-01-29 11:07:41.314,train
785,785,84.27648162841797,93.0,2021-01-29 11:08:41.314,train
786,786,174.78443908691406,181.0,2021-01-29 11:09:41.314,train
787,787,215.90505981445312,264.0,2021-01-29 11:10:41.314,train
788,788,131.34161376953122,74.0,2021-01-29 11:11:41.314,train
789,789,72.5313949584961,111.0,2021-01-29 11:12:41.314,train
790,790,33.683895111083984,51.0,2021-01-29 11:13:41.314,train
791,791,18.92819023132324,9.0,2021-01-29 11:14:41.314,train
792,792,49.14241027832031,60.0,2021-01-29 11:15:41.314,train
793,793,93.70232391357422,130.0,2021-01-29 11:16:41.314,train
794,794,208.9416046142578,102.0,2021-01-29 11:17:41.314,train
795,795,199.6024169921875,233.0,2021-01-29 11:18:41.314,train
796,796,111.08901977539062,98.0,2021-01-29 11:19:41.314,train
797,797,71.94464874267578,81.0,2021-01-29 11:20:41.314,train
798,798,37.7134895324707,57.0,2021-01-29 11:21:41.314,train
799,799,11.805593490600586,17.0,2021-01-29 11:22:41.314,train
800,800,20.68343544006348,0.0,2021-01-29 11:23:41.314,train
801,801,73.69103240966797,0.0,2021-01-29 11:24:41.314,train
802,802,87.76952362060547,0.0,2021-01-29 11:25:41.314,train
803,803,32.87794876098633,0.0,2021-01-29 11:26:41.314,train
804,804,15.858537673950195,0.0,2021-01-29 11:27:41.314,train
805,805,12.578049659729006,0.0,2021-01-29 11:28:41.314,train
806,806,12.245738983154295,0.0,2021-01-29 11:29:41.314,train
807,807,11.206415176391602,0.0,2021-01-29 11:30:41.314,train
808,808,7.907155513763428,0.0,2021-01-29 11:31:41.314,train
809,809,3.9666285514831534,0.0,2021-01-29 11:32:41.314,train
810,810,-0.2804922163486481,0.0,2021-01-29 11:33:41.314,train
811,811,-3.06362533569336,0.0,2021-01-29 11:34:41.314,train
812,812,-5.476688861846924,0.0,2021-01-29 11:35:41.314,train
813,813,-6.520408153533936,0.0,2021-01-29 11:36:41.314,train
814,814,-7.079465389251709,0.0,2021-01-29 11:37:41.314,train
815,815,-9.168608665466307,0.0,2021-01-29 11:38:41.314,train
816,816,1.5948511362075806,0.0,2021-01-29 11:39:41.314,train
817,817,11.841137886047365,0.0,2021-01-29 11:40:41.314,train
818,818,15.184080123901367,0.0,2021-01-29 11:41:41.314,train
819,819,10.932272911071776,0.0,2021-01-29 11:42:41.314,train
820,820,5.310211658477783,0.0,2021-01-29 11:43:41.314,train
821,821,3.187641143798828,0.0,2021-01-29 11:44:41.314,train
822,822,3.076434135437012,0.0,2021-01-29 11:45:41.314,train
823,823,3.333177328109741,0.0,2021-01-29 11:46:41.314,train
824,824,2.627539157867432,0.0,2021-01-29 11:47:41.314,train
825,825,2.935076713562012,0.0,2021-01-29 11:48:41.314,train
826,826,3.579721689224243,0.0,2021-01-29 11:49:41.314,train
827,827,4.270440578460693,0.0,2021-01-29 11:50:41.314,train
828,828,2.310518503189087,0.0,2021-01-29 11:51:41.314,train
829,829,-0.1639966070652008,0.0,2021-01-29 11:52:41.314,train
830,830,-1.2701542377471924,0.0,2021-01-29 11:53:41.314,train
831,831,-1.8740414381027224,0.0,2021-01-29 11:54:41.314,train
832,832,-1.1410890817642212,0.0,2021-01-29 11:55:41.314,train
833,833,-0.06980118900537491,0.0,2021-01-29 11:56:41.314,train
834,834,0.6413687467575073,0.0,2021-01-29 11:57:41.314,train
835,835,0.6252046823501587,0.0,2021-01-29 11:58:41.314,train
836,836,0.18221543729305267,0.0,2021-01-29 11:59:41.314,train
837,837,0.11747484654188155,0.0,2021-01-29 12:00:41.314,train
838,838,-0.2195952534675598,0.0,2021-01-29 12:01:41.314,train
839,839,-1.1462581157684326,0.0,2021-01-29 12:02:41.314,train
840,840,-2.0733051300048833,0.0,2021-01-29 12:03:41.314,train
841,841,-2.559334516525269,0.0,2021-01-29 12:04:41.314,train
842,842,-3.567636728286743,0.0,2021-01-29 12:05:41.314,train
843,843,-4.363354682922363,0.0,2021-01-29 12:06:41.314,train
844,844,-5.426055431365967,0.0,2021-01-29 12:07:41.314,train
845,845,-5.842832088470459,0.0,2021-01-29 12:08:41.314,train
846,846,-6.280758380889893,0.0,2021-01-29 12:09:41.314,train
847,847,-7.408633708953857,0.0,2021-01-29 12:10:41.314,train
848,848,-8.236379623413086,0.0,2021-01-29 12:11:41.314,train
849,849,-6.735147953033447,0.0,2021-01-29 12:12:41.314,train
850,850,-7.529948711395264,0.0,2021-01-29 12:13:41.314,train
851,851,-8.206714630126951,0.0,2021-01-29 12:14:41.314,train
852,852,-8.760472297668457,0.0,2021-01-29 12:15:41.314,train
853,853,-8.866528511047363,0.0,2021-01-29 12:16:41.314,train
854,854,-9.365408897399902,0.0,2021-01-29 12:17:41.314,train
855,855,-9.306594848632812,0.0,2021-01-29 12:18:41.314,train
856,856,-9.118257522583008,0.0,2021-01-29 12:19:41.314,train
857,857,-4.670996189117432,0.0,2021-01-29 12:20:41.314,train
858,858,-3.3400564193725586,0.0,2021-01-29 12:21:41.314,train
859,859,-1.811062216758728,0.0,2021-01-29 12:22:41.314,train
860,860,-0.4364389777183533,0.0,2021-01-29 12:23:41.314,train
861,861,0.0,0.0,2021-01-29 12:24:41.314,train
862,862,0.0,0.0,2021-01-29 12:25:41.314,train
863,863,0.0,0.0,2021-01-29 12:26:41.314,train
864,864,0.0,0.0,2021-01-29 12:27:41.314,train
865,865,0.0,0.0,2021-01-29 12:28:41.314,train
866,866,0.0,0.0,2021-01-29 12:29:41.314,train
867,867,0.0,0.0,2021-01-29 12:30:41.314,train
868,868,0.0,0.0,2021-01-29 12:31:41.314,train
869,869,0.0,0.0,2021-01-29 12:32:41.314,train
870,870,0.0,0.0,2021-01-29 12:33:41.314,train
871,871,0.0,0.0,2021-01-29 12:34:41.314,train
872,872,0.0,0.0,2021-01-29 12:35:41.314,train
873,873,0.0,0.0,2021-01-29 12:36:41.314,train
874,874,0.0,0.0,2021-01-29 12:37:41.314,train
875,875,0.0,0.0,2021-01-29 12:38:41.314,train
876,876,0.0,0.0,2021-01-29 12:39:41.314,train
877,877,0.0,0.0,2021-01-29 12:40:41.314,train
878,878,0.0,0.0,2021-01-29 12:41:41.314,train
879,879,0.0,0.0,2021-01-29 12:42:41.314,train
880,880,0.0,0.0,2021-01-29 12:43:41.314,train
881,881,0.0,0.0,2021-01-29 12:44:41.314,train
882,882,0.0,0.0,2021-01-29 12:45:41.314,train
883,883,0.0,0.0,2021-01-29 12:46:41.314,train
884,884,0.0,0.0,2021-01-29 12:47:41.314,train
885,885,0.0,0.0,2021-01-29 12:48:41.314,train
886,886,0.0,0.0,2021-01-29 12:49:41.314,train
887,887,0.0,0.0,2021-01-29 12:50:41.314,train
888,888,0.0,0.0,2021-01-29 12:51:41.314,train
889,889,0.0,0.0,2021-01-29 12:52:41.314,train
890,890,0.0,0.0,2021-01-29 12:53:41.314,train
891,891,0.0,0.0,2021-01-29 12:54:41.314,train
892,892,0.0,0.0,2021-01-29 12:55:41.314,train
893,893,0.0,0.0,2021-01-29 12:56:41.314,train
894,894,0.0,0.0,2021-01-29 12:57:41.314,train
895,895,0.0,0.0,2021-01-29 12:58:41.314,train
896,896,0.0,0.0,2021-01-29 12:59:41.314,train
897,897,0.0,0.0,2021-01-29 13:00:41.314,train
898,898,0.0,0.0,2021-01-29 13:01:41.314,train
899,899,0.0,0.0,2021-01-29 13:02:41.314,train
900,900,0.0,0.0,2021-01-29 13:03:41.314,train
901,901,0.0,0.0,2021-01-29 13:04:41.314,train
902,902,0.0,0.0,2021-01-29 13:05:41.314,train
903,903,0.0,0.0,2021-01-29 13:06:41.314,train
904,904,0.0,0.0,2021-01-29 13:07:41.314,train
905,905,0.0,0.0,2021-01-29 13:08:41.314,train
906,906,0.0,0.0,2021-01-29 13:09:41.314,train
907,907,0.0,0.0,2021-01-29 13:10:41.314,train
908,908,0.0,0.0,2021-01-29 13:11:41.314,train
909,909,0.0,0.0,2021-01-29 13:12:41.314,train
910,910,0.0,0.0,2021-01-29 13:13:41.314,train
911,911,0.0,0.0,2021-01-29 13:14:41.314,train
912,912,0.0,0.0,2021-01-29 13:15:41.314,train
913,913,0.0,0.0,2021-01-29 13:16:41.314,train
914,914,0.0,0.0,2021-01-29 13:17:41.314,train
915,915,0.0,0.0,2021-01-29 13:18:41.314,train
916,916,0.0,0.0,2021-01-29 13:19:41.314,train
917,917,0.0,0.0,2021-01-29 13:20:41.314,train
918,918,0.0,0.0,2021-01-29 13:21:41.314,train
919,919,0.0,0.0,2021-01-29 13:22:41.314,train
920,920,0.0,0.0,2021-01-29 13:23:41.314,train
921,921,0.0,0.0,2021-01-29 13:24:41.314,train
922,922,0.0,0.0,2021-01-29 13:25:41.314,train
923,923,0.0,0.0,2021-01-29 13:26:41.314,train
924,924,0.0,0.0,2021-01-29 13:27:41.314,train
925,925,0.0,0.0,2021-01-29 13:28:41.314,train
926,926,0.0,0.0,2021-01-29 13:29:41.314,train
927,927,0.0,0.0,2021-01-29 13:30:41.314,train
928,928,0.0,0.0,2021-01-29 13:31:41.314,train
929,929,0.0,0.0,2021-01-29 13:32:41.314,train
930,930,0.0,0.0,2021-01-29 13:33:41.314,train
931,931,0.0,0.0,2021-01-29 13:34:41.314,train
932,932,0.0,0.0,2021-01-29 13:35:41.314,train
933,933,0.0,0.0,2021-01-29 13:36:41.314,train
934,934,0.0,0.0,2021-01-29 13:37:41.314,train
935,935,0.0,0.0,2021-01-29 13:38:41.314,train
936,936,0.0,55.0,2021-01-29 13:39:41.314,train
937,937,0.0,151.0,2021-01-29 13:40:41.314,train
938,938,11.854122161865234,136.0,2021-01-29 13:41:41.314,train
939,939,28.8535213470459,251.0,2021-01-29 13:42:41.314,train
940,940,18.23458480834961,142.0,2021-01-29 13:43:41.314,train
941,941,24.198078155517575,68.0,2021-01-29 13:44:41.314,train
942,942,9.418781280517578,20.0,2021-01-29 13:45:41.314,train
943,943,-8.420127868652344,22.0,2021-01-29 13:46:41.314,train
944,944,3.635607242584229,73.0,2021-01-29 13:47:41.314,train
945,945,33.48080825805664,91.0,2021-01-29 13:48:41.314,train
946,946,97.89558410644531,263.0,2021-01-29 13:49:41.314,train
947,947,86.64623260498047,162.0,2021-01-29 13:50:41.314,train
948,948,77.36380004882812,66.0,2021-01-29 13:51:41.314,train
949,949,41.78068923950195,70.0,2021-01-29 13:52:41.314,train
950,950,-9.157198905944824,18.0,2021-01-29 13:53:41.314,train
951,951,6.899863243103027,25.0,2021-01-29 13:54:41.314,train
952,952,34.54604721069336,103.0,2021-01-29 13:55:41.314,train
953,953,95.66153717041016,202.0,2021-01-29 13:56:41.314,train
954,954,138.73590087890622,135.0,2021-01-29 13:57:41.314,train
955,955,128.83831787109378,193.0,2021-01-29 13:58:41.314,train
956,956,46.44219589233398,108.0,2021-01-29 13:59:41.314,train
957,957,20.49259757995605,40.0,2021-01-29 14:00:41.314,train
958,958,-12.729181289672852,10.0,2021-01-29 14:01:41.314,train
959,959,23.06536865234375,58.0,2021-01-29 14:02:41.314,train
960,960,81.6794662475586,139.0,2021-01-29 14:03:41.314,train
961,961,163.10137939453125,111.0,2021-01-29 14:04:41.314,train
962,962,167.27108764648438,249.0,2021-01-29 14:05:41.314,train
963,963,129.17271423339844,129.0,2021-01-29 14:06:41.314,train
964,964,106.0647430419922,52.0,2021-01-29 14:07:41.314,train
965,965,23.93742179870605,38.0,2021-01-29 14:08:41.314,train
966,966,9.964273452758787,35.0,2021-01-29 14:09:41.314,train
967,967,-21.237754821777344,46.0,2021-01-29 14:10:41.314,train
968,968,36.03551483154297,120.0,2021-01-29 14:11:41.314,train
969,969,123.484130859375,235.0,2021-01-29 14:12:41.314,train
970,970,159.01681518554688,107.0,2021-01-29 14:13:41.314,train
971,971,155.6073760986328,143.0,2021-01-29 14:14:41.314,train
972,972,67.09941864013672,78.0,2021-01-29 14:15:41.314,train
973,973,11.58187770843506,27.0,2021-01-29 14:16:41.314,train
974,974,12.540176391601562,17.0,2021-01-29 14:17:41.314,train
975,975,59.76612091064453,90.0,2021-01-29 14:18:41.314,train
976,976,160.1403045654297,183.0,2021-01-29 14:19:41.314,train
977,977,197.98716735839844,137.0,2021-01-29 14:20:41.314,train
978,978,161.31884765625,191.0,2021-01-29 14:21:41.314,train
979,979,62.33114242553711,98.0,2021-01-29 14:22:41.314,train
980,980,25.74559783935547,22.0,2021-01-29 14:23:41.314,train
981,981,-13.834615707397461,22.0,2021-01-29 14:24:41.314,train
982,982,19.05029296875,43.0,2021-01-29 14:25:41.314,train
983,983,110.20892333984376,63.0,2021-01-29 14:26:41.314,train
984,984,205.79196166992188,188.0,2021-01-29 14:27:41.314,train
985,985,203.59461975097656,135.0,2021-01-29 14:28:41.314,train
986,986,111.6707000732422,176.0,2021-01-29 14:29:41.314,train
987,987,59.66387557983398,103.0,2021-01-29 14:30:41.314,train
988,988,26.45315742492676,50.0,2021-01-29 14:31:41.314,train
989,989,-2.886790037155152,10.0,2021-01-29 14:32:41.314,train
990,990,9.791278839111328,51.0,2021-01-29 14:33:41.314,train
991,991,67.70177459716797,58.0,2021-01-29 14:34:41.314,train
992,992,203.65826416015625,194.0,2021-01-29 14:35:41.314,train
993,993,210.54486083984372,279.0,2021-01-29 14:36:41.314,train
994,994,138.18612670898438,84.0,2021-01-29 14:37:41.314,train
995,995,88.56005859375,96.0,2021-01-29 14:38:41.314,train
996,996,41.53446578979492,40.0,2021-01-29 14:39:41.314,train
997,997,12.6777925491333,6.0,2021-01-29 14:40:41.314,train
998,998,66.58207702636719,57.0,2021-01-29 14:41:41.314,train
999,999,101.96717071533205,122.0,2021-01-29 14:42:41.314,train
1000,1000,220.52687072753903,180.0,2021-01-29 14:43:41.314,train
1001,1001,187.5544891357422,171.0,2021-01-29 14:44:41.314,train
1002,1002,116.75521087646484,135.0,2021-01-29 14:45:41.314,train
1003,1003,71.3231430053711,77.0,2021-01-29 14:46:41.314,train
1004,1004,29.24157524108887,23.0,2021-01-29 14:47:41.314,train
1005,1005,9.173540115356444,23.0,2021-01-29 14:48:41.314,train
1006,1006,64.2222900390625,100.0,2021-01-29 14:49:41.314,train
1007,1007,127.682373046875,94.0,2021-01-29 14:50:41.314,train
1008,1008,215.29910278320312,230.0,2021-01-29 14:51:41.314,train
1009,1009,191.4062347412109,203.0,2021-01-29 14:52:41.314,train
1010,1010,105.22586822509766,66.0,2021-01-29 14:53:41.314,train
1011,1011,60.07157897949219,62.0,2021-01-29 14:54:41.314,train
1012,1012,16.639772415161133,20.0,2021-01-29 14:55:41.314,train
1013,1013,40.0604248046875,13.0,2021-01-29 14:56:41.314,train
1014,1014,101.90644073486328,94.0,2021-01-29 14:57:41.314,train
1015,1015,155.73248291015625,198.0,2021-01-29 14:58:41.314,train
1016,1016,219.05528259277344,145.0,2021-01-29 14:59:41.314,train
1017,1017,132.91055297851562,161.0,2021-01-29 15:00:41.314,train
1018,1018,77.06844329833984,98.0,2021-01-29 15:01:41.314,train
1019,1019,35.20165634155273,38.0,2021-01-29 15:02:41.314,train
1020,1020,8.23841667175293,26.0,2021-01-29 15:03:41.314,train
1021,1021,45.13533020019531,46.0,2021-01-29 15:04:41.314,train
1022,1022,103.39029693603516,63.0,2021-01-29 15:05:41.314,train
1023,1023,215.25901794433597,196.0,2021-01-29 15:06:41.314,train
1024,1024,209.02413940429688,221.0,2021-01-29 15:07:41.314,train
1025,1025,135.03742980957028,108.0,2021-01-29 15:08:41.314,train
1026,1026,85.3320541381836,106.0,2021-01-29 15:09:41.314,train
1027,1027,36.36762237548828,60.0,2021-01-29 15:10:41.314,train
1028,1028,9.728307723999023,8.0,2021-01-29 15:11:41.314,train
1029,1029,31.899757385253906,75.0,2021-01-29 15:12:41.314,train
1030,1030,88.05406951904297,138.0,2021-01-29 15:13:41.314,train
1031,1031,210.897216796875,118.0,2021-01-29 15:14:41.314,train
1032,1032,203.89468383789062,244.0,2021-01-29 15:15:41.314,train
1033,1033,136.65968322753906,77.0,2021-01-29 15:16:41.314,train
1034,1034,93.26297760009766,98.0,2021-01-29 15:17:41.314,train
1035,1035,45.38220977783203,50.0,2021-01-29 15:18:41.314,train
1036,1036,15.628899574279785,18.0,2021-01-29 15:19:41.314,train
1037,1037,53.58076858520508,40.0,2021-01-29 15:20:41.314,train
1038,1038,106.86111450195312,126.0,2021-01-29 15:21:41.314,train
1039,1039,216.1835479736328,250.0,2021-01-29 15:22:41.314,train
1040,1040,196.18946838378903,109.0,2021-01-29 15:23:41.314,train
1041,1041,113.57389831542969,141.0,2021-01-29 15:24:41.314,train
1042,1042,72.94095611572266,81.0,2021-01-29 15:25:41.314,train
1043,1043,28.10358238220215,10.0,2021-01-29 15:26:41.314,train
1044,1044,10.035016059875488,13.0,2021-01-29 15:27:41.314,train
1045,1045,69.15843963623047,92.0,2021-01-29 15:28:41.314,train
1046,1046,122.7914581298828,72.0,2021-01-29 15:29:41.314,train
1047,1047,218.8617706298828,245.0,2021-01-29 15:30:41.314,train
1048,1048,206.60787963867188,171.0,2021-01-29 15:31:41.314,train
1049,1049,108.95352172851562,106.0,2021-01-29 15:32:41.314,train
1050,1050,55.54024124145508,36.0,2021-01-29 15:33:41.314,train
1051,1051,15.33025360107422,42.0,2021-01-29 15:34:41.314,train
1052,1052,64.30467224121094,56.0,2021-01-29 15:35:41.314,train
1053,1053,161.12191772460938,133.0,2021-01-29 15:36:41.314,train
1054,1054,224.2745819091797,251.0,2021-01-29 15:37:41.314,train
1055,1055,200.2756500244141,199.0,2021-01-29 15:38:41.314,train
1056,1056,110.87387084960938,59.0,2021-01-29 15:39:41.314,train
1057,1057,65.80694580078125,74.0,2021-01-29 15:40:41.314,train
1058,1058,22.029197692871094,24.0,2021-01-29 15:41:41.314,train
1059,1059,43.97056198120117,29.0,2021-01-29 15:42:41.314,train
1060,1060,110.63265228271484,92.0,2021-01-29 15:43:41.314,train
1061,1061,207.06480407714844,206.0,2021-01-29 15:44:41.314,train
1062,1062,223.78929138183597,138.0,2021-01-29 15:45:41.314,train
1063,1063,136.65640258789062,189.0,2021-01-29 15:46:41.314,train
1064,1064,75.95785522460938,112.0,2021-01-29 15:47:41.314,train
1065,1065,38.42267227172852,40.0,2021-01-29 15:48:41.314,train
1066,1066,9.290091514587402,19.0,2021-01-29 15:49:41.314,train
1067,1067,43.630672454833984,67.0,2021-01-29 15:50:41.314,train
1068,1068,99.9343490600586,59.0,2021-01-29 15:51:41.314,train
1069,1069,222.3018341064453,207.0,2021-01-29 15:52:41.314,train
1070,1070,213.5404052734375,252.0,2021-01-29 15:53:41.314,train
1071,1071,130.7637939453125,80.0,2021-01-29 15:54:41.314,train
1072,1072,79.6399154663086,110.0,2021-01-29 15:55:41.314,train
1073,1073,34.710506439208984,39.0,2021-01-29 15:56:41.314,train
1074,1074,25.083559036254886,22.0,2021-01-29 15:57:41.314,train
1075,1075,82.35651397705078,83.0,2021-01-29 15:58:41.314,train
1076,1076,136.34358215332028,183.0,2021-01-29 15:59:41.314,train
1077,1077,226.7973480224609,148.0,2021-01-29 16:00:41.314,val
1078,1078,172.19454956054688,168.0,2021-01-29 16:01:41.314,val
1079,1079,99.65801239013672,118.0,2021-01-29 16:02:41.314,val
1080,1080,47.1070671081543,49.0,2021-01-29 16:03:41.314,val
1081,1081,14.298088073730467,8.0,2021-01-29 16:04:41.314,val
1082,1082,47.078392028808594,49.0,2021-01-29 16:05:41.314,val
1083,1083,102.35516357421876,140.0,2021-01-29 16:06:41.314,val
1084,1084,230.24331665039062,119.0,2021-01-29 16:07:41.314,val
1085,1085,210.88026428222656,222.0,2021-01-29 16:08:41.314,val
1086,1086,139.99850463867188,138.0,2021-01-29 16:09:41.314,val
1087,1087,91.84513854980469,41.0,2021-01-29 16:10:41.314,val
1088,1088,42.89399337768555,42.0,2021-01-29 16:11:41.314,val
1089,1089,29.26525688171387,5.0,2021-01-29 16:12:41.314,val
1090,1090,86.23799896240234,48.0,2021-01-29 16:13:41.314,val
1091,1091,141.72962951660156,151.0,2021-01-29 16:14:41.314,val
1092,1092,231.2404937744141,108.0,2021-01-29 16:15:41.314,val
1093,1093,177.45704650878906,216.0,2021-01-29 16:16:41.314,val
1094,1094,106.18675231933594,122.0,2021-01-29 16:17:41.314,val
1095,1095,57.02848815917969,45.0,2021-01-29 16:18:41.314,val
1096,1096,23.05186462402344,50.0,2021-01-29 16:19:41.314,val
1097,1097,27.06292724609375,21.0,2021-01-29 16:20:41.314,val
1098,1098,79.20104217529297,32.0,2021-01-29 16:21:41.314,val
1099,1099,148.3383331298828,145.0,2021-01-29 16:22:41.314,val
1100,1100,227.1463165283203,241.0,2021-01-29 16:23:41.314,val
1101,1101,196.1523284912109,126.0,2021-01-29 16:24:41.314,val
1102,1102,113.74293518066406,113.0,2021-01-29 16:25:41.314,val
1103,1103,64.58559417724611,80.0,2021-01-29 16:26:41.314,val
1104,1104,16.359981536865234,18.0,2021-01-29 16:27:41.314,val
1105,1105,8.463261604309082,22.0,2021-01-29 16:28:41.314,val
1106,1106,65.41857147216797,97.0,2021-01-29 16:29:41.314,val
1107,1107,121.5377197265625,173.0,2021-01-29 16:30:41.314,val
1108,1108,224.5657501220703,146.0,2021-01-29 16:31:41.314,val
1109,1109,180.84112548828125,190.0,2021-01-29 16:32:41.314,val
1110,1110,105.67938232421876,65.0,2021-01-29 16:33:41.314,val
1111,1111,54.639808654785156,67.0,2021-01-29 16:34:41.314,val
1112,1112,18.154787063598636,17.0,2021-01-29 16:35:41.314,val
1113,1113,41.36089706420898,19.0,2021-01-29 16:36:41.314,val
1114,1114,108.52165222167969,95.0,2021-01-29 16:37:41.314,val
1115,1115,180.4156188964844,176.0,2021-01-29 16:38:41.314,val
1116,1116,219.36062622070312,145.0,2021-01-29 16:39:41.314,val
1117,1117,144.2699432373047,175.0,2021-01-29 16:40:41.314,val
1118,1118,83.39835357666016,114.0,2021-01-29 16:41:41.314,val
1119,1119,42.035926818847656,59.0,2021-01-29 16:42:41.314,val
1120,1120,12.998915672302244,8.0,2021-01-29 16:43:41.314,val
1121,1121,26.23843002319336,64.0,2021-01-29 16:44:41.314,val
1122,1122,82.25757598876953,132.0,2021-01-29 16:45:41.314,val
1123,1123,207.94204711914062,117.0,2021-01-29 16:46:41.314,val
1124,1124,213.78663635253903,273.0,2021-01-29 16:47:41.314,val
1125,1125,155.74009704589844,88.0,2021-01-29 16:48:41.314,val
1126,1126,96.29962921142578,83.0,2021-01-29 16:49:41.314,val
1127,1127,51.4327621459961,44.0,2021-01-29 16:50:41.314,val
1128,1128,15.45512866973877,28.0,2021-01-29 16:51:41.314,val
1129,1129,49.690185546875,38.0,2021-01-29 16:52:41.314,val
1130,1130,111.52511596679688,140.0,2021-01-29 16:53:41.314,val
1131,1131,214.30465698242188,255.0,2021-01-29 16:54:41.314,val
1132,1132,196.44992065429688,82.0,2021-01-29 16:55:41.314,val
1133,1133,115.0758056640625,140.0,2021-01-29 16:56:41.314,val
1134,1134,67.53939056396484,71.0,2021-01-29 16:57:41.314,val
1135,1135,25.30397605895996,12.0,2021-01-29 16:58:41.314,val
1136,1136,15.456140518188475,32.0,2021-01-29 16:59:41.314,val
1137,1137,76.13202667236328,95.0,2021-01-29 17:00:41.314,val
1138,1138,151.3651123046875,82.0,2021-01-29 17:01:41.314,val
1139,1139,217.82257080078125,262.0,2021-01-29 17:02:41.314,val
1140,1140,193.8882141113281,171.0,2021-01-29 17:03:41.314,val
1141,1141,99.5747299194336,53.0,2021-01-29 17:04:41.314,val
1142,1142,53.47595977783203,73.0,2021-01-29 17:05:41.314,val
1143,1143,25.031024932861328,23.0,2021-01-29 17:06:41.314,val
1144,1144,68.03274536132811,24.0,2021-01-29 17:07:41.314,val
1145,1145,128.62106323242188,84.0,2021-01-29 17:08:41.314,val
1146,1146,207.81964111328125,206.0,2021-01-29 17:09:41.314,val
1147,1147,216.3952789306641,150.0,2021-01-29 17:10:41.314,val
1148,1148,120.24567413330078,202.0,2021-01-29 17:11:41.314,val
1149,1149,61.87178039550781,101.0,2021-01-29 17:12:41.314,val
1150,1150,35.94613647460937,30.0,2021-01-29 17:13:41.314,val
1151,1151,8.490544319152832,28.0,2021-01-29 17:14:41.314,val
1152,1152,47.27847290039063,64.0,2021-01-29 17:15:41.314,val
1153,1153,105.38143157958984,114.0,2021-01-29 17:16:41.314,val
1154,1154,215.71910095214844,113.0,2021-01-29 17:17:41.314,val
1155,1155,213.7021484375,258.0,2021-01-29 17:18:41.314,val
1156,1156,145.72825622558594,129.0,2021-01-29 17:19:41.314,val
1157,1157,94.48400115966795,45.0,2021-01-29 17:20:41.314,val
1158,1158,49.16845321655274,46.0,2021-01-29 17:21:41.314,val
1159,1159,27.573944091796875,51.0,2021-01-29 17:22:41.314,val
1160,1160,74.1452407836914,54.0,2021-01-29 17:23:41.314,val
1161,1161,214.28460693359372,202.0,2021-01-29 17:24:41.314,val
1162,1162,216.9487152099609,249.0,2021-01-29 17:25:41.314,val
1163,1163,164.2314910888672,75.0,2021-01-29 17:26:41.314,val
1164,1164,83.76646423339844,96.0,2021-01-29 17:27:41.314,val
1165,1165,47.591957092285156,40.0,2021-01-29 17:28:41.314,val
1166,1166,49.07366943359375,6.0,2021-01-29 17:29:41.314,val
1167,1167,102.2402572631836,62.0,2021-01-29 17:30:41.314,val
1168,1168,139.33827209472656,117.0,2021-01-29 17:31:41.314,val
1169,1169,225.60459899902344,106.0,2021-01-29 17:32:41.314,val
1170,1170,190.40087890625,245.0,2021-01-29 17:33:41.314,val
1171,1171,120.52589416503906,127.0,2021-01-29 17:34:41.314,val
1172,1172,72.24996948242188,53.0,2021-01-29 17:35:41.314,val
1173,1173,34.909576416015625,46.0,2021-01-29 17:36:41.314,val
1174,1174,18.98562431335449,9.0,2021-01-29 17:37:41.314,val
1175,1175,57.54473876953125,55.0,2021-01-29 17:38:41.314,val
1176,1176,118.5797119140625,133.0,2021-01-29 17:39:41.314,val
1177,1177,224.47250366210938,130.0,2021-01-29 17:40:41.314,val
1178,1178,201.6025390625,225.0,2021-01-29 17:41:41.314,val
1179,1179,120.80374145507812,127.0,2021-01-29 17:42:41.314,val
1180,1180,74.71489715576172,41.0,2021-01-29 17:43:41.314,val
1181,1181,33.75530242919922,54.0,2021-01-29 17:44:41.314,val
1182,1182,29.109039306640625,18.0,2021-01-29 17:45:41.314,val
1183,1183,76.97600555419922,90.0,2021-01-29 17:46:41.314,val
1184,1184,153.9282989501953,100.0,2021-01-29 17:47:41.314,val
1185,1185,230.7576446533203,257.0,2021-01-29 17:48:41.314,val
1186,1186,191.97357177734372,193.0,2021-01-29 17:49:41.314,val
1187,1187,97.45211791992188,64.0,2021-01-29 17:50:41.314,val
1188,1188,55.56719207763672,65.0,2021-01-29 17:51:41.314,val
1189,1189,18.3433837890625,22.0,2021-01-29 17:52:41.314,val
1190,1190,43.13178253173828,10.0,2021-01-29 17:53:41.314,val
1191,1191,106.35456085205078,94.0,2021-01-29 17:54:41.314,val
1192,1192,178.3986358642578,176.0,2021-01-29 17:55:41.314,val
1193,1193,224.23426818847656,142.0,2021-01-29 17:56:41.314,val
1194,1194,151.624755859375,176.0,2021-01-29 17:57:41.314,val
1195,1195,85.46924591064453,56.0,2021-01-29 17:58:41.314,val
1196,1196,43.770790100097656,75.0,2021-01-29 17:59:41.314,val
1197,1197,18.447006225585934,21.0,2021-01-29 18:00:41.314,val
1198,1198,51.684608459472656,12.0,2021-01-29 18:01:41.314,val
1199,1199,119.63458251953124,89.0,2021-01-29 18:02:41.314,val
1200,1200,186.55615234375,187.0,2021-01-29 18:03:41.314,val
1201,1201,219.49447631835938,181.0,2021-01-29 18:04:41.314,test
1202,1202,132.9349365234375,142.0,2021-01-29 18:05:41.314,test
1203,1203,72.69627380371094,103.0,2021-01-29 18:06:41.314,test
1204,1204,31.6348934173584,33.0,2021-01-29 18:07:41.314,test
1205,1205,9.4238920211792,5.0,2021-01-29 18:08:41.314,test
1206,1206,50.113059997558594,57.0,2021-01-29 18:09:41.314,test
1207,1207,94.1852798461914,111.0,2021-01-29 18:10:41.314,test
1208,1208,213.50311279296875,137.0,2021-01-29 18:11:41.314,test
1209,1209,211.3461761474609,263.0,2021-01-29 18:12:41.314,test
1210,1210,141.19395446777344,100.0,2021-01-29 18:13:41.314,test
1211,1211,91.90943908691406,83.0,2021-01-29 18:14:41.314,test
1212,1212,46.34480667114258,35.0,2021-01-29 18:15:41.314,test
1213,1213,12.163604736328125,6.0,2021-01-29 18:16:41.314,test
1214,1214,42.27140426635742,54.0,2021-01-29 18:17:41.314,test
1215,1215,89.5265121459961,129.0,2021-01-29 18:18:41.314,test
1216,1216,215.86883544921875,260.0,2021-01-29 18:19:41.314,test
1217,1217,208.14198303222656,98.0,2021-01-29 18:20:41.314,test
1218,1218,113.15215301513672,138.0,2021-01-29 18:21:41.314,test
1219,1219,70.11902618408203,77.0,2021-01-29 18:22:41.314,test
1220,1220,27.40650749206543,11.0,2021-01-29 18:23:41.314,test
1221,1221,12.501636505126953,27.0,2021-01-29 18:24:41.314,test
1222,1222,66.96013641357422,86.0,2021-01-29 18:25:41.314,test
1223,1223,135.51707458496094,88.0,2021-01-29 18:26:41.314,test
1224,1224,213.25616455078125,244.0,2021-01-29 18:27:41.314,test
1225,1225,204.8051300048828,189.0,2021-01-29 18:28:41.314,test
1226,1226,101.71306610107422,50.0,2021-01-29 18:29:41.314,test
1227,1227,56.48019027709961,86.0,2021-01-29 18:30:41.314,test
1228,1228,25.64239883422852,27.0,2021-01-29 18:31:41.314,test
1229,1229,57.32487869262695,37.0,2021-01-29 18:32:41.314,test
1230,1230,113.21892547607422,150.0,2021-01-29 18:33:41.314,test
1231,1231,216.99984741210938,193.0,2021-01-29 18:34:41.314,test
1232,1232,212.072265625,179.0,2021-01-29 18:35:41.314,test
1233,1233,123.75721740722656,142.0,2021-01-29 18:36:41.314,test
1234,1234,66.34822845458984,57.0,2021-01-29 18:37:41.314,test
1235,1235,24.30753326416016,36.0,2021-01-29 18:38:41.314,test
1236,1236,21.735492706298828,22.0,2021-01-29 18:39:41.314,test
1237,1237,74.9012222290039,53.0,2021-01-29 18:40:41.314,test
1238,1238,164.51451110839844,118.0,2021-01-29 18:41:41.314,test
1239,1239,225.16693115234372,253.0,2021-01-29 18:42:41.314,test
1240,1240,185.59634399414062,153.0,2021-01-29 18:43:41.314,test
1241,1241,100.14788055419922,82.0,2021-01-29 18:44:41.314,test
1242,1242,52.671630859375,80.0,2021-01-29 18:45:41.314,test
1243,1243,12.384285926818848,28.0,2021-01-29 18:46:41.314,test
1244,1244,28.15392303466797,26.0,2021-01-29 18:47:41.314,test
1245,1245,79.92395782470703,90.0,2021-01-29 18:48:41.314,test
1246,1246,166.11143493652344,179.0,2021-01-29 18:49:41.314,test
1247,1247,221.73541259765625,149.0,2021-01-29 18:50:41.314,test
1248,1248,158.9771728515625,182.0,2021-01-29 18:51:41.314,test
1249,1249,92.18489074707031,70.0,2021-01-29 18:52:41.314,test
1250,1250,48.35754013061523,70.0,2021-01-29 18:53:41.314,test
1251,1251,13.596320152282715,19.0,2021-01-29 18:54:41.314,test
1252,1252,38.65403366088867,30.0,2021-01-29 18:55:41.314,test
1253,1253,103.71292877197266,99.0,2021-01-29 18:56:41.314,test
1254,1254,203.3211975097656,210.0,2021-01-29 18:57:41.314,test
1255,1255,220.8995819091797,220.0,2021-01-29 18:58:41.314,test
1256,1256,130.90371704101562,80.0,2021-01-29 18:59:41.314,test
1257,1257,77.49639892578125,100.0,2021-01-29 19:00:41.314,test
1258,1258,27.79619407653809,32.0,2021-01-29 19:01:41.314,test
1259,1259,21.90716361999512,17.0,2021-01-29 19:02:41.314,test
