,Unnamed: 0,prediction,real,time,split
706,706,176.51002502441406,208.0,2021-01-29 09:52:41.314,train
707,707,206.454833984375,147.0,2021-01-29 09:53:41.314,train
708,708,124.63703155517578,203.0,2021-01-29 09:54:41.314,train
709,709,85.14414978027344,109.0,2021-01-29 09:55:41.314,train
710,710,66.72779083251953,47.0,2021-01-29 09:56:41.314,train
711,711,20.586271286010746,5.0,2021-01-29 09:57:41.314,train
712,712,42.93519973754883,46.0,2021-01-29 09:58:41.314,train
713,713,72.34612274169922,141.0,2021-01-29 09:59:41.314,train
714,714,119.01827239990234,116.0,2021-01-29 10:00:41.314,train
715,715,200.24497985839844,238.0,2021-01-29 10:01:41.314,train
716,716,165.7231903076172,138.0,2021-01-29 10:02:41.314,train
717,717,80.85501098632812,41.0,2021-01-29 10:03:41.314,train
718,718,46.03602600097656,39.0,2021-01-29 10:04:41.314,train
719,719,21.488399505615234,17.0,2021-01-29 10:05:41.314,train
720,720,34.995887756347656,47.0,2021-01-29 10:06:41.314,train
721,721,73.4102783203125,152.0,2021-01-29 10:07:41.314,train
722,722,203.7574005126953,253.0,2021-01-29 10:08:41.314,train
723,723,145.53433227539062,165.0,2021-01-29 10:09:41.314,train
724,724,83.62423706054688,53.0,2021-01-29 10:10:41.314,train
725,725,46.28512954711914,69.0,2021-01-29 10:11:41.314,train
726,726,21.00933837890625,28.0,2021-01-29 10:12:41.314,train
727,727,35.88312149047852,36.0,2021-01-29 10:13:41.314,train
728,728,75.22028350830078,144.0,2021-01-29 10:14:41.314,train
729,729,194.6836242675781,242.0,2021-01-29 10:15:41.314,train
730,730,205.6763610839844,100.0,2021-01-29 10:16:41.314,train
731,731,92.3100128173828,130.0,2021-01-29 10:17:41.314,train
732,732,56.732200622558594,74.0,2021-01-29 10:18:41.314,train
733,733,33.33655166625977,19.0,2021-01-29 10:19:41.314,train
734,734,18.06053352355957,15.0,2021-01-29 10:20:41.314,train
735,735,65.58568572998047,82.0,2021-01-29 10:21:41.314,train
736,736,108.75852966308594,84.0,2021-01-29 10:22:41.314,train
737,737,203.87452697753903,251.0,2021-01-29 10:23:41.314,train
738,738,178.26864624023438,204.0,2021-01-29 10:24:41.314,train
739,739,93.72968292236328,66.0,2021-01-29 10:25:41.314,train
740,740,62.63862609863281,83.0,2021-01-29 10:26:41.314,train
741,741,28.45418357849121,20.0,2021-01-29 10:27:41.314,train
742,742,24.42943954467773,27.0,2021-01-29 10:28:41.314,train
743,743,64.89470672607422,96.0,2021-01-29 10:29:41.314,train
744,744,135.97531127929688,192.0,2021-01-29 10:30:41.314,train
745,745,208.58718872070312,138.0,2021-01-29 10:31:41.314,train
746,746,129.84587097167972,202.0,2021-01-29 10:32:41.314,train
747,747,80.05487060546875,100.0,2021-01-29 10:33:41.314,train
748,748,55.75679016113281,30.0,2021-01-29 10:34:41.314,train
749,749,20.9483585357666,14.0,2021-01-29 10:35:41.314,train
750,750,46.843162536621094,70.0,2021-01-29 10:36:41.314,train
751,751,74.02547454833984,56.0,2021-01-29 10:37:41.314,train
752,752,137.09916687011722,205.0,2021-01-29 10:38:41.314,train
753,753,201.58274841308597,229.0,2021-01-29 10:39:41.314,train
754,754,129.63160705566406,75.0,2021-01-29 10:40:41.314,train
755,755,72.53345489501953,103.0,2021-01-29 10:41:41.314,train
756,756,38.151123046875,55.0,2021-01-29 10:42:41.314,train
757,757,14.749786376953125,9.0,2021-01-29 10:43:41.314,train
758,758,52.49261474609375,45.0,2021-01-29 10:44:41.314,train
759,759,105.86833190917969,126.0,2021-01-29 10:45:41.314,train
760,760,204.2558441162109,101.0,2021-01-29 10:46:41.314,train
761,761,201.3275146484375,235.0,2021-01-29 10:47:41.314,train
762,762,101.62590789794922,139.0,2021-01-29 10:48:41.314,train
763,763,63.91999053955078,49.0,2021-01-29 10:49:41.314,train
764,764,35.39447021484375,54.0,2021-01-29 10:50:41.314,train
765,765,15.524327278137207,30.0,2021-01-29 10:51:41.314,train
766,766,49.21044540405274,35.0,2021-01-29 10:52:41.314,train
767,767,79.62197875976562,128.0,2021-01-29 10:53:41.314,train
768,768,200.8235015869141,220.0,2021-01-29 10:54:41.314,train
769,769,200.11236572265625,135.0,2021-01-29 10:55:41.314,train
770,770,86.87062072753906,129.0,2021-01-29 10:56:41.314,train
771,771,51.44095993041992,90.0,2021-01-29 10:57:41.314,train
772,772,31.25978660583496,10.0,2021-01-29 10:58:41.314,train
773,773,14.741065979003904,36.0,2021-01-29 10:59:41.314,train
774,774,61.69793319702149,101.0,2021-01-29 11:00:41.314,train
775,775,104.2629623413086,78.0,2021-01-29 11:01:41.314,train
776,776,192.5911865234375,254.0,2021-01-29 11:02:41.314,train
777,777,186.1257476806641,187.0,2021-01-29 11:03:41.314,train
778,778,85.01068115234375,53.0,2021-01-29 11:04:41.314,train
779,779,61.05765151977539,80.0,2021-01-29 11:05:41.314,train
780,780,28.06401824951172,25.0,2021-01-29 11:06:41.314,train
781,781,31.024471282958984,26.0,2021-01-29 11:07:41.314,train
782,782,73.24949645996094,93.0,2021-01-29 11:08:41.314,train
783,783,166.6305389404297,181.0,2021-01-29 11:09:41.314,train
784,784,205.17433166503903,264.0,2021-01-29 11:10:41.314,train
785,785,90.26691436767578,74.0,2021-01-29 11:11:41.314,train
786,786,65.55693817138672,111.0,2021-01-29 11:12:41.314,train
787,787,42.9237060546875,51.0,2021-01-29 11:13:41.314,train
788,788,16.04400634765625,9.0,2021-01-29 11:14:41.314,train
789,789,55.40143203735352,60.0,2021-01-29 11:15:41.314,train
790,790,107.23757934570312,130.0,2021-01-29 11:16:41.314,train
791,791,205.06588745117188,102.0,2021-01-29 11:17:41.314,train
792,792,195.6815643310547,233.0,2021-01-29 11:18:41.314,train
793,793,90.56804656982422,98.0,2021-01-29 11:19:41.314,train
794,794,56.73169326782226,81.0,2021-01-29 11:20:41.314,train
795,795,32.38717269897461,57.0,2021-01-29 11:21:41.314,train
796,796,14.965093612670898,17.0,2021-01-29 11:22:41.314,train
797,797,54.09078979492188,0.0,2021-01-29 11:23:41.314,train
798,798,87.90117645263672,0.0,2021-01-29 11:24:41.314,train
799,799,182.8064727783203,0.0,2021-01-29 11:25:41.314,train
800,800,207.3702545166016,0.0,2021-01-29 11:26:41.314,train
801,801,116.479736328125,0.0,2021-01-29 11:27:41.314,train
802,802,106.93563079833984,0.0,2021-01-29 11:28:41.314,train
803,803,132.47021484375,0.0,2021-01-29 11:29:41.314,train
804,804,17.633028030395508,0.0,2021-01-29 11:30:41.314,train
805,805,12.152682304382324,0.0,2021-01-29 11:31:41.314,train
806,806,10.567931175231934,0.0,2021-01-29 11:32:41.314,train
807,807,9.239459037780762,0.0,2021-01-29 11:33:41.314,train
808,808,6.538187503814697,0.0,2021-01-29 11:34:41.314,train
809,809,3.808042764663696,0.0,2021-01-29 11:35:41.314,train
810,810,0.9815664887428284,0.0,2021-01-29 11:36:41.314,train
811,811,-1.5515151023864746,0.0,2021-01-29 11:37:41.314,train
812,812,-4.401001930236816,0.0,2021-01-29 11:38:41.314,train
813,813,-5.499938011169434,0.0,2021-01-29 11:39:41.314,train
814,814,-5.950847148895264,0.0,2021-01-29 11:40:41.314,train
815,815,-8.770694732666017,0.0,2021-01-29 11:41:41.314,train
816,816,10.98708724975586,0.0,2021-01-29 11:42:41.314,train
817,817,43.00897216796875,0.0,2021-01-29 11:43:41.314,train
818,818,5.672188758850098,0.0,2021-01-29 11:44:41.314,train
819,819,9.603816032409668,0.0,2021-01-29 11:45:41.314,train
820,820,15.54012680053711,0.0,2021-01-29 11:46:41.314,train
821,821,16.188554763793945,0.0,2021-01-29 11:47:41.314,train
822,822,15.15283489227295,0.0,2021-01-29 11:48:41.314,train
823,823,11.569018363952635,0.0,2021-01-29 11:49:41.314,train
824,824,8.338617324829103,0.0,2021-01-29 11:50:41.314,train
825,825,5.749650478363037,0.0,2021-01-29 11:51:41.314,train
826,826,3.4385128021240234,0.0,2021-01-29 11:52:41.314,train
827,827,3.982816457748413,0.0,2021-01-29 11:53:41.314,train
828,828,7.814591884613037,0.0,2021-01-29 11:54:41.314,train
829,829,12.352825164794922,0.0,2021-01-29 11:55:41.314,train
830,830,14.65316677093506,0.0,2021-01-29 11:56:41.314,train
831,831,16.583984375,0.0,2021-01-29 11:57:41.314,train
832,832,16.474151611328125,0.0,2021-01-29 11:58:41.314,train
833,833,12.360650062561035,0.0,2021-01-29 11:59:41.314,train
834,834,8.165898323059082,0.0,2021-01-29 12:00:41.314,train
835,835,5.158853054046631,0.0,2021-01-29 12:01:41.314,train
836,836,3.4966955184936523,0.0,2021-01-29 12:02:41.314,train
837,837,3.0567049980163574,0.0,2021-01-29 12:03:41.314,train
838,838,2.1759967803955083,0.0,2021-01-29 12:04:41.314,train
839,839,0.6583557724952698,0.0,2021-01-29 12:05:41.314,train
840,840,-0.3837340474128723,0.0,2021-01-29 12:06:41.314,train
841,841,-1.0869207382202148,0.0,2021-01-29 12:07:41.314,train
842,842,-2.0458197593688965,0.0,2021-01-29 12:08:41.314,train
843,843,-2.6852738857269287,0.0,2021-01-29 12:09:41.314,train
844,844,-3.4742345809936523,0.0,2021-01-29 12:10:41.314,train
845,845,-3.839301347732544,0.0,2021-01-29 12:11:41.314,train
846,846,-4.2113986015319815,0.0,2021-01-29 12:12:41.314,train
847,847,-4.947834968566895,0.0,2021-01-29 12:13:41.314,train
848,848,-5.407885074615479,0.0,2021-01-29 12:14:41.314,train
849,849,-4.478241443634033,0.0,2021-01-29 12:15:41.314,train
850,850,-4.937952995300293,0.0,2021-01-29 12:16:41.314,train
851,851,-5.2862582206726065,0.0,2021-01-29 12:17:41.314,train
852,852,-5.627901077270508,0.0,2021-01-29 12:18:41.314,train
853,853,-5.735771179199219,0.0,2021-01-29 12:19:41.314,train
854,854,-6.118825435638428,0.0,2021-01-29 12:20:41.314,train
855,855,-6.345486640930176,0.0,2021-01-29 12:21:41.314,train
856,856,-6.806751728057861,0.0,2021-01-29 12:22:41.314,train
857,857,-3.4822618961334233,0.0,2021-01-29 12:23:41.314,train
858,858,-2.9076123237609863,0.0,2021-01-29 12:24:41.314,train
859,859,-2.0589232444763184,0.0,2021-01-29 12:25:41.314,train
860,860,-0.6766189336776733,0.0,2021-01-29 12:26:41.314,train
861,861,0.0,0.0,2021-01-29 12:27:41.314,train
862,862,0.0,0.0,2021-01-29 12:28:41.314,train
863,863,0.0,0.0,2021-01-29 12:29:41.314,train
864,864,0.0,0.0,2021-01-29 12:30:41.314,train
865,865,0.0,0.0,2021-01-29 12:31:41.314,train
866,866,0.0,0.0,2021-01-29 12:32:41.314,train
867,867,0.0,0.0,2021-01-29 12:33:41.314,train
868,868,0.0,0.0,2021-01-29 12:34:41.314,train
869,869,0.0,0.0,2021-01-29 12:35:41.314,train
870,870,0.0,0.0,2021-01-29 12:36:41.314,train
871,871,0.0,0.0,2021-01-29 12:37:41.314,train
872,872,0.0,0.0,2021-01-29 12:38:41.314,train
873,873,0.0,0.0,2021-01-29 12:39:41.314,train
874,874,0.0,0.0,2021-01-29 12:40:41.314,train
875,875,0.0,0.0,2021-01-29 12:41:41.314,train
876,876,0.0,0.0,2021-01-29 12:42:41.314,train
877,877,0.0,0.0,2021-01-29 12:43:41.314,train
878,878,0.0,0.0,2021-01-29 12:44:41.314,train
879,879,0.0,0.0,2021-01-29 12:45:41.314,train
880,880,0.0,0.0,2021-01-29 12:46:41.314,train
881,881,0.0,0.0,2021-01-29 12:47:41.314,train
882,882,0.0,0.0,2021-01-29 12:48:41.314,train
883,883,0.0,0.0,2021-01-29 12:49:41.314,train
884,884,0.0,0.0,2021-01-29 12:50:41.314,train
885,885,0.0,0.0,2021-01-29 12:51:41.314,train
886,886,0.0,0.0,2021-01-29 12:52:41.314,train
887,887,0.0,0.0,2021-01-29 12:53:41.314,train
888,888,0.0,0.0,2021-01-29 12:54:41.314,train
889,889,0.0,0.0,2021-01-29 12:55:41.314,train
890,890,0.0,0.0,2021-01-29 12:56:41.314,train
891,891,0.0,0.0,2021-01-29 12:57:41.314,train
892,892,0.0,0.0,2021-01-29 12:58:41.314,train
893,893,0.0,0.0,2021-01-29 12:59:41.314,train
894,894,0.0,0.0,2021-01-29 13:00:41.314,train
895,895,0.0,0.0,2021-01-29 13:01:41.314,train
896,896,0.0,0.0,2021-01-29 13:02:41.314,train
897,897,0.0,0.0,2021-01-29 13:03:41.314,train
898,898,0.0,0.0,2021-01-29 13:04:41.314,train
899,899,0.0,0.0,2021-01-29 13:05:41.314,train
900,900,0.0,0.0,2021-01-29 13:06:41.314,train
901,901,0.0,0.0,2021-01-29 13:07:41.314,train
902,902,0.0,0.0,2021-01-29 13:08:41.314,train
903,903,0.0,0.0,2021-01-29 13:09:41.314,train
904,904,0.0,0.0,2021-01-29 13:10:41.314,train
905,905,0.0,0.0,2021-01-29 13:11:41.314,train
906,906,0.0,0.0,2021-01-29 13:12:41.314,train
907,907,0.0,0.0,2021-01-29 13:13:41.314,train
908,908,0.0,0.0,2021-01-29 13:14:41.314,train
909,909,0.0,0.0,2021-01-29 13:15:41.314,train
910,910,0.0,0.0,2021-01-29 13:16:41.314,train
911,911,0.0,0.0,2021-01-29 13:17:41.314,train
912,912,0.0,0.0,2021-01-29 13:18:41.314,train
913,913,0.0,0.0,2021-01-29 13:19:41.314,train
914,914,0.0,0.0,2021-01-29 13:20:41.314,train
915,915,0.0,0.0,2021-01-29 13:21:41.314,train
916,916,0.0,0.0,2021-01-29 13:22:41.314,train
917,917,0.0,0.0,2021-01-29 13:23:41.314,train
918,918,0.0,0.0,2021-01-29 13:24:41.314,train
919,919,0.0,0.0,2021-01-29 13:25:41.314,train
920,920,0.0,0.0,2021-01-29 13:26:41.314,train
921,921,0.0,0.0,2021-01-29 13:27:41.314,train
922,922,0.0,0.0,2021-01-29 13:28:41.314,train
923,923,0.0,0.0,2021-01-29 13:29:41.314,train
924,924,0.0,0.0,2021-01-29 13:30:41.314,train
925,925,0.0,0.0,2021-01-29 13:31:41.314,train
926,926,0.0,0.0,2021-01-29 13:32:41.314,train
927,927,0.0,0.0,2021-01-29 13:33:41.314,train
928,928,0.0,0.0,2021-01-29 13:34:41.314,train
929,929,0.0,0.0,2021-01-29 13:35:41.314,train
930,930,0.0,0.0,2021-01-29 13:36:41.314,train
931,931,0.0,0.0,2021-01-29 13:37:41.314,train
932,932,0.0,0.0,2021-01-29 13:38:41.314,train
933,933,0.0,55.0,2021-01-29 13:39:41.314,train
934,934,0.0,151.0,2021-01-29 13:40:41.314,train
935,935,0.0,136.0,2021-01-29 13:41:41.314,train
936,936,0.0,251.0,2021-01-29 13:42:41.314,train
937,937,0.0,142.0,2021-01-29 13:43:41.314,train
938,938,-0.11174546182155608,68.0,2021-01-29 13:44:41.314,train
939,939,1.716845154762268,20.0,2021-01-29 13:45:41.314,train
940,940,2.7187492847442627,22.0,2021-01-29 13:46:41.314,train
941,941,4.9909186363220215,73.0,2021-01-29 13:47:41.314,train
942,942,8.070032119750978,91.0,2021-01-29 13:48:41.314,train
943,943,60.74009704589844,263.0,2021-01-29 13:49:41.314,train
944,944,78.01258850097656,162.0,2021-01-29 13:50:41.314,train
945,945,69.49779510498047,66.0,2021-01-29 13:51:41.314,train
946,946,6.130696773529053,70.0,2021-01-29 13:52:41.314,train
947,947,4.2723608016967765,18.0,2021-01-29 13:53:41.314,train
948,948,4.987214088439941,25.0,2021-01-29 13:54:41.314,train
949,949,0.2691646218299866,103.0,2021-01-29 13:55:41.314,train
950,950,94.3672103881836,202.0,2021-01-29 13:56:41.314,train
951,951,94.47344970703124,135.0,2021-01-29 13:57:41.314,train
952,952,85.60865783691406,193.0,2021-01-29 13:58:41.314,train
953,953,40.88782501220703,108.0,2021-01-29 13:59:41.314,train
954,954,14.62806797027588,40.0,2021-01-29 14:00:41.314,train
955,955,8.311573028564451,10.0,2021-01-29 14:01:41.314,train
956,956,-16.491691589355472,58.0,2021-01-29 14:02:41.314,train
957,957,11.641396522521973,139.0,2021-01-29 14:03:41.314,train
958,958,148.6942901611328,111.0,2021-01-29 14:04:41.314,train
959,959,135.70008850097656,249.0,2021-01-29 14:05:41.314,train
960,960,106.29542541503906,129.0,2021-01-29 14:06:41.314,train
961,961,35.04923629760742,52.0,2021-01-29 14:07:41.314,train
962,962,18.29290580749512,38.0,2021-01-29 14:08:41.314,train
963,963,2.650644063949585,35.0,2021-01-29 14:09:41.314,train
964,964,3.161247730255127,46.0,2021-01-29 14:10:41.314,train
965,965,99.25160217285156,120.0,2021-01-29 14:11:41.314,train
966,966,153.17312622070312,235.0,2021-01-29 14:12:41.314,train
967,967,168.09507751464844,107.0,2021-01-29 14:13:41.314,train
968,968,153.23411560058594,143.0,2021-01-29 14:14:41.314,train
969,969,89.27411651611328,78.0,2021-01-29 14:15:41.314,train
970,970,34.668258666992195,27.0,2021-01-29 14:16:41.314,train
971,971,8.335831642150879,17.0,2021-01-29 14:17:41.314,train
972,972,32.468902587890625,90.0,2021-01-29 14:18:41.314,train
973,973,180.87120056152344,183.0,2021-01-29 14:19:41.314,train
974,974,185.29800415039062,137.0,2021-01-29 14:20:41.314,train
975,975,162.4109344482422,191.0,2021-01-29 14:21:41.314,train
976,976,72.84749603271484,98.0,2021-01-29 14:22:41.314,train
977,977,43.45879364013672,22.0,2021-01-29 14:23:41.314,train
978,978,-4.149128437042236,22.0,2021-01-29 14:24:41.314,train
979,979,30.37061309814453,43.0,2021-01-29 14:25:41.314,train
980,980,73.02855682373047,63.0,2021-01-29 14:26:41.314,train
981,981,185.55503845214844,188.0,2021-01-29 14:27:41.314,train
982,982,199.0552673339844,135.0,2021-01-29 14:28:41.314,train
983,983,87.92255401611328,176.0,2021-01-29 14:29:41.314,train
984,984,42.63520431518555,103.0,2021-01-29 14:30:41.314,train
985,985,18.01907539367676,50.0,2021-01-29 14:31:41.314,train
986,986,-4.40709924697876,10.0,2021-01-29 14:32:41.314,train
987,987,57.70914840698242,51.0,2021-01-29 14:33:41.314,train
988,988,89.86278533935547,58.0,2021-01-29 14:34:41.314,train
989,989,178.32432556152344,194.0,2021-01-29 14:35:41.314,train
990,990,206.8593597412109,279.0,2021-01-29 14:36:41.314,train
991,991,156.17477416992188,84.0,2021-01-29 14:37:41.314,train
992,992,69.33152008056639,96.0,2021-01-29 14:38:41.314,train
993,993,34.60260772705078,40.0,2021-01-29 14:39:41.314,train
994,994,13.50119686126709,6.0,2021-01-29 14:40:41.314,train
995,995,44.95485305786133,57.0,2021-01-29 14:41:41.314,train
996,996,112.99103546142578,122.0,2021-01-29 14:42:41.314,train
997,997,219.0985565185547,180.0,2021-01-29 14:43:41.314,train
998,998,208.7900848388672,171.0,2021-01-29 14:44:41.314,train
999,999,125.99900817871094,135.0,2021-01-29 14:45:41.314,train
1000,1000,68.41985321044922,77.0,2021-01-29 14:46:41.314,train
1001,1001,37.86137771606445,23.0,2021-01-29 14:47:41.314,train
1002,1002,14.490633010864258,23.0,2021-01-29 14:48:41.314,train
1003,1003,64.10405731201172,100.0,2021-01-29 14:49:41.314,train
1004,1004,120.62374877929688,94.0,2021-01-29 14:50:41.314,train
1005,1005,212.29161071777344,230.0,2021-01-29 14:51:41.314,train
1006,1006,187.0663146972656,203.0,2021-01-29 14:52:41.314,train
1007,1007,109.24796295166016,66.0,2021-01-29 14:53:41.314,train
1008,1008,72.88859558105469,62.0,2021-01-29 14:54:41.314,train
1009,1009,37.93423080444336,20.0,2021-01-29 14:55:41.314,train
1010,1010,21.52334976196289,13.0,2021-01-29 14:56:41.314,train
1011,1011,80.38835906982422,94.0,2021-01-29 14:57:41.314,train
1012,1012,196.8642120361328,198.0,2021-01-29 14:58:41.314,train
1013,1013,217.81349182128903,145.0,2021-01-29 14:59:41.314,train
1014,1014,137.19245910644528,161.0,2021-01-29 15:00:41.314,train
1015,1015,97.15347290039062,98.0,2021-01-29 15:01:41.314,train
1016,1016,54.6551399230957,38.0,2021-01-29 15:02:41.314,train
1017,1017,13.74578857421875,26.0,2021-01-29 15:03:41.314,train
1018,1018,63.681129455566406,46.0,2021-01-29 15:04:41.314,train
1019,1019,107.8465805053711,63.0,2021-01-29 15:05:41.314,train
1020,1020,195.63079833984372,196.0,2021-01-29 15:06:41.314,train
1021,1021,214.14488220214844,221.0,2021-01-29 15:07:41.314,train
1022,1022,132.37806701660156,108.0,2021-01-29 15:08:41.314,train
1023,1023,78.51741790771484,106.0,2021-01-29 15:09:41.314,train
1024,1024,40.83025360107422,60.0,2021-01-29 15:10:41.314,train
1025,1025,16.042980194091793,8.0,2021-01-29 15:11:41.314,train
1026,1026,49.03395462036133,75.0,2021-01-29 15:12:41.314,train
1027,1027,108.1715087890625,138.0,2021-01-29 15:13:41.314,train
1028,1028,196.3472595214844,118.0,2021-01-29 15:14:41.314,train
1029,1029,217.22457885742188,244.0,2021-01-29 15:15:41.314,train
1030,1030,143.60610961914062,77.0,2021-01-29 15:16:41.314,train
1031,1031,77.6004409790039,98.0,2021-01-29 15:17:41.314,train
1032,1032,41.05780792236328,50.0,2021-01-29 15:18:41.314,train
1033,1033,18.166662216186523,18.0,2021-01-29 15:19:41.314,train
1034,1034,48.22681045532226,40.0,2021-01-29 15:20:41.314,train
1035,1035,114.81407928466795,126.0,2021-01-29 15:21:41.314,train
1036,1036,214.0921630859375,250.0,2021-01-29 15:22:41.314,train
1037,1037,214.18197631835938,109.0,2021-01-29 15:23:41.314,train
1038,1038,119.21619415283205,141.0,2021-01-29 15:24:41.314,train
1039,1039,68.71524047851561,81.0,2021-01-29 15:25:41.314,train
1040,1040,38.35998153686523,10.0,2021-01-29 15:26:41.314,train
1041,1041,14.110431671142578,13.0,2021-01-29 15:27:41.314,train
1042,1042,68.33866882324219,92.0,2021-01-29 15:28:41.314,train
1043,1043,129.44889831542972,72.0,2021-01-29 15:29:41.314,train
1044,1044,209.6577606201172,245.0,2021-01-29 15:30:41.314,train
1045,1045,174.16468811035156,171.0,2021-01-29 15:31:41.314,train
1046,1046,112.1202621459961,106.0,2021-01-29 15:32:41.314,train
1047,1047,74.34371948242188,36.0,2021-01-29 15:33:41.314,train
1048,1048,38.26792907714844,42.0,2021-01-29 15:34:41.314,train
1049,1049,22.23688316345215,56.0,2021-01-29 15:35:41.314,train
1050,1050,94.35407257080078,133.0,2021-01-29 15:36:41.314,train
1051,1051,214.43246459960938,251.0,2021-01-29 15:37:41.314,train
1052,1052,201.154296875,199.0,2021-01-29 15:38:41.314,train
1053,1053,96.9795379638672,59.0,2021-01-29 15:39:41.314,train
1054,1054,62.0175666809082,74.0,2021-01-29 15:40:41.314,train
1055,1055,39.15396118164063,24.0,2021-01-29 15:41:41.314,train
1056,1056,21.28842544555664,29.0,2021-01-29 15:42:41.314,train
1057,1057,75.47409057617188,92.0,2021-01-29 15:43:41.314,train
1058,1058,200.7477569580078,206.0,2021-01-29 15:44:41.314,train
1059,1059,220.92486572265625,138.0,2021-01-29 15:45:41.314,train
1060,1060,133.63764953613278,189.0,2021-01-29 15:46:41.314,train
1061,1061,85.12504577636719,112.0,2021-01-29 15:47:41.314,train
1062,1062,49.3447265625,40.0,2021-01-29 15:48:41.314,train
1063,1063,16.032949447631836,19.0,2021-01-29 15:49:41.314,train
1064,1064,74.86113739013672,67.0,2021-01-29 15:50:41.314,train
1065,1065,104.40357971191406,59.0,2021-01-29 15:51:41.314,train
1066,1066,191.51205444335938,207.0,2021-01-29 15:52:41.314,train
1067,1067,219.71304321289062,252.0,2021-01-29 15:53:41.314,train
1068,1068,143.4636688232422,80.0,2021-01-29 15:54:41.314,train
1069,1069,82.99837493896484,110.0,2021-01-29 15:55:41.314,train
1070,1070,39.95573425292969,39.0,2021-01-29 15:56:41.314,train
1071,1071,15.433032989501953,22.0,2021-01-29 15:57:41.314,train
1072,1072,60.91348648071289,83.0,2021-01-29 15:58:41.314,train
1073,1073,149.736328125,183.0,2021-01-29 15:59:41.314,train
1074,1074,225.8618621826172,148.0,2021-01-29 16:00:41.314,val
1075,1075,200.15640258789062,168.0,2021-01-29 16:01:41.314,val
1076,1076,122.71646881103516,118.0,2021-01-29 16:02:41.314,val
1077,1077,72.9142837524414,49.0,2021-01-29 16:03:41.314,val
1078,1078,24.9295597076416,8.0,2021-01-29 16:04:41.314,val
1079,1079,56.49588012695313,49.0,2021-01-29 16:05:41.314,val
1080,1080,118.5197296142578,140.0,2021-01-29 16:06:41.314,val
1081,1081,211.15887451171875,119.0,2021-01-29 16:07:41.314,val
1082,1082,223.70774841308597,222.0,2021-01-29 16:08:41.314,val
1083,1083,129.77836608886722,138.0,2021-01-29 16:09:41.314,val
1084,1084,75.63948822021484,41.0,2021-01-29 16:10:41.314,val
1085,1085,42.35148620605469,42.0,2021-01-29 16:11:41.314,val
1086,1086,19.486183166503906,5.0,2021-01-29 16:12:41.314,val
1087,1087,52.58139038085938,48.0,2021-01-29 16:13:41.314,val
1088,1088,102.24324798583984,151.0,2021-01-29 16:14:41.314,val
1089,1089,223.38575744628903,108.0,2021-01-29 16:15:41.314,val
1090,1090,152.90191650390625,216.0,2021-01-29 16:16:41.314,val
1091,1091,101.78680419921876,122.0,2021-01-29 16:17:41.314,val
1092,1092,54.02289199829102,45.0,2021-01-29 16:18:41.314,val
1093,1093,26.4333553314209,50.0,2021-01-29 16:19:41.314,val
1094,1094,41.46902465820313,21.0,2021-01-29 16:20:41.314,val
1095,1095,83.462158203125,32.0,2021-01-29 16:21:41.314,val
1096,1096,141.4922332763672,145.0,2021-01-29 16:22:41.314,val
1097,1097,220.17025756835938,241.0,2021-01-29 16:23:41.314,val
1098,1098,183.37353515625,126.0,2021-01-29 16:24:41.314,val
1099,1099,114.45452117919922,113.0,2021-01-29 16:25:41.314,val
1100,1100,76.41291809082031,80.0,2021-01-29 16:26:41.314,val
1101,1101,37.50586318969727,18.0,2021-01-29 16:27:41.314,val
1102,1102,14.483953475952148,22.0,2021-01-29 16:28:41.314,val
1103,1103,72.98307037353516,97.0,2021-01-29 16:29:41.314,val
1104,1104,161.52005004882812,173.0,2021-01-29 16:30:41.314,val
1105,1105,212.0835876464844,146.0,2021-01-29 16:31:41.314,val
1106,1106,200.49327087402344,190.0,2021-01-29 16:32:41.314,val
1107,1107,129.70271301269528,65.0,2021-01-29 16:33:41.314,val
1108,1108,82.86006927490234,67.0,2021-01-29 16:34:41.314,val
1109,1109,32.53573608398437,17.0,2021-01-29 16:35:41.314,val
1110,1110,45.57923126220703,19.0,2021-01-29 16:36:41.314,val
1111,1111,91.63633728027344,95.0,2021-01-29 16:37:41.314,val
1112,1112,205.88442993164062,176.0,2021-01-29 16:38:41.314,val
1113,1113,221.53509521484372,145.0,2021-01-29 16:39:41.314,val
1114,1114,127.42479705810548,175.0,2021-01-29 16:40:41.314,val
1115,1115,87.84271240234375,114.0,2021-01-29 16:41:41.314,val
1116,1116,52.20979690551758,59.0,2021-01-29 16:42:41.314,val
1117,1117,16.98199462890625,8.0,2021-01-29 16:43:41.314,val
1118,1118,64.29934692382811,64.0,2021-01-29 16:44:41.314,val
1119,1119,98.70775604248048,132.0,2021-01-29 16:45:41.314,val
1120,1120,174.1409149169922,117.0,2021-01-29 16:46:41.314,val
1121,1121,213.978759765625,273.0,2021-01-29 16:47:41.314,val
1122,1122,153.78233337402344,88.0,2021-01-29 16:48:41.314,val
1123,1123,82.34483337402344,83.0,2021-01-29 16:49:41.314,val
1124,1124,45.83065795898438,44.0,2021-01-29 16:50:41.314,val
1125,1125,23.93398666381836,28.0,2021-01-29 16:51:41.314,val
1126,1126,39.21011352539063,38.0,2021-01-29 16:52:41.314,val
1127,1127,101.43839263916016,140.0,2021-01-29 16:53:41.314,val
1128,1128,206.3619384765625,255.0,2021-01-29 16:54:41.314,val
1129,1129,214.8593292236328,82.0,2021-01-29 16:55:41.314,val
1130,1130,122.63233184814452,140.0,2021-01-29 16:56:41.314,val
1131,1131,73.5870361328125,71.0,2021-01-29 16:57:41.314,val
1132,1132,40.08918762207031,12.0,2021-01-29 16:58:41.314,val
1133,1133,15.499186515808105,32.0,2021-01-29 16:59:41.314,val
1134,1134,79.17056274414062,95.0,2021-01-29 17:00:41.314,val
1135,1135,154.04049682617188,82.0,2021-01-29 17:01:41.314,val
1136,1136,214.7445373535156,262.0,2021-01-29 17:02:41.314,val
1137,1137,150.0642547607422,171.0,2021-01-29 17:03:41.314,val
1138,1138,92.54898834228516,53.0,2021-01-29 17:04:41.314,val
1139,1139,67.03194427490234,73.0,2021-01-29 17:05:41.314,val
1140,1140,35.129981994628906,23.0,2021-01-29 17:06:41.314,val
1141,1141,29.55999565124512,24.0,2021-01-29 17:07:41.314,val
1142,1142,92.73590087890624,84.0,2021-01-29 17:08:41.314,val
1143,1143,220.1550750732422,206.0,2021-01-29 17:09:41.314,val
1144,1144,195.5102386474609,150.0,2021-01-29 17:10:41.314,val
1145,1145,108.18659973144531,202.0,2021-01-29 17:11:41.314,val
1146,1146,74.31140899658203,101.0,2021-01-29 17:12:41.314,val
1147,1147,43.11702728271485,30.0,2021-01-29 17:13:41.314,val
1148,1148,16.500747680664062,28.0,2021-01-29 17:14:41.314,val
1149,1149,84.77554321289062,64.0,2021-01-29 17:15:41.314,val
1150,1150,101.5746078491211,114.0,2021-01-29 17:16:41.314,val
1151,1151,187.7152099609375,113.0,2021-01-29 17:17:41.314,val
1152,1152,214.3697052001953,258.0,2021-01-29 17:18:41.314,val
1153,1153,144.47946166992188,129.0,2021-01-29 17:19:41.314,val
1154,1154,83.5835189819336,45.0,2021-01-29 17:20:41.314,val
1155,1155,44.49661636352539,46.0,2021-01-29 17:21:41.314,val
1156,1156,19.184080123901367,51.0,2021-01-29 17:22:41.314,val
1157,1157,42.18857192993164,54.0,2021-01-29 17:23:41.314,val
1158,1158,98.94364166259766,202.0,2021-01-29 17:24:41.314,val
1159,1159,223.5711212158203,249.0,2021-01-29 17:25:41.314,val
1160,1160,176.79469299316406,75.0,2021-01-29 17:26:41.314,val
1161,1161,86.06707763671875,96.0,2021-01-29 17:27:41.314,val
1162,1162,48.48735046386719,40.0,2021-01-29 17:28:41.314,val
1163,1163,24.19671058654785,6.0,2021-01-29 17:29:41.314,val
1164,1164,67.66627502441406,62.0,2021-01-29 17:30:41.314,val
1165,1165,173.56639099121094,117.0,2021-01-29 17:31:41.314,val
1166,1166,226.30865478515625,106.0,2021-01-29 17:32:41.314,val
1167,1167,176.5152587890625,245.0,2021-01-29 17:33:41.314,val
1168,1168,102.7812042236328,127.0,2021-01-29 17:34:41.314,val
1169,1169,57.47914123535156,53.0,2021-01-29 17:35:41.314,val
1170,1170,34.33687973022461,46.0,2021-01-29 17:36:41.314,val
1171,1171,26.008331298828125,9.0,2021-01-29 17:37:41.314,val
1172,1172,68.82666778564453,55.0,2021-01-29 17:38:41.314,val
1173,1173,118.94217681884766,133.0,2021-01-29 17:39:41.314,val
1174,1174,223.4409484863281,130.0,2021-01-29 17:40:41.314,val
1175,1175,210.6962738037109,225.0,2021-01-29 17:41:41.314,val
1176,1176,114.9111785888672,127.0,2021-01-29 17:42:41.314,val
1177,1177,61.519126892089844,41.0,2021-01-29 17:43:41.314,val
1178,1178,36.89812850952149,54.0,2021-01-29 17:44:41.314,val
1179,1179,22.71423149108887,18.0,2021-01-29 17:45:41.314,val
1180,1180,63.92168045043945,90.0,2021-01-29 17:46:41.314,val
1181,1181,114.620849609375,100.0,2021-01-29 17:47:41.314,val
1182,1182,221.9181060791016,257.0,2021-01-29 17:48:41.314,val
1183,1183,173.2086181640625,193.0,2021-01-29 17:49:41.314,val
1184,1184,91.35771942138672,64.0,2021-01-29 17:50:41.314,val
1185,1185,60.87631225585938,65.0,2021-01-29 17:51:41.314,val
1186,1186,32.495895385742195,22.0,2021-01-29 17:52:41.314,val
1187,1187,34.04207229614258,10.0,2021-01-29 17:53:41.314,val
1188,1188,88.0508041381836,94.0,2021-01-29 17:54:41.314,val
1189,1189,210.23117065429688,176.0,2021-01-29 17:55:41.314,val
1190,1190,224.2025451660156,142.0,2021-01-29 17:56:41.314,val
1191,1191,132.79930114746094,176.0,2021-01-29 17:57:41.314,val
1192,1192,86.0997543334961,56.0,2021-01-29 17:58:41.314,val
1193,1193,51.32419967651367,75.0,2021-01-29 17:59:41.314,val
1194,1194,19.057321548461914,21.0,2021-01-29 18:00:41.314,val
1195,1195,61.61965560913086,12.0,2021-01-29 18:01:41.314,val
1196,1196,98.9212875366211,89.0,2021-01-29 18:02:41.314,val
1197,1197,218.8424224853516,187.0,2021-01-29 18:03:41.314,val
1198,1198,221.00177001953125,181.0,2021-01-29 18:04:41.314,test
1199,1199,113.08020782470705,142.0,2021-01-29 18:05:41.314,test
1200,1200,83.38867950439453,103.0,2021-01-29 18:06:41.314,test
1201,1201,47.88824462890625,33.0,2021-01-29 18:07:41.314,test
1202,1202,16.172517776489258,5.0,2021-01-29 18:08:41.314,test
1203,1203,65.24250793457031,57.0,2021-01-29 18:09:41.314,test
1204,1204,116.78401184082031,111.0,2021-01-29 18:10:41.314,test
1205,1205,201.16603088378903,137.0,2021-01-29 18:11:41.314,test
1206,1206,215.783935546875,263.0,2021-01-29 18:12:41.314,test
1207,1207,134.85807800292972,100.0,2021-01-29 18:13:41.314,test
1208,1208,79.49776458740234,83.0,2021-01-29 18:14:41.314,test
1209,1209,43.675594329833984,35.0,2021-01-29 18:15:41.314,test
1210,1210,19.29659843444824,6.0,2021-01-29 18:16:41.314,test
1211,1211,39.08279418945313,54.0,2021-01-29 18:17:41.314,test
1212,1212,93.63570404052734,129.0,2021-01-29 18:18:41.314,test
1213,1213,192.3131561279297,260.0,2021-01-29 18:19:41.314,test
1214,1214,217.9965057373047,98.0,2021-01-29 18:20:41.314,test
1215,1215,129.46771240234378,138.0,2021-01-29 18:21:41.314,test
1216,1216,74.58203887939453,77.0,2021-01-29 18:22:41.314,test
1217,1217,40.17938995361328,11.0,2021-01-29 18:23:41.314,test
1218,1218,15.656615257263185,27.0,2021-01-29 18:24:41.314,test
1219,1219,70.51580047607422,86.0,2021-01-29 18:25:41.314,test
1220,1220,145.0980224609375,88.0,2021-01-29 18:26:41.314,test
1221,1221,214.75868225097656,244.0,2021-01-29 18:27:41.314,test
1222,1222,170.83998107910156,189.0,2021-01-29 18:28:41.314,test
1223,1223,98.65200805664062,50.0,2021-01-29 18:29:41.314,test
1224,1224,69.91207885742189,86.0,2021-01-29 18:30:41.314,test
1225,1225,36.86098098754883,27.0,2021-01-29 18:31:41.314,test
1226,1226,26.20081901550293,37.0,2021-01-29 18:32:41.314,test
1227,1227,84.10550689697266,150.0,2021-01-29 18:33:41.314,test
1228,1228,211.63424682617188,193.0,2021-01-29 18:34:41.314,test
1229,1229,212.56532287597656,179.0,2021-01-29 18:35:41.314,test
1230,1230,125.48086547851562,142.0,2021-01-29 18:36:41.314,test
1231,1231,66.12176513671875,57.0,2021-01-29 18:37:41.314,test
1232,1232,39.600093841552734,36.0,2021-01-29 18:38:41.314,test
1233,1233,17.851966857910156,22.0,2021-01-29 18:39:41.314,test
1234,1234,75.66181945800781,53.0,2021-01-29 18:40:41.314,test
1235,1235,148.99630737304688,118.0,2021-01-29 18:41:41.314,test
1236,1236,223.9385528564453,253.0,2021-01-29 18:42:41.314,test
1237,1237,167.1393585205078,153.0,2021-01-29 18:43:41.314,test
1238,1238,89.0320816040039,82.0,2021-01-29 18:44:41.314,test
1239,1239,52.07551193237305,80.0,2021-01-29 18:45:41.314,test
1240,1240,30.90555191040039,28.0,2021-01-29 18:46:41.314,test
1241,1241,26.706098556518555,26.0,2021-01-29 18:47:41.314,test
1242,1242,89.4347152709961,90.0,2021-01-29 18:48:41.314,test
1243,1243,205.99212646484372,179.0,2021-01-29 18:49:41.314,test
1244,1244,227.0732879638672,149.0,2021-01-29 18:50:41.314,test
1245,1245,161.5579071044922,182.0,2021-01-29 18:51:41.314,test
1246,1246,87.36337280273438,70.0,2021-01-29 18:52:41.314,test
1247,1247,58.2254638671875,70.0,2021-01-29 18:53:41.314,test
1248,1248,21.96033477783203,19.0,2021-01-29 18:54:41.314,test
1249,1249,56.44960403442383,30.0,2021-01-29 18:55:41.314,test
1250,1250,94.83841705322266,99.0,2021-01-29 18:56:41.314,test
1251,1251,208.6173858642578,210.0,2021-01-29 18:57:41.314,test
1252,1252,222.4860382080078,220.0,2021-01-29 18:58:41.314,test
1253,1253,128.6109619140625,80.0,2021-01-29 18:59:41.314,test
1254,1254,81.50203704833984,100.0,2021-01-29 19:00:41.314,test
1255,1255,45.94849014282226,32.0,2021-01-29 19:01:41.314,test
1256,1256,15.082921028137207,17.0,2021-01-29 19:02:41.314,test
1257,1257,60.2134017944336,69.0,2021-01-29 19:03:41.314,test
1258,1258,149.49815368652344,52.0,2021-01-29 19:04:41.314,test
1259,1259,223.00369262695312,193.0,2021-01-29 19:05:41.314,test
