,Unnamed: 0,time,prediction,real,step
3730,3730,2021-01-22 12:27:47.327,5438.193,6301.0,0
3740,3740,2021-01-22 12:28:17.327,5610.678000000001,6202.25,0
3750,3750,2021-01-22 12:28:47.327,5767.6396,6330.25,0
3760,3760,2021-01-22 12:29:17.327,5896.2676,6360.25,0
3770,3770,2021-01-22 12:29:47.327,6707.029,6369.75,0
3780,3780,2021-01-22 12:30:17.327,6664.66,6389.5,0
3790,3790,2021-01-22 12:30:47.327,6660.6187,6419.5,0
3800,3800,2021-01-22 12:31:17.327,6649.048000000001,6536.5,0
3810,3810,2021-01-22 12:31:47.327,6632.205,6556.125,0
3820,3820,2021-01-22 12:32:17.327,6638.523,6586.125,0
3830,3830,2021-01-22 12:32:47.327,6640.853,6595.375,0
3840,3840,2021-01-22 12:33:17.327,6645.67,6722.0,0
3850,3850,2021-01-22 12:33:47.327,6667.1064,6756.5,0
3860,3860,2021-01-22 12:34:17.327,6687.816999999999,6791.0,0
3870,3870,2021-01-22 12:34:47.327,6705.7964,6791.0,0
3880,3880,2021-01-22 12:35:17.327,6727.2954,6810.5,0
3890,3890,2021-01-22 12:35:47.327,6747.1669999999995,6830.0,0
3900,3900,2021-01-22 12:36:17.327,6764.491,6849.5,0
3910,3910,2021-01-22 12:36:47.327,6788.3276,6869.0,0
3920,3920,2021-01-22 12:37:17.327,6812.5109999999995,6994.625,0
3930,3930,2021-01-22 12:37:47.327,6853.5967,7014.0,0
3940,3940,2021-01-22 12:38:17.327,6893.196999999999,7033.375,0
3950,3950,2021-01-22 12:38:47.327,6933.517,7052.75,0
3960,3960,2021-01-22 12:39:17.327,6972.3706,7177.75,0
3970,3970,2021-01-22 12:39:47.327,7023.115,7197.0,0
3980,3980,2021-01-22 12:40:17.327,7071.2935,7216.25,0
3990,3990,2021-01-22 12:40:47.327,7117.196999999999,7109.0,0
4000,4000,2021-01-22 12:41:17.327,7147.8857,7139.0,0
4010,4010,2021-01-22 12:41:47.327,7179.102,7032.5,0
4020,4020,2021-01-22 12:42:17.327,7194.3564,7062.5,0
4030,4030,2021-01-22 12:42:47.327,7209.422,7092.5,0
4040,4040,2021-01-22 12:43:17.327,7224.661,7091.0,0
4050,4050,2021-01-22 12:43:47.327,7229.826,7121.0,0
4060,4060,2021-01-22 12:44:17.327,7240.28,7151.0,0
4070,4070,2021-01-22 12:44:47.327,7250.5815,7160.0,0
4080,4080,2021-01-22 12:45:17.327,7257.5024,7179.5,0
4090,4090,2021-01-22 12:45:47.327,7262.1514,7209.5,0
4100,4100,2021-01-22 12:46:17.327,7265.889,7218.5,0
4110,4110,2021-01-22 12:46:47.327,7273.964,7253.0,0
4120,4120,2021-01-22 12:47:17.327,7282.1284,7277.0,0
4130,4130,2021-01-22 12:47:47.327,7290.0740000000005,7277.0,0
4140,4140,2021-01-22 12:48:17.327,7293.4473,7399.625,0
4150,4150,2021-01-22 12:48:47.327,7315.941,7429.625,0
4160,4160,2021-01-22 12:49:17.327,7340.137,7438.375,0
4170,4170,2021-01-22 12:49:47.327,7363.307,7457.75,0
4180,4180,2021-01-22 12:50:17.327,7384.85,7487.75,0
4190,4190,2021-01-22 12:50:47.327,7407.175,7507.125,0
4200,4200,2021-01-22 12:51:17.327,7428.8853,7526.5,0
4210,4210,2021-01-22 12:51:47.327,7449.9834,7545.875,0
4220,4220,2021-01-22 12:52:17.327,7470.4619999999995,7565.25,0
4230,4230,2021-01-22 12:52:47.327,7496.0234,7584.625,0
4240,4240,2021-01-22 12:53:17.327,7521.4165,7695.25,0
4250,4250,2021-01-22 12:53:47.327,7558.1045,7725.25,0
4260,4260,2021-01-22 12:54:17.327,7594.7754,7744.5,0
4270,4270,2021-01-22 12:54:47.327,7631.4297,7518.5,0
4280,4280,2021-01-22 12:55:17.327,7643.488,7548.5,0
4290,4290,2021-01-22 12:55:47.327,7656.9624,7456.625,0
4300,4300,2021-01-22 12:56:17.327,7662.6963,7577.0,0
4310,4310,2021-01-22 12:56:47.327,7675.8457,7607.0,0
4320,4320,2021-01-22 12:57:17.327,7685.9653,7515.5,0
4330,4330,2021-01-22 12:57:47.327,7688.62,7535.125,0
4340,4340,2021-01-22 12:58:17.327,7691.736999999999,7565.125,0
4350,4350,2021-01-22 12:58:47.327,7694.326,7574.375,0
4360,4360,2021-01-22 12:59:17.327,7696.6123,7604.375,0
4370,4370,2021-01-22 12:59:47.327,7700.1396,7624.0,0
4380,4380,2021-01-22 13:00:17.327,7702.937,7743.5,0
4390,4390,2021-01-22 13:00:47.327,7715.0366,7763.0,0
4400,4400,2021-01-22 13:01:17.327,7727.8135,7782.5,0
4410,4410,2021-01-22 13:01:47.327,7739.8223,7802.0,0
4420,4420,2021-01-22 13:02:17.327,7752.9355,7821.5,0
4430,4430,2021-01-22 13:02:47.327,7766.5063,7841.0,0
4440,4440,2021-01-22 13:03:17.327,7778.611999999999,7860.5,0
4450,4450,2021-01-22 13:03:47.327,7797.7046,7880.0,0
4460,4460,2021-01-22 13:04:17.327,7817.7964,7910.0,0
4470,4470,2021-01-22 13:04:47.327,7839.29,8032.75,0
4480,4480,2021-01-22 13:05:17.327,7875.0146,8067.125,0
4490,4490,2021-01-22 13:05:47.327,7911.605,8090.875,0
4500,4500,2021-01-22 13:06:17.327,7947.196999999999,8090.875,0
4510,4510,2021-01-22 13:06:47.327,7979.0107,8125.25,0
4520,4520,2021-01-22 13:07:17.327,8011.721,8125.25,0
4530,4530,2021-01-22 13:07:47.327,8041.295,8144.625,0
4540,4540,2021-01-22 13:08:17.327,8070.25,8164.0,0
4550,4550,2021-01-22 13:08:47.327,8098.23,8183.375,0
4560,4560,2021-01-22 13:09:17.327,8125.482,8063.0,0
4570,4570,2021-01-22 13:09:47.327,8140.5063,7975.0,0
4580,4580,2021-01-22 13:10:17.327,8148.64,7994.625,0
4590,4590,2021-01-22 13:10:47.327,8157.2456,8024.625,0
4600,4600,2021-01-22 13:11:17.327,8162.908,8033.875,0
4610,4610,2021-01-22 13:11:47.327,8171.2609999999995,8063.875,0
4620,4620,2021-01-22 13:12:17.327,8180.805,8083.5,0
4630,4630,2021-01-22 13:12:47.327,8186.1885,8092.75,0
4640,4640,2021-01-22 13:13:17.327,8190.1230000000005,8122.75,0
4650,4650,2021-01-22 13:13:47.327,8194.6,8142.375,0
4660,4660,2021-01-22 13:14:17.327,8197.484,8247.5,0
4670,4670,2021-01-22 13:14:47.327,8207.871,8277.5,0
4680,4680,2021-01-22 13:15:17.327,8218.399,8297.0,0
4690,4690,2021-01-22 13:15:47.327,8235.224,8306.0,0
4700,4700,2021-01-22 13:16:17.327,8251.059000000001,8336.0,0
4710,4710,2021-01-22 13:16:47.327,8268.279,8355.5,0
4720,4720,2021-01-22 13:17:17.327,8285.671999999999,8375.0,0
4730,4730,2021-01-22 13:17:47.327,8303.24,8394.5,0
4740,4740,2021-01-22 13:18:17.327,8320.982,8423.75,0
4750,4750,2021-01-22 13:18:47.327,8340.019,8453.0,0
4760,4760,2021-01-22 13:19:17.327,8360.302,8453.0,0
4770,4770,2021-01-22 13:19:47.327,8378.92,8472.5,0
4780,4780,2021-01-22 13:20:17.327,8400.886,8492.0,0
4790,4790,2021-01-22 13:20:47.327,8423.16,8511.5,0
4800,4800,2021-01-22 13:21:17.327,8445.5625,8531.0,0
4810,4810,2021-01-22 13:21:47.327,8468.024,8550.5,0
4820,4820,2021-01-22 13:22:17.327,8490.556,8580.5,0
4830,4830,2021-01-22 13:22:47.327,8514.209,8360.75,0
4840,4840,2021-01-22 13:23:17.327,8520.108,8360.0,0
4850,4850,2021-01-22 13:23:47.327,8525.609,8390.0,0
4860,4860,2021-01-22 13:24:17.327,8532.229,8420.0,0
4870,4870,2021-01-22 13:24:47.327,8539.360999999999,8419.25,0
4880,4880,2021-01-22 13:25:17.327,8542.106,8449.25,0
4890,4890,2021-01-22 13:25:47.327,8545.222,8479.25,0
4900,4900,2021-01-22 13:26:17.327,8549.338,8498.625,0
4910,4910,2021-01-22 13:26:47.327,8552.659,8538.5,0
4920,4920,2021-01-22 13:27:17.327,8557.954,8538.5,0
4930,4930,2021-01-22 13:27:47.327,8561.483,8528.25,0
4940,4940,2021-01-22 13:28:17.327,8561.498,8567.75,0
4950,4950,2021-01-22 13:28:47.327,8563.496,8679.25,0
4960,4960,2021-01-22 13:29:17.327,8575.91,8709.25,0
4970,4970,2021-01-22 13:29:47.327,8596.437,8718.5,0
4980,4980,2021-01-22 13:30:17.327,8616.595,8738.125,0
4990,4990,2021-01-22 13:30:47.327,8637.286,8768.125,0
5000,5000,2021-01-22 13:31:17.327,8659.3545,8777.375,0
5010,5010,2021-01-22 13:31:47.327,8680.761,8797.0,0
5020,5020,2021-01-22 13:32:17.327,8702.496,8827.0,0
5030,5030,2021-01-22 13:32:47.327,8725.688,8846.625,0
5040,5040,2021-01-22 13:33:17.327,8748.983,8855.875,0
5050,5050,2021-01-22 13:33:47.327,8771.324,8885.875,0
5060,5060,2021-01-22 13:34:17.327,8794.931999999999,8905.5,0
5070,5070,2021-01-22 13:34:47.327,8818.504,8673.5,0
5080,5080,2021-01-22 13:35:17.327,8823.233,8703.5,0
5090,5090,2021-01-22 13:35:47.327,8829.169,8713.25,0
5100,5100,2021-01-22 13:36:17.327,8835.21,8733.125,0
5110,5110,2021-01-22 13:36:47.327,8841.898000000001,8763.125,0
5120,5120,2021-01-22 13:37:17.327,8849.849,8783.0,0
5130,5130,2021-01-22 13:37:47.327,8858.278,8792.75,0
5140,5140,2021-01-22 13:38:17.327,8864.214,8822.75,0
5150,5150,2021-01-22 13:38:47.327,8870.087,8852.75,0
5160,5160,2021-01-22 13:39:17.327,8877.282,8852.375,0
5170,5170,2021-01-22 13:39:47.327,8883.609,8882.375,0
5180,5180,2021-01-22 13:40:17.327,8889.889000000001,8912.375,0
5190,5190,2021-01-22 13:40:47.327,8897.806,8912.0,0
5200,5200,2021-01-22 13:41:17.327,8904.828000000001,8942.0,0
5210,5210,2021-01-22 13:41:47.327,8913.235,8972.0,0
5220,5220,2021-01-22 13:42:17.327,8924.439,8971.625,0
5230,5230,2021-01-22 13:42:47.327,8933.162,9001.625,0
5240,5240,2021-01-22 13:43:17.327,8941.414,9031.625,0
5250,5250,2021-01-22 13:43:47.327,8952.833,9031.25,0
5260,5260,2021-01-22 13:44:17.327,8967.6045,9061.25,0
5270,5270,2021-01-22 13:44:47.327,8984.8125,9091.25,0
5280,5280,2021-01-22 13:45:17.327,9003.780999999999,9188.0,0
5290,5290,2021-01-22 13:45:47.327,9032.934000000001,9207.75,0
5300,5300,2021-01-22 13:46:17.327,9061.349,9237.75,0
5310,5310,2021-01-22 13:46:47.327,9090.321,9257.5,0
5320,5320,2021-01-22 13:47:17.327,9118.617,8938.375,0
5330,5330,2021-01-22 13:47:47.327,9120.988000000001,8873.0,0
5340,5340,2021-01-22 13:48:17.327,9121.389000000001,8893.25,0
5350,5350,2021-01-22 13:48:47.327,9122.09,8998.75,0
5360,5360,2021-01-22 13:49:17.327,9126.093,9018.875,0
5370,5370,2021-01-22 13:49:47.327,9130.574,9039.0,0
5380,5380,2021-01-22 13:50:17.327,9134.458,9059.125,0
5390,5390,2021-01-22 13:50:47.327,9139.096,9089.125,0
5400,5400,2021-01-22 13:51:17.327,9144.475,9099.375,0
5410,5410,2021-01-22 13:51:47.327,9149.683,9119.5,0
5420,5420,2021-01-22 13:52:17.327,9155.89,9154.625,0
5430,5430,2021-01-22 13:52:47.327,9163.981,9189.75,0
5440,5440,2021-01-22 13:53:17.327,9173.755,9189.75,0
5450,5450,2021-01-22 13:53:47.327,9182.989,9210.0625,0
5460,5460,2021-01-22 13:54:17.327,9193.526,9250.125,0
5470,5470,2021-01-22 13:54:47.327,9206.235999999999,9250.125,0
5480,5480,2021-01-22 13:55:17.327,9218.258,9260.375,0
5490,5490,2021-01-22 13:55:47.327,9230.601,9290.375,0
5500,5500,2021-01-22 13:56:17.327,9244.360999999999,9310.5,0
5510,5510,2021-01-22 13:56:47.327,9259.271,9335.75,0
5520,5520,2021-01-22 13:57:17.327,9275.709,9464.0,0
5530,5530,2021-01-22 13:57:47.327,9304.928,9464.0,0
5540,5540,2021-01-22 13:58:17.327,9331.232,9494.0,0
5550,5550,2021-01-22 13:58:47.327,9358.436,9494.0,0
5560,5560,2021-01-22 13:59:17.327,9383.138,9188.75,0
5570,5570,2021-01-22 13:59:47.327,9385.392,9209.125,0
5580,5580,2021-01-22 14:00:17.327,9388.107,9219.875,0
5590,5590,2021-01-22 14:00:47.327,9389.209,9249.875,0
5600,5600,2021-01-22 14:01:17.327,9390.917,9270.25,0
5610,5610,2021-01-22 14:01:47.327,9392.416,9281.0,0
5620,5620,2021-01-22 14:02:17.327,9393.571,9311.0,0
5630,5630,2021-01-22 14:02:47.327,9398.838,9331.375,0
5640,5640,2021-01-22 14:03:17.327,9400.53,9342.125,0
5650,5650,2021-01-22 14:03:47.327,9401.004,9372.125,0
5660,5660,2021-01-22 14:04:17.327,9406.56,9392.5,0
5670,5670,2021-01-22 14:04:47.327,9412.716999999999,9422.5,0
5680,5680,2021-01-22 14:05:17.327,9420.34,9433.25,0
5690,5690,2021-01-22 14:05:47.327,9427.945,9453.625,0
5700,5700,2021-01-22 14:06:17.327,9436.864,9483.625,0
5710,5710,2021-01-22 14:06:47.327,9447.253,9574.25,0
5720,5720,2021-01-22 14:07:17.327,9466.27,9594.5,0
5730,5730,2021-01-22 14:07:47.327,9486.416,9624.5,0
5740,5740,2021-01-22 14:08:17.327,9508.562,9635.0,0
5750,5750,2021-01-22 14:08:47.327,9529.532,9670.25,0
5760,5760,2021-01-22 14:09:17.327,9552.581,9705.5,0
5770,5770,2021-01-22 14:09:47.327,9577.704,9705.5,0
5780,5780,2021-01-22 14:10:17.327,9600.458,9472.5,0
5790,5790,2021-01-22 14:10:47.327,9604.308,9502.5,0
5800,5800,2021-01-22 14:11:17.327,9609.4375,9523.0,0
5810,5810,2021-01-22 14:11:47.327,9615.305,9534.0,0
5820,5820,2021-01-22 14:12:17.327,9621.36,9554.5,0
5830,5830,2021-01-22 14:12:47.327,9625.764000000001,9584.5,0
5840,5840,2021-01-22 14:13:17.327,9631.972,9595.5,0
5850,5850,2021-01-22 14:13:47.327,9637.599,9616.0,0
5860,5860,2021-01-22 14:14:17.327,9644.521,9646.0,0
5870,5870,2021-01-22 14:14:47.327,9653.62,9666.5,0
5880,5880,2021-01-22 14:15:17.327,9663.115,9692.5,0
5890,5890,2021-01-22 14:15:47.327,9673.088,9737.5,0
5900,5900,2021-01-22 14:16:17.327,9686.138,9737.5,0
5910,5910,2021-01-22 14:16:47.327,9697.8,9815.25,0
5920,5920,2021-01-22 14:17:17.327,9715.355,9845.25,0
5930,5930,2021-01-22 14:17:47.327,9734.774,9875.25,0
5940,5940,2021-01-22 14:18:17.327,9755.622,9876.375,0
5950,5950,2021-01-22 14:18:47.327,9774.27,9906.375,0
5960,5960,2021-01-22 14:19:17.327,9794.702,9936.375,0
5970,5970,2021-01-22 14:19:47.327,9816.499,9937.5,0
5980,5980,2021-01-22 14:20:17.327,9836.771999999999,9967.5,0
5990,5990,2021-01-22 14:20:47.327,9858.132,9997.5,0
6000,6000,2021-01-22 14:21:17.327,9880.764000000001,9754.625,0
6010,6010,2021-01-22 14:21:47.327,9883.798,9784.625,0
6020,6020,2021-01-22 14:22:17.327,9888.921,9805.25,0
6030,6030,2021-01-22 14:22:47.327,9894.782,9825.875,0
6040,6040,2021-01-22 14:23:17.327,9901.354,9846.5,0
6050,6050,2021-01-22 14:23:47.327,9908.734,9867.125,0
6060,6060,2021-01-22 14:24:17.327,9916.68,9887.75,0
6070,6070,2021-01-22 14:24:47.327,9925.026,9899.0,0
6080,6080,2021-01-22 14:25:17.327,9933.813,9929.0,0
6090,6090,2021-01-22 14:25:47.327,9941.559000000001,9959.0,0
6100,6100,2021-01-22 14:26:17.327,9950.778,9960.875,0
6110,6110,2021-01-22 14:26:47.327,9958.93,9990.875,0
6120,6120,2021-01-22 14:27:17.327,9967.892,10020.875,0
6130,6130,2021-01-22 14:27:47.327,9978.171,10104.5,0
6140,6140,2021-01-22 14:28:17.327,9995.973,10125.0,0
6150,6150,2021-01-22 14:28:47.327,10013.804,10155.0,0
6160,6160,2021-01-22 14:29:17.327,10033.171,10166.0,0
6170,6170,2021-01-22 14:29:47.327,10052.277,10186.5,0
6180,6180,2021-01-22 14:30:17.327,10071.848,10216.5,0
6190,6190,2021-01-22 14:30:47.327,10093.118,10227.5,0
6200,6200,2021-01-22 14:31:17.327,10114.414,9933.125,0
6210,6210,2021-01-22 14:31:47.327,10114.136999999999,9963.125,0
6220,6220,2021-01-22 14:32:17.327,10115.854,9965.75,0
6230,6230,2021-01-22 14:32:47.327,10117.633,9995.75,0
6240,6240,2021-01-22 14:33:17.327,10120.329,10025.75,0
6250,6250,2021-01-22 14:33:47.327,10124.17,10037.5,0
6260,6260,2021-01-22 14:34:17.327,10128.183,10058.375,0
6270,6270,2021-01-22 14:34:47.327,10132.705,10088.375,0
6280,6280,2021-01-22 14:35:17.327,10138.804,10100.125,0
6290,6290,2021-01-22 14:35:47.327,10144.789,10121.0,0
6300,6300,2021-01-22 14:36:17.327,10151.113000000001,10151.0,0
6310,6310,2021-01-22 14:36:47.327,10157.895,10240.75,0
6320,6320,2021-01-22 14:37:17.327,10171.9,10252.25,0
6330,6330,2021-01-22 14:37:47.327,10185.735,10282.25,0
6340,6340,2021-01-22 14:38:17.327,10201.306,10303.0,0
6350,6350,2021-01-22 14:38:47.327,10217.642,10314.5,0
6360,6360,2021-01-22 14:39:17.327,10233.774,10344.5,0
6370,6370,2021-01-22 14:39:47.327,10251.629,10365.25,0
6380,6380,2021-01-22 14:40:17.327,10269.884,10386.0,0
6390,6390,2021-01-22 14:40:47.327,10289.019,10163.0,0
6400,6400,2021-01-22 14:41:17.327,10291.173,10184.0,0
6410,6410,2021-01-22 14:41:47.327,10293.721,10196.0,0
6420,6420,2021-01-22 14:42:17.327,10296.803,10217.0,0
6430,6430,2021-01-22 14:42:47.327,10300.834,10247.0,0
6440,6440,2021-01-22 14:43:17.327,10306.0625,10268.0,0
6450,6450,2021-01-22 14:43:47.327,10312.027,10280.0,0
6460,6460,2021-01-22 14:44:17.327,10317.866,10310.0,0
6470,6470,2021-01-22 14:44:47.327,10325.271,10331.0,0
6480,6480,2021-01-22 14:45:17.327,10333.331,10352.0,0
6490,6490,2021-01-22 14:45:47.327,10341.626,10373.0,0
6500,6500,2021-01-22 14:46:17.327,10350.882,10459.0,0
6510,6510,2021-01-22 14:46:47.327,10367.207,10479.875,0
6520,6520,2021-01-22 14:47:17.327,10384.393,10511.1875,0
6530,6530,2021-01-22 14:47:47.327,10402.42,10557.5,0
6540,6540,2021-01-22 14:48:17.327,10424.054,10557.5,0
6550,6550,2021-01-22 14:48:47.327,10444.011,10584.25,0
6560,6560,2021-01-22 14:49:17.327,10464.687,10614.25,0
6570,6570,2021-01-22 14:49:47.327,10486.69,10614.25,0
6580,6580,2021-01-22 14:50:17.327,10507.028999999999,10320.25,0
6590,6590,2021-01-22 14:50:47.327,10506.658000000001,10341.5,0
6600,6600,2021-01-22 14:51:17.327,10506.8,10362.75,0
6610,6610,2021-01-22 14:51:47.327,10507.745,10446.0,0
6620,6620,2021-01-22 14:52:17.327,10513.339,10467.125,0
6630,6630,2021-01-22 14:52:47.327,10519.777,10426.5,0
6640,6640,2021-01-22 14:53:17.327,10523.589,10456.5,0
6650,6650,2021-01-22 14:53:47.327,10528.598999999998,10530.5,0
6660,6660,2021-01-22 14:54:17.327,10538.021,10560.5,0
6670,6670,2021-01-22 14:54:47.327,10548.815,10581.625,0
6680,6680,2021-01-22 14:55:17.327,10560.357,10593.875,0
6690,6690,2021-01-22 14:55:47.327,10571.848999999998,10623.875,0
6700,6700,2021-01-22 14:56:17.327,10583.756000000001,10645.0,0
6710,6710,2021-01-22 14:56:47.327,10596.318000000001,10666.125,0
6720,6720,2021-01-22 14:57:17.327,10609.216,10687.25,0
6730,6730,2021-01-22 14:57:47.327,10622.798,10717.25,0
6740,6740,2021-01-22 14:58:17.327,10638.32,10729.5,0
6750,6750,2021-01-22 14:58:47.327,10653.696000000002,10750.625,0
6760,6760,2021-01-22 14:59:17.327,10669.518,10780.625,0
6770,6770,2021-01-22 14:59:47.327,10687.273000000001,10610.25,0
6780,6780,2021-01-22 15:00:17.327,10690.666000000001,10622.75,0
6790,6790,2021-01-22 15:00:47.327,10694.396999999999,10652.75,0
6800,6800,2021-01-22 15:01:17.327,10699.513,10674.0,0
6810,6810,2021-01-22 15:01:47.327,10706.514,10704.0,0
6820,6820,2021-01-22 15:02:17.327,10715.111,10716.5,0
6830,6830,2021-01-22 15:02:47.327,10723.921,10737.75,0
6840,6840,2021-01-22 15:03:17.327,10733.145,10767.75,0
6850,6850,2021-01-22 15:03:47.327,10744.332,10780.25,0
6860,6860,2021-01-22 15:04:17.327,10755.365,10801.5,0
6870,6870,2021-01-22 15:04:47.327,10766.767,10831.5,0
6880,6880,2021-01-22 15:05:17.327,10780.25,10844.0,0
6890,6890,2021-01-22 15:05:47.327,10791.118,10865.25,0
6900,6900,2021-01-22 15:06:17.327,10802.26,10895.25,0
6910,6910,2021-01-22 15:06:47.327,10814.576000000001,10721.75,0
6920,6920,2021-01-22 15:07:17.327,10815.758,10743.125,0
6930,6930,2021-01-22 15:07:47.327,10817.605,10710.0,0
6940,6940,2021-01-22 15:08:17.327,10814.193000000001,10731.5,0
6950,6950,2021-01-22 15:08:47.327,10811.206,10753.0,0
6960,6960,2021-01-22 15:09:17.327,10811.657,10774.5,0
6970,6970,2021-01-22 15:09:47.327,10813.492,10804.5,0
6980,6980,2021-01-22 15:10:17.327,10817.131000000001,10817.5,0
6990,6990,2021-01-22 15:10:47.327,10821.207,10839.0,0
7000,7000,2021-01-22 15:11:17.327,10827.14,10922.75,0
7010,7010,2021-01-22 15:11:47.327,10841.197,10935.5,0
7020,7020,2021-01-22 15:12:17.327,10855.565,10956.875,0
7030,7030,2021-01-22 15:12:47.327,10871.098999999998,10986.875,0
7040,7040,2021-01-22 15:13:17.327,10888.515,10991.0,0
7050,7050,2021-01-22 15:13:47.327,10904.719,11021.0,0
7060,7060,2021-01-22 15:14:17.327,10922.551000000001,11051.0,0
7070,7070,2021-01-22 15:14:47.327,10941.59,10875.0,0
7080,7080,2021-01-22 15:15:17.327,10944.198,10896.5,0
7090,7090,2021-01-22 15:15:47.327,10947.395,10918.0,0
7100,7100,2021-01-22 15:16:17.327,10951.851,10939.5,0
7110,7110,2021-01-22 15:16:47.327,10957.403999999999,10961.0,0
7120,7120,2021-01-22 15:17:17.327,10964.378999999999,10982.5,0
7130,7130,2021-01-22 15:17:47.327,10972.428,11004.0,0
7140,7140,2021-01-22 15:18:17.327,10981.766000000001,11025.5,0
7150,7150,2021-01-22 15:18:47.327,10992.47,11047.0,0
7160,7160,2021-01-22 15:19:17.327,11004.311000000002,11077.0,0
7170,7170,2021-01-22 15:19:47.327,11018.08,11090.0,0
7180,7180,2021-01-22 15:20:17.327,11031.938,11111.5,0
7190,7190,2021-01-22 15:20:47.327,11046.757,11141.5,0
7200,7200,2021-01-22 15:21:17.327,11063.178999999998,11163.0,0
7210,7210,2021-01-22 15:21:47.327,11080.02,10937.75,0
7220,7220,2021-01-22 15:22:17.327,11080.332,10967.75,0
7230,7230,2021-01-22 15:22:47.327,11081.64,10981.25,0
7240,7240,2021-01-22 15:23:17.327,11081.166000000001,11003.0,0
7250,7250,2021-01-22 15:23:47.327,11081.15,11033.0,0
7260,7260,2021-01-22 15:24:17.327,11082.163999999999,11046.5,0
7270,7270,2021-01-22 15:24:47.327,11083.434,11068.25,0
7280,7280,2021-01-22 15:25:17.327,11086.095,11098.25,0
7290,7290,2021-01-22 15:25:47.327,11090.16,11126.75,0
7300,7300,2021-01-22 15:26:17.327,11096.268999999998,11163.5,0
7310,7310,2021-01-22 15:26:47.327,11107.542,11163.5,0
7320,7320,2021-01-22 15:27:17.327,11117.944,11185.25,0
7330,7330,2021-01-22 15:27:47.327,11129.73,11198.75,0
7340,7340,2021-01-22 15:28:17.327,11141.813999999998,11228.75,0
7350,7350,2021-01-22 15:28:47.327,11155.993999999999,11059.0,0
7360,7360,2021-01-22 15:29:17.327,11157.034,11072.75,0
7370,7370,2021-01-22 15:29:47.327,11157.833,11094.625,0
7380,7380,2021-01-22 15:30:17.327,11158.659,11124.625,0
7390,7390,2021-01-22 15:30:47.327,11160.948,11138.375,0
7400,7400,2021-01-22 15:31:17.327,11163.921,11160.25,0
7410,7410,2021-01-22 15:31:47.327,11168.25,11190.25,0
7420,7420,2021-01-22 15:32:17.327,11174.748,11220.25,0
7430,7430,2021-01-22 15:32:47.327,11183.607,11225.875,0
7440,7440,2021-01-22 15:33:17.327,11192.497,11255.875,0
7450,7450,2021-01-22 15:33:47.327,11203.681,11285.875,0
7460,7460,2021-01-22 15:34:17.327,11217.036,11058.875,0
7470,7470,2021-01-22 15:34:47.327,11216.811000000002,11088.875,0
7480,7480,2021-01-22 15:35:17.327,11216.7705,11072.0,0
7490,7490,2021-01-22 15:35:47.327,11215.923999999999,11125.25,0
7500,7500,2021-01-22 15:36:17.327,11215.258999999998,11155.25,0
7510,7510,2021-01-22 15:36:47.327,11214.856000000002,11177.375,0
7520,7520,2021-01-22 15:37:17.327,11215.873,11191.625,0
7530,7530,2021-01-22 15:37:47.327,11217.919,11221.625,0
7540,7540,2021-01-22 15:38:17.327,11221.51,11243.75,0
7550,7550,2021-01-22 15:38:47.327,11226.701000000001,11258.0,0
7560,7560,2021-01-22 15:39:17.327,11233.2705,11288.0,0
7570,7570,2021-01-22 15:39:47.327,11242.188999999998,11310.125,0
7580,7580,2021-01-22 15:40:17.327,11252.912,11139.5,0
7590,7590,2021-01-22 15:40:47.327,11253.038999999999,11154.0,0
7600,7600,2021-01-22 15:41:17.327,11253.426000000001,11191.25,0
7610,7610,2021-01-22 15:41:47.327,11254.368999999999,11220.75,0
7620,7620,2021-01-22 15:42:17.327,11256.752,11250.75,0
7630,7630,2021-01-22 15:42:47.327,11260.313999999998,11273.0,0
7640,7640,2021-01-22 15:43:17.327,11264.917,11287.5,0
7650,7650,2021-01-22 15:43:47.327,11269.108999999999,11287.5,0
7660,7660,2021-01-22 15:44:17.327,11274.966,11317.5,0
7670,7670,2021-01-22 15:44:47.327,11282.981000000002,11339.75,0
7680,7680,2021-01-22 15:45:17.327,11292.738000000001,11167.875,0
7690,7690,2021-01-22 15:45:47.327,11292.76,11182.625,0
7700,7700,2021-01-22 15:46:17.327,11293.073999999999,11205.0,0
7710,7710,2021-01-22 15:46:47.327,11293.863000000001,11235.0,0
7720,7720,2021-01-22 15:47:17.327,11295.328000000001,11249.75,0
7730,7730,2021-01-22 15:47:47.327,11296.623,11272.125,0
7740,7740,2021-01-22 15:48:17.327,11298.962,11302.125,0
7750,7750,2021-01-22 15:48:47.327,11301.966999999999,11347.25,0
7760,7760,2021-01-22 15:49:17.327,11306.993999999999,11116.5,0
7770,7770,2021-01-22 15:49:47.327,11305.036,11146.5,0
7780,7780,2021-01-22 15:50:17.327,11303.76,11154.375,0
7790,7790,2021-01-22 15:50:47.327,11301.38,11184.375,0
7800,7800,2021-01-22 15:51:17.327,11300.818000000001,11214.375,0
7810,7810,2021-01-22 15:51:47.327,11301.173,11229.625,0
7820,7820,2021-01-22 15:52:17.327,11301.998,11252.25,0
7830,7830,2021-01-22 15:52:47.327,11303.572,11282.25,0
7840,7840,2021-01-22 15:53:17.327,11306.206,11147.75,0
7850,7850,2021-01-22 15:53:47.327,11305.303999999998,11127.0,0
7860,7860,2021-01-22 15:54:17.327,11303.907,11126.375,0
7870,7870,2021-01-22 15:54:47.327,11300.277,11149.25,0
7880,7880,2021-01-22 15:55:17.327,11294.142,11172.125,0
7890,7890,2021-01-22 15:55:47.327,11294.053,11195.0,0
7900,7900,2021-01-22 15:56:17.327,11294.329,11217.875,0
7910,7910,2021-01-22 15:56:47.327,11294.946000000002,11037.125,0
7920,7920,2021-01-22 15:57:17.327,11297.866000000002,11060.25,0
7930,7930,2021-01-22 15:57:47.327,11296.946000000002,11069.625,0
7940,7940,2021-01-22 15:58:17.327,11293.51,11099.625,0
7950,7950,2021-01-22 15:58:47.327,11287.753,11129.625,0
7960,7960,2021-01-22 15:59:17.327,11281.378,10995.4375,0
7970,7970,2021-01-22 15:59:47.327,11274.958,10988.75,0
7980,7980,2021-01-22 16:00:17.327,11264.868,10988.75,0
7990,7990,2021-01-22 16:00:47.327,11265.546999999999,11005.5,0
8000,8000,2021-01-22 16:01:17.327,11264.311000000002,11035.5,0
8010,8010,2021-01-22 16:01:47.327,11260.868999999999,11065.5,0
