,Unnamed: 0,time,prediction,step
3793,3793,2021-02-18 14:16:17.715,803.2387,3
3803,3803,2021-02-18 14:16:47.715,800.77936,3
3813,3813,2021-02-18 14:17:17.715,797.6971,3
3823,3823,2021-02-18 14:17:47.715,794.6422,3
3833,3833,2021-02-18 14:18:17.715,791.5822,3
3843,3843,2021-02-18 14:18:47.715,788.9855299999999,3
3853,3853,2021-02-18 14:19:17.715,786.2389,3
3863,3863,2021-02-18 14:19:47.715,783.4777,3
3873,3873,2021-02-18 14:20:17.715,781.06555,3
3883,3883,2021-02-18 14:20:47.715,778.4447,3
3893,3893,2021-02-18 14:21:17.715,775.7033,3
3903,3903,2021-02-18 14:21:47.715,773.2025,3
3913,3913,2021-02-18 14:22:17.715,770.4289,3
3923,3923,2021-02-18 14:22:47.715,767.2538,3
3933,3933,2021-02-18 14:23:17.715,764.2004400000001,3
3943,3943,2021-02-18 14:23:47.715,760.8049,3
3953,3953,2021-02-18 14:24:17.715,758.01697,3
3963,3963,2021-02-18 14:24:47.715,755.3421599999999,3
3973,3973,2021-02-18 14:25:17.715,752.3251,3
3983,3983,2021-02-18 14:25:47.715,749.7994,3
3993,3993,2021-02-18 14:26:17.715,747.48895,3
4003,4003,2021-02-18 14:26:47.715,744.4494599999999,3
4013,4013,2021-02-18 14:27:17.715,741.9425,3
4023,4023,2021-02-18 14:27:47.715,739.3466,3
4033,4033,2021-02-18 14:28:17.715,735.7334,3
4043,4043,2021-02-18 14:28:47.715,732.2807,3
4053,4053,2021-02-18 14:29:17.715,728.7988,3
4063,4063,2021-02-18 14:29:47.715,725.67065,3
4073,4073,2021-02-18 14:30:17.715,722.51685,3
4083,4083,2021-02-18 14:30:47.715,719.50714,3
4093,4093,2021-02-18 14:31:17.715,716.7360000000001,3
4103,4103,2021-02-18 14:31:47.715,714.03925,3
4113,4113,2021-02-18 14:32:17.715,711.16,3
4123,4123,2021-02-18 14:32:47.715,708.2204,3
4133,4133,2021-02-18 14:33:17.715,704.29224,3
4143,4143,2021-02-18 14:33:47.715,700.7621,3
4153,4153,2021-02-18 14:34:17.715,697.1442,3
4163,4163,2021-02-18 14:34:47.715,693.9753,3
4173,4173,2021-02-18 14:35:17.715,691.01184,3
4183,4183,2021-02-18 14:35:47.715,687.8454,3
4193,4193,2021-02-18 14:36:17.715,685.102,3
4203,4203,2021-02-18 14:36:47.715,682.3975,3
4213,4213,2021-02-18 14:37:17.715,679.91486,3
4223,4223,2021-02-18 14:37:47.715,677.25775,3
4233,4233,2021-02-18 14:38:17.715,673.30853,3
4243,4243,2021-02-18 14:38:47.715,669.4775,3
4253,4253,2021-02-18 14:39:17.715,666.0356400000001,3
4263,4263,2021-02-18 14:39:47.715,662.7187,3
4273,4273,2021-02-18 14:40:17.715,659.3280599999999,3
4283,4283,2021-02-18 14:40:47.715,656.3305,3
4293,4293,2021-02-18 14:41:17.715,653.7915,3
4303,4303,2021-02-18 14:41:47.715,650.89557,3
4313,4313,2021-02-18 14:42:17.715,648.50146,3
4323,4323,2021-02-18 14:42:47.715,644.9552,3
4333,4333,2021-02-18 14:43:17.715,641.04297,3
4343,4343,2021-02-18 14:43:47.715,637.0954,3
4353,4353,2021-02-18 14:44:17.715,633.5423,3
4363,4363,2021-02-18 14:44:47.715,629.9525,3
4373,4373,2021-02-18 14:45:17.715,626.5762,3
4383,4383,2021-02-18 14:45:47.715,623.6582,3
4393,4393,2021-02-18 14:46:17.715,620.71185,3
4403,4403,2021-02-18 14:46:47.715,617.9693,3
4413,4413,2021-02-18 14:47:17.715,614.0286,3
4423,4423,2021-02-18 14:47:47.715,610.0406,3
4433,4433,2021-02-18 14:48:17.715,605.5881,3
4443,4443,2021-02-18 14:48:47.715,601.8244599999999,3
4453,4453,2021-02-18 14:49:17.715,597.9549,3
4463,4463,2021-02-18 14:49:47.715,594.34265,3
4473,4473,2021-02-18 14:50:17.715,591.1297,3
4483,4483,2021-02-18 14:50:47.715,587.9762599999999,3
4493,4493,2021-02-18 14:51:17.715,583.4106400000001,3
4503,4503,2021-02-18 14:51:47.715,579.1088,3
4513,4513,2021-02-18 14:52:17.715,575.00653,3
4523,4523,2021-02-18 14:52:47.715,571.53894,3
4533,4533,2021-02-18 14:53:17.715,567.43677,3
4543,4543,2021-02-18 14:53:47.715,563.3647,3
4553,4553,2021-02-18 14:54:17.715,559.9785,3
4563,4563,2021-02-18 14:54:47.715,556.5286,3
4573,4573,2021-02-18 14:55:17.715,551.3431400000001,3
4583,4583,2021-02-18 14:55:47.715,546.8349599999999,3
4593,4593,2021-02-18 14:56:17.715,542.5645,3
4603,4603,2021-02-18 14:56:47.715,538.58606,3
4613,4613,2021-02-18 14:57:17.715,535.2393,3
4623,4623,2021-02-18 14:57:47.715,531.2311,3
4633,4633,2021-02-18 14:58:17.715,527.7611,3
4643,4643,2021-02-18 14:58:47.715,524.3201,3
4653,4653,2021-02-18 14:59:17.715,519.0521,3
4663,4663,2021-02-18 14:59:47.715,514.4830000000001,3
4673,4673,2021-02-18 15:00:17.715,509.90402,3
4683,4683,2021-02-18 15:00:47.715,506.10825,3
4693,4693,2021-02-18 15:01:17.715,502.61287999999996,3
4703,4703,2021-02-18 15:01:47.715,499.29803,3
4713,4713,2021-02-18 15:02:17.715,495.56677,3
4723,4723,2021-02-18 15:02:47.715,492.2002,3
4733,4733,2021-02-18 15:03:17.715,486.69794,3
4743,4743,2021-02-18 15:03:47.715,481.77685999999994,3
4753,4753,2021-02-18 15:04:17.715,477.39218,3
4763,4763,2021-02-18 15:04:47.715,473.27087,3
4773,4773,2021-02-18 15:05:17.715,469.62088,3
4783,4783,2021-02-18 15:05:47.715,466.41497999999996,3
4793,4793,2021-02-18 15:06:17.715,460.30612,3
4803,4803,2021-02-18 15:06:47.715,454.28427,3
4813,4813,2021-02-18 15:07:17.715,448.87674000000004,3
4823,4823,2021-02-18 15:07:47.715,444.12332000000004,3
4833,4833,2021-02-18 15:08:17.715,439.5116,3
4843,4843,2021-02-18 15:08:47.715,435.42505,3
4853,4853,2021-02-18 15:09:17.715,432.07037,3
4863,4863,2021-02-18 15:09:47.715,426.28397,3
4873,4873,2021-02-18 15:10:17.715,420.11422999999996,3
4883,4883,2021-02-18 15:10:47.715,414.6371,3
4893,4893,2021-02-18 15:11:17.715,409.41272000000004,3
4903,4903,2021-02-18 15:11:47.715,404.7531,3
4913,4913,2021-02-18 15:12:17.715,400.7441,3
4923,4923,2021-02-18 15:12:47.715,394.18436,3
4933,4933,2021-02-18 15:13:17.715,388.51937999999996,3
4943,4943,2021-02-18 15:13:47.715,383.53073,3
4953,4953,2021-02-18 15:14:17.715,377.8093,3
4963,4963,2021-02-18 15:14:47.715,372.8525,3
4973,4973,2021-02-18 15:15:17.715,365.4496,3
4983,4983,2021-02-18 15:15:47.715,358.78192,3
4993,4993,2021-02-18 15:16:17.715,352.58347000000003,3
5003,5003,2021-02-18 15:16:47.715,347.3168,3
5013,5013,2021-02-18 15:17:17.715,342.63662999999997,3
5023,5023,2021-02-18 15:17:47.715,335.5077,3
5033,5033,2021-02-18 15:18:17.715,328.16037,3
5043,5043,2021-02-18 15:18:47.715,321.39313,3
5053,5053,2021-02-18 15:19:17.715,315.3532,3
5063,5063,2021-02-18 15:19:47.715,310.17502,3
5073,5073,2021-02-18 15:20:17.715,302.4263,3
5083,5083,2021-02-18 15:20:47.715,295.55400000000003,3
5093,5093,2021-02-18 15:21:17.715,288.08655,3
5103,5103,2021-02-18 15:21:47.715,281.55316,3
5113,5113,2021-02-18 15:22:17.715,275.72424,3
5123,5123,2021-02-18 15:22:47.715,267.15427,3
5133,5133,2021-02-18 15:23:17.715,259.5109,3
5143,5143,2021-02-18 15:23:47.715,252.99149,3
5153,5153,2021-02-18 15:24:17.715,243.83011000000002,3
5163,5163,2021-02-18 15:24:47.715,234.50996,3
5173,5173,2021-02-18 15:25:17.715,225.96126,3
5183,5183,2021-02-18 15:25:47.715,218.62024,3
5193,5193,2021-02-18 15:26:17.715,208.5917,3
5203,5203,2021-02-18 15:26:47.715,199.5276,3
5213,5213,2021-02-18 15:27:17.715,191.78024,3
5223,5223,2021-02-18 15:27:47.715,183.84158,3
5233,5233,2021-02-18 15:28:17.715,172.70369,3
