,Unnamed: 0,time,prediction,real,step
54751,54751,2020-12-02 15:39:36.956,877.4422,878.0,1
54761,54761,2020-12-02 15:40:06.956,876.9654,877.0,1
54771,54771,2020-12-02 15:40:36.956,876.19916,877.0,1
54781,54781,2020-12-02 15:41:06.956,875.3815300000001,876.0,1
54791,54791,2020-12-02 15:41:36.956,874.98364,875.0,1
54801,54801,2020-12-02 15:42:06.956,874.2529,875.0,1
54811,54811,2020-12-02 15:42:36.956,873.4274,874.0,1
54821,54821,2020-12-02 15:43:06.956,873.0148,873.0,1
54831,54831,2020-12-02 15:43:36.956,872.2669699999999,873.0,1
54841,54841,2020-12-02 15:44:06.956,871.4267,872.0,1
54851,54851,2020-12-02 15:44:36.956,870.99835,871.0,1
54861,54861,2020-12-02 15:45:06.956,870.3079,871.0,1
54871,54871,2020-12-02 15:45:36.956,869.4649699999999,869.0,1
54881,54881,2020-12-02 15:46:06.956,869.0267,868.0,1
54891,54891,2020-12-02 15:46:36.956,867.8454,867.0,1
54901,54901,2020-12-02 15:47:06.956,866.77875,867.0,1
54911,54911,2020-12-02 15:47:36.956,865.7928,866.0,1
54921,54921,2020-12-02 15:48:06.956,865.23004,866.0,1
54931,54931,2020-12-02 15:48:36.956,864.59235,865.0,1
54941,54941,2020-12-02 15:49:06.956,864.1097,864.0,1
54951,54951,2020-12-02 15:49:36.956,863.4765,864.0,1
54961,54961,2020-12-02 15:50:06.956,862.6365,863.0,1
54971,54971,2020-12-02 15:50:36.956,862.00555,862.0,1
54981,54981,2020-12-02 15:51:06.956,861.18744,862.0,1
54991,54991,2020-12-02 15:51:36.956,860.2123,861.0,1
55001,55001,2020-12-02 15:52:06.956,859.66846,861.0,1
55011,55011,2020-12-02 15:52:36.956,859.0026,860.0,1
55021,55021,2020-12-02 15:53:06.956,858.622,859.0,1
55031,55031,2020-12-02 15:53:36.956,858.19135,859.0,1
55041,55041,2020-12-02 15:54:06.956,857.2225,858.0,1
55051,55051,2020-12-02 15:54:36.956,856.7812,857.0,1
55061,55061,2020-12-02 15:55:06.956,856.0525,857.0,1
55071,55071,2020-12-02 15:55:36.956,855.0498,856.0,1
55081,55081,2020-12-02 15:56:06.956,854.6559,856.0,1
55091,55091,2020-12-02 15:56:36.956,854.0501,855.0,1
55101,55101,2020-12-02 15:57:06.956,853.7696,854.0,1
55111,55111,2020-12-02 15:57:36.956,853.3185,854.0,1
55121,55121,2020-12-02 15:58:06.956,852.2898,853.0,1
55131,55131,2020-12-02 15:58:36.956,851.81335,852.0,1
55141,55141,2020-12-02 15:59:06.956,851.1081,852.0,1
55151,55151,2020-12-02 15:59:36.956,850.27155,851.0,1
55161,55161,2020-12-02 16:00:06.956,849.94214,851.0,1
55171,55171,2020-12-02 16:00:36.956,849.3057,850.0,1
55181,55181,2020-12-02 16:01:06.956,848.9699,849.0,1
55191,55191,2020-12-02 16:01:36.956,848.4043,849.0,1
55201,55201,2020-12-02 16:02:06.956,847.5941,848.0,1
55211,55211,2020-12-02 16:02:36.956,847.1055,847.0,1
55221,55221,2020-12-02 16:03:06.956,846.3583,847.0,1
55231,55231,2020-12-02 16:03:36.956,845.5189999999999,846.0,1
55241,55241,2020-12-02 16:04:06.956,845.15936,845.0,1
55251,55251,2020-12-02 16:04:36.956,844.45056,845.0,1
55261,55261,2020-12-02 16:05:06.956,843.59973,844.0,1
55271,55271,2020-12-02 16:05:36.956,843.2023300000001,844.0,1
55281,55281,2020-12-02 16:06:06.956,842.4823,843.0,1
55291,55291,2020-12-02 16:06:36.956,841.9935,842.0,1
55301,55301,2020-12-02 16:07:06.956,841.39264,842.0,1
55311,55311,2020-12-02 16:07:36.956,840.5794699999999,841.0,1
55321,55321,2020-12-02 16:08:06.956,840.1401,838.0,1
55331,55331,2020-12-02 16:08:36.956,839.3749,837.0,1
55341,55341,2020-12-02 16:09:06.956,837.3199,837.0,1
55351,55351,2020-12-02 16:09:36.956,835.8702,836.0,1
55361,55361,2020-12-02 16:10:06.956,835.2444,835.0,1
55371,55371,2020-12-02 16:10:36.956,834.5768400000001,835.0,1
55381,55381,2020-12-02 16:11:06.956,833.7628,834.0,1
55391,55391,2020-12-02 16:11:36.956,833.3957,834.0,1
55401,55401,2020-12-02 16:12:06.956,832.8153,833.0,1
55411,55411,2020-12-02 16:12:36.956,832.2394400000001,832.0,1
55421,55421,2020-12-02 16:13:06.956,831.3774,832.0,1
55431,55431,2020-12-02 16:13:36.956,830.46466,831.0,1
55441,55441,2020-12-02 16:14:06.956,829.8592,830.0,1
55451,55451,2020-12-02 16:14:36.956,829.0303299999999,830.0,1
55461,55461,2020-12-02 16:15:06.956,828.0205,829.0,1
55471,55471,2020-12-02 16:15:36.956,827.4742,829.0,1
55481,55481,2020-12-02 16:16:06.956,826.9637,828.0,1
55491,55491,2020-12-02 16:16:36.956,826.77136,827.0,1
55501,55501,2020-12-02 16:17:06.956,826.2177,827.0,1
55511,55511,2020-12-02 16:17:36.956,825.2688,826.0,1
55521,55521,2020-12-02 16:18:06.956,824.91907,825.0,1
55531,55531,2020-12-02 16:18:36.956,824.2030599999999,825.0,1
55541,55541,2020-12-02 16:19:06.956,823.06995,824.0,1
55551,55551,2020-12-02 16:19:36.956,822.84973,823.0,1
55561,55561,2020-12-02 16:20:06.956,822.21387,823.0,1
55571,55571,2020-12-02 16:20:36.956,821.0868,822.0,1
55581,55581,2020-12-02 16:21:06.956,820.7654,822.0,1
55591,55591,2020-12-02 16:21:36.956,820.1208,821.0,1
55601,55601,2020-12-02 16:22:06.956,819.7962,820.0,1
55611,55611,2020-12-02 16:22:36.956,819.3179,820.0,1
55621,55621,2020-12-02 16:23:06.956,818.5015,819.0,1
55631,55631,2020-12-02 16:23:36.956,818.1913,818.0,1
55641,55641,2020-12-02 16:24:06.956,817.4199,818.0,1
55651,55651,2020-12-02 16:24:36.956,816.5685,817.0,1
55661,55661,2020-12-02 16:25:06.956,816.18475,817.0,1
55671,55671,2020-12-02 16:25:36.956,815.4747,816.0,1
55681,55681,2020-12-02 16:26:06.956,814.9875,815.0,1
55691,55691,2020-12-02 16:26:36.956,814.39825,815.0,1
55701,55701,2020-12-02 16:27:06.956,813.6047,814.0,1
55711,55711,2020-12-02 16:27:36.956,813.1688,813.0,1
55721,55721,2020-12-02 16:28:06.956,812.4041,813.0,1
55731,55731,2020-12-02 16:28:36.956,811.55615,812.0,1
55741,55741,2020-12-02 16:29:06.956,811.1818,812.0,1
55751,55751,2020-12-02 16:29:36.956,810.4782,811.0,1
55761,55761,2020-12-02 16:30:06.956,809.99615,807.0,1
55771,55771,2020-12-02 16:30:36.956,809.4111,806.0,1
55781,55781,2020-12-02 16:31:06.956,805.9667400000001,806.0,1
55791,55791,2020-12-02 16:31:36.956,804.85675,805.0,1
55801,55801,2020-12-02 16:32:06.956,804.41925,804.0,1
55811,55811,2020-12-02 16:32:36.956,803.61816,804.0,1
55821,55821,2020-12-02 16:33:06.956,802.9211,803.0,1
55831,55831,2020-12-02 16:33:36.956,802.4973,802.0,1
55841,55841,2020-12-02 16:34:06.956,801.9569,802.0,1
55851,55851,2020-12-02 16:34:36.956,801.0629,801.0,1
55861,55861,2020-12-02 16:35:06.956,800.21606,801.0,1
55871,55871,2020-12-02 16:35:36.956,799.34503,800.0,1
55881,55881,2020-12-02 16:36:06.956,798.742,799.0,1
55891,55891,2020-12-02 16:36:36.956,798.0363,799.0,1
55901,55901,2020-12-02 16:37:06.956,797.2132,798.0,1
55911,55911,2020-12-02 16:37:36.956,796.78986,797.0,1
55921,55921,2020-12-02 16:38:06.956,796.1533,797.0,1
55931,55931,2020-12-02 16:38:36.956,795.0769700000001,796.0,1
55941,55941,2020-12-02 16:39:06.956,794.7532,796.0,1
55951,55951,2020-12-02 16:39:36.956,794.1207,795.0,1
55961,55961,2020-12-02 16:40:06.956,793.6936599999999,794.0,1
55971,55971,2020-12-02 16:40:36.956,793.1180400000001,794.0,1
55981,55981,2020-12-02 16:41:06.956,792.3188,793.0,1
55991,55991,2020-12-02 16:41:36.956,791.8419,792.0,1
56001,56001,2020-12-02 16:42:06.956,791.2187,792.0,1
56011,56011,2020-12-02 16:42:36.956,790.26526,791.0,1
56021,56021,2020-12-02 16:43:06.956,789.9536,790.0,1
56031,56031,2020-12-02 16:43:36.956,789.3482700000001,790.0,1
56041,56041,2020-12-02 16:44:06.956,788.1592400000001,789.0,1
56051,56051,2020-12-02 16:44:36.956,787.77515,789.0,1
56061,56061,2020-12-02 16:45:06.956,787.30664,788.0,1
56071,56071,2020-12-02 16:45:36.956,787.1062,787.0,1
56081,56081,2020-12-02 16:46:06.956,786.4530599999999,787.0,1
56091,56091,2020-12-02 16:46:36.956,785.6978,786.0,1
56101,56101,2020-12-02 16:47:06.956,785.2603,785.0,1
56111,56111,2020-12-02 16:47:36.956,784.4817,785.0,1
56121,56121,2020-12-02 16:48:06.956,783.63226,784.0,1
56131,56131,2020-12-02 16:48:36.956,783.2324,784.0,1
56141,56141,2020-12-02 16:49:06.956,782.5319999999999,783.0,1
56151,56151,2020-12-02 16:49:36.956,782.0501,782.0,1
56161,56161,2020-12-02 16:50:06.956,781.4248,782.0,1
56171,56171,2020-12-02 16:50:36.956,780.6669,781.0,1
56181,56181,2020-12-02 16:51:06.956,780.2348599999999,776.0,1
56191,56191,2020-12-02 16:51:36.956,779.4613,775.0,1
56201,56201,2020-12-02 16:52:06.956,774.2263,775.0,1
56211,56211,2020-12-02 16:52:36.956,773.77075,774.0,1
56221,56221,2020-12-02 16:53:06.956,773.4284700000001,773.0,1
56231,56231,2020-12-02 16:53:36.956,772.6166400000001,773.0,1
56241,56241,2020-12-02 16:54:06.956,771.8679,772.0,1
56251,56251,2020-12-02 16:54:36.956,771.27716,772.0,1
56261,56261,2020-12-02 16:55:06.956,770.9007,771.0,1
56271,56271,2020-12-02 16:55:36.956,770.3818,770.0,1
56281,56281,2020-12-02 16:56:06.956,769.55426,770.0,1
56291,56291,2020-12-02 16:56:36.956,768.5544,769.0,1
56301,56301,2020-12-02 16:57:06.956,767.9049,768.0,1
56311,56311,2020-12-02 16:57:36.956,767.07117,768.0,1
56321,56321,2020-12-02 16:58:06.956,765.9518400000001,767.0,1
56331,56331,2020-12-02 16:58:36.956,765.55963,766.0,1
56341,56341,2020-12-02 16:59:06.956,765.061,766.0,1
56351,56351,2020-12-02 16:59:36.956,764.1885,765.0,1
56361,56361,2020-12-02 17:00:06.956,763.62775,765.0,1
56371,56371,2020-12-02 17:00:36.956,763.02,764.0,1
56381,56381,2020-12-02 17:01:06.956,762.6531,763.0,1
56391,56391,2020-12-02 17:01:36.956,762.00146,763.0,1
56401,56401,2020-12-02 17:02:06.956,761.26636,762.0,1
56411,56411,2020-12-02 17:02:36.956,760.8105,761.0,1
56421,56421,2020-12-02 17:03:06.956,760.1986,761.0,1
56431,56431,2020-12-02 17:03:36.956,759.2743,760.0,1
56441,56441,2020-12-02 17:04:06.956,758.8547,760.0,1
56451,56451,2020-12-02 17:04:36.956,758.34357,759.0,1
56461,56461,2020-12-02 17:05:06.956,757.9676,758.0,1
56471,56471,2020-12-02 17:05:36.956,757.49994,758.0,1
56481,56481,2020-12-02 17:06:06.956,756.49207,757.0,1
56491,56491,2020-12-02 17:06:36.956,756.2653,756.0,1
56501,56501,2020-12-02 17:07:06.956,755.4874,756.0,1
56511,56511,2020-12-02 17:07:36.956,754.643,755.0,1
56521,56521,2020-12-02 17:08:06.956,754.2408,755.0,1
56531,56531,2020-12-02 17:08:36.956,753.5505400000001,754.0,1
56541,56541,2020-12-02 17:09:06.956,753.0852,753.0,1
56551,56551,2020-12-02 17:09:36.956,752.4378,753.0,1
56561,56561,2020-12-02 17:10:06.956,751.7043,752.0,1
56571,56571,2020-12-02 17:10:36.956,751.29175,751.0,1
56581,56581,2020-12-02 17:11:06.956,750.51624,751.0,1
56591,56591,2020-12-02 17:11:36.956,749.6828,745.0,1
56601,56601,2020-12-02 17:12:06.956,749.28705,744.0,1
56611,56611,2020-12-02 17:12:36.956,743.1549,743.0,1
56621,56621,2020-12-02 17:13:06.956,742.575,743.0,1
56631,56631,2020-12-02 17:13:36.956,742.19336,742.0,1
56641,56641,2020-12-02 17:14:06.956,741.3836,741.0,1
56651,56651,2020-12-02 17:14:36.956,740.6444,741.0,1
56661,56661,2020-12-02 17:15:06.956,739.8658,740.0,1
56671,56671,2020-12-02 17:15:36.956,739.5363,739.0,1
56681,56681,2020-12-02 17:16:06.956,738.93787,739.0,1
56691,56691,2020-12-02 17:16:36.956,737.9136,738.0,1
56701,56701,2020-12-02 17:17:06.956,737.0508,737.0,1
56711,56711,2020-12-02 17:17:36.956,736.09094,737.0,1
56721,56721,2020-12-02 17:18:06.956,735.02496,736.0,1
56731,56731,2020-12-02 17:18:36.956,734.5151,736.0,1
56741,56741,2020-12-02 17:19:06.956,734.0151400000001,735.0,1
56751,56751,2020-12-02 17:19:36.956,733.5064,734.0,1
56761,56761,2020-12-02 17:20:06.956,732.9612,734.0,1
56771,56771,2020-12-02 17:20:36.956,732.1152,733.0,1
56781,56781,2020-12-02 17:21:06.956,731.6328,732.0,1
56791,56791,2020-12-02 17:21:36.956,731.0141,732.0,1
56801,56801,2020-12-02 17:22:06.956,730.1625,731.0,1
56811,56811,2020-12-02 17:22:36.956,729.592,730.0,1
56821,56821,2020-12-02 17:23:06.956,729.0310000000001,730.0,1
56831,56831,2020-12-02 17:23:36.956,728.2471,729.0,1
56841,56841,2020-12-02 17:24:06.956,727.81213,728.0,1
56851,56851,2020-12-02 17:24:36.956,727.317,728.0,1
56861,56861,2020-12-02 17:25:06.956,726.3366,727.0,1
56871,56871,2020-12-02 17:25:36.956,725.9612,726.0,1
56881,56881,2020-12-02 17:26:06.956,725.4551,726.0,1
56891,56891,2020-12-02 17:26:36.956,724.2691,725.0,1
56901,56901,2020-12-02 17:27:06.956,724.2223,724.0,1
56911,56911,2020-12-02 17:27:36.956,723.556,724.0,1
56921,56921,2020-12-02 17:28:06.956,722.7475599999999,723.0,1
56931,56931,2020-12-02 17:28:36.956,722.23285,723.0,1
56941,56941,2020-12-02 17:29:06.956,721.5594,722.0,1
56951,56951,2020-12-02 17:29:36.956,721.1051,721.0,1
56961,56961,2020-12-02 17:30:06.956,720.385,715.0,1
56971,56971,2020-12-02 17:30:36.956,719.6769400000001,713.0,1
56981,56981,2020-12-02 17:31:06.956,712.6191,713.0,1
56991,56991,2020-12-02 17:31:36.956,711.9811,712.0,1
57001,57001,2020-12-02 17:32:06.956,711.85223,712.0,1
57011,57011,2020-12-02 17:32:36.956,710.6497,711.0,1
57021,57021,2020-12-02 17:33:06.956,710.2512,710.0,1
57031,57031,2020-12-02 17:33:36.956,709.4141,710.0,1
57041,57041,2020-12-02 17:34:06.956,708.909,709.0,1
57051,57051,2020-12-02 17:34:36.956,708.4272,708.0,1
57061,57061,2020-12-02 17:35:06.956,707.52,708.0,1
57071,57071,2020-12-02 17:35:36.956,706.5351,707.0,1
57081,57081,2020-12-02 17:36:06.956,705.7453,707.0,1
57091,57091,2020-12-02 17:36:36.956,704.91986,706.0,1
57101,57101,2020-12-02 17:37:06.956,704.5347,705.0,1
57111,57111,2020-12-02 17:37:36.956,703.88477,705.0,1
57121,57121,2020-12-02 17:38:06.956,703.02515,704.0,1
57131,57131,2020-12-02 17:38:36.956,702.6975,703.0,1
57141,57141,2020-12-02 17:39:06.956,702.0563400000001,703.0,1
57151,57151,2020-12-02 17:39:36.956,701.2008,702.0,1
57161,57161,2020-12-02 17:40:06.956,700.5355,702.0,1
57171,57171,2020-12-02 17:40:36.956,699.97003,701.0,1
57181,57181,2020-12-02 17:41:06.956,699.3611,700.0,1
57191,57191,2020-12-02 17:41:36.956,698.7465,700.0,1
57201,57201,2020-12-02 17:42:06.956,698.2155,699.0,1
57211,57211,2020-12-02 17:42:36.956,697.8209,698.0,1
57221,57221,2020-12-02 17:43:06.956,697.2424,698.0,1
57231,57231,2020-12-02 17:43:36.956,696.49194,697.0,1
57241,57241,2020-12-02 17:44:06.956,696.0857,696.0,1
57251,57251,2020-12-02 17:44:36.956,695.5274,696.0,1
57261,57261,2020-12-02 17:45:06.956,694.2904,695.0,1
57271,57271,2020-12-02 17:45:36.956,694.3072,695.0,1
57281,57281,2020-12-02 17:46:06.956,693.6758,694.0,1
57291,57291,2020-12-02 17:46:36.956,693.2159,693.0,1
57301,57301,2020-12-02 17:47:06.956,692.48987,693.0,1
57311,57311,2020-12-02 17:47:36.956,691.76263,692.0,1
57321,57321,2020-12-02 17:48:06.956,691.3692599999999,691.0,1
57331,57331,2020-12-02 17:48:36.956,690.5827,691.0,1
57341,57341,2020-12-02 17:49:06.956,689.7335,683.0,1
57351,57351,2020-12-02 17:49:36.956,689.2929,682.0,1
57361,57361,2020-12-02 17:50:06.956,680.93463,681.0,1
57371,57371,2020-12-02 17:50:36.956,679.7288,681.0,1
57381,57381,2020-12-02 17:51:06.956,680.316,680.0,1
57391,57391,2020-12-02 17:51:36.956,679.3760000000001,680.0,1
57401,57401,2020-12-02 17:52:06.956,678.4984,679.0,1
57411,57411,2020-12-02 17:52:36.956,678.04913,678.0,1
57421,57421,2020-12-02 17:53:06.956,677.23425,678.0,1
57431,57431,2020-12-02 17:53:36.956,676.9924,677.0,1
57441,57441,2020-12-02 17:54:06.956,676.15295,676.0,1
57451,57451,2020-12-02 17:54:36.956,675.42365,676.0,1
57461,57461,2020-12-02 17:55:06.956,674.4521,675.0,1
57471,57471,2020-12-02 17:55:36.956,673.6451400000001,675.0,1
57481,57481,2020-12-02 17:56:06.956,672.93445,674.0,1
57491,57491,2020-12-02 17:56:36.956,672.3996599999999,673.0,1
57501,57501,2020-12-02 17:57:06.956,671.99634,673.0,1
57511,57511,2020-12-02 17:57:36.956,671.1474,672.0,1
57521,57521,2020-12-02 17:58:06.956,670.60565,671.0,1
57531,57531,2020-12-02 17:58:36.956,670.01483,671.0,1
57541,57541,2020-12-02 17:59:06.956,669.185,670.0,1
57551,57551,2020-12-02 17:59:36.956,668.58405,670.0,1
57561,57561,2020-12-02 18:00:06.956,667.9391,669.0,1
57571,57571,2020-12-02 18:00:36.956,667.3405,668.0,1
57581,57581,2020-12-02 18:01:06.956,666.8472,668.0,1
57591,57591,2020-12-02 18:01:36.956,666.31213,667.0,1
57601,57601,2020-12-02 18:02:06.956,665.9787,666.0,1
57611,57611,2020-12-02 18:02:36.956,665.4294,666.0,1
57621,57621,2020-12-02 18:03:06.956,664.5747,665.0,1
57631,57631,2020-12-02 18:03:36.956,664.10455,665.0,1
57641,57641,2020-12-02 18:04:06.956,663.4357,664.0,1
57651,57651,2020-12-02 18:04:36.956,663.23926,663.0,1
57661,57661,2020-12-02 18:05:06.956,662.5203,663.0,1
57671,57671,2020-12-02 18:05:36.956,661.8142,662.0,1
57681,57681,2020-12-02 18:06:06.956,661.387,661.0,1
57691,57691,2020-12-02 18:06:36.956,660.6069,661.0,1
57701,57701,2020-12-02 18:07:06.956,659.7699,652.0,1
57711,57711,2020-12-02 18:07:36.956,659.3467,651.0,1
57721,57721,2020-12-02 18:08:06.956,650.16034,650.0,1
57731,57731,2020-12-02 18:08:36.956,648.4906599999999,650.0,1
57741,57741,2020-12-02 18:09:06.956,649.355,649.0,1
57751,57751,2020-12-02 18:09:36.956,648.5874,649.0,1
57761,57761,2020-12-02 18:10:06.956,647.50916,648.0,1
57771,57771,2020-12-02 18:10:36.956,647.02637,647.0,1
57781,57781,2020-12-02 18:11:06.956,646.16205,647.0,1
57791,57791,2020-12-02 18:11:36.956,645.96277,646.0,1
57801,57801,2020-12-02 18:12:06.956,645.13495,645.0,1
57811,57811,2020-12-02 18:12:36.956,644.4848,645.0,1
57821,57821,2020-12-02 18:13:06.956,643.6120599999999,644.0,1
57831,57831,2020-12-02 18:13:36.956,642.77075,643.0,1
57841,57841,2020-12-02 18:14:06.956,641.8371,643.0,1
57851,57851,2020-12-02 18:14:36.956,640.8897,642.0,1
57861,57861,2020-12-02 18:15:06.956,640.71954,642.0,1
57871,57871,2020-12-02 18:15:36.956,640.00964,641.0,1
57881,57881,2020-12-02 18:16:06.956,639.4321,640.0,1
57891,57891,2020-12-02 18:16:36.956,638.6565,640.0,1
57901,57901,2020-12-02 18:17:06.956,638.1003,639.0,1
57911,57911,2020-12-02 18:17:36.956,637.5643299999999,638.0,1
57921,57921,2020-12-02 18:18:06.956,636.8675,638.0,1
57931,57931,2020-12-02 18:18:36.956,636.13965,637.0,1
57941,57941,2020-12-02 18:19:06.956,635.6730299999999,637.0,1
57951,57951,2020-12-02 18:19:36.956,635.1024,636.0,1
57961,57961,2020-12-02 18:20:06.956,634.61,635.0,1
57971,57971,2020-12-02 18:20:36.956,634.2352,635.0,1
57981,57981,2020-12-02 18:21:06.956,633.7923,634.0,1
57991,57991,2020-12-02 18:21:36.956,633.4732700000001,633.0,1
58001,58001,2020-12-02 18:22:06.956,632.712,633.0,1
58011,58011,2020-12-02 18:22:36.956,631.76697,632.0,1
58021,58021,2020-12-02 18:23:06.956,631.3307,632.0,1
58031,58031,2020-12-02 18:23:36.956,630.6431,631.0,1
58041,58041,2020-12-02 18:24:06.956,630.2181,621.0,1
58051,58051,2020-12-02 18:24:36.956,629.5014,620.0,1
58061,58061,2020-12-02 18:25:06.956,619.31055,620.0,1
58071,58071,2020-12-02 18:25:36.956,617.28735,619.0,1
58081,58081,2020-12-02 18:26:06.956,618.6582,618.0,1
58091,58091,2020-12-02 18:26:36.956,617.95374,618.0,1
58101,58101,2020-12-02 18:27:06.956,616.76953,617.0,1
58111,58111,2020-12-02 18:27:36.956,616.1451400000001,616.0,1
58121,58121,2020-12-02 18:28:06.956,615.2235,616.0,1
58131,58131,2020-12-02 18:28:36.956,614.96545,615.0,1
58141,58141,2020-12-02 18:29:06.956,614.1994,615.0,1
58151,58151,2020-12-02 18:29:36.956,613.4356700000001,614.0,1
58161,58161,2020-12-02 18:30:06.956,613.13257,613.0,1
58171,58171,2020-12-02 18:30:36.956,612.40674,613.0,1
58181,58181,2020-12-02 18:31:06.956,611.0896,612.0,1
58191,58191,2020-12-02 18:31:36.956,610.7044,611.0,1
58201,58201,2020-12-02 18:32:06.956,610.05804,611.0,1
58211,58211,2020-12-02 18:32:36.956,609.3627299999999,610.0,1
58221,58221,2020-12-02 18:33:06.956,608.614,609.0,1
58231,58231,2020-12-02 18:33:36.956,607.9507,609.0,1
58241,58241,2020-12-02 18:34:06.956,607.1157,608.0,1
58251,58251,2020-12-02 18:34:36.956,606.52783,608.0,1
58261,58261,2020-12-02 18:35:06.956,605.8702,607.0,1
58271,58271,2020-12-02 18:35:36.956,605.3455,606.0,1
58281,58281,2020-12-02 18:36:06.956,604.8659,606.0,1
58291,58291,2020-12-02 18:36:36.956,604.2736,605.0,1
58301,58301,2020-12-02 18:37:06.956,603.84985,604.0,1
58311,58311,2020-12-02 18:37:36.956,603.3464,604.0,1
58321,58321,2020-12-02 18:38:06.956,602.77545,603.0,1
58331,58331,2020-12-02 18:38:36.956,602.4883,603.0,1
58341,58341,2020-12-02 18:39:06.956,601.7262,602.0,1
58351,58351,2020-12-02 18:39:36.956,601.2593400000001,601.0,1
58361,58361,2020-12-02 18:40:06.956,600.53973,601.0,1
58371,58371,2020-12-02 18:40:36.956,599.8099,590.0,1
58381,58381,2020-12-02 18:41:06.956,599.4481,589.0,1
58391,58391,2020-12-02 18:41:36.956,588.5322,588.0,1
58401,58401,2020-12-02 18:42:06.956,586.2184,588.0,1
58411,58411,2020-12-02 18:42:36.956,587.2484,587.0,1
58421,58421,2020-12-02 18:43:06.956,586.88135,586.0,1
58431,58431,2020-12-02 18:43:36.956,585.5753,586.0,1
58441,58441,2020-12-02 18:44:06.956,584.45154,585.0,1
58451,58451,2020-12-02 18:44:36.956,583.9005,584.0,1
58461,58461,2020-12-02 18:45:06.956,583.6641,584.0,1
58471,58471,2020-12-02 18:45:36.956,582.7489,583.0,1
58481,58481,2020-12-02 18:46:06.956,582.16437,582.0,1
58491,58491,2020-12-02 18:46:36.956,581.68616,582.0,1
58501,58501,2020-12-02 18:47:06.956,580.56024,581.0,1
58511,58511,2020-12-02 18:47:36.956,579.4503,580.0,1
58521,58521,2020-12-02 18:48:06.956,579.0456,580.0,1
58531,58531,2020-12-02 18:48:36.956,578.2929,579.0,1
58541,58541,2020-12-02 18:49:06.956,577.5818,579.0,1
58551,58551,2020-12-02 18:49:36.956,576.9646,578.0,1
58561,58561,2020-12-02 18:50:06.956,576.31305,577.0,1
58571,58571,2020-12-02 18:50:36.956,575.69714,577.0,1
58581,58581,2020-12-02 18:51:06.956,574.9928,576.0,1
58591,58591,2020-12-02 18:51:36.956,574.4114,575.0,1
58601,58601,2020-12-02 18:52:06.956,573.7879,575.0,1
58611,58611,2020-12-02 18:52:36.956,573.0976,574.0,1
58621,58621,2020-12-02 18:53:06.956,572.63,573.0,1
58631,58631,2020-12-02 18:53:36.956,572.09564,573.0,1
58641,58641,2020-12-02 18:54:06.956,571.51544,572.0,1
58651,58651,2020-12-02 18:54:36.956,571.24445,571.0,1
58661,58661,2020-12-02 18:55:06.956,570.7937,571.0,1
58671,58671,2020-12-02 18:55:36.956,569.5063,559.0,1
58681,58681,2020-12-02 18:56:06.956,569.40796,558.0,1
58691,58691,2020-12-02 18:56:36.956,557.87897,557.0,1
58701,58701,2020-12-02 18:57:06.956,555.3743,557.0,1
58711,58711,2020-12-02 18:57:36.956,556.18884,556.0,1
58721,58721,2020-12-02 18:58:06.956,555.9933,555.0,1
58731,58731,2020-12-02 18:58:36.956,554.6585,555.0,1
58741,58741,2020-12-02 18:59:06.956,553.3874,554.0,1
58751,58751,2020-12-02 18:59:36.956,552.8178,554.0,1
58761,58761,2020-12-02 19:00:06.956,552.6028,553.0,1
58771,58771,2020-12-02 19:00:36.956,551.8273,552.0,1
58781,58781,2020-12-02 19:01:06.956,551.6673599999999,552.0,1
58791,58791,2020-12-02 19:01:36.956,551.3932,551.0,1
58801,58801,2020-12-02 19:02:06.956,550.49023,550.0,1
58811,58811,2020-12-02 19:02:36.956,549.2195,550.0,1
58821,58821,2020-12-02 19:03:06.956,548.2193,549.0,1
58831,58831,2020-12-02 19:03:36.956,547.5488,549.0,1
58841,58841,2020-12-02 19:04:06.956,546.9322,548.0,1
58851,58851,2020-12-02 19:04:36.956,546.2773,547.0,1
58861,58861,2020-12-02 19:05:06.956,545.66724,547.0,1
58871,58871,2020-12-02 19:05:36.956,544.88226,546.0,1
58881,58881,2020-12-02 19:06:06.956,544.2451,545.0,1
58891,58891,2020-12-02 19:06:36.956,543.48663,545.0,1
58901,58901,2020-12-02 19:07:06.956,542.59924,544.0,1
58911,58911,2020-12-02 19:07:36.956,542.0557,544.0,1
58921,58921,2020-12-02 19:08:06.956,541.4602,543.0,1
58931,58931,2020-12-02 19:08:36.956,541.1759599999999,542.0,1
58941,58941,2020-12-02 19:09:06.956,540.7506,542.0,1
58951,58951,2020-12-02 19:09:36.956,540.3162,541.0,1
58961,58961,2020-12-02 19:10:06.956,540.0992,528.0,1
58971,58971,2020-12-02 19:10:36.956,539.6934,527.0,1
58981,58981,2020-12-02 19:11:06.956,527.99207,527.0,1
58991,58991,2020-12-02 19:11:36.956,525.15704,526.0,1
59001,59001,2020-12-02 19:12:06.956,525.7871,525.0,1
59011,59011,2020-12-02 19:12:36.956,525.51575,525.0,1
59021,59021,2020-12-02 19:13:06.956,524.1032,524.0,1
59031,59031,2020-12-02 19:13:36.956,523.0982,523.0,1
59041,59041,2020-12-02 19:14:06.956,522.12756,523.0,1
59051,59051,2020-12-02 19:14:36.956,521.89465,522.0,1
59061,59061,2020-12-02 19:15:06.956,521.08636,522.0,1
59071,59071,2020-12-02 19:15:36.956,520.5478,521.0,1
59081,59081,2020-12-02 19:16:06.956,520.2669999999999,520.0,1
59091,59091,2020-12-02 19:16:36.956,519.2932,520.0,1
59101,59101,2020-12-02 19:17:06.956,518.00037,519.0,1
59111,59111,2020-12-02 19:17:36.956,516.8741,518.0,1
59121,59121,2020-12-02 19:18:06.956,516.1129,518.0,1
59131,59131,2020-12-02 19:18:36.956,515.22003,517.0,1
59141,59141,2020-12-02 19:19:06.956,514.749,517.0,1
59151,59151,2020-12-02 19:19:36.956,513.9939,516.0,1
59161,59161,2020-12-02 19:20:06.956,513.57574,515.0,1
59171,59171,2020-12-02 19:20:36.956,512.86774,515.0,1
59181,59181,2020-12-02 19:21:06.956,512.0688,514.0,1
59191,59191,2020-12-02 19:21:36.956,511.53384000000005,513.0,1
59201,59201,2020-12-02 19:22:06.956,510.93002,513.0,1
59211,59211,2020-12-02 19:22:36.956,510.32178,512.0,1
59221,59221,2020-12-02 19:23:06.956,509.9798,512.0,1
59231,59231,2020-12-02 19:23:36.956,509.6582,511.0,1
59241,59241,2020-12-02 19:24:06.956,509.51165999999995,497.0,1
59251,59251,2020-12-02 19:24:36.956,509.11157000000003,496.0,1
59261,59261,2020-12-02 19:25:06.956,494.8719,496.0,1
59271,59271,2020-12-02 19:25:36.956,494.34894,495.0,1
59281,59281,2020-12-02 19:26:06.956,494.97202000000004,494.0,1
59291,59291,2020-12-02 19:26:36.956,494.6546,494.0,1
59301,59301,2020-12-02 19:27:06.956,493.18134000000003,493.0,1
59311,59311,2020-12-02 19:27:36.956,492.05075,492.0,1
59321,59321,2020-12-02 19:28:06.956,491.12802,492.0,1
59331,59331,2020-12-02 19:28:36.956,490.85904000000005,491.0,1
59341,59341,2020-12-02 19:29:06.956,490.09235,490.0,1
59351,59351,2020-12-02 19:29:36.956,489.73125999999996,490.0,1
59361,59361,2020-12-02 19:30:06.956,488.89502000000005,489.0,1
59371,59371,2020-12-02 19:30:36.956,488.00272,489.0,1
59381,59381,2020-12-02 19:31:06.956,486.7375,488.0,1
59391,59391,2020-12-02 19:31:36.956,485.62395999999995,487.0,1
59401,59401,2020-12-02 19:32:06.956,484.72174,487.0,1
59411,59411,2020-12-02 19:32:36.956,484.23703,486.0,1
59421,59421,2020-12-02 19:33:06.956,483.77675999999997,485.0,1
59431,59431,2020-12-02 19:33:36.956,483.05133,485.0,1
59441,59441,2020-12-02 19:34:06.956,482.16763,484.0,1
59451,59451,2020-12-02 19:34:36.956,481.52032,484.0,1
59461,59461,2020-12-02 19:35:06.956,480.8156,483.0,1
59471,59471,2020-12-02 19:35:36.956,480.24997,482.0,1
59481,59481,2020-12-02 19:36:06.956,479.65317000000005,482.0,1
59491,59491,2020-12-02 19:36:36.956,479.1166,481.0,1
59501,59501,2020-12-02 19:37:06.956,478.81384,466.0,1
59511,59511,2020-12-02 19:37:36.956,478.49088,465.0,1
59521,59521,2020-12-02 19:38:06.956,459.96332,465.0,1
59531,59531,2020-12-02 19:38:36.956,460.8313,464.0,1
59541,59541,2020-12-02 19:39:06.956,463.6641,463.0,1
59551,59551,2020-12-02 19:39:36.956,463.77588,463.0,1
59561,59561,2020-12-02 19:40:06.956,462.20038,462.0,1
59571,59571,2020-12-02 19:40:36.956,461.0052,462.0,1
59581,59581,2020-12-02 19:41:06.956,460.09647,461.0,1
59591,59591,2020-12-02 19:41:36.956,460.05664,460.0,1
59601,59601,2020-12-02 19:42:06.956,459.21198,460.0,1
59611,59611,2020-12-02 19:42:36.956,459.07544,459.0,1
59621,59621,2020-12-02 19:43:06.956,458.3372,458.0,1
59631,59631,2020-12-02 19:43:36.956,457.17828,458.0,1
59641,59641,2020-12-02 19:44:06.956,455.73562999999996,457.0,1
59651,59651,2020-12-02 19:44:36.956,454.64682,457.0,1
59661,59661,2020-12-02 19:45:06.956,453.91335999999995,456.0,1
59671,59671,2020-12-02 19:45:36.956,453.54367,455.0,1
59681,59681,2020-12-02 19:46:06.956,453.1706,455.0,1
59691,59691,2020-12-02 19:46:36.956,452.26254000000006,454.0,1
59701,59701,2020-12-02 19:47:06.956,451.56424000000004,453.0,1
59711,59711,2020-12-02 19:47:36.956,450.7538,453.0,1
59721,59721,2020-12-02 19:48:06.956,449.95282000000003,452.0,1
59731,59731,2020-12-02 19:48:36.956,449.36053,451.0,1
59741,59741,2020-12-02 19:49:06.956,448.74962999999997,451.0,1
59751,59751,2020-12-02 19:49:36.956,448.1936,435.0,1
59761,59761,2020-12-02 19:50:06.956,447.86774,434.0,1
59771,59771,2020-12-02 19:50:36.956,427.21832,433.0,1
59781,59781,2020-12-02 19:51:06.956,429.36526,433.0,1
59791,59791,2020-12-02 19:51:36.956,432.0371,432.0,1
59801,59801,2020-12-02 19:52:06.956,431.70474,432.0,1
59811,59811,2020-12-02 19:52:36.956,431.04607999999996,431.0,1
59821,59821,2020-12-02 19:53:06.956,429.96234000000004,430.0,1
59831,59831,2020-12-02 19:53:36.956,428.94417999999996,430.0,1
59841,59841,2020-12-02 19:54:06.956,428.7575,429.0,1
59851,59851,2020-12-02 19:54:36.956,427.91034,428.0,1
59861,59861,2020-12-02 19:55:06.956,427.95322000000004,428.0,1
59871,59871,2020-12-02 19:55:36.956,426.90355999999997,427.0,1
59881,59881,2020-12-02 19:56:06.956,425.78815,426.0,1
59891,59891,2020-12-02 19:56:36.956,424.40997000000004,426.0,1
59901,59901,2020-12-02 19:57:06.956,423.18585,425.0,1
59911,59911,2020-12-02 19:57:36.956,422.60275,424.0,1
59921,59921,2020-12-02 19:58:06.956,422.14948,424.0,1
59931,59931,2020-12-02 19:58:36.956,421.5091,423.0,1
59941,59941,2020-12-02 19:59:06.956,420.8562,422.0,1
59951,59951,2020-12-02 19:59:36.956,420.02966,422.0,1
59961,59961,2020-12-02 20:00:06.956,419.11877000000004,421.0,1
59971,59971,2020-12-02 20:00:36.956,418.4588,405.0,1
59981,59981,2020-12-02 20:01:06.956,417.76592999999997,403.0,1
59991,59991,2020-12-02 20:01:36.956,394.2902,403.0,1
60001,60001,2020-12-02 20:02:06.956,400.00787,402.0,1
60011,60011,2020-12-02 20:02:36.956,400.57538,402.0,1
60021,60021,2020-12-02 20:03:06.956,399.681,401.0,1
60031,60031,2020-12-02 20:03:36.956,399.06085,400.0,1
60041,60041,2020-12-02 20:04:06.956,398.20114,400.0,1
60051,60051,2020-12-02 20:04:36.956,397.7898,399.0,1
60061,60061,2020-12-02 20:05:06.956,398.10004,398.0,1
60071,60071,2020-12-02 20:05:36.956,397.24707,398.0,1
60081,60081,2020-12-02 20:06:06.956,397.05800000000005,397.0,1
60091,60091,2020-12-02 20:06:36.956,396.30615,397.0,1
60101,60101,2020-12-02 20:07:06.956,395.064,396.0,1
60111,60111,2020-12-02 20:07:36.956,393.7858,395.0,1
60121,60121,2020-12-02 20:08:06.956,392.71008,395.0,1
60131,60131,2020-12-02 20:08:36.956,392.3307,394.0,1
60141,60141,2020-12-02 20:09:06.956,392.13943,393.0,1
60151,60151,2020-12-02 20:09:36.956,391.34778,393.0,1
60161,60161,2020-12-02 20:10:06.956,390.38473999999997,392.0,1
60171,60171,2020-12-02 20:10:36.956,389.6168,392.0,1
60181,60181,2020-12-02 20:11:06.956,388.79474,391.0,1
60191,60191,2020-12-02 20:11:36.956,388.10754,373.0,1
60201,60201,2020-12-02 20:12:06.956,387.41852,372.0,1
60211,60211,2020-12-02 20:12:36.956,361.52099999999996,372.0,1
60221,60221,2020-12-02 20:13:06.956,368.08475,371.0,1
60231,60231,2020-12-02 20:13:36.956,369.21735,370.0,1
60241,60241,2020-12-02 20:14:06.956,368.6096,370.0,1
60251,60251,2020-12-02 20:14:36.956,367.69167999999996,369.0,1
60261,60261,2020-12-02 20:15:06.956,366.95895,368.0,1
60271,60271,2020-12-02 20:15:36.956,366.48163,368.0,1
60281,60281,2020-12-02 20:16:06.956,366.67136,367.0,1
60291,60291,2020-12-02 20:16:36.956,365.95682,367.0,1
60301,60301,2020-12-02 20:17:06.956,365.9649,366.0,1
60311,60311,2020-12-02 20:17:36.956,365.1115,365.0,1
60321,60321,2020-12-02 20:18:06.956,363.83844,365.0,1
60331,60331,2020-12-02 20:18:36.956,362.45453,364.0,1
60341,60341,2020-12-02 20:19:06.956,361.53283999999996,363.0,1
60351,60351,2020-12-02 20:19:36.956,361.43045,363.0,1
60361,60361,2020-12-02 20:20:06.956,360.76764,362.0,1
60371,60371,2020-12-02 20:20:36.956,360.09167,362.0,1
60381,60381,2020-12-02 20:21:06.956,359.17883,361.0,1
60391,60391,2020-12-02 20:21:36.956,358.3956,342.0,1
60401,60401,2020-12-02 20:22:06.956,357.54703,341.0,1
60411,60411,2020-12-02 20:22:36.956,329.00223,341.0,1
60421,60421,2020-12-02 20:23:06.956,337.30147999999997,340.0,1
60431,60431,2020-12-02 20:23:36.956,338.01514,339.0,1
60441,60441,2020-12-02 20:24:06.956,336.88025,339.0,1
60451,60451,2020-12-02 20:24:36.956,335.6313,338.0,1
60461,60461,2020-12-02 20:25:06.956,335.6133,337.0,1
60471,60471,2020-12-02 20:25:36.956,335.76,337.0,1
60481,60481,2020-12-02 20:26:06.956,334.7249,336.0,1
60491,60491,2020-12-02 20:26:36.956,335.45065,336.0,1
60501,60501,2020-12-02 20:27:06.956,334.94707999999997,335.0,1
60511,60511,2020-12-02 20:27:36.956,334.05685,334.0,1
60521,60521,2020-12-02 20:28:06.956,332.75272,334.0,1
60531,60531,2020-12-02 20:28:36.956,331.36276000000004,333.0,1
60541,60541,2020-12-02 20:29:06.956,330.55062999999996,332.0,1
60551,60551,2020-12-02 20:29:36.956,330.5897,332.0,1
60561,60561,2020-12-02 20:30:06.956,329.82428,331.0,1
60571,60571,2020-12-02 20:30:36.956,329.0909,313.0,1
60581,60581,2020-12-02 20:31:06.956,328.15155,310.0,1
60591,60591,2020-12-02 20:31:36.956,300.64407,310.0,1
60601,60601,2020-12-02 20:32:06.956,307.2123,309.0,1
60611,60611,2020-12-02 20:32:36.956,307.0425,309.0,1
60621,60621,2020-12-02 20:33:06.956,305.70926000000003,308.0,1
60631,60631,2020-12-02 20:33:36.956,304.62146,307.0,1
60641,60641,2020-12-02 20:34:06.956,305.04315,307.0,1
60651,60651,2020-12-02 20:34:36.956,303.9737,306.0,1
60661,60661,2020-12-02 20:35:06.956,304.62622000000005,305.0,1
60671,60671,2020-12-02 20:35:36.956,304.09796,305.0,1
60681,60681,2020-12-02 20:36:06.956,303.08267,304.0,1
60691,60691,2020-12-02 20:36:36.956,302.42157000000003,304.0,1
60701,60701,2020-12-02 20:37:06.956,301.9225,303.0,1
60711,60711,2020-12-02 20:37:36.956,300.67177999999996,302.0,1
60721,60721,2020-12-02 20:38:06.956,299.7271,302.0,1
60731,60731,2020-12-02 20:38:36.956,299.7816,301.0,1
60741,60741,2020-12-02 20:39:06.956,299.31207,280.0,1
60751,60751,2020-12-02 20:39:36.956,298.3972,279.0,1
60761,60761,2020-12-02 20:40:06.956,265.23456,279.0,1
60771,60771,2020-12-02 20:40:36.956,274.63092,278.0,1
60781,60781,2020-12-02 20:41:06.956,275.66913,277.0,1
60791,60791,2020-12-02 20:41:36.956,274.12122,277.0,1
60801,60801,2020-12-02 20:42:06.956,272.76376,276.0,1
60811,60811,2020-12-02 20:42:36.956,273.68015,275.0,1
60821,60821,2020-12-02 20:43:06.956,272.21292,275.0,1
60831,60831,2020-12-02 20:43:36.956,273.24698,274.0,1
60841,60841,2020-12-02 20:44:06.956,272.22015,273.0,1
60851,60851,2020-12-02 20:44:36.956,271.0795,273.0,1
60861,60861,2020-12-02 20:45:06.956,270.11615,272.0,1
60871,60871,2020-12-02 20:45:36.956,269.52557,272.0,1
60881,60881,2020-12-02 20:46:06.956,268.97083,271.0,1
60891,60891,2020-12-02 20:46:36.956,268.4185,249.0,1
60901,60901,2020-12-02 20:47:06.956,268.51895,248.0,1
60911,60911,2020-12-02 20:47:36.956,233.6851,248.0,1
60921,60921,2020-12-02 20:48:06.956,243.08057999999997,247.0,1
60931,60931,2020-12-02 20:48:36.956,244.43127,246.0,1
60941,60941,2020-12-02 20:49:06.956,242.79967000000002,246.0,1
60951,60951,2020-12-02 20:49:36.956,241.37732999999997,245.0,1
60961,60961,2020-12-02 20:50:06.956,242.29813,244.0,1
60971,60971,2020-12-02 20:50:36.956,241.01186,244.0,1
60981,60981,2020-12-02 20:51:06.956,241.71114,243.0,1
60991,60991,2020-12-02 20:51:36.956,240.29372,242.0,1
61001,61001,2020-12-02 20:52:06.956,238.9686,242.0,1
61011,61011,2020-12-02 20:52:36.956,237.92857,241.0,1
61021,61021,2020-12-02 20:53:06.956,237.36073,221.0,1
61031,61031,2020-12-02 20:53:36.956,237.86295,218.0,1
61041,61041,2020-12-02 20:54:06.956,207.35262,217.0,1
61051,61051,2020-12-02 20:54:36.956,214.07668999999999,216.0,1
61061,61061,2020-12-02 20:55:06.956,214.09828,216.0,1
61071,61071,2020-12-02 20:55:36.956,212.64459,215.0,1
61081,61081,2020-12-02 20:56:06.956,211.00442999999999,214.0,1
61091,61091,2020-12-02 20:56:36.956,211.46129,214.0,1
61101,61101,2020-12-02 20:57:06.956,209.7313,213.0,1
61111,61111,2020-12-02 20:57:36.956,211.03055,212.0,1
61121,61121,2020-12-02 20:58:06.956,209.31956,212.0,1
61131,61131,2020-12-02 20:58:36.956,207.7022,211.0,1
61141,61141,2020-12-02 20:59:06.956,206.63308999999998,189.0,1
61151,61151,2020-12-02 20:59:36.956,206.37265,186.0,1
61161,61161,2020-12-02 21:00:06.956,179.06631000000002,186.0,1
61171,61171,2020-12-02 21:00:36.956,182.65683,185.0,1
61181,61181,2020-12-02 21:01:06.956,181.89252,185.0,1
61191,61191,2020-12-02 21:01:36.956,180.4393,184.0,1
61201,61201,2020-12-02 21:02:06.956,179.63702,183.0,1
61211,61211,2020-12-02 21:02:36.956,179.9669,183.0,1
61221,61221,2020-12-02 21:03:06.956,178.19383,182.0,1
61231,61231,2020-12-02 21:03:36.956,179.83533,181.0,1
61241,61241,2020-12-02 21:04:06.956,177.97711,181.0,1
61251,61251,2020-12-02 21:04:36.956,176.25963000000002,156.0,1
61261,61261,2020-12-02 21:05:06.956,175.19002,155.0,1
61271,61271,2020-12-02 21:05:36.956,144.19188,154.0,1
61281,61281,2020-12-02 21:06:06.956,151.00252,154.0,1
61291,61291,2020-12-02 21:06:36.956,148.76656,153.0,1
61301,61301,2020-12-02 21:07:06.956,147.328,153.0,1
61311,61311,2020-12-02 21:07:36.956,146.9241,152.0,1
61321,61321,2020-12-02 21:08:06.956,147.93332,151.0,1
61331,61331,2020-12-02 21:08:36.956,146.4036,151.0,1
61341,61341,2020-12-02 21:09:06.956,148.08847,125.0,1
61351,61351,2020-12-02 21:09:36.956,146.25922,124.0,1
61361,61361,2020-12-02 21:10:06.956,114.83418999999999,123.0,1
61371,61371,2020-12-02 21:10:36.956,120.44111000000001,123.0,1
61381,61381,2020-12-02 21:11:06.956,117.43784,122.0,1
61391,61391,2020-12-02 21:11:36.956,115.3965,121.0,1
61401,61401,2020-12-02 21:12:06.956,116.37682,101.0,1
61411,61411,2020-12-02 21:12:36.956,114.89908600000001,94.0,1
61421,61421,2020-12-02 21:13:06.956,106.778015,93.0,1
61431,61431,2020-12-02 21:13:36.956,94.01559,92.0,1
