,Unnamed: 0,time,prediction,real,step
54755,54755,2020-12-02 15:41:36.956,874.6510599999999,875.0,5
54765,54765,2020-12-02 15:42:06.956,874.0926,875.0,5
54775,54775,2020-12-02 15:42:36.956,873.2774,874.0,5
54785,54785,2020-12-02 15:43:06.956,872.48773,873.0,5
54795,54795,2020-12-02 15:43:36.956,872.0804400000001,873.0,5
54805,54805,2020-12-02 15:44:06.956,871.3266,872.0,5
54815,54815,2020-12-02 15:44:36.956,870.5336,871.0,5
54825,54825,2020-12-02 15:45:06.956,870.1116,871.0,5
54835,54835,2020-12-02 15:45:36.956,869.3318,869.0,5
54845,54845,2020-12-02 15:46:06.956,868.51044,868.0,5
54855,54855,2020-12-02 15:46:36.956,868.0641,867.0,5
54865,54865,2020-12-02 15:47:06.956,867.3883699999999,867.0,5
54875,54875,2020-12-02 15:47:36.956,866.5503,866.0,5
54885,54885,2020-12-02 15:48:06.956,866.0922,866.0,5
54895,54895,2020-12-02 15:48:36.956,864.8909,865.0,5
54905,54905,2020-12-02 15:49:06.956,863.9296,864.0,5
54915,54915,2020-12-02 15:49:36.956,862.91943,864.0,5
54925,54925,2020-12-02 15:50:06.956,862.4362,863.0,5
54935,54935,2020-12-02 15:50:36.956,861.6639,862.0,5
54945,54945,2020-12-02 15:51:06.956,861.1877,862.0,5
54955,54955,2020-12-02 15:51:36.956,860.6144400000001,861.0,5
54965,54965,2020-12-02 15:52:06.956,859.8119,861.0,5
54975,54975,2020-12-02 15:52:36.956,859.0119599999999,860.0,5
54985,54985,2020-12-02 15:53:06.956,858.0527300000001,859.0,5
54995,54995,2020-12-02 15:53:36.956,856.9883,859.0,5
55005,55005,2020-12-02 15:54:06.956,856.3767,858.0,5
55015,55015,2020-12-02 15:54:36.956,855.6761,857.0,5
55025,55025,2020-12-02 15:55:06.956,855.3869599999999,857.0,5
55035,55035,2020-12-02 15:55:36.956,854.9866300000001,856.0,5
55045,55045,2020-12-02 15:56:06.956,853.8951,856.0,5
55055,55055,2020-12-02 15:56:36.956,853.5025,855.0,5
55065,55065,2020-12-02 15:57:06.956,852.73175,854.0,5
55075,55075,2020-12-02 15:57:36.956,851.6594,854.0,5
55085,55085,2020-12-02 15:58:06.956,851.33966,853.0,5
55095,55095,2020-12-02 15:58:36.956,850.7376,852.0,5
55105,55105,2020-12-02 15:59:06.956,850.6354,852.0,5
55115,55115,2020-12-02 15:59:36.956,850.2117300000001,851.0,5
55125,55125,2020-12-02 16:00:06.956,849.06696,851.0,5
55135,55135,2020-12-02 16:00:36.956,848.6474599999999,850.0,5
55145,55145,2020-12-02 16:01:06.956,847.9249,849.0,5
55155,55155,2020-12-02 16:01:36.956,847.1304,849.0,5
55165,55165,2020-12-02 16:02:06.956,846.8476,848.0,5
55175,55175,2020-12-02 16:02:36.956,846.2503,847.0,5
55185,55185,2020-12-02 16:03:06.956,845.9989,847.0,5
55195,55195,2020-12-02 16:03:36.956,845.5201400000001,846.0,5
55205,55205,2020-12-02 16:04:06.956,844.7356599999999,845.0,5
55215,55215,2020-12-02 16:04:36.956,844.1374,845.0,5
55225,55225,2020-12-02 16:05:06.956,843.3652,844.0,5
55235,55235,2020-12-02 16:05:36.956,842.5008,844.0,5
55245,55245,2020-12-02 16:06:06.956,842.16077,843.0,5
55255,55255,2020-12-02 16:06:36.956,841.47125,842.0,5
55265,55265,2020-12-02 16:07:06.956,840.59064,842.0,5
55275,55275,2020-12-02 16:07:36.956,840.211,841.0,5
55285,55285,2020-12-02 16:08:06.956,839.4992699999999,838.0,5
55295,55295,2020-12-02 16:08:36.956,838.96075,837.0,5
55305,55305,2020-12-02 16:09:06.956,838.4298,837.0,5
55315,55315,2020-12-02 16:09:36.956,837.6369599999999,836.0,5
55325,55325,2020-12-02 16:10:06.956,837.12354,835.0,5
55335,55335,2020-12-02 16:10:36.956,836.321,835.0,5
55345,55345,2020-12-02 16:11:06.956,834.1401,834.0,5
55355,55355,2020-12-02 16:11:36.956,833.3552,834.0,5
55365,55365,2020-12-02 16:12:06.956,832.8238,833.0,5
55375,55375,2020-12-02 16:12:36.956,832.00995,832.0,5
55385,55385,2020-12-02 16:13:06.956,831.117,832.0,5
55395,55395,2020-12-02 16:13:36.956,830.73865,831.0,5
55405,55405,2020-12-02 16:14:06.956,830.07574,830.0,5
55415,55415,2020-12-02 16:14:36.956,829.4317599999999,830.0,5
55425,55425,2020-12-02 16:15:06.956,828.25385,829.0,5
55435,55435,2020-12-02 16:15:36.956,827.2485,829.0,5
55445,55445,2020-12-02 16:16:06.956,826.4328,828.0,5
55455,55455,2020-12-02 16:16:36.956,825.4261,827.0,5
55465,55465,2020-12-02 16:17:06.956,824.2837,827.0,5
55475,55475,2020-12-02 16:17:36.956,823.7764,826.0,5
55485,55485,2020-12-02 16:18:06.956,823.26666,825.0,5
55495,55495,2020-12-02 16:18:36.956,823.5164,825.0,5
55505,55505,2020-12-02 16:19:06.956,823.0384,824.0,5
55515,55515,2020-12-02 16:19:36.956,821.678,823.0,5
55525,55525,2020-12-02 16:20:06.956,821.7415,823.0,5
55535,55535,2020-12-02 16:20:36.956,820.8957,822.0,5
55545,55545,2020-12-02 16:21:06.956,819.3387,822.0,5
55555,55555,2020-12-02 16:21:36.956,819.4832,821.0,5
55565,55565,2020-12-02 16:22:06.956,818.80646,820.0,5
55575,55575,2020-12-02 16:22:36.956,817.3683,820.0,5
55585,55585,2020-12-02 16:23:06.956,817.28796,819.0,5
55595,55595,2020-12-02 16:23:36.956,816.5938,818.0,5
55605,55605,2020-12-02 16:24:06.956,816.5265,818.0,5
55615,55615,2020-12-02 16:24:36.956,816.06665,817.0,5
55625,55625,2020-12-02 16:25:06.956,815.26404,817.0,5
55635,55635,2020-12-02 16:25:36.956,815.0060000000001,816.0,5
55645,55645,2020-12-02 16:26:06.956,814.1966,815.0,5
55655,55655,2020-12-02 16:26:36.956,813.2913,815.0,5
55665,55665,2020-12-02 16:27:06.956,812.9044,814.0,5
55675,55675,2020-12-02 16:27:36.956,812.2298,813.0,5
55685,55685,2020-12-02 16:28:06.956,811.71045,813.0,5
55695,55695,2020-12-02 16:28:36.956,811.1941,812.0,5
55705,55705,2020-12-02 16:29:06.956,810.42566,812.0,5
55715,55715,2020-12-02 16:29:36.956,809.91516,811.0,5
55725,55725,2020-12-02 16:30:06.956,809.1163,807.0,5
55735,55735,2020-12-02 16:30:36.956,808.22156,806.0,5
55745,55745,2020-12-02 16:31:06.956,807.84406,806.0,5
55755,55755,2020-12-02 16:31:36.956,807.1826,805.0,5
55765,55765,2020-12-02 16:32:06.956,806.67365,804.0,5
55775,55775,2020-12-02 16:32:36.956,806.1652,804.0,5
55785,55785,2020-12-02 16:33:06.956,802.83594,803.0,5
55795,55795,2020-12-02 16:33:36.956,802.2752,802.0,5
55805,55805,2020-12-02 16:34:06.956,801.85785,802.0,5
55815,55815,2020-12-02 16:34:36.956,801.1054,801.0,5
55825,55825,2020-12-02 16:35:06.956,800.2828400000001,801.0,5
55835,55835,2020-12-02 16:35:36.956,799.9069,800.0,5
55845,55845,2020-12-02 16:36:06.956,799.2369,799.0,5
55855,55855,2020-12-02 16:36:36.956,798.2228,799.0,5
55865,55865,2020-12-02 16:37:06.956,797.0873,798.0,5
55875,55875,2020-12-02 16:37:36.956,795.7618,797.0,5
55885,55885,2020-12-02 16:38:06.956,794.9455,797.0,5
55895,55895,2020-12-02 16:38:36.956,794.17285,796.0,5
55905,55905,2020-12-02 16:39:06.956,793.2313,796.0,5
55915,55915,2020-12-02 16:39:36.956,793.1256,795.0,5
55925,55925,2020-12-02 16:40:06.956,792.5606,794.0,5
55935,55935,2020-12-02 16:40:36.956,790.9885,794.0,5
55945,55945,2020-12-02 16:41:06.956,791.4653,793.0,5
55955,55955,2020-12-02 16:41:36.956,790.9673,792.0,5
55965,55965,2020-12-02 16:42:06.956,791.05927,792.0,5
55975,55975,2020-12-02 16:42:36.956,790.53345,791.0,5
55985,55985,2020-12-02 16:43:06.956,789.3194599999999,790.0,5
55995,55995,2020-12-02 16:43:36.956,789.22687,790.0,5
56005,56005,2020-12-02 16:44:06.956,788.4678,789.0,5
56015,56015,2020-12-02 16:44:36.956,786.5444,789.0,5
56025,56025,2020-12-02 16:45:06.956,786.9346,788.0,5
56035,56035,2020-12-02 16:45:36.956,786.0391,787.0,5
56045,56045,2020-12-02 16:46:06.956,784.1513,787.0,5
56055,56055,2020-12-02 16:46:36.956,783.96686,786.0,5
56065,56065,2020-12-02 16:47:06.956,783.59296,785.0,5
56075,56075,2020-12-02 16:47:36.956,783.6125,785.0,5
56085,56085,2020-12-02 16:48:06.956,783.0158,784.0,5
56095,56095,2020-12-02 16:48:36.956,782.2986,784.0,5
56105,56105,2020-12-02 16:49:06.956,781.7796599999999,783.0,5
56115,56115,2020-12-02 16:49:36.956,780.97253,782.0,5
56125,56125,2020-12-02 16:50:06.956,780.0569,782.0,5
56135,56135,2020-12-02 16:50:36.956,779.62915,781.0,5
56145,56145,2020-12-02 16:51:06.956,778.99536,776.0,5
56155,56155,2020-12-02 16:51:36.956,778.4798599999999,775.0,5
56165,56165,2020-12-02 16:52:06.956,777.9133,775.0,5
56175,56175,2020-12-02 16:52:36.956,777.18353,774.0,5
56185,56185,2020-12-02 16:53:06.956,776.68677,773.0,5
56195,56195,2020-12-02 16:53:36.956,775.8904,773.0,5
56205,56205,2020-12-02 16:54:06.956,771.5018299999999,772.0,5
56215,56215,2020-12-02 16:54:36.956,771.0506,772.0,5
56225,56225,2020-12-02 16:55:06.956,770.7325400000001,771.0,5
56235,56235,2020-12-02 16:55:36.956,769.94006,770.0,5
56245,56245,2020-12-02 16:56:06.956,769.1776,770.0,5
56255,56255,2020-12-02 16:56:36.956,768.80884,769.0,5
56265,56265,2020-12-02 16:57:06.956,768.2501,768.0,5
56275,56275,2020-12-02 16:57:36.956,767.6899400000001,768.0,5
56285,56285,2020-12-02 16:58:06.956,766.62866,767.0,5
56295,56295,2020-12-02 16:58:36.956,764.92395,766.0,5
56305,56305,2020-12-02 16:59:06.956,763.8905599999999,766.0,5
56315,56315,2020-12-02 16:59:36.956,762.7102,765.0,5
56325,56325,2020-12-02 17:00:06.956,761.2555,765.0,5
56335,56335,2020-12-02 17:00:36.956,761.4909,764.0,5
56345,56345,2020-12-02 17:01:06.956,761.7051,763.0,5
56355,56355,2020-12-02 17:01:36.956,760.36615,763.0,5
56365,56365,2020-12-02 17:02:06.956,760.7842,762.0,5
56375,56375,2020-12-02 17:02:36.956,760.2389,761.0,5
56385,56385,2020-12-02 17:03:06.956,760.1085,761.0,5
56395,56395,2020-12-02 17:03:36.956,759.51965,760.0,5
56405,56405,2020-12-02 17:04:06.956,758.6306,760.0,5
56415,56415,2020-12-02 17:04:36.956,758.30444,759.0,5
56425,56425,2020-12-02 17:05:06.956,757.6329,758.0,5
56435,56435,2020-12-02 17:05:36.956,756.36255,758.0,5
56445,56445,2020-12-02 17:06:06.956,756.3181,757.0,5
56455,56455,2020-12-02 17:06:36.956,755.6393400000001,756.0,5
56465,56465,2020-12-02 17:07:06.956,755.51324,756.0,5
56475,56475,2020-12-02 17:07:36.956,754.5589,755.0,5
56485,56485,2020-12-02 17:08:06.956,752.50757,755.0,5
56495,56495,2020-12-02 17:08:36.956,752.5878,754.0,5
56505,56505,2020-12-02 17:09:06.956,751.7959,753.0,5
56515,56515,2020-12-02 17:09:36.956,750.8961,753.0,5
56525,56525,2020-12-02 17:10:06.956,750.46655,752.0,5
56535,56535,2020-12-02 17:10:36.956,749.8462,751.0,5
56545,56545,2020-12-02 17:11:06.956,749.3823,751.0,5
56555,56555,2020-12-02 17:11:36.956,748.7779,745.0,5
56565,56565,2020-12-02 17:12:06.956,748.0395,744.0,5
56575,56575,2020-12-02 17:12:36.956,747.6184,743.0,5
56585,56585,2020-12-02 17:13:06.956,746.83734,743.0,5
56595,56595,2020-12-02 17:13:36.956,745.94745,742.0,5
56605,56605,2020-12-02 17:14:06.956,745.53735,741.0,5
56615,56615,2020-12-02 17:14:36.956,740.6297599999999,741.0,5
56625,56625,2020-12-02 17:15:06.956,739.6475,740.0,5
56635,56635,2020-12-02 17:15:36.956,739.48627,739.0,5
56645,56645,2020-12-02 17:16:06.956,738.48895,739.0,5
56655,56655,2020-12-02 17:16:36.956,737.9133,738.0,5
56665,56665,2020-12-02 17:17:06.956,737.23645,737.0,5
56675,56675,2020-12-02 17:17:36.956,736.9264,737.0,5
56685,56685,2020-12-02 17:18:06.956,736.035,736.0,5
56695,56695,2020-12-02 17:18:36.956,734.888,736.0,5
56705,56705,2020-12-02 17:19:06.956,733.3958,735.0,5
56715,56715,2020-12-02 17:19:36.956,731.5649,734.0,5
56725,56725,2020-12-02 17:20:06.956,729.9404,734.0,5
56735,56735,2020-12-02 17:20:36.956,729.7312599999999,733.0,5
56745,56745,2020-12-02 17:21:06.956,730.25977,732.0,5
56755,56755,2020-12-02 17:21:36.956,730.7804,732.0,5
56765,56765,2020-12-02 17:22:06.956,730.3871,731.0,5
56775,56775,2020-12-02 17:22:36.956,729.4689,730.0,5
56785,56785,2020-12-02 17:23:06.956,729.2275400000001,730.0,5
56795,56795,2020-12-02 17:23:36.956,728.4963,729.0,5
56805,56805,2020-12-02 17:24:06.956,727.4432,728.0,5
56815,56815,2020-12-02 17:24:36.956,727.1304,728.0,5
56825,56825,2020-12-02 17:25:06.956,726.5706,727.0,5
56835,56835,2020-12-02 17:25:36.956,725.60834,726.0,5
56845,56845,2020-12-02 17:26:06.956,725.4448,726.0,5
56855,56855,2020-12-02 17:26:36.956,724.91296,725.0,5
56865,56865,2020-12-02 17:27:06.956,723.4578,724.0,5
56875,56875,2020-12-02 17:27:36.956,723.3538,724.0,5
56885,56885,2020-12-02 17:28:06.956,721.7679400000001,723.0,5
56895,56895,2020-12-02 17:28:36.956,720.0310000000001,723.0,5
56905,56905,2020-12-02 17:29:06.956,720.36487,722.0,5
56915,56915,2020-12-02 17:29:36.956,719.7737400000001,721.0,5
56925,56925,2020-12-02 17:30:06.956,718.9492,715.0,5
56935,56935,2020-12-02 17:30:36.956,718.3772,713.0,5
56945,56945,2020-12-02 17:31:06.956,717.7755,713.0,5
56955,56955,2020-12-02 17:31:36.956,717.3606,712.0,5
56965,56965,2020-12-02 17:32:06.956,716.6151,712.0,5
56975,56975,2020-12-02 17:32:36.956,715.89716,711.0,5
56985,56985,2020-12-02 17:33:06.956,710.1452,710.0,5
56995,56995,2020-12-02 17:33:36.956,708.7697,710.0,5
57005,57005,2020-12-02 17:34:06.956,709.0047,709.0,5
57015,57015,2020-12-02 17:34:36.956,707.5934,708.0,5
57025,57025,2020-12-02 17:35:06.956,707.3709,708.0,5
57035,57035,2020-12-02 17:35:36.956,706.80505,707.0,5
57045,57045,2020-12-02 17:36:06.956,706.16547,707.0,5
57055,57055,2020-12-02 17:36:36.956,705.4699,706.0,5
57065,57065,2020-12-02 17:37:06.956,704.48016,705.0,5
57075,57075,2020-12-02 17:37:36.956,703.01636,705.0,5
57085,57085,2020-12-02 17:38:06.956,701.0158,704.0,5
57095,57095,2020-12-02 17:38:36.956,699.78296,703.0,5
57105,57105,2020-12-02 17:39:06.956,701.3807,703.0,5
57115,57115,2020-12-02 17:39:36.956,701.1934,702.0,5
57125,57125,2020-12-02 17:40:06.956,700.34406,702.0,5
57135,57135,2020-12-02 17:40:36.956,700.4853,701.0,5
57145,57145,2020-12-02 17:41:06.956,699.74506,700.0,5
57155,57155,2020-12-02 17:41:36.956,698.6829,700.0,5
57165,57165,2020-12-02 17:42:06.956,698.2361,699.0,5
57175,57175,2020-12-02 17:42:36.956,697.6143,698.0,5
57185,57185,2020-12-02 17:43:06.956,697.1272,698.0,5
57195,57195,2020-12-02 17:43:36.956,696.5503,697.0,5
57205,57205,2020-12-02 17:44:06.956,695.9436,696.0,5
57215,57215,2020-12-02 17:44:36.956,695.55835,696.0,5
57225,57225,2020-12-02 17:45:06.956,695.04987,695.0,5
57235,57235,2020-12-02 17:45:36.956,694.0164,695.0,5
57245,57245,2020-12-02 17:46:06.956,693.8355,694.0,5
57255,57255,2020-12-02 17:46:36.956,692.6993,693.0,5
57265,57265,2020-12-02 17:47:06.956,690.0955,693.0,5
57275,57275,2020-12-02 17:47:36.956,690.5788,692.0,5
57285,57285,2020-12-02 17:48:06.956,690.06055,691.0,5
57295,57295,2020-12-02 17:48:36.956,689.5948,691.0,5
57305,57305,2020-12-02 17:49:06.956,688.8695700000001,683.0,5
57315,57315,2020-12-02 17:49:36.956,688.1216400000001,682.0,5
57325,57325,2020-12-02 17:50:06.956,687.74854,681.0,5
57335,57335,2020-12-02 17:50:36.956,686.9439,681.0,5
57345,57345,2020-12-02 17:51:06.956,686.075,680.0,5
57355,57355,2020-12-02 17:51:36.956,685.58417,680.0,5
57365,57365,2020-12-02 17:52:06.956,679.04517,679.0,5
57375,57375,2020-12-02 17:52:36.956,676.8127400000001,678.0,5
57385,57385,2020-12-02 17:53:06.956,677.56506,678.0,5
57395,57395,2020-12-02 17:53:36.956,676.34326,677.0,5
57405,57405,2020-12-02 17:54:06.956,675.58295,676.0,5
57415,57415,2020-12-02 17:54:36.956,675.4924,676.0,5
57425,57425,2020-12-02 17:55:06.956,674.9026,675.0,5
57435,57435,2020-12-02 17:55:36.956,674.0855,675.0,5
57445,57445,2020-12-02 17:56:06.956,673.2178,674.0,5
57455,57455,2020-12-02 17:56:36.956,672.07367,673.0,5
57465,57465,2020-12-02 17:57:06.956,669.7503,673.0,5
57475,57475,2020-12-02 17:57:36.956,668.5328,672.0,5
57485,57485,2020-12-02 17:58:06.956,669.28754,671.0,5
57495,57495,2020-12-02 17:58:36.956,669.933,671.0,5
57505,57505,2020-12-02 17:59:06.956,670.04156,670.0,5
57515,57515,2020-12-02 17:59:36.956,669.12714,670.0,5
57525,57525,2020-12-02 18:00:06.956,668.5549,669.0,5
57535,57535,2020-12-02 18:00:36.956,667.73584,668.0,5
57545,57545,2020-12-02 18:01:06.956,666.8331,668.0,5
57555,57555,2020-12-02 18:01:36.956,666.25385,667.0,5
57565,57565,2020-12-02 18:02:06.956,665.59106,666.0,5
57575,57575,2020-12-02 18:02:36.956,665.09607,666.0,5
57585,57585,2020-12-02 18:03:06.956,664.5931400000001,665.0,5
57595,57595,2020-12-02 18:03:36.956,664.11017,665.0,5
57605,57605,2020-12-02 18:04:06.956,663.8208,664.0,5
57615,57615,2020-12-02 18:04:36.956,663.4245,663.0,5
57625,57625,2020-12-02 18:05:06.956,662.0407,663.0,5
57635,57635,2020-12-02 18:05:36.956,661.5555,662.0,5
57645,57645,2020-12-02 18:06:06.956,659.1584,661.0,5
57655,57655,2020-12-02 18:06:36.956,659.6553,661.0,5
57665,57665,2020-12-02 18:07:06.956,658.95374,652.0,5
57675,57675,2020-12-02 18:07:36.956,658.2651400000001,651.0,5
57685,57685,2020-12-02 18:08:06.956,657.7922,650.0,5
57695,57695,2020-12-02 18:08:36.956,657.0058,650.0,5
57705,57705,2020-12-02 18:09:06.956,656.18,649.0,5
57715,57715,2020-12-02 18:09:36.956,655.69916,649.0,5
57725,57725,2020-12-02 18:10:06.956,648.4816,648.0,5
57735,57735,2020-12-02 18:10:36.956,645.85284,647.0,5
57745,57745,2020-12-02 18:11:06.956,646.6224,647.0,5
57755,57755,2020-12-02 18:11:36.956,645.5845,646.0,5
57765,57765,2020-12-02 18:12:06.956,644.5766,645.0,5
57775,57775,2020-12-02 18:12:36.956,644.5391,645.0,5
57785,57785,2020-12-02 18:13:06.956,643.869,644.0,5
57795,57795,2020-12-02 18:13:36.956,643.1716299999999,643.0,5
57805,57805,2020-12-02 18:14:06.956,642.279,643.0,5
57815,57815,2020-12-02 18:14:36.956,641.2975,642.0,5
57825,57825,2020-12-02 18:15:06.956,639.3063,642.0,5
57835,57835,2020-12-02 18:15:36.956,638.0165400000001,641.0,5
57845,57845,2020-12-02 18:16:06.956,638.57025,640.0,5
57855,57855,2020-12-02 18:16:36.956,637.8215,640.0,5
57865,57865,2020-12-02 18:17:06.956,638.73114,639.0,5
57875,57875,2020-12-02 18:17:36.956,638.0828,638.0,5
57885,57885,2020-12-02 18:18:06.956,637.4008,638.0,5
57895,57895,2020-12-02 18:18:36.956,636.5407,637.0,5
57905,57905,2020-12-02 18:19:06.956,635.7444,637.0,5
57915,57915,2020-12-02 18:19:36.956,635.0864,636.0,5
57925,57925,2020-12-02 18:20:06.956,634.34686,635.0,5
57935,57935,2020-12-02 18:20:36.956,633.6347,635.0,5
57945,57945,2020-12-02 18:21:06.956,633.19714,634.0,5
57955,57955,2020-12-02 18:21:36.956,632.7781,633.0,5
57965,57965,2020-12-02 18:22:06.956,632.50604,633.0,5
57975,57975,2020-12-02 18:22:36.956,632.2655,632.0,5
57985,57985,2020-12-02 18:23:06.956,632.00525,632.0,5
57995,57995,2020-12-02 18:23:36.956,631.7714,631.0,5
58005,58005,2020-12-02 18:24:06.956,629.05835,621.0,5
58015,58015,2020-12-02 18:24:36.956,628.1948,620.0,5
58025,58025,2020-12-02 18:25:06.956,627.6817599999999,620.0,5
58035,58035,2020-12-02 18:25:36.956,627.0724,619.0,5
58045,58045,2020-12-02 18:26:06.956,626.6323,618.0,5
58055,58055,2020-12-02 18:26:36.956,625.9195599999999,618.0,5
58065,58065,2020-12-02 18:27:06.956,617.7974,617.0,5
58075,58075,2020-12-02 18:27:36.956,614.87463,616.0,5
58085,58085,2020-12-02 18:28:06.956,615.61224,616.0,5
58095,58095,2020-12-02 18:28:36.956,614.9859,615.0,5
58105,58105,2020-12-02 18:29:06.956,613.8813,615.0,5
58115,58115,2020-12-02 18:29:36.956,613.7176,614.0,5
58125,58125,2020-12-02 18:30:06.956,612.93384,613.0,5
58135,58135,2020-12-02 18:30:36.956,612.3211,613.0,5
58145,58145,2020-12-02 18:31:06.956,611.3919,612.0,5
58155,58155,2020-12-02 18:31:36.956,610.2676,611.0,5
58165,58165,2020-12-02 18:32:06.956,609.94,611.0,5
58175,58175,2020-12-02 18:32:36.956,609.37286,610.0,5
58185,58185,2020-12-02 18:33:06.956,608.1821,609.0,5
58195,58195,2020-12-02 18:33:36.956,609.0356,609.0,5
58205,58205,2020-12-02 18:34:06.956,608.2603,608.0,5
58215,58215,2020-12-02 18:34:36.956,607.2624,608.0,5
58225,58225,2020-12-02 18:35:06.956,606.3998,607.0,5
58235,58235,2020-12-02 18:35:36.956,605.54095,606.0,5
58245,58245,2020-12-02 18:36:06.956,604.62854,606.0,5
58255,58255,2020-12-02 18:36:36.956,603.93353,605.0,5
58265,58265,2020-12-02 18:37:06.956,603.2597,604.0,5
58275,58275,2020-12-02 18:37:36.956,602.6652,604.0,5
58285,58285,2020-12-02 18:38:06.956,602.1574,603.0,5
58295,58295,2020-12-02 18:38:36.956,601.729,603.0,5
58305,58305,2020-12-02 18:39:06.956,601.42645,602.0,5
58315,58315,2020-12-02 18:39:36.956,601.0999,601.0,5
58325,58325,2020-12-02 18:40:06.956,600.7977,601.0,5
58335,58335,2020-12-02 18:40:36.956,600.77325,590.0,5
58345,58345,2020-12-02 18:41:06.956,597.91046,589.0,5
58355,58355,2020-12-02 18:41:36.956,597.7289400000001,588.0,5
58365,58365,2020-12-02 18:42:06.956,597.01074,588.0,5
58375,58375,2020-12-02 18:42:36.956,596.3240000000001,587.0,5
58385,58385,2020-12-02 18:43:06.956,595.9422,586.0,5
58395,58395,2020-12-02 18:43:36.956,587.0855,586.0,5
58405,58405,2020-12-02 18:44:06.956,583.7342,585.0,5
58415,58415,2020-12-02 18:44:36.956,584.2709,584.0,5
58425,58425,2020-12-02 18:45:06.956,583.9284700000001,584.0,5
58435,58435,2020-12-02 18:45:36.956,582.69885,583.0,5
58445,58445,2020-12-02 18:46:06.956,582.1166,582.0,5
58455,58455,2020-12-02 18:46:36.956,581.5953400000001,582.0,5
58465,58465,2020-12-02 18:47:06.956,581.0812400000001,581.0,5
58475,58475,2020-12-02 18:47:36.956,579.97217,580.0,5
58485,58485,2020-12-02 18:48:06.956,579.10284,580.0,5
58495,58495,2020-12-02 18:48:36.956,578.3894,579.0,5
58505,58505,2020-12-02 18:49:06.956,576.4579,579.0,5
58515,58515,2020-12-02 18:49:36.956,576.4571,578.0,5
58525,58525,2020-12-02 18:50:06.956,577.27936,577.0,5
58535,58535,2020-12-02 18:50:36.956,576.418,577.0,5
58545,58545,2020-12-02 18:51:06.956,575.5656,576.0,5
58555,58555,2020-12-02 18:51:36.956,574.639,575.0,5
58565,58565,2020-12-02 18:52:06.956,573.7725,575.0,5
58575,58575,2020-12-02 18:52:36.956,572.94696,574.0,5
58585,58585,2020-12-02 18:53:06.956,572.1565,573.0,5
58595,58595,2020-12-02 18:53:36.956,571.42926,573.0,5
58605,58605,2020-12-02 18:54:06.956,570.7141,572.0,5
58615,58615,2020-12-02 18:54:36.956,570.14435,571.0,5
58625,58625,2020-12-02 18:55:06.956,569.69165,571.0,5
58635,58635,2020-12-02 18:55:36.956,569.3276,559.0,5
58645,58645,2020-12-02 18:56:06.956,569.036,558.0,5
58655,58655,2020-12-02 18:56:36.956,569.1393400000001,557.0,5
58665,58665,2020-12-02 18:57:06.956,569.0839,557.0,5
58675,58675,2020-12-02 18:57:36.956,564.75446,556.0,5
58685,58685,2020-12-02 18:58:06.956,565.86017,555.0,5
58695,58695,2020-12-02 18:58:36.956,556.2975,555.0,5
58705,58705,2020-12-02 18:59:06.956,552.64136,554.0,5
58715,58715,2020-12-02 18:59:36.956,553.189,554.0,5
58725,58725,2020-12-02 19:00:06.956,553.0093,553.0,5
58735,58735,2020-12-02 19:00:36.956,551.781,552.0,5
58745,58745,2020-12-02 19:01:06.956,551.0475,552.0,5
58755,58755,2020-12-02 19:01:36.956,550.4598,551.0,5
58765,58765,2020-12-02 19:02:06.956,549.9834,550.0,5
58775,58775,2020-12-02 19:02:36.956,549.09186,550.0,5
58785,58785,2020-12-02 19:03:06.956,549.0015,549.0,5
58795,58795,2020-12-02 19:03:36.956,548.5842,549.0,5
58805,58805,2020-12-02 19:04:06.956,547.6015,548.0,5
58815,58815,2020-12-02 19:04:36.956,546.9508,547.0,5
58825,58825,2020-12-02 19:05:06.956,545.8252,547.0,5
58835,58835,2020-12-02 19:05:36.956,545.1862,546.0,5
58845,58845,2020-12-02 19:06:06.956,543.9269,545.0,5
58855,58855,2020-12-02 19:06:36.956,542.64386,545.0,5
58865,58865,2020-12-02 19:07:06.956,541.1931,544.0,5
58875,58875,2020-12-02 19:07:36.956,539.8218400000001,544.0,5
58885,58885,2020-12-02 19:08:06.956,538.5712,543.0,5
58895,58895,2020-12-02 19:08:36.956,537.41724,542.0,5
58905,58905,2020-12-02 19:09:06.956,536.59125,542.0,5
58915,58915,2020-12-02 19:09:36.956,535.86383,541.0,5
58925,58925,2020-12-02 19:10:06.956,535.4917,528.0,5
58935,58935,2020-12-02 19:10:36.956,535.4089,527.0,5
58945,58945,2020-12-02 19:11:06.956,535.4887,527.0,5
58955,58955,2020-12-02 19:11:36.956,535.86224,526.0,5
58965,58965,2020-12-02 19:12:06.956,536.5495599999999,525.0,5
58975,58975,2020-12-02 19:12:36.956,536.4117,525.0,5
58985,58985,2020-12-02 19:13:06.956,526.27454,524.0,5
58995,58995,2020-12-02 19:13:36.956,522.2632,523.0,5
59005,59005,2020-12-02 19:14:06.956,522.7065,523.0,5
59015,59015,2020-12-02 19:14:36.956,522.631,522.0,5
59025,59025,2020-12-02 19:15:06.956,521.2655,522.0,5
59035,59035,2020-12-02 19:15:36.956,520.7674,521.0,5
59045,59045,2020-12-02 19:16:06.956,519.7415,520.0,5
59055,59055,2020-12-02 19:16:36.956,519.26776,520.0,5
59065,59065,2020-12-02 19:17:06.956,518.3244599999999,519.0,5
59075,59075,2020-12-02 19:17:36.956,517.96014,518.0,5
59085,59085,2020-12-02 19:18:06.956,517.7179,518.0,5
59095,59095,2020-12-02 19:18:36.956,516.0902,517.0,5
59105,59105,2020-12-02 19:19:06.956,514.7445,517.0,5
59115,59115,2020-12-02 19:19:36.956,513.4601,516.0,5
59125,59125,2020-12-02 19:20:06.956,511.80225,515.0,5
59135,59135,2020-12-02 19:20:36.956,509.91095,515.0,5
59145,59145,2020-12-02 19:21:06.956,508.5371,514.0,5
59155,59155,2020-12-02 19:21:36.956,506.97348,513.0,5
59165,59165,2020-12-02 19:22:06.956,505.59005999999994,513.0,5
59175,59175,2020-12-02 19:22:36.956,504.3654,512.0,5
59185,59185,2020-12-02 19:23:06.956,503.4862,512.0,5
59195,59195,2020-12-02 19:23:36.956,502.575,511.0,5
59205,59205,2020-12-02 19:24:06.956,502.1074,497.0,5
59215,59215,2020-12-02 19:24:36.956,502.0773,496.0,5
59225,59225,2020-12-02 19:25:06.956,501.9511,496.0,5
59235,59235,2020-12-02 19:25:36.956,502.59952000000004,495.0,5
59245,59245,2020-12-02 19:26:06.956,503.24425999999994,494.0,5
59255,59255,2020-12-02 19:26:36.956,504.33008,494.0,5
59265,59265,2020-12-02 19:27:06.956,492.85657000000003,493.0,5
59275,59275,2020-12-02 19:27:36.956,491.36037999999996,492.0,5
59285,59285,2020-12-02 19:28:06.956,491.82745,492.0,5
59295,59295,2020-12-02 19:28:36.956,491.78662,491.0,5
59305,59305,2020-12-02 19:29:06.956,490.3366,490.0,5
59315,59315,2020-12-02 19:29:36.956,489.74325999999996,490.0,5
59325,59325,2020-12-02 19:30:06.956,488.68127000000004,489.0,5
59335,59335,2020-12-02 19:30:36.956,488.2117,489.0,5
59345,59345,2020-12-02 19:31:06.956,487.27454000000006,488.0,5
59355,59355,2020-12-02 19:31:36.956,487.37363,487.0,5
59365,59365,2020-12-02 19:32:06.956,486.23175,487.0,5
59375,59375,2020-12-02 19:32:36.956,484.29663,486.0,5
59385,59385,2020-12-02 19:33:06.956,482.5912,485.0,5
59395,59395,2020-12-02 19:33:36.956,480.98593,485.0,5
59405,59405,2020-12-02 19:34:06.956,478.9226,484.0,5
59415,59415,2020-12-02 19:34:36.956,477.2253,484.0,5
59425,59425,2020-12-02 19:35:06.956,475.59348,483.0,5
59435,59435,2020-12-02 19:35:36.956,474.13272,482.0,5
59445,59445,2020-12-02 19:36:06.956,473.0306,482.0,5
59455,59455,2020-12-02 19:36:36.956,471.8247,481.0,5
59465,59465,2020-12-02 19:37:06.956,471.13544,466.0,5
59475,59475,2020-12-02 19:37:36.956,470.29337000000004,465.0,5
59485,59485,2020-12-02 19:38:06.956,469.89275999999995,465.0,5
59495,59495,2020-12-02 19:38:36.956,469.96274000000005,464.0,5
59505,59505,2020-12-02 19:39:06.956,469.99105999999995,463.0,5
59515,59515,2020-12-02 19:39:36.956,470.50915999999995,463.0,5
59525,59525,2020-12-02 19:40:06.956,457.46795999999995,462.0,5
59535,59535,2020-12-02 19:40:36.956,456.1683,462.0,5
59545,59545,2020-12-02 19:41:06.956,460.4129,461.0,5
59555,59555,2020-12-02 19:41:36.956,460.87424000000004,460.0,5
59565,59565,2020-12-02 19:42:06.956,459.29675,460.0,5
59575,59575,2020-12-02 19:42:36.956,458.6646,459.0,5
59585,59585,2020-12-02 19:43:06.956,457.55273,458.0,5
59595,59595,2020-12-02 19:43:36.956,457.33575,458.0,5
59605,59605,2020-12-02 19:44:06.956,456.37003,457.0,5
59615,59615,2020-12-02 19:44:36.956,457.00705,457.0,5
59625,59625,2020-12-02 19:45:06.956,455.76038,456.0,5
59635,59635,2020-12-02 19:45:36.956,453.70312,455.0,5
59645,59645,2020-12-02 19:46:06.956,451.21425999999997,455.0,5
59655,59655,2020-12-02 19:46:36.956,449.45412999999996,454.0,5
59665,59665,2020-12-02 19:47:06.956,447.6703,453.0,5
59675,59675,2020-12-02 19:47:36.956,445.9586,453.0,5
59685,59685,2020-12-02 19:48:06.956,444.50967,452.0,5
59695,59695,2020-12-02 19:48:36.956,443.21124000000003,451.0,5
59705,59705,2020-12-02 19:49:06.956,441.9069,451.0,5
59715,59715,2020-12-02 19:49:36.956,440.91998,435.0,5
59725,59725,2020-12-02 19:50:06.956,440.19845999999995,434.0,5
59735,59735,2020-12-02 19:50:36.956,439.4625,433.0,5
59745,59745,2020-12-02 19:51:06.956,439.11978,433.0,5
59755,59755,2020-12-02 19:51:36.956,439.12994000000003,432.0,5
59765,59765,2020-12-02 19:52:06.956,439.16385,432.0,5
59775,59775,2020-12-02 19:52:36.956,424.5036,431.0,5
59785,59785,2020-12-02 19:53:06.956,424.28702000000004,430.0,5
59795,59795,2020-12-02 19:53:36.956,428.67868,430.0,5
59805,59805,2020-12-02 19:54:06.956,428.4963,429.0,5
59815,59815,2020-12-02 19:54:36.956,428.10272000000003,428.0,5
59825,59825,2020-12-02 19:55:06.956,427.5819,428.0,5
59835,59835,2020-12-02 19:55:36.956,426.29425,427.0,5
59845,59845,2020-12-02 19:56:06.956,425.9674,426.0,5
59855,59855,2020-12-02 19:56:36.956,425.02444,426.0,5
59865,59865,2020-12-02 19:57:06.956,425.87683,425.0,5
59875,59875,2020-12-02 19:57:36.956,424.311,424.0,5
59885,59885,2020-12-02 19:58:06.956,422.14145,424.0,5
59895,59895,2020-12-02 19:58:36.956,420.09555,423.0,5
59905,59905,2020-12-02 19:59:06.956,417.90997000000004,422.0,5
59915,59915,2020-12-02 19:59:36.956,416.35693,422.0,5
59925,59925,2020-12-02 20:00:06.956,414.72832999999997,421.0,5
59935,59935,2020-12-02 20:00:36.956,413.2942,405.0,5
59945,59945,2020-12-02 20:01:06.956,411.91165,403.0,5
59955,59955,2020-12-02 20:01:36.956,410.84006,403.0,5
59965,59965,2020-12-02 20:02:06.956,409.78182999999996,402.0,5
59975,59975,2020-12-02 20:02:36.956,408.94003,402.0,5
59985,59985,2020-12-02 20:03:06.956,408.38678,401.0,5
59995,59995,2020-12-02 20:03:36.956,389.65337999999997,400.0,5
60005,60005,2020-12-02 20:04:06.956,395.54654,400.0,5
60015,60015,2020-12-02 20:04:36.956,397.2026,399.0,5
60025,60025,2020-12-02 20:05:06.956,396.65686,398.0,5
60035,60035,2020-12-02 20:05:36.956,395.94052,398.0,5
60045,60045,2020-12-02 20:06:06.956,395.12088,397.0,5
60055,60055,2020-12-02 20:06:36.956,394.9641,397.0,5
60065,60065,2020-12-02 20:07:06.956,395.2451,396.0,5
60075,60075,2020-12-02 20:07:36.956,394.26385,395.0,5
60085,60085,2020-12-02 20:08:06.956,394.90292,395.0,5
60095,60095,2020-12-02 20:08:36.956,393.72235,394.0,5
60105,60105,2020-12-02 20:09:06.956,391.54596000000004,393.0,5
60115,60115,2020-12-02 20:09:36.956,389.75113,393.0,5
60125,60125,2020-12-02 20:10:06.956,387.60754,392.0,5
60135,60135,2020-12-02 20:10:36.956,385.84207000000004,392.0,5
60145,60145,2020-12-02 20:11:06.956,384.48703,391.0,5
60155,60155,2020-12-02 20:11:36.956,383.08527000000004,373.0,5
60165,60165,2020-12-02 20:12:06.956,381.82635,372.0,5
60175,60175,2020-12-02 20:12:36.956,380.749,372.0,5
60185,60185,2020-12-02 20:13:06.956,379.90335,371.0,5
60195,60195,2020-12-02 20:13:36.956,379.00284,370.0,5
60205,60205,2020-12-02 20:14:06.956,378.36237,370.0,5
60215,60215,2020-12-02 20:14:36.956,357.99008,369.0,5
60225,60225,2020-12-02 20:15:06.956,362.69095,368.0,5
60235,60235,2020-12-02 20:15:36.956,365.61816,368.0,5
60245,60245,2020-12-02 20:16:06.956,365.58167000000003,367.0,5
60255,60255,2020-12-02 20:16:36.956,364.49884,367.0,5
60265,60265,2020-12-02 20:17:06.956,363.74854,366.0,5
60275,60275,2020-12-02 20:17:36.956,363.59628,365.0,5
60285,60285,2020-12-02 20:18:06.956,363.78244,365.0,5
60295,60295,2020-12-02 20:18:36.956,362.96837999999997,364.0,5
60305,60305,2020-12-02 20:19:06.956,363.86697000000004,363.0,5
60315,60315,2020-12-02 20:19:36.956,362.56985,363.0,5
60325,60325,2020-12-02 20:20:06.956,360.75327000000004,362.0,5
60335,60335,2020-12-02 20:20:36.956,358.4995,362.0,5
60345,60345,2020-12-02 20:21:06.956,356.44534,361.0,5
60355,60355,2020-12-02 20:21:36.956,354.90305,342.0,5
60365,60365,2020-12-02 20:22:06.956,353.406,341.0,5
60375,60375,2020-12-02 20:22:36.956,352.34783999999996,341.0,5
60385,60385,2020-12-02 20:23:06.956,351.39114,340.0,5
60395,60395,2020-12-02 20:23:36.956,350.58545,339.0,5
60405,60405,2020-12-02 20:24:06.956,349.63943,339.0,5
60415,60415,2020-12-02 20:24:36.956,324.7493,338.0,5
60425,60425,2020-12-02 20:25:06.956,331.96198,337.0,5
60435,60435,2020-12-02 20:25:36.956,334.435,337.0,5
60445,60445,2020-12-02 20:26:06.956,333.3967,336.0,5
60455,60455,2020-12-02 20:26:36.956,331.897,336.0,5
60465,60465,2020-12-02 20:27:06.956,331.83508,335.0,5
60475,60475,2020-12-02 20:27:36.956,331.87518,334.0,5
60485,60485,2020-12-02 20:28:06.956,331.1983,334.0,5
60495,60495,2020-12-02 20:28:36.956,333.07648,333.0,5
60505,60505,2020-12-02 20:29:06.956,332.82825,332.0,5
60515,60515,2020-12-02 20:29:36.956,331.52127,332.0,5
60525,60525,2020-12-02 20:30:06.956,329.8294,331.0,5
60535,60535,2020-12-02 20:30:36.956,327.55147999999997,313.0,5
60545,60545,2020-12-02 20:31:06.956,325.5409,310.0,5
60555,60555,2020-12-02 20:31:36.956,324.1626,310.0,5
60565,60565,2020-12-02 20:32:06.956,322.8481,309.0,5
60575,60575,2020-12-02 20:32:36.956,322.13022,309.0,5
60585,60585,2020-12-02 20:33:06.956,321.42896,308.0,5
60595,60595,2020-12-02 20:33:36.956,293.15955,307.0,5
60605,60605,2020-12-02 20:34:06.956,302.25043,307.0,5
60615,60615,2020-12-02 20:34:36.956,303.3698,306.0,5
60625,60625,2020-12-02 20:35:06.956,301.8025,305.0,5
60635,60635,2020-12-02 20:35:36.956,300.33154,305.0,5
60645,60645,2020-12-02 20:36:06.956,300.6684,304.0,5
60655,60655,2020-12-02 20:36:36.956,299.6964,304.0,5
60665,60665,2020-12-02 20:37:06.956,301.8718,303.0,5
60675,60675,2020-12-02 20:37:36.956,301.05734,302.0,5
60685,60685,2020-12-02 20:38:06.956,300.17868,302.0,5
60695,60695,2020-12-02 20:38:36.956,299.71484,301.0,5
60705,60705,2020-12-02 20:39:06.956,298.99172999999996,280.0,5
60715,60715,2020-12-02 20:39:36.956,297.18,279.0,5
60725,60725,2020-12-02 20:40:06.956,294.9974,279.0,5
60735,60735,2020-12-02 20:40:36.956,293.63257000000004,278.0,5
60745,60745,2020-12-02 20:41:06.956,293.08725,277.0,5
60755,60755,2020-12-02 20:41:36.956,292.5603,277.0,5
60765,60765,2020-12-02 20:42:06.956,260.62878,276.0,5
60775,60775,2020-12-02 20:42:36.956,268.39145,275.0,5
60785,60785,2020-12-02 20:43:06.956,271.57147000000003,275.0,5
60795,60795,2020-12-02 20:43:36.956,269.98013,274.0,5
60805,60805,2020-12-02 20:44:06.956,268.1913,273.0,5
60815,60815,2020-12-02 20:44:36.956,268.85382000000004,273.0,5
60825,60825,2020-12-02 20:45:06.956,267.69852000000003,272.0,5
60835,60835,2020-12-02 20:45:36.956,270.01974,272.0,5
60845,60845,2020-12-02 20:46:06.956,269.06082000000004,271.0,5
60855,60855,2020-12-02 20:46:36.956,268.2898,249.0,5
60865,60865,2020-12-02 20:47:06.956,267.04465,248.0,5
60875,60875,2020-12-02 20:47:36.956,266.08395,248.0,5
60885,60885,2020-12-02 20:48:06.956,265.2974,247.0,5
60895,60895,2020-12-02 20:48:36.956,263.60855,246.0,5
60905,60905,2020-12-02 20:49:06.956,262.43375,246.0,5
60915,60915,2020-12-02 20:49:36.956,228.78227,245.0,5
60925,60925,2020-12-02 20:50:06.956,236.04314,244.0,5
60935,60935,2020-12-02 20:50:36.956,239.94547000000003,244.0,5
60945,60945,2020-12-02 20:51:06.956,238.35265,243.0,5
60955,60955,2020-12-02 20:51:36.956,236.36702000000002,242.0,5
60965,60965,2020-12-02 20:52:06.956,236.99407999999997,242.0,5
60975,60975,2020-12-02 20:52:36.956,236.08713999999998,241.0,5
60985,60985,2020-12-02 20:53:06.956,238.05246,221.0,5
60995,60995,2020-12-02 20:53:36.956,237.05212000000003,218.0,5
61005,61005,2020-12-02 20:54:06.956,236.06569,217.0,5
61015,61015,2020-12-02 20:54:36.956,233.87263,216.0,5
61025,61025,2020-12-02 20:55:06.956,231.90985,216.0,5
61035,61035,2020-12-02 20:55:36.956,231.49297,215.0,5
61045,61045,2020-12-02 20:56:06.956,196.59885,214.0,5
61055,61055,2020-12-02 20:56:36.956,207.66223,214.0,5
61065,61065,2020-12-02 20:57:06.956,209.77112999999997,213.0,5
61075,61075,2020-12-02 20:57:36.956,208.01959,212.0,5
61085,61085,2020-12-02 20:58:06.956,205.72453000000002,212.0,5
61095,61095,2020-12-02 20:58:36.956,205.94904,211.0,5
61105,61105,2020-12-02 20:59:06.956,204.3606,189.0,5
61115,61115,2020-12-02 20:59:36.956,207.06752,186.0,5
61125,61125,2020-12-02 21:00:06.956,205.74829,186.0,5
61135,61135,2020-12-02 21:00:36.956,204.49397,185.0,5
61145,61145,2020-12-02 21:01:06.956,202.03396999999998,185.0,5
61155,61155,2020-12-02 21:01:36.956,199.832,184.0,5
61165,61165,2020-12-02 21:02:06.956,163.72862,183.0,5
61175,61175,2020-12-02 21:02:36.956,175.66924,183.0,5
61185,61185,2020-12-02 21:03:06.956,176.68883,182.0,5
61195,61195,2020-12-02 21:03:36.956,175.229,181.0,5
61205,61205,2020-12-02 21:04:06.956,174.16093,181.0,5
61215,61215,2020-12-02 21:04:36.956,174.33025,156.0,5
61225,61225,2020-12-02 21:05:06.956,172.77504,155.0,5
61235,61235,2020-12-02 21:05:36.956,175.78473,154.0,5
61245,61245,2020-12-02 21:06:06.956,174.40114,154.0,5
61255,61255,2020-12-02 21:06:36.956,173.26477,153.0,5
61265,61265,2020-12-02 21:07:06.956,170.38332,153.0,5
61275,61275,2020-12-02 21:07:36.956,126.942764,152.0,5
61285,61285,2020-12-02 21:08:06.956,142.6355,151.0,5
61295,61295,2020-12-02 21:08:36.956,143.01998999999998,151.0,5
61305,61305,2020-12-02 21:09:06.956,140.99532,125.0,5
61315,61315,2020-12-02 21:09:36.956,140.32312,124.0,5
61325,61325,2020-12-02 21:10:06.956,141.44992,123.0,5
61335,61335,2020-12-02 21:10:36.956,140.78291000000002,123.0,5
61345,61345,2020-12-02 21:11:06.956,143.91433999999998,122.0,5
61355,61355,2020-12-02 21:11:36.956,142.66132,121.0,5
61365,61365,2020-12-02 21:12:06.956,99.17129,101.0,5
61375,61375,2020-12-02 21:12:36.956,111.06781000000001,94.0,5
61385,61385,2020-12-02 21:13:06.956,110.86251000000001,93.0,5
61395,61395,2020-12-02 21:13:36.956,108.04005,92.0,5
61405,61405,2020-12-02 21:14:06.956,107.548454,92.0,5
61415,61415,2020-12-02 21:14:36.956,106.37057,91.0,5
61425,61425,2020-12-02 21:15:06.956,98.08671600000001,63.0,5
61435,61435,2020-12-02 21:15:36.956,85.25147,62.0,5
