,Unnamed: 0,time,preds,step
38013,38013,2021-01-21 14:30:33.581,887.55835,3
38023,38023,2021-01-21 14:31:03.581,887.3316699999999,3
38033,38033,2021-01-21 14:31:33.581,886.706,3
38043,38043,2021-01-21 14:32:03.581,886.4719,3
38053,38053,2021-01-21 14:32:33.581,886.11414,3
38063,38063,2021-01-21 14:33:03.581,885.43195,3
38073,38073,2021-01-21 14:33:33.581,885.3695,3
38083,38083,2021-01-21 14:34:03.581,885.12134,3
38093,38093,2021-01-21 14:34:33.581,884.6906,3
38103,38103,2021-01-21 14:35:03.581,884.5024400000001,3
38113,38113,2021-01-21 14:35:33.581,884.2011,3
38123,38123,2021-01-21 14:36:03.581,883.7217400000001,3
38133,38133,2021-01-21 14:36:33.581,883.4465,3
38143,38143,2021-01-21 14:37:03.581,883.1461,3
38153,38153,2021-01-21 14:37:33.581,882.6647,3
38163,38163,2021-01-21 14:38:03.581,882.4239,3
38173,38173,2021-01-21 14:38:33.581,882.0779,3
38183,38183,2021-01-21 14:39:03.581,881.6092,3
38193,38193,2021-01-21 14:39:33.581,881.35675,3
38203,38203,2021-01-21 14:40:03.581,880.81195,3
38213,38213,2021-01-21 14:40:33.581,880.4932,3
38223,38223,2021-01-21 14:41:03.581,880.3113400000001,3
38233,38233,2021-01-21 14:41:33.581,879.6647300000001,3
38243,38243,2021-01-21 14:42:03.581,879.3994,3
38253,38253,2021-01-21 14:42:33.581,879.1025,3
38263,38263,2021-01-21 14:43:03.581,878.4983,3
38273,38273,2021-01-21 14:43:33.581,878.3695,3
38283,38283,2021-01-21 14:44:03.581,878.1214,3
38293,38293,2021-01-21 14:44:33.581,877.6906,3
38303,38303,2021-01-21 14:45:03.581,877.5024,3
38313,38313,2021-01-21 14:45:33.581,877.2011,3
38323,38323,2021-01-21 14:46:03.581,876.7217400000001,3
38333,38333,2021-01-21 14:46:33.581,876.4465,3
38343,38343,2021-01-21 14:47:03.581,876.1461,3
38353,38353,2021-01-21 14:47:33.581,875.6647,3
38363,38363,2021-01-21 14:48:03.581,875.4239,3
38373,38373,2021-01-21 14:48:33.581,875.0779,3
38383,38383,2021-01-21 14:49:03.581,874.60913,3
38393,38393,2021-01-21 14:49:33.581,874.3567,3
38403,38403,2021-01-21 14:50:03.581,874.05,3
38413,38413,2021-01-21 14:50:33.581,873.6254,3
38423,38423,2021-01-21 14:51:03.581,873.45825,3
38433,38433,2021-01-21 14:51:33.581,872.8331,3
38443,38443,2021-01-21 14:52:03.581,872.55835,3
38453,38453,2021-01-21 14:52:33.581,872.3316699999999,3
38463,38463,2021-01-21 14:53:03.581,871.706,3
38473,38473,2021-01-21 14:53:33.581,871.4719,3
38483,38483,2021-01-21 14:54:03.581,871.1141,3
38493,38493,2021-01-21 14:54:33.581,870.4319,3
38503,38503,2021-01-21 14:55:03.581,870.3695,3
38513,38513,2021-01-21 14:55:33.581,870.12134,3
38523,38523,2021-01-21 14:56:03.581,869.6906,3
38533,38533,2021-01-21 14:56:33.581,869.5024400000001,3
38543,38543,2021-01-21 14:57:03.581,869.2011,3
38553,38553,2021-01-21 14:57:33.581,868.086,3
38563,38563,2021-01-21 14:58:03.581,867.84595,3
38573,38573,2021-01-21 14:58:33.581,867.0241,3
38583,38583,2021-01-21 14:59:03.581,866.5894,3
38593,38593,2021-01-21 14:59:33.581,866.2955,3
38603,38603,2021-01-21 15:00:03.581,865.70197,3
38613,38613,2021-01-21 15:00:33.581,865.2777,3
38623,38623,2021-01-21 15:01:03.581,865.1075400000001,3
38633,38633,2021-01-21 15:01:33.581,864.53375,3
38643,38643,2021-01-21 15:02:03.581,864.39813,3
38653,38653,2021-01-21 15:02:33.581,864.2315699999999,3
38663,38663,2021-01-21 15:03:03.581,863.6156599999999,3
38673,38673,2021-01-21 15:03:33.581,863.4124,3
38683,38683,2021-01-21 15:04:03.581,863.1393,3
38693,38693,2021-01-21 15:04:33.581,862.4755,3
38703,38703,2021-01-21 15:05:03.581,862.1784,3
38713,38713,2021-01-21 15:05:33.581,861.8618,3
38723,38723,2021-01-21 15:06:03.581,861.28577,3
38733,38733,2021-01-21 15:06:33.581,861.0108,3
38743,38743,2021-01-21 15:07:03.581,860.6465,3
38753,38753,2021-01-21 15:07:33.581,860.0973,3
38763,38763,2021-01-21 15:08:03.581,859.8702,3
38773,38773,2021-01-21 15:08:33.581,859.7008,3
38783,38783,2021-01-21 15:09:03.581,859.54486,3
38793,38793,2021-01-21 15:09:33.581,859.2895,3
38803,38803,2021-01-21 15:10:03.581,859.0322,3
38813,38813,2021-01-21 15:10:33.581,858.9542,3
38823,38823,2021-01-21 15:11:03.581,858.5531599999999,3
38833,38833,2021-01-21 15:11:33.581,858.3418,3
38843,38843,2021-01-21 15:12:03.581,858.44055,3
38853,38853,2021-01-21 15:12:33.581,857.9143,3
38863,38863,2021-01-21 15:13:03.581,857.5807,3
38873,38873,2021-01-21 15:13:33.581,857.3414300000001,3
38883,38883,2021-01-21 15:14:03.581,856.8261,3
38893,38893,2021-01-21 15:14:33.581,856.5287,3
38903,38903,2021-01-21 15:15:03.581,856.2887599999999,3
38913,38913,2021-01-21 15:15:33.581,855.8562599999999,3
38923,38923,2021-01-21 15:16:03.581,855.591,3
38933,38933,2021-01-21 15:16:33.581,855.3336,3
38943,38943,2021-01-21 15:17:03.581,854.8873,3
38953,38953,2021-01-21 15:17:33.581,854.668,3
38963,38963,2021-01-21 15:18:03.581,854.38885,3
38973,38973,2021-01-21 15:18:33.581,853.9242,3
38983,38983,2021-01-21 15:19:03.581,853.6907,3
38993,38993,2021-01-21 15:19:33.581,853.3906,3
39003,39003,2021-01-21 15:20:03.581,852.81805,3
39013,39013,2021-01-21 15:20:33.581,852.6367,3
39023,39023,2021-01-21 15:21:03.581,852.3251300000001,3
39033,39033,2021-01-21 15:21:33.581,851.75354,3
39043,39043,2021-01-21 15:22:03.581,851.55475,3
39053,39053,2021-01-21 15:22:33.581,851.20844,3
39063,39063,2021-01-21 15:23:03.581,850.7705,3
39073,39073,2021-01-21 15:23:33.581,850.51984,3
39083,39083,2021-01-21 15:24:03.581,850.2085,3
39093,39093,2021-01-21 15:24:33.581,849.7705,3
39103,39103,2021-01-21 15:25:03.581,849.51984,3
39113,39113,2021-01-21 15:25:33.581,849.20844,3
39123,39123,2021-01-21 15:26:03.581,848.7705,3
39133,39133,2021-01-21 15:26:33.581,848.5199,3
39143,39143,2021-01-21 15:27:03.581,848.20844,3
39153,39153,2021-01-21 15:27:33.581,847.9814,3
39163,39163,2021-01-21 15:28:03.581,847.622,3
39173,39173,2021-01-21 15:28:33.581,847.4063,3
39183,39183,2021-01-21 15:29:03.581,846.9856,3
39193,39193,2021-01-21 15:29:33.581,846.7474,3
39203,39203,2021-01-21 15:30:03.581,846.4190699999999,3
39213,39213,2021-01-21 15:30:33.581,845.95355,3
39223,39223,2021-01-21 15:31:03.581,845.6619,3
39233,39233,2021-01-21 15:31:33.581,845.18066,3
39243,39243,2021-01-21 15:32:03.581,844.6506,3
39253,39253,2021-01-21 15:32:33.581,844.448,3
39263,39263,2021-01-21 15:33:03.581,844.15204,3
39273,39273,2021-01-21 15:33:33.581,843.7578,3
39283,39283,2021-01-21 15:34:03.581,843.5948,3
39293,39293,2021-01-21 15:34:33.581,843.2944,3
39303,39303,2021-01-21 15:35:03.581,842.7591,3
39313,39313,2021-01-21 15:35:33.581,842.57855,3
39323,39323,2021-01-21 15:36:03.581,842.30444,3
39333,39333,2021-01-21 15:36:33.581,841.8174,3
39343,39343,2021-01-21 15:37:03.581,841.5699,3
39353,39353,2021-01-21 15:37:33.581,841.21454,3
39363,39363,2021-01-21 15:38:03.581,840.75586,3
39373,39373,2021-01-21 15:38:33.581,840.4095,3
39383,39383,2021-01-21 15:39:03.581,840.2013,3
39393,39393,2021-01-21 15:39:33.581,839.7384599999999,3
39403,39403,2021-01-21 15:40:03.581,839.49146,3
39413,39413,2021-01-21 15:40:33.581,839.1509,3
39423,39423,2021-01-21 15:41:03.581,837.1349,3
39433,39433,2021-01-21 15:41:33.581,837.0462,3
39443,39443,2021-01-21 15:42:03.581,836.0702,3
39453,39453,2021-01-21 15:42:33.581,835.7877,3
39463,39463,2021-01-21 15:43:03.581,835.70105,3
39473,39473,2021-01-21 15:43:33.581,834.89575,3
39483,39483,2021-01-21 15:44:03.581,834.55615,3
39493,39493,2021-01-21 15:44:33.581,834.4561,3
39503,39503,2021-01-21 15:45:03.581,833.8615,3
39513,39513,2021-01-21 15:45:33.581,833.71497,3
39523,39523,2021-01-21 15:46:03.581,833.13965,3
39533,39533,2021-01-21 15:46:33.581,832.70154,3
39543,39543,2021-01-21 15:47:03.581,832.2672,3
39553,39553,2021-01-21 15:47:33.581,831.55524,3
39563,39563,2021-01-21 15:48:03.581,830.9742,3
39573,39573,2021-01-21 15:48:33.581,830.5033599999999,3
39583,39583,2021-01-21 15:49:03.581,829.88513,3
39593,39593,2021-01-21 15:49:33.581,829.4830000000001,3
39603,39603,2021-01-21 15:50:03.581,829.2342,3
39613,39613,2021-01-21 15:50:33.581,828.5938,3
39623,39623,2021-01-21 15:51:03.581,828.36365,3
39633,39633,2021-01-21 15:51:33.581,828.1181,3
39643,39643,2021-01-21 15:52:03.581,827.89264,3
39653,39653,2021-01-21 15:52:33.581,827.7244,3
39663,39663,2021-01-21 15:53:03.581,827.5864,3
39673,39673,2021-01-21 15:53:33.581,827.1098,3
39683,39683,2021-01-21 15:54:03.581,826.9472,3
39693,39693,2021-01-21 15:54:33.581,826.7212,3
39703,39703,2021-01-21 15:55:03.581,826.18475,3
39713,39713,2021-01-21 15:55:33.581,826.3567,3
39723,39723,2021-01-21 15:56:03.581,826.05005,3
39733,39733,2021-01-21 15:56:33.581,825.6254,3
39743,39743,2021-01-21 15:57:03.581,825.45825,3
39753,39753,2021-01-21 15:57:33.581,825.0793,3
39763,39763,2021-01-21 15:58:03.581,824.66425,3
39773,39773,2021-01-21 15:58:33.581,824.4782,3
39783,39783,2021-01-21 15:59:03.581,824.12573,3
39793,39793,2021-01-21 15:59:33.581,823.77045,3
39803,39803,2021-01-21 16:00:03.581,823.5199,3
39813,39813,2021-01-21 16:00:33.581,823.2084,3
39823,39823,2021-01-21 16:01:03.581,822.77045,3
39833,39833,2021-01-21 16:01:33.581,822.51984,3
39843,39843,2021-01-21 16:02:03.581,822.2085,3
39853,39853,2021-01-21 16:02:33.581,821.77045,3
39863,39863,2021-01-21 16:03:03.581,821.51984,3
39873,39873,2021-01-21 16:03:33.581,821.20844,3
39883,39883,2021-01-21 16:04:03.581,820.77045,3
39893,39893,2021-01-21 16:04:33.581,820.5199,3
39903,39903,2021-01-21 16:05:03.581,820.20844,3
39913,39913,2021-01-21 16:05:33.581,819.77045,3
39923,39923,2021-01-21 16:06:03.581,819.51984,3
39933,39933,2021-01-21 16:06:33.581,819.20844,3
39943,39943,2021-01-21 16:07:03.581,818.77045,3
39953,39953,2021-01-21 16:07:33.581,818.5199,3
39963,39963,2021-01-21 16:08:03.581,818.20844,3
39973,39973,2021-01-21 16:08:33.581,817.77045,3
39983,39983,2021-01-21 16:09:03.581,817.51984,3
39993,39993,2021-01-21 16:09:33.581,817.20844,3
40003,40003,2021-01-21 16:10:03.581,816.7705,3
40013,40013,2021-01-21 16:10:33.581,816.51984,3
40023,40023,2021-01-21 16:11:03.581,816.20844,3
40033,40033,2021-01-21 16:11:33.581,815.77045,3
40043,40043,2021-01-21 16:12:03.581,815.5199,3
40053,40053,2021-01-21 16:12:33.581,815.20844,3
40063,40063,2021-01-21 16:13:03.581,814.7705,3
40073,40073,2021-01-21 16:13:33.581,814.5199,3
40083,40083,2021-01-21 16:14:03.581,814.20844,3
40093,40093,2021-01-21 16:14:33.581,813.77045,3
40103,40103,2021-01-21 16:15:03.581,813.51984,3
40113,40113,2021-01-21 16:15:33.581,813.20844,3
40123,40123,2021-01-21 16:16:03.581,812.77045,3
40133,40133,2021-01-21 16:16:33.581,812.5199,3
40143,40143,2021-01-21 16:17:03.581,812.20844,3
40153,40153,2021-01-21 16:17:33.581,811.77045,3
40163,40163,2021-01-21 16:18:03.581,811.5199,3
40173,40173,2021-01-21 16:18:33.581,811.20844,3
40183,40183,2021-01-21 16:19:03.581,810.77045,3
40193,40193,2021-01-21 16:19:33.581,810.5199,3
40203,40203,2021-01-21 16:20:03.581,810.20844,3
40213,40213,2021-01-21 16:20:33.581,809.77045,3
40223,40223,2021-01-21 16:21:03.581,809.51984,3
40233,40233,2021-01-21 16:21:33.581,809.20844,3
40243,40243,2021-01-21 16:22:03.581,805.9118,3
40253,40253,2021-01-21 16:22:33.581,806.04474,3
40263,40263,2021-01-21 16:23:03.581,805.0642,3
40273,40273,2021-01-21 16:23:33.581,804.8474,3
40283,40283,2021-01-21 16:24:03.581,804.6941,3
40293,40293,2021-01-21 16:24:33.581,803.9722,3
40303,40303,2021-01-21 16:25:03.581,803.5726,3
40313,40313,2021-01-21 16:25:33.581,803.4381,3
40323,40323,2021-01-21 16:26:03.581,802.8658,3
40333,40333,2021-01-21 16:26:33.581,802.692,3
40343,40343,2021-01-21 16:27:03.581,802.5113,3
40353,40353,2021-01-21 16:27:33.581,801.93536,3
40363,40363,2021-01-21 16:28:03.581,801.4677,3
40373,40373,2021-01-21 16:28:33.581,800.9208,3
40383,40383,2021-01-21 16:29:03.581,800.0296,3
40393,40393,2021-01-21 16:29:33.581,799.4794,3
40403,40403,2021-01-21 16:30:03.581,799.175,3
40413,40413,2021-01-21 16:30:33.581,798.4899,3
40423,40423,2021-01-21 16:31:03.581,798.0598,3
40433,40433,2021-01-21 16:31:33.581,797.8795,3
40443,40443,2021-01-21 16:32:03.581,797.41693,3
40453,40453,2021-01-21 16:32:33.581,797.27277,3
40463,40463,2021-01-21 16:33:03.581,797.4538,3
40473,40473,2021-01-21 16:33:33.581,797.04584,3
40483,40483,2021-01-21 16:34:03.581,796.9069,3
40493,40493,2021-01-21 16:34:33.581,796.50256,3
40503,40503,2021-01-21 16:35:03.581,796.04614,3
40513,40513,2021-01-21 16:35:33.581,795.56,3
40523,40523,2021-01-21 16:36:03.581,795.6611,3
40533,40533,2021-01-21 16:36:33.581,795.9814,3
40543,40543,2021-01-21 16:37:03.581,795.62195,3
40553,40553,2021-01-21 16:37:33.581,795.4064,3
40563,40563,2021-01-21 16:38:03.581,795.21686,3
40573,40573,2021-01-21 16:38:33.581,794.84875,3
40583,40583,2021-01-21 16:39:03.581,794.58813,3
40593,40593,2021-01-21 16:39:33.581,794.44055,3
40603,40603,2021-01-21 16:40:03.581,793.9143,3
40613,40613,2021-01-21 16:40:33.581,793.5807,3
40623,40623,2021-01-21 16:41:03.581,793.3415,3
40633,40633,2021-01-21 16:41:33.581,792.8261,3
40643,40643,2021-01-21 16:42:03.581,792.5287,3
40653,40653,2021-01-21 16:42:33.581,792.2887599999999,3
40663,40663,2021-01-21 16:43:03.581,791.8563,3
40673,40673,2021-01-21 16:43:33.581,791.591,3
40683,40683,2021-01-21 16:44:03.581,791.3336,3
40693,40693,2021-01-21 16:44:33.581,790.8873,3
40703,40703,2021-01-21 16:45:03.581,790.6681,3
40713,40713,2021-01-21 16:45:33.581,790.3888,3
40723,40723,2021-01-21 16:46:03.581,789.92426,3
40733,40733,2021-01-21 16:46:33.581,789.6906,3
40743,40743,2021-01-21 16:47:03.581,789.3907,3
40753,40753,2021-01-21 16:47:33.581,789.0534,3
40763,40763,2021-01-21 16:48:03.581,788.768,3
40773,40773,2021-01-21 16:48:33.581,788.5157,3
40783,40783,2021-01-21 16:49:03.581,788.22345,3
40793,40793,2021-01-21 16:49:33.581,787.9065,3
40803,40803,2021-01-21 16:50:03.581,787.58813,3
40813,40813,2021-01-21 16:50:33.581,787.44055,3
40823,40823,2021-01-21 16:51:03.581,786.9143,3
40833,40833,2021-01-21 16:51:33.581,786.5807,3
40843,40843,2021-01-21 16:52:03.581,786.34143,3
40853,40853,2021-01-21 16:52:33.581,785.8261,3
40863,40863,2021-01-21 16:53:03.581,785.52875,3
40873,40873,2021-01-21 16:53:33.581,785.2888,3
40883,40883,2021-01-21 16:54:03.581,784.8562599999999,3
40893,40893,2021-01-21 16:54:33.581,784.591,3
40903,40903,2021-01-21 16:55:03.581,784.3336,3
40913,40913,2021-01-21 16:55:33.581,783.8872700000001,3
40923,40923,2021-01-21 16:56:03.581,783.668,3
40933,40933,2021-01-21 16:56:33.581,783.3888,3
40943,40943,2021-01-21 16:57:03.581,782.9242,3
40953,40953,2021-01-21 16:57:33.581,782.6907,3
40963,40963,2021-01-21 16:58:03.581,782.3907,3
40973,40973,2021-01-21 16:58:33.581,781.8181,3
40983,40983,2021-01-21 16:59:03.581,781.6367,3
40993,40993,2021-01-21 16:59:33.581,781.32513,3
41003,41003,2021-01-21 17:00:03.581,780.75354,3
41013,41013,2021-01-21 17:00:33.581,780.55475,3
41023,41023,2021-01-21 17:01:03.581,780.20844,3
41033,41033,2021-01-21 17:01:33.581,779.98145,3
41043,41043,2021-01-21 17:02:03.581,779.622,3
41053,41053,2021-01-21 17:02:33.581,779.4063,3
41063,41063,2021-01-21 17:03:03.581,775.95984,3
41073,41073,2021-01-21 17:03:33.581,775.0376,3
41083,41083,2021-01-21 17:04:03.581,774.2539999999999,3
41093,41093,2021-01-21 17:04:33.581,774.0024,3
41103,41103,2021-01-21 17:05:03.581,773.7367,3
41113,41113,2021-01-21 17:05:33.581,773.1078,3
41123,41123,2021-01-21 17:06:03.581,772.5653,3
41133,41133,2021-01-21 17:06:33.581,772.4886,3
41143,41143,2021-01-21 17:07:03.581,771.9277,3
41153,41153,2021-01-21 17:07:33.581,771.75586,3
41163,41163,2021-01-21 17:08:03.581,771.50714,3
41173,41173,2021-01-21 17:08:33.581,771.0018,3
41183,41183,2021-01-21 17:09:03.581,770.66534,3
41193,41193,2021-01-21 17:09:33.581,770.1278,3
41203,41203,2021-01-21 17:10:03.581,769.1423,3
41213,41213,2021-01-21 17:10:33.581,768.5328400000001,3
41223,41223,2021-01-21 17:11:03.581,768.1065,3
41233,41233,2021-01-21 17:11:33.581,767.4187,3
41243,41243,2021-01-21 17:12:03.581,766.8474,3
41253,41253,2021-01-21 17:12:33.581,766.7572,3
41263,41263,2021-01-21 17:13:03.581,766.50525,3
41273,41273,2021-01-21 17:13:33.581,766.30457,3
41283,41283,2021-01-21 17:14:03.581,766.38684,3
41293,41293,2021-01-21 17:14:33.581,765.9911,3
41303,41303,2021-01-21 17:15:03.581,765.78864,3
41313,41313,2021-01-21 17:15:33.581,765.263,3
41323,41323,2021-01-21 17:16:03.581,764.5048,3
41333,41333,2021-01-21 17:16:33.581,764.1884,3
41343,41343,2021-01-21 17:17:03.581,764.26825,3
41353,41353,2021-01-21 17:17:33.581,764.6646,3
41363,41363,2021-01-21 17:18:03.581,764.51984,3
41373,41373,2021-01-21 17:18:33.581,764.20844,3
41383,41383,2021-01-21 17:19:03.581,763.77045,3
41393,41393,2021-01-21 17:19:33.581,763.51984,3
41403,41403,2021-01-21 17:20:03.581,763.20844,3
41413,41413,2021-01-21 17:20:33.581,762.77045,3
41423,41423,2021-01-21 17:21:03.581,762.51984,3
41433,41433,2021-01-21 17:21:33.581,762.20844,3
41443,41443,2021-01-21 17:22:03.581,761.77045,3
41453,41453,2021-01-21 17:22:33.581,761.5199,3
41463,41463,2021-01-21 17:23:03.581,761.2085,3
41473,41473,2021-01-21 17:23:33.581,760.77045,3
41483,41483,2021-01-21 17:24:03.581,760.5199,3
41493,41493,2021-01-21 17:24:33.581,760.20844,3
41503,41503,2021-01-21 17:25:03.581,759.77045,3
41513,41513,2021-01-21 17:25:33.581,759.51984,3
41523,41523,2021-01-21 17:26:03.581,759.20844,3
41533,41533,2021-01-21 17:26:33.581,758.77045,3
41543,41543,2021-01-21 17:27:03.581,758.51984,3
41553,41553,2021-01-21 17:27:33.581,758.20844,3
41563,41563,2021-01-21 17:28:03.581,757.7705,3
41573,41573,2021-01-21 17:28:33.581,757.5199,3
41583,41583,2021-01-21 17:29:03.581,756.8423,3
41593,41593,2021-01-21 17:29:33.581,756.6461,3
41603,41603,2021-01-21 17:30:03.581,756.3659,3
41613,41613,2021-01-21 17:30:33.581,755.6842,3
41623,41623,2021-01-21 17:31:03.581,755.472,3
41633,41633,2021-01-21 17:31:33.581,755.11414,3
41643,41643,2021-01-21 17:32:03.581,754.8812,3
41653,41653,2021-01-21 17:32:33.581,754.5143400000001,3
41663,41663,2021-01-21 17:33:03.581,754.33466,3
41673,41673,2021-01-21 17:33:33.581,754.1556,3
41683,41683,2021-01-21 17:34:03.581,753.888,3
41693,41693,2021-01-21 17:34:33.581,753.5843,3
41703,41703,2021-01-21 17:35:03.581,753.3538,3
41713,41713,2021-01-21 17:35:33.581,752.8744,3
41723,41723,2021-01-21 17:36:03.581,752.53906,3
41733,41733,2021-01-21 17:36:33.581,752.1980599999999,3
41743,41743,2021-01-21 17:37:03.581,751.6931,3
41753,41753,2021-01-21 17:37:33.581,751.4353,3
41763,41763,2021-01-21 17:38:03.581,751.1075,3
41773,41773,2021-01-21 17:38:33.581,750.6596,3
41783,41783,2021-01-21 17:39:03.581,750.42444,3
41793,41793,2021-01-21 17:39:33.581,750.15436,3
41803,41803,2021-01-21 17:40:03.581,749.83215,3
41813,41813,2021-01-21 17:40:33.581,749.5734,3
41823,41823,2021-01-21 17:41:03.581,749.27094,3
41833,41833,2021-01-21 17:41:33.581,743.67444,3
41843,41843,2021-01-21 17:42:03.581,744.1141,3
41853,41853,2021-01-21 17:42:33.581,743.16125,3
41863,41863,2021-01-21 17:43:03.581,742.87714,3
41873,41873,2021-01-21 17:43:33.581,742.7173,3
41883,41883,2021-01-21 17:44:03.581,742.0401,3
41893,41893,2021-01-21 17:44:33.581,741.5794,3
41903,41903,2021-01-21 17:45:03.581,741.4911,3
41913,41913,2021-01-21 17:45:33.581,740.8286,3
41923,41923,2021-01-21 17:46:03.581,740.61176,3
41933,41933,2021-01-21 17:46:33.581,740.4306,3
41943,41943,2021-01-21 17:47:03.581,739.9515,3
41953,41953,2021-01-21 17:47:33.581,739.64185,3
41963,41963,2021-01-21 17:48:03.581,739.0152,3
41973,41973,2021-01-21 17:48:33.581,738.1349,3
41983,41983,2021-01-21 17:49:03.581,737.3686,3
41993,41993,2021-01-21 17:49:33.581,736.971,3
42003,42003,2021-01-21 17:50:03.581,736.2232,3
42013,42013,2021-01-21 17:50:33.581,735.6093,3
42023,42023,2021-01-21 17:51:03.581,735.7953,3
42033,42033,2021-01-21 17:51:33.581,735.5711,3
42043,42043,2021-01-21 17:52:03.581,735.51624,3
42053,42053,2021-01-21 17:52:33.581,735.5967400000001,3
42063,42063,2021-01-21 17:53:03.581,734.9561,3
42073,42073,2021-01-21 17:53:33.581,734.67175,3
42083,42083,2021-01-21 17:54:03.581,734.20966,3
42093,42093,2021-01-21 17:54:33.581,733.37195,3
42103,42103,2021-01-21 17:55:03.581,732.7004400000001,3
42113,42113,2021-01-21 17:55:33.581,733.0762,3
42123,42123,2021-01-21 17:56:03.581,733.77045,3
42133,42133,2021-01-21 17:56:33.581,733.5199,3
42143,42143,2021-01-21 17:57:03.581,733.20844,3
42153,42153,2021-01-21 17:57:33.581,732.77045,3
42163,42163,2021-01-21 17:58:03.581,732.51984,3
42173,42173,2021-01-21 17:58:33.581,732.20844,3
42183,42183,2021-01-21 17:59:03.581,731.77045,3
42193,42193,2021-01-21 17:59:33.581,731.5199,3
42203,42203,2021-01-21 18:00:03.581,731.20844,3
42213,42213,2021-01-21 18:00:33.581,730.77045,3
42223,42223,2021-01-21 18:01:03.581,730.5199,3
42233,42233,2021-01-21 18:01:33.581,730.20844,3
42243,42243,2021-01-21 18:02:03.581,729.77045,3
42253,42253,2021-01-21 18:02:33.581,729.51984,3
42263,42263,2021-01-21 18:03:03.581,729.20844,3
42273,42273,2021-01-21 18:03:33.581,728.77045,3
42283,42283,2021-01-21 18:04:03.581,728.5199,3
42293,42293,2021-01-21 18:04:33.581,728.20844,3
42303,42303,2021-01-21 18:05:03.581,727.77045,3
42313,42313,2021-01-21 18:05:33.581,727.51984,3
42323,42323,2021-01-21 18:06:03.581,727.20844,3
42333,42333,2021-01-21 18:06:33.581,726.77045,3
42343,42343,2021-01-21 18:07:03.581,726.5199,3
42353,42353,2021-01-21 18:07:33.581,726.20844,3
42363,42363,2021-01-21 18:08:03.581,725.77045,3
42373,42373,2021-01-21 18:08:33.581,725.5199,3
42383,42383,2021-01-21 18:09:03.581,725.20844,3
42393,42393,2021-01-21 18:09:33.581,724.7705,3
42403,42403,2021-01-21 18:10:03.581,724.51984,3
42413,42413,2021-01-21 18:10:33.581,724.20844,3
42423,42423,2021-01-21 18:11:03.581,723.77045,3
42433,42433,2021-01-21 18:11:33.581,723.5199,3
42443,42443,2021-01-21 18:12:03.581,723.20844,3
42453,42453,2021-01-21 18:12:33.581,722.77045,3
42463,42463,2021-01-21 18:13:03.581,722.51984,3
42473,42473,2021-01-21 18:13:33.581,722.20844,3
42483,42483,2021-01-21 18:14:03.581,721.77045,3
42493,42493,2021-01-21 18:14:33.581,721.5199,3
42503,42503,2021-01-21 18:15:03.581,721.20844,3
42513,42513,2021-01-21 18:15:33.581,720.77045,3
42523,42523,2021-01-21 18:16:03.581,720.51984,3
42533,42533,2021-01-21 18:16:33.581,720.20844,3
42543,42543,2021-01-21 18:17:03.581,719.77045,3
42553,42553,2021-01-21 18:17:33.581,719.5199,3
42563,42563,2021-01-21 18:18:03.581,719.20844,3
42573,42573,2021-01-21 18:18:33.581,712.7211,3
42583,42583,2021-01-21 18:19:03.581,713.1026,3
42593,42593,2021-01-21 18:19:33.581,712.3022,3
42603,42603,2021-01-21 18:20:03.581,711.91113,3
42613,42613,2021-01-21 18:20:33.581,711.68646,3
42623,42623,2021-01-21 18:21:03.581,711.0459,3
42633,42633,2021-01-21 18:21:33.581,710.4904,3
42643,42643,2021-01-21 18:22:03.581,710.4820599999999,3
42653,42653,2021-01-21 18:22:33.581,709.8403,3
42663,42663,2021-01-21 18:23:03.581,709.60065,3
42673,42673,2021-01-21 18:23:33.581,709.4296,3
42683,42683,2021-01-21 18:24:03.581,708.96027,3
42693,42693,2021-01-21 18:24:33.581,708.6771,3
42703,42703,2021-01-21 18:25:03.581,708.0917400000001,3
42713,42713,2021-01-21 18:25:33.581,707.26013,3
42723,42723,2021-01-21 18:26:03.581,706.39417,3
42733,42733,2021-01-21 18:26:33.581,705.9948,3
42743,42743,2021-01-21 18:27:03.581,705.1925,3
42753,42753,2021-01-21 18:27:33.581,704.5512,3
42763,42763,2021-01-21 18:28:03.581,704.8864,3
42773,42773,2021-01-21 18:28:33.581,704.86993,3
42783,42783,2021-01-21 18:29:03.581,704.8002299999999,3
42793,42793,2021-01-21 18:29:33.581,704.7521,3
42803,42803,2021-01-21 18:30:03.581,703.9431,3
42813,42813,2021-01-21 18:30:33.581,703.564,3
42823,42823,2021-01-21 18:31:03.581,703.1337,3
42833,42833,2021-01-21 18:31:33.581,702.0359,3
42843,42843,2021-01-21 18:32:03.581,701.28455,3
42853,42853,2021-01-21 18:32:33.581,701.8158599999999,3
42863,42863,2021-01-21 18:33:03.581,702.77045,3
42873,42873,2021-01-21 18:33:33.581,702.51984,3
42883,42883,2021-01-21 18:34:03.581,702.20844,3
42893,42893,2021-01-21 18:34:33.581,701.9814,3
42903,42903,2021-01-21 18:35:03.581,701.622,3
42913,42913,2021-01-21 18:35:33.581,701.4063,3
42923,42923,2021-01-21 18:36:03.581,701.21686,3
42933,42933,2021-01-21 18:36:33.581,700.84875,3
42943,42943,2021-01-21 18:37:03.581,700.5881,3
42953,42953,2021-01-21 18:37:33.581,700.44055,3
42963,42963,2021-01-21 18:38:03.581,699.9143,3
42973,42973,2021-01-21 18:38:33.581,699.5807,3
42983,42983,2021-01-21 18:39:03.581,699.34143,3
42993,42993,2021-01-21 18:39:33.581,698.8261,3
43003,43003,2021-01-21 18:40:03.581,698.5287,3
43013,43013,2021-01-21 18:40:33.581,698.2888,3
43023,43023,2021-01-21 18:41:03.581,697.8562599999999,3
43033,43033,2021-01-21 18:41:33.581,697.59106,3
43043,43043,2021-01-21 18:42:03.581,697.3335599999999,3
43053,43053,2021-01-21 18:42:33.581,696.8873,3
43063,43063,2021-01-21 18:43:03.581,696.668,3
43073,43073,2021-01-21 18:43:33.581,696.3888,3
43083,43083,2021-01-21 18:44:03.581,695.92426,3
43093,43093,2021-01-21 18:44:33.581,695.6907,3
43103,43103,2021-01-21 18:45:03.581,695.3907,3
43113,43113,2021-01-21 18:45:33.581,694.81805,3
43123,43123,2021-01-21 18:46:03.581,694.6367,3
43133,43133,2021-01-21 18:46:33.581,694.32513,3
43143,43143,2021-01-21 18:47:03.581,693.7536,3
43153,43153,2021-01-21 18:47:33.581,693.55475,3
43163,43163,2021-01-21 18:48:03.581,693.20844,3
43173,43173,2021-01-21 18:48:33.581,692.9814,3
43183,43183,2021-01-21 18:49:03.581,692.622,3
43193,43193,2021-01-21 18:49:33.581,692.40625,3
43203,43203,2021-01-21 18:50:03.581,692.21686,3
43213,43213,2021-01-21 18:50:33.581,691.8488,3
43223,43223,2021-01-21 18:51:03.581,691.5881,3
43233,43233,2021-01-21 18:51:33.581,691.44055,3
43243,43243,2021-01-21 18:52:03.581,690.9143,3
43253,43253,2021-01-21 18:52:33.581,690.5807,3
43263,43263,2021-01-21 18:53:03.581,690.34143,3
43273,43273,2021-01-21 18:53:33.581,689.8261,3
43283,43283,2021-01-21 18:54:03.581,689.52875,3
43293,43293,2021-01-21 18:54:33.581,689.2888,3
43303,43303,2021-01-21 18:55:03.581,681.7384599999999,3
43313,43313,2021-01-21 18:55:33.581,682.10333,3
43323,43323,2021-01-21 18:56:03.581,681.4116,3
43333,43333,2021-01-21 18:56:33.581,681.02344,3
43343,43343,2021-01-21 18:57:03.581,680.29315,3
43353,43353,2021-01-21 18:57:33.581,679.83746,3
43363,43363,2021-01-21 18:58:03.581,679.3524,3
43373,43373,2021-01-21 18:58:33.581,679.2128,3
43383,43383,2021-01-21 18:59:03.581,678.5892299999999,3
43393,43393,2021-01-21 18:59:33.581,678.4693599999999,3
43403,43403,2021-01-21 19:00:03.581,678.0287,3
43413,43413,2021-01-21 19:00:33.581,677.6980599999999,3
43423,43423,2021-01-21 19:01:03.581,677.5162,3
43433,43433,2021-01-21 19:01:33.581,676.69244,3
43443,43443,2021-01-21 19:02:03.581,675.9831,3
43453,43453,2021-01-21 19:02:33.581,675.2866,3
43463,43463,2021-01-21 19:03:03.581,674.4753400000001,3
43473,43473,2021-01-21 19:03:33.581,673.9534,3
43483,43483,2021-01-21 19:04:03.581,673.5144,3
43493,43493,2021-01-21 19:04:33.581,673.3933,3
43503,43503,2021-01-21 19:05:03.581,673.8406,3
43513,43513,2021-01-21 19:05:33.581,673.9109,3
43523,43523,2021-01-21 19:06:03.581,673.2094,3
43533,43533,2021-01-21 19:06:33.581,672.5065,3
43543,43543,2021-01-21 19:07:03.581,672.16,3
43553,43553,2021-01-21 19:07:33.581,671.48376,3
43563,43563,2021-01-21 19:08:03.581,670.4871,3
43573,43573,2021-01-21 19:08:33.581,669.937,3
43583,43583,2021-01-21 19:09:03.581,669.8076,3
43593,43593,2021-01-21 19:09:33.581,671.4782,3
43603,43603,2021-01-21 19:10:03.581,671.12573,3
43613,43613,2021-01-21 19:10:33.581,670.77045,3
43623,43623,2021-01-21 19:11:03.581,670.51984,3
43633,43633,2021-01-21 19:11:33.581,670.20844,3
43643,43643,2021-01-21 19:12:03.581,669.9814,3
43653,43653,2021-01-21 19:12:33.581,669.62195,3
43663,43663,2021-01-21 19:13:03.581,669.4063,3
43673,43673,2021-01-21 19:13:33.581,669.21686,3
43683,43683,2021-01-21 19:14:03.581,668.84875,3
43693,43693,2021-01-21 19:14:33.581,668.5881,3
43703,43703,2021-01-21 19:15:03.581,668.44055,3
43713,43713,2021-01-21 19:15:33.581,667.9143,3
43723,43723,2021-01-21 19:16:03.581,667.5807,3
43733,43733,2021-01-21 19:16:33.581,667.34143,3
43743,43743,2021-01-21 19:17:03.581,666.8261,3
43753,43753,2021-01-21 19:17:33.581,666.5287,3
43763,43763,2021-01-21 19:18:03.581,666.2888,3
43773,43773,2021-01-21 19:18:33.581,665.8563,3
43783,43783,2021-01-21 19:19:03.581,665.591,3
43793,43793,2021-01-21 19:19:33.581,665.3336,3
43803,43803,2021-01-21 19:20:03.581,664.8872700000001,3
43813,43813,2021-01-21 19:20:33.581,664.668,3
43823,43823,2021-01-21 19:21:03.581,664.3888,3
43833,43833,2021-01-21 19:21:33.581,663.92426,3
43843,43843,2021-01-21 19:22:03.581,663.6907,3
43853,43853,2021-01-21 19:22:33.581,663.3906,3
43863,43863,2021-01-21 19:23:03.581,662.8181,3
43873,43873,2021-01-21 19:23:33.581,662.6367,3
43883,43883,2021-01-21 19:24:03.581,662.3251,3
43893,43893,2021-01-21 19:24:33.581,662.0098,3
43903,43903,2021-01-21 19:25:03.581,661.6979,3
43913,43913,2021-01-21 19:25:33.581,661.40625,3
43923,43923,2021-01-21 19:26:03.581,661.2169,3
43933,43933,2021-01-21 19:26:33.581,660.84875,3
43943,43943,2021-01-21 19:27:03.581,660.5881,3
43953,43953,2021-01-21 19:27:33.581,660.44055,3
43963,43963,2021-01-21 19:28:03.581,659.9143,3
43973,43973,2021-01-21 19:28:33.581,659.5807,3
43983,43983,2021-01-21 19:29:03.581,659.3414,3
43993,43993,2021-01-21 19:29:33.581,650.7874,3
44003,44003,2021-01-21 19:30:03.581,650.16705,3
44013,44013,2021-01-21 19:30:33.581,650.30646,3
44023,44023,2021-01-21 19:31:03.581,649.99945,3
44033,44033,2021-01-21 19:31:33.581,649.7593,3
44043,44043,2021-01-21 19:32:03.581,649.02576,3
44053,44053,2021-01-21 19:32:33.581,648.5066,3
44063,44063,2021-01-21 19:33:03.581,648.6662,3
44073,44073,2021-01-21 19:33:33.581,648.0273,3
44083,44083,2021-01-21 19:34:03.581,647.78375,3
44093,44093,2021-01-21 19:34:33.581,647.6716,3
44103,44103,2021-01-21 19:35:03.581,647.1238,3
44113,44113,2021-01-21 19:35:33.581,646.7666,3
44123,44123,2021-01-21 19:36:03.581,646.2938,3
44133,44133,2021-01-21 19:36:33.581,645.4237,3
44143,44143,2021-01-21 19:37:03.581,644.7992,3
44153,44153,2021-01-21 19:37:33.581,644.49805,3
44163,44163,2021-01-21 19:38:03.581,643.6055,3
44173,44173,2021-01-21 19:38:33.581,642.9494,3
44183,44183,2021-01-21 19:39:03.581,643.452,3
44193,44193,2021-01-21 19:39:33.581,643.67615,3
44203,44203,2021-01-21 19:40:03.581,643.4871,3
44213,44213,2021-01-21 19:40:33.581,643.06964,3
44223,44223,2021-01-21 19:41:03.581,642.0147,3
44233,44233,2021-01-21 19:41:33.581,641.3692,3
44243,44243,2021-01-21 19:42:03.581,641.57007,3
44253,44253,2021-01-21 19:42:33.581,640.5029,3
44263,44263,2021-01-21 19:43:03.581,639.13873,3
44273,44273,2021-01-21 19:43:33.581,640.0505400000001,3
44283,44283,2021-01-21 19:44:03.581,641.00977,3
44293,44293,2021-01-21 19:44:33.581,640.9379,3
44303,44303,2021-01-21 19:45:03.581,640.7995599999999,3
44313,44313,2021-01-21 19:45:33.581,640.53705,3
44323,44323,2021-01-21 19:46:03.581,640.46606,3
44333,44333,2021-01-21 19:46:33.581,640.368,3
44343,44343,2021-01-21 19:47:03.581,640.2511,3
44353,44353,2021-01-21 19:47:33.581,640.1428,3
44363,44363,2021-01-21 19:48:03.581,640.1314,3
44373,44373,2021-01-21 19:48:33.581,639.7196,3
44383,44383,2021-01-21 19:49:03.581,639.6196,3
44393,44393,2021-01-21 19:49:33.581,639.4827,3
44403,44403,2021-01-21 19:50:03.581,639.39325,3
44413,44413,2021-01-21 19:50:33.581,639.4047,3
44423,44423,2021-01-21 19:51:03.581,639.38763,3
44433,44433,2021-01-21 19:51:33.581,639.00586,3
44443,44443,2021-01-21 19:52:03.581,638.9839,3
44453,44453,2021-01-21 19:52:33.581,638.86176,3
44463,44463,2021-01-21 19:53:03.581,638.8472,3
44473,44473,2021-01-21 19:53:33.581,638.8005,3
44483,44483,2021-01-21 19:54:03.581,638.4830000000001,3
44493,44493,2021-01-21 19:54:33.581,638.3402,3
44503,44503,2021-01-21 19:55:03.581,638.1222,3
44513,44513,2021-01-21 19:55:33.581,637.9819,3
44523,44523,2021-01-21 19:56:03.581,637.898,3
44533,44533,2021-01-21 19:56:33.581,637.9368,3
44543,44543,2021-01-21 19:57:03.581,637.6328,3
44553,44553,2021-01-21 19:57:33.581,637.2821700000001,3
44563,44563,2021-01-21 19:58:03.581,637.2077,3
44573,44573,2021-01-21 19:58:33.581,637.0553,3
44583,44583,2021-01-21 19:59:03.581,636.939,3
44593,44593,2021-01-21 19:59:33.581,636.92883,3
44603,44603,2021-01-21 20:00:03.581,636.55664,3
44613,44613,2021-01-21 20:00:33.581,636.2193,3
44623,44623,2021-01-21 20:01:03.581,636.1156,3
44633,44633,2021-01-21 20:01:33.581,635.992,3
44643,44643,2021-01-21 20:02:03.581,635.8572,3
44653,44653,2021-01-21 20:02:33.581,635.9259599999999,3
44663,44663,2021-01-21 20:03:03.581,635.4312,3
44673,44673,2021-01-21 20:03:33.581,635.2642,3
44683,44683,2021-01-21 20:04:03.581,635.0939,3
44693,44693,2021-01-21 20:04:33.581,635.01776,3
44703,44703,2021-01-21 20:05:03.581,634.97217,3
44713,44713,2021-01-21 20:05:33.581,634.54865,3
44723,44723,2021-01-21 20:06:03.581,634.29047,3
44733,44733,2021-01-21 20:06:33.581,634.1192599999999,3
44743,44743,2021-01-21 20:07:03.581,633.98193,3
44753,44753,2021-01-21 20:07:33.581,633.898,3
44763,44763,2021-01-21 20:08:03.581,633.9369,3
44773,44773,2021-01-21 20:08:33.581,633.6329,3
44783,44783,2021-01-21 20:09:03.581,633.2821700000001,3
44793,44793,2021-01-21 20:09:33.581,633.2077,3
44803,44803,2021-01-21 20:10:03.581,633.05536,3
44813,44813,2021-01-21 20:10:33.581,632.93896,3
44823,44823,2021-01-21 20:11:03.581,632.92883,3
44833,44833,2021-01-21 20:11:33.581,632.5566,3
44843,44843,2021-01-21 20:12:03.581,632.2193,3
44853,44853,2021-01-21 20:12:33.581,632.1156599999999,3
44863,44863,2021-01-21 20:13:03.581,631.992,3
44873,44873,2021-01-21 20:13:33.581,631.8572,3
44883,44883,2021-01-21 20:14:03.581,631.4964,3
44893,44893,2021-01-21 20:14:33.581,631.2459,3
44903,44903,2021-01-21 20:15:03.581,631.099,3
44913,44913,2021-01-21 20:15:33.581,630.9413,3
44923,44923,2021-01-21 20:16:03.581,630.8879400000001,3
44933,44933,2021-01-21 20:16:33.581,630.8858,3
44943,44943,2021-01-21 20:17:03.581,630.5822,3
44953,44953,2021-01-21 20:17:33.581,630.2821700000001,3
44963,44963,2021-01-21 20:18:03.581,630.2077,3
44973,44973,2021-01-21 20:18:33.581,630.0553,3
44983,44983,2021-01-21 20:19:03.581,629.939,3
44993,44993,2021-01-21 20:19:33.581,629.92883,3
45003,45003,2021-01-21 20:20:03.581,620.17206,3
45013,45013,2021-01-21 20:20:33.581,620.79065,3
45023,45023,2021-01-21 20:21:03.581,620.6238400000001,3
45033,45033,2021-01-21 20:21:33.581,619.9654,3
45043,45043,2021-01-21 20:22:03.581,619.4728,3
45053,45053,2021-01-21 20:22:33.581,619.11896,3
45063,45063,2021-01-21 20:23:03.581,618.88495,3
45073,45073,2021-01-21 20:23:33.581,619.0827,3
45083,45083,2021-01-21 20:24:03.581,618.84796,3
45093,45093,2021-01-21 20:24:33.581,618.753,3
45103,45103,2021-01-21 20:25:03.581,618.3599,3
45113,45113,2021-01-21 20:25:33.581,618.1962,3
45123,45123,2021-01-21 20:26:03.581,617.9106400000001,3
45133,45133,2021-01-21 20:26:33.581,617.60016,3
45143,45143,2021-01-21 20:27:03.581,617.2838,3
45153,45153,2021-01-21 20:27:33.581,617.1088,3
45163,45163,2021-01-21 20:28:03.581,616.7531,3
45173,45173,2021-01-21 20:28:33.581,616.49695,3
45183,45183,2021-01-21 20:29:03.581,616.16754,3
45193,45193,2021-01-21 20:29:33.581,616.37354,3
45203,45203,2021-01-21 20:30:03.581,616.3884,3
45213,45213,2021-01-21 20:30:33.581,616.1343400000001,3
45223,45223,2021-01-21 20:31:03.581,615.806,3
45233,45233,2021-01-21 20:31:33.581,615.68445,3
45243,45243,2021-01-21 20:32:03.581,615.5201,3
45253,45253,2021-01-21 20:32:33.581,615.8418,3
45263,45263,2021-01-21 20:33:03.581,615.6806,3
45273,45273,2021-01-21 20:33:33.581,615.46643,3
45283,45283,2021-01-21 20:34:03.581,615.293,3
45293,45293,2021-01-21 20:34:33.581,614.992,3
45303,45303,2021-01-21 20:35:03.581,614.8572,3
45313,45313,2021-01-21 20:35:33.581,614.9259599999999,3
45323,45323,2021-01-21 20:36:03.581,614.4313,3
45333,45333,2021-01-21 20:36:33.581,614.2643,3
45343,45343,2021-01-21 20:37:03.581,614.0939,3
45353,45353,2021-01-21 20:37:33.581,614.01776,3
45363,45363,2021-01-21 20:38:03.581,613.97217,3
45373,45373,2021-01-21 20:38:33.581,613.54865,3
45383,45383,2021-01-21 20:39:03.581,613.29047,3
45393,45393,2021-01-21 20:39:33.581,613.1192,3
45403,45403,2021-01-21 20:40:03.581,612.9819,3
45413,45413,2021-01-21 20:40:33.581,612.898,3
45423,45423,2021-01-21 20:41:03.581,612.9369,3
45433,45433,2021-01-21 20:41:33.581,612.6328,3
45443,45443,2021-01-21 20:42:03.581,612.2821700000001,3
45453,45453,2021-01-21 20:42:33.581,612.2077,3
45463,45463,2021-01-21 20:43:03.581,612.05536,3
45473,45473,2021-01-21 20:43:33.581,611.939,3
45483,45483,2021-01-21 20:44:03.581,611.92883,3
45493,45493,2021-01-21 20:44:33.581,611.55664,3
45503,45503,2021-01-21 20:45:03.581,611.2193,3
45513,45513,2021-01-21 20:45:33.581,611.1156599999999,3
45523,45523,2021-01-21 20:46:03.581,610.992,3
45533,45533,2021-01-21 20:46:33.581,610.8572,3
45543,45543,2021-01-21 20:47:03.581,610.9259599999999,3
45553,45553,2021-01-21 20:47:33.581,610.4313,3
45563,45563,2021-01-21 20:48:03.581,610.2643,3
45573,45573,2021-01-21 20:48:33.581,610.0939,3
45583,45583,2021-01-21 20:49:03.581,610.01776,3
45593,45593,2021-01-21 20:49:33.581,609.97217,3
45603,45603,2021-01-21 20:50:03.581,609.54865,3
45613,45613,2021-01-21 20:50:33.581,609.2904,3
45623,45623,2021-01-21 20:51:03.581,609.1192599999999,3
45633,45633,2021-01-21 20:51:33.581,608.98193,3
45643,45643,2021-01-21 20:52:03.581,608.898,3
45653,45653,2021-01-21 20:52:33.581,608.9369,3
45663,45663,2021-01-21 20:53:03.581,608.6329,3
45673,45673,2021-01-21 20:53:33.581,608.2821700000001,3
45683,45683,2021-01-21 20:54:03.581,608.2077,3
45693,45693,2021-01-21 20:54:33.581,608.05536,3
45703,45703,2021-01-21 20:55:03.581,607.939,3
45713,45713,2021-01-21 20:55:33.581,607.92883,3
45723,45723,2021-01-21 20:56:03.581,607.5566,3
45733,45733,2021-01-21 20:56:33.581,607.2193,3
45743,45743,2021-01-21 20:57:03.581,607.1156,3
45753,45753,2021-01-21 20:57:33.581,606.992,3
45763,45763,2021-01-21 20:58:03.581,606.8572,3
45773,45773,2021-01-21 20:58:33.581,606.49634,3
45783,45783,2021-01-21 20:59:03.581,606.24585,3
45793,45793,2021-01-21 20:59:33.581,606.099,3
45803,45803,2021-01-21 21:00:03.581,605.9413,3
45813,45813,2021-01-21 21:00:33.581,605.8879400000001,3
45823,45823,2021-01-21 21:01:03.581,605.8858,3
45833,45833,2021-01-21 21:01:33.581,605.5823,3
45843,45843,2021-01-21 21:02:03.581,605.2821700000001,3
45853,45853,2021-01-21 21:02:33.581,605.2077,3
45863,45863,2021-01-21 21:03:03.581,605.05536,3
45873,45873,2021-01-21 21:03:33.581,604.939,3
45883,45883,2021-01-21 21:04:03.581,604.92883,3
45893,45893,2021-01-21 21:04:33.581,604.5566,3
45903,45903,2021-01-21 21:05:03.581,604.2193,3
45913,45913,2021-01-21 21:05:33.581,604.1156599999999,3
45923,45923,2021-01-21 21:06:03.581,603.992,3
45933,45933,2021-01-21 21:06:33.581,603.8572,3
45943,45943,2021-01-21 21:07:03.581,603.9259599999999,3
45953,45953,2021-01-21 21:07:33.581,603.4313,3
45963,45963,2021-01-21 21:08:03.581,603.2643,3
45973,45973,2021-01-21 21:08:33.581,603.0939,3
45983,45983,2021-01-21 21:09:03.581,603.01776,3
45993,45993,2021-01-21 21:09:33.581,602.97217,3
46003,46003,2021-01-21 21:10:03.581,602.54865,3
46013,46013,2021-01-21 21:10:33.581,602.2904,3
46023,46023,2021-01-21 21:11:03.581,602.1192599999999,3
46033,46033,2021-01-21 21:11:33.581,601.98193,3
46043,46043,2021-01-21 21:12:03.581,601.898,3
46053,46053,2021-01-21 21:12:33.581,601.9368,3
46063,46063,2021-01-21 21:13:03.581,601.6329,3
46073,46073,2021-01-21 21:13:33.581,601.2821700000001,3
46083,46083,2021-01-21 21:14:03.581,601.20776,3
46093,46093,2021-01-21 21:14:33.581,601.0553,3
46103,46103,2021-01-21 21:15:03.581,600.93896,3
46113,46113,2021-01-21 21:15:33.581,600.92883,3
46123,46123,2021-01-21 21:16:03.581,600.5566,3
46133,46133,2021-01-21 21:16:33.581,600.2193,3
46143,46143,2021-01-21 21:17:03.581,600.1156599999999,3
46153,46153,2021-01-21 21:17:33.581,599.99207,3
46163,46163,2021-01-21 21:18:03.581,599.8572,3
46173,46173,2021-01-21 21:18:33.581,597.4075,3
46183,46183,2021-01-21 21:19:03.581,589.2306,3
46193,46193,2021-01-21 21:19:33.581,590.0732,3
46203,46203,2021-01-21 21:20:03.581,589.5868,3
46213,46213,2021-01-21 21:20:33.581,588.96027,3
46223,46223,2021-01-21 21:21:03.581,588.3482700000001,3
46233,46233,2021-01-21 21:21:33.581,588.03314,3
46243,46243,2021-01-21 21:22:03.581,587.9385,3
46253,46253,2021-01-21 21:22:33.581,587.9864,3
46263,46263,2021-01-21 21:23:03.581,587.7197,3
46273,46273,2021-01-21 21:23:33.581,587.5044,3
46283,46283,2021-01-21 21:24:03.581,587.1455,3
46293,46293,2021-01-21 21:24:33.581,587.16785,3
46303,46303,2021-01-21 21:25:03.581,586.7006,3
46313,46313,2021-01-21 21:25:33.581,586.43536,3
46323,46323,2021-01-21 21:26:03.581,586.1242,3
46333,46333,2021-01-21 21:26:33.581,585.94855,3
46343,46343,2021-01-21 21:27:03.581,585.6097,3
46353,46353,2021-01-21 21:27:33.581,585.2985,3
46363,46363,2021-01-21 21:28:03.581,585.15045,3
46373,46373,2021-01-21 21:28:33.581,585.188,3
46383,46383,2021-01-21 21:29:03.581,585.06476,3
46393,46393,2021-01-21 21:29:33.581,584.8417,3
46403,46403,2021-01-21 21:30:03.581,584.62463,3
46413,46413,2021-01-21 21:30:33.581,584.43695,3
46423,46423,2021-01-21 21:31:03.581,584.4169,3
46433,46433,2021-01-21 21:31:33.581,584.5685,3
46443,46443,2021-01-21 21:32:03.581,584.39923,3
46453,46453,2021-01-21 21:32:33.581,584.2209,3
46463,46463,2021-01-21 21:33:03.581,584.1789,3
46473,46473,2021-01-21 21:33:33.581,583.919,3
46483,46483,2021-01-21 21:34:03.581,583.3961,3
46493,46493,2021-01-21 21:34:33.581,583.35266,3
46503,46503,2021-01-21 21:35:03.581,583.00824,3
46513,46513,2021-01-21 21:35:33.581,582.9643599999999,3
46523,46523,2021-01-21 21:36:03.581,582.8519,3
46533,46533,2021-01-21 21:36:33.581,582.77216,3
46543,46543,2021-01-21 21:37:03.581,582.5056,3
46553,46553,2021-01-21 21:37:33.581,582.2181,3
46563,46563,2021-01-21 21:38:03.581,582.1663,3
46573,46573,2021-01-21 21:38:33.581,582.0015,3
46583,46583,2021-01-21 21:39:03.581,581.919,3
46593,46593,2021-01-21 21:39:33.581,581.8924,3
46603,46603,2021-01-21 21:40:03.581,581.47345,3
46613,46613,2021-01-21 21:40:33.581,581.2193,3
46623,46623,2021-01-21 21:41:03.581,581.1156599999999,3
46633,46633,2021-01-21 21:41:33.581,580.992,3
46643,46643,2021-01-21 21:42:03.581,580.8572,3
46653,46653,2021-01-21 21:42:33.581,580.4964,3
46663,46663,2021-01-21 21:43:03.581,580.24585,3
46673,46673,2021-01-21 21:43:33.581,580.099,3
46683,46683,2021-01-21 21:44:03.581,579.9412,3
46693,46693,2021-01-21 21:44:33.581,579.8879400000001,3
46703,46703,2021-01-21 21:45:03.581,579.8858,3
46713,46713,2021-01-21 21:45:33.581,579.5822,3
46723,46723,2021-01-21 21:46:03.581,579.2821700000001,3
46733,46733,2021-01-21 21:46:33.581,579.2077,3
46743,46743,2021-01-21 21:47:03.581,579.0553,3
46753,46753,2021-01-21 21:47:33.581,578.939,3
46763,46763,2021-01-21 21:48:03.581,578.49115,3
46773,46773,2021-01-21 21:48:33.581,578.2836,3
46783,46783,2021-01-21 21:49:03.581,578.00824,3
46793,46793,2021-01-21 21:49:33.581,577.9643599999999,3
46803,46803,2021-01-21 21:50:03.581,577.8519,3
46813,46813,2021-01-21 21:50:33.581,577.7721,3
46823,46823,2021-01-21 21:51:03.581,577.5056,3
46833,46833,2021-01-21 21:51:33.581,577.2180000000001,3
46843,46843,2021-01-21 21:52:03.581,577.1664,3
46853,46853,2021-01-21 21:52:33.581,577.0015,3
46863,46863,2021-01-21 21:53:03.581,576.919,3
46873,46873,2021-01-21 21:53:33.581,576.3961,3
46883,46883,2021-01-21 21:54:03.581,576.35266,3
46893,46893,2021-01-21 21:54:33.581,576.00824,3
46903,46903,2021-01-21 21:55:03.581,575.9643,3
46913,46913,2021-01-21 21:55:33.581,575.8519,3
46923,46923,2021-01-21 21:56:03.581,575.77216,3
46933,46933,2021-01-21 21:56:33.581,575.5056,3
46943,46943,2021-01-21 21:57:03.581,575.2180000000001,3
46953,46953,2021-01-21 21:57:33.581,575.1664,3
46963,46963,2021-01-21 21:58:03.581,575.0015,3
46973,46973,2021-01-21 21:58:33.581,574.919,3
46983,46983,2021-01-21 21:59:03.581,574.3961,3
46993,46993,2021-01-21 21:59:33.581,574.3526,3
47003,47003,2021-01-21 22:00:03.581,574.0082,3
47013,47013,2021-01-21 22:00:33.581,573.9643599999999,3
47023,47023,2021-01-21 22:01:03.581,573.852,3
47033,47033,2021-01-21 22:01:33.581,573.7721,3
47043,47043,2021-01-21 22:02:03.581,573.5056,3
47053,47053,2021-01-21 22:02:33.581,573.2180000000001,3
47063,47063,2021-01-21 22:03:03.581,573.1664,3
47073,47073,2021-01-21 22:03:33.581,573.0015,3
47083,47083,2021-01-21 22:04:03.581,572.919,3
47093,47093,2021-01-21 22:04:33.581,572.3961,3
47103,47103,2021-01-21 22:05:03.581,572.35266,3
47113,47113,2021-01-21 22:05:33.581,572.0082,3
47123,47123,2021-01-21 22:06:03.581,571.9643599999999,3
47133,47133,2021-01-21 22:06:33.581,571.8519,3
47143,47143,2021-01-21 22:07:03.581,571.77216,3
47153,47153,2021-01-21 22:07:33.581,571.5056,3
47163,47163,2021-01-21 22:08:03.581,571.2180000000001,3
47173,47173,2021-01-21 22:08:33.581,571.1664,3
47183,47183,2021-01-21 22:09:03.581,571.0015,3
47193,47193,2021-01-21 22:09:33.581,570.919,3
47203,47203,2021-01-21 22:10:03.581,570.8924,3
47213,47213,2021-01-21 22:10:33.581,570.47345,3
47223,47223,2021-01-21 22:11:03.581,570.2193,3
47233,47233,2021-01-21 22:11:33.581,570.1156599999999,3
47243,47243,2021-01-21 22:12:03.581,569.992,3
47253,47253,2021-01-21 22:12:33.581,569.8572,3
47263,47263,2021-01-21 22:13:03.581,558.221,3
47273,47273,2021-01-21 22:13:33.581,559.0191,3
47283,47283,2021-01-21 22:14:03.581,558.7343,3
47293,47293,2021-01-21 22:14:33.581,557.9575,3
47303,47303,2021-01-21 22:15:03.581,557.5372,3
47313,47313,2021-01-21 22:15:33.581,557.0308,3
47323,47323,2021-01-21 22:16:03.581,556.8764,3
47333,47333,2021-01-21 22:16:33.581,557.1059,3
47343,47343,2021-01-21 22:17:03.581,556.96533,3
47353,47353,2021-01-21 22:17:33.581,556.7444,3
47363,47363,2021-01-21 22:18:03.581,556.3966,3
47373,47373,2021-01-21 22:18:33.581,556.1729,3
47383,47383,2021-01-21 22:19:03.581,555.8328,3
47393,47393,2021-01-21 22:19:33.581,555.47736,3
47403,47403,2021-01-21 22:20:03.581,555.4286,3
47413,47413,2021-01-21 22:20:33.581,555.35065,3
47423,47423,2021-01-21 22:21:03.581,554.8291,3
47433,47433,2021-01-21 22:21:33.581,554.44385,3
47443,47443,2021-01-21 22:22:03.581,554.2557400000001,3
47453,47453,2021-01-21 22:22:33.581,554.2904,3
47463,47463,2021-01-21 22:23:03.581,554.398,3
47473,47473,2021-01-21 22:23:33.581,554.00555,3
47483,47483,2021-01-21 22:24:03.581,553.51935,3
47493,47493,2021-01-21 22:24:33.581,553.5942,3
47503,47503,2021-01-21 22:25:03.581,553.4115,3
47513,47513,2021-01-21 22:25:33.581,553.7873,3
47523,47523,2021-01-21 22:26:03.581,553.7046,3
47533,47533,2021-01-21 22:26:33.581,553.44617,3
47543,47543,2021-01-21 22:27:03.581,553.2562,3
47553,47553,2021-01-21 22:27:33.581,553.0553,3
47563,47563,2021-01-21 22:28:03.581,552.939,3
47573,47573,2021-01-21 22:28:33.581,552.92883,3
47583,47583,2021-01-21 22:29:03.581,552.55664,3
47593,47593,2021-01-21 22:29:33.581,552.2193,3
47603,47603,2021-01-21 22:30:03.581,552.1156599999999,3
47613,47613,2021-01-21 22:30:33.581,551.992,3
47623,47623,2021-01-21 22:31:03.581,551.8572,3
47633,47633,2021-01-21 22:31:33.581,551.4964,3
47643,47643,2021-01-21 22:32:03.581,551.24585,3
47653,47653,2021-01-21 22:32:33.581,551.099,3
47663,47663,2021-01-21 22:33:03.581,550.9413,3
47673,47673,2021-01-21 22:33:33.581,550.8879400000001,3
47683,47683,2021-01-21 22:34:03.581,550.8858,3
47693,47693,2021-01-21 22:34:33.581,550.5822,3
47703,47703,2021-01-21 22:35:03.581,550.2821700000001,3
47713,47713,2021-01-21 22:35:33.581,550.20776,3
47723,47723,2021-01-21 22:36:03.581,550.05536,3
47733,47733,2021-01-21 22:36:33.581,549.93896,3
47743,47743,2021-01-21 22:37:03.581,549.92883,3
47753,47753,2021-01-21 22:37:33.581,549.55664,3
47763,47763,2021-01-21 22:38:03.581,549.2193,3
47773,47773,2021-01-21 22:38:33.581,549.1156599999999,3
47783,47783,2021-01-21 22:39:03.581,548.992,3
47793,47793,2021-01-21 22:39:33.581,548.8572,3
47803,47803,2021-01-21 22:40:03.581,548.4964,3
47813,47813,2021-01-21 22:40:33.581,548.2459,3
47823,47823,2021-01-21 22:41:03.581,548.099,3
47833,47833,2021-01-21 22:41:33.581,547.9412,3
47843,47843,2021-01-21 22:42:03.581,547.8879400000001,3
47853,47853,2021-01-21 22:42:33.581,547.8858,3
47863,47863,2021-01-21 22:43:03.581,547.5822,3
47873,47873,2021-01-21 22:43:33.581,547.2821700000001,3
47883,47883,2021-01-21 22:44:03.581,547.20776,3
47893,47893,2021-01-21 22:44:33.581,547.0553,3
47903,47903,2021-01-21 22:45:03.581,546.939,3
47913,47913,2021-01-21 22:45:33.581,546.92883,3
47923,47923,2021-01-21 22:46:03.581,546.5566,3
47933,47933,2021-01-21 22:46:33.581,546.2193,3
47943,47943,2021-01-21 22:47:03.581,546.1156599999999,3
47953,47953,2021-01-21 22:47:33.581,545.992,3
47963,47963,2021-01-21 22:48:03.581,545.8572,3
47973,47973,2021-01-21 22:48:33.581,545.9259599999999,3
47983,47983,2021-01-21 22:49:03.581,545.4312,3
47993,47993,2021-01-21 22:49:33.581,545.2643,3
48003,48003,2021-01-21 22:50:03.581,545.0939,3
48013,48013,2021-01-21 22:50:33.581,545.01776,3
48023,48023,2021-01-21 22:51:03.581,544.97217,3
48033,48033,2021-01-21 22:51:33.581,544.54865,3
48043,48043,2021-01-21 22:52:03.581,544.2904,3
48053,48053,2021-01-21 22:52:33.581,544.1192599999999,3
48063,48063,2021-01-21 22:53:03.581,543.9819,3
48073,48073,2021-01-21 22:53:33.581,543.89795,3
48083,48083,2021-01-21 22:54:03.581,543.9369,3
48093,48093,2021-01-21 22:54:33.581,543.6328,3
48103,48103,2021-01-21 22:55:03.581,543.2821700000001,3
48113,48113,2021-01-21 22:55:33.581,543.2077,3
48123,48123,2021-01-21 22:56:03.581,543.0553,3
48133,48133,2021-01-21 22:56:33.581,542.93896,3
48143,48143,2021-01-21 22:57:03.581,542.92883,3
48153,48153,2021-01-21 22:57:33.581,542.5566,3
48163,48163,2021-01-21 22:58:03.581,542.2193,3
48173,48173,2021-01-21 22:58:33.581,542.1156599999999,3
48183,48183,2021-01-21 22:59:03.581,541.992,3
48193,48193,2021-01-21 22:59:33.581,541.8572,3
48203,48203,2021-01-21 23:00:03.581,541.9259599999999,3
48213,48213,2021-01-21 23:00:33.581,541.4313,3
48223,48223,2021-01-21 23:01:03.581,541.2643,3
48233,48233,2021-01-21 23:01:33.581,541.0939,3
48243,48243,2021-01-21 23:02:03.581,541.01776,3
48253,48253,2021-01-21 23:02:33.581,540.97217,3
48263,48263,2021-01-21 23:03:03.581,540.54865,3
48273,48273,2021-01-21 23:03:33.581,540.2904,3
48283,48283,2021-01-21 23:04:03.581,540.1192599999999,3
48293,48293,2021-01-21 23:04:33.581,539.98193,3
48303,48303,2021-01-21 23:05:03.581,539.898,3
48313,48313,2021-01-21 23:05:33.581,539.9368,3
48323,48323,2021-01-21 23:06:03.581,527.34503,3
48333,48333,2021-01-21 23:06:33.581,527.9801,3
48343,48343,2021-01-21 23:07:03.581,527.7443,3
48353,48353,2021-01-21 23:07:33.581,527.0481,3
48363,48363,2021-01-21 23:08:03.581,526.4953,3
48373,48373,2021-01-21 23:08:33.581,526.0027,3
48383,48383,2021-01-21 23:09:03.581,525.7624,3
48393,48393,2021-01-21 23:09:33.581,526.0636599999999,3
48403,48403,2021-01-21 23:10:03.581,525.84357,3
48413,48413,2021-01-21 23:10:33.581,525.69727,3
48423,48423,2021-01-21 23:11:03.581,525.3456,3
48433,48433,2021-01-21 23:11:33.581,525.1107,3
48443,48443,2021-01-21 23:12:03.581,524.7001,3
48453,48453,2021-01-21 23:12:33.581,524.3479,3
48463,48463,2021-01-21 23:13:03.581,524.33746,3
48473,48473,2021-01-21 23:13:33.581,524.275,3
48483,48483,2021-01-21 23:14:03.581,523.7652,3
48493,48493,2021-01-21 23:14:33.581,523.3838,3
48503,48503,2021-01-21 23:15:03.581,523.1243,3
48513,48513,2021-01-21 23:15:33.581,523.2218,3
48523,48523,2021-01-21 23:16:03.581,523.383,3
48533,48533,2021-01-21 23:16:33.581,522.9815,3
48543,48543,2021-01-21 23:17:03.581,522.46454,3
48553,48553,2021-01-21 23:17:33.581,522.559,3
48563,48563,2021-01-21 23:18:03.581,522.33453,3
48573,48573,2021-01-21 23:18:33.581,522.7501,3
48583,48583,2021-01-21 23:19:03.581,522.69885,3
48593,48593,2021-01-21 23:19:33.581,522.4294,3
48603,48603,2021-01-21 23:20:03.581,522.2313,3
48613,48613,2021-01-21 23:20:33.581,522.05536,3
48623,48623,2021-01-21 23:21:03.581,521.93896,3
48633,48633,2021-01-21 23:21:33.581,521.92883,3
48643,48643,2021-01-21 23:22:03.581,521.5566,3
48653,48653,2021-01-21 23:22:33.581,521.21924,3
48663,48663,2021-01-21 23:23:03.581,521.1156599999999,3
48673,48673,2021-01-21 23:23:33.581,520.992,3
48683,48683,2021-01-21 23:24:03.581,520.8572,3
48693,48693,2021-01-21 23:24:33.581,520.49634,3
48703,48703,2021-01-21 23:25:03.581,520.2459,3
48713,48713,2021-01-21 23:25:33.581,520.099,3
48723,48723,2021-01-21 23:26:03.581,519.9413,3
48733,48733,2021-01-21 23:26:33.581,519.8879400000001,3
48743,48743,2021-01-21 23:27:03.581,519.8858,3
48753,48753,2021-01-21 23:27:33.581,519.5823,3
48763,48763,2021-01-21 23:28:03.581,519.2821700000001,3
48773,48773,2021-01-21 23:28:33.581,519.2077,3
48783,48783,2021-01-21 23:29:03.581,519.0553,3
48793,48793,2021-01-21 23:29:33.581,518.939,3
48803,48803,2021-01-21 23:30:03.581,518.9288,3
48813,48813,2021-01-21 23:30:33.581,518.55664,3
48823,48823,2021-01-21 23:31:03.581,518.2193,3
48833,48833,2021-01-21 23:31:33.581,518.1156599999999,3
48843,48843,2021-01-21 23:32:03.581,517.992,3
48853,48853,2021-01-21 23:32:33.581,517.8572,3
48863,48863,2021-01-21 23:33:03.581,517.9259599999999,3
48873,48873,2021-01-21 23:33:33.581,517.4313,3
48883,48883,2021-01-21 23:34:03.581,517.2642,3
48893,48893,2021-01-21 23:34:33.581,517.0939,3
48903,48903,2021-01-21 23:35:03.581,517.01776,3
48913,48913,2021-01-21 23:35:33.581,516.97217,3
48923,48923,2021-01-21 23:36:03.581,516.54865,3
48933,48933,2021-01-21 23:36:33.581,516.2904,3
48943,48943,2021-01-21 23:37:03.581,516.1192599999999,3
48953,48953,2021-01-21 23:37:33.581,515.98193,3
48963,48963,2021-01-21 23:38:03.581,515.898,3
48973,48973,2021-01-21 23:38:33.581,515.9368,3
48983,48983,2021-01-21 23:39:03.581,515.6328,3
48993,48993,2021-01-21 23:39:33.581,515.2821700000001,3
49003,49003,2021-01-21 23:40:03.581,515.2077,3
49013,49013,2021-01-21 23:40:33.581,515.0553,3
49023,49023,2021-01-21 23:41:03.581,514.93896,3
49033,49033,2021-01-21 23:41:33.581,514.92883,3
49043,49043,2021-01-21 23:42:03.581,514.5566,3
49053,49053,2021-01-21 23:42:33.581,514.2193,3
49063,49063,2021-01-21 23:43:03.581,514.1156599999999,3
49073,49073,2021-01-21 23:43:33.581,513.992,3
49083,49083,2021-01-21 23:44:03.581,513.8572,3
49093,49093,2021-01-21 23:44:33.581,513.4964,3
49103,49103,2021-01-21 23:45:03.581,513.2459,3
49113,49113,2021-01-21 23:45:33.581,513.099,3
49123,49123,2021-01-21 23:46:03.581,512.9413,3
49133,49133,2021-01-21 23:46:33.581,512.8879400000001,3
49143,49143,2021-01-21 23:47:03.581,512.8858,3
49153,49153,2021-01-21 23:47:33.581,512.5822,3
49163,49163,2021-01-21 23:48:03.581,512.2822,3
49173,49173,2021-01-21 23:48:33.581,512.2077,3
49183,49183,2021-01-21 23:49:03.581,512.0553,3
49193,49193,2021-01-21 23:49:33.581,511.93903,3
49203,49203,2021-01-21 23:50:03.581,511.92883,3
49213,49213,2021-01-21 23:50:33.581,511.5566,3
49223,49223,2021-01-21 23:51:03.581,511.2193,3
49233,49233,2021-01-21 23:51:33.581,511.11565999999993,3
49243,49243,2021-01-21 23:52:03.581,510.99199999999996,3
49253,49253,2021-01-21 23:52:33.581,510.8572,3
49263,49263,2021-01-21 23:53:03.581,510.92596,3
49273,49273,2021-01-21 23:53:33.581,510.43124000000006,3
49283,49283,2021-01-21 23:54:03.581,510.26422,3
49293,49293,2021-01-21 23:54:33.581,510.09387000000004,3
49303,49303,2021-01-21 23:55:03.581,510.01773,3
49313,49313,2021-01-21 23:55:33.581,509.9722,3
49323,49323,2021-01-21 23:56:03.581,496.37592,3
49333,49333,2021-01-21 23:56:33.581,497.23235999999997,3
49343,49343,2021-01-21 23:57:03.581,496.79623,3
49353,49353,2021-01-21 23:57:33.581,496.05972,3
49363,49363,2021-01-21 23:58:03.581,495.52948,3
49373,49373,2021-01-21 23:58:33.581,494.99487,3
49383,49383,2021-01-21 23:59:03.581,494.85953,3
49393,49393,2021-01-21 23:59:33.581,495.0761,3
49403,49403,2021-01-22 00:00:03.581,494.94982999999996,3
49413,49413,2021-01-22 00:00:33.581,494.74194000000006,3
49423,49423,2021-01-22 00:01:03.581,494.37933,3
49433,49433,2021-01-22 00:01:33.581,494.1521,3
49443,49443,2021-01-22 00:02:03.581,493.69046,3
49453,49453,2021-01-22 00:02:33.581,493.35477000000003,3
49463,49463,2021-01-22 00:03:03.581,493.30637,3
49473,49473,2021-01-22 00:03:33.581,493.31845,3
49483,49483,2021-01-22 00:04:03.581,492.72394,3
49493,49493,2021-01-22 00:04:33.581,492.30347,3
49503,49503,2021-01-22 00:05:03.581,492.10287,3
49513,49513,2021-01-22 00:05:33.581,492.13687000000004,3
49523,49523,2021-01-22 00:06:03.581,492.32465,3
49533,49533,2021-01-22 00:06:33.581,491.87292,3
49543,49543,2021-01-22 00:07:03.581,491.27502000000004,3
49553,49553,2021-01-22 00:07:33.581,491.44406,3
49563,49563,2021-01-22 00:08:03.581,491.25555,3
49573,49573,2021-01-22 00:08:33.581,491.7127,3
49583,49583,2021-01-22 00:09:03.581,491.69424000000004,3
49593,49593,2021-01-22 00:09:33.581,491.4129,3
49603,49603,2021-01-22 00:10:03.581,491.2119,3
49613,49613,2021-01-22 00:10:33.581,491.0553,3
49623,49623,2021-01-22 00:11:03.581,490.939,3
49633,49633,2021-01-22 00:11:33.581,490.92883,3
49643,49643,2021-01-22 00:12:03.581,490.5566,3
49653,49653,2021-01-22 00:12:33.581,490.21927,3
49663,49663,2021-01-22 00:13:03.581,490.11562999999995,3
49673,49673,2021-01-22 00:13:33.581,489.99199999999996,3
49683,49683,2021-01-22 00:14:03.581,489.85717999999997,3
49693,49693,2021-01-22 00:14:33.581,489.926,3
49703,49703,2021-01-22 00:15:03.581,489.43124000000006,3
49713,49713,2021-01-22 00:15:33.581,489.26425,3
49723,49723,2021-01-22 00:16:03.581,489.09384000000006,3
49733,49733,2021-01-22 00:16:33.581,489.01775999999995,3
49743,49743,2021-01-22 00:17:03.581,488.97217,3
49753,49753,2021-01-22 00:17:33.581,488.5486,3
49763,49763,2021-01-22 00:18:03.581,488.2904,3
49773,49773,2021-01-22 00:18:33.581,488.11922999999996,3
49783,49783,2021-01-22 00:19:03.581,487.9819,3
49793,49793,2021-01-22 00:19:33.581,487.898,3
49803,49803,2021-01-22 00:20:03.581,487.93683,3
49813,49813,2021-01-22 00:20:33.581,487.63284000000004,3
49823,49823,2021-01-22 00:21:03.581,487.28217,3
49833,49833,2021-01-22 00:21:33.581,487.20772999999997,3
49843,49843,2021-01-22 00:22:03.581,487.05532999999997,3
49853,49853,2021-01-22 00:22:33.581,486.939,3
49863,49863,2021-01-22 00:23:03.581,486.9288,3
49873,49873,2021-01-22 00:23:33.581,486.55658,3
49883,49883,2021-01-22 00:24:03.581,486.2193,3
49893,49893,2021-01-22 00:24:33.581,486.11565999999993,3
49903,49903,2021-01-22 00:25:03.581,485.99199999999996,3
49913,49913,2021-01-22 00:25:33.581,485.85717999999997,3
49923,49923,2021-01-22 00:26:03.581,485.92596,3
49933,49933,2021-01-22 00:26:33.581,485.43127000000004,3
49943,49943,2021-01-22 00:27:03.581,485.26428,3
49953,49953,2021-01-22 00:27:33.581,485.0939,3
49963,49963,2021-01-22 00:28:03.581,485.01773,3
49973,49973,2021-01-22 00:28:33.581,484.97217,3
49983,49983,2021-01-22 00:29:03.581,484.54865,3
49993,49993,2021-01-22 00:29:33.581,484.29037,3
50003,50003,2021-01-22 00:30:03.581,484.11925999999994,3
50013,50013,2021-01-22 00:30:33.581,483.9819,3
50023,50023,2021-01-22 00:31:03.581,483.89797999999996,3
50033,50033,2021-01-22 00:31:33.581,483.93685999999997,3
50043,50043,2021-01-22 00:32:03.581,483.63284000000004,3
50053,50053,2021-01-22 00:32:33.581,483.28214,3
50063,50063,2021-01-22 00:33:03.581,483.2077,3
50073,50073,2021-01-22 00:33:33.581,483.0553,3
50083,50083,2021-01-22 00:34:03.581,482.93895999999995,3
50093,50093,2021-01-22 00:34:33.581,482.92883,3
50103,50103,2021-01-22 00:35:03.581,482.5566,3
50113,50113,2021-01-22 00:35:33.581,482.2193,3
50123,50123,2021-01-22 00:36:03.581,482.11562999999995,3
50133,50133,2021-01-22 00:36:33.581,481.99199999999996,3
50143,50143,2021-01-22 00:37:03.581,481.85717999999997,3
50153,50153,2021-01-22 00:37:33.581,481.4964,3
50163,50163,2021-01-22 00:38:03.581,481.2459,3
50173,50173,2021-01-22 00:38:33.581,481.09897,3
50183,50183,2021-01-22 00:39:03.581,480.94125,3
50193,50193,2021-01-22 00:39:33.581,480.88794,3
50203,50203,2021-01-22 00:40:03.581,480.88577000000004,3
50213,50213,2021-01-22 00:40:33.581,480.5822,3
50223,50223,2021-01-22 00:41:03.581,480.28217,3
50233,50233,2021-01-22 00:41:33.581,480.20772999999997,3
50243,50243,2021-01-22 00:42:03.581,480.05532999999997,3
50253,50253,2021-01-22 00:42:33.581,479.93895999999995,3
50263,50263,2021-01-22 00:43:03.581,479.9288,3
50273,50273,2021-01-22 00:43:33.581,465.2635,3
50283,50283,2021-01-22 00:44:03.581,466.1801,3
50293,50293,2021-01-22 00:44:33.581,465.76532000000003,3
50303,50303,2021-01-22 00:45:03.581,465.08197,3
50313,50313,2021-01-22 00:45:33.581,464.43542,3
50323,50323,2021-01-22 00:46:03.581,463.8963,3
50333,50333,2021-01-22 00:46:33.581,463.7049,3
50343,50343,2021-01-22 00:47:03.581,464.01428,3
50353,50353,2021-01-22 00:47:33.581,463.55414,3
50363,50363,2021-01-22 00:48:03.581,463.5264,3
50373,50373,2021-01-22 00:48:33.581,463.15692,3
50383,50383,2021-01-22 00:49:03.581,463.0388,3
50393,50393,2021-01-22 00:49:33.581,462.49728,3
50403,50403,2021-01-22 00:50:03.581,462.20415999999994,3
50413,50413,2021-01-22 00:50:33.581,461.84314000000006,3
50423,50423,2021-01-22 00:51:03.581,462.06152000000003,3
50433,50433,2021-01-22 00:51:33.581,461.5059,3
50443,50443,2021-01-22 00:52:03.581,461.14774000000006,3
50453,50453,2021-01-22 00:52:33.581,460.80457,3
50463,50463,2021-01-22 00:53:03.581,461.05057,3
50473,50473,2021-01-22 00:53:33.581,461.20126,3
50483,50483,2021-01-22 00:54:03.581,460.8102,3
50493,50493,2021-01-22 00:54:33.581,460.2193,3
50503,50503,2021-01-22 00:55:03.581,460.3484,3
50513,50513,2021-01-22 00:55:33.581,460.13718,3
50523,50523,2021-01-22 00:56:03.581,460.69772,3
50533,50533,2021-01-22 00:56:33.581,460.67868,3
50543,50543,2021-01-22 00:57:03.581,460.45587,3
50553,50553,2021-01-22 00:57:33.581,460.22055,3
50563,50563,2021-01-22 00:58:03.581,460.01775999999995,3
50573,50573,2021-01-22 00:58:33.581,459.97217,3
50583,50583,2021-01-22 00:59:03.581,459.5486,3
50593,50593,2021-01-22 00:59:33.581,459.29044000000005,3
50603,50603,2021-01-22 01:00:03.581,459.11922999999996,3
50613,50613,2021-01-22 01:00:33.581,458.98187,3
50623,50623,2021-01-22 01:01:03.581,458.89797999999996,3
50633,50633,2021-01-22 01:01:33.581,458.93683,3
50643,50643,2021-01-22 01:02:03.581,458.63284000000004,3
50653,50653,2021-01-22 01:02:33.581,458.28217,3
50663,50663,2021-01-22 01:03:03.581,458.20772999999997,3
50673,50673,2021-01-22 01:03:33.581,458.0553,3
50683,50683,2021-01-22 01:04:03.581,457.939,3
50693,50693,2021-01-22 01:04:33.581,457.92883,3
50703,50703,2021-01-22 01:05:03.581,457.5566,3
50713,50713,2021-01-22 01:05:33.581,457.2193,3
50723,50723,2021-01-22 01:06:03.581,457.11565999999993,3
50733,50733,2021-01-22 01:06:33.581,456.99199999999996,3
50743,50743,2021-01-22 01:07:03.581,456.85717999999997,3
50753,50753,2021-01-22 01:07:33.581,456.926,3
50763,50763,2021-01-22 01:08:03.581,456.43127000000004,3
50773,50773,2021-01-22 01:08:33.581,456.26425,3
50783,50783,2021-01-22 01:09:03.581,456.09384000000006,3
50793,50793,2021-01-22 01:09:33.581,456.01775999999995,3
50803,50803,2021-01-22 01:10:03.581,455.97217,3
50813,50813,2021-01-22 01:10:33.581,455.54865,3
50823,50823,2021-01-22 01:11:03.581,455.29044000000005,3
50833,50833,2021-01-22 01:11:33.581,455.11922999999996,3
50843,50843,2021-01-22 01:12:03.581,454.9819,3
50853,50853,2021-01-22 01:12:33.581,454.89797999999996,3
50863,50863,2021-01-22 01:13:03.581,454.93683,3
50873,50873,2021-01-22 01:13:33.581,454.63284000000004,3
50883,50883,2021-01-22 01:14:03.581,454.28217,3
50893,50893,2021-01-22 01:14:33.581,454.20772999999997,3
50903,50903,2021-01-22 01:15:03.581,454.05532999999997,3
50913,50913,2021-01-22 01:15:33.581,453.93903,3
50923,50923,2021-01-22 01:16:03.581,453.92883,3
50933,50933,2021-01-22 01:16:33.581,453.55658,3
50943,50943,2021-01-22 01:17:03.581,453.21927,3
50953,50953,2021-01-22 01:17:33.581,453.11565999999993,3
50963,50963,2021-01-22 01:18:03.581,452.99197000000004,3
50973,50973,2021-01-22 01:18:33.581,452.85717999999997,3
50983,50983,2021-01-22 01:19:03.581,452.4964,3
50993,50993,2021-01-22 01:19:33.581,452.2459,3
51003,51003,2021-01-22 01:20:03.581,452.09897,3
51013,51013,2021-01-22 01:20:33.581,451.94125,3
51023,51023,2021-01-22 01:21:03.581,451.88794,3
51033,51033,2021-01-22 01:21:33.581,451.88577000000004,3
51043,51043,2021-01-22 01:22:03.581,451.5822,3
51053,51053,2021-01-22 01:22:33.581,451.2822,3
51063,51063,2021-01-22 01:23:03.581,451.2077,3
51073,51073,2021-01-22 01:23:33.581,451.0553,3
51083,51083,2021-01-22 01:24:03.581,450.939,3
51093,51093,2021-01-22 01:24:33.581,450.9288,3
51103,51103,2021-01-22 01:25:03.581,450.55658,3
51113,51113,2021-01-22 01:25:33.581,450.21927,3
51123,51123,2021-01-22 01:26:03.581,450.11565999999993,3
51133,51133,2021-01-22 01:26:33.581,449.99199999999996,3
51143,51143,2021-01-22 01:27:03.581,449.85717999999997,3
51153,51153,2021-01-22 01:27:33.581,435.27826,3
51163,51163,2021-01-22 01:28:03.581,435.32595999999995,3
51173,51173,2021-01-22 01:28:33.581,434.92953,3
51183,51183,2021-01-22 01:29:03.581,434.0597,3
51193,51193,2021-01-22 01:29:33.581,433.54532,3
51203,51203,2021-01-22 01:30:03.581,432.8754,3
51213,51213,2021-01-22 01:30:33.581,432.7175,3
51223,51223,2021-01-22 01:31:03.581,433.0504,3
51233,51233,2021-01-22 01:31:33.581,432.9022,3
51243,51243,2021-01-22 01:32:03.581,432.7367,3
51253,51253,2021-01-22 01:32:33.581,432.34534,3
51263,51263,2021-01-22 01:33:03.581,432.11023,3
51273,51273,2021-01-22 01:33:33.581,431.5917,3
51283,51283,2021-01-22 01:34:03.581,431.2344,3
51293,51293,2021-01-22 01:34:33.581,431.17575,3
51303,51303,2021-01-22 01:35:03.581,431.23852999999997,3
51313,51313,2021-01-22 01:35:33.581,430.6322,3
51323,51323,2021-01-22 01:36:03.581,430.1526,3
51333,51333,2021-01-22 01:36:33.581,429.9255,3
51343,51343,2021-01-22 01:37:03.581,429.95135,3
51353,51353,2021-01-22 01:37:33.581,430.2174,3
51363,51363,2021-01-22 01:38:03.581,429.77025999999995,3
51373,51373,2021-01-22 01:38:33.581,429.0839,3
51383,51383,2021-01-22 01:39:03.581,429.24987999999996,3
51393,51393,2021-01-22 01:39:33.581,429.07800000000003,3
51403,51403,2021-01-22 01:40:03.581,429.5761,3
51413,51413,2021-01-22 01:40:33.581,429.66962,3
51423,51423,2021-01-22 01:41:03.581,429.36832000000004,3
51433,51433,2021-01-22 01:41:33.581,429.1497,3
51443,51443,2021-01-22 01:42:03.581,428.95517,3
51453,51453,2021-01-22 01:42:33.581,428.939,3
51463,51463,2021-01-22 01:43:03.581,428.49115,3
51473,51473,2021-01-22 01:43:33.581,428.28362999999996,3
51483,51483,2021-01-22 01:44:03.581,428.0082,3
51493,51493,2021-01-22 01:44:33.581,427.96432000000004,3
51503,51503,2021-01-22 01:45:03.581,427.85193,3
51513,51513,2021-01-22 01:45:33.581,427.77213,3
51523,51523,2021-01-22 01:46:03.581,427.50558,3
51533,51533,2021-01-22 01:46:33.581,427.21802,3
51543,51543,2021-01-22 01:47:03.581,427.16635,3
51553,51553,2021-01-22 01:47:33.581,427.00153,3
51563,51563,2021-01-22 01:48:03.581,426.91898,3
51573,51573,2021-01-22 01:48:33.581,426.39612,3
51583,51583,2021-01-22 01:49:03.581,426.35263,3
51593,51593,2021-01-22 01:49:33.581,426.00824000000006,3
51603,51603,2021-01-22 01:50:03.581,425.96432000000004,3
51613,51613,2021-01-22 01:50:33.581,425.85193,3
51623,51623,2021-01-22 01:51:03.581,425.77216,3
51633,51633,2021-01-22 01:51:33.581,425.5056,3
51643,51643,2021-01-22 01:52:03.581,425.21802,3
51653,51653,2021-01-22 01:52:33.581,425.16635,3
51663,51663,2021-01-22 01:53:03.581,425.00153,3
51673,51673,2021-01-22 01:53:33.581,424.91900000000004,3
51683,51683,2021-01-22 01:54:03.581,424.39612,3
51693,51693,2021-01-22 01:54:33.581,424.35263,3
51703,51703,2021-01-22 01:55:03.581,424.0082,3
51713,51713,2021-01-22 01:55:33.581,423.96432000000004,3
51723,51723,2021-01-22 01:56:03.581,423.85193,3
51733,51733,2021-01-22 01:56:33.581,423.77216,3
51743,51743,2021-01-22 01:57:03.581,423.5056,3
51753,51753,2021-01-22 01:57:33.581,423.218,3
51763,51763,2021-01-22 01:58:03.581,423.16638,3
51773,51773,2021-01-22 01:58:33.581,423.00153,3
51783,51783,2021-01-22 01:59:03.581,422.91900000000004,3
51793,51793,2021-01-22 01:59:33.581,422.39612,3
51803,51803,2021-01-22 02:00:03.581,422.35263,3
51813,51813,2021-01-22 02:00:33.581,422.0082,3
51823,51823,2021-01-22 02:01:03.581,421.96432000000004,3
51833,51833,2021-01-22 02:01:33.581,421.85193,3
51843,51843,2021-01-22 02:02:03.581,421.77216,3
51853,51853,2021-01-22 02:02:33.581,421.5056,3
51863,51863,2021-01-22 02:03:03.581,421.21802,3
51873,51873,2021-01-22 02:03:33.581,421.16635,3
51883,51883,2021-01-22 02:04:03.581,421.00153,3
51893,51893,2021-01-22 02:04:33.581,420.91898,3
51903,51903,2021-01-22 02:05:03.581,420.39612,3
51913,51913,2021-01-22 02:05:33.581,420.35263,3
51923,51923,2021-01-22 02:06:03.581,420.0082,3
51933,51933,2021-01-22 02:06:33.581,419.96435999999994,3
51943,51943,2021-01-22 02:07:03.581,419.85193,3
51953,51953,2021-01-22 02:07:33.581,419.77213,3
51963,51963,2021-01-22 02:08:03.581,403.30466,3
51973,51973,2021-01-22 02:08:33.581,404.25854,3
51983,51983,2021-01-22 02:09:03.581,403.88492,3
51993,51993,2021-01-22 02:09:33.581,403.08353,3
52003,52003,2021-01-22 02:10:03.581,402.48477,3
52013,52013,2021-01-22 02:10:33.581,401.78394,3
52023,52023,2021-01-22 02:11:03.581,401.57223999999997,3
52033,52033,2021-01-22 02:11:33.581,402.00107,3
52043,52043,2021-01-22 02:12:03.581,401.81354,3
52053,52053,2021-01-22 02:12:33.581,401.69485,3
52063,52063,2021-01-22 02:13:03.581,401.31392999999997,3
52073,52073,2021-01-22 02:13:33.581,401.05536,3
52083,52083,2021-01-22 02:14:03.581,400.4139,3
52093,52093,2021-01-22 02:14:33.581,400.1056,3
52103,52103,2021-01-22 02:15:03.581,399.78972999999996,3
52113,52113,2021-01-22 02:15:33.581,399.92217999999997,3
52123,52123,2021-01-22 02:16:03.581,399.309,3
52133,52133,2021-01-22 02:16:33.581,398.94525,3
52143,52143,2021-01-22 02:17:03.581,398.63892000000004,3
52153,52153,2021-01-22 02:17:33.581,398.847,3
52163,52163,2021-01-22 02:18:03.581,399.1541,3
52173,52173,2021-01-22 02:18:33.581,398.68115,3
52183,52183,2021-01-22 02:19:03.581,397.95758,3
52193,52193,2021-01-22 02:19:33.581,398.15143,3
52203,52203,2021-01-22 02:20:03.581,398.00433,3
52213,52213,2021-01-22 02:20:33.581,398.57614,3
52223,52223,2021-01-22 02:21:03.581,398.64542,3
52233,52233,2021-01-22 02:21:33.581,398.3724,3
52243,52243,2021-01-22 02:22:03.581,398.1257,3
52253,52253,2021-01-22 02:22:33.581,397.99199999999996,3
52263,52263,2021-01-22 02:23:03.581,397.85715,3
52273,52273,2021-01-22 02:23:33.581,397.926,3
52283,52283,2021-01-22 02:24:03.581,397.43124,3
52293,52293,2021-01-22 02:24:33.581,397.26425,3
52303,52303,2021-01-22 02:25:03.581,397.09384,3
52313,52313,2021-01-22 02:25:33.581,397.01776,3
52323,52323,2021-01-22 02:26:03.581,396.97217,3
52333,52333,2021-01-22 02:26:33.581,396.5486,3
52343,52343,2021-01-22 02:27:03.581,396.2904,3
52353,52353,2021-01-22 02:27:33.581,396.11922999999996,3
52363,52363,2021-01-22 02:28:03.581,395.9819,3
52373,52373,2021-01-22 02:28:33.581,395.898,3
52383,52383,2021-01-22 02:29:03.581,395.93683,3
52393,52393,2021-01-22 02:29:33.581,395.63284,3
52403,52403,2021-01-22 02:30:03.581,395.28217,3
52413,52413,2021-01-22 02:30:33.581,395.2077,3
52423,52423,2021-01-22 02:31:03.581,395.0553,3
52433,52433,2021-01-22 02:31:33.581,394.93903,3
52443,52443,2021-01-22 02:32:03.581,394.92883,3
52453,52453,2021-01-22 02:32:33.581,394.55658,3
52463,52463,2021-01-22 02:33:03.581,394.2193,3
52473,52473,2021-01-22 02:33:33.581,394.11562999999995,3
52483,52483,2021-01-22 02:34:03.581,393.99199999999996,3
52493,52493,2021-01-22 02:34:33.581,393.85717999999997,3
52503,52503,2021-01-22 02:35:03.581,393.49637,3
52513,52513,2021-01-22 02:35:33.581,393.2459,3
52523,52523,2021-01-22 02:36:03.581,393.099,3
52533,52533,2021-01-22 02:36:33.581,392.94125,3
52543,52543,2021-01-22 02:37:03.581,392.88794,3
52553,52553,2021-01-22 02:37:33.581,392.8858,3
52563,52563,2021-01-22 02:38:03.581,392.5822,3
52573,52573,2021-01-22 02:38:33.581,392.28217,3
52583,52583,2021-01-22 02:39:03.581,392.20772999999997,3
52593,52593,2021-01-22 02:39:33.581,392.05532999999997,3
52603,52603,2021-01-22 02:40:03.581,391.939,3
52613,52613,2021-01-22 02:40:33.581,391.9288,3
52623,52623,2021-01-22 02:41:03.581,391.5566,3
52633,52633,2021-01-22 02:41:33.581,391.2193,3
52643,52643,2021-01-22 02:42:03.581,391.11566,3
52653,52653,2021-01-22 02:42:33.581,390.99199999999996,3
52663,52663,2021-01-22 02:43:03.581,390.85717999999997,3
52673,52673,2021-01-22 02:43:33.581,390.92596000000003,3
52683,52683,2021-01-22 02:44:03.581,390.43127000000004,3
52693,52693,2021-01-22 02:44:33.581,390.26422,3
52703,52703,2021-01-22 02:45:03.581,390.09387000000004,3
52713,52713,2021-01-22 02:45:33.581,390.01776,3
52723,52723,2021-01-22 02:46:03.581,389.97217,3
52733,52733,2021-01-22 02:46:33.581,372.45694,3
52743,52743,2021-01-22 02:47:03.581,373.57898,3
52753,52753,2021-01-22 02:47:33.581,372.93118,3
52763,52763,2021-01-22 02:48:03.581,372.16364,3
52773,52773,2021-01-22 02:48:33.581,371.51447,3
52783,52783,2021-01-22 02:49:03.581,370.82297,3
52793,52793,2021-01-22 02:49:33.581,370.72433,3
52803,52803,2021-01-22 02:50:03.581,371.0225,3
52813,52813,2021-01-22 02:50:33.581,370.90518,3
52823,52823,2021-01-22 02:51:03.581,370.73987,3
52833,52833,2021-01-22 02:51:33.581,370.34472999999997,3
52843,52843,2021-01-22 02:52:03.581,370.07928,3
52853,52853,2021-01-22 02:52:33.581,369.42224,3
52863,52863,2021-01-22 02:53:03.581,369.1168,3
52873,52873,2021-01-22 02:53:33.581,369.06396,3
52883,52883,2021-01-22 02:54:03.581,369.2449,3
52893,52893,2021-01-22 02:54:33.581,368.50192000000004,3
52903,52903,2021-01-22 02:55:03.581,368.00272,3
52913,52913,2021-01-22 02:55:33.581,367.77692,3
52923,52923,2021-01-22 02:56:03.581,367.82538,3
52933,52933,2021-01-22 02:56:33.581,368.18903,3
52943,52943,2021-01-22 02:57:03.581,367.63776,3
52953,52953,2021-01-22 02:57:33.581,366.81088,3
52963,52963,2021-01-22 02:58:03.581,367.09772000000004,3
52973,52973,2021-01-22 02:58:33.581,366.94745,3
52983,52983,2021-01-22 02:59:03.581,367.55176,3
52993,52993,2021-01-22 02:59:33.581,367.65524,3
53003,53003,2021-01-22 03:00:03.581,367.34862999999996,3
53013,53013,2021-01-22 03:00:33.581,367.1392,3
53023,53023,2021-01-22 03:01:03.581,367.05532999999997,3
53033,53033,2021-01-22 03:01:33.581,366.939,3
53043,53043,2021-01-22 03:02:03.581,366.9288,3
53053,53053,2021-01-22 03:02:33.581,366.5566,3
53063,53063,2021-01-22 03:03:03.581,366.2193,3
53073,53073,2021-01-22 03:03:33.581,366.11562999999995,3
53083,53083,2021-01-22 03:04:03.581,365.99197000000004,3
53093,53093,2021-01-22 03:04:33.581,365.85717999999997,3
53103,53103,2021-01-22 03:05:03.581,365.926,3
53113,53113,2021-01-22 03:05:33.581,365.43127000000004,3
53123,53123,2021-01-22 03:06:03.581,365.26425,3
53133,53133,2021-01-22 03:06:33.581,365.09384,3
53143,53143,2021-01-22 03:07:03.581,365.01773,3
53153,53153,2021-01-22 03:07:33.581,364.97217,3
53163,53163,2021-01-22 03:08:03.581,364.5486,3
53173,53173,2021-01-22 03:08:33.581,364.2904,3
53183,53183,2021-01-22 03:09:03.581,364.11922999999996,3
53193,53193,2021-01-22 03:09:33.581,363.9819,3
53203,53203,2021-01-22 03:10:03.581,363.89797999999996,3
53213,53213,2021-01-22 03:10:33.581,363.93683,3
53223,53223,2021-01-22 03:11:03.581,363.6328,3
53233,53233,2021-01-22 03:11:33.581,363.28217,3
53243,53243,2021-01-22 03:12:03.581,363.2077,3
53253,53253,2021-01-22 03:12:33.581,363.05532999999997,3
53263,53263,2021-01-22 03:13:03.581,362.939,3
53273,53273,2021-01-22 03:13:33.581,362.9288,3
53283,53283,2021-01-22 03:14:03.581,362.5566,3
53293,53293,2021-01-22 03:14:33.581,362.21927,3
53303,53303,2021-01-22 03:15:03.581,362.11562999999995,3
53313,53313,2021-01-22 03:15:33.581,361.99199999999996,3
53323,53323,2021-01-22 03:16:03.581,361.85717999999997,3
53333,53333,2021-01-22 03:16:33.581,361.92596000000003,3
53343,53343,2021-01-22 03:17:03.581,361.43124,3
53353,53353,2021-01-22 03:17:33.581,361.26425,3
53363,53363,2021-01-22 03:18:03.581,361.09387000000004,3
53373,53373,2021-01-22 03:18:33.581,361.01773,3
53383,53383,2021-01-22 03:19:03.581,360.97217,3
53393,53393,2021-01-22 03:19:33.581,360.5486,3
53403,53403,2021-01-22 03:20:03.581,360.29044,3
53413,53413,2021-01-22 03:20:33.581,360.11922999999996,3
53423,53423,2021-01-22 03:21:03.581,359.9819,3
53433,53433,2021-01-22 03:21:33.581,359.898,3
53443,53443,2021-01-22 03:22:03.581,359.93683,3
53453,53453,2021-01-22 03:22:33.581,341.5097,3
53463,53463,2021-01-22 03:23:03.581,342.47635,3
53473,53473,2021-01-22 03:23:33.581,341.93604,3
53483,53483,2021-01-22 03:24:03.581,341.20135,3
53493,53493,2021-01-22 03:24:33.581,340.4786,3
53503,53503,2021-01-22 03:25:03.581,339.74023,3
53513,53513,2021-01-22 03:25:33.581,339.56665,3
53523,53523,2021-01-22 03:26:03.581,339.97238,3
53533,53533,2021-01-22 03:26:33.581,339.79272000000003,3
53543,53543,2021-01-22 03:27:03.581,339.6943,3
53553,53553,2021-01-22 03:27:33.581,339.2939,3
53563,53563,2021-01-22 03:28:03.581,339.01645,3
53573,53573,2021-01-22 03:28:33.581,338.28784,3
53583,53583,2021-01-22 03:29:03.581,337.986,3
53593,53593,2021-01-22 03:29:33.581,337.66714,3
53603,53603,2021-01-22 03:30:03.581,337.88715,3
53613,53613,2021-01-22 03:30:33.581,337.19626,3
53623,53623,2021-01-22 03:31:03.581,336.7944,3
53633,53633,2021-01-22 03:31:33.581,336.4758,3
53643,53643,2021-01-22 03:32:03.581,336.6913,3
53653,53653,2021-01-22 03:32:33.581,337.09036000000003,3
53663,53663,2021-01-22 03:33:03.581,336.5664,3
53673,53673,2021-01-22 03:33:33.581,335.71573,3
53683,53683,2021-01-22 03:34:03.581,335.96875,3
53693,53693,2021-01-22 03:34:33.581,335.8517,3
53703,53703,2021-01-22 03:35:03.581,336.4953,3
53713,53713,2021-01-22 03:35:33.581,336.61642,3
53723,53723,2021-01-22 03:36:03.581,336.34567000000004,3
53733,53733,2021-01-22 03:36:33.581,336.0868,3
53743,53743,2021-01-22 03:37:03.581,335.99199999999996,3
53753,53753,2021-01-22 03:37:33.581,335.85717999999997,3
53763,53763,2021-01-22 03:38:03.581,335.92596000000003,3
53773,53773,2021-01-22 03:38:33.581,335.43127000000004,3
53783,53783,2021-01-22 03:39:03.581,335.26425,3
53793,53793,2021-01-22 03:39:33.581,335.09387000000004,3
53803,53803,2021-01-22 03:40:03.581,335.01776,3
53813,53813,2021-01-22 03:40:33.581,334.97217,3
53823,53823,2021-01-22 03:41:03.581,334.54865,3
53833,53833,2021-01-22 03:41:33.581,334.2904,3
53843,53843,2021-01-22 03:42:03.581,334.11926,3
53853,53853,2021-01-22 03:42:33.581,333.9819,3
53863,53863,2021-01-22 03:43:03.581,333.898,3
53873,53873,2021-01-22 03:43:33.581,333.93683,3
53883,53883,2021-01-22 03:44:03.581,333.63284,3
53893,53893,2021-01-22 03:44:33.581,333.28217,3
53903,53903,2021-01-22 03:45:03.581,333.2077,3
53913,53913,2021-01-22 03:45:33.581,333.0553,3
53923,53923,2021-01-22 03:46:03.581,332.939,3
53933,53933,2021-01-22 03:46:33.581,332.9288,3
53943,53943,2021-01-22 03:47:03.581,332.55658,3
53953,53953,2021-01-22 03:47:33.581,332.21927,3
53963,53963,2021-01-22 03:48:03.581,332.11566,3
53973,53973,2021-01-22 03:48:33.581,331.99203,3
53983,53983,2021-01-22 03:49:03.581,331.85717999999997,3
53993,53993,2021-01-22 03:49:33.581,331.92596000000003,3
54003,54003,2021-01-22 03:50:03.581,331.43127000000004,3
54013,54013,2021-01-22 03:50:33.581,331.26425,3
54023,54023,2021-01-22 03:51:03.581,331.09387000000004,3
54033,54033,2021-01-22 03:51:33.581,331.01773,3
54043,54043,2021-01-22 03:52:03.581,330.97217,3
54053,54053,2021-01-22 03:52:33.581,330.5486,3
54063,54063,2021-01-22 03:53:03.581,330.2904,3
54073,54073,2021-01-22 03:53:33.581,330.11926,3
54083,54083,2021-01-22 03:54:03.581,329.9819,3
54093,54093,2021-01-22 03:54:33.581,329.898,3
54103,54103,2021-01-22 03:55:03.581,329.93683,3
54113,54113,2021-01-22 03:55:33.581,310.54,3
54123,54123,2021-01-22 03:56:03.581,311.5656,3
54133,54133,2021-01-22 03:56:33.581,310.9686,3
54143,54143,2021-01-22 03:57:03.581,310.22662,3
54153,54153,2021-01-22 03:57:33.581,309.47652999999997,3
54163,54163,2021-01-22 03:58:03.581,308.6945,3
54173,54173,2021-01-22 03:58:33.581,308.53326,3
54183,54183,2021-01-22 03:59:03.581,308.95984,3
54193,54193,2021-01-22 03:59:33.581,308.78235,3
54203,54203,2021-01-22 04:00:03.581,308.69357,3
54213,54213,2021-01-22 04:00:33.581,308.28827,3
54223,54223,2021-01-22 04:01:03.581,307.99698,3
54233,54233,2021-01-22 04:01:33.581,307.22635,3
54243,54243,2021-01-22 04:02:03.581,306.92647999999997,3
54253,54253,2021-01-22 04:02:33.581,306.60712,3
54263,54263,2021-01-22 04:03:03.581,306.86728,3
54273,54273,2021-01-22 04:03:33.581,306.13776,3
54283,54283,2021-01-22 04:04:03.581,305.71844,3
54293,54293,2021-01-22 04:04:33.581,305.39285,3
54303,54303,2021-01-22 04:05:03.581,305.6116,3
54313,54313,2021-01-22 04:05:33.581,306.05902000000003,3
54323,54323,2021-01-22 04:06:03.581,305.51062,3
54333,54333,2021-01-22 04:06:33.581,304.5993,3
54343,54343,2021-01-22 04:07:03.581,304.87686,3
54353,54353,2021-01-22 04:07:33.581,304.7736,3
54363,54363,2021-01-22 04:08:03.581,305.4539,3
54373,54373,2021-01-22 04:08:33.581,305.60065,3
54383,54383,2021-01-22 04:09:03.581,305.33272999999997,3
54393,54393,2021-01-22 04:09:33.581,305.068,3
54403,54403,2021-01-22 04:10:03.581,304.992,3
54413,54413,2021-01-22 04:10:33.581,304.85717999999997,3
54423,54423,2021-01-22 04:11:03.581,304.92596000000003,3
54433,54433,2021-01-22 04:11:33.581,304.43127000000004,3
54443,54443,2021-01-22 04:12:03.581,304.26425,3
54453,54453,2021-01-22 04:12:33.581,304.09387000000004,3
54463,54463,2021-01-22 04:13:03.581,304.01773,3
54473,54473,2021-01-22 04:13:33.581,303.97217,3
54483,54483,2021-01-22 04:14:03.581,303.54865,3
54493,54493,2021-01-22 04:14:33.581,303.2904,3
54503,54503,2021-01-22 04:15:03.581,303.11922999999996,3
54513,54513,2021-01-22 04:15:33.581,302.9819,3
54523,54523,2021-01-22 04:16:03.581,302.89799999999997,3
54533,54533,2021-01-22 04:16:33.581,302.93686,3
54543,54543,2021-01-22 04:17:03.581,302.63284,3
54553,54553,2021-01-22 04:17:33.581,302.28217,3
54563,54563,2021-01-22 04:18:03.581,302.20772999999997,3
54573,54573,2021-01-22 04:18:33.581,302.05532999999997,3
54583,54583,2021-01-22 04:19:03.581,301.939,3
54593,54593,2021-01-22 04:19:33.581,301.9288,3
54603,54603,2021-01-22 04:20:03.581,301.55658,3
54613,54613,2021-01-22 04:20:33.581,301.21927,3
54623,54623,2021-01-22 04:21:03.581,301.11566,3
54633,54633,2021-01-22 04:21:33.581,300.992,3
54643,54643,2021-01-22 04:22:03.581,300.85717999999997,3
54653,54653,2021-01-22 04:22:33.581,300.926,3
54663,54663,2021-01-22 04:23:03.581,300.43127000000004,3
54673,54673,2021-01-22 04:23:33.581,300.26425,3
54683,54683,2021-01-22 04:24:03.581,300.09384,3
54693,54693,2021-01-22 04:24:33.581,300.01773,3
54703,54703,2021-01-22 04:25:03.581,299.97217,3
54713,54713,2021-01-22 04:25:33.581,279.5458,3
54723,54723,2021-01-22 04:26:03.581,280.85666000000003,3
54733,54733,2021-01-22 04:26:33.581,280.03757,3
54743,54743,2021-01-22 04:27:03.581,279.24133,3
54753,54753,2021-01-22 04:27:33.581,278.50622999999996,3
54763,54763,2021-01-22 04:28:03.581,277.68924,3
54773,54773,2021-01-22 04:28:33.581,277.62686,3
54783,54783,2021-01-22 04:29:03.581,277.98795,3
54793,54793,2021-01-22 04:29:33.581,277.87357000000003,3
54803,54803,2021-01-22 04:30:03.581,277.73523,3
54813,54813,2021-01-22 04:30:33.581,277.3266,3
54823,54823,2021-01-22 04:31:03.581,277.0228,3
54833,54833,2021-01-22 04:31:33.581,276.23724,3
54843,54843,2021-01-22 04:32:03.581,275.94208,3
54853,54853,2021-01-22 04:32:33.581,275.57755,3
54863,54863,2021-01-22 04:33:03.581,275.8995,3
54873,54873,2021-01-22 04:33:33.581,275.07388,3
54883,54883,2021-01-22 04:34:03.581,274.63858,3
54893,54893,2021-01-22 04:34:33.581,274.3674,3
54903,54903,2021-01-22 04:35:03.581,274.5201,3
54913,54913,2021-01-22 04:35:33.581,274.99753,3
54923,54923,2021-01-22 04:36:03.581,274.4078,3
54933,54933,2021-01-22 04:36:33.581,273.44467000000003,3
54943,54943,2021-01-22 04:37:03.581,273.74985,3
54953,54953,2021-01-22 04:37:33.581,273.69424,3
54963,54963,2021-01-22 04:38:03.581,274.19467000000003,3
54973,54973,2021-01-22 04:38:33.581,274.35663,3
54983,54983,2021-01-22 04:39:03.581,274.09103,3
54993,54993,2021-01-22 04:39:33.581,273.9188,3
55003,55003,2021-01-22 04:40:03.581,273.85193,3
55013,55013,2021-01-22 04:40:33.581,273.77213,3
55023,55023,2021-01-22 04:41:03.581,273.5056,3
55033,55033,2021-01-22 04:41:33.581,273.218,3
55043,55043,2021-01-22 04:42:03.581,273.16635,3
55053,55053,2021-01-22 04:42:33.581,273.00153,3
55063,55063,2021-01-22 04:43:03.581,272.91898,3
55073,55073,2021-01-22 04:43:33.581,272.39612,3
55083,55083,2021-01-22 04:44:03.581,272.35263,3
55093,55093,2021-01-22 04:44:33.581,272.0082,3
55103,55103,2021-01-22 04:45:03.581,271.96432000000004,3
55113,55113,2021-01-22 04:45:33.581,271.85193,3
55123,55123,2021-01-22 04:46:03.581,271.77213,3
55133,55133,2021-01-22 04:46:33.581,271.5056,3
55143,55143,2021-01-22 04:47:03.581,271.21802,3
55153,55153,2021-01-22 04:47:33.581,271.16635,3
55163,55163,2021-01-22 04:48:03.581,271.00153,3
55173,55173,2021-01-22 04:48:33.581,270.91898,3
55183,55183,2021-01-22 04:49:03.581,270.8924,3
55193,55193,2021-01-22 04:49:33.581,270.47345,3
55203,55203,2021-01-22 04:50:03.581,270.2193,3
55213,55213,2021-01-22 04:50:33.581,270.11566,3
55223,55223,2021-01-22 04:51:03.581,269.992,3
55233,55233,2021-01-22 04:51:33.581,269.85715,3
55243,55243,2021-01-22 04:52:03.581,248.45396000000002,3
55253,55253,2021-01-22 04:52:33.581,249.88417,3
55263,55263,2021-01-22 04:53:03.581,249.0995,3
55273,55273,2021-01-22 04:53:33.581,248.21187999999998,3
55283,55283,2021-01-22 04:54:03.581,247.50262,3
55293,55293,2021-01-22 04:54:33.581,246.58145,3
55303,55303,2021-01-22 04:55:03.581,246.52747999999997,3
55313,55313,2021-01-22 04:55:33.581,246.97772,3
55323,55323,2021-01-22 04:56:03.581,246.86368,3
55333,55333,2021-01-22 04:56:33.581,246.73448,3
55343,55343,2021-01-22 04:57:03.581,246.32085,3
55353,55353,2021-01-22 04:57:33.581,246.00426000000002,3
55363,55363,2021-01-22 04:58:03.581,245.17531,3
55373,55373,2021-01-22 04:58:33.581,244.88712,3
55383,55383,2021-01-22 04:59:03.581,244.82057000000003,3
55393,55393,2021-01-22 04:59:33.581,245.1506,3
55403,55403,2021-01-22 05:00:03.581,244.26082999999997,3
55413,55413,2021-01-22 05:00:33.581,243.70597999999998,3
55423,55423,2021-01-22 05:01:03.581,243.44017000000002,3
55433,55433,2021-01-22 05:01:33.581,243.50628999999998,3
55443,55443,2021-01-22 05:02:03.581,244.05551,3
55453,55453,2021-01-22 05:02:33.581,243.41556,3
55463,55463,2021-01-22 05:03:03.581,242.36792000000003,3
55473,55473,2021-01-22 05:03:33.581,242.74322999999998,3
55483,55483,2021-01-22 05:04:03.581,242.63437000000002,3
55493,55493,2021-01-22 05:04:33.581,243.38284,3
55503,55503,2021-01-22 05:05:03.581,243.59592999999998,3
55513,55513,2021-01-22 05:05:33.581,243.29667999999998,3
55523,55523,2021-01-22 05:06:03.581,243.06659,3
55533,55533,2021-01-22 05:06:33.581,243.0553,3
55543,55543,2021-01-22 05:07:03.581,242.93900000000002,3
55553,55553,2021-01-22 05:07:33.581,242.9288,3
55563,55563,2021-01-22 05:08:03.581,242.55661,3
55573,55573,2021-01-22 05:08:33.581,242.21927999999997,3
55583,55583,2021-01-22 05:09:03.581,242.11565,3
55593,55593,2021-01-22 05:09:33.581,241.99199,3
55603,55603,2021-01-22 05:10:03.581,241.85716000000002,3
55613,55613,2021-01-22 05:10:33.581,241.49637,3
55623,55623,2021-01-22 05:11:03.581,241.24587999999997,3
55633,55633,2021-01-22 05:11:33.581,241.09897999999998,3
55643,55643,2021-01-22 05:12:03.581,240.94125,3
55653,55653,2021-01-22 05:12:33.581,240.88795,3
55663,55663,2021-01-22 05:13:03.581,240.88577,3
55673,55673,2021-01-22 05:13:33.581,240.58221,3
55683,55683,2021-01-22 05:14:03.581,240.28217,3
55693,55693,2021-01-22 05:14:33.581,240.20772000000002,3
55703,55703,2021-01-22 05:15:03.581,240.05531000000002,3
55713,55713,2021-01-22 05:15:33.581,239.93901,3
55723,55723,2021-01-22 05:16:03.581,239.9288,3
55733,55733,2021-01-22 05:16:33.581,217.49294,3
55743,55743,2021-01-22 05:17:03.581,218.88116000000002,3
55753,55753,2021-01-22 05:17:33.581,218.02573999999998,3
55763,55763,2021-01-22 05:18:03.581,217.28203,3
55773,55773,2021-01-22 05:18:33.581,216.42424,3
55783,55783,2021-01-22 05:19:03.581,215.54411000000002,3
55793,55793,2021-01-22 05:19:33.581,215.44261,3
55803,55803,2021-01-22 05:20:03.581,215.91501,3
55813,55813,2021-01-22 05:20:33.581,215.74367999999998,3
55823,55823,2021-01-22 05:21:03.581,215.72567999999998,3
55833,55833,2021-01-22 05:21:33.581,215.23541,3
55843,55843,2021-01-22 05:22:03.581,214.98201,3
55853,55853,2021-01-22 05:22:33.581,214.06212999999997,3
55863,55863,2021-01-22 05:23:03.581,213.81522999999999,3
55873,55873,2021-01-22 05:23:33.581,213.48036000000002,3
55883,55883,2021-01-22 05:24:03.581,213.86229,3
55893,55893,2021-01-22 05:24:33.581,213.04657000000003,3
55903,55903,2021-01-22 05:25:03.581,212.58395,3
55913,55913,2021-01-22 05:25:33.581,212.1391,3
55923,55923,2021-01-22 05:26:03.581,212.37567,3
55933,55933,2021-01-22 05:26:33.581,212.96263,3
55943,55943,2021-01-22 05:27:03.581,212.34445,3
55953,55953,2021-01-22 05:27:33.581,211.26405,3
55963,55963,2021-01-22 05:28:03.581,211.6202,3
55973,55973,2021-01-22 05:28:33.581,211.53412000000003,3
55983,55983,2021-01-22 05:29:03.581,212.33119,3
55993,55993,2021-01-22 05:29:33.581,212.5551,3
56003,56003,2021-01-22 05:30:03.581,212.29597,3
56013,56013,2021-01-22 05:30:33.581,212.01067,3
56023,56023,2021-01-22 05:31:03.581,211.99200000000002,3
56033,56033,2021-01-22 05:31:33.581,211.85717999999997,3
56043,56043,2021-01-22 05:32:03.581,211.49637,3
56053,56053,2021-01-22 05:32:33.581,211.24587999999997,3
56063,56063,2021-01-22 05:33:03.581,211.09897999999998,3
56073,56073,2021-01-22 05:33:33.581,210.94124,3
56083,56083,2021-01-22 05:34:03.581,210.88794,3
56093,56093,2021-01-22 05:34:33.581,210.88577,3
56103,56103,2021-01-22 05:35:03.581,210.58221,3
56113,56113,2021-01-22 05:35:33.581,210.28217,3
56123,56123,2021-01-22 05:36:03.581,210.2077,3
56133,56133,2021-01-22 05:36:33.581,210.05531000000002,3
56143,56143,2021-01-22 05:37:03.581,209.93900000000002,3
56153,56153,2021-01-22 05:37:33.581,209.92882000000003,3
56163,56163,2021-01-22 05:38:03.581,186.52505,3
56173,56173,2021-01-22 05:38:33.581,187.97603999999998,3
56183,56183,2021-01-22 05:39:03.581,187.06665,3
56193,56193,2021-01-22 05:39:33.581,186.30675,3
56203,56203,2021-01-22 05:40:03.581,185.42155,3
56213,56213,2021-01-22 05:40:33.581,184.49532,3
56223,56223,2021-01-22 05:41:03.581,184.4103,3
56233,56233,2021-01-22 05:41:33.581,184.90422,3
56243,56243,2021-01-22 05:42:03.581,184.47906,3
56253,56253,2021-01-22 05:42:33.581,184.51315,3
56263,56263,2021-01-22 05:43:03.581,184.08244,3
56273,56273,2021-01-22 05:43:33.581,183.8742,3
56283,56283,2021-01-22 05:44:03.581,182.92354,3
56293,56293,2021-01-22 05:44:33.581,182.69893000000002,3
56303,56303,2021-01-22 05:45:03.581,182.29951,3
56313,56313,2021-01-22 05:45:33.581,182.85799,3
56323,56323,2021-01-22 05:46:03.581,181.9661,3
56333,56333,2021-01-22 05:46:33.581,181.48508,3
56343,56343,2021-01-22 05:47:03.581,181.05267,3
56353,56353,2021-01-22 05:47:33.581,181.34325,3
56363,56363,2021-01-22 05:48:03.581,181.91487,3
56373,56373,2021-01-22 05:48:33.581,181.3004,3
56383,56383,2021-01-22 05:49:03.581,180.17557,3
56393,56393,2021-01-22 05:49:33.581,180.5581,3
56403,56403,2021-01-22 05:50:03.581,180.4378,3
56413,56413,2021-01-22 05:50:33.581,181.33618,3
56423,56423,2021-01-22 05:51:03.581,181.54692,3
56433,56433,2021-01-22 05:51:33.581,181.3518,3
56443,56443,2021-01-22 05:52:03.581,181.04886000000002,3
56453,56453,2021-01-22 05:52:33.581,181.01773,3
56463,56463,2021-01-22 05:53:03.581,180.97217,3
56473,56473,2021-01-22 05:53:33.581,180.54863,3
56483,56483,2021-01-22 05:54:03.581,180.29039,3
56493,56493,2021-01-22 05:54:33.581,180.11925,3
56503,56503,2021-01-22 05:55:03.581,179.98189,3
56513,56513,2021-01-22 05:55:33.581,179.898,3
56523,56523,2021-01-22 05:56:03.581,179.93683000000001,3
56533,56533,2021-01-22 05:56:33.581,155.69253999999998,3
56543,56543,2021-01-22 05:57:03.581,157.02693,3
56553,56553,2021-01-22 05:57:33.581,156.1646,3
56563,56563,2021-01-22 05:58:03.581,155.35121,3
56573,56573,2021-01-22 05:58:33.581,154.46448,3
56583,56583,2021-01-22 05:59:03.581,153.45857,3
56593,56593,2021-01-22 05:59:33.581,153.37296,3
56603,56603,2021-01-22 06:00:03.581,153.90495,3
56613,56613,2021-01-22 06:00:33.581,153.73085,3
56623,56623,2021-01-22 06:01:03.581,153.68973,3
56633,56633,2021-01-22 06:01:33.581,153.26256999999998,3
56643,56643,2021-01-22 06:02:03.581,152.90079,3
56653,56653,2021-01-22 06:02:33.581,151.9238,3
56663,56663,2021-01-22 06:03:03.581,151.64824,3
56673,56673,2021-01-22 06:03:33.581,151.30838,3
56683,56683,2021-01-22 06:04:03.581,151.75388999999998,3
56693,56693,2021-01-22 06:04:33.581,150.83151,3
56703,56703,2021-01-22 06:05:03.581,150.34457,3
56713,56713,2021-01-22 06:05:33.581,149.96577,3
56723,56723,2021-01-22 06:06:03.581,150.2195,3
56733,56733,2021-01-22 06:06:33.581,150.89696,3
56743,56743,2021-01-22 06:07:03.581,150.23741,3
56753,56753,2021-01-22 06:07:33.581,149.05136000000002,3
56763,56763,2021-01-22 06:08:03.581,149.46126999999998,3
56773,56773,2021-01-22 06:08:33.581,149.3718,3
56783,56783,2021-01-22 06:09:03.581,150.25125,3
56793,56793,2021-01-22 06:09:33.581,150.52539,3
56803,56803,2021-01-22 06:10:03.581,150.27618,3
56813,56813,2021-01-22 06:10:33.581,149.97008,3
56823,56823,2021-01-22 06:11:03.581,149.99200000000002,3
56833,56833,2021-01-22 06:11:33.581,149.85716000000002,3
56843,56843,2021-01-22 06:12:03.581,125.54938,3
56853,56853,2021-01-22 06:12:33.581,126.22875,3
56863,56863,2021-01-22 06:13:03.581,125.29533,3
56873,56873,2021-01-22 06:13:33.581,124.314224,3
56883,56883,2021-01-22 06:14:03.581,123.51975,3
56893,56893,2021-01-22 06:14:33.581,122.41018000000001,3
56903,56903,2021-01-22 06:15:03.581,122.386604,3
56913,56913,2021-01-22 06:15:33.581,122.93056000000001,3
56923,56923,2021-01-22 06:16:03.581,122.799904,3
56933,56933,2021-01-22 06:16:33.581,122.72256499999999,3
56943,56943,2021-01-22 06:17:03.581,122.27343,3
56953,56953,2021-01-22 06:17:33.581,121.91311999999999,3
56963,56963,2021-01-22 06:18:03.581,120.97227,3
56973,56973,2021-01-22 06:18:33.581,120.64336999999999,3
56983,56983,2021-01-22 06:19:03.581,120.56563,3
56993,56993,2021-01-22 06:19:33.581,121.00798999999999,3
57003,57003,2021-01-22 06:20:03.581,120.04417,3
57013,57013,2021-01-22 06:20:33.581,119.40279,3
57023,57023,2021-01-22 06:21:03.581,119.08311,3
57033,57033,2021-01-22 06:21:33.581,119.1605,3
57043,57043,2021-01-22 06:22:03.581,119.8801,3
57053,57053,2021-01-22 06:22:33.581,119.225945,3
57063,57063,2021-01-22 06:23:03.581,117.977875,3
57073,57073,2021-01-22 06:23:33.581,118.37935,3
57083,57083,2021-01-22 06:24:03.581,118.30474,3
57093,57093,2021-01-22 06:24:33.581,109.94045,3
57103,57103,2021-01-22 06:25:03.581,102.795265,3
57113,57113,2021-01-22 06:25:33.581,95.36331,3
57123,57123,2021-01-22 06:26:03.581,94.50271,3
57133,57133,2021-01-22 06:26:33.581,92.67081,3
57143,57143,2021-01-22 06:27:03.581,91.62031999999999,3
57153,57153,2021-01-22 06:27:33.581,91.39246,3
57163,57163,2021-01-22 06:28:03.581,92.070435,3
57173,57173,2021-01-22 06:28:33.581,91.85478,3
57183,57183,2021-01-22 06:29:03.581,91.72155,3
57193,57193,2021-01-22 06:29:33.581,91.17345999999999,3
57203,57203,2021-01-22 06:30:03.581,90.84999,3
57213,57213,2021-01-22 06:30:33.581,89.76782,3
57223,57223,2021-01-22 06:31:03.581,89.51308399999999,3
57233,57233,2021-01-22 06:31:33.581,89.435486,3
57243,57243,2021-01-22 06:32:03.581,89.93406999999999,3
57253,57253,2021-01-22 06:32:33.581,88.856155,3
57263,57263,2021-01-22 06:33:03.581,88.16441999999999,3
57273,57273,2021-01-22 06:33:33.581,87.855,3
57283,57283,2021-01-22 06:34:03.581,88.058304,3
57293,57293,2021-01-22 06:34:33.581,89.06585,3
57303,57303,2021-01-22 06:35:03.581,76.20859,3
57313,57313,2021-01-22 06:35:33.581,68.87248000000001,3
57323,57323,2021-01-22 06:36:03.581,63.491737,3
57333,57333,2021-01-22 06:36:33.581,60.984818000000004,3
57343,57343,2021-01-22 06:37:03.581,58.02117,3
57353,57353,2021-01-22 06:37:33.581,57.272346,3
57363,57363,2021-01-22 06:38:03.581,57.069874,3
57373,57373,2021-01-22 06:38:33.581,58.182080000000006,3
57383,57383,2021-01-22 06:39:03.581,60.5416,3
57393,57393,2021-01-22 06:39:33.581,60.717728,3
57403,57403,2021-01-22 06:40:03.581,60.202835,3
57413,57413,2021-01-22 06:40:33.581,59.886326000000004,3
57423,57423,2021-01-22 06:41:03.581,58.761265,3
57433,57433,2021-01-22 06:41:33.581,58.53183000000001,3
57443,57443,2021-01-22 06:42:03.581,41.165565,3
57453,57453,2021-01-22 06:42:33.581,32.3236,3
