,Unnamed: 0,time,prediction,step
12836,12836,2020-11-30 12:33:53.705,1.0000007,6
12846,12846,2020-11-30 12:34:23.705,1.0000007,6
12856,12856,2020-11-30 12:34:53.705,1.0000007,6
12866,12866,2020-11-30 12:35:23.705,1.0000007,6
12876,12876,2020-11-30 12:35:53.705,1.0000007,6
12886,12886,2020-11-30 12:36:23.705,1.0000007,6
12896,12896,2020-11-30 12:36:53.705,1.0000007,6
12906,12906,2020-11-30 12:37:23.705,1.0000007,6
12916,12916,2020-11-30 12:37:53.705,1.0000007,6
12926,12926,2020-11-30 12:38:23.705,1.0000007,6
12936,12936,2020-11-30 12:38:53.705,1.0000007,6
12946,12946,2020-11-30 12:39:23.705,1.0000007,6
12956,12956,2020-11-30 12:39:53.705,1.0000007,6
12966,12966,2020-11-30 12:40:23.705,1.0000007,6
12976,12976,2020-11-30 12:40:53.705,1.0000007,6
12986,12986,2020-11-30 12:41:23.705,1.0000007,6
12996,12996,2020-11-30 12:41:53.705,1.0000007,6
13006,13006,2020-11-30 12:42:23.705,1.0000007,6
13016,13016,2020-11-30 12:42:53.705,1.0000007,6
13026,13026,2020-11-30 12:43:23.705,1.0000007,6
13036,13036,2020-11-30 12:43:53.705,1.0000007,6
13046,13046,2020-11-30 12:44:23.705,1.0000007,6
13056,13056,2020-11-30 12:44:53.705,1.0000007,6
13066,13066,2020-11-30 12:45:23.705,1.0000007,6
13076,13076,2020-11-30 12:45:53.705,1.0000007,6
13086,13086,2020-11-30 12:46:23.705,1.0000007,6
13096,13096,2020-11-30 12:46:53.705,1.0000007,6
13106,13106,2020-11-30 12:47:23.705,1.0000007,6
13116,13116,2020-11-30 12:47:53.705,1.0000007,6
13126,13126,2020-11-30 12:48:23.705,1.0000007,6
13136,13136,2020-11-30 12:48:53.705,1.0000007,6
13146,13146,2020-11-30 12:49:23.705,1.0000007,6
13156,13156,2020-11-30 12:49:53.705,1.0000007,6
13166,13166,2020-11-30 12:50:23.705,1.0000007,6
13176,13176,2020-11-30 12:50:53.705,1.0000007,6
13186,13186,2020-11-30 12:51:23.705,1.0000007,6
13196,13196,2020-11-30 12:51:53.705,1.0000007,6
13206,13206,2020-11-30 12:52:23.705,1.0000007,6
13216,13216,2020-11-30 12:52:53.705,1.0000007,6
13226,13226,2020-11-30 12:53:23.705,1.0000007,6
13236,13236,2020-11-30 12:53:53.705,1.0000007,6
13246,13246,2020-11-30 12:54:23.705,1.0000007,6
13256,13256,2020-11-30 12:54:53.705,1.0000007,6
13266,13266,2020-11-30 12:55:23.705,1.0000007,6
13276,13276,2020-11-30 12:55:53.705,1.0000007,6
13286,13286,2020-11-30 12:56:23.705,1.0000007,6
13296,13296,2020-11-30 12:56:53.705,1.0000007,6
13306,13306,2020-11-30 12:57:23.705,1.0000007,6
13316,13316,2020-11-30 12:57:53.705,1.0000007,6
13326,13326,2020-11-30 12:58:23.705,1.0000007,6
13336,13336,2020-11-30 12:58:53.705,1.0000007,6
13346,13346,2020-11-30 12:59:23.705,1.0000007,6
13356,13356,2020-11-30 12:59:53.705,1.0000007,6
13366,13366,2020-11-30 13:00:23.705,1.0000007,6
13376,13376,2020-11-30 13:00:53.705,1.0000007,6
13386,13386,2020-11-30 13:01:23.705,1.0000007,6
13396,13396,2020-11-30 13:01:53.705,1.0000007,6
13406,13406,2020-11-30 13:02:23.705,1.0000007,6
13416,13416,2020-11-30 13:02:53.705,1.0000007,6
13426,13426,2020-11-30 13:03:23.705,1.0000007,6
13436,13436,2020-11-30 13:03:53.705,1.0000007,6
13446,13446,2020-11-30 13:04:23.705,1.0000007,6
13456,13456,2020-11-30 13:04:53.705,1.0000007,6
13466,13466,2020-11-30 13:05:23.705,1.0000007,6
13476,13476,2020-11-30 13:05:53.705,1.0000007,6
13486,13486,2020-11-30 13:06:23.705,1.0000007,6
13496,13496,2020-11-30 13:06:53.705,1.0000007,6
13506,13506,2020-11-30 13:07:23.705,1.0000007,6
13516,13516,2020-11-30 13:07:53.705,1.0000007,6
13526,13526,2020-11-30 13:08:23.705,1.0000007,6
13536,13536,2020-11-30 13:08:53.705,1.0000007,6
13546,13546,2020-11-30 13:09:23.705,1.0000007,6
13556,13556,2020-11-30 13:09:53.705,1.0000007,6
13566,13566,2020-11-30 13:10:23.705,1.0000007,6
13576,13576,2020-11-30 13:10:53.705,1.0000007,6
13586,13586,2020-11-30 13:11:23.705,1.0000007,6
13596,13596,2020-11-30 13:11:53.705,1.0000007,6
13606,13606,2020-11-30 13:12:23.705,1.0000007,6
13616,13616,2020-11-30 13:12:53.705,1.0000007,6
13626,13626,2020-11-30 13:13:23.705,1.0000007,6
13636,13636,2020-11-30 13:13:53.705,1.0000007,6
13646,13646,2020-11-30 13:14:23.705,1.0000007,6
13656,13656,2020-11-30 13:14:53.705,1.0000007,6
13666,13666,2020-11-30 13:15:23.705,1.0000007,6
13676,13676,2020-11-30 13:15:53.705,1.0000007,6
13686,13686,2020-11-30 13:16:23.705,1.0000007,6
13696,13696,2020-11-30 13:16:53.705,1.0000007,6
13706,13706,2020-11-30 13:17:23.705,1.0000007,6
13716,13716,2020-11-30 13:17:53.705,1.0000007,6
13726,13726,2020-11-30 13:18:23.705,1.0000007,6
13736,13736,2020-11-30 13:18:53.705,1.0000007,6
13746,13746,2020-11-30 13:19:23.705,1.0000007,6
13756,13756,2020-11-30 13:19:53.705,1.0000007,6
13766,13766,2020-11-30 13:20:23.705,1.0000007,6
13776,13776,2020-11-30 13:20:53.705,1.0000007,6
13786,13786,2020-11-30 13:21:23.705,1.0000007,6
13796,13796,2020-11-30 13:21:53.705,1.0000007,6
13806,13806,2020-11-30 13:22:23.705,1.0000007,6
13816,13816,2020-11-30 13:22:53.705,1.0000007,6
13826,13826,2020-11-30 13:23:23.705,1.0000007,6
13836,13836,2020-11-30 13:23:53.705,1.0000007,6
13846,13846,2020-11-30 13:24:23.705,1.0000007,6
13856,13856,2020-11-30 13:24:53.705,1.0000007,6
13866,13866,2020-11-30 13:25:23.705,1.0000007,6
13876,13876,2020-11-30 13:25:53.705,1.0000007,6
13886,13886,2020-11-30 13:26:23.705,1.0000007,6
13896,13896,2020-11-30 13:26:53.705,1.0000007,6
13906,13906,2020-11-30 13:27:23.705,1.0000007,6
13916,13916,2020-11-30 13:27:53.705,1.0000007,6
13926,13926,2020-11-30 13:28:23.705,1.0000007,6
13936,13936,2020-11-30 13:28:53.705,1.0000007,6
13946,13946,2020-11-30 13:29:23.705,1.0000007,6
13956,13956,2020-11-30 13:29:53.705,1.0000007,6
13966,13966,2020-11-30 13:30:23.705,1.0000007,6
13976,13976,2020-11-30 13:30:53.705,1.0000007,6
13986,13986,2020-11-30 13:31:23.705,1.0000007,6
13996,13996,2020-11-30 13:31:53.705,1.0000007,6
14006,14006,2020-11-30 13:32:23.705,1.0000007,6
14016,14016,2020-11-30 13:32:53.705,1.0000007,6
14026,14026,2020-11-30 13:33:23.705,1.0000007,6
14036,14036,2020-11-30 13:33:53.705,1.0000007,6
14046,14046,2020-11-30 13:34:23.705,1.0000007,6
14056,14056,2020-11-30 13:34:53.705,1.0000007,6
14066,14066,2020-11-30 13:35:23.705,1.0000007,6
14076,14076,2020-11-30 13:35:53.705,1.0000007,6
14086,14086,2020-11-30 13:36:23.705,1.0000007,6
14096,14096,2020-11-30 13:36:53.705,1.0000007,6
14106,14106,2020-11-30 13:37:23.705,1.0000007,6
14116,14116,2020-11-30 13:37:53.705,1.0000007,6
14126,14126,2020-11-30 13:38:23.705,1.0000007,6
14136,14136,2020-11-30 13:38:53.705,1.0000007,6
14146,14146,2020-11-30 13:39:23.705,1.0000007,6
14156,14156,2020-11-30 13:39:53.705,1.0000007,6
14166,14166,2020-11-30 13:40:23.705,1.0000007,6
14176,14176,2020-11-30 13:40:53.705,1.0000007,6
14186,14186,2020-11-30 13:41:23.705,1.0000007,6
14196,14196,2020-11-30 13:41:53.705,1.0000007,6
14206,14206,2020-11-30 13:42:23.705,1.0000007,6
14216,14216,2020-11-30 13:42:53.705,1.0000007,6
14226,14226,2020-11-30 13:43:23.705,1.0000007,6
14236,14236,2020-11-30 13:43:53.705,1.0000007,6
14246,14246,2020-11-30 13:44:23.705,1.0000007,6
14256,14256,2020-11-30 13:44:53.705,1.0000007,6
14266,14266,2020-11-30 13:45:23.705,1.0000007,6
14276,14276,2020-11-30 13:45:53.705,1.0000007,6
14286,14286,2020-11-30 13:46:23.705,1.0000007,6
14296,14296,2020-11-30 13:46:53.705,1.0000007,6
14306,14306,2020-11-30 13:47:23.705,1.0000007,6
14316,14316,2020-11-30 13:47:53.705,1.0000007,6
14326,14326,2020-11-30 13:48:23.705,1.0000007,6
14336,14336,2020-11-30 13:48:53.705,1.0000007,6
14346,14346,2020-11-30 13:49:23.705,1.0000007,6
14356,14356,2020-11-30 13:49:53.705,1.0000007,6
14366,14366,2020-11-30 13:50:23.705,1.0000007,6
14376,14376,2020-11-30 13:50:53.705,1.0000007,6
14386,14386,2020-11-30 13:51:23.705,1.0000007,6
14396,14396,2020-11-30 13:51:53.705,1.0000007,6
14406,14406,2020-11-30 13:52:23.705,1.0000007,6
14416,14416,2020-11-30 13:52:53.705,1.0000007,6
14426,14426,2020-11-30 13:53:23.705,1.0000007,6
14436,14436,2020-11-30 13:53:53.705,1.0000007,6
14446,14446,2020-11-30 13:54:23.705,1.0000007,6
14456,14456,2020-11-30 13:54:53.705,1.0000007,6
14466,14466,2020-11-30 13:55:23.705,1.0000007,6
14476,14476,2020-11-30 13:55:53.705,1.0000007,6
14486,14486,2020-11-30 13:56:23.705,1.0000007,6
14496,14496,2020-11-30 13:56:53.705,1.0000007,6
14506,14506,2020-11-30 13:57:23.705,1.0000007,6
14516,14516,2020-11-30 13:57:53.705,1.0000007,6
14526,14526,2020-11-30 13:58:23.705,1.0000007,6
14536,14536,2020-11-30 13:58:53.705,1.0000007,6
14546,14546,2020-11-30 13:59:23.705,1.0000007,6
14556,14556,2020-11-30 13:59:53.705,1.0000007,6
14566,14566,2020-11-30 14:00:23.705,1.0000007,6
14576,14576,2020-11-30 14:00:53.705,1.0000007,6
14586,14586,2020-11-30 14:01:23.705,1.0000007,6
14596,14596,2020-11-30 14:01:53.705,1.0000007,6
14606,14606,2020-11-30 14:02:23.705,1.0000007,6
14616,14616,2020-11-30 14:02:53.705,1.0000007,6
14626,14626,2020-11-30 14:03:23.705,1.0000007,6
14636,14636,2020-11-30 14:03:53.705,1.0000007,6
14646,14646,2020-11-30 14:04:23.705,1.0000007,6
14656,14656,2020-11-30 14:04:53.705,1.0000007,6
14666,14666,2020-11-30 14:05:23.705,1.0000007,6
14676,14676,2020-11-30 14:05:53.705,1.0000007,6
14686,14686,2020-11-30 14:06:23.705,1.0000007,6
14696,14696,2020-11-30 14:06:53.705,1.0000007,6
14706,14706,2020-11-30 14:07:23.705,1.0000007,6
14716,14716,2020-11-30 14:07:53.705,1.0000007,6
14726,14726,2020-11-30 14:08:23.705,1.0000007,6
14736,14736,2020-11-30 14:08:53.705,1.0000007,6
14746,14746,2020-11-30 14:09:23.705,1.0000007,6
14756,14756,2020-11-30 14:09:53.705,1.0000007,6
14766,14766,2020-11-30 14:10:23.705,1.0000007,6
14776,14776,2020-11-30 14:10:53.705,1.0000007,6
14786,14786,2020-11-30 14:11:23.705,1.0000007,6
14796,14796,2020-11-30 14:11:53.705,1.0000007,6
14806,14806,2020-11-30 14:12:23.705,1.0000007,6
14816,14816,2020-11-30 14:12:53.705,1.0000007,6
14826,14826,2020-11-30 14:13:23.705,1.0000007,6
14836,14836,2020-11-30 14:13:53.705,1.0000007,6
14846,14846,2020-11-30 14:14:23.705,1.0000007,6
14856,14856,2020-11-30 14:14:53.705,1.0000007,6
14866,14866,2020-11-30 14:15:23.705,1.0000007,6
14876,14876,2020-11-30 14:15:53.705,1.0000007,6
14886,14886,2020-11-30 14:16:23.705,1.0000007,6
14896,14896,2020-11-30 14:16:53.705,1.0000007,6
14906,14906,2020-11-30 14:17:23.705,1.0000007,6
14916,14916,2020-11-30 14:17:53.705,1.0000007,6
14926,14926,2020-11-30 14:18:23.705,1.0000007,6
14936,14936,2020-11-30 14:18:53.705,1.0000007,6
14946,14946,2020-11-30 14:19:23.705,1.0000007,6
14956,14956,2020-11-30 14:19:53.705,1.0000007,6
14966,14966,2020-11-30 14:20:23.705,1.0000007,6
14976,14976,2020-11-30 14:20:53.705,1.0000007,6
14986,14986,2020-11-30 14:21:23.705,1.0000007,6
14996,14996,2020-11-30 14:21:53.705,1.0000007,6
15006,15006,2020-11-30 14:22:23.705,1.0000007,6
15016,15016,2020-11-30 14:22:53.705,1.0000007,6
15026,15026,2020-11-30 14:23:23.705,1.0000007,6
15036,15036,2020-11-30 14:23:53.705,1.0000007,6
15046,15046,2020-11-30 14:24:23.705,1.0000007,6
15056,15056,2020-11-30 14:24:53.705,1.0000007,6
15066,15066,2020-11-30 14:25:23.705,1.0000007,6
15076,15076,2020-11-30 14:25:53.705,1.0000007,6
15086,15086,2020-11-30 14:26:23.705,1.0000007,6
15096,15096,2020-11-30 14:26:53.705,1.0000007,6
15106,15106,2020-11-30 14:27:23.705,1.0000007,6
15116,15116,2020-11-30 14:27:53.705,1.0000007,6
15126,15126,2020-11-30 14:28:23.705,1.0000007,6
15136,15136,2020-11-30 14:28:53.705,1.0000007,6
15146,15146,2020-11-30 14:29:23.705,1.0000007,6
15156,15156,2020-11-30 14:29:53.705,1.0000007,6
15166,15166,2020-11-30 14:30:23.705,1.0000007,6
15176,15176,2020-11-30 14:30:53.705,1.0000007,6
15186,15186,2020-11-30 14:31:23.705,1.0000007,6
15196,15196,2020-11-30 14:31:53.705,1.0000007,6
15206,15206,2020-11-30 14:32:23.705,1.0000007,6
15216,15216,2020-11-30 14:32:53.705,1.0000007,6
15226,15226,2020-11-30 14:33:23.705,1.0000007,6
15236,15236,2020-11-30 14:33:53.705,1.0000007,6
15246,15246,2020-11-30 14:34:23.705,1.0000007,6
15256,15256,2020-11-30 14:34:53.705,1.0000007,6
15266,15266,2020-11-30 14:35:23.705,1.0000007,6
15276,15276,2020-11-30 14:35:53.705,1.0000007,6
15286,15286,2020-11-30 14:36:23.705,1.0000007,6
15296,15296,2020-11-30 14:36:53.705,1.0000007,6
15306,15306,2020-11-30 14:37:23.705,1.0000007,6
15316,15316,2020-11-30 14:37:53.705,1.0000007,6
15326,15326,2020-11-30 14:38:23.705,1.0000007,6
15336,15336,2020-11-30 14:38:53.705,1.0000007,6
15346,15346,2020-11-30 14:39:23.705,1.0000007,6
15356,15356,2020-11-30 14:39:53.705,1.0000007,6
15366,15366,2020-11-30 14:40:23.705,1.0000007,6
15376,15376,2020-11-30 14:40:53.705,1.0000007,6
15386,15386,2020-11-30 14:41:23.705,1.0000007,6
15396,15396,2020-11-30 14:41:53.705,1.0000007,6
15406,15406,2020-11-30 14:42:23.705,1.0000007,6
15416,15416,2020-11-30 14:42:53.705,1.0000007,6
15426,15426,2020-11-30 14:43:23.705,1.0000007,6
15436,15436,2020-11-30 14:43:53.705,1.0000007,6
15446,15446,2020-11-30 14:44:23.705,1.0000007,6
15456,15456,2020-11-30 14:44:53.705,1.0000007,6
15466,15466,2020-11-30 14:45:23.705,1.0000007,6
15476,15476,2020-11-30 14:45:53.705,1.0000007,6
15486,15486,2020-11-30 14:46:23.705,1.0000007,6
15496,15496,2020-11-30 14:46:53.705,1.0000007,6
15506,15506,2020-11-30 14:47:23.705,1.0000007,6
15516,15516,2020-11-30 14:47:53.705,1.0000007,6
15526,15526,2020-11-30 14:48:23.705,1.0000007,6
15536,15536,2020-11-30 14:48:53.705,1.0000007,6
15546,15546,2020-11-30 14:49:23.705,1.0000007,6
15556,15556,2020-11-30 14:49:53.705,1.0000007,6
15566,15566,2020-11-30 14:50:23.705,1.0000007,6
15576,15576,2020-11-30 14:50:53.705,1.0000007,6
15586,15586,2020-11-30 14:51:23.705,1.0000007,6
15596,15596,2020-11-30 14:51:53.705,1.0000007,6
15606,15606,2020-11-30 14:52:23.705,1.0000007,6
15616,15616,2020-11-30 14:52:53.705,1.0000007,6
15626,15626,2020-11-30 14:53:23.705,1.0000007,6
15636,15636,2020-11-30 14:53:53.705,1.0000007,6
15646,15646,2020-11-30 14:54:23.705,1.0000007,6
15656,15656,2020-11-30 14:54:53.705,1.0000007,6
15666,15666,2020-11-30 14:55:23.705,1.0000007,6
15676,15676,2020-11-30 14:55:53.705,1.0000007,6
15686,15686,2020-11-30 14:56:23.705,1.0000007,6
15696,15696,2020-11-30 14:56:53.705,1.0000007,6
15706,15706,2020-11-30 14:57:23.705,1.0000007,6
15716,15716,2020-11-30 14:57:53.705,1.0000007,6
15726,15726,2020-11-30 14:58:23.705,1.0000007,6
15736,15736,2020-11-30 14:58:53.705,1.0000007,6
15746,15746,2020-11-30 14:59:23.705,1.0000007,6
15756,15756,2020-11-30 14:59:53.705,1.0000007,6
15766,15766,2020-11-30 15:00:23.705,1.0000007,6
15776,15776,2020-11-30 15:00:53.705,1.0000007,6
15786,15786,2020-11-30 15:01:23.705,1.0000007,6
15796,15796,2020-11-30 15:01:53.705,1.0000007,6
15806,15806,2020-11-30 15:02:23.705,1.0000007,6
15816,15816,2020-11-30 15:02:53.705,1.0000007,6
15826,15826,2020-11-30 15:03:23.705,1.0000007,6
15836,15836,2020-11-30 15:03:53.705,1.0000007,6
15846,15846,2020-11-30 15:04:23.705,1.0000007,6
15856,15856,2020-11-30 15:04:53.705,1.0000007,6
15866,15866,2020-11-30 15:05:23.705,1.0000007,6
15876,15876,2020-11-30 15:05:53.705,1.0000007,6
15886,15886,2020-11-30 15:06:23.705,1.0000007,6
15896,15896,2020-11-30 15:06:53.705,1.0000007,6
15906,15906,2020-11-30 15:07:23.705,1.0000007,6
15916,15916,2020-11-30 15:07:53.705,1.0000007,6
15926,15926,2020-11-30 15:08:23.705,1.0000007,6
15936,15936,2020-11-30 15:08:53.705,1.0000007,6
15946,15946,2020-11-30 15:09:23.705,1.0000007,6
15956,15956,2020-11-30 15:09:53.705,1.0000007,6
15966,15966,2020-11-30 15:10:23.705,1.0000007,6
15976,15976,2020-11-30 15:10:53.705,1.0000007,6
15986,15986,2020-11-30 15:11:23.705,1.0000007,6
15996,15996,2020-11-30 15:11:53.705,1.0000007,6
16006,16006,2020-11-30 15:12:23.705,1.0000007,6
16016,16016,2020-11-30 15:12:53.705,1.0000007,6
16026,16026,2020-11-30 15:13:23.705,1.0000007,6
16036,16036,2020-11-30 15:13:53.705,1.0000007,6
16046,16046,2020-11-30 15:14:23.705,1.0000007,6
16056,16056,2020-11-30 15:14:53.705,1.0000007,6
16066,16066,2020-11-30 15:15:23.705,1.0000007,6
16076,16076,2020-11-30 15:15:53.705,1.0000007,6
16086,16086,2020-11-30 15:16:23.705,1.0000007,6
16096,16096,2020-11-30 15:16:53.705,1.0000007,6
16106,16106,2020-11-30 15:17:23.705,1.0000007,6
16116,16116,2020-11-30 15:17:53.705,1.0000007,6
16126,16126,2020-11-30 15:18:23.705,1.0000007,6
16136,16136,2020-11-30 15:18:53.705,1.0000007,6
16146,16146,2020-11-30 15:19:23.705,1.0000007,6
16156,16156,2020-11-30 15:19:53.705,1.0000007,6
16166,16166,2020-11-30 15:20:23.705,1.0000007,6
16176,16176,2020-11-30 15:20:53.705,1.0000007,6
16186,16186,2020-11-30 15:21:23.705,1.0000007,6
16196,16196,2020-11-30 15:21:53.705,1.0000007,6
16206,16206,2020-11-30 15:22:23.705,1.0000007,6
16216,16216,2020-11-30 15:22:53.705,1.0000007,6
16226,16226,2020-11-30 15:23:23.705,1.0000007,6
16236,16236,2020-11-30 15:23:53.705,1.0000007,6
16246,16246,2020-11-30 15:24:23.705,1.0000007,6
16256,16256,2020-11-30 15:24:53.705,1.0000007,6
16266,16266,2020-11-30 15:25:23.705,1.0000007,6
16276,16276,2020-11-30 15:25:53.705,1.0000007,6
16286,16286,2020-11-30 15:26:23.705,1.0000007,6
16296,16296,2020-11-30 15:26:53.705,1.0000007,6
16306,16306,2020-11-30 15:27:23.705,1.0000007,6
16316,16316,2020-11-30 15:27:53.705,1.0000007,6
16326,16326,2020-11-30 15:28:23.705,1.0000007,6
16336,16336,2020-11-30 15:28:53.705,1.0000007,6
16346,16346,2020-11-30 15:29:23.705,1.0000007,6
16356,16356,2020-11-30 15:29:53.705,1.0000007,6
16366,16366,2020-11-30 15:30:23.705,1.0000007,6
16376,16376,2020-11-30 15:30:53.705,1.0000007,6
16386,16386,2020-11-30 15:31:23.705,1.0000007,6
16396,16396,2020-11-30 15:31:53.705,1.0000007,6
16406,16406,2020-11-30 15:32:23.705,1.0000007,6
16416,16416,2020-11-30 15:32:53.705,1.0000007,6
16426,16426,2020-11-30 15:33:23.705,1.0000007,6
16436,16436,2020-11-30 15:33:53.705,1.0000007,6
16446,16446,2020-11-30 15:34:23.705,1.0000007,6
16456,16456,2020-11-30 15:34:53.705,1.0000007,6
16466,16466,2020-11-30 15:35:23.705,1.0000007,6
16476,16476,2020-11-30 15:35:53.705,1.0000007,6
16486,16486,2020-11-30 15:36:23.705,1.0000007,6
16496,16496,2020-11-30 15:36:53.705,1.0000007,6
16506,16506,2020-11-30 15:37:23.705,1.0000007,6
16516,16516,2020-11-30 15:37:53.705,1.0000007,6
16526,16526,2020-11-30 15:38:23.705,1.0000007,6
16536,16536,2020-11-30 15:38:53.705,1.0000007,6
16546,16546,2020-11-30 15:39:23.705,1.0000007,6
16556,16556,2020-11-30 15:39:53.705,1.0000007,6
16566,16566,2020-11-30 15:40:23.705,1.0000007,6
16576,16576,2020-11-30 15:40:53.705,1.0000007,6
16586,16586,2020-11-30 15:41:23.705,1.0000007,6
16596,16596,2020-11-30 15:41:53.705,1.0000007,6
16606,16606,2020-11-30 15:42:23.705,1.0000007,6
16616,16616,2020-11-30 15:42:53.705,1.0000007,6
16626,16626,2020-11-30 15:43:23.705,1.0000007,6
16636,16636,2020-11-30 15:43:53.705,1.0000007,6
16646,16646,2020-11-30 15:44:23.705,1.0000007,6
16656,16656,2020-11-30 15:44:53.705,1.0000007,6
16666,16666,2020-11-30 15:45:23.705,1.0000007,6
16676,16676,2020-11-30 15:45:53.705,1.0000007,6
16686,16686,2020-11-30 15:46:23.705,1.0000007,6
16696,16696,2020-11-30 15:46:53.705,1.0000007,6
16706,16706,2020-11-30 15:47:23.705,1.0000007,6
16716,16716,2020-11-30 15:47:53.705,1.0000007,6
16726,16726,2020-11-30 15:48:23.705,1.0000007,6
16736,16736,2020-11-30 15:48:53.705,1.0000007,6
16746,16746,2020-11-30 15:49:23.705,1.0000007,6
16756,16756,2020-11-30 15:49:53.705,1.0000007,6
16766,16766,2020-11-30 15:50:23.705,1.0000007,6
16776,16776,2020-11-30 15:50:53.705,1.0000007,6
16786,16786,2020-11-30 15:51:23.705,1.0000007,6
16796,16796,2020-11-30 15:51:53.705,1.0000007,6
16806,16806,2020-11-30 15:52:23.705,1.0000007,6
16816,16816,2020-11-30 15:52:53.705,1.0000007,6
16826,16826,2020-11-30 15:53:23.705,1.0000007,6
16836,16836,2020-11-30 15:53:53.705,1.0000007,6
16846,16846,2020-11-30 15:54:23.705,1.0000007,6
16856,16856,2020-11-30 15:54:53.705,1.0000007,6
16866,16866,2020-11-30 15:55:23.705,1.0000007,6
16876,16876,2020-11-30 15:55:53.705,1.0000007,6
16886,16886,2020-11-30 15:56:23.705,1.0000007,6
16896,16896,2020-11-30 15:56:53.705,1.0000007,6
16906,16906,2020-11-30 15:57:23.705,1.0000007,6
16916,16916,2020-11-30 15:57:53.705,1.0000007,6
16926,16926,2020-11-30 15:58:23.705,1.0000007,6
16936,16936,2020-11-30 15:58:53.705,1.0000007,6
16946,16946,2020-11-30 15:59:23.705,1.0000007,6
16956,16956,2020-11-30 15:59:53.705,1.0000007,6
16966,16966,2020-11-30 16:00:23.705,1.0000007,6
16976,16976,2020-11-30 16:00:53.705,1.0000007,6
16986,16986,2020-11-30 16:01:23.705,1.0000007,6
16996,16996,2020-11-30 16:01:53.705,1.0000007,6
17006,17006,2020-11-30 16:02:23.705,1.0000007,6
17016,17016,2020-11-30 16:02:53.705,1.0000007,6
17026,17026,2020-11-30 16:03:23.705,1.0000007,6
17036,17036,2020-11-30 16:03:53.705,1.0000007,6
17046,17046,2020-11-30 16:04:23.705,1.0000007,6
17056,17056,2020-11-30 16:04:53.705,1.0000007,6
17066,17066,2020-11-30 16:05:23.705,1.0000007,6
17076,17076,2020-11-30 16:05:53.705,1.0000007,6
17086,17086,2020-11-30 16:06:23.705,1.0000007,6
17096,17096,2020-11-30 16:06:53.705,1.0000007,6
17106,17106,2020-11-30 16:07:23.705,1.0000007,6
17116,17116,2020-11-30 16:07:53.705,1.0000007,6
17126,17126,2020-11-30 16:08:23.705,1.0000007,6
17136,17136,2020-11-30 16:08:53.705,1.0000007,6
17146,17146,2020-11-30 16:09:23.705,1.0000007,6
17156,17156,2020-11-30 16:09:53.705,1.0000007,6
17166,17166,2020-11-30 16:10:23.705,1.0000007,6
17176,17176,2020-11-30 16:10:53.705,1.0000007,6
17186,17186,2020-11-30 16:11:23.705,1.0000007,6
17196,17196,2020-11-30 16:11:53.705,1.0000007,6
17206,17206,2020-11-30 16:12:23.705,1.0000007,6
17216,17216,2020-11-30 16:12:53.705,1.0000007,6
17226,17226,2020-11-30 16:13:23.705,1.0000007,6
17236,17236,2020-11-30 16:13:53.705,1.0000007,6
17246,17246,2020-11-30 16:14:23.705,1.0000007,6
17256,17256,2020-11-30 16:14:53.705,1.0000007,6
17266,17266,2020-11-30 16:15:23.705,1.0000007,6
17276,17276,2020-11-30 16:15:53.705,1.0000007,6
17286,17286,2020-11-30 16:16:23.705,1.0000007,6
17296,17296,2020-11-30 16:16:53.705,1.0000007,6
17306,17306,2020-11-30 16:17:23.705,1.0000007,6
17316,17316,2020-11-30 16:17:53.705,1.0000007,6
17326,17326,2020-11-30 16:18:23.705,1.0000007,6
17336,17336,2020-11-30 16:18:53.705,1.0000007,6
17346,17346,2020-11-30 16:19:23.705,1.0000007,6
17356,17356,2020-11-30 16:19:53.705,1.0000007,6
17366,17366,2020-11-30 16:20:23.705,1.0000007,6
17376,17376,2020-11-30 16:20:53.705,1.0000007,6
17386,17386,2020-11-30 16:21:23.705,1.0000007,6
17396,17396,2020-11-30 16:21:53.705,1.0000007,6
17406,17406,2020-11-30 16:22:23.705,1.0000007,6
17416,17416,2020-11-30 16:22:53.705,1.0000007,6
17426,17426,2020-11-30 16:23:23.705,1.0000007,6
17436,17436,2020-11-30 16:23:53.705,1.0000007,6
17446,17446,2020-11-30 16:24:23.705,1.0000007,6
17456,17456,2020-11-30 16:24:53.705,1.0000007,6
17466,17466,2020-11-30 16:25:23.705,1.0000007,6
17476,17476,2020-11-30 16:25:53.705,1.0000007,6
17486,17486,2020-11-30 16:26:23.705,1.0000007,6
17496,17496,2020-11-30 16:26:53.705,1.0000007,6
17506,17506,2020-11-30 16:27:23.705,1.0000007,6
17516,17516,2020-11-30 16:27:53.705,1.0000007,6
17526,17526,2020-11-30 16:28:23.705,1.0000007,6
17536,17536,2020-11-30 16:28:53.705,1.0000007,6
17546,17546,2020-11-30 16:29:23.705,1.0000007,6
17556,17556,2020-11-30 16:29:53.705,1.0000007,6
17566,17566,2020-11-30 16:30:23.705,1.0000007,6
17576,17576,2020-11-30 16:30:53.705,1.0000007,6
17586,17586,2020-11-30 16:31:23.705,1.0000007,6
17596,17596,2020-11-30 16:31:53.705,1.0000007,6
17606,17606,2020-11-30 16:32:23.705,1.0000007,6
17616,17616,2020-11-30 16:32:53.705,1.0000007,6
17626,17626,2020-11-30 16:33:23.705,1.0000007,6
17636,17636,2020-11-30 16:33:53.705,1.0000007,6
17646,17646,2020-11-30 16:34:23.705,1.0000007,6
17656,17656,2020-11-30 16:34:53.705,1.0000007,6
17666,17666,2020-11-30 16:35:23.705,1.0000007,6
17676,17676,2020-11-30 16:35:53.705,1.0000007,6
17686,17686,2020-11-30 16:36:23.705,1.0000007,6
17696,17696,2020-11-30 16:36:53.705,1.0000007,6
17706,17706,2020-11-30 16:37:23.705,1.0000007,6
17716,17716,2020-11-30 16:37:53.705,1.0000007,6
17726,17726,2020-11-30 16:38:23.705,1.0000007,6
17736,17736,2020-11-30 16:38:53.705,1.0000007,6
17746,17746,2020-11-30 16:39:23.705,1.0000007,6
17756,17756,2020-11-30 16:39:53.705,1.0000007,6
17766,17766,2020-11-30 16:40:23.705,1.0000007,6
17776,17776,2020-11-30 16:40:53.705,1.0000007,6
17786,17786,2020-11-30 16:41:23.705,1.0000007,6
17796,17796,2020-11-30 16:41:53.705,1.0000007,6
17806,17806,2020-11-30 16:42:23.705,1.0000007,6
17816,17816,2020-11-30 16:42:53.705,1.0000007,6
17826,17826,2020-11-30 16:43:23.705,1.0000007,6
17836,17836,2020-11-30 16:43:53.705,1.0000007,6
17846,17846,2020-11-30 16:44:23.705,1.0000007,6
17856,17856,2020-11-30 16:44:53.705,1.0000007,6
17866,17866,2020-11-30 16:45:23.705,1.0000007,6
17876,17876,2020-11-30 16:45:53.705,1.0000007,6
17886,17886,2020-11-30 16:46:23.705,1.0000007,6
17896,17896,2020-11-30 16:46:53.705,1.0000007,6
17906,17906,2020-11-30 16:47:23.705,1.0000007,6
17916,17916,2020-11-30 16:47:53.705,1.0000007,6
17926,17926,2020-11-30 16:48:23.705,1.0000007,6
17936,17936,2020-11-30 16:48:53.705,1.0000007,6
17946,17946,2020-11-30 16:49:23.705,1.0000007,6
17956,17956,2020-11-30 16:49:53.705,1.0000007,6
17966,17966,2020-11-30 16:50:23.705,1.0000007,6
17976,17976,2020-11-30 16:50:53.705,1.0000007,6
17986,17986,2020-11-30 16:51:23.705,1.0000007,6
17996,17996,2020-11-30 16:51:53.705,1.0000007,6
18006,18006,2020-11-30 16:52:23.705,1.0000007,6
18016,18016,2020-11-30 16:52:53.705,1.0000007,6
18026,18026,2020-11-30 16:53:23.705,1.0000007,6
18036,18036,2020-11-30 16:53:53.705,1.0000007,6
18046,18046,2020-11-30 16:54:23.705,1.0000007,6
18056,18056,2020-11-30 16:54:53.705,1.0000007,6
18066,18066,2020-11-30 16:55:23.705,1.0000007,6
18076,18076,2020-11-30 16:55:53.705,1.0000007,6
18086,18086,2020-11-30 16:56:23.705,1.0000007,6
18096,18096,2020-11-30 16:56:53.705,1.0000007,6
18106,18106,2020-11-30 16:57:23.705,1.0000007,6
18116,18116,2020-11-30 16:57:53.705,1.0000007,6
18126,18126,2020-11-30 16:58:23.705,1.0000007,6
18136,18136,2020-11-30 16:58:53.705,1.0000007,6
18146,18146,2020-11-30 16:59:23.705,1.0000007,6
18156,18156,2020-11-30 16:59:53.705,1.0000007,6
18166,18166,2020-11-30 17:00:23.705,1.0000007,6
18176,18176,2020-11-30 17:00:53.705,1.0000007,6
18186,18186,2020-11-30 17:01:23.705,1.0000007,6
18196,18196,2020-11-30 17:01:53.705,1.0000007,6
18206,18206,2020-11-30 17:02:23.705,1.0000007,6
18216,18216,2020-11-30 17:02:53.705,1.0000007,6
18226,18226,2020-11-30 17:03:23.705,1.0000007,6
18236,18236,2020-11-30 17:03:53.705,1.0000007,6
18246,18246,2020-11-30 17:04:23.705,1.0000007,6
18256,18256,2020-11-30 17:04:53.705,1.0000007,6
18266,18266,2020-11-30 17:05:23.705,1.0000007,6
18276,18276,2020-11-30 17:05:53.705,1.0000007,6
18286,18286,2020-11-30 17:06:23.705,1.0000007,6
18296,18296,2020-11-30 17:06:53.705,1.0000007,6
18306,18306,2020-11-30 17:07:23.705,1.0000007,6
18316,18316,2020-11-30 17:07:53.705,1.0000007,6
18326,18326,2020-11-30 17:08:23.705,1.0000007,6
18336,18336,2020-11-30 17:08:53.705,1.0000007,6
18346,18346,2020-11-30 17:09:23.705,1.0000007,6
18356,18356,2020-11-30 17:09:53.705,1.0000007,6
18366,18366,2020-11-30 17:10:23.705,1.0000007,6
18376,18376,2020-11-30 17:10:53.705,1.0000007,6
18386,18386,2020-11-30 17:11:23.705,1.0000007,6
18396,18396,2020-11-30 17:11:53.705,1.0000007,6
18406,18406,2020-11-30 17:12:23.705,1.0000007,6
18416,18416,2020-11-30 17:12:53.705,1.0000007,6
18426,18426,2020-11-30 17:13:23.705,1.0000007,6
18436,18436,2020-11-30 17:13:53.705,1.0000007,6
18446,18446,2020-11-30 17:14:23.705,1.0000007,6
18456,18456,2020-11-30 17:14:53.705,1.0000007,6
18466,18466,2020-11-30 17:15:23.705,1.0000007,6
18476,18476,2020-11-30 17:15:53.705,1.0000007,6
18486,18486,2020-11-30 17:16:23.705,1.0000007,6
18496,18496,2020-11-30 17:16:53.705,1.0000007,6
18506,18506,2020-11-30 17:17:23.705,1.0000007,6
18516,18516,2020-11-30 17:17:53.705,1.0000007,6
18526,18526,2020-11-30 17:18:23.705,1.0000007,6
18536,18536,2020-11-30 17:18:53.705,1.0000007,6
18546,18546,2020-11-30 17:19:23.705,1.0000007,6
18556,18556,2020-11-30 17:19:53.705,1.0000007,6
18566,18566,2020-11-30 17:20:23.705,1.0000007,6
18576,18576,2020-11-30 17:20:53.705,1.0000007,6
18586,18586,2020-11-30 17:21:23.705,1.0000007,6
18596,18596,2020-11-30 17:21:53.705,1.0000007,6
18606,18606,2020-11-30 17:22:23.705,1.0000007,6
18616,18616,2020-11-30 17:22:53.705,1.0000007,6
18626,18626,2020-11-30 17:23:23.705,1.0000007,6
18636,18636,2020-11-30 17:23:53.705,1.0000007,6
18646,18646,2020-11-30 17:24:23.705,1.0000007,6
18656,18656,2020-11-30 17:24:53.705,1.0000007,6
18666,18666,2020-11-30 17:25:23.705,1.0000007,6
18676,18676,2020-11-30 17:25:53.705,1.0000007,6
18686,18686,2020-11-30 17:26:23.705,1.0000007,6
18696,18696,2020-11-30 17:26:53.705,1.0000007,6
18706,18706,2020-11-30 17:27:23.705,1.0000007,6
18716,18716,2020-11-30 17:27:53.705,1.0000007,6
18726,18726,2020-11-30 17:28:23.705,1.0000007,6
18736,18736,2020-11-30 17:28:53.705,1.0000007,6
18746,18746,2020-11-30 17:29:23.705,1.0000007,6
18756,18756,2020-11-30 17:29:53.705,1.0000007,6
18766,18766,2020-11-30 17:30:23.705,1.0000007,6
18776,18776,2020-11-30 17:30:53.705,1.0000007,6
18786,18786,2020-11-30 17:31:23.705,1.0000007,6
18796,18796,2020-11-30 17:31:53.705,1.0000007,6
18806,18806,2020-11-30 17:32:23.705,1.0000007,6
18816,18816,2020-11-30 17:32:53.705,1.0000007,6
18826,18826,2020-11-30 17:33:23.705,1.0000007,6
18836,18836,2020-11-30 17:33:53.705,1.0000007,6
18846,18846,2020-11-30 17:34:23.705,1.0000007,6
18856,18856,2020-11-30 17:34:53.705,1.0000007,6
18866,18866,2020-11-30 17:35:23.705,1.0000007,6
18876,18876,2020-11-30 17:35:53.705,1.0000007,6
18886,18886,2020-11-30 17:36:23.705,1.0000007,6
18896,18896,2020-11-30 17:36:53.705,1.0000007,6
18906,18906,2020-11-30 17:37:23.705,1.0000007,6
18916,18916,2020-11-30 17:37:53.705,1.0000007,6
18926,18926,2020-11-30 17:38:23.705,1.0000007,6
18936,18936,2020-11-30 17:38:53.705,1.0000007,6
18946,18946,2020-11-30 17:39:23.705,1.0000007,6
18956,18956,2020-11-30 17:39:53.705,1.0000007,6
18966,18966,2020-11-30 17:40:23.705,1.0000007,6
18976,18976,2020-11-30 17:40:53.705,1.0000007,6
18986,18986,2020-11-30 17:41:23.705,1.0000007,6
18996,18996,2020-11-30 17:41:53.705,1.0000007,6
19006,19006,2020-11-30 17:42:23.705,1.0000007,6
19016,19016,2020-11-30 17:42:53.705,1.0000007,6
19026,19026,2020-11-30 17:43:23.705,1.0000007,6
19036,19036,2020-11-30 17:43:53.705,1.0000007,6
19046,19046,2020-11-30 17:44:23.705,1.0000007,6
19056,19056,2020-11-30 17:44:53.705,1.0000007,6
19066,19066,2020-11-30 17:45:23.705,1.0000007,6
19076,19076,2020-11-30 17:45:53.705,1.0000007,6
19086,19086,2020-11-30 17:46:23.705,1.0000007,6
19096,19096,2020-11-30 17:46:53.705,1.0000007,6
19106,19106,2020-11-30 17:47:23.705,1.0000007,6
19116,19116,2020-11-30 17:47:53.705,1.0000007,6
19126,19126,2020-11-30 17:48:23.705,1.0000007,6
19136,19136,2020-11-30 17:48:53.705,1.0000007,6
19146,19146,2020-11-30 17:49:23.705,1.0000007,6
19156,19156,2020-11-30 17:49:53.705,1.0000007,6
19166,19166,2020-11-30 17:50:23.705,1.0000007,6
19176,19176,2020-11-30 17:50:53.705,1.0000007,6
19186,19186,2020-11-30 17:51:23.705,1.0000007,6
19196,19196,2020-11-30 17:51:53.705,1.0000007,6
19206,19206,2020-11-30 17:52:23.705,1.0000007,6
19216,19216,2020-11-30 17:52:53.705,1.0000007,6
19226,19226,2020-11-30 17:53:23.705,1.0000007,6
19236,19236,2020-11-30 17:53:53.705,1.0000007,6
19246,19246,2020-11-30 17:54:23.705,1.0000007,6
19256,19256,2020-11-30 17:54:53.705,1.0000007,6
19266,19266,2020-11-30 17:55:23.705,1.0000007,6
19276,19276,2020-11-30 17:55:53.705,1.0000007,6
19286,19286,2020-11-30 17:56:23.705,1.0000007,6
19296,19296,2020-11-30 17:56:53.705,1.0000007,6
19306,19306,2020-11-30 17:57:23.705,1.0000007,6
19316,19316,2020-11-30 17:57:53.705,1.0000007,6
19326,19326,2020-11-30 17:58:23.705,1.0000007,6
19336,19336,2020-11-30 17:58:53.705,1.0000007,6
19346,19346,2020-11-30 17:59:23.705,1.0000007,6
19356,19356,2020-11-30 17:59:53.705,1.0000007,6
19366,19366,2020-11-30 18:00:23.705,1.0000007,6
19376,19376,2020-11-30 18:00:53.705,1.0000007,6
19386,19386,2020-11-30 18:01:23.705,1.0000007,6
19396,19396,2020-11-30 18:01:53.705,1.0000007,6
19406,19406,2020-11-30 18:02:23.705,1.0000007,6
19416,19416,2020-11-30 18:02:53.705,1.0000007,6
19426,19426,2020-11-30 18:03:23.705,1.0000007,6
19436,19436,2020-11-30 18:03:53.705,1.0000007,6
19446,19446,2020-11-30 18:04:23.705,1.0000007,6
19456,19456,2020-11-30 18:04:53.705,1.0000007,6
19466,19466,2020-11-30 18:05:23.705,1.0000007,6
19476,19476,2020-11-30 18:05:53.705,1.0000007,6
19486,19486,2020-11-30 18:06:23.705,1.0000007,6
19496,19496,2020-11-30 18:06:53.705,1.0000007,6
