,Unnamed: 0,prediction,real,time,split
221,221,2.7263295650482178,8.5,2020-11-10 13:15:16.009,train
222,222,2.739649534225464,1.399999976158142,2020-11-10 13:16:16.009,train
223,223,2.2882509231567383,0.8999999761581421,2020-11-10 13:17:16.009,train
224,224,2.0400478839874268,1.2000000476837158,2020-11-10 13:18:16.009,train
225,225,1.9572625160217283,12.0,2020-11-10 13:19:16.009,train
226,226,1.921325922012329,0.8000000119209291,2020-11-10 13:20:16.009,train
227,227,2.0966958999633794,1.0,2020-11-10 13:21:16.009,train
228,228,2.485121250152588,36.900001525878906,2020-11-10 13:22:16.009,train
229,229,2.974738597869873,0.8000000119209291,2020-11-10 13:23:16.009,train
230,230,3.304234027862549,9.899999618530273,2020-11-10 13:24:16.009,train
231,231,2.7994229793548584,1.2000000476837158,2020-11-10 13:25:16.009,train
232,232,2.7481825351715092,1.0,2020-11-10 13:26:16.009,train
233,233,2.550816059112549,1.2000000476837158,2020-11-10 13:27:16.009,train
234,234,2.4139556884765625,9.100000381469727,2020-11-10 13:28:16.009,train
235,235,2.384925842285156,20.399999618530273,2020-11-10 13:29:16.009,train
236,236,2.488907814025879,33.700000762939446,2020-11-10 13:30:16.009,train
237,237,3.155789852142334,1.2000000476837158,2020-11-10 13:31:16.009,train
238,238,4.593055248260498,0.699999988079071,2020-11-10 13:32:16.009,train
239,239,4.058652877807616,7.9000000953674325,2020-11-10 13:33:16.009,train
240,240,3.4168038368225098,1.100000023841858,2020-11-10 13:34:16.009,train
241,241,3.0858440399169917,1.100000023841858,2020-11-10 13:35:16.009,train
242,242,2.8453800678253174,3.7999999523162837,2020-11-10 13:36:16.009,train
243,243,2.734727144241333,6.4000000953674325,2020-11-10 13:37:16.009,train
244,244,2.646085023880005,1.0,2020-11-10 13:38:16.009,train
245,245,2.8191182613372803,1.0,2020-11-10 13:39:16.009,train
246,246,3.0358710289001465,1.0,2020-11-10 13:40:16.009,train
247,247,3.2600317001342773,1.2000000476837158,2020-11-10 13:41:16.009,train
248,248,3.984907627105713,0.8999999761581421,2020-11-10 13:42:16.009,train
249,249,3.5288605690002437,1.2000000476837158,2020-11-10 13:43:16.009,train
250,250,3.089293956756592,1.100000023841858,2020-11-10 13:44:16.009,train
251,251,2.7087833881378174,1.7000000476837158,2020-11-10 13:45:16.009,train
252,252,2.501128673553467,1.100000023841858,2020-11-10 13:46:16.009,train
253,253,2.478122472763061,9.300000190734863,2020-11-10 13:47:16.009,train
254,254,2.3422222137451167,0.8999999761581421,2020-11-10 13:48:16.009,train
255,255,2.450216054916382,1.2000000476837158,2020-11-10 13:49:16.009,train
256,256,2.6438536643981934,2.0999999046325684,2020-11-10 13:50:16.009,train
257,257,2.776350736618042,21.700000762939453,2020-11-10 13:51:16.009,train
258,258,3.0294551849365234,1.0,2020-11-10 13:52:16.009,train
259,259,3.575713634490967,1.100000023841858,2020-11-10 13:53:16.009,train
260,260,2.801275968551636,1.0,2020-11-10 13:54:16.009,train
261,261,2.627756357192993,1.0,2020-11-10 13:55:16.009,train
262,262,2.522796154022217,1.2000000476837158,2020-11-10 13:56:16.009,train
263,263,2.472416877746582,16.399999618530273,2020-11-10 13:57:16.009,train
264,264,2.513392210006714,29.20000076293945,2020-11-10 13:58:16.009,train
265,265,3.273384094238281,0.8999999761581421,2020-11-10 13:59:16.009,train
266,266,4.086670398712158,0.8000000119209291,2020-11-10 14:00:16.009,train
267,267,3.8400850296020512,0.8999999761581421,2020-11-10 14:01:16.009,train
268,268,3.332667827606201,1.7999999523162842,2020-11-10 14:02:16.009,train
269,269,2.897272825241089,0.8999999761581421,2020-11-10 14:03:16.009,train
270,270,2.68975567817688,1.2000000476837158,2020-11-10 14:04:16.009,train
271,271,2.5342466831207275,1.2999999523162842,2020-11-10 14:05:16.009,train
272,272,2.5108416080474854,1.0,2020-11-10 14:06:16.009,train
273,273,2.419863700866699,0.8999999761581421,2020-11-10 14:07:16.009,train
274,274,2.702401876449585,1.2999999523162842,2020-11-10 14:08:16.009,train
275,275,2.993912696838379,0.8000000119209291,2020-11-10 14:09:16.009,train
276,276,3.677753448486328,2.700000047683716,2020-11-10 14:10:16.009,train
277,277,3.194525718688965,1.2000000476837158,2020-11-10 14:11:16.009,train
278,278,2.976091146469116,1.2999999523162842,2020-11-10 14:12:16.009,train
279,279,2.697973728179932,1.2000000476837158,2020-11-10 14:13:16.009,train
280,280,2.4722611904144287,1.2000000476837158,2020-11-10 14:14:16.009,train
281,281,2.412713527679444,1.0,2020-11-10 14:15:16.009,train
282,282,2.444596529006958,1.2999999523162842,2020-11-10 14:16:16.009,train
283,283,2.4581425189971924,1.7000000476837158,2020-11-10 14:17:16.009,train
284,284,2.598536968231201,1.100000023841858,2020-11-10 14:18:16.009,train
285,285,3.4248766899108887,16.399999618530273,2020-11-10 14:19:16.009,train
286,286,3.1804790496826167,1.100000023841858,2020-11-10 14:20:16.009,train
287,287,3.3241028785705566,0.8999999761581421,2020-11-10 14:21:16.009,train
288,288,2.674924612045288,1.100000023841858,2020-11-10 14:22:16.009,train
289,289,2.473381519317627,1.399999976158142,2020-11-10 14:23:16.009,train
290,290,2.232573986053467,0.8999999761581421,2020-11-10 14:24:16.009,train
291,291,2.235905408859253,0.8999999761581421,2020-11-10 14:25:16.009,train
292,292,2.1767926216125493,3.900000095367432,2020-11-10 14:26:16.009,train
293,293,2.3091039657592773,49.70000076293945,2020-11-10 14:27:16.009,train
294,294,2.9643828868865967,19.5,2020-11-10 14:28:16.009,train
295,295,3.358099937438965,3.2000000476837163,2020-11-10 14:29:16.009,train
296,296,3.469702243804932,6.699999809265138,2020-11-10 14:30:16.009,train
297,297,2.6996078491210938,0.8999999761581421,2020-11-10 14:31:16.009,train
298,298,2.339687824249268,2.0999999046325684,2020-11-10 14:32:16.009,train
299,299,2.219679832458496,1.2000000476837158,2020-11-10 14:33:16.009,train
300,300,2.302668809890747,0.8000000119209291,2020-11-10 14:34:16.009,train
301,301,2.2209391593933105,1.0,2020-11-10 14:35:16.009,train
302,302,2.3700671195983887,1.0,2020-11-10 14:36:16.009,train
303,303,2.2292256355285645,27.29999923706055,2020-11-10 14:37:16.009,train
304,304,2.378604888916016,1.5,2020-11-10 14:38:16.009,train
305,305,2.846808195114136,2.299999952316284,2020-11-10 14:39:16.009,train
306,306,2.294499635696411,1.0,2020-11-10 14:40:16.009,train
307,307,2.195984363555908,1.2999999523162842,2020-11-10 14:41:16.009,train
308,308,2.0330045223236084,2.0,2020-11-10 14:42:16.009,train
309,309,1.980407238006592,0.8000000119209291,2020-11-10 14:43:16.009,train
310,310,2.0459792613983154,1.0,2020-11-10 14:44:16.009,train
311,311,2.1222460269927983,1.2000000476837158,2020-11-10 14:45:16.009,train
312,312,2.1414883136749268,0.8999999761581421,2020-11-10 14:46:16.009,train
313,313,2.173133850097656,25.0,2020-11-10 14:47:16.009,train
314,314,2.25618314743042,1.2999999523162842,2020-11-10 14:48:16.009,train
315,315,2.1112546920776367,1.5,2020-11-10 14:49:16.009,train
316,316,1.9014601707458496,1.100000023841858,2020-11-10 14:50:16.009,train
317,317,1.7799911499023438,1.2999999523162842,2020-11-10 14:51:16.009,train
318,318,1.6654400825500488,1.100000023841858,2020-11-10 14:52:16.009,train
319,319,1.5544071197509766,22.200000762939453,2020-11-10 14:53:16.009,train
320,320,1.6328928470611572,1.0,2020-11-10 14:54:16.009,train
321,321,1.9877424240112305,1.2000000476837158,2020-11-10 14:55:16.009,train
322,322,2.103543758392334,0.699999988079071,2020-11-10 14:56:16.009,train
323,323,1.9946589469909668,1.100000023841858,2020-11-10 14:57:16.009,train
324,324,1.7137439250946045,1.0,2020-11-10 14:58:16.009,train
325,325,1.4912705421447754,5.199999809265137,2020-11-10 14:59:16.009,train
326,326,1.3106307983398438,1.7999999523162842,2020-11-10 15:00:16.009,train
327,327,1.3478507995605469,1.2000000476837158,2020-11-10 15:01:16.009,train
328,328,1.383352279663086,0.8000000119209291,2020-11-10 15:02:16.009,train
329,329,1.397143840789795,26.399999618530273,2020-11-10 15:03:16.009,train
330,330,1.424419403076172,1.8999999761581419,2020-11-10 15:04:16.009,train
331,331,1.975101947784424,0.8999999761581421,2020-11-10 15:05:16.009,train
332,332,1.8476841449737549,1.2000000476837158,2020-11-10 15:06:16.009,train
333,333,1.6586878299713137,8.399999618530272,2020-11-10 15:07:16.009,train
334,334,1.5420572757720947,1.2000000476837158,2020-11-10 15:08:16.009,train
335,335,1.5645136833190918,2.0999999046325684,2020-11-10 15:09:16.009,train
336,336,1.5767898559570312,1.2000000476837158,2020-11-10 15:10:16.009,train
337,337,1.7329964637756348,1.0,2020-11-10 15:11:16.009,train
338,338,1.7785542011260986,1.2999999523162842,2020-11-10 15:12:16.009,train
339,339,1.3072211742401123,1.100000023841858,2020-11-10 15:13:16.009,train
340,340,1.2572011947631836,0.8999999761581421,2020-11-10 15:14:16.009,train
341,341,1.223146915435791,0.8000000119209291,2020-11-10 15:15:16.009,train
342,342,1.2313339710235596,1.100000023841858,2020-11-10 15:16:16.009,train
343,343,1.2753801345825195,1.0,2020-11-10 15:17:16.009,train
344,344,1.3360345363616943,0.8999999761581421,2020-11-10 15:18:16.009,train
345,345,1.4338483810424805,1.2000000476837158,2020-11-10 15:19:16.009,train
346,346,1.4842360019683838,1.8999999761581419,2020-11-10 15:20:16.009,train
347,347,1.4078772068023682,24.29999923706055,2020-11-10 15:21:16.009,train
348,348,1.3312673568725586,1.2000000476837158,2020-11-10 15:22:16.009,train
349,349,1.0890405178070068,1.100000023841858,2020-11-10 15:23:16.009,train
350,350,1.0542402267456057,0.8999999761581421,2020-11-10 15:24:16.009,train
351,351,1.0419726371765137,11.5,2020-11-10 15:25:16.009,train
352,352,1.0960712432861328,1.2000000476837158,2020-11-10 15:26:16.009,train
353,353,1.4727461338043213,0.8999999761581421,2020-11-10 15:27:16.009,train
354,354,1.4676432609558103,1.399999976158142,2020-11-10 15:28:16.009,train
355,355,1.4056692123413086,2.299999952316284,2020-11-10 15:29:16.009,train
356,356,1.348215103149414,0.699999988079071,2020-11-10 15:30:16.009,train
357,357,1.390599489212036,2.900000095367432,2020-11-10 15:31:16.009,train
358,358,0.9341917037963868,6.5999999046325675,2020-11-10 15:32:16.009,train
359,359,0.890222430229187,0.8000000119209291,2020-11-10 15:33:16.009,train
360,360,0.956307291984558,0.8999999761581421,2020-11-10 15:34:16.009,train
361,361,0.9752417802810668,12.199999809265135,2020-11-10 15:35:16.009,train
362,362,1.0558886528015137,0.8000000119209291,2020-11-10 15:36:16.009,train
363,363,1.226513147354126,1.0,2020-11-10 15:37:16.009,train
364,364,1.2378432750701904,1.0,2020-11-10 15:38:16.009,train
365,365,1.1928675174713137,0.8000000119209291,2020-11-10 15:39:16.009,train
366,366,1.137272834777832,1.2000000476837158,2020-11-10 15:40:16.009,train
367,367,0.9419196844100952,1.399999976158142,2020-11-10 15:41:16.009,train
368,368,0.7854099273681641,1.2999999523162842,2020-11-10 15:42:16.009,train
369,369,0.8855012655258179,0.8000000119209291,2020-11-10 15:43:16.009,train
370,370,0.8391518592834473,1.100000023841858,2020-11-10 15:44:16.009,train
371,371,0.849798321723938,1.100000023841858,2020-11-10 15:45:16.009,train
372,372,0.8574906587600708,1.0,2020-11-10 15:46:16.009,train
373,373,0.8492952585220337,1.2999999523162842,2020-11-10 15:47:16.009,train
374,374,0.8556957244873047,17.100000381469727,2020-11-10 15:48:16.009,train
375,375,0.8374476432800293,44.099998474121094,2020-11-10 15:49:16.009,train
376,376,0.9093563556671144,1.100000023841858,2020-11-10 15:50:16.009,train
377,377,0.974622130393982,0.8999999761581421,2020-11-10 15:51:16.009,train
378,378,0.9396681785583496,1.2999999523162842,2020-11-10 15:52:16.009,train
379,379,1.232456922531128,13.600000381469727,2020-11-10 15:53:16.009,train
380,380,0.9272789955139159,3.5999999046325684,2020-11-10 15:54:16.009,train
381,381,0.8208844661712646,1.0,2020-11-10 15:55:16.009,train
382,382,0.7958520650863647,3.7999999523162837,2020-11-10 15:56:16.009,train
383,383,0.7038239240646362,1.100000023841858,2020-11-10 15:57:16.009,train
384,384,0.7277126312255859,0.8999999761581421,2020-11-10 15:58:16.009,train
385,385,0.6947346925735474,1.7000000476837158,2020-11-10 15:59:16.009,train
386,386,0.8178117275238037,1.2000000476837158,2020-11-10 16:00:16.009,train
387,387,1.0584645271301272,0.8000000119209291,2020-11-10 16:01:16.009,train
388,388,1.1718673706054688,1.399999976158142,2020-11-10 16:02:16.009,train
389,389,0.9689068794250488,1.100000023841858,2020-11-10 16:03:16.009,train
390,390,0.8119621276855469,1.2000000476837158,2020-11-10 16:04:16.009,train
391,391,0.6773251295089722,1.100000023841858,2020-11-10 16:05:16.009,train
392,392,0.6064444780349731,1.0,2020-11-10 16:06:16.009,train
393,393,0.5887812376022339,0.8000000119209291,2020-11-10 16:07:16.009,train
394,394,0.604159951210022,0.8000000119209291,2020-11-10 16:08:16.009,train
395,395,0.7111877202987671,26.79999923706055,2020-11-10 16:09:16.009,train
396,396,0.9311792850494384,0.8999999761581421,2020-11-10 16:10:16.009,train
397,397,1.1826655864715576,11.800000190734865,2020-11-10 16:11:16.009,train
398,398,0.9049400091171264,4.0,2020-11-10 16:12:16.009,train
399,399,0.7808718681335449,1.0,2020-11-10 16:13:16.009,train
400,400,0.6415514945983887,0.8999999761581421,2020-11-10 16:14:16.009,train
401,401,0.5446717739105225,1.399999976158142,2020-11-10 16:15:16.009,train
402,402,0.5129415988922119,2.900000095367432,2020-11-10 16:16:16.009,train
403,403,0.5173432826995851,0.8500000238418579,2020-11-10 16:17:16.009,train
404,404,0.5638573169708252,1.2999999523162842,2020-11-10 16:18:16.009,train
405,405,0.7928297519683838,0.8999999761581421,2020-11-10 16:19:16.009,train
406,406,1.056506872177124,0.8999999761581421,2020-11-10 16:20:16.009,train
407,407,0.8762532472610474,0.8999999761581421,2020-11-10 16:21:16.009,train
408,408,0.6492185592651367,1.2000000476837158,2020-11-10 16:22:16.009,train
409,409,0.518231987953186,0.8999999761581421,2020-11-10 16:23:16.009,train
410,410,0.4115289449691773,2.299999952316284,2020-11-10 16:24:16.009,train
411,411,0.3599296808242798,0.8999999761581421,2020-11-10 16:25:16.009,train
412,412,0.36949455738067627,0.699999988079071,2020-11-10 16:26:16.009,train
413,413,0.3627597093582153,0.8999999761581421,2020-11-10 16:27:16.009,train
414,414,0.4721536636352539,1.0,2020-11-10 16:28:16.009,train
415,415,0.7260060310363771,0.8000000119209291,2020-11-10 16:29:16.009,train
416,416,0.6366108655929565,14.300000190734865,2020-11-10 16:30:16.009,train
417,417,0.6431237459182739,1.100000023841858,2020-11-10 16:31:16.009,train
418,418,0.3717244863510132,1.0,2020-11-10 16:32:16.009,train
419,419,0.2821037769317627,9.399999618530273,2020-11-10 16:33:16.009,train
420,420,0.23349523544311526,2.0,2020-11-10 16:34:16.009,train
421,421,0.2398476600646973,28.60000038146973,2020-11-10 16:35:16.009,train
422,422,0.2734407186508179,0.8999999761581421,2020-11-10 16:36:16.009,train
423,423,0.4207568168640137,1.100000023841858,2020-11-10 16:37:16.009,train
424,424,0.6488478183746338,1.0,2020-11-10 16:38:16.009,train
425,425,0.5916779041290283,1.100000023841858,2020-11-10 16:39:16.009,train
426,426,0.3691014051437378,9.800000190734863,2020-11-10 16:40:16.009,train
427,427,0.2693277597427368,1.100000023841858,2020-11-10 16:41:16.009,train
428,428,0.2133517265319824,1.0,2020-11-10 16:42:16.009,train
429,429,0.17891395092010498,1.0,2020-11-10 16:43:16.009,train
430,430,0.16600298881530762,10.300000190734863,2020-11-10 16:44:16.009,train
431,431,0.17665600776672366,1.0,2020-11-10 16:45:16.009,train
432,432,0.2387480735778809,1.0,2020-11-10 16:46:16.009,train
433,433,0.3839826583862305,1.100000023841858,2020-11-10 16:47:16.009,train
434,434,0.5688561201095581,10.100000381469727,2020-11-10 16:48:16.009,train
435,435,0.3699467182159424,5.099999904632568,2020-11-10 16:49:16.009,train
436,436,0.2547922134399414,1.2000000476837158,2020-11-10 16:50:16.009,train
437,437,0.2520228624343872,1.2000000476837158,2020-11-10 16:51:16.009,train
438,438,0.2280889749526977,1.7000000476837158,2020-11-10 16:52:16.009,train
439,439,0.2227306365966797,1.100000023841858,2020-11-10 16:53:16.009,train
440,440,0.2342787981033325,0.8000000119209291,2020-11-10 16:54:16.009,train
441,441,0.2417857646942139,49.9000015258789,2020-11-10 16:55:16.009,train
442,442,0.5144536495208739,0.8000000119209291,2020-11-10 16:56:16.009,train
443,443,0.6224116086959839,0.8999999761581421,2020-11-10 16:57:16.009,train
444,444,0.3419449329376221,8.0,2020-11-10 16:58:16.009,train
445,445,0.1991606950759888,2.5999999046325684,2020-11-10 16:59:16.009,train
446,446,0.15517747402191162,0.8000000119209291,2020-11-10 17:00:16.009,train
447,447,0.13391757011413574,1.100000023841858,2020-11-10 17:01:16.009,train
448,448,0.11278820037841795,1.100000023841858,2020-11-10 17:02:16.009,train
449,449,0.11752676963806152,0.699999988079071,2020-11-10 17:03:16.009,train
450,450,0.12685322761535645,8.600000381469728,2020-11-10 17:04:16.009,train
451,451,0.2003124952316284,15.5,2020-11-10 17:05:16.009,train
452,452,0.4199279546737671,0.8999999761581421,2020-11-10 17:06:16.009,train
453,453,0.4615467786788941,1.2000000476837158,2020-11-10 17:07:16.009,train
454,454,0.2466990947723389,11.100000381469727,2020-11-10 17:08:16.009,train
455,455,0.17152059078216553,1.100000023841858,2020-11-10 17:09:16.009,train
456,456,0.14317452907562256,1.100000023841858,2020-11-10 17:10:16.009,train
457,457,0.13448071479797366,1.0,2020-11-10 17:11:16.009,train
458,458,0.13584494590759275,0.8000000119209291,2020-11-10 17:12:16.009,train
459,459,0.13133502006530762,1.0,2020-11-10 17:13:16.009,train
460,460,0.15082192420959473,27.70000076293945,2020-11-10 17:14:16.009,train
461,461,0.28891539573669434,0.8000000119209291,2020-11-10 17:15:16.009,train
462,462,0.4163918495178223,0.8000000119209291,2020-11-10 17:16:16.009,train
463,463,0.2385212182998657,1.0,2020-11-10 17:17:16.009,train
464,464,0.17930400371551514,1.0,2020-11-10 17:18:16.009,train
465,465,0.07960140705108643,1.0,2020-11-10 17:19:16.009,train
466,466,0.048516392707824714,3.2000000476837163,2020-11-10 17:20:16.009,train
467,467,0.044089674949646,3.5999999046325684,2020-11-10 17:21:16.009,train
468,468,0.06751847267150879,23.10000038146973,2020-11-10 17:22:16.009,train
469,469,0.19674551486968994,24.899999618530273,2020-11-10 17:23:16.009,train
470,470,0.3594655990600586,1.7000000476837158,2020-11-10 17:24:16.009,train
471,471,0.4279087781906128,14.0,2020-11-10 17:25:16.009,train
472,472,0.44364869594573975,1.100000023841858,2020-11-10 17:26:16.009,train
473,473,0.1583237648010254,2.0,2020-11-10 17:27:16.009,train
474,474,0.10584867000579834,0.8999999761581421,2020-11-10 17:28:16.009,train
475,475,0.10239458084106444,1.2999999523162842,2020-11-10 17:29:16.009,train
476,476,0.0927877426147461,20.399999618530273,2020-11-10 17:30:16.009,train
477,477,0.10439836978912354,0.8000000119209291,2020-11-10 17:31:16.009,train
478,478,0.2269144058227539,1.100000023841858,2020-11-10 17:32:16.009,train
479,479,0.2908726930618286,1.0,2020-11-10 17:33:16.009,train
480,480,0.4429920911788941,0.8999999761581421,2020-11-10 17:34:16.009,train
481,481,0.2321016788482666,1.2000000476837158,2020-11-10 17:35:16.009,val
482,482,0.12414991855621338,1.2000000476837158,2020-11-10 17:36:16.009,val
483,483,0.07941997051239014,0.8999999761581421,2020-11-10 17:37:16.009,val
484,484,0.06115782260894776,3.900000095367432,2020-11-10 17:38:16.009,val
485,485,0.05004334449768066,1.0,2020-11-10 17:39:16.009,val
486,486,0.07639610767364502,1.0,2020-11-10 17:40:16.009,val
487,487,0.10396385192871094,48.29999923706055,2020-11-10 17:41:16.009,val
488,488,0.09424924850463867,1.100000023841858,2020-11-10 17:42:16.009,val
489,489,0.6611860990524292,8.199999809265138,2020-11-10 17:43:16.009,val
490,490,0.19985175132751465,1.399999976158142,2020-11-10 17:44:16.009,val
491,491,0.2292308807373047,1.2000000476837158,2020-11-10 17:45:16.009,val
492,492,0.07368588447570801,0.8000000119209291,2020-11-10 17:46:16.009,val
493,493,0.041695475578308105,1.8999999761581419,2020-11-10 17:47:16.009,val
494,494,0.028782010078430176,1.0,2020-11-10 17:48:16.009,val
495,495,0.040656328201293945,0.699999988079071,2020-11-10 17:49:16.009,val
496,496,0.039521574974060066,61.9000015258789,2020-11-10 17:50:16.009,val
497,497,0.06964731216430664,1.0,2020-11-10 17:51:16.009,val
498,498,0.3267678022384644,0.699999988079071,2020-11-10 17:52:16.009,val
499,499,0.2870945930480957,1.2000000476837158,2020-11-10 17:53:16.009,val
500,500,0.06489288806915282,1.6000000238418581,2020-11-10 17:54:16.009,val
501,501,0.0,1.0,2020-11-10 17:55:16.009,val
502,502,0.0,4.0,2020-11-10 17:56:16.009,val
503,503,0.0,1.2999999523162842,2020-11-10 17:57:16.009,val
504,504,0.0,11.100000381469727,2020-11-10 17:58:16.009,val
505,505,0.0005487203598022461,0.8999999761581421,2020-11-10 17:59:16.009,val
506,506,0.10680544376373292,1.100000023841858,2020-11-10 18:00:16.009,val
507,507,0.17028355598449707,30.60000038146973,2020-11-10 18:01:16.009,val
508,508,0.30543529987335205,1.399999976158142,2020-11-10 18:02:16.009,val
509,509,0.16704738140106198,1.0,2020-11-10 18:03:16.009,val
510,510,0.053526520729064934,5.300000190734863,2020-11-10 18:04:16.009,val
511,511,0.004714846611022949,1.7000000476837158,2020-11-10 18:05:16.009,val
512,512,0.0,1.2000000476837158,2020-11-10 18:06:16.009,val
513,513,0.0,1.100000023841858,2020-11-10 18:07:16.009,val
514,514,0.0,19.399999618530273,2020-11-10 18:08:16.009,val
515,515,0.002520561218261719,1.2000000476837158,2020-11-10 18:09:16.009,val
516,516,0.13331735134124756,33.09999847412109,2020-11-10 18:10:16.009,val
517,517,0.3132122755050659,17.700000762939453,2020-11-10 18:11:16.009,val
518,518,0.5186860561370851,1.2999999523162842,2020-11-10 18:12:16.009,val
519,519,0.08011782169342041,1.399999976158142,2020-11-10 18:13:16.009,val
520,520,0.01481020450592041,0.8999999761581421,2020-11-10 18:14:16.009,val
521,521,0.0,1.2000000476837158,2020-11-10 18:15:16.009,val
522,522,0.0,1.100000023841858,2020-11-10 18:16:16.009,val
523,523,0.0,1.0,2020-11-10 18:17:16.009,val
524,524,0.030523300170898438,1.2000000476837158,2020-11-10 18:18:16.009,val
525,525,0.14381682872772214,43.900001525878906,2020-11-10 18:19:16.009,val
526,526,0.31024396419525146,8.100000381469728,2020-11-10 18:20:16.009,val
527,527,0.2743343114852905,2.0999999046325684,2020-11-10 18:21:16.009,val
528,528,0.08671045303344728,1.2000000476837158,2020-11-10 18:22:16.009,val
529,529,0.01611483097076416,0.8999999761581421,2020-11-10 18:23:16.009,val
530,530,0.0,2.0,2020-11-10 18:24:16.009,val
531,531,0.0,8.600000381469728,2020-11-10 18:25:16.009,val
532,532,0.0,0.699999988079071,2020-11-10 18:26:16.009,val
533,533,0.0,1.0,2020-11-10 18:27:16.009,val
534,534,0.043369412422180176,2.0,2020-11-10 18:28:16.009,val
535,535,0.03840374946594238,24.20000076293945,2020-11-10 18:29:16.009,val
536,536,0.2356119155883789,1.100000023841858,2020-11-10 18:30:16.009,val
537,537,0.3289231061935425,1.7000000476837158,2020-11-10 18:31:16.009,val
538,538,0.016432642936706543,1.0,2020-11-10 18:32:16.009,val
539,539,0.0,1.100000023841858,2020-11-10 18:33:16.009,val
540,540,0.0,1.5,2020-11-10 18:34:16.009,val
541,541,0.0,11.800000190734865,2020-11-10 18:35:16.009,val
542,542,0.0,21.200000762939453,2020-11-10 18:36:16.009,val
543,543,0.09443962574005127,1.2999999523162842,2020-11-10 18:37:16.009,val
544,544,0.2677344083786011,1.2999999523162842,2020-11-10 18:38:16.009,val
545,545,0.3644125461578369,15.399999618530273,2020-11-10 18:39:16.009,val
546,546,0.15334630012512207,1.8999999761581419,2020-11-10 18:40:16.009,val
547,547,0.08210599422454834,1.0,2020-11-10 18:41:16.009,val
548,548,0.04273223876953125,1.0,2020-11-10 18:42:16.009,val
549,549,0.028738856315612793,1.100000023841858,2020-11-10 18:43:16.009,val
550,550,0.02286422252655029,1.0,2020-11-10 18:44:16.009,val
551,551,0.009945154190063477,18.700000762939453,2020-11-10 18:45:16.009,val
552,552,0.020067095756530758,1.5,2020-11-10 18:46:16.009,val
553,553,0.15386736392974856,32.799999237060554,2020-11-10 18:47:16.009,val
554,554,0.34343624114990234,0.8000000119209291,2020-11-10 18:48:16.009,val
555,555,0.2194206714630127,1.2000000476837158,2020-11-10 18:49:16.009,val
556,556,0.16753530502319336,1.100000023841858,2020-11-10 18:50:16.009,val
557,557,0.0432969331741333,0.8999999761581421,2020-11-10 18:51:16.009,val
558,558,0.04002606868743897,3.5,2020-11-10 18:52:16.009,val
559,559,0.031432271003723145,0.8999999761581421,2020-11-10 18:53:16.009,val
560,560,0.06565797328948975,0.8000000119209291,2020-11-10 18:54:16.009,val
561,561,0.06665670871734619,1.0,2020-11-10 18:55:16.009,val
562,562,0.2135946750640869,24.29999923706055,2020-11-10 18:56:16.009,val
563,563,0.5439689159393309,0.8000000119209291,2020-11-10 18:57:16.009,val
564,564,0.2657122611999512,2.299999952316284,2020-11-10 18:58:16.009,val
565,565,0.12112176418304445,1.100000023841858,2020-11-10 18:59:16.009,val
566,566,0.055276036262512214,0.8000000119209291,2020-11-10 19:00:16.009,val
567,567,0.02680182456970215,1.2999999523162842,2020-11-10 19:01:16.009,val
568,568,0.01056504249572754,2.0,2020-11-10 19:02:16.009,val
569,569,0.0196605920791626,0.8000000119209291,2020-11-10 19:03:16.009,val
570,570,0.05853617191314697,1.0,2020-11-10 19:04:16.009,val
571,571,0.11113929748535156,1.8999999761581419,2020-11-10 19:05:16.009,val
572,572,0.302463173866272,19.100000381469727,2020-11-10 19:06:16.009,val
573,573,0.24380946159362796,1.0,2020-11-10 19:07:16.009,test
574,574,0.13153159618377686,1.2000000476837158,2020-11-10 19:08:16.009,test
575,575,0.048061370849609375,1.0,2020-11-10 19:09:16.009,test
576,576,0.011882901191711426,1.100000023841858,2020-11-10 19:10:16.009,test
577,577,0.0,10.800000190734863,2020-11-10 19:11:16.009,test
578,578,0.007246136665344237,2.200000047683716,2020-11-10 19:12:16.009,test
579,579,0.03126561641693115,25.29999923706055,2020-11-10 19:13:16.009,test
580,580,0.08413362503051758,1.7999999523162842,2020-11-10 19:14:16.009,test
581,581,0.2388021945953369,0.699999988079071,2020-11-10 19:15:16.009,test
582,582,0.35974037647247314,0.8999999761581421,2020-11-10 19:16:16.009,test
583,583,0.18860387802124026,1.100000023841858,2020-11-10 19:17:16.009,test
584,584,0.1495286226272583,0.8000000119209291,2020-11-10 19:18:16.009,test
585,585,0.038717865943908684,1.100000023841858,2020-11-10 19:19:16.009,test
586,586,0.006952285766601562,1.0,2020-11-10 19:20:16.009,test
587,587,0.030856490135192868,13.300000190734865,2020-11-10 19:21:16.009,test
588,588,0.0189211368560791,1.0,2020-11-10 19:22:16.009,test
589,589,0.10857629776000977,0.8999999761581421,2020-11-10 19:23:16.009,test
590,590,0.17518234252929688,10.300000190734863,2020-11-10 19:24:16.009,test
591,591,0.2989819049835205,10.699999809265137,2020-11-10 19:25:16.009,test
592,592,0.17387187480926514,1.5,2020-11-10 19:26:16.009,test
593,593,0.1317765712738037,1.5,2020-11-10 19:27:16.009,test
594,594,0.050507664680480964,0.8999999761581421,2020-11-10 19:28:16.009,test
595,595,0.03821229934692383,1.8999999761581419,2020-11-10 19:29:16.009,test
596,596,0.023210644721984863,1.0,2020-11-10 19:30:16.009,test
597,597,0.04596436023712158,1.100000023841858,2020-11-10 19:31:16.009,test
598,598,0.058625340461730964,1.2999999523162842,2020-11-10 19:32:16.009,test
599,599,0.14380717277526855,1.0,2020-11-10 19:33:16.009,test
600,600,0.25433576107025146,0.8999999761581421,2020-11-10 19:34:16.009,test
601,601,0.2715461254119873,1.0,2020-11-10 19:35:16.009,test
602,602,0.1018834114074707,1.5,2020-11-10 19:36:16.009,test
603,603,0.044330954551696784,1.0,2020-11-10 19:37:16.009,test
604,604,0.033560633659362786,1.6000000238418581,2020-11-10 19:38:16.009,test
605,605,0.019672036170959476,1.100000023841858,2020-11-10 19:39:16.009,test
606,606,0.02656865119934082,0.8000000119209291,2020-11-10 19:40:16.009,test
607,607,0.04192328453063965,2.0999999046325684,2020-11-10 19:41:16.009,test
608,608,0.08173859119415282,1.0,2020-11-10 19:42:16.009,test
609,609,0.27348220348358154,0.8000000119209291,2020-11-10 19:43:16.009,test
610,610,0.23679888248443606,21.799999237060547,2020-11-10 19:44:16.009,test
611,611,0.10742509365081787,1.399999976158142,2020-11-10 19:45:16.009,test
612,612,0.05280077457427978,0.8999999761581421,2020-11-10 19:46:16.009,test
613,613,0.034585356712341316,1.100000023841858,2020-11-10 19:47:16.009,test
614,614,0.014873504638671875,1.100000023841858,2020-11-10 19:48:16.009,test
615,615,0.05934309959411621,0.8000000119209291,2020-11-10 19:49:16.009,test
