,Unnamed: 0,prediction,real,time,split
2169,2169,278.95205688476557,507.0,2021-02-04 10:39:19.026,train
2170,2170,271.30404663085943,236.0,2021-02-04 10:40:19.026,train
2171,2171,283.3133544921875,188.0,2021-02-04 10:41:19.026,train
2172,2172,243.1060485839844,296.0,2021-02-04 10:42:19.026,train
2173,2173,135.22572326660156,163.0,2021-02-04 10:43:19.026,train
2174,2174,93.11875915527344,58.0,2021-02-04 10:44:19.026,train
2175,2175,64.26287078857422,84.0,2021-02-04 10:45:19.026,train
2176,2176,26.12859916687012,17.0,2021-02-04 10:46:19.026,train
2177,2177,34.331958770751946,11.0,2021-02-04 10:47:19.026,train
2178,2178,105.74789428710938,97.0,2021-02-04 10:48:19.026,train
2179,2179,158.75216674804688,185.0,2021-02-04 10:49:19.026,train
2180,2180,222.6748809814453,165.0,2021-02-04 10:50:19.026,train
2181,2181,426.4039611816406,456.0,2021-02-04 10:51:19.026,train
2182,2182,463.4761962890625,567.0,2021-02-04 10:52:19.026,train
2183,2183,472.601806640625,0.0,2021-02-04 10:53:19.026,train
2184,2184,495.7227478027344,655.0,2021-02-04 10:54:19.026,train
2185,2185,439.0230102539063,0.0,2021-02-04 10:55:19.026,train
2186,2186,351.3203430175781,291.0,2021-02-04 10:56:19.026,train
2187,2187,352.7760314941406,260.0,2021-02-04 10:57:19.026,train
2188,2188,354.7777099609375,452.0,2021-02-04 10:58:19.026,train
2189,2189,269.970458984375,366.0,2021-02-04 10:59:19.026,train
2190,2190,259.72723388671875,136.0,2021-02-04 11:00:19.026,train
2191,2191,195.883056640625,174.0,2021-02-04 11:01:19.026,train
2192,2192,94.44831085205078,106.0,2021-02-04 11:02:19.026,train
2193,2193,37.57851028442383,22.0,2021-02-04 11:03:19.026,train
2194,2194,17.58343505859375,19.0,2021-02-04 11:04:19.026,train
2195,2195,57.47824096679688,71.0,2021-02-04 11:05:19.026,train
2196,2196,133.9305419921875,57.0,2021-02-04 11:06:19.026,train
2197,2197,208.7521209716797,182.0,2021-02-04 11:07:19.026,train
2198,2198,392.4684753417969,374.0,2021-02-04 11:08:19.026,train
2199,2199,472.262939453125,241.0,2021-02-04 11:09:19.026,train
2200,2200,494.7355651855469,578.0,2021-02-04 11:10:19.026,train
2201,2201,515.6708984375,312.0,2021-02-04 11:11:19.026,train
2202,2202,437.1121826171875,320.0,2021-02-04 11:12:19.026,train
2203,2203,330.3245544433594,0.0,2021-02-04 11:13:19.026,train
2204,2204,279.310791015625,294.0,2021-02-04 11:14:19.026,train
2205,2205,337.6603088378906,286.0,2021-02-04 11:15:19.026,train
2206,2206,464.4542541503906,473.0,2021-02-04 11:16:19.026,train
2207,2207,491.2603149414063,313.0,2021-02-04 11:17:19.026,train
2208,2208,256.12710571289057,195.0,2021-02-04 11:18:19.026,train
2209,2209,178.9942626953125,171.0,2021-02-04 11:19:19.026,train
2210,2210,96.3455581665039,64.0,2021-02-04 11:20:19.026,train
2211,2211,55.89748764038086,72.0,2021-02-04 11:21:19.026,train
2212,2212,17.328300476074222,21.0,2021-02-04 11:22:19.026,train
2213,2213,23.867935180664066,14.0,2021-02-04 11:23:19.026,train
2214,2214,90.59871673583984,87.0,2021-02-04 11:24:19.026,train
2215,2215,148.25784301757812,172.0,2021-02-04 11:25:19.026,train
2216,2216,213.505615234375,146.0,2021-02-04 11:26:19.026,train
2217,2217,429.7966003417969,446.0,2021-02-04 11:27:19.026,train
2218,2218,477.2989807128906,254.0,2021-02-04 11:28:19.026,train
2219,2219,485.0826721191406,309.0,2021-02-04 11:29:19.026,train
2220,2220,516.5260009765625,329.0,2021-02-04 11:30:19.026,train
2221,2221,367.7202758789063,312.0,2021-02-04 11:31:19.026,train
2222,2222,278.7167358398437,293.0,2021-02-04 11:32:19.026,train
2223,2223,279.17001342773443,270.0,2021-02-04 11:33:19.026,train
2224,2224,266.41409301757807,245.0,2021-02-04 11:34:19.026,train
2225,2225,255.06105041503903,226.0,2021-02-04 11:35:19.026,train
2226,2226,239.21157836914062,350.0,2021-02-04 11:36:19.026,train
2227,2227,203.51007080078125,239.0,2021-02-04 11:37:19.026,train
2228,2228,140.0369873046875,70.0,2021-02-04 11:38:19.026,train
2229,2229,87.60435485839844,108.0,2021-02-04 11:39:19.026,train
2230,2230,46.13798141479492,51.0,2021-02-04 11:40:19.026,train
2231,2231,14.947428703308105,7.0,2021-02-04 11:41:19.026,train
2232,2232,37.51963806152344,52.0,2021-02-04 11:42:19.026,train
2233,2233,111.78052520751952,116.0,2021-02-04 11:43:19.026,train
2234,2234,165.2978973388672,114.0,2021-02-04 11:44:19.026,train
2235,2235,332.5473327636719,307.0,2021-02-04 11:45:19.026,train
2236,2236,454.1541748046875,300.0,2021-02-04 11:46:19.026,train
2237,2237,461.439208984375,552.0,2021-02-04 11:47:19.026,train
2238,2238,493.24169921875,325.0,2021-02-04 11:48:19.026,train
2239,2239,468.1124267578125,303.0,2021-02-04 11:49:19.026,train
2240,2240,338.9320373535156,292.0,2021-02-04 11:50:19.026,train
2241,2241,275.78564453125,260.0,2021-02-04 11:51:19.026,train
2242,2242,273.8231811523437,456.0,2021-02-04 11:52:19.026,train
2243,2243,252.6077423095703,193.0,2021-02-04 11:53:19.026,train
2244,2244,255.3680419921875,158.0,2021-02-04 11:54:19.026,train
2245,2245,191.668701171875,230.0,2021-02-04 11:55:19.026,train
2246,2246,101.09011840820312,120.0,2021-02-04 11:56:19.026,train
2247,2247,75.614990234375,43.0,2021-02-04 11:57:19.026,train
2248,2248,38.85081481933594,51.0,2021-02-04 11:58:19.026,train
2249,2249,23.60219764709473,31.0,2021-02-04 11:59:19.026,train
2250,2250,80.665771484375,77.0,2021-02-04 12:00:19.026,train
2251,2251,140.42257690429688,100.0,2021-02-04 12:01:19.026,train
2252,2252,190.7940826416016,255.0,2021-02-04 12:02:19.026,train
2253,2253,358.1775207519531,442.0,2021-02-04 12:03:19.026,train
2254,2254,428.18048095703125,321.0,2021-02-04 12:04:19.026,train
2255,2255,475.4808044433594,619.0,2021-02-04 12:05:19.026,train
2256,2256,436.3406982421875,311.0,2021-02-04 12:06:19.026,train
2257,2257,310.8413391113281,0.0,2021-02-04 12:07:19.026,train
2258,2258,58.86366653442383,296.0,2021-02-04 12:08:19.026,train
2259,2259,126.09680938720705,255.0,2021-02-04 12:09:19.026,train
2260,2260,242.4051055908203,250.0,2021-02-04 12:10:19.026,train
2261,2261,246.5011444091797,415.0,2021-02-04 12:11:19.026,train
2262,2262,228.90269470214844,166.0,2021-02-04 12:12:19.026,train
2263,2263,203.8867950439453,244.0,2021-02-04 12:13:19.026,train
2264,2264,115.59844207763672,76.0,2021-02-04 12:14:19.026,train
2265,2265,84.45275115966797,112.0,2021-02-04 12:15:19.026,train
2266,2266,31.045076370239254,44.0,2021-02-04 12:16:19.026,train
2267,2267,21.674699783325195,2.0,2021-02-04 12:17:19.026,train
2268,2268,82.09339904785156,65.0,2021-02-04 12:18:19.026,train
2269,2269,133.5577392578125,148.0,2021-02-04 12:19:19.026,train
2270,2270,183.02325439453125,118.0,2021-02-04 12:20:19.026,train
2271,2271,369.5949401855469,407.0,2021-02-04 12:21:19.026,train
2272,2272,454.439453125,498.0,2021-02-04 12:22:19.026,train
2273,2273,458.7759399414063,290.0,2021-02-04 12:23:19.026,train
2274,2274,480.43658447265625,374.0,2021-02-04 12:24:19.026,train
2275,2275,377.549072265625,271.0,2021-02-04 12:25:19.026,train
2276,2276,286.72894287109375,299.0,2021-02-04 12:26:19.026,train
2277,2277,284.5503234863281,513.0,2021-02-04 12:27:19.026,train
2278,2278,265.38507080078125,210.0,2021-02-04 12:28:19.026,train
2279,2279,277.6781005859375,341.0,2021-02-04 12:29:19.026,train
2280,2280,227.71044921875,246.0,2021-02-04 12:30:19.026,train
2281,2281,120.7151870727539,77.0,2021-02-04 12:31:19.026,train
2282,2282,90.2354507446289,96.0,2021-02-04 12:32:19.026,train
2283,2283,47.55842590332031,46.0,2021-02-04 12:33:19.026,train
2284,2284,17.66217803955078,6.0,2021-02-04 12:34:19.026,train
2285,2285,63.6113510131836,58.0,2021-02-04 12:35:19.026,train
2286,2286,136.9647216796875,118.0,2021-02-04 12:36:19.026,train
2287,2287,178.80357360839844,166.0,2021-02-04 12:37:19.026,train
2288,2288,331.0776672363281,310.0,2021-02-04 12:38:19.026,train
2289,2289,448.114990234375,507.0,2021-02-04 12:39:19.026,train
2290,2290,463.1699523925781,290.0,2021-02-04 12:40:19.026,train
2291,2291,495.931396484375,643.0,2021-02-04 12:41:19.026,train
2292,2292,389.8561401367188,0.0,2021-02-04 12:42:19.026,train
2293,2293,294.10693359375,290.0,2021-02-04 12:43:19.026,train
2294,2294,369.60919189453125,517.0,2021-02-04 12:44:19.026,train
2295,2295,271.27203369140625,207.0,2021-02-04 12:45:19.026,train
2296,2296,289.9316711425781,181.0,2021-02-04 12:46:19.026,train
2297,2297,240.37486267089844,304.0,2021-02-04 12:47:19.026,train
2298,2298,117.16224670410156,156.0,2021-02-04 12:48:19.026,train
2299,2299,81.81056213378906,58.0,2021-02-04 12:49:19.026,train
2300,2300,45.680946350097656,72.0,2021-02-04 12:50:19.026,train
2301,2301,11.909685134887695,27.0,2021-02-04 12:51:19.026,train
2302,2302,37.32663345336914,18.0,2021-02-04 12:52:19.026,train
2303,2303,105.57227325439452,103.0,2021-02-04 12:53:19.026,train
2304,2304,149.02828979492188,204.0,2021-02-04 12:54:19.026,train
2305,2305,209.02268981933597,200.0,2021-02-04 12:55:19.026,train
2306,2306,414.0489807128906,397.0,2021-02-04 12:56:19.026,train
2307,2307,473.2931213378906,518.0,2021-02-04 12:57:19.026,train
2308,2308,489.7322998046875,417.0,2021-02-04 12:58:19.026,train
2309,2309,504.15118408203125,302.0,2021-02-04 12:59:19.026,train
2310,2310,349.0198974609375,300.0,2021-02-04 13:00:19.026,train
2311,2311,295.1076354980469,278.0,2021-02-04 13:01:19.026,train
2312,2312,23.11488914489746,465.0,2021-02-04 13:02:19.026,train
2313,2313,60.91312789916992,183.0,2021-02-04 13:03:19.026,train
2314,2314,478.7748718261719,302.0,2021-02-04 13:04:19.026,train
2315,2315,194.3560333251953,197.0,2021-02-04 13:05:19.026,train
2316,2316,99.98578643798828,66.0,2021-02-04 13:06:19.026,train
2317,2317,65.29107666015625,78.0,2021-02-04 13:07:19.026,train
2318,2318,21.084442138671875,18.0,2021-02-04 13:08:19.026,train
2319,2319,19.79793739318848,27.0,2021-02-04 13:09:19.026,train
2320,2320,95.80015563964844,92.0,2021-02-04 13:10:19.026,train
2321,2321,161.94007873535156,202.0,2021-02-04 13:11:19.026,train
2322,2322,214.35629272460938,310.0,2021-02-04 13:12:19.026,train
2323,2323,401.6047058105469,244.0,2021-02-04 13:13:19.026,train
2324,2324,461.09173583984375,565.0,2021-02-04 13:14:19.026,train
2325,2325,490.4549865722656,219.0,2021-02-04 13:15:19.026,train
2326,2326,451.948974609375,410.0,2021-02-04 13:16:19.026,train
2327,2327,323.1266784667969,0.0,2021-02-04 13:17:19.026,train
2328,2328,309.96234130859375,307.0,2021-02-04 13:18:19.026,train
2329,2329,332.18792724609375,511.0,2021-02-04 13:19:19.026,train
2330,2330,274.90234375,413.0,2021-02-04 13:20:19.026,train
2331,2331,300.9950866699219,167.0,2021-02-04 13:21:19.026,train
2332,2332,250.36831665039062,260.0,2021-02-04 13:22:19.026,train
2333,2333,150.25897216796875,123.0,2021-02-04 13:23:19.026,train
2334,2334,83.17859649658203,46.0,2021-02-04 13:24:19.026,train
2335,2335,34.40142059326172,43.0,2021-02-04 13:25:19.026,train
2336,2336,11.611172676086426,20.0,2021-02-04 13:26:19.026,train
2337,2337,78.64017486572266,41.0,2021-02-04 13:27:19.026,train
2338,2338,151.76095581054688,156.0,2021-02-04 13:28:19.026,train
2339,2339,183.6051025390625,240.0,2021-02-04 13:29:19.026,train
2340,2340,306.24700927734375,193.0,2021-02-04 13:30:19.026,train
2341,2341,455.3716430664063,504.0,2021-02-04 13:31:19.026,train
2342,2342,481.2427062988281,308.0,2021-02-04 13:32:19.026,train
2343,2343,505.4251708984375,647.0,2021-02-04 13:33:19.026,train
2344,2344,383.4508361816406,0.0,2021-02-04 13:34:19.026,train
2345,2345,318.6837158203125,295.0,2021-02-04 13:35:19.026,train
2346,2346,352.8965759277344,505.0,2021-02-04 13:36:19.026,train
2347,2347,292.1439514160156,201.0,2021-02-04 13:37:19.026,train
2348,2348,310.0490417480469,374.0,2021-02-04 13:38:19.026,train
2349,2349,255.2425079345703,260.0,2021-02-04 13:39:19.026,train
2350,2350,122.46339416503906,80.0,2021-02-04 13:40:19.026,train
2351,2351,83.1549072265625,111.0,2021-02-04 13:41:19.026,train
2352,2352,37.1812858581543,57.0,2021-02-04 13:42:19.026,train
2353,2353,6.323006629943848,7.0,2021-02-04 13:43:19.026,train
2354,2354,48.732643127441406,55.0,2021-02-04 13:44:19.026,train
2355,2355,125.5493621826172,147.0,2021-02-04 13:45:19.026,train
2356,2356,179.53460693359375,119.0,2021-02-04 13:46:19.026,train
2357,2357,329.3861999511719,365.0,2021-02-04 13:47:19.026,train
2358,2358,469.64788818359375,515.0,2021-02-04 13:48:19.026,train
2359,2359,485.3276062011719,292.0,2021-02-04 13:49:19.026,train
2360,2360,510.6044921875,324.0,2021-02-04 13:50:19.026,train
2361,2361,353.6265563964844,312.0,2021-02-04 13:51:19.026,train
2362,2362,320.76171875,0.0,2021-02-04 13:52:19.026,train
2363,2363,336.6739501953125,571.0,2021-02-04 13:53:19.026,train
2364,2364,313.95831298828125,460.0,2021-02-04 13:54:19.026,train
2365,2365,305.50836181640625,197.0,2021-02-04 13:55:19.026,train
2366,2366,276.91094970703125,310.0,2021-02-04 13:56:19.026,train
2367,2367,168.60841369628906,165.0,2021-02-04 13:57:19.026,train
2368,2368,90.93897247314452,59.0,2021-02-04 13:58:19.026,train
2369,2369,48.88935470581055,66.0,2021-02-04 13:59:19.026,train
2370,2370,5.223031044006348,13.0,2021-02-04 14:00:19.026,train
2371,2371,26.45652008056641,37.0,2021-02-04 14:01:19.026,train
2372,2372,100.48111724853516,97.0,2021-02-04 14:02:19.026,train
2373,2373,168.7764892578125,185.0,2021-02-04 14:03:19.026,train
2374,2374,251.7991943359375,242.0,2021-02-04 14:04:19.026,train
2375,2375,418.6092224121094,347.0,2021-02-04 14:05:19.026,train
2376,2376,483.7710876464844,570.0,2021-02-04 14:06:19.026,train
2377,2377,509.1593933105469,315.0,2021-02-04 14:07:19.026,train
2378,2378,428.9546203613281,311.0,2021-02-04 14:08:19.026,train
2379,2379,336.2516174316406,293.0,2021-02-04 14:09:19.026,train
2380,2380,343.3929748535156,509.0,2021-02-04 14:10:19.026,train
2381,2381,338.685302734375,210.0,2021-02-04 14:11:19.026,train
2382,2382,46.156715393066406,354.0,2021-02-04 14:12:19.026,train
2383,2383,30.70501136779785,243.0,2021-02-04 14:13:19.026,train
2384,2384,128.44287109375,70.0,2021-02-04 14:14:19.026,train
2385,2385,80.02655792236328,92.0,2021-02-04 14:15:19.026,train
2386,2386,31.96978187561035,39.0,2021-02-04 14:16:19.026,train
2387,2387,2.955181121826172,10.0,2021-02-04 14:17:19.026,train
2388,2388,48.8347053527832,77.0,2021-02-04 14:18:19.026,train
2389,2389,140.46006774902344,142.0,2021-02-04 14:19:19.026,train
2390,2390,230.40577697753903,102.0,2021-02-04 14:20:19.026,train
2391,2391,396.2296752929688,331.0,2021-02-04 14:21:19.026,train
2392,2392,478.38427734375,510.0,2021-02-04 14:22:19.026,train
2393,2393,494.3714904785156,301.0,2021-02-04 14:23:19.026,train
2394,2394,506.6494445800781,322.0,2021-02-04 14:24:19.026,train
2395,2395,358.6515197753906,319.0,2021-02-04 14:25:19.026,train
2396,2396,329.6496276855469,0.0,2021-02-04 14:26:19.026,train
2397,2397,336.77777099609375,294.0,2021-02-04 14:27:19.026,train
2398,2398,314.40887451171875,487.0,2021-02-04 14:28:19.026,train
2399,2399,294.0992431640625,287.0,2021-02-04 14:29:19.026,train
2400,2400,321.44647216796875,308.0,2021-02-04 14:30:19.026,train
2401,2401,267.0504150390625,259.0,2021-02-04 14:31:19.026,train
2402,2402,121.32960510253906,110.0,2021-02-04 14:32:19.026,train
2403,2403,75.82737731933594,82.0,2021-02-04 14:33:19.026,train
2404,2404,19.202438354492188,43.0,2021-02-04 14:34:19.026,train
2405,2405,1.7481896877288818,8.0,2021-02-04 14:35:19.026,train
2406,2406,64.48124694824219,61.0,2021-02-04 14:36:19.026,train
2407,2407,140.9942626953125,122.0,2021-02-04 14:37:19.026,train
2408,2408,209.9505920410156,235.0,2021-02-04 14:38:19.026,train
2409,2409,331.46319580078125,222.0,2021-02-04 14:39:19.026,train
2410,2410,455.3240966796875,538.0,2021-02-04 14:40:19.026,train
2411,2411,490.32763671875,295.0,2021-02-04 14:41:19.026,train
2412,2412,432.1128540039063,340.0,2021-02-04 14:42:19.026,train
2413,2413,337.818115234375,312.0,2021-02-04 14:43:19.026,train
2414,2414,320.38165283203125,306.0,2021-02-04 14:44:19.026,train
2415,2415,326.904296875,485.0,2021-02-04 14:45:19.026,train
2416,2416,315.3113708496094,230.0,2021-02-04 14:46:19.026,train
2417,2417,316.0196228027344,355.0,2021-02-04 14:47:19.026,train
2418,2418,266.44415283203125,220.0,2021-02-04 14:48:19.026,train
2419,2419,125.5300064086914,119.0,2021-02-04 14:49:19.026,train
2420,2420,77.3543701171875,103.0,2021-02-04 14:50:19.026,train
2421,2421,29.224538803100586,37.0,2021-02-04 14:51:19.026,train
2422,2422,7.8879337310791025,2.0,2021-02-04 14:52:19.026,train
2423,2423,58.62849044799805,61.0,2021-02-04 14:53:19.026,train
2424,2424,147.6095428466797,144.0,2021-02-04 14:54:19.026,train
2425,2425,220.2940826416016,111.0,2021-02-04 14:55:19.026,train
2426,2426,340.5657043457031,352.0,2021-02-04 14:56:19.026,train
2427,2427,462.5665588378906,508.0,2021-02-04 14:57:19.026,train
2428,2428,480.1435852050781,299.0,2021-02-04 14:58:19.026,train
2429,2429,480.3187561035156,321.0,2021-02-04 14:59:19.026,train
2430,2430,344.63812255859375,308.0,2021-02-04 15:00:19.026,train
2431,2431,309.7128601074219,0.0,2021-02-04 15:01:19.026,train
2432,2432,317.0696105957031,71.0,2021-02-04 15:02:19.026,train
2433,2433,299.2850646972656,153.0,2021-02-04 15:03:19.026,train
2434,2434,227.40089416503903,111.0,2021-02-04 15:04:19.026,train
2435,2435,478.3678283691406,368.0,2021-02-04 15:05:19.026,train
2436,2436,465.83056640625,516.0,2021-02-04 15:06:19.026,train
2437,2437,488.8855895996094,300.0,2021-02-04 15:07:19.026,train
2438,2438,435.2544555664063,637.0,2021-02-04 15:08:19.026,train
2439,2439,308.3466796875,0.0,2021-02-04 15:09:19.026,train
2440,2440,311.5903015136719,292.0,2021-02-04 15:10:19.026,train
2441,2441,333.5201416015625,322.0,2021-02-04 15:11:19.026,train
2442,2442,274.4273681640625,401.0,2021-02-04 15:12:19.026,train
2443,2443,276.926025390625,336.0,2021-02-04 15:13:19.026,train
2444,2444,231.6336975097656,148.0,2021-02-04 15:14:19.026,train
2445,2445,134.12667846679688,152.0,2021-02-04 15:15:19.026,train
2446,2446,51.087303161621094,105.0,2021-02-04 15:16:19.026,train
2447,2447,9.325745582580566,28.0,2021-02-04 15:17:19.026,train
2448,2448,18.110801696777344,23.0,2021-02-04 15:18:19.026,train
2449,2449,109.13201904296876,22.0,2021-02-04 15:19:19.026,val
2450,2450,185.0787506103516,98.0,2021-02-04 15:20:19.026,val
2451,2451,195.32408142089844,203.0,2021-02-04 15:21:19.026,val
2452,2452,127.77516174316406,147.0,2021-02-04 15:22:19.026,val
2453,2453,395.1771240234375,467.0,2021-02-04 15:23:19.026,val
2454,2454,482.9252014160156,594.0,2021-02-04 15:24:19.026,val
2455,2455,505.5751037597656,347.0,2021-02-04 15:25:19.026,val
2456,2456,459.0726623535156,318.0,2021-02-04 15:26:19.026,val
2457,2457,329.46343994140625,290.0,2021-02-04 15:27:19.026,val
2458,2458,316.5555419921875,277.0,2021-02-04 15:28:19.026,val
2459,2459,313.014892578125,454.0,2021-02-04 15:29:19.026,val
2460,2460,293.56475830078125,182.0,2021-02-04 15:30:19.026,val
2461,2461,295.417724609375,321.0,2021-02-04 15:31:19.026,val
2462,2462,220.1543426513672,114.0,2021-02-04 15:32:19.026,val
2463,2463,105.3779296875,138.0,2021-02-04 15:33:19.026,val
2464,2464,48.47443389892578,81.0,2021-02-04 15:34:19.026,val
2465,2465,14.410341262817385,12.0,2021-02-04 15:35:19.026,val
2466,2466,16.46055793762207,27.0,2021-02-04 15:36:19.026,val
2467,2467,100.26366424560548,98.0,2021-02-04 15:37:19.026,val
2468,2468,180.4662628173828,170.0,2021-02-04 15:38:19.026,val
2469,2469,263.45394897460943,177.0,2021-02-04 15:39:19.026,val
2470,2470,411.91253662109375,415.0,2021-02-04 15:40:19.026,val
2471,2471,518.35302734375,391.0,2021-02-04 15:41:19.026,val
2472,2472,504.06646728515625,204.0,2021-02-04 15:42:19.026,val
2473,2473,494.27520751953125,631.0,2021-02-04 15:43:19.026,val
2474,2474,369.9727478027344,0.0,2021-02-04 15:44:19.026,val
2475,2475,311.6984558105469,454.0,2021-02-04 15:45:19.026,val
2476,2476,338.34857177734375,331.0,2021-02-04 15:46:19.026,val
2477,2477,295.81427001953125,397.0,2021-02-04 15:47:19.026,val
2478,2478,265.88360595703125,170.0,2021-02-04 15:48:19.026,val
2479,2479,166.01402282714844,136.0,2021-02-04 15:49:19.026,val
2480,2480,81.01276397705078,165.0,2021-02-04 15:50:19.026,val
2481,2481,15.513922691345215,95.0,2021-02-04 15:51:19.026,val
2482,2482,8.783289909362793,24.0,2021-02-04 15:52:19.026,val
2483,2483,41.68791198730469,32.0,2021-02-04 15:53:19.026,val
2484,2484,109.9599151611328,94.0,2021-02-04 15:54:19.026,val
2485,2485,178.32818603515625,112.0,2021-02-04 15:55:19.026,val
2486,2486,235.6091461181641,205.0,2021-02-04 15:56:19.026,val
2487,2487,389.2609558105469,427.0,2021-02-04 15:57:19.026,val
2488,2488,434.1480712890625,271.0,2021-02-04 15:58:19.026,val
2489,2489,510.762451171875,598.0,2021-02-04 15:59:19.026,val
2490,2490,493.7676696777344,315.0,2021-02-04 16:00:19.026,val
2491,2491,392.0453186035156,292.0,2021-02-04 16:01:19.026,val
2492,2492,325.3364562988281,346.0,2021-02-04 16:02:19.026,val
2493,2493,310.67718505859375,377.0,2021-02-04 16:03:19.026,val
2494,2494,306.8456115722656,197.0,2021-02-04 16:04:19.026,val
2495,2495,307.1784973144531,300.0,2021-02-04 16:05:19.026,val
2496,2496,264.12030029296875,186.0,2021-02-04 16:06:19.026,val
2497,2497,162.22067260742188,66.0,2021-02-04 16:07:19.026,val
2498,2498,68.81185150146484,74.0,2021-02-04 16:08:19.026,val
2499,2499,16.767450332641598,38.0,2021-02-04 16:09:19.026,val
2500,2500,11.47940158843994,50.0,2021-02-04 16:10:19.026,val
2501,2501,76.9175796508789,136.0,2021-02-04 16:11:19.026,val
2502,2502,160.98338317871094,259.0,2021-02-04 16:12:19.026,val
2503,2503,249.4160461425781,219.0,2021-02-04 16:13:19.026,val
2504,2504,437.62017822265625,537.0,2021-02-04 16:14:19.026,val
2505,2505,462.93011474609375,300.0,2021-02-04 16:15:19.026,val
2506,2506,498.4463806152344,632.0,2021-02-04 16:16:19.026,val
2507,2507,428.02081298828125,0.0,2021-02-04 16:17:19.026,val
2508,2508,306.40374755859375,573.0,2021-02-04 16:18:19.026,val
2509,2509,385.5293273925781,465.0,2021-02-04 16:19:19.026,val
2510,2510,302.6082458496094,197.0,2021-02-04 16:20:19.026,val
2511,2511,286.86224365234375,173.0,2021-02-04 16:21:19.026,val
2512,2512,173.79331970214844,143.0,2021-02-04 16:22:19.026,val
2513,2513,64.71860504150389,186.0,2021-02-04 16:23:19.026,val
2514,2514,12.769906997680664,93.0,2021-02-04 16:24:19.026,val
2515,2515,22.23441505432129,23.0,2021-02-04 16:25:19.026,val
2516,2516,69.01239013671875,15.0,2021-02-04 16:26:19.026,val
2517,2517,130.5611572265625,61.0,2021-02-04 16:27:19.026,val
2518,2518,187.0830841064453,51.0,2021-02-04 16:28:19.026,val
2519,2519,262.67807006835943,173.0,2021-02-04 16:29:19.026,val
2520,2520,321.7679443359375,330.0,2021-02-04 16:30:19.026,val
2521,2521,430.5813293457031,248.0,2021-02-04 16:31:19.026,val
2522,2522,502.6369323730469,554.0,2021-02-04 16:32:19.026,val
2523,2523,522.4633178710939,333.0,2021-02-04 16:33:19.026,val
2524,2524,442.78619384765625,302.0,2021-02-04 16:34:19.026,val
2525,2525,382.7287902832031,298.0,2021-02-04 16:35:19.026,val
2526,2526,321.5461730957031,525.0,2021-02-04 16:36:19.026,val
2527,2527,312.2588195800781,217.0,2021-02-04 16:37:19.026,val
2528,2528,317.2397766113281,344.0,2021-02-04 16:38:19.026,val
2529,2529,267.72116088867193,238.0,2021-02-04 16:39:19.026,val
2530,2530,144.80369567871094,81.0,2021-02-04 16:40:19.026,val
2531,2531,92.32425689697266,109.0,2021-02-04 16:41:19.026,val
2532,2532,43.375038146972656,33.0,2021-02-04 16:42:19.026,val
2533,2533,14.671432495117188,10.0,2021-02-04 16:43:19.026,val
2534,2534,20.67804336547852,75.0,2021-02-04 16:44:19.026,val
2535,2535,92.24974060058594,59.0,2021-02-04 16:45:19.026,val
2536,2536,193.40591430664062,195.0,2021-02-04 16:46:19.026,val
2537,2537,291.3059387207031,338.0,2021-02-04 16:47:19.026,val
2538,2538,391.3595275878906,254.0,2021-02-04 16:48:19.026,val
2539,2539,462.5558166503906,564.0,2021-02-04 16:49:19.026,val
2540,2540,508.4084777832031,316.0,2021-02-04 16:50:19.026,val
2541,2541,451.1954650878906,313.0,2021-02-04 16:51:19.026,val
2542,2542,348.2851257324219,295.0,2021-02-04 16:52:19.026,val
2543,2543,307.3099365234375,0.0,2021-02-04 16:53:19.026,val
2544,2544,306.02105712890625,517.0,2021-02-04 16:54:19.026,val
2545,2545,280.14834594726557,389.0,2021-02-04 16:55:19.026,val
2546,2546,285.7665710449219,179.0,2021-02-04 16:56:19.026,val
2547,2547,256.466552734375,265.0,2021-02-04 16:57:19.026,test
2548,2548,131.1600341796875,78.0,2021-02-04 16:58:19.026,test
2549,2549,75.36812591552734,98.0,2021-02-04 16:59:19.026,test
2550,2550,9.506651878356934,39.0,2021-02-04 17:00:19.026,test
2551,2551,12.567254066467285,21.0,2021-02-04 17:01:19.026,test
2552,2552,80.77122497558594,51.0,2021-02-04 17:02:19.026,test
2553,2553,160.18531799316406,116.0,2021-02-04 17:03:19.026,test
2554,2554,235.55886840820312,249.0,2021-02-04 17:04:19.026,test
2555,2555,328.9804382324219,224.0,2021-02-04 17:05:19.026,test
2556,2556,458.4242858886719,514.0,2021-02-04 17:06:19.026,test
2557,2557,507.8571166992188,634.0,2021-02-04 17:07:19.026,test
2558,2558,515.7068481445311,320.0,2021-02-04 17:08:19.026,test
2559,2559,413.7270202636719,0.0,2021-02-04 17:09:19.026,test
2560,2560,327.02813720703125,298.0,2021-02-04 17:10:19.026,test
2561,2561,366.1669921875,280.0,2021-02-04 17:11:19.026,test
2562,2562,289.4432678222656,476.0,2021-02-04 17:12:19.026,test
2563,2563,297.9330749511719,339.0,2021-02-04 17:13:19.026,test
2564,2564,287.6893615722656,140.0,2021-02-04 17:14:19.026,test
2565,2565,193.53192138671875,191.0,2021-02-04 17:15:19.026,test
2566,2566,84.11570739746094,116.0,2021-02-04 17:16:19.026,test
2567,2567,26.25829696655273,39.0,2021-02-04 17:17:19.026,test
2568,2568,5.5062761306762695,25.0,2021-02-04 17:18:19.026,test
2569,2569,41.55415725708008,32.0,2021-02-04 17:19:19.026,test
2570,2570,119.1865463256836,75.0,2021-02-04 17:20:19.026,test
2571,2571,178.97422790527344,193.0,2021-02-04 17:21:19.026,test
2572,2572,265.58462524414057,132.0,2021-02-04 17:22:19.026,test
2573,2573,402.9482421875,468.0,2021-02-04 17:23:19.026,test
2574,2574,482.049560546875,278.0,2021-02-04 17:24:19.026,test
2575,2575,495.1767272949219,618.0,2021-02-04 17:25:19.026,test
2576,2576,496.6123352050781,320.0,2021-02-04 17:26:19.026,test
2577,2577,391.239501953125,293.0,2021-02-04 17:27:19.026,test
2578,2578,324.64813232421875,282.0,2021-02-04 17:28:19.026,test
2579,2579,308.1657409667969,449.0,2021-02-04 17:29:19.026,test
2580,2580,303.24334716796875,196.0,2021-02-04 17:30:19.026,test
2581,2581,304.9143371582031,295.0,2021-02-04 17:31:19.026,test
2582,2582,230.16058349609372,185.0,2021-02-04 17:32:19.026,test
2583,2583,120.08607482910156,56.0,2021-02-04 17:33:19.026,test
2584,2584,64.84237670898439,86.0,2021-02-04 17:34:19.026,test
2585,2585,14.154297828674315,24.0,2021-02-04 17:35:19.026,test
2586,2586,11.968832015991213,25.0,2021-02-04 17:36:19.026,test
2587,2587,66.15541839599611,104.0,2021-02-04 17:37:19.026,test
2588,2588,145.20639038085938,190.0,2021-02-04 17:38:19.026,test
2589,2589,241.6653289794922,142.0,2021-02-04 17:39:19.026,test
2590,2590,398.08380126953125,489.0,2021-02-04 17:40:19.026,test
2591,2591,479.6830139160156,266.0,2021-02-04 17:41:19.026,test
2592,2592,486.23193359375,299.0,2021-02-04 17:42:19.026,test
