,Unnamed: 0,time,prediction,step
2,2,2021-02-15 08:54:20.816,858.22144,2
12,12,2021-02-15 08:54:50.816,857.0173,2
22,22,2021-02-15 08:55:20.816,855.84845,2
32,32,2021-02-15 08:55:50.816,854.6177,2
42,42,2021-02-15 08:56:20.816,853.34845,2
52,52,2021-02-15 08:56:50.816,852.2846699999999,2
62,62,2021-02-15 08:57:20.816,851.1561,2
72,72,2021-02-15 08:57:50.816,849.9945,2
82,82,2021-02-15 08:58:20.816,849.03516,2
92,92,2021-02-15 08:58:50.816,848.00824,2
102,102,2021-02-15 08:59:20.816,846.85016,2
112,112,2021-02-15 08:59:50.816,845.7271,2
122,122,2021-02-15 09:00:20.816,844.7938,2
132,132,2021-02-15 09:00:50.816,843.73236,2
142,142,2021-02-15 09:01:20.816,842.6049,2
152,152,2021-02-15 09:01:50.816,841.7588,2
162,162,2021-02-15 09:02:20.816,840.78705,2
172,172,2021-02-15 09:02:50.816,839.7458,2
182,182,2021-02-15 09:03:20.816,838.9921,2
192,192,2021-02-15 09:03:50.816,838.1153,2
202,202,2021-02-15 09:04:20.816,837.16455,2
212,212,2021-02-15 09:04:50.816,835.9106,2
222,222,2021-02-15 09:05:20.816,834.70416,2
232,232,2021-02-15 09:05:50.816,833.37225,2
242,242,2021-02-15 09:06:20.816,831.99133,2
252,252,2021-02-15 09:06:50.816,830.38666,2
262,262,2021-02-15 09:07:20.816,829.0057400000001,2
272,272,2021-02-15 09:07:50.816,827.7595,2
282,282,2021-02-15 09:08:20.816,826.2945599999999,2
292,292,2021-02-15 09:08:50.816,825.0404,2
302,302,2021-02-15 09:09:20.816,823.8208599999999,2
312,312,2021-02-15 09:09:50.816,822.4759,2
322,322,2021-02-15 09:10:20.816,821.33295,2
332,332,2021-02-15 09:10:50.816,820.2235,2
342,342,2021-02-15 09:11:20.816,818.89954,2
352,352,2021-02-15 09:11:50.816,817.70245,2
362,362,2021-02-15 09:12:20.816,816.5479,2
372,372,2021-02-15 09:12:50.816,815.3411,2
382,382,2021-02-15 09:13:20.816,814.4126,2
392,392,2021-02-15 09:13:50.816,813.3684,2
402,402,2021-02-15 09:14:20.816,812.2683,2
412,412,2021-02-15 09:14:50.816,811.2014,2
422,422,2021-02-15 09:15:20.816,810.2693,2
432,432,2021-02-15 09:15:50.816,809.2781,2
442,442,2021-02-15 09:16:20.816,808.3211,2
452,452,2021-02-15 09:16:50.816,807.35284,2
462,462,2021-02-15 09:17:20.816,806.48395,2
472,472,2021-02-15 09:17:50.816,804.9958,2
482,482,2021-02-15 09:18:20.816,803.6983,2
492,492,2021-02-15 09:18:50.816,802.3733,2
502,502,2021-02-15 09:19:20.816,801.1238400000001,2
512,512,2021-02-15 09:19:50.816,799.5669,2
522,522,2021-02-15 09:20:20.816,798.24475,2
532,532,2021-02-15 09:20:50.816,796.88104,2
542,542,2021-02-15 09:21:20.816,795.3993,2
552,552,2021-02-15 09:21:50.816,794.04474,2
562,562,2021-02-15 09:22:20.816,792.8111,2
572,572,2021-02-15 09:22:50.816,791.4631,2
582,582,2021-02-15 09:23:20.816,790.2313,2
592,592,2021-02-15 09:23:50.816,789.12,2
602,602,2021-02-15 09:24:20.816,787.89777,2
612,612,2021-02-15 09:24:50.816,786.6343,2
622,622,2021-02-15 09:25:20.816,785.5027,2
632,632,2021-02-15 09:25:50.816,784.4205,2
642,642,2021-02-15 09:26:20.816,783.2928,2
652,652,2021-02-15 09:26:50.816,782.2052,2
662,662,2021-02-15 09:27:20.816,781.1578,2
672,672,2021-02-15 09:27:50.816,780.1510599999999,2
682,682,2021-02-15 09:28:20.816,779.2881,2
692,692,2021-02-15 09:28:50.816,778.37445,2
702,702,2021-02-15 09:29:20.816,777.50464,2
712,712,2021-02-15 09:29:50.816,775.86554,2
722,722,2021-02-15 09:30:20.816,774.3244599999999,2
732,732,2021-02-15 09:30:50.816,772.8784,2
742,742,2021-02-15 09:31:20.816,771.52563,2
752,752,2021-02-15 09:31:50.816,770.15765,2
762,762,2021-02-15 09:32:20.816,768.98035,2
772,772,2021-02-15 09:32:50.816,767.4916400000001,2
782,782,2021-02-15 09:33:20.816,766.0559,2
792,792,2021-02-15 09:33:50.816,764.51276,2
802,802,2021-02-15 09:34:20.816,763.18695,2
812,812,2021-02-15 09:34:50.816,761.8264,2
822,822,2021-02-15 09:35:20.816,760.4375,2
832,832,2021-02-15 09:35:50.816,759.1058,2
842,842,2021-02-15 09:36:20.816,757.7455,2
852,852,2021-02-15 09:36:50.816,756.5178,2
862,862,2021-02-15 09:37:20.816,755.34546,2
872,872,2021-02-15 09:37:50.816,754.1396,2
882,882,2021-02-15 09:38:20.816,753.06995,2
892,892,2021-02-15 09:38:50.816,752.0569,2
902,902,2021-02-15 09:39:20.816,751.0061599999999,2
912,912,2021-02-15 09:39:50.816,750.00323,2
922,922,2021-02-15 09:40:20.816,749.04895,2
932,932,2021-02-15 09:40:50.816,747.99945,2
942,942,2021-02-15 09:41:20.816,747.1536,2
952,952,2021-02-15 09:41:50.816,746.36176,2
962,962,2021-02-15 09:42:20.816,744.6605,2
972,972,2021-02-15 09:42:50.816,742.8991,2
982,982,2021-02-15 09:43:20.816,741.439,2
992,992,2021-02-15 09:43:50.816,740.0908,2
1002,1002,2021-02-15 09:44:20.816,738.68616,2
1012,1012,2021-02-15 09:44:50.816,737.07227,2
1022,1022,2021-02-15 09:45:20.816,735.52094,2
1032,1032,2021-02-15 09:45:50.816,733.8721,2
1042,1042,2021-02-15 09:46:20.816,732.2933,2
1052,1052,2021-02-15 09:46:50.816,730.7816,2
1062,1062,2021-02-15 09:47:20.816,729.3349,2
1072,1072,2021-02-15 09:47:50.816,727.95154,2
1082,1082,2021-02-15 09:48:20.816,726.63025,2
1092,1092,2021-02-15 09:48:50.816,725.28827,2
1102,1102,2021-02-15 09:49:20.816,724.08203,2
1112,1112,2021-02-15 09:49:50.816,722.7923,2
1122,1122,2021-02-15 09:50:20.816,721.48627,2
1132,1132,2021-02-15 09:50:50.816,720.24115,2
1142,1142,2021-02-15 09:51:20.816,719.0570700000001,2
1152,1152,2021-02-15 09:51:50.816,717.93427,2
1162,1162,2021-02-15 09:52:20.816,716.8737,2
1172,1172,2021-02-15 09:52:50.816,715.8768,2
1182,1182,2021-02-15 09:53:20.816,714.00995,2
1192,1192,2021-02-15 09:53:50.816,712.1033,2
1202,1202,2021-02-15 09:54:20.816,710.33594,2
1212,1212,2021-02-15 09:54:50.816,708.8648,2
1222,1222,2021-02-15 09:55:20.816,707.1911,2
1232,1232,2021-02-15 09:55:50.816,705.7199,2
1242,1242,2021-02-15 09:56:20.816,704.4745,2
1252,1252,2021-02-15 09:56:50.816,703.2076400000001,2
1262,1262,2021-02-15 09:57:20.816,701.65436,2
1272,1272,2021-02-15 09:57:50.816,700.0961,2
1282,1282,2021-02-15 09:58:20.816,698.52814,2
1292,1292,2021-02-15 09:58:50.816,697.1842,2
1302,1302,2021-02-15 09:59:20.816,695.828,2
1312,1312,2021-02-15 09:59:50.816,694.46857,2
1322,1322,2021-02-15 10:00:20.816,693.3254,2
1332,1332,2021-02-15 10:00:50.816,692.0258,2
1342,1342,2021-02-15 10:01:20.816,690.7931,2
1352,1352,2021-02-15 10:01:50.816,689.62775,2
1362,1362,2021-02-15 10:02:20.816,688.5305,2
1372,1372,2021-02-15 10:02:50.816,687.503,2
1382,1382,2021-02-15 10:03:20.816,686.54724,2
1392,1392,2021-02-15 10:03:50.816,684.5819,2
1402,1402,2021-02-15 10:04:20.816,682.76544,2
1412,1412,2021-02-15 10:04:50.816,680.8304400000001,2
1422,1422,2021-02-15 10:05:20.816,679.03937,2
1432,1432,2021-02-15 10:05:50.816,677.5455,2
1442,1442,2021-02-15 10:06:20.816,676.0224,2
1452,1452,2021-02-15 10:06:50.816,674.637,2
1462,1462,2021-02-15 10:07:20.816,673.3915,2
1472,1472,2021-02-15 10:07:50.816,672.13495,2
1482,1482,2021-02-15 10:08:20.816,670.5975,2
1492,1492,2021-02-15 10:08:50.816,669.0600599999999,2
1502,1502,2021-02-15 10:09:20.816,667.4444599999999,2
1512,1512,2021-02-15 10:09:50.816,666.1283,2
1522,1522,2021-02-15 10:10:20.816,664.7302,2
1532,1532,2021-02-15 10:10:50.816,663.3252,2
1542,1542,2021-02-15 10:11:20.816,662.1319599999999,2
1552,1552,2021-02-15 10:11:50.816,660.7872,2
1562,1562,2021-02-15 10:12:20.816,659.58887,2
1572,1572,2021-02-15 10:12:50.816,658.4655,2
1582,1582,2021-02-15 10:13:20.816,657.3314,2
1592,1592,2021-02-15 10:13:50.816,656.35455,2
1602,1602,2021-02-15 10:14:20.816,655.45953,2
1612,1612,2021-02-15 10:14:50.816,653.13525,2
1622,1622,2021-02-15 10:15:20.816,651.2565,2
1632,1632,2021-02-15 10:15:50.816,649.2752,2
1642,1642,2021-02-15 10:16:20.816,647.456,2
1652,1652,2021-02-15 10:16:50.816,645.79474,2
1662,1662,2021-02-15 10:17:20.816,644.2899,2
1672,1672,2021-02-15 10:17:50.816,642.94305,2
1682,1682,2021-02-15 10:18:20.816,641.7584,2
1692,1692,2021-02-15 10:18:50.816,640.0628,2
1702,1702,2021-02-15 10:19:20.816,638.4535,2
1712,1712,2021-02-15 10:19:50.816,636.7068,2
1722,1722,2021-02-15 10:20:20.816,635.18896,2
1732,1732,2021-02-15 10:20:50.816,633.8194,2
1742,1742,2021-02-15 10:21:20.816,632.31195,2
1752,1752,2021-02-15 10:21:50.816,630.8845,2
1762,1762,2021-02-15 10:22:20.816,629.6718,2
1772,1772,2021-02-15 10:22:50.816,628.3179299999999,2
1782,1782,2021-02-15 10:23:20.816,627.1148,2
1792,1792,2021-02-15 10:23:50.816,626.1245,2
1802,1802,2021-02-15 10:24:20.816,624.9930400000001,2
1812,1812,2021-02-15 10:24:50.816,622.63715,2
1822,1822,2021-02-15 10:25:20.816,620.47144,2
1832,1832,2021-02-15 10:25:50.816,618.23016,2
1842,1842,2021-02-15 10:26:20.816,616.41864,2
1852,1852,2021-02-15 10:26:50.816,614.5244,2
1862,1862,2021-02-15 10:27:20.816,612.7983,2
1872,1872,2021-02-15 10:27:50.816,611.38916,2
1882,1882,2021-02-15 10:28:20.816,609.8377,2
1892,1892,2021-02-15 10:28:50.816,608.6197,2
1902,1902,2021-02-15 10:29:20.816,607.7282,2
1912,1912,2021-02-15 10:29:50.816,605.8738400000001,2
1922,1922,2021-02-15 10:30:20.816,604.32855,2
1932,1932,2021-02-15 10:30:50.816,602.7966,2
1942,1942,2021-02-15 10:31:20.816,601.2032,2
1952,1952,2021-02-15 10:31:50.816,599.8327,2
1962,1962,2021-02-15 10:32:20.816,598.5385,2
1972,1972,2021-02-15 10:32:50.816,597.1876,2
1982,1982,2021-02-15 10:33:20.816,596.0546,2
1992,1992,2021-02-15 10:33:50.816,594.87006,2
2002,2002,2021-02-15 10:34:20.816,592.22485,2
2012,2012,2021-02-15 10:34:50.816,589.7127,2
2022,2022,2021-02-15 10:35:20.816,587.3100599999999,2
2032,2032,2021-02-15 10:35:50.816,585.2709,2
2042,2042,2021-02-15 10:36:20.816,583.3258,2
2052,2052,2021-02-15 10:36:50.816,581.39685,2
2062,2062,2021-02-15 10:37:20.816,579.8875,2
2072,2072,2021-02-15 10:37:50.816,578.31445,2
2082,2082,2021-02-15 10:38:20.816,576.9226,2
2092,2092,2021-02-15 10:38:50.816,575.9702,2
2102,2102,2021-02-15 10:39:20.816,574.8224,2
2112,2112,2021-02-15 10:39:50.816,573.17084,2
2122,2122,2021-02-15 10:40:20.816,571.6125,2
2132,2132,2021-02-15 10:40:50.816,569.9357,2
2142,2142,2021-02-15 10:41:20.816,568.5602,2
2152,2152,2021-02-15 10:41:50.816,567.06573,2
2162,2162,2021-02-15 10:42:20.816,565.6621,2
2172,2172,2021-02-15 10:42:50.816,564.5602,2
2182,2182,2021-02-15 10:43:20.816,561.5596,2
2192,2192,2021-02-15 10:43:50.816,558.698,2
2202,2202,2021-02-15 10:44:20.816,556.31854,2
2212,2212,2021-02-15 10:44:50.816,553.8296,2
2222,2222,2021-02-15 10:45:20.816,551.62195,2
2232,2232,2021-02-15 10:45:50.816,549.7647,2
2242,2242,2021-02-15 10:46:20.816,547.8611,2
2252,2252,2021-02-15 10:46:50.816,546.2348,2
2262,2262,2021-02-15 10:47:20.816,544.95087,2
2272,2272,2021-02-15 10:47:50.816,543.62665,2
2282,2282,2021-02-15 10:48:20.816,542.6153,2
2292,2292,2021-02-15 10:48:50.816,541.72455,2
2302,2302,2021-02-15 10:49:20.816,540.1034,2
2312,2312,2021-02-15 10:49:50.816,538.5791,2
2322,2322,2021-02-15 10:50:20.816,537.07965,2
2332,2332,2021-02-15 10:50:50.816,535.7409,2
2342,2342,2021-02-15 10:51:20.816,534.49945,2
2352,2352,2021-02-15 10:51:50.816,531.4508,2
2362,2362,2021-02-15 10:52:20.816,528.5567599999999,2
2372,2372,2021-02-15 10:52:50.816,525.8349,2
2382,2382,2021-02-15 10:53:20.816,523.3385,2
2392,2392,2021-02-15 10:53:50.816,521.13635,2
2402,2402,2021-02-15 10:54:20.816,518.9841,2
2412,2412,2021-02-15 10:54:50.816,517.106,2
2422,2422,2021-02-15 10:55:20.816,515.4284700000001,2
2432,2432,2021-02-15 10:55:50.816,513.8621,2
2442,2442,2021-02-15 10:56:20.816,512.58905,2
2452,2452,2021-02-15 10:56:50.816,511.43242999999995,2
2462,2462,2021-02-15 10:57:20.816,510.49374000000006,2
2472,2472,2021-02-15 10:57:50.816,509.91388,2
2482,2482,2021-02-15 10:58:20.816,508.25378,2
2492,2492,2021-02-15 10:58:50.816,506.76083,2
2502,2502,2021-02-15 10:59:20.816,505.2952,2
2512,2512,2021-02-15 10:59:50.816,503.8588,2
2522,2522,2021-02-15 11:00:20.816,501.18985,2
2532,2532,2021-02-15 11:00:50.816,498.13437000000005,2
2542,2542,2021-02-15 11:01:20.816,495.10052,2
2552,2552,2021-02-15 11:01:50.816,492.48294000000004,2
2562,2562,2021-02-15 11:02:20.816,490.1663,2
2572,2572,2021-02-15 11:02:50.816,487.83835,2
2582,2582,2021-02-15 11:03:20.816,485.87653,2
2592,2592,2021-02-15 11:03:50.816,484.12027,2
2602,2602,2021-02-15 11:04:20.816,482.43118,2
2612,2612,2021-02-15 11:04:50.816,481.1032,2
2622,2622,2021-02-15 11:05:20.816,480.0,2
2632,2632,2021-02-15 11:05:50.816,479.0016,2
2642,2642,2021-02-15 11:06:20.816,478.27322000000004,2
2652,2652,2021-02-15 11:06:50.816,476.62534000000005,2
2662,2662,2021-02-15 11:07:20.816,475.0171,2
2672,2672,2021-02-15 11:07:50.816,473.50937000000005,2
2682,2682,2021-02-15 11:08:20.816,469.92400000000004,2
2692,2692,2021-02-15 11:08:50.816,466.6466,2
2702,2702,2021-02-15 11:09:20.816,463.47745,2
2712,2712,2021-02-15 11:09:50.816,460.5758,2
2722,2722,2021-02-15 11:10:20.816,457.92212,2
2732,2732,2021-02-15 11:10:50.816,455.5034,2
2742,2742,2021-02-15 11:11:20.816,453.31165,2
2752,2752,2021-02-15 11:11:50.816,451.3434,2
2762,2762,2021-02-15 11:12:20.816,449.59915,2
2772,2772,2021-02-15 11:12:50.816,448.08344000000005,2
2782,2782,2021-02-15 11:13:20.816,446.57404,2
2792,2792,2021-02-15 11:13:50.816,445.54187,2
2802,2802,2021-02-15 11:14:20.816,444.6692,2
2812,2812,2021-02-15 11:14:50.816,443.94083,2
2822,2822,2021-02-15 11:15:20.816,442.68732,2
2832,2832,2021-02-15 11:15:50.816,438.94527999999997,2
2842,2842,2021-02-15 11:16:20.816,435.1169,2
2852,2852,2021-02-15 11:16:50.816,431.8476,2
2862,2862,2021-02-15 11:17:20.816,428.8568,2
2872,2872,2021-02-15 11:17:50.816,425.90265,2
2882,2882,2021-02-15 11:18:20.816,423.4187,2
2892,2892,2021-02-15 11:18:50.816,421.0278,2
2902,2902,2021-02-15 11:19:20.816,418.80325,2
2912,2912,2021-02-15 11:19:50.816,417.02777000000003,2
2922,2922,2021-02-15 11:20:20.816,415.35632000000004,2
2932,2932,2021-02-15 11:20:50.816,413.8463,2
2942,2942,2021-02-15 11:21:20.816,412.71625,2
2952,2952,2021-02-15 11:21:50.816,411.71957000000003,2
2962,2962,2021-02-15 11:22:20.816,408.51232999999996,2
2972,2972,2021-02-15 11:22:50.816,405.6,2
2982,2982,2021-02-15 11:23:20.816,401.88525,2
2992,2992,2021-02-15 11:23:50.816,398.6498,2
3002,3002,2021-02-15 11:24:20.816,395.31705,2
3012,3012,2021-02-15 11:24:50.816,392.41492,2
3022,3022,2021-02-15 11:25:20.816,389.90414,2
3032,3032,2021-02-15 11:25:50.816,387.34592000000004,2
3042,3042,2021-02-15 11:26:20.816,385.1718,2
3052,3052,2021-02-15 11:26:50.816,383.36312999999996,2
3062,3062,2021-02-15 11:27:20.816,381.52752999999996,2
3072,3072,2021-02-15 11:27:50.816,380.07446,2
3082,3082,2021-02-15 11:28:20.816,378.91006,2
3092,3092,2021-02-15 11:28:50.816,375.26175,2
3102,3102,2021-02-15 11:29:20.816,372.10107,2
3112,3112,2021-02-15 11:29:50.816,369.30728,2
3122,3122,2021-02-15 11:30:20.816,367.08252000000005,2
3132,3132,2021-02-15 11:30:50.816,363.92978,2
3142,3142,2021-02-15 11:31:20.816,360.93146,2
3152,3152,2021-02-15 11:31:50.816,358.25417999999996,2
3162,3162,2021-02-15 11:32:20.816,355.8315,2
3172,3172,2021-02-15 11:32:50.816,353.58646,2
3182,3182,2021-02-15 11:33:20.816,351.658,2
3192,3192,2021-02-15 11:33:50.816,349.90234,2
3202,3202,2021-02-15 11:34:20.816,345.68442000000005,2
3212,3212,2021-02-15 11:34:50.816,342.0416,2
3222,3222,2021-02-15 11:35:20.816,338.45126,2
3232,3232,2021-02-15 11:35:50.816,335.4919,2
3242,3242,2021-02-15 11:36:20.816,333.23752,2
3252,3252,2021-02-15 11:36:50.816,331.04526,2
3262,3262,2021-02-15 11:37:20.816,328.0628,2
3272,3272,2021-02-15 11:37:50.816,325.28427,2
3282,3282,2021-02-15 11:38:20.816,322.62102999999996,2
3292,3292,2021-02-15 11:38:50.816,320.41467,2
3302,3302,2021-02-15 11:39:20.816,318.3188,2
3312,3312,2021-02-15 11:39:50.816,313.54376,2
3322,3322,2021-02-15 11:40:20.816,309.37207,2
3332,3332,2021-02-15 11:40:50.816,305.37567,2
3342,3342,2021-02-15 11:41:20.816,302.07874,2
3352,3352,2021-02-15 11:41:50.816,299.3194,2
3362,3362,2021-02-15 11:42:20.816,296.69064,2
3372,3372,2021-02-15 11:42:50.816,294.75824,2
3382,3382,2021-02-15 11:43:20.816,293.42843999999997,2
3392,3392,2021-02-15 11:43:50.816,290.7155,2
3402,3402,2021-02-15 11:44:20.816,288.39917,2
3412,3412,2021-02-15 11:44:50.816,283.34024,2
3422,3422,2021-02-15 11:45:20.816,278.66028,2
3432,3432,2021-02-15 11:45:50.816,274.3358,2
3442,3442,2021-02-15 11:46:20.816,270.66152999999997,2
3452,3452,2021-02-15 11:46:50.816,267.4493,2
3462,3462,2021-02-15 11:47:20.816,264.55115,2
3472,3472,2021-02-15 11:47:50.816,262.26373,2
3482,3482,2021-02-15 11:48:20.816,260.32108,2
3492,3492,2021-02-15 11:48:50.816,258.89932000000005,2
3502,3502,2021-02-15 11:49:20.816,253.27697999999998,2
3512,3512,2021-02-15 11:49:50.816,248.08781000000002,2
3522,3522,2021-02-15 11:50:20.816,243.16588,2
3532,3532,2021-02-15 11:50:50.816,238.97612,2
3542,3542,2021-02-15 11:51:20.816,235.18715,2
3552,3552,2021-02-15 11:51:50.816,231.72782999999998,2
3562,3562,2021-02-15 11:52:20.816,228.93639,2
3572,3572,2021-02-15 11:52:50.816,226.47208999999998,2
3582,3582,2021-02-15 11:53:20.816,221.05074,2
3592,3592,2021-02-15 11:53:50.816,216.49653999999998,2
3602,3602,2021-02-15 11:54:20.816,212.53644,2
3612,3612,2021-02-15 11:54:50.816,207.80722,2
3622,3622,2021-02-15 11:55:20.816,203.42696999999998,2
3632,3632,2021-02-15 11:55:50.816,199.46373,2
3642,3642,2021-02-15 11:56:20.816,196.15775,2
3652,3652,2021-02-15 11:56:50.816,189.52489,2
3662,3662,2021-02-15 11:57:20.816,183.80861000000002,2
3672,3672,2021-02-15 11:57:50.816,178.89938,2
3682,3682,2021-02-15 11:58:20.816,174.54744,2
3692,3692,2021-02-15 11:58:50.816,170.9564,2
3702,3702,2021-02-15 11:59:20.816,168.15393,2
3712,3712,2021-02-15 11:59:50.816,160.56602,2
3722,3722,2021-02-15 12:00:20.816,153.78423,2
3732,3732,2021-02-15 12:00:50.816,147.6965,2
3742,3742,2021-02-15 12:01:20.816,142.3731,2
3752,3752,2021-02-15 12:01:50.816,137.73383,2
3762,3762,2021-02-15 12:02:20.816,129.81361,2
3772,3772,2021-02-15 12:02:50.816,123.02285,2
3782,3782,2021-02-15 12:03:20.816,116.82252,2
