,Unnamed: 0,time,preds,step
5,5,2021-02-15 08:55:50.816,855.67847,5
15,15,2021-02-15 08:56:20.816,854.7012,5
25,25,2021-02-15 08:56:50.816,853.8819599999999,5
35,35,2021-02-15 08:57:20.816,853.0219,5
45,45,2021-02-15 08:57:50.816,851.6517,5
55,55,2021-02-15 08:58:20.816,850.9695,5
65,65,2021-02-15 08:58:50.816,849.8492,5
75,75,2021-02-15 08:59:20.816,848.35144,5
85,85,2021-02-15 08:59:50.816,847.5852699999999,5
95,95,2021-02-15 09:00:20.816,846.3748,5
105,105,2021-02-15 09:00:50.816,845.0159,5
115,115,2021-02-15 09:01:20.816,844.10565,5
125,125,2021-02-15 09:01:50.816,843.1112,5
135,135,2021-02-15 09:02:20.816,841.87396,5
145,145,2021-02-15 09:02:50.816,840.7741,5
155,155,2021-02-15 09:03:20.816,839.9347,5
165,165,2021-02-15 09:03:50.816,838.9672,5
175,175,2021-02-15 09:04:20.816,837.9739400000001,5
185,185,2021-02-15 09:04:50.816,837.2556,5
195,195,2021-02-15 09:05:20.816,836.3518,5
205,205,2021-02-15 09:05:50.816,835.4691,5
215,215,2021-02-15 09:06:20.816,833.8299,5
225,225,2021-02-15 09:06:50.816,832.58136,5
235,235,2021-02-15 09:07:20.816,830.77344,5
245,245,2021-02-15 09:07:50.816,828.8558,5
255,255,2021-02-15 09:08:20.816,827.3668,5
265,265,2021-02-15 09:08:50.816,826.9487,5
275,275,2021-02-15 09:09:20.816,825.10693,5
285,285,2021-02-15 09:09:50.816,823.6693,5
295,295,2021-02-15 09:10:20.816,824.00745,5
305,305,2021-02-15 09:10:50.816,822.9101,5
315,315,2021-02-15 09:11:20.816,821.35565,5
325,325,2021-02-15 09:11:50.816,820.51886,5
335,335,2021-02-15 09:12:20.816,819.3535,5
345,345,2021-02-15 09:12:50.816,817.778,5
355,355,2021-02-15 09:13:20.816,816.44354,5
365,365,2021-02-15 09:13:50.816,815.008,5
375,375,2021-02-15 09:14:20.816,813.5567,5
385,385,2021-02-15 09:14:50.816,812.57434,5
395,395,2021-02-15 09:15:20.816,811.1217,5
405,405,2021-02-15 09:15:50.816,809.99,5
415,415,2021-02-15 09:16:20.816,808.8712,5
425,425,2021-02-15 09:16:50.816,807.9126,5
435,435,2021-02-15 09:17:20.816,807.2021,5
445,445,2021-02-15 09:17:50.816,806.1542400000001,5
455,455,2021-02-15 09:18:20.816,805.2410000000001,5
465,465,2021-02-15 09:18:50.816,804.6717,5
475,475,2021-02-15 09:19:20.816,802.1185,5
485,485,2021-02-15 09:19:50.816,800.8078,5
495,495,2021-02-15 09:20:20.816,799.5078,5
505,505,2021-02-15 09:20:50.816,798.2854,5
515,515,2021-02-15 09:21:20.816,796.3298,5
525,525,2021-02-15 09:21:50.816,795.3217,5
535,535,2021-02-15 09:22:20.816,794.60535,5
545,545,2021-02-15 09:22:50.816,793.00964,5
555,555,2021-02-15 09:23:20.816,793.0553,5
565,565,2021-02-15 09:23:50.816,791.76636,5
575,575,2021-02-15 09:24:20.816,790.5723,5
585,585,2021-02-15 09:24:50.816,789.35736,5
595,595,2021-02-15 09:25:20.816,787.8297,5
605,605,2021-02-15 09:25:50.816,786.3889,5
615,615,2021-02-15 09:26:20.816,784.87646,5
625,625,2021-02-15 09:26:50.816,783.27747,5
635,635,2021-02-15 09:27:20.816,782.1887,5
645,645,2021-02-15 09:27:50.816,780.8549,5
655,655,2021-02-15 09:28:20.816,779.55225,5
665,665,2021-02-15 09:28:50.816,778.3501,5
675,675,2021-02-15 09:29:20.816,777.1408,5
685,685,2021-02-15 09:29:50.816,776.46387,5
695,695,2021-02-15 09:30:20.816,775.9594,5
705,705,2021-02-15 09:30:50.816,775.12396,5
715,715,2021-02-15 09:31:20.816,772.3303,5
725,725,2021-02-15 09:31:50.816,771.1814,5
735,735,2021-02-15 09:32:20.816,769.8342,5
745,745,2021-02-15 09:32:50.816,768.51666,5
755,755,2021-02-15 09:33:20.816,767.63446,5
765,765,2021-02-15 09:33:50.816,766.6847,5
775,775,2021-02-15 09:34:20.816,765.5037,5
785,785,2021-02-15 09:34:50.816,764.8269700000001,5
795,795,2021-02-15 09:35:20.816,763.3156,5
805,805,2021-02-15 09:35:50.816,762.3565,5
815,815,2021-02-15 09:36:20.816,760.8683,5
825,825,2021-02-15 09:36:50.816,759.0706,5
835,835,2021-02-15 09:37:20.816,757.50867,5
845,845,2021-02-15 09:37:50.816,755.86523,5
855,855,2021-02-15 09:38:20.816,754.1166400000001,5
865,865,2021-02-15 09:38:50.816,752.68787,5
875,875,2021-02-15 09:39:20.816,751.4079,5
885,885,2021-02-15 09:39:50.816,750.08246,5
895,895,2021-02-15 09:40:20.816,748.9309,5
905,905,2021-02-15 09:40:50.816,747.6957,5
915,915,2021-02-15 09:41:20.816,746.7394,5
925,925,2021-02-15 09:41:50.816,745.9588,5
935,935,2021-02-15 09:42:20.816,745.2768,5
945,945,2021-02-15 09:42:50.816,744.7374,5
955,955,2021-02-15 09:43:20.816,743.9082,5
965,965,2021-02-15 09:43:50.816,740.3253,5
975,975,2021-02-15 09:44:20.816,738.4393,5
985,985,2021-02-15 09:44:50.816,737.7117,5
995,995,2021-02-15 09:45:20.816,736.81055,5
1005,1005,2021-02-15 09:45:50.816,735.0584,5
1015,1015,2021-02-15 09:46:20.816,734.5806,5
1025,1025,2021-02-15 09:46:50.816,733.7276,5
1035,1035,2021-02-15 09:47:20.816,732.5389,5
1045,1045,2021-02-15 09:47:50.816,731.5136,5
1055,1055,2021-02-15 09:48:20.816,729.9155,5
1065,1065,2021-02-15 09:48:50.816,728.5791,5
1075,1075,2021-02-15 09:49:20.816,726.6552,5
1085,1085,2021-02-15 09:49:50.816,724.8149400000001,5
1095,1095,2021-02-15 09:50:20.816,723.1947,5
1105,1105,2021-02-15 09:50:50.816,721.39185,5
1115,1115,2021-02-15 09:51:20.816,719.6829,5
1125,1125,2021-02-15 09:51:50.816,718.44495,5
1135,1135,2021-02-15 09:52:20.816,717.07196,5
1145,1145,2021-02-15 09:52:50.816,715.54224,5
1155,1155,2021-02-15 09:53:20.816,714.2329,5
1165,1165,2021-02-15 09:53:50.816,713.13873,5
1175,1175,2021-02-15 09:54:20.816,712.3651,5
1185,1185,2021-02-15 09:54:50.816,709.44073,5
1195,1195,2021-02-15 09:55:20.816,708.05066,5
1205,1205,2021-02-15 09:55:50.816,706.7321,5
1215,1215,2021-02-15 09:56:20.816,705.9152,5
1225,1225,2021-02-15 09:56:50.816,704.1658,5
1235,1235,2021-02-15 09:57:20.816,703.4399400000001,5
1245,1245,2021-02-15 09:57:50.816,702.4960000000001,5
1255,1255,2021-02-15 09:58:20.816,700.64594,5
1265,1265,2021-02-15 09:58:50.816,700.4087,5
1275,1275,2021-02-15 09:59:20.816,699.2263,5
1285,1285,2021-02-15 09:59:50.816,697.6427,5
1295,1295,2021-02-15 10:00:20.816,696.1355,5
1305,1305,2021-02-15 10:00:50.816,694.0431,5
1315,1315,2021-02-15 10:01:20.816,692.1948,5
1325,1325,2021-02-15 10:01:50.816,690.8486,5
1335,1335,2021-02-15 10:02:20.816,689.0646,5
1345,1345,2021-02-15 10:02:50.816,687.6891,5
1355,1355,2021-02-15 10:03:20.816,686.4930400000001,5
1365,1365,2021-02-15 10:03:50.816,684.9798599999999,5
1375,1375,2021-02-15 10:04:20.816,683.6723599999999,5
1385,1385,2021-02-15 10:04:50.816,682.67,5
1395,1395,2021-02-15 10:05:20.816,679.1359,5
1405,1405,2021-02-15 10:05:50.816,678.6707,5
1415,1415,2021-02-15 10:06:20.816,677.48456,5
1425,1425,2021-02-15 10:06:50.816,675.9097,5
1435,1435,2021-02-15 10:07:20.816,675.3338,5
1445,1445,2021-02-15 10:07:50.816,674.2882,5
1455,1455,2021-02-15 10:08:20.816,673.30005,5
1465,1465,2021-02-15 10:08:50.816,672.2055,5
1475,1475,2021-02-15 10:09:20.816,670.6119,5
1485,1485,2021-02-15 10:09:50.816,669.7745,5
1495,1495,2021-02-15 10:10:20.816,668.2659,5
1505,1505,2021-02-15 10:10:50.816,665.8280599999999,5
1515,1515,2021-02-15 10:11:20.816,664.2367,5
1525,1525,2021-02-15 10:11:50.816,662.4894,5
1535,1535,2021-02-15 10:12:20.816,660.2604,5
1545,1545,2021-02-15 10:12:50.816,659.02637,5
1555,1555,2021-02-15 10:13:20.816,657.6121,5
1565,1565,2021-02-15 10:13:50.816,656.0953400000001,5
1575,1575,2021-02-15 10:14:20.816,654.76355,5
1585,1585,2021-02-15 10:14:50.816,653.3783599999999,5
1595,1595,2021-02-15 10:15:20.816,652.51074,5
1605,1605,2021-02-15 10:15:50.816,652.0298,5
1615,1615,2021-02-15 10:16:20.816,646.7945599999999,5
1625,1625,2021-02-15 10:16:50.816,646.9017299999999,5
1635,1635,2021-02-15 10:17:20.816,645.4679,5
1645,1645,2021-02-15 10:17:50.816,643.86176,5
1655,1655,2021-02-15 10:18:20.816,642.7425,5
1665,1665,2021-02-15 10:18:50.816,642.0348,5
1675,1675,2021-02-15 10:19:20.816,640.9881,5
1685,1685,2021-02-15 10:19:50.816,640.1031,5
1695,1695,2021-02-15 10:20:20.816,639.0183,5
1705,1705,2021-02-15 10:20:50.816,638.11725,5
1715,1715,2021-02-15 10:21:20.816,636.219,5
1725,1725,2021-02-15 10:21:50.816,634.0616,5
1735,1735,2021-02-15 10:22:20.816,631.9881,5
1745,1745,2021-02-15 10:22:50.816,629.971,5
1755,1755,2021-02-15 10:23:20.816,627.6997700000001,5
1765,1765,2021-02-15 10:23:50.816,626.2572,5
1775,1775,2021-02-15 10:24:20.816,624.6814,5
1785,1785,2021-02-15 10:24:50.816,623.4,5
1795,1795,2021-02-15 10:25:20.816,622.2949,5
1805,1805,2021-02-15 10:25:50.816,620.9946,5
1815,1815,2021-02-15 10:26:20.816,615.80896,5
1825,1825,2021-02-15 10:26:50.816,615.7174,5
1835,1835,2021-02-15 10:27:20.816,614.70526,5
1845,1845,2021-02-15 10:27:50.816,613.7185,5
1855,1855,2021-02-15 10:28:20.816,611.92773,5
1865,1865,2021-02-15 10:28:50.816,611.0606700000001,5
1875,1875,2021-02-15 10:29:20.816,610.2452400000001,5
1885,1885,2021-02-15 10:29:50.816,608.8558,5
1895,1895,2021-02-15 10:30:20.816,608.2604,5
1905,1905,2021-02-15 10:30:50.816,607.5054,5
1915,1915,2021-02-15 10:31:20.816,605.5345,5
1925,1925,2021-02-15 10:31:50.816,603.62695,5
1935,1935,2021-02-15 10:32:20.816,601.1169,5
1945,1945,2021-02-15 10:32:50.816,598.8453,5
1955,1955,2021-02-15 10:33:20.816,596.7612,5
1965,1965,2021-02-15 10:33:50.816,595.21277,5
1975,1975,2021-02-15 10:34:20.816,593.4082599999999,5
1985,1985,2021-02-15 10:34:50.816,592.492,5
1995,1995,2021-02-15 10:35:20.816,590.9307,5
2005,2005,2021-02-15 10:35:50.816,584.8342,5
2015,2015,2021-02-15 10:36:20.816,584.1723,5
2025,2025,2021-02-15 10:36:50.816,583.401,5
2035,2035,2021-02-15 10:37:20.816,582.8669,5
2045,2045,2021-02-15 10:37:50.816,581.5268599999999,5
2055,2055,2021-02-15 10:38:20.816,580.1713,5
2065,2065,2021-02-15 10:38:50.816,579.1358,5
2075,2075,2021-02-15 10:39:20.816,578.1568599999999,5
2085,2085,2021-02-15 10:39:50.816,577.3614,5
2095,2095,2021-02-15 10:40:20.816,575.8340000000001,5
2105,2105,2021-02-15 10:40:50.816,574.688,5
2115,2115,2021-02-15 10:41:20.816,572.34125,5
2125,2125,2021-02-15 10:41:50.816,569.9362,5
2135,2135,2021-02-15 10:42:20.816,567.43854,5
2145,2145,2021-02-15 10:42:50.816,565.14343,5
2155,2155,2021-02-15 10:43:20.816,563.3487,5
2165,2165,2021-02-15 10:43:50.816,561.7864,5
2175,2175,2021-02-15 10:44:20.816,560.6759599999999,5
2185,2185,2021-02-15 10:44:50.816,553.2591,5
2195,2195,2021-02-15 10:45:20.816,551.7684,5
2205,2205,2021-02-15 10:45:50.816,552.01605,5
2215,2215,2021-02-15 10:46:20.816,550.8509,5
2225,2225,2021-02-15 10:46:50.816,549.1827,5
2235,2235,2021-02-15 10:47:20.816,548.8758,5
2245,2245,2021-02-15 10:47:50.816,547.17145,5
2255,2255,2021-02-15 10:48:20.816,546.3491,5
2265,2265,2021-02-15 10:48:50.816,545.9562,5
2275,2275,2021-02-15 10:49:20.816,543.4736,5
2285,2285,2021-02-15 10:49:50.816,540.8969999999999,5
2295,2295,2021-02-15 10:50:20.816,541.3627,5
2305,2305,2021-02-15 10:50:50.816,538.5868,5
2315,2315,2021-02-15 10:51:20.816,536.7669,5
2325,2325,2021-02-15 10:51:50.816,534.4786,5
2335,2335,2021-02-15 10:52:20.816,532.64124,5
2345,2345,2021-02-15 10:52:50.816,531.3528,5
2355,2355,2021-02-15 10:53:20.816,523.2841,5
2365,2365,2021-02-15 10:53:50.816,521.20245,5
2375,2375,2021-02-15 10:54:20.816,521.0214,5
2385,2385,2021-02-15 10:54:50.816,520.055,5
2395,2395,2021-02-15 10:55:20.816,518.8052,5
2405,2405,2021-02-15 10:55:50.816,517.7987,5
2415,2415,2021-02-15 10:56:20.816,517.1282,5
2425,2425,2021-02-15 10:56:50.816,516.1803,5
2435,2435,2021-02-15 10:57:20.816,515.4749,5
2445,2445,2021-02-15 10:57:50.816,513.6539,5
2455,2455,2021-02-15 10:58:20.816,509.70865,5
2465,2465,2021-02-15 10:58:50.816,507.39804000000004,5
2475,2475,2021-02-15 10:59:20.816,509.23495,5
2485,2485,2021-02-15 10:59:50.816,506.71182000000005,5
2495,2495,2021-02-15 11:00:20.816,504.55495999999994,5
2505,2505,2021-02-15 11:00:50.816,502.83356,5
2515,2515,2021-02-15 11:01:20.816,500.789,5
2525,2525,2021-02-15 11:01:50.816,494.46448,5
2535,2535,2021-02-15 11:02:20.816,490.2819,5
2545,2545,2021-02-15 11:02:50.816,489.5489,5
2555,2555,2021-02-15 11:03:20.816,488.95444000000003,5
2565,2565,2021-02-15 11:03:50.816,487.7168,5
2575,2575,2021-02-15 11:04:20.816,486.30312999999995,5
2585,2585,2021-02-15 11:04:50.816,485.83078,5
2595,2595,2021-02-15 11:05:20.816,484.8037,5
2605,2605,2021-02-15 11:05:50.816,483.9381,5
2615,2615,2021-02-15 11:06:20.816,482.5292,5
2625,2625,2021-02-15 11:06:50.816,478.80054,5
2635,2635,2021-02-15 11:07:20.816,475.89157,5
2645,2645,2021-02-15 11:07:50.816,477.63742,5
2655,2655,2021-02-15 11:08:20.816,475.41895,5
2665,2665,2021-02-15 11:08:50.816,472.63842999999997,5
2675,2675,2021-02-15 11:09:20.816,471.09435999999994,5
2685,2685,2021-02-15 11:09:50.816,460.70792,5
2695,2695,2021-02-15 11:10:20.816,458.60225999999994,5
2705,2705,2021-02-15 11:10:50.816,456.80545,5
2715,2715,2021-02-15 11:11:20.816,456.05817,5
2725,2725,2021-02-15 11:11:50.816,454.69097999999997,5
2735,2735,2021-02-15 11:12:20.816,454.16528,5
2745,2745,2021-02-15 11:12:50.816,452.44467000000003,5
2755,2755,2021-02-15 11:13:20.816,452.05655,5
2765,2765,2021-02-15 11:13:50.816,451.5862,5
2775,2775,2021-02-15 11:14:20.816,450.00365999999997,5
2785,2785,2021-02-15 11:14:50.816,446.23233,5
2795,2795,2021-02-15 11:15:20.816,442.35132000000004,5
2805,2805,2021-02-15 11:15:50.816,440.6079,5
2815,2815,2021-02-15 11:16:20.816,442.2164,5
2825,2825,2021-02-15 11:16:50.816,441.61715999999996,5
2835,2835,2021-02-15 11:17:20.816,430.72348,5
2845,2845,2021-02-15 11:17:50.816,425.82697,5
2855,2855,2021-02-15 11:18:20.816,424.6004,5
2865,2865,2021-02-15 11:18:50.816,423.40665,5
2875,2875,2021-02-15 11:19:20.816,421.8871,5
2885,2885,2021-02-15 11:19:50.816,421.52014,5
2895,2895,2021-02-15 11:20:20.816,419.98352,5
2905,2905,2021-02-15 11:20:50.816,419.06094,5
2915,2915,2021-02-15 11:21:20.816,419.10165,5
2925,2925,2021-02-15 11:21:50.816,417.53802,5
2935,2935,2021-02-15 11:22:20.816,414.75372000000004,5
2945,2945,2021-02-15 11:22:50.816,410.9612,5
2955,2955,2021-02-15 11:23:20.816,407.5886,5
2965,2965,2021-02-15 11:23:50.816,399.09277000000003,5
2975,2975,2021-02-15 11:24:20.816,393.72565,5
2985,2985,2021-02-15 11:24:50.816,391.9883,5
2995,2995,2021-02-15 11:25:20.816,391.61102,5
3005,3005,2021-02-15 11:25:50.816,388.7071,5
3015,3015,2021-02-15 11:26:20.816,387.7681,5
3025,3025,2021-02-15 11:26:50.816,387.1421,5
3035,3035,2021-02-15 11:27:20.816,385.56958,5
3045,3045,2021-02-15 11:27:50.816,385.40643,5
3055,3055,2021-02-15 11:28:20.816,384.61472000000003,5
3065,3065,2021-02-15 11:28:50.816,382.68987999999996,5
3075,3075,2021-02-15 11:29:20.816,380.6733,5
3085,3085,2021-02-15 11:29:50.816,377.13855,5
3095,3095,2021-02-15 11:30:20.816,367.15958,5
3105,3105,2021-02-15 11:30:50.816,362.4934,5
3115,3115,2021-02-15 11:31:20.816,359.94300000000004,5
3125,3125,2021-02-15 11:31:50.816,360.03745,5
3135,3135,2021-02-15 11:32:20.816,357.37842,5
3145,3145,2021-02-15 11:32:50.816,356.40314,5
3155,3155,2021-02-15 11:33:20.816,355.57232999999997,5
3165,3165,2021-02-15 11:33:50.816,354.51352,5
3175,3175,2021-02-15 11:34:20.816,354.1725,5
3185,3185,2021-02-15 11:34:50.816,353.07935,5
3195,3195,2021-02-15 11:35:20.816,351.6372,5
3205,3205,2021-02-15 11:35:50.816,339.85477000000003,5
3215,3215,2021-02-15 11:36:20.816,335.67746,5
3225,3225,2021-02-15 11:36:50.816,330.5794,5
3235,3235,2021-02-15 11:37:20.816,325.6277,5
3245,3245,2021-02-15 11:37:50.816,323.05264,5
3255,3255,2021-02-15 11:38:20.816,323.78586,5
3265,3265,2021-02-15 11:38:50.816,321.95166,5
3275,3275,2021-02-15 11:39:20.816,320.2973,5
3285,3285,2021-02-15 11:39:50.816,320.51273,5
3295,3295,2021-02-15 11:40:20.816,319.09326,5
3305,3305,2021-02-15 11:40:50.816,317.23535,5
3315,3315,2021-02-15 11:41:20.816,306.0648,5
3325,3325,2021-02-15 11:41:50.816,302.7266,5
3335,3335,2021-02-15 11:42:20.816,298.6587,5
3345,3345,2021-02-15 11:42:50.816,293.97292999999996,5
3355,3355,2021-02-15 11:43:20.816,290.03513,5
3365,3365,2021-02-15 11:43:50.816,287.1983,5
3375,3375,2021-02-15 11:44:20.816,289.15085,5
3385,3385,2021-02-15 11:44:50.816,288.7957,5
3395,3395,2021-02-15 11:45:20.816,288.7315,5
3405,3405,2021-02-15 11:45:50.816,287.07285,5
3415,3415,2021-02-15 11:46:20.816,277.23773,5
3425,3425,2021-02-15 11:46:50.816,272.06647000000004,5
3435,3435,2021-02-15 11:47:20.816,267.52227999999997,5
3445,3445,2021-02-15 11:47:50.816,263.3288,5
3455,3455,2021-02-15 11:48:20.816,259.24475,5
3465,3465,2021-02-15 11:48:50.816,254.7215,5
3475,3475,2021-02-15 11:49:20.816,254.14447,5
3485,3485,2021-02-15 11:49:50.816,255.19778,5
3495,3495,2021-02-15 11:50:20.816,255.82338,5
3505,3505,2021-02-15 11:50:50.816,244.09059,5
3515,3515,2021-02-15 11:51:20.816,239.78654,5
3525,3525,2021-02-15 11:51:50.816,234.81967000000003,5
3535,3535,2021-02-15 11:52:20.816,231.10157999999998,5
3545,3545,2021-02-15 11:52:50.816,227.23244,5
3555,3555,2021-02-15 11:53:20.816,222.90471000000002,5
3565,3565,2021-02-15 11:53:50.816,221.43478,5
3575,3575,2021-02-15 11:54:20.816,219.84557999999998,5
3585,3585,2021-02-15 11:54:50.816,207.59729,5
3595,3595,2021-02-15 11:55:20.816,204.5893,5
3605,3605,2021-02-15 11:55:50.816,200.30373,5
3615,3615,2021-02-15 11:56:20.816,197.38036,5
3625,3625,2021-02-15 11:56:50.816,192.51709,5
3635,3635,2021-02-15 11:57:20.816,189.20686,5
3645,3645,2021-02-15 11:57:50.816,186.73155,5
3655,3655,2021-02-15 11:58:20.816,171.8477,5
3665,3665,2021-02-15 11:58:50.816,170.70004,5
3675,3675,2021-02-15 11:59:20.816,164.60298,5
3685,3685,2021-02-15 11:59:50.816,160.54018,5
3695,3695,2021-02-15 12:00:20.816,155.69534,5
3705,3705,2021-02-15 12:00:50.816,154.28679,5
3715,3715,2021-02-15 12:01:20.816,133.4069,5
3725,3725,2021-02-15 12:01:50.816,123.8303,5
3735,3735,2021-02-15 12:02:20.816,126.300575,5
3745,3745,2021-02-15 12:02:50.816,126.786705,5
3755,3755,2021-02-15 12:03:20.816,122.72096,5
3765,3765,2021-02-15 12:03:50.816,104.72041999999999,5
3775,3775,2021-02-15 12:04:20.816,95.73729,5
3785,3785,2021-02-15 12:04:50.816,86.1766,5
