,Unnamed: 0,time,prediction,step
3797,3797,2021-02-18 14:19:39.482,163.5177,7
3807,3807,2021-02-18 14:20:09.482,143.1957,7
3817,3817,2021-02-18 14:20:39.482,145.48004,7
3827,3827,2021-02-18 14:21:09.482,165.58401,7
3837,3837,2021-02-18 14:21:39.482,171.34364,7
3847,3847,2021-02-18 14:22:09.482,160.57343,7
3857,3857,2021-02-18 14:22:39.482,134.48349,7
3867,3867,2021-02-18 14:23:09.482,116.73676999999999,7
3877,3877,2021-02-18 14:23:39.482,117.10128,7
3887,3887,2021-02-18 14:24:09.482,123.518974,7
3897,3897,2021-02-18 14:24:39.482,138.6435,7
3907,3907,2021-02-18 14:25:09.482,154.77567,7
3917,3917,2021-02-18 14:25:39.482,194.38727,7
3927,3927,2021-02-18 14:26:09.482,193.89586,7
3937,3937,2021-02-18 14:26:39.482,232.35063,7
3947,3947,2021-02-18 14:27:09.482,240.80988,7
3957,3957,2021-02-18 14:27:39.482,231.28922000000003,7
3967,3967,2021-02-18 14:28:09.482,218.79645,7
3977,3977,2021-02-18 14:28:39.482,232.0729,7
3987,3987,2021-02-18 14:29:09.482,244.84059,7
3997,3997,2021-02-18 14:29:39.482,262.26468,7
4007,4007,2021-02-18 14:30:09.482,295.38638,7
4017,4017,2021-02-18 14:30:39.482,307.97955,7
4027,4027,2021-02-18 14:31:09.482,319.9103,7
4037,4037,2021-02-18 14:31:39.482,329.0252,7
4047,4047,2021-02-18 14:32:09.482,342.77505,7
4057,4057,2021-02-18 14:32:39.482,359.9731,7
4067,4067,2021-02-18 14:33:09.482,380.52347000000003,7
4077,4077,2021-02-18 14:33:39.482,403.3448,7
4087,4087,2021-02-18 14:34:09.482,427.6841,7
4097,4097,2021-02-18 14:34:39.482,452.58524000000006,7
4107,4107,2021-02-18 14:35:09.482,476.71768,7
4117,4117,2021-02-18 14:35:39.482,501.7598,7
4127,4127,2021-02-18 14:36:09.482,526.9871,7
4137,4137,2021-02-18 14:36:39.482,542.0930000000001,7
4147,4147,2021-02-18 14:37:09.482,554.5374,7
4157,4157,2021-02-18 14:37:39.482,566.4518400000001,7
4167,4167,2021-02-18 14:38:09.482,578.5763,7
4177,4177,2021-02-18 14:38:39.482,592.53455,7
4187,4187,2021-02-18 14:39:09.482,607.5555400000001,7
4197,4197,2021-02-18 14:39:39.482,625.12225,7
4207,4207,2021-02-18 14:40:09.482,643.697,7
4217,4217,2021-02-18 14:40:39.482,665.94275,7
4227,4227,2021-02-18 14:41:09.482,682.7746599999999,7
4237,4237,2021-02-18 14:41:39.482,691.4485,7
4247,4247,2021-02-18 14:42:09.482,698.2689999999999,7
4257,4257,2021-02-18 14:42:39.482,706.8547,7
4267,4267,2021-02-18 14:43:09.482,719.5718400000001,7
4277,4277,2021-02-18 14:43:39.482,733.8786,7
4287,4287,2021-02-18 14:44:09.482,750.2034,7
4297,4297,2021-02-18 14:44:39.482,768.44995,7
4307,4307,2021-02-18 14:45:09.482,786.09705,7
4317,4317,2021-02-18 14:45:39.482,805.2597,7
4327,4327,2021-02-18 14:46:09.482,817.33405,7
4337,4337,2021-02-18 14:46:39.482,827.0155,7
4347,4347,2021-02-18 14:47:09.482,841.8083,7
4357,4357,2021-02-18 14:47:39.482,858.4272,7
4367,4367,2021-02-18 14:48:09.482,874.9162,7
4377,4377,2021-02-18 14:48:39.482,892.2543,7
4387,4387,2021-02-18 14:49:09.482,911.25146,7
4397,4397,2021-02-18 14:49:39.482,930.4432,7
4407,4407,2021-02-18 14:50:09.482,950.5184,7
4417,4417,2021-02-18 14:50:39.482,958.7327,7
4427,4427,2021-02-18 14:51:09.482,967.1917,7
4437,4437,2021-02-18 14:51:39.482,974.69696,7
4447,4447,2021-02-18 14:52:09.482,987.9124,7
4457,4457,2021-02-18 14:52:39.482,1000.9956699999999,7
4467,4467,2021-02-18 14:53:09.482,1014.24115,7
4477,4477,2021-02-18 14:53:39.482,1028.5203,7
4487,4487,2021-02-18 14:54:09.482,1043.2521,7
4497,4497,2021-02-18 14:54:39.482,1038.0497,7
4507,4507,2021-02-18 14:55:09.482,1046.3834,7
4517,4517,2021-02-18 14:55:39.482,1059.7625,7
4527,4527,2021-02-18 14:56:09.482,1075.1837,7
4537,4537,2021-02-18 14:56:39.482,1083.7961,7
4547,4547,2021-02-18 14:57:09.482,1092.3617,7
4557,4557,2021-02-18 14:57:39.482,1103.4192,7
4567,4567,2021-02-18 14:58:09.482,1118.5298,7
4577,4577,2021-02-18 14:58:39.482,1122.2157,7
4587,4587,2021-02-18 14:59:09.482,1129.9626,7
4597,4597,2021-02-18 14:59:39.482,1139.496,7
4607,4607,2021-02-18 15:00:09.482,1150.9755,7
4617,4617,2021-02-18 15:00:39.482,1164.9137,7
4627,4627,2021-02-18 15:01:09.482,1174.6874,7
4637,4637,2021-02-18 15:01:39.482,1186.8041,7
4647,4647,2021-02-18 15:02:09.482,1202.5956,7
4657,4657,2021-02-18 15:02:39.482,1211.164,7
4667,4667,2021-02-18 15:03:09.482,1223.0421,7
4677,4677,2021-02-18 15:03:39.482,1236.1306,7
4687,4687,2021-02-18 15:04:09.482,1252.684,7
4697,4697,2021-02-18 15:04:39.482,1270.8132,7
4707,4707,2021-02-18 15:05:09.482,1289.8978,7
4717,4717,2021-02-18 15:05:39.482,1304.8207,7
4727,4727,2021-02-18 15:06:09.482,1321.4979999999998,7
4737,4737,2021-02-18 15:06:39.482,1323.2069,7
4747,4747,2021-02-18 15:07:09.482,1330.5765,7
4757,4757,2021-02-18 15:07:39.482,1345.9552,7
4767,4767,2021-02-18 15:08:09.482,1360.8768,7
4777,4777,2021-02-18 15:08:39.482,1376.6992,7
4787,4787,2021-02-18 15:09:09.482,1393.9508,7
4797,4797,2021-02-18 15:09:39.482,1394.2019,7
4807,4807,2021-02-18 15:10:09.482,1399.8605,7
4817,4817,2021-02-18 15:10:39.482,1410.816,7
4827,4827,2021-02-18 15:11:09.482,1421.7783,7
4837,4837,2021-02-18 15:11:39.482,1433.2779999999998,7
4847,4847,2021-02-18 15:12:09.482,1446.8702,7
4857,4857,2021-02-18 15:12:39.482,1463.0864,7
4867,4867,2021-02-18 15:13:09.482,1455.991,7
4877,4877,2021-02-18 15:13:39.482,1466.6539,7
4887,4887,2021-02-18 15:14:09.482,1480.7579999999998,7
4897,4897,2021-02-18 15:14:39.482,1490.5184,7
4907,4907,2021-02-18 15:15:09.482,1501.7229,7
4917,4917,2021-02-18 15:15:39.482,1515.3427,7
4927,4927,2021-02-18 15:16:09.482,1497.9053,7
4937,4937,2021-02-18 15:16:39.482,1515.2446,7
4947,4947,2021-02-18 15:17:09.482,1536.3264,7
4957,4957,2021-02-18 15:17:39.482,1544.3998,7
4967,4967,2021-02-18 15:18:09.482,1554.8011,7
4977,4977,2021-02-18 15:18:39.482,1553.4613,7
4987,4987,2021-02-18 15:19:09.482,1563.4552,7
4997,4997,2021-02-18 15:19:39.482,1574.1222,7
5007,5007,2021-02-18 15:20:09.482,1586.9784,7
5017,5017,2021-02-18 15:20:39.482,1601.8403,7
5027,5027,2021-02-18 15:21:09.482,1604.4039,7
5037,5037,2021-02-18 15:21:39.482,1614.0868,7
5047,5047,2021-02-18 15:22:09.482,1622.7843,7
5057,5057,2021-02-18 15:22:39.482,1633.4236,7
5067,5067,2021-02-18 15:23:09.482,1646.9591,7
5077,5077,2021-02-18 15:23:39.482,1650.6531,7
5087,5087,2021-02-18 15:24:09.482,1662.1923,7
5097,5097,2021-02-18 15:24:39.482,1670.7483,7
5107,5107,2021-02-18 15:25:09.482,1681.535,7
5117,5117,2021-02-18 15:25:39.482,1694.7432,7
5127,5127,2021-02-18 15:26:09.482,1696.7097,7
5137,5137,2021-02-18 15:26:39.482,1702.5602,7
5147,5147,2021-02-18 15:27:09.482,1722.0916,7
5157,5157,2021-02-18 15:27:39.482,1705.2911,7
5167,5167,2021-02-18 15:28:09.482,1722.1116,7
5177,5177,2021-02-18 15:28:39.482,1736.695,7
5187,5187,2021-02-18 15:29:09.482,1746.7106,7
5197,5197,2021-02-18 15:29:39.482,1732.9468,7
5207,5207,2021-02-18 15:30:09.482,1748.7256,7
5217,5217,2021-02-18 15:30:39.482,1764.3922,7
5227,5227,2021-02-18 15:31:09.482,1771.1771,7
5237,5237,2021-02-18 15:31:39.482,1766.0012,7
