,Unnamed: 0,time,preds,step
3814,3814,2021-01-22 12:28:55.480,81.91504,4
3824,3824,2021-01-22 12:29:25.480,82.53272,4
3834,3834,2021-01-22 12:29:55.480,82.29133,4
3844,3844,2021-01-22 12:30:25.480,82.53842,4
3854,3854,2021-01-22 12:30:55.480,82.31021,4
3864,3864,2021-01-22 12:31:25.480,82.3546,4
3874,3874,2021-01-22 12:31:55.480,82.37151999999999,4
3884,3884,2021-01-22 12:32:25.480,82.77139,4
3894,3894,2021-01-22 12:32:55.480,82.909325,4
3904,3904,2021-01-22 12:33:25.480,82.94878,4
3914,3914,2021-01-22 12:33:55.480,82.903564,4
3924,3924,2021-01-22 12:34:25.480,83.421844,4
3934,3934,2021-01-22 12:34:55.480,83.6263,4
3944,3944,2021-01-22 12:35:25.480,84.05176,4
3954,3954,2021-01-22 12:35:55.480,84.26817,4
3964,3964,2021-01-22 12:36:25.480,84.04186,4
3974,3974,2021-01-22 12:36:55.480,84.04612,4
3984,3984,2021-01-22 12:37:25.480,83.79691,4
3994,3994,2021-01-22 12:37:55.480,83.70566,4
4004,4004,2021-01-22 12:38:25.480,84.454895,4
4014,4014,2021-01-22 12:38:55.480,84.29741,4
4024,4024,2021-01-22 12:39:25.480,84.20586,4
4034,4034,2021-01-22 12:39:55.480,84.42725,4
4044,4044,2021-01-22 12:40:25.480,85.4557,4
4054,4054,2021-01-22 12:40:55.480,85.73357,4
4064,4064,2021-01-22 12:41:25.480,86.03293000000001,4
4074,4074,2021-01-22 12:41:55.480,85.336586,4
4084,4084,2021-01-22 12:42:25.480,85.20153,4
4094,4094,2021-01-22 12:42:55.480,84.27228000000001,4
4104,4104,2021-01-22 12:43:25.480,84.12639,4
4114,4114,2021-01-22 12:43:55.480,84.02653000000001,4
4124,4124,2021-01-22 12:44:25.480,83.94889,4
4134,4134,2021-01-22 12:44:55.480,84.04892,4
4144,4144,2021-01-22 12:45:25.480,84.08358,4
4154,4154,2021-01-22 12:45:55.480,84.24648,4
4164,4164,2021-01-22 12:46:25.480,84.237434,4
4174,4174,2021-01-22 12:46:55.480,84.24128,4
4184,4184,2021-01-22 12:47:25.480,84.28357,4
4194,4194,2021-01-22 12:47:55.480,84.25304,4
4204,4204,2021-01-22 12:48:25.480,84.228645,4
4214,4214,2021-01-22 12:48:55.480,83.83776,4
4224,4224,2021-01-22 12:49:25.480,84.48444,4
4234,4234,2021-01-22 12:49:55.480,84.69948000000001,4
4244,4244,2021-01-22 12:50:25.480,84.84169,4
4254,4254,2021-01-22 12:50:55.480,84.5916,4
4264,4264,2021-01-22 12:51:25.480,84.448204,4
4274,4274,2021-01-22 12:51:55.480,84.41295,4
4284,4284,2021-01-22 12:52:25.480,84.38139,4
4294,4294,2021-01-22 12:52:55.480,84.3989,4
4304,4304,2021-01-22 12:53:25.480,84.51427,4
4314,4314,2021-01-22 12:53:55.480,84.574104,4
4324,4324,2021-01-22 12:54:25.480,85.15338,4
4334,4334,2021-01-22 12:54:55.480,85.61113,4
4344,4344,2021-01-22 12:55:25.480,85.803024,4
4354,4354,2021-01-22 12:55:55.480,83.99879,4
4364,4364,2021-01-22 12:56:25.480,83.63261,4
4374,4374,2021-01-22 12:56:55.480,82.845146,4
4384,4384,2021-01-22 12:57:25.480,83.44383,4
4394,4394,2021-01-22 12:57:55.480,83.66112,4
4404,4404,2021-01-22 12:58:25.480,83.05238,4
4414,4414,2021-01-22 12:58:55.480,83.06882,4
4424,4424,2021-01-22 12:59:25.480,83.127785,4
4434,4434,2021-01-22 12:59:55.480,83.15085,4
4444,4444,2021-01-22 13:00:25.480,83.20468000000001,4
4454,4454,2021-01-22 13:00:55.480,83.25153,4
4464,4464,2021-01-22 13:01:25.480,83.66436,4
4474,4474,2021-01-22 13:01:55.480,83.77129000000001,4
4484,4484,2021-01-22 13:02:25.480,83.77115,4
4494,4494,2021-01-22 13:02:55.480,83.60047,4
4504,4504,2021-01-22 13:03:25.480,83.5584,4
4514,4514,2021-01-22 13:03:55.480,83.59154000000001,4
4524,4524,2021-01-22 13:04:25.480,83.74705,4
4534,4534,2021-01-22 13:04:55.480,83.77735,4
4544,4544,2021-01-22 13:05:25.480,83.80095,4
4554,4554,2021-01-22 13:05:55.480,83.89516400000001,4
4564,4564,2021-01-22 13:06:25.480,84.07179000000001,4
4574,4574,2021-01-22 13:06:55.480,84.082985,4
4584,4584,2021-01-22 13:07:25.480,84.17407,4
4594,4594,2021-01-22 13:07:55.480,84.2961,4
4604,4604,2021-01-22 13:08:25.480,84.42304,4
4614,4614,2021-01-22 13:08:55.480,84.69423,4
4624,4624,2021-01-22 13:09:25.480,84.62645,4
4634,4634,2021-01-22 13:09:55.480,84.79456,4
4644,4644,2021-01-22 13:10:25.480,83.78242,4
4654,4654,2021-01-22 13:10:55.480,82.743095,4
4664,4664,2021-01-22 13:11:25.480,82.802216,4
4674,4674,2021-01-22 13:11:55.480,82.93301,4
4684,4684,2021-01-22 13:12:25.480,82.94718,4
4694,4694,2021-01-22 13:12:55.480,83.08235,4
4704,4704,2021-01-22 13:13:25.480,83.17361,4
4714,4714,2021-01-22 13:13:55.480,83.3147,4
4724,4724,2021-01-22 13:14:25.480,83.30386999999999,4
4734,4734,2021-01-22 13:14:55.480,83.27508,4
4744,4744,2021-01-22 13:15:25.480,83.64203,4
4754,4754,2021-01-22 13:15:55.480,83.58771999999999,4
4764,4764,2021-01-22 13:16:25.480,83.614426,4
4774,4774,2021-01-22 13:16:55.480,83.59796,4
4784,4784,2021-01-22 13:17:25.480,83.511154,4
4794,4794,2021-01-22 13:17:55.480,83.42909,4
4804,4804,2021-01-22 13:18:25.480,83.357796,4
4814,4814,2021-01-22 13:18:55.480,83.35095,4
4824,4824,2021-01-22 13:19:25.480,83.48229,4
4834,4834,2021-01-22 13:19:55.480,83.68369,4
4844,4844,2021-01-22 13:20:25.480,83.8875,4
4854,4854,2021-01-22 13:20:55.480,83.78488,4
4864,4864,2021-01-22 13:21:25.480,83.76941,4
4874,4874,2021-01-22 13:21:55.480,83.79466,4
4884,4884,2021-01-22 13:22:25.480,83.85037,4
4894,4894,2021-01-22 13:22:55.480,83.86587,4
4904,4904,2021-01-22 13:23:25.480,83.90259,4
4914,4914,2021-01-22 13:23:55.480,82.10873000000001,4
4924,4924,2021-01-22 13:24:25.480,81.96686,4
4934,4934,2021-01-22 13:24:55.480,81.73865,4
4944,4944,2021-01-22 13:25:25.480,81.79088,4
4954,4954,2021-01-22 13:25:55.480,82.03408,4
4964,4964,2021-01-22 13:26:25.480,82.04099000000001,4
4974,4974,2021-01-22 13:26:55.480,82.09233,4
4984,4984,2021-01-22 13:27:25.480,82.13619,4
4994,4994,2021-01-22 13:27:55.480,82.196945,4
5004,5004,2021-01-22 13:28:25.480,82.19708,4
5014,5014,2021-01-22 13:28:55.480,82.111244,4
5024,5024,2021-01-22 13:29:25.480,82.11726,4
5034,5034,2021-01-22 13:29:55.480,82.419044,4
5044,5044,2021-01-22 13:30:25.480,82.47691999999999,4
5054,5054,2021-01-22 13:30:55.480,82.44054399999999,4
5064,5064,2021-01-22 13:31:25.480,82.54825600000001,4
5074,5074,2021-01-22 13:31:55.480,82.65066,4
5084,5084,2021-01-22 13:32:25.480,82.67039,4
5094,5094,2021-01-22 13:32:55.480,82.7399,4
5104,5104,2021-01-22 13:33:25.480,82.77144,4
5114,5114,2021-01-22 13:33:55.480,82.73614,4
5124,5124,2021-01-22 13:34:25.480,82.77196500000001,4
5134,5134,2021-01-22 13:34:55.480,82.69299000000001,4
5144,5144,2021-01-22 13:35:25.480,82.73931,4
5154,5154,2021-01-22 13:35:55.480,81.12001,4
5164,5164,2021-01-22 13:36:25.480,81.003174,4
5174,5174,2021-01-22 13:36:55.480,80.93346,4
5184,5184,2021-01-22 13:37:25.480,80.851425,4
5194,5194,2021-01-22 13:37:55.480,81.088196,4
5204,5204,2021-01-22 13:38:25.480,81.00299,4
5214,5214,2021-01-22 13:38:55.480,81.02218,4
5224,5224,2021-01-22 13:39:25.480,80.9915,4
5234,5234,2021-01-22 13:39:55.480,81.14053,4
5244,5244,2021-01-22 13:40:25.480,81.14873,4
5254,5254,2021-01-22 13:40:55.480,81.027855,4
5264,5264,2021-01-22 13:41:25.480,81.105194,4
5274,5274,2021-01-22 13:41:55.480,81.03254,4
5284,5284,2021-01-22 13:42:25.480,81.05688,4
5294,5294,2021-01-22 13:42:55.480,81.12649,4
5304,5304,2021-01-22 13:43:25.480,81.22187,4
5314,5314,2021-01-22 13:43:55.480,81.34037,4
5324,5324,2021-01-22 13:44:25.480,81.36173000000001,4
5334,5334,2021-01-22 13:44:55.480,81.31145500000001,4
5344,5344,2021-01-22 13:45:25.480,81.24436,4
5354,5354,2021-01-22 13:45:55.480,81.17992,4
5364,5364,2021-01-22 13:46:25.480,81.48608399999999,4
5374,5374,2021-01-22 13:46:55.480,81.654526,4
5384,5384,2021-01-22 13:47:25.480,81.64036,4
5394,5394,2021-01-22 13:47:55.480,81.67764,4
5404,5404,2021-01-22 13:48:25.480,79.18498000000001,4
5414,5414,2021-01-22 13:48:55.480,78.08871500000001,4
5424,5424,2021-01-22 13:49:25.480,78.09492,4
5434,5434,2021-01-22 13:49:55.480,78.51545,4
5444,5444,2021-01-22 13:50:25.480,78.593254,4
5454,5454,2021-01-22 13:50:55.480,78.72278,4
5464,5464,2021-01-22 13:51:25.480,78.88359,4
5474,5474,2021-01-22 13:51:55.480,78.83025,4
5484,5484,2021-01-22 13:52:25.480,78.86431999999999,4
5494,5494,2021-01-22 13:52:55.480,78.882614,4
5504,5504,2021-01-22 13:53:25.480,78.905,4
5514,5514,2021-01-22 13:53:55.480,78.95913,4
5524,5524,2021-01-22 13:54:25.480,78.910126,4
5534,5534,2021-01-22 13:54:55.480,78.905304,4
5544,5544,2021-01-22 13:55:25.480,79.09448,4
5554,5554,2021-01-22 13:55:55.480,79.10813,4
5564,5564,2021-01-22 13:56:25.480,78.96429,4
5574,5574,2021-01-22 13:56:55.480,79.016335,4
5584,5584,2021-01-22 13:57:25.480,78.94141,4
5594,5594,2021-01-22 13:57:55.480,78.63558,4
5604,5604,2021-01-22 13:58:25.480,78.26520500000001,4
5614,5614,2021-01-22 13:58:55.480,78.89289000000001,4
5624,5624,2021-01-22 13:59:25.480,79.28806,4
5634,5634,2021-01-22 13:59:55.480,79.243195,4
5644,5644,2021-01-22 14:00:25.480,77.30561999999999,4
5654,5654,2021-01-22 14:00:55.480,77.34609,4
5664,5664,2021-01-22 14:01:25.480,77.13435,4
5674,5674,2021-01-22 14:01:55.480,76.92019,4
5684,5684,2021-01-22 14:02:25.480,76.977356,4
5694,5694,2021-01-22 14:02:55.480,76.81996,4
5704,5704,2021-01-22 14:03:25.480,76.93491,4
5714,5714,2021-01-22 14:03:55.480,76.91829,4
5724,5724,2021-01-22 14:04:25.480,77.0446,4
5734,5734,2021-01-22 14:04:55.480,76.94795,4
5744,5744,2021-01-22 14:05:25.480,76.89801999999999,4
5754,5754,2021-01-22 14:05:55.480,77.010254,4
5764,5764,2021-01-22 14:06:25.480,76.95611600000001,4
5774,5774,2021-01-22 14:06:55.480,77.025185,4
5784,5784,2021-01-22 14:07:25.480,77.10812,4
5794,5794,2021-01-22 14:07:55.480,77.40429,4
5804,5804,2021-01-22 14:08:25.480,77.31959,4
5814,5814,2021-01-22 14:08:55.480,77.44636,4
5824,5824,2021-01-22 14:09:25.480,77.403336,4
5834,5834,2021-01-22 14:09:55.480,77.09569499999999,4
5844,5844,2021-01-22 14:10:25.480,76.86668399999999,4
5854,5854,2021-01-22 14:10:55.480,77.196754,4
5864,5864,2021-01-22 14:11:25.480,76.36316,4
5874,5874,2021-01-22 14:11:55.480,76.06043000000001,4
5884,5884,2021-01-22 14:12:25.480,76.1643,4
5894,5894,2021-01-22 14:12:55.480,75.93513,4
5904,5904,2021-01-22 14:13:25.480,75.99361,4
5914,5914,2021-01-22 14:13:55.480,76.42804,4
5924,5924,2021-01-22 14:14:25.480,76.38515,4
5934,5934,2021-01-22 14:14:55.480,76.00321,4
5944,5944,2021-01-22 14:15:25.480,76.09065,4
5954,5954,2021-01-22 14:15:55.480,76.26307,4
5964,5964,2021-01-22 14:16:25.480,76.20179,4
5974,5974,2021-01-22 14:16:55.480,76.078926,4
5984,5984,2021-01-22 14:17:25.480,76.00103,4
5994,5994,2021-01-22 14:17:55.480,76.43238000000001,4
6004,6004,2021-01-22 14:18:25.480,76.40933000000001,4
6014,6014,2021-01-22 14:18:55.480,76.28553000000001,4
6024,6024,2021-01-22 14:19:25.480,76.19269,4
6034,6034,2021-01-22 14:19:55.480,76.14464,4
6044,6044,2021-01-22 14:20:25.480,76.179115,4
6054,6054,2021-01-22 14:20:55.480,76.27219000000001,4
6064,6064,2021-01-22 14:21:25.480,76.31428000000001,4
6074,6074,2021-01-22 14:21:55.480,76.57049599999999,4
6084,6084,2021-01-22 14:22:25.480,75.293144,4
6094,6094,2021-01-22 14:22:55.480,74.99365,4
6104,6104,2021-01-22 14:23:25.480,75.009384,4
6114,6114,2021-01-22 14:23:55.480,74.919876,4
6124,6124,2021-01-22 14:24:25.480,74.989174,4
6134,6134,2021-01-22 14:24:55.480,75.215645,4
6144,6144,2021-01-22 14:25:25.480,75.18154,4
6154,6154,2021-01-22 14:25:55.480,75.13604000000001,4
6164,6164,2021-01-22 14:26:25.480,75.18149,4
6174,6174,2021-01-22 14:26:55.480,75.245804,4
6184,6184,2021-01-22 14:27:25.480,75.08861,4
6194,6194,2021-01-22 14:27:55.480,74.92432,4
6204,6204,2021-01-22 14:28:25.480,74.95906,4
6214,6214,2021-01-22 14:28:55.480,75.4139,4
6224,6224,2021-01-22 14:29:25.480,75.39137,4
6234,6234,2021-01-22 14:29:55.480,75.21374,4
6244,6244,2021-01-22 14:30:25.480,75.07664,4
6254,6254,2021-01-22 14:30:55.480,75.15974399999999,4
6264,6264,2021-01-22 14:31:25.480,75.23134,4
6274,6274,2021-01-22 14:31:55.480,75.44669,4
6284,6284,2021-01-22 14:32:25.480,73.48589,4
6294,6294,2021-01-22 14:32:55.480,73.21765,4
6304,6304,2021-01-22 14:33:25.480,73.227,4
6314,6314,2021-01-22 14:33:55.480,72.9544,4
6324,6324,2021-01-22 14:34:25.480,73.09252,4
6334,6334,2021-01-22 14:34:55.480,73.221695,4
6344,6344,2021-01-22 14:35:25.480,73.33408,4
6354,6354,2021-01-22 14:35:55.480,73.24225,4
6364,6364,2021-01-22 14:36:25.480,73.146194,4
6374,6374,2021-01-22 14:36:55.480,73.33912,4
6384,6384,2021-01-22 14:37:25.480,73.217575,4
6394,6394,2021-01-22 14:37:55.480,73.58053000000001,4
6404,6404,2021-01-22 14:38:25.480,73.645645,4
6414,6414,2021-01-22 14:38:55.480,73.5205,4
6424,6424,2021-01-22 14:39:25.480,73.43106999999999,4
6434,6434,2021-01-22 14:39:55.480,73.40897,4
6444,6444,2021-01-22 14:40:25.480,73.394035,4
6454,6454,2021-01-22 14:40:55.480,73.467354,4
6464,6464,2021-01-22 14:41:25.480,73.558174,4
6474,6474,2021-01-22 14:41:55.480,72.58270999999999,4
6484,6484,2021-01-22 14:42:25.480,72.37076,4
6494,6494,2021-01-22 14:42:55.480,72.513275,4
6504,6504,2021-01-22 14:43:25.480,72.37974,4
6514,6514,2021-01-22 14:43:55.480,72.17596,4
6524,6524,2021-01-22 14:44:25.480,72.33837,4
6534,6534,2021-01-22 14:44:55.480,72.53599,4
6544,6544,2021-01-22 14:45:25.480,72.47328,4
6554,6554,2021-01-22 14:45:55.480,72.43215,4
6564,6564,2021-01-22 14:46:25.480,72.03719,4
6574,6574,2021-01-22 14:46:55.480,72.16428,4
6584,6584,2021-01-22 14:47:25.480,72.40624,4
6594,6594,2021-01-22 14:47:55.480,72.54527,4
6604,6604,2021-01-22 14:48:25.480,72.56396,4
6614,6614,2021-01-22 14:48:55.480,72.40512,4
6624,6624,2021-01-22 14:49:25.480,72.28175999999999,4
6634,6634,2021-01-22 14:49:55.480,72.26128,4
6644,6644,2021-01-22 14:50:25.480,72.277596,4
6654,6654,2021-01-22 14:50:55.480,72.341255,4
6664,6664,2021-01-22 14:51:25.480,70.5264,4
6674,6674,2021-01-22 14:51:55.480,70.17229499999999,4
6684,6684,2021-01-22 14:52:25.480,70.28703,4
6694,6694,2021-01-22 14:52:55.480,70.7184,4
6704,6704,2021-01-22 14:53:25.480,70.79432,4
6714,6714,2021-01-22 14:53:55.480,70.327446,4
6724,6724,2021-01-22 14:54:25.480,70.556076,4
6734,6734,2021-01-22 14:54:55.480,70.89458,4
6744,6744,2021-01-22 14:55:25.480,70.8486,4
6754,6754,2021-01-22 14:55:55.480,70.84954,4
6764,6764,2021-01-22 14:56:25.480,70.92654399999999,4
6774,6774,2021-01-22 14:56:55.480,70.743416,4
6784,6784,2021-01-22 14:57:25.480,70.73435,4
6794,6794,2021-01-22 14:57:55.480,70.75974000000001,4
6804,6804,2021-01-22 14:58:25.480,70.79624,4
6814,6814,2021-01-22 14:58:55.480,70.7436,4
6824,6824,2021-01-22 14:59:25.480,70.53139,4
6834,6834,2021-01-22 14:59:55.480,70.8432,4
6844,6844,2021-01-22 15:00:25.480,70.95604,4
6854,6854,2021-01-22 15:00:55.480,70.32146999999999,4
6864,6864,2021-01-22 15:01:25.480,70.07528,4
6874,6874,2021-01-22 15:01:55.480,70.31418000000001,4
6884,6884,2021-01-22 15:02:25.480,70.19875,4
6894,6894,2021-01-22 15:02:55.480,70.08049,4
6904,6904,2021-01-22 15:03:25.480,70.14825400000001,4
6914,6914,2021-01-22 15:03:55.480,70.058136,4
6924,6924,2021-01-22 15:04:25.480,70.17243,4
6934,6934,2021-01-22 15:04:55.480,70.067474,4
6944,6944,2021-01-22 15:05:25.480,69.72036999999999,4
6954,6954,2021-01-22 15:05:55.480,69.89508000000001,4
6964,6964,2021-01-22 15:06:25.480,69.98311600000001,4
6974,6974,2021-01-22 15:06:55.480,69.987045,4
6984,6984,2021-01-22 15:07:25.480,69.946205,4
6994,6994,2021-01-22 15:07:55.480,69.47148,4
7004,7004,2021-01-22 15:08:25.480,69.46271999999999,4
7014,7014,2021-01-22 15:08:55.480,68.486855,4
7024,7024,2021-01-22 15:09:25.480,68.084724,4
7034,7034,2021-01-22 15:09:55.480,67.91323,4
7044,7044,2021-01-22 15:10:25.480,67.54879,4
7054,7054,2021-01-22 15:10:55.480,67.29724,4
7064,7064,2021-01-22 15:11:25.480,66.99336,4
7074,7074,2021-01-22 15:11:55.480,66.99494,4
7084,7084,2021-01-22 15:12:25.480,67.004074,4
7094,7094,2021-01-22 15:12:55.480,66.991936,4
7104,7104,2021-01-22 15:13:25.480,67.564285,4
7114,7114,2021-01-22 15:13:55.480,68.27656999999999,4
7124,7124,2021-01-22 15:14:25.480,68.57906,4
7134,7134,2021-01-22 15:14:55.480,68.68212,4
7144,7144,2021-01-22 15:15:25.480,68.77582,4
7154,7154,2021-01-22 15:15:55.480,68.56742,4
7164,7164,2021-01-22 15:16:25.480,68.49948,4
7174,7174,2021-01-22 15:16:55.480,68.38079,4
7184,7184,2021-01-22 15:17:25.480,68.29751,4
7194,7194,2021-01-22 15:17:55.480,68.2075,4
7204,7204,2021-01-22 15:18:25.480,68.06565,4
7214,7214,2021-01-22 15:18:55.480,67.95322,4
7224,7224,2021-01-22 15:19:25.480,67.89964,4
7234,7234,2021-01-22 15:19:55.480,67.7897,4
7244,7244,2021-01-22 15:20:25.480,67.51441,4
7254,7254,2021-01-22 15:20:55.480,67.56156999999999,4
7264,7264,2021-01-22 15:21:25.480,67.48769,4
7274,7274,2021-01-22 15:21:55.480,67.56985999999999,4
7284,7284,2021-01-22 15:22:25.480,67.681625,4
7294,7294,2021-01-22 15:22:55.480,65.975815,4
7304,7304,2021-01-22 15:23:25.480,65.85386,4
7314,7314,2021-01-22 15:23:55.480,65.8545,4
7324,7324,2021-01-22 15:24:25.480,65.80385,4
7334,7334,2021-01-22 15:24:55.480,65.80250500000001,4
7344,7344,2021-01-22 15:25:25.480,65.26087,4
7354,7354,2021-01-22 15:25:55.480,65.04164,4
7364,7364,2021-01-22 15:26:25.480,64.781166,4
7374,7374,2021-01-22 15:26:55.480,64.93526,4
7384,7384,2021-01-22 15:27:25.480,64.52169,4
7394,7394,2021-01-22 15:27:55.480,64.350235,4
7404,7404,2021-01-22 15:28:25.480,64.70476,4
7414,7414,2021-01-22 15:28:55.480,65.56182,4
7424,7424,2021-01-22 15:29:25.480,65.8715,4
7434,7434,2021-01-22 15:29:55.480,65.47001,4
7444,7444,2021-01-22 15:30:25.480,65.76773,4
7454,7454,2021-01-22 15:30:55.480,65.67473000000001,4
7464,7464,2021-01-22 15:31:25.480,65.24531999999999,4
7474,7474,2021-01-22 15:31:55.480,64.86209000000001,4
7484,7484,2021-01-22 15:32:25.480,63.8362,4
7494,7494,2021-01-22 15:32:55.480,63.521584,4
7504,7504,2021-01-22 15:33:25.480,63.460087,4
7514,7514,2021-01-22 15:33:55.480,63.688618000000005,4
7524,7524,2021-01-22 15:34:25.480,63.44238299999999,4
7534,7534,2021-01-22 15:34:55.480,63.59573,4
7544,7544,2021-01-22 15:35:25.480,62.830112,4
7554,7554,2021-01-22 15:35:55.480,63.044453000000004,4
7564,7564,2021-01-22 15:36:25.480,62.219719999999995,4
7574,7574,2021-01-22 15:36:55.480,62.594840000000005,4
7584,7584,2021-01-22 15:37:25.480,62.439636,4
7594,7594,2021-01-22 15:37:55.480,62.278057,4
7604,7604,2021-01-22 15:38:25.480,62.166306000000006,4
7614,7614,2021-01-22 15:38:55.480,61.93805699999999,4
7624,7624,2021-01-22 15:39:25.480,61.93346999999999,4
7634,7634,2021-01-22 15:39:55.480,61.704655,4
7644,7644,2021-01-22 15:40:25.480,61.94628,4
7654,7654,2021-01-22 15:40:55.480,62.412180000000006,4
7664,7664,2021-01-22 15:41:25.480,62.09435,4
7674,7674,2021-01-22 15:41:55.480,62.338078,4
7684,7684,2021-01-22 15:42:25.480,61.93124,4
7694,7694,2021-01-22 15:42:55.480,61.75035,4
7704,7704,2021-01-22 15:43:25.480,61.539402,4
7714,7714,2021-01-22 15:43:55.480,61.53180699999999,4
7724,7724,2021-01-22 15:44:25.480,61.364243,4
7734,7734,2021-01-22 15:44:55.480,60.687594999999995,4
7744,7744,2021-01-22 15:45:25.480,60.44636,4
7754,7754,2021-01-22 15:45:55.480,60.3511,4
7764,7764,2021-01-22 15:46:25.480,60.624252,4
7774,7774,2021-01-22 15:46:55.480,60.22981600000001,4
7784,7784,2021-01-22 15:47:25.480,60.41315,4
7794,7794,2021-01-22 15:47:55.480,60.463497,4
7804,7804,2021-01-22 15:48:25.480,60.58194,4
7814,7814,2021-01-22 15:48:55.480,60.28625,4
7824,7824,2021-01-22 15:49:25.480,60.16438,4
7834,7834,2021-01-22 15:49:55.480,60.63482,4
7844,7844,2021-01-22 15:50:25.480,59.250786,4
7854,7854,2021-01-22 15:50:55.480,58.838406000000006,4
7864,7864,2021-01-22 15:51:25.480,58.792564,4
7874,7874,2021-01-22 15:51:55.480,58.391383999999995,4
7884,7884,2021-01-22 15:52:25.480,58.330116000000004,4
7894,7894,2021-01-22 15:52:55.480,57.532309999999995,4
7904,7904,2021-01-22 15:53:25.480,57.324943999999995,4
7914,7914,2021-01-22 15:53:55.480,57.63159,4
7924,7924,2021-01-22 15:54:25.480,57.601753,4
7934,7934,2021-01-22 15:54:55.480,57.23089,4
7944,7944,2021-01-22 15:55:25.480,56.43535,4
7954,7954,2021-01-22 15:55:55.480,55.809771999999995,4
7964,7964,2021-01-22 15:56:25.480,55.766552000000004,4
7974,7974,2021-01-22 15:56:55.480,55.76834,4
7984,7984,2021-01-22 15:57:25.480,54.93505,4
7994,7994,2021-01-22 15:57:55.480,53.735302000000004,4
8004,8004,2021-01-22 15:58:25.480,53.950534999999995,4
8014,8014,2021-01-22 15:58:55.480,53.66511,4
8024,8024,2021-01-22 15:59:25.480,53.710667,4
8034,8034,2021-01-22 15:59:55.480,52.541565000000006,4
8044,8044,2021-01-22 16:00:25.480,51.490395,4
8054,8054,2021-01-22 16:00:55.480,50.678005,4
8064,8064,2021-01-22 16:01:25.480,50.59937,4
8074,8074,2021-01-22 16:01:55.480,50.10042,4
8084,8084,2021-01-22 16:02:25.480,49.634696999999996,4
8094,8094,2021-01-22 16:02:55.480,49.297836,4
