,Unnamed: 0,time,prediction,real,step
3815,3815,2021-01-22 12:29:25.480,83.00669,82.0,5
3825,3825,2021-01-22 12:29:55.480,83.33856999999999,83.0,5
3835,3835,2021-01-22 12:30:25.480,83.37827,83.0,5
3845,3845,2021-01-22 12:30:55.480,84.00569,83.0,5
3855,3855,2021-01-22 12:31:25.480,83.71876999999999,83.0,5
3865,3865,2021-01-22 12:31:55.480,83.646805,84.0,5
3875,3875,2021-01-22 12:32:25.480,83.493546,84.0,5
3885,3885,2021-01-22 12:32:55.480,83.81184,84.0,5
3895,3895,2021-01-22 12:33:25.480,83.51951600000001,84.0,5
3905,3905,2021-01-22 12:33:55.480,83.3602,84.0,5
3915,3915,2021-01-22 12:34:25.480,83.21377,84.0,5
3925,3925,2021-01-22 12:34:55.480,84.36535,84.0,5
3935,3935,2021-01-22 12:35:25.480,83.63589,84.0,5
3945,3945,2021-01-22 12:35:55.480,83.48671,85.0,5
3955,3955,2021-01-22 12:36:25.480,83.48065,85.0,5
3965,3965,2021-01-22 12:36:55.480,83.51453000000001,85.0,5
3975,3975,2021-01-22 12:37:25.480,83.56497,85.0,5
3985,3985,2021-01-22 12:37:55.480,83.71495,86.0,5
3995,3995,2021-01-22 12:38:25.480,83.99116500000001,86.0,5
4005,4005,2021-01-22 12:38:55.480,85.08489,86.0,5
4015,4015,2021-01-22 12:39:25.480,84.75152,85.0,5
4025,4025,2021-01-22 12:39:55.480,84.6569,85.0,5
4035,4035,2021-01-22 12:40:25.480,84.60941,84.0,5
4045,4045,2021-01-22 12:40:55.480,84.84059,84.0,5
4055,4055,2021-01-22 12:41:25.480,84.883354,84.0,5
4065,4065,2021-01-22 12:41:55.480,84.93929,84.0,5
4075,4075,2021-01-22 12:42:25.480,84.74264000000001,84.0,5
4085,4085,2021-01-22 12:42:55.480,84.82879,84.0,5
4095,4095,2021-01-22 12:43:25.480,84.4139,84.0,5
4105,4105,2021-01-22 12:43:55.480,84.57095,84.0,5
4115,4115,2021-01-22 12:44:25.480,84.62248000000001,84.0,5
4125,4125,2021-01-22 12:44:55.480,84.60219000000001,84.0,5
4135,4135,2021-01-22 12:45:25.480,84.60927,84.0,5
4145,4145,2021-01-22 12:45:55.480,84.56953,84.0,5
4155,4155,2021-01-22 12:46:25.480,84.46429,84.0,5
4165,4165,2021-01-22 12:46:55.480,84.40692,85.0,5
4175,4175,2021-01-22 12:47:25.480,84.3962,85.0,5
4185,4185,2021-01-22 12:47:55.480,84.39258000000001,85.0,5
4195,4195,2021-01-22 12:48:25.480,84.385925,85.0,5
4205,4205,2021-01-22 12:48:55.480,84.37380999999999,85.0,5
4215,4215,2021-01-22 12:49:25.480,84.30013000000001,85.0,5
4225,4225,2021-01-22 12:49:55.480,84.83053000000001,85.0,5
4235,4235,2021-01-22 12:50:25.480,84.82423399999999,85.0,5
4245,4245,2021-01-22 12:50:55.480,84.857185,85.0,5
4255,4255,2021-01-22 12:51:25.480,84.84928000000001,85.0,5
4265,4265,2021-01-22 12:51:55.480,84.658585,86.0,5
4275,4275,2021-01-22 12:52:25.480,84.45081,86.0,5
4285,4285,2021-01-22 12:52:55.480,84.34877,86.0,5
4295,4295,2021-01-22 12:53:25.480,84.14654499999999,84.0,5
4305,4305,2021-01-22 12:53:55.480,84.159904,84.0,5
4315,4315,2021-01-22 12:54:25.480,84.19440999999999,83.0,5
4325,4325,2021-01-22 12:54:55.480,85.85852,84.0,5
4335,4335,2021-01-22 12:55:25.480,85.650215,84.0,5
4345,4345,2021-01-22 12:55:55.480,85.50746,83.0,5
4355,4355,2021-01-22 12:56:25.480,84.18695,83.0,5
4365,4365,2021-01-22 12:56:55.480,84.04717,83.0,5
4375,4375,2021-01-22 12:57:25.480,83.105644,83.0,5
4385,4385,2021-01-22 12:57:55.480,83.4546,83.0,5
4395,4395,2021-01-22 12:58:25.480,83.643974,83.0,5
4405,4405,2021-01-22 12:58:55.480,83.44858,84.0,5
4415,4415,2021-01-22 12:59:25.480,83.47137,84.0,5
4425,4425,2021-01-22 12:59:55.480,83.55089,84.0,5
4435,4435,2021-01-22 13:00:25.480,83.58044,84.0,5
4445,4445,2021-01-22 13:00:55.480,83.56943000000001,84.0,5
4455,4455,2021-01-22 13:01:25.480,83.56737,84.0,5
4465,4465,2021-01-22 13:01:55.480,84.14683000000001,84.0,5
4475,4475,2021-01-22 13:02:25.480,84.258064,84.0,5
4485,4485,2021-01-22 13:02:55.480,84.31019599999999,84.0,5
4495,4495,2021-01-22 13:03:25.480,84.31875,85.0,5
4505,4505,2021-01-22 13:03:55.480,84.31644399999999,85.0,5
4515,4515,2021-01-22 13:04:25.480,84.316505,85.0,5
4525,4525,2021-01-22 13:04:55.480,84.29069,85.0,5
4535,4535,2021-01-22 13:05:25.480,84.25291999999999,85.0,5
4545,4545,2021-01-22 13:05:55.480,84.20894,85.0,5
4555,4555,2021-01-22 13:06:25.480,84.91691999999999,85.0,5
4565,4565,2021-01-22 13:06:55.480,84.705475,85.0,5
4575,4575,2021-01-22 13:07:25.480,84.61081999999999,85.0,5
4585,4585,2021-01-22 13:07:55.480,84.559044,84.0,5
4595,4595,2021-01-22 13:08:25.480,84.49394000000001,83.0,5
4605,4605,2021-01-22 13:08:55.480,84.44626,83.0,5
4615,4615,2021-01-22 13:09:25.480,84.41556,83.0,5
4625,4625,2021-01-22 13:09:55.480,84.407166,83.0,5
4635,4635,2021-01-22 13:10:25.480,84.33766,83.0,5
4645,4645,2021-01-22 13:10:55.480,83.50421,83.0,5
4655,4655,2021-01-22 13:11:25.480,83.03791,83.0,5
4665,4665,2021-01-22 13:11:55.480,83.08371,83.0,5
4675,4675,2021-01-22 13:12:25.480,83.27416,83.0,5
4685,4685,2021-01-22 13:12:55.480,83.389725,84.0,5
4695,4695,2021-01-22 13:13:25.480,83.368256,84.0,5
4705,4705,2021-01-22 13:13:55.480,83.381325,84.0,5
4715,4715,2021-01-22 13:14:25.480,83.38999,84.0,5
4725,4725,2021-01-22 13:14:55.480,83.39572,84.0,5
4735,4735,2021-01-22 13:15:25.480,83.39964,84.0,5
4745,4745,2021-01-22 13:15:55.480,84.004745,84.0,5
4755,4755,2021-01-22 13:16:25.480,84.04852,84.0,5
4765,4765,2021-01-22 13:16:55.480,84.05682,84.0,5
4775,4775,2021-01-22 13:17:25.480,84.0478,84.0,5
4785,4785,2021-01-22 13:17:55.480,84.03028,84.0,5
4795,4795,2021-01-22 13:18:25.480,84.0057,84.0,5
4805,4805,2021-01-22 13:18:55.480,83.923805,84.0,5
4815,4815,2021-01-22 13:19:25.480,83.81305,84.0,5
4825,4825,2021-01-22 13:19:55.480,83.68193000000001,84.0,5
4835,4835,2021-01-22 13:20:25.480,83.509796,84.0,5
4845,4845,2021-01-22 13:20:55.480,83.33081999999999,84.0,5
4855,4855,2021-01-22 13:21:25.480,83.03737,82.0,5
4865,4865,2021-01-22 13:21:55.480,82.784775,82.0,5
4875,4875,2021-01-22 13:22:25.480,82.61949,82.0,5
4885,4885,2021-01-22 13:22:55.480,82.53539,82.0,5
4895,4895,2021-01-22 13:23:25.480,82.50949,82.0,5
4905,4905,2021-01-22 13:23:55.480,82.52461,82.0,5
4915,4915,2021-01-22 13:24:25.480,82.00121999999999,82.0,5
4925,4925,2021-01-22 13:24:55.480,81.9227,82.0,5
4935,4935,2021-01-22 13:25:25.480,81.94337,82.0,5
4945,4945,2021-01-22 13:25:55.480,82.0936,82.0,5
4955,4955,2021-01-22 13:26:25.480,82.15978,82.0,5
4965,4965,2021-01-22 13:26:55.480,82.205574,82.0,5
4975,4975,2021-01-22 13:27:25.480,82.31179,83.0,5
4985,4985,2021-01-22 13:27:55.480,82.32531,83.0,5
4995,4995,2021-01-22 13:28:25.480,82.327065,83.0,5
5005,5005,2021-01-22 13:28:55.480,82.31294,83.0,5
5015,5015,2021-01-22 13:29:25.480,82.35348,83.0,5
5025,5025,2021-01-22 13:29:55.480,82.43696,83.0,5
5035,5035,2021-01-22 13:30:25.480,83.04996,83.0,5
5045,5045,2021-01-22 13:30:55.480,83.05251,83.0,5
5055,5055,2021-01-22 13:31:25.480,83.01968000000001,83.0,5
5065,5065,2021-01-22 13:31:55.480,82.87451,83.0,5
5075,5075,2021-01-22 13:32:25.480,82.0601,83.0,5
5085,5085,2021-01-22 13:32:55.480,81.20639,83.0,5
5095,5095,2021-01-22 13:33:25.480,81.026924,81.0,5
5105,5105,2021-01-22 13:33:55.480,80.98011,81.0,5
5115,5115,2021-01-22 13:34:25.480,80.9712,81.0,5
5125,5125,2021-01-22 13:34:55.480,80.98106999999999,81.0,5
5135,5135,2021-01-22 13:35:25.480,81.00350999999999,81.0,5
5145,5145,2021-01-22 13:35:55.480,81.036644,81.0,5
5155,5155,2021-01-22 13:36:25.480,80.86835,81.0,5
5165,5165,2021-01-22 13:36:55.480,81.113716,81.0,5
5175,5175,2021-01-22 13:37:25.480,81.170456,81.0,5
5185,5185,2021-01-22 13:37:55.480,81.07706999999999,81.0,5
5195,5195,2021-01-22 13:38:25.480,81.08623,81.0,5
5205,5205,2021-01-22 13:38:55.480,81.05573000000001,81.0,5
5215,5215,2021-01-22 13:39:25.480,81.191536,81.0,5
5225,5225,2021-01-22 13:39:55.480,81.26068000000001,81.0,5
5235,5235,2021-01-22 13:40:25.480,81.32053,81.0,5
5245,5245,2021-01-22 13:40:55.480,81.40984,81.0,5
5255,5255,2021-01-22 13:41:25.480,81.410995,81.0,5
5265,5265,2021-01-22 13:41:55.480,81.36946,81.0,5
5275,5275,2021-01-22 13:42:25.480,81.29719,81.0,5
5285,5285,2021-01-22 13:42:55.480,81.19629,81.0,5
5295,5295,2021-01-22 13:43:25.480,81.138176,81.0,5
5305,5305,2021-01-22 13:43:55.480,81.05445999999999,82.0,5
5315,5315,2021-01-22 13:44:25.480,80.76738,82.0,5
5325,5325,2021-01-22 13:44:55.480,80.31488,82.0,5
5335,5335,2021-01-22 13:45:25.480,80.00917,82.0,5
5345,5345,2021-01-22 13:45:55.480,79.866875,79.0,5
5355,5355,2021-01-22 13:46:25.480,79.79500999999999,78.0,5
5365,5365,2021-01-22 13:46:55.480,79.576195,78.0,5
5375,5375,2021-01-22 13:47:25.480,79.523735,79.0,5
5385,5385,2021-01-22 13:47:55.480,79.566154,79.0,5
5395,5395,2021-01-22 13:48:25.480,79.67593000000001,79.0,5
5405,5405,2021-01-22 13:48:55.480,79.04595,79.0,5
5415,5415,2021-01-22 13:49:25.480,78.78602,79.0,5
5425,5425,2021-01-22 13:49:55.480,78.58412,79.0,5
5435,5435,2021-01-22 13:50:25.480,78.87046,79.0,5
5445,5445,2021-01-22 13:50:55.480,78.943405,79.0,5
5455,5455,2021-01-22 13:51:25.480,78.968376,79.0,5
5465,5465,2021-01-22 13:51:55.480,79.111176,79.0,5
5475,5475,2021-01-22 13:52:25.480,79.2758,79.0,5
5485,5485,2021-01-22 13:52:55.480,79.33139,79.0,5
5495,5495,2021-01-22 13:53:25.480,79.46064,79.0,5
5505,5505,2021-01-22 13:53:55.480,79.36672,79.0,5
5515,5515,2021-01-22 13:54:25.480,79.25255,79.0,5
5525,5525,2021-01-22 13:54:55.480,79.17619,79.0,5
5535,5535,2021-01-22 13:55:25.480,79.0908,79.0,5
5545,5545,2021-01-22 13:55:55.480,78.8738,79.0,5
5555,5555,2021-01-22 13:56:25.480,77.71386,80.0,5
5565,5565,2021-01-22 13:56:55.480,77.430695,80.0,5
5575,5575,2021-01-22 13:57:25.480,77.32595,80.0,5
5585,5585,2021-01-22 13:57:55.480,77.25124,77.0,5
5595,5595,2021-01-22 13:58:25.480,77.16439,77.0,5
5605,5605,2021-01-22 13:58:55.480,77.06737,77.0,5
5615,5615,2021-01-22 13:59:25.480,76.809235,77.0,5
5625,5625,2021-01-22 13:59:55.480,76.717285,77.0,5
5635,5635,2021-01-22 14:00:25.480,76.69279,77.0,5
5645,5645,2021-01-22 14:00:55.480,76.85871999999999,77.0,5
5655,5655,2021-01-22 14:01:25.480,77.08332,77.0,5
5665,5665,2021-01-22 14:01:55.480,77.15316999999999,77.0,5
5675,5675,2021-01-22 14:02:25.480,77.01436,77.0,5
5685,5685,2021-01-22 14:02:55.480,77.0022,77.0,5
5695,5695,2021-01-22 14:03:25.480,77.079636,77.0,5
5705,5705,2021-01-22 14:03:55.480,77.09534000000001,77.0,5
5715,5715,2021-01-22 14:04:25.480,77.17872,77.0,5
5725,5725,2021-01-22 14:04:55.480,77.27687,77.0,5
5735,5735,2021-01-22 14:05:25.480,77.31257,78.0,5
5745,5745,2021-01-22 14:05:55.480,77.45877,78.0,5
5755,5755,2021-01-22 14:06:25.480,77.49037,78.0,5
5765,5765,2021-01-22 14:06:55.480,77.41660999999999,78.0,5
5775,5775,2021-01-22 14:07:25.480,77.29979,78.0,5
5785,5785,2021-01-22 14:07:55.480,77.178894,78.0,5
5795,5795,2021-01-22 14:08:25.480,75.83529,78.0,5
5805,5805,2021-01-22 14:08:55.480,75.55,76.0,5
5815,5815,2021-01-22 14:09:25.480,75.56940999999999,76.0,5
5825,5825,2021-01-22 14:09:55.480,75.55856999999999,76.0,5
5835,5835,2021-01-22 14:10:25.480,75.36092,76.0,5
5845,5845,2021-01-22 14:10:55.480,75.25643000000001,76.0,5
5855,5855,2021-01-22 14:11:25.480,75.249954,76.0,5
5865,5865,2021-01-22 14:11:55.480,75.82875,76.0,5
5875,5875,2021-01-22 14:12:25.480,75.95291,76.0,5
5885,5885,2021-01-22 14:12:55.480,76.11672,76.0,5
5895,5895,2021-01-22 14:13:25.480,76.30854000000001,76.0,5
5905,5905,2021-01-22 14:13:55.480,76.38734000000001,76.0,5
5915,5915,2021-01-22 14:14:25.480,76.37465999999999,76.0,5
5925,5925,2021-01-22 14:14:55.480,76.304794,76.0,5
5935,5935,2021-01-22 14:15:25.480,76.180695,77.0,5
5945,5945,2021-01-22 14:15:55.480,76.262886,77.0,5
5955,5955,2021-01-22 14:16:25.480,76.326225,77.0,5
5965,5965,2021-01-22 14:16:55.480,76.29771,77.0,5
5975,5975,2021-01-22 14:17:25.480,76.229164,77.0,5
5985,5985,2021-01-22 14:17:55.480,76.172485,77.0,5
5995,5995,2021-01-22 14:18:25.480,75.28454,77.0,5
6005,6005,2021-01-22 14:18:55.480,75.06253000000001,77.0,5
6015,6015,2021-01-22 14:19:25.480,74.90659000000001,77.0,5
6025,6025,2021-01-22 14:19:55.480,74.799545,75.0,5
6035,6035,2021-01-22 14:20:25.480,74.76231,75.0,5
6045,6045,2021-01-22 14:20:55.480,74.75505,75.0,5
6055,6055,2021-01-22 14:21:25.480,74.74857,75.0,5
6065,6065,2021-01-22 14:21:55.480,74.74225,75.0,5
6075,6075,2021-01-22 14:22:25.480,74.74051999999999,75.0,5
6085,6085,2021-01-22 14:22:55.480,74.83276,75.0,5
6095,6095,2021-01-22 14:23:25.480,75.04515,75.0,5
6105,6105,2021-01-22 14:23:55.480,75.11147,75.0,5
6115,6115,2021-01-22 14:24:25.480,75.20894,75.0,5
6125,6125,2021-01-22 14:24:55.480,75.23807,75.0,5
6135,6135,2021-01-22 14:25:25.480,75.14421,75.0,5
6145,6145,2021-01-22 14:25:55.480,75.15065,75.0,5
6155,6155,2021-01-22 14:26:25.480,75.17905400000001,76.0,5
6165,6165,2021-01-22 14:26:55.480,75.271355,76.0,5
6175,6175,2021-01-22 14:27:25.480,75.34533,76.0,5
6185,6185,2021-01-22 14:27:55.480,75.320755,76.0,5
6195,6195,2021-01-22 14:28:25.480,75.24894,76.0,5
6205,6205,2021-01-22 14:28:55.480,75.188614,76.0,5
6215,6215,2021-01-22 14:29:25.480,74.17341,76.0,5
6225,6225,2021-01-22 14:29:55.480,74.00960500000001,73.0,5
6235,6235,2021-01-22 14:30:25.480,73.79032,73.0,5
6245,6245,2021-01-22 14:30:55.480,73.68946,73.0,5
6255,6255,2021-01-22 14:31:25.480,73.652596,73.0,5
6265,6265,2021-01-22 14:31:55.480,73.643196,73.0,5
6275,6275,2021-01-22 14:32:25.480,73.63832,73.0,5
6285,6285,2021-01-22 14:32:55.480,73.057724,73.0,5
6295,6295,2021-01-22 14:33:25.480,73.28818000000001,73.0,5
6305,6305,2021-01-22 14:33:55.480,73.370094,73.0,5
6315,6315,2021-01-22 14:34:25.480,73.34351,73.0,5
6325,6325,2021-01-22 14:34:55.480,73.34773,73.0,5
6335,6335,2021-01-22 14:35:25.480,73.41837,74.0,5
6345,6345,2021-01-22 14:35:55.480,73.35999,74.0,5
6355,6355,2021-01-22 14:36:25.480,73.274124,74.0,5
6365,6365,2021-01-22 14:36:55.480,73.30856999999999,74.0,5
6375,6375,2021-01-22 14:37:25.480,73.34437,74.0,5
6385,6385,2021-01-22 14:37:55.480,73.5118,74.0,5
6395,6395,2021-01-22 14:38:25.480,73.862274,74.0,5
6405,6405,2021-01-22 14:38:55.480,73.52913000000001,74.0,5
6415,6415,2021-01-22 14:39:25.480,72.79137,72.0,5
6425,6425,2021-01-22 14:39:55.480,72.206924,72.0,5
6435,6435,2021-01-22 14:40:25.480,71.82249,72.0,5
6445,6445,2021-01-22 14:40:55.480,71.45232,72.0,5
6455,6455,2021-01-22 14:41:25.480,71.29552,72.0,5
6465,6465,2021-01-22 14:41:55.480,71.19079599999999,72.0,5
6475,6475,2021-01-22 14:42:25.480,71.85560600000001,72.0,5
6485,6485,2021-01-22 14:42:55.480,71.8849,72.0,5
6495,6495,2021-01-22 14:43:25.480,72.031204,72.0,5
6505,6505,2021-01-22 14:43:55.480,72.277275,72.0,5
6515,6515,2021-01-22 14:44:25.480,72.3826,72.0,5
6525,6525,2021-01-22 14:44:55.480,72.42243,73.0,5
6535,6535,2021-01-22 14:45:25.480,72.41068,73.0,5
6545,6545,2021-01-22 14:45:55.480,72.359505,73.0,5
6555,6555,2021-01-22 14:46:25.480,72.30977,73.0,5
6565,6565,2021-01-22 14:46:55.480,72.27314,73.0,5
6575,6575,2021-01-22 14:47:25.480,72.293495,73.0,5
6585,6585,2021-01-22 14:47:55.480,71.69476999999999,73.0,5
6595,6595,2021-01-22 14:48:25.480,71.34277,73.0,5
6605,6605,2021-01-22 14:48:55.480,71.17366,70.0,5
6615,6615,2021-01-22 14:49:25.480,71.02416,70.0,5
6625,6625,2021-01-22 14:49:55.480,70.90349,70.0,5
6635,6635,2021-01-22 14:50:25.480,70.84108,71.0,5
6645,6645,2021-01-22 14:50:55.480,70.81746,71.0,5
6655,6655,2021-01-22 14:51:25.480,70.80566,70.0,5
6665,6665,2021-01-22 14:51:55.480,70.19053000000001,70.0,5
6675,6675,2021-01-22 14:52:25.480,70.306816,71.0,5
6685,6685,2021-01-22 14:52:55.480,70.38074499999999,71.0,5
6695,6695,2021-01-22 14:53:25.480,70.83233,71.0,5
6705,6705,2021-01-22 14:53:55.480,71.050995,71.0,5
6715,6715,2021-01-22 14:54:25.480,70.74253,71.0,5
6725,6725,2021-01-22 14:54:55.480,70.66308000000001,71.0,5
6735,6735,2021-01-22 14:55:25.480,71.00538,71.0,5
6745,6745,2021-01-22 14:55:55.480,71.022194,71.0,5
6755,6755,2021-01-22 14:56:25.480,70.37996,71.0,5
6765,6765,2021-01-22 14:56:55.480,69.69442,71.0,5
6775,6775,2021-01-22 14:57:25.480,69.54933,71.0,5
6785,6785,2021-01-22 14:57:55.480,69.4449,71.0,5
6795,6795,2021-01-22 14:58:25.480,69.34357,70.0,5
6805,6805,2021-01-22 14:58:55.480,69.25303000000001,70.0,5
6815,6815,2021-01-22 14:59:25.480,69.15771,70.0,5
6825,6825,2021-01-22 14:59:55.480,69.04386,70.0,5
6835,6835,2021-01-22 15:00:25.480,68.91126,70.0,5
6845,6845,2021-01-22 15:00:55.480,68.824715,70.0,5
6855,6855,2021-01-22 15:01:25.480,69.64621,70.0,5
6865,6865,2021-01-22 15:01:55.480,69.79245999999999,70.0,5
6875,6875,2021-01-22 15:02:25.480,70.04046,70.0,5
6885,6885,2021-01-22 15:02:55.480,70.16853,70.0,5
6895,6895,2021-01-22 15:03:25.480,70.14038000000001,70.0,5
6905,6905,2021-01-22 15:03:55.480,70.044304,70.0,5
6915,6915,2021-01-22 15:04:25.480,69.84366,70.0,5
6925,6925,2021-01-22 15:04:55.480,69.615875,70.0,5
6935,6935,2021-01-22 15:05:25.480,69.53293599999999,69.0,5
6945,6945,2021-01-22 15:05:55.480,69.68581,69.0,5
6955,6955,2021-01-22 15:06:25.480,70.03837,68.0,5
6965,6965,2021-01-22 15:06:55.480,70.040436,68.0,5
6975,6975,2021-01-22 15:07:25.480,70.03497,68.0,5
6985,6985,2021-01-22 15:07:55.480,70.03141,68.0,5
6995,6995,2021-01-22 15:08:25.480,69.1518,68.0,5
7005,7005,2021-01-22 15:08:55.480,69.24043,68.0,5
7015,7015,2021-01-22 15:09:25.480,68.91063,68.0,5
7025,7025,2021-01-22 15:09:55.480,68.827446,69.0,5
7035,7035,2021-01-22 15:10:25.480,68.77750999999999,69.0,5
7045,7045,2021-01-22 15:10:55.480,68.69553,69.0,5
7055,7055,2021-01-22 15:11:25.480,68.60186,69.0,5
7065,7065,2021-01-22 15:11:55.480,68.56258000000001,69.0,5
7075,7075,2021-01-22 15:12:25.480,68.505486,69.0,5
7085,7085,2021-01-22 15:12:55.480,68.63001,69.0,5
7095,7095,2021-01-22 15:13:25.480,68.87648,68.0,5
7105,7105,2021-01-22 15:13:55.480,68.89359,68.0,5
7115,7115,2021-01-22 15:14:25.480,68.85047,68.0,5
7125,7125,2021-01-22 15:14:55.480,68.78166999999999,68.0,5
7135,7135,2021-01-22 15:15:25.480,67.66405999999999,68.0,5
7145,7145,2021-01-22 15:15:55.480,67.08564,68.0,5
7155,7155,2021-01-22 15:16:25.480,67.73745,68.0,5
7165,7165,2021-01-22 15:16:55.480,67.82446,68.0,5
7175,7175,2021-01-22 15:17:25.480,68.00661,68.0,5
7185,7185,2021-01-22 15:17:55.480,68.17087,68.0,5
7195,7195,2021-01-22 15:18:25.480,68.18221,68.0,5
7205,7205,2021-01-22 15:18:55.480,68.14052,68.0,5
7215,7215,2021-01-22 15:19:25.480,68.04306,68.0,5
7225,7225,2021-01-22 15:19:55.480,67.7969,68.0,5
7235,7235,2021-01-22 15:20:25.480,67.40594,66.0,5
7245,7245,2021-01-22 15:20:55.480,67.027016,66.0,5
7255,7255,2021-01-22 15:21:25.480,66.919655,66.0,5
7265,7265,2021-01-22 15:21:55.480,66.982765,66.0,5
7275,7275,2021-01-22 15:22:25.480,67.11616500000001,66.0,5
7285,7285,2021-01-22 15:22:55.480,67.25542,66.0,5
7295,7295,2021-01-22 15:23:25.480,66.54739000000001,66.0,5
7305,7305,2021-01-22 15:23:55.480,66.3925,66.0,5
7315,7315,2021-01-22 15:24:25.480,66.43305,66.0,5
7325,7325,2021-01-22 15:24:55.480,66.37238,66.0,5
7335,7335,2021-01-22 15:25:25.480,66.31045999999999,66.0,5
7345,7345,2021-01-22 15:25:55.480,66.30160500000001,66.0,5
7355,7355,2021-01-22 15:26:25.480,66.38701999999999,66.0,5
7365,7365,2021-01-22 15:26:55.480,66.38212,66.0,5
7375,7375,2021-01-22 15:27:25.480,66.3595,65.0,5
7385,7385,2021-01-22 15:27:55.480,66.33763,65.0,5
7395,7395,2021-01-22 15:28:25.480,66.362724,65.0,5
7405,7405,2021-01-22 15:28:55.480,66.43474599999999,65.0,5
7415,7415,2021-01-22 15:29:25.480,66.35602,65.0,5
7425,7425,2021-01-22 15:29:55.480,66.26424,65.0,5
7435,7435,2021-01-22 15:30:25.480,64.96406,65.0,5
7445,7445,2021-01-22 15:30:55.480,64.83400999999999,65.0,5
7455,7455,2021-01-22 15:31:25.480,65.34358,65.0,5
7465,7465,2021-01-22 15:31:55.480,65.36874,65.0,5
7475,7475,2021-01-22 15:32:25.480,65.36816400000001,65.0,5
7485,7485,2021-01-22 15:32:55.480,65.34561,63.0,5
7495,7495,2021-01-22 15:33:25.480,65.33062,63.0,5
7505,7505,2021-01-22 15:33:55.480,65.30346999999999,62.0,5
7515,7515,2021-01-22 15:34:25.480,65.25196,63.0,5
7525,7525,2021-01-22 15:34:55.480,65.18199,63.0,5
7535,7535,2021-01-22 15:35:25.480,65.059235,63.0,5
7545,7545,2021-01-22 15:35:55.480,63.375735999999996,63.0,5
7555,7555,2021-01-22 15:36:25.480,63.499790000000004,63.0,5
7565,7565,2021-01-22 15:36:55.480,63.179413000000004,63.0,5
7575,7575,2021-01-22 15:37:25.480,63.315617,63.0,5
7585,7585,2021-01-22 15:37:55.480,63.311896999999995,63.0,5
7595,7595,2021-01-22 15:38:25.480,63.391777000000005,63.0,5
7605,7605,2021-01-22 15:38:55.480,63.408527,62.0,5
7615,7615,2021-01-22 15:39:25.480,63.377469999999995,62.0,5
7625,7625,2021-01-22 15:39:55.480,63.34891,62.0,5
7635,7635,2021-01-22 15:40:25.480,63.341145,62.0,5
7645,7645,2021-01-22 15:40:55.480,63.396719999999995,62.0,5
7655,7655,2021-01-22 15:41:25.480,63.367706000000005,62.0,5
7665,7665,2021-01-22 15:41:55.480,62.916462,62.0,5
7675,7675,2021-01-22 15:42:25.480,62.82885699999999,62.0,5
7685,7685,2021-01-22 15:42:55.480,62.635093999999995,62.0,5
7695,7695,2021-01-22 15:43:25.480,62.396576,62.0,5
7705,7705,2021-01-22 15:43:55.480,62.28321999999999,61.0,5
7715,7715,2021-01-22 15:44:25.480,62.371109999999994,61.0,5
7725,7725,2021-01-22 15:44:55.480,62.345123,61.0,5
7735,7735,2021-01-22 15:45:25.480,62.32011800000001,61.0,5
7745,7745,2021-01-22 15:45:55.480,62.265606000000005,61.0,5
7755,7755,2021-01-22 15:46:25.480,62.16676,61.0,5
7765,7765,2021-01-22 15:46:55.480,61.75694,61.0,5
7775,7775,2021-01-22 15:47:25.480,61.361557,62.0,5
7785,7785,2021-01-22 15:47:55.480,61.33664,59.0,5
7795,7795,2021-01-22 15:48:25.480,61.325540000000004,59.0,5
7805,7805,2021-01-22 15:48:55.480,61.348071999999995,59.0,5
7815,7815,2021-01-22 15:49:25.480,61.331352,59.0,5
7825,7825,2021-01-22 15:49:55.480,61.290913,59.0,5
7835,7835,2021-01-22 15:50:25.480,61.566326000000004,59.0,5
7845,7845,2021-01-22 15:50:55.480,59.858437,59.0,5
7855,7855,2021-01-22 15:51:25.480,59.646319999999996,59.0,5
7865,7865,2021-01-22 15:51:55.480,59.553577000000004,58.0,5
7875,7875,2021-01-22 15:52:25.480,59.449,58.0,5
7885,7885,2021-01-22 15:52:55.480,59.357178000000005,57.0,5
7895,7895,2021-01-22 15:53:25.480,59.38033000000001,57.0,5
7905,7905,2021-01-22 15:53:55.480,59.47055,57.0,5
7915,7915,2021-01-22 15:54:25.480,59.442271999999996,57.0,5
7925,7925,2021-01-22 15:54:55.480,59.17501,57.0,5
7935,7935,2021-01-22 15:55:25.480,58.936890000000005,55.0,5
7945,7945,2021-01-22 15:55:55.480,58.494053,55.0,5
7955,7955,2021-01-22 15:56:25.480,58.164486,55.0,5
7965,7965,2021-01-22 15:56:55.480,58.133419999999994,55.0,5
7975,7975,2021-01-22 15:57:25.480,58.04172,55.0,5
7985,7985,2021-01-22 15:57:55.480,57.94166,54.0,5
7995,7995,2021-01-22 15:58:25.480,57.3185,53.0,5
8005,8005,2021-01-22 15:58:55.480,56.90876,53.0,5
8015,8015,2021-01-22 15:59:25.480,56.65104300000001,53.0,5
8025,8025,2021-01-22 15:59:55.480,56.46978000000001,53.0,5
8035,8035,2021-01-22 16:00:25.480,56.208843,53.0,5
8045,8045,2021-01-22 16:00:55.480,55.773754000000004,52.0,5
8055,8055,2021-01-22 16:01:25.480,55.2492,52.0,5
8065,8065,2021-01-22 16:01:55.480,54.907948,52.0,5
8075,8075,2021-01-22 16:02:25.480,54.728577,50.0,5
8085,8085,2021-01-22 16:02:55.480,54.544185999999996,50.0,5
8095,8095,2021-01-22 16:03:25.480,54.294037,50.0,5
