,Unnamed: 0,time,preds,step
11556,11556,2021-02-09 14:54:42.498,33.406647,6
11566,11566,2021-02-09 14:55:12.498,34.073322,6
11576,11576,2021-02-09 14:55:42.498,34.81621,6
11586,11586,2021-02-09 14:56:12.498,33.1838,6
11596,11596,2021-02-09 14:56:42.498,31.272923,6
11606,11606,2021-02-09 14:57:12.498,28.953838,6
11616,11616,2021-02-09 14:57:42.498,29.5771,6
11626,11626,2021-02-09 14:58:12.498,29.416272999999997,6
11636,11636,2021-02-09 14:58:42.498,30.49284,6
11646,11646,2021-02-09 14:59:12.498,31.002556,6
11656,11656,2021-02-09 14:59:42.498,32.187584,6
11666,11666,2021-02-09 15:00:12.498,33.651672,6
11676,11676,2021-02-09 15:00:42.498,32.976265000000005,6
11686,11686,2021-02-09 15:01:12.498,36.92776,6
11696,11696,2021-02-09 15:01:42.498,31.289364000000003,6
11706,11706,2021-02-09 15:02:12.498,29.719815999999998,6
11716,11716,2021-02-09 15:02:42.498,30.369978000000003,6
11726,11726,2021-02-09 15:03:12.498,34.003582,6
11736,11736,2021-02-09 15:03:42.498,34.93752,6
11746,11746,2021-02-09 15:04:12.498,32.988052,6
11756,11756,2021-02-09 15:04:42.498,30.006990000000002,6
11766,11766,2021-02-09 15:05:12.498,28.624409000000004,6
11776,11776,2021-02-09 15:05:42.498,29.800503000000003,6
11786,11786,2021-02-09 15:06:12.498,32.930873999999996,6
11796,11796,2021-02-09 15:06:42.498,34.823368,6
11806,11806,2021-02-09 15:07:12.498,36.884342,6
11816,11816,2021-02-09 15:07:42.498,37.312794,6
11826,11826,2021-02-09 15:08:12.498,38.700577,6
11836,11836,2021-02-09 15:08:42.498,38.828773,6
11846,11846,2021-02-09 15:09:12.498,36.999590000000005,6
11856,11856,2021-02-09 15:09:42.498,32.88175,6
11866,11866,2021-02-09 15:10:12.498,32.805496000000005,6
11876,11876,2021-02-09 15:10:42.498,35.57529,6
11886,11886,2021-02-09 15:11:12.498,33.55915,6
11896,11896,2021-02-09 15:11:42.498,33.42821,6
11906,11906,2021-02-09 15:12:12.498,33.645447,6
11916,11916,2021-02-09 15:12:42.498,36.180842999999996,6
11926,11926,2021-02-09 15:13:12.498,34.345554,6
11936,11936,2021-02-09 15:13:42.498,34.34199,6
11946,11946,2021-02-09 15:14:12.498,34.10452,6
11956,11956,2021-02-09 15:14:42.498,37.775978,6
11966,11966,2021-02-09 15:15:12.498,37.286095,6
11976,11976,2021-02-09 15:15:42.498,35.594906,6
11986,11986,2021-02-09 15:16:12.498,34.658974,6
11996,11996,2021-02-09 15:16:42.498,33.75427,6
12006,12006,2021-02-09 15:17:12.498,34.673683000000004,6
12016,12016,2021-02-09 15:17:42.498,35.664825,6
12026,12026,2021-02-09 15:18:12.498,34.731617,6
12036,12036,2021-02-09 15:18:42.498,35.289463,6
12046,12046,2021-02-09 15:19:12.498,35.177246000000004,6
12056,12056,2021-02-09 15:19:42.498,35.027015999999996,6
12066,12066,2021-02-09 15:20:12.498,33.004913,6
12076,12076,2021-02-09 15:20:42.498,32.937946000000004,6
12086,12086,2021-02-09 15:21:12.498,32.100066999999996,6
12096,12096,2021-02-09 15:21:42.498,34.18078,6
12106,12106,2021-02-09 15:22:12.498,32.720065999999996,6
12116,12116,2021-02-09 15:22:42.498,33.571059999999996,6
12126,12126,2021-02-09 15:23:12.498,33.004093,6
12136,12136,2021-02-09 15:23:42.498,34.357853000000006,6
12146,12146,2021-02-09 15:24:12.498,34.223009999999995,6
12156,12156,2021-02-09 15:24:42.498,32.745537,6
12166,12166,2021-02-09 15:25:12.498,33.76191,6
12176,12176,2021-02-09 15:25:42.498,32.54898,6
12186,12186,2021-02-09 15:26:12.498,33.972167999999996,6
12196,12196,2021-02-09 15:26:42.498,32.89779,6
12206,12206,2021-02-09 15:27:12.498,30.348228000000002,6
12216,12216,2021-02-09 15:27:42.498,31.483272999999997,6
12226,12226,2021-02-09 15:28:12.498,29.260671999999996,6
12236,12236,2021-02-09 15:28:42.498,30.63584,6
12246,12246,2021-02-09 15:29:12.498,28.067669,6
12256,12256,2021-02-09 15:29:42.498,24.119219,6
12266,12266,2021-02-09 15:30:12.498,20.650579999999998,6
12276,12276,2021-02-09 15:30:42.498,17.260279,6
12286,12286,2021-02-09 15:31:12.498,20.041384,6
12296,12296,2021-02-09 15:31:42.498,21.079114999999998,6
12306,12306,2021-02-09 15:32:12.498,37.302357,6
12316,12316,2021-02-09 15:32:42.498,40.066406,6
12326,12326,2021-02-09 15:33:12.498,34.497417,6
12336,12336,2021-02-09 15:33:42.498,33.2106,6
12346,12346,2021-02-09 15:34:12.498,38.06041,6
12356,12356,2021-02-09 15:34:42.498,37.27728,6
12366,12366,2021-02-09 15:35:12.498,38.400913,6
12376,12376,2021-02-09 15:35:42.498,33.25367,6
12386,12386,2021-02-09 15:36:12.498,41.312927,6
12396,12396,2021-02-09 15:36:42.498,25.80591,6
12406,12406,2021-02-09 15:37:12.498,52.985226000000004,6
12416,12416,2021-02-09 15:37:42.498,33.801987,6
12426,12426,2021-02-09 15:38:12.498,18.393642,6
12436,12436,2021-02-09 15:38:42.498,13.454313,6
