,Unnamed: 0,time,prediction,step
11558,11558,2021-02-09 14:55:42.498,50.685590000000005,8
11568,11568,2021-02-09 14:56:12.498,50.244427,8
11578,11578,2021-02-09 14:56:42.498,49.845894,8
11588,11588,2021-02-09 14:57:12.498,48.905879999999996,8
11598,11598,2021-02-09 14:57:42.498,47.17691,8
11608,11608,2021-02-09 14:58:12.498,46.566646999999996,8
11618,11618,2021-02-09 14:58:42.498,45.70211,8
11628,11628,2021-02-09 14:59:12.498,44.351894,8
11638,11638,2021-02-09 14:59:42.498,43.486767,8
11648,11648,2021-02-09 15:00:12.498,42.19954,8
11658,11658,2021-02-09 15:00:42.498,40.346745,8
11668,11668,2021-02-09 15:01:12.498,39.185192,8
11678,11678,2021-02-09 15:01:42.498,37.345978,8
11688,11688,2021-02-09 15:02:12.498,34.221123,8
11698,11698,2021-02-09 15:02:42.498,34.290813,8
11708,11708,2021-02-09 15:03:12.498,34.460865000000005,8
11718,11718,2021-02-09 15:03:42.498,34.767765000000004,8
11728,11728,2021-02-09 15:04:12.498,35.148407,8
11738,11738,2021-02-09 15:04:42.498,35.469623999999996,8
11748,11748,2021-02-09 15:05:12.498,35.823757,8
11758,11758,2021-02-09 15:05:42.498,35.894096000000005,8
11768,11768,2021-02-09 15:06:12.498,36.029472,8
11778,11778,2021-02-09 15:06:42.498,36.274429999999995,8
11788,11788,2021-02-09 15:07:12.498,36.54537,8
11798,11798,2021-02-09 15:07:42.498,36.71995,8
11808,11808,2021-02-09 15:08:12.498,37.006992,8
11818,11818,2021-02-09 15:08:42.498,37.074036,8
11828,11828,2021-02-09 15:09:12.498,37.220993,8
11838,11838,2021-02-09 15:09:42.498,39.25462,8
11848,11848,2021-02-09 15:10:12.498,39.353218,8
11858,11858,2021-02-09 15:10:42.498,39.553726,8
11868,11868,2021-02-09 15:11:12.498,39.713271999999996,8
11878,11878,2021-02-09 15:11:42.498,40.033405,8
11888,11888,2021-02-09 15:12:12.498,39.973457,8
11898,11898,2021-02-09 15:12:42.498,39.775806,8
11908,11908,2021-02-09 15:13:12.498,39.475525,8
11918,11918,2021-02-09 15:13:42.498,39.539814,8
11928,11928,2021-02-09 15:14:12.498,39.262413,8
11938,11938,2021-02-09 15:14:42.498,39.007717,8
11948,11948,2021-02-09 15:15:12.498,38.656815,8
11958,11958,2021-02-09 15:15:42.498,38.61094,8
11968,11968,2021-02-09 15:16:12.498,38.741127,8
11978,11978,2021-02-09 15:16:42.498,38.69805,8
11988,11988,2021-02-09 15:17:12.498,38.734165000000004,8
11998,11998,2021-02-09 15:17:42.498,38.39077,8
12008,12008,2021-02-09 15:18:12.498,38.418938,8
12018,12018,2021-02-09 15:18:42.498,38.405440000000006,8
12028,12028,2021-02-09 15:19:12.498,38.403545,8
12038,12038,2021-02-09 15:19:42.498,38.512295,8
12048,12048,2021-02-09 15:20:12.498,38.608463,8
12058,12058,2021-02-09 15:20:42.498,38.389626,8
12068,12068,2021-02-09 15:21:12.498,38.193424,8
12078,12078,2021-02-09 15:21:42.498,38.235374,8
12088,12088,2021-02-09 15:22:12.498,38.526505,8
12098,12098,2021-02-09 15:22:42.498,38.836285,8
12108,12108,2021-02-09 15:23:12.498,39.179916,8
12118,12118,2021-02-09 15:23:42.498,39.227745,8
12128,12128,2021-02-09 15:24:12.498,39.231159999999996,8
12138,12138,2021-02-09 15:24:42.498,39.168613,8
12148,12148,2021-02-09 15:25:12.498,39.209759999999996,8
12158,12158,2021-02-09 15:25:42.498,39.495193,8
12168,12168,2021-02-09 15:26:12.498,39.55089,8
12178,12178,2021-02-09 15:26:42.498,39.708546000000005,8
12188,12188,2021-02-09 15:27:12.498,39.89506,8
12198,12198,2021-02-09 15:27:42.498,40.212257,8
12208,12208,2021-02-09 15:28:12.498,40.83979,8
12218,12218,2021-02-09 15:28:42.498,40.9776,8
12228,12228,2021-02-09 15:29:12.498,41.970387,8
12238,12238,2021-02-09 15:29:42.498,42.20133,8
12248,12248,2021-02-09 15:30:12.498,44.19955,8
12258,12258,2021-02-09 15:30:42.498,48.071896,8
12268,12268,2021-02-09 15:31:12.498,57.02724499999999,8
12278,12278,2021-02-09 15:31:42.498,68.031364,8
12288,12288,2021-02-09 15:32:12.498,70.287994,8
12298,12298,2021-02-09 15:32:42.498,73.671814,8
12308,12308,2021-02-09 15:33:12.498,77.399,8
12318,12318,2021-02-09 15:33:42.498,86.04763,8
12328,12328,2021-02-09 15:34:12.498,92.75953,8
12338,12338,2021-02-09 15:34:42.498,101.69892,8
12348,12348,2021-02-09 15:35:12.498,120.11477,8
12358,12358,2021-02-09 15:35:42.498,134.1698,8
12368,12368,2021-02-09 15:36:12.498,161.65756000000002,8
12378,12378,2021-02-09 15:36:42.498,162.0414,8
12388,12388,2021-02-09 15:37:12.498,162.47884,8
12398,12398,2021-02-09 15:37:42.498,122.54619,8
12408,12408,2021-02-09 15:38:12.498,53.50075,8
12418,12418,2021-02-09 15:38:42.498,49.496407,8
12428,12428,2021-02-09 15:39:12.498,50.166367,8
12438,12438,2021-02-09 15:39:42.498,54.641216,8
