,Unnamed: 0,time,preds,step
7,7,2021-02-15 08:56:50.816,3.0000023999999996,7
17,17,2021-02-15 08:57:20.816,3.0000023999999996,7
27,27,2021-02-15 08:57:50.816,3.0000023999999996,7
37,37,2021-02-15 08:58:20.816,3.0000023999999996,7
47,47,2021-02-15 08:58:50.816,3.0000023999999996,7
57,57,2021-02-15 08:59:20.816,3.0000023999999996,7
67,67,2021-02-15 08:59:50.816,3.0000023999999996,7
77,77,2021-02-15 09:00:20.816,3.0000023999999996,7
87,87,2021-02-15 09:00:50.816,3.0000023999999996,7
97,97,2021-02-15 09:01:20.816,3.0000023999999996,7
107,107,2021-02-15 09:01:50.816,3.0000023999999996,7
117,117,2021-02-15 09:02:20.816,3.0000023999999996,7
127,127,2021-02-15 09:02:50.816,3.0000023999999996,7
137,137,2021-02-15 09:03:20.816,3.0000023999999996,7
147,147,2021-02-15 09:03:50.816,3.0000023999999996,7
157,157,2021-02-15 09:04:20.816,3.0000023999999996,7
167,167,2021-02-15 09:04:50.816,3.0000023999999996,7
177,177,2021-02-15 09:05:20.816,3.0000023999999996,7
187,187,2021-02-15 09:05:50.816,3.0000023999999996,7
197,197,2021-02-15 09:06:20.816,3.0000023999999996,7
207,207,2021-02-15 09:06:50.816,3.0000023999999996,7
217,217,2021-02-15 09:07:20.816,3.0000023999999996,7
227,227,2021-02-15 09:07:50.816,3.0000023999999996,7
237,237,2021-02-15 09:08:20.816,3.0000023999999996,7
247,247,2021-02-15 09:08:50.816,3.0000023999999996,7
257,257,2021-02-15 09:09:20.816,3.0000023999999996,7
267,267,2021-02-15 09:09:50.816,3.0000023999999996,7
277,277,2021-02-15 09:10:20.816,3.0000023999999996,7
287,287,2021-02-15 09:10:50.816,3.0000023999999996,7
297,297,2021-02-15 09:11:20.816,3.0000023999999996,7
307,307,2021-02-15 09:11:50.816,3.0000023999999996,7
317,317,2021-02-15 09:12:20.816,3.0000023999999996,7
327,327,2021-02-15 09:12:50.816,3.0000023999999996,7
337,337,2021-02-15 09:13:20.816,3.0000023999999996,7
347,347,2021-02-15 09:13:50.816,3.0000023999999996,7
357,357,2021-02-15 09:14:20.816,3.0000023999999996,7
367,367,2021-02-15 09:14:50.816,3.0000023999999996,7
377,377,2021-02-15 09:15:20.816,3.0000023999999996,7
387,387,2021-02-15 09:15:50.816,3.0000023999999996,7
397,397,2021-02-15 09:16:20.816,3.0000023999999996,7
407,407,2021-02-15 09:16:50.816,3.0000023999999996,7
417,417,2021-02-15 09:17:20.816,3.0000023999999996,7
427,427,2021-02-15 09:17:50.816,3.0000023999999996,7
437,437,2021-02-15 09:18:20.816,3.0000023999999996,7
447,447,2021-02-15 09:18:50.816,3.0000023999999996,7
457,457,2021-02-15 09:19:20.816,3.0000023999999996,7
467,467,2021-02-15 09:19:50.816,3.0000023999999996,7
477,477,2021-02-15 09:20:20.816,3.0000023999999996,7
487,487,2021-02-15 09:20:50.816,3.0000023999999996,7
497,497,2021-02-15 09:21:20.816,3.0000023999999996,7
507,507,2021-02-15 09:21:50.816,3.0000023999999996,7
517,517,2021-02-15 09:22:20.816,3.0000023999999996,7
527,527,2021-02-15 09:22:50.816,3.0000023999999996,7
537,537,2021-02-15 09:23:20.816,3.0000023999999996,7
547,547,2021-02-15 09:23:50.816,3.0000023999999996,7
557,557,2021-02-15 09:24:20.816,3.0000023999999996,7
567,567,2021-02-15 09:24:50.816,3.0000023999999996,7
577,577,2021-02-15 09:25:20.816,3.0000023999999996,7
587,587,2021-02-15 09:25:50.816,3.0000023999999996,7
597,597,2021-02-15 09:26:20.816,3.0000023999999996,7
607,607,2021-02-15 09:26:50.816,3.0000023999999996,7
617,617,2021-02-15 09:27:20.816,3.0000023999999996,7
627,627,2021-02-15 09:27:50.816,3.0000023999999996,7
637,637,2021-02-15 09:28:20.816,3.0000023999999996,7
647,647,2021-02-15 09:28:50.816,3.0000023999999996,7
657,657,2021-02-15 09:29:20.816,3.0000023999999996,7
667,667,2021-02-15 09:29:50.816,3.0000023999999996,7
677,677,2021-02-15 09:30:20.816,3.0000023999999996,7
687,687,2021-02-15 09:30:50.816,3.0000023999999996,7
697,697,2021-02-15 09:31:20.816,3.0000023999999996,7
707,707,2021-02-15 09:31:50.816,3.0000023999999996,7
717,717,2021-02-15 09:32:20.816,3.0000023999999996,7
727,727,2021-02-15 09:32:50.816,3.0000023999999996,7
737,737,2021-02-15 09:33:20.816,3.0000023999999996,7
747,747,2021-02-15 09:33:50.816,3.0000023999999996,7
757,757,2021-02-15 09:34:20.816,3.0000023999999996,7
767,767,2021-02-15 09:34:50.816,3.0000023999999996,7
777,777,2021-02-15 09:35:20.816,3.0000023999999996,7
787,787,2021-02-15 09:35:50.816,3.0000023999999996,7
797,797,2021-02-15 09:36:20.816,3.0000023999999996,7
807,807,2021-02-15 09:36:50.816,3.0000023999999996,7
817,817,2021-02-15 09:37:20.816,3.0000023999999996,7
827,827,2021-02-15 09:37:50.816,3.0000023999999996,7
837,837,2021-02-15 09:38:20.816,3.0000023999999996,7
847,847,2021-02-15 09:38:50.816,3.0000023999999996,7
857,857,2021-02-15 09:39:20.816,3.0000023999999996,7
867,867,2021-02-15 09:39:50.816,3.0000023999999996,7
877,877,2021-02-15 09:40:20.816,3.0000023999999996,7
887,887,2021-02-15 09:40:50.816,3.0000023999999996,7
897,897,2021-02-15 09:41:20.816,3.0000023999999996,7
907,907,2021-02-15 09:41:50.816,3.0000023999999996,7
917,917,2021-02-15 09:42:20.816,3.0000023999999996,7
927,927,2021-02-15 09:42:50.816,3.0000023999999996,7
937,937,2021-02-15 09:43:20.816,3.0000023999999996,7
947,947,2021-02-15 09:43:50.816,3.0000023999999996,7
957,957,2021-02-15 09:44:20.816,3.0000023999999996,7
967,967,2021-02-15 09:44:50.816,3.0000023999999996,7
977,977,2021-02-15 09:45:20.816,3.0000023999999996,7
987,987,2021-02-15 09:45:50.816,3.0000023999999996,7
997,997,2021-02-15 09:46:20.816,3.0000023999999996,7
1007,1007,2021-02-15 09:46:50.816,3.0000023999999996,7
1017,1017,2021-02-15 09:47:20.816,3.0000023999999996,7
1027,1027,2021-02-15 09:47:50.816,3.0000023999999996,7
1037,1037,2021-02-15 09:48:20.816,3.0000023999999996,7
1047,1047,2021-02-15 09:48:50.816,3.0000023999999996,7
1057,1057,2021-02-15 09:49:20.816,3.0000023999999996,7
1067,1067,2021-02-15 09:49:50.816,3.0000023999999996,7
1077,1077,2021-02-15 09:50:20.816,3.0000023999999996,7
1087,1087,2021-02-15 09:50:50.816,3.0000023999999996,7
1097,1097,2021-02-15 09:51:20.816,3.0000023999999996,7
1107,1107,2021-02-15 09:51:50.816,3.0000023999999996,7
1117,1117,2021-02-15 09:52:20.816,3.0000023999999996,7
1127,1127,2021-02-15 09:52:50.816,3.0000023999999996,7
1137,1137,2021-02-15 09:53:20.816,3.0000023999999996,7
1147,1147,2021-02-15 09:53:50.816,3.0000023999999996,7
1157,1157,2021-02-15 09:54:20.816,3.0000023999999996,7
1167,1167,2021-02-15 09:54:50.816,3.0000023999999996,7
1177,1177,2021-02-15 09:55:20.816,3.0000023999999996,7
1187,1187,2021-02-15 09:55:50.816,3.0000023999999996,7
1197,1197,2021-02-15 09:56:20.816,3.0000023999999996,7
1207,1207,2021-02-15 09:56:50.816,3.0000023999999996,7
1217,1217,2021-02-15 09:57:20.816,3.0000023999999996,7
1227,1227,2021-02-15 09:57:50.816,3.0000023999999996,7
1237,1237,2021-02-15 09:58:20.816,3.0000023999999996,7
1247,1247,2021-02-15 09:58:50.816,3.0000023999999996,7
1257,1257,2021-02-15 09:59:20.816,3.0000023999999996,7
1267,1267,2021-02-15 09:59:50.816,3.0000023999999996,7
1277,1277,2021-02-15 10:00:20.816,3.0000023999999996,7
1287,1287,2021-02-15 10:00:50.816,3.0000023999999996,7
1297,1297,2021-02-15 10:01:20.816,3.0000023999999996,7
1307,1307,2021-02-15 10:01:50.816,3.0000023999999996,7
1317,1317,2021-02-15 10:02:20.816,3.0000023999999996,7
1327,1327,2021-02-15 10:02:50.816,3.0000023999999996,7
1337,1337,2021-02-15 10:03:20.816,3.0000023999999996,7
1347,1347,2021-02-15 10:03:50.816,3.0000023999999996,7
1357,1357,2021-02-15 10:04:20.816,3.0000023999999996,7
1367,1367,2021-02-15 10:04:50.816,3.0000023999999996,7
1377,1377,2021-02-15 10:05:20.816,3.0000023999999996,7
1387,1387,2021-02-15 10:05:50.816,3.0000023999999996,7
1397,1397,2021-02-15 10:06:20.816,3.0000023999999996,7
1407,1407,2021-02-15 10:06:50.816,3.0000023999999996,7
1417,1417,2021-02-15 10:07:20.816,3.0000023999999996,7
1427,1427,2021-02-15 10:07:50.816,3.0000023999999996,7
1437,1437,2021-02-15 10:08:20.816,3.0000023999999996,7
1447,1447,2021-02-15 10:08:50.816,3.0000023999999996,7
1457,1457,2021-02-15 10:09:20.816,3.0000023999999996,7
1467,1467,2021-02-15 10:09:50.816,3.0000023999999996,7
1477,1477,2021-02-15 10:10:20.816,3.0000023999999996,7
1487,1487,2021-02-15 10:10:50.816,3.0000023999999996,7
1497,1497,2021-02-15 10:11:20.816,3.0000023999999996,7
1507,1507,2021-02-15 10:11:50.816,3.0000023999999996,7
1517,1517,2021-02-15 10:12:20.816,3.0000023999999996,7
1527,1527,2021-02-15 10:12:50.816,3.0000023999999996,7
1537,1537,2021-02-15 10:13:20.816,3.0000023999999996,7
1547,1547,2021-02-15 10:13:50.816,3.0000023999999996,7
1557,1557,2021-02-15 10:14:20.816,3.0000023999999996,7
1567,1567,2021-02-15 10:14:50.816,3.0000023999999996,7
1577,1577,2021-02-15 10:15:20.816,3.0000023999999996,7
1587,1587,2021-02-15 10:15:50.816,3.0000023999999996,7
1597,1597,2021-02-15 10:16:20.816,3.0000023999999996,7
1607,1607,2021-02-15 10:16:50.816,3.0000023999999996,7
1617,1617,2021-02-15 10:17:20.816,3.0000023999999996,7
1627,1627,2021-02-15 10:17:50.816,3.0000023999999996,7
1637,1637,2021-02-15 10:18:20.816,3.0000023999999996,7
1647,1647,2021-02-15 10:18:50.816,3.0000023999999996,7
1657,1657,2021-02-15 10:19:20.816,3.0000023999999996,7
1667,1667,2021-02-15 10:19:50.816,3.0000023999999996,7
1677,1677,2021-02-15 10:20:20.816,3.0000023999999996,7
1687,1687,2021-02-15 10:20:50.816,3.0000023999999996,7
1697,1697,2021-02-15 10:21:20.816,3.0000023999999996,7
1707,1707,2021-02-15 10:21:50.816,3.0000023999999996,7
1717,1717,2021-02-15 10:22:20.816,3.0000023999999996,7
1727,1727,2021-02-15 10:22:50.816,3.0000023999999996,7
1737,1737,2021-02-15 10:23:20.816,3.0000023999999996,7
1747,1747,2021-02-15 10:23:50.816,3.0000023999999996,7
1757,1757,2021-02-15 10:24:20.816,3.0000023999999996,7
1767,1767,2021-02-15 10:24:50.816,3.0000023999999996,7
1777,1777,2021-02-15 10:25:20.816,3.0000023999999996,7
1787,1787,2021-02-15 10:25:50.816,3.0000023999999996,7
1797,1797,2021-02-15 10:26:20.816,3.0000023999999996,7
1807,1807,2021-02-15 10:26:50.816,3.0000023999999996,7
1817,1817,2021-02-15 10:27:20.816,3.0000023999999996,7
1827,1827,2021-02-15 10:27:50.816,3.0000023999999996,7
1837,1837,2021-02-15 10:28:20.816,3.0000023999999996,7
1847,1847,2021-02-15 10:28:50.816,3.0000023999999996,7
1857,1857,2021-02-15 10:29:20.816,3.0000023999999996,7
1867,1867,2021-02-15 10:29:50.816,3.0000023999999996,7
1877,1877,2021-02-15 10:30:20.816,3.0000023999999996,7
1887,1887,2021-02-15 10:30:50.816,3.0000023999999996,7
1897,1897,2021-02-15 10:31:20.816,3.0000023999999996,7
1907,1907,2021-02-15 10:31:50.816,3.0000023999999996,7
1917,1917,2021-02-15 10:32:20.816,3.0000023999999996,7
1927,1927,2021-02-15 10:32:50.816,3.0000023999999996,7
1937,1937,2021-02-15 10:33:20.816,3.0000023999999996,7
1947,1947,2021-02-15 10:33:50.816,3.0000023999999996,7
1957,1957,2021-02-15 10:34:20.816,3.0000023999999996,7
1967,1967,2021-02-15 10:34:50.816,3.0000023999999996,7
1977,1977,2021-02-15 10:35:20.816,3.0000023999999996,7
1987,1987,2021-02-15 10:35:50.816,3.0000023999999996,7
1997,1997,2021-02-15 10:36:20.816,3.0000023999999996,7
2007,2007,2021-02-15 10:36:50.816,3.0000023999999996,7
2017,2017,2021-02-15 10:37:20.816,3.0000023999999996,7
2027,2027,2021-02-15 10:37:50.816,3.0000023999999996,7
2037,2037,2021-02-15 10:38:20.816,3.0000023999999996,7
2047,2047,2021-02-15 10:38:50.816,3.0000023999999996,7
2057,2057,2021-02-15 10:39:20.816,3.0000023999999996,7
2067,2067,2021-02-15 10:39:50.816,3.0000023999999996,7
2077,2077,2021-02-15 10:40:20.816,3.0000023999999996,7
2087,2087,2021-02-15 10:40:50.816,3.0000023999999996,7
2097,2097,2021-02-15 10:41:20.816,3.0000023999999996,7
2107,2107,2021-02-15 10:41:50.816,3.0000023999999996,7
2117,2117,2021-02-15 10:42:20.816,3.0000023999999996,7
2127,2127,2021-02-15 10:42:50.816,3.0000023999999996,7
2137,2137,2021-02-15 10:43:20.816,3.0000023999999996,7
2147,2147,2021-02-15 10:43:50.816,3.0000023999999996,7
2157,2157,2021-02-15 10:44:20.816,3.0000023999999996,7
2167,2167,2021-02-15 10:44:50.816,3.0000023999999996,7
2177,2177,2021-02-15 10:45:20.816,3.0000023999999996,7
2187,2187,2021-02-15 10:45:50.816,3.0000023999999996,7
2197,2197,2021-02-15 10:46:20.816,3.0000023999999996,7
2207,2207,2021-02-15 10:46:50.816,3.0000023999999996,7
2217,2217,2021-02-15 10:47:20.816,3.0000023999999996,7
2227,2227,2021-02-15 10:47:50.816,3.0000023999999996,7
2237,2237,2021-02-15 10:48:20.816,3.0000023999999996,7
2247,2247,2021-02-15 10:48:50.816,3.0000023999999996,7
2257,2257,2021-02-15 10:49:20.816,3.0000023999999996,7
2267,2267,2021-02-15 10:49:50.816,3.0000023999999996,7
2277,2277,2021-02-15 10:50:20.816,3.0000023999999996,7
2287,2287,2021-02-15 10:50:50.816,3.0000023999999996,7
2297,2297,2021-02-15 10:51:20.816,3.0000023999999996,7
2307,2307,2021-02-15 10:51:50.816,3.0000023999999996,7
2317,2317,2021-02-15 10:52:20.816,3.0000023999999996,7
2327,2327,2021-02-15 10:52:50.816,3.0000023999999996,7
2337,2337,2021-02-15 10:53:20.816,3.0000023999999996,7
2347,2347,2021-02-15 10:53:50.816,3.0000023999999996,7
2357,2357,2021-02-15 10:54:20.816,3.0000023999999996,7
2367,2367,2021-02-15 10:54:50.816,3.0000023999999996,7
2377,2377,2021-02-15 10:55:20.816,3.0000023999999996,7
2387,2387,2021-02-15 10:55:50.816,3.0000023999999996,7
2397,2397,2021-02-15 10:56:20.816,3.0000023999999996,7
2407,2407,2021-02-15 10:56:50.816,3.0000023999999996,7
2417,2417,2021-02-15 10:57:20.816,3.0000023999999996,7
2427,2427,2021-02-15 10:57:50.816,3.0000023999999996,7
2437,2437,2021-02-15 10:58:20.816,3.0000023999999996,7
2447,2447,2021-02-15 10:58:50.816,3.0000023999999996,7
2457,2457,2021-02-15 10:59:20.816,3.0000023999999996,7
2467,2467,2021-02-15 10:59:50.816,3.0000023999999996,7
2477,2477,2021-02-15 11:00:20.816,3.0000023999999996,7
2487,2487,2021-02-15 11:00:50.816,3.0000023999999996,7
2497,2497,2021-02-15 11:01:20.816,3.0000023999999996,7
2507,2507,2021-02-15 11:01:50.816,3.0000023999999996,7
2517,2517,2021-02-15 11:02:20.816,3.0000023999999996,7
2527,2527,2021-02-15 11:02:50.816,3.0000023999999996,7
2537,2537,2021-02-15 11:03:20.816,3.0000023999999996,7
2547,2547,2021-02-15 11:03:50.816,3.0000023999999996,7
2557,2557,2021-02-15 11:04:20.816,3.0000023999999996,7
2567,2567,2021-02-15 11:04:50.816,3.0000023999999996,7
2577,2577,2021-02-15 11:05:20.816,3.0000023999999996,7
2587,2587,2021-02-15 11:05:50.816,3.0000023999999996,7
2597,2597,2021-02-15 11:06:20.816,3.0000023999999996,7
2607,2607,2021-02-15 11:06:50.816,3.0000023999999996,7
2617,2617,2021-02-15 11:07:20.816,3.0000023999999996,7
2627,2627,2021-02-15 11:07:50.816,3.0000023999999996,7
2637,2637,2021-02-15 11:08:20.816,3.0000023999999996,7
2647,2647,2021-02-15 11:08:50.816,3.0000023999999996,7
2657,2657,2021-02-15 11:09:20.816,3.0000023999999996,7
2667,2667,2021-02-15 11:09:50.816,3.0000023999999996,7
2677,2677,2021-02-15 11:10:20.816,3.0000023999999996,7
2687,2687,2021-02-15 11:10:50.816,3.0000023999999996,7
2697,2697,2021-02-15 11:11:20.816,3.0000023999999996,7
2707,2707,2021-02-15 11:11:50.816,3.0000023999999996,7
2717,2717,2021-02-15 11:12:20.816,3.0000023999999996,7
2727,2727,2021-02-15 11:12:50.816,3.0000023999999996,7
2737,2737,2021-02-15 11:13:20.816,3.0000023999999996,7
2747,2747,2021-02-15 11:13:50.816,3.0000023999999996,7
2757,2757,2021-02-15 11:14:20.816,3.0000023999999996,7
2767,2767,2021-02-15 11:14:50.816,3.0000023999999996,7
2777,2777,2021-02-15 11:15:20.816,3.0000023999999996,7
2787,2787,2021-02-15 11:15:50.816,3.0000023999999996,7
2797,2797,2021-02-15 11:16:20.816,3.0000023999999996,7
2807,2807,2021-02-15 11:16:50.816,3.0000023999999996,7
2817,2817,2021-02-15 11:17:20.816,3.0000023999999996,7
2827,2827,2021-02-15 11:17:50.816,3.0000023999999996,7
2837,2837,2021-02-15 11:18:20.816,3.0000023999999996,7
2847,2847,2021-02-15 11:18:50.816,3.0000023999999996,7
2857,2857,2021-02-15 11:19:20.816,3.0000023999999996,7
2867,2867,2021-02-15 11:19:50.816,3.0000023999999996,7
2877,2877,2021-02-15 11:20:20.816,3.0000023999999996,7
2887,2887,2021-02-15 11:20:50.816,3.0000023999999996,7
2897,2897,2021-02-15 11:21:20.816,3.0000023999999996,7
2907,2907,2021-02-15 11:21:50.816,3.0000023999999996,7
2917,2917,2021-02-15 11:22:20.816,3.0000023999999996,7
2927,2927,2021-02-15 11:22:50.816,3.0000023999999996,7
2937,2937,2021-02-15 11:23:20.816,3.0000023999999996,7
2947,2947,2021-02-15 11:23:50.816,3.0000023999999996,7
2957,2957,2021-02-15 11:24:20.816,3.0000023999999996,7
2967,2967,2021-02-15 11:24:50.816,3.0000023999999996,7
2977,2977,2021-02-15 11:25:20.816,3.0000023999999996,7
2987,2987,2021-02-15 11:25:50.816,3.0000023999999996,7
2997,2997,2021-02-15 11:26:20.816,3.0000023999999996,7
3007,3007,2021-02-15 11:26:50.816,3.0000023999999996,7
3017,3017,2021-02-15 11:27:20.816,3.0000023999999996,7
3027,3027,2021-02-15 11:27:50.816,3.0000023999999996,7
3037,3037,2021-02-15 11:28:20.816,3.0000023999999996,7
3047,3047,2021-02-15 11:28:50.816,3.0000023999999996,7
3057,3057,2021-02-15 11:29:20.816,3.0000023999999996,7
3067,3067,2021-02-15 11:29:50.816,3.0000023999999996,7
3077,3077,2021-02-15 11:30:20.816,3.0000023999999996,7
3087,3087,2021-02-15 11:30:50.816,3.0000023999999996,7
3097,3097,2021-02-15 11:31:20.816,3.0000023999999996,7
3107,3107,2021-02-15 11:31:50.816,3.0000023999999996,7
3117,3117,2021-02-15 11:32:20.816,3.0000023999999996,7
3127,3127,2021-02-15 11:32:50.816,3.0000023999999996,7
3137,3137,2021-02-15 11:33:20.816,3.0000023999999996,7
3147,3147,2021-02-15 11:33:50.816,3.0000023999999996,7
3157,3157,2021-02-15 11:34:20.816,3.0000023999999996,7
3167,3167,2021-02-15 11:34:50.816,3.0000023999999996,7
3177,3177,2021-02-15 11:35:20.816,3.0000023999999996,7
3187,3187,2021-02-15 11:35:50.816,3.0000023999999996,7
3197,3197,2021-02-15 11:36:20.816,3.0000023999999996,7
3207,3207,2021-02-15 11:36:50.816,3.0000023999999996,7
3217,3217,2021-02-15 11:37:20.816,3.0000023999999996,7
3227,3227,2021-02-15 11:37:50.816,3.0000023999999996,7
3237,3237,2021-02-15 11:38:20.816,3.0000023999999996,7
3247,3247,2021-02-15 11:38:50.816,3.0000023999999996,7
3257,3257,2021-02-15 11:39:20.816,3.0000023999999996,7
3267,3267,2021-02-15 11:39:50.816,3.0000023999999996,7
3277,3277,2021-02-15 11:40:20.816,3.0000023999999996,7
3287,3287,2021-02-15 11:40:50.816,3.0000023999999996,7
3297,3297,2021-02-15 11:41:20.816,3.0000023999999996,7
3307,3307,2021-02-15 11:41:50.816,3.0000023999999996,7
3317,3317,2021-02-15 11:42:20.816,3.0000023999999996,7
3327,3327,2021-02-15 11:42:50.816,3.0000023999999996,7
3337,3337,2021-02-15 11:43:20.816,3.0000023999999996,7
3347,3347,2021-02-15 11:43:50.816,3.0000023999999996,7
3357,3357,2021-02-15 11:44:20.816,3.0000023999999996,7
3367,3367,2021-02-15 11:44:50.816,3.0000023999999996,7
3377,3377,2021-02-15 11:45:20.816,3.0000023999999996,7
3387,3387,2021-02-15 11:45:50.816,3.0000023999999996,7
3397,3397,2021-02-15 11:46:20.816,3.0000023999999996,7
3407,3407,2021-02-15 11:46:50.816,3.0000023999999996,7
3417,3417,2021-02-15 11:47:20.816,3.0000023999999996,7
3427,3427,2021-02-15 11:47:50.816,3.0000023999999996,7
3437,3437,2021-02-15 11:48:20.816,3.0000023999999996,7
3447,3447,2021-02-15 11:48:50.816,3.0000023999999996,7
3457,3457,2021-02-15 11:49:20.816,3.0000023999999996,7
3467,3467,2021-02-15 11:49:50.816,3.0000023999999996,7
3477,3477,2021-02-15 11:50:20.816,3.0000023999999996,7
3487,3487,2021-02-15 11:50:50.816,3.0000023999999996,7
3497,3497,2021-02-15 11:51:20.816,3.0000023999999996,7
3507,3507,2021-02-15 11:51:50.816,3.0000023999999996,7
3517,3517,2021-02-15 11:52:20.816,3.0000023999999996,7
3527,3527,2021-02-15 11:52:50.816,3.0000023999999996,7
3537,3537,2021-02-15 11:53:20.816,3.0000023999999996,7
3547,3547,2021-02-15 11:53:50.816,3.0000023999999996,7
3557,3557,2021-02-15 11:54:20.816,3.0000023999999996,7
3567,3567,2021-02-15 11:54:50.816,3.0000023999999996,7
3577,3577,2021-02-15 11:55:20.816,3.0000023999999996,7
3587,3587,2021-02-15 11:55:50.816,3.0000023999999996,7
3597,3597,2021-02-15 11:56:20.816,3.0000023999999996,7
3607,3607,2021-02-15 11:56:50.816,3.0000023999999996,7
3617,3617,2021-02-15 11:57:20.816,3.0000023999999996,7
3627,3627,2021-02-15 11:57:50.816,3.0000023999999996,7
3637,3637,2021-02-15 11:58:20.816,3.0000023999999996,7
3647,3647,2021-02-15 11:58:50.816,3.0000023999999996,7
3657,3657,2021-02-15 11:59:20.816,3.0000023999999996,7
3667,3667,2021-02-15 11:59:50.816,3.0000023999999996,7
3677,3677,2021-02-15 12:00:20.816,3.0000023999999996,7
3687,3687,2021-02-15 12:00:50.816,3.0000023999999996,7
3697,3697,2021-02-15 12:01:20.816,3.0000023999999996,7
3707,3707,2021-02-15 12:01:50.816,3.0000023999999996,7
3717,3717,2021-02-15 12:02:20.816,3.0000023999999996,7
3727,3727,2021-02-15 12:02:50.816,3.0000023999999996,7
3737,3737,2021-02-15 12:03:20.816,3.0000023999999996,7
3747,3747,2021-02-15 12:03:50.816,3.0000023999999996,7
3757,3757,2021-02-15 12:04:20.816,3.0000023999999996,7
3767,3767,2021-02-15 12:04:50.816,3.0000023999999996,7
3777,3777,2021-02-15 12:05:20.816,3.0000023999999996,7
3787,3787,2021-02-15 12:05:50.816,3.0000023999999996,7
3797,3797,2021-02-15 12:06:20.816,3.0000023999999996,7
3807,3807,2021-02-15 12:06:50.816,3.0000023999999996,7
