,Unnamed: 0,time,prediction,step
0,0,2021-02-15 08:54:42.460,2080.8572,0
10,10,2021-02-15 08:55:12.460,2099.3247,0
20,20,2021-02-15 08:55:42.460,2108.8572,0
30,30,2021-02-15 08:56:12.460,2148.9314,0
40,40,2021-02-15 08:56:42.460,2164.5872,0
50,50,2021-02-15 08:57:12.460,2195.9346,0
60,60,2021-02-15 08:57:42.460,2222.4915,0
70,70,2021-02-15 08:58:12.460,2267.034,0
80,80,2021-02-15 08:58:42.460,2293.6206,0
90,90,2021-02-15 08:59:12.460,2311.462,0
100,100,2021-02-15 08:59:42.460,2325.7737,0
110,110,2021-02-15 09:00:12.460,2341.0178,0
120,120,2021-02-15 09:00:42.460,2354.74,0
130,130,2021-02-15 09:01:12.460,2379.8088,0
140,140,2021-02-15 09:01:42.460,2404.8518,0
150,150,2021-02-15 09:02:12.460,2431.1243,0
160,160,2021-02-15 09:02:42.460,2455.4307,0
170,170,2021-02-15 09:03:12.460,2480.3347,0
180,180,2021-02-15 09:03:42.460,2504.656,0
190,190,2021-02-15 09:04:12.460,2523.4685,0
200,200,2021-02-15 09:04:42.460,2540.035,0
210,210,2021-02-15 09:05:12.460,2551.8425,0
220,220,2021-02-15 09:05:42.460,2566.9802,0
230,230,2021-02-15 09:06:12.460,2517.9814,0
240,240,2021-02-15 09:06:42.460,2507.3308,0
250,250,2021-02-15 09:07:12.460,2503.8564,0
260,260,2021-02-15 09:07:42.460,2524.823,0
270,270,2021-02-15 09:08:12.460,2566.9841,0
280,280,2021-02-15 09:08:42.460,2639.9607,0
290,290,2021-02-15 09:09:12.460,2668.8354,0
300,300,2021-02-15 09:09:42.460,2686.5173,0
310,310,2021-02-15 09:10:12.460,2698.6448,0
320,320,2021-02-15 09:10:42.460,2716.7004,0
330,330,2021-02-15 09:11:12.460,2736.301,0
340,340,2021-02-15 09:11:42.460,2750.6204,0
350,350,2021-02-15 09:12:12.460,2764.2249,0
360,360,2021-02-15 09:12:42.460,2776.8171,0
370,370,2021-02-15 09:13:12.460,2808.2476,0
380,380,2021-02-15 09:13:42.460,2835.4983,0
390,390,2021-02-15 09:14:12.460,2858.7048,0
400,400,2021-02-15 09:14:42.460,2880.7725,0
410,410,2021-02-15 09:15:12.460,2902.026,0
420,420,2021-02-15 09:15:42.460,2922.784,0
430,430,2021-02-15 09:16:12.460,2945.1992,0
440,440,2021-02-15 09:16:42.460,2967.1479999999997,0
450,450,2021-02-15 09:17:12.460,2986.5240000000003,0
460,460,2021-02-15 09:17:42.460,3009.322,0
470,470,2021-02-15 09:18:12.460,2913.7059999999997,0
480,480,2021-02-15 09:18:42.460,2890.3062,0
490,490,2021-02-15 09:19:12.460,2896.1702,0
500,500,2021-02-15 09:19:42.460,2912.0994,0
510,510,2021-02-15 09:20:12.460,2924.6982,0
520,520,2021-02-15 09:20:42.460,2944.9829999999997,0
530,530,2021-02-15 09:21:12.460,3021.9834,0
540,540,2021-02-15 09:21:42.460,3054.9214,0
550,550,2021-02-15 09:22:12.460,3081.2644,0
560,560,2021-02-15 09:22:42.460,3100.3953,0
570,570,2021-02-15 09:23:12.460,3114.5295,0
580,580,2021-02-15 09:23:42.460,3132.9976,0
590,590,2021-02-15 09:24:12.460,3149.664,0
600,600,2021-02-15 09:24:42.460,3163.8704,0
610,610,2021-02-15 09:25:12.460,3178.9392,0
620,620,2021-02-15 09:25:42.460,3194.8777,0
630,630,2021-02-15 09:26:12.460,3211.3184,0
640,640,2021-02-15 09:26:42.460,3227.922,0
650,650,2021-02-15 09:27:12.460,3244.768,0
660,660,2021-02-15 09:27:42.460,3271.4363,0
670,670,2021-02-15 09:28:12.460,3302.3716,0
680,680,2021-02-15 09:28:42.460,3333.0613,0
690,690,2021-02-15 09:29:12.460,3361.7666,0
700,700,2021-02-15 09:29:42.460,3389.3567,0
710,710,2021-02-15 09:30:12.460,3286.4097,0
720,720,2021-02-15 09:30:42.460,3277.1877,0
730,730,2021-02-15 09:31:12.460,3301.2178,0
740,740,2021-02-15 09:31:42.460,3329.7670000000003,0
750,750,2021-02-15 09:32:12.460,3350.1812,0
760,760,2021-02-15 09:32:42.460,3372.9036,0
770,770,2021-02-15 09:33:12.460,3399.797,0
780,780,2021-02-15 09:33:42.460,3429.5012,0
790,790,2021-02-15 09:34:12.460,3450.1494,0
800,800,2021-02-15 09:34:42.460,3481.7036,0
810,810,2021-02-15 09:35:12.460,3504.1416,0
820,820,2021-02-15 09:35:42.460,3519.4832,0
830,830,2021-02-15 09:36:12.460,3537.0588,0
840,840,2021-02-15 09:36:42.460,3554.6090000000004,0
850,850,2021-02-15 09:37:12.460,3572.067,0
860,860,2021-02-15 09:37:42.460,3589.34,0
870,870,2021-02-15 09:38:12.460,3606.3816,0
880,880,2021-02-15 09:38:42.460,3623.7979,0
890,890,2021-02-15 09:39:12.460,3641.4368,0
900,900,2021-02-15 09:39:42.460,3669.6182,0
910,910,2021-02-15 09:40:12.460,3696.968,0
920,920,2021-02-15 09:40:42.460,3722.7183,0
930,930,2021-02-15 09:41:12.460,3745.5781,0
940,940,2021-02-15 09:41:42.460,3769.2231,0
950,950,2021-02-15 09:42:12.460,3792.525,0
960,960,2021-02-15 09:42:42.460,3693.9570000000003,0
970,970,2021-02-15 09:43:12.460,3680.9226,0
980,980,2021-02-15 09:43:42.460,3704.86,0
990,990,2021-02-15 09:44:12.460,3741.8109999999997,0
1000,1000,2021-02-15 09:44:42.460,3759.6616,0
1010,1010,2021-02-15 09:45:12.460,3791.2217,0
1020,1020,2021-02-15 09:45:42.460,3820.0496,0
1030,1030,2021-02-15 09:46:12.460,3840.1892,0
1040,1040,2021-02-15 09:46:42.460,3862.5209999999997,0
1050,1050,2021-02-15 09:47:12.460,3883.3096,0
1060,1060,2021-02-15 09:47:42.460,3902.6545,0
1070,1070,2021-02-15 09:48:12.460,3920.6797,0
1080,1080,2021-02-15 09:48:42.460,3937.972,0
1090,1090,2021-02-15 09:49:12.460,3954.8684,0
1100,1100,2021-02-15 09:49:42.460,3971.8242,0
1110,1110,2021-02-15 09:50:12.460,3986.3477,0
1120,1120,2021-02-15 09:50:42.460,4002.1062,0
1130,1130,2021-02-15 09:51:12.460,4018.2268,0
1140,1140,2021-02-15 09:51:42.460,4049.1602,0
1150,1150,2021-02-15 09:52:12.460,4074.9016,0
1160,1160,2021-02-15 09:52:42.460,4098.1406,0
1170,1170,2021-02-15 09:53:12.460,4120.112,0
1180,1180,2021-02-15 09:53:42.460,4045.0464,0
1190,1190,2021-02-15 09:54:12.460,4010.3704,0
1200,1200,2021-02-15 09:54:42.460,4011.829,0
1210,1210,2021-02-15 09:55:12.460,4036.93,0
1220,1220,2021-02-15 09:55:42.460,4061.6978,0
1230,1230,2021-02-15 09:56:12.460,4092.0798,0
1240,1240,2021-02-15 09:56:42.460,4120.0864,0
1250,1250,2021-02-15 09:57:12.460,4141.365,0
1260,1260,2021-02-15 09:57:42.460,4166.4507,0
1270,1270,2021-02-15 09:58:12.460,4185.505,0
1280,1280,2021-02-15 09:58:42.460,4199.4966,0
1290,1290,2021-02-15 09:59:12.460,4218.3164,0
1300,1300,2021-02-15 09:59:42.460,4251.0405,0
1310,1310,2021-02-15 10:00:12.460,4272.519,0
1320,1320,2021-02-15 10:00:42.460,4292.9253,0
1330,1330,2021-02-15 10:01:12.460,4309.667,0
1340,1340,2021-02-15 10:01:42.460,4326.8877,0
1350,1350,2021-02-15 10:02:12.460,4344.061,0
1360,1360,2021-02-15 10:02:42.460,4360.228,0
1370,1370,2021-02-15 10:03:12.460,4376.5034,0
1380,1380,2021-02-15 10:03:42.460,4394.4346,0
1390,1390,2021-02-15 10:04:12.460,4333.7153,0
1400,1400,2021-02-15 10:04:42.460,4321.97,0
1410,1410,2021-02-15 10:05:12.460,4337.054,0
1420,1420,2021-02-15 10:05:42.460,4374.224,0
1430,1430,2021-02-15 10:06:12.460,4411.1924,0
1440,1440,2021-02-15 10:06:42.460,4435.1504,0
1450,1450,2021-02-15 10:07:12.460,4458.6553,0
1460,1460,2021-02-15 10:07:42.460,4480.602,0
1470,1470,2021-02-15 10:08:12.460,4498.1323,0
1480,1480,2021-02-15 10:08:42.460,4518.6226,0
1490,1490,2021-02-15 10:09:12.460,4555.982,0
1500,1500,2021-02-15 10:09:42.460,4576.233,0
1510,1510,2021-02-15 10:10:12.460,4595.4307,0
1520,1520,2021-02-15 10:10:42.460,4610.6484,0
1530,1530,2021-02-15 10:11:12.460,4621.775,0
1540,1540,2021-02-15 10:11:42.460,4637.7393,0
1550,1550,2021-02-15 10:12:12.460,4649.8643,0
1560,1560,2021-02-15 10:12:42.460,4662.8105,0
1570,1570,2021-02-15 10:13:12.460,4677.611,0
1580,1580,2021-02-15 10:13:42.460,4694.622,0
1590,1590,2021-02-15 10:14:12.460,4714.0176,0
1600,1600,2021-02-15 10:14:42.460,4737.3896,0
1610,1610,2021-02-15 10:15:12.460,4708.7896,0
1620,1620,2021-02-15 10:15:42.460,4715.812,0
1630,1630,2021-02-15 10:16:12.460,4743.438,0
1640,1640,2021-02-15 10:16:42.460,4778.975,0
1650,1650,2021-02-15 10:17:12.460,4808.629,0
1660,1660,2021-02-15 10:17:42.460,4832.6597,0
1670,1670,2021-02-15 10:18:12.460,4854.939,0
1680,1680,2021-02-15 10:18:42.460,4876.1724,0
1690,1690,2021-02-15 10:19:12.460,4892.504,0
1700,1700,2021-02-15 10:19:42.460,4908.182,0
1710,1710,2021-02-15 10:20:12.460,4920.668,0
1720,1720,2021-02-15 10:20:42.460,4936.6265,0
1730,1730,2021-02-15 10:21:12.460,4950.766,0
1740,1740,2021-02-15 10:21:42.460,4960.871,0
1750,1750,2021-02-15 10:22:12.460,4972.6179999999995,0
1760,1760,2021-02-15 10:22:42.460,4987.9414,0
1770,1770,2021-02-15 10:23:12.460,4998.8804,0
1780,1780,2021-02-15 10:23:42.460,5011.076,0
1790,1790,2021-02-15 10:24:12.460,5030.5576,0
1800,1800,2021-02-15 10:24:42.460,5047.133,0
1810,1810,2021-02-15 10:25:12.460,5004.44,0
1820,1820,2021-02-15 10:25:42.460,4996.880999999999,0
1830,1830,2021-02-15 10:26:12.460,5016.6255,0
1840,1840,2021-02-15 10:26:42.460,5051.6797,0
1850,1850,2021-02-15 10:27:12.460,5076.7134,0
1860,1860,2021-02-15 10:27:42.460,5097.5254,0
1870,1870,2021-02-15 10:28:12.460,5117.6626,0
1880,1880,2021-02-15 10:28:42.460,5146.98,0
1890,1890,2021-02-15 10:29:12.460,5169.975,0
1900,1900,2021-02-15 10:29:42.460,5191.7207,0
1910,1910,2021-02-15 10:30:12.460,5202.5654,0
1920,1920,2021-02-15 10:30:42.460,5214.1179999999995,0
1930,1930,2021-02-15 10:31:12.460,5224.1875,0
1940,1940,2021-02-15 10:31:42.460,5233.944,0
1950,1950,2021-02-15 10:32:12.460,5249.2417,0
1960,1960,2021-02-15 10:32:42.460,5265.576999999999,0
1970,1970,2021-02-15 10:33:12.460,5280.69,0
1980,1980,2021-02-15 10:33:42.460,5300.37,0
1990,1990,2021-02-15 10:34:12.460,5319.3315,0
2000,2000,2021-02-15 10:34:42.460,5286.585,0
2010,2010,2021-02-15 10:35:12.460,5281.786,0
2020,2020,2021-02-15 10:35:42.460,5301.9683,0
2030,2030,2021-02-15 10:36:12.460,5340.254,0
2040,2040,2021-02-15 10:36:42.460,5368.956999999999,0
2050,2050,2021-02-15 10:37:12.460,5388.276999999999,0
2060,2060,2021-02-15 10:37:42.460,5407.83,0
2070,2070,2021-02-15 10:38:12.460,5437.644,0
2080,2080,2021-02-15 10:38:42.460,5459.84,0
2090,2090,2021-02-15 10:39:12.460,5481.6226,0
2100,2100,2021-02-15 10:39:42.460,5497.8135,0
2110,2110,2021-02-15 10:40:12.460,5509.501,0
2120,2120,2021-02-15 10:40:42.460,5518.871,0
2130,2130,2021-02-15 10:41:12.460,5525.9194,0
2140,2140,2021-02-15 10:41:42.460,5538.717,0
2150,2150,2021-02-15 10:42:12.460,5550.3555,0
2160,2160,2021-02-15 10:42:42.460,5563.7944,0
2170,2170,2021-02-15 10:43:12.460,5581.55,0
2180,2180,2021-02-15 10:43:42.460,5537.5869999999995,0
2190,2190,2021-02-15 10:44:12.460,5526.2480000000005,0
2200,2200,2021-02-15 10:44:42.460,5549.717,0
2210,2210,2021-02-15 10:45:12.460,5580.6025,0
2220,2220,2021-02-15 10:45:42.460,5595.2314,0
2230,2230,2021-02-15 10:46:12.460,5636.925,0
2240,2240,2021-02-15 10:46:42.460,5652.7153,0
2250,2250,2021-02-15 10:47:12.460,5660.055,0
2260,2260,2021-02-15 10:47:42.460,5674.3228,0
2270,2270,2021-02-15 10:48:12.460,5688.1655,0
2280,2280,2021-02-15 10:48:42.460,5704.0380000000005,0
2290,2290,2021-02-15 10:49:12.460,5720.6797,0
2300,2300,2021-02-15 10:49:42.460,5731.098000000001,0
2310,2310,2021-02-15 10:50:12.460,5741.4233,0
2320,2320,2021-02-15 10:50:42.460,5764.201,0
2330,2330,2021-02-15 10:51:12.460,5779.753000000001,0
2340,2340,2021-02-15 10:51:42.460,5791.681,0
2350,2350,2021-02-15 10:52:12.460,5758.2505,0
2360,2360,2021-02-15 10:52:42.460,5751.1416,0
2370,2370,2021-02-15 10:53:12.460,5762.096,0
2380,2380,2021-02-15 10:53:42.460,5787.938,0
2390,2390,2021-02-15 10:54:12.460,5817.629,0
2400,2400,2021-02-15 10:54:42.460,5827.53,0
2410,2410,2021-02-15 10:55:12.460,5843.8076,0
2420,2420,2021-02-15 10:55:42.460,5861.576,0
2430,2430,2021-02-15 10:56:12.460,5890.3213,0
2440,2440,2021-02-15 10:56:42.460,5912.5693,0
2450,2450,2021-02-15 10:57:12.460,5932.484,0
2460,2460,2021-02-15 10:57:42.460,5951.4062,0
2470,2470,2021-02-15 10:58:12.460,5969.9697,0
2480,2480,2021-02-15 10:58:42.460,5979.2764,0
2490,2490,2021-02-15 10:59:12.460,5990.401999999999,0
2500,2500,2021-02-15 10:59:42.460,6001.2495,0
2510,2510,2021-02-15 11:00:12.460,6014.5864,0
2520,2520,2021-02-15 11:00:42.460,6000.0977,0
2530,2530,2021-02-15 11:01:12.460,6001.1816,0
2540,2540,2021-02-15 11:01:42.460,6014.8745,0
2550,2550,2021-02-15 11:02:12.460,6040.6255,0
2560,2560,2021-02-15 11:02:42.460,6068.762,0
2570,2570,2021-02-15 11:03:12.460,6089.86,0
2580,2580,2021-02-15 11:03:42.460,6109.321,0
2590,2590,2021-02-15 11:04:12.460,6126.661999999999,0
2600,2600,2021-02-15 11:04:42.460,6141.7764,0
2610,2610,2021-02-15 11:05:12.460,6159.229,0
2620,2620,2021-02-15 11:05:42.460,6178.241999999999,0
2630,2630,2021-02-15 11:06:12.460,6196.03,0
2640,2640,2021-02-15 11:06:42.460,6215.4580000000005,0
2650,2650,2021-02-15 11:07:12.460,6229.8813,0
2660,2660,2021-02-15 11:07:42.460,6244.7573,0
2670,2670,2021-02-15 11:08:12.460,6260.3945,0
2680,2680,2021-02-15 11:08:42.460,6240.2236,0
2690,2690,2021-02-15 11:09:12.460,6230.267,0
2700,2700,2021-02-15 11:09:42.460,6238.931,0
2710,2710,2021-02-15 11:10:12.460,6261.596,0
2720,2720,2021-02-15 11:10:42.460,6284.0874,0
2730,2730,2021-02-15 11:11:12.460,6303.272,0
2740,2740,2021-02-15 11:11:42.460,6318.5435,0
2750,2750,2021-02-15 11:12:12.460,6332.685,0
2760,2760,2021-02-15 11:12:42.460,6346.7812,0
2770,2770,2021-02-15 11:13:12.460,6361.2427,0
2780,2780,2021-02-15 11:13:42.460,6384.1655,0
2790,2790,2021-02-15 11:14:12.460,6404.8115,0
2800,2800,2021-02-15 11:14:42.460,6422.8022,0
2810,2810,2021-02-15 11:15:12.460,6438.5674,0
2820,2820,2021-02-15 11:15:42.460,6452.2646,0
2830,2830,2021-02-15 11:16:12.460,6423.316999999999,0
2840,2840,2021-02-15 11:16:42.460,6416.4946,0
2850,2850,2021-02-15 11:17:12.460,6431.076999999999,0
2860,2860,2021-02-15 11:17:42.460,6456.8345,0
2870,2870,2021-02-15 11:18:12.460,6491.6359999999995,0
2880,2880,2021-02-15 11:18:42.460,6517.3240000000005,0
2890,2890,2021-02-15 11:19:12.460,6534.321999999999,0
2900,2900,2021-02-15 11:19:42.460,6549.4473,0
2910,2910,2021-02-15 11:20:12.460,6566.172,0
2920,2920,2021-02-15 11:20:42.460,6581.4395,0
2930,2930,2021-02-15 11:21:12.460,6597.5063,0
2940,2940,2021-02-15 11:21:42.460,6616.2725,0
2950,2950,2021-02-15 11:22:12.460,6634.661999999999,0
2960,2960,2021-02-15 11:22:42.460,6619.8516,0
2970,2970,2021-02-15 11:23:12.460,6625.69,0
2980,2980,2021-02-15 11:23:42.460,6644.7017,0
2990,2990,2021-02-15 11:24:12.460,6668.9033,0
3000,3000,2021-02-15 11:24:42.460,6686.24,0
3010,3010,2021-02-15 11:25:12.460,6702.9067,0
3020,3020,2021-02-15 11:25:42.460,6718.7456,0
3030,3030,2021-02-15 11:26:12.460,6730.2803,0
3040,3040,2021-02-15 11:26:42.460,6743.8706,0
3050,3050,2021-02-15 11:27:12.460,6758.6675,0
3060,3060,2021-02-15 11:27:42.460,6770.2847,0
3070,3070,2021-02-15 11:28:12.460,6784.731,0
3080,3080,2021-02-15 11:28:42.460,6803.255999999999,0
3090,3090,2021-02-15 11:29:12.460,6785.575,0
3100,3100,2021-02-15 11:29:42.460,6789.852,0
3110,3110,2021-02-15 11:30:12.460,6810.6367,0
3120,3120,2021-02-15 11:30:42.460,6828.43,0
3130,3130,2021-02-15 11:31:12.460,6843.435,0
3140,3140,2021-02-15 11:31:42.460,6857.1875,0
3150,3150,2021-02-15 11:32:12.460,6869.518,0
3160,3160,2021-02-15 11:32:42.460,6880.6777,0
3170,3170,2021-02-15 11:33:12.460,6900.38,0
3180,3180,2021-02-15 11:33:42.460,6917.0137,0
3190,3190,2021-02-15 11:34:12.460,6931.878000000001,0
3200,3200,2021-02-15 11:34:42.460,6905.783,0
3210,3210,2021-02-15 11:35:12.460,6903.991999999999,0
3220,3220,2021-02-15 11:35:42.460,6916.2524,0
3230,3230,2021-02-15 11:36:12.460,6939.8237,0
3240,3240,2021-02-15 11:36:42.460,6963.422,0
3250,3250,2021-02-15 11:37:12.460,6979.9937,0
3260,3260,2021-02-15 11:37:42.460,6992.2427,0
3270,3270,2021-02-15 11:38:12.460,7003.727,0
3280,3280,2021-02-15 11:38:42.460,7014.0645,0
3290,3290,2021-02-15 11:39:12.460,7026.8247,0
3300,3300,2021-02-15 11:39:42.460,7039.328,0
3310,3310,2021-02-15 11:40:12.460,7012.5757,0
3320,3320,2021-02-15 11:40:42.460,7010.5605,0
3330,3330,2021-02-15 11:41:12.460,7024.4824,0
3340,3340,2021-02-15 11:41:42.460,7048.1406,0
3350,3350,2021-02-15 11:42:12.460,7062.678000000001,0
3360,3360,2021-02-15 11:42:42.460,7076.293000000001,0
3370,3370,2021-02-15 11:43:12.460,7092.081,0
3380,3380,2021-02-15 11:43:42.460,7113.5386,0
3390,3390,2021-02-15 11:44:12.460,7126.6978,0
3400,3400,2021-02-15 11:44:42.460,7140.4169999999995,0
3410,3410,2021-02-15 11:45:12.460,7122.9805,0
3420,3420,2021-02-15 11:45:42.460,7120.5776,0
3430,3430,2021-02-15 11:46:12.460,7129.356,0
3440,3440,2021-02-15 11:46:42.460,7146.34,0
3450,3450,2021-02-15 11:47:12.460,7164.295,0
3460,3460,2021-02-15 11:47:42.460,7179.956999999999,0
3470,3470,2021-02-15 11:48:12.460,7197.8174,0
3480,3480,2021-02-15 11:48:42.460,7214.331,0
3490,3490,2021-02-15 11:49:12.460,7231.4517,0
3500,3500,2021-02-15 11:49:42.460,7207.1353,0
3510,3510,2021-02-15 11:50:12.460,7204.4395,0
3520,3520,2021-02-15 11:50:42.460,7215.9673,0
3530,3530,2021-02-15 11:51:12.460,7236.1759999999995,0
3540,3540,2021-02-15 11:51:42.460,7258.499,0
3550,3550,2021-02-15 11:52:12.460,7275.024,0
3560,3560,2021-02-15 11:52:42.460,7291.188,0
3570,3570,2021-02-15 11:53:12.460,7305.9890000000005,0
3580,3580,2021-02-15 11:53:42.460,7290.2954,0
3590,3590,2021-02-15 11:54:12.460,7294.1963,0
3600,3600,2021-02-15 11:54:42.460,7310.1445,0
3610,3610,2021-02-15 11:55:12.460,7326.0483,0
3620,3620,2021-02-15 11:55:42.460,7339.858,0
3630,3630,2021-02-15 11:56:12.460,7352.829000000001,0
3640,3640,2021-02-15 11:56:42.460,7367.1226,0
3650,3650,2021-02-15 11:57:12.460,7345.9619999999995,0
3660,3660,2021-02-15 11:57:42.460,7347.7397,0
3670,3670,2021-02-15 11:58:12.460,7362.043000000001,0
3680,3680,2021-02-15 11:58:42.460,7378.9077,0
3690,3690,2021-02-15 11:59:12.460,7395.5947,0
3700,3700,2021-02-15 11:59:42.460,7411.414000000001,0
3710,3710,2021-02-15 12:00:12.460,7385.936,0
3720,3720,2021-02-15 12:00:42.460,7386.7144,0
3730,3730,2021-02-15 12:01:12.460,7398.9473,0
3740,3740,2021-02-15 12:01:42.460,7411.776999999999,0
3750,3750,2021-02-15 12:02:12.460,7423.4727,0
3760,3760,2021-02-15 12:02:42.460,7402.9385,0
3770,3770,2021-02-15 12:03:12.460,7408.0103,0
3780,3780,2021-02-15 12:03:42.460,7417.6006,0
