,Unnamed: 0,time,prediction,step
1,1,2021-02-15 08:55:12.460,2128.2864,1
11,11,2021-02-15 08:55:42.460,2146.3496,1
21,21,2021-02-15 08:56:12.460,2151.2654,1
31,31,2021-02-15 08:56:42.460,2180.5776,1
41,41,2021-02-15 08:57:12.460,2186.8882,1
51,51,2021-02-15 08:57:42.460,2216.2766,1
61,61,2021-02-15 08:58:12.460,2246.6062,1
71,71,2021-02-15 08:58:42.460,2296.3975,1
81,81,2021-02-15 08:59:12.460,2322.6020000000003,1
91,91,2021-02-15 08:59:42.460,2338.7117,1
101,101,2021-02-15 09:00:12.460,2351.324,1
111,111,2021-02-15 09:00:42.460,2365.0447,1
121,121,2021-02-15 09:01:12.460,2376.1633,1
131,131,2021-02-15 09:01:42.460,2399.7527,1
141,141,2021-02-15 09:02:12.460,2423.7515,1
151,151,2021-02-15 09:02:42.460,2449.5408,1
161,161,2021-02-15 09:03:12.460,2473.244,1
171,171,2021-02-15 09:03:42.460,2497.4133,1
181,181,2021-02-15 09:04:12.460,2520.9824,1
191,191,2021-02-15 09:04:42.460,2537.6694,1
201,201,2021-02-15 09:05:12.460,2551.6096,1
211,211,2021-02-15 09:05:42.460,2560.4697,1
221,221,2021-02-15 09:06:12.460,2575.3284,1
231,231,2021-02-15 09:06:42.460,2536.2595,1
241,241,2021-02-15 09:07:12.460,2532.8396,1
251,251,2021-02-15 09:07:42.460,2536.7556,1
261,261,2021-02-15 09:08:12.460,2557.3489,1
271,271,2021-02-15 09:08:42.460,2595.8070000000002,1
281,281,2021-02-15 09:09:12.460,2671.0295,1
291,291,2021-02-15 09:09:42.460,2701.5671,1
301,301,2021-02-15 09:10:12.460,2718.1233,1
311,311,2021-02-15 09:10:42.460,2727.8948,1
321,321,2021-02-15 09:11:12.460,2743.3105,1
331,331,2021-02-15 09:11:42.460,2760.6620000000003,1
341,341,2021-02-15 09:12:12.460,2773.1533,1
351,351,2021-02-15 09:12:42.460,2785.6477,1
361,361,2021-02-15 09:13:12.460,2797.3533,1
371,371,2021-02-15 09:13:42.460,2829.8518,1
381,381,2021-02-15 09:14:12.460,2857.2859999999996,1
391,391,2021-02-15 09:14:42.460,2880.336,1
401,401,2021-02-15 09:15:12.460,2902.0867,1
411,411,2021-02-15 09:15:42.460,2922.8381,1
421,421,2021-02-15 09:16:12.460,2942.6633,1
431,431,2021-02-15 09:16:42.460,2964.7473,1
441,441,2021-02-15 09:17:12.460,2987.263,1
451,451,2021-02-15 09:17:42.460,3007.7349,1
461,461,2021-02-15 09:18:12.460,3032.7004,1
471,471,2021-02-15 09:18:42.460,2940.8516,1
481,481,2021-02-15 09:19:12.460,2919.6545,1
491,491,2021-02-15 09:19:42.460,2923.6782,1
501,501,2021-02-15 09:20:12.460,2940.4382,1
511,511,2021-02-15 09:20:42.460,2953.695,1
521,521,2021-02-15 09:21:12.460,2974.8726,1
531,531,2021-02-15 09:21:42.460,3054.7231,1
541,541,2021-02-15 09:22:12.460,3084.5789,1
551,551,2021-02-15 09:22:42.460,3109.8572,1
561,561,2021-02-15 09:23:12.460,3127.1873,1
571,571,2021-02-15 09:23:42.460,3138.9602,1
581,581,2021-02-15 09:24:12.460,3156.1816,1
591,591,2021-02-15 09:24:42.460,3171.9072,1
601,601,2021-02-15 09:25:12.460,3185.1995,1
611,611,2021-02-15 09:25:42.460,3199.2837,1
621,621,2021-02-15 09:26:12.460,3214.4678,1
631,631,2021-02-15 09:26:42.460,3230.3665,1
641,641,2021-02-15 09:27:12.460,3246.5122,1
651,651,2021-02-15 09:27:42.460,3262.9485,1
661,661,2021-02-15 09:28:12.460,3290.6248,1
671,671,2021-02-15 09:28:42.460,3322.4038,1
681,681,2021-02-15 09:29:12.460,3353.4114,1
691,691,2021-02-15 09:29:42.460,3382.6016,1
701,701,2021-02-15 09:30:12.460,3411.0845,1
711,711,2021-02-15 09:30:42.460,3311.816,1
721,721,2021-02-15 09:31:12.460,3306.0103,1
731,731,2021-02-15 09:31:42.460,3329.7134,1
741,741,2021-02-15 09:32:12.460,3358.3520000000003,1
751,751,2021-02-15 09:32:42.460,3379.2776,1
761,761,2021-02-15 09:33:12.460,3402.8223,1
771,771,2021-02-15 09:33:42.460,3429.3755,1
781,781,2021-02-15 09:34:12.460,3458.52,1
791,791,2021-02-15 09:34:42.460,3478.0959999999995,1
801,801,2021-02-15 09:35:12.460,3511.4236,1
811,811,2021-02-15 09:35:42.460,3533.0515,1
821,821,2021-02-15 09:36:12.460,3546.5596,1
831,831,2021-02-15 09:36:42.460,3563.2678,1
841,841,2021-02-15 09:37:12.460,3579.8271,1
851,851,2021-02-15 09:37:42.460,3596.2336,1
861,861,2021-02-15 09:38:12.460,3612.3508,1
871,871,2021-02-15 09:38:42.460,3628.138,1
881,881,2021-02-15 09:39:12.460,3644.632,1
891,891,2021-02-15 09:39:42.460,3661.6675,1
901,901,2021-02-15 09:40:12.460,3690.1679999999997,1
911,911,2021-02-15 09:40:42.460,3717.1104,1
921,921,2021-02-15 09:41:12.460,3742.5244,1
931,931,2021-02-15 09:41:42.460,3765.3977,1
941,941,2021-02-15 09:42:12.460,3789.2932,1
951,951,2021-02-15 09:42:42.460,3813.054,1
961,961,2021-02-15 09:43:12.460,3718.5159999999996,1
971,971,2021-02-15 09:43:42.460,3709.7273,1
981,981,2021-02-15 09:44:12.460,3733.8367,1
991,991,2021-02-15 09:44:42.460,3771.6929,1
1001,1001,2021-02-15 09:45:12.460,3790.0276,1
1011,1011,2021-02-15 09:45:42.460,3822.1223,1
1021,1021,2021-02-15 09:46:12.460,3850.7295,1
1031,1031,2021-02-15 09:46:42.460,3869.3638,1
1041,1041,2021-02-15 09:47:12.460,3891.1692,1
1051,1051,2021-02-15 09:47:42.460,3911.5,1
1061,1061,2021-02-15 09:48:12.460,3930.1975,1
1071,1071,2021-02-15 09:48:42.460,3947.4924,1
1081,1081,2021-02-15 09:49:12.460,3964.0083,1
1091,1091,2021-02-15 09:49:42.460,3979.6846,1
1101,1101,2021-02-15 09:50:12.460,3995.2004,1
1111,1111,2021-02-15 09:50:42.460,4008.4133,1
1121,1121,2021-02-15 09:51:12.460,4023.1362,1
1131,1131,2021-02-15 09:51:42.460,4038.5476,1
1141,1141,2021-02-15 09:52:12.460,4069.4478,1
1151,1151,2021-02-15 09:52:42.460,4094.7131,1
1161,1161,2021-02-15 09:53:12.460,4117.5244,1
1171,1171,2021-02-15 09:53:42.460,4139.002,1
1181,1181,2021-02-15 09:54:12.460,4062.78,1
1191,1191,2021-02-15 09:54:42.460,4034.7805,1
1201,1201,2021-02-15 09:55:12.460,4037.9639,1
1211,1211,2021-02-15 09:55:42.460,4064.1679999999997,1
1221,1221,2021-02-15 09:56:12.460,4090.5798,1
1231,1231,2021-02-15 09:56:42.460,4121.523,1
1241,1241,2021-02-15 09:57:12.460,4148.7217,1
1251,1251,2021-02-15 09:57:42.460,4168.537,1
1261,1261,2021-02-15 09:58:12.460,4192.4004,1
1271,1271,2021-02-15 09:58:42.460,4210.3647,1
1281,1281,2021-02-15 09:59:12.460,4223.2627,1
1291,1291,2021-02-15 09:59:42.460,4241.413,1
1301,1301,2021-02-15 10:00:12.460,4272.6978,1
1311,1311,2021-02-15 10:00:42.460,4292.2915,1
1321,1321,2021-02-15 10:01:12.460,4311.56,1
1331,1331,2021-02-15 10:01:42.460,4327.487,1
1341,1341,2021-02-15 10:02:12.460,4343.3716,1
1351,1351,2021-02-15 10:02:42.460,4358.598,1
1361,1361,2021-02-15 10:03:12.460,4372.9624,1
1371,1371,2021-02-15 10:03:42.460,4388.325,1
1381,1381,2021-02-15 10:04:12.460,4406.295999999999,1
1391,1391,2021-02-15 10:04:42.460,4350.717000000001,1
1401,1401,2021-02-15 10:05:12.460,4342.879,1
1411,1411,2021-02-15 10:05:42.460,4363.933,1
1421,1421,2021-02-15 10:06:12.460,4402.8896,1
1431,1431,2021-02-15 10:06:42.460,4440.914000000001,1
1441,1441,2021-02-15 10:07:12.460,4464.317,1
1451,1451,2021-02-15 10:07:42.460,4487.0474,1
1461,1461,2021-02-15 10:08:12.460,4508.416,1
1471,1471,2021-02-15 10:08:42.460,4525.838,1
1481,1481,2021-02-15 10:09:12.460,4546.028,1
1491,1491,2021-02-15 10:09:42.460,4582.496,1
1501,1501,2021-02-15 10:10:12.460,4600.933,1
1511,1511,2021-02-15 10:10:42.460,4618.2495,1
1521,1521,2021-02-15 10:11:12.460,4631.665,1
1531,1531,2021-02-15 10:11:42.460,4640.308,1
1541,1541,2021-02-15 10:12:12.460,4653.9497,1
1551,1551,2021-02-15 10:12:42.460,4663.619000000001,1
1561,1561,2021-02-15 10:13:12.460,4675.2554,1
1571,1571,2021-02-15 10:13:42.460,4689.758,1
1581,1581,2021-02-15 10:14:12.460,4706.956,1
1591,1591,2021-02-15 10:14:42.460,4726.778,1
1601,1601,2021-02-15 10:15:12.460,4751.1807,1
1611,1611,2021-02-15 10:15:42.460,4726.765,1
1621,1621,2021-02-15 10:16:12.460,4738.3174,1
1631,1631,2021-02-15 10:16:42.460,4770.486,1
1641,1641,2021-02-15 10:17:12.460,4808.2344,1
1651,1651,2021-02-15 10:17:42.460,4838.9873,1
1661,1661,2021-02-15 10:18:12.460,4863.276,1
1671,1671,2021-02-15 10:18:42.460,4885.188,1
1681,1681,2021-02-15 10:19:12.460,4906.0977,1
1691,1691,2021-02-15 10:19:42.460,4920.97,1
1701,1701,2021-02-15 10:20:12.460,4935.3009999999995,1
1711,1711,2021-02-15 10:20:42.460,4946.2295,1
1721,1721,2021-02-15 10:21:12.460,4960.782,1
1731,1731,2021-02-15 10:21:42.460,4973.337,1
1741,1741,2021-02-15 10:22:12.460,4981.4546,1
1751,1751,2021-02-15 10:22:42.460,4991.3164,1
1761,1761,2021-02-15 10:23:12.460,5004.8687,1
1771,1771,2021-02-15 10:23:42.460,5013.772,1
1781,1781,2021-02-15 10:24:12.460,5024.572,1
1791,1791,2021-02-15 10:24:42.460,5043.9062,1
1801,1801,2021-02-15 10:25:12.460,5060.3945,1
1811,1811,2021-02-15 10:25:42.460,5022.8906,1
1821,1821,2021-02-15 10:26:12.460,5020.424,1
1831,1831,2021-02-15 10:26:42.460,5044.662,1
1841,1841,2021-02-15 10:27:12.460,5080.18,1
1851,1851,2021-02-15 10:27:42.460,5103.597,1
1861,1861,2021-02-15 10:28:12.460,5122.316,1
1871,1871,2021-02-15 10:28:42.460,5140.735,1
1881,1881,2021-02-15 10:29:12.460,5168.928,1
1891,1891,2021-02-15 10:29:42.460,5190.8335,1
1901,1901,2021-02-15 10:30:12.460,5211.572,1
1911,1911,2021-02-15 10:30:42.460,5219.627,1
1921,1921,2021-02-15 10:31:12.460,5228.7266,1
1931,1931,2021-02-15 10:31:42.460,5237.1104,1
1941,1941,2021-02-15 10:32:12.460,5246.2646,1
1951,1951,2021-02-15 10:32:42.460,5261.6074,1
1961,1961,2021-02-15 10:33:12.460,5278.106,1
1971,1971,2021-02-15 10:33:42.460,5293.536,1
1981,1981,2021-02-15 10:34:12.460,5313.6,1
1991,1991,2021-02-15 10:34:42.460,5332.945,1
2001,2001,2021-02-15 10:35:12.460,5304.8413,1
2011,2011,2021-02-15 10:35:42.460,5304.4136,1
2021,2021,2021-02-15 10:36:12.460,5329.857,1
2031,2031,2021-02-15 10:36:42.460,5369.0293,1
2041,2041,2021-02-15 10:37:12.460,5395.892,1
2051,2051,2021-02-15 10:37:42.460,5413.2607,1
2061,2061,2021-02-15 10:38:12.460,5431.5117,1
2071,2071,2021-02-15 10:38:42.460,5460.5054,1
2081,2081,2021-02-15 10:39:12.460,5481.601,1
2091,2091,2021-02-15 10:39:42.460,5502.3774,1
2101,2101,2021-02-15 10:40:12.460,5517.3037,1
2111,2111,2021-02-15 10:40:42.460,5526.5156,1
2121,2121,2021-02-15 10:41:12.460,5534.081,1
2131,2131,2021-02-15 10:41:42.460,5540.2183,1
2141,2141,2021-02-15 10:42:12.460,5552.741999999999,1
2151,2151,2021-02-15 10:42:42.460,5564.2188,1
2161,2161,2021-02-15 10:43:12.460,5577.6597,1
2171,2171,2021-02-15 10:43:42.460,5595.3945,1
2181,2181,2021-02-15 10:44:12.460,5556.941999999999,1
2191,2191,2021-02-15 10:44:42.460,5551.969,1
2201,2201,2021-02-15 10:45:12.460,5580.2153,1
2211,2211,2021-02-15 10:45:42.460,5610.94,1
2221,2221,2021-02-15 10:46:12.460,5623.5405,1
2231,2231,2021-02-15 10:46:42.460,5661.1665,1
2241,2241,2021-02-15 10:47:12.460,5674.283,1
2251,2251,2021-02-15 10:47:42.460,5680.34,1
2261,2261,2021-02-15 10:48:12.460,5694.137,1
2271,2271,2021-02-15 10:48:42.460,5707.6016,1
2281,2281,2021-02-15 10:49:12.460,5723.2524,1
2291,2291,2021-02-15 10:49:42.460,5739.64,1
2301,2301,2021-02-15 10:50:12.460,5747.8794,1
2311,2311,2021-02-15 10:50:42.460,5756.098000000001,1
2321,2321,2021-02-15 10:51:12.460,5777.420999999999,1
2331,2331,2021-02-15 10:51:42.460,5791.13,1
2341,2341,2021-02-15 10:52:12.460,5802.041,1
2351,2351,2021-02-15 10:52:42.460,5771.986999999999,1
2361,2361,2021-02-15 10:53:12.460,5767.428000000001,1
2371,2371,2021-02-15 10:53:42.460,5781.2065,1
2381,2381,2021-02-15 10:54:12.460,5808.0527,1
2391,2391,2021-02-15 10:54:42.460,5836.459,1
2401,2401,2021-02-15 10:55:12.460,5845.4995,1
2411,2411,2021-02-15 10:55:42.460,5861.7085,1
2421,2421,2021-02-15 10:56:12.460,5879.422,1
2431,2431,2021-02-15 10:56:42.460,5908.0337,1
2441,2441,2021-02-15 10:57:12.460,5929.334,1
2451,2451,2021-02-15 10:57:42.460,5948.1630000000005,1
2461,2461,2021-02-15 10:58:12.460,5966.3174,1
2471,2471,2021-02-15 10:58:42.460,5984.7188,1
2481,2481,2021-02-15 10:59:12.460,5992.9106,1
2491,2491,2021-02-15 10:59:42.460,6003.7676,1
2501,2501,2021-02-15 11:00:12.460,6014.8345,1
2511,2511,2021-02-15 11:00:42.460,6028.4624,1
2521,2521,2021-02-15 11:01:12.460,6015.778,1
2531,2531,2021-02-15 11:01:42.460,6019.4259999999995,1
2541,2541,2021-02-15 11:02:12.460,6035.0109999999995,1
2551,2551,2021-02-15 11:02:42.460,6060.7856,1
2561,2561,2021-02-15 11:03:12.460,6087.3706,1
2571,2571,2021-02-15 11:03:42.460,6106.9062,1
2581,2581,2021-02-15 11:04:12.460,6125.3447,1
2591,2591,2021-02-15 11:04:42.460,6141.825,1
2601,2601,2021-02-15 11:05:12.460,6156.221,1
2611,2611,2021-02-15 11:05:42.460,6173.3076,1
2621,2621,2021-02-15 11:06:12.460,6192.488,1
2631,2631,2021-02-15 11:06:42.460,6210.6855,1
2641,2641,2021-02-15 11:07:12.460,6230.8423,1
2651,2651,2021-02-15 11:07:42.460,6244.968000000001,1
2661,2661,2021-02-15 11:08:12.460,6259.651999999999,1
2671,2671,2021-02-15 11:08:42.460,6275.2153,1
2681,2681,2021-02-15 11:09:12.460,6257.9097,1
2691,2691,2021-02-15 11:09:42.460,6252.179,1
2701,2701,2021-02-15 11:10:12.460,6263.621999999999,1
2711,2711,2021-02-15 11:10:42.460,6286.076999999999,1
2721,2721,2021-02-15 11:11:12.460,6305.8433,1
2731,2731,2021-02-15 11:11:42.460,6322.646,1
2741,2741,2021-02-15 11:12:12.460,6335.9995,1
2751,2751,2021-02-15 11:12:42.460,6348.5380000000005,1
2761,2761,2021-02-15 11:13:12.460,6361.2974,1
2771,2771,2021-02-15 11:13:42.460,6374.713000000001,1
2781,2781,2021-02-15 11:14:12.460,6397.1343,1
2791,2791,2021-02-15 11:14:42.460,6417.097,1
2801,2801,2021-02-15 11:15:12.460,6434.6694,1
2811,2811,2021-02-15 11:15:42.460,6450.6553,1
2821,2821,2021-02-15 11:16:12.460,6464.691,1
2831,2831,2021-02-15 11:16:42.460,6439.6636,1
2841,2841,2021-02-15 11:17:12.460,6436.3335,1
2851,2851,2021-02-15 11:17:42.460,6453.5830000000005,1
2861,2861,2021-02-15 11:18:12.460,6479.3286,1
2871,2871,2021-02-15 11:18:42.460,6511.1436,1
2881,2881,2021-02-15 11:19:12.460,6533.6465,1
2891,2891,2021-02-15 11:19:42.460,6548.456,1
2901,2901,2021-02-15 11:20:12.460,6562.3027,1
2911,2911,2021-02-15 11:20:42.460,6578.491,1
2921,2921,2021-02-15 11:21:12.460,6593.6313,1
2931,2931,2021-02-15 11:21:42.460,6610.0034,1
2941,2941,2021-02-15 11:22:12.460,6629.38,1
2951,2951,2021-02-15 11:22:42.460,6648.5376,1
2961,2961,2021-02-15 11:23:12.460,6637.3887,1
2971,2971,2021-02-15 11:23:42.460,6647.3506,1
2981,2981,2021-02-15 11:24:12.460,6668.053000000001,1
2991,2991,2021-02-15 11:24:42.460,6691.0835,1
3001,3001,2021-02-15 11:25:12.460,6706.526999999999,1
3011,3011,2021-02-15 11:25:42.460,6721.273,1
3021,3021,2021-02-15 11:26:12.460,6735.286999999999,1
3031,3031,2021-02-15 11:26:42.460,6745.174,1
3041,3041,2021-02-15 11:27:12.460,6757.56,1
3051,3051,2021-02-15 11:27:42.460,6771.4556,1
3061,3061,2021-02-15 11:28:12.460,6782.494000000001,1
3071,3071,2021-02-15 11:28:42.460,6796.8413,1
3081,3081,2021-02-15 11:29:12.460,6815.6990000000005,1
3091,3091,2021-02-15 11:29:42.460,6801.267,1
3101,3101,2021-02-15 11:30:12.460,6809.0645,1
3111,3111,2021-02-15 11:30:42.460,6831.935,1
3121,3121,2021-02-15 11:31:12.460,6850.9004,1
3131,3131,2021-02-15 11:31:42.460,6864.4595,1
3141,3141,2021-02-15 11:32:12.460,6876.014,1
3151,3151,2021-02-15 11:32:42.460,6886.084,1
3161,3161,2021-02-15 11:33:12.460,6895.058000000001,1
3171,3171,2021-02-15 11:33:42.460,6913.433000000001,1
3181,3181,2021-02-15 11:34:12.460,6928.736,1
3191,3191,2021-02-15 11:34:42.460,6942.666,1
3201,3201,2021-02-15 11:35:12.460,6919.2046,1
3211,3211,2021-02-15 11:35:42.460,6920.823,1
3221,3221,2021-02-15 11:36:12.460,6935.286,1
3231,3231,2021-02-15 11:36:42.460,6958.6846,1
3241,3241,2021-02-15 11:37:12.460,6980.994000000001,1
3251,3251,2021-02-15 11:37:42.460,6996.5107,1
3261,3261,2021-02-15 11:38:12.460,7006.689,1
3271,3271,2021-02-15 11:38:42.460,7016.2676,1
3281,3281,2021-02-15 11:39:12.460,7025.142,1
3291,3291,2021-02-15 11:39:42.460,7037.099,1
3301,3301,2021-02-15 11:40:12.460,7049.149,1
3311,3311,2021-02-15 11:40:42.460,7025.7437,1
3321,3321,2021-02-15 11:41:12.460,7027.013000000001,1
3331,3331,2021-02-15 11:41:42.460,7042.6597,1
3341,3341,2021-02-15 11:42:12.460,7065.4385,1
3351,3351,2021-02-15 11:42:42.460,7078.7812,1
3361,3361,2021-02-15 11:43:12.460,7091.474,1
3371,3371,2021-02-15 11:43:42.460,7106.565,1
3381,3381,2021-02-15 11:44:12.460,7127.4259999999995,1
3391,3391,2021-02-15 11:44:42.460,7138.6113,1
3401,3401,2021-02-15 11:45:12.460,7150.88,1
3411,3411,2021-02-15 11:45:42.460,7134.2227,1
3421,3421,2021-02-15 11:46:12.460,7133.5109999999995,1
3431,3431,2021-02-15 11:46:42.460,7143.007,1
3441,3441,2021-02-15 11:47:12.460,7159.4116,1
3451,3451,2021-02-15 11:47:42.460,7176.194,1
3461,3461,2021-02-15 11:48:12.460,7190.8423,1
3471,3471,2021-02-15 11:48:42.460,7208.297,1
3481,3481,2021-02-15 11:49:12.460,7224.638000000001,1
3491,3491,2021-02-15 11:49:42.460,7241.8804,1
3501,3501,2021-02-15 11:50:12.460,7220.0019999999995,1
3511,3511,2021-02-15 11:50:42.460,7219.9683,1
3521,3521,2021-02-15 11:51:12.460,7232.4907,1
3531,3531,2021-02-15 11:51:42.460,7251.5509999999995,1
3541,3541,2021-02-15 11:52:12.460,7271.9653,1
3551,3551,2021-02-15 11:52:42.460,7286.831,1
3561,3561,2021-02-15 11:53:12.460,7301.853,1
3571,3571,2021-02-15 11:53:42.460,7315.9175,1
3581,3581,2021-02-15 11:54:12.460,7302.045,1
3591,3591,2021-02-15 11:54:42.460,7308.6826,1
3601,3601,2021-02-15 11:55:12.460,7326.1055,1
3611,3611,2021-02-15 11:55:42.460,7340.75,1
3621,3621,2021-02-15 11:56:12.460,7353.0254,1
3631,3631,2021-02-15 11:56:42.460,7364.5444,1
3641,3641,2021-02-15 11:57:12.460,7377.7305,1
3651,3651,2021-02-15 11:57:42.460,7358.1606,1
3661,3661,2021-02-15 11:58:12.460,7361.611,1
3671,3671,2021-02-15 11:58:42.460,7375.8877,1
3681,3681,2021-02-15 11:59:12.460,7392.039000000001,1
3691,3691,2021-02-15 11:59:42.460,7407.9316,1
3701,3701,2021-02-15 12:00:12.460,7423.08,1
3711,3711,2021-02-15 12:00:42.460,7399.959,1
3721,3721,2021-02-15 12:01:12.460,7402.3765,1
3731,3731,2021-02-15 12:01:42.460,7413.645,1
3741,3741,2021-02-15 12:02:12.460,7424.8325,1
3751,3751,2021-02-15 12:02:42.460,7435.057,1
3761,3761,2021-02-15 12:03:12.460,7417.383000000001,1
3771,3771,2021-02-15 12:03:42.460,7423.259,1
3781,3781,2021-02-15 12:04:12.460,7432.078,1
