,Unnamed: 0,time,preds,step
12134,12134,2020-10-21 11:46:12.608,516.8629,4
12144,12144,2020-10-21 11:46:42.608,512.6156599999999,4
12154,12154,2020-10-21 11:47:12.608,509.96356,4
12164,12164,2020-10-21 11:47:42.608,505.70676,4
12174,12174,2020-10-21 11:48:12.608,502.42307,4
12184,12184,2020-10-21 11:48:42.608,498.44693,4
12194,12194,2020-10-21 11:49:12.608,494.91677999999996,4
12204,12204,2020-10-21 11:49:42.608,492.97083,4
12214,12214,2020-10-21 11:50:12.608,486.92,4
12224,12224,2020-10-21 11:50:42.608,483.38345,4
12234,12234,2020-10-21 11:51:12.608,481.1243,4
12244,12244,2020-10-21 11:51:42.608,476.0161,4
12254,12254,2020-10-21 11:52:12.608,472.5434,4
12264,12264,2020-10-21 11:52:42.608,467.6545,4
12274,12274,2020-10-21 11:53:12.608,469.21695,4
12284,12284,2020-10-21 11:53:42.608,467.30877999999996,4
12294,12294,2020-10-21 11:54:12.608,465.12637,4
12304,12304,2020-10-21 11:54:42.608,461.6066,4
12314,12314,2020-10-21 11:55:12.608,459.9315,4
12324,12324,2020-10-21 11:55:42.608,457.2825,4
12334,12334,2020-10-21 11:56:12.608,454.58797999999996,4
12344,12344,2020-10-21 11:56:42.608,451.47857999999997,4
12354,12354,2020-10-21 11:57:12.608,448.286,4
12364,12364,2020-10-21 11:57:42.608,442.6166,4
12374,12374,2020-10-21 11:58:12.608,438.77097000000003,4
12384,12384,2020-10-21 11:58:42.608,435.30785999999995,4
12394,12394,2020-10-21 11:59:12.608,431.30987999999996,4
12404,12404,2020-10-21 11:59:42.608,428.26968,4
12414,12414,2020-10-21 12:00:12.608,424.49683,4
12424,12424,2020-10-21 12:00:42.608,421.3417,4
12434,12434,2020-10-21 12:01:12.608,419.26099999999997,4
12444,12444,2020-10-21 12:01:42.608,415.13828,4
12454,12454,2020-10-21 12:02:12.608,412.68582000000004,4
12464,12464,2020-10-21 12:02:42.608,408.66003,4
12474,12474,2020-10-21 12:03:12.608,404.51065,4
12484,12484,2020-10-21 12:03:42.608,401.99228,4
12494,12494,2020-10-21 12:04:12.608,396.17545,4
12504,12504,2020-10-21 12:04:42.608,390.64203,4
12514,12514,2020-10-21 12:05:12.608,385.94446,4
12524,12524,2020-10-21 12:05:42.608,382.87302,4
12534,12534,2020-10-21 12:06:12.608,379.41263,4
12544,12544,2020-10-21 12:06:42.608,376.53296,4
12554,12554,2020-10-21 12:07:12.608,374.57428,4
12564,12564,2020-10-21 12:07:42.608,367.87607,4
12574,12574,2020-10-21 12:08:12.608,362.21963999999997,4
12584,12584,2020-10-21 12:08:42.608,357.3919,4
12594,12594,2020-10-21 12:09:12.608,354.84155,4
12604,12604,2020-10-21 12:09:42.608,351.65375,4
12614,12614,2020-10-21 12:10:12.608,347.80875,4
12624,12624,2020-10-21 12:10:42.608,340.42343,4
12634,12634,2020-10-21 12:11:12.608,334.71972999999997,4
12644,12644,2020-10-21 12:11:42.608,328.01596,4
12654,12654,2020-10-21 12:12:12.608,323.7019,4
12664,12664,2020-10-21 12:12:42.608,314.7504,4
12674,12674,2020-10-21 12:13:12.608,308.2348,4
12684,12684,2020-10-21 12:13:42.608,299.95685,4
12694,12694,2020-10-21 12:14:12.608,296.73956,4
12704,12704,2020-10-21 12:14:42.608,283.71317,4
12714,12714,2020-10-21 12:15:12.608,280.0578,4
12724,12724,2020-10-21 12:15:42.608,270.91275,4
12734,12734,2020-10-21 12:16:12.608,250.72409,4
12744,12744,2020-10-21 12:16:42.608,241.88551,4
12754,12754,2020-10-21 12:17:12.608,237.36742999999998,4
12764,12764,2020-10-21 12:17:42.608,220.34126,4
12774,12774,2020-10-21 12:18:12.608,214.26932000000002,4
12784,12784,2020-10-21 12:18:42.608,192.86221,4
12794,12794,2020-10-21 12:19:12.608,180.34991000000002,4
12804,12804,2020-10-21 12:19:42.608,160.61545,4
12814,12814,2020-10-21 12:20:12.608,158.79028,4
12824,12824,2020-10-21 12:20:42.608,156.02481,4
12834,12834,2020-10-21 12:21:12.608,155.33426,4
12844,12844,2020-10-21 12:21:42.608,138.26476,4
12854,12854,2020-10-21 12:22:12.608,130.27057,4
12864,12864,2020-10-21 12:22:42.608,110.635124,4
12874,12874,2020-10-21 12:23:12.608,87.23603,4
12884,12884,2020-10-21 12:23:42.608,82.59983000000001,4
12894,12894,2020-10-21 12:24:12.608,64.74601,4
12904,12904,2020-10-21 12:24:42.608,34.95929,4
12914,12914,2020-10-21 12:25:12.608,5.070358799999999,4
12924,12924,2020-10-21 12:25:42.608,-39.451465999999996,4
12934,12934,2020-10-21 12:26:12.608,-51.943940000000005,4
12944,12944,2020-10-21 12:26:42.608,-2.2795484,4
12954,12954,2020-10-21 12:27:12.608,2.5581652999999998,4
