,Unnamed: 0,time,preds,step
12130,12130,2020-10-21 11:44:12.608,529.1491,0
12140,12140,2020-10-21 11:44:42.608,525.5585,0
12150,12150,2020-10-21 11:45:12.608,522.974,0
12160,12160,2020-10-21 11:45:42.608,519.58453,0
12170,12170,2020-10-21 11:46:12.608,516.40985,0
12180,12180,2020-10-21 11:46:42.608,512.9894,0
12190,12190,2020-10-21 11:47:12.608,509.6327,0
12200,12200,2020-10-21 11:47:42.608,506.97736,0
12210,12210,2020-10-21 11:48:12.608,502.244,0
12220,12220,2020-10-21 11:48:42.608,498.73352,0
12230,12230,2020-10-21 11:49:12.608,495.8722,0
12240,12240,2020-10-21 11:49:42.608,491.80188,0
12250,12250,2020-10-21 11:50:12.608,488.6393,0
12260,12260,2020-10-21 11:50:42.608,484.43503,0
12270,12270,2020-10-21 11:51:12.608,484.056,0
12280,12280,2020-10-21 11:51:42.608,481.63898,0
12290,12290,2020-10-21 11:52:12.608,478.5404,0
12300,12300,2020-10-21 11:52:42.608,474.4833,0
12310,12310,2020-10-21 11:53:12.608,471.91857999999996,0
12320,12320,2020-10-21 11:53:42.608,469.8809,0
12330,12330,2020-10-21 11:54:12.608,467.29233,0
12340,12340,2020-10-21 11:54:42.608,465.02612,0
12350,12350,2020-10-21 11:55:12.608,462.61175999999995,0
12360,12360,2020-10-21 11:55:42.608,456.0112,0
12370,12370,2020-10-21 11:56:12.608,452.38104000000004,0
12380,12380,2020-10-21 11:56:42.608,448.93035999999995,0
12390,12390,2020-10-21 11:57:12.608,445.7573,0
12400,12400,2020-10-21 11:57:42.608,443.21435999999994,0
12410,12410,2020-10-21 11:58:12.608,439.94455,0
12420,12420,2020-10-21 11:58:42.608,436.83652,0
12430,12430,2020-10-21 11:59:12.608,433.431,0
12440,12440,2020-10-21 11:59:42.608,428.15652,0
12450,12450,2020-10-21 12:00:12.608,424.8365,0
12460,12460,2020-10-21 12:00:42.608,420.80875,0
12470,12470,2020-10-21 12:01:12.608,417.99405,0
12480,12480,2020-10-21 12:01:42.608,416.65668,0
12490,12490,2020-10-21 12:02:12.608,412.24307000000005,0
12500,12500,2020-10-21 12:02:42.608,407.2704,0
12510,12510,2020-10-21 12:03:12.608,401.63657,0
12520,12520,2020-10-21 12:03:42.608,397.93802,0
12530,12530,2020-10-21 12:04:12.608,394.97888,0
12540,12540,2020-10-21 12:04:42.608,391.88956,0
12550,12550,2020-10-21 12:05:12.608,390.15506,0
12560,12560,2020-10-21 12:05:42.608,382.7491,0
12570,12570,2020-10-21 12:06:12.608,378.51056,0
12580,12580,2020-10-21 12:06:42.608,374.59902999999997,0
12590,12590,2020-10-21 12:07:12.608,371.60828,0
12600,12600,2020-10-21 12:07:42.608,368.73822,0
12610,12610,2020-10-21 12:08:12.608,365.16397,0
12620,12620,2020-10-21 12:08:42.608,356.93365,0
12630,12630,2020-10-21 12:09:12.608,351.4313,0
12640,12640,2020-10-21 12:09:42.608,345.7467,0
12650,12650,2020-10-21 12:10:12.608,343.14052999999996,0
12660,12660,2020-10-21 12:10:42.608,333.98264,0
12670,12670,2020-10-21 12:11:12.608,327.846,0
12680,12680,2020-10-21 12:11:42.608,321.91586,0
12690,12690,2020-10-21 12:12:12.608,318.75217000000004,0
12700,12700,2020-10-21 12:12:42.608,306.93845,0
12710,12710,2020-10-21 12:13:12.608,302.06845,0
12720,12720,2020-10-21 12:13:42.608,295.211,0
12730,12730,2020-10-21 12:14:12.608,280.6012,0
12740,12740,2020-10-21 12:14:42.608,273.22922,0
12750,12750,2020-10-21 12:15:12.608,268.18616000000003,0
12760,12760,2020-10-21 12:15:42.608,254.78601,0
12770,12770,2020-10-21 12:16:12.608,248.358,0
12780,12780,2020-10-21 12:16:42.608,231.89146000000002,0
12790,12790,2020-10-21 12:17:12.608,221.73402000000002,0
12800,12800,2020-10-21 12:17:42.608,204.79813000000001,0
12810,12810,2020-10-21 12:18:12.608,201.38564,0
12820,12820,2020-10-21 12:18:42.608,196.67273,0
12830,12830,2020-10-21 12:19:12.608,193.33261000000002,0
12840,12840,2020-10-21 12:19:42.608,178.61303999999998,0
12850,12850,2020-10-21 12:20:12.608,168.30366999999998,0
12860,12860,2020-10-21 12:20:42.608,151.16957,0
12870,12870,2020-10-21 12:21:12.608,134.08536,0
12880,12880,2020-10-21 12:21:42.608,127.34043,0
12890,12890,2020-10-21 12:22:12.608,111.45943999999999,0
12900,12900,2020-10-21 12:22:42.608,87.16798,0
12910,12910,2020-10-21 12:23:12.608,62.335159999999995,0
12920,12920,2020-10-21 12:23:42.608,19.232939000000002,0
12930,12930,2020-10-21 12:24:12.608,5.7457805,0
12940,12940,2020-10-21 12:24:42.608,39.065525,0
12950,12950,2020-10-21 12:25:12.608,42.2383,0
