,Unnamed: 0,time,prediction,step
7844,7844,2020-10-21 11:46:12.608,525.997,4
7854,7854,2020-10-21 11:46:42.608,522.15894,4
7864,7864,2020-10-21 11:47:12.608,518.48083,4
7874,7874,2020-10-21 11:47:42.608,514.6744,4
7884,7884,2020-10-21 11:48:12.608,510.76093,4
7894,7894,2020-10-21 11:48:42.608,506.83205999999996,4
7904,7904,2020-10-21 11:49:12.608,502.83682000000005,4
7914,7914,2020-10-21 11:49:42.608,499.06592,4
7924,7924,2020-10-21 11:50:12.608,494.65082,4
7934,7934,2020-10-21 11:50:42.608,490.26172,4
7944,7944,2020-10-21 11:51:12.608,486.18744000000004,4
7954,7954,2020-10-21 11:51:42.608,481.76125999999994,4
7964,7964,2020-10-21 11:52:12.608,477.51099999999997,4
7974,7974,2020-10-21 11:52:42.608,472.97677999999996,4
7984,7984,2020-10-21 11:53:12.608,469.69046,4
7994,7994,2020-10-21 11:53:42.608,466.54607999999996,4
8004,8004,2020-10-21 11:54:12.608,462.7533,4
8014,8014,2020-10-21 11:54:42.608,458.89300000000003,4
8024,8024,2020-10-21 11:55:12.608,455.25824000000006,4
8034,8034,2020-10-21 11:55:42.608,451.764,4
8044,8044,2020-10-21 11:56:12.608,448.50104000000005,4
8054,8054,2020-10-21 11:56:42.608,445.18847999999997,4
8064,8064,2020-10-21 11:57:12.608,442.09997999999996,4
8074,8074,2020-10-21 11:57:42.608,437.91998,4
8084,8084,2020-10-21 11:58:12.608,434.0848,4
8094,8094,2020-10-21 11:58:42.608,430.5787,4
8104,8104,2020-10-21 11:59:12.608,427.335,4
8114,8114,2020-10-21 11:59:42.608,424.0239,4
8124,8124,2020-10-21 12:00:12.608,420.92758,4
8134,8134,2020-10-21 12:00:42.608,418.1497,4
8144,8144,2020-10-21 12:01:12.608,415.1686,4
8154,8154,2020-10-21 12:01:42.608,411.31317,4
8164,8164,2020-10-21 12:02:12.608,407.45477,4
8174,8174,2020-10-21 12:02:42.608,403.31300000000005,4
8184,8184,2020-10-21 12:03:12.608,399.28238,4
8194,8194,2020-10-21 12:03:42.608,396.0656,4
8204,8204,2020-10-21 12:04:12.608,392.73138,4
8214,8214,2020-10-21 12:04:42.608,389.05124,4
8224,8224,2020-10-21 12:05:12.608,384.78476,4
8234,8234,2020-10-21 12:05:42.608,380.80893,4
8244,8244,2020-10-21 12:06:12.608,377.0342,4
8254,8254,2020-10-21 12:06:42.608,373.14877,4
8264,8264,2020-10-21 12:07:12.608,369.5179,4
8274,8274,2020-10-21 12:07:42.608,364.14838,4
8284,8284,2020-10-21 12:08:12.608,359.86713,4
8294,8294,2020-10-21 12:08:42.608,355.78893999999997,4
8304,8304,2020-10-21 12:09:12.608,351.57556,4
8314,8314,2020-10-21 12:09:42.608,347.597,4
8324,8324,2020-10-21 12:10:12.608,344.03622,4
8334,8334,2020-10-21 12:10:42.608,338.834,4
8344,8344,2020-10-21 12:11:12.608,334.01153999999997,4
8354,8354,2020-10-21 12:11:42.608,329.2742,4
8364,8364,2020-10-21 12:12:12.608,324.92398,4
8374,8374,2020-10-21 12:12:42.608,317.84512,4
8384,8384,2020-10-21 12:13:12.608,311.09515,4
8394,8394,2020-10-21 12:13:42.608,304.66516,4
8404,8404,2020-10-21 12:14:12.608,298.82477,4
8414,8414,2020-10-21 12:14:42.608,290.88538,4
8424,8424,2020-10-21 12:15:12.608,283.63662999999997,4
8434,8434,2020-10-21 12:15:42.608,276.85037,4
8444,8444,2020-10-21 12:16:12.608,268.30062999999996,4
8454,8454,2020-10-21 12:16:42.608,259.43665,4
8464,8464,2020-10-21 12:17:12.608,251.39257999999998,4
8474,8474,2020-10-21 12:17:42.608,240.95255,4
8484,8484,2020-10-21 12:18:12.608,231.0384,4
8494,8494,2020-10-21 12:18:42.608,219.21528999999998,4
8504,8504,2020-10-21 12:19:12.608,207.90607,4
8514,8514,2020-10-21 12:19:42.608,194.24141,4
8524,8524,2020-10-21 12:20:12.608,182.6565,4
8534,8534,2020-10-21 12:20:42.608,172.23792,4
8544,8544,2020-10-21 12:21:12.608,162.67247,4
8554,8554,2020-10-21 12:21:42.608,151.25842,4
8564,8564,2020-10-21 12:22:12.608,140.79643000000002,4
8574,8574,2020-10-21 12:22:42.608,127.49394,4
8584,8584,2020-10-21 12:23:12.608,112.074455,4
8594,8594,2020-10-21 12:23:42.608,98.1764,4
8604,8604,2020-10-21 12:24:12.608,82.286766,4
8614,8614,2020-10-21 12:24:42.608,64.273094,4
8624,8624,2020-10-21 12:25:12.608,43.748909999999995,4
8634,8634,2020-10-21 12:25:42.608,15.239451999999998,4
8644,8644,2020-10-21 12:26:12.608,-9.9686775,4
8654,8654,2020-10-21 12:26:42.608,-18.615755,4
8664,8664,2020-10-21 12:27:12.608,-25.560270000000003,4
