,Unnamed: 0,time,preds,step
9532,9532,2021-02-10 07:46:12.950,821.7204,2
9542,9542,2021-02-10 07:46:42.950,819.6052,2
9552,9552,2021-02-10 07:47:12.950,816.4435,2
9562,9562,2021-02-10 07:47:42.950,814.4446,2
9572,9572,2021-02-10 07:48:12.950,813.35474,2
9582,9582,2021-02-10 07:48:42.950,811.8077400000001,2
9592,9592,2021-02-10 07:49:12.950,808.7078,2
9602,9602,2021-02-10 07:49:42.950,806.3156,2
9612,9612,2021-02-10 07:50:12.950,803.5146,2
9622,9622,2021-02-10 07:50:42.950,799.84357,2
9632,9632,2021-02-10 07:51:12.950,797.25006,2
9642,9642,2021-02-10 07:51:42.950,794.6012599999999,2
9652,9652,2021-02-10 07:52:12.950,790.3639,2
9662,9662,2021-02-10 07:52:42.950,788.01666,2
9672,9672,2021-02-10 07:53:12.950,785.8004,2
9682,9682,2021-02-10 07:53:42.950,783.4561,2
9692,9692,2021-02-10 07:54:12.950,781.91754,2
9702,9702,2021-02-10 07:54:42.950,780.3819,2
9712,9712,2021-02-10 07:55:12.950,776.9223,2
9722,9722,2021-02-10 07:55:42.950,774.5674,2
9732,9732,2021-02-10 07:56:12.950,771.8539999999999,2
9742,9742,2021-02-10 07:56:42.950,768.13007,2
9752,9752,2021-02-10 07:57:12.950,765.8380000000001,2
9762,9762,2021-02-10 07:57:42.950,762.4193,2
9772,9772,2021-02-10 07:58:12.950,758.3646,2
9782,9782,2021-02-10 07:58:42.950,755.4809,2
9792,9792,2021-02-10 07:59:12.950,753.32166,2
9802,9802,2021-02-10 07:59:42.950,751.3988,2
9812,9812,2021-02-10 08:00:12.950,749.8865400000001,2
9822,9822,2021-02-10 08:00:42.950,748.4838,2
9832,9832,2021-02-10 08:01:12.950,745.0484,2
9842,9842,2021-02-10 08:01:42.950,742.1418,2
9852,9852,2021-02-10 08:02:12.950,738.9057,2
9862,9862,2021-02-10 08:02:42.950,736.3931,2
9872,9872,2021-02-10 08:03:12.950,732.8610000000001,2
9882,9882,2021-02-10 08:03:42.950,728.9994,2
9892,9892,2021-02-10 08:04:12.950,725.60657,2
9902,9902,2021-02-10 08:04:42.950,721.7751,2
9912,9912,2021-02-10 08:05:12.950,719.6138,2
9922,9922,2021-02-10 08:05:42.950,717.86896,2
9932,9932,2021-02-10 08:06:12.950,714.64166,2
9942,9942,2021-02-10 08:06:42.950,712.2687400000001,2
9952,9952,2021-02-10 08:07:12.950,708.9398,2
9962,9962,2021-02-10 08:07:42.950,706.15625,2
9972,9972,2021-02-10 08:08:12.950,703.0394,2
9982,9982,2021-02-10 08:08:42.950,699.5134,2
9992,9992,2021-02-10 08:09:12.950,696.06635,2
10002,10002,2021-02-10 08:09:42.950,691.99945,2
10012,10012,2021-02-10 08:10:12.950,689.89343,2
10022,10022,2021-02-10 08:10:42.950,687.36194,2
10032,10032,2021-02-10 08:11:12.950,686.08636,2
10042,10042,2021-02-10 08:11:42.950,682.5457,2
10052,10052,2021-02-10 08:12:12.950,679.8639999999999,2
10062,10062,2021-02-10 08:12:42.950,677.0717,2
10072,10072,2021-02-10 08:13:12.950,673.5511,2
10082,10082,2021-02-10 08:13:42.950,670.2679,2
10092,10092,2021-02-10 08:14:12.950,667.1668,2
10102,10102,2021-02-10 08:14:42.950,662.7047,2
10112,10112,2021-02-10 08:15:12.950,659.1765,2
10122,10122,2021-02-10 08:15:42.950,657.06256,2
10132,10132,2021-02-10 08:16:12.950,654.8228,2
10142,10142,2021-02-10 08:16:42.950,651.15295,2
10152,10152,2021-02-10 08:17:12.950,648.9063,2
10162,10162,2021-02-10 08:17:42.950,645.2902,2
10172,10172,2021-02-10 08:18:12.950,642.75055,2
10182,10182,2021-02-10 08:18:42.950,639.01953,2
10192,10192,2021-02-10 08:19:12.950,635.3286,2
10202,10202,2021-02-10 08:19:42.950,631.5903,2
10212,10212,2021-02-10 08:20:12.950,627.6911,2
10222,10222,2021-02-10 08:20:42.950,625.7207599999999,2
10232,10232,2021-02-10 08:21:12.950,620.5853,2
10242,10242,2021-02-10 08:21:42.950,618.5182,2
10252,10252,2021-02-10 08:22:12.950,615.4922,2
10262,10262,2021-02-10 08:22:42.950,612.8984,2
10272,10272,2021-02-10 08:23:12.950,609.7769,2
10282,10282,2021-02-10 08:23:42.950,605.0512,2
10292,10292,2021-02-10 08:24:12.950,601.1192,2
10302,10302,2021-02-10 08:24:42.950,597.5387,2
10312,10312,2021-02-10 08:25:12.950,595.4144,2
10322,10322,2021-02-10 08:25:42.950,593.7199,2
10332,10332,2021-02-10 08:26:12.950,589.4554400000001,2
10342,10342,2021-02-10 08:26:42.950,586.0129,2
10352,10352,2021-02-10 08:27:12.950,582.70026,2
10362,10362,2021-02-10 08:27:42.950,579.2637,2
10372,10372,2021-02-10 08:28:12.950,575.6669,2
10382,10382,2021-02-10 08:28:42.950,571.2958,2
10392,10392,2021-02-10 08:29:12.950,567.0421,2
10402,10402,2021-02-10 08:29:42.950,564.0365,2
10412,10412,2021-02-10 08:30:12.950,557.68756,2
10422,10422,2021-02-10 08:30:42.950,554.36456,2
10432,10432,2021-02-10 08:31:12.950,551.8268400000001,2
10442,10442,2021-02-10 08:31:42.950,548.9367,2
10452,10452,2021-02-10 08:32:12.950,545.7379,2
10462,10462,2021-02-10 08:32:42.950,541.4099,2
10472,10472,2021-02-10 08:33:12.950,536.73926,2
10482,10482,2021-02-10 08:33:42.950,532.7188,2
10492,10492,2021-02-10 08:34:12.950,527.2933,2
10502,10502,2021-02-10 08:34:42.950,524.8934,2
10512,10512,2021-02-10 08:35:12.950,521.26355,2
10522,10522,2021-02-10 08:35:42.950,518.1916,2
10532,10532,2021-02-10 08:36:12.950,514.3332,2
10542,10542,2021-02-10 08:36:42.950,509.18677,2
10552,10552,2021-02-10 08:37:12.950,504.69632,2
10562,10562,2021-02-10 08:37:42.950,500.8515,2
10572,10572,2021-02-10 08:38:12.950,494.8267,2
10582,10582,2021-02-10 08:38:42.950,492.08124000000004,2
10592,10592,2021-02-10 08:39:12.950,489.29352,2
10602,10602,2021-02-10 08:39:42.950,486.53247000000005,2
10612,10612,2021-02-10 08:40:12.950,481.9229,2
10622,10622,2021-02-10 08:40:42.950,477.28033,2
10632,10632,2021-02-10 08:41:12.950,472.79944000000006,2
10642,10642,2021-02-10 08:41:42.950,469.16595,2
10652,10652,2021-02-10 08:42:12.950,462.67184000000003,2
10662,10662,2021-02-10 08:42:42.950,459.99062999999995,2
10672,10672,2021-02-10 08:43:12.950,457.0169,2
10682,10682,2021-02-10 08:43:42.950,453.89957000000004,2
10692,10692,2021-02-10 08:44:12.950,449.5043,2
10702,10702,2021-02-10 08:44:42.950,445.23800000000006,2
10712,10712,2021-02-10 08:45:12.950,440.27783,2
10722,10722,2021-02-10 08:45:42.950,431.65845,2
10732,10732,2021-02-10 08:46:12.950,427.97128,2
10742,10742,2021-02-10 08:46:42.950,423.76685,2
10752,10752,2021-02-10 08:47:12.950,422.27872,2
10762,10762,2021-02-10 08:47:42.950,418.722,2
10772,10772,2021-02-10 08:48:12.950,413.22900000000004,2
10782,10782,2021-02-10 08:48:42.950,408.8813,2
10792,10792,2021-02-10 08:49:12.950,396.21547999999996,2
10802,10802,2021-02-10 08:49:42.950,394.0741,2
10812,10812,2021-02-10 08:50:12.950,391.60666000000003,2
10822,10822,2021-02-10 08:50:42.950,389.17758,2
10832,10832,2021-02-10 08:51:12.950,385.2826,2
10842,10842,2021-02-10 08:51:42.950,371.60995,2
10852,10852,2021-02-10 08:52:12.950,365.76547,2
10862,10862,2021-02-10 08:52:42.950,355.47997999999995,2
10872,10872,2021-02-10 08:53:12.950,354.66446,2
10882,10882,2021-02-10 08:53:42.950,354.7185,2
10892,10892,2021-02-10 08:54:12.950,350.02768,2
10902,10902,2021-02-10 08:54:42.950,338.70245,2
10912,10912,2021-02-10 08:55:12.950,332.2972,2
10922,10922,2021-02-10 08:55:42.950,327.3844,2
10932,10932,2021-02-10 08:56:12.950,323.42084,2
10942,10942,2021-02-10 08:56:42.950,322.40994,2
10952,10952,2021-02-10 08:57:12.950,319.2316,2
10962,10962,2021-02-10 08:57:42.950,304.5757,2
10972,10972,2021-02-10 08:58:12.950,296.73984,2
10982,10982,2021-02-10 08:58:42.950,293.65994,2
10992,10992,2021-02-10 08:59:12.950,290.27484,2
11002,11002,2021-02-10 08:59:42.950,275.98392,2
11012,11012,2021-02-10 09:00:12.950,272.10193,2
11022,11022,2021-02-10 09:00:42.950,261.94687000000005,2
11032,11032,2021-02-10 09:01:12.950,257.72983,2
11042,11042,2021-02-10 09:01:42.950,252.67879,2
11052,11052,2021-02-10 09:02:12.950,242.96037,2
11062,11062,2021-02-10 09:02:42.950,238.543,2
11072,11072,2021-02-10 09:03:12.950,230.86283999999998,2
11082,11082,2021-02-10 09:03:42.950,223.70283999999998,2
11092,11092,2021-02-10 09:04:12.950,210.65916,2
11102,11102,2021-02-10 09:04:42.950,205.41455,2
11112,11112,2021-02-10 09:05:12.950,199.02777,2
11122,11122,2021-02-10 09:05:42.950,192.64925,2
11132,11132,2021-02-10 09:06:12.950,171.12941,2
11142,11142,2021-02-10 09:06:42.950,166.6396,2
11152,11152,2021-02-10 09:07:12.950,146.3351,2
