,Unnamed: 0,time,preds,step
12154,12154,2021-02-09 14:52:39.866,86.02730600000001,4
12164,12164,2021-02-09 14:53:09.866,89.46409,4
12174,12174,2021-02-09 14:53:39.866,87.53146,4
12184,12184,2021-02-09 14:54:09.866,87.999916,4
12194,12194,2021-02-09 14:54:39.866,86.05515,4
12204,12204,2021-02-09 14:55:09.866,82.703636,4
12214,12214,2021-02-09 14:55:39.866,86.41676,4
12224,12224,2021-02-09 14:56:09.866,87.34725999999999,4
12234,12234,2021-02-09 14:56:39.866,88.97842,4
12244,12244,2021-02-09 14:57:09.866,89.879395,4
12254,12254,2021-02-09 14:57:39.866,89.94830999999999,4
12264,12264,2021-02-09 14:58:09.866,88.231895,4
12274,12274,2021-02-09 14:58:39.866,87.88655,4
12284,12284,2021-02-09 14:59:09.866,88.33935,4
12294,12294,2021-02-09 14:59:39.866,89.8337,4
12304,12304,2021-02-09 15:00:09.866,89.16879,4
12314,12314,2021-02-09 15:00:39.866,87.21898,4
12324,12324,2021-02-09 15:01:09.866,87.19579,4
12334,12334,2021-02-09 15:01:39.866,87.75627,4
12344,12344,2021-02-09 15:02:09.866,87.55543,4
12354,12354,2021-02-09 15:02:39.866,86.95595,4
12364,12364,2021-02-09 15:03:09.866,86.85078,4
12374,12374,2021-02-09 15:03:39.866,87.29182,4
12384,12384,2021-02-09 15:04:09.866,87.05216,4
12394,12394,2021-02-09 15:04:39.866,87.29694,4
12404,12404,2021-02-09 15:05:09.866,85.804085,4
12414,12414,2021-02-09 15:05:39.866,85.914276,4
12424,12424,2021-02-09 15:06:09.866,85.23129,4
12434,12434,2021-02-09 15:06:39.866,83.81286999999999,4
12444,12444,2021-02-09 15:07:09.866,83.83948000000001,4
12454,12454,2021-02-09 15:07:39.866,83.32349,4
12464,12464,2021-02-09 15:08:09.866,84.10721600000001,4
12474,12474,2021-02-09 15:08:39.866,84.2291,4
12484,12484,2021-02-09 15:09:09.866,83.6534,4
12494,12494,2021-02-09 15:09:39.866,82.0501,4
12504,12504,2021-02-09 15:10:09.866,81.91060999999999,4
12514,12514,2021-02-09 15:10:39.866,81.82970999999999,4
12524,12524,2021-02-09 15:11:09.866,82.23258,4
12534,12534,2021-02-09 15:11:39.866,80.31456,4
12544,12544,2021-02-09 15:12:09.866,78.99946,4
12554,12554,2021-02-09 15:12:39.866,78.81177,4
12564,12564,2021-02-09 15:13:09.866,78.71631,4
12574,12574,2021-02-09 15:13:39.866,77.776825,4
12584,12584,2021-02-09 15:14:09.866,76.877945,4
12594,12594,2021-02-09 15:14:39.866,74.94682,4
12604,12604,2021-02-09 15:15:09.866,74.15679,4
12614,12614,2021-02-09 15:15:39.866,74.71055600000001,4
12624,12624,2021-02-09 15:16:09.866,74.63136999999999,4
12634,12634,2021-02-09 15:16:39.866,72.93564,4
12644,12644,2021-02-09 15:17:09.866,72.759445,4
12654,12654,2021-02-09 15:17:39.866,72.86108399999999,4
12664,12664,2021-02-09 15:18:09.866,72.15378,4
12674,12674,2021-02-09 15:18:39.866,69.89413,4
12684,12684,2021-02-09 15:19:09.866,68.80417,4
12694,12694,2021-02-09 15:19:39.866,66.999214,4
12704,12704,2021-02-09 15:20:09.866,67.64291,4
12714,12714,2021-02-09 15:20:39.866,65.4676,4
12724,12724,2021-02-09 15:21:09.866,64.08198,4
12734,12734,2021-02-09 15:21:39.866,63.8416,4
12744,12744,2021-02-09 15:22:09.866,63.106269999999995,4
12754,12754,2021-02-09 15:22:39.866,64.267494,4
12764,12764,2021-02-09 15:23:09.866,63.101963,4
12774,12774,2021-02-09 15:23:39.866,63.777336,4
12784,12784,2021-02-09 15:24:09.866,64.98899,4
12794,12794,2021-02-09 15:24:39.866,67.00901999999999,4
12804,12804,2021-02-09 15:25:09.866,66.07005,4
12814,12814,2021-02-09 15:25:39.866,66.969864,4
12824,12824,2021-02-09 15:26:09.866,67.38192,4
12834,12834,2021-02-09 15:26:39.866,66.22708,4
12844,12844,2021-02-09 15:27:09.866,66.464294,4
12854,12854,2021-02-09 15:27:39.866,65.52835999999999,4
12864,12864,2021-02-09 15:28:09.866,63.40025,4
12874,12874,2021-02-09 15:28:39.866,63.051345999999995,4
12884,12884,2021-02-09 15:29:09.866,61.866955000000004,4
12894,12894,2021-02-09 15:29:39.866,60.04910699999999,4
12904,12904,2021-02-09 15:30:09.866,59.97362,4
12914,12914,2021-02-09 15:30:39.866,59.521988,4
12924,12924,2021-02-09 15:31:09.866,58.730198,4
12934,12934,2021-02-09 15:31:39.866,59.044453000000004,4
12944,12944,2021-02-09 15:32:09.866,55.36552,4
12954,12954,2021-02-09 15:32:39.866,54.990463,4
12964,12964,2021-02-09 15:33:09.866,54.374504,4
12974,12974,2021-02-09 15:33:39.866,53.298462,4
12984,12984,2021-02-09 15:34:09.866,52.433113,4
12994,12994,2021-02-09 15:34:39.866,49.78689,4
13004,13004,2021-02-09 15:35:09.866,50.940475,4
13014,13014,2021-02-09 15:35:39.866,50.494904,4
13024,13024,2021-02-09 15:36:09.866,52.319790000000005,4
13034,13034,2021-02-09 15:36:39.866,50.333214,4
13044,13044,2021-02-09 15:37:09.866,51.748375,4
13054,13054,2021-02-09 15:37:39.866,52.810393999999995,4
