,Unnamed: 0,time,preds,step
12150,12150,2021-02-09 14:50:39.866,87.42472,0
12160,12160,2021-02-09 14:51:09.866,90.96537,0
12170,12170,2021-02-09 14:51:39.866,88.86312,0
12180,12180,2021-02-09 14:52:09.866,88.95639,0
12190,12190,2021-02-09 14:52:39.866,88.74941,0
12200,12200,2021-02-09 14:53:09.866,88.753204,0
12210,12210,2021-02-09 14:53:39.866,89.092766,0
12220,12220,2021-02-09 14:54:09.866,88.26435,0
12230,12230,2021-02-09 14:54:39.866,88.03539,0
12240,12240,2021-02-09 14:55:09.866,89.3096,0
12250,12250,2021-02-09 14:55:39.866,90.38041,0
12260,12260,2021-02-09 14:56:09.866,90.48825,0
12270,12270,2021-02-09 14:56:39.866,90.16744,0
12280,12280,2021-02-09 14:57:09.866,89.5063,0
12290,12290,2021-02-09 14:57:39.866,90.1466,0
12300,12300,2021-02-09 14:58:09.866,89.38561,0
12310,12310,2021-02-09 14:58:39.866,89.25393000000001,0
12320,12320,2021-02-09 14:59:09.866,89.56539000000001,0
12330,12330,2021-02-09 14:59:39.866,89.110794,0
12340,12340,2021-02-09 15:00:09.866,88.58268000000001,0
12350,12350,2021-02-09 15:00:39.866,87.459816,0
12360,12360,2021-02-09 15:01:09.866,87.06189,0
12370,12370,2021-02-09 15:01:39.866,87.17669000000001,0
12380,12380,2021-02-09 15:02:09.866,87.16080500000001,0
12390,12390,2021-02-09 15:02:39.866,87.48262,0
12400,12400,2021-02-09 15:03:09.866,86.26541,0
12410,12410,2021-02-09 15:03:39.866,87.15778,0
12420,12420,2021-02-09 15:04:09.866,87.37943,0
12430,12430,2021-02-09 15:04:39.866,87.34201,0
12440,12440,2021-02-09 15:05:09.866,86.786415,0
12450,12450,2021-02-09 15:05:39.866,85.36721,0
12460,12460,2021-02-09 15:06:09.866,85.06427,0
12470,12470,2021-02-09 15:06:39.866,85.465225,0
12480,12480,2021-02-09 15:07:09.866,85.51994,0
12490,12490,2021-02-09 15:07:39.866,83.17499000000001,0
12500,12500,2021-02-09 15:08:09.866,82.44353000000001,0
12510,12510,2021-02-09 15:08:39.866,82.4977,0
12520,12520,2021-02-09 15:09:09.866,82.72726,0
12530,12530,2021-02-09 15:09:39.866,81.68822,0
12540,12540,2021-02-09 15:10:09.866,81.21141999999999,0
12550,12550,2021-02-09 15:10:39.866,81.1776,0
12560,12560,2021-02-09 15:11:09.866,80.410515,0
12570,12570,2021-02-09 15:11:39.866,79.99729,0
12580,12580,2021-02-09 15:12:09.866,79.599434,0
12590,12590,2021-02-09 15:12:39.866,78.93555,0
12600,12600,2021-02-09 15:13:09.866,77.64834,0
12610,12610,2021-02-09 15:13:39.866,78.37331,0
12620,12620,2021-02-09 15:14:09.866,77.65151,0
12630,12630,2021-02-09 15:14:39.866,76.29469,0
12640,12640,2021-02-09 15:15:09.866,76.07486999999999,0
12650,12650,2021-02-09 15:15:39.866,75.64047,0
12660,12660,2021-02-09 15:16:09.866,74.16852,0
12670,12670,2021-02-09 15:16:39.866,72.24619,0
12680,12680,2021-02-09 15:17:09.866,71.9217,0
12690,12690,2021-02-09 15:17:39.866,70.176796,0
12700,12700,2021-02-09 15:18:09.866,72.45742,0
12710,12710,2021-02-09 15:18:39.866,70.60835,0
12720,12720,2021-02-09 15:19:09.866,69.536064,0
12730,12730,2021-02-09 15:19:39.866,69.3185,0
12740,12740,2021-02-09 15:20:09.866,69.062996,0
12750,12750,2021-02-09 15:20:39.866,69.24668,0
12760,12760,2021-02-09 15:21:09.866,68.336845,0
12770,12770,2021-02-09 15:21:39.866,68.47759,0
12780,12780,2021-02-09 15:22:09.866,68.31860999999999,0
12790,12790,2021-02-09 15:22:39.866,68.51498000000001,0
12800,12800,2021-02-09 15:23:09.866,67.78501999999999,0
12810,12810,2021-02-09 15:23:39.866,68.58403,0
12820,12820,2021-02-09 15:24:09.866,68.4289,0
12830,12830,2021-02-09 15:24:39.866,67.72946,0
12840,12840,2021-02-09 15:25:09.866,67.77186,0
12850,12850,2021-02-09 15:25:39.866,67.451164,0
12860,12860,2021-02-09 15:26:09.866,65.049225,0
12870,12870,2021-02-09 15:26:39.866,64.81102,0
12880,12880,2021-02-09 15:27:09.866,63.611495999999995,0
12890,12890,2021-02-09 15:27:39.866,61.030277000000005,0
12900,12900,2021-02-09 15:28:09.866,61.047084999999996,0
12910,12910,2021-02-09 15:28:39.866,61.9405,0
12920,12920,2021-02-09 15:29:09.866,61.476530000000004,0
12930,12930,2021-02-09 15:29:39.866,61.6789,0
12940,12940,2021-02-09 15:30:09.866,57.125004000000004,0
12950,12950,2021-02-09 15:30:39.866,56.666454,0
12960,12960,2021-02-09 15:31:09.866,57.15469,0
12970,12970,2021-02-09 15:31:39.866,56.78253,0
12980,12980,2021-02-09 15:32:09.866,56.831177000000004,0
12990,12990,2021-02-09 15:32:39.866,54.84591700000001,0
13000,13000,2021-02-09 15:33:09.866,54.635597,0
13010,13010,2021-02-09 15:33:39.866,54.235440000000004,0
13020,13020,2021-02-09 15:34:09.866,54.99495699999999,0
13030,13030,2021-02-09 15:34:39.866,54.17053000000001,0
13040,13040,2021-02-09 15:35:09.866,54.42247,0
13050,13050,2021-02-09 15:35:39.866,54.70061,0
