,Unnamed: 0,time,preds,step
12151,12151,2021-02-09 14:51:09.866,87.638565,1
12161,12161,2021-02-09 14:51:39.866,90.45924000000001,1
12171,12171,2021-02-09 14:52:09.866,89.53941999999999,1
12181,12181,2021-02-09 14:52:39.866,89.64126999999999,1
12191,12191,2021-02-09 14:53:09.866,89.41951999999999,1
12201,12201,2021-02-09 14:53:39.866,88.412704,1
12211,12211,2021-02-09 14:54:09.866,87.52589,1
12221,12221,2021-02-09 14:54:39.866,87.85687,1
12231,12231,2021-02-09 14:55:09.866,87.73783,1
12241,12241,2021-02-09 14:55:39.866,89.54292,1
12251,12251,2021-02-09 14:56:09.866,91.19294000000001,1
12261,12261,2021-02-09 14:56:39.866,90.68867,1
12271,12271,2021-02-09 14:57:09.866,89.63685,1
12281,12281,2021-02-09 14:57:39.866,88.84524499999999,1
12291,12291,2021-02-09 14:58:09.866,90.11386,1
12301,12301,2021-02-09 14:58:39.866,89.48469,1
12311,12311,2021-02-09 14:59:09.866,89.2081,1
12321,12321,2021-02-09 14:59:39.866,89.42151,1
12331,12331,2021-02-09 15:00:09.866,88.94723499999999,1
12341,12341,2021-02-09 15:00:39.866,88.301506,1
12351,12351,2021-02-09 15:01:09.866,87.048485,1
12361,12361,2021-02-09 15:01:39.866,86.756485,1
12371,12371,2021-02-09 15:02:09.866,87.16188000000001,1
12381,12381,2021-02-09 15:02:39.866,87.15042,1
12391,12391,2021-02-09 15:03:09.866,87.62988,1
12401,12401,2021-02-09 15:03:39.866,86.36372,1
12411,12411,2021-02-09 15:04:09.866,87.29233,1
12421,12421,2021-02-09 15:04:39.866,87.21418,1
12431,12431,2021-02-09 15:05:09.866,86.63996999999999,1
12441,12441,2021-02-09 15:05:39.866,85.97759,1
12451,12451,2021-02-09 15:06:09.866,84.79975,1
12461,12461,2021-02-09 15:06:39.866,84.95136,1
12471,12471,2021-02-09 15:07:09.866,85.35341,1
12481,12481,2021-02-09 15:07:39.866,84.96061,1
12491,12491,2021-02-09 15:08:09.866,82.70431500000001,1
12501,12501,2021-02-09 15:08:39.866,82.143875,1
12511,12511,2021-02-09 15:09:09.866,82.42126999999999,1
12521,12521,2021-02-09 15:09:39.866,82.87023,1
12531,12531,2021-02-09 15:10:09.866,81.52669499999999,1
12541,12541,2021-02-09 15:10:39.866,80.72299,1
12551,12551,2021-02-09 15:11:09.866,80.7215,1
12561,12561,2021-02-09 15:11:39.866,80.013855,1
12571,12571,2021-02-09 15:12:09.866,79.400246,1
12581,12581,2021-02-09 15:12:39.866,78.90094,1
12591,12591,2021-02-09 15:13:09.866,78.061134,1
12601,12601,2021-02-09 15:13:39.866,76.81827,1
12611,12611,2021-02-09 15:14:09.866,77.71699,1
12621,12621,2021-02-09 15:14:39.866,76.962906,1
12631,12631,2021-02-09 15:15:09.866,75.454475,1
12641,12641,2021-02-09 15:15:39.866,75.16993000000001,1
12651,12651,2021-02-09 15:16:09.866,74.86568,1
12661,12661,2021-02-09 15:16:39.866,73.56948,1
12671,12671,2021-02-09 15:17:09.866,71.59427,1
12681,12681,2021-02-09 15:17:39.866,71.278015,1
12691,12691,2021-02-09 15:18:09.866,69.529106,1
12701,12701,2021-02-09 15:18:39.866,71.59425,1
12711,12711,2021-02-09 15:19:09.866,69.524536,1
12721,12721,2021-02-09 15:19:39.866,68.244194,1
12731,12731,2021-02-09 15:20:09.866,67.91933399999999,1
12741,12741,2021-02-09 15:20:39.866,67.62867,1
12751,12751,2021-02-09 15:21:09.866,68.01716,1
12761,12761,2021-02-09 15:21:39.866,66.98899,1
12771,12771,2021-02-09 15:22:09.866,67.094604,1
12781,12781,2021-02-09 15:22:39.866,67.2856,1
12791,12791,2021-02-09 15:23:09.866,67.739395,1
12801,12801,2021-02-09 15:23:39.866,66.936195,1
12811,12811,2021-02-09 15:24:09.866,67.92918399999999,1
12821,12821,2021-02-09 15:24:39.866,67.94606,1
12831,12831,2021-02-09 15:25:09.866,67.29008499999999,1
12841,12841,2021-02-09 15:25:39.866,67.365585,1
12851,12851,2021-02-09 15:26:09.866,66.98763000000001,1
12861,12861,2021-02-09 15:26:39.866,64.505455,1
12871,12871,2021-02-09 15:27:09.866,64.40236,1
12881,12881,2021-02-09 15:27:39.866,63.18376,1
12891,12891,2021-02-09 15:28:09.866,60.774075,1
12901,12901,2021-02-09 15:28:39.866,60.8104,1
12911,12911,2021-02-09 15:29:09.866,61.46005,1
12921,12921,2021-02-09 15:29:39.866,60.943966,1
12931,12931,2021-02-09 15:30:09.866,61.104530000000004,1
12941,12941,2021-02-09 15:30:39.866,56.516968000000006,1
12951,12951,2021-02-09 15:31:09.866,56.25584,1
12961,12961,2021-02-09 15:31:39.866,56.737140000000004,1
12971,12971,2021-02-09 15:32:09.866,56.249219999999994,1
12981,12981,2021-02-09 15:32:39.866,55.780876,1
12991,12991,2021-02-09 15:33:09.866,53.375057,1
13001,13001,2021-02-09 15:33:39.866,53.388428000000005,1
13011,13011,2021-02-09 15:34:09.866,53.165363,1
13021,13021,2021-02-09 15:34:39.866,54.043938,1
13031,13031,2021-02-09 15:35:09.866,52.958084,1
13041,13041,2021-02-09 15:35:39.866,53.63449,1
13051,13051,2021-02-09 15:36:09.866,54.007569999999994,1
