,Unnamed: 0,time,preds,step
9556,9556,2021-02-10 07:48:12.950,6.999998,6
9566,9566,2021-02-10 07:48:42.950,6.999998,6
9576,9576,2021-02-10 07:49:12.950,6.999998,6
9586,9586,2021-02-10 07:49:42.950,6.999998,6
9596,9596,2021-02-10 07:50:12.950,6.999998,6
9606,9606,2021-02-10 07:50:42.950,6.999998,6
9616,9616,2021-02-10 07:51:12.950,6.999998,6
9626,9626,2021-02-10 07:51:42.950,6.999998,6
9636,9636,2021-02-10 07:52:12.950,6.999998,6
9646,9646,2021-02-10 07:52:42.950,6.999998,6
9656,9656,2021-02-10 07:53:12.950,6.999998,6
9666,9666,2021-02-10 07:53:42.950,6.999998,6
9676,9676,2021-02-10 07:54:12.950,6.999998,6
9686,9686,2021-02-10 07:54:42.950,6.999998,6
9696,9696,2021-02-10 07:55:12.950,6.999998,6
9706,9706,2021-02-10 07:55:42.950,6.999998,6
9716,9716,2021-02-10 07:56:12.950,6.999998,6
9726,9726,2021-02-10 07:56:42.950,6.999998,6
9736,9736,2021-02-10 07:57:12.950,6.999998,6
9746,9746,2021-02-10 07:57:42.950,6.999998,6
9756,9756,2021-02-10 07:58:12.950,6.999998,6
9766,9766,2021-02-10 07:58:42.950,6.999998,6
9776,9776,2021-02-10 07:59:12.950,6.999998,6
9786,9786,2021-02-10 07:59:42.950,6.999998,6
9796,9796,2021-02-10 08:00:12.950,6.999998,6
9806,9806,2021-02-10 08:00:42.950,6.999998,6
9816,9816,2021-02-10 08:01:12.950,6.999998,6
9826,9826,2021-02-10 08:01:42.950,6.999998,6
9836,9836,2021-02-10 08:02:12.950,6.999998,6
9846,9846,2021-02-10 08:02:42.950,6.999998,6
9856,9856,2021-02-10 08:03:12.950,6.999998,6
9866,9866,2021-02-10 08:03:42.950,6.999998,6
9876,9876,2021-02-10 08:04:12.950,6.999998,6
9886,9886,2021-02-10 08:04:42.950,6.999998,6
9896,9896,2021-02-10 08:05:12.950,6.999998,6
9906,9906,2021-02-10 08:05:42.950,6.999998,6
9916,9916,2021-02-10 08:06:12.950,6.999998,6
9926,9926,2021-02-10 08:06:42.950,6.999998,6
9936,9936,2021-02-10 08:07:12.950,6.999998,6
9946,9946,2021-02-10 08:07:42.950,6.999998,6
9956,9956,2021-02-10 08:08:12.950,6.999998,6
9966,9966,2021-02-10 08:08:42.950,6.999998,6
9976,9976,2021-02-10 08:09:12.950,6.999998,6
9986,9986,2021-02-10 08:09:42.950,6.999998,6
9996,9996,2021-02-10 08:10:12.950,6.999998,6
10006,10006,2021-02-10 08:10:42.950,6.999998,6
10016,10016,2021-02-10 08:11:12.950,6.999998,6
10026,10026,2021-02-10 08:11:42.950,6.999998,6
10036,10036,2021-02-10 08:12:12.950,6.999998,6
10046,10046,2021-02-10 08:12:42.950,6.999998,6
10056,10056,2021-02-10 08:13:12.950,6.999998,6
10066,10066,2021-02-10 08:13:42.950,6.999998,6
10076,10076,2021-02-10 08:14:12.950,6.999998,6
10086,10086,2021-02-10 08:14:42.950,6.999998,6
10096,10096,2021-02-10 08:15:12.950,6.999998,6
10106,10106,2021-02-10 08:15:42.950,6.999998,6
10116,10116,2021-02-10 08:16:12.950,6.999998,6
10126,10126,2021-02-10 08:16:42.950,6.999998,6
10136,10136,2021-02-10 08:17:12.950,6.999998,6
10146,10146,2021-02-10 08:17:42.950,6.999998,6
10156,10156,2021-02-10 08:18:12.950,6.999998,6
10166,10166,2021-02-10 08:18:42.950,6.999998,6
10176,10176,2021-02-10 08:19:12.950,6.999998,6
10186,10186,2021-02-10 08:19:42.950,6.999998,6
10196,10196,2021-02-10 08:20:12.950,6.999998,6
10206,10206,2021-02-10 08:20:42.950,6.999998,6
10216,10216,2021-02-10 08:21:12.950,6.999998,6
10226,10226,2021-02-10 08:21:42.950,6.999998,6
10236,10236,2021-02-10 08:22:12.950,6.999998,6
10246,10246,2021-02-10 08:22:42.950,6.999998,6
10256,10256,2021-02-10 08:23:12.950,6.999998,6
10266,10266,2021-02-10 08:23:42.950,6.999998,6
10276,10276,2021-02-10 08:24:12.950,6.999998,6
10286,10286,2021-02-10 08:24:42.950,6.999998,6
10296,10296,2021-02-10 08:25:12.950,6.999998,6
10306,10306,2021-02-10 08:25:42.950,6.999998,6
10316,10316,2021-02-10 08:26:12.950,6.999998,6
10326,10326,2021-02-10 08:26:42.950,6.999998,6
10336,10336,2021-02-10 08:27:12.950,6.999998,6
10346,10346,2021-02-10 08:27:42.950,6.999998,6
10356,10356,2021-02-10 08:28:12.950,6.999998,6
10366,10366,2021-02-10 08:28:42.950,6.999998,6
10376,10376,2021-02-10 08:29:12.950,6.999998,6
10386,10386,2021-02-10 08:29:42.950,6.999998,6
10396,10396,2021-02-10 08:30:12.950,6.999998,6
10406,10406,2021-02-10 08:30:42.950,6.999998,6
10416,10416,2021-02-10 08:31:12.950,6.999998,6
10426,10426,2021-02-10 08:31:42.950,6.999998,6
10436,10436,2021-02-10 08:32:12.950,6.999998,6
10446,10446,2021-02-10 08:32:42.950,6.999998,6
10456,10456,2021-02-10 08:33:12.950,6.999998,6
10466,10466,2021-02-10 08:33:42.950,6.999998,6
10476,10476,2021-02-10 08:34:12.950,6.999998,6
10486,10486,2021-02-10 08:34:42.950,6.999998,6
10496,10496,2021-02-10 08:35:12.950,6.999998,6
10506,10506,2021-02-10 08:35:42.950,6.999998,6
10516,10516,2021-02-10 08:36:12.950,6.999998,6
10526,10526,2021-02-10 08:36:42.950,6.999998,6
10536,10536,2021-02-10 08:37:12.950,6.999998,6
10546,10546,2021-02-10 08:37:42.950,6.999998,6
10556,10556,2021-02-10 08:38:12.950,6.999998,6
10566,10566,2021-02-10 08:38:42.950,6.999998,6
10576,10576,2021-02-10 08:39:12.950,6.999998,6
10586,10586,2021-02-10 08:39:42.950,6.999998,6
10596,10596,2021-02-10 08:40:12.950,6.999998,6
10606,10606,2021-02-10 08:40:42.950,6.999998,6
10616,10616,2021-02-10 08:41:12.950,6.999998,6
10626,10626,2021-02-10 08:41:42.950,6.999998,6
10636,10636,2021-02-10 08:42:12.950,6.999998,6
10646,10646,2021-02-10 08:42:42.950,6.999998,6
10656,10656,2021-02-10 08:43:12.950,6.999998,6
10666,10666,2021-02-10 08:43:42.950,6.999998,6
10676,10676,2021-02-10 08:44:12.950,6.999998,6
10686,10686,2021-02-10 08:44:42.950,6.999998,6
10696,10696,2021-02-10 08:45:12.950,6.999998,6
10706,10706,2021-02-10 08:45:42.950,6.999998,6
10716,10716,2021-02-10 08:46:12.950,6.999998,6
10726,10726,2021-02-10 08:46:42.950,6.999998,6
10736,10736,2021-02-10 08:47:12.950,6.999998,6
10746,10746,2021-02-10 08:47:42.950,6.999998,6
10756,10756,2021-02-10 08:48:12.950,6.999998,6
10766,10766,2021-02-10 08:48:42.950,6.999998,6
10776,10776,2021-02-10 08:49:12.950,6.999998,6
10786,10786,2021-02-10 08:49:42.950,6.999998,6
10796,10796,2021-02-10 08:50:12.950,6.999998,6
10806,10806,2021-02-10 08:50:42.950,6.999998,6
10816,10816,2021-02-10 08:51:12.950,6.999998,6
10826,10826,2021-02-10 08:51:42.950,6.999998,6
10836,10836,2021-02-10 08:52:12.950,6.999998,6
10846,10846,2021-02-10 08:52:42.950,6.999998,6
10856,10856,2021-02-10 08:53:12.950,6.999998,6
10866,10866,2021-02-10 08:53:42.950,6.999998,6
10876,10876,2021-02-10 08:54:12.950,6.999998,6
10886,10886,2021-02-10 08:54:42.950,6.999998,6
10896,10896,2021-02-10 08:55:12.950,6.999998,6
10906,10906,2021-02-10 08:55:42.950,6.999998,6
10916,10916,2021-02-10 08:56:12.950,6.999998,6
10926,10926,2021-02-10 08:56:42.950,6.999998,6
10936,10936,2021-02-10 08:57:12.950,6.999998,6
10946,10946,2021-02-10 08:57:42.950,6.999998,6
10956,10956,2021-02-10 08:58:12.950,6.999998,6
10966,10966,2021-02-10 08:58:42.950,6.999998,6
10976,10976,2021-02-10 08:59:12.950,6.999998,6
10986,10986,2021-02-10 08:59:42.950,6.999998,6
10996,10996,2021-02-10 09:00:12.950,6.999998,6
11006,11006,2021-02-10 09:00:42.950,6.999998,6
11016,11016,2021-02-10 09:01:12.950,6.999998,6
11026,11026,2021-02-10 09:01:42.950,6.999998,6
11036,11036,2021-02-10 09:02:12.950,6.999998,6
11046,11046,2021-02-10 09:02:42.950,6.999998,6
11056,11056,2021-02-10 09:03:12.950,6.999998,6
11066,11066,2021-02-10 09:03:42.950,6.999998,6
11076,11076,2021-02-10 09:04:12.950,6.999998,6
11086,11086,2021-02-10 09:04:42.950,6.999998,6
11096,11096,2021-02-10 09:05:12.950,6.999998,6
11106,11106,2021-02-10 09:05:42.950,6.999998,6
11116,11116,2021-02-10 09:06:12.950,6.999998,6
11126,11126,2021-02-10 09:06:42.950,6.999998,6
11136,11136,2021-02-10 09:07:12.950,6.999998,6
11146,11146,2021-02-10 09:07:42.950,6.999998,6
11156,11156,2021-02-10 09:08:12.950,6.999998,6
11166,11166,2021-02-10 09:08:42.950,6.999998,6
11176,11176,2021-02-10 09:09:12.950,6.999998,6
