,Unnamed: 0,time,prediction,step
8652,8652,2021-02-09 14:53:31.598,1013.8689,2
8662,8662,2021-02-09 14:54:01.598,916.1399,2
8672,8672,2021-02-09 14:54:31.598,802.2406,2
8682,8682,2021-02-09 14:55:01.598,717.08026,2
8692,8692,2021-02-09 14:55:31.598,621.44965,2
8702,8702,2021-02-09 14:56:01.598,596.62305,2
8712,8712,2021-02-09 14:56:31.598,315.28146,2
8722,8722,2021-02-09 14:57:01.598,275.31237999999996,2
8732,8732,2021-02-09 14:57:31.598,570.11237,2
8742,8742,2021-02-09 14:58:01.598,496.72815,2
8752,8752,2021-02-09 14:58:31.598,428.3777,2
8762,8762,2021-02-09 14:59:01.598,398.91763,2
8772,8772,2021-02-09 14:59:31.598,355.72542999999996,2
8782,8782,2021-02-09 15:00:01.598,316.2849,2
8792,8792,2021-02-09 15:00:31.598,266.42992999999996,2
8802,8802,2021-02-09 15:01:01.598,241.34627999999998,2
8812,8812,2021-02-09 15:01:31.598,251.92207000000002,2
8822,8822,2021-02-09 15:02:01.598,278.36276000000004,2
8832,8832,2021-02-09 15:02:31.598,252.06527999999997,2
8842,8842,2021-02-09 15:03:01.598,292.63406000000003,2
8852,8852,2021-02-09 15:03:31.598,327.54883,2
8862,8862,2021-02-09 15:04:01.598,421.73953,2
8872,8872,2021-02-09 15:04:31.598,399.21027000000004,2
8882,8882,2021-02-09 15:05:01.598,384.65027000000003,2
8892,8892,2021-02-09 15:05:31.598,348.0549,2
8902,8902,2021-02-09 15:06:01.598,339.37845,2
8912,8912,2021-02-09 15:06:31.598,321.01456,2
8922,8922,2021-02-09 15:07:01.598,306.03552,2
8932,8932,2021-02-09 15:07:31.598,293.46896,2
8942,8942,2021-02-09 15:08:01.598,269.80118,2
8952,8952,2021-02-09 15:08:31.598,262.19522,2
8962,8962,2021-02-09 15:09:01.598,263.81268,2
8972,8972,2021-02-09 15:09:31.598,267.70645,2
8982,8982,2021-02-09 15:10:01.598,256.80237,2
8992,8992,2021-02-09 15:10:31.598,259.69125,2
9002,9002,2021-02-09 15:11:01.598,253.64401,2
9012,9012,2021-02-09 15:11:31.598,254.16159,2
9022,9022,2021-02-09 15:12:01.598,241.80497999999997,2
9032,9032,2021-02-09 15:12:31.598,236.13817000000003,2
9042,9042,2021-02-09 15:13:01.598,237.59216,2
9052,9052,2021-02-09 15:13:31.598,240.20836,2
9062,9062,2021-02-09 15:14:01.598,231.99723999999998,2
9072,9072,2021-02-09 15:14:31.598,233.1534,2
9082,9082,2021-02-09 15:15:01.598,240.75322999999997,2
9092,9092,2021-02-09 15:15:31.598,228.22977000000003,2
9102,9102,2021-02-09 15:16:01.598,232.3504,2
9112,9112,2021-02-09 15:16:31.598,235.65775,2
9122,9122,2021-02-09 15:17:01.598,222.03114,2
9132,9132,2021-02-09 15:17:31.598,204.0023,2
9142,9142,2021-02-09 15:18:01.598,191.68622,2
9152,9152,2021-02-09 15:18:31.598,177.8443,2
9162,9162,2021-02-09 15:19:01.598,160.59872,2
9172,9172,2021-02-09 15:19:31.598,147.03207,2
9182,9182,2021-02-09 15:20:01.598,130.20395,2
9192,9192,2021-02-09 15:20:31.598,123.42461399999999,2
9202,9202,2021-02-09 15:21:01.598,109.587364,2
9212,9212,2021-02-09 15:21:31.598,100.363304,2
9222,9222,2021-02-09 15:22:01.598,94.47166,2
9232,9232,2021-02-09 15:22:31.598,86.314095,2
9242,9242,2021-02-09 15:23:01.598,83.918755,2
9252,9252,2021-02-09 15:23:31.598,74.91324,2
9262,9262,2021-02-09 15:24:01.598,75.07264,2
9272,9272,2021-02-09 15:24:31.598,68.268326,2
9282,9282,2021-02-09 15:25:01.598,71.222916,2
9292,9292,2021-02-09 15:25:31.598,67.91733,2
9302,9302,2021-02-09 15:26:01.598,71.063034,2
9312,9312,2021-02-09 15:26:31.598,63.25468000000001,2
9322,9322,2021-02-09 15:27:01.598,52.96359,2
9332,9332,2021-02-09 15:27:31.598,45.605003,2
9342,9342,2021-02-09 15:28:01.598,45.388634,2
9352,9352,2021-02-09 15:28:31.598,51.053482,2
9362,9362,2021-02-09 15:29:01.598,55.93411,2
9372,9372,2021-02-09 15:29:31.598,60.896168,2
9382,9382,2021-02-09 15:30:01.598,53.59049,2
9392,9392,2021-02-09 15:30:31.598,44.334156,2
9402,9402,2021-02-09 15:31:01.598,52.757298,2
9412,9412,2021-02-09 15:31:31.598,45.57472,2
9422,9422,2021-02-09 15:32:01.598,49.52749,2
9432,9432,2021-02-09 15:32:31.598,67.66875,2
9442,9442,2021-02-09 15:33:01.598,71.52172,2
9452,9452,2021-02-09 15:33:31.598,75.31505,2
9462,9462,2021-02-09 15:34:01.598,81.47596999999999,2
9472,9472,2021-02-09 15:34:31.598,89.06081400000001,2
9482,9482,2021-02-09 15:35:01.598,99.39605999999999,2
9492,9492,2021-02-09 15:35:31.598,108.72523999999999,2
9502,9502,2021-02-09 15:36:01.598,120.50061000000001,2
9512,9512,2021-02-09 15:36:31.598,132.46182,2
9522,9522,2021-02-09 15:37:01.598,143.65733,2
9532,9532,2021-02-09 15:37:31.598,154.76682,2
