name,time,countryCode,ipAddress,level,producer,value
EstimatedRemainingTimeContext,2021-02-18T11:31:12.752Z,IN,15.206.207.43,3,15.206.207.43,4050
EstimatedRemainingTimeContext,2021-02-18T11:31:32.752Z,IN,15.206.207.43,3,15.206.207.43,4045.5
EstimatedRemainingTimeContext,2021-02-18T11:32:02.752Z,IN,15.206.207.43,3,15.206.207.43,4045.5
EstimatedRemainingTimeContext,2021-02-18T11:32:32.752Z,IN,15.206.207.43,3,15.206.207.43,4045.5
EstimatedRemainingTimeContext,2021-02-18T11:33:02.752Z,IN,15.206.207.43,3,15.206.207.43,4153.25
EstimatedRemainingTimeContext,2021-02-18T11:33:32.752Z,IN,15.206.207.43,3,15.206.207.43,4153.25
EstimatedRemainingTimeContext,2021-02-18T11:34:02.752Z,IN,15.206.207.43,3,15.206.207.43,4153.25
EstimatedRemainingTimeContext,2021-02-18T11:34:32.752Z,IN,15.206.207.43,3,15.206.207.43,5494.125
EstimatedRemainingTimeContext,2021-02-18T11:35:02.752Z,IN,15.206.207.43,3,15.206.207.43,5494.125
EstimatedRemainingTimeContext,2021-02-18T11:35:32.752Z,IN,15.206.207.43,3,15.206.207.43,3080
EstimatedRemainingTimeContext,2021-02-18T11:36:02.752Z,IN,15.206.207.43,3,15.206.207.43,3080
EstimatedRemainingTimeContext,2021-02-18T11:36:32.752Z,IN,15.206.207.43,3,15.206.207.43,3080
EstimatedRemainingTimeContext,2021-02-18T11:37:02.752Z,IN,15.206.207.43,3,15.206.207.43,3348.75
EstimatedRemainingTimeContext,2021-02-18T11:37:32.752Z,IN,15.206.207.43,3,15.206.207.43,3348.75
EstimatedRemainingTimeContext,2021-02-18T11:38:02.752Z,IN,15.206.207.43,3,15.206.207.43,4343.625
EstimatedRemainingTimeContext,2021-02-18T11:38:32.752Z,IN,15.206.207.43,3,15.206.207.43,4394.375
EstimatedRemainingTimeContext,2021-02-18T11:39:02.752Z,IN,15.206.207.43,3,15.206.207.43,4394.375
EstimatedRemainingTimeContext,2021-02-18T11:39:32.752Z,IN,15.206.207.43,3,15.206.207.43,4273.5
EstimatedRemainingTimeContext,2021-02-18T11:40:02.752Z,IN,15.206.207.43,3,15.206.207.43,4268.6875
EstimatedRemainingTimeContext,2021-02-18T11:40:32.752Z,IN,15.206.207.43,3,15.206.207.43,2845.791666666667
EstimatedRemainingTimeContext,2021-02-18T11:41:02.752Z,IN,15.206.207.43,3,15.206.207.43,2836.166666666667
EstimatedRemainingTimeContext,2021-02-18T11:41:32.752Z,IN,15.206.207.43,3,15.206.207.43,2836.166666666667
EstimatedRemainingTimeContext,2021-02-18T11:42:02.752Z,IN,15.206.207.43,3,15.206.207.43,2836.166666666667
EstimatedRemainingTimeContext,2021-02-18T11:42:32.752Z,IN,15.206.207.43,3,15.206.207.43,2820.125
EstimatedRemainingTimeContext,2021-02-18T11:43:02.752Z,IN,15.206.207.43,3,15.206.207.43,2820.125
EstimatedRemainingTimeContext,2021-02-18T11:43:32.752Z,IN,15.206.207.43,3,15.206.207.43,2813.708333333334
EstimatedRemainingTimeContext,2021-02-18T11:44:02.752Z,IN,15.206.207.43,3,15.206.207.43,3019.125
EstimatedRemainingTimeContext,2021-02-18T11:44:32.752Z,IN,15.206.207.43,3,15.206.207.43,2800.875
EstimatedRemainingTimeContext,2021-02-18T11:45:02.752Z,IN,15.206.207.43,3,15.206.207.43,2788.041666666667
EstimatedRemainingTimeContext,2021-02-18T11:45:32.752Z,IN,15.206.207.43,3,15.206.207.43,2784.833333333334
EstimatedRemainingTimeContext,2021-02-18T11:46:02.752Z,IN,15.206.207.43,3,15.206.207.43,2745.5
EstimatedRemainingTimeContext,2021-02-18T11:46:32.752Z,IN,15.206.207.43,3,15.206.207.43,2736
EstimatedRemainingTimeContext,2021-02-18T11:47:02.752Z,IN,15.206.207.43,3,15.206.207.43,2049.625
EstimatedRemainingTimeContext,2021-02-18T11:47:32.752Z,IN,15.206.207.43,3,15.206.207.43,2074.1875
EstimatedRemainingTimeContext,2021-02-18T11:48:02.752Z,IN,15.206.207.43,3,15.206.207.43,2066.96875
EstimatedRemainingTimeContext,2021-02-18T11:48:32.752Z,IN,15.206.207.43,3,15.206.207.43,2064.5625
EstimatedRemainingTimeContext,2021-02-18T11:49:02.752Z,IN,15.206.207.43,3,15.206.207.43,2084.0625
EstimatedRemainingTimeContext,2021-02-18T11:49:32.752Z,IN,15.206.207.43,3,15.206.207.43,2076.75
EstimatedRemainingTimeContext,2021-02-18T11:50:02.752Z,IN,15.206.207.43,3,15.206.207.43,2178.125
EstimatedRemainingTimeContext,2021-02-18T11:50:32.752Z,IN,15.206.207.43,3,15.206.207.43,2186.53125
EstimatedRemainingTimeContext,2021-02-18T11:51:02.752Z,IN,15.206.207.43,3,15.206.207.43,2183.9375
EstimatedRemainingTimeContext,2021-02-18T11:51:32.752Z,IN,15.206.207.43,3,15.206.207.43,2123.71875
EstimatedRemainingTimeContext,2021-02-18T11:52:02.752Z,IN,15.206.207.43,3,15.206.207.43,2116.125
EstimatedRemainingTimeContext,2021-02-18T11:52:32.752Z,IN,15.206.207.43,3,15.206.207.43,2113.59375
EstimatedRemainingTimeContext,2021-02-18T11:53:02.752Z,IN,15.206.207.43,3,15.206.207.43,2080
EstimatedRemainingTimeContext,2021-02-18T11:53:32.752Z,IN,15.206.207.43,3,15.206.207.43,2072.5
EstimatedRemainingTimeContext,2021-02-18T11:54:02.752Z,IN,15.206.207.43,3,15.206.207.43,2067.5
EstimatedRemainingTimeContext,2021-02-18T11:54:32.752Z,IN,15.206.207.43,3,15.206.207.43,2060
EstimatedRemainingTimeContext,2021-02-18T11:55:02.752Z,IN,15.206.207.43,3,15.206.207.43,2055
EstimatedRemainingTimeContext,2021-02-18T11:55:32.752Z,IN,15.206.207.43,3,15.206.207.43,2050
EstimatedRemainingTimeContext,2021-02-18T11:56:02.752Z,IN,15.206.207.43,3,15.206.207.43,2007.09375
EstimatedRemainingTimeContext,2021-02-18T11:56:32.752Z,IN,15.206.207.43,3,15.206.207.43,2004.625
EstimatedRemainingTimeContext,2021-02-18T11:57:02.752Z,IN,15.206.207.43,3,15.206.207.43,1971.9375
EstimatedRemainingTimeContext,2021-02-18T11:57:32.752Z,IN,15.206.207.43,3,15.206.207.43,1962.1875
EstimatedRemainingTimeContext,2021-02-18T11:58:02.752Z,IN,15.206.207.43,3,15.206.207.43,1962.1875
EstimatedRemainingTimeContext,2021-02-18T11:58:32.752Z,IN,15.206.207.43,3,15.206.207.43,1952.4375
EstimatedRemainingTimeContext,2021-02-18T11:59:02.752Z,IN,15.206.207.43,3,15.206.207.43,1945.125
EstimatedRemainingTimeContext,2021-02-18T11:59:32.752Z,IN,15.206.207.43,3,15.206.207.43,1942.6875
EstimatedRemainingTimeContext,2021-02-18T12:00:02.752Z,IN,15.206.207.43,3,15.206.207.43,1932.9375
EstimatedRemainingTimeContext,2021-02-18T12:00:32.752Z,IN,15.206.207.43,3,15.206.207.43,1928.0625
EstimatedRemainingTimeContext,2021-02-18T12:01:02.752Z,IN,15.206.207.43,3,15.206.207.43,1558.275
EstimatedRemainingTimeContext,2021-02-18T12:01:32.752Z,IN,15.206.207.43,3,15.206.207.43,1483.9
EstimatedRemainingTimeContext,2021-02-18T12:02:02.752Z,IN,15.206.207.43,3,15.206.207.43,1460.625
EstimatedRemainingTimeContext,2021-02-18T12:02:32.752Z,IN,15.206.207.43,3,15.206.207.43,1456.875
EstimatedRemainingTimeContext,2021-02-18T12:03:02.752Z,IN,15.206.207.43,3,15.206.207.43,1464.9
EstimatedRemainingTimeContext,2021-02-18T12:03:32.752Z,IN,15.206.207.43,3,15.206.207.43,1443.75
EstimatedRemainingTimeContext,2021-02-18T12:04:02.752Z,IN,15.206.207.43,3,15.206.207.43,1476.475
EstimatedRemainingTimeContext,2021-02-18T12:04:32.752Z,IN,15.206.207.43,3,15.206.207.43,1504.95
EstimatedRemainingTimeContext,2021-02-18T12:05:02.752Z,IN,15.206.207.43,3,15.206.207.43,1502.975
EstimatedRemainingTimeContext,2021-02-18T12:05:32.752Z,IN,15.206.207.43,3,15.206.207.43,1372.4
EstimatedRemainingTimeContext,2021-02-18T12:06:02.752Z,IN,15.206.207.43,3,15.206.207.43,1365.1
EstimatedRemainingTimeContext,2021-02-18T12:06:32.752Z,IN,15.206.207.43,3,15.206.207.43,1357.8
EstimatedRemainingTimeContext,2021-02-18T12:07:02.752Z,IN,15.206.207.43,3,15.206.207.43,1333.8
EstimatedRemainingTimeContext,2021-02-18T12:07:32.752Z,IN,15.206.207.43,3,15.206.207.43,1346.85
EstimatedRemainingTimeContext,2021-02-18T12:08:02.752Z,IN,15.206.207.43,3,15.206.207.43,1341.375
EstimatedRemainingTimeContext,2021-02-18T12:08:32.752Z,IN,15.206.207.43,3,15.206.207.43,1334.075
EstimatedRemainingTimeContext,2021-02-18T12:09:02.752Z,IN,15.206.207.43,3,15.206.207.43,1299.6
EstimatedRemainingTimeContext,2021-02-18T12:09:32.752Z,IN,15.206.207.43,3,15.206.207.43,1296
EstimatedRemainingTimeContext,2021-02-18T12:10:02.752Z,IN,15.206.207.43,3,15.206.207.43,1287
EstimatedRemainingTimeContext,2021-02-18T12:10:32.752Z,IN,15.206.207.43,3,15.206.207.43,1283.4
EstimatedRemainingTimeContext,2021-02-18T12:11:02.752Z,IN,15.206.207.43,3,15.206.207.43,1276.2
EstimatedRemainingTimeContext,2021-02-18T12:11:32.752Z,IN,15.206.207.43,3,15.206.207.43,1059
EstimatedRemainingTimeContext,2021-02-18T12:12:02.752Z,IN,15.206.207.43,3,15.206.207.43,1054.5
EstimatedRemainingTimeContext,2021-02-18T12:12:32.752Z,IN,15.206.207.43,3,15.206.207.43,993.3125
EstimatedRemainingTimeContext,2021-02-18T12:13:02.752Z,IN,15.206.207.43,3,15.206.207.43,990.4375
EstimatedRemainingTimeContext,2021-02-18T12:13:32.752Z,IN,15.206.207.43,3,15.206.207.43,981.8125
EstimatedRemainingTimeContext,2021-02-18T12:14:02.752Z,IN,15.206.207.43,3,15.206.207.43,976.0625
EstimatedRemainingTimeContext,2021-02-18T12:14:32.752Z,IN,15.206.207.43,3,15.206.207.43,973.1875
EstimatedRemainingTimeContext,2021-02-18T12:15:02.752Z,IN,15.206.207.43,3,15.206.207.43,1036
EstimatedRemainingTimeContext,2021-02-18T12:15:32.752Z,IN,15.206.207.43,3,15.206.207.43,1003.75
EstimatedRemainingTimeContext,2021-02-18T12:16:02.752Z,IN,15.206.207.43,3,15.206.207.43,999.1875
EstimatedRemainingTimeContext,2021-02-18T12:16:32.752Z,IN,15.206.207.43,3,15.206.207.43,978
EstimatedRemainingTimeContext,2021-02-18T12:17:02.752Z,IN,15.206.207.43,3,15.206.207.43,973.5
EstimatedRemainingTimeContext,2021-02-18T12:17:32.752Z,IN,15.206.207.43,3,15.206.207.43,830.571428571429
EstimatedRemainingTimeContext,2021-02-18T12:18:02.752Z,IN,15.206.207.43,3,15.206.207.43,800.017857142857
EstimatedRemainingTimeContext,2021-02-18T12:18:32.752Z,IN,15.206.207.43,3,15.206.207.43,796.214285714286
EstimatedRemainingTimeContext,2021-02-18T12:19:02.752Z,IN,15.206.207.43,3,15.206.207.43,802.285714285714
EstimatedRemainingTimeContext,2021-02-18T12:19:32.752Z,IN,15.206.207.43,3,15.206.207.43,728.357142857143
EstimatedRemainingTimeContext,2021-02-18T12:20:02.752Z,IN,15.206.207.43,3,15.206.207.43,724.821428571429
EstimatedRemainingTimeContext,2021-02-18T12:20:32.752Z,IN,15.206.207.43,3,15.206.207.43,696.428571428571
EstimatedRemainingTimeContext,2021-02-18T12:21:02.752Z,IN,15.206.207.43,3,15.206.207.43,750.571428571429
EstimatedRemainingTimeContext,2021-02-18T12:21:32.752Z,IN,15.206.207.43,3,15.206.207.43,748.035714285714
EstimatedRemainingTimeContext,2021-02-18T12:22:02.752Z,IN,15.206.207.43,3,15.206.207.43,741.696428571429
EstimatedRemainingTimeContext,2021-02-18T12:22:32.752Z,IN,15.206.207.43,3,15.206.207.43,630.125
EstimatedRemainingTimeContext,2021-02-18T12:23:02.752Z,IN,15.206.207.43,3,15.206.207.43,626.796875
EstimatedRemainingTimeContext,2021-02-18T12:23:32.752Z,IN,15.206.207.43,3,15.206.207.43,619.03125
EstimatedRemainingTimeContext,2021-02-18T12:24:02.752Z,IN,15.206.207.43,3,15.206.207.43,615.703125
EstimatedRemainingTimeContext,2021-02-18T12:24:32.752Z,IN,15.206.207.43,3,15.206.207.43,588.4375
EstimatedRemainingTimeContext,2021-02-18T12:25:02.752Z,IN,15.206.207.43,3,15.206.207.43,578.59375
EstimatedRemainingTimeContext,2021-02-18T12:25:32.752Z,IN,15.206.207.43,3,15.206.207.43,576.40625
EstimatedRemainingTimeContext,2021-02-18T12:26:02.752Z,IN,15.206.207.43,3,15.206.207.43,580.578125
EstimatedRemainingTimeContext,2021-02-18T12:26:32.752Z,IN,15.206.207.43,3,15.206.207.43,569.171875
EstimatedRemainingTimeContext,2021-02-18T12:27:02.752Z,IN,15.206.207.43,3,15.206.207.43,568.03125
EstimatedRemainingTimeContext,2021-02-18T12:27:32.752Z,IN,15.206.207.43,3,15.206.207.43,532.5
EstimatedRemainingTimeContext,2021-02-18T12:28:02.752Z,IN,15.206.207.43,3,15.206.207.43,520.296875
EstimatedRemainingTimeContext,2021-02-18T12:28:32.752Z,IN,15.206.207.43,3,15.206.207.43,525.375
EstimatedRemainingTimeContext,2021-02-18T12:29:02.752Z,IN,15.206.207.43,3,15.206.207.43,477.0625
EstimatedRemainingTimeContext,2021-02-18T12:29:32.752Z,IN,15.206.207.43,3,15.206.207.43,465.375
EstimatedRemainingTimeContext,2021-02-18T12:30:02.752Z,IN,15.206.207.43,3,15.206.207.43,463.25
EstimatedRemainingTimeContext,2021-02-18T12:30:32.752Z,IN,15.206.207.43,3,15.206.207.43,414
EstimatedRemainingTimeContext,2021-02-18T12:31:02.752Z,IN,15.206.207.43,3,15.206.207.43,407
EstimatedRemainingTimeContext,2021-02-18T12:31:32.752Z,IN,15.206.207.43,3,15.206.207.43,373.9375
EstimatedRemainingTimeContext,2021-02-18T12:32:02.752Z,IN,15.206.207.43,3,15.206.207.43,368.125
EstimatedRemainingTimeContext,2021-02-18T12:32:32.752Z,IN,15.206.207.43,3,15.206.207.43,343.90625
EstimatedRemainingTimeContext,2021-02-18T12:33:02.752Z,IN,15.206.207.43,3,15.206.207.43,341.96875
EstimatedRemainingTimeContext,2021-02-18T12:33:32.752Z,IN,15.206.207.43,3,15.206.207.43,330.34375
EstimatedRemainingTimeContext,2021-02-18T12:34:02.752Z,IN,15.206.207.43,3,15.206.207.43,300.9375
EstimatedRemainingTimeContext,2021-02-18T12:34:32.752Z,IN,15.206.207.43,3,15.206.207.43,298.125
EstimatedRemainingTimeContext,2021-02-18T12:35:02.752Z,IN,15.206.207.43,3,15.206.207.43,267.34375
EstimatedRemainingTimeContext,2021-02-18T12:35:32.752Z,IN,15.206.207.43,3,15.206.207.43,262.734375
EstimatedRemainingTimeContext,2021-02-18T12:36:02.752Z,IN,15.206.207.43,3,15.206.207.43,234.71875
EstimatedRemainingTimeContext,2021-02-18T12:36:32.752Z,IN,15.206.207.43,3,15.206.207.43,201.25
EstimatedRemainingTimeContext,2021-02-18T12:37:02.752Z,IN,15.206.207.43,3,15.206.207.43,194.25
EstimatedRemainingTimeContext,2021-02-18T12:37:32.752Z,IN,15.206.207.43,3,15.206.207.43,169.296875
EstimatedRemainingTimeContext,2021-02-18T12:38:02.752Z,IN,15.206.207.43,3,15.206.207.43,142.65625
EstimatedRemainingTimeContext,2021-02-18T12:38:32.752Z,IN,15.206.207.43,3,15.206.207.43,110.5
EstimatedRemainingTimeContext,2021-02-18T12:39:02.752Z,IN,15.206.207.43,3,15.206.207.43,60.15625
EstimatedRemainingTimeContext,2021-02-18T12:39:32.752Z,IN,15.206.207.43,3,15.206.207.43,19.140625
EstimatedRemainingTimeContext,2021-02-18T12:40:02.752Z,IN,15.206.207.43,3,15.206.207.43,5.359375
EstimatedRemainingTimeContext,2021-02-18T12:40:32.752Z,IN,15.206.207.43,3,15.206.207.43,0.765625
