name,time,countryCode,ipAddress,level,producer,value
SimulationElapsedTime,2021-02-18T11:30:50.85Z,IE,54.78.3.59,0,54.78.3.59,21
SimulationElapsedTime,2021-02-18T11:31:20.026Z,IE,54.78.3.59,0,54.78.3.59,50
SimulationElapsedTime,2021-02-18T11:31:50.038Z,IE,54.78.3.59,0,54.78.3.59,80
SimulationElapsedTime,2021-02-18T11:32:20.02Z,IE,54.78.3.59,0,54.78.3.59,110
SimulationElapsedTime,2021-02-18T11:32:50.019Z,IE,54.78.3.59,0,54.78.3.59,140
SimulationElapsedTime,2021-02-18T11:33:20.037Z,IE,54.78.3.59,0,54.78.3.59,170
SimulationElapsedTime,2021-02-18T11:33:50.033Z,IE,54.78.3.59,0,54.78.3.59,200
SimulationElapsedTime,2021-02-18T11:34:20.02Z,IE,54.78.3.59,0,54.78.3.59,230
SimulationElapsedTime,2021-02-18T11:34:50.009Z,IE,54.78.3.59,0,54.78.3.59,260
SimulationElapsedTime,2021-02-18T11:35:20.023Z,IE,54.78.3.59,0,54.78.3.59,290
SimulationElapsedTime,2021-02-18T11:35:50.012Z,IE,54.78.3.59,0,54.78.3.59,320
SimulationElapsedTime,2021-02-18T11:36:20.016Z,IE,54.78.3.59,0,54.78.3.59,350
SimulationElapsedTime,2021-02-18T11:36:50.122Z,IE,54.78.3.59,0,54.78.3.59,380
SimulationElapsedTime,2021-02-18T11:37:20.008Z,IE,54.78.3.59,0,54.78.3.59,410
SimulationElapsedTime,2021-02-18T11:37:50.003Z,IE,54.78.3.59,0,54.78.3.59,440
SimulationElapsedTime,2021-02-18T11:38:20.01Z,IE,54.78.3.59,0,54.78.3.59,470
SimulationElapsedTime,2021-02-18T11:38:50.012Z,IE,54.78.3.59,0,54.78.3.59,500
SimulationElapsedTime,2021-02-18T11:39:20Z,IE,54.78.3.59,0,54.78.3.59,530
SimulationElapsedTime,2021-02-18T11:39:50.004Z,IE,54.78.3.59,0,54.78.3.59,560
SimulationElapsedTime,2021-02-18T11:40:20.004Z,IE,54.78.3.59,0,54.78.3.59,590
SimulationElapsedTime,2021-02-18T11:40:50.071Z,IE,54.78.3.59,0,54.78.3.59,620
SimulationElapsedTime,2021-02-18T11:41:20.014Z,IE,54.78.3.59,0,54.78.3.59,650
SimulationElapsedTime,2021-02-18T11:41:50.002Z,IE,54.78.3.59,0,54.78.3.59,680
SimulationElapsedTime,2021-02-18T11:42:20.011Z,IE,54.78.3.59,0,54.78.3.59,710
SimulationElapsedTime,2021-02-18T11:42:50.005Z,IE,54.78.3.59,0,54.78.3.59,740
SimulationElapsedTime,2021-02-18T11:43:19.997Z,IE,54.78.3.59,0,54.78.3.59,770
SimulationElapsedTime,2021-02-18T11:43:50.044Z,IE,54.78.3.59,0,54.78.3.59,800
SimulationElapsedTime,2021-02-18T11:44:19.998Z,IE,54.78.3.59,0,54.78.3.59,830
SimulationElapsedTime,2021-02-18T11:44:50.001Z,IE,54.78.3.59,0,54.78.3.59,860
SimulationElapsedTime,2021-02-18T11:45:20.024Z,IE,54.78.3.59,0,54.78.3.59,890
SimulationElapsedTime,2021-02-18T11:45:50.002Z,IE,54.78.3.59,0,54.78.3.59,920
SimulationElapsedTime,2021-02-18T11:46:19.997Z,IE,54.78.3.59,0,54.78.3.59,950
SimulationElapsedTime,2021-02-18T11:46:50.001Z,IE,54.78.3.59,0,54.78.3.59,980
SimulationElapsedTime,2021-02-18T11:47:20.013Z,IE,54.78.3.59,0,54.78.3.59,1010
SimulationElapsedTime,2021-02-18T11:47:50.002Z,IE,54.78.3.59,0,54.78.3.59,1040
SimulationElapsedTime,2021-02-18T11:48:19.999Z,IE,54.78.3.59,0,54.78.3.59,1070
SimulationElapsedTime,2021-02-18T11:48:50.009Z,IE,54.78.3.59,0,54.78.3.59,1100
SimulationElapsedTime,2021-02-18T11:49:20.001Z,IE,54.78.3.59,0,54.78.3.59,1130
SimulationElapsedTime,2021-02-18T11:49:50.006Z,IE,54.78.3.59,0,54.78.3.59,1160
SimulationElapsedTime,2021-02-18T11:50:20.006Z,IE,54.78.3.59,0,54.78.3.59,1190
SimulationElapsedTime,2021-02-18T11:50:50.001Z,IE,54.78.3.59,0,54.78.3.59,1220
SimulationElapsedTime,2021-02-18T11:51:19.998Z,IE,54.78.3.59,0,54.78.3.59,1250
SimulationElapsedTime,2021-02-18T11:51:50.002Z,IE,54.78.3.59,0,54.78.3.59,1280
SimulationElapsedTime,2021-02-18T11:52:20.003Z,IE,54.78.3.59,0,54.78.3.59,1310
SimulationElapsedTime,2021-02-18T11:52:49.998Z,IE,54.78.3.59,0,54.78.3.59,1340
SimulationElapsedTime,2021-02-18T11:53:20.002Z,IE,54.78.3.59,0,54.78.3.59,1370
SimulationElapsedTime,2021-02-18T11:53:50Z,IE,54.78.3.59,0,54.78.3.59,1400
SimulationElapsedTime,2021-02-18T11:54:19.999Z,IE,54.78.3.59,0,54.78.3.59,1430
SimulationElapsedTime,2021-02-18T11:54:49.999Z,IE,54.78.3.59,0,54.78.3.59,1460
SimulationElapsedTime,2021-02-18T11:55:20.001Z,IE,54.78.3.59,0,54.78.3.59,1490
SimulationElapsedTime,2021-02-18T11:55:50.004Z,IE,54.78.3.59,0,54.78.3.59,1520
SimulationElapsedTime,2021-02-18T11:56:20.019Z,IE,54.78.3.59,0,54.78.3.59,1550
SimulationElapsedTime,2021-02-18T11:56:50Z,IE,54.78.3.59,0,54.78.3.59,1580
SimulationElapsedTime,2021-02-18T11:57:20.006Z,IE,54.78.3.59,0,54.78.3.59,1610
SimulationElapsedTime,2021-02-18T11:57:50.001Z,IE,54.78.3.59,0,54.78.3.59,1640
SimulationElapsedTime,2021-02-18T11:58:20.005Z,IE,54.78.3.59,0,54.78.3.59,1670
SimulationElapsedTime,2021-02-18T11:58:49.999Z,IE,54.78.3.59,0,54.78.3.59,1700
SimulationElapsedTime,2021-02-18T11:59:20.023Z,IE,54.78.3.59,0,54.78.3.59,1730
SimulationElapsedTime,2021-02-18T11:59:50.006Z,IE,54.78.3.59,0,54.78.3.59,1760
SimulationElapsedTime,2021-02-18T12:00:19.998Z,IE,54.78.3.59,0,54.78.3.59,1790
SimulationElapsedTime,2021-02-18T12:00:50Z,IE,54.78.3.59,0,54.78.3.59,1820
SimulationElapsedTime,2021-02-18T12:01:20.011Z,IE,54.78.3.59,0,54.78.3.59,1850
SimulationElapsedTime,2021-02-18T12:01:50.003Z,IE,54.78.3.59,0,54.78.3.59,1880
SimulationElapsedTime,2021-02-18T12:02:20.007Z,IE,54.78.3.59,0,54.78.3.59,1910
SimulationElapsedTime,2021-02-18T12:02:49.999Z,IE,54.78.3.59,0,54.78.3.59,1940
SimulationElapsedTime,2021-02-18T12:03:20.004Z,IE,54.78.3.59,0,54.78.3.59,1970
SimulationElapsedTime,2021-02-18T12:03:50Z,IE,54.78.3.59,0,54.78.3.59,2000
SimulationElapsedTime,2021-02-18T12:04:20.012Z,IE,54.78.3.59,0,54.78.3.59,2030
SimulationElapsedTime,2021-02-18T12:04:50.005Z,IE,54.78.3.59,0,54.78.3.59,2060
SimulationElapsedTime,2021-02-18T12:05:19.998Z,IE,54.78.3.59,0,54.78.3.59,2090
SimulationElapsedTime,2021-02-18T12:05:50.005Z,IE,54.78.3.59,0,54.78.3.59,2120
SimulationElapsedTime,2021-02-18T12:06:20.018Z,IE,54.78.3.59,0,54.78.3.59,2150
SimulationElapsedTime,2021-02-18T12:06:50.004Z,IE,54.78.3.59,0,54.78.3.59,2180
SimulationElapsedTime,2021-02-18T12:07:20.019Z,IE,54.78.3.59,0,54.78.3.59,2210
SimulationElapsedTime,2021-02-18T12:07:50.002Z,IE,54.78.3.59,0,54.78.3.59,2240
SimulationElapsedTime,2021-02-18T12:08:20.007Z,IE,54.78.3.59,0,54.78.3.59,2270
SimulationElapsedTime,2021-02-18T12:08:50.001Z,IE,54.78.3.59,0,54.78.3.59,2300
SimulationElapsedTime,2021-02-18T12:09:19.998Z,IE,54.78.3.59,0,54.78.3.59,2330
SimulationElapsedTime,2021-02-18T12:09:49.999Z,IE,54.78.3.59,0,54.78.3.59,2360
SimulationElapsedTime,2021-02-18T12:10:20.006Z,IE,54.78.3.59,0,54.78.3.59,2390
SimulationElapsedTime,2021-02-18T12:10:50.039Z,IE,54.78.3.59,0,54.78.3.59,2420
SimulationElapsedTime,2021-02-18T12:11:20.002Z,IE,54.78.3.59,0,54.78.3.59,2450
SimulationElapsedTime,2021-02-18T12:11:49.999Z,IE,54.78.3.59,0,54.78.3.59,2480
SimulationElapsedTime,2021-02-18T12:12:20.02Z,IE,54.78.3.59,0,54.78.3.59,2510
SimulationElapsedTime,2021-02-18T12:12:50.003Z,IE,54.78.3.59,0,54.78.3.59,2540
SimulationElapsedTime,2021-02-18T12:13:20.002Z,IE,54.78.3.59,0,54.78.3.59,2570
SimulationElapsedTime,2021-02-18T12:13:50.003Z,IE,54.78.3.59,0,54.78.3.59,2600
SimulationElapsedTime,2021-02-18T12:14:19.999Z,IE,54.78.3.59,0,54.78.3.59,2630
SimulationElapsedTime,2021-02-18T12:14:50.005Z,IE,54.78.3.59,0,54.78.3.59,2660
SimulationElapsedTime,2021-02-18T12:15:19.998Z,IE,54.78.3.59,0,54.78.3.59,2690
SimulationElapsedTime,2021-02-18T12:15:50.001Z,IE,54.78.3.59,0,54.78.3.59,2720
SimulationElapsedTime,2021-02-18T12:16:19.998Z,IE,54.78.3.59,0,54.78.3.59,2750
SimulationElapsedTime,2021-02-18T12:16:50.003Z,IE,54.78.3.59,0,54.78.3.59,2780
SimulationElapsedTime,2021-02-18T12:17:20.009Z,IE,54.78.3.59,0,54.78.3.59,2810
SimulationElapsedTime,2021-02-18T12:17:49.999Z,IE,54.78.3.59,0,54.78.3.59,2840
SimulationElapsedTime,2021-02-18T12:18:20.005Z,IE,54.78.3.59,0,54.78.3.59,2870
SimulationElapsedTime,2021-02-18T12:18:50.001Z,IE,54.78.3.59,0,54.78.3.59,2900
SimulationElapsedTime,2021-02-18T12:19:20.002Z,IE,54.78.3.59,0,54.78.3.59,2930
SimulationElapsedTime,2021-02-18T12:19:49.999Z,IE,54.78.3.59,0,54.78.3.59,2960
SimulationElapsedTime,2021-02-18T12:20:20.017Z,IE,54.78.3.59,0,54.78.3.59,2990
SimulationElapsedTime,2021-02-18T12:20:50.004Z,IE,54.78.3.59,0,54.78.3.59,3020
SimulationElapsedTime,2021-02-18T12:21:20.003Z,IE,54.78.3.59,0,54.78.3.59,3050
SimulationElapsedTime,2021-02-18T12:21:50.078Z,IE,54.78.3.59,0,54.78.3.59,3080
SimulationElapsedTime,2021-02-18T12:22:20.008Z,IE,54.78.3.59,0,54.78.3.59,3110
SimulationElapsedTime,2021-02-18T12:22:50.011Z,IE,54.78.3.59,0,54.78.3.59,3140
SimulationElapsedTime,2021-02-18T12:23:20.006Z,IE,54.78.3.59,0,54.78.3.59,3170
SimulationElapsedTime,2021-02-18T12:23:50.007Z,IE,54.78.3.59,0,54.78.3.59,3200
SimulationElapsedTime,2021-02-18T12:24:20.003Z,IE,54.78.3.59,0,54.78.3.59,3230
SimulationElapsedTime,2021-02-18T12:24:50.007Z,IE,54.78.3.59,0,54.78.3.59,3260
SimulationElapsedTime,2021-02-18T12:25:20.008Z,IE,54.78.3.59,0,54.78.3.59,3290
SimulationElapsedTime,2021-02-18T12:25:50.004Z,IE,54.78.3.59,0,54.78.3.59,3320
SimulationElapsedTime,2021-02-18T12:26:20.01Z,IE,54.78.3.59,0,54.78.3.59,3350
SimulationElapsedTime,2021-02-18T12:26:50.061Z,IE,54.78.3.59,0,54.78.3.59,3380
SimulationElapsedTime,2021-02-18T12:27:20.012Z,IE,54.78.3.59,0,54.78.3.59,3410
SimulationElapsedTime,2021-02-18T12:27:50.008Z,IE,54.78.3.59,0,54.78.3.59,3440
SimulationElapsedTime,2021-02-18T12:28:20.011Z,IE,54.78.3.59,0,54.78.3.59,3470
SimulationElapsedTime,2021-02-18T12:28:50.014Z,IE,54.78.3.59,0,54.78.3.59,3500
SimulationElapsedTime,2021-02-18T12:29:20.011Z,IE,54.78.3.59,0,54.78.3.59,3530
SimulationElapsedTime,2021-02-18T12:29:50.014Z,IE,54.78.3.59,0,54.78.3.59,3560
SimulationElapsedTime,2021-02-18T12:30:20.008Z,IE,54.78.3.59,0,54.78.3.59,3590
SimulationElapsedTime,2021-02-18T12:30:50.013Z,IE,54.78.3.59,0,54.78.3.59,3620
SimulationElapsedTime,2021-02-18T12:31:20.014Z,IE,54.78.3.59,0,54.78.3.59,3650
SimulationElapsedTime,2021-02-18T12:31:50.107Z,IE,54.78.3.59,0,54.78.3.59,3680
SimulationElapsedTime,2021-02-18T12:32:20.024Z,IE,54.78.3.59,0,54.78.3.59,3710
SimulationElapsedTime,2021-02-18T12:32:50.028Z,IE,54.78.3.59,0,54.78.3.59,3740
SimulationElapsedTime,2021-02-18T12:33:20.028Z,IE,54.78.3.59,0,54.78.3.59,3770
SimulationElapsedTime,2021-02-18T12:33:50.012Z,IE,54.78.3.59,0,54.78.3.59,3800
SimulationElapsedTime,2021-02-18T12:34:20.016Z,IE,54.78.3.59,0,54.78.3.59,3830
SimulationElapsedTime,2021-02-18T12:34:50.014Z,IE,54.78.3.59,0,54.78.3.59,3860
SimulationElapsedTime,2021-02-18T12:35:20.014Z,IE,54.78.3.59,0,54.78.3.59,3890
SimulationElapsedTime,2021-02-18T12:35:50.014Z,IE,54.78.3.59,0,54.78.3.59,3920
SimulationElapsedTime,2021-02-18T12:36:20.014Z,IE,54.78.3.59,0,54.78.3.59,3950
SimulationElapsedTime,2021-02-18T12:36:50.021Z,IE,54.78.3.59,0,54.78.3.59,3980
SimulationElapsedTime,2021-02-18T12:37:20.015Z,IE,54.78.3.59,0,54.78.3.59,4010
SimulationElapsedTime,2021-02-18T12:37:50.027Z,IE,54.78.3.59,0,54.78.3.59,4040
SimulationElapsedTime,2021-02-18T12:38:20.022Z,IE,54.78.3.59,0,54.78.3.59,4070
SimulationElapsedTime,2021-02-18T12:38:50.019Z,IE,54.78.3.59,0,54.78.3.59,4100
SimulationElapsedTime,2021-02-18T12:39:20.057Z,IE,54.78.3.59,0,54.78.3.59,4130
SimulationElapsedTime,2021-02-18T12:39:50.022Z,IE,54.78.3.59,0,54.78.3.59,4160
SimulationElapsedTime,2021-02-18T12:40:20.024Z,IE,54.78.3.59,0,54.78.3.59,4190
