name,time,countryCode,ipAddress,level,producer,value
AvgResponseTime,2020-10-29T13:52:10.029Z,IE,34.252.99.183,3.0,34.252.99.183,0
AvgResponseTime,2020-10-29T13:53:10.029Z,IE,34.252.99.183,3.0,34.252.99.183,0
AvgResponseTime,2020-10-29T13:54:10.029Z,IE,34.252.99.183,3.0,34.252.99.183,0
AvgResponseTime,2020-10-29T13:55:10.029Z,IE,34.252.99.183,3.0,34.252.99.183,5
AvgResponseTime,2020-10-29T13:56:10.029Z,IE,34.252.99.183,3.0,34.252.99.183,4
AvgResponseTime,2020-10-29T13:57:10.029Z,IE,34.252.99.183,3.0,34.252.99.183,0
AvgResponseTime,2020-10-29T13:58:10.029Z,IE,34.252.99.183,3.0,34.252.99.183,0
AvgResponseTime,2020-10-29T13:59:10.029Z,IE,34.252.99.183,3.0,34.252.99.183,0
AvgResponseTime,2020-10-29T14:00:10.029Z,IE,34.252.99.183,3.0,34.252.99.183,0
AvgResponseTime,2020-10-29T14:01:10.029Z,IE,34.252.99.183,3.0,34.252.99.183,4
AvgResponseTime,2020-10-29T14:02:10.029Z,IE,34.252.99.183,3.0,34.252.99.183,4
AvgResponseTime,2020-10-29T14:03:10.029Z,IE,34.252.99.183,3.0,34.252.99.183,0
AvgResponseTime,2020-10-29T14:04:10.029Z,IE,34.252.99.183,3.0,34.252.99.183,0
AvgResponseTime,2020-10-29T14:05:10.029Z,IE,34.252.99.183,3.0,34.252.99.183,0
AvgResponseTime,2020-10-29T14:06:10.029Z,IE,34.252.99.183,3.0,34.252.99.183,6
AvgResponseTime,2020-10-29T14:07:10.029Z,IE,34.252.99.183,3.0,34.252.99.183,0
AvgResponseTime,2020-10-29T14:08:10.029Z,IE,34.252.99.183,3.0,34.252.99.183,0
AvgResponseTime,2020-10-29T14:09:10.029Z,IE,34.252.99.183,3.0,34.252.99.183,7
AvgResponseTime,2020-10-29T14:10:10.029Z,IE,34.252.99.183,3.0,34.252.99.183,0
AvgResponseTime,2020-10-29T14:11:10.029Z,IE,34.252.99.183,3.0,34.252.99.183,10
AvgResponseTime,2020-10-29T14:12:10.029Z,IE,34.252.99.183,3.0,34.252.99.183,0
AvgResponseTime,2020-10-29T14:13:10.029Z,IE,34.252.99.183,3.0,34.252.99.183,4
AvgResponseTime,2020-10-29T14:14:10.029Z,IE,34.252.99.183,3.0,34.252.99.183,0
AvgResponseTime,2020-10-29T14:15:10.029Z,IE,34.252.99.183,3.0,34.252.99.183,20
AvgResponseTime,2020-10-29T14:16:10.029Z,IE,34.252.99.183,3.0,34.252.99.183,6
AvgResponseTime,2020-10-29T14:17:10.029Z,IE,34.252.99.183,3.0,34.252.99.183,0
AvgResponseTime,2020-10-29T14:18:10.029Z,IE,34.252.99.183,3.0,34.252.99.183,14
AvgResponseTime,2020-10-29T14:19:10.029Z,IE,34.252.99.183,3.0,34.252.99.183,3
AvgResponseTime,2020-10-29T14:20:10.029Z,IE,34.252.99.183,3.0,34.252.99.183,0
AvgResponseTime,2020-10-29T14:21:10.029Z,IE,34.252.99.183,3.0,34.252.99.183,0
AvgResponseTime,2020-10-29T14:22:10.029Z,IE,34.252.99.183,3.0,34.252.99.183,0
AvgResponseTime,2020-10-29T14:23:10.029Z,IE,34.252.99.183,3.0,34.252.99.183,0
AvgResponseTime,2020-10-29T14:24:10.029Z,IE,34.252.99.183,3.0,34.252.99.183,0
AvgResponseTime,2020-10-29T14:25:10.029Z,IE,34.252.99.183,3.0,34.252.99.183,0
AvgResponseTime,2020-10-29T14:26:10.029Z,IE,34.252.99.183,3.0,34.252.99.183,0
AvgResponseTime,2020-10-29T14:27:10.029Z,IE,34.252.99.183,3.0,34.252.99.183,0
AvgResponseTime,2020-10-29T14:28:10.029Z,IE,34.252.99.183,3.0,34.252.99.183,0
AvgResponseTime,2020-10-29T14:29:10.029Z,IE,34.252.99.183,3.0,34.252.99.183,8
AvgResponseTime,2020-10-29T14:30:10.029Z,IE,34.252.99.183,3.0,34.252.99.183,0
AvgResponseTime,2020-10-29T14:31:10.029Z,IE,34.252.99.183,3.0,34.252.99.183,5
AvgResponseTime,2020-10-29T14:32:10.029Z,IE,34.252.99.183,3.0,34.252.99.183,0
AvgResponseTime,2020-10-29T14:33:10.029Z,IE,34.252.99.183,3.0,34.252.99.183,0
AvgResponseTime,2020-10-29T14:34:10.029Z,IE,34.252.99.183,3.0,34.252.99.183,0
AvgResponseTime,2020-10-29T14:35:10.029Z,IE,34.252.99.183,3.0,34.252.99.183,0
AvgResponseTime,2020-10-29T14:36:10.029Z,IE,34.252.99.183,3.0,34.252.99.183,0
AvgResponseTime,2020-10-29T14:37:10.029Z,IE,34.252.99.183,3.0,34.252.99.183,0
AvgResponseTime,2020-10-29T14:38:10.029Z,IE,34.252.99.183,3.0,34.252.99.183,26
AvgResponseTime,2020-10-29T14:39:10.029Z,IE,34.252.99.183,3.0,34.252.99.183,0
AvgResponseTime,2020-10-29T14:40:10.029Z,IE,34.252.99.183,3.0,34.252.99.183,0
AvgResponseTime,2020-10-29T14:41:10.029Z,IE,34.252.99.183,3.0,34.252.99.183,4
AvgResponseTime,2020-10-29T14:42:10.029Z,IE,34.252.99.183,3.0,34.252.99.183,0
AvgResponseTime,2020-10-29T14:43:10.029Z,IE,34.252.99.183,3.0,34.252.99.183,0
AvgResponseTime,2020-10-29T14:44:10.029Z,IE,34.252.99.183,3.0,34.252.99.183,0
AvgResponseTime,2020-10-29T14:45:10.029Z,IE,34.252.99.183,3.0,34.252.99.183,0
AvgResponseTime,2020-10-29T14:46:10.029Z,IE,34.252.99.183,3.0,34.252.99.183,0
AvgResponseTime,2020-10-29T14:47:10.029Z,IE,34.252.99.183,3.0,34.252.99.183,0
AvgResponseTime,2020-10-29T14:48:10.029Z,IE,34.252.99.183,3.0,34.252.99.183,9
AvgResponseTime,2020-10-29T14:49:10.029Z,IE,34.252.99.183,3.0,34.252.99.183,0
AvgResponseTime,2020-10-29T14:50:10.029Z,IE,34.252.99.183,3.0,34.252.99.183,0
AvgResponseTime,2020-10-29T14:51:10.029Z,IE,34.252.99.183,3.0,34.252.99.183,342
AvgResponseTime,2020-10-29T14:52:10.029Z,IE,34.252.99.183,3.0,34.252.99.183,0
AvgResponseTime,2020-10-29T14:53:10.029Z,IE,34.252.99.183,3.0,34.252.99.183,0
AvgResponseTime,2020-10-29T14:54:10.029Z,IE,34.252.99.183,3.0,34.252.99.183,0
AvgResponseTime,2020-10-29T14:55:10.029Z,IE,34.252.99.183,3.0,34.252.99.183,0
AvgResponseTime,2020-10-29T14:56:10.029Z,IE,34.252.99.183,3.0,34.252.99.183,0
AvgResponseTime,2020-10-29T14:57:10.029Z,IE,34.252.99.183,3.0,34.252.99.183,9
AvgResponseTime,2020-10-29T14:58:10.029Z,IE,34.252.99.183,3.0,34.252.99.183,0
AvgResponseTime,2020-10-29T14:59:10.029Z,IE,34.252.99.183,3.0,34.252.99.183,11
AvgResponseTime,2020-10-29T15:00:10.029Z,IE,34.252.99.183,3.0,34.252.99.183,5
AvgResponseTime,2020-10-29T15:01:10.029Z,IE,34.252.99.183,3.0,34.252.99.183,7
AvgResponseTime,2020-10-29T15:02:10.029Z,IE,34.252.99.183,3.0,34.252.99.183,0
AvgResponseTime,2020-10-29T15:03:10.029Z,IE,34.252.99.183,3.0,34.252.99.183,7
AvgResponseTime,2020-10-29T15:04:10.029Z,IE,34.252.99.183,3.0,34.252.99.183,5
AvgResponseTime,2020-10-29T15:05:10.029Z,IE,34.252.99.183,3.0,34.252.99.183,0
AvgResponseTime,2020-10-29T15:06:10.029Z,IE,34.252.99.183,3.0,34.252.99.183,0
AvgResponseTime,2020-10-29T15:07:10.029Z,IE,34.252.99.183,3.0,34.252.99.183,0
AvgResponseTime,2020-10-29T15:08:10.029Z,IE,34.252.99.183,3.0,34.252.99.183,0
AvgResponseTime,2020-10-29T15:09:10.029Z,IE,34.252.99.183,3.0,34.252.99.183,6
AvgResponseTime,2020-10-29T15:10:10.029Z,IE,34.252.99.183,3.0,34.252.99.183,0
AvgResponseTime,2020-10-29T15:11:10.029Z,IE,34.252.99.183,3.0,34.252.99.183,0
AvgResponseTime,2020-10-29T15:12:10.029Z,IE,34.252.99.183,3.0,34.252.99.183,0
AvgResponseTime,2020-10-29T15:13:10.029Z,IE,34.252.99.183,3.0,34.252.99.183,0
AvgResponseTime,2020-10-29T15:14:10.029Z,IE,34.252.99.183,3.0,34.252.99.183,0
AvgResponseTime,2020-10-29T15:15:10.029Z,IE,34.252.99.183,3.0,34.252.99.183,0
AvgResponseTime,2020-10-29T15:16:10.029Z,IE,34.252.99.183,3.0,34.252.99.183,0
AvgResponseTime,2020-10-29T15:17:10.029Z,IE,34.252.99.183,3.0,34.252.99.183,0
AvgResponseTime,2020-10-29T15:18:10.029Z,IE,34.252.99.183,3.0,34.252.99.183,0
AvgResponseTime,2020-10-29T15:19:10.029Z,IE,34.252.99.183,3.0,34.252.99.183,0
AvgResponseTime,2020-10-29T15:20:10.029Z,IE,34.252.99.183,3.0,34.252.99.183,0
AvgResponseTime,2020-10-29T15:21:10.029Z,IE,34.252.99.183,3.0,34.252.99.183,0
AvgResponseTime,2020-10-29T15:22:10.029Z,IE,34.252.99.183,3.0,34.252.99.183,0
AvgResponseTime,2020-10-29T15:23:10.029Z,IE,34.252.99.183,3.0,34.252.99.183,0
AvgResponseTime,2020-10-29T15:24:10.029Z,IE,34.252.99.183,3.0,34.252.99.183,0
AvgResponseTime,2020-10-29T15:25:10.029Z,IE,34.252.99.183,3.0,34.252.99.183,5
AvgResponseTime,2020-10-29T15:26:10.029Z,IE,34.252.99.183,3.0,34.252.99.183,0
AvgResponseTime,2020-10-29T15:27:10.029Z,IE,34.252.99.183,3.0,34.252.99.183,356
AvgResponseTime,2020-10-29T15:28:10.029Z,IE,34.252.99.183,3.0,34.252.99.183,0
AvgResponseTime,2020-10-29T15:29:10.029Z,IE,34.252.99.183,3.0,34.252.99.183,0
AvgResponseTime,2020-10-29T15:30:10.029Z,IE,34.252.99.183,3.0,34.252.99.183,4
AvgResponseTime,2020-10-29T15:31:10.029Z,IE,34.252.99.183,3.0,34.252.99.183,6
AvgResponseTime,2020-10-29T15:32:10.029Z,IE,34.252.99.183,3.0,34.252.99.183,0
AvgResponseTime,2020-10-29T15:33:10.029Z,IE,34.252.99.183,3.0,34.252.99.183,0
AvgResponseTime,2020-10-29T15:34:10.029Z,IE,34.252.99.183,3.0,34.252.99.183,0
AvgResponseTime,2020-10-29T15:35:10.029Z,IE,34.252.99.183,3.0,34.252.99.183,0
AvgResponseTime,2020-10-29T15:36:10.029Z,IE,34.252.99.183,3.0,34.252.99.183,0
AvgResponseTime,2020-10-29T15:37:10.029Z,IE,34.252.99.183,3.0,34.252.99.183,4
AvgResponseTime,2020-10-29T15:38:10.029Z,IE,34.252.99.183,3.0,34.252.99.183,0
AvgResponseTime,2020-10-29T15:39:10.029Z,IE,34.252.99.183,3.0,34.252.99.183,0
AvgResponseTime,2020-10-29T15:40:10.029Z,IE,34.252.99.183,3.0,34.252.99.183,0
AvgResponseTime,2020-10-29T15:41:10.029Z,IE,34.252.99.183,3.0,34.252.99.183,0
AvgResponseTime,2020-10-29T15:42:10.029Z,IE,34.252.99.183,3.0,34.252.99.183,15
AvgResponseTime,2020-10-29T15:43:10.029Z,IE,34.252.99.183,3.0,34.252.99.183,23
AvgResponseTime,2020-10-29T15:44:10.029Z,IE,34.252.99.183,3.0,34.252.99.183,0
AvgResponseTime,2020-10-29T15:45:10.029Z,IE,34.252.99.183,3.0,34.252.99.183,0
AvgResponseTime,2020-10-29T15:46:10.029Z,IE,34.252.99.183,3.0,34.252.99.183,0
AvgResponseTime,2020-10-29T15:47:10.029Z,IE,34.252.99.183,3.0,34.252.99.183,0
AvgResponseTime,2020-10-29T15:48:10.029Z,IE,34.252.99.183,3.0,34.252.99.183,0
AvgResponseTime,2020-10-29T15:49:10.029Z,IE,34.252.99.183,3.0,34.252.99.183,4
AvgResponseTime,2020-10-29T15:50:10.029Z,IE,34.252.99.183,3.0,34.252.99.183,0
AvgResponseTime,2020-10-29T15:51:10.029Z,IE,34.252.99.183,3.0,34.252.99.183,6
AvgResponseTime,2020-10-29T15:52:10.029Z,IE,34.252.99.183,3.0,34.252.99.183,50
AvgResponseTime,2020-10-29T15:53:10.029Z,IE,34.252.99.183,3.0,34.252.99.183,5
AvgResponseTime,2020-10-29T15:54:10.029Z,IE,34.252.99.183,3.0,34.252.99.183,28
AvgResponseTime,2020-10-29T15:55:10.029Z,IE,34.252.99.183,3.0,34.252.99.183,0
AvgResponseTime,2020-10-29T15:56:10.029Z,IE,34.252.99.183,3.0,34.252.99.183,5
AvgResponseTime,2020-10-29T15:57:10.029Z,IE,34.252.99.183,3.0,34.252.99.183,0
AvgResponseTime,2020-10-29T15:58:10.029Z,IE,34.252.99.183,3.0,34.252.99.183,0
AvgResponseTime,2020-10-29T15:59:10.029Z,IE,34.252.99.183,3.0,34.252.99.183,0
AvgResponseTime,2020-10-29T16:00:10.029Z,IE,34.252.99.183,3.0,34.252.99.183,0
AvgResponseTime,2020-10-29T16:01:10.029Z,IE,34.252.99.183,3.0,34.252.99.183,7
AvgResponseTime,2020-10-29T16:02:10.029Z,IE,34.252.99.183,3.0,34.252.99.183,13
AvgResponseTime,2020-10-29T16:03:10.029Z,IE,34.252.99.183,3.0,34.252.99.183,8
AvgResponseTime,2020-10-29T16:04:10.029Z,IE,34.252.99.183,3.0,34.252.99.183,0
AvgResponseTime,2020-10-29T16:05:10.029Z,IE,34.252.99.183,3.0,34.252.99.183,0
AvgResponseTime,2020-10-29T16:06:10.029Z,IE,34.252.99.183,3.0,34.252.99.183,3
AvgResponseTime,2020-10-29T16:07:10.029Z,IE,34.252.99.183,3.0,34.252.99.183,0
AvgResponseTime,2020-10-29T16:08:10.029Z,IE,34.252.99.183,3.0,34.252.99.183,0
AvgResponseTime,2020-10-29T16:09:10.029Z,IE,34.252.99.183,3.0,34.252.99.183,4
AvgResponseTime,2020-10-29T16:10:10.029Z,IE,34.252.99.183,3.0,34.252.99.183,0
AvgResponseTime,2020-10-29T16:11:10.029Z,IE,34.252.99.183,3.0,34.252.99.183,4
AvgResponseTime,2020-10-29T16:12:10.029Z,IE,34.252.99.183,3.0,34.252.99.183,6
AvgResponseTime,2020-10-29T16:13:10.034Z,IE,34.252.99.183,3.0,34.252.99.183,6
AvgResponseTime,2020-10-29T16:14:10.029Z,IE,34.252.99.183,3.0,34.252.99.183,0
AvgResponseTime,2020-10-29T16:15:10.029Z,IE,34.252.99.183,3.0,34.252.99.183,0
AvgResponseTime,2020-10-29T16:16:10.029Z,IE,34.252.99.183,3.0,34.252.99.183,4.5
AvgResponseTime,2020-10-29T16:17:10.029Z,IE,34.252.99.183,3.0,34.252.99.183,5
AvgResponseTime,2020-10-29T16:18:10.029Z,IE,34.252.99.183,3.0,34.252.99.183,6.5
AvgResponseTime,2020-10-29T16:19:10.029Z,IE,34.252.99.183,3.0,34.252.99.183,0
AvgResponseTime,2020-10-29T16:20:10.029Z,IE,34.252.99.183,3.0,34.252.99.183,0
AvgResponseTime,2020-10-29T16:21:10.029Z,IE,34.252.99.183,3.0,34.252.99.183,6
AvgResponseTime,2020-10-29T16:22:10.029Z,IE,34.252.99.183,3.0,34.252.99.183,4
AvgResponseTime,2020-10-29T16:23:10.029Z,IE,34.252.99.183,3.0,34.252.99.183,5
AvgResponseTime,2020-10-29T16:24:10.029Z,IE,34.252.99.183,3.0,34.252.99.183,0
AvgResponseTime,2020-10-29T16:25:10.029Z,IE,34.252.99.183,3.0,34.252.99.183,0
AvgResponseTime,2020-10-29T16:26:10.029Z,IE,34.252.99.183,3.0,34.252.99.183,7
AvgResponseTime,2020-10-29T16:27:10.029Z,IE,34.252.99.183,3.0,34.252.99.183,5
AvgResponseTime,2020-10-29T16:28:10.029Z,IE,34.252.99.183,3.0,34.252.99.183,0
AvgResponseTime,2020-10-29T16:29:10.029Z,IE,34.252.99.183,3.0,34.252.99.183,0
AvgResponseTime,2020-10-29T16:30:10.029Z,IE,34.252.99.183,3.0,34.252.99.183,6
AvgResponseTime,2020-10-29T16:31:10.029Z,IE,34.252.99.183,3.0,34.252.99.183,0
AvgResponseTime,2020-10-29T16:32:10.029Z,IE,34.252.99.183,3.0,34.252.99.183,0
AvgResponseTime,2020-10-29T16:33:10.029Z,IE,34.252.99.183,3.0,34.252.99.183,4
AvgResponseTime,2020-10-29T16:34:10.029Z,IE,34.252.99.183,3.0,34.252.99.183,0
AvgResponseTime,2020-10-29T16:35:10.029Z,IE,34.252.99.183,3.0,34.252.99.183,8
AvgResponseTime,2020-10-29T16:36:10.029Z,IE,34.252.99.183,3.0,34.252.99.183,0
AvgResponseTime,2020-10-29T16:37:10.029Z,IE,34.252.99.183,3.0,34.252.99.183,0
AvgResponseTime,2020-10-29T16:38:10.029Z,IE,34.252.99.183,3.0,34.252.99.183,0
AvgResponseTime,2020-10-29T16:39:10.029Z,IE,34.252.99.183,3.0,34.252.99.183,4
AvgResponseTime,2020-10-29T16:40:10.029Z,IE,34.252.99.183,3.0,34.252.99.183,0
AvgResponseTime,2020-10-29T16:41:10.029Z,IE,34.252.99.183,3.0,34.252.99.183,0
AvgResponseTime,2020-10-29T16:42:10.029Z,IE,34.252.99.183,3.0,34.252.99.183,0
AvgResponseTime,2020-10-29T16:43:10.029Z,IE,34.252.99.183,3.0,34.252.99.183,0
AvgResponseTime,2020-10-29T16:44:10.029Z,IE,34.252.99.183,3.0,34.252.99.183,0
AvgResponseTime,2020-10-29T16:45:10.029Z,IE,34.252.99.183,3.0,34.252.99.183,0
AvgResponseTime,2020-10-29T16:46:10.029Z,IE,34.252.99.183,3.0,34.252.99.183,12
AvgResponseTime,2020-10-29T16:47:10.029Z,IE,34.252.99.183,3.0,34.252.99.183,9
AvgResponseTime,2020-10-29T16:48:10.029Z,IE,34.252.99.183,3.0,34.252.99.183,7
AvgResponseTime,2020-10-29T16:49:10.029Z,IE,34.252.99.183,3.0,34.252.99.183,0
AvgResponseTime,2020-10-29T16:50:10.029Z,IE,34.252.99.183,3.0,34.252.99.183,5
AvgResponseTime,2020-10-29T16:51:10.029Z,IE,34.252.99.183,3.0,34.252.99.183,0
AvgResponseTime,2020-10-29T16:52:10.029Z,IE,34.252.99.183,3.0,34.252.99.183,8
AvgResponseTime,2020-10-29T16:53:10.029Z,IE,34.252.99.183,3.0,34.252.99.183,5
AvgResponseTime,2020-10-29T16:54:10.029Z,IE,34.252.99.183,3.0,34.252.99.183,0
AvgResponseTime,2020-10-29T16:55:10.029Z,IE,34.252.99.183,3.0,34.252.99.183,202
AvgResponseTime,2020-10-29T16:56:10.029Z,IE,34.252.99.183,3.0,34.252.99.183,52
AvgResponseTime,2020-10-29T16:57:10.029Z,IE,34.252.99.183,3.0,34.252.99.183,0
AvgResponseTime,2020-10-29T16:58:10.029Z,IE,34.252.99.183,3.0,34.252.99.183,0
AvgResponseTime,2020-10-29T16:59:10.029Z,IE,34.252.99.183,3.0,34.252.99.183,5
AvgResponseTime,2020-10-29T17:00:10.029Z,IE,34.252.99.183,3.0,34.252.99.183,0
AvgResponseTime,2020-10-29T17:01:10.029Z,IE,34.252.99.183,3.0,34.252.99.183,0
AvgResponseTime,2020-10-29T17:02:10.029Z,IE,34.252.99.183,3.0,34.252.99.183,8
AvgResponseTime,2020-10-29T17:03:10.029Z,IE,34.252.99.183,3.0,34.252.99.183,5
AvgResponseTime,2020-10-29T17:04:10.029Z,IE,34.252.99.183,3.0,34.252.99.183,20
AvgResponseTime,2020-10-29T17:05:10.029Z,IE,34.252.99.183,3.0,34.252.99.183,7
AvgResponseTime,2020-10-29T17:06:10.029Z,IE,34.252.99.183,3.0,34.252.99.183,6
AvgResponseTime,2020-10-29T17:07:10.029Z,IE,34.252.99.183,3.0,34.252.99.183,0
AvgResponseTime,2020-10-29T17:08:10.029Z,IE,34.252.99.183,3.0,34.252.99.183,5
AvgResponseTime,2020-10-29T17:09:10.029Z,IE,34.252.99.183,3.0,34.252.99.183,0
AvgResponseTime,2020-10-29T17:10:10.029Z,IE,34.252.99.183,3.0,34.252.99.183,0
AvgResponseTime,2020-10-29T17:11:10.029Z,IE,34.252.99.183,3.0,34.252.99.183,0
AvgResponseTime,2020-10-29T17:12:10.029Z,IE,34.252.99.183,3.0,34.252.99.183,5
AvgResponseTime,2020-10-29T17:13:10.029Z,IE,34.252.99.183,3.0,34.252.99.183,5
AvgResponseTime,2020-10-29T17:14:10.029Z,IE,34.252.99.183,3.0,34.252.99.183,0
AvgResponseTime,2020-10-29T17:15:10.029Z,IE,34.252.99.183,3.0,34.252.99.183,0
AvgResponseTime,2020-10-29T17:16:10.029Z,IE,34.252.99.183,3.0,34.252.99.183,4
AvgResponseTime,2020-10-29T17:17:10.029Z,IE,34.252.99.183,3.0,34.252.99.183,5
AvgResponseTime,2020-10-29T17:18:10.029Z,IE,34.252.99.183,3.0,34.252.99.183,0
AvgResponseTime,2020-10-29T17:19:10.029Z,IE,34.252.99.183,3.0,34.252.99.183,0
AvgResponseTime,2020-10-29T17:20:10.029Z,IE,34.252.99.183,3.0,34.252.99.183,0
AvgResponseTime,2020-10-29T17:21:10.029Z,IE,34.252.99.183,3.0,34.252.99.183,0
AvgResponseTime,2020-10-29T17:22:10.029Z,IE,34.252.99.183,3.0,34.252.99.183,13
AvgResponseTime,2020-10-29T17:23:10.029Z,IE,34.252.99.183,3.0,34.252.99.183,0
AvgResponseTime,2020-10-29T17:24:10.029Z,IE,34.252.99.183,3.0,34.252.99.183,0
AvgResponseTime,2020-10-29T17:25:10.029Z,IE,34.252.99.183,3.0,34.252.99.183,5
AvgResponseTime,2020-10-29T17:26:10.029Z,IE,34.252.99.183,3.0,34.252.99.183,0
AvgResponseTime,2020-10-29T17:27:10.029Z,IE,34.252.99.183,3.0,34.252.99.183,251
AvgResponseTime,2020-10-29T17:28:10.029Z,IE,34.252.99.183,3.0,34.252.99.183,0
AvgResponseTime,2020-10-29T17:29:10.029Z,IE,34.252.99.183,3.0,34.252.99.183,0
AvgResponseTime,2020-10-29T17:30:10.029Z,IE,34.252.99.183,3.0,34.252.99.183,8.5
AvgResponseTime,2020-10-29T17:31:10.029Z,IE,34.252.99.183,3.0,34.252.99.183,4
AvgResponseTime,2020-10-29T17:32:10.029Z,IE,34.252.99.183,3.0,34.252.99.183,0
AvgResponseTime,2020-10-29T17:33:10.029Z,IE,34.252.99.183,3.0,34.252.99.183,0
AvgResponseTime,2020-10-29T17:34:10.029Z,IE,34.252.99.183,3.0,34.252.99.183,0
AvgResponseTime,2020-10-29T17:35:10.029Z,IE,34.252.99.183,3.0,34.252.99.183,0
AvgResponseTime,2020-10-29T17:36:10.029Z,IE,34.252.99.183,3.0,34.252.99.183,0
AvgResponseTime,2020-10-29T17:37:10.029Z,IE,34.252.99.183,3.0,34.252.99.183,6
AvgResponseTime,2020-10-29T17:38:10.029Z,IE,34.252.99.183,3.0,34.252.99.183,6
AvgResponseTime,2020-10-29T17:39:10.029Z,IE,34.252.99.183,3.0,34.252.99.183,0
AvgResponseTime,2020-10-29T17:40:10.029Z,IE,34.252.99.183,3.0,34.252.99.183,11
AvgResponseTime,2020-10-29T17:41:10.029Z,IE,34.252.99.183,3.0,34.252.99.183,0
AvgResponseTime,2020-10-29T17:42:10.029Z,IE,34.252.99.183,3.0,34.252.99.183,6
AvgResponseTime,2020-10-29T17:43:10.029Z,IE,34.252.99.183,3.0,34.252.99.183,180
AvgResponseTime,2020-10-29T17:44:10.029Z,IE,34.252.99.183,3.0,34.252.99.183,0
AvgResponseTime,2020-10-29T17:45:10.029Z,IE,34.252.99.183,3.0,34.252.99.183,317.5
AvgResponseTime,2020-10-29T17:46:10.029Z,IE,34.252.99.183,3.0,34.252.99.183,12
AvgResponseTime,2020-10-29T17:47:10.029Z,IE,34.252.99.183,3.0,34.252.99.183,5.5
AvgResponseTime,2020-10-29T17:48:10.029Z,IE,34.252.99.183,3.0,34.252.99.183,5.5
AvgResponseTime,2020-10-29T17:49:10.029Z,IE,34.252.99.183,3.0,34.252.99.183,0
AvgResponseTime,2020-10-29T17:50:10.029Z,IE,34.252.99.183,3.0,34.252.99.183,0
AvgResponseTime,2020-10-29T17:51:10.029Z,IE,34.252.99.183,3.0,34.252.99.183,0
AvgResponseTime,2020-10-29T17:52:10.029Z,IE,34.252.99.183,3.0,34.252.99.183,0
AvgResponseTime,2020-10-29T17:53:10.029Z,IE,34.252.99.183,3.0,34.252.99.183,4
AvgResponseTime,2020-10-29T17:54:10.029Z,IE,34.252.99.183,3.0,34.252.99.183,0
AvgResponseTime,2020-10-29T17:55:10.029Z,IE,34.252.99.183,3.0,34.252.99.183,0
AvgResponseTime,2020-10-29T17:56:10.029Z,IE,34.252.99.183,3.0,34.252.99.183,0
AvgResponseTime,2020-10-29T17:57:10.029Z,IE,34.252.99.183,3.0,34.252.99.183,0
AvgResponseTime,2020-10-29T17:58:10.029Z,IE,34.252.99.183,3.0,34.252.99.183,6
AvgResponseTime,2020-10-29T17:59:10.029Z,IE,34.252.99.183,3.0,34.252.99.183,0
AvgResponseTime,2020-10-29T18:00:10.029Z,IE,34.252.99.183,3.0,34.252.99.183,0
AvgResponseTime,2020-10-29T18:01:10.029Z,IE,34.252.99.183,3.0,34.252.99.183,4
AvgResponseTime,2020-10-29T18:02:10.029Z,IE,34.252.99.183,3.0,34.252.99.183,0
AvgResponseTime,2020-10-29T18:03:10.029Z,IE,34.252.99.183,3.0,34.252.99.183,6
AvgResponseTime,2020-10-29T18:04:10.029Z,IE,34.252.99.183,3.0,34.252.99.183,8
AvgResponseTime,2020-10-29T18:05:10.029Z,IE,34.252.99.183,3.0,34.252.99.183,0
AvgResponseTime,2020-10-29T18:06:10.029Z,IE,34.252.99.183,3.0,34.252.99.183,0
AvgResponseTime,2020-10-29T18:07:10.029Z,IE,34.252.99.183,3.0,34.252.99.183,0
AvgResponseTime,2020-10-29T18:08:10.029Z,IE,34.252.99.183,3.0,34.252.99.183,0
AvgResponseTime,2020-10-29T18:09:10.029Z,IE,34.252.99.183,3.0,34.252.99.183,0
AvgResponseTime,2020-10-29T18:10:10.032Z,IE,34.252.99.183,3.0,34.252.99.183,0
AvgResponseTime,2020-10-29T18:11:10.029Z,IE,34.252.99.183,3.0,34.252.99.183,0
AvgResponseTime,2020-10-29T18:12:10.029Z,IE,34.252.99.183,3.0,34.252.99.183,0
AvgResponseTime,2020-10-29T18:13:10.029Z,IE,34.252.99.183,3.0,34.252.99.183,12
AvgResponseTime,2020-10-29T18:14:10.029Z,IE,34.252.99.183,3.0,34.252.99.183,0
AvgResponseTime,2020-10-29T18:15:10.029Z,IE,34.252.99.183,3.0,34.252.99.183,0
AvgResponseTime,2020-10-29T18:16:10.029Z,IE,34.252.99.183,3.0,34.252.99.183,0
AvgResponseTime,2020-10-29T18:17:10.029Z,IE,34.252.99.183,3.0,34.252.99.183,0
AvgResponseTime,2020-10-29T18:18:10.029Z,IE,34.252.99.183,3.0,34.252.99.183,5
AvgResponseTime,2020-10-29T18:19:10.029Z,IE,34.252.99.183,3.0,34.252.99.183,4
AvgResponseTime,2020-10-29T18:20:10.029Z,IE,34.252.99.183,3.0,34.252.99.183,0
AvgResponseTime,2020-10-29T18:21:10.029Z,IE,34.252.99.183,3.0,34.252.99.183,0
AvgResponseTime,2020-10-29T18:22:10.029Z,IE,34.252.99.183,3.0,34.252.99.183,0
AvgResponseTime,2020-10-29T18:23:10.029Z,IE,34.252.99.183,3.0,34.252.99.183,162
AvgResponseTime,2020-10-29T18:24:10.029Z,IE,34.252.99.183,3.0,34.252.99.183,4
AvgResponseTime,2020-10-29T18:25:10.029Z,IE,34.252.99.183,3.0,34.252.99.183,5
AvgResponseTime,2020-10-29T18:26:10.029Z,IE,34.252.99.183,3.0,34.252.99.183,7
AvgResponseTime,2020-10-29T18:27:10.029Z,IE,34.252.99.183,3.0,34.252.99.183,0
AvgResponseTime,2020-10-29T18:28:10.029Z,IE,34.252.99.183,3.0,34.252.99.183,16
AvgResponseTime,2020-10-29T18:29:10.029Z,IE,34.252.99.183,3.0,34.252.99.183,0
AvgResponseTime,2020-10-29T18:30:10.029Z,IE,34.252.99.183,3.0,34.252.99.183,5
AvgResponseTime,2020-10-29T18:31:10.029Z,IE,34.252.99.183,3.0,34.252.99.183,0
AvgResponseTime,2020-10-29T18:32:10.029Z,IE,34.252.99.183,3.0,34.252.99.183,0
AvgResponseTime,2020-10-29T18:33:10.029Z,IE,34.252.99.183,3.0,34.252.99.183,0
AvgResponseTime,2020-10-29T18:34:10.029Z,IE,34.252.99.183,3.0,34.252.99.183,4
AvgResponseTime,2020-10-29T18:35:10.029Z,IE,34.252.99.183,3.0,34.252.99.183,0
AvgResponseTime,2020-10-29T18:36:10.029Z,IE,34.252.99.183,3.0,34.252.99.183,0
AvgResponseTime,2020-10-29T18:37:10.029Z,IE,34.252.99.183,3.0,34.252.99.183,252
AvgResponseTime,2020-10-29T18:38:10.029Z,IE,34.252.99.183,3.0,34.252.99.183,5
AvgResponseTime,2020-10-29T18:39:10.029Z,IE,34.252.99.183,3.0,34.252.99.183,0
AvgResponseTime,2020-10-29T18:40:10.029Z,IE,34.252.99.183,3.0,34.252.99.183,6
AvgResponseTime,2020-10-29T18:41:10.029Z,IE,34.252.99.183,3.0,34.252.99.183,0
AvgResponseTime,2020-10-29T18:42:10.029Z,IE,34.252.99.183,3.0,34.252.99.183,0
AvgResponseTime,2020-10-29T18:43:10.029Z,IE,34.252.99.183,3.0,34.252.99.183,5.5
AvgResponseTime,2020-10-29T18:44:10.029Z,IE,34.252.99.183,3.0,34.252.99.183,5
AvgResponseTime,2020-10-29T18:45:10.029Z,IE,34.252.99.183,3.0,34.252.99.183,0
AvgResponseTime,2020-10-29T18:46:10.029Z,IE,34.252.99.183,3.0,34.252.99.183,0
AvgResponseTime,2020-10-29T18:47:10.029Z,IE,34.252.99.183,3.0,34.252.99.183,5
AvgResponseTime,2020-10-29T18:48:10.029Z,IE,34.252.99.183,3.0,34.252.99.183,6
AvgResponseTime,2020-10-29T18:49:10.029Z,IE,34.252.99.183,3.0,34.252.99.183,0
AvgResponseTime,2020-10-29T18:50:10.029Z,IE,34.252.99.183,3.0,34.252.99.183,0
AvgResponseTime,2020-10-29T18:51:10.029Z,IE,34.252.99.183,3.0,34.252.99.183,0
AvgResponseTime,2020-10-29T18:52:10.029Z,IE,34.252.99.183,3.0,34.252.99.183,3
AvgResponseTime,2020-10-29T18:53:10.029Z,IE,34.252.99.183,3.0,34.252.99.183,7
AvgResponseTime,2020-10-29T18:54:10.031Z,IE,34.252.99.183,3.0,34.252.99.183,0
AvgResponseTime,2020-10-29T18:55:10.029Z,IE,34.252.99.183,3.0,34.252.99.183,6
AvgResponseTime,2020-10-29T18:56:10.029Z,IE,34.252.99.183,3.0,34.252.99.183,0
AvgResponseTime,2020-10-29T18:57:10.029Z,IE,34.252.99.183,3.0,34.252.99.183,7
AvgResponseTime,2020-10-29T18:58:10.029Z,IE,34.252.99.183,3.0,34.252.99.183,4
AvgResponseTime,2020-10-29T18:59:10.029Z,IE,34.252.99.183,3.0,34.252.99.183,0
AvgResponseTime,2020-10-29T19:00:10.029Z,IE,34.252.99.183,3.0,34.252.99.183,0
AvgResponseTime,2020-10-29T19:01:10.029Z,IE,34.252.99.183,3.0,34.252.99.183,8
AvgResponseTime,2020-10-29T19:02:10.029Z,IE,34.252.99.183,3.0,34.252.99.183,9
AvgResponseTime,2020-10-29T19:03:10.029Z,IE,34.252.99.183,3.0,34.252.99.183,5
AvgResponseTime,2020-10-29T19:04:10.029Z,IE,34.252.99.183,3.0,34.252.99.183,0
AvgResponseTime,2020-10-29T19:05:10.029Z,IE,34.252.99.183,3.0,34.252.99.183,6
AvgResponseTime,2020-10-29T19:06:10.029Z,IE,34.252.99.183,3.0,34.252.99.183,0
AvgResponseTime,2020-10-29T19:07:10.029Z,IE,34.252.99.183,3.0,34.252.99.183,0
AvgResponseTime,2020-10-29T19:08:10.029Z,IE,34.252.99.183,3.0,34.252.99.183,6
AvgResponseTime,2020-10-29T19:09:10.029Z,IE,34.252.99.183,3.0,34.252.99.183,38
AvgResponseTime,2020-10-29T19:10:10.029Z,IE,34.252.99.183,3.0,34.252.99.183,0
AvgResponseTime,2020-10-29T19:11:10.029Z,IE,34.252.99.183,3.0,34.252.99.183,5
AvgResponseTime,2020-10-29T19:12:10.029Z,IE,34.252.99.183,3.0,34.252.99.183,0
AvgResponseTime,2020-10-29T19:13:10.029Z,IE,34.252.99.183,3.0,34.252.99.183,0
AvgResponseTime,2020-10-29T19:14:10.029Z,IE,34.252.99.183,3.0,34.252.99.183,0
AvgResponseTime,2020-10-29T19:15:10.029Z,IE,34.252.99.183,3.0,34.252.99.183,239
AvgResponseTime,2020-10-29T19:16:10.029Z,IE,34.252.99.183,3.0,34.252.99.183,0
AvgResponseTime,2020-10-29T19:17:10.029Z,IE,34.252.99.183,3.0,34.252.99.183,0
AvgResponseTime,2020-10-29T19:18:10.029Z,IE,34.252.99.183,3.0,34.252.99.183,5
AvgResponseTime,2020-10-29T19:19:10.029Z,IE,34.252.99.183,3.0,34.252.99.183,0
AvgResponseTime,2020-10-29T19:20:10.029Z,IE,34.252.99.183,3.0,34.252.99.183,0
AvgResponseTime,2020-10-29T19:21:10.029Z,IE,34.252.99.183,3.0,34.252.99.183,0
AvgResponseTime,2020-10-29T19:22:10.029Z,IE,34.252.99.183,3.0,34.252.99.183,0
AvgResponseTime,2020-10-29T19:23:10.029Z,IE,34.252.99.183,3.0,34.252.99.183,5
AvgResponseTime,2020-10-29T19:24:10.029Z,IE,34.252.99.183,3.0,34.252.99.183,8
AvgResponseTime,2020-10-29T19:25:10.029Z,IE,34.252.99.183,3.0,34.252.99.183,0
AvgResponseTime,2020-10-29T19:26:10.029Z,IE,34.252.99.183,3.0,34.252.99.183,0
AvgResponseTime,2020-10-29T19:27:10.029Z,IE,34.252.99.183,3.0,34.252.99.183,0
AvgResponseTime,2020-10-29T19:28:10.029Z,IE,34.252.99.183,3.0,34.252.99.183,0
AvgResponseTime,2020-10-29T19:29:10.029Z,IE,34.252.99.183,3.0,34.252.99.183,4
AvgResponseTime,2020-10-29T19:30:10.029Z,IE,34.252.99.183,3.0,34.252.99.183,5
AvgResponseTime,2020-10-29T19:31:10.029Z,IE,34.252.99.183,3.0,34.252.99.183,0
AvgResponseTime,2020-10-29T19:32:10.029Z,IE,34.252.99.183,3.0,34.252.99.183,5
AvgResponseTime,2020-10-29T19:33:10.029Z,IE,34.252.99.183,3.0,34.252.99.183,0
AvgResponseTime,2020-10-29T19:34:10.029Z,IE,34.252.99.183,3.0,34.252.99.183,0
AvgResponseTime,2020-10-29T19:35:10.029Z,IE,34.252.99.183,3.0,34.252.99.183,6
AvgResponseTime,2020-10-29T19:36:10.029Z,IE,34.252.99.183,3.0,34.252.99.183,0
AvgResponseTime,2020-10-29T19:37:10.029Z,IE,34.252.99.183,3.0,34.252.99.183,7
AvgResponseTime,2020-10-29T19:38:10.029Z,IE,34.252.99.183,3.0,34.252.99.183,8
AvgResponseTime,2020-10-29T19:39:10.029Z,IE,34.252.99.183,3.0,34.252.99.183,0
AvgResponseTime,2020-10-29T19:40:10.029Z,IE,34.252.99.183,3.0,34.252.99.183,0
AvgResponseTime,2020-10-29T19:41:10.029Z,IE,34.252.99.183,3.0,34.252.99.183,0
AvgResponseTime,2020-10-29T19:42:10.029Z,IE,34.252.99.183,3.0,34.252.99.183,0
AvgResponseTime,2020-10-29T19:43:10.029Z,IE,34.252.99.183,3.0,34.252.99.183,0
AvgResponseTime,2020-10-29T19:44:10.029Z,IE,34.252.99.183,3.0,34.252.99.183,0
AvgResponseTime,2020-10-29T19:45:10.029Z,IE,34.252.99.183,3.0,34.252.99.183,3
AvgResponseTime,2020-10-29T19:46:10.029Z,IE,34.252.99.183,3.0,34.252.99.183,0
AvgResponseTime,2020-10-29T19:47:10.029Z,IE,34.252.99.183,3.0,34.252.99.183,0
AvgResponseTime,2020-10-29T19:48:10.029Z,IE,34.252.99.183,3.0,34.252.99.183,0
AvgResponseTime,2020-10-29T19:49:10.029Z,IE,34.252.99.183,3.0,34.252.99.183,0
AvgResponseTime,2020-10-29T19:50:10.029Z,IE,34.252.99.183,3.0,34.252.99.183,0
AvgResponseTime,2020-10-29T19:51:10.029Z,IE,34.252.99.183,3.0,34.252.99.183,0
AvgResponseTime,2020-10-29T19:52:10.029Z,IE,34.252.99.183,3.0,34.252.99.183,0
AvgResponseTime,2020-10-29T19:53:10.029Z,IE,34.252.99.183,3.0,34.252.99.183,4
AvgResponseTime,2020-10-29T19:54:10.029Z,IE,34.252.99.183,3.0,34.252.99.183,0
AvgResponseTime,2020-10-29T19:55:10.029Z,IE,34.252.99.183,3.0,34.252.99.183,5
AvgResponseTime,2020-10-29T19:56:10.029Z,IE,34.252.99.183,3.0,34.252.99.183,0
AvgResponseTime,2020-10-29T19:57:10.029Z,IE,34.252.99.183,3.0,34.252.99.183,0
AvgResponseTime,2020-10-29T19:58:10.029Z,IE,34.252.99.183,3.0,34.252.99.183,5
AvgResponseTime,2020-10-29T19:59:10.029Z,IE,34.252.99.183,3.0,34.252.99.183,5
AvgResponseTime,2020-10-29T20:00:10.029Z,IE,34.252.99.183,3.0,34.252.99.183,0
AvgResponseTime,2020-10-29T20:01:10.029Z,IE,34.252.99.183,3.0,34.252.99.183,7
AvgResponseTime,2020-10-29T20:02:10.029Z,IE,34.252.99.183,3.0,34.252.99.183,0
AvgResponseTime,2020-10-29T20:03:10.029Z,IE,34.252.99.183,3.0,34.252.99.183,4
AvgResponseTime,2020-10-29T20:04:10.029Z,IE,34.252.99.183,3.0,34.252.99.183,0
AvgResponseTime,2020-10-29T20:05:10.029Z,IE,34.252.99.183,3.0,34.252.99.183,5
AvgResponseTime,2020-10-29T20:06:10.029Z,IE,34.252.99.183,3.0,34.252.99.183,7
AvgResponseTime,2020-10-29T20:07:10.029Z,IE,34.252.99.183,3.0,34.252.99.183,0
AvgResponseTime,2020-10-29T20:08:10.029Z,IE,34.252.99.183,3.0,34.252.99.183,6
AvgResponseTime,2020-10-29T20:09:10.029Z,IE,34.252.99.183,3.0,34.252.99.183,4
AvgResponseTime,2020-10-29T20:10:10.029Z,IE,34.252.99.183,3.0,34.252.99.183,0
AvgResponseTime,2020-10-29T20:11:10.029Z,IE,34.252.99.183,3.0,34.252.99.183,0
AvgResponseTime,2020-10-29T20:12:10.029Z,IE,34.252.99.183,3.0,34.252.99.183,0
AvgResponseTime,2020-10-29T20:13:10.029Z,IE,34.252.99.183,3.0,34.252.99.183,6
AvgResponseTime,2020-10-29T20:14:10.029Z,IE,34.252.99.183,3.0,34.252.99.183,6
AvgResponseTime,2020-10-29T20:15:10.029Z,IE,34.252.99.183,3.0,34.252.99.183,0
AvgResponseTime,2020-10-29T20:16:10.029Z,IE,34.252.99.183,3.0,34.252.99.183,0
AvgResponseTime,2020-10-29T20:17:10.029Z,IE,34.252.99.183,3.0,34.252.99.183,0
AvgResponseTime,2020-10-29T20:18:10.029Z,IE,34.252.99.183,3.0,34.252.99.183,4
AvgResponseTime,2020-10-29T20:19:10.029Z,IE,34.252.99.183,3.0,34.252.99.183,0
AvgResponseTime,2020-10-29T20:20:10.029Z,IE,34.252.99.183,3.0,34.252.99.183,0
AvgResponseTime,2020-10-29T20:21:10.029Z,IE,34.252.99.183,3.0,34.252.99.183,4.5
AvgResponseTime,2020-10-29T20:22:10.029Z,IE,34.252.99.183,3.0,34.252.99.183,0
AvgResponseTime,2020-10-29T20:23:10.029Z,IE,34.252.99.183,3.0,34.252.99.183,0
AvgResponseTime,2020-10-29T20:24:10.029Z,IE,34.252.99.183,3.0,34.252.99.183,0
AvgResponseTime,2020-10-29T20:25:10.029Z,IE,34.252.99.183,3.0,34.252.99.183,6
AvgResponseTime,2020-10-29T20:26:10.029Z,IE,34.252.99.183,3.0,34.252.99.183,0
AvgResponseTime,2020-10-29T20:27:10.029Z,IE,34.252.99.183,3.0,34.252.99.183,40
AvgResponseTime,2020-10-29T20:28:10.029Z,IE,34.252.99.183,3.0,34.252.99.183,0
AvgResponseTime,2020-10-29T20:29:10.029Z,IE,34.252.99.183,3.0,34.252.99.183,0
AvgResponseTime,2020-10-29T20:30:10.029Z,IE,34.252.99.183,3.0,34.252.99.183,6
AvgResponseTime,2020-10-29T20:31:10.029Z,IE,34.252.99.183,3.0,34.252.99.183,15
AvgResponseTime,2020-10-29T20:32:10.029Z,IE,34.252.99.183,3.0,34.252.99.183,0
AvgResponseTime,2020-10-29T20:33:10.029Z,IE,34.252.99.183,3.0,34.252.99.183,0
AvgResponseTime,2020-10-29T20:34:10.029Z,IE,34.252.99.183,3.0,34.252.99.183,5
AvgResponseTime,2020-10-29T20:35:10.029Z,IE,34.252.99.183,3.0,34.252.99.183,0
AvgResponseTime,2020-10-29T20:36:10.029Z,IE,34.252.99.183,3.0,34.252.99.183,8
AvgResponseTime,2020-10-29T20:37:10.029Z,IE,34.252.99.183,3.0,34.252.99.183,0
AvgResponseTime,2020-10-29T20:38:10.029Z,IE,34.252.99.183,3.0,34.252.99.183,0
AvgResponseTime,2020-10-29T20:39:10.029Z,IE,34.252.99.183,3.0,34.252.99.183,0
AvgResponseTime,2020-10-29T20:40:10.029Z,IE,34.252.99.183,3.0,34.252.99.183,0
AvgResponseTime,2020-10-29T20:41:10.029Z,IE,34.252.99.183,3.0,34.252.99.183,0
AvgResponseTime,2020-10-29T20:42:10.029Z,IE,34.252.99.183,3.0,34.252.99.183,0
AvgResponseTime,2020-10-29T20:43:10.029Z,IE,34.252.99.183,3.0,34.252.99.183,0
AvgResponseTime,2020-10-29T20:44:10.029Z,IE,34.252.99.183,3.0,34.252.99.183,0
AvgResponseTime,2020-10-29T20:45:10.029Z,IE,34.252.99.183,3.0,34.252.99.183,0
AvgResponseTime,2020-10-29T20:46:10.029Z,IE,34.252.99.183,3.0,34.252.99.183,93
AvgResponseTime,2020-10-29T20:47:10.029Z,IE,34.252.99.183,3.0,34.252.99.183,45
AvgResponseTime,2020-10-29T20:48:10.029Z,IE,34.252.99.183,3.0,34.252.99.183,0
AvgResponseTime,2020-10-29T20:49:10.029Z,IE,34.252.99.183,3.0,34.252.99.183,0
AvgResponseTime,2020-10-29T20:50:10.029Z,IE,34.252.99.183,3.0,34.252.99.183,0
AvgResponseTime,2020-10-29T20:51:10.029Z,IE,34.252.99.183,3.0,34.252.99.183,4
AvgResponseTime,2020-10-29T20:52:10.029Z,IE,34.252.99.183,3.0,34.252.99.183,6
AvgResponseTime,2020-10-29T20:53:10.029Z,IE,34.252.99.183,3.0,34.252.99.183,0
AvgResponseTime,2020-10-29T20:54:10.029Z,IE,34.252.99.183,3.0,34.252.99.183,13
AvgResponseTime,2020-10-29T20:55:10.029Z,IE,34.252.99.183,3.0,34.252.99.183,0
AvgResponseTime,2020-10-29T20:56:10.029Z,IE,34.252.99.183,3.0,34.252.99.183,5
AvgResponseTime,2020-10-29T20:57:10.029Z,IE,34.252.99.183,3.0,34.252.99.183,0
AvgResponseTime,2020-10-29T20:58:10.029Z,IE,34.252.99.183,3.0,34.252.99.183,0
AvgResponseTime,2020-10-29T20:59:10.029Z,IE,34.252.99.183,3.0,34.252.99.183,4
AvgResponseTime,2020-10-29T21:00:10.029Z,IE,34.252.99.183,3.0,34.252.99.183,22
AvgResponseTime,2020-10-29T21:01:10.029Z,IE,34.252.99.183,3.0,34.252.99.183,0
AvgResponseTime,2020-10-29T21:02:10.029Z,IE,34.252.99.183,3.0,34.252.99.183,4
AvgResponseTime,2020-10-29T21:03:10.029Z,IE,34.252.99.183,3.0,34.252.99.183,0
AvgResponseTime,2020-10-29T21:04:10.029Z,IE,34.252.99.183,3.0,34.252.99.183,0
AvgResponseTime,2020-10-29T21:05:10.029Z,IE,34.252.99.183,3.0,34.252.99.183,0
AvgResponseTime,2020-10-29T21:06:10.029Z,IE,34.252.99.183,3.0,34.252.99.183,0
AvgResponseTime,2020-10-29T21:07:10.029Z,IE,34.252.99.183,3.0,34.252.99.183,0
AvgResponseTime,2020-10-29T21:08:10.029Z,IE,34.252.99.183,3.0,34.252.99.183,0
AvgResponseTime,2020-10-29T21:09:10.029Z,IE,34.252.99.183,3.0,34.252.99.183,0
AvgResponseTime,2020-10-29T21:10:10.029Z,IE,34.252.99.183,3.0,34.252.99.183,0
AvgResponseTime,2020-10-29T21:11:10.029Z,IE,34.252.99.183,3.0,34.252.99.183,0
AvgResponseTime,2020-10-29T21:12:10.029Z,IE,34.252.99.183,3.0,34.252.99.183,0
AvgResponseTime,2020-10-29T21:13:10.029Z,IE,34.252.99.183,3.0,34.252.99.183,0
AvgResponseTime,2020-10-29T21:14:10.029Z,IE,34.252.99.183,3.0,34.252.99.183,4
AvgResponseTime,2020-10-29T21:15:10.029Z,IE,34.252.99.183,3.0,34.252.99.183,350
AvgResponseTime,2020-10-29T21:16:10.029Z,IE,34.252.99.183,3.0,34.252.99.183,0
AvgResponseTime,2020-10-29T21:17:10.029Z,IE,34.252.99.183,3.0,34.252.99.183,0
AvgResponseTime,2020-10-29T21:18:10.029Z,IE,34.252.99.183,3.0,34.252.99.183,0
AvgResponseTime,2020-10-29T21:19:10.029Z,IE,34.252.99.183,3.0,34.252.99.183,0
AvgResponseTime,2020-10-29T21:20:10.029Z,IE,34.252.99.183,3.0,34.252.99.183,7
AvgResponseTime,2020-10-29T21:21:10.029Z,IE,34.252.99.183,3.0,34.252.99.183,0
AvgResponseTime,2020-10-29T21:22:10.03Z,IE,34.252.99.183,3.0,34.252.99.183,0
AvgResponseTime,2020-10-29T21:23:10.029Z,IE,34.252.99.183,3.0,34.252.99.183,7
AvgResponseTime,2020-10-29T21:24:10.029Z,IE,34.252.99.183,3.0,34.252.99.183,0
AvgResponseTime,2020-10-29T21:25:10.029Z,IE,34.252.99.183,3.0,34.252.99.183,6
AvgResponseTime,2020-10-29T21:26:10.029Z,IE,34.252.99.183,3.0,34.252.99.183,0
AvgResponseTime,2020-10-29T21:27:10.029Z,IE,34.252.99.183,3.0,34.252.99.183,7
AvgResponseTime,2020-10-29T21:28:10.029Z,IE,34.252.99.183,3.0,34.252.99.183,0
AvgResponseTime,2020-10-29T21:29:10.029Z,IE,34.252.99.183,3.0,34.252.99.183,4
AvgResponseTime,2020-10-29T21:30:10.029Z,IE,34.252.99.183,3.0,34.252.99.183,0
AvgResponseTime,2020-10-29T21:31:10.029Z,IE,34.252.99.183,3.0,34.252.99.183,0
AvgResponseTime,2020-10-29T21:32:10.029Z,IE,34.252.99.183,3.0,34.252.99.183,0
AvgResponseTime,2020-10-29T21:33:10.029Z,IE,34.252.99.183,3.0,34.252.99.183,9
AvgResponseTime,2020-10-29T21:34:10.029Z,IE,34.252.99.183,3.0,34.252.99.183,0
AvgResponseTime,2020-10-29T21:35:10.029Z,IE,34.252.99.183,3.0,34.252.99.183,0
AvgResponseTime,2020-10-29T21:36:10.029Z,IE,34.252.99.183,3.0,34.252.99.183,0
AvgResponseTime,2020-10-29T21:37:10.029Z,IE,34.252.99.183,3.0,34.252.99.183,96
AvgResponseTime,2020-10-29T21:38:10.029Z,IE,34.252.99.183,3.0,34.252.99.183,0
AvgResponseTime,2020-10-29T21:39:10.029Z,IE,34.252.99.183,3.0,34.252.99.183,6
AvgResponseTime,2020-10-29T21:40:10.029Z,IE,34.252.99.183,3.0,34.252.99.183,0
AvgResponseTime,2020-10-29T21:41:10.029Z,IE,34.252.99.183,3.0,34.252.99.183,6
AvgResponseTime,2020-10-29T21:42:10.029Z,IE,34.252.99.183,3.0,34.252.99.183,5
AvgResponseTime,2020-10-29T21:43:10.029Z,IE,34.252.99.183,3.0,34.252.99.183,4
AvgResponseTime,2020-10-29T21:44:10.029Z,IE,34.252.99.183,3.0,34.252.99.183,0
AvgResponseTime,2020-10-29T21:45:10.029Z,IE,34.252.99.183,3.0,34.252.99.183,0
AvgResponseTime,2020-10-29T21:46:10.029Z,IE,34.252.99.183,3.0,34.252.99.183,0
AvgResponseTime,2020-10-29T21:47:10.029Z,IE,34.252.99.183,3.0,34.252.99.183,0
AvgResponseTime,2020-10-29T21:48:10.029Z,IE,34.252.99.183,3.0,34.252.99.183,0
AvgResponseTime,2020-10-29T21:49:10.029Z,IE,34.252.99.183,3.0,34.252.99.183,0
AvgResponseTime,2020-10-29T21:50:10.029Z,IE,34.252.99.183,3.0,34.252.99.183,0
AvgResponseTime,2020-10-29T21:51:10.029Z,IE,34.252.99.183,3.0,34.252.99.183,8
AvgResponseTime,2020-10-29T21:52:10.029Z,IE,34.252.99.183,3.0,34.252.99.183,5
AvgResponseTime,2020-10-29T21:53:10.029Z,IE,34.252.99.183,3.0,34.252.99.183,0
AvgResponseTime,2020-10-29T21:54:10.029Z,IE,34.252.99.183,3.0,34.252.99.183,0
AvgResponseTime,2020-10-29T21:55:10.029Z,IE,34.252.99.183,3.0,34.252.99.183,0
AvgResponseTime,2020-10-29T21:56:10.029Z,IE,34.252.99.183,3.0,34.252.99.183,22
AvgResponseTime,2020-10-29T21:57:10.029Z,IE,34.252.99.183,3.0,34.252.99.183,0
AvgResponseTime,2020-10-29T21:58:10.029Z,IE,34.252.99.183,3.0,34.252.99.183,0
AvgResponseTime,2020-10-29T21:59:10.029Z,IE,34.252.99.183,3.0,34.252.99.183,0
AvgResponseTime,2020-10-29T22:00:10.029Z,IE,34.252.99.183,3.0,34.252.99.183,0
AvgResponseTime,2020-10-29T22:01:10.029Z,IE,34.252.99.183,3.0,34.252.99.183,4
AvgResponseTime,2020-10-29T22:02:10.029Z,IE,34.252.99.183,3.0,34.252.99.183,0
AvgResponseTime,2020-10-29T22:03:10.029Z,IE,34.252.99.183,3.0,34.252.99.183,5
AvgResponseTime,2020-10-29T22:04:10.029Z,IE,34.252.99.183,3.0,34.252.99.183,0
AvgResponseTime,2020-10-29T22:05:10.029Z,IE,34.252.99.183,3.0,34.252.99.183,0
AvgResponseTime,2020-10-29T22:06:10.029Z,IE,34.252.99.183,3.0,34.252.99.183,6
AvgResponseTime,2020-10-29T22:07:10.029Z,IE,34.252.99.183,3.0,34.252.99.183,0
AvgResponseTime,2020-10-29T22:08:10.029Z,IE,34.252.99.183,3.0,34.252.99.183,0
AvgResponseTime,2020-10-29T22:09:10.029Z,IE,34.252.99.183,3.0,34.252.99.183,0
AvgResponseTime,2020-10-29T22:10:10.029Z,IE,34.252.99.183,3.0,34.252.99.183,0
AvgResponseTime,2020-10-29T22:11:10.029Z,IE,34.252.99.183,3.0,34.252.99.183,0
AvgResponseTime,2020-10-29T22:12:10.029Z,IE,34.252.99.183,3.0,34.252.99.183,0
AvgResponseTime,2020-10-29T22:13:10.029Z,IE,34.252.99.183,3.0,34.252.99.183,15
AvgResponseTime,2020-10-29T22:14:10.029Z,IE,34.252.99.183,3.0,34.252.99.183,0
AvgResponseTime,2020-10-29T22:15:10.029Z,IE,34.252.99.183,3.0,34.252.99.183,0
AvgResponseTime,2020-10-29T22:16:10.029Z,IE,34.252.99.183,3.0,34.252.99.183,5
AvgResponseTime,2020-10-29T22:17:10.029Z,IE,34.252.99.183,3.0,34.252.99.183,0
AvgResponseTime,2020-10-29T22:18:10.029Z,IE,34.252.99.183,3.0,34.252.99.183,0
AvgResponseTime,2020-10-29T22:19:10.029Z,IE,34.252.99.183,3.0,34.252.99.183,0
AvgResponseTime,2020-10-29T22:20:10.029Z,IE,34.252.99.183,3.0,34.252.99.183,0
AvgResponseTime,2020-10-29T22:21:10.029Z,IE,34.252.99.183,3.0,34.252.99.183,0
AvgResponseTime,2020-10-29T22:22:10.029Z,IE,34.252.99.183,3.0,34.252.99.183,0
AvgResponseTime,2020-10-29T22:23:10.029Z,IE,34.252.99.183,3.0,34.252.99.183,0
AvgResponseTime,2020-10-29T22:24:10.029Z,IE,34.252.99.183,3.0,34.252.99.183,0
AvgResponseTime,2020-10-29T22:25:10.029Z,IE,34.252.99.183,3.0,34.252.99.183,6
AvgResponseTime,2020-10-29T22:26:10.029Z,IE,34.252.99.183,3.0,34.252.99.183,6
AvgResponseTime,2020-10-29T22:27:10.029Z,IE,34.252.99.183,3.0,34.252.99.183,0
AvgResponseTime,2020-10-29T22:28:10.029Z,IE,34.252.99.183,3.0,34.252.99.183,191
AvgResponseTime,2020-10-29T22:29:10.029Z,IE,34.252.99.183,3.0,34.252.99.183,4
AvgResponseTime,2020-10-29T22:30:10.029Z,IE,34.252.99.183,3.0,34.252.99.183,11
AvgResponseTime,2020-10-29T22:31:10.029Z,IE,34.252.99.183,3.0,34.252.99.183,6
AvgResponseTime,2020-10-29T22:32:10.029Z,IE,34.252.99.183,3.0,34.252.99.183,0
AvgResponseTime,2020-10-29T22:33:10.029Z,IE,34.252.99.183,3.0,34.252.99.183,0
AvgResponseTime,2020-10-29T22:34:10.029Z,IE,34.252.99.183,3.0,34.252.99.183,0
AvgResponseTime,2020-10-29T22:35:10.029Z,IE,34.252.99.183,3.0,34.252.99.183,0
AvgResponseTime,2020-10-29T22:36:10.029Z,IE,34.252.99.183,3.0,34.252.99.183,0
AvgResponseTime,2020-10-29T22:37:10.029Z,IE,34.252.99.183,3.0,34.252.99.183,5
AvgResponseTime,2020-10-29T22:38:10.029Z,IE,34.252.99.183,3.0,34.252.99.183,0
AvgResponseTime,2020-10-29T22:39:10.029Z,IE,34.252.99.183,3.0,34.252.99.183,0
AvgResponseTime,2020-10-29T22:40:10.029Z,IE,34.252.99.183,3.0,34.252.99.183,0
AvgResponseTime,2020-10-29T22:41:10.029Z,IE,34.252.99.183,3.0,34.252.99.183,0
AvgResponseTime,2020-10-29T22:42:10.029Z,IE,34.252.99.183,3.0,34.252.99.183,4
AvgResponseTime,2020-10-29T22:43:10.029Z,IE,34.252.99.183,3.0,34.252.99.183,0
AvgResponseTime,2020-10-29T22:44:10.029Z,IE,34.252.99.183,3.0,34.252.99.183,5
AvgResponseTime,2020-10-29T22:45:10.029Z,IE,34.252.99.183,3.0,34.252.99.183,0
AvgResponseTime,2020-10-29T22:46:10.029Z,IE,34.252.99.183,3.0,34.252.99.183,0
AvgResponseTime,2020-10-29T22:47:10.029Z,IE,34.252.99.183,3.0,34.252.99.183,3
AvgResponseTime,2020-10-29T22:48:10.029Z,IE,34.252.99.183,3.0,34.252.99.183,0
AvgResponseTime,2020-10-29T22:49:10.029Z,IE,34.252.99.183,3.0,34.252.99.183,0
AvgResponseTime,2020-10-29T22:50:10.029Z,IE,34.252.99.183,3.0,34.252.99.183,0
AvgResponseTime,2020-10-29T22:51:10.029Z,IE,34.252.99.183,3.0,34.252.99.183,0
AvgResponseTime,2020-10-29T22:52:10.029Z,IE,34.252.99.183,3.0,34.252.99.183,0
AvgResponseTime,2020-10-29T22:53:10.029Z,IE,34.252.99.183,3.0,34.252.99.183,0
AvgResponseTime,2020-10-29T22:54:10.029Z,IE,34.252.99.183,3.0,34.252.99.183,0
AvgResponseTime,2020-10-29T22:55:10.029Z,IE,34.252.99.183,3.0,34.252.99.183,0
AvgResponseTime,2020-10-29T22:56:10.03Z,IE,34.252.99.183,3.0,34.252.99.183,0
AvgResponseTime,2020-10-29T22:57:10.029Z,IE,34.252.99.183,3.0,34.252.99.183,0
AvgResponseTime,2020-10-29T22:58:10.029Z,IE,34.252.99.183,3.0,34.252.99.183,0
AvgResponseTime,2020-10-29T22:59:10.029Z,IE,34.252.99.183,3.0,34.252.99.183,0
AvgResponseTime,2020-10-29T23:00:10.029Z,IE,34.252.99.183,3.0,34.252.99.183,0
AvgResponseTime,2020-10-29T23:01:10.029Z,IE,34.252.99.183,3.0,34.252.99.183,5
AvgResponseTime,2020-10-29T23:02:10.029Z,IE,34.252.99.183,3.0,34.252.99.183,287
AvgResponseTime,2020-10-29T23:03:10.029Z,IE,34.252.99.183,3.0,34.252.99.183,0
AvgResponseTime,2020-10-29T23:04:10.029Z,IE,34.252.99.183,3.0,34.252.99.183,0
AvgResponseTime,2020-10-29T23:05:10.029Z,IE,34.252.99.183,3.0,34.252.99.183,0
AvgResponseTime,2020-10-29T23:06:10.029Z,IE,34.252.99.183,3.0,34.252.99.183,6
AvgResponseTime,2020-10-29T23:07:10.029Z,IE,34.252.99.183,3.0,34.252.99.183,0
AvgResponseTime,2020-10-29T23:08:10.029Z,IE,34.252.99.183,3.0,34.252.99.183,0
AvgResponseTime,2020-10-29T23:09:10.029Z,IE,34.252.99.183,3.0,34.252.99.183,5
AvgResponseTime,2020-10-29T23:10:10.029Z,IE,34.252.99.183,3.0,34.252.99.183,0
AvgResponseTime,2020-10-29T23:11:10.029Z,IE,34.252.99.183,3.0,34.252.99.183,12
AvgResponseTime,2020-10-29T23:12:10.029Z,IE,34.252.99.183,3.0,34.252.99.183,0
AvgResponseTime,2020-10-29T23:13:10.029Z,IE,34.252.99.183,3.0,34.252.99.183,0
AvgResponseTime,2020-10-29T23:14:10.029Z,IE,34.252.99.183,3.0,34.252.99.183,59
AvgResponseTime,2020-10-29T23:15:10.029Z,IE,34.252.99.183,3.0,34.252.99.183,0
AvgResponseTime,2020-10-29T23:16:10.029Z,IE,34.252.99.183,3.0,34.252.99.183,5
AvgResponseTime,2020-10-29T23:17:10.029Z,IE,34.252.99.183,3.0,34.252.99.183,0
AvgResponseTime,2020-10-29T23:18:10.029Z,IE,34.252.99.183,3.0,34.252.99.183,0
AvgResponseTime,2020-10-29T23:19:10.029Z,IE,34.252.99.183,3.0,34.252.99.183,0
AvgResponseTime,2020-10-29T23:20:10.029Z,IE,34.252.99.183,3.0,34.252.99.183,5
AvgResponseTime,2020-10-29T23:21:10.029Z,IE,34.252.99.183,3.0,34.252.99.183,0
AvgResponseTime,2020-10-29T23:22:10.029Z,IE,34.252.99.183,3.0,34.252.99.183,0
AvgResponseTime,2020-10-29T23:23:10.029Z,IE,34.252.99.183,3.0,34.252.99.183,0
AvgResponseTime,2020-10-29T23:24:10.029Z,IE,34.252.99.183,3.0,34.252.99.183,0
AvgResponseTime,2020-10-29T23:25:10.029Z,IE,34.252.99.183,3.0,34.252.99.183,0
AvgResponseTime,2020-10-29T23:26:10.029Z,IE,34.252.99.183,3.0,34.252.99.183,0
AvgResponseTime,2020-10-29T23:27:10.029Z,IE,34.252.99.183,3.0,34.252.99.183,5
AvgResponseTime,2020-10-29T23:28:10.029Z,IE,34.252.99.183,3.0,34.252.99.183,6
AvgResponseTime,2020-10-29T23:29:10.029Z,IE,34.252.99.183,3.0,34.252.99.183,0
AvgResponseTime,2020-10-29T23:30:10.029Z,IE,34.252.99.183,3.0,34.252.99.183,0
AvgResponseTime,2020-10-29T23:31:10.029Z,IE,34.252.99.183,3.0,34.252.99.183,4
AvgResponseTime,2020-10-29T23:32:10.029Z,IE,34.252.99.183,3.0,34.252.99.183,0
AvgResponseTime,2020-10-29T23:33:10.029Z,IE,34.252.99.183,3.0,34.252.99.183,0
AvgResponseTime,2020-10-29T23:34:10.029Z,IE,34.252.99.183,3.0,34.252.99.183,0
AvgResponseTime,2020-10-29T23:35:10.029Z,IE,34.252.99.183,3.0,34.252.99.183,0
AvgResponseTime,2020-10-29T23:36:10.029Z,IE,34.252.99.183,3.0,34.252.99.183,0
AvgResponseTime,2020-10-29T23:37:10.029Z,IE,34.252.99.183,3.0,34.252.99.183,0
AvgResponseTime,2020-10-29T23:38:10.029Z,IE,34.252.99.183,3.0,34.252.99.183,4
AvgResponseTime,2020-10-29T23:39:10.029Z,IE,34.252.99.183,3.0,34.252.99.183,0
AvgResponseTime,2020-10-29T23:40:10.029Z,IE,34.252.99.183,3.0,34.252.99.183,0
AvgResponseTime,2020-10-29T23:41:10.029Z,IE,34.252.99.183,3.0,34.252.99.183,0
AvgResponseTime,2020-10-29T23:42:10.029Z,IE,34.252.99.183,3.0,34.252.99.183,0
AvgResponseTime,2020-10-29T23:43:10.029Z,IE,34.252.99.183,3.0,34.252.99.183,0
AvgResponseTime,2020-10-29T23:44:10.029Z,IE,34.252.99.183,3.0,34.252.99.183,0
AvgResponseTime,2020-10-29T23:45:10.029Z,IE,34.252.99.183,3.0,34.252.99.183,4
AvgResponseTime,2020-10-29T23:46:10.029Z,IE,34.252.99.183,3.0,34.252.99.183,0
AvgResponseTime,2020-10-29T23:47:10.029Z,IE,34.252.99.183,3.0,34.252.99.183,0
AvgResponseTime,2020-10-29T23:48:10.029Z,IE,34.252.99.183,3.0,34.252.99.183,0
AvgResponseTime,2020-10-29T23:49:10.029Z,IE,34.252.99.183,3.0,34.252.99.183,0
AvgResponseTime,2020-10-29T23:50:10.029Z,IE,34.252.99.183,3.0,34.252.99.183,6
AvgResponseTime,2020-10-29T23:51:10.029Z,IE,34.252.99.183,3.0,34.252.99.183,0
AvgResponseTime,2020-10-29T23:52:10.029Z,IE,34.252.99.183,3.0,34.252.99.183,4
AvgResponseTime,2020-10-29T23:53:10.029Z,IE,34.252.99.183,3.0,34.252.99.183,10.5
AvgResponseTime,2020-10-29T23:54:10.029Z,IE,34.252.99.183,3.0,34.252.99.183,0
AvgResponseTime,2020-10-29T23:55:10.029Z,IE,34.252.99.183,3.0,34.252.99.183,5
AvgResponseTime,2020-10-29T23:56:10.029Z,IE,34.252.99.183,3.0,34.252.99.183,0
AvgResponseTime,2020-10-29T23:57:10.029Z,IE,34.252.99.183,3.0,34.252.99.183,5
AvgResponseTime,2020-10-29T23:58:10.029Z,IE,34.252.99.183,3.0,34.252.99.183,0
AvgResponseTime,2020-10-29T23:59:10.029Z,IE,34.252.99.183,3.0,34.252.99.183,5
AvgResponseTime,2020-10-30T00:00:10.029Z,IE,34.252.99.183,3.0,34.252.99.183,0
AvgResponseTime,2020-10-30T00:01:10.029Z,IE,34.252.99.183,3.0,34.252.99.183,0
AvgResponseTime,2020-10-30T00:02:10.029Z,IE,34.252.99.183,3.0,34.252.99.183,0
AvgResponseTime,2020-10-30T00:03:10.029Z,IE,34.252.99.183,3.0,34.252.99.183,0
AvgResponseTime,2020-10-30T00:04:10.029Z,IE,34.252.99.183,3.0,34.252.99.183,16
AvgResponseTime,2020-10-30T00:05:10.029Z,IE,34.252.99.183,3.0,34.252.99.183,0
AvgResponseTime,2020-10-30T00:06:10.029Z,IE,34.252.99.183,3.0,34.252.99.183,0
AvgResponseTime,2020-10-30T00:07:10.029Z,IE,34.252.99.183,3.0,34.252.99.183,0
AvgResponseTime,2020-10-30T00:08:10.029Z,IE,34.252.99.183,3.0,34.252.99.183,0
AvgResponseTime,2020-10-30T00:09:10.029Z,IE,34.252.99.183,3.0,34.252.99.183,0
AvgResponseTime,2020-10-30T00:10:10.029Z,IE,34.252.99.183,3.0,34.252.99.183,0
AvgResponseTime,2020-10-30T00:11:10.029Z,IE,34.252.99.183,3.0,34.252.99.183,0
AvgResponseTime,2020-10-30T00:12:10.029Z,IE,34.252.99.183,3.0,34.252.99.183,146
AvgResponseTime,2020-10-30T00:13:10.029Z,IE,34.252.99.183,3.0,34.252.99.183,0
AvgResponseTime,2020-10-30T00:14:10.029Z,IE,34.252.99.183,3.0,34.252.99.183,4
AvgResponseTime,2020-10-30T00:15:10.029Z,IE,34.252.99.183,3.0,34.252.99.183,4
AvgResponseTime,2020-10-30T00:16:10.029Z,IE,34.252.99.183,3.0,34.252.99.183,0
AvgResponseTime,2020-10-30T00:17:10.029Z,IE,34.252.99.183,3.0,34.252.99.183,0
AvgResponseTime,2020-10-30T00:18:10.029Z,IE,34.252.99.183,3.0,34.252.99.183,7
AvgResponseTime,2020-10-30T00:19:10.029Z,IE,34.252.99.183,3.0,34.252.99.183,0
AvgResponseTime,2020-10-30T00:20:10.029Z,IE,34.252.99.183,3.0,34.252.99.183,8
AvgResponseTime,2020-10-30T00:21:10.029Z,IE,34.252.99.183,3.0,34.252.99.183,0
AvgResponseTime,2020-10-30T00:22:10.029Z,IE,34.252.99.183,3.0,34.252.99.183,0
AvgResponseTime,2020-10-30T00:23:10.029Z,IE,34.252.99.183,3.0,34.252.99.183,5.5
AvgResponseTime,2020-10-30T00:24:10.029Z,IE,34.252.99.183,3.0,34.252.99.183,48
AvgResponseTime,2020-10-30T00:25:10.029Z,IE,34.252.99.183,3.0,34.252.99.183,0
AvgResponseTime,2020-10-30T00:26:10.029Z,IE,34.252.99.183,3.0,34.252.99.183,0
AvgResponseTime,2020-10-30T00:27:10.029Z,IE,34.252.99.183,3.0,34.252.99.183,103
AvgResponseTime,2020-10-30T00:28:10.029Z,IE,34.252.99.183,3.0,34.252.99.183,5
AvgResponseTime,2020-10-30T00:29:10.029Z,IE,34.252.99.183,3.0,34.252.99.183,0
AvgResponseTime,2020-10-30T00:30:10.029Z,IE,34.252.99.183,3.0,34.252.99.183,0
AvgResponseTime,2020-10-30T00:31:10.029Z,IE,34.252.99.183,3.0,34.252.99.183,0
AvgResponseTime,2020-10-30T00:32:10.029Z,IE,34.252.99.183,3.0,34.252.99.183,0
AvgResponseTime,2020-10-30T00:33:10.029Z,IE,34.252.99.183,3.0,34.252.99.183,11
AvgResponseTime,2020-10-30T00:34:10.029Z,IE,34.252.99.183,3.0,34.252.99.183,0
AvgResponseTime,2020-10-30T00:35:10.029Z,IE,34.252.99.183,3.0,34.252.99.183,4
AvgResponseTime,2020-10-30T00:36:10.029Z,IE,34.252.99.183,3.0,34.252.99.183,6
AvgResponseTime,2020-10-30T00:37:10.029Z,IE,34.252.99.183,3.0,34.252.99.183,0
AvgResponseTime,2020-10-30T00:38:10.029Z,IE,34.252.99.183,3.0,34.252.99.183,0
AvgResponseTime,2020-10-30T00:39:10.029Z,IE,34.252.99.183,3.0,34.252.99.183,5
AvgResponseTime,2020-10-30T00:40:10.029Z,IE,34.252.99.183,3.0,34.252.99.183,6
AvgResponseTime,2020-10-30T00:41:10.029Z,IE,34.252.99.183,3.0,34.252.99.183,5
AvgResponseTime,2020-10-30T00:42:10.029Z,IE,34.252.99.183,3.0,34.252.99.183,0
AvgResponseTime,2020-10-30T00:43:10.029Z,IE,34.252.99.183,3.0,34.252.99.183,0
AvgResponseTime,2020-10-30T00:44:10.029Z,IE,34.252.99.183,3.0,34.252.99.183,4
AvgResponseTime,2020-10-30T00:45:10.029Z,IE,34.252.99.183,3.0,34.252.99.183,0
AvgResponseTime,2020-10-30T00:46:10.029Z,IE,34.252.99.183,3.0,34.252.99.183,88
AvgResponseTime,2020-10-30T00:47:10.029Z,IE,34.252.99.183,3.0,34.252.99.183,0
AvgResponseTime,2020-10-30T00:48:10.029Z,IE,34.252.99.183,3.0,34.252.99.183,0
AvgResponseTime,2020-10-30T00:49:10.029Z,IE,34.252.99.183,3.0,34.252.99.183,0
AvgResponseTime,2020-10-30T00:50:10.029Z,IE,34.252.99.183,3.0,34.252.99.183,0
AvgResponseTime,2020-10-30T00:51:10.029Z,IE,34.252.99.183,3.0,34.252.99.183,0
AvgResponseTime,2020-10-30T00:52:10.029Z,IE,34.252.99.183,3.0,34.252.99.183,0
AvgResponseTime,2020-10-30T00:53:10.029Z,IE,34.252.99.183,3.0,34.252.99.183,7
AvgResponseTime,2020-10-30T00:54:10.029Z,IE,34.252.99.183,3.0,34.252.99.183,0
AvgResponseTime,2020-10-30T00:55:10.029Z,IE,34.252.99.183,3.0,34.252.99.183,0
AvgResponseTime,2020-10-30T00:56:10.029Z,IE,34.252.99.183,3.0,34.252.99.183,0
AvgResponseTime,2020-10-30T00:57:10.029Z,IE,34.252.99.183,3.0,34.252.99.183,0
AvgResponseTime,2020-10-30T00:58:10.029Z,IE,34.252.99.183,3.0,34.252.99.183,0
AvgResponseTime,2020-10-30T00:59:10.029Z,IE,34.252.99.183,3.0,34.252.99.183,6
AvgResponseTime,2020-10-30T01:00:10.029Z,IE,34.252.99.183,3.0,34.252.99.183,4
AvgResponseTime,2020-10-30T01:01:10.029Z,IE,34.252.99.183,3.0,34.252.99.183,0
AvgResponseTime,2020-10-30T01:02:10.029Z,IE,34.252.99.183,3.0,34.252.99.183,4
AvgResponseTime,2020-10-30T01:03:10.029Z,IE,34.252.99.183,3.0,34.252.99.183,0
AvgResponseTime,2020-10-30T01:04:10.029Z,IE,34.252.99.183,3.0,34.252.99.183,0
AvgResponseTime,2020-10-30T01:05:10.029Z,IE,34.252.99.183,3.0,34.252.99.183,0
AvgResponseTime,2020-10-30T01:06:10.029Z,IE,34.252.99.183,3.0,34.252.99.183,16
AvgResponseTime,2020-10-30T01:07:10.029Z,IE,34.252.99.183,3.0,34.252.99.183,0
AvgResponseTime,2020-10-30T01:08:10.029Z,IE,34.252.99.183,3.0,34.252.99.183,5
AvgResponseTime,2020-10-30T01:09:10.029Z,IE,34.252.99.183,3.0,34.252.99.183,0
AvgResponseTime,2020-10-30T01:10:10.029Z,IE,34.252.99.183,3.0,34.252.99.183,0
AvgResponseTime,2020-10-30T01:11:10.029Z,IE,34.252.99.183,3.0,34.252.99.183,7
AvgResponseTime,2020-10-30T01:12:10.029Z,IE,34.252.99.183,3.0,34.252.99.183,0
AvgResponseTime,2020-10-30T01:13:10.029Z,IE,34.252.99.183,3.0,34.252.99.183,6
AvgResponseTime,2020-10-30T01:14:10.029Z,IE,34.252.99.183,3.0,34.252.99.183,0
AvgResponseTime,2020-10-30T01:15:10.029Z,IE,34.252.99.183,3.0,34.252.99.183,0
AvgResponseTime,2020-10-30T01:16:10.029Z,IE,34.252.99.183,3.0,34.252.99.183,0
AvgResponseTime,2020-10-30T01:17:10.029Z,IE,34.252.99.183,3.0,34.252.99.183,4
AvgResponseTime,2020-10-30T01:18:10.029Z,IE,34.252.99.183,3.0,34.252.99.183,0
AvgResponseTime,2020-10-30T01:19:10.029Z,IE,34.252.99.183,3.0,34.252.99.183,0
AvgResponseTime,2020-10-30T01:20:10.029Z,IE,34.252.99.183,3.0,34.252.99.183,0
AvgResponseTime,2020-10-30T01:21:10.029Z,IE,34.252.99.183,3.0,34.252.99.183,0
AvgResponseTime,2020-10-30T01:22:10.029Z,IE,34.252.99.183,3.0,34.252.99.183,193
AvgResponseTime,2020-10-30T01:23:10.029Z,IE,34.252.99.183,3.0,34.252.99.183,0
AvgResponseTime,2020-10-30T01:24:10.029Z,IE,34.252.99.183,3.0,34.252.99.183,67
AvgResponseTime,2020-10-30T01:25:10.029Z,IE,34.252.99.183,3.0,34.252.99.183,0
AvgResponseTime,2020-10-30T01:26:10.029Z,IE,34.252.99.183,3.0,34.252.99.183,0
AvgResponseTime,2020-10-30T01:27:10.029Z,IE,34.252.99.183,3.0,34.252.99.183,5
AvgResponseTime,2020-10-30T01:28:10.029Z,IE,34.252.99.183,3.0,34.252.99.183,0
AvgResponseTime,2020-10-30T01:29:10.029Z,IE,34.252.99.183,3.0,34.252.99.183,0
AvgResponseTime,2020-10-30T01:30:10.029Z,IE,34.252.99.183,3.0,34.252.99.183,0
AvgResponseTime,2020-10-30T01:31:10.029Z,IE,34.252.99.183,3.0,34.252.99.183,0
AvgResponseTime,2020-10-30T01:32:10.029Z,IE,34.252.99.183,3.0,34.252.99.183,0
AvgResponseTime,2020-10-30T01:33:10.029Z,IE,34.252.99.183,3.0,34.252.99.183,0
AvgResponseTime,2020-10-30T01:34:10.029Z,IE,34.252.99.183,3.0,34.252.99.183,16
AvgResponseTime,2020-10-30T01:35:10.029Z,IE,34.252.99.183,3.0,34.252.99.183,0
AvgResponseTime,2020-10-30T01:36:10.029Z,IE,34.252.99.183,3.0,34.252.99.183,0
AvgResponseTime,2020-10-30T01:37:10.029Z,IE,34.252.99.183,3.0,34.252.99.183,0
AvgResponseTime,2020-10-30T01:38:10.029Z,IE,34.252.99.183,3.0,34.252.99.183,0
AvgResponseTime,2020-10-30T01:39:10.029Z,IE,34.252.99.183,3.0,34.252.99.183,5
AvgResponseTime,2020-10-30T01:40:10.029Z,IE,34.252.99.183,3.0,34.252.99.183,0
AvgResponseTime,2020-10-30T01:41:10.029Z,IE,34.252.99.183,3.0,34.252.99.183,12
AvgResponseTime,2020-10-30T01:42:10.029Z,IE,34.252.99.183,3.0,34.252.99.183,3
AvgResponseTime,2020-10-30T01:43:10.029Z,IE,34.252.99.183,3.0,34.252.99.183,103
AvgResponseTime,2020-10-30T01:44:10.029Z,IE,34.252.99.183,3.0,34.252.99.183,25
AvgResponseTime,2020-10-30T01:45:10.029Z,IE,34.252.99.183,3.0,34.252.99.183,15
AvgResponseTime,2020-10-30T01:46:10.029Z,IE,34.252.99.183,3.0,34.252.99.183,9
AvgResponseTime,2020-10-30T01:47:10.029Z,IE,34.252.99.183,3.0,34.252.99.183,4
AvgResponseTime,2020-10-30T01:48:10.029Z,IE,34.252.99.183,3.0,34.252.99.183,12
AvgResponseTime,2020-10-30T01:49:10.029Z,IE,34.252.99.183,3.0,34.252.99.183,6
AvgResponseTime,2020-10-30T01:50:10.029Z,IE,34.252.99.183,3.0,34.252.99.183,22
AvgResponseTime,2020-10-30T01:51:10.029Z,IE,34.252.99.183,3.0,34.252.99.183,7
AvgResponseTime,2020-10-30T01:52:10.029Z,IE,34.252.99.183,3.0,34.252.99.183,0
AvgResponseTime,2020-10-30T01:53:10.029Z,IE,34.252.99.183,3.0,34.252.99.183,0
AvgResponseTime,2020-10-30T01:54:10.029Z,IE,34.252.99.183,3.0,34.252.99.183,0
AvgResponseTime,2020-10-30T01:55:10.029Z,IE,34.252.99.183,3.0,34.252.99.183,0
AvgResponseTime,2020-10-30T01:56:10.029Z,IE,34.252.99.183,3.0,34.252.99.183,0
AvgResponseTime,2020-10-30T01:57:10.029Z,IE,34.252.99.183,3.0,34.252.99.183,0
AvgResponseTime,2020-10-30T01:58:10.029Z,IE,34.252.99.183,3.0,34.252.99.183,0
AvgResponseTime,2020-10-30T01:59:10.029Z,IE,34.252.99.183,3.0,34.252.99.183,0
AvgResponseTime,2020-10-30T02:00:10.029Z,IE,34.252.99.183,3.0,34.252.99.183,56
AvgResponseTime,2020-10-30T02:01:10.029Z,IE,34.252.99.183,3.0,34.252.99.183,0
AvgResponseTime,2020-10-30T02:02:10.029Z,IE,34.252.99.183,3.0,34.252.99.183,5
AvgResponseTime,2020-10-30T02:03:10.029Z,IE,34.252.99.183,3.0,34.252.99.183,7
AvgResponseTime,2020-10-30T02:04:10.029Z,IE,34.252.99.183,3.0,34.252.99.183,0
AvgResponseTime,2020-10-30T02:05:10.029Z,IE,34.252.99.183,3.0,34.252.99.183,0
AvgResponseTime,2020-10-30T02:06:10.029Z,IE,34.252.99.183,3.0,34.252.99.183,0
AvgResponseTime,2020-10-30T02:07:10.029Z,IE,34.252.99.183,3.0,34.252.99.183,0
AvgResponseTime,2020-10-30T02:08:10.029Z,IE,34.252.99.183,3.0,34.252.99.183,7
AvgResponseTime,2020-10-30T02:09:10.029Z,IE,34.252.99.183,3.0,34.252.99.183,6
AvgResponseTime,2020-10-30T02:10:10.029Z,IE,34.252.99.183,3.0,34.252.99.183,0
AvgResponseTime,2020-10-30T02:11:10.029Z,IE,34.252.99.183,3.0,34.252.99.183,0
AvgResponseTime,2020-10-30T02:12:10.029Z,IE,34.252.99.183,3.0,34.252.99.183,13
AvgResponseTime,2020-10-30T02:13:10.029Z,IE,34.252.99.183,3.0,34.252.99.183,5
AvgResponseTime,2020-10-30T02:14:10.029Z,IE,34.252.99.183,3.0,34.252.99.183,0
AvgResponseTime,2020-10-30T02:15:10.029Z,IE,34.252.99.183,3.0,34.252.99.183,0
AvgResponseTime,2020-10-30T02:16:10.029Z,IE,34.252.99.183,3.0,34.252.99.183,0
AvgResponseTime,2020-10-30T02:17:10.029Z,IE,34.252.99.183,3.0,34.252.99.183,0
AvgResponseTime,2020-10-30T02:18:10.029Z,IE,34.252.99.183,3.0,34.252.99.183,0
AvgResponseTime,2020-10-30T02:19:10.029Z,IE,34.252.99.183,3.0,34.252.99.183,6
AvgResponseTime,2020-10-30T02:20:10.029Z,IE,34.252.99.183,3.0,34.252.99.183,0
AvgResponseTime,2020-10-30T02:21:10.029Z,IE,34.252.99.183,3.0,34.252.99.183,0
AvgResponseTime,2020-10-30T02:22:10.029Z,IE,34.252.99.183,3.0,34.252.99.183,0
AvgResponseTime,2020-10-30T02:23:10.029Z,IE,34.252.99.183,3.0,34.252.99.183,5
AvgResponseTime,2020-10-30T02:24:10.029Z,IE,34.252.99.183,3.0,34.252.99.183,6
AvgResponseTime,2020-10-30T02:25:10.029Z,IE,34.252.99.183,3.0,34.252.99.183,0
AvgResponseTime,2020-10-30T02:26:10.029Z,IE,34.252.99.183,3.0,34.252.99.183,7
AvgResponseTime,2020-10-30T02:27:10.029Z,IE,34.252.99.183,3.0,34.252.99.183,0
AvgResponseTime,2020-10-30T02:28:10.029Z,IE,34.252.99.183,3.0,34.252.99.183,0
AvgResponseTime,2020-10-30T02:29:10.029Z,IE,34.252.99.183,3.0,34.252.99.183,0
AvgResponseTime,2020-10-30T02:30:10.029Z,IE,34.252.99.183,3.0,34.252.99.183,0
AvgResponseTime,2020-10-30T02:31:10.029Z,IE,34.252.99.183,3.0,34.252.99.183,5
AvgResponseTime,2020-10-30T02:32:10.029Z,IE,34.252.99.183,3.0,34.252.99.183,0
AvgResponseTime,2020-10-30T02:33:10.029Z,IE,34.252.99.183,3.0,34.252.99.183,0
AvgResponseTime,2020-10-30T02:34:10.029Z,IE,34.252.99.183,3.0,34.252.99.183,0
AvgResponseTime,2020-10-30T02:35:10.029Z,IE,34.252.99.183,3.0,34.252.99.183,0
AvgResponseTime,2020-10-30T02:36:10.029Z,IE,34.252.99.183,3.0,34.252.99.183,0
AvgResponseTime,2020-10-30T02:37:10.029Z,IE,34.252.99.183,3.0,34.252.99.183,7
AvgResponseTime,2020-10-30T02:38:10.029Z,IE,34.252.99.183,3.0,34.252.99.183,6
AvgResponseTime,2020-10-30T02:39:10.029Z,IE,34.252.99.183,3.0,34.252.99.183,0
AvgResponseTime,2020-10-30T02:40:10.029Z,IE,34.252.99.183,3.0,34.252.99.183,0
AvgResponseTime,2020-10-30T02:41:10.029Z,IE,34.252.99.183,3.0,34.252.99.183,0
AvgResponseTime,2020-10-30T02:42:10.029Z,IE,34.252.99.183,3.0,34.252.99.183,0
AvgResponseTime,2020-10-30T02:43:10.029Z,IE,34.252.99.183,3.0,34.252.99.183,0
AvgResponseTime,2020-10-30T02:44:10.029Z,IE,34.252.99.183,3.0,34.252.99.183,0
AvgResponseTime,2020-10-30T02:45:10.029Z,IE,34.252.99.183,3.0,34.252.99.183,0
AvgResponseTime,2020-10-30T02:46:10.029Z,IE,34.252.99.183,3.0,34.252.99.183,0
AvgResponseTime,2020-10-30T02:47:10.029Z,IE,34.252.99.183,3.0,34.252.99.183,0
AvgResponseTime,2020-10-30T02:48:10.029Z,IE,34.252.99.183,3.0,34.252.99.183,0
AvgResponseTime,2020-10-30T02:49:10.029Z,IE,34.252.99.183,3.0,34.252.99.183,0
AvgResponseTime,2020-10-30T02:50:10.029Z,IE,34.252.99.183,3.0,34.252.99.183,0
AvgResponseTime,2020-10-30T02:51:10.029Z,IE,34.252.99.183,3.0,34.252.99.183,148
AvgResponseTime,2020-10-30T02:52:10.029Z,IE,34.252.99.183,3.0,34.252.99.183,4
AvgResponseTime,2020-10-30T02:53:10.029Z,IE,34.252.99.183,3.0,34.252.99.183,0
AvgResponseTime,2020-10-30T02:54:10.029Z,IE,34.252.99.183,3.0,34.252.99.183,0
AvgResponseTime,2020-10-30T02:55:10.029Z,IE,34.252.99.183,3.0,34.252.99.183,0
AvgResponseTime,2020-10-30T02:56:10.029Z,IE,34.252.99.183,3.0,34.252.99.183,0
AvgResponseTime,2020-10-30T02:57:10.029Z,IE,34.252.99.183,3.0,34.252.99.183,0
AvgResponseTime,2020-10-30T02:58:10.029Z,IE,34.252.99.183,3.0,34.252.99.183,0
AvgResponseTime,2020-10-30T02:59:10.029Z,IE,34.252.99.183,3.0,34.252.99.183,7
AvgResponseTime,2020-10-30T03:00:10.029Z,IE,34.252.99.183,3.0,34.252.99.183,0
AvgResponseTime,2020-10-30T03:01:10.029Z,IE,34.252.99.183,3.0,34.252.99.183,0
AvgResponseTime,2020-10-30T03:02:10.029Z,IE,34.252.99.183,3.0,34.252.99.183,0
AvgResponseTime,2020-10-30T03:03:10.029Z,IE,34.252.99.183,3.0,34.252.99.183,0
AvgResponseTime,2020-10-30T03:04:10.029Z,IE,34.252.99.183,3.0,34.252.99.183,0
AvgResponseTime,2020-10-30T03:05:10.029Z,IE,34.252.99.183,3.0,34.252.99.183,0
AvgResponseTime,2020-10-30T03:06:10.029Z,IE,34.252.99.183,3.0,34.252.99.183,7
AvgResponseTime,2020-10-30T03:07:10.029Z,IE,34.252.99.183,3.0,34.252.99.183,0
AvgResponseTime,2020-10-30T03:08:10.029Z,IE,34.252.99.183,3.0,34.252.99.183,0
AvgResponseTime,2020-10-30T03:09:10.029Z,IE,34.252.99.183,3.0,34.252.99.183,0
AvgResponseTime,2020-10-30T03:10:10.029Z,IE,34.252.99.183,3.0,34.252.99.183,0
AvgResponseTime,2020-10-30T03:11:10.029Z,IE,34.252.99.183,3.0,34.252.99.183,6
AvgResponseTime,2020-10-30T03:12:10.029Z,IE,34.252.99.183,3.0,34.252.99.183,0
AvgResponseTime,2020-10-30T03:13:10.029Z,IE,34.252.99.183,3.0,34.252.99.183,0
AvgResponseTime,2020-10-30T03:14:10.029Z,IE,34.252.99.183,3.0,34.252.99.183,0
AvgResponseTime,2020-10-30T03:15:10.029Z,IE,34.252.99.183,3.0,34.252.99.183,0
AvgResponseTime,2020-10-30T03:16:10.029Z,IE,34.252.99.183,3.0,34.252.99.183,6
AvgResponseTime,2020-10-30T03:17:10.029Z,IE,34.252.99.183,3.0,34.252.99.183,0
AvgResponseTime,2020-10-30T03:18:10.029Z,IE,34.252.99.183,3.0,34.252.99.183,0
AvgResponseTime,2020-10-30T03:19:10.029Z,IE,34.252.99.183,3.0,34.252.99.183,21
AvgResponseTime,2020-10-30T03:20:10.029Z,IE,34.252.99.183,3.0,34.252.99.183,0
AvgResponseTime,2020-10-30T03:21:10.029Z,IE,34.252.99.183,3.0,34.252.99.183,0
AvgResponseTime,2020-10-30T03:22:10.029Z,IE,34.252.99.183,3.0,34.252.99.183,0
AvgResponseTime,2020-10-30T03:23:10.029Z,IE,34.252.99.183,3.0,34.252.99.183,0
AvgResponseTime,2020-10-30T03:24:10.029Z,IE,34.252.99.183,3.0,34.252.99.183,0
AvgResponseTime,2020-10-30T03:25:10.029Z,IE,34.252.99.183,3.0,34.252.99.183,0
AvgResponseTime,2020-10-30T03:26:10.029Z,IE,34.252.99.183,3.0,34.252.99.183,4
AvgResponseTime,2020-10-30T03:27:10.029Z,IE,34.252.99.183,3.0,34.252.99.183,0
AvgResponseTime,2020-10-30T03:28:10.029Z,IE,34.252.99.183,3.0,34.252.99.183,0
AvgResponseTime,2020-10-30T03:29:10.029Z,IE,34.252.99.183,3.0,34.252.99.183,0
AvgResponseTime,2020-10-30T03:30:10.029Z,IE,34.252.99.183,3.0,34.252.99.183,5
AvgResponseTime,2020-10-30T03:31:10.029Z,IE,34.252.99.183,3.0,34.252.99.183,0
AvgResponseTime,2020-10-30T03:32:10.029Z,IE,34.252.99.183,3.0,34.252.99.183,0
AvgResponseTime,2020-10-30T03:33:10.029Z,IE,34.252.99.183,3.0,34.252.99.183,0
AvgResponseTime,2020-10-30T03:34:10.029Z,IE,34.252.99.183,3.0,34.252.99.183,7
AvgResponseTime,2020-10-30T03:35:10.029Z,IE,34.252.99.183,3.0,34.252.99.183,0
AvgResponseTime,2020-10-30T03:36:10.029Z,IE,34.252.99.183,3.0,34.252.99.183,0
AvgResponseTime,2020-10-30T03:37:10.029Z,IE,34.252.99.183,3.0,34.252.99.183,0
AvgResponseTime,2020-10-30T03:38:10.029Z,IE,34.252.99.183,3.0,34.252.99.183,131
AvgResponseTime,2020-10-30T03:39:10.029Z,IE,34.252.99.183,3.0,34.252.99.183,198
AvgResponseTime,2020-10-30T03:40:10.029Z,IE,34.252.99.183,3.0,34.252.99.183,0
AvgResponseTime,2020-10-30T03:41:10.029Z,IE,34.252.99.183,3.0,34.252.99.183,0
AvgResponseTime,2020-10-30T03:42:10.029Z,IE,34.252.99.183,3.0,34.252.99.183,5
AvgResponseTime,2020-10-30T03:43:10.029Z,IE,34.252.99.183,3.0,34.252.99.183,4
AvgResponseTime,2020-10-30T03:44:10.029Z,IE,34.252.99.183,3.0,34.252.99.183,0
AvgResponseTime,2020-10-30T03:45:10.029Z,IE,34.252.99.183,3.0,34.252.99.183,5
AvgResponseTime,2020-10-30T03:46:10.029Z,IE,34.252.99.183,3.0,34.252.99.183,0
AvgResponseTime,2020-10-30T03:47:10.029Z,IE,34.252.99.183,3.0,34.252.99.183,0
AvgResponseTime,2020-10-30T03:48:10.029Z,IE,34.252.99.183,3.0,34.252.99.183,0
AvgResponseTime,2020-10-30T03:49:10.029Z,IE,34.252.99.183,3.0,34.252.99.183,0
AvgResponseTime,2020-10-30T03:50:10.029Z,IE,34.252.99.183,3.0,34.252.99.183,0
AvgResponseTime,2020-10-30T03:51:10.029Z,IE,34.252.99.183,3.0,34.252.99.183,0
AvgResponseTime,2020-10-30T03:52:10.029Z,IE,34.252.99.183,3.0,34.252.99.183,5
AvgResponseTime,2020-10-30T03:53:10.029Z,IE,34.252.99.183,3.0,34.252.99.183,5
AvgResponseTime,2020-10-30T03:54:10.029Z,IE,34.252.99.183,3.0,34.252.99.183,0
AvgResponseTime,2020-10-30T03:55:10.029Z,IE,34.252.99.183,3.0,34.252.99.183,0
AvgResponseTime,2020-10-30T03:56:10.029Z,IE,34.252.99.183,3.0,34.252.99.183,5
AvgResponseTime,2020-10-30T03:57:10.029Z,IE,34.252.99.183,3.0,34.252.99.183,0
AvgResponseTime,2020-10-30T03:58:10.029Z,IE,34.252.99.183,3.0,34.252.99.183,0
AvgResponseTime,2020-10-30T03:59:10.029Z,IE,34.252.99.183,3.0,34.252.99.183,4
AvgResponseTime,2020-10-30T04:00:10.029Z,IE,34.252.99.183,3.0,34.252.99.183,5
AvgResponseTime,2020-10-30T04:01:10.029Z,IE,34.252.99.183,3.0,34.252.99.183,170
AvgResponseTime,2020-10-30T04:02:10.029Z,IE,34.252.99.183,3.0,34.252.99.183,0
AvgResponseTime,2020-10-30T04:03:10.029Z,IE,34.252.99.183,3.0,34.252.99.183,0
AvgResponseTime,2020-10-30T04:04:10.029Z,IE,34.252.99.183,3.0,34.252.99.183,0
AvgResponseTime,2020-10-30T04:05:10.029Z,IE,34.252.99.183,3.0,34.252.99.183,6
AvgResponseTime,2020-10-30T04:06:10.029Z,IE,34.252.99.183,3.0,34.252.99.183,9
AvgResponseTime,2020-10-30T04:07:10.029Z,IE,34.252.99.183,3.0,34.252.99.183,6
AvgResponseTime,2020-10-30T04:08:10.029Z,IE,34.252.99.183,3.0,34.252.99.183,5
AvgResponseTime,2020-10-30T04:09:10.029Z,IE,34.252.99.183,3.0,34.252.99.183,0
AvgResponseTime,2020-10-30T04:10:10.029Z,IE,34.252.99.183,3.0,34.252.99.183,0
AvgResponseTime,2020-10-30T04:11:10.029Z,IE,34.252.99.183,3.0,34.252.99.183,0
AvgResponseTime,2020-10-30T04:12:10.029Z,IE,34.252.99.183,3.0,34.252.99.183,0
AvgResponseTime,2020-10-30T04:13:10.029Z,IE,34.252.99.183,3.0,34.252.99.183,0
AvgResponseTime,2020-10-30T04:14:10.029Z,IE,34.252.99.183,3.0,34.252.99.183,4
AvgResponseTime,2020-10-30T04:15:10.029Z,IE,34.252.99.183,3.0,34.252.99.183,6
AvgResponseTime,2020-10-30T04:16:10.029Z,IE,34.252.99.183,3.0,34.252.99.183,6
AvgResponseTime,2020-10-30T04:17:10.029Z,IE,34.252.99.183,3.0,34.252.99.183,0
AvgResponseTime,2020-10-30T04:18:10.029Z,IE,34.252.99.183,3.0,34.252.99.183,5
AvgResponseTime,2020-10-30T04:19:10.029Z,IE,34.252.99.183,3.0,34.252.99.183,0
AvgResponseTime,2020-10-30T04:20:10.029Z,IE,34.252.99.183,3.0,34.252.99.183,0
AvgResponseTime,2020-10-30T04:21:10.029Z,IE,34.252.99.183,3.0,34.252.99.183,0
AvgResponseTime,2020-10-30T04:22:10.029Z,IE,34.252.99.183,3.0,34.252.99.183,0
AvgResponseTime,2020-10-30T04:23:10.029Z,IE,34.252.99.183,3.0,34.252.99.183,0
AvgResponseTime,2020-10-30T04:24:10.029Z,IE,34.252.99.183,3.0,34.252.99.183,0
AvgResponseTime,2020-10-30T04:25:10.029Z,IE,34.252.99.183,3.0,34.252.99.183,5
AvgResponseTime,2020-10-30T04:26:10.029Z,IE,34.252.99.183,3.0,34.252.99.183,0
AvgResponseTime,2020-10-30T04:27:10.029Z,IE,34.252.99.183,3.0,34.252.99.183,0
AvgResponseTime,2020-10-30T04:28:10.029Z,IE,34.252.99.183,3.0,34.252.99.183,0
AvgResponseTime,2020-10-30T04:29:10.029Z,IE,34.252.99.183,3.0,34.252.99.183,0
AvgResponseTime,2020-10-30T04:30:10.029Z,IE,34.252.99.183,3.0,34.252.99.183,0
AvgResponseTime,2020-10-30T04:31:10.029Z,IE,34.252.99.183,3.0,34.252.99.183,0
AvgResponseTime,2020-10-30T04:32:10.029Z,IE,34.252.99.183,3.0,34.252.99.183,0
AvgResponseTime,2020-10-30T04:33:10.029Z,IE,34.252.99.183,3.0,34.252.99.183,0
AvgResponseTime,2020-10-30T04:34:10.029Z,IE,34.252.99.183,3.0,34.252.99.183,0
AvgResponseTime,2020-10-30T04:35:10.029Z,IE,34.252.99.183,3.0,34.252.99.183,0
AvgResponseTime,2020-10-30T04:36:10.029Z,IE,34.252.99.183,3.0,34.252.99.183,0
AvgResponseTime,2020-10-30T04:37:10.029Z,IE,34.252.99.183,3.0,34.252.99.183,0
AvgResponseTime,2020-10-30T04:38:10.029Z,IE,34.252.99.183,3.0,34.252.99.183,0
AvgResponseTime,2020-10-30T04:39:10.029Z,IE,34.252.99.183,3.0,34.252.99.183,0
AvgResponseTime,2020-10-30T04:40:10.029Z,IE,34.252.99.183,3.0,34.252.99.183,0
AvgResponseTime,2020-10-30T04:41:10.029Z,IE,34.252.99.183,3.0,34.252.99.183,0
AvgResponseTime,2020-10-30T04:42:10.029Z,IE,34.252.99.183,3.0,34.252.99.183,0
AvgResponseTime,2020-10-30T04:43:10.029Z,IE,34.252.99.183,3.0,34.252.99.183,0
AvgResponseTime,2020-10-30T04:44:10.029Z,IE,34.252.99.183,3.0,34.252.99.183,0
AvgResponseTime,2020-10-30T04:45:10.029Z,IE,34.252.99.183,3.0,34.252.99.183,0
AvgResponseTime,2020-10-30T04:46:10.029Z,IE,34.252.99.183,3.0,34.252.99.183,0
AvgResponseTime,2020-10-30T04:47:10.029Z,IE,34.252.99.183,3.0,34.252.99.183,0
AvgResponseTime,2020-10-30T04:48:10.029Z,IE,34.252.99.183,3.0,34.252.99.183,0
AvgResponseTime,2020-10-30T04:49:10.029Z,IE,34.252.99.183,3.0,34.252.99.183,0
AvgResponseTime,2020-10-30T04:50:10.029Z,IE,34.252.99.183,3.0,34.252.99.183,0
AvgResponseTime,2020-10-30T04:51:10.029Z,IE,34.252.99.183,3.0,34.252.99.183,0
AvgResponseTime,2020-10-30T04:52:10.029Z,IE,34.252.99.183,3.0,34.252.99.183,0
AvgResponseTime,2020-10-30T04:53:10.029Z,IE,34.252.99.183,3.0,34.252.99.183,0
AvgResponseTime,2020-10-30T04:54:10.029Z,IE,34.252.99.183,3.0,34.252.99.183,0
AvgResponseTime,2020-10-30T04:55:10.029Z,IE,34.252.99.183,3.0,34.252.99.183,0
AvgResponseTime,2020-10-30T04:56:10.029Z,IE,34.252.99.183,3.0,34.252.99.183,0
AvgResponseTime,2020-10-30T04:57:10.029Z,IE,34.252.99.183,3.0,34.252.99.183,0
AvgResponseTime,2020-10-30T04:58:10.029Z,IE,34.252.99.183,3.0,34.252.99.183,0
AvgResponseTime,2020-10-30T04:59:10.029Z,IE,34.252.99.183,3.0,34.252.99.183,0
AvgResponseTime,2020-10-30T05:00:10.029Z,IE,34.252.99.183,3.0,34.252.99.183,0
AvgResponseTime,2020-10-30T05:01:10.029Z,IE,34.252.99.183,3.0,34.252.99.183,0
AvgResponseTime,2020-10-30T05:02:10.029Z,IE,34.252.99.183,3.0,34.252.99.183,0
AvgResponseTime,2020-10-30T05:03:10.029Z,IE,34.252.99.183,3.0,34.252.99.183,0
AvgResponseTime,2020-10-30T05:04:10.029Z,IE,34.252.99.183,3.0,34.252.99.183,0
AvgResponseTime,2020-10-30T05:05:10.029Z,IE,34.252.99.183,3.0,34.252.99.183,0
AvgResponseTime,2020-10-30T05:06:10.029Z,IE,34.252.99.183,3.0,34.252.99.183,0
AvgResponseTime,2020-10-30T05:07:10.029Z,IE,34.252.99.183,3.0,34.252.99.183,0
AvgResponseTime,2020-10-30T05:08:10.029Z,IE,34.252.99.183,3.0,34.252.99.183,0
AvgResponseTime,2020-10-30T05:09:10.029Z,IE,34.252.99.183,3.0,34.252.99.183,0
AvgResponseTime,2020-10-30T05:10:10.029Z,IE,34.252.99.183,3.0,34.252.99.183,0
AvgResponseTime,2020-10-30T05:11:10.029Z,IE,34.252.99.183,3.0,34.252.99.183,0
AvgResponseTime,2020-10-30T05:12:10.029Z,IE,34.252.99.183,3.0,34.252.99.183,0
AvgResponseTime,2020-10-30T05:13:10.029Z,IE,34.252.99.183,3.0,34.252.99.183,0
AvgResponseTime,2020-10-30T05:14:10.029Z,IE,34.252.99.183,3.0,34.252.99.183,0
AvgResponseTime,2020-10-30T05:15:10.029Z,IE,34.252.99.183,3.0,34.252.99.183,0
AvgResponseTime,2020-10-30T05:16:10.029Z,IE,34.252.99.183,3.0,34.252.99.183,0
AvgResponseTime,2020-10-30T05:17:10.029Z,IE,34.252.99.183,3.0,34.252.99.183,0
AvgResponseTime,2020-10-30T05:18:10.029Z,IE,34.252.99.183,3.0,34.252.99.183,0
AvgResponseTime,2020-10-30T05:19:10.029Z,IE,34.252.99.183,3.0,34.252.99.183,0
AvgResponseTime,2020-10-30T05:20:10.029Z,IE,34.252.99.183,3.0,34.252.99.183,0
AvgResponseTime,2020-10-30T05:21:10.029Z,IE,34.252.99.183,3.0,34.252.99.183,0
AvgResponseTime,2020-10-30T05:22:10.029Z,IE,34.252.99.183,3.0,34.252.99.183,0
AvgResponseTime,2020-10-30T05:23:10.029Z,IE,34.252.99.183,3.0,34.252.99.183,0
AvgResponseTime,2020-10-30T05:24:10.029Z,IE,34.252.99.183,3.0,34.252.99.183,0
AvgResponseTime,2020-10-30T05:25:10.029Z,IE,34.252.99.183,3.0,34.252.99.183,0
AvgResponseTime,2020-10-30T05:26:10.029Z,IE,34.252.99.183,3.0,34.252.99.183,0
AvgResponseTime,2020-10-30T05:27:10.029Z,IE,34.252.99.183,3.0,34.252.99.183,0
AvgResponseTime,2020-10-30T05:28:10.029Z,IE,34.252.99.183,3.0,34.252.99.183,0
AvgResponseTime,2020-10-30T05:29:10.029Z,IE,34.252.99.183,3.0,34.252.99.183,0
AvgResponseTime,2020-10-30T05:30:10.029Z,IE,34.252.99.183,3.0,34.252.99.183,0
AvgResponseTime,2020-10-30T05:31:10.029Z,IE,34.252.99.183,3.0,34.252.99.183,0
AvgResponseTime,2020-10-30T05:32:10.029Z,IE,34.252.99.183,3.0,34.252.99.183,0
AvgResponseTime,2020-10-30T05:33:10.029Z,IE,34.252.99.183,3.0,34.252.99.183,0
AvgResponseTime,2020-10-30T05:34:10.029Z,IE,34.252.99.183,3.0,34.252.99.183,0
AvgResponseTime,2020-10-30T05:35:10.029Z,IE,34.252.99.183,3.0,34.252.99.183,0
AvgResponseTime,2020-10-30T05:36:10.029Z,IE,34.252.99.183,3.0,34.252.99.183,0
AvgResponseTime,2020-10-30T05:37:10.029Z,IE,34.252.99.183,3.0,34.252.99.183,0
AvgResponseTime,2020-10-30T05:38:10.029Z,IE,34.252.99.183,3.0,34.252.99.183,0
AvgResponseTime,2020-10-30T05:39:10.029Z,IE,34.252.99.183,3.0,34.252.99.183,0
AvgResponseTime,2020-10-30T05:40:10.029Z,IE,34.252.99.183,3.0,34.252.99.183,0
AvgResponseTime,2020-10-30T05:41:10.029Z,IE,34.252.99.183,3.0,34.252.99.183,0
AvgResponseTime,2020-10-30T05:42:10.029Z,IE,34.252.99.183,3.0,34.252.99.183,0
AvgResponseTime,2020-10-30T05:43:10.029Z,IE,34.252.99.183,3.0,34.252.99.183,0
AvgResponseTime,2020-10-30T05:44:10.029Z,IE,34.252.99.183,3.0,34.252.99.183,0
AvgResponseTime,2020-10-30T05:45:10.029Z,IE,34.252.99.183,3.0,34.252.99.183,0
AvgResponseTime,2020-10-30T05:46:10.029Z,IE,34.252.99.183,3.0,34.252.99.183,0
AvgResponseTime,2020-10-30T05:47:10.029Z,IE,34.252.99.183,3.0,34.252.99.183,0
AvgResponseTime,2020-10-30T05:48:10.029Z,IE,34.252.99.183,3.0,34.252.99.183,0
AvgResponseTime,2020-10-30T05:49:10.029Z,IE,34.252.99.183,3.0,34.252.99.183,0
AvgResponseTime,2020-10-30T05:50:10.029Z,IE,34.252.99.183,3.0,34.252.99.183,0
AvgResponseTime,2020-10-30T05:51:10.029Z,IE,34.252.99.183,3.0,34.252.99.183,0
AvgResponseTime,2020-10-30T05:52:10.029Z,IE,34.252.99.183,3.0,34.252.99.183,0
AvgResponseTime,2020-10-30T05:53:10.029Z,IE,34.252.99.183,3.0,34.252.99.183,0
AvgResponseTime,2020-10-30T05:54:10.029Z,IE,34.252.99.183,3.0,34.252.99.183,0
AvgResponseTime,2020-10-30T05:55:10.029Z,IE,34.252.99.183,3.0,34.252.99.183,0
AvgResponseTime,2020-10-30T05:56:10.029Z,IE,34.252.99.183,3.0,34.252.99.183,0
AvgResponseTime,2020-10-30T05:57:10.029Z,IE,34.252.99.183,3.0,34.252.99.183,0
AvgResponseTime,2020-10-30T05:58:10.029Z,IE,34.252.99.183,3.0,34.252.99.183,0
AvgResponseTime,2020-10-30T05:59:10.029Z,IE,34.252.99.183,3.0,34.252.99.183,0
AvgResponseTime,2020-10-30T06:00:10.029Z,IE,34.252.99.183,3.0,34.252.99.183,0
AvgResponseTime,2020-10-30T06:01:10.029Z,IE,34.252.99.183,3.0,34.252.99.183,0
AvgResponseTime,2020-10-30T06:02:10.029Z,IE,34.252.99.183,3.0,34.252.99.183,0
AvgResponseTime,2020-10-30T06:03:10.029Z,IE,34.252.99.183,3.0,34.252.99.183,0
AvgResponseTime,2020-10-30T06:04:10.029Z,IE,34.252.99.183,3.0,34.252.99.183,0
AvgResponseTime,2020-10-30T06:05:10.029Z,IE,34.252.99.183,3.0,34.252.99.183,0
AvgResponseTime,2020-10-30T06:06:10.029Z,IE,34.252.99.183,3.0,34.252.99.183,0
AvgResponseTime,2020-10-30T06:07:10.029Z,IE,34.252.99.183,3.0,34.252.99.183,0
AvgResponseTime,2020-10-30T06:08:10.029Z,IE,34.252.99.183,3.0,34.252.99.183,0
AvgResponseTime,2020-10-30T06:09:10.029Z,IE,34.252.99.183,3.0,34.252.99.183,0
AvgResponseTime,2020-10-30T06:10:10.029Z,IE,34.252.99.183,3.0,34.252.99.183,0
AvgResponseTime,2020-10-30T06:11:10.029Z,IE,34.252.99.183,3.0,34.252.99.183,0
AvgResponseTime,2020-10-30T06:12:10.029Z,IE,34.252.99.183,3.0,34.252.99.183,0
AvgResponseTime,2020-10-30T06:13:10.029Z,IE,34.252.99.183,3.0,34.252.99.183,0
AvgResponseTime,2020-10-30T06:14:10.029Z,IE,34.252.99.183,3.0,34.252.99.183,0
AvgResponseTime,2020-10-30T06:15:10.029Z,IE,34.252.99.183,3.0,34.252.99.183,0
AvgResponseTime,2020-10-30T06:16:10.029Z,IE,34.252.99.183,3.0,34.252.99.183,0
AvgResponseTime,2020-10-30T06:17:10.029Z,IE,34.252.99.183,3.0,34.252.99.183,0
AvgResponseTime,2020-10-30T06:18:10.029Z,IE,34.252.99.183,3.0,34.252.99.183,0
AvgResponseTime,2020-10-30T06:19:10.029Z,IE,34.252.99.183,3.0,34.252.99.183,0
AvgResponseTime,2020-10-30T06:20:10.029Z,IE,34.252.99.183,3.0,34.252.99.183,0
AvgResponseTime,2020-10-30T06:21:10.029Z,IE,34.252.99.183,3.0,34.252.99.183,0
AvgResponseTime,2020-10-30T06:22:10.029Z,IE,34.252.99.183,3.0,34.252.99.183,0
AvgResponseTime,2020-10-30T06:23:10.029Z,IE,34.252.99.183,3.0,34.252.99.183,0
AvgResponseTime,2020-10-30T06:24:10.029Z,IE,34.252.99.183,3.0,34.252.99.183,0
AvgResponseTime,2020-10-30T06:25:10.029Z,IE,34.252.99.183,3.0,34.252.99.183,0
AvgResponseTime,2020-10-30T06:26:10.029Z,IE,34.252.99.183,3.0,34.252.99.183,0
AvgResponseTime,2020-10-30T06:27:10.029Z,IE,34.252.99.183,3.0,34.252.99.183,0
AvgResponseTime,2020-10-30T06:28:10.029Z,IE,34.252.99.183,3.0,34.252.99.183,0
AvgResponseTime,2020-10-30T06:29:10.029Z,IE,34.252.99.183,3.0,34.252.99.183,0
AvgResponseTime,2020-10-30T06:30:10.029Z,IE,34.252.99.183,3.0,34.252.99.183,0
AvgResponseTime,2020-10-30T06:31:10.029Z,IE,34.252.99.183,3.0,34.252.99.183,0
AvgResponseTime,2020-10-30T06:32:10.029Z,IE,34.252.99.183,3.0,34.252.99.183,0
AvgResponseTime,2020-10-30T06:33:10.029Z,IE,34.252.99.183,3.0,34.252.99.183,0
AvgResponseTime,2020-10-30T06:34:10.029Z,IE,34.252.99.183,3.0,34.252.99.183,0
AvgResponseTime,2020-10-30T06:35:10.029Z,IE,34.252.99.183,3.0,34.252.99.183,0
AvgResponseTime,2020-10-30T06:36:10.029Z,IE,34.252.99.183,3.0,34.252.99.183,0
AvgResponseTime,2020-10-30T06:37:10.029Z,IE,34.252.99.183,3.0,34.252.99.183,0
AvgResponseTime,2020-10-30T06:38:10.029Z,IE,34.252.99.183,3.0,34.252.99.183,0
AvgResponseTime,2020-10-30T06:39:10.029Z,IE,34.252.99.183,3.0,34.252.99.183,0
AvgResponseTime,2020-10-30T06:40:10.029Z,IE,34.252.99.183,3.0,34.252.99.183,0
AvgResponseTime,2020-10-30T06:41:10.029Z,IE,34.252.99.183,3.0,34.252.99.183,0
AvgResponseTime,2020-10-30T06:42:10.029Z,IE,34.252.99.183,3.0,34.252.99.183,0
