,Unnamed: 0,time,prediction,step
7863,7863,2020-10-21 11:45:42.608,6086.4053,3
7873,7873,2020-10-21 11:46:12.608,6056.528,3
7883,7883,2020-10-21 11:46:42.608,6026.642,3
7893,7893,2020-10-21 11:47:12.608,5996.736999999999,3
7903,7903,2020-10-21 11:47:42.608,5966.8184,3
7913,7913,2020-10-21 11:48:12.608,5936.8887,3
7923,7923,2020-10-21 11:48:42.608,5906.953,3
7933,7933,2020-10-21 11:49:12.608,5877.0127,3
7943,7943,2020-10-21 11:49:42.608,5847.0703,3
7953,7953,2020-10-21 11:50:12.608,5817.126,3
7963,7963,2020-10-21 11:50:42.608,5787.1807,3
7973,7973,2020-10-21 11:51:12.608,5757.235,3
7983,7983,2020-10-21 11:51:42.608,5727.289000000001,3
7993,7993,2020-10-21 11:52:12.608,5697.3423,3
8003,8003,2020-10-21 11:52:42.608,5667.3965,3
8013,8013,2020-10-21 11:53:12.608,5637.371,3
8023,8023,2020-10-21 11:53:42.608,5607.354,3
8033,8033,2020-10-21 11:54:12.608,5577.3574,3
8043,8043,2020-10-21 11:54:42.608,5547.375,3
8053,8053,2020-10-21 11:55:12.608,5517.403,3
8063,8063,2020-10-21 11:55:42.608,5487.438,3
8073,8073,2020-10-21 11:56:12.608,5457.4785,3
8083,8083,2020-10-21 11:56:42.608,5427.5234,3
8093,8093,2020-10-21 11:57:12.608,5397.65,3
8103,8103,2020-10-21 11:57:42.608,5367.769,3
8113,8113,2020-10-21 11:58:12.608,5337.8716,3
8123,8123,2020-10-21 11:58:42.608,5307.9614,3
8133,8133,2020-10-21 11:59:12.608,5278.0435,3
8143,8143,2020-10-21 11:59:42.608,5248.12,3
8153,8153,2020-10-21 12:00:12.608,5218.193,3
8163,8163,2020-10-21 12:00:42.608,5188.2637,3
8173,8173,2020-10-21 12:01:12.608,5158.332,3
8183,8183,2020-10-21 12:01:42.608,5128.3994,3
8193,8193,2020-10-21 12:02:12.608,5098.467000000001,3
8203,8203,2020-10-21 12:02:42.608,5068.534000000001,3
8213,8213,2020-10-21 12:03:12.608,5038.525,3
8223,8223,2020-10-21 12:03:42.608,5008.525,3
8233,8233,2020-10-21 12:04:12.608,4978.5444,3
8243,8243,2020-10-21 12:04:42.608,4948.5796,3
8253,8253,2020-10-21 12:05:12.608,4918.6245,3
8263,8263,2020-10-21 12:05:42.608,4888.6772,3
8273,8273,2020-10-21 12:06:12.608,4858.813,3
8283,8283,2020-10-21 12:06:42.608,4828.945,3
8293,8293,2020-10-21 12:07:12.608,4799.0596,3
8303,8303,2020-10-21 12:07:42.608,4769.165,3
8313,8313,2020-10-21 12:08:12.608,4739.2637,3
8323,8323,2020-10-21 12:08:42.608,4709.359,3
8333,8333,2020-10-21 12:09:12.608,4679.451,3
8343,8343,2020-10-21 12:09:42.608,4649.5415,3
8353,8353,2020-10-21 12:10:12.608,4619.6320000000005,3
8363,8363,2020-10-21 12:10:42.608,4589.7227,3
8373,8373,2020-10-21 12:11:12.608,4559.8135,3
8383,8383,2020-10-21 12:11:42.608,4529.905,3
8393,8393,2020-10-21 12:12:12.608,4500.076,3
8403,8403,2020-10-21 12:12:42.608,4470.2429999999995,3
8413,8413,2020-10-21 12:13:12.608,4440.3916,3
8423,8423,2020-10-21 12:13:42.608,4410.5264,3
8433,8433,2020-10-21 12:14:12.608,4380.6514,3
8443,8443,2020-10-21 12:14:42.608,4350.77,3
8453,8453,2020-10-21 12:15:12.608,4320.885,3
8463,8463,2020-10-21 12:15:42.608,4290.997,3
8473,8473,2020-10-21 12:16:12.608,4261.1084,3
8483,8483,2020-10-21 12:16:42.608,4231.2197,3
8493,8493,2020-10-21 12:17:12.608,4201.332,3
8503,8503,2020-10-21 12:17:42.608,4171.445,3
8513,8513,2020-10-21 12:18:12.608,4141.559,3
8523,8523,2020-10-21 12:18:42.608,4111.674,3
8533,8533,2020-10-21 12:19:12.608,4081.7075,3
8543,8543,2020-10-21 12:19:42.608,4051.748,3
8553,8553,2020-10-21 12:20:12.608,4021.8088,3
8563,8563,2020-10-21 12:20:42.608,3991.8848,3
8573,8573,2020-10-21 12:21:12.608,3961.9712,3
8583,8583,2020-10-21 12:21:42.608,3932.0654,3
8593,8593,2020-10-21 12:22:12.608,3902.1655,3
8603,8603,2020-10-21 12:22:42.608,3872.2693,3
8613,8613,2020-10-21 12:23:12.608,3842.3762,3
8623,8623,2020-10-21 12:23:42.608,3812.486,3
8633,8633,2020-10-21 12:24:12.608,3782.5984,3
8643,8643,2020-10-21 12:24:42.608,3752.7122,3
8653,8653,2020-10-21 12:25:12.608,3722.8267,3
8663,8663,2020-10-21 12:25:42.608,3692.9407,3
8673,8673,2020-10-21 12:26:12.608,3662.9702,3
8683,8683,2020-10-21 12:26:42.608,3633.0103,3
