,Unnamed: 0,time,prediction,real,step
32594,32594,2021-01-21 14:31:03.581,1.0,1.0,4
32604,32604,2021-01-21 14:31:33.581,1.0,1.0,4
32614,32614,2021-01-21 14:32:03.581,1.0,1.0,4
32624,32624,2021-01-21 14:32:33.581,1.0,1.0,4
32634,32634,2021-01-21 14:33:03.581,1.0,1.0,4
32644,32644,2021-01-21 14:33:33.581,1.0,1.0,4
32654,32654,2021-01-21 14:34:03.581,1.0,1.0,4
32664,32664,2021-01-21 14:34:33.581,1.0,1.0,4
32674,32674,2021-01-21 14:35:03.581,1.0,1.0,4
32684,32684,2021-01-21 14:35:33.581,1.0,1.0,4
32694,32694,2021-01-21 14:36:03.581,1.0,1.0,4
32704,32704,2021-01-21 14:36:33.581,1.0,1.0,4
32714,32714,2021-01-21 14:37:03.581,1.0,1.0,4
32724,32724,2021-01-21 14:37:33.581,1.0,1.0,4
32734,32734,2021-01-21 14:38:03.581,1.0,1.0,4
32744,32744,2021-01-21 14:38:33.581,1.0,1.0,4
32754,32754,2021-01-21 14:39:03.581,1.0,1.0,4
32764,32764,2021-01-21 14:39:33.581,1.0,1.0,4
32774,32774,2021-01-21 14:40:03.581,1.0,1.0,4
32784,32784,2021-01-21 14:40:33.581,1.0,1.0,4
32794,32794,2021-01-21 14:41:03.581,1.0,1.0,4
32804,32804,2021-01-21 14:41:33.581,1.0,1.0,4
32814,32814,2021-01-21 14:42:03.581,1.0,1.0,4
32824,32824,2021-01-21 14:42:33.581,1.0,1.0,4
32834,32834,2021-01-21 14:43:03.581,1.0,1.0,4
32844,32844,2021-01-21 14:43:33.581,1.0,1.0,4
32854,32854,2021-01-21 14:44:03.581,1.0,1.0,4
32864,32864,2021-01-21 14:44:33.581,1.0,1.0,4
32874,32874,2021-01-21 14:45:03.581,1.0,1.0,4
32884,32884,2021-01-21 14:45:33.581,1.0,1.0,4
32894,32894,2021-01-21 14:46:03.581,1.0,1.0,4
32904,32904,2021-01-21 14:46:33.581,1.0,1.0,4
32914,32914,2021-01-21 14:47:03.581,1.0,1.0,4
32924,32924,2021-01-21 14:47:33.581,1.0,1.0,4
32934,32934,2021-01-21 14:48:03.581,1.0,1.0,4
32944,32944,2021-01-21 14:48:33.581,1.0,1.0,4
32954,32954,2021-01-21 14:49:03.581,1.0,1.0,4
32964,32964,2021-01-21 14:49:33.581,1.0,1.0,4
32974,32974,2021-01-21 14:50:03.581,1.0,1.0,4
32984,32984,2021-01-21 14:50:33.581,1.0,1.0,4
32994,32994,2021-01-21 14:51:03.581,1.0,1.0,4
33004,33004,2021-01-21 14:51:33.581,1.0,1.0,4
33014,33014,2021-01-21 14:52:03.581,1.0,1.0,4
33024,33024,2021-01-21 14:52:33.581,1.0,1.0,4
33034,33034,2021-01-21 14:53:03.581,1.0,1.0,4
33044,33044,2021-01-21 14:53:33.581,1.0,1.0,4
33054,33054,2021-01-21 14:54:03.581,1.0,1.0,4
33064,33064,2021-01-21 14:54:33.581,1.0,1.0,4
33074,33074,2021-01-21 14:55:03.581,1.0,1.0,4
33084,33084,2021-01-21 14:55:33.581,1.0,1.0,4
33094,33094,2021-01-21 14:56:03.581,1.0,1.0,4
33104,33104,2021-01-21 14:56:33.581,1.0,1.0,4
33114,33114,2021-01-21 14:57:03.581,1.0,1.0,4
33124,33124,2021-01-21 14:57:33.581,1.0,1.0,4
33134,33134,2021-01-21 14:58:03.581,1.0,1.0,4
33144,33144,2021-01-21 14:58:33.581,1.0,1.0,4
33154,33154,2021-01-21 14:59:03.581,1.0,1.0,4
33164,33164,2021-01-21 14:59:33.581,1.0,1.0,4
33174,33174,2021-01-21 15:00:03.581,1.0,1.0,4
33184,33184,2021-01-21 15:00:33.581,1.0,1.0,4
33194,33194,2021-01-21 15:01:03.581,1.0,1.0,4
33204,33204,2021-01-21 15:01:33.581,1.0,1.0,4
33214,33214,2021-01-21 15:02:03.581,1.0,1.0,4
33224,33224,2021-01-21 15:02:33.581,1.0,1.0,4
33234,33234,2021-01-21 15:03:03.581,1.0,1.0,4
33244,33244,2021-01-21 15:03:33.581,1.0,1.0,4
33254,33254,2021-01-21 15:04:03.581,1.0,1.0,4
33264,33264,2021-01-21 15:04:33.581,1.0,1.0,4
33274,33274,2021-01-21 15:05:03.581,1.0,1.0,4
33284,33284,2021-01-21 15:05:33.581,1.0,1.0,4
33294,33294,2021-01-21 15:06:03.581,1.0,1.0,4
33304,33304,2021-01-21 15:06:33.581,1.0,1.0,4
33314,33314,2021-01-21 15:07:03.581,1.0,1.0,4
33324,33324,2021-01-21 15:07:33.581,1.0,1.0,4
33334,33334,2021-01-21 15:08:03.581,1.0,1.0,4
33344,33344,2021-01-21 15:08:33.581,1.0,1.0,4
33354,33354,2021-01-21 15:09:03.581,1.0,1.0,4
33364,33364,2021-01-21 15:09:33.581,1.0,1.0,4
33374,33374,2021-01-21 15:10:03.581,1.0,1.0,4
33384,33384,2021-01-21 15:10:33.581,1.0,1.0,4
33394,33394,2021-01-21 15:11:03.581,1.0,1.0,4
33404,33404,2021-01-21 15:11:33.581,1.0,1.0,4
33414,33414,2021-01-21 15:12:03.581,1.0,1.0,4
33424,33424,2021-01-21 15:12:33.581,1.0,1.0,4
33434,33434,2021-01-21 15:13:03.581,1.0,1.0,4
33444,33444,2021-01-21 15:13:33.581,1.0,1.0,4
33454,33454,2021-01-21 15:14:03.581,1.0,1.0,4
33464,33464,2021-01-21 15:14:33.581,1.0,1.0,4
33474,33474,2021-01-21 15:15:03.581,1.0,1.0,4
33484,33484,2021-01-21 15:15:33.581,1.0,1.0,4
33494,33494,2021-01-21 15:16:03.581,1.0,1.0,4
33504,33504,2021-01-21 15:16:33.581,1.0,1.0,4
33514,33514,2021-01-21 15:17:03.581,1.0,1.0,4
33524,33524,2021-01-21 15:17:33.581,1.0,1.0,4
33534,33534,2021-01-21 15:18:03.581,1.0,1.0,4
33544,33544,2021-01-21 15:18:33.581,1.0,1.0,4
33554,33554,2021-01-21 15:19:03.581,1.0,1.0,4
33564,33564,2021-01-21 15:19:33.581,1.0,1.0,4
33574,33574,2021-01-21 15:20:03.581,1.0,1.0,4
33584,33584,2021-01-21 15:20:33.581,1.0,1.0,4
33594,33594,2021-01-21 15:21:03.581,1.0,1.0,4
33604,33604,2021-01-21 15:21:33.581,1.0,1.0,4
33614,33614,2021-01-21 15:22:03.581,1.0,1.0,4
33624,33624,2021-01-21 15:22:33.581,1.0,1.0,4
33634,33634,2021-01-21 15:23:03.581,1.0,1.0,4
33644,33644,2021-01-21 15:23:33.581,1.0,1.0,4
33654,33654,2021-01-21 15:24:03.581,1.0,1.0,4
33664,33664,2021-01-21 15:24:33.581,1.0,1.0,4
33674,33674,2021-01-21 15:25:03.581,1.0,1.0,4
33684,33684,2021-01-21 15:25:33.581,1.0,1.0,4
33694,33694,2021-01-21 15:26:03.581,1.0,1.0,4
33704,33704,2021-01-21 15:26:33.581,1.0,1.0,4
33714,33714,2021-01-21 15:27:03.581,1.0,1.0,4
33724,33724,2021-01-21 15:27:33.581,1.0,1.0,4
33734,33734,2021-01-21 15:28:03.581,1.0,1.0,4
33744,33744,2021-01-21 15:28:33.581,1.0,1.0,4
33754,33754,2021-01-21 15:29:03.581,1.0,1.0,4
33764,33764,2021-01-21 15:29:33.581,1.0,1.0,4
33774,33774,2021-01-21 15:30:03.581,1.0,1.0,4
33784,33784,2021-01-21 15:30:33.581,1.0,1.0,4
33794,33794,2021-01-21 15:31:03.581,1.0,1.0,4
33804,33804,2021-01-21 15:31:33.581,1.0,1.0,4
33814,33814,2021-01-21 15:32:03.581,1.0,1.0,4
33824,33824,2021-01-21 15:32:33.581,1.0,1.0,4
33834,33834,2021-01-21 15:33:03.581,1.0,1.0,4
33844,33844,2021-01-21 15:33:33.581,1.0,1.0,4
33854,33854,2021-01-21 15:34:03.581,1.0,1.0,4
33864,33864,2021-01-21 15:34:33.581,1.0,1.0,4
33874,33874,2021-01-21 15:35:03.581,1.0,1.0,4
33884,33884,2021-01-21 15:35:33.581,1.0,1.0,4
33894,33894,2021-01-21 15:36:03.581,1.0,1.0,4
33904,33904,2021-01-21 15:36:33.581,1.0,1.0,4
33914,33914,2021-01-21 15:37:03.581,1.0,1.0,4
33924,33924,2021-01-21 15:37:33.581,1.0,1.0,4
33934,33934,2021-01-21 15:38:03.581,1.0,1.0,4
33944,33944,2021-01-21 15:38:33.581,1.0,1.0,4
33954,33954,2021-01-21 15:39:03.581,1.0,1.0,4
33964,33964,2021-01-21 15:39:33.581,1.0,1.0,4
33974,33974,2021-01-21 15:40:03.581,1.0,1.0,4
33984,33984,2021-01-21 15:40:33.581,1.0,1.0,4
33994,33994,2021-01-21 15:41:03.581,1.0,1.0,4
34004,34004,2021-01-21 15:41:33.581,1.0,1.0,4
34014,34014,2021-01-21 15:42:03.581,1.0,1.0,4
34024,34024,2021-01-21 15:42:33.581,1.0,1.0,4
34034,34034,2021-01-21 15:43:03.581,1.0,1.0,4
34044,34044,2021-01-21 15:43:33.581,1.0,1.0,4
34054,34054,2021-01-21 15:44:03.581,1.0,1.0,4
34064,34064,2021-01-21 15:44:33.581,1.0,1.0,4
34074,34074,2021-01-21 15:45:03.581,1.0,1.0,4
34084,34084,2021-01-21 15:45:33.581,1.0,1.0,4
34094,34094,2021-01-21 15:46:03.581,1.0,1.0,4
34104,34104,2021-01-21 15:46:33.581,1.0,1.0,4
34114,34114,2021-01-21 15:47:03.581,1.0,1.0,4
34124,34124,2021-01-21 15:47:33.581,1.0,1.0,4
34134,34134,2021-01-21 15:48:03.581,1.0,1.0,4
34144,34144,2021-01-21 15:48:33.581,1.0,1.0,4
34154,34154,2021-01-21 15:49:03.581,1.0,1.0,4
34164,34164,2021-01-21 15:49:33.581,1.0,1.0,4
34174,34174,2021-01-21 15:50:03.581,1.0,1.0,4
34184,34184,2021-01-21 15:50:33.581,1.0,1.0,4
34194,34194,2021-01-21 15:51:03.581,1.0,1.0,4
34204,34204,2021-01-21 15:51:33.581,1.0,1.0,4
34214,34214,2021-01-21 15:52:03.581,1.0,1.0,4
34224,34224,2021-01-21 15:52:33.581,1.0,1.0,4
34234,34234,2021-01-21 15:53:03.581,1.0,1.0,4
34244,34244,2021-01-21 15:53:33.581,1.0,1.0,4
34254,34254,2021-01-21 15:54:03.581,1.0,1.0,4
34264,34264,2021-01-21 15:54:33.581,1.0,1.0,4
34274,34274,2021-01-21 15:55:03.581,1.0,1.0,4
34284,34284,2021-01-21 15:55:33.581,1.0,1.0,4
34294,34294,2021-01-21 15:56:03.581,1.0,1.0,4
34304,34304,2021-01-21 15:56:33.581,1.0,1.0,4
34314,34314,2021-01-21 15:57:03.581,1.0,1.0,4
34324,34324,2021-01-21 15:57:33.581,1.0,1.0,4
34334,34334,2021-01-21 15:58:03.581,1.0,1.0,4
34344,34344,2021-01-21 15:58:33.581,1.0,1.0,4
34354,34354,2021-01-21 15:59:03.581,1.0,1.0,4
34364,34364,2021-01-21 15:59:33.581,1.0,1.0,4
34374,34374,2021-01-21 16:00:03.581,1.0,1.0,4
34384,34384,2021-01-21 16:00:33.581,1.0,1.0,4
34394,34394,2021-01-21 16:01:03.581,1.0,1.0,4
34404,34404,2021-01-21 16:01:33.581,1.0,1.0,4
34414,34414,2021-01-21 16:02:03.581,1.0,1.0,4
34424,34424,2021-01-21 16:02:33.581,1.0,1.0,4
34434,34434,2021-01-21 16:03:03.581,1.0,1.0,4
34444,34444,2021-01-21 16:03:33.581,1.0,1.0,4
34454,34454,2021-01-21 16:04:03.581,1.0,1.0,4
34464,34464,2021-01-21 16:04:33.581,1.0,1.0,4
34474,34474,2021-01-21 16:05:03.581,1.0,1.0,4
34484,34484,2021-01-21 16:05:33.581,1.0,1.0,4
34494,34494,2021-01-21 16:06:03.581,1.0,1.0,4
34504,34504,2021-01-21 16:06:33.581,1.0,1.0,4
34514,34514,2021-01-21 16:07:03.581,1.0,1.0,4
34524,34524,2021-01-21 16:07:33.581,1.0,1.0,4
34534,34534,2021-01-21 16:08:03.581,1.0,1.0,4
34544,34544,2021-01-21 16:08:33.581,1.0,1.0,4
34554,34554,2021-01-21 16:09:03.581,1.0,1.0,4
34564,34564,2021-01-21 16:09:33.581,1.0,1.0,4
34574,34574,2021-01-21 16:10:03.581,1.0,1.0,4
34584,34584,2021-01-21 16:10:33.581,1.0,1.0,4
34594,34594,2021-01-21 16:11:03.581,1.0,1.0,4
34604,34604,2021-01-21 16:11:33.581,1.0,1.0,4
34614,34614,2021-01-21 16:12:03.581,1.0,1.0,4
34624,34624,2021-01-21 16:12:33.581,1.0,1.0,4
34634,34634,2021-01-21 16:13:03.581,1.0,1.0,4
34644,34644,2021-01-21 16:13:33.581,1.0,1.0,4
34654,34654,2021-01-21 16:14:03.581,1.0,1.0,4
34664,34664,2021-01-21 16:14:33.581,1.0,1.0,4
34674,34674,2021-01-21 16:15:03.581,1.0,1.0,4
34684,34684,2021-01-21 16:15:33.581,1.0,1.0,4
34694,34694,2021-01-21 16:16:03.581,1.0,1.0,4
34704,34704,2021-01-21 16:16:33.581,1.0,1.0,4
34714,34714,2021-01-21 16:17:03.581,1.0,1.0,4
34724,34724,2021-01-21 16:17:33.581,1.0,1.0,4
34734,34734,2021-01-21 16:18:03.581,1.0,1.0,4
34744,34744,2021-01-21 16:18:33.581,1.0,1.0,4
34754,34754,2021-01-21 16:19:03.581,1.0,1.0,4
34764,34764,2021-01-21 16:19:33.581,1.0,1.0,4
34774,34774,2021-01-21 16:20:03.581,1.0,1.0,4
34784,34784,2021-01-21 16:20:33.581,1.0,1.0,4
34794,34794,2021-01-21 16:21:03.581,1.0,1.0,4
34804,34804,2021-01-21 16:21:33.581,1.0,1.0,4
34814,34814,2021-01-21 16:22:03.581,1.0,1.0,4
34824,34824,2021-01-21 16:22:33.581,1.0,1.0,4
34834,34834,2021-01-21 16:23:03.581,1.0,1.0,4
34844,34844,2021-01-21 16:23:33.581,1.0,1.0,4
34854,34854,2021-01-21 16:24:03.581,1.0,1.0,4
34864,34864,2021-01-21 16:24:33.581,1.0,1.0,4
34874,34874,2021-01-21 16:25:03.581,1.0,1.0,4
34884,34884,2021-01-21 16:25:33.581,1.0,1.0,4
34894,34894,2021-01-21 16:26:03.581,1.0,1.0,4
34904,34904,2021-01-21 16:26:33.581,1.0,1.0,4
34914,34914,2021-01-21 16:27:03.581,1.0,1.0,4
34924,34924,2021-01-21 16:27:33.581,1.0,1.0,4
34934,34934,2021-01-21 16:28:03.581,1.0,1.0,4
34944,34944,2021-01-21 16:28:33.581,1.0,1.0,4
34954,34954,2021-01-21 16:29:03.581,1.0,1.0,4
34964,34964,2021-01-21 16:29:33.581,1.0,1.0,4
34974,34974,2021-01-21 16:30:03.581,1.0,1.0,4
34984,34984,2021-01-21 16:30:33.581,1.0,1.0,4
34994,34994,2021-01-21 16:31:03.581,1.0,1.0,4
35004,35004,2021-01-21 16:31:33.581,1.0,1.0,4
35014,35014,2021-01-21 16:32:03.581,1.0,1.0,4
35024,35024,2021-01-21 16:32:33.581,1.0,1.0,4
35034,35034,2021-01-21 16:33:03.581,1.0,1.0,4
35044,35044,2021-01-21 16:33:33.581,1.0,1.0,4
35054,35054,2021-01-21 16:34:03.581,1.0,1.0,4
35064,35064,2021-01-21 16:34:33.581,1.0,1.0,4
35074,35074,2021-01-21 16:35:03.581,1.0,1.0,4
35084,35084,2021-01-21 16:35:33.581,1.0,1.0,4
35094,35094,2021-01-21 16:36:03.581,1.0,1.0,4
35104,35104,2021-01-21 16:36:33.581,1.0,1.0,4
35114,35114,2021-01-21 16:37:03.581,1.0,1.0,4
35124,35124,2021-01-21 16:37:33.581,1.0,1.0,4
35134,35134,2021-01-21 16:38:03.581,1.0,1.0,4
35144,35144,2021-01-21 16:38:33.581,1.0,1.0,4
35154,35154,2021-01-21 16:39:03.581,1.0,1.0,4
35164,35164,2021-01-21 16:39:33.581,1.0,1.0,4
35174,35174,2021-01-21 16:40:03.581,1.0,1.0,4
35184,35184,2021-01-21 16:40:33.581,1.0,1.0,4
35194,35194,2021-01-21 16:41:03.581,1.0,1.0,4
35204,35204,2021-01-21 16:41:33.581,1.0,1.0,4
35214,35214,2021-01-21 16:42:03.581,1.0,1.0,4
35224,35224,2021-01-21 16:42:33.581,1.0,1.0,4
35234,35234,2021-01-21 16:43:03.581,1.0,1.0,4
35244,35244,2021-01-21 16:43:33.581,1.0,1.0,4
35254,35254,2021-01-21 16:44:03.581,1.0,1.0,4
35264,35264,2021-01-21 16:44:33.581,1.0,1.0,4
35274,35274,2021-01-21 16:45:03.581,1.0,1.0,4
35284,35284,2021-01-21 16:45:33.581,1.0,1.0,4
35294,35294,2021-01-21 16:46:03.581,1.0,1.0,4
35304,35304,2021-01-21 16:46:33.581,1.0,1.0,4
35314,35314,2021-01-21 16:47:03.581,1.0,1.0,4
35324,35324,2021-01-21 16:47:33.581,1.0,1.0,4
35334,35334,2021-01-21 16:48:03.581,1.0,1.0,4
35344,35344,2021-01-21 16:48:33.581,1.0,1.0,4
35354,35354,2021-01-21 16:49:03.581,1.0,1.0,4
35364,35364,2021-01-21 16:49:33.581,1.0,1.0,4
35374,35374,2021-01-21 16:50:03.581,1.0,1.0,4
35384,35384,2021-01-21 16:50:33.581,1.0,1.0,4
35394,35394,2021-01-21 16:51:03.581,1.0,1.0,4
35404,35404,2021-01-21 16:51:33.581,1.0,1.0,4
35414,35414,2021-01-21 16:52:03.581,1.0,1.0,4
35424,35424,2021-01-21 16:52:33.581,1.0,1.0,4
35434,35434,2021-01-21 16:53:03.581,1.0,1.0,4
35444,35444,2021-01-21 16:53:33.581,1.0,1.0,4
35454,35454,2021-01-21 16:54:03.581,1.0,1.0,4
35464,35464,2021-01-21 16:54:33.581,1.0,1.0,4
35474,35474,2021-01-21 16:55:03.581,1.0,1.0,4
35484,35484,2021-01-21 16:55:33.581,1.0,1.0,4
35494,35494,2021-01-21 16:56:03.581,1.0,1.0,4
35504,35504,2021-01-21 16:56:33.581,1.0,1.0,4
35514,35514,2021-01-21 16:57:03.581,1.0,1.0,4
35524,35524,2021-01-21 16:57:33.581,1.0,1.0,4
35534,35534,2021-01-21 16:58:03.581,1.0,1.0,4
35544,35544,2021-01-21 16:58:33.581,1.0,1.0,4
35554,35554,2021-01-21 16:59:03.581,1.0,1.0,4
35564,35564,2021-01-21 16:59:33.581,1.0,1.0,4
35574,35574,2021-01-21 17:00:03.581,1.0,1.0,4
35584,35584,2021-01-21 17:00:33.581,1.0,1.0,4
35594,35594,2021-01-21 17:01:03.581,1.0,1.0,4
35604,35604,2021-01-21 17:01:33.581,1.0,1.0,4
35614,35614,2021-01-21 17:02:03.581,1.0,1.0,4
35624,35624,2021-01-21 17:02:33.581,1.0,1.0,4
35634,35634,2021-01-21 17:03:03.581,1.0,1.0,4
35644,35644,2021-01-21 17:03:33.581,1.0,1.0,4
35654,35654,2021-01-21 17:04:03.581,1.0,1.0,4
35664,35664,2021-01-21 17:04:33.581,1.0,1.0,4
35674,35674,2021-01-21 17:05:03.581,1.0,1.0,4
35684,35684,2021-01-21 17:05:33.581,1.0,1.0,4
35694,35694,2021-01-21 17:06:03.581,1.0,1.0,4
35704,35704,2021-01-21 17:06:33.581,1.0,1.0,4
35714,35714,2021-01-21 17:07:03.581,1.0,1.0,4
35724,35724,2021-01-21 17:07:33.581,1.0,1.0,4
35734,35734,2021-01-21 17:08:03.581,1.0,1.0,4
35744,35744,2021-01-21 17:08:33.581,1.0,1.0,4
35754,35754,2021-01-21 17:09:03.581,1.0,1.0,4
35764,35764,2021-01-21 17:09:33.581,1.0,1.0,4
35774,35774,2021-01-21 17:10:03.581,1.0,1.0,4
35784,35784,2021-01-21 17:10:33.581,1.0,1.0,4
35794,35794,2021-01-21 17:11:03.581,1.0,1.0,4
35804,35804,2021-01-21 17:11:33.581,1.0,1.0,4
35814,35814,2021-01-21 17:12:03.581,1.0,1.0,4
35824,35824,2021-01-21 17:12:33.581,1.0,1.0,4
35834,35834,2021-01-21 17:13:03.581,1.0,1.0,4
35844,35844,2021-01-21 17:13:33.581,1.0,1.0,4
35854,35854,2021-01-21 17:14:03.581,1.0,1.0,4
35864,35864,2021-01-21 17:14:33.581,1.0,1.0,4
35874,35874,2021-01-21 17:15:03.581,1.0,1.0,4
35884,35884,2021-01-21 17:15:33.581,1.0,1.0,4
35894,35894,2021-01-21 17:16:03.581,1.0,1.0,4
35904,35904,2021-01-21 17:16:33.581,1.0,1.0,4
35914,35914,2021-01-21 17:17:03.581,1.0,1.0,4
35924,35924,2021-01-21 17:17:33.581,1.0,1.0,4
35934,35934,2021-01-21 17:18:03.581,1.0,1.0,4
35944,35944,2021-01-21 17:18:33.581,1.0,1.0,4
35954,35954,2021-01-21 17:19:03.581,1.0,1.0,4
35964,35964,2021-01-21 17:19:33.581,1.0,1.0,4
35974,35974,2021-01-21 17:20:03.581,1.0,1.0,4
35984,35984,2021-01-21 17:20:33.581,1.0,1.0,4
35994,35994,2021-01-21 17:21:03.581,1.0,1.0,4
36004,36004,2021-01-21 17:21:33.581,1.0,1.0,4
36014,36014,2021-01-21 17:22:03.581,1.0,1.0,4
36024,36024,2021-01-21 17:22:33.581,1.0,1.0,4
36034,36034,2021-01-21 17:23:03.581,1.0,1.0,4
36044,36044,2021-01-21 17:23:33.581,1.0,1.0,4
36054,36054,2021-01-21 17:24:03.581,1.0,1.0,4
36064,36064,2021-01-21 17:24:33.581,1.0,1.0,4
36074,36074,2021-01-21 17:25:03.581,1.0,1.0,4
36084,36084,2021-01-21 17:25:33.581,1.0,1.0,4
36094,36094,2021-01-21 17:26:03.581,1.0,1.0,4
36104,36104,2021-01-21 17:26:33.581,1.0,1.0,4
36114,36114,2021-01-21 17:27:03.581,1.0,1.0,4
36124,36124,2021-01-21 17:27:33.581,1.0,1.0,4
36134,36134,2021-01-21 17:28:03.581,1.0,1.0,4
36144,36144,2021-01-21 17:28:33.581,1.0,1.0,4
36154,36154,2021-01-21 17:29:03.581,1.0,1.0,4
36164,36164,2021-01-21 17:29:33.581,1.0,1.0,4
36174,36174,2021-01-21 17:30:03.581,1.0,1.0,4
36184,36184,2021-01-21 17:30:33.581,1.0,1.0,4
36194,36194,2021-01-21 17:31:03.581,1.0,1.0,4
36204,36204,2021-01-21 17:31:33.581,1.0,1.0,4
36214,36214,2021-01-21 17:32:03.581,1.0,1.0,4
36224,36224,2021-01-21 17:32:33.581,1.0,1.0,4
36234,36234,2021-01-21 17:33:03.581,1.0,1.0,4
36244,36244,2021-01-21 17:33:33.581,1.0,1.0,4
36254,36254,2021-01-21 17:34:03.581,1.0,1.0,4
36264,36264,2021-01-21 17:34:33.581,1.0,1.0,4
36274,36274,2021-01-21 17:35:03.581,1.0,1.0,4
36284,36284,2021-01-21 17:35:33.581,1.0,1.0,4
36294,36294,2021-01-21 17:36:03.581,1.0,1.0,4
36304,36304,2021-01-21 17:36:33.581,1.0,1.0,4
36314,36314,2021-01-21 17:37:03.581,1.0,1.0,4
36324,36324,2021-01-21 17:37:33.581,1.0,1.0,4
36334,36334,2021-01-21 17:38:03.581,1.0,1.0,4
36344,36344,2021-01-21 17:38:33.581,1.0,1.0,4
36354,36354,2021-01-21 17:39:03.581,1.0,1.0,4
36364,36364,2021-01-21 17:39:33.581,1.0,1.0,4
36374,36374,2021-01-21 17:40:03.581,1.0,1.0,4
36384,36384,2021-01-21 17:40:33.581,1.0,1.0,4
36394,36394,2021-01-21 17:41:03.581,1.0,1.0,4
36404,36404,2021-01-21 17:41:33.581,1.0,1.0,4
36414,36414,2021-01-21 17:42:03.581,1.0,1.0,4
36424,36424,2021-01-21 17:42:33.581,1.0,1.0,4
36434,36434,2021-01-21 17:43:03.581,1.0,1.0,4
36444,36444,2021-01-21 17:43:33.581,1.0,1.0,4
36454,36454,2021-01-21 17:44:03.581,1.0,1.0,4
36464,36464,2021-01-21 17:44:33.581,1.0,1.0,4
36474,36474,2021-01-21 17:45:03.581,1.0,1.0,4
36484,36484,2021-01-21 17:45:33.581,1.0,1.0,4
36494,36494,2021-01-21 17:46:03.581,1.0,1.0,4
36504,36504,2021-01-21 17:46:33.581,1.0,1.0,4
36514,36514,2021-01-21 17:47:03.581,1.0,1.0,4
36524,36524,2021-01-21 17:47:33.581,1.0,1.0,4
36534,36534,2021-01-21 17:48:03.581,1.0,1.0,4
36544,36544,2021-01-21 17:48:33.581,1.0,1.0,4
36554,36554,2021-01-21 17:49:03.581,1.0,1.0,4
36564,36564,2021-01-21 17:49:33.581,1.0,1.0,4
36574,36574,2021-01-21 17:50:03.581,1.0,1.0,4
36584,36584,2021-01-21 17:50:33.581,1.0,1.0,4
36594,36594,2021-01-21 17:51:03.581,1.0,1.0,4
36604,36604,2021-01-21 17:51:33.581,1.0,1.0,4
36614,36614,2021-01-21 17:52:03.581,1.0,1.0,4
36624,36624,2021-01-21 17:52:33.581,1.0,1.0,4
36634,36634,2021-01-21 17:53:03.581,1.0,1.0,4
36644,36644,2021-01-21 17:53:33.581,1.0,1.0,4
36654,36654,2021-01-21 17:54:03.581,1.0,1.0,4
36664,36664,2021-01-21 17:54:33.581,1.0,1.0,4
36674,36674,2021-01-21 17:55:03.581,1.0,1.0,4
36684,36684,2021-01-21 17:55:33.581,1.0,1.0,4
36694,36694,2021-01-21 17:56:03.581,1.0,1.0,4
36704,36704,2021-01-21 17:56:33.581,1.0,1.0,4
36714,36714,2021-01-21 17:57:03.581,1.0,1.0,4
36724,36724,2021-01-21 17:57:33.581,1.0,1.0,4
36734,36734,2021-01-21 17:58:03.581,1.0,1.0,4
36744,36744,2021-01-21 17:58:33.581,1.0,1.0,4
36754,36754,2021-01-21 17:59:03.581,1.0,1.0,4
36764,36764,2021-01-21 17:59:33.581,1.0,1.0,4
36774,36774,2021-01-21 18:00:03.581,1.0,1.0,4
36784,36784,2021-01-21 18:00:33.581,1.0,1.0,4
36794,36794,2021-01-21 18:01:03.581,1.0,1.0,4
36804,36804,2021-01-21 18:01:33.581,1.0,1.0,4
36814,36814,2021-01-21 18:02:03.581,1.0,1.0,4
36824,36824,2021-01-21 18:02:33.581,1.0,1.0,4
36834,36834,2021-01-21 18:03:03.581,1.0,1.0,4
36844,36844,2021-01-21 18:03:33.581,1.0,1.0,4
36854,36854,2021-01-21 18:04:03.581,1.0,1.0,4
36864,36864,2021-01-21 18:04:33.581,1.0,1.0,4
36874,36874,2021-01-21 18:05:03.581,1.0,1.0,4
36884,36884,2021-01-21 18:05:33.581,1.0,1.0,4
36894,36894,2021-01-21 18:06:03.581,1.0,1.0,4
36904,36904,2021-01-21 18:06:33.581,1.0,1.0,4
36914,36914,2021-01-21 18:07:03.581,1.0,1.0,4
36924,36924,2021-01-21 18:07:33.581,1.0,1.0,4
36934,36934,2021-01-21 18:08:03.581,1.0,1.0,4
36944,36944,2021-01-21 18:08:33.581,1.0,1.0,4
36954,36954,2021-01-21 18:09:03.581,1.0,1.0,4
36964,36964,2021-01-21 18:09:33.581,1.0,1.0,4
36974,36974,2021-01-21 18:10:03.581,1.0,1.0,4
36984,36984,2021-01-21 18:10:33.581,1.0,1.0,4
36994,36994,2021-01-21 18:11:03.581,1.0,1.0,4
37004,37004,2021-01-21 18:11:33.581,1.0,1.0,4
37014,37014,2021-01-21 18:12:03.581,1.0,1.0,4
37024,37024,2021-01-21 18:12:33.581,1.0,1.0,4
37034,37034,2021-01-21 18:13:03.581,1.0,1.0,4
37044,37044,2021-01-21 18:13:33.581,1.0,1.0,4
37054,37054,2021-01-21 18:14:03.581,1.0,1.0,4
37064,37064,2021-01-21 18:14:33.581,1.0,1.0,4
37074,37074,2021-01-21 18:15:03.581,1.0,1.0,4
37084,37084,2021-01-21 18:15:33.581,1.0,1.0,4
37094,37094,2021-01-21 18:16:03.581,1.0,1.0,4
37104,37104,2021-01-21 18:16:33.581,1.0,1.0,4
37114,37114,2021-01-21 18:17:03.581,1.0,1.0,4
37124,37124,2021-01-21 18:17:33.581,1.0,1.0,4
37134,37134,2021-01-21 18:18:03.581,1.0,1.0,4
37144,37144,2021-01-21 18:18:33.581,1.0,1.0,4
37154,37154,2021-01-21 18:19:03.581,1.0,1.0,4
37164,37164,2021-01-21 18:19:33.581,1.0,1.0,4
37174,37174,2021-01-21 18:20:03.581,1.0,1.0,4
37184,37184,2021-01-21 18:20:33.581,1.0,1.0,4
37194,37194,2021-01-21 18:21:03.581,1.0,1.0,4
37204,37204,2021-01-21 18:21:33.581,1.0,1.0,4
37214,37214,2021-01-21 18:22:03.581,1.0,1.0,4
37224,37224,2021-01-21 18:22:33.581,1.0,1.0,4
37234,37234,2021-01-21 18:23:03.581,1.0,1.0,4
37244,37244,2021-01-21 18:23:33.581,1.0,1.0,4
37254,37254,2021-01-21 18:24:03.581,1.0,1.0,4
37264,37264,2021-01-21 18:24:33.581,1.0,1.0,4
37274,37274,2021-01-21 18:25:03.581,1.0,1.0,4
37284,37284,2021-01-21 18:25:33.581,1.0,1.0,4
37294,37294,2021-01-21 18:26:03.581,1.0,1.0,4
37304,37304,2021-01-21 18:26:33.581,1.0,1.0,4
37314,37314,2021-01-21 18:27:03.581,1.0,1.0,4
37324,37324,2021-01-21 18:27:33.581,1.0,1.0,4
37334,37334,2021-01-21 18:28:03.581,1.0,1.0,4
37344,37344,2021-01-21 18:28:33.581,1.0,1.0,4
37354,37354,2021-01-21 18:29:03.581,1.0,1.0,4
37364,37364,2021-01-21 18:29:33.581,1.0,1.0,4
37374,37374,2021-01-21 18:30:03.581,1.0,1.0,4
37384,37384,2021-01-21 18:30:33.581,1.0,1.0,4
37394,37394,2021-01-21 18:31:03.581,1.0,1.0,4
37404,37404,2021-01-21 18:31:33.581,1.0,1.0,4
37414,37414,2021-01-21 18:32:03.581,1.0,1.0,4
37424,37424,2021-01-21 18:32:33.581,1.0,1.0,4
37434,37434,2021-01-21 18:33:03.581,1.0,1.0,4
37444,37444,2021-01-21 18:33:33.581,1.0,1.0,4
37454,37454,2021-01-21 18:34:03.581,1.0,1.0,4
37464,37464,2021-01-21 18:34:33.581,1.0,1.0,4
37474,37474,2021-01-21 18:35:03.581,1.0,1.0,4
37484,37484,2021-01-21 18:35:33.581,1.0,1.0,4
37494,37494,2021-01-21 18:36:03.581,1.0,1.0,4
37504,37504,2021-01-21 18:36:33.581,1.0,1.0,4
37514,37514,2021-01-21 18:37:03.581,1.0,1.0,4
37524,37524,2021-01-21 18:37:33.581,1.0,1.0,4
37534,37534,2021-01-21 18:38:03.581,1.0,1.0,4
37544,37544,2021-01-21 18:38:33.581,1.0,1.0,4
37554,37554,2021-01-21 18:39:03.581,1.0,1.0,4
37564,37564,2021-01-21 18:39:33.581,1.0,1.0,4
37574,37574,2021-01-21 18:40:03.581,1.0,1.0,4
37584,37584,2021-01-21 18:40:33.581,1.0,1.0,4
37594,37594,2021-01-21 18:41:03.581,1.0,1.0,4
37604,37604,2021-01-21 18:41:33.581,1.0,1.0,4
37614,37614,2021-01-21 18:42:03.581,1.0,1.0,4
37624,37624,2021-01-21 18:42:33.581,1.0,1.0,4
37634,37634,2021-01-21 18:43:03.581,1.0,1.0,4
37644,37644,2021-01-21 18:43:33.581,1.0,1.0,4
37654,37654,2021-01-21 18:44:03.581,1.0,1.0,4
37664,37664,2021-01-21 18:44:33.581,1.0,1.0,4
37674,37674,2021-01-21 18:45:03.581,1.0,1.0,4
37684,37684,2021-01-21 18:45:33.581,1.0,1.0,4
37694,37694,2021-01-21 18:46:03.581,1.0,1.0,4
37704,37704,2021-01-21 18:46:33.581,1.0,1.0,4
37714,37714,2021-01-21 18:47:03.581,1.0,1.0,4
37724,37724,2021-01-21 18:47:33.581,1.0,1.0,4
37734,37734,2021-01-21 18:48:03.581,1.0,1.0,4
37744,37744,2021-01-21 18:48:33.581,1.0,1.0,4
37754,37754,2021-01-21 18:49:03.581,1.0,1.0,4
37764,37764,2021-01-21 18:49:33.581,1.0,1.0,4
37774,37774,2021-01-21 18:50:03.581,1.0,1.0,4
37784,37784,2021-01-21 18:50:33.581,1.0,1.0,4
37794,37794,2021-01-21 18:51:03.581,1.0,1.0,4
37804,37804,2021-01-21 18:51:33.581,1.0,1.0,4
37814,37814,2021-01-21 18:52:03.581,1.0,1.0,4
37824,37824,2021-01-21 18:52:33.581,1.0,1.0,4
37834,37834,2021-01-21 18:53:03.581,1.0,1.0,4
37844,37844,2021-01-21 18:53:33.581,1.0,1.0,4
37854,37854,2021-01-21 18:54:03.581,1.0,1.0,4
37864,37864,2021-01-21 18:54:33.581,1.0,1.0,4
37874,37874,2021-01-21 18:55:03.581,1.0,1.0,4
37884,37884,2021-01-21 18:55:33.581,1.0,1.0,4
37894,37894,2021-01-21 18:56:03.581,1.0,1.0,4
37904,37904,2021-01-21 18:56:33.581,1.0,1.0,4
37914,37914,2021-01-21 18:57:03.581,1.0,1.0,4
37924,37924,2021-01-21 18:57:33.581,1.0,1.0,4
37934,37934,2021-01-21 18:58:03.581,1.0,1.0,4
37944,37944,2021-01-21 18:58:33.581,1.0,1.0,4
37954,37954,2021-01-21 18:59:03.581,1.0,1.0,4
37964,37964,2021-01-21 18:59:33.581,1.0,1.0,4
37974,37974,2021-01-21 19:00:03.581,1.0,1.0,4
37984,37984,2021-01-21 19:00:33.581,1.0,1.0,4
37994,37994,2021-01-21 19:01:03.581,1.0,1.0,4
38004,38004,2021-01-21 19:01:33.581,1.0,1.0,4
38014,38014,2021-01-21 19:02:03.581,1.0,1.0,4
38024,38024,2021-01-21 19:02:33.581,1.0,1.0,4
38034,38034,2021-01-21 19:03:03.581,1.0,1.0,4
38044,38044,2021-01-21 19:03:33.581,1.0,1.0,4
38054,38054,2021-01-21 19:04:03.581,1.0,1.0,4
38064,38064,2021-01-21 19:04:33.581,1.0,1.0,4
38074,38074,2021-01-21 19:05:03.581,1.0,1.0,4
38084,38084,2021-01-21 19:05:33.581,1.0,1.0,4
38094,38094,2021-01-21 19:06:03.581,1.0,1.0,4
38104,38104,2021-01-21 19:06:33.581,1.0,1.0,4
38114,38114,2021-01-21 19:07:03.581,1.0,1.0,4
38124,38124,2021-01-21 19:07:33.581,1.0,1.0,4
38134,38134,2021-01-21 19:08:03.581,1.0,1.0,4
38144,38144,2021-01-21 19:08:33.581,1.0,1.0,4
38154,38154,2021-01-21 19:09:03.581,1.0,1.0,4
38164,38164,2021-01-21 19:09:33.581,1.0,1.0,4
38174,38174,2021-01-21 19:10:03.581,1.0,1.0,4
38184,38184,2021-01-21 19:10:33.581,1.0,1.0,4
38194,38194,2021-01-21 19:11:03.581,1.0,1.0,4
38204,38204,2021-01-21 19:11:33.581,1.0,1.0,4
38214,38214,2021-01-21 19:12:03.581,1.0,1.0,4
38224,38224,2021-01-21 19:12:33.581,1.0,1.0,4
38234,38234,2021-01-21 19:13:03.581,1.0,1.0,4
38244,38244,2021-01-21 19:13:33.581,1.0,1.0,4
38254,38254,2021-01-21 19:14:03.581,1.0,1.0,4
38264,38264,2021-01-21 19:14:33.581,1.0,1.0,4
38274,38274,2021-01-21 19:15:03.581,1.0,1.0,4
38284,38284,2021-01-21 19:15:33.581,1.0,1.0,4
38294,38294,2021-01-21 19:16:03.581,1.0,1.0,4
38304,38304,2021-01-21 19:16:33.581,1.0,1.0,4
38314,38314,2021-01-21 19:17:03.581,1.0,1.0,4
38324,38324,2021-01-21 19:17:33.581,1.0,1.0,4
38334,38334,2021-01-21 19:18:03.581,1.0,1.0,4
38344,38344,2021-01-21 19:18:33.581,1.0,1.0,4
38354,38354,2021-01-21 19:19:03.581,1.0,1.0,4
38364,38364,2021-01-21 19:19:33.581,1.0,1.0,4
38374,38374,2021-01-21 19:20:03.581,1.0,1.0,4
38384,38384,2021-01-21 19:20:33.581,1.0,1.0,4
38394,38394,2021-01-21 19:21:03.581,1.0,1.0,4
38404,38404,2021-01-21 19:21:33.581,1.0,1.0,4
38414,38414,2021-01-21 19:22:03.581,1.0,1.0,4
38424,38424,2021-01-21 19:22:33.581,1.0,1.0,4
38434,38434,2021-01-21 19:23:03.581,1.0,1.0,4
38444,38444,2021-01-21 19:23:33.581,1.0,1.0,4
38454,38454,2021-01-21 19:24:03.581,1.0,1.0,4
38464,38464,2021-01-21 19:24:33.581,1.0,1.0,4
38474,38474,2021-01-21 19:25:03.581,1.0,1.0,4
38484,38484,2021-01-21 19:25:33.581,1.0,1.0,4
38494,38494,2021-01-21 19:26:03.581,1.0,1.0,4
38504,38504,2021-01-21 19:26:33.581,1.0,1.0,4
38514,38514,2021-01-21 19:27:03.581,1.0,1.0,4
38524,38524,2021-01-21 19:27:33.581,1.0,1.0,4
38534,38534,2021-01-21 19:28:03.581,1.0,1.0,4
38544,38544,2021-01-21 19:28:33.581,1.0,1.0,4
38554,38554,2021-01-21 19:29:03.581,1.0,1.0,4
38564,38564,2021-01-21 19:29:33.581,1.0,1.0,4
38574,38574,2021-01-21 19:30:03.581,1.0,1.0,4
38584,38584,2021-01-21 19:30:33.581,1.0,1.0,4
38594,38594,2021-01-21 19:31:03.581,1.0,1.0,4
38604,38604,2021-01-21 19:31:33.581,1.0,1.0,4
38614,38614,2021-01-21 19:32:03.581,1.0,1.0,4
38624,38624,2021-01-21 19:32:33.581,1.0,1.0,4
38634,38634,2021-01-21 19:33:03.581,1.0,1.0,4
38644,38644,2021-01-21 19:33:33.581,1.0,1.0,4
38654,38654,2021-01-21 19:34:03.581,1.0,1.0,4
38664,38664,2021-01-21 19:34:33.581,1.0,1.0,4
38674,38674,2021-01-21 19:35:03.581,1.0,1.0,4
38684,38684,2021-01-21 19:35:33.581,1.0,1.0,4
38694,38694,2021-01-21 19:36:03.581,1.0,1.0,4
38704,38704,2021-01-21 19:36:33.581,1.0,1.0,4
38714,38714,2021-01-21 19:37:03.581,1.0,1.0,4
38724,38724,2021-01-21 19:37:33.581,1.0,1.0,4
38734,38734,2021-01-21 19:38:03.581,1.0,1.0,4
38744,38744,2021-01-21 19:38:33.581,1.0,1.0,4
38754,38754,2021-01-21 19:39:03.581,1.0,1.0,4
38764,38764,2021-01-21 19:39:33.581,1.0,1.0,4
38774,38774,2021-01-21 19:40:03.581,1.0,1.0,4
38784,38784,2021-01-21 19:40:33.581,1.0,1.0,4
38794,38794,2021-01-21 19:41:03.581,1.0,1.0,4
38804,38804,2021-01-21 19:41:33.581,1.0,1.0,4
38814,38814,2021-01-21 19:42:03.581,1.0,1.0,4
38824,38824,2021-01-21 19:42:33.581,1.0,1.0,4
38834,38834,2021-01-21 19:43:03.581,1.0,1.0,4
38844,38844,2021-01-21 19:43:33.581,1.0,1.0,4
38854,38854,2021-01-21 19:44:03.581,1.0,1.0,4
38864,38864,2021-01-21 19:44:33.581,1.0,1.0,4
38874,38874,2021-01-21 19:45:03.581,1.0,1.0,4
38884,38884,2021-01-21 19:45:33.581,1.0,1.0,4
38894,38894,2021-01-21 19:46:03.581,1.0,1.0,4
38904,38904,2021-01-21 19:46:33.581,1.0,1.0,4
38914,38914,2021-01-21 19:47:03.581,1.0,1.0,4
38924,38924,2021-01-21 19:47:33.581,1.0,1.0,4
38934,38934,2021-01-21 19:48:03.581,1.0,1.0,4
38944,38944,2021-01-21 19:48:33.581,1.0,1.0,4
38954,38954,2021-01-21 19:49:03.581,1.0,1.0,4
38964,38964,2021-01-21 19:49:33.581,1.0,1.0,4
38974,38974,2021-01-21 19:50:03.581,1.0,1.0,4
38984,38984,2021-01-21 19:50:33.581,1.0,1.0,4
38994,38994,2021-01-21 19:51:03.581,1.0,1.0,4
39004,39004,2021-01-21 19:51:33.581,1.0,1.0,4
39014,39014,2021-01-21 19:52:03.581,1.0,1.0,4
39024,39024,2021-01-21 19:52:33.581,1.0,1.0,4
39034,39034,2021-01-21 19:53:03.581,1.0,1.0,4
39044,39044,2021-01-21 19:53:33.581,1.0,1.0,4
39054,39054,2021-01-21 19:54:03.581,1.0,1.0,4
39064,39064,2021-01-21 19:54:33.581,1.0,1.0,4
39074,39074,2021-01-21 19:55:03.581,1.0,1.0,4
39084,39084,2021-01-21 19:55:33.581,1.0,1.0,4
39094,39094,2021-01-21 19:56:03.581,1.0,1.0,4
39104,39104,2021-01-21 19:56:33.581,1.0,1.0,4
39114,39114,2021-01-21 19:57:03.581,1.0,1.0,4
39124,39124,2021-01-21 19:57:33.581,1.0,1.0,4
39134,39134,2021-01-21 19:58:03.581,1.0,1.0,4
39144,39144,2021-01-21 19:58:33.581,1.0,1.0,4
39154,39154,2021-01-21 19:59:03.581,1.0,1.0,4
39164,39164,2021-01-21 19:59:33.581,1.0,1.0,4
39174,39174,2021-01-21 20:00:03.581,1.0,1.0,4
39184,39184,2021-01-21 20:00:33.581,1.0,1.0,4
39194,39194,2021-01-21 20:01:03.581,1.0,1.0,4
39204,39204,2021-01-21 20:01:33.581,1.0,1.0,4
39214,39214,2021-01-21 20:02:03.581,1.0,1.0,4
39224,39224,2021-01-21 20:02:33.581,1.0,1.0,4
39234,39234,2021-01-21 20:03:03.581,1.0,1.0,4
39244,39244,2021-01-21 20:03:33.581,1.0,1.0,4
39254,39254,2021-01-21 20:04:03.581,1.0,1.0,4
39264,39264,2021-01-21 20:04:33.581,1.0,1.0,4
39274,39274,2021-01-21 20:05:03.581,1.0,1.0,4
39284,39284,2021-01-21 20:05:33.581,1.0,1.0,4
39294,39294,2021-01-21 20:06:03.581,1.0,1.0,4
39304,39304,2021-01-21 20:06:33.581,1.0,1.0,4
39314,39314,2021-01-21 20:07:03.581,1.0,1.0,4
39324,39324,2021-01-21 20:07:33.581,1.0,1.0,4
39334,39334,2021-01-21 20:08:03.581,1.0,1.0,4
39344,39344,2021-01-21 20:08:33.581,1.0,1.0,4
39354,39354,2021-01-21 20:09:03.581,1.0,1.0,4
39364,39364,2021-01-21 20:09:33.581,1.0,1.0,4
39374,39374,2021-01-21 20:10:03.581,1.0,1.0,4
39384,39384,2021-01-21 20:10:33.581,1.0,1.0,4
39394,39394,2021-01-21 20:11:03.581,1.0,1.0,4
39404,39404,2021-01-21 20:11:33.581,1.0,1.0,4
39414,39414,2021-01-21 20:12:03.581,1.0,1.0,4
39424,39424,2021-01-21 20:12:33.581,1.0,1.0,4
39434,39434,2021-01-21 20:13:03.581,1.0,1.0,4
39444,39444,2021-01-21 20:13:33.581,1.0,1.0,4
39454,39454,2021-01-21 20:14:03.581,1.0,1.0,4
39464,39464,2021-01-21 20:14:33.581,1.0,1.0,4
39474,39474,2021-01-21 20:15:03.581,1.0,1.0,4
39484,39484,2021-01-21 20:15:33.581,1.0,1.0,4
39494,39494,2021-01-21 20:16:03.581,1.0,1.0,4
39504,39504,2021-01-21 20:16:33.581,1.0,1.0,4
39514,39514,2021-01-21 20:17:03.581,1.0,1.0,4
39524,39524,2021-01-21 20:17:33.581,1.0,1.0,4
39534,39534,2021-01-21 20:18:03.581,1.0,1.0,4
39544,39544,2021-01-21 20:18:33.581,1.0,1.0,4
39554,39554,2021-01-21 20:19:03.581,1.0,1.0,4
39564,39564,2021-01-21 20:19:33.581,1.0,1.0,4
39574,39574,2021-01-21 20:20:03.581,1.0,1.0,4
39584,39584,2021-01-21 20:20:33.581,1.0,1.0,4
39594,39594,2021-01-21 20:21:03.581,1.0,1.0,4
39604,39604,2021-01-21 20:21:33.581,1.0,1.0,4
39614,39614,2021-01-21 20:22:03.581,1.0,1.0,4
39624,39624,2021-01-21 20:22:33.581,1.0,1.0,4
39634,39634,2021-01-21 20:23:03.581,1.0,1.0,4
39644,39644,2021-01-21 20:23:33.581,1.0,1.0,4
39654,39654,2021-01-21 20:24:03.581,1.0,1.0,4
39664,39664,2021-01-21 20:24:33.581,1.0,1.0,4
39674,39674,2021-01-21 20:25:03.581,1.0,1.0,4
39684,39684,2021-01-21 20:25:33.581,1.0,1.0,4
39694,39694,2021-01-21 20:26:03.581,1.0,1.0,4
39704,39704,2021-01-21 20:26:33.581,1.0,1.0,4
39714,39714,2021-01-21 20:27:03.581,1.0,1.0,4
39724,39724,2021-01-21 20:27:33.581,1.0,1.0,4
39734,39734,2021-01-21 20:28:03.581,1.0,1.0,4
39744,39744,2021-01-21 20:28:33.581,1.0,1.0,4
39754,39754,2021-01-21 20:29:03.581,1.0,1.0,4
39764,39764,2021-01-21 20:29:33.581,1.0,1.0,4
39774,39774,2021-01-21 20:30:03.581,1.0,1.0,4
39784,39784,2021-01-21 20:30:33.581,1.0,1.0,4
39794,39794,2021-01-21 20:31:03.581,1.0,1.0,4
39804,39804,2021-01-21 20:31:33.581,1.0,1.0,4
39814,39814,2021-01-21 20:32:03.581,1.0,1.0,4
39824,39824,2021-01-21 20:32:33.581,1.0,1.0,4
39834,39834,2021-01-21 20:33:03.581,1.0,1.0,4
39844,39844,2021-01-21 20:33:33.581,1.0,1.0,4
39854,39854,2021-01-21 20:34:03.581,1.0,1.0,4
39864,39864,2021-01-21 20:34:33.581,1.0,1.0,4
39874,39874,2021-01-21 20:35:03.581,1.0,1.0,4
39884,39884,2021-01-21 20:35:33.581,1.0,1.0,4
39894,39894,2021-01-21 20:36:03.581,1.0,1.0,4
39904,39904,2021-01-21 20:36:33.581,1.0,1.0,4
39914,39914,2021-01-21 20:37:03.581,1.0,1.0,4
39924,39924,2021-01-21 20:37:33.581,1.0,1.0,4
39934,39934,2021-01-21 20:38:03.581,1.0,1.0,4
39944,39944,2021-01-21 20:38:33.581,1.0,1.0,4
39954,39954,2021-01-21 20:39:03.581,1.0,1.0,4
39964,39964,2021-01-21 20:39:33.581,1.0,1.0,4
39974,39974,2021-01-21 20:40:03.581,1.0,1.0,4
39984,39984,2021-01-21 20:40:33.581,1.0,1.0,4
39994,39994,2021-01-21 20:41:03.581,1.0,1.0,4
40004,40004,2021-01-21 20:41:33.581,1.0,1.0,4
40014,40014,2021-01-21 20:42:03.581,1.0,1.0,4
40024,40024,2021-01-21 20:42:33.581,1.0,1.0,4
40034,40034,2021-01-21 20:43:03.581,1.0,1.0,4
40044,40044,2021-01-21 20:43:33.581,1.0,1.0,4
40054,40054,2021-01-21 20:44:03.581,1.0,1.0,4
40064,40064,2021-01-21 20:44:33.581,1.0,1.0,4
40074,40074,2021-01-21 20:45:03.581,1.0,1.0,4
40084,40084,2021-01-21 20:45:33.581,1.0,1.0,4
40094,40094,2021-01-21 20:46:03.581,1.0,1.0,4
40104,40104,2021-01-21 20:46:33.581,1.0,1.0,4
40114,40114,2021-01-21 20:47:03.581,1.0,1.0,4
40124,40124,2021-01-21 20:47:33.581,1.0,1.0,4
40134,40134,2021-01-21 20:48:03.581,1.0,1.0,4
40144,40144,2021-01-21 20:48:33.581,1.0,1.0,4
40154,40154,2021-01-21 20:49:03.581,1.0,1.0,4
40164,40164,2021-01-21 20:49:33.581,1.0,1.0,4
40174,40174,2021-01-21 20:50:03.581,1.0,1.0,4
40184,40184,2021-01-21 20:50:33.581,1.0,1.0,4
40194,40194,2021-01-21 20:51:03.581,1.0,1.0,4
40204,40204,2021-01-21 20:51:33.581,1.0,1.0,4
40214,40214,2021-01-21 20:52:03.581,1.0,1.0,4
40224,40224,2021-01-21 20:52:33.581,1.0,1.0,4
40234,40234,2021-01-21 20:53:03.581,1.0,1.0,4
40244,40244,2021-01-21 20:53:33.581,1.0,1.0,4
40254,40254,2021-01-21 20:54:03.581,1.0,1.0,4
40264,40264,2021-01-21 20:54:33.581,1.0,1.0,4
40274,40274,2021-01-21 20:55:03.581,1.0,1.0,4
40284,40284,2021-01-21 20:55:33.581,1.0,1.0,4
40294,40294,2021-01-21 20:56:03.581,1.0,1.0,4
40304,40304,2021-01-21 20:56:33.581,1.0,1.0,4
40314,40314,2021-01-21 20:57:03.581,1.0,1.0,4
40324,40324,2021-01-21 20:57:33.581,1.0,1.0,4
40334,40334,2021-01-21 20:58:03.581,1.0,1.0,4
40344,40344,2021-01-21 20:58:33.581,1.0,1.0,4
40354,40354,2021-01-21 20:59:03.581,1.0,1.0,4
40364,40364,2021-01-21 20:59:33.581,1.0,1.0,4
40374,40374,2021-01-21 21:00:03.581,1.0,1.0,4
40384,40384,2021-01-21 21:00:33.581,1.0,1.0,4
40394,40394,2021-01-21 21:01:03.581,1.0,1.0,4
40404,40404,2021-01-21 21:01:33.581,1.0,1.0,4
40414,40414,2021-01-21 21:02:03.581,1.0,1.0,4
40424,40424,2021-01-21 21:02:33.581,1.0,1.0,4
40434,40434,2021-01-21 21:03:03.581,1.0,1.0,4
40444,40444,2021-01-21 21:03:33.581,1.0,1.0,4
40454,40454,2021-01-21 21:04:03.581,1.0,1.0,4
40464,40464,2021-01-21 21:04:33.581,1.0,1.0,4
40474,40474,2021-01-21 21:05:03.581,1.0,1.0,4
40484,40484,2021-01-21 21:05:33.581,1.0,1.0,4
40494,40494,2021-01-21 21:06:03.581,1.0,1.0,4
40504,40504,2021-01-21 21:06:33.581,1.0,1.0,4
40514,40514,2021-01-21 21:07:03.581,1.0,1.0,4
40524,40524,2021-01-21 21:07:33.581,1.0,1.0,4
40534,40534,2021-01-21 21:08:03.581,1.0,1.0,4
40544,40544,2021-01-21 21:08:33.581,1.0,1.0,4
40554,40554,2021-01-21 21:09:03.581,1.0,1.0,4
40564,40564,2021-01-21 21:09:33.581,1.0,1.0,4
40574,40574,2021-01-21 21:10:03.581,1.0,1.0,4
40584,40584,2021-01-21 21:10:33.581,1.0,1.0,4
40594,40594,2021-01-21 21:11:03.581,1.0,1.0,4
40604,40604,2021-01-21 21:11:33.581,1.0,1.0,4
40614,40614,2021-01-21 21:12:03.581,1.0,1.0,4
40624,40624,2021-01-21 21:12:33.581,1.0,1.0,4
40634,40634,2021-01-21 21:13:03.581,1.0,1.0,4
40644,40644,2021-01-21 21:13:33.581,1.0,1.0,4
40654,40654,2021-01-21 21:14:03.581,1.0,1.0,4
40664,40664,2021-01-21 21:14:33.581,1.0,1.0,4
40674,40674,2021-01-21 21:15:03.581,1.0,1.0,4
40684,40684,2021-01-21 21:15:33.581,1.0,1.0,4
40694,40694,2021-01-21 21:16:03.581,1.0,1.0,4
40704,40704,2021-01-21 21:16:33.581,1.0,1.0,4
40714,40714,2021-01-21 21:17:03.581,1.0,1.0,4
40724,40724,2021-01-21 21:17:33.581,1.0,1.0,4
40734,40734,2021-01-21 21:18:03.581,1.0,1.0,4
40744,40744,2021-01-21 21:18:33.581,1.0,1.0,4
40754,40754,2021-01-21 21:19:03.581,1.0,1.0,4
40764,40764,2021-01-21 21:19:33.581,1.0,1.0,4
40774,40774,2021-01-21 21:20:03.581,1.0,1.0,4
40784,40784,2021-01-21 21:20:33.581,1.0,1.0,4
40794,40794,2021-01-21 21:21:03.581,1.0,1.0,4
40804,40804,2021-01-21 21:21:33.581,1.0,1.0,4
40814,40814,2021-01-21 21:22:03.581,1.0,1.0,4
40824,40824,2021-01-21 21:22:33.581,1.0,1.0,4
40834,40834,2021-01-21 21:23:03.581,1.0,1.0,4
40844,40844,2021-01-21 21:23:33.581,1.0,1.0,4
40854,40854,2021-01-21 21:24:03.581,1.0,1.0,4
40864,40864,2021-01-21 21:24:33.581,1.0,1.0,4
40874,40874,2021-01-21 21:25:03.581,1.0,1.0,4
40884,40884,2021-01-21 21:25:33.581,1.0,1.0,4
40894,40894,2021-01-21 21:26:03.581,1.0,1.0,4
40904,40904,2021-01-21 21:26:33.581,1.0,1.0,4
40914,40914,2021-01-21 21:27:03.581,1.0,1.0,4
40924,40924,2021-01-21 21:27:33.581,1.0,1.0,4
40934,40934,2021-01-21 21:28:03.581,1.0,1.0,4
40944,40944,2021-01-21 21:28:33.581,1.0,1.0,4
40954,40954,2021-01-21 21:29:03.581,1.0,1.0,4
40964,40964,2021-01-21 21:29:33.581,1.0,1.0,4
40974,40974,2021-01-21 21:30:03.581,1.0,1.0,4
40984,40984,2021-01-21 21:30:33.581,1.0,1.0,4
40994,40994,2021-01-21 21:31:03.581,1.0,1.0,4
41004,41004,2021-01-21 21:31:33.581,1.0,1.0,4
41014,41014,2021-01-21 21:32:03.581,1.0,1.0,4
41024,41024,2021-01-21 21:32:33.581,1.0,1.0,4
41034,41034,2021-01-21 21:33:03.581,1.0,1.0,4
41044,41044,2021-01-21 21:33:33.581,1.0,1.0,4
41054,41054,2021-01-21 21:34:03.581,1.0,1.0,4
41064,41064,2021-01-21 21:34:33.581,1.0,1.0,4
41074,41074,2021-01-21 21:35:03.581,1.0,1.0,4
41084,41084,2021-01-21 21:35:33.581,1.0,1.0,4
41094,41094,2021-01-21 21:36:03.581,1.0,1.0,4
41104,41104,2021-01-21 21:36:33.581,1.0,1.0,4
41114,41114,2021-01-21 21:37:03.581,1.0,1.0,4
41124,41124,2021-01-21 21:37:33.581,1.0,1.0,4
41134,41134,2021-01-21 21:38:03.581,1.0,1.0,4
41144,41144,2021-01-21 21:38:33.581,1.0,1.0,4
41154,41154,2021-01-21 21:39:03.581,1.0,1.0,4
41164,41164,2021-01-21 21:39:33.581,1.0,1.0,4
41174,41174,2021-01-21 21:40:03.581,1.0,1.0,4
41184,41184,2021-01-21 21:40:33.581,1.0,1.0,4
41194,41194,2021-01-21 21:41:03.581,1.0,1.0,4
41204,41204,2021-01-21 21:41:33.581,1.0,1.0,4
41214,41214,2021-01-21 21:42:03.581,1.0,1.0,4
41224,41224,2021-01-21 21:42:33.581,1.0,1.0,4
41234,41234,2021-01-21 21:43:03.581,1.0,1.0,4
41244,41244,2021-01-21 21:43:33.581,1.0,1.0,4
41254,41254,2021-01-21 21:44:03.581,1.0,1.0,4
41264,41264,2021-01-21 21:44:33.581,1.0,1.0,4
41274,41274,2021-01-21 21:45:03.581,1.0,1.0,4
41284,41284,2021-01-21 21:45:33.581,1.0,1.0,4
41294,41294,2021-01-21 21:46:03.581,1.0,1.0,4
41304,41304,2021-01-21 21:46:33.581,1.0,1.0,4
41314,41314,2021-01-21 21:47:03.581,1.0,1.0,4
41324,41324,2021-01-21 21:47:33.581,1.0,1.0,4
41334,41334,2021-01-21 21:48:03.581,1.0,1.0,4
41344,41344,2021-01-21 21:48:33.581,1.0,1.0,4
41354,41354,2021-01-21 21:49:03.581,1.0,1.0,4
41364,41364,2021-01-21 21:49:33.581,1.0,1.0,4
41374,41374,2021-01-21 21:50:03.581,1.0,1.0,4
41384,41384,2021-01-21 21:50:33.581,1.0,1.0,4
41394,41394,2021-01-21 21:51:03.581,1.0,1.0,4
41404,41404,2021-01-21 21:51:33.581,1.0,1.0,4
41414,41414,2021-01-21 21:52:03.581,1.0,1.0,4
41424,41424,2021-01-21 21:52:33.581,1.0,1.0,4
41434,41434,2021-01-21 21:53:03.581,1.0,1.0,4
41444,41444,2021-01-21 21:53:33.581,1.0,1.0,4
41454,41454,2021-01-21 21:54:03.581,1.0,1.0,4
41464,41464,2021-01-21 21:54:33.581,1.0,1.0,4
41474,41474,2021-01-21 21:55:03.581,1.0,1.0,4
41484,41484,2021-01-21 21:55:33.581,1.0,1.0,4
41494,41494,2021-01-21 21:56:03.581,1.0,1.0,4
41504,41504,2021-01-21 21:56:33.581,1.0,1.0,4
41514,41514,2021-01-21 21:57:03.581,1.0,1.0,4
41524,41524,2021-01-21 21:57:33.581,1.0,1.0,4
41534,41534,2021-01-21 21:58:03.581,1.0,1.0,4
41544,41544,2021-01-21 21:58:33.581,1.0,1.0,4
41554,41554,2021-01-21 21:59:03.581,1.0,1.0,4
41564,41564,2021-01-21 21:59:33.581,1.0,1.0,4
41574,41574,2021-01-21 22:00:03.581,1.0,1.0,4
41584,41584,2021-01-21 22:00:33.581,1.0,1.0,4
41594,41594,2021-01-21 22:01:03.581,1.0,1.0,4
41604,41604,2021-01-21 22:01:33.581,1.0,1.0,4
41614,41614,2021-01-21 22:02:03.581,1.0,1.0,4
41624,41624,2021-01-21 22:02:33.581,1.0,1.0,4
41634,41634,2021-01-21 22:03:03.581,1.0,1.0,4
41644,41644,2021-01-21 22:03:33.581,1.0,1.0,4
41654,41654,2021-01-21 22:04:03.581,1.0,1.0,4
41664,41664,2021-01-21 22:04:33.581,1.0,1.0,4
41674,41674,2021-01-21 22:05:03.581,1.0,1.0,4
41684,41684,2021-01-21 22:05:33.581,1.0,1.0,4
41694,41694,2021-01-21 22:06:03.581,1.0,1.0,4
41704,41704,2021-01-21 22:06:33.581,1.0,1.0,4
41714,41714,2021-01-21 22:07:03.581,1.0,1.0,4
41724,41724,2021-01-21 22:07:33.581,1.0,1.0,4
41734,41734,2021-01-21 22:08:03.581,1.0,1.0,4
41744,41744,2021-01-21 22:08:33.581,1.0,1.0,4
41754,41754,2021-01-21 22:09:03.581,1.0,1.0,4
41764,41764,2021-01-21 22:09:33.581,1.0,1.0,4
41774,41774,2021-01-21 22:10:03.581,1.0,1.0,4
41784,41784,2021-01-21 22:10:33.581,1.0,1.0,4
41794,41794,2021-01-21 22:11:03.581,1.0,1.0,4
41804,41804,2021-01-21 22:11:33.581,1.0,1.0,4
41814,41814,2021-01-21 22:12:03.581,1.0,1.0,4
41824,41824,2021-01-21 22:12:33.581,1.0,1.0,4
41834,41834,2021-01-21 22:13:03.581,1.0,1.0,4
41844,41844,2021-01-21 22:13:33.581,1.0,1.0,4
41854,41854,2021-01-21 22:14:03.581,1.0,1.0,4
41864,41864,2021-01-21 22:14:33.581,1.0,1.0,4
41874,41874,2021-01-21 22:15:03.581,1.0,1.0,4
41884,41884,2021-01-21 22:15:33.581,1.0,1.0,4
41894,41894,2021-01-21 22:16:03.581,1.0,1.0,4
41904,41904,2021-01-21 22:16:33.581,1.0,1.0,4
41914,41914,2021-01-21 22:17:03.581,1.0,1.0,4
41924,41924,2021-01-21 22:17:33.581,1.0,1.0,4
41934,41934,2021-01-21 22:18:03.581,1.0,1.0,4
41944,41944,2021-01-21 22:18:33.581,1.0,1.0,4
41954,41954,2021-01-21 22:19:03.581,1.0,1.0,4
41964,41964,2021-01-21 22:19:33.581,1.0,1.0,4
41974,41974,2021-01-21 22:20:03.581,1.0,1.0,4
41984,41984,2021-01-21 22:20:33.581,1.0,1.0,4
41994,41994,2021-01-21 22:21:03.581,1.0,1.0,4
42004,42004,2021-01-21 22:21:33.581,1.0,1.0,4
42014,42014,2021-01-21 22:22:03.581,1.0,1.0,4
42024,42024,2021-01-21 22:22:33.581,1.0,1.0,4
42034,42034,2021-01-21 22:23:03.581,1.0,1.0,4
42044,42044,2021-01-21 22:23:33.581,1.0,1.0,4
42054,42054,2021-01-21 22:24:03.581,1.0,1.0,4
42064,42064,2021-01-21 22:24:33.581,1.0,1.0,4
42074,42074,2021-01-21 22:25:03.581,1.0,1.0,4
42084,42084,2021-01-21 22:25:33.581,1.0,1.0,4
42094,42094,2021-01-21 22:26:03.581,1.0,1.0,4
42104,42104,2021-01-21 22:26:33.581,1.0,1.0,4
42114,42114,2021-01-21 22:27:03.581,1.0,1.0,4
42124,42124,2021-01-21 22:27:33.581,1.0,1.0,4
42134,42134,2021-01-21 22:28:03.581,1.0,1.0,4
42144,42144,2021-01-21 22:28:33.581,1.0,1.0,4
42154,42154,2021-01-21 22:29:03.581,1.0,1.0,4
42164,42164,2021-01-21 22:29:33.581,1.0,1.0,4
42174,42174,2021-01-21 22:30:03.581,1.0,1.0,4
42184,42184,2021-01-21 22:30:33.581,1.0,1.0,4
42194,42194,2021-01-21 22:31:03.581,1.0,1.0,4
42204,42204,2021-01-21 22:31:33.581,1.0,1.0,4
42214,42214,2021-01-21 22:32:03.581,1.0,1.0,4
42224,42224,2021-01-21 22:32:33.581,1.0,1.0,4
42234,42234,2021-01-21 22:33:03.581,1.0,1.0,4
42244,42244,2021-01-21 22:33:33.581,1.0,1.0,4
42254,42254,2021-01-21 22:34:03.581,1.0,1.0,4
42264,42264,2021-01-21 22:34:33.581,1.0,1.0,4
42274,42274,2021-01-21 22:35:03.581,1.0,1.0,4
42284,42284,2021-01-21 22:35:33.581,1.0,1.0,4
42294,42294,2021-01-21 22:36:03.581,1.0,1.0,4
42304,42304,2021-01-21 22:36:33.581,1.0,1.0,4
42314,42314,2021-01-21 22:37:03.581,1.0,1.0,4
42324,42324,2021-01-21 22:37:33.581,1.0,1.0,4
42334,42334,2021-01-21 22:38:03.581,1.0,1.0,4
42344,42344,2021-01-21 22:38:33.581,1.0,1.0,4
42354,42354,2021-01-21 22:39:03.581,1.0,1.0,4
42364,42364,2021-01-21 22:39:33.581,1.0,1.0,4
42374,42374,2021-01-21 22:40:03.581,1.0,1.0,4
42384,42384,2021-01-21 22:40:33.581,1.0,1.0,4
42394,42394,2021-01-21 22:41:03.581,1.0,1.0,4
42404,42404,2021-01-21 22:41:33.581,1.0,1.0,4
42414,42414,2021-01-21 22:42:03.581,1.0,1.0,4
42424,42424,2021-01-21 22:42:33.581,1.0,1.0,4
42434,42434,2021-01-21 22:43:03.581,1.0,1.0,4
42444,42444,2021-01-21 22:43:33.581,1.0,1.0,4
42454,42454,2021-01-21 22:44:03.581,1.0,1.0,4
42464,42464,2021-01-21 22:44:33.581,1.0,1.0,4
42474,42474,2021-01-21 22:45:03.581,1.0,1.0,4
42484,42484,2021-01-21 22:45:33.581,1.0,1.0,4
42494,42494,2021-01-21 22:46:03.581,1.0,1.0,4
42504,42504,2021-01-21 22:46:33.581,1.0,1.0,4
42514,42514,2021-01-21 22:47:03.581,1.0,1.0,4
42524,42524,2021-01-21 22:47:33.581,1.0,1.0,4
42534,42534,2021-01-21 22:48:03.581,1.0,1.0,4
42544,42544,2021-01-21 22:48:33.581,1.0,1.0,4
42554,42554,2021-01-21 22:49:03.581,1.0,1.0,4
42564,42564,2021-01-21 22:49:33.581,1.0,1.0,4
42574,42574,2021-01-21 22:50:03.581,1.0,1.0,4
42584,42584,2021-01-21 22:50:33.581,1.0,1.0,4
42594,42594,2021-01-21 22:51:03.581,1.0,1.0,4
42604,42604,2021-01-21 22:51:33.581,1.0,1.0,4
42614,42614,2021-01-21 22:52:03.581,1.0,1.0,4
42624,42624,2021-01-21 22:52:33.581,1.0,1.0,4
42634,42634,2021-01-21 22:53:03.581,1.0,1.0,4
42644,42644,2021-01-21 22:53:33.581,1.0,1.0,4
42654,42654,2021-01-21 22:54:03.581,1.0,1.0,4
42664,42664,2021-01-21 22:54:33.581,1.0,1.0,4
42674,42674,2021-01-21 22:55:03.581,1.0,1.0,4
42684,42684,2021-01-21 22:55:33.581,1.0,1.0,4
42694,42694,2021-01-21 22:56:03.581,1.0,1.0,4
42704,42704,2021-01-21 22:56:33.581,1.0,1.0,4
42714,42714,2021-01-21 22:57:03.581,1.0,1.0,4
42724,42724,2021-01-21 22:57:33.581,1.0,1.0,4
42734,42734,2021-01-21 22:58:03.581,1.0,1.0,4
42744,42744,2021-01-21 22:58:33.581,1.0,1.0,4
42754,42754,2021-01-21 22:59:03.581,1.0,1.0,4
42764,42764,2021-01-21 22:59:33.581,1.0,1.0,4
42774,42774,2021-01-21 23:00:03.581,1.0,1.0,4
42784,42784,2021-01-21 23:00:33.581,1.0,1.0,4
42794,42794,2021-01-21 23:01:03.581,1.0,1.0,4
42804,42804,2021-01-21 23:01:33.581,1.0,1.0,4
42814,42814,2021-01-21 23:02:03.581,1.0,1.0,4
42824,42824,2021-01-21 23:02:33.581,1.0,1.0,4
42834,42834,2021-01-21 23:03:03.581,1.0,1.0,4
42844,42844,2021-01-21 23:03:33.581,1.0,1.0,4
42854,42854,2021-01-21 23:04:03.581,1.0,1.0,4
42864,42864,2021-01-21 23:04:33.581,1.0,1.0,4
42874,42874,2021-01-21 23:05:03.581,1.0,1.0,4
42884,42884,2021-01-21 23:05:33.581,1.0,1.0,4
42894,42894,2021-01-21 23:06:03.581,1.0,1.0,4
42904,42904,2021-01-21 23:06:33.581,1.0,1.0,4
42914,42914,2021-01-21 23:07:03.581,1.0,1.0,4
42924,42924,2021-01-21 23:07:33.581,1.0,1.0,4
42934,42934,2021-01-21 23:08:03.581,1.0,1.0,4
42944,42944,2021-01-21 23:08:33.581,1.0,1.0,4
42954,42954,2021-01-21 23:09:03.581,1.0,1.0,4
42964,42964,2021-01-21 23:09:33.581,1.0,1.0,4
42974,42974,2021-01-21 23:10:03.581,1.0,1.0,4
42984,42984,2021-01-21 23:10:33.581,1.0,1.0,4
42994,42994,2021-01-21 23:11:03.581,1.0,1.0,4
43004,43004,2021-01-21 23:11:33.581,1.0,1.0,4
43014,43014,2021-01-21 23:12:03.581,1.0,1.0,4
43024,43024,2021-01-21 23:12:33.581,1.0,1.0,4
43034,43034,2021-01-21 23:13:03.581,1.0,1.0,4
43044,43044,2021-01-21 23:13:33.581,1.0,1.0,4
43054,43054,2021-01-21 23:14:03.581,1.0,1.0,4
43064,43064,2021-01-21 23:14:33.581,1.0,1.0,4
43074,43074,2021-01-21 23:15:03.581,1.0,1.0,4
43084,43084,2021-01-21 23:15:33.581,1.0,1.0,4
43094,43094,2021-01-21 23:16:03.581,1.0,1.0,4
43104,43104,2021-01-21 23:16:33.581,1.0,1.0,4
43114,43114,2021-01-21 23:17:03.581,1.0,1.0,4
43124,43124,2021-01-21 23:17:33.581,1.0,1.0,4
43134,43134,2021-01-21 23:18:03.581,1.0,1.0,4
43144,43144,2021-01-21 23:18:33.581,1.0,1.0,4
43154,43154,2021-01-21 23:19:03.581,1.0,1.0,4
43164,43164,2021-01-21 23:19:33.581,1.0,1.0,4
43174,43174,2021-01-21 23:20:03.581,1.0,1.0,4
43184,43184,2021-01-21 23:20:33.581,1.0,1.0,4
43194,43194,2021-01-21 23:21:03.581,1.0,1.0,4
43204,43204,2021-01-21 23:21:33.581,1.0,1.0,4
43214,43214,2021-01-21 23:22:03.581,1.0,1.0,4
43224,43224,2021-01-21 23:22:33.581,1.0,1.0,4
43234,43234,2021-01-21 23:23:03.581,1.0,1.0,4
43244,43244,2021-01-21 23:23:33.581,1.0,1.0,4
43254,43254,2021-01-21 23:24:03.581,1.0,1.0,4
43264,43264,2021-01-21 23:24:33.581,1.0,1.0,4
43274,43274,2021-01-21 23:25:03.581,1.0,1.0,4
43284,43284,2021-01-21 23:25:33.581,1.0,1.0,4
43294,43294,2021-01-21 23:26:03.581,1.0,1.0,4
43304,43304,2021-01-21 23:26:33.581,1.0,1.0,4
43314,43314,2021-01-21 23:27:03.581,1.0,1.0,4
43324,43324,2021-01-21 23:27:33.581,1.0,1.0,4
43334,43334,2021-01-21 23:28:03.581,1.0,1.0,4
43344,43344,2021-01-21 23:28:33.581,1.0,1.0,4
43354,43354,2021-01-21 23:29:03.581,1.0,1.0,4
43364,43364,2021-01-21 23:29:33.581,1.0,1.0,4
43374,43374,2021-01-21 23:30:03.581,1.0,1.0,4
43384,43384,2021-01-21 23:30:33.581,1.0,1.0,4
43394,43394,2021-01-21 23:31:03.581,1.0,1.0,4
43404,43404,2021-01-21 23:31:33.581,1.0,1.0,4
43414,43414,2021-01-21 23:32:03.581,1.0,1.0,4
43424,43424,2021-01-21 23:32:33.581,1.0,1.0,4
43434,43434,2021-01-21 23:33:03.581,1.0,1.0,4
43444,43444,2021-01-21 23:33:33.581,1.0,1.0,4
43454,43454,2021-01-21 23:34:03.581,1.0,1.0,4
43464,43464,2021-01-21 23:34:33.581,1.0,1.0,4
43474,43474,2021-01-21 23:35:03.581,1.0,1.0,4
43484,43484,2021-01-21 23:35:33.581,1.0,1.0,4
43494,43494,2021-01-21 23:36:03.581,1.0,1.0,4
43504,43504,2021-01-21 23:36:33.581,1.0,1.0,4
43514,43514,2021-01-21 23:37:03.581,1.0,1.0,4
43524,43524,2021-01-21 23:37:33.581,1.0,1.0,4
43534,43534,2021-01-21 23:38:03.581,1.0,1.0,4
43544,43544,2021-01-21 23:38:33.581,1.0,1.0,4
43554,43554,2021-01-21 23:39:03.581,1.0,1.0,4
43564,43564,2021-01-21 23:39:33.581,1.0,1.0,4
43574,43574,2021-01-21 23:40:03.581,1.0,1.0,4
43584,43584,2021-01-21 23:40:33.581,1.0,1.0,4
43594,43594,2021-01-21 23:41:03.581,1.0,1.0,4
43604,43604,2021-01-21 23:41:33.581,1.0,1.0,4
43614,43614,2021-01-21 23:42:03.581,1.0,1.0,4
43624,43624,2021-01-21 23:42:33.581,1.0,1.0,4
43634,43634,2021-01-21 23:43:03.581,1.0,1.0,4
43644,43644,2021-01-21 23:43:33.581,1.0,1.0,4
43654,43654,2021-01-21 23:44:03.581,1.0,1.0,4
43664,43664,2021-01-21 23:44:33.581,1.0,1.0,4
43674,43674,2021-01-21 23:45:03.581,1.0,1.0,4
43684,43684,2021-01-21 23:45:33.581,1.0,1.0,4
43694,43694,2021-01-21 23:46:03.581,1.0,1.0,4
43704,43704,2021-01-21 23:46:33.581,1.0,1.0,4
43714,43714,2021-01-21 23:47:03.581,1.0,1.0,4
43724,43724,2021-01-21 23:47:33.581,1.0,1.0,4
43734,43734,2021-01-21 23:48:03.581,1.0,1.0,4
43744,43744,2021-01-21 23:48:33.581,1.0,1.0,4
43754,43754,2021-01-21 23:49:03.581,1.0,1.0,4
43764,43764,2021-01-21 23:49:33.581,1.0,1.0,4
43774,43774,2021-01-21 23:50:03.581,1.0,1.0,4
43784,43784,2021-01-21 23:50:33.581,1.0,1.0,4
43794,43794,2021-01-21 23:51:03.581,1.0,1.0,4
43804,43804,2021-01-21 23:51:33.581,1.0,1.0,4
43814,43814,2021-01-21 23:52:03.581,1.0,1.0,4
43824,43824,2021-01-21 23:52:33.581,1.0,1.0,4
43834,43834,2021-01-21 23:53:03.581,1.0,1.0,4
43844,43844,2021-01-21 23:53:33.581,1.0,1.0,4
43854,43854,2021-01-21 23:54:03.581,1.0,1.0,4
43864,43864,2021-01-21 23:54:33.581,1.0,1.0,4
43874,43874,2021-01-21 23:55:03.581,1.0,1.0,4
43884,43884,2021-01-21 23:55:33.581,1.0,1.0,4
43894,43894,2021-01-21 23:56:03.581,1.0,1.0,4
43904,43904,2021-01-21 23:56:33.581,1.0,1.0,4
43914,43914,2021-01-21 23:57:03.581,1.0,1.0,4
43924,43924,2021-01-21 23:57:33.581,1.0,1.0,4
43934,43934,2021-01-21 23:58:03.581,1.0,1.0,4
43944,43944,2021-01-21 23:58:33.581,1.0,1.0,4
43954,43954,2021-01-21 23:59:03.581,1.0,1.0,4
43964,43964,2021-01-21 23:59:33.581,1.0,1.0,4
43974,43974,2021-01-22 00:00:03.581,1.0,1.0,4
43984,43984,2021-01-22 00:00:33.581,1.0,1.0,4
43994,43994,2021-01-22 00:01:03.581,1.0,1.0,4
44004,44004,2021-01-22 00:01:33.581,1.0,1.0,4
44014,44014,2021-01-22 00:02:03.581,1.0,1.0,4
44024,44024,2021-01-22 00:02:33.581,1.0,1.0,4
44034,44034,2021-01-22 00:03:03.581,1.0,1.0,4
44044,44044,2021-01-22 00:03:33.581,1.0,1.0,4
44054,44054,2021-01-22 00:04:03.581,1.0,1.0,4
44064,44064,2021-01-22 00:04:33.581,1.0,1.0,4
44074,44074,2021-01-22 00:05:03.581,1.0,1.0,4
44084,44084,2021-01-22 00:05:33.581,1.0,1.0,4
44094,44094,2021-01-22 00:06:03.581,1.0,1.0,4
44104,44104,2021-01-22 00:06:33.581,1.0,1.0,4
44114,44114,2021-01-22 00:07:03.581,1.0,1.0,4
44124,44124,2021-01-22 00:07:33.581,1.0,1.0,4
44134,44134,2021-01-22 00:08:03.581,1.0,1.0,4
44144,44144,2021-01-22 00:08:33.581,1.0,1.0,4
44154,44154,2021-01-22 00:09:03.581,1.0,1.0,4
44164,44164,2021-01-22 00:09:33.581,1.0,1.0,4
44174,44174,2021-01-22 00:10:03.581,1.0,1.0,4
44184,44184,2021-01-22 00:10:33.581,1.0,1.0,4
44194,44194,2021-01-22 00:11:03.581,1.0,1.0,4
44204,44204,2021-01-22 00:11:33.581,1.0,1.0,4
44214,44214,2021-01-22 00:12:03.581,1.0,1.0,4
44224,44224,2021-01-22 00:12:33.581,1.0,1.0,4
44234,44234,2021-01-22 00:13:03.581,1.0,1.0,4
44244,44244,2021-01-22 00:13:33.581,1.0,1.0,4
44254,44254,2021-01-22 00:14:03.581,1.0,1.0,4
44264,44264,2021-01-22 00:14:33.581,1.0,1.0,4
44274,44274,2021-01-22 00:15:03.581,1.0,1.0,4
44284,44284,2021-01-22 00:15:33.581,1.0,1.0,4
44294,44294,2021-01-22 00:16:03.581,1.0,1.0,4
44304,44304,2021-01-22 00:16:33.581,1.0,1.0,4
44314,44314,2021-01-22 00:17:03.581,1.0,1.0,4
44324,44324,2021-01-22 00:17:33.581,1.0,1.0,4
44334,44334,2021-01-22 00:18:03.581,1.0,1.0,4
44344,44344,2021-01-22 00:18:33.581,1.0,1.0,4
44354,44354,2021-01-22 00:19:03.581,1.0,1.0,4
44364,44364,2021-01-22 00:19:33.581,1.0,1.0,4
44374,44374,2021-01-22 00:20:03.581,1.0,1.0,4
44384,44384,2021-01-22 00:20:33.581,1.0,1.0,4
44394,44394,2021-01-22 00:21:03.581,1.0,1.0,4
44404,44404,2021-01-22 00:21:33.581,1.0,1.0,4
44414,44414,2021-01-22 00:22:03.581,1.0,1.0,4
44424,44424,2021-01-22 00:22:33.581,1.0,1.0,4
44434,44434,2021-01-22 00:23:03.581,1.0,1.0,4
44444,44444,2021-01-22 00:23:33.581,1.0,1.0,4
44454,44454,2021-01-22 00:24:03.581,1.0,1.0,4
44464,44464,2021-01-22 00:24:33.581,1.0,1.0,4
44474,44474,2021-01-22 00:25:03.581,1.0,1.0,4
44484,44484,2021-01-22 00:25:33.581,1.0,1.0,4
44494,44494,2021-01-22 00:26:03.581,1.0,1.0,4
44504,44504,2021-01-22 00:26:33.581,1.0,1.0,4
44514,44514,2021-01-22 00:27:03.581,1.0,1.0,4
44524,44524,2021-01-22 00:27:33.581,1.0,1.0,4
44534,44534,2021-01-22 00:28:03.581,1.0,1.0,4
44544,44544,2021-01-22 00:28:33.581,1.0,1.0,4
44554,44554,2021-01-22 00:29:03.581,1.0,1.0,4
44564,44564,2021-01-22 00:29:33.581,1.0,1.0,4
44574,44574,2021-01-22 00:30:03.581,1.0,1.0,4
44584,44584,2021-01-22 00:30:33.581,1.0,1.0,4
44594,44594,2021-01-22 00:31:03.581,1.0,1.0,4
44604,44604,2021-01-22 00:31:33.581,1.0,1.0,4
44614,44614,2021-01-22 00:32:03.581,1.0,1.0,4
44624,44624,2021-01-22 00:32:33.581,1.0,1.0,4
44634,44634,2021-01-22 00:33:03.581,1.0,1.0,4
44644,44644,2021-01-22 00:33:33.581,1.0,1.0,4
44654,44654,2021-01-22 00:34:03.581,1.0,1.0,4
44664,44664,2021-01-22 00:34:33.581,1.0,1.0,4
44674,44674,2021-01-22 00:35:03.581,1.0,1.0,4
44684,44684,2021-01-22 00:35:33.581,1.0,1.0,4
44694,44694,2021-01-22 00:36:03.581,1.0,1.0,4
44704,44704,2021-01-22 00:36:33.581,1.0,1.0,4
44714,44714,2021-01-22 00:37:03.581,1.0,1.0,4
44724,44724,2021-01-22 00:37:33.581,1.0,1.0,4
44734,44734,2021-01-22 00:38:03.581,1.0,1.0,4
44744,44744,2021-01-22 00:38:33.581,1.0,1.0,4
44754,44754,2021-01-22 00:39:03.581,1.0,1.0,4
44764,44764,2021-01-22 00:39:33.581,1.0,1.0,4
44774,44774,2021-01-22 00:40:03.581,1.0,1.0,4
44784,44784,2021-01-22 00:40:33.581,1.0,1.0,4
44794,44794,2021-01-22 00:41:03.581,1.0,1.0,4
44804,44804,2021-01-22 00:41:33.581,1.0,1.0,4
44814,44814,2021-01-22 00:42:03.581,1.0,1.0,4
44824,44824,2021-01-22 00:42:33.581,1.0,1.0,4
44834,44834,2021-01-22 00:43:03.581,1.0,1.0,4
44844,44844,2021-01-22 00:43:33.581,1.0,1.0,4
44854,44854,2021-01-22 00:44:03.581,1.0,1.0,4
44864,44864,2021-01-22 00:44:33.581,1.0,1.0,4
44874,44874,2021-01-22 00:45:03.581,1.0,1.0,4
44884,44884,2021-01-22 00:45:33.581,1.0,1.0,4
44894,44894,2021-01-22 00:46:03.581,1.0,1.0,4
44904,44904,2021-01-22 00:46:33.581,1.0,1.0,4
44914,44914,2021-01-22 00:47:03.581,1.0,1.0,4
44924,44924,2021-01-22 00:47:33.581,1.0,1.0,4
44934,44934,2021-01-22 00:48:03.581,1.0,1.0,4
44944,44944,2021-01-22 00:48:33.581,1.0,1.0,4
44954,44954,2021-01-22 00:49:03.581,1.0,1.0,4
44964,44964,2021-01-22 00:49:33.581,1.0,1.0,4
44974,44974,2021-01-22 00:50:03.581,1.0,1.0,4
44984,44984,2021-01-22 00:50:33.581,1.0,1.0,4
44994,44994,2021-01-22 00:51:03.581,1.0,1.0,4
45004,45004,2021-01-22 00:51:33.581,1.0,1.0,4
45014,45014,2021-01-22 00:52:03.581,1.0,1.0,4
45024,45024,2021-01-22 00:52:33.581,1.0,1.0,4
45034,45034,2021-01-22 00:53:03.581,1.0,1.0,4
45044,45044,2021-01-22 00:53:33.581,1.0,1.0,4
45054,45054,2021-01-22 00:54:03.581,1.0,1.0,4
45064,45064,2021-01-22 00:54:33.581,1.0,1.0,4
45074,45074,2021-01-22 00:55:03.581,1.0,1.0,4
45084,45084,2021-01-22 00:55:33.581,1.0,1.0,4
45094,45094,2021-01-22 00:56:03.581,1.0,1.0,4
45104,45104,2021-01-22 00:56:33.581,1.0,1.0,4
45114,45114,2021-01-22 00:57:03.581,1.0,1.0,4
45124,45124,2021-01-22 00:57:33.581,1.0,1.0,4
45134,45134,2021-01-22 00:58:03.581,1.0,1.0,4
45144,45144,2021-01-22 00:58:33.581,1.0,1.0,4
45154,45154,2021-01-22 00:59:03.581,1.0,1.0,4
45164,45164,2021-01-22 00:59:33.581,1.0,1.0,4
45174,45174,2021-01-22 01:00:03.581,1.0,1.0,4
45184,45184,2021-01-22 01:00:33.581,1.0,1.0,4
45194,45194,2021-01-22 01:01:03.581,1.0,1.0,4
45204,45204,2021-01-22 01:01:33.581,1.0,1.0,4
45214,45214,2021-01-22 01:02:03.581,1.0,1.0,4
45224,45224,2021-01-22 01:02:33.581,1.0,1.0,4
45234,45234,2021-01-22 01:03:03.581,1.0,1.0,4
45244,45244,2021-01-22 01:03:33.581,1.0,1.0,4
45254,45254,2021-01-22 01:04:03.581,1.0,1.0,4
45264,45264,2021-01-22 01:04:33.581,1.0,1.0,4
45274,45274,2021-01-22 01:05:03.581,1.0,1.0,4
45284,45284,2021-01-22 01:05:33.581,1.0,1.0,4
45294,45294,2021-01-22 01:06:03.581,1.0,1.0,4
45304,45304,2021-01-22 01:06:33.581,1.0,1.0,4
45314,45314,2021-01-22 01:07:03.581,1.0,1.0,4
45324,45324,2021-01-22 01:07:33.581,1.0,1.0,4
45334,45334,2021-01-22 01:08:03.581,1.0,1.0,4
45344,45344,2021-01-22 01:08:33.581,1.0,1.0,4
45354,45354,2021-01-22 01:09:03.581,1.0,1.0,4
45364,45364,2021-01-22 01:09:33.581,1.0,1.0,4
45374,45374,2021-01-22 01:10:03.581,1.0,1.0,4
45384,45384,2021-01-22 01:10:33.581,1.0,1.0,4
45394,45394,2021-01-22 01:11:03.581,1.0,1.0,4
45404,45404,2021-01-22 01:11:33.581,1.0,1.0,4
45414,45414,2021-01-22 01:12:03.581,1.0,1.0,4
45424,45424,2021-01-22 01:12:33.581,1.0,1.0,4
45434,45434,2021-01-22 01:13:03.581,1.0,1.0,4
45444,45444,2021-01-22 01:13:33.581,1.0,1.0,4
45454,45454,2021-01-22 01:14:03.581,1.0,1.0,4
45464,45464,2021-01-22 01:14:33.581,1.0,1.0,4
45474,45474,2021-01-22 01:15:03.581,1.0,1.0,4
45484,45484,2021-01-22 01:15:33.581,1.0,1.0,4
45494,45494,2021-01-22 01:16:03.581,1.0,1.0,4
45504,45504,2021-01-22 01:16:33.581,1.0,1.0,4
45514,45514,2021-01-22 01:17:03.581,1.0,1.0,4
45524,45524,2021-01-22 01:17:33.581,1.0,1.0,4
45534,45534,2021-01-22 01:18:03.581,1.0,1.0,4
45544,45544,2021-01-22 01:18:33.581,1.0,1.0,4
45554,45554,2021-01-22 01:19:03.581,1.0,1.0,4
45564,45564,2021-01-22 01:19:33.581,1.0,1.0,4
45574,45574,2021-01-22 01:20:03.581,1.0,1.0,4
45584,45584,2021-01-22 01:20:33.581,1.0,1.0,4
45594,45594,2021-01-22 01:21:03.581,1.0,1.0,4
45604,45604,2021-01-22 01:21:33.581,1.0,1.0,4
45614,45614,2021-01-22 01:22:03.581,1.0,1.0,4
45624,45624,2021-01-22 01:22:33.581,1.0,1.0,4
45634,45634,2021-01-22 01:23:03.581,1.0,1.0,4
45644,45644,2021-01-22 01:23:33.581,1.0,1.0,4
45654,45654,2021-01-22 01:24:03.581,1.0,1.0,4
45664,45664,2021-01-22 01:24:33.581,1.0,1.0,4
45674,45674,2021-01-22 01:25:03.581,1.0,1.0,4
45684,45684,2021-01-22 01:25:33.581,1.0,1.0,4
45694,45694,2021-01-22 01:26:03.581,1.0,1.0,4
45704,45704,2021-01-22 01:26:33.581,1.0,1.0,4
45714,45714,2021-01-22 01:27:03.581,1.0,1.0,4
45724,45724,2021-01-22 01:27:33.581,1.0,1.0,4
45734,45734,2021-01-22 01:28:03.581,1.0,1.0,4
45744,45744,2021-01-22 01:28:33.581,1.0,1.0,4
45754,45754,2021-01-22 01:29:03.581,1.0,1.0,4
45764,45764,2021-01-22 01:29:33.581,1.0,1.0,4
45774,45774,2021-01-22 01:30:03.581,1.0,1.0,4
45784,45784,2021-01-22 01:30:33.581,1.0,1.0,4
45794,45794,2021-01-22 01:31:03.581,1.0,1.0,4
45804,45804,2021-01-22 01:31:33.581,1.0,1.0,4
45814,45814,2021-01-22 01:32:03.581,1.0,1.0,4
45824,45824,2021-01-22 01:32:33.581,1.0,1.0,4
45834,45834,2021-01-22 01:33:03.581,1.0,1.0,4
45844,45844,2021-01-22 01:33:33.581,1.0,1.0,4
45854,45854,2021-01-22 01:34:03.581,1.0,1.0,4
45864,45864,2021-01-22 01:34:33.581,1.0,1.0,4
45874,45874,2021-01-22 01:35:03.581,1.0,1.0,4
45884,45884,2021-01-22 01:35:33.581,1.0,1.0,4
45894,45894,2021-01-22 01:36:03.581,1.0,1.0,4
45904,45904,2021-01-22 01:36:33.581,1.0,1.0,4
45914,45914,2021-01-22 01:37:03.581,1.0,1.0,4
45924,45924,2021-01-22 01:37:33.581,1.0,1.0,4
45934,45934,2021-01-22 01:38:03.581,1.0,1.0,4
45944,45944,2021-01-22 01:38:33.581,1.0,1.0,4
45954,45954,2021-01-22 01:39:03.581,1.0,1.0,4
45964,45964,2021-01-22 01:39:33.581,1.0,1.0,4
45974,45974,2021-01-22 01:40:03.581,1.0,1.0,4
45984,45984,2021-01-22 01:40:33.581,1.0,1.0,4
45994,45994,2021-01-22 01:41:03.581,1.0,1.0,4
46004,46004,2021-01-22 01:41:33.581,1.0,1.0,4
46014,46014,2021-01-22 01:42:03.581,1.0,1.0,4
46024,46024,2021-01-22 01:42:33.581,1.0,1.0,4
46034,46034,2021-01-22 01:43:03.581,1.0,1.0,4
46044,46044,2021-01-22 01:43:33.581,1.0,1.0,4
46054,46054,2021-01-22 01:44:03.581,1.0,1.0,4
46064,46064,2021-01-22 01:44:33.581,1.0,1.0,4
46074,46074,2021-01-22 01:45:03.581,1.0,1.0,4
46084,46084,2021-01-22 01:45:33.581,1.0,1.0,4
46094,46094,2021-01-22 01:46:03.581,1.0,1.0,4
46104,46104,2021-01-22 01:46:33.581,1.0,1.0,4
46114,46114,2021-01-22 01:47:03.581,1.0,1.0,4
46124,46124,2021-01-22 01:47:33.581,1.0,1.0,4
46134,46134,2021-01-22 01:48:03.581,1.0,1.0,4
46144,46144,2021-01-22 01:48:33.581,1.0,1.0,4
46154,46154,2021-01-22 01:49:03.581,1.0,1.0,4
46164,46164,2021-01-22 01:49:33.581,1.0,1.0,4
46174,46174,2021-01-22 01:50:03.581,1.0,1.0,4
46184,46184,2021-01-22 01:50:33.581,1.0,1.0,4
46194,46194,2021-01-22 01:51:03.581,1.0,1.0,4
46204,46204,2021-01-22 01:51:33.581,1.0,1.0,4
46214,46214,2021-01-22 01:52:03.581,1.0,1.0,4
46224,46224,2021-01-22 01:52:33.581,1.0,1.0,4
46234,46234,2021-01-22 01:53:03.581,1.0,1.0,4
46244,46244,2021-01-22 01:53:33.581,1.0,1.0,4
46254,46254,2021-01-22 01:54:03.581,1.0,1.0,4
46264,46264,2021-01-22 01:54:33.581,1.0,1.0,4
46274,46274,2021-01-22 01:55:03.581,1.0,1.0,4
46284,46284,2021-01-22 01:55:33.581,1.0,1.0,4
46294,46294,2021-01-22 01:56:03.581,1.0,1.0,4
46304,46304,2021-01-22 01:56:33.581,1.0,1.0,4
46314,46314,2021-01-22 01:57:03.581,1.0,1.0,4
46324,46324,2021-01-22 01:57:33.581,1.0,1.0,4
46334,46334,2021-01-22 01:58:03.581,1.0,1.0,4
46344,46344,2021-01-22 01:58:33.581,1.0,1.0,4
46354,46354,2021-01-22 01:59:03.581,1.0,1.0,4
46364,46364,2021-01-22 01:59:33.581,1.0,1.0,4
46374,46374,2021-01-22 02:00:03.581,1.0,1.0,4
46384,46384,2021-01-22 02:00:33.581,1.0,1.0,4
46394,46394,2021-01-22 02:01:03.581,1.0,1.0,4
46404,46404,2021-01-22 02:01:33.581,1.0,1.0,4
46414,46414,2021-01-22 02:02:03.581,1.0,1.0,4
46424,46424,2021-01-22 02:02:33.581,1.0,1.0,4
46434,46434,2021-01-22 02:03:03.581,1.0,1.0,4
46444,46444,2021-01-22 02:03:33.581,1.0,1.0,4
46454,46454,2021-01-22 02:04:03.581,1.0,1.0,4
46464,46464,2021-01-22 02:04:33.581,1.0,1.0,4
46474,46474,2021-01-22 02:05:03.581,1.0,1.0,4
46484,46484,2021-01-22 02:05:33.581,1.0,1.0,4
46494,46494,2021-01-22 02:06:03.581,1.0,1.0,4
46504,46504,2021-01-22 02:06:33.581,1.0,1.0,4
46514,46514,2021-01-22 02:07:03.581,1.0,1.0,4
46524,46524,2021-01-22 02:07:33.581,1.0,1.0,4
46534,46534,2021-01-22 02:08:03.581,1.0,1.0,4
46544,46544,2021-01-22 02:08:33.581,1.0,1.0,4
46554,46554,2021-01-22 02:09:03.581,1.0,1.0,4
46564,46564,2021-01-22 02:09:33.581,1.0,1.0,4
46574,46574,2021-01-22 02:10:03.581,1.0,1.0,4
46584,46584,2021-01-22 02:10:33.581,1.0,1.0,4
46594,46594,2021-01-22 02:11:03.581,1.0,1.0,4
46604,46604,2021-01-22 02:11:33.581,1.0,1.0,4
46614,46614,2021-01-22 02:12:03.581,1.0,1.0,4
46624,46624,2021-01-22 02:12:33.581,1.0,1.0,4
46634,46634,2021-01-22 02:13:03.581,1.0,1.0,4
46644,46644,2021-01-22 02:13:33.581,1.0,1.0,4
46654,46654,2021-01-22 02:14:03.581,1.0,1.0,4
46664,46664,2021-01-22 02:14:33.581,1.0,1.0,4
46674,46674,2021-01-22 02:15:03.581,1.0,1.0,4
46684,46684,2021-01-22 02:15:33.581,1.0,1.0,4
46694,46694,2021-01-22 02:16:03.581,1.0,1.0,4
46704,46704,2021-01-22 02:16:33.581,1.0,1.0,4
46714,46714,2021-01-22 02:17:03.581,1.0,1.0,4
46724,46724,2021-01-22 02:17:33.581,1.0,1.0,4
46734,46734,2021-01-22 02:18:03.581,1.0,1.0,4
46744,46744,2021-01-22 02:18:33.581,1.0,1.0,4
46754,46754,2021-01-22 02:19:03.581,1.0,1.0,4
46764,46764,2021-01-22 02:19:33.581,1.0,1.0,4
46774,46774,2021-01-22 02:20:03.581,1.0,1.0,4
46784,46784,2021-01-22 02:20:33.581,1.0,1.0,4
46794,46794,2021-01-22 02:21:03.581,1.0,1.0,4
46804,46804,2021-01-22 02:21:33.581,1.0,1.0,4
46814,46814,2021-01-22 02:22:03.581,1.0,1.0,4
46824,46824,2021-01-22 02:22:33.581,1.0,1.0,4
46834,46834,2021-01-22 02:23:03.581,1.0,1.0,4
46844,46844,2021-01-22 02:23:33.581,1.0,1.0,4
46854,46854,2021-01-22 02:24:03.581,1.0,1.0,4
46864,46864,2021-01-22 02:24:33.581,1.0,1.0,4
46874,46874,2021-01-22 02:25:03.581,1.0,1.0,4
46884,46884,2021-01-22 02:25:33.581,1.0,1.0,4
46894,46894,2021-01-22 02:26:03.581,1.0,1.0,4
46904,46904,2021-01-22 02:26:33.581,1.0,1.0,4
46914,46914,2021-01-22 02:27:03.581,1.0,1.0,4
46924,46924,2021-01-22 02:27:33.581,1.0,1.0,4
46934,46934,2021-01-22 02:28:03.581,1.0,1.0,4
46944,46944,2021-01-22 02:28:33.581,1.0,1.0,4
46954,46954,2021-01-22 02:29:03.581,1.0,1.0,4
46964,46964,2021-01-22 02:29:33.581,1.0,1.0,4
46974,46974,2021-01-22 02:30:03.581,1.0,1.0,4
46984,46984,2021-01-22 02:30:33.581,1.0,1.0,4
46994,46994,2021-01-22 02:31:03.581,1.0,1.0,4
47004,47004,2021-01-22 02:31:33.581,1.0,1.0,4
47014,47014,2021-01-22 02:32:03.581,1.0,1.0,4
47024,47024,2021-01-22 02:32:33.581,1.0,1.0,4
47034,47034,2021-01-22 02:33:03.581,1.0,1.0,4
47044,47044,2021-01-22 02:33:33.581,1.0,1.0,4
47054,47054,2021-01-22 02:34:03.581,1.0,1.0,4
47064,47064,2021-01-22 02:34:33.581,1.0,1.0,4
47074,47074,2021-01-22 02:35:03.581,1.0,1.0,4
47084,47084,2021-01-22 02:35:33.581,1.0,1.0,4
47094,47094,2021-01-22 02:36:03.581,1.0,1.0,4
47104,47104,2021-01-22 02:36:33.581,1.0,1.0,4
47114,47114,2021-01-22 02:37:03.581,1.0,1.0,4
47124,47124,2021-01-22 02:37:33.581,1.0,1.0,4
47134,47134,2021-01-22 02:38:03.581,1.0,1.0,4
47144,47144,2021-01-22 02:38:33.581,1.0,1.0,4
47154,47154,2021-01-22 02:39:03.581,1.0,1.0,4
47164,47164,2021-01-22 02:39:33.581,1.0,1.0,4
47174,47174,2021-01-22 02:40:03.581,1.0,1.0,4
47184,47184,2021-01-22 02:40:33.581,1.0,1.0,4
47194,47194,2021-01-22 02:41:03.581,1.0,1.0,4
47204,47204,2021-01-22 02:41:33.581,1.0,1.0,4
47214,47214,2021-01-22 02:42:03.581,1.0,1.0,4
47224,47224,2021-01-22 02:42:33.581,1.0,1.0,4
47234,47234,2021-01-22 02:43:03.581,1.0,1.0,4
47244,47244,2021-01-22 02:43:33.581,1.0,1.0,4
47254,47254,2021-01-22 02:44:03.581,1.0,1.0,4
47264,47264,2021-01-22 02:44:33.581,1.0,1.0,4
47274,47274,2021-01-22 02:45:03.581,1.0,1.0,4
47284,47284,2021-01-22 02:45:33.581,1.0,1.0,4
47294,47294,2021-01-22 02:46:03.581,1.0,1.0,4
47304,47304,2021-01-22 02:46:33.581,1.0,1.0,4
47314,47314,2021-01-22 02:47:03.581,1.0,1.0,4
47324,47324,2021-01-22 02:47:33.581,1.0,1.0,4
47334,47334,2021-01-22 02:48:03.581,1.0,1.0,4
47344,47344,2021-01-22 02:48:33.581,1.0,1.0,4
47354,47354,2021-01-22 02:49:03.581,1.0,1.0,4
47364,47364,2021-01-22 02:49:33.581,1.0,1.0,4
47374,47374,2021-01-22 02:50:03.581,1.0,1.0,4
47384,47384,2021-01-22 02:50:33.581,1.0,1.0,4
47394,47394,2021-01-22 02:51:03.581,1.0,1.0,4
47404,47404,2021-01-22 02:51:33.581,1.0,1.0,4
47414,47414,2021-01-22 02:52:03.581,1.0,1.0,4
47424,47424,2021-01-22 02:52:33.581,1.0,1.0,4
47434,47434,2021-01-22 02:53:03.581,1.0,1.0,4
47444,47444,2021-01-22 02:53:33.581,1.0,1.0,4
47454,47454,2021-01-22 02:54:03.581,1.0,1.0,4
47464,47464,2021-01-22 02:54:33.581,1.0,1.0,4
47474,47474,2021-01-22 02:55:03.581,1.0,1.0,4
47484,47484,2021-01-22 02:55:33.581,1.0,1.0,4
47494,47494,2021-01-22 02:56:03.581,1.0,1.0,4
47504,47504,2021-01-22 02:56:33.581,1.0,1.0,4
47514,47514,2021-01-22 02:57:03.581,1.0,1.0,4
47524,47524,2021-01-22 02:57:33.581,1.0,1.0,4
47534,47534,2021-01-22 02:58:03.581,1.0,1.0,4
47544,47544,2021-01-22 02:58:33.581,1.0,1.0,4
47554,47554,2021-01-22 02:59:03.581,1.0,1.0,4
47564,47564,2021-01-22 02:59:33.581,1.0,1.0,4
47574,47574,2021-01-22 03:00:03.581,1.0,1.0,4
47584,47584,2021-01-22 03:00:33.581,1.0,1.0,4
47594,47594,2021-01-22 03:01:03.581,1.0,1.0,4
47604,47604,2021-01-22 03:01:33.581,1.0,1.0,4
47614,47614,2021-01-22 03:02:03.581,1.0,1.0,4
47624,47624,2021-01-22 03:02:33.581,1.0,1.0,4
47634,47634,2021-01-22 03:03:03.581,1.0,1.0,4
47644,47644,2021-01-22 03:03:33.581,1.0,1.0,4
47654,47654,2021-01-22 03:04:03.581,1.0,1.0,4
47664,47664,2021-01-22 03:04:33.581,1.0,1.0,4
47674,47674,2021-01-22 03:05:03.581,1.0,1.0,4
47684,47684,2021-01-22 03:05:33.581,1.0,1.0,4
47694,47694,2021-01-22 03:06:03.581,1.0,1.0,4
47704,47704,2021-01-22 03:06:33.581,1.0,1.0,4
47714,47714,2021-01-22 03:07:03.581,1.0,1.0,4
47724,47724,2021-01-22 03:07:33.581,1.0,1.0,4
47734,47734,2021-01-22 03:08:03.581,1.0,1.0,4
47744,47744,2021-01-22 03:08:33.581,1.0,1.0,4
47754,47754,2021-01-22 03:09:03.581,1.0,1.0,4
47764,47764,2021-01-22 03:09:33.581,1.0,1.0,4
47774,47774,2021-01-22 03:10:03.581,1.0,1.0,4
47784,47784,2021-01-22 03:10:33.581,1.0,1.0,4
47794,47794,2021-01-22 03:11:03.581,1.0,1.0,4
47804,47804,2021-01-22 03:11:33.581,1.0,1.0,4
47814,47814,2021-01-22 03:12:03.581,1.0,1.0,4
47824,47824,2021-01-22 03:12:33.581,1.0,1.0,4
47834,47834,2021-01-22 03:13:03.581,1.0,1.0,4
47844,47844,2021-01-22 03:13:33.581,1.0,1.0,4
47854,47854,2021-01-22 03:14:03.581,1.0,1.0,4
47864,47864,2021-01-22 03:14:33.581,1.0,1.0,4
47874,47874,2021-01-22 03:15:03.581,1.0,1.0,4
47884,47884,2021-01-22 03:15:33.581,1.0,1.0,4
47894,47894,2021-01-22 03:16:03.581,1.0,1.0,4
47904,47904,2021-01-22 03:16:33.581,1.0,1.0,4
47914,47914,2021-01-22 03:17:03.581,1.0,1.0,4
47924,47924,2021-01-22 03:17:33.581,1.0,1.0,4
47934,47934,2021-01-22 03:18:03.581,1.0,1.0,4
47944,47944,2021-01-22 03:18:33.581,1.0,1.0,4
47954,47954,2021-01-22 03:19:03.581,1.0,1.0,4
47964,47964,2021-01-22 03:19:33.581,1.0,1.0,4
47974,47974,2021-01-22 03:20:03.581,1.0,1.0,4
47984,47984,2021-01-22 03:20:33.581,1.0,1.0,4
47994,47994,2021-01-22 03:21:03.581,1.0,1.0,4
48004,48004,2021-01-22 03:21:33.581,1.0,1.0,4
48014,48014,2021-01-22 03:22:03.581,1.0,1.0,4
48024,48024,2021-01-22 03:22:33.581,1.0,1.0,4
48034,48034,2021-01-22 03:23:03.581,1.0,1.0,4
48044,48044,2021-01-22 03:23:33.581,1.0,1.0,4
48054,48054,2021-01-22 03:24:03.581,1.0,1.0,4
48064,48064,2021-01-22 03:24:33.581,1.0,1.0,4
48074,48074,2021-01-22 03:25:03.581,1.0,1.0,4
48084,48084,2021-01-22 03:25:33.581,1.0,1.0,4
48094,48094,2021-01-22 03:26:03.581,1.0,1.0,4
48104,48104,2021-01-22 03:26:33.581,1.0,1.0,4
48114,48114,2021-01-22 03:27:03.581,1.0,1.0,4
48124,48124,2021-01-22 03:27:33.581,1.0,1.0,4
48134,48134,2021-01-22 03:28:03.581,1.0,1.0,4
48144,48144,2021-01-22 03:28:33.581,1.0,1.0,4
48154,48154,2021-01-22 03:29:03.581,1.0,1.0,4
48164,48164,2021-01-22 03:29:33.581,1.0,1.0,4
48174,48174,2021-01-22 03:30:03.581,1.0,1.0,4
48184,48184,2021-01-22 03:30:33.581,1.0,1.0,4
48194,48194,2021-01-22 03:31:03.581,1.0,1.0,4
48204,48204,2021-01-22 03:31:33.581,1.0,1.0,4
48214,48214,2021-01-22 03:32:03.581,1.0,1.0,4
48224,48224,2021-01-22 03:32:33.581,1.0,1.0,4
48234,48234,2021-01-22 03:33:03.581,1.0,1.0,4
48244,48244,2021-01-22 03:33:33.581,1.0,1.0,4
48254,48254,2021-01-22 03:34:03.581,1.0,1.0,4
48264,48264,2021-01-22 03:34:33.581,1.0,1.0,4
48274,48274,2021-01-22 03:35:03.581,1.0,1.0,4
48284,48284,2021-01-22 03:35:33.581,1.0,1.0,4
48294,48294,2021-01-22 03:36:03.581,1.0,1.0,4
48304,48304,2021-01-22 03:36:33.581,1.0,1.0,4
48314,48314,2021-01-22 03:37:03.581,1.0,1.0,4
48324,48324,2021-01-22 03:37:33.581,1.0,1.0,4
48334,48334,2021-01-22 03:38:03.581,1.0,1.0,4
48344,48344,2021-01-22 03:38:33.581,1.0,1.0,4
48354,48354,2021-01-22 03:39:03.581,1.0,1.0,4
48364,48364,2021-01-22 03:39:33.581,1.0,1.0,4
48374,48374,2021-01-22 03:40:03.581,1.0,1.0,4
48384,48384,2021-01-22 03:40:33.581,1.0,1.0,4
48394,48394,2021-01-22 03:41:03.581,1.0,1.0,4
48404,48404,2021-01-22 03:41:33.581,1.0,1.0,4
48414,48414,2021-01-22 03:42:03.581,1.0,1.0,4
48424,48424,2021-01-22 03:42:33.581,1.0,1.0,4
48434,48434,2021-01-22 03:43:03.581,1.0,1.0,4
48444,48444,2021-01-22 03:43:33.581,1.0,1.0,4
48454,48454,2021-01-22 03:44:03.581,1.0,1.0,4
48464,48464,2021-01-22 03:44:33.581,1.0,1.0,4
48474,48474,2021-01-22 03:45:03.581,1.0,1.0,4
48484,48484,2021-01-22 03:45:33.581,1.0,1.0,4
48494,48494,2021-01-22 03:46:03.581,1.0,1.0,4
48504,48504,2021-01-22 03:46:33.581,1.0,1.0,4
48514,48514,2021-01-22 03:47:03.581,1.0,1.0,4
48524,48524,2021-01-22 03:47:33.581,1.0,1.0,4
48534,48534,2021-01-22 03:48:03.581,1.0,1.0,4
48544,48544,2021-01-22 03:48:33.581,1.0,1.0,4
48554,48554,2021-01-22 03:49:03.581,1.0,1.0,4
48564,48564,2021-01-22 03:49:33.581,1.0,1.0,4
48574,48574,2021-01-22 03:50:03.581,1.0,1.0,4
48584,48584,2021-01-22 03:50:33.581,1.0,1.0,4
48594,48594,2021-01-22 03:51:03.581,1.0,1.0,4
48604,48604,2021-01-22 03:51:33.581,1.0,1.0,4
48614,48614,2021-01-22 03:52:03.581,1.0,1.0,4
48624,48624,2021-01-22 03:52:33.581,1.0,1.0,4
48634,48634,2021-01-22 03:53:03.581,1.0,1.0,4
48644,48644,2021-01-22 03:53:33.581,1.0,1.0,4
48654,48654,2021-01-22 03:54:03.581,1.0,1.0,4
48664,48664,2021-01-22 03:54:33.581,1.0,1.0,4
48674,48674,2021-01-22 03:55:03.581,1.0,1.0,4
48684,48684,2021-01-22 03:55:33.581,1.0,1.0,4
48694,48694,2021-01-22 03:56:03.581,1.0,1.0,4
48704,48704,2021-01-22 03:56:33.581,1.0,1.0,4
48714,48714,2021-01-22 03:57:03.581,1.0,1.0,4
48724,48724,2021-01-22 03:57:33.581,1.0,1.0,4
48734,48734,2021-01-22 03:58:03.581,1.0,1.0,4
48744,48744,2021-01-22 03:58:33.581,1.0,1.0,4
48754,48754,2021-01-22 03:59:03.581,1.0,1.0,4
48764,48764,2021-01-22 03:59:33.581,1.0,1.0,4
48774,48774,2021-01-22 04:00:03.581,1.0,1.0,4
48784,48784,2021-01-22 04:00:33.581,1.0,1.0,4
48794,48794,2021-01-22 04:01:03.581,1.0,1.0,4
48804,48804,2021-01-22 04:01:33.581,1.0,1.0,4
48814,48814,2021-01-22 04:02:03.581,1.0,1.0,4
48824,48824,2021-01-22 04:02:33.581,1.0,1.0,4
48834,48834,2021-01-22 04:03:03.581,1.0,1.0,4
48844,48844,2021-01-22 04:03:33.581,1.0,1.0,4
48854,48854,2021-01-22 04:04:03.581,1.0,1.0,4
48864,48864,2021-01-22 04:04:33.581,1.0,1.0,4
48874,48874,2021-01-22 04:05:03.581,1.0,1.0,4
48884,48884,2021-01-22 04:05:33.581,1.0,1.0,4
48894,48894,2021-01-22 04:06:03.581,1.0,1.0,4
48904,48904,2021-01-22 04:06:33.581,1.0,1.0,4
48914,48914,2021-01-22 04:07:03.581,1.0,1.0,4
48924,48924,2021-01-22 04:07:33.581,1.0,1.0,4
48934,48934,2021-01-22 04:08:03.581,1.0,1.0,4
48944,48944,2021-01-22 04:08:33.581,1.0,1.0,4
48954,48954,2021-01-22 04:09:03.581,1.0,1.0,4
48964,48964,2021-01-22 04:09:33.581,1.0,1.0,4
48974,48974,2021-01-22 04:10:03.581,1.0,1.0,4
48984,48984,2021-01-22 04:10:33.581,1.0,1.0,4
48994,48994,2021-01-22 04:11:03.581,1.0,1.0,4
49004,49004,2021-01-22 04:11:33.581,1.0,1.0,4
49014,49014,2021-01-22 04:12:03.581,1.0,1.0,4
49024,49024,2021-01-22 04:12:33.581,1.0,1.0,4
49034,49034,2021-01-22 04:13:03.581,1.0,1.0,4
49044,49044,2021-01-22 04:13:33.581,1.0,1.0,4
49054,49054,2021-01-22 04:14:03.581,1.0,1.0,4
49064,49064,2021-01-22 04:14:33.581,1.0,1.0,4
49074,49074,2021-01-22 04:15:03.581,1.0,1.0,4
49084,49084,2021-01-22 04:15:33.581,1.0,1.0,4
49094,49094,2021-01-22 04:16:03.581,1.0,1.0,4
49104,49104,2021-01-22 04:16:33.581,1.0,1.0,4
49114,49114,2021-01-22 04:17:03.581,1.0,1.0,4
49124,49124,2021-01-22 04:17:33.581,1.0,1.0,4
49134,49134,2021-01-22 04:18:03.581,1.0,1.0,4
49144,49144,2021-01-22 04:18:33.581,1.0,1.0,4
49154,49154,2021-01-22 04:19:03.581,1.0,1.0,4
49164,49164,2021-01-22 04:19:33.581,1.0,1.0,4
49174,49174,2021-01-22 04:20:03.581,1.0,1.0,4
49184,49184,2021-01-22 04:20:33.581,1.0,1.0,4
49194,49194,2021-01-22 04:21:03.581,1.0,1.0,4
49204,49204,2021-01-22 04:21:33.581,1.0,1.0,4
49214,49214,2021-01-22 04:22:03.581,1.0,1.0,4
49224,49224,2021-01-22 04:22:33.581,1.0,1.0,4
49234,49234,2021-01-22 04:23:03.581,1.0,1.0,4
49244,49244,2021-01-22 04:23:33.581,1.0,1.0,4
49254,49254,2021-01-22 04:24:03.581,1.0,1.0,4
49264,49264,2021-01-22 04:24:33.581,1.0,1.0,4
49274,49274,2021-01-22 04:25:03.581,1.0,1.0,4
49284,49284,2021-01-22 04:25:33.581,1.0,1.0,4
49294,49294,2021-01-22 04:26:03.581,1.0,1.0,4
49304,49304,2021-01-22 04:26:33.581,1.0,1.0,4
49314,49314,2021-01-22 04:27:03.581,1.0,1.0,4
49324,49324,2021-01-22 04:27:33.581,1.0,1.0,4
49334,49334,2021-01-22 04:28:03.581,1.0,1.0,4
49344,49344,2021-01-22 04:28:33.581,1.0,1.0,4
49354,49354,2021-01-22 04:29:03.581,1.0,1.0,4
49364,49364,2021-01-22 04:29:33.581,1.0,1.0,4
49374,49374,2021-01-22 04:30:03.581,1.0,1.0,4
49384,49384,2021-01-22 04:30:33.581,1.0,1.0,4
49394,49394,2021-01-22 04:31:03.581,1.0,1.0,4
49404,49404,2021-01-22 04:31:33.581,1.0,1.0,4
49414,49414,2021-01-22 04:32:03.581,1.0,1.0,4
49424,49424,2021-01-22 04:32:33.581,1.0,1.0,4
49434,49434,2021-01-22 04:33:03.581,1.0,1.0,4
49444,49444,2021-01-22 04:33:33.581,1.0,1.0,4
49454,49454,2021-01-22 04:34:03.581,1.0,1.0,4
49464,49464,2021-01-22 04:34:33.581,1.0,1.0,4
49474,49474,2021-01-22 04:35:03.581,1.0,1.0,4
49484,49484,2021-01-22 04:35:33.581,1.0,1.0,4
49494,49494,2021-01-22 04:36:03.581,1.0,1.0,4
49504,49504,2021-01-22 04:36:33.581,1.0,1.0,4
49514,49514,2021-01-22 04:37:03.581,1.0,1.0,4
49524,49524,2021-01-22 04:37:33.581,1.0,1.0,4
49534,49534,2021-01-22 04:38:03.581,1.0,1.0,4
49544,49544,2021-01-22 04:38:33.581,1.0,1.0,4
49554,49554,2021-01-22 04:39:03.581,1.0,1.0,4
49564,49564,2021-01-22 04:39:33.581,1.0,1.0,4
49574,49574,2021-01-22 04:40:03.581,1.0,1.0,4
49584,49584,2021-01-22 04:40:33.581,1.0,1.0,4
49594,49594,2021-01-22 04:41:03.581,1.0,1.0,4
49604,49604,2021-01-22 04:41:33.581,1.0,1.0,4
49614,49614,2021-01-22 04:42:03.581,1.0,1.0,4
49624,49624,2021-01-22 04:42:33.581,1.0,1.0,4
49634,49634,2021-01-22 04:43:03.581,1.0,1.0,4
49644,49644,2021-01-22 04:43:33.581,1.0,1.0,4
49654,49654,2021-01-22 04:44:03.581,1.0,1.0,4
49664,49664,2021-01-22 04:44:33.581,1.0,1.0,4
49674,49674,2021-01-22 04:45:03.581,1.0,1.0,4
49684,49684,2021-01-22 04:45:33.581,1.0,1.0,4
49694,49694,2021-01-22 04:46:03.581,1.0,1.0,4
49704,49704,2021-01-22 04:46:33.581,1.0,1.0,4
49714,49714,2021-01-22 04:47:03.581,1.0,1.0,4
49724,49724,2021-01-22 04:47:33.581,1.0,1.0,4
49734,49734,2021-01-22 04:48:03.581,1.0,1.0,4
49744,49744,2021-01-22 04:48:33.581,1.0,1.0,4
49754,49754,2021-01-22 04:49:03.581,1.0,1.0,4
49764,49764,2021-01-22 04:49:33.581,1.0,1.0,4
49774,49774,2021-01-22 04:50:03.581,1.0,1.0,4
49784,49784,2021-01-22 04:50:33.581,1.0,1.0,4
49794,49794,2021-01-22 04:51:03.581,1.0,1.0,4
49804,49804,2021-01-22 04:51:33.581,1.0,1.0,4
49814,49814,2021-01-22 04:52:03.581,1.0,1.0,4
49824,49824,2021-01-22 04:52:33.581,1.0,1.0,4
49834,49834,2021-01-22 04:53:03.581,1.0,1.0,4
49844,49844,2021-01-22 04:53:33.581,1.0,1.0,4
49854,49854,2021-01-22 04:54:03.581,1.0,1.0,4
49864,49864,2021-01-22 04:54:33.581,1.0,1.0,4
49874,49874,2021-01-22 04:55:03.581,1.0,1.0,4
49884,49884,2021-01-22 04:55:33.581,1.0,1.0,4
49894,49894,2021-01-22 04:56:03.581,1.0,1.0,4
49904,49904,2021-01-22 04:56:33.581,1.0,1.0,4
49914,49914,2021-01-22 04:57:03.581,1.0,1.0,4
49924,49924,2021-01-22 04:57:33.581,1.0,1.0,4
49934,49934,2021-01-22 04:58:03.581,1.0,1.0,4
49944,49944,2021-01-22 04:58:33.581,1.0,1.0,4
49954,49954,2021-01-22 04:59:03.581,1.0,1.0,4
49964,49964,2021-01-22 04:59:33.581,1.0,1.0,4
49974,49974,2021-01-22 05:00:03.581,1.0,1.0,4
49984,49984,2021-01-22 05:00:33.581,1.0,1.0,4
49994,49994,2021-01-22 05:01:03.581,1.0,1.0,4
50004,50004,2021-01-22 05:01:33.581,1.0,1.0,4
50014,50014,2021-01-22 05:02:03.581,1.0,1.0,4
50024,50024,2021-01-22 05:02:33.581,1.0,1.0,4
50034,50034,2021-01-22 05:03:03.581,1.0,1.0,4
50044,50044,2021-01-22 05:03:33.581,1.0,1.0,4
50054,50054,2021-01-22 05:04:03.581,1.0,1.0,4
50064,50064,2021-01-22 05:04:33.581,1.0,1.0,4
50074,50074,2021-01-22 05:05:03.581,1.0,1.0,4
50084,50084,2021-01-22 05:05:33.581,1.0,1.0,4
50094,50094,2021-01-22 05:06:03.581,1.0,1.0,4
50104,50104,2021-01-22 05:06:33.581,1.0,1.0,4
50114,50114,2021-01-22 05:07:03.581,1.0,1.0,4
50124,50124,2021-01-22 05:07:33.581,1.0,1.0,4
50134,50134,2021-01-22 05:08:03.581,1.0,1.0,4
50144,50144,2021-01-22 05:08:33.581,1.0,1.0,4
50154,50154,2021-01-22 05:09:03.581,1.0,1.0,4
50164,50164,2021-01-22 05:09:33.581,1.0,1.0,4
50174,50174,2021-01-22 05:10:03.581,1.0,1.0,4
50184,50184,2021-01-22 05:10:33.581,1.0,1.0,4
50194,50194,2021-01-22 05:11:03.581,1.0,1.0,4
50204,50204,2021-01-22 05:11:33.581,1.0,1.0,4
50214,50214,2021-01-22 05:12:03.581,1.0,1.0,4
50224,50224,2021-01-22 05:12:33.581,1.0,1.0,4
50234,50234,2021-01-22 05:13:03.581,1.0,1.0,4
50244,50244,2021-01-22 05:13:33.581,1.0,1.0,4
50254,50254,2021-01-22 05:14:03.581,1.0,1.0,4
50264,50264,2021-01-22 05:14:33.581,1.0,1.0,4
50274,50274,2021-01-22 05:15:03.581,1.0,1.0,4
50284,50284,2021-01-22 05:15:33.581,1.0,1.0,4
50294,50294,2021-01-22 05:16:03.581,1.0,1.0,4
50304,50304,2021-01-22 05:16:33.581,1.0,1.0,4
50314,50314,2021-01-22 05:17:03.581,1.0,1.0,4
50324,50324,2021-01-22 05:17:33.581,1.0,1.0,4
50334,50334,2021-01-22 05:18:03.581,1.0,1.0,4
50344,50344,2021-01-22 05:18:33.581,1.0,1.0,4
50354,50354,2021-01-22 05:19:03.581,1.0,1.0,4
50364,50364,2021-01-22 05:19:33.581,1.0,1.0,4
50374,50374,2021-01-22 05:20:03.581,1.0,1.0,4
50384,50384,2021-01-22 05:20:33.581,1.0,1.0,4
50394,50394,2021-01-22 05:21:03.581,1.0,1.0,4
50404,50404,2021-01-22 05:21:33.581,1.0,1.0,4
50414,50414,2021-01-22 05:22:03.581,1.0,1.0,4
50424,50424,2021-01-22 05:22:33.581,1.0,1.0,4
50434,50434,2021-01-22 05:23:03.581,1.0,1.0,4
50444,50444,2021-01-22 05:23:33.581,1.0,1.0,4
50454,50454,2021-01-22 05:24:03.581,1.0,1.0,4
50464,50464,2021-01-22 05:24:33.581,1.0,1.0,4
50474,50474,2021-01-22 05:25:03.581,1.0,1.0,4
50484,50484,2021-01-22 05:25:33.581,1.0,1.0,4
50494,50494,2021-01-22 05:26:03.581,1.0,1.0,4
50504,50504,2021-01-22 05:26:33.581,1.0,1.0,4
50514,50514,2021-01-22 05:27:03.581,1.0,1.0,4
50524,50524,2021-01-22 05:27:33.581,1.0,1.0,4
50534,50534,2021-01-22 05:28:03.581,1.0,1.0,4
50544,50544,2021-01-22 05:28:33.581,1.0,1.0,4
50554,50554,2021-01-22 05:29:03.581,1.0,1.0,4
50564,50564,2021-01-22 05:29:33.581,1.0,1.0,4
50574,50574,2021-01-22 05:30:03.581,1.0,1.0,4
50584,50584,2021-01-22 05:30:33.581,1.0,1.0,4
50594,50594,2021-01-22 05:31:03.581,1.0,1.0,4
50604,50604,2021-01-22 05:31:33.581,1.0,1.0,4
50614,50614,2021-01-22 05:32:03.581,1.0,1.0,4
50624,50624,2021-01-22 05:32:33.581,1.0,1.0,4
50634,50634,2021-01-22 05:33:03.581,1.0,1.0,4
50644,50644,2021-01-22 05:33:33.581,1.0,1.0,4
50654,50654,2021-01-22 05:34:03.581,1.0,1.0,4
50664,50664,2021-01-22 05:34:33.581,1.0,1.0,4
50674,50674,2021-01-22 05:35:03.581,1.0,1.0,4
50684,50684,2021-01-22 05:35:33.581,1.0,1.0,4
50694,50694,2021-01-22 05:36:03.581,1.0,1.0,4
50704,50704,2021-01-22 05:36:33.581,1.0,1.0,4
50714,50714,2021-01-22 05:37:03.581,1.0,1.0,4
50724,50724,2021-01-22 05:37:33.581,1.0,1.0,4
50734,50734,2021-01-22 05:38:03.581,1.0,1.0,4
50744,50744,2021-01-22 05:38:33.581,1.0,1.0,4
50754,50754,2021-01-22 05:39:03.581,1.0,1.0,4
50764,50764,2021-01-22 05:39:33.581,1.0,1.0,4
50774,50774,2021-01-22 05:40:03.581,1.0,1.0,4
50784,50784,2021-01-22 05:40:33.581,1.0,1.0,4
50794,50794,2021-01-22 05:41:03.581,1.0,1.0,4
50804,50804,2021-01-22 05:41:33.581,1.0,1.0,4
50814,50814,2021-01-22 05:42:03.581,1.0,1.0,4
50824,50824,2021-01-22 05:42:33.581,1.0,1.0,4
50834,50834,2021-01-22 05:43:03.581,1.0,1.0,4
50844,50844,2021-01-22 05:43:33.581,1.0,1.0,4
50854,50854,2021-01-22 05:44:03.581,1.0,1.0,4
50864,50864,2021-01-22 05:44:33.581,1.0,1.0,4
50874,50874,2021-01-22 05:45:03.581,1.0,1.0,4
50884,50884,2021-01-22 05:45:33.581,1.0,1.0,4
50894,50894,2021-01-22 05:46:03.581,1.0,1.0,4
50904,50904,2021-01-22 05:46:33.581,1.0,1.0,4
50914,50914,2021-01-22 05:47:03.581,1.0,1.0,4
50924,50924,2021-01-22 05:47:33.581,1.0,1.0,4
50934,50934,2021-01-22 05:48:03.581,1.0,1.0,4
50944,50944,2021-01-22 05:48:33.581,1.0,1.0,4
50954,50954,2021-01-22 05:49:03.581,1.0,1.0,4
50964,50964,2021-01-22 05:49:33.581,1.0,1.0,4
50974,50974,2021-01-22 05:50:03.581,1.0,1.0,4
50984,50984,2021-01-22 05:50:33.581,1.0,1.0,4
50994,50994,2021-01-22 05:51:03.581,1.0,1.0,4
51004,51004,2021-01-22 05:51:33.581,1.0,1.0,4
51014,51014,2021-01-22 05:52:03.581,1.0,1.0,4
51024,51024,2021-01-22 05:52:33.581,1.0,1.0,4
51034,51034,2021-01-22 05:53:03.581,1.0,1.0,4
51044,51044,2021-01-22 05:53:33.581,1.0,1.0,4
51054,51054,2021-01-22 05:54:03.581,1.0,1.0,4
51064,51064,2021-01-22 05:54:33.581,1.0,1.0,4
51074,51074,2021-01-22 05:55:03.581,1.0,1.0,4
51084,51084,2021-01-22 05:55:33.581,1.0,1.0,4
51094,51094,2021-01-22 05:56:03.581,1.0,1.0,4
51104,51104,2021-01-22 05:56:33.581,1.0,1.0,4
51114,51114,2021-01-22 05:57:03.581,1.0,1.0,4
51124,51124,2021-01-22 05:57:33.581,1.0,1.0,4
51134,51134,2021-01-22 05:58:03.581,1.0,1.0,4
51144,51144,2021-01-22 05:58:33.581,1.0,1.0,4
51154,51154,2021-01-22 05:59:03.581,1.0,1.0,4
51164,51164,2021-01-22 05:59:33.581,1.0,1.0,4
51174,51174,2021-01-22 06:00:03.581,1.0,1.0,4
51184,51184,2021-01-22 06:00:33.581,1.0,1.0,4
51194,51194,2021-01-22 06:01:03.581,1.0,1.0,4
51204,51204,2021-01-22 06:01:33.581,1.0,1.0,4
51214,51214,2021-01-22 06:02:03.581,1.0,1.0,4
51224,51224,2021-01-22 06:02:33.581,1.0,1.0,4
51234,51234,2021-01-22 06:03:03.581,1.0,1.0,4
51244,51244,2021-01-22 06:03:33.581,1.0,1.0,4
51254,51254,2021-01-22 06:04:03.581,1.0,1.0,4
51264,51264,2021-01-22 06:04:33.581,1.0,1.0,4
51274,51274,2021-01-22 06:05:03.581,1.0,1.0,4
51284,51284,2021-01-22 06:05:33.581,1.0,1.0,4
51294,51294,2021-01-22 06:06:03.581,1.0,1.0,4
51304,51304,2021-01-22 06:06:33.581,1.0,1.0,4
51314,51314,2021-01-22 06:07:03.581,1.0,1.0,4
51324,51324,2021-01-22 06:07:33.581,1.0,1.0,4
51334,51334,2021-01-22 06:08:03.581,1.0,1.0,4
51344,51344,2021-01-22 06:08:33.581,1.0,1.0,4
51354,51354,2021-01-22 06:09:03.581,1.0,1.0,4
51364,51364,2021-01-22 06:09:33.581,1.0,1.0,4
51374,51374,2021-01-22 06:10:03.581,1.0,1.0,4
51384,51384,2021-01-22 06:10:33.581,1.0,1.0,4
51394,51394,2021-01-22 06:11:03.581,1.0,1.0,4
51404,51404,2021-01-22 06:11:33.581,1.0,1.0,4
51414,51414,2021-01-22 06:12:03.581,1.0,1.0,4
51424,51424,2021-01-22 06:12:33.581,1.0,1.0,4
51434,51434,2021-01-22 06:13:03.581,1.0,1.0,4
51444,51444,2021-01-22 06:13:33.581,1.0,1.0,4
51454,51454,2021-01-22 06:14:03.581,1.0,1.0,4
51464,51464,2021-01-22 06:14:33.581,1.0,1.0,4
51474,51474,2021-01-22 06:15:03.581,1.0,1.0,4
51484,51484,2021-01-22 06:15:33.581,1.0,1.0,4
51494,51494,2021-01-22 06:16:03.581,1.0,1.0,4
51504,51504,2021-01-22 06:16:33.581,1.0,1.0,4
51514,51514,2021-01-22 06:17:03.581,1.0,1.0,4
51524,51524,2021-01-22 06:17:33.581,1.0,1.0,4
51534,51534,2021-01-22 06:18:03.581,1.0,1.0,4
51544,51544,2021-01-22 06:18:33.581,1.0,1.0,4
51554,51554,2021-01-22 06:19:03.581,1.0,1.0,4
51564,51564,2021-01-22 06:19:33.581,1.0,1.0,4
51574,51574,2021-01-22 06:20:03.581,1.0,1.0,4
51584,51584,2021-01-22 06:20:33.581,1.0,1.0,4
51594,51594,2021-01-22 06:21:03.581,1.0,1.0,4
51604,51604,2021-01-22 06:21:33.581,1.0,1.0,4
51614,51614,2021-01-22 06:22:03.581,1.0,1.0,4
51624,51624,2021-01-22 06:22:33.581,1.0,1.0,4
51634,51634,2021-01-22 06:23:03.581,1.0,1.0,4
51644,51644,2021-01-22 06:23:33.581,1.0,1.0,4
51654,51654,2021-01-22 06:24:03.581,1.0,1.0,4
51664,51664,2021-01-22 06:24:33.581,1.0,1.0,4
51674,51674,2021-01-22 06:25:03.581,1.0,1.0,4
51684,51684,2021-01-22 06:25:33.581,1.0,1.0,4
51694,51694,2021-01-22 06:26:03.581,1.0,1.0,4
51704,51704,2021-01-22 06:26:33.581,1.0,1.0,4
51714,51714,2021-01-22 06:27:03.581,1.0,1.0,4
51724,51724,2021-01-22 06:27:33.581,1.0,1.0,4
51734,51734,2021-01-22 06:28:03.581,1.0,1.0,4
51744,51744,2021-01-22 06:28:33.581,1.0,1.0,4
51754,51754,2021-01-22 06:29:03.581,1.0,1.0,4
51764,51764,2021-01-22 06:29:33.581,1.0,1.0,4
51774,51774,2021-01-22 06:30:03.581,1.0,1.0,4
51784,51784,2021-01-22 06:30:33.581,1.0,1.0,4
51794,51794,2021-01-22 06:31:03.581,1.0,1.0,4
51804,51804,2021-01-22 06:31:33.581,1.0,1.0,4
51814,51814,2021-01-22 06:32:03.581,1.0,1.0,4
51824,51824,2021-01-22 06:32:33.581,1.0,1.0,4
51834,51834,2021-01-22 06:33:03.581,1.0,1.0,4
51844,51844,2021-01-22 06:33:33.581,1.0,1.0,4
51854,51854,2021-01-22 06:34:03.581,1.0,1.0,4
51864,51864,2021-01-22 06:34:33.581,1.0,1.0,4
51874,51874,2021-01-22 06:35:03.581,1.0,1.0,4
51884,51884,2021-01-22 06:35:33.581,1.0,1.0,4
51894,51894,2021-01-22 06:36:03.581,1.0,1.0,4
51904,51904,2021-01-22 06:36:33.581,1.0,1.0,4
51914,51914,2021-01-22 06:37:03.581,1.0,1.0,4
51924,51924,2021-01-22 06:37:33.581,1.0,1.0,4
51934,51934,2021-01-22 06:38:03.581,1.0,1.0,4
51944,51944,2021-01-22 06:38:33.581,1.0,1.0,4
51954,51954,2021-01-22 06:39:03.581,1.0,1.0,4
51964,51964,2021-01-22 06:39:33.581,1.0,1.0,4
51974,51974,2021-01-22 06:40:03.581,1.0,1.0,4
51984,51984,2021-01-22 06:40:33.581,1.0,1.0,4
51994,51994,2021-01-22 06:41:03.581,1.0,1.0,4
52004,52004,2021-01-22 06:41:33.581,1.0,1.0,4
52014,52014,2021-01-22 06:42:03.581,1.0,1.0,4
52024,52024,2021-01-22 06:42:33.581,1.0,1.0,4
52034,52034,2021-01-22 06:43:03.581,1.0,1.0,4
