,Unnamed: 0,time,preds,step
44366,44366,2020-12-02 15:42:19.592,19.57679,6
44376,44376,2020-12-02 15:42:49.592,18.47106,6
44386,44386,2020-12-02 15:43:19.592,16.46989,6
44396,44396,2020-12-02 15:43:49.592,15.528573999999999,6
44406,44406,2020-12-02 15:44:19.592,19.131058,6
44416,44416,2020-12-02 15:44:49.592,19.595985,6
44426,44426,2020-12-02 15:45:19.592,19.43329,6
44436,44436,2020-12-02 15:45:49.592,21.043617,6
44446,44446,2020-12-02 15:46:19.592,20.214146,6
44456,44456,2020-12-02 15:46:49.592,20.381135999999998,6
44466,44466,2020-12-02 15:47:19.592,17.811134,6
44476,44476,2020-12-02 15:47:49.592,17.34459,6
44486,44486,2020-12-02 15:48:19.592,19.533184,6
44496,44496,2020-12-02 15:48:49.592,20.325685999999997,6
44506,44506,2020-12-02 15:49:19.592,20.725965,6
44516,44516,2020-12-02 15:49:49.592,17.761606,6
44526,44526,2020-12-02 15:50:19.592,15.487179000000001,6
44536,44536,2020-12-02 15:50:49.592,15.8190975,6
44546,44546,2020-12-02 15:51:19.592,17.349606,6
44556,44556,2020-12-02 15:51:49.592,20.839357,6
44566,44566,2020-12-02 15:52:19.592,22.018175,6
44576,44576,2020-12-02 15:52:49.592,22.234129,6
44586,44586,2020-12-02 15:53:19.592,24.227895999999998,6
44596,44596,2020-12-02 15:53:49.592,24.918454999999998,6
44606,44606,2020-12-02 15:54:19.592,24.594818,6
44616,44616,2020-12-02 15:54:49.592,24.638711999999998,6
44626,44626,2020-12-02 15:55:19.592,24.092983,6
44636,44636,2020-12-02 15:55:49.592,22.101154,6
44646,44646,2020-12-02 15:56:19.592,20.500288,6
44656,44656,2020-12-02 15:56:49.592,22.998398,6
44666,44666,2020-12-02 15:57:19.592,23.831615,6
44676,44676,2020-12-02 15:57:49.592,23.821351999999997,6
44686,44686,2020-12-02 15:58:19.592,24.845093,6
44696,44696,2020-12-02 15:58:49.592,25.461579999999998,6
44706,44706,2020-12-02 15:59:19.592,26.854763000000002,6
44716,44716,2020-12-02 15:59:49.592,27.35817,6
44726,44726,2020-12-02 16:00:19.592,29.53449,6
44736,44736,2020-12-02 16:00:49.592,31.599503000000002,6
44746,44746,2020-12-02 16:01:19.592,31.401546000000003,6
44756,44756,2020-12-02 16:01:49.592,29.310633000000003,6
44766,44766,2020-12-02 16:02:19.592,27.255990999999998,6
44776,44776,2020-12-02 16:02:49.592,30.58018,6
44786,44786,2020-12-02 16:03:19.592,30.040764000000003,6
44796,44796,2020-12-02 16:03:49.592,33.323425,6
44806,44806,2020-12-02 16:04:19.592,36.266735,6
44816,44816,2020-12-02 16:04:49.592,36.150078,6
44826,44826,2020-12-02 16:05:19.592,35.90906,6
44836,44836,2020-12-02 16:05:49.592,38.62008,6
44846,44846,2020-12-02 16:06:19.592,41.47679,6
44856,44856,2020-12-02 16:06:49.592,38.68111,6
44866,44866,2020-12-02 16:07:19.592,39.92742,6
44876,44876,2020-12-02 16:07:49.592,43.98945,6
44886,44886,2020-12-02 16:08:19.592,45.526768,6
44896,44896,2020-12-02 16:08:49.592,45.828323,6
44906,44906,2020-12-02 16:09:19.592,49.63854,6
44916,44916,2020-12-02 16:09:49.592,49.473175,6
44926,44926,2020-12-02 16:10:19.592,53.900017000000005,6
44936,44936,2020-12-02 16:10:49.592,58.0293,6
44946,44946,2020-12-02 16:11:19.592,57.480681999999995,6
44956,44956,2020-12-02 16:11:49.592,59.723071999999995,6
44966,44966,2020-12-02 16:12:19.592,55.700157,6
44976,44976,2020-12-02 16:12:49.592,58.871306999999995,6
44986,44986,2020-12-02 16:13:19.592,65.76306,6
44996,44996,2020-12-02 16:13:49.592,66.89888,6
45006,45006,2020-12-02 16:14:19.592,72.70965,6
45016,45016,2020-12-02 16:14:49.592,77.08348000000001,6
45026,45026,2020-12-02 16:15:19.592,79.3833,6
45036,45036,2020-12-02 16:15:49.592,86.9508,6
45046,45046,2020-12-02 16:16:19.592,94.77441,6
45056,45056,2020-12-02 16:16:49.592,107.87451999999999,6
45066,45066,2020-12-02 16:17:19.592,106.39695,6
45076,45076,2020-12-02 16:17:49.592,113.40624,6
45086,45086,2020-12-02 16:18:19.592,122.80856000000001,6
45096,45096,2020-12-02 16:18:49.592,121.19414499999999,6
45106,45106,2020-12-02 16:19:19.592,136.42635,6
45116,45116,2020-12-02 16:19:49.592,159.48077,6
45126,45126,2020-12-02 16:20:19.592,155.05754,6
45136,45136,2020-12-02 16:20:49.592,172.8852,6
45146,45146,2020-12-02 16:21:19.592,220.03638999999998,6
45156,45156,2020-12-02 16:21:49.592,278.66812000000004,6
45166,45166,2020-12-02 16:22:19.592,279.36737,6
45176,45176,2020-12-02 16:22:49.592,341.24356,6
45186,45186,2020-12-02 16:23:19.592,444.9064,6
45196,45196,2020-12-02 16:23:49.592,482.8277,6
45206,45206,2020-12-02 16:24:19.592,667.9056,6
45216,45216,2020-12-02 16:24:49.592,977.14905,6
45226,45226,2020-12-02 16:25:19.592,978.9432,6
45236,45236,2020-12-02 16:25:49.592,1088.0609,6
45246,45246,2020-12-02 16:26:19.592,261.0805,6
45256,45256,2020-12-02 16:26:49.592,166.5252,6
45266,45266,2020-12-02 16:27:19.592,63.584442,6
45276,45276,2020-12-02 16:27:49.592,30.609753,6
45286,45286,2020-12-02 16:28:19.592,20.549267,6
45296,45296,2020-12-02 16:28:49.592,26.434109999999997,6
45306,45306,2020-12-02 16:29:19.592,36.452023,6
45316,45316,2020-12-02 16:29:49.592,43.146976,6
45326,45326,2020-12-02 16:30:19.592,45.327656,6
45336,45336,2020-12-02 16:30:49.592,42.86821,6
45346,45346,2020-12-02 16:31:19.592,34.689396,6
45356,45356,2020-12-02 16:31:49.592,27.392042,6
45366,45366,2020-12-02 16:32:19.592,24.267364999999998,6
45376,45376,2020-12-02 16:32:49.592,21.921865,6
45386,45386,2020-12-02 16:33:19.592,19.097828,6
45396,45396,2020-12-02 16:33:49.592,17.44494,6
45406,45406,2020-12-02 16:34:19.592,15.819759,6
45416,45416,2020-12-02 16:34:49.592,13.501773000000002,6
45426,45426,2020-12-02 16:35:19.592,11.884174,6
45436,45436,2020-12-02 16:35:49.592,12.146906,6
45446,45446,2020-12-02 16:36:19.592,12.020798,6
45456,45456,2020-12-02 16:36:49.592,12.735411000000001,6
45466,45466,2020-12-02 16:37:19.592,14.136019000000001,6
45476,45476,2020-12-02 16:37:49.592,16.185474,6
45486,45486,2020-12-02 16:38:19.592,17.842735,6
45496,45496,2020-12-02 16:38:49.592,19.327538,6
45506,45506,2020-12-02 16:39:19.592,19.824251,6
45516,45516,2020-12-02 16:39:49.592,19.631666,6
45526,45526,2020-12-02 16:40:19.592,18.799879999999998,6
45536,45536,2020-12-02 16:40:49.592,17.996023,6
45546,45546,2020-12-02 16:41:19.592,18.919473999999997,6
45556,45556,2020-12-02 16:41:49.592,22.016222,6
45566,45566,2020-12-02 16:42:19.592,22.602320000000002,6
45576,45576,2020-12-02 16:42:49.592,22.441616,6
45586,45586,2020-12-02 16:43:19.592,21.955368,6
45596,45596,2020-12-02 16:43:49.592,22.070942000000002,6
45606,45606,2020-12-02 16:44:19.592,21.535626999999998,6
45616,45616,2020-12-02 16:44:49.592,21.381845000000002,6
45626,45626,2020-12-02 16:45:19.592,21.39331,6
45636,45636,2020-12-02 16:45:49.592,21.032656,6
45646,45646,2020-12-02 16:46:19.592,20.892303,6
45656,45656,2020-12-02 16:46:49.592,20.848076000000002,6
45666,45666,2020-12-02 16:47:19.592,20.355373,6
45676,45676,2020-12-02 16:47:49.592,19.911607999999998,6
45686,45686,2020-12-02 16:48:19.592,19.657774,6
45696,45696,2020-12-02 16:48:49.592,19.24782,6
45706,45706,2020-12-02 16:49:19.592,18.63854,6
45716,45716,2020-12-02 16:49:49.592,18.522192,6
45726,45726,2020-12-02 16:50:19.592,18.442768,6
45736,45736,2020-12-02 16:50:49.592,18.13019,6
45746,45746,2020-12-02 16:51:19.592,17.542274,6
45756,45756,2020-12-02 16:51:49.592,17.382391000000002,6
45766,45766,2020-12-02 16:52:19.592,17.180335999999997,6
45776,45776,2020-12-02 16:52:49.592,16.725407,6
45786,45786,2020-12-02 16:53:19.592,16.650270000000003,6
45796,45796,2020-12-02 16:53:49.592,16.42945,6
45806,45806,2020-12-02 16:54:19.592,16.122719,6
45816,45816,2020-12-02 16:54:49.592,15.676470000000002,6
45826,45826,2020-12-02 16:55:19.592,15.203297000000001,6
45836,45836,2020-12-02 16:55:49.592,15.080748000000002,6
45846,45846,2020-12-02 16:56:19.592,14.642341,6
45856,45856,2020-12-02 16:56:49.592,14.31359,6
45866,45866,2020-12-02 16:57:19.592,14.117304999999998,6
45876,45876,2020-12-02 16:57:49.592,13.740594,6
45886,45886,2020-12-02 16:58:19.592,13.627719,6
45896,45896,2020-12-02 16:58:49.592,13.363842000000002,6
45906,45906,2020-12-02 16:59:19.592,13.389245,6
45916,45916,2020-12-02 16:59:49.592,13.106753,6
45926,45926,2020-12-02 17:00:19.592,12.841555,6
45936,45936,2020-12-02 17:00:49.592,12.670156500000001,6
45946,45946,2020-12-02 17:01:19.592,12.709541,6
45956,45956,2020-12-02 17:01:49.592,12.37013,6
45966,45966,2020-12-02 17:02:19.592,12.0153475,6
45976,45976,2020-12-02 17:02:49.592,11.987471000000001,6
45986,45986,2020-12-02 17:03:19.592,12.086038,6
45996,45996,2020-12-02 17:03:49.592,12.062086,6
46006,46006,2020-12-02 17:04:19.592,11.60873,6
46016,46016,2020-12-02 17:04:49.592,11.499071,6
46026,46026,2020-12-02 17:05:19.592,11.42854,6
46036,46036,2020-12-02 17:05:49.592,11.3269,6
46046,46046,2020-12-02 17:06:19.592,11.428996000000001,6
46056,46056,2020-12-02 17:06:49.592,11.020414,6
46066,46066,2020-12-02 17:07:19.592,10.808627,6
46076,46076,2020-12-02 17:07:49.592,10.602217,6
46086,46086,2020-12-02 17:08:19.592,10.600541,6
46096,46096,2020-12-02 17:08:49.592,10.627641,6
46106,46106,2020-12-02 17:09:19.592,10.50568,6
46116,46116,2020-12-02 17:09:49.592,10.614835000000001,6
46126,46126,2020-12-02 17:10:19.592,10.661273,6
46136,46136,2020-12-02 17:10:49.592,10.709398,6
46146,46146,2020-12-02 17:11:19.592,10.366691000000001,6
46156,46156,2020-12-02 17:11:49.592,10.150986,6
46166,46166,2020-12-02 17:12:19.592,10.016129,6
46176,46176,2020-12-02 17:12:49.592,9.984910000000001,6
46186,46186,2020-12-02 17:13:19.592,9.957717,6
46196,46196,2020-12-02 17:13:49.592,9.936836,6
46206,46206,2020-12-02 17:14:19.592,10.045331,6
46216,46216,2020-12-02 17:14:49.592,10.034747,6
46226,46226,2020-12-02 17:15:19.592,9.693856,6
46236,46236,2020-12-02 17:15:49.592,9.49542,6
46246,46246,2020-12-02 17:16:19.592,9.258439,6
46256,46256,2020-12-02 17:16:49.592,8.687968,6
46266,46266,2020-12-02 17:17:19.592,8.242436999999999,6
46276,46276,2020-12-02 17:17:49.592,7.935178,6
46286,46286,2020-12-02 17:18:19.592,7.877594,6
46296,46296,2020-12-02 17:18:49.592,7.832553999999999,6
46306,46306,2020-12-02 17:19:19.592,7.679797,6
46316,46316,2020-12-02 17:19:49.592,7.806630999999999,6
46326,46326,2020-12-02 17:20:19.592,7.766924,6
46336,46336,2020-12-02 17:20:49.592,7.7489643,6
46346,46346,2020-12-02 17:21:19.592,7.731955499999999,6
46356,46356,2020-12-02 17:21:49.592,7.2890024,6
46366,46366,2020-12-02 17:22:19.592,7.591684299999999,6
46376,46376,2020-12-02 17:22:49.592,7.2739199999999995,6
46386,46386,2020-12-02 17:23:19.592,7.1299696,6
46396,46396,2020-12-02 17:23:49.592,7.136269599999999,6
46406,46406,2020-12-02 17:24:19.592,7.0252666,6
46416,46416,2020-12-02 17:24:49.592,7.075136,6
46426,46426,2020-12-02 17:25:19.592,7.0814342,6
46436,46436,2020-12-02 17:25:49.592,7.189972,6
46446,46446,2020-12-02 17:26:19.592,7.217472,6
46456,46456,2020-12-02 17:26:49.592,7.190737700000001,6
46466,46466,2020-12-02 17:27:19.592,7.308210400000001,6
46476,46476,2020-12-02 17:27:49.592,7.244527000000001,6
46486,46486,2020-12-02 17:28:19.592,7.237019500000001,6
46496,46496,2020-12-02 17:28:49.592,7.253392,6
46506,46506,2020-12-02 17:29:19.592,6.783106,6
46516,46516,2020-12-02 17:29:49.592,6.512257,6
46526,46526,2020-12-02 17:30:19.592,6.475053,6
46536,46536,2020-12-02 17:30:49.592,6.276180999999999,6
46546,46546,2020-12-02 17:31:19.592,6.341982,6
46556,46556,2020-12-02 17:31:49.592,6.3385763,6
46566,46566,2020-12-02 17:32:19.592,6.3635616,6
46576,46576,2020-12-02 17:32:49.592,6.3825959999999995,6
46586,46586,2020-12-02 17:33:19.592,6.359917,6
46596,46596,2020-12-02 17:33:49.592,6.4078703,6
46606,46606,2020-12-02 17:34:19.592,6.362912000000001,6
46616,46616,2020-12-02 17:34:49.592,6.3836645999999995,6
46626,46626,2020-12-02 17:35:19.592,5.8499317,6
46636,46636,2020-12-02 17:35:49.592,5.609625,6
46646,46646,2020-12-02 17:36:19.592,5.37954,6
46656,46656,2020-12-02 17:36:49.592,5.273463,6
46666,46666,2020-12-02 17:37:19.592,5.173161,6
46676,46676,2020-12-02 17:37:49.592,5.228108,6
46686,46686,2020-12-02 17:38:19.592,5.317646,6
46696,46696,2020-12-02 17:38:49.592,5.2996316,6
46706,46706,2020-12-02 17:39:19.592,5.3408365,6
46716,46716,2020-12-02 17:39:49.592,5.3229356,6
46726,46726,2020-12-02 17:40:19.592,5.3386307,6
46736,46736,2020-12-02 17:40:49.592,5.3739657,6
46746,46746,2020-12-02 17:41:19.592,5.3618255,6
46756,46756,2020-12-02 17:41:49.592,5.3433385,6
46766,46766,2020-12-02 17:42:19.592,5.376676,6
46776,46776,2020-12-02 17:42:49.592,5.3923874000000005,6
46786,46786,2020-12-02 17:43:19.592,5.3813075999999995,6
46796,46796,2020-12-02 17:43:49.592,5.540553,6
46806,46806,2020-12-02 17:44:19.592,5.515463,6
46816,46816,2020-12-02 17:44:49.592,5.4354944000000005,6
46826,46826,2020-12-02 17:45:19.592,5.4184375,6
46836,46836,2020-12-02 17:45:49.592,4.882135400000001,6
46846,46846,2020-12-02 17:46:19.592,4.552712400000001,6
46856,46856,2020-12-02 17:46:49.592,4.590403599999999,6
46866,46866,2020-12-02 17:47:19.592,4.6014705000000005,6
46876,46876,2020-12-02 17:47:49.592,4.5197306,6
46886,46886,2020-12-02 17:48:19.592,4.413916599999999,6
46896,46896,2020-12-02 17:48:49.592,4.416946,6
46906,46906,2020-12-02 17:49:19.592,4.394807,6
46916,46916,2020-12-02 17:49:49.592,4.389297,6
46926,46926,2020-12-02 17:50:19.592,4.3693610000000005,6
46936,46936,2020-12-02 17:50:49.592,4.359424,6
46946,46946,2020-12-02 17:51:19.592,4.3721312999999995,6
46956,46956,2020-12-02 17:51:49.592,4.344259,6
46966,46966,2020-12-02 17:52:19.592,4.3199873,6
46976,46976,2020-12-02 17:52:49.592,4.39285,6
46986,46986,2020-12-02 17:53:19.592,4.444552,6
46996,46996,2020-12-02 17:53:49.592,4.4459248,6
47006,47006,2020-12-02 17:54:19.592,4.547724700000001,6
47016,47016,2020-12-02 17:54:49.592,4.5231639999999995,6
47026,47026,2020-12-02 17:55:19.592,4.444980999999999,6
47036,47036,2020-12-02 17:55:49.592,4.4283257,6
47046,47046,2020-12-02 17:56:19.592,3.8916267999999996,6
47056,47056,2020-12-02 17:56:49.592,3.5715741999999997,6
47066,47066,2020-12-02 17:57:19.592,3.6037726,6
47076,47076,2020-12-02 17:57:49.592,3.6119795,6
47086,47086,2020-12-02 17:58:19.592,3.5316634,6
47096,47096,2020-12-02 17:58:49.592,3.4278612,6
47106,47106,2020-12-02 17:59:19.592,3.4319701,6
47116,47116,2020-12-02 17:59:49.592,3.4100102999999997,6
47126,47126,2020-12-02 18:00:19.592,3.4038372000000003,6
47136,47136,2020-12-02 18:00:49.592,3.3845758000000004,6
47146,47146,2020-12-02 18:01:19.592,3.3749800000000003,6
47156,47156,2020-12-02 18:01:49.592,3.3872513999999994,6
47166,47166,2020-12-02 18:02:19.592,3.3603419999999997,6
47176,47176,2020-12-02 18:02:49.592,3.3369293,6
47186,47186,2020-12-02 18:03:19.592,3.4072714,6
47196,47196,2020-12-02 18:03:49.592,3.4572887000000003,6
47206,47206,2020-12-02 18:04:19.592,3.4586172,6
47216,47216,2020-12-02 18:04:49.592,3.5573611000000005,6
47226,47226,2020-12-02 18:05:19.592,3.5335068999999995,6
47236,47236,2020-12-02 18:05:49.592,3.4577050000000003,6
47246,47246,2020-12-02 18:06:19.592,3.4415803,6
47256,47256,2020-12-02 18:06:49.592,3.5282555,6
47266,47266,2020-12-02 18:07:19.592,3.5236669000000003,6
47276,47276,2020-12-02 18:07:49.592,3.5601434999999997,6
47286,47286,2020-12-02 18:08:19.592,3.6232214,6
47296,47296,2020-12-02 18:08:49.592,3.5628580000000003,6
47306,47306,2020-12-02 18:09:19.592,3.5123089999999997,6
47316,47316,2020-12-02 18:09:49.592,3.5446358,6
47326,47326,2020-12-02 18:10:19.592,3.6852050000000003,6
47336,47336,2020-12-02 18:10:49.592,3.9999971,6
47346,47346,2020-12-02 18:11:19.592,3.9999971,6
47356,47356,2020-12-02 18:11:49.592,3.1305937999999998,6
47366,47366,2020-12-02 18:12:19.592,2.8366103,6
47376,47376,2020-12-02 18:12:49.592,2.659376,6
47386,47386,2020-12-02 18:13:19.592,2.5608983,6
47396,47396,2020-12-02 18:13:49.592,2.4841827999999997,6
47406,47406,2020-12-02 18:14:19.592,2.4088097,6
47416,47416,2020-12-02 18:14:49.592,2.472188,6
47426,47426,2020-12-02 18:15:19.592,2.4361947,6
47436,47436,2020-12-02 18:15:49.592,2.4243302000000004,6
47446,47446,2020-12-02 18:16:19.592,2.4060082,6
47456,47456,2020-12-02 18:16:49.592,2.3968868,6
47466,47466,2020-12-02 18:17:19.592,2.4085534,6
47476,47476,2020-12-02 18:17:49.592,2.3829825000000002,6
47486,47486,2020-12-02 18:18:19.592,2.360764,6
47496,47496,2020-12-02 18:18:49.592,2.4275987,6
47506,47506,2020-12-02 18:19:19.592,2.4752693,6
47516,47516,2020-12-02 18:19:49.592,2.4765377,6
47526,47526,2020-12-02 18:20:19.592,2.5710025,6
47536,47536,2020-12-02 18:20:49.592,2.5481392999999994,6
47546,47546,2020-12-02 18:21:19.592,2.4756658,6
47556,47556,2020-12-02 18:21:49.592,2.4602852000000004,6
47566,47566,2020-12-02 18:22:19.592,2.5431103999999998,6
47576,47576,2020-12-02 18:22:49.592,2.5387168,6
47586,47586,2020-12-02 18:23:19.592,2.5736703999999997,6
47596,47596,2020-12-02 18:23:49.592,2.6342647,6
47606,47606,2020-12-02 18:24:19.592,2.5762746,6
47616,47616,2020-12-02 18:24:49.592,2.5278456,6
47626,47626,2020-12-02 18:25:19.592,2.558802,6
47636,47636,2020-12-02 18:25:49.592,2.6939874,6
47646,47646,2020-12-02 18:26:19.592,3.0000023999999996,6
47656,47656,2020-12-02 18:26:49.592,3.0000023999999996,6
47666,47666,2020-12-02 18:27:19.592,3.0000023999999996,6
47676,47676,2020-12-02 18:27:49.592,3.0000023999999996,6
47686,47686,2020-12-02 18:28:19.592,3.0000023999999996,6
47696,47696,2020-12-02 18:28:49.592,3.0000023999999996,6
47706,47706,2020-12-02 18:29:19.592,3.0000023999999996,6
47716,47716,2020-12-02 18:29:49.592,3.0000023999999996,6
47726,47726,2020-12-02 18:30:19.592,3.0000023999999996,6
47736,47736,2020-12-02 18:30:49.592,3.0000023999999996,6
47746,47746,2020-12-02 18:31:19.592,3.0000023999999996,6
47756,47756,2020-12-02 18:31:49.592,3.0000023999999996,6
47766,47766,2020-12-02 18:32:19.592,3.0000023999999996,6
47776,47776,2020-12-02 18:32:49.592,3.0000023999999996,6
47786,47786,2020-12-02 18:33:19.592,3.0000023999999996,6
47796,47796,2020-12-02 18:33:49.592,3.0000023999999996,6
47806,47806,2020-12-02 18:34:19.592,3.0000023999999996,6
47816,47816,2020-12-02 18:34:49.592,3.0000023999999996,6
47826,47826,2020-12-02 18:35:19.592,3.0000023999999996,6
47836,47836,2020-12-02 18:35:49.592,3.0000023999999996,6
47846,47846,2020-12-02 18:36:19.592,3.0000023999999996,6
47856,47856,2020-12-02 18:36:49.592,3.0000023999999996,6
47866,47866,2020-12-02 18:37:19.592,3.0000023999999996,6
47876,47876,2020-12-02 18:37:49.592,2.1268678,6
47886,47886,2020-12-02 18:38:19.592,1.8429598999999999,6
47896,47896,2020-12-02 18:38:49.592,1.6747854,6
47906,47906,2020-12-02 18:39:19.592,1.5823486,6
47916,47916,2020-12-02 18:39:49.592,1.5108488000000002,6
47926,47926,2020-12-02 18:40:19.592,1.4410421999999998,6
47936,47936,2020-12-02 18:40:49.592,1.4997103,6
47946,47946,2020-12-02 18:41:19.592,1.4663538999999999,6
47956,47956,2020-12-02 18:41:49.592,1.4553812,6
47966,47966,2020-12-02 18:42:19.592,1.4384568000000002,6
47976,47976,2020-12-02 18:42:49.592,1.4300411,6
47986,47986,2020-12-02 18:43:19.592,1.440805,6
47996,47996,2020-12-02 18:43:49.592,1.4172251,6
48006,48006,2020-12-02 18:44:19.592,1.3967767,6
48016,48016,2020-12-02 18:44:49.592,1.4584021999999999,6
48026,48026,2020-12-02 18:45:19.592,1.5025706,6
48036,48036,2020-12-02 18:45:49.592,1.5037482,6
48046,48046,2020-12-02 18:46:19.592,1.5917988,6
48056,48056,2020-12-02 18:46:49.592,1.5704253000000001,6
48066,48066,2020-12-02 18:47:19.592,1.5029383,6
48076,48076,2020-12-02 18:47:49.592,1.4886682,6
48086,48086,2020-12-02 18:48:19.592,1.5657287,6
48096,48096,2020-12-02 18:48:49.592,1.5616276000000002,6
48106,48106,2020-12-02 18:49:19.592,1.5942957,6
48116,48116,2020-12-02 18:49:49.592,1.6511443,6
48126,48126,2020-12-02 18:50:19.592,1.5967326000000002,6
48136,48136,2020-12-02 18:50:49.592,1.5514867,6
48146,48146,2020-12-02 18:51:19.592,1.5803883,6
48156,48156,2020-12-02 18:51:49.592,1.7074451000000002,6
48166,48166,2020-12-02 18:52:19.592,1.999999,6
48176,48176,2020-12-02 18:52:49.592,1.999999,6
48186,48186,2020-12-02 18:53:19.592,1.999999,6
48196,48196,2020-12-02 18:53:49.592,1.999999,6
48206,48206,2020-12-02 18:54:19.592,1.999999,6
48216,48216,2020-12-02 18:54:49.592,1.999999,6
48226,48226,2020-12-02 18:55:19.592,1.999999,6
48236,48236,2020-12-02 18:55:49.592,1.999999,6
48246,48246,2020-12-02 18:56:19.592,1.999999,6
48256,48256,2020-12-02 18:56:49.592,1.999999,6
48266,48266,2020-12-02 18:57:19.592,1.999999,6
48276,48276,2020-12-02 18:57:49.592,1.999999,6
48286,48286,2020-12-02 18:58:19.592,1.999999,6
48296,48296,2020-12-02 18:58:49.592,1.999999,6
48306,48306,2020-12-02 18:59:19.592,1.999999,6
48316,48316,2020-12-02 18:59:49.592,1.999999,6
48326,48326,2020-12-02 19:00:19.592,1.999999,6
48336,48336,2020-12-02 19:00:49.592,1.999999,6
48346,48346,2020-12-02 19:01:19.592,1.999999,6
48356,48356,2020-12-02 19:01:49.592,1.999999,6
48366,48366,2020-12-02 19:02:19.592,1.999999,6
48376,48376,2020-12-02 19:02:49.592,1.999999,6
48386,48386,2020-12-02 19:03:19.592,1.999999,6
48396,48396,2020-12-02 19:03:49.592,1.999999,6
48406,48406,2020-12-02 19:04:19.592,1.999999,6
48416,48416,2020-12-02 19:04:49.592,1.999999,6
48426,48426,2020-12-02 19:05:19.592,1.999999,6
48436,48436,2020-12-02 19:05:49.592,1.999999,6
48446,48446,2020-12-02 19:06:19.592,1.999999,6
48456,48456,2020-12-02 19:06:49.592,1.999999,6
48466,48466,2020-12-02 19:07:19.592,1.999999,6
48476,48476,2020-12-02 19:07:49.592,1.999999,6
48486,48486,2020-12-02 19:08:19.592,1.999999,6
48496,48496,2020-12-02 19:08:49.592,1.999999,6
48506,48506,2020-12-02 19:09:19.592,1.999999,6
48516,48516,2020-12-02 19:09:49.592,1.999999,6
48526,48526,2020-12-02 19:10:19.592,1.999999,6
48536,48536,2020-12-02 19:10:49.592,1.999999,6
48546,48546,2020-12-02 19:11:19.592,1.999999,6
48556,48556,2020-12-02 19:11:49.592,1.999999,6
48566,48566,2020-12-02 19:12:19.592,1.999999,6
48576,48576,2020-12-02 19:12:49.592,1.999999,6
48586,48586,2020-12-02 19:13:19.592,1.1202285,6
48596,48596,2020-12-02 19:13:49.592,0.85403967,6
48606,48606,2020-12-02 19:14:19.592,0.7013558000000001,6
48616,48616,2020-12-02 19:14:49.592,0.61907756,6
48626,48626,2020-12-02 19:15:19.592,0.55625546,6
48636,48636,2020-12-02 19:15:49.592,0.49562275,6
48646,48646,2020-12-02 19:16:19.592,0.5465336999999999,6
48656,48656,2020-12-02 19:16:49.592,0.5175270000000001,6
48666,48666,2020-12-02 19:17:19.592,0.50801945,6
48676,48676,2020-12-02 19:17:49.592,0.49339008,6
48686,48686,2020-12-02 19:18:19.592,0.4861313,6
48696,48696,2020-12-02 19:18:49.592,0.49541783,6
48706,48706,2020-12-02 19:19:19.592,0.47509634,6
48716,48716,2020-12-02 19:19:49.592,0.45753956,6
48726,48726,2020-12-02 19:20:19.592,0.5106354999999999,6
48736,48736,2020-12-02 19:20:49.592,0.54902804,6
48746,48746,2020-12-02 19:21:19.592,0.5500555,6
48756,48756,2020-12-02 19:21:49.592,0.62743473,6
48766,48766,2020-12-02 19:22:19.592,0.6085515,6
48776,48776,2020-12-02 19:22:49.592,0.5493493,6
48786,48786,2020-12-02 19:23:19.592,0.53691375,6
48796,48796,2020-12-02 19:23:49.592,0.6044109999999999,6
48806,48806,2020-12-02 19:24:19.592,0.6007978,6
48816,48816,2020-12-02 19:24:49.592,0.62964535,6
48826,48826,2020-12-02 19:25:19.592,0.6802012,6
48836,48836,2020-12-02 19:25:49.592,0.6318033000000001,6
48846,48846,2020-12-02 19:26:19.592,0.59187305,6
48856,48856,2020-12-02 19:26:49.592,0.6173459,6
48866,48866,2020-12-02 19:27:19.592,0.73070884,6
48876,48876,2020-12-02 19:27:49.592,1.0000007,6
48886,48886,2020-12-02 19:28:19.592,1.0000007,6
48896,48896,2020-12-02 19:28:49.592,1.0000007,6
48906,48906,2020-12-02 19:29:19.592,1.0000007,6
48916,48916,2020-12-02 19:29:49.592,1.0000007,6
48926,48926,2020-12-02 19:30:19.592,1.0000007,6
48936,48936,2020-12-02 19:30:49.592,1.0000007,6
48946,48946,2020-12-02 19:31:19.592,1.0000007,6
48956,48956,2020-12-02 19:31:49.592,1.0000007,6
48966,48966,2020-12-02 19:32:19.592,1.0000007,6
48976,48976,2020-12-02 19:32:49.592,1.0000007,6
48986,48986,2020-12-02 19:33:19.592,1.0000007,6
48996,48996,2020-12-02 19:33:49.592,1.0000007,6
49006,49006,2020-12-02 19:34:19.592,1.0000007,6
49016,49016,2020-12-02 19:34:49.592,1.0000007,6
49026,49026,2020-12-02 19:35:19.592,1.0000007,6
49036,49036,2020-12-02 19:35:49.592,1.0000007,6
49046,49046,2020-12-02 19:36:19.592,1.0000007,6
49056,49056,2020-12-02 19:36:49.592,1.0000007,6
49066,49066,2020-12-02 19:37:19.592,1.0000007,6
49076,49076,2020-12-02 19:37:49.592,1.0000007,6
49086,49086,2020-12-02 19:38:19.592,1.0000007,6
49096,49096,2020-12-02 19:38:49.592,1.0000007,6
49106,49106,2020-12-02 19:39:19.592,1.0000007,6
49116,49116,2020-12-02 19:39:49.592,1.0000007,6
49126,49126,2020-12-02 19:40:19.592,1.0000007,6
49136,49136,2020-12-02 19:40:49.592,1.0000007,6
49146,49146,2020-12-02 19:41:19.592,1.0000007,6
49156,49156,2020-12-02 19:41:49.592,1.0000007,6
49166,49166,2020-12-02 19:42:19.592,1.0000007,6
49176,49176,2020-12-02 19:42:49.592,1.0000007,6
49186,49186,2020-12-02 19:43:19.592,1.0000007,6
49196,49196,2020-12-02 19:43:49.592,1.0000007,6
49206,49206,2020-12-02 19:44:19.592,1.0000007,6
49216,49216,2020-12-02 19:44:49.592,1.0000007,6
49226,49226,2020-12-02 19:45:19.592,1.0000007,6
49236,49236,2020-12-02 19:45:49.592,1.0000007,6
49246,49246,2020-12-02 19:46:19.592,1.0000007,6
49256,49256,2020-12-02 19:46:49.592,1.0000007,6
49266,49266,2020-12-02 19:47:19.592,1.0000007,6
49276,49276,2020-12-02 19:47:49.592,1.0000007,6
49286,49286,2020-12-02 19:48:19.592,1.0000007,6
49296,49296,2020-12-02 19:48:49.592,1.0000007,6
49306,49306,2020-12-02 19:49:19.592,1.0000007,6
49316,49316,2020-12-02 19:49:49.592,1.0000007,6
49326,49326,2020-12-02 19:50:19.592,1.0000007,6
49336,49336,2020-12-02 19:50:49.592,1.0000007,6
49346,49346,2020-12-02 19:51:19.592,1.0000007,6
49356,49356,2020-12-02 19:51:49.592,1.0000007,6
49366,49366,2020-12-02 19:52:19.592,1.0000007,6
49376,49376,2020-12-02 19:52:49.592,1.0000007,6
49386,49386,2020-12-02 19:53:19.592,1.0000007,6
49396,49396,2020-12-02 19:53:49.592,1.0000007,6
49406,49406,2020-12-02 19:54:19.592,1.0000007,6
49416,49416,2020-12-02 19:54:49.592,1.0000007,6
49426,49426,2020-12-02 19:55:19.592,1.0000007,6
49436,49436,2020-12-02 19:55:49.592,1.0000007,6
49446,49446,2020-12-02 19:56:19.592,1.0000007,6
49456,49456,2020-12-02 19:56:49.592,1.0000007,6
49466,49466,2020-12-02 19:57:19.592,1.0000007,6
49476,49476,2020-12-02 19:57:49.592,1.0000007,6
49486,49486,2020-12-02 19:58:19.592,1.0000007,6
49496,49496,2020-12-02 19:58:49.592,1.0000007,6
49506,49506,2020-12-02 19:59:19.592,1.0000007,6
49516,49516,2020-12-02 19:59:49.592,1.0000007,6
49526,49526,2020-12-02 20:00:19.592,1.0000007,6
49536,49536,2020-12-02 20:00:49.592,1.0000007,6
49546,49546,2020-12-02 20:01:19.592,1.0000007,6
