,prediction,real,time,split
0,-7.355349063873291,-7.0,2021-01-21 17:23:25.278000+00:00,train
1,-7.3072028160095215,-7.0,2021-01-21 17:23:55.278000+00:00,train
2,-7.262266635894775,-7.0,2021-01-21 17:24:25.278000+00:00,train
3,-7.2206034660339355,-7.0,2021-01-21 17:24:55.278000+00:00,train
4,-7.182290554046631,-7.0,2021-01-21 17:25:25.278000+00:00,train
5,-7.130756855010986,-7.0,2021-01-21 17:25:55.278000+00:00,train
6,-7.081665992736816,-7.0,2021-01-21 17:26:25.278000+00:00,train
7,-7.03503942489624,-7.0,2021-01-21 17:26:55.278000+00:00,train
8,-6.990902900695801,-7.0,2021-01-21 17:27:25.278000+00:00,train
9,-6.949290752410889,-7.0,2021-01-21 17:27:55.278000+00:00,train
10,-6.910245418548584,-7.0,2021-01-21 17:28:25.278000+00:00,train
11,-6.873812198638916,-7.0,2021-01-21 17:28:55.278000+00:00,train
12,-6.840049743652344,-7.0,2021-01-21 17:29:25.278000+00:00,train
13,-6.809019565582275,-7.0,2021-01-21 17:29:55.278000+00:00,train
14,-6.780798435211182,-7.0,2021-01-21 17:30:25.278000+00:00,train
15,-6.755470275878906,-7.0,2021-01-21 17:30:55.278000+00:00,train
16,-6.733131408691406,-7.0,2021-01-21 17:31:25.278000+00:00,train
17,-6.713895320892334,-7.0,2021-01-21 17:31:55.278000+00:00,train
18,-6.680270195007324,-7.0,2021-01-21 17:32:25.278000+00:00,train
19,-6.648714065551758,-7.0,2021-01-21 17:32:55.278000+00:00,train
20,-6.619266986846924,-7.0,2021-01-21 17:33:25.278000+00:00,train
21,-6.59197473526001,-7.0,2021-01-21 17:33:55.278000+00:00,train
22,-6.566890716552734,-7.0,2021-01-21 17:34:25.278000+00:00,train
23,-6.544071197509766,-7.0,2021-01-21 17:34:55.278000+00:00,train
24,-6.523585796356201,-7.0,2021-01-21 17:35:25.278000+00:00,train
25,-6.505512237548828,-7.0,2021-01-21 17:35:55.278000+00:00,train
26,-6.489933967590332,-7.0,2021-01-21 17:36:25.278000+00:00,train
27,-6.4769487380981445,-7.0,2021-01-21 17:36:55.278000+00:00,train
28,-6.46666955947876,-7.0,2021-01-21 17:37:25.278000+00:00,train
29,-6.441915035247803,-6.0,2021-01-21 17:37:55.278000+00:00,train
30,-6.418805122375488,-6.0,2021-01-21 17:38:25.278000+00:00,train
31,-6.397377014160156,-6.0,2021-01-21 17:38:55.278000+00:00,train
32,-6.3776702880859375,-6.0,2021-01-21 17:39:25.278000+00:00,train
33,-6.333712577819824,-6.0,2021-01-21 17:39:55.278000+00:00,train
34,-6.292038917541504,-6.0,2021-01-21 17:40:25.278000+00:00,train
35,-6.252663612365723,-6.0,2021-01-21 17:40:55.278000+00:00,train
36,-6.215612411499023,-6.0,2021-01-21 17:41:25.278000+00:00,train
37,-6.180940628051758,-6.0,2021-01-21 17:41:55.278000+00:00,train
38,-6.148674964904785,-6.0,2021-01-21 17:42:25.278000+00:00,train
39,-6.118856906890869,-6.0,2021-01-21 17:42:55.278000+00:00,train
40,-6.091551780700684,-6.0,2021-01-21 17:43:25.278000+00:00,train
41,-6.066835880279541,-6.0,2021-01-21 17:43:55.278000+00:00,train
42,-6.044793605804443,-6.0,2021-01-21 17:44:25.278000+00:00,train
43,-6.0255231857299805,-6.0,2021-01-21 17:44:55.278000+00:00,train
44,-5.991196632385254,-6.0,2021-01-21 17:45:25.278000+00:00,train
45,-5.958598613739014,-6.0,2021-01-21 17:45:55.278000+00:00,train
46,-5.927746295928955,-6.0,2021-01-21 17:46:25.278000+00:00,train
47,-5.898667335510254,-6.0,2021-01-21 17:46:55.278000+00:00,train
48,-5.871390342712402,-6.0,2021-01-21 17:47:25.278000+00:00,train
49,-5.845948696136475,-6.0,2021-01-21 17:47:55.278000+00:00,train
50,-5.822383403778076,-6.0,2021-01-21 17:48:25.278000+00:00,train
51,-5.800740718841553,-6.0,2021-01-21 17:48:55.278000+00:00,train
52,-5.781072616577148,-6.0,2021-01-21 17:49:25.278000+00:00,train
53,-5.7634382247924805,-6.0,2021-01-21 17:49:55.278000+00:00,train
54,-5.747907638549805,-6.0,2021-01-21 17:50:25.278000+00:00,train
55,-5.734557628631592,-6.0,2021-01-21 17:50:55.278000+00:00,train
56,-5.723477840423584,-6.0,2021-01-21 17:51:25.278000+00:00,train
57,-5.7147698402404785,-6.0,2021-01-21 17:51:55.278000+00:00,train
58,-5.691015720367432,-6.0,2021-01-21 17:52:25.278000+00:00,train
59,-5.668545246124268,-6.0,2021-01-21 17:52:55.278000+00:00,train
60,-5.647380352020264,-6.0,2021-01-21 17:53:25.278000+00:00,train
61,-5.627542972564697,-5.0,2021-01-21 17:53:55.278000+00:00,train
62,-5.609060287475586,-5.0,2021-01-21 17:54:25.278000+00:00,train
63,-5.5919647216796875,-5.0,2021-01-21 17:54:55.278000+00:00,train
64,-5.576288223266602,-5.0,2021-01-21 17:55:25.278000+00:00,train
65,-5.534455299377441,-5.0,2021-01-21 17:55:55.278000+00:00,train
66,-5.494645118713379,-5.0,2021-01-21 17:56:25.278000+00:00,train
67,-5.45685338973999,-5.0,2021-01-21 17:56:55.278000+00:00,train
68,-5.4210896492004395,-5.0,2021-01-21 17:57:25.278000+00:00,train
69,-5.387372970581055,-5.0,2021-01-21 17:57:55.278000+00:00,train
70,-5.355727672576904,-5.0,2021-01-21 17:58:25.278000+00:00,train
71,-5.32618522644043,-5.0,2021-01-21 17:58:55.278000+00:00,train
72,-5.2987871170043945,-5.0,2021-01-21 17:59:25.278000+00:00,train
73,-5.2735819816589355,-5.0,2021-01-21 17:59:55.278000+00:00,train
74,-5.250626564025879,-5.0,2021-01-21 18:00:25.278000+00:00,train
75,-5.229992389678955,-5.0,2021-01-21 18:00:55.278000+00:00,train
76,-5.211757659912109,-5.0,2021-01-21 18:01:25.278000+00:00,train
77,-5.196016788482666,-5.0,2021-01-21 18:01:55.278000+00:00,train
78,-5.182872295379639,-5.0,2021-01-21 18:02:25.278000+00:00,train
79,-5.152785778045654,-5.0,2021-01-21 18:02:55.278000+00:00,train
80,-5.124137878417969,-5.0,2021-01-21 18:03:25.278000+00:00,train
81,-5.096938610076904,-5.0,2021-01-21 18:03:55.278000+00:00,train
82,-5.071202278137207,-5.0,2021-01-21 18:04:25.278000+00:00,train
83,-5.046948432922363,-5.0,2021-01-21 18:04:55.278000+00:00,train
84,-5.024199962615967,-5.0,2021-01-21 18:05:25.278000+00:00,train
85,-5.002985000610352,-5.0,2021-01-21 18:05:55.278000+00:00,train
86,-4.983334541320801,-5.0,2021-01-21 18:06:25.278000+00:00,train
87,-4.965289115905762,-5.0,2021-01-21 18:06:55.278000+00:00,train
88,-4.9488911628723145,-5.0,2021-01-21 18:07:25.278000+00:00,train
89,-4.9341912269592285,-5.0,2021-01-21 18:07:55.278000+00:00,train
90,-4.921250343322754,-5.0,2021-01-21 18:08:25.278000+00:00,train
91,-4.89527702331543,-5.0,2021-01-21 18:08:55.278000+00:00,train
92,-4.870171546936035,-5.0,2021-01-21 18:09:25.278000+00:00,train
93,-4.845937252044678,-5.0,2021-01-21 18:09:55.278000+00:00,train
94,-4.822571754455566,-5.0,2021-01-21 18:10:25.278000+00:00,train
95,-4.800078868865967,-5.0,2021-01-21 18:10:55.278000+00:00,train
96,-4.778463840484619,-5.0,2021-01-21 18:11:25.278000+00:00,train
97,-4.757729530334473,-5.0,2021-01-21 18:11:55.278000+00:00,train
98,-4.737883567810059,-5.0,2021-01-21 18:12:25.278000+00:00,train
99,-4.718935966491699,-5.0,2021-01-21 18:12:55.278000+00:00,train
100,-4.700895309448242,-5.0,2021-01-21 18:13:25.278000+00:00,train
101,-4.683774471282959,-5.0,2021-01-21 18:13:55.278000+00:00,train
102,-4.667586326599121,-5.0,2021-01-21 18:14:25.278000+00:00,train
103,-4.652346611022949,-5.0,2021-01-21 18:14:55.278000+00:00,train
104,-4.638072490692139,-5.0,2021-01-21 18:15:25.278000+00:00,train
105,-4.624785423278809,-5.0,2021-01-21 18:15:55.278000+00:00,train
106,-4.612507343292236,-5.0,2021-01-21 18:16:25.278000+00:00,train
107,-4.601262092590332,-5.0,2021-01-21 18:16:55.278000+00:00,train
108,-4.591080665588379,-5.0,2021-01-21 18:17:25.278000+00:00,train
109,-4.581992149353027,-4.0,2021-01-21 18:17:55.278000+00:00,train
110,-4.574032783508301,-4.0,2021-01-21 18:18:25.278000+00:00,train
111,-4.567261695861816,-4.0,2021-01-21 18:18:55.278000+00:00,train
112,-4.561692714691162,-4.0,2021-01-21 18:19:25.278000+00:00,train
113,-4.529707431793213,-4.0,2021-01-21 18:19:55.278000+00:00,train
114,-4.499484062194824,-4.0,2021-01-21 18:20:25.278000+00:00,train
115,-4.471033096313477,-4.0,2021-01-21 18:20:55.278000+00:00,train
116,-4.444362163543701,-4.0,2021-01-21 18:21:25.278000+00:00,train
117,-4.419498443603516,-4.0,2021-01-21 18:21:55.278000+00:00,train
118,-4.3964738845825195,-4.0,2021-01-21 18:22:25.278000+00:00,train
119,-4.375326633453369,-4.0,2021-01-21 18:22:55.278000+00:00,train
120,-4.340399742126465,-4.0,2021-01-21 18:23:25.278000+00:00,train
121,-4.306548118591309,-4.0,2021-01-21 18:23:55.278000+00:00,train
122,-4.2737507820129395,-4.0,2021-01-21 18:24:25.278000+00:00,train
123,-4.241989612579346,-4.0,2021-01-21 18:24:55.278000+00:00,train
124,-4.211249828338623,-4.0,2021-01-21 18:25:25.278000+00:00,train
125,-4.181519985198975,-4.0,2021-01-21 18:25:55.278000+00:00,train
126,-4.1527886390686035,-4.0,2021-01-21 18:26:25.278000+00:00,train
127,-4.1250481605529785,-4.0,2021-01-21 18:26:55.278000+00:00,train
128,-4.098292350769043,-4.0,2021-01-21 18:27:25.278000+00:00,train
129,-4.0725178718566895,-4.0,2021-01-21 18:27:55.278000+00:00,train
130,-4.047722339630127,-4.0,2021-01-21 18:28:25.278000+00:00,train
131,-4.023907661437988,-4.0,2021-01-21 18:28:55.278000+00:00,train
132,-4.001074314117432,-4.0,2021-01-21 18:29:25.278000+00:00,train
133,-3.97922682762146,-4.0,2021-01-21 18:29:55.278000+00:00,train
134,-3.9583725929260254,-4.0,2021-01-21 18:30:25.278000+00:00,train
135,-3.938519239425659,-4.0,2021-01-21 18:30:55.278000+00:00,train
136,-3.919677734375,-4.0,2021-01-21 18:31:25.278000+00:00,train
137,-3.9018619060516357,-4.0,2021-01-21 18:31:55.278000+00:00,train
138,-3.885085344314575,-4.0,2021-01-21 18:32:25.278000+00:00,train
139,-3.869368076324463,-4.0,2021-01-21 18:32:55.278000+00:00,train
140,-3.854731798171997,-4.0,2021-01-21 18:33:25.278000+00:00,train
141,-3.8411996364593506,-4.0,2021-01-21 18:33:55.278000+00:00,train
142,-3.8287994861602783,-4.0,2021-01-21 18:34:25.278000+00:00,train
143,-3.81756329536438,-4.0,2021-01-21 18:34:55.278000+00:00,train
144,-3.8075268268585205,-4.0,2021-01-21 18:35:25.278000+00:00,train
145,-3.7987325191497803,-4.0,2021-01-21 18:35:55.278000+00:00,train
146,-3.791224956512451,-4.0,2021-01-21 18:36:25.278000+00:00,train
147,-3.78505802154541,-4.0,2021-01-21 18:36:55.278000+00:00,train
148,-3.780291795730591,-4.0,2021-01-21 18:37:25.278000+00:00,train
149,-3.776994466781616,-4.0,2021-01-21 18:37:55.278000+00:00,train
150,-3.7752459049224854,-4.0,2021-01-21 18:38:25.278000+00:00,train
151,-3.775136709213257,-4.0,2021-01-21 18:38:55.278000+00:00,train
152,-3.7767720222473145,-4.0,2021-01-21 18:39:25.278000+00:00,train
153,-3.7625715732574463,-4.0,2021-01-21 18:39:55.278000+00:00,train
154,-3.748918294906616,-4.0,2021-01-21 18:40:25.278000+00:00,train
155,-3.7358155250549316,-4.0,2021-01-21 18:40:55.278000+00:00,train
156,-3.723269462585449,-4.0,2021-01-21 18:41:25.278000+00:00,train
157,-3.711285352706909,-4.0,2021-01-21 18:41:55.278000+00:00,train
158,-3.6998698711395264,-4.0,2021-01-21 18:42:25.278000+00:00,train
159,-3.6890270709991455,-4.0,2021-01-21 18:42:55.278000+00:00,train
160,-3.6787726879119873,-4.0,2021-01-21 18:43:25.278000+00:00,train
161,-3.669114112854004,-4.0,2021-01-21 18:43:55.278000+00:00,train
162,-3.6600637435913086,-4.0,2021-01-21 18:44:25.278000+00:00,train
163,-3.65163254737854,-4.0,2021-01-21 18:44:55.278000+00:00,train
164,-3.643834114074707,-4.0,2021-01-21 18:45:25.278000+00:00,train
165,-3.636685848236084,-4.0,2021-01-21 18:45:55.278000+00:00,train
166,-3.6302030086517334,-4.0,2021-01-21 18:46:25.278000+00:00,train
167,-3.6244056224823,-4.0,2021-01-21 18:46:55.278000+00:00,train
168,-3.619314193725586,-4.0,2021-01-21 18:47:25.278000+00:00,train
169,-3.614952802658081,-4.0,2021-01-21 18:47:55.278000+00:00,train
170,-3.6113474369049072,-4.0,2021-01-21 18:48:25.278000+00:00,train
171,-3.608527660369873,-4.0,2021-01-21 18:48:55.278000+00:00,train
172,-3.6065256595611572,-4.0,2021-01-21 18:49:25.278000+00:00,train
173,-3.6053783893585205,-4.0,2021-01-21 18:49:55.278000+00:00,train
174,-3.6051270961761475,-4.0,2021-01-21 18:50:25.278000+00:00,train
175,-3.6058189868927,-4.0,2021-01-21 18:50:55.278000+00:00,train
176,-3.6075057983398438,-4.0,2021-01-21 18:51:25.278000+00:00,train
177,-3.610248565673828,-4.0,2021-01-21 18:51:55.278000+00:00,train
178,-3.6141161918640137,-4.0,2021-01-21 18:52:25.278000+00:00,train
179,-3.6191885471343994,-3.0,2021-01-21 18:52:55.278000+00:00,train
180,-3.6255600452423096,-3.0,2021-01-21 18:53:25.278000+00:00,train
181,-3.6333389282226562,-3.0,2021-01-21 18:53:55.278000+00:00,train
182,-3.6426568031311035,-3.0,2021-01-21 18:54:25.278000+00:00,train
183,-3.6233127117156982,-3.0,2021-01-21 18:54:55.278000+00:00,train
184,-3.6058197021484375,-3.0,2021-01-21 18:55:25.278000+00:00,train
185,-3.571375608444214,-3.0,2021-01-21 18:55:55.278000+00:00,train
186,-3.5380868911743164,-3.0,2021-01-21 18:56:25.278000+00:00,train
187,-3.505885124206543,-3.0,2021-01-21 18:56:55.278000+00:00,train
188,-3.474710464477539,-3.0,2021-01-21 18:57:25.278000+00:00,train
189,-3.4445102214813232,-3.0,2021-01-21 18:57:55.278000+00:00,train
190,-3.4152379035949707,-3.0,2021-01-21 18:58:25.278000+00:00,train
191,-3.386855125427246,-3.0,2021-01-21 18:58:55.278000+00:00,train
192,-3.359325885772705,-3.0,2021-01-21 18:59:25.278000+00:00,train
193,-3.3326189517974854,-3.0,2021-01-21 18:59:55.278000+00:00,train
194,-3.3067073822021484,-3.0,2021-01-21 19:00:25.278000+00:00,train
195,-3.281567335128784,-3.0,2021-01-21 19:00:55.278000+00:00,train
196,-3.2571778297424316,-3.0,2021-01-21 19:01:25.278000+00:00,train
197,-3.2335197925567627,-3.0,2021-01-21 19:01:55.278000+00:00,train
198,-3.2105770111083984,-3.0,2021-01-21 19:02:25.278000+00:00,train
199,-3.1883342266082764,-3.0,2021-01-21 19:02:55.278000+00:00,train
200,-3.1667799949645996,-3.0,2021-01-21 19:03:25.278000+00:00,train
201,-3.1459031105041504,-3.0,2021-01-21 19:03:55.278000+00:00,train
202,-3.125694751739502,-3.0,2021-01-21 19:04:25.278000+00:00,train
203,-3.1061463356018066,-3.0,2021-01-21 19:04:55.278000+00:00,train
204,-3.0872533321380615,-3.0,2021-01-21 19:05:25.278000+00:00,train
205,-3.069009780883789,-3.0,2021-01-21 19:05:55.278000+00:00,train
206,-3.0514132976531982,-3.0,2021-01-21 19:06:25.278000+00:00,train
207,-3.034461259841919,-3.0,2021-01-21 19:06:55.278000+00:00,train
208,-3.018152952194214,-3.0,2021-01-21 19:07:25.278000+00:00,train
209,-3.0024895668029785,-3.0,2021-01-21 19:07:55.278000+00:00,train
210,-2.9874720573425293,-3.0,2021-01-21 19:08:25.278000+00:00,train
211,-2.97310471534729,-3.0,2021-01-21 19:08:55.278000+00:00,train
212,-2.959390878677368,-3.0,2021-01-21 19:09:25.278000+00:00,train
213,-2.9463374614715576,-3.0,2021-01-21 19:09:55.278000+00:00,train
214,-2.9339511394500732,-3.0,2021-01-21 19:10:25.278000+00:00,train
215,-2.922240972518921,-3.0,2021-01-21 19:10:55.278000+00:00,train
216,-2.9112179279327393,-3.0,2021-01-21 19:11:25.278000+00:00,train
217,-2.9008939266204834,-3.0,2021-01-21 19:11:55.278000+00:00,train
218,-2.8912830352783203,-3.0,2021-01-21 19:12:25.278000+00:00,train
219,-2.882402181625366,-3.0,2021-01-21 19:12:55.278000+00:00,train
220,-2.874269485473633,-3.0,2021-01-21 19:13:25.278000+00:00,train
221,-2.86690616607666,-3.0,2021-01-21 19:13:55.278000+00:00,train
222,-2.8603360652923584,-3.0,2021-01-21 19:14:25.278000+00:00,train
223,-2.854586601257324,-3.0,2021-01-21 19:14:55.278000+00:00,train
224,-2.8496882915496826,-3.0,2021-01-21 19:15:25.278000+00:00,train
225,-2.8456764221191406,-3.0,2021-01-21 19:15:55.278000+00:00,train
226,-2.842590570449829,-3.0,2021-01-21 19:16:25.278000+00:00,train
227,-2.8404765129089355,-3.0,2021-01-21 19:16:55.278000+00:00,train
228,-2.839386224746704,-3.0,2021-01-21 19:17:25.278000+00:00,train
229,-2.83937931060791,-3.0,2021-01-21 19:17:55.278000+00:00,train
230,-2.8405258655548096,-3.0,2021-01-21 19:18:25.278000+00:00,train
231,-2.842907190322876,-3.0,2021-01-21 19:18:55.278000+00:00,train
232,-2.846618413925171,-3.0,2021-01-21 19:19:25.278000+00:00,train
233,-2.836318254470825,-3.0,2021-01-21 19:19:55.278000+00:00,train
234,-2.82623291015625,-3.0,2021-01-21 19:20:25.278000+00:00,train
235,-2.816361427307129,-3.0,2021-01-21 19:20:55.278000+00:00,train
236,-2.80670166015625,-3.0,2021-01-21 19:21:25.278000+00:00,train
237,-2.797252893447876,-3.0,2021-01-21 19:21:55.278000+00:00,train
238,-2.7880139350891113,-3.0,2021-01-21 19:22:25.278000+00:00,train
239,-2.778984308242798,-3.0,2021-01-21 19:22:55.278000+00:00,train
240,-2.770162582397461,-3.0,2021-01-21 19:23:25.278000+00:00,train
241,-2.761549472808838,-3.0,2021-01-21 19:23:55.278000+00:00,train
242,-2.753143310546875,-3.0,2021-01-21 19:24:25.278000+00:00,train
243,-2.744945526123047,-3.0,2021-01-21 19:24:55.278000+00:00,train
244,-2.7369556427001953,-3.0,2021-01-21 19:25:25.278000+00:00,train
245,-2.729173183441162,-3.0,2021-01-21 19:25:55.278000+00:00,train
246,-2.7215993404388428,-3.0,2021-01-21 19:26:25.278000+00:00,train
247,-2.7142343521118164,-3.0,2021-01-21 19:26:55.278000+00:00,train
248,-2.7070789337158203,-3.0,2021-01-21 19:27:25.278000+00:00,train
249,-2.70013427734375,-3.0,2021-01-21 19:27:55.278000+00:00,train
250,-2.693401336669922,-3.0,2021-01-21 19:28:25.278000+00:00,train
251,-2.6868810653686523,-3.0,2021-01-21 19:28:55.278000+00:00,train
252,-2.6805760860443115,-3.0,2021-01-21 19:29:25.278000+00:00,train
253,-2.6744842529296875,-3.0,2021-01-21 19:29:55.278000+00:00,train
254,-2.6686112880706787,-3.0,2021-01-21 19:30:25.278000+00:00,train
255,-2.662959337234497,-3.0,2021-01-21 19:30:55.278000+00:00,train
256,-2.6575303077697754,-3.0,2021-01-21 19:31:25.278000+00:00,train
257,-2.6523261070251465,-3.0,2021-01-21 19:31:55.278000+00:00,train
258,-2.6473498344421387,-3.0,2021-01-21 19:32:25.278000+00:00,train
259,-2.6426053047180176,-3.0,2021-01-21 19:32:55.278000+00:00,train
260,-2.6380953788757324,-3.0,2021-01-21 19:33:25.278000+00:00,train
261,-2.633824110031128,-3.0,2021-01-21 19:33:55.278000+00:00,train
262,-2.6297953128814697,-3.0,2021-01-21 19:34:25.278000+00:00,train
263,-2.6260135173797607,-3.0,2021-01-21 19:34:55.278000+00:00,train
264,-2.622483491897583,-3.0,2021-01-21 19:35:25.278000+00:00,train
265,-2.619210720062256,-3.0,2021-01-21 19:35:55.278000+00:00,train
266,-2.6162006855010986,-3.0,2021-01-21 19:36:25.278000+00:00,train
267,-2.613459587097168,-3.0,2021-01-21 19:36:55.278000+00:00,train
268,-2.6109933853149414,-3.0,2021-01-21 19:37:25.278000+00:00,train
269,-2.6088106632232666,-3.0,2021-01-21 19:37:55.278000+00:00,train
270,-2.6069180965423584,-3.0,2021-01-21 19:38:25.278000+00:00,train
271,-2.6053249835968018,-3.0,2021-01-21 19:38:55.278000+00:00,train
272,-2.6040396690368652,-3.0,2021-01-21 19:39:25.278000+00:00,train
273,-2.603074073791504,-3.0,2021-01-21 19:39:55.278000+00:00,train
274,-2.602437973022461,-3.0,2021-01-21 19:40:25.278000+00:00,train
275,-2.6021432876586914,-3.0,2021-01-21 19:40:55.278000+00:00,train
276,-2.602203607559204,-3.0,2021-01-21 19:41:25.278000+00:00,train
277,-2.6026339530944824,-3.0,2021-01-21 19:41:55.278000+00:00,train
278,-2.603450298309326,-3.0,2021-01-21 19:42:25.278000+00:00,train
279,-2.604670286178589,-3.0,2021-01-21 19:42:55.278000+00:00,train
280,-2.6063146591186523,-3.0,2021-01-21 19:43:25.278000+00:00,train
281,-2.6084048748016357,-3.0,2021-01-21 19:43:55.278000+00:00,train
282,-2.610966920852661,-2.0,2021-01-21 19:44:25.278000+00:00,train
283,-2.614028215408325,-2.0,2021-01-21 19:44:55.278000+00:00,train
284,-2.6176211833953857,-2.0,2021-01-21 19:45:25.278000+00:00,train
285,-2.621781349182129,-2.0,2021-01-21 19:45:55.278000+00:00,train
286,-2.595733404159546,-2.0,2021-01-21 19:46:25.278000+00:00,train
287,-2.5709989070892334,-2.0,2021-01-21 19:46:55.278000+00:00,train
288,-2.5475170612335205,-2.0,2021-01-21 19:47:25.278000+00:00,train
289,-2.525240421295166,-2.0,2021-01-21 19:47:55.278000+00:00,train
290,-2.5041325092315674,-2.0,2021-01-21 19:48:25.278000+00:00,train
291,-2.4841654300689697,-2.0,2021-01-21 19:48:55.278000+00:00,train
292,-2.4653191566467285,-2.0,2021-01-21 19:49:25.278000+00:00,train
293,-2.447580575942993,-2.0,2021-01-21 19:49:55.278000+00:00,train
294,-2.430943012237549,-2.0,2021-01-21 19:50:25.278000+00:00,train
295,-2.4154064655303955,-2.0,2021-01-21 19:50:55.278000+00:00,train
296,-2.400977373123169,-2.0,2021-01-21 19:51:25.278000+00:00,train
297,-2.3876686096191406,-2.0,2021-01-21 19:51:55.278000+00:00,train
298,-2.3755009174346924,-2.0,2021-01-21 19:52:25.278000+00:00,train
299,-2.364501476287842,-2.0,2021-01-21 19:52:55.278000+00:00,train
300,-2.3547074794769287,-2.0,2021-01-21 19:53:25.278000+00:00,train
301,-2.347383975982666,-2.0,2021-01-21 19:53:55.278000+00:00,train
302,-2.3401360511779785,-2.0,2021-01-21 19:54:25.278000+00:00,train
303,-2.3194055557250977,-2.0,2021-01-21 19:54:55.278000+00:00,train
304,-2.2992448806762695,-2.0,2021-01-21 19:55:25.278000+00:00,train
305,-2.279616117477417,-2.0,2021-01-21 19:55:55.278000+00:00,train
306,-2.2604875564575195,-2.0,2021-01-21 19:56:25.278000+00:00,train
307,-2.241830348968506,-2.0,2021-01-21 19:56:55.278000+00:00,train
308,-2.2236204147338867,-2.0,2021-01-21 19:57:25.278000+00:00,train
309,-2.2058348655700684,-2.0,2021-01-21 19:57:55.278000+00:00,train
310,-2.188453435897827,-2.0,2021-01-21 19:58:25.278000+00:00,train
311,-2.1714584827423096,-2.0,2021-01-21 19:58:55.278000+00:00,train
312,-2.1548337936401367,-2.0,2021-01-21 19:59:25.278000+00:00,train
313,-2.1385655403137207,-2.0,2021-01-21 19:59:55.278000+00:00,train
314,-2.1226375102996826,-2.0,2021-01-21 20:00:25.278000+00:00,train
315,-2.107038736343384,-2.0,2021-01-21 20:00:55.278000+00:00,train
316,-2.0917584896087646,-2.0,2021-01-21 20:01:25.278000+00:00,train
317,-2.076786518096924,-2.0,2021-01-21 20:01:55.278000+00:00,train
318,-2.0621135234832764,-2.0,2021-01-21 20:02:25.278000+00:00,train
319,-2.0477306842803955,-2.0,2021-01-21 20:02:55.278000+00:00,train
320,-2.0336296558380127,-2.0,2021-01-21 20:03:25.278000+00:00,train
321,-2.0198044776916504,-2.0,2021-01-21 20:03:55.278000+00:00,train
322,-2.0062475204467773,-2.0,2021-01-21 20:04:25.278000+00:00,train
323,-1.9929530620574951,-2.0,2021-01-21 20:04:55.278000+00:00,train
324,-1.979914903640747,-2.0,2021-01-21 20:05:25.278000+00:00,train
325,-1.967127799987793,-2.0,2021-01-21 20:05:55.278000+00:00,train
326,-1.954587459564209,-2.0,2021-01-21 20:06:25.278000+00:00,train
327,-1.942289113998413,-2.0,2021-01-21 20:06:55.278000+00:00,train
328,-1.930228352546692,-2.0,2021-01-21 20:07:25.278000+00:00,train
329,-1.9184019565582275,-2.0,2021-01-21 20:07:55.278000+00:00,train
330,-1.9068059921264648,-2.0,2021-01-21 20:08:25.278000+00:00,train
331,-1.8954391479492188,-2.0,2021-01-21 20:08:55.278000+00:00,train
332,-1.8842955827713013,-2.0,2021-01-21 20:09:25.278000+00:00,train
333,-1.8733733892440796,-2.0,2021-01-21 20:09:55.278000+00:00,train
334,-1.8626704216003418,-2.0,2021-01-21 20:10:25.278000+00:00,train
335,-1.8521840572357178,-2.0,2021-01-21 20:10:55.278000+00:00,train
336,-1.841913104057312,-2.0,2021-01-21 20:11:25.278000+00:00,train
337,-1.8318545818328857,-2.0,2021-01-21 20:11:55.278000+00:00,train
338,-1.8220083713531494,-2.0,2021-01-21 20:12:25.278000+00:00,train
339,-1.8123719692230225,-2.0,2021-01-21 20:12:55.278000+00:00,train
340,-1.8029452562332153,-2.0,2021-01-21 20:13:25.278000+00:00,train
341,-1.7937263250350952,-2.0,2021-01-21 20:13:55.278000+00:00,train
342,-1.7847145795822144,-2.0,2021-01-21 20:14:25.278000+00:00,train
343,-1.7759093046188354,-2.0,2021-01-21 20:14:55.278000+00:00,train
344,-1.7673105001449585,-2.0,2021-01-21 20:15:25.278000+00:00,train
345,-1.7589174509048462,-2.0,2021-01-21 20:15:55.278000+00:00,train
346,-1.7507301568984985,-2.0,2021-01-21 20:16:25.278000+00:00,train
347,-1.7427488565444946,-2.0,2021-01-21 20:16:55.278000+00:00,train
348,-1.7349752187728882,-2.0,2021-01-21 20:17:25.278000+00:00,train
349,-1.7274070978164673,-2.0,2021-01-21 20:17:55.278000+00:00,train
350,-1.7200453281402588,-2.0,2021-01-21 20:18:25.278000+00:00,train
351,-1.7128912210464478,-2.0,2021-01-21 20:18:55.278000+00:00,train
352,-1.7059454917907715,-2.0,2021-01-21 20:19:25.278000+00:00,train
353,-1.699209451675415,-2.0,2021-01-21 20:19:55.278000+00:00,train
354,-1.6926765441894531,-2.0,2021-01-21 20:20:25.278000+00:00,train
355,-1.68636155128479,-2.0,2021-01-21 20:20:55.278000+00:00,train
356,-1.6802620887756348,-2.0,2021-01-21 20:21:25.278000+00:00,train
357,-1.6743791103363037,-2.0,2021-01-21 20:21:55.278000+00:00,train
358,-1.6687146425247192,-2.0,2021-01-21 20:22:25.278000+00:00,train
359,-1.663271427154541,-2.0,2021-01-21 20:22:55.278000+00:00,train
360,-1.6580511331558228,-2.0,2021-01-21 20:23:25.278000+00:00,train
361,-1.6530570983886719,-2.0,2021-01-21 20:23:55.278000+00:00,train
362,-1.6482924222946167,-2.0,2021-01-21 20:24:25.278000+00:00,train
363,-1.643758773803711,-2.0,2021-01-21 20:24:55.278000+00:00,train
364,-1.6394621133804321,-2.0,2021-01-21 20:25:25.278000+00:00,train
365,-1.635405421257019,-2.0,2021-01-21 20:25:55.278000+00:00,train
366,-1.6315937042236328,-2.0,2021-01-21 20:26:25.278000+00:00,train
367,-1.6280312538146973,-2.0,2021-01-21 20:26:55.278000+00:00,train
368,-1.6247235536575317,-2.0,2021-01-21 20:27:25.278000+00:00,train
369,-1.621675729751587,-2.0,2021-01-21 20:27:55.278000+00:00,train
370,-1.618894338607788,-2.0,2021-01-21 20:28:25.278000+00:00,train
371,-1.616385579109192,-2.0,2021-01-21 20:28:55.278000+00:00,train
372,-1.6141571998596191,-2.0,2021-01-21 20:29:25.278000+00:00,train
373,-1.6122187376022339,-2.0,2021-01-21 20:29:55.278000+00:00,train
374,-1.6105775833129883,-2.0,2021-01-21 20:30:25.278000+00:00,train
375,-1.6092418432235718,-2.0,2021-01-21 20:30:55.278000+00:00,train
376,-1.6082216501235962,-2.0,2021-01-21 20:31:25.278000+00:00,train
377,-1.6075282096862793,-2.0,2021-01-21 20:31:55.278000+00:00,train
378,-1.607173204421997,-2.0,2021-01-21 20:32:25.278000+00:00,train
379,-1.6071701049804688,-2.0,2021-01-21 20:32:55.278000+00:00,train
380,-1.6075338125228882,-2.0,2021-01-21 20:33:25.278000+00:00,train
381,-1.6082795858383179,-2.0,2021-01-21 20:33:55.278000+00:00,train
382,-1.6099330186843872,-2.0,2021-01-21 20:34:25.278000+00:00,train
383,-1.6114890575408936,-2.0,2021-01-21 20:34:55.278000+00:00,train
384,-1.6134867668151855,-2.0,2021-01-21 20:35:25.278000+00:00,train
385,-1.6159515380859375,-2.0,2021-01-21 20:35:55.278000+00:00,train
386,-1.618910789489746,-2.0,2021-01-21 20:36:25.278000+00:00,train
387,-1.62239670753479,-2.0,2021-01-21 20:36:55.278000+00:00,train
388,-1.626444935798645,-2.0,2021-01-21 20:37:25.278000+00:00,train
389,-1.6310977935791016,-2.0,2021-01-21 20:37:55.278000+00:00,train
390,-1.6364024877548218,-2.0,2021-01-21 20:38:25.278000+00:00,train
391,-1.6424156427383423,-2.0,2021-01-21 20:38:55.278000+00:00,train
392,-1.649203896522522,-2.0,2021-01-21 20:39:25.278000+00:00,train
393,-1.6568456888198853,-2.0,2021-01-21 20:39:55.278000+00:00,train
394,-1.665437936782837,-2.0,2021-01-21 20:40:25.278000+00:00,train
395,-1.675097942352295,-2.0,2021-01-21 20:40:55.278000+00:00,train
396,-1.6859744787216187,-2.0,2021-01-21 20:41:25.278000+00:00,train
397,-1.6982576847076416,-2.0,2021-01-21 20:41:55.278000+00:00,train
398,-1.712198257446289,-2.0,2021-01-21 20:42:25.278000+00:00,train
399,-1.7281399965286255,-2.0,2021-01-21 20:42:55.278000+00:00,train
400,-1.7465767860412598,-2.0,2021-01-21 20:43:25.278000+00:00,train
401,-1.7682628631591797,-2.0,2021-01-21 20:43:55.278000+00:00,train
402,-1.7944647073745728,-2.0,2021-01-21 20:44:25.278000+00:00,train
403,-1.8276402950286865,-2.0,2021-01-21 20:44:55.278000+00:00,train
404,-1.8741120100021362,-2.0,2021-01-21 20:45:25.278000+00:00,train
405,-2.0,-2.0,2021-01-21 20:45:55.278000+00:00,train
406,-2.0,-2.0,2021-01-21 20:46:25.278000+00:00,train
407,-2.0,-2.0,2021-01-21 20:46:55.278000+00:00,train
408,-2.0,-2.0,2021-01-21 20:47:25.278000+00:00,train
409,-2.0,-2.0,2021-01-21 20:47:55.278000+00:00,train
410,-2.0,-2.0,2021-01-21 20:48:25.278000+00:00,train
411,-2.0,-2.0,2021-01-21 20:48:55.278000+00:00,train
412,-2.0,-2.0,2021-01-21 20:49:25.278000+00:00,train
413,-2.0,-2.0,2021-01-21 20:49:55.278000+00:00,train
414,-2.0,-2.0,2021-01-21 20:50:25.278000+00:00,train
415,-2.0,-2.0,2021-01-21 20:50:55.278000+00:00,train
416,-2.0,-2.0,2021-01-21 20:51:25.278000+00:00,train
417,-2.0,-2.0,2021-01-21 20:51:55.278000+00:00,train
418,-2.0,-2.0,2021-01-21 20:52:25.278000+00:00,train
419,-2.0,-2.0,2021-01-21 20:52:55.278000+00:00,train
420,-2.0,-2.0,2021-01-21 20:53:25.278000+00:00,train
421,-2.0,-2.0,2021-01-21 20:53:55.278000+00:00,train
422,-2.0,-2.0,2021-01-21 20:54:25.278000+00:00,train
423,-2.0,-2.0,2021-01-21 20:54:55.278000+00:00,train
424,-2.0,-2.0,2021-01-21 20:55:25.278000+00:00,train
425,-2.0,-2.0,2021-01-21 20:55:55.278000+00:00,train
426,-2.0,-2.0,2021-01-21 20:56:25.278000+00:00,train
427,-2.0,-2.0,2021-01-21 20:56:55.278000+00:00,train
428,-2.0,-2.0,2021-01-21 20:57:25.278000+00:00,train
429,-2.0,-2.0,2021-01-21 20:57:55.278000+00:00,train
430,-2.0,-2.0,2021-01-21 20:58:25.278000+00:00,train
431,-2.0,-2.0,2021-01-21 20:58:55.278000+00:00,train
432,-2.0,-2.0,2021-01-21 20:59:25.278000+00:00,train
433,-2.0,-2.0,2021-01-21 20:59:55.278000+00:00,train
434,-2.0,-2.0,2021-01-21 21:00:25.278000+00:00,train
435,-2.0,0.0,2021-01-21 21:00:55.278000+00:00,train
436,-2.0,-2.0,2021-01-21 21:01:25.278000+00:00,train
437,-2.0,-2.0,2021-01-21 21:01:55.278000+00:00,train
438,-2.0,-2.0,2021-01-21 21:02:25.278000+00:00,train
439,-1.7151029109954834,-2.0,2021-01-21 21:02:55.278000+00:00,train
440,-1.7149780988693237,-2.0,2021-01-21 21:03:25.278000+00:00,train
441,-1.7150959968566895,-2.0,2021-01-21 21:03:55.278000+00:00,train
442,-1.7151596546173096,-2.0,2021-01-21 21:04:25.278000+00:00,train
443,-1.7151970863342285,-2.0,2021-01-21 21:04:55.278000+00:00,train
444,-1.7152204513549805,-2.0,2021-01-21 21:05:25.278000+00:00,train
445,-1.7152365446090698,-2.0,2021-01-21 21:05:55.278000+00:00,train
446,-1.7152483463287354,-2.0,2021-01-21 21:06:25.278000+00:00,train
447,-1.715258002281189,-2.0,2021-01-21 21:06:55.278000+00:00,train
448,-1.715266227722168,-2.0,2021-01-21 21:07:25.278000+00:00,train
449,-1.7152736186981201,-2.0,2021-01-21 21:07:55.278000+00:00,train
450,-1.7152808904647827,-2.0,2021-01-21 21:08:25.278000+00:00,train
451,-1.7152875661849976,-2.0,2021-01-21 21:08:55.278000+00:00,train
452,-1.7152942419052124,-2.0,2021-01-21 21:09:25.278000+00:00,train
453,-1.7153007984161377,-2.0,2021-01-21 21:09:55.278000+00:00,train
454,-1.7153072357177734,-2.0,2021-01-21 21:10:25.278000+00:00,train
455,-1.7153135538101196,-2.0,2021-01-21 21:10:55.278000+00:00,train
456,-1.7153198719024658,-2.0,2021-01-21 21:11:25.278000+00:00,train
457,-1.7153260707855225,-2.0,2021-01-21 21:11:55.278000+00:00,train
458,-1.715332269668579,-2.0,2021-01-21 21:12:25.278000+00:00,train
459,-1.7153382301330566,-2.0,2021-01-21 21:12:55.278000+00:00,train
460,-1.7153441905975342,-2.0,2021-01-21 21:13:25.278000+00:00,train
461,-1.7153502702713013,-2.0,2021-01-21 21:13:55.278000+00:00,train
462,-1.7153559923171997,-2.0,2021-01-21 21:14:25.278000+00:00,train
463,-1.7153617143630981,-2.0,2021-01-21 21:14:55.278000+00:00,train
464,-1.7153675556182861,-2.0,2021-01-21 21:15:25.278000+00:00,train
465,-1.715373158454895,-2.0,2021-01-21 21:15:55.278000+00:00,train
466,-1.7153786420822144,-2.0,2021-01-21 21:16:25.278000+00:00,train
467,-1.7153840065002441,-2.0,2021-01-21 21:16:55.278000+00:00,train
468,-1.7153894901275635,-2.0,2021-01-21 21:17:25.278000+00:00,train
469,-1.7153947353363037,-2.0,2021-01-21 21:17:55.278000+00:00,train
470,-1.7153998613357544,-2.0,2021-01-21 21:18:25.278000+00:00,train
471,-1.715404987335205,-2.0,2021-01-21 21:18:55.278000+00:00,train
472,-1.7154103517532349,-2.0,2021-01-21 21:19:25.278000+00:00,train
473,-1.7154154777526855,-2.0,2021-01-21 21:19:55.278000+00:00,train
474,-1.7154209613800049,-2.0,2021-01-21 21:20:25.278000+00:00,train
475,-1.7154260873794556,-2.0,2021-01-21 21:20:55.278000+00:00,train
476,-1.7154310941696167,-2.0,2021-01-21 21:21:25.278000+00:00,train
477,-1.7154361009597778,-2.0,2021-01-21 21:21:55.278000+00:00,train
478,-1.7154406309127808,-2.0,2021-01-21 21:22:25.278000+00:00,train
479,-1.7154453992843628,-2.0,2021-01-21 21:22:55.278000+00:00,train
480,-1.7154500484466553,-2.0,2021-01-21 21:23:25.278000+00:00,train
481,-1.7154544591903687,-2.0,2021-01-21 21:23:55.278000+00:00,train
482,-1.715458869934082,-2.0,2021-01-21 21:24:25.278000+00:00,train
483,-1.7154632806777954,-2.0,2021-01-21 21:24:55.278000+00:00,train
484,-1.7154674530029297,-2.0,2021-01-21 21:25:25.278000+00:00,train
485,-1.7154712677001953,-2.0,2021-01-21 21:25:55.278000+00:00,train
486,-1.7154752016067505,-2.0,2021-01-21 21:26:25.278000+00:00,train
487,-1.7154791355133057,-2.0,2021-01-21 21:26:55.278000+00:00,train
488,-1.7154829502105713,-2.0,2021-01-21 21:27:25.278000+00:00,train
489,-1.7154868841171265,-2.0,2021-01-21 21:27:55.278000+00:00,train
490,-1.715490698814392,-2.0,2021-01-21 21:28:25.278000+00:00,train
491,-1.7154943943023682,-2.0,2021-01-21 21:28:55.278000+00:00,train
492,-1.7154979705810547,-2.0,2021-01-21 21:29:25.278000+00:00,train
493,-1.7155016660690308,-2.0,2021-01-21 21:29:55.278000+00:00,train
494,-1.7155051231384277,-2.0,2021-01-21 21:30:25.278000+00:00,train
495,-1.7155086994171143,-2.0,2021-01-21 21:30:55.278000+00:00,train
496,-1.7155119180679321,-2.0,2021-01-21 21:31:25.278000+00:00,train
497,-1.7155152559280396,-2.0,2021-01-21 21:31:55.278000+00:00,train
498,-1.7155184745788574,-2.0,2021-01-21 21:32:25.278000+00:00,train
499,-1.7155216932296753,-2.0,2021-01-21 21:32:55.278000+00:00,train
500,-1.715524673461914,-2.0,2021-01-21 21:33:25.278000+00:00,train
501,-1.7155275344848633,-2.0,2021-01-21 21:33:55.278000+00:00,train
502,-1.715530514717102,-2.0,2021-01-21 21:34:25.278000+00:00,train
503,-1.7155333757400513,-2.0,2021-01-21 21:34:55.278000+00:00,train
504,-1.715536117553711,-2.0,2021-01-21 21:35:25.278000+00:00,train
505,-1.715538740158081,-2.0,2021-01-21 21:35:55.278000+00:00,train
506,-1.7155413627624512,-2.0,2021-01-21 21:36:25.278000+00:00,train
507,-1.7155438661575317,-2.0,2021-01-21 21:36:55.278000+00:00,train
508,-1.715545654296875,-2.0,2021-01-21 21:37:25.278000+00:00,train
509,-1.7155476808547974,-2.0,2021-01-21 21:37:55.278000+00:00,train
510,-1.7155499458312988,-2.0,2021-01-21 21:38:25.278000+00:00,train
511,-1.7155519723892212,-2.0,2021-01-21 21:38:55.278000+00:00,train
512,-1.715554118156433,-2.0,2021-01-21 21:39:25.278000+00:00,train
513,-1.7155561447143555,-2.0,2021-01-21 21:39:55.278000+00:00,train
514,-1.7155581712722778,-2.0,2021-01-21 21:40:25.278000+00:00,train
515,-1.7155601978302002,-2.0,2021-01-21 21:40:55.278000+00:00,train
516,-1.715562105178833,-2.0,2021-01-21 21:41:25.278000+00:00,train
517,-1.7155637741088867,-2.0,2021-01-21 21:41:55.278000+00:00,train
518,-1.7155654430389404,-2.0,2021-01-21 21:42:25.278000+00:00,train
519,-1.7155669927597046,-2.0,2021-01-21 21:42:55.278000+00:00,train
520,-1.7155686616897583,-2.0,2021-01-21 21:43:25.278000+00:00,train
521,-1.715570092201233,-2.0,2021-01-21 21:43:55.278000+00:00,train
522,-1.715571641921997,-2.0,2021-01-21 21:44:25.278000+00:00,train
523,-1.7155729532241821,-2.0,2021-01-21 21:44:55.278000+00:00,train
524,-1.7155742645263672,-2.0,2021-01-21 21:45:25.278000+00:00,train
525,-1.7155754566192627,-2.0,2021-01-21 21:45:55.278000+00:00,train
526,-1.7155766487121582,-2.0,2021-01-21 21:46:25.278000+00:00,train
527,-1.7155777215957642,-2.0,2021-01-21 21:46:55.278000+00:00,train
528,-1.7155786752700806,-2.0,2021-01-21 21:47:25.278000+00:00,train
529,-1.715579628944397,-2.0,2021-01-21 21:47:55.278000+00:00,train
530,-1.7155795097351074,-2.0,2021-01-21 21:48:25.278000+00:00,train
531,-1.7155797481536865,-2.0,2021-01-21 21:48:55.278000+00:00,train
532,-1.7155803442001343,-2.0,2021-01-21 21:49:25.278000+00:00,train
533,-1.7155808210372925,-2.0,2021-01-21 21:49:55.278000+00:00,train
534,-1.7155811786651611,-2.0,2021-01-21 21:50:25.278000+00:00,train
535,-1.7155814170837402,-2.0,2021-01-21 21:50:55.278000+00:00,train
536,-1.7155818939208984,-2.0,2021-01-21 21:51:25.278000+00:00,train
537,-1.7155821323394775,-2.0,2021-01-21 21:51:55.278000+00:00,train
538,-1.7155823707580566,-2.0,2021-01-21 21:52:25.278000+00:00,train
539,-1.7155823707580566,-2.0,2021-01-21 21:52:55.278000+00:00,train
540,-1.7155824899673462,-2.0,2021-01-21 21:53:25.278000+00:00,train
541,-1.7155824899673462,-2.0,2021-01-21 21:53:55.278000+00:00,train
542,-1.7155823707580566,-2.0,2021-01-21 21:54:25.278000+00:00,train
543,-1.715582251548767,-2.0,2021-01-21 21:54:55.278000+00:00,train
544,-1.715582013130188,-2.0,2021-01-21 21:55:25.278000+00:00,train
545,-1.7155816555023193,-2.0,2021-01-21 21:55:55.278000+00:00,train
546,-1.7155811786651611,-1.0,2021-01-21 21:56:25.278000+00:00,train
547,-1.7155808210372925,-2.0,2021-01-21 21:56:55.278000+00:00,train
548,-1.7155803442001343,-2.0,2021-01-21 21:57:25.278000+00:00,train
549,-1.7155797481536865,-2.0,2021-01-21 21:57:55.278000+00:00,train
550,-1.6766533851623535,-2.0,2021-01-21 21:58:25.278000+00:00,train
551,-1.676650881767273,-2.0,2021-01-21 21:58:55.278000+00:00,train
552,-1.6766477823257446,-2.0,2021-01-21 21:59:25.278000+00:00,train
553,-1.6766457557678223,-1.0,2021-01-21 21:59:55.278000+00:00,train
554,-1.676643967628479,-1.0,2021-01-21 22:00:25.278000+00:00,train
555,-1.6766424179077148,0.0,2021-01-21 22:00:55.278000+00:00,train
556,-1.6766408681869507,-1.0,2021-01-21 22:01:25.278000+00:00,train
557,-1.641033411026001,-1.0,2021-01-21 22:01:55.278000+00:00,train
558,-1.607968807220459,-1.0,2021-01-21 22:02:25.278000+00:00,train
559,-1.607801079750061,-1.0,2021-01-21 22:02:55.278000+00:00,train
560,-1.5765446424484253,-1.0,2021-01-21 22:03:25.278000+00:00,train
561,-1.5473792552947998,-1.0,2021-01-21 22:03:55.278000+00:00,train
562,-1.5195605754852295,-1.0,2021-01-21 22:04:25.278000+00:00,train
563,-1.4929314851760864,-1.0,2021-01-21 22:04:55.278000+00:00,train
564,-1.4673621654510498,-1.0,2021-01-21 22:05:25.278000+00:00,train
565,-1.4427428245544434,-1.0,2021-01-21 22:05:55.278000+00:00,train
566,-1.4189808368682861,-1.0,2021-01-21 22:06:25.278000+00:00,train
567,-1.3959983587265015,-1.0,2021-01-21 22:06:55.278000+00:00,train
568,-1.3737297058105469,-1.0,2021-01-21 22:07:25.278000+00:00,train
569,-1.3521183729171753,-1.0,2021-01-21 22:07:55.278000+00:00,train
570,-1.331115961074829,-1.0,2021-01-21 22:08:25.278000+00:00,train
571,-1.3106802701950073,-1.0,2021-01-21 22:08:55.278000+00:00,train
572,-1.2907748222351074,-1.0,2021-01-21 22:09:25.278000+00:00,train
573,-1.2704706192016602,-1.0,2021-01-21 22:09:55.278000+00:00,train
574,-1.2515089511871338,-1.0,2021-01-21 22:10:25.278000+00:00,train
575,-1.232994556427002,-1.0,2021-01-21 22:10:55.278000+00:00,train
576,-1.214903712272644,-1.0,2021-01-21 22:11:25.278000+00:00,train
577,-1.1972153186798096,-1.0,2021-01-21 22:11:55.278000+00:00,train
578,-1.179911494255066,-1.0,2021-01-21 22:12:25.278000+00:00,train
579,-1.1629751920700073,-1.0,2021-01-21 22:12:55.278000+00:00,train
580,-1.1464011669158936,-1.0,2021-01-21 22:13:25.278000+00:00,train
581,-1.1301624774932861,-1.0,2021-01-21 22:13:55.278000+00:00,train
582,-1.114248275756836,-1.0,2021-01-21 22:14:25.278000+00:00,train
583,-1.098651647567749,-1.0,2021-01-21 22:14:55.278000+00:00,train
584,-1.0833581686019897,-1.0,2021-01-21 22:15:25.278000+00:00,train
585,-1.0683597326278687,-1.0,2021-01-21 22:15:55.278000+00:00,train
586,-1.053647518157959,-1.0,2021-01-21 22:16:25.278000+00:00,train
587,-1.0392143726348877,-1.0,2021-01-21 22:16:55.278000+00:00,train
588,-1.025052785873413,-1.0,2021-01-21 22:17:25.278000+00:00,train
589,-1.0111562013626099,-1.0,2021-01-21 22:17:55.278000+00:00,train
590,-0.9975182414054871,-1.0,2021-01-21 22:18:25.278000+00:00,train
591,-0.984133243560791,-1.0,2021-01-21 22:18:55.278000+00:00,train
592,-0.9709953665733337,-1.0,2021-01-21 22:19:25.278000+00:00,train
593,-0.9581001996994019,-1.0,2021-01-21 22:19:55.278000+00:00,train
594,-0.9454390406608582,-1.0,2021-01-21 22:20:25.278000+00:00,train
595,-0.9330134391784668,-1.0,2021-01-21 22:20:55.278000+00:00,train
596,-0.9208187460899353,-1.0,2021-01-21 22:21:25.278000+00:00,train
597,-0.9088506698608398,-1.0,2021-01-21 22:21:55.278000+00:00,train
598,-0.8971056342124939,-1.0,2021-01-21 22:22:25.278000+00:00,train
599,-0.8855804800987244,-1.0,2021-01-21 22:22:55.278000+00:00,train
600,-0.8742727041244507,-1.0,2021-01-21 22:23:25.278000+00:00,train
601,-0.8631789088249207,-1.0,2021-01-21 22:23:55.278000+00:00,train
602,-0.8522974848747253,-1.0,2021-01-21 22:24:25.278000+00:00,train
603,-0.8416260480880737,-1.0,2021-01-21 22:24:55.278000+00:00,train
604,-0.8311625123023987,-1.0,2021-01-21 22:25:25.278000+00:00,train
605,-0.820905327796936,-1.0,2021-01-21 22:25:55.278000+00:00,train
606,-0.8108526468276978,-1.0,2021-01-21 22:26:25.278000+00:00,train
607,-0.801003634929657,-1.0,2021-01-21 22:26:55.278000+00:00,train
608,-0.7913565635681152,-1.0,2021-01-21 22:27:25.278000+00:00,train
609,-0.7819107174873352,-1.0,2021-01-21 22:27:55.278000+00:00,train
610,-0.7726649045944214,-1.0,2021-01-21 22:28:25.278000+00:00,train
611,-0.7636187672615051,-1.0,2021-01-21 22:28:55.278000+00:00,train
612,-0.7547716498374939,-1.0,2021-01-21 22:29:25.278000+00:00,train
613,-0.7461233139038086,-1.0,2021-01-21 22:29:55.278000+00:00,train
614,-0.737673282623291,-1.0,2021-01-21 22:30:25.278000+00:00,train
615,-0.7294216752052307,-1.0,2021-01-21 22:30:55.278000+00:00,train
616,-0.7213684916496277,-1.0,2021-01-21 22:31:25.278000+00:00,train
617,-0.7135096192359924,-1.0,2021-01-21 22:31:55.278000+00:00,train
618,-0.7058519721031189,-1.0,2021-01-21 22:32:25.278000+00:00,train
619,-0.6983953714370728,-1.0,2021-01-21 22:32:55.278000+00:00,train
620,-0.6911395788192749,-1.0,2021-01-21 22:33:25.278000+00:00,train
621,-0.6840851306915283,-1.0,2021-01-21 22:33:55.278000+00:00,train
622,-0.6772333383560181,-1.0,2021-01-21 22:34:25.278000+00:00,train
623,-0.670585036277771,-1.0,2021-01-21 22:34:55.278000+00:00,train
624,-0.664141833782196,-1.0,2021-01-21 22:35:25.278000+00:00,train
625,-0.6579052805900574,-1.0,2021-01-21 22:35:55.278000+00:00,train
626,-0.6518768668174744,-1.0,2021-01-21 22:36:25.278000+00:00,train
627,-0.6460588574409485,-1.0,2021-01-21 22:36:55.278000+00:00,train
628,-0.6404533982276917,-1.0,2021-01-21 22:37:25.278000+00:00,train
629,-0.6350627541542053,-1.0,2021-01-21 22:37:55.278000+00:00,train
630,-0.6298896074295044,-1.0,2021-01-21 22:38:25.278000+00:00,train
631,-0.6249367594718933,-1.0,2021-01-21 22:38:55.278000+00:00,train
632,-0.6202071309089661,-1.0,2021-01-21 22:39:25.278000+00:00,train
633,-0.6157045960426331,-1.0,2021-01-21 22:39:55.278000+00:00,train
634,-0.6114320755004883,-1.0,2021-01-21 22:40:25.278000+00:00,train
635,-0.6073941588401794,-1.0,2021-01-21 22:40:55.278000+00:00,train
636,-0.6035948991775513,-1.0,2021-01-21 22:41:25.278000+00:00,train
637,-0.6000386476516724,-1.0,2021-01-21 22:41:55.278000+00:00,train
638,-0.5967308282852173,-1.0,2021-01-21 22:42:25.278000+00:00,train
639,-0.5936764478683472,-1.0,2021-01-21 22:42:55.278000+00:00,train
640,-0.5908775329589844,-1.0,2021-01-21 22:43:25.278000+00:00,train
641,-0.5883466601371765,-1.0,2021-01-21 22:43:55.278000+00:00,train
642,-0.5860893726348877,-1.0,2021-01-21 22:44:25.278000+00:00,train
643,-0.5841131210327148,-1.0,2021-01-21 22:44:55.278000+00:00,train
644,-0.5824249386787415,-1.0,2021-01-21 22:45:25.278000+00:00,train
645,-0.5810340046882629,-1.0,2021-01-21 22:45:55.278000+00:00,train
646,-0.5799493193626404,-1.0,2021-01-21 22:46:25.278000+00:00,train
647,-0.5791816115379333,-1.0,2021-01-21 22:46:55.278000+00:00,train
648,-0.5787420272827148,-1.0,2021-01-21 22:47:25.278000+00:00,train
649,-0.5786430835723877,-1.0,2021-01-21 22:47:55.278000+00:00,train
650,-0.5788979530334473,-1.0,2021-01-21 22:48:25.278000+00:00,train
651,-0.5795220136642456,-1.0,2021-01-21 22:48:55.278000+00:00,train
652,-0.5805315375328064,-1.0,2021-01-21 22:49:25.278000+00:00,train
653,-0.5819451808929443,-1.0,2021-01-21 22:49:55.278000+00:00,train
654,-0.5837830305099487,-1.0,2021-01-21 22:50:25.278000+00:00,train
655,-0.5860674977302551,-1.0,2021-01-21 22:50:55.278000+00:00,train
656,-0.5888242721557617,-1.0,2021-01-21 22:51:25.278000+00:00,train
657,-0.5920820832252502,-1.0,2021-01-21 22:51:55.278000+00:00,train
658,-0.5958732962608337,-1.0,2021-01-21 22:52:25.278000+00:00,train
659,-0.6002348065376282,-1.0,2021-01-21 22:52:55.278000+00:00,train
660,-0.6052094101905823,-1.0,2021-01-21 22:53:25.278000+00:00,train
661,-0.6108461022377014,-1.0,2021-01-21 22:53:55.278000+00:00,train
662,-0.6172029376029968,-1.0,2021-01-21 22:54:25.278000+00:00,train
663,-0.6243442893028259,-1.0,2021-01-21 22:54:55.278000+00:00,train
664,-0.6323562860488892,-1.0,2021-01-21 22:55:25.278000+00:00,train
665,-0.6413365006446838,-1.0,2021-01-21 22:55:55.278000+00:00,train
666,-0.6514055132865906,-1.0,2021-01-21 22:56:25.278000+00:00,train
667,-0.6627150177955627,-1.0,2021-01-21 22:56:55.278000+00:00,train
668,-0.6754602789878845,-1.0,2021-01-21 22:57:25.278000+00:00,train
669,-0.6898992657661438,-1.0,2021-01-21 22:57:55.278000+00:00,train
670,-0.689887285232544,-1.0,2021-01-21 22:58:25.278000+00:00,train
671,-0.7063745260238647,-1.0,2021-01-21 22:58:55.278000+00:00,train
672,-0.7254180312156677,-1.0,2021-01-21 22:59:25.278000+00:00,train
673,-0.7477976679801941,-1.0,2021-01-21 22:59:55.278000+00:00,train
674,-0.774826169013977,-1.0,2021-01-21 23:00:25.278000+00:00,train
675,-0.8090698719024658,0.0,2021-01-21 23:00:55.278000+00:00,train
676,-0.8572173714637756,-1.0,2021-01-21 23:01:25.278000+00:00,train
677,-0.8572123050689697,-1.0,2021-01-21 23:01:55.278000+00:00,train
678,-0.8572075366973877,-1.0,2021-01-21 23:02:25.278000+00:00,train
679,-0.857132077217102,-1.0,2021-01-21 23:02:55.278000+00:00,train
680,-0.8571652173995972,-1.0,2021-01-21 23:03:25.278000+00:00,train
681,-0.8571763634681702,-1.0,2021-01-21 23:03:55.278000+00:00,train
682,-0.8571793437004089,-1.0,2021-01-21 23:04:25.278000+00:00,train
683,-0.8571781516075134,-1.0,2021-01-21 23:04:55.278000+00:00,train
684,-0.8571751117706299,-1.0,2021-01-21 23:05:25.278000+00:00,train
685,-0.8571712374687195,-1.0,2021-01-21 23:05:55.278000+00:00,train
686,-0.8571683168411255,-1.0,2021-01-21 23:06:25.278000+00:00,train
687,-0.8571645617485046,-1.0,2021-01-21 23:06:55.278000+00:00,train
688,-0.857160210609436,-1.0,2021-01-21 23:07:25.278000+00:00,train
689,-0.8571555614471436,-1.0,2021-01-21 23:07:55.278000+00:00,train
690,-0.8571508526802063,-1.0,2021-01-21 23:08:25.278000+00:00,train
691,-0.8571459650993347,-1.0,2021-01-21 23:08:55.278000+00:00,train
692,-0.8571410179138184,-1.0,2021-01-21 23:09:25.278000+00:00,train
693,-0.857136070728302,-1.0,2021-01-21 23:09:55.278000+00:00,train
694,-0.8571310639381409,-1.0,2021-01-21 23:10:25.278000+00:00,train
695,-0.857125997543335,-1.0,2021-01-21 23:10:55.278000+00:00,train
696,-0.8571209907531738,-1.0,2021-01-21 23:11:25.278000+00:00,train
697,-0.8571159839630127,-1.0,2021-01-21 23:11:55.278000+00:00,train
698,-0.857110857963562,-1.0,2021-01-21 23:12:25.278000+00:00,train
699,-0.8571058511734009,-1.0,2021-01-21 23:12:55.278000+00:00,train
700,-0.8571006655693054,-1.0,2021-01-21 23:13:25.278000+00:00,train
701,-0.85709547996521,-1.0,2021-01-21 23:13:55.278000+00:00,train
702,-0.8570902943611145,-1.0,2021-01-21 23:14:25.278000+00:00,train
703,-0.8570850491523743,-1.0,2021-01-21 23:14:55.278000+00:00,train
704,-0.857079803943634,-1.0,2021-01-21 23:15:25.278000+00:00,train
705,-0.857074499130249,-1.0,2021-01-21 23:15:55.278000+00:00,train
706,-0.8570692539215088,-1.0,2021-01-21 23:16:25.278000+00:00,train
707,-0.8570639491081238,-1.0,2021-01-21 23:16:55.278000+00:00,train
708,-0.8570587038993835,-1.0,2021-01-21 23:17:25.278000+00:00,train
709,-0.8570533394813538,-1.0,2021-01-21 23:17:55.278000+00:00,train
710,-0.8570480346679688,-1.0,2021-01-21 23:18:25.278000+00:00,train
711,-0.8570427298545837,-1.0,2021-01-21 23:18:55.278000+00:00,train
712,-0.857036828994751,-1.0,2021-01-21 23:19:25.278000+00:00,train
713,-0.8570312261581421,-1.0,2021-01-21 23:19:55.278000+00:00,train
714,-0.857025682926178,-1.0,2021-01-21 23:20:25.278000+00:00,train
715,-0.8570202589035034,-1.0,2021-01-21 23:20:55.278000+00:00,train
716,-0.8570148944854736,-1.0,2021-01-21 23:21:25.278000+00:00,train
717,-0.8570094704627991,-1.0,2021-01-21 23:21:55.278000+00:00,train
718,-0.8570039868354797,-1.0,2021-01-21 23:22:25.278000+00:00,train
719,-0.8569985628128052,-1.0,2021-01-21 23:22:55.278000+00:00,train
720,-0.8569931387901306,-1.0,2021-01-21 23:23:25.278000+00:00,train
721,-0.856987714767456,-1.0,2021-01-21 23:23:55.278000+00:00,train
722,-0.8569821715354919,-1.0,2021-01-21 23:24:25.278000+00:00,train
723,-0.8569766879081726,-1.0,2021-01-21 23:24:55.278000+00:00,train
724,-0.8569712042808533,-1.0,2021-01-21 23:25:25.278000+00:00,train
725,-0.8569657206535339,-1.0,2021-01-21 23:25:55.278000+00:00,train
726,-0.8569602370262146,-1.0,2021-01-21 23:26:25.278000+00:00,train
727,-0.8569546937942505,-1.0,2021-01-21 23:26:55.278000+00:00,train
728,-0.8569491505622864,-1.0,2021-01-21 23:27:25.278000+00:00,train
729,-0.8569435477256775,-1.0,2021-01-21 23:27:55.278000+00:00,train
730,-0.8569380044937134,-1.0,2021-01-21 23:28:25.278000+00:00,train
731,-0.8569323420524597,-1.0,2021-01-21 23:28:55.278000+00:00,train
732,-0.8569267392158508,-1.0,2021-01-21 23:29:25.278000+00:00,train
733,-0.8569211363792419,-1.0,2021-01-21 23:29:55.278000+00:00,train
734,-0.8569149971008301,-1.0,2021-01-21 23:30:25.278000+00:00,train
735,-0.8569090962409973,-1.0,2021-01-21 23:30:55.278000+00:00,train
736,-0.8569033145904541,-1.0,2021-01-21 23:31:25.278000+00:00,train
737,-0.8568975925445557,-1.0,2021-01-21 23:31:55.278000+00:00,train
738,-0.8568918704986572,-1.0,2021-01-21 23:32:25.278000+00:00,train
739,-0.8568862080574036,-1.0,2021-01-21 23:32:55.278000+00:00,train
740,-0.8568804860115051,-1.0,2021-01-21 23:33:25.278000+00:00,train
741,-0.8568748235702515,-1.0,2021-01-21 23:33:55.278000+00:00,train
742,-0.8568690419197083,-1.0,2021-01-21 23:34:25.278000+00:00,train
743,-0.8568633198738098,-1.0,2021-01-21 23:34:55.278000+00:00,train
744,-0.8568575382232666,-1.0,2021-01-21 23:35:25.278000+00:00,train
745,-0.8568518161773682,-1.0,2021-01-21 23:35:55.278000+00:00,train
746,-0.856846034526825,-1.0,2021-01-21 23:36:25.278000+00:00,train
747,-0.856840193271637,-1.0,2021-01-21 23:36:55.278000+00:00,train
748,-0.8568344116210938,-1.0,2021-01-21 23:37:25.278000+00:00,train
749,-0.8568286299705505,-1.0,2021-01-21 23:37:55.278000+00:00,train
750,-0.8568227887153625,-1.0,2021-01-21 23:38:25.278000+00:00,train
751,-0.8568169474601746,-1.0,2021-01-21 23:38:55.278000+00:00,train
752,-0.8568111062049866,-1.0,2021-01-21 23:39:25.278000+00:00,train
753,-0.856805145740509,-1.0,2021-01-21 23:39:55.278000+00:00,train
754,-0.856799304485321,-1.0,2021-01-21 23:40:25.278000+00:00,train
755,-0.8567934036254883,-1.0,2021-01-21 23:40:55.278000+00:00,train
756,-0.8567875027656555,-1.0,2021-01-21 23:41:25.278000+00:00,train
757,-0.8567816019058228,-1.0,2021-01-21 23:41:55.278000+00:00,train
758,-0.8567756414413452,-1.0,2021-01-21 23:42:25.278000+00:00,train
759,-0.8567696809768677,-1.0,2021-01-21 23:42:55.278000+00:00,train
760,-0.8567637205123901,-1.0,2021-01-21 23:43:25.278000+00:00,train
761,-0.8567577600479126,-1.0,2021-01-21 23:43:55.278000+00:00,train
762,-0.8567517399787903,-1.0,2021-01-21 23:44:25.278000+00:00,train
763,-0.8567453026771545,-1.0,2021-01-21 23:44:55.278000+00:00,train
764,-0.8567390441894531,-1.0,2021-01-21 23:45:25.278000+00:00,train
765,-0.8567329049110413,-1.0,2021-01-21 23:45:55.278000+00:00,train
766,-0.8567267656326294,-1.0,2021-01-21 23:46:25.278000+00:00,train
767,-0.8567206859588623,-1.0,2021-01-21 23:46:55.278000+00:00,train
768,-0.8567146062850952,-1.0,2021-01-21 23:47:25.278000+00:00,train
769,-0.8567085266113281,-1.0,2021-01-21 23:47:55.278000+00:00,train
770,-0.856702446937561,-1.0,2021-01-21 23:48:25.278000+00:00,train
771,-0.8566963076591492,-1.0,2021-01-21 23:48:55.278000+00:00,train
772,-0.8566902279853821,-1.0,2021-01-21 23:49:25.278000+00:00,train
773,-0.8566840887069702,-1.0,2021-01-21 23:49:55.278000+00:00,train
774,-0.8566779494285583,-1.0,2021-01-21 23:50:25.278000+00:00,train
775,-0.8566716909408569,-1.0,2021-01-21 23:50:55.278000+00:00,train
776,-0.8566655516624451,-1.0,2021-01-21 23:51:25.278000+00:00,train
777,-0.8566594123840332,-1.0,2021-01-21 23:51:55.278000+00:00,train
778,-0.8566531538963318,-1.0,2021-01-21 23:52:25.278000+00:00,train
779,-0.8566470146179199,-1.0,2021-01-21 23:52:55.278000+00:00,train
780,-0.8566407561302185,-1.0,2021-01-21 23:53:25.278000+00:00,train
781,-0.8566344380378723,-1.0,2021-01-21 23:53:55.278000+00:00,train
782,-0.8566281795501709,-1.0,2021-01-21 23:54:25.278000+00:00,train
783,-0.8566219210624695,-1.0,2021-01-21 23:54:55.278000+00:00,train
784,-0.8566156625747681,-1.0,2021-01-21 23:55:25.278000+00:00,train
785,-0.8566094040870667,-1.0,2021-01-21 23:55:55.278000+00:00,train
786,-0.8566032648086548,-1.0,2021-01-21 23:56:25.278000+00:00,train
787,-0.8565972447395325,-1.0,2021-01-21 23:56:55.278000+00:00,train
788,-0.8565910458564758,-1.0,2021-01-21 23:57:25.278000+00:00,train
789,-0.8565847873687744,-1.0,2021-01-21 23:57:55.278000+00:00,train
790,-0.8565784692764282,-1.0,2021-01-21 23:58:25.278000+00:00,train
791,-0.856572151184082,-1.0,2021-01-21 23:58:55.278000+00:00,train
792,-0.8565657734870911,-1.0,2021-01-21 23:59:25.278000+00:00,train
793,-0.8565593957901001,-1.0,2021-01-21 23:59:55.278000+00:00,train
794,-0.8565528988838196,-1.0,2021-01-22 00:00:25.278000+00:00,train
795,-0.8565463423728943,-1.0,2021-01-22 00:00:55.278000+00:00,train
796,-0.8565397262573242,-1.0,2021-01-22 00:01:25.278000+00:00,train
797,-0.8565331697463989,-1.0,2021-01-22 00:01:55.278000+00:00,train
798,-0.8565266132354736,-1.0,2021-01-22 00:02:25.278000+00:00,train
799,-1.0,-1.0,2021-01-22 00:02:55.278000+00:00,train
800,-1.0,-1.0,2021-01-22 00:03:25.278000+00:00,train
801,-1.0,-1.0,2021-01-22 00:03:55.278000+00:00,train
802,-1.0,-1.0,2021-01-22 00:04:25.278000+00:00,train
803,-1.0,-1.0,2021-01-22 00:04:55.278000+00:00,train
804,-1.0,-1.0,2021-01-22 00:05:25.278000+00:00,train
805,-1.0,-1.0,2021-01-22 00:05:55.278000+00:00,train
806,-1.0,-1.0,2021-01-22 00:06:25.278000+00:00,train
807,-1.0,-1.0,2021-01-22 00:06:55.278000+00:00,train
808,-1.0,-1.0,2021-01-22 00:07:25.278000+00:00,train
809,-1.0,-1.0,2021-01-22 00:07:55.278000+00:00,train
810,-1.0,-1.0,2021-01-22 00:08:25.278000+00:00,train
811,-1.0,-1.0,2021-01-22 00:08:55.278000+00:00,train
812,-1.0,-1.0,2021-01-22 00:09:25.278000+00:00,train
813,-1.0,-1.0,2021-01-22 00:09:55.278000+00:00,train
814,-1.0,-1.0,2021-01-22 00:10:25.278000+00:00,train
815,-1.0,-1.0,2021-01-22 00:10:55.278000+00:00,train
816,-1.0,-1.0,2021-01-22 00:11:25.278000+00:00,train
817,-1.0,-1.0,2021-01-22 00:11:55.278000+00:00,train
818,-1.0,-1.0,2021-01-22 00:12:25.278000+00:00,train
819,-1.0,-1.0,2021-01-22 00:12:55.278000+00:00,train
820,-1.0,-1.0,2021-01-22 00:13:25.278000+00:00,train
821,-1.0,-1.0,2021-01-22 00:13:55.278000+00:00,train
822,-1.0,-1.0,2021-01-22 00:14:25.278000+00:00,train
823,-1.0,-1.0,2021-01-22 00:14:55.278000+00:00,train
824,-1.0,-1.0,2021-01-22 00:15:25.278000+00:00,train
825,-1.0,-1.0,2021-01-22 00:15:55.278000+00:00,train
826,-1.0,-1.0,2021-01-22 00:16:25.278000+00:00,train
827,-1.0,-1.0,2021-01-22 00:16:55.278000+00:00,train
828,-1.0,-1.0,2021-01-22 00:17:25.278000+00:00,train
829,-1.0,-1.0,2021-01-22 00:17:55.278000+00:00,train
830,-1.0,-1.0,2021-01-22 00:18:25.278000+00:00,train
831,-1.0,-1.0,2021-01-22 00:18:55.278000+00:00,train
832,-1.0,-1.0,2021-01-22 00:19:25.278000+00:00,train
833,-1.0,-1.0,2021-01-22 00:19:55.278000+00:00,train
834,-1.0,-1.0,2021-01-22 00:20:25.278000+00:00,train
835,-1.0,-1.0,2021-01-22 00:20:55.278000+00:00,train
836,-1.0,-1.0,2021-01-22 00:21:25.278000+00:00,train
837,-1.0,-1.0,2021-01-22 00:21:55.278000+00:00,train
838,-1.0,-1.0,2021-01-22 00:22:25.278000+00:00,train
839,-1.0,-1.0,2021-01-22 00:22:55.278000+00:00,train
840,-1.0,-1.0,2021-01-22 00:23:25.278000+00:00,train
841,-1.0,-1.0,2021-01-22 00:23:55.278000+00:00,train
842,-1.0,-1.0,2021-01-22 00:24:25.278000+00:00,train
843,-1.0,-1.0,2021-01-22 00:24:55.278000+00:00,train
844,-1.0,-1.0,2021-01-22 00:25:25.278000+00:00,train
845,-1.0,-1.0,2021-01-22 00:25:55.278000+00:00,train
846,-1.0,-1.0,2021-01-22 00:26:25.278000+00:00,train
847,-1.0,-1.0,2021-01-22 00:26:55.278000+00:00,train
848,-1.0,-1.0,2021-01-22 00:27:25.278000+00:00,train
849,-1.0,-1.0,2021-01-22 00:27:55.278000+00:00,train
850,-1.0,-1.0,2021-01-22 00:28:25.278000+00:00,train
851,-1.0,-1.0,2021-01-22 00:28:55.278000+00:00,train
852,-1.0,-1.0,2021-01-22 00:29:25.278000+00:00,train
853,-1.0,-1.0,2021-01-22 00:29:55.278000+00:00,train
854,-1.0,-1.0,2021-01-22 00:30:25.278000+00:00,train
855,-1.0,-1.0,2021-01-22 00:30:55.278000+00:00,train
856,-1.0,-1.0,2021-01-22 00:31:25.278000+00:00,train
857,-1.0,-1.0,2021-01-22 00:31:55.278000+00:00,train
858,-1.0,-1.0,2021-01-22 00:32:25.278000+00:00,train
859,-1.0,-1.0,2021-01-22 00:32:55.278000+00:00,train
860,-1.0,-1.0,2021-01-22 00:33:25.278000+00:00,train
861,-1.0,-1.0,2021-01-22 00:33:55.278000+00:00,train
862,-1.0,-1.0,2021-01-22 00:34:25.278000+00:00,train
863,-1.0,-1.0,2021-01-22 00:34:55.278000+00:00,train
864,-1.0,-1.0,2021-01-22 00:35:25.278000+00:00,train
865,-1.0,-1.0,2021-01-22 00:35:55.278000+00:00,train
866,-1.0,-1.0,2021-01-22 00:36:25.278000+00:00,train
867,-1.0,-1.0,2021-01-22 00:36:55.278000+00:00,train
868,-1.0,-1.0,2021-01-22 00:37:25.278000+00:00,train
869,-1.0,-1.0,2021-01-22 00:37:55.278000+00:00,train
870,-1.0,-1.0,2021-01-22 00:38:25.278000+00:00,train
871,-1.0,-1.0,2021-01-22 00:38:55.278000+00:00,train
872,-1.0,-1.0,2021-01-22 00:39:25.278000+00:00,train
873,-1.0,-1.0,2021-01-22 00:39:55.278000+00:00,train
874,-1.0,-1.0,2021-01-22 00:40:25.278000+00:00,train
875,-1.0,-1.0,2021-01-22 00:40:55.278000+00:00,train
876,-1.0,-1.0,2021-01-22 00:41:25.278000+00:00,train
877,-1.0,-1.0,2021-01-22 00:41:55.278000+00:00,train
878,-1.0,-1.0,2021-01-22 00:42:25.278000+00:00,train
879,-1.0,-1.0,2021-01-22 00:42:55.278000+00:00,train
880,-1.0,-1.0,2021-01-22 00:43:25.278000+00:00,train
881,-1.0,-1.0,2021-01-22 00:43:55.278000+00:00,train
882,-1.0,-1.0,2021-01-22 00:44:25.278000+00:00,train
883,-1.0,-1.0,2021-01-22 00:44:55.278000+00:00,train
884,-1.0,-1.0,2021-01-22 00:45:25.278000+00:00,train
885,-1.0,-1.0,2021-01-22 00:45:55.278000+00:00,train
886,-1.0,-1.0,2021-01-22 00:46:25.278000+00:00,train
887,-1.0,-1.0,2021-01-22 00:46:55.278000+00:00,train
888,-1.0,-1.0,2021-01-22 00:47:25.278000+00:00,train
889,-1.0,-1.0,2021-01-22 00:47:55.278000+00:00,train
890,-1.0,-1.0,2021-01-22 00:48:25.278000+00:00,train
891,-1.0,-1.0,2021-01-22 00:48:55.278000+00:00,train
892,-1.0,-1.0,2021-01-22 00:49:25.278000+00:00,train
893,-1.0,-1.0,2021-01-22 00:49:55.278000+00:00,train
894,-1.0,-1.0,2021-01-22 00:50:25.278000+00:00,train
895,-1.0,-1.0,2021-01-22 00:50:55.278000+00:00,train
896,-1.0,-1.0,2021-01-22 00:51:25.278000+00:00,train
897,-1.0,-1.0,2021-01-22 00:51:55.278000+00:00,train
898,-1.0,-1.0,2021-01-22 00:52:25.278000+00:00,train
899,-1.0,-1.0,2021-01-22 00:52:55.278000+00:00,train
900,-1.0,-1.0,2021-01-22 00:53:25.278000+00:00,train
901,-1.0,-1.0,2021-01-22 00:53:55.278000+00:00,train
902,-1.0,-1.0,2021-01-22 00:54:25.278000+00:00,train
903,-1.0,-1.0,2021-01-22 00:54:55.278000+00:00,train
904,-1.0,-1.0,2021-01-22 00:55:25.278000+00:00,train
905,-1.0,-1.0,2021-01-22 00:55:55.278000+00:00,train
906,-1.0,-1.0,2021-01-22 00:56:25.278000+00:00,train
907,-1.0,-1.0,2021-01-22 00:56:55.278000+00:00,train
908,-1.0,-1.0,2021-01-22 00:57:25.278000+00:00,train
909,-1.0,-1.0,2021-01-22 00:57:55.278000+00:00,train
910,-1.0,-1.0,2021-01-22 00:58:25.278000+00:00,train
911,-1.0,-1.0,2021-01-22 00:58:55.278000+00:00,train
912,-1.0,-1.0,2021-01-22 00:59:25.278000+00:00,train
913,-1.0,-1.0,2021-01-22 00:59:55.278000+00:00,train
914,-1.0,-1.0,2021-01-22 01:00:25.278000+00:00,train
915,-1.0,-1.0,2021-01-22 01:00:55.278000+00:00,train
916,-1.0,-1.0,2021-01-22 01:01:25.278000+00:00,train
917,-1.0,-1.0,2021-01-22 01:01:55.278000+00:00,train
918,-1.0,-1.0,2021-01-22 01:02:25.278000+00:00,train
919,-1.0,-1.0,2021-01-22 01:02:55.278000+00:00,train
920,-1.0,-1.0,2021-01-22 01:03:25.278000+00:00,train
921,-1.0,-1.0,2021-01-22 01:03:55.278000+00:00,train
922,-1.0,-1.0,2021-01-22 01:04:25.278000+00:00,train
923,-1.0,-1.0,2021-01-22 01:04:55.278000+00:00,train
924,-1.0,-1.0,2021-01-22 01:05:25.278000+00:00,train
925,-1.0,-1.0,2021-01-22 01:05:55.278000+00:00,train
926,-1.0,-1.0,2021-01-22 01:06:25.278000+00:00,train
927,-1.0,-1.0,2021-01-22 01:06:55.278000+00:00,train
928,-1.0,-1.0,2021-01-22 01:07:25.278000+00:00,train
929,-1.0,-1.0,2021-01-22 01:07:55.278000+00:00,train
930,-1.0,-1.0,2021-01-22 01:08:25.278000+00:00,train
931,-1.0,-1.0,2021-01-22 01:08:55.278000+00:00,train
932,-1.0,-1.0,2021-01-22 01:09:25.278000+00:00,train
933,-1.0,-1.0,2021-01-22 01:09:55.278000+00:00,train
934,-1.0,-1.0,2021-01-22 01:10:25.278000+00:00,train
935,-1.0,-1.0,2021-01-22 01:10:55.278000+00:00,train
936,-1.0,-1.0,2021-01-22 01:11:25.278000+00:00,train
937,-1.0,-1.0,2021-01-22 01:11:55.278000+00:00,train
938,-1.0,-1.0,2021-01-22 01:12:25.278000+00:00,train
939,-1.0,-1.0,2021-01-22 01:12:55.278000+00:00,train
940,-1.0,-1.0,2021-01-22 01:13:25.278000+00:00,train
941,-1.0,-1.0,2021-01-22 01:13:55.278000+00:00,train
942,-1.0,-1.0,2021-01-22 01:14:25.278000+00:00,train
943,-1.0,-1.0,2021-01-22 01:14:55.278000+00:00,train
944,-1.0,-1.0,2021-01-22 01:15:25.278000+00:00,train
945,-1.0,-1.0,2021-01-22 01:15:55.278000+00:00,train
946,-1.0,-1.0,2021-01-22 01:16:25.278000+00:00,train
947,-1.0,-1.0,2021-01-22 01:16:55.278000+00:00,train
948,-1.0,-1.0,2021-01-22 01:17:25.278000+00:00,train
949,-1.0,-1.0,2021-01-22 01:17:55.278000+00:00,train
950,-1.0,-1.0,2021-01-22 01:18:25.278000+00:00,train
951,-1.0,-1.0,2021-01-22 01:18:55.278000+00:00,train
952,-1.0,-1.0,2021-01-22 01:19:25.278000+00:00,train
953,-1.0,-1.0,2021-01-22 01:19:55.278000+00:00,train
954,-1.0,-1.0,2021-01-22 01:20:25.278000+00:00,train
955,-1.0,-1.0,2021-01-22 01:20:55.278000+00:00,train
956,-1.0,-1.0,2021-01-22 01:21:25.278000+00:00,train
957,-1.0,-1.0,2021-01-22 01:21:55.278000+00:00,train
958,-1.0,-1.0,2021-01-22 01:22:25.278000+00:00,train
959,-1.0,-1.0,2021-01-22 01:22:55.278000+00:00,train
960,-1.0,-1.0,2021-01-22 01:23:25.278000+00:00,train
961,-1.0,-1.0,2021-01-22 01:23:55.278000+00:00,train
962,-1.0,-1.0,2021-01-22 01:24:25.278000+00:00,train
963,-1.0,-1.0,2021-01-22 01:24:55.278000+00:00,train
964,-1.0,-1.0,2021-01-22 01:25:25.278000+00:00,train
965,-1.0,-1.0,2021-01-22 01:25:55.278000+00:00,train
966,-1.0,-1.0,2021-01-22 01:26:25.278000+00:00,train
967,-1.0,-1.0,2021-01-22 01:26:55.278000+00:00,train
968,-1.0,-1.0,2021-01-22 01:27:25.278000+00:00,train
969,-1.0,-1.0,2021-01-22 01:27:55.278000+00:00,train
970,-1.0,-1.0,2021-01-22 01:28:25.278000+00:00,train
971,-1.0,-1.0,2021-01-22 01:28:55.278000+00:00,train
972,-1.0,-1.0,2021-01-22 01:29:25.278000+00:00,train
973,-1.0,-1.0,2021-01-22 01:29:55.278000+00:00,train
974,-1.0,-1.0,2021-01-22 01:30:25.278000+00:00,train
975,-1.0,-1.0,2021-01-22 01:30:55.278000+00:00,train
976,-1.0,-1.0,2021-01-22 01:31:25.278000+00:00,train
977,-1.0,-1.0,2021-01-22 01:31:55.278000+00:00,train
978,-1.0,-1.0,2021-01-22 01:32:25.278000+00:00,train
979,-1.0,0.0,2021-01-22 01:32:55.278000+00:00,train
980,-1.0,0.0,2021-01-22 01:33:25.278000+00:00,train
981,-1.0,0.0,2021-01-22 01:33:55.278000+00:00,train
982,-1.0,0.0,2021-01-22 01:34:25.278000+00:00,train
983,-0.8550570011138916,0.0,2021-01-22 01:34:55.278000+00:00,train
984,-0.7909407019615173,0.0,2021-01-22 01:35:25.278000+00:00,train
985,-0.7403538227081299,0.0,2021-01-22 01:35:55.278000+00:00,train
986,-0.6968631744384766,0.0,2021-01-22 01:36:25.278000+00:00,train
987,-0.6579668521881104,0.0,2021-01-22 01:36:55.278000+00:00,train
988,-0.6223766803741455,0.0,2021-01-22 01:37:25.278000+00:00,train
989,-0.5893248915672302,-1.0,2021-01-22 01:37:55.278000+00:00,train
990,-0.5583091974258423,0.0,2021-01-22 01:38:25.278000+00:00,train
991,-0.5289799571037292,0.0,2021-01-22 01:38:55.278000+00:00,train
992,-0.5010814666748047,0.0,2021-01-22 01:39:25.278000+00:00,train
993,-0.5010433793067932,0.0,2021-01-22 01:39:55.278000+00:00,train
994,-0.4743862450122833,0.0,2021-01-22 01:40:25.278000+00:00,train
995,-0.448813259601593,0.0,2021-01-22 01:40:55.278000+00:00,train
996,-0.4242056906223297,0.0,2021-01-22 01:41:25.278000+00:00,train
997,-0.40046632289886475,0.0,2021-01-22 01:41:55.278000+00:00,train
998,-0.37751510739326477,0.0,2021-01-22 01:42:25.278000+00:00,train
999,-0.35528460144996643,0.0,2021-01-22 01:42:55.278000+00:00,train
1000,-0.3337177336215973,0.0,2021-01-22 01:43:25.278000+00:00,train
1001,-0.3127652704715729,0.0,2021-01-22 01:43:55.278000+00:00,train
1002,-0.2923853099346161,0.0,2021-01-22 01:44:25.278000+00:00,train
1003,-0.2725411355495453,0.0,2021-01-22 01:44:55.278000+00:00,train
1004,-0.2532005310058594,0.0,2021-01-22 01:45:25.278000+00:00,train
1005,-0.23433485627174377,0.0,2021-01-22 01:45:55.278000+00:00,train
1006,-0.21591921150684357,0.0,2021-01-22 01:46:25.278000+00:00,train
1007,-0.19793076813220978,0.0,2021-01-22 01:46:55.278000+00:00,train
1008,-0.1803494244813919,0.0,2021-01-22 01:47:25.278000+00:00,train
1009,-0.16315707564353943,0.0,2021-01-22 01:47:55.278000+00:00,train
1010,-0.14633767306804657,0.0,2021-01-22 01:48:25.278000+00:00,train
1011,-0.129876047372818,0.0,2021-01-22 01:48:55.278000+00:00,train
1012,-0.11375892907381058,0.0,2021-01-22 01:49:25.278000+00:00,train
1013,-0.09797407686710358,0.0,2021-01-22 01:49:55.278000+00:00,train
1014,-0.08251040428876877,0.0,2021-01-22 01:50:25.278000+00:00,train
1015,-0.06735739856958389,0.0,2021-01-22 01:50:55.278000+00:00,train
1016,-0.052506014704704285,0.0,2021-01-22 01:51:25.278000+00:00,train
1017,-0.03794751688838005,0.0,2021-01-22 01:51:55.278000+00:00,train
1018,-0.02367420680820942,0.0,2021-01-22 01:52:25.278000+00:00,train
1019,-0.009678876027464867,0.0,2021-01-22 01:52:55.278000+00:00,train
1020,0.004045396111905575,0.0,2021-01-22 01:53:25.278000+00:00,train
1021,0.017504708841443062,0.0,2021-01-22 01:53:55.278000+00:00,train
1022,0.03070480190217495,0.0,2021-01-22 01:54:25.278000+00:00,train
1023,0.04365110397338867,0.0,2021-01-22 01:54:55.278000+00:00,train
1024,0.05634816735982895,0.0,2021-01-22 01:55:25.278000+00:00,train
1025,0.06880077719688416,0.0,2021-01-22 01:55:55.278000+00:00,train
1026,0.081014484167099,0.0,2021-01-22 01:56:25.278000+00:00,train
1027,0.07965423911809921,0.0,2021-01-22 01:56:55.278000+00:00,train
1028,0.09128235280513763,0.0,2021-01-22 01:57:25.278000+00:00,train
1029,0.10269321501255035,0.0,2021-01-22 01:57:55.278000+00:00,train
1030,0.11388084292411804,0.0,2021-01-22 01:58:25.278000+00:00,train
1031,0.1224261075258255,0.0,2021-01-22 01:58:55.278000+00:00,train
1032,0.13313855230808258,0.0,2021-01-22 01:59:25.278000+00:00,train
1033,0.1436607986688614,0.0,2021-01-22 01:59:55.278000+00:00,train
1034,0.1539696305990219,0.0,2021-01-22 02:00:25.278000+00:00,train
1035,0.16406580805778503,0.0,2021-01-22 02:00:55.278000+00:00,train
1036,0.1721651256084442,0.0,2021-01-22 02:01:25.278000+00:00,train
1037,0.18183834850788116,0.0,2021-01-22 02:01:55.278000+00:00,train
1038,0.19130399823188782,0.0,2021-01-22 02:02:25.278000+00:00,train
1039,0.20056293904781342,0.0,2021-01-22 02:02:55.278000+00:00,train
1040,0.2087450921535492,0.0,2021-01-22 02:03:25.278000+00:00,train
1041,0.2175925374031067,0.0,2021-01-22 02:03:55.278000+00:00,train
1042,0.22623556852340698,0.0,2021-01-22 02:04:25.278000+00:00,train
1043,0.23467475175857544,0.0,2021-01-22 02:04:55.278000+00:00,train
1044,0.2429092824459076,0.0,2021-01-22 02:05:25.278000+00:00,train
1045,0.2509399652481079,0.0,2021-01-22 02:05:55.278000+00:00,train
1046,0.25876614451408386,0.0,2021-01-22 02:06:25.278000+00:00,train
1047,0.2660698890686035,0.0,2021-01-22 02:06:55.278000+00:00,train
1048,0.27348530292510986,0.0,2021-01-22 02:07:25.278000+00:00,train
1049,0.2806945741176605,0.0,2021-01-22 02:07:55.278000+00:00,train
1050,0.28769442439079285,0.0,2021-01-22 02:08:25.278000+00:00,train
1051,0.29448774456977844,0.0,2021-01-22 02:08:55.278000+00:00,train
1052,0.30107203125953674,0.0,2021-01-22 02:09:25.278000+00:00,train
1053,0.30744531750679016,0.0,2021-01-22 02:09:55.278000+00:00,train
1054,0.3136172294616699,0.0,2021-01-22 02:10:25.278000+00:00,train
1055,0.3195631206035614,0.0,2021-01-22 02:10:55.278000+00:00,train
1056,0.3252919614315033,0.0,2021-01-22 02:11:25.278000+00:00,train
1057,0.33080172538757324,0.0,2021-01-22 02:11:55.278000+00:00,train
1058,0.3360893130302429,0.0,2021-01-22 02:12:25.278000+00:00,train
1059,0.34115201234817505,0.0,2021-01-22 02:12:55.278000+00:00,train
1060,0.34598714113235474,0.0,2021-01-22 02:13:25.278000+00:00,train
1061,0.35059046745300293,0.0,2021-01-22 02:13:55.278000+00:00,train
1062,0.354959100484848,0.0,2021-01-22 02:14:25.278000+00:00,train
1063,0.35908836126327515,0.0,2021-01-22 02:14:55.278000+00:00,train
1064,0.3629741966724396,0.0,2021-01-22 02:15:25.278000+00:00,train
1065,0.36661195755004883,0.0,2021-01-22 02:15:55.278000+00:00,train
1066,0.3699961304664612,0.0,2021-01-22 02:16:25.278000+00:00,train
1067,0.37312138080596924,0.0,2021-01-22 02:16:55.278000+00:00,train
1068,0.3759814202785492,0.0,2021-01-22 02:17:25.278000+00:00,train
1069,0.3785698711872101,0.0,2021-01-22 02:17:55.278000+00:00,train
1070,0.3808795213699341,0.0,2021-01-22 02:18:25.278000+00:00,train
1071,0.3829026222229004,0.0,2021-01-22 02:18:55.278000+00:00,train
1072,0.3846306800842285,0.0,2021-01-22 02:19:25.278000+00:00,train
1073,0.3860546350479126,0.0,2021-01-22 02:19:55.278000+00:00,train
1074,0.3871643841266632,0.0,2021-01-22 02:20:25.278000+00:00,train
1075,0.38794875144958496,0.0,2021-01-22 02:20:55.278000+00:00,train
1076,0.38839593529701233,0.0,2021-01-22 02:21:25.278000+00:00,train
1077,0.38849273324012756,0.0,2021-01-22 02:21:55.278000+00:00,train
1078,0.3882247507572174,0.0,2021-01-22 02:22:25.278000+00:00,train
1079,0.387575626373291,0.0,2021-01-22 02:22:55.278000+00:00,train
1080,0.3865278661251068,0.0,2021-01-22 02:23:25.278000+00:00,train
1081,0.38506171107292175,0.0,2021-01-22 02:23:55.278000+00:00,train
1082,0.38315486907958984,0.0,2021-01-22 02:24:25.278000+00:00,train
1083,0.3807830214500427,0.0,2021-01-22 02:24:55.278000+00:00,train
1084,0.3779178857803345,0.0,2021-01-22 02:25:25.278000+00:00,train
1085,0.374528169631958,0.0,2021-01-22 02:25:55.278000+00:00,val
1086,0.37057775259017944,0.0,2021-01-22 02:26:25.278000+00:00,val
1087,0.3660251200199127,0.0,2021-01-22 02:26:55.278000+00:00,val
1088,0.3608225882053375,0.0,2021-01-22 02:27:25.278000+00:00,val
1089,0.35491400957107544,0.0,2021-01-22 02:27:55.278000+00:00,val
1090,0.34823352098464966,0.0,2021-01-22 02:28:25.278000+00:00,val
1091,0.3407019078731537,0.0,2021-01-22 02:28:55.278000+00:00,val
1092,0.33222389221191406,0.0,2021-01-22 02:29:25.278000+00:00,val
1093,0.3226817548274994,0.0,2021-01-22 02:29:55.278000+00:00,val
1094,0.31192803382873535,0.0,2021-01-22 02:30:25.278000+00:00,val
1095,0.29977357387542725,0.0,2021-01-22 02:30:55.278000+00:00,val
1096,0.28596821427345276,0.0,2021-01-22 02:31:25.278000+00:00,val
1097,0.2701698839664459,0.0,2021-01-22 02:31:55.278000+00:00,val
1098,0.25188735127449036,0.0,2021-01-22 02:32:25.278000+00:00,val
1099,0.23036949336528778,0.0,2021-01-22 02:32:55.278000+00:00,val
1100,0.20435641705989838,0.0,2021-01-22 02:33:25.278000+00:00,val
1101,0.17140139639377594,0.0,2021-01-22 02:33:55.278000+00:00,val
1102,0.12521380186080933,0.0,2021-01-22 02:34:25.278000+00:00,val
1103,0.12521429359912872,0.0,2021-01-22 02:34:55.278000+00:00,val
1104,0.1252148449420929,0.0,2021-01-22 02:35:25.278000+00:00,val
1105,0.1252153366804123,0.0,2021-01-22 02:35:55.278000+00:00,val
1106,0.12521585822105408,0.0,2021-01-22 02:36:25.278000+00:00,val
1107,0.12521636486053467,0.0,2021-01-22 02:36:55.278000+00:00,val
1108,0.12521690130233765,0.0,2021-01-22 02:37:25.278000+00:00,val
1109,0.12521737813949585,0.0,2021-01-22 02:37:55.278000+00:00,val
1110,0.12521789968013763,0.0,2021-01-22 02:38:25.278000+00:00,val
1111,0.12521842122077942,0.0,2021-01-22 02:38:55.278000+00:00,val
1112,0.12521892786026,0.0,2021-01-22 02:39:25.278000+00:00,val
1113,0.0,0.0,2021-01-22 02:39:55.278000+00:00,val
1114,0.0,0.0,2021-01-22 02:40:25.278000+00:00,val
1115,0.0,0.0,2021-01-22 02:40:55.278000+00:00,val
1116,0.0,0.0,2021-01-22 02:41:25.278000+00:00,val
1117,0.0,0.0,2021-01-22 02:41:55.278000+00:00,val
1118,0.0,0.0,2021-01-22 02:42:25.278000+00:00,val
1119,0.0,0.0,2021-01-22 02:42:55.278000+00:00,val
1120,0.0,0.0,2021-01-22 02:43:25.278000+00:00,val
1121,0.0,0.0,2021-01-22 02:43:55.278000+00:00,val
1122,0.0,0.0,2021-01-22 02:44:25.278000+00:00,val
1123,0.0,0.0,2021-01-22 02:44:55.278000+00:00,val
1124,0.0,0.0,2021-01-22 02:45:25.278000+00:00,val
1125,0.0,0.0,2021-01-22 02:45:55.278000+00:00,val
1126,0.0,0.0,2021-01-22 02:46:25.278000+00:00,val
1127,0.0,0.0,2021-01-22 02:46:55.278000+00:00,val
1128,0.0,0.0,2021-01-22 02:47:25.278000+00:00,val
1129,0.0,0.0,2021-01-22 02:47:55.278000+00:00,val
1130,0.0,0.0,2021-01-22 02:48:25.278000+00:00,val
1131,0.0,0.0,2021-01-22 02:48:55.278000+00:00,val
1132,0.0,0.0,2021-01-22 02:49:25.278000+00:00,val
1133,0.0,0.0,2021-01-22 02:49:55.278000+00:00,val
1134,0.0,0.0,2021-01-22 02:50:25.278000+00:00,val
1135,0.0,0.0,2021-01-22 02:50:55.278000+00:00,val
1136,0.0,0.0,2021-01-22 02:51:25.278000+00:00,val
1137,0.0,0.0,2021-01-22 02:51:55.278000+00:00,val
1138,0.0,0.0,2021-01-22 02:52:25.278000+00:00,val
1139,0.0,0.0,2021-01-22 02:52:55.278000+00:00,val
1140,0.0,0.0,2021-01-22 02:53:25.278000+00:00,val
1141,0.0,0.0,2021-01-22 02:53:55.278000+00:00,val
1142,0.0,0.0,2021-01-22 02:54:25.278000+00:00,val
1143,0.0,0.0,2021-01-22 02:54:55.278000+00:00,val
1144,0.0,0.0,2021-01-22 02:55:25.278000+00:00,val
1145,0.0,0.0,2021-01-22 02:55:55.278000+00:00,val
1146,0.0,0.0,2021-01-22 02:56:25.278000+00:00,val
1147,0.0,0.0,2021-01-22 02:56:55.278000+00:00,val
1148,0.0,0.0,2021-01-22 02:57:25.278000+00:00,val
1149,0.0,0.0,2021-01-22 02:57:55.278000+00:00,val
1150,0.0,0.0,2021-01-22 02:58:25.278000+00:00,val
1151,0.0,0.0,2021-01-22 02:58:55.278000+00:00,val
1152,0.0,0.0,2021-01-22 02:59:25.278000+00:00,val
1153,0.0,0.0,2021-01-22 02:59:55.278000+00:00,val
1154,0.0,0.0,2021-01-22 03:00:25.278000+00:00,val
1155,0.0,0.0,2021-01-22 03:00:55.278000+00:00,val
1156,0.0,0.0,2021-01-22 03:01:25.278000+00:00,val
1157,0.0,0.0,2021-01-22 03:01:55.278000+00:00,val
1158,0.0,0.0,2021-01-22 03:02:25.278000+00:00,val
1159,0.0,0.0,2021-01-22 03:02:55.278000+00:00,val
1160,0.0,0.0,2021-01-22 03:03:25.278000+00:00,val
1161,0.0,0.0,2021-01-22 03:03:55.278000+00:00,val
1162,0.0,0.0,2021-01-22 03:04:25.278000+00:00,val
1163,0.0,0.0,2021-01-22 03:04:55.278000+00:00,val
1164,0.0,0.0,2021-01-22 03:05:25.278000+00:00,val
1165,0.0,0.0,2021-01-22 03:05:55.278000+00:00,val
1166,0.0,0.0,2021-01-22 03:06:25.278000+00:00,val
1167,0.0,0.0,2021-01-22 03:06:55.278000+00:00,val
1168,0.0,0.0,2021-01-22 03:07:25.278000+00:00,val
1169,0.0,0.0,2021-01-22 03:07:55.278000+00:00,val
1170,0.0,0.0,2021-01-22 03:08:25.278000+00:00,val
1171,0.0,0.0,2021-01-22 03:08:55.278000+00:00,val
1172,0.0,0.0,2021-01-22 03:09:25.278000+00:00,val
1173,0.0,0.0,2021-01-22 03:09:55.278000+00:00,val
1174,0.0,0.0,2021-01-22 03:10:25.278000+00:00,val
1175,0.0,0.0,2021-01-22 03:10:55.278000+00:00,val
1176,0.0,0.0,2021-01-22 03:11:25.278000+00:00,val
1177,0.0,0.0,2021-01-22 03:11:55.278000+00:00,val
1178,0.0,0.0,2021-01-22 03:12:25.278000+00:00,val
1179,0.0,0.0,2021-01-22 03:12:55.278000+00:00,val
1180,0.0,0.0,2021-01-22 03:13:25.278000+00:00,val
1181,0.0,0.0,2021-01-22 03:13:55.278000+00:00,val
1182,0.0,0.0,2021-01-22 03:14:25.278000+00:00,val
1183,0.0,0.0,2021-01-22 03:14:55.278000+00:00,val
1184,0.0,0.0,2021-01-22 03:15:25.278000+00:00,val
1185,0.0,0.0,2021-01-22 03:15:55.278000+00:00,val
1186,0.0,0.0,2021-01-22 03:16:25.278000+00:00,val
1187,0.0,0.0,2021-01-22 03:16:55.278000+00:00,val
1188,0.0,0.0,2021-01-22 03:17:25.278000+00:00,val
1189,0.0,0.0,2021-01-22 03:17:55.278000+00:00,val
1190,0.0,0.0,2021-01-22 03:18:25.278000+00:00,val
1191,0.0,0.0,2021-01-22 03:18:55.278000+00:00,val
1192,0.0,0.0,2021-01-22 03:19:25.278000+00:00,val
1193,0.0,0.0,2021-01-22 03:19:55.278000+00:00,val
1194,0.0,0.0,2021-01-22 03:20:25.278000+00:00,val
1195,0.0,0.0,2021-01-22 03:20:55.278000+00:00,val
1196,0.0,0.0,2021-01-22 03:21:25.278000+00:00,val
1197,0.0,0.0,2021-01-22 03:21:55.278000+00:00,val
1198,0.0,0.0,2021-01-22 03:22:25.278000+00:00,val
1199,0.0,0.0,2021-01-22 03:22:55.278000+00:00,val
1200,0.0,0.0,2021-01-22 03:23:25.278000+00:00,val
1201,0.0,0.0,2021-01-22 03:23:55.278000+00:00,val
1202,0.0,0.0,2021-01-22 03:24:25.278000+00:00,val
1203,0.0,0.0,2021-01-22 03:24:55.278000+00:00,val
1204,0.0,0.0,2021-01-22 03:25:25.278000+00:00,val
1205,0.0,0.0,2021-01-22 03:25:55.278000+00:00,val
1206,0.0,0.0,2021-01-22 03:26:25.278000+00:00,val
1207,0.0,0.0,2021-01-22 03:26:55.278000+00:00,val
1208,0.0,0.0,2021-01-22 03:27:25.278000+00:00,val
1209,0.0,0.0,2021-01-22 03:27:55.278000+00:00,val
1210,0.0,0.0,2021-01-22 03:28:25.278000+00:00,val
1211,0.0,0.0,2021-01-22 03:28:55.278000+00:00,val
1212,0.0,0.0,2021-01-22 03:29:25.278000+00:00,val
1213,0.0,0.0,2021-01-22 03:29:55.278000+00:00,val
1214,0.0,0.0,2021-01-22 03:30:25.278000+00:00,val
1215,0.0,0.0,2021-01-22 03:30:55.278000+00:00,val
1216,0.0,0.0,2021-01-22 03:31:25.278000+00:00,val
1217,0.0,0.0,2021-01-22 03:31:55.278000+00:00,val
1218,0.0,0.0,2021-01-22 03:32:25.278000+00:00,val
1219,0.0,0.0,2021-01-22 03:32:55.278000+00:00,val
1220,0.0,0.0,2021-01-22 03:33:25.278000+00:00,val
1221,0.0,0.0,2021-01-22 03:33:55.278000+00:00,val
1222,0.0,0.0,2021-01-22 03:34:25.278000+00:00,val
1223,0.0,0.0,2021-01-22 03:34:55.278000+00:00,val
1224,0.0,0.0,2021-01-22 03:35:25.278000+00:00,val
1225,0.0,0.0,2021-01-22 03:35:55.278000+00:00,val
1226,0.0,0.0,2021-01-22 03:36:25.278000+00:00,val
1227,0.0,0.0,2021-01-22 03:36:55.278000+00:00,val
1228,0.0,0.0,2021-01-22 03:37:25.278000+00:00,val
1229,0.0,0.0,2021-01-22 03:37:55.278000+00:00,val
1230,0.0,0.0,2021-01-22 03:38:25.278000+00:00,val
1231,0.0,0.0,2021-01-22 03:38:55.278000+00:00,val
1232,0.0,0.0,2021-01-22 03:39:25.278000+00:00,val
1233,0.0,0.0,2021-01-22 03:39:55.278000+00:00,val
1234,0.0,0.0,2021-01-22 03:40:25.278000+00:00,val
1235,0.0,0.0,2021-01-22 03:40:55.278000+00:00,val
1236,0.0,0.0,2021-01-22 03:41:25.278000+00:00,val
1237,0.0,0.0,2021-01-22 03:41:55.278000+00:00,val
1238,0.0,0.0,2021-01-22 03:42:25.278000+00:00,val
1239,0.0,0.0,2021-01-22 03:42:55.278000+00:00,val
1240,0.0,0.0,2021-01-22 03:43:25.278000+00:00,val
1241,0.0,0.0,2021-01-22 03:43:55.278000+00:00,val
1242,0.0,0.0,2021-01-22 03:44:25.278000+00:00,val
1243,0.0,0.0,2021-01-22 03:44:55.278000+00:00,val
1244,0.0,0.0,2021-01-22 03:45:25.278000+00:00,val
1245,0.0,0.0,2021-01-22 03:45:55.278000+00:00,val
1246,0.0,0.0,2021-01-22 03:46:25.278000+00:00,val
1247,0.0,0.0,2021-01-22 03:46:55.278000+00:00,val
1248,0.0,0.0,2021-01-22 03:47:25.278000+00:00,val
1249,0.0,0.0,2021-01-22 03:47:55.278000+00:00,val
1250,0.0,0.0,2021-01-22 03:48:25.278000+00:00,val
1251,0.0,0.0,2021-01-22 03:48:55.278000+00:00,val
1252,0.0,0.0,2021-01-22 03:49:25.278000+00:00,val
1253,0.0,0.0,2021-01-22 03:49:55.278000+00:00,val
1254,0.0,0.0,2021-01-22 03:50:25.278000+00:00,val
1255,0.0,0.0,2021-01-22 03:50:55.278000+00:00,val
1256,0.0,0.0,2021-01-22 03:51:25.278000+00:00,val
1257,0.0,0.0,2021-01-22 03:51:55.278000+00:00,val
1258,0.0,0.0,2021-01-22 03:52:25.278000+00:00,val
1259,0.0,0.0,2021-01-22 03:52:55.278000+00:00,val
1260,0.0,0.0,2021-01-22 03:53:25.278000+00:00,val
1261,0.0,0.0,2021-01-22 03:53:55.278000+00:00,val
1262,0.0,0.0,2021-01-22 03:54:25.278000+00:00,val
1263,0.0,0.0,2021-01-22 03:54:55.278000+00:00,val
1264,0.0,0.0,2021-01-22 03:55:25.278000+00:00,val
1265,0.0,0.0,2021-01-22 03:55:55.278000+00:00,val
1266,0.0,0.0,2021-01-22 03:56:25.278000+00:00,val
1267,0.0,0.0,2021-01-22 03:56:55.278000+00:00,val
1268,0.0,0.0,2021-01-22 03:57:25.278000+00:00,val
1269,0.0,0.0,2021-01-22 03:57:55.278000+00:00,val
1270,0.0,0.0,2021-01-22 03:58:25.278000+00:00,val
1271,0.0,0.0,2021-01-22 03:58:55.278000+00:00,val
1272,0.0,0.0,2021-01-22 03:59:25.278000+00:00,val
1273,0.0,0.0,2021-01-22 03:59:55.278000+00:00,val
1274,0.0,0.0,2021-01-22 04:00:25.278000+00:00,val
1275,0.0,0.0,2021-01-22 04:00:55.278000+00:00,val
1276,0.0,0.0,2021-01-22 04:01:25.278000+00:00,val
1277,0.0,0.0,2021-01-22 04:01:55.278000+00:00,val
1278,0.0,0.0,2021-01-22 04:02:25.278000+00:00,val
1279,0.0,0.0,2021-01-22 04:02:55.278000+00:00,val
1280,0.0,0.0,2021-01-22 04:03:25.278000+00:00,val
1281,0.0,0.0,2021-01-22 04:03:55.278000+00:00,val
1282,0.0,0.0,2021-01-22 04:04:25.278000+00:00,val
1283,0.0,0.0,2021-01-22 04:04:55.278000+00:00,val
1284,0.0,0.0,2021-01-22 04:05:25.278000+00:00,val
1285,0.0,0.0,2021-01-22 04:05:55.278000+00:00,val
1286,0.0,0.0,2021-01-22 04:06:25.278000+00:00,val
1287,0.0,0.0,2021-01-22 04:06:55.278000+00:00,val
1288,0.0,0.0,2021-01-22 04:07:25.278000+00:00,val
1289,0.0,0.0,2021-01-22 04:07:55.278000+00:00,val
1290,0.0,0.0,2021-01-22 04:08:25.278000+00:00,val
1291,0.0,0.0,2021-01-22 04:08:55.278000+00:00,val
1292,0.0,0.0,2021-01-22 04:09:25.278000+00:00,val
1293,0.0,0.0,2021-01-22 04:09:55.278000+00:00,val
1294,0.0,0.0,2021-01-22 04:10:25.278000+00:00,val
1295,0.0,0.0,2021-01-22 04:10:55.278000+00:00,val
1296,0.0,0.0,2021-01-22 04:11:25.278000+00:00,val
1297,0.0,0.0,2021-01-22 04:11:55.278000+00:00,val
1298,0.0,0.0,2021-01-22 04:12:25.278000+00:00,val
1299,0.0,0.0,2021-01-22 04:12:55.278000+00:00,val
1300,0.0,0.0,2021-01-22 04:13:25.278000+00:00,val
1301,0.0,0.0,2021-01-22 04:13:55.278000+00:00,val
1302,0.0,0.0,2021-01-22 04:14:25.278000+00:00,val
1303,0.0,0.0,2021-01-22 04:14:55.278000+00:00,val
1304,0.0,0.0,2021-01-22 04:15:25.278000+00:00,val
1305,0.0,0.0,2021-01-22 04:15:55.278000+00:00,val
1306,0.0,0.0,2021-01-22 04:16:25.278000+00:00,val
1307,0.0,0.0,2021-01-22 04:16:55.278000+00:00,val
1308,0.0,0.0,2021-01-22 04:17:25.278000+00:00,val
1309,0.0,0.0,2021-01-22 04:17:55.278000+00:00,val
1310,0.0,0.0,2021-01-22 04:18:25.278000+00:00,val
1311,0.0,0.0,2021-01-22 04:18:55.278000+00:00,val
1312,0.0,0.0,2021-01-22 04:19:25.278000+00:00,val
1313,0.0,0.0,2021-01-22 04:19:55.278000+00:00,val
1314,0.0,0.0,2021-01-22 04:20:25.278000+00:00,val
1315,0.0,0.0,2021-01-22 04:20:55.278000+00:00,val
1316,0.0,0.0,2021-01-22 04:21:25.278000+00:00,val
1317,0.0,0.0,2021-01-22 04:21:55.278000+00:00,val
1318,0.0,0.0,2021-01-22 04:22:25.278000+00:00,val
1319,0.0,0.0,2021-01-22 04:22:55.278000+00:00,val
1320,0.0,0.0,2021-01-22 04:23:25.278000+00:00,val
1321,0.0,0.0,2021-01-22 04:23:55.278000+00:00,val
1322,0.0,0.0,2021-01-22 04:24:25.278000+00:00,val
1323,0.0,0.0,2021-01-22 04:24:55.278000+00:00,val
1324,0.0,0.0,2021-01-22 04:25:25.278000+00:00,val
1325,0.0,0.0,2021-01-22 04:25:55.278000+00:00,val
1326,0.0,0.0,2021-01-22 04:26:25.278000+00:00,val
1327,0.0,0.0,2021-01-22 04:26:55.278000+00:00,val
1328,0.0,0.0,2021-01-22 04:27:25.278000+00:00,val
1329,0.0,0.0,2021-01-22 04:27:55.278000+00:00,val
1330,0.0,0.0,2021-01-22 04:28:25.278000+00:00,val
1331,0.0,0.0,2021-01-22 04:28:55.278000+00:00,val
1332,0.0,0.0,2021-01-22 04:29:25.278000+00:00,val
1333,0.0,0.0,2021-01-22 04:29:55.278000+00:00,val
1334,0.0,0.0,2021-01-22 04:30:25.278000+00:00,val
1335,0.0,0.0,2021-01-22 04:30:55.278000+00:00,val
1336,0.0,0.0,2021-01-22 04:31:25.278000+00:00,val
1337,0.0,0.0,2021-01-22 04:31:55.278000+00:00,val
1338,0.0,0.0,2021-01-22 04:32:25.278000+00:00,val
1339,0.0,0.0,2021-01-22 04:32:55.278000+00:00,val
1340,0.0,0.0,2021-01-22 04:33:25.278000+00:00,val
1341,0.0,0.0,2021-01-22 04:33:55.278000+00:00,val
1342,0.0,0.0,2021-01-22 04:34:25.278000+00:00,val
1343,0.0,0.0,2021-01-22 04:34:55.278000+00:00,val
1344,0.0,0.0,2021-01-22 04:35:25.278000+00:00,val
1345,0.0,0.0,2021-01-22 04:35:55.278000+00:00,val
1346,0.0,0.0,2021-01-22 04:36:25.278000+00:00,val
1347,0.0,0.0,2021-01-22 04:36:55.278000+00:00,val
1348,0.0,0.0,2021-01-22 04:37:25.278000+00:00,val
1349,0.0,0.0,2021-01-22 04:37:55.278000+00:00,val
1350,0.0,0.0,2021-01-22 04:38:25.278000+00:00,val
1351,0.0,0.0,2021-01-22 04:38:55.278000+00:00,val
1352,0.0,0.0,2021-01-22 04:39:25.278000+00:00,val
1353,0.0,0.0,2021-01-22 04:39:55.278000+00:00,val
1354,0.0,0.0,2021-01-22 04:40:25.278000+00:00,val
1355,0.0,0.0,2021-01-22 04:40:55.278000+00:00,val
1356,0.0,0.0,2021-01-22 04:41:25.278000+00:00,val
1357,0.0,0.0,2021-01-22 04:41:55.278000+00:00,val
1358,0.0,0.0,2021-01-22 04:42:25.278000+00:00,val
1359,0.0,0.0,2021-01-22 04:42:55.278000+00:00,val
1360,0.0,0.0,2021-01-22 04:43:25.278000+00:00,val
1361,0.0,0.0,2021-01-22 04:43:55.278000+00:00,val
1362,0.0,0.0,2021-01-22 04:44:25.278000+00:00,val
1363,0.0,0.0,2021-01-22 04:44:55.278000+00:00,val
1364,0.0,0.0,2021-01-22 04:45:25.278000+00:00,val
1365,0.0,0.0,2021-01-22 04:45:55.278000+00:00,val
1366,0.0,0.0,2021-01-22 04:46:25.278000+00:00,val
1367,0.0,0.0,2021-01-22 04:46:55.278000+00:00,val
1368,0.0,0.0,2021-01-22 04:47:25.278000+00:00,val
1369,0.0,0.0,2021-01-22 04:47:55.278000+00:00,val
1370,0.0,0.0,2021-01-22 04:48:25.278000+00:00,val
1371,0.0,0.0,2021-01-22 04:48:55.278000+00:00,val
1372,0.0,0.0,2021-01-22 04:49:25.278000+00:00,val
1373,0.0,0.0,2021-01-22 04:49:55.278000+00:00,val
1374,0.0,0.0,2021-01-22 04:50:25.278000+00:00,val
1375,0.0,0.0,2021-01-22 04:50:55.278000+00:00,val
1376,0.0,0.0,2021-01-22 04:51:25.278000+00:00,val
1377,0.0,0.0,2021-01-22 04:51:55.278000+00:00,val
1378,0.0,0.0,2021-01-22 04:52:25.278000+00:00,val
1379,0.0,0.0,2021-01-22 04:52:55.278000+00:00,val
1380,0.0,0.0,2021-01-22 04:53:25.278000+00:00,val
1381,0.0,0.0,2021-01-22 04:53:55.278000+00:00,val
1382,0.0,0.0,2021-01-22 04:54:25.278000+00:00,val
1383,0.0,0.0,2021-01-22 04:54:55.278000+00:00,val
1384,0.0,0.0,2021-01-22 04:55:25.278000+00:00,val
1385,0.0,0.0,2021-01-22 04:55:55.278000+00:00,val
1386,0.0,0.0,2021-01-22 04:56:25.278000+00:00,val
1387,0.0,0.0,2021-01-22 04:56:55.278000+00:00,val
1388,0.0,0.0,2021-01-22 04:57:25.278000+00:00,val
1389,0.0,0.0,2021-01-22 04:57:55.278000+00:00,val
1390,0.0,0.0,2021-01-22 04:58:25.278000+00:00,val
1391,0.0,0.0,2021-01-22 04:58:55.278000+00:00,val
1392,0.0,0.0,2021-01-22 04:59:25.278000+00:00,val
1393,0.0,0.0,2021-01-22 04:59:55.278000+00:00,val
1394,0.0,0.0,2021-01-22 05:00:25.278000+00:00,val
1395,0.0,0.0,2021-01-22 05:00:55.278000+00:00,val
1396,0.0,0.0,2021-01-22 05:01:25.278000+00:00,val
1397,0.0,0.0,2021-01-22 05:01:55.278000+00:00,val
1398,0.0,0.0,2021-01-22 05:02:25.278000+00:00,val
1399,0.0,0.0,2021-01-22 05:02:55.278000+00:00,val
1400,0.0,0.0,2021-01-22 05:03:25.278000+00:00,val
1401,0.0,0.0,2021-01-22 05:03:55.278000+00:00,val
1402,0.0,0.0,2021-01-22 05:04:25.278000+00:00,val
1403,0.0,0.0,2021-01-22 05:04:55.278000+00:00,val
1404,0.0,0.0,2021-01-22 05:05:25.278000+00:00,val
1405,0.0,0.0,2021-01-22 05:05:55.278000+00:00,val
1406,0.0,0.0,2021-01-22 05:06:25.278000+00:00,val
1407,0.0,0.0,2021-01-22 05:06:55.278000+00:00,val
1408,0.0,0.0,2021-01-22 05:07:25.278000+00:00,val
1409,0.0,0.0,2021-01-22 05:07:55.278000+00:00,val
1410,0.0,0.0,2021-01-22 05:08:25.278000+00:00,val
1411,0.0,0.0,2021-01-22 05:08:55.278000+00:00,val
1412,0.0,0.0,2021-01-22 05:09:25.278000+00:00,val
1413,0.0,0.0,2021-01-22 05:09:55.278000+00:00,val
1414,0.0,0.0,2021-01-22 05:10:25.278000+00:00,val
1415,0.0,0.0,2021-01-22 05:10:55.278000+00:00,val
1416,0.0,0.0,2021-01-22 05:11:25.278000+00:00,val
1417,0.0,0.0,2021-01-22 05:11:55.278000+00:00,val
1418,0.0,0.0,2021-01-22 05:12:25.278000+00:00,val
1419,0.0,0.0,2021-01-22 05:12:55.278000+00:00,val
1420,0.0,0.0,2021-01-22 05:13:25.278000+00:00,val
1421,0.0,0.0,2021-01-22 05:13:55.278000+00:00,val
1422,0.0,0.0,2021-01-22 05:14:25.278000+00:00,val
1423,0.0,0.0,2021-01-22 05:14:55.278000+00:00,val
1424,0.0,0.0,2021-01-22 05:15:25.278000+00:00,val
1425,0.0,0.0,2021-01-22 05:15:55.278000+00:00,val
1426,0.0,0.0,2021-01-22 05:16:25.278000+00:00,val
1427,0.0,0.0,2021-01-22 05:16:55.278000+00:00,val
1428,0.0,0.0,2021-01-22 05:17:25.278000+00:00,val
1429,0.0,0.0,2021-01-22 05:17:55.278000+00:00,test
1430,0.0,0.0,2021-01-22 05:18:25.278000+00:00,test
1431,0.0,0.0,2021-01-22 05:18:55.278000+00:00,test
1432,0.0,0.0,2021-01-22 05:19:25.278000+00:00,test
1433,0.0,0.0,2021-01-22 05:19:55.278000+00:00,test
1434,0.0,0.0,2021-01-22 05:20:25.278000+00:00,test
1435,0.0,0.0,2021-01-22 05:20:55.278000+00:00,test
1436,0.0,0.0,2021-01-22 05:21:25.278000+00:00,test
1437,0.0,0.0,2021-01-22 05:21:55.278000+00:00,test
1438,0.0,0.0,2021-01-22 05:22:25.278000+00:00,test
1439,0.0,0.0,2021-01-22 05:22:55.278000+00:00,test
1440,0.0,0.0,2021-01-22 05:23:25.278000+00:00,test
1441,0.0,0.0,2021-01-22 05:23:55.278000+00:00,test
1442,0.0,0.0,2021-01-22 05:24:25.278000+00:00,test
1443,0.0,0.0,2021-01-22 05:24:55.278000+00:00,test
1444,0.0,0.0,2021-01-22 05:25:25.278000+00:00,test
1445,0.0,0.0,2021-01-22 05:25:55.278000+00:00,test
1446,0.0,0.0,2021-01-22 05:26:25.278000+00:00,test
1447,0.0,0.0,2021-01-22 05:26:55.278000+00:00,test
1448,0.0,0.0,2021-01-22 05:27:25.278000+00:00,test
1449,0.0,0.0,2021-01-22 05:27:55.278000+00:00,test
1450,0.0,0.0,2021-01-22 05:28:25.278000+00:00,test
1451,0.0,0.0,2021-01-22 05:28:55.278000+00:00,test
1452,0.0,0.0,2021-01-22 05:29:25.278000+00:00,test
1453,0.0,0.0,2021-01-22 05:29:55.278000+00:00,test
1454,0.0,0.0,2021-01-22 05:30:25.278000+00:00,test
1455,0.0,0.0,2021-01-22 05:30:55.278000+00:00,test
1456,0.0,0.0,2021-01-22 05:31:25.278000+00:00,test
1457,0.0,0.0,2021-01-22 05:31:55.278000+00:00,test
1458,0.0,0.0,2021-01-22 05:32:25.278000+00:00,test
1459,0.0,0.0,2021-01-22 05:32:55.278000+00:00,test
1460,0.0,0.0,2021-01-22 05:33:25.278000+00:00,test
1461,0.0,0.0,2021-01-22 05:33:55.278000+00:00,test
1462,0.0,0.0,2021-01-22 05:34:25.278000+00:00,test
1463,0.0,0.0,2021-01-22 05:34:55.278000+00:00,test
1464,0.0,0.0,2021-01-22 05:35:25.278000+00:00,test
1465,0.0,0.0,2021-01-22 05:35:55.278000+00:00,test
1466,0.0,0.0,2021-01-22 05:36:25.278000+00:00,test
1467,0.0,0.0,2021-01-22 05:36:55.278000+00:00,test
1468,0.0,0.0,2021-01-22 05:37:25.278000+00:00,test
1469,0.0,0.0,2021-01-22 05:37:55.278000+00:00,test
1470,0.0,0.0,2021-01-22 05:38:25.278000+00:00,test
1471,0.0,0.0,2021-01-22 05:38:55.278000+00:00,test
1472,0.0,0.0,2021-01-22 05:39:25.278000+00:00,test
1473,0.0,0.0,2021-01-22 05:39:55.278000+00:00,test
1474,0.0,0.0,2021-01-22 05:40:25.278000+00:00,test
1475,0.0,0.0,2021-01-22 05:40:55.278000+00:00,test
1476,0.0,0.0,2021-01-22 05:41:25.278000+00:00,test
1477,0.0,0.0,2021-01-22 05:41:55.278000+00:00,test
1478,0.0,0.0,2021-01-22 05:42:25.278000+00:00,test
1479,0.0,0.0,2021-01-22 05:42:55.278000+00:00,test
1480,0.0,0.0,2021-01-22 05:43:25.278000+00:00,test
1481,0.0,0.0,2021-01-22 05:43:55.278000+00:00,test
1482,0.0,0.0,2021-01-22 05:44:25.278000+00:00,test
1483,0.0,0.0,2021-01-22 05:44:55.278000+00:00,test
1484,0.0,0.0,2021-01-22 05:45:25.278000+00:00,test
1485,0.0,0.0,2021-01-22 05:45:55.278000+00:00,test
1486,0.0,0.0,2021-01-22 05:46:25.278000+00:00,test
1487,0.0,0.0,2021-01-22 05:46:55.278000+00:00,test
1488,0.0,0.0,2021-01-22 05:47:25.278000+00:00,test
1489,0.0,0.0,2021-01-22 05:47:55.278000+00:00,test
1490,0.0,0.0,2021-01-22 05:48:25.278000+00:00,test
1491,0.0,0.0,2021-01-22 05:48:55.278000+00:00,test
1492,0.0,0.0,2021-01-22 05:49:25.278000+00:00,test
1493,0.0,0.0,2021-01-22 05:49:55.278000+00:00,test
1494,0.0,0.0,2021-01-22 05:50:25.278000+00:00,test
1495,0.0,0.0,2021-01-22 05:50:55.278000+00:00,test
1496,0.0,0.0,2021-01-22 05:51:25.278000+00:00,test
1497,0.0,0.0,2021-01-22 05:51:55.278000+00:00,test
1498,0.0,0.0,2021-01-22 05:52:25.278000+00:00,test
1499,0.0,0.0,2021-01-22 05:52:55.278000+00:00,test
1500,0.0,0.0,2021-01-22 05:53:25.278000+00:00,test
1501,0.0,0.0,2021-01-22 05:53:55.278000+00:00,test
1502,0.0,0.0,2021-01-22 05:54:25.278000+00:00,test
1503,0.0,0.0,2021-01-22 05:54:55.278000+00:00,test
1504,0.0,0.0,2021-01-22 05:55:25.278000+00:00,test
1505,0.0,0.0,2021-01-22 05:55:55.278000+00:00,test
1506,0.0,0.0,2021-01-22 05:56:25.278000+00:00,test
1507,0.0,0.0,2021-01-22 05:56:55.278000+00:00,test
1508,0.0,0.0,2021-01-22 05:57:25.278000+00:00,test
1509,0.0,0.0,2021-01-22 05:57:55.278000+00:00,test
1510,0.0,0.0,2021-01-22 05:58:25.278000+00:00,test
1511,0.0,0.0,2021-01-22 05:58:55.278000+00:00,test
1512,0.0,0.0,2021-01-22 05:59:25.278000+00:00,test
1513,0.0,0.0,2021-01-22 05:59:55.278000+00:00,test
1514,0.0,0.0,2021-01-22 06:00:25.278000+00:00,test
1515,0.0,0.0,2021-01-22 06:00:55.278000+00:00,test
1516,0.0,0.0,2021-01-22 06:01:25.278000+00:00,test
1517,0.0,0.0,2021-01-22 06:01:55.278000+00:00,test
1518,0.0,0.0,2021-01-22 06:02:25.278000+00:00,test
1519,0.0,0.0,2021-01-22 06:02:55.278000+00:00,test
1520,0.0,0.0,2021-01-22 06:03:25.278000+00:00,test
1521,0.0,0.0,2021-01-22 06:03:55.278000+00:00,test
1522,0.0,0.0,2021-01-22 06:04:25.278000+00:00,test
1523,0.0,0.0,2021-01-22 06:04:55.278000+00:00,test
1524,0.0,0.0,2021-01-22 06:05:25.278000+00:00,test
1525,0.0,0.0,2021-01-22 06:05:55.278000+00:00,test
1526,0.0,0.0,2021-01-22 06:06:25.278000+00:00,test
1527,0.0,0.0,2021-01-22 06:06:55.278000+00:00,test
1528,0.0,0.0,2021-01-22 06:07:25.278000+00:00,test
1529,0.0,0.0,2021-01-22 06:07:55.278000+00:00,test
1530,0.0,0.0,2021-01-22 06:08:25.278000+00:00,test
1531,0.0,0.0,2021-01-22 06:08:55.278000+00:00,test
1532,0.0,0.0,2021-01-22 06:09:25.278000+00:00,test
1533,0.0,0.0,2021-01-22 06:09:55.278000+00:00,test
1534,0.0,0.0,2021-01-22 06:10:25.278000+00:00,test
1535,0.0,0.0,2021-01-22 06:10:55.278000+00:00,test
1536,0.0,0.0,2021-01-22 06:11:25.278000+00:00,test
1537,0.0,0.0,2021-01-22 06:11:55.278000+00:00,test
1538,0.0,0.0,2021-01-22 06:12:25.278000+00:00,test
1539,0.0,0.0,2021-01-22 06:12:55.278000+00:00,test
1540,0.0,0.0,2021-01-22 06:13:25.278000+00:00,test
1541,0.0,0.0,2021-01-22 06:13:55.278000+00:00,test
1542,0.0,0.0,2021-01-22 06:14:25.278000+00:00,test
1543,0.0,0.0,2021-01-22 06:14:55.278000+00:00,test
1544,0.0,0.0,2021-01-22 06:15:25.278000+00:00,test
1545,0.0,0.0,2021-01-22 06:15:55.278000+00:00,test
1546,0.0,0.0,2021-01-22 06:16:25.278000+00:00,test
1547,0.0,0.0,2021-01-22 06:16:55.278000+00:00,test
1548,0.0,0.0,2021-01-22 06:17:25.278000+00:00,test
1549,0.0,0.0,2021-01-22 06:17:55.278000+00:00,test
1550,0.0,0.0,2021-01-22 06:18:25.278000+00:00,test
1551,0.0,0.0,2021-01-22 06:18:55.278000+00:00,test
1552,0.0,0.0,2021-01-22 06:19:25.278000+00:00,test
1553,0.0,0.0,2021-01-22 06:19:55.278000+00:00,test
1554,0.0,0.0,2021-01-22 06:20:25.278000+00:00,test
1555,0.0,0.0,2021-01-22 06:20:55.278000+00:00,test
1556,0.0,0.0,2021-01-22 06:21:25.278000+00:00,test
1557,0.0,0.0,2021-01-22 06:21:55.278000+00:00,test
1558,0.0,0.0,2021-01-22 06:22:25.278000+00:00,test
1559,0.0,0.0,2021-01-22 06:22:55.278000+00:00,test
1560,0.0,0.0,2021-01-22 06:23:25.278000+00:00,test
1561,0.0,0.0,2021-01-22 06:23:55.278000+00:00,test
1562,0.0,0.0,2021-01-22 06:24:25.278000+00:00,test
1563,0.0,0.0,2021-01-22 06:24:55.278000+00:00,test
1564,0.0,0.0,2021-01-22 06:25:25.278000+00:00,test
1565,0.0,0.0,2021-01-22 06:25:55.278000+00:00,test
1566,0.0,0.0,2021-01-22 06:26:25.278000+00:00,test
1567,0.0,0.0,2021-01-22 06:26:55.278000+00:00,test
1568,0.0,0.0,2021-01-22 06:27:25.278000+00:00,test
1569,0.0,0.0,2021-01-22 06:27:55.278000+00:00,test
1570,0.0,0.0,2021-01-22 06:28:25.278000+00:00,test
1571,0.0,0.0,2021-01-22 06:28:55.278000+00:00,test
1572,0.0,0.0,2021-01-22 06:29:25.278000+00:00,test
1573,0.0,0.0,2021-01-22 06:29:55.278000+00:00,test
1574,0.0,0.0,2021-01-22 06:30:25.278000+00:00,test
1575,0.0,0.0,2021-01-22 06:30:55.278000+00:00,test
1576,0.0,0.0,2021-01-22 06:31:25.278000+00:00,test
1577,0.0,0.0,2021-01-22 06:31:55.278000+00:00,test
1578,0.0,0.0,2021-01-22 06:32:25.278000+00:00,test
1579,0.0,0.0,2021-01-22 06:32:55.278000+00:00,test
1580,0.0,0.0,2021-01-22 06:33:25.278000+00:00,test
1581,0.0,0.0,2021-01-22 06:33:55.278000+00:00,test
1582,0.0,0.0,2021-01-22 06:34:25.278000+00:00,test
1583,0.0,0.0,2021-01-22 06:34:55.278000+00:00,test
1584,0.0,0.0,2021-01-22 06:35:25.278000+00:00,test
1585,0.0,0.0,2021-01-22 06:35:55.278000+00:00,test
