,prediction,real,time,split
0,-7.082376956939697,-7.0,2021-01-21 17:24:55.278000+00:00,train
1,-7.035032749176025,-7.0,2021-01-21 17:25:25.278000+00:00,train
2,-6.991175174713135,-7.0,2021-01-21 17:25:55.278000+00:00,train
3,-6.950876235961914,-7.0,2021-01-21 17:26:25.278000+00:00,train
4,-6.914223670959473,-7.0,2021-01-21 17:26:55.278000+00:00,train
5,-6.862546920776367,-7.0,2021-01-21 17:27:25.278000+00:00,train
6,-6.8135247230529785,-7.0,2021-01-21 17:27:55.278000+00:00,train
7,-6.767181873321533,-7.0,2021-01-21 17:28:25.278000+00:00,train
8,-6.723548889160156,-7.0,2021-01-21 17:28:55.278000+00:00,train
9,-6.68266487121582,-7.0,2021-01-21 17:29:25.278000+00:00,train
10,-6.6445746421813965,-7.0,2021-01-21 17:29:55.278000+00:00,train
11,-6.6093316078186035,-7.0,2021-01-21 17:30:25.278000+00:00,train
12,-6.577000141143799,-7.0,2021-01-21 17:30:55.278000+00:00,train
13,-6.547651290893555,-7.0,2021-01-21 17:31:25.278000+00:00,train
14,-6.521367073059082,-7.0,2021-01-21 17:31:55.278000+00:00,train
15,-6.498241901397705,-7.0,2021-01-21 17:32:25.278000+00:00,train
16,-6.478383541107178,-7.0,2021-01-21 17:32:55.278000+00:00,train
17,-6.461915969848633,-7.0,2021-01-21 17:33:25.278000+00:00,train
18,-6.429096221923828,-7.0,2021-01-21 17:33:55.278000+00:00,train
19,-6.398534297943115,-7.0,2021-01-21 17:34:25.278000+00:00,train
20,-6.370278835296631,-7.0,2021-01-21 17:34:55.278000+00:00,train
21,-6.344379425048828,-7.0,2021-01-21 17:35:25.278000+00:00,train
22,-6.32089376449585,-7.0,2021-01-21 17:35:55.278000+00:00,train
23,-6.299887180328369,-7.0,2021-01-21 17:36:25.278000+00:00,train
24,-6.281437397003174,-7.0,2021-01-21 17:36:55.278000+00:00,train
25,-6.265626430511475,-7.0,2021-01-21 17:37:25.278000+00:00,train
26,-6.252552032470703,-6.0,2021-01-21 17:37:55.278000+00:00,train
27,-6.2423200607299805,-6.0,2021-01-21 17:38:25.278000+00:00,train
28,-6.235053062438965,-6.0,2021-01-21 17:38:55.278000+00:00,train
29,-6.211287498474121,-6.0,2021-01-21 17:39:25.278000+00:00,train
30,-6.189327239990234,-6.0,2021-01-21 17:39:55.278000+00:00,train
31,-6.16920804977417,-6.0,2021-01-21 17:40:25.278000+00:00,train
32,-6.150980472564697,-6.0,2021-01-21 17:40:55.278000+00:00,train
33,-6.107085227966309,-6.0,2021-01-21 17:41:25.278000+00:00,train
34,-6.065677642822266,-6.0,2021-01-21 17:41:55.278000+00:00,train
35,-6.02678108215332,-6.0,2021-01-21 17:42:25.278000+00:00,train
36,-5.990428447723389,-6.0,2021-01-21 17:42:55.278000+00:00,train
37,-5.956666469573975,-6.0,2021-01-21 17:43:25.278000+00:00,train
38,-5.925543785095215,-6.0,2021-01-21 17:43:55.278000+00:00,train
39,-5.897116184234619,-6.0,2021-01-21 17:44:25.278000+00:00,train
40,-5.871450424194336,-6.0,2021-01-21 17:44:55.278000+00:00,train
41,-5.848627090454102,-6.0,2021-01-21 17:45:25.278000+00:00,train
42,-5.828739643096924,-6.0,2021-01-21 17:45:55.278000+00:00,train
43,-5.811894416809082,-6.0,2021-01-21 17:46:25.278000+00:00,train
44,-5.77785062789917,-6.0,2021-01-21 17:46:55.278000+00:00,train
45,-5.745701789855957,-6.0,2021-01-21 17:47:25.278000+00:00,train
46,-5.715471267700195,-6.0,2021-01-21 17:47:55.278000+00:00,train
47,-5.68718957901001,-6.0,2021-01-21 17:48:25.278000+00:00,train
48,-5.660887241363525,-6.0,2021-01-21 17:48:55.278000+00:00,train
49,-5.636604309082031,-6.0,2021-01-21 17:49:25.278000+00:00,train
50,-5.61438512802124,-6.0,2021-01-21 17:49:55.278000+00:00,train
51,-5.594280242919922,-6.0,2021-01-21 17:50:25.278000+00:00,train
52,-5.576348304748535,-6.0,2021-01-21 17:50:55.278000+00:00,train
53,-5.560657978057861,-6.0,2021-01-21 17:51:25.278000+00:00,train
54,-5.5472822189331055,-6.0,2021-01-21 17:51:55.278000+00:00,train
55,-5.536308288574219,-6.0,2021-01-21 17:52:25.278000+00:00,train
56,-5.527834415435791,-6.0,2021-01-21 17:52:55.278000+00:00,train
57,-5.52197265625,-6.0,2021-01-21 17:53:25.278000+00:00,train
58,-5.498873710632324,-5.0,2021-01-21 17:53:55.278000+00:00,train
59,-5.4771928787231445,-5.0,2021-01-21 17:54:25.278000+00:00,train
60,-5.456951141357422,-5.0,2021-01-21 17:54:55.278000+00:00,train
61,-5.438177108764648,-5.0,2021-01-21 17:55:25.278000+00:00,train
62,-5.420899868011475,-5.0,2021-01-21 17:55:55.278000+00:00,train
63,-5.405153751373291,-5.0,2021-01-21 17:56:25.278000+00:00,train
64,-5.390976905822754,-5.0,2021-01-21 17:56:55.278000+00:00,train
65,-5.348973274230957,-5.0,2021-01-21 17:57:25.278000+00:00,train
66,-5.309184551239014,-5.0,2021-01-21 17:57:55.278000+00:00,train
67,-5.2716169357299805,-5.0,2021-01-21 17:58:25.278000+00:00,train
68,-5.236282825469971,-5.0,2021-01-21 17:58:55.278000+00:00,train
69,-5.2032060623168945,-5.0,2021-01-21 17:59:25.278000+00:00,train
70,-5.172412872314453,-5.0,2021-01-21 17:59:55.278000+00:00,train
71,-5.14393949508667,-5.0,2021-01-21 18:00:25.278000+00:00,train
72,-5.117831707000732,-5.0,2021-01-21 18:00:55.278000+00:00,train
73,-5.094142436981201,-5.0,2021-01-21 18:01:25.278000+00:00,train
74,-5.072934627532959,-5.0,2021-01-21 18:01:55.278000+00:00,train
75,-5.054285526275635,-5.0,2021-01-21 18:02:25.278000+00:00,train
76,-5.03828239440918,-5.0,2021-01-21 18:02:55.278000+00:00,train
77,-5.025028228759766,-5.0,2021-01-21 18:03:25.278000+00:00,train
78,-5.014641761779785,-5.0,2021-01-21 18:03:55.278000+00:00,train
79,-4.984908103942871,-5.0,2021-01-21 18:04:25.278000+00:00,train
80,-4.956765174865723,-5.0,2021-01-21 18:04:55.278000+00:00,train
81,-4.930226802825928,-5.0,2021-01-21 18:05:25.278000+00:00,train
82,-4.90531063079834,-5.0,2021-01-21 18:05:55.278000+00:00,train
83,-4.882036209106445,-5.0,2021-01-21 18:06:25.278000+00:00,train
84,-4.860428810119629,-5.0,2021-01-21 18:06:55.278000+00:00,train
85,-4.84052038192749,-5.0,2021-01-21 18:07:25.278000+00:00,train
86,-4.822346210479736,-5.0,2021-01-21 18:07:55.278000+00:00,train
87,-4.805946350097656,-5.0,2021-01-21 18:08:25.278000+00:00,train
88,-4.791370391845703,-5.0,2021-01-21 18:08:55.278000+00:00,train
89,-4.77867317199707,-5.0,2021-01-21 18:09:25.278000+00:00,train
90,-4.767917633056641,-5.0,2021-01-21 18:09:55.278000+00:00,train
91,-4.742130279541016,-5.0,2021-01-21 18:10:25.278000+00:00,train
92,-4.717319011688232,-5.0,2021-01-21 18:10:55.278000+00:00,train
93,-4.693484783172607,-5.0,2021-01-21 18:11:25.278000+00:00,train
94,-4.670628070831299,-5.0,2021-01-21 18:11:55.278000+00:00,train
95,-4.6487531661987305,-5.0,2021-01-21 18:12:25.278000+00:00,train
96,-4.627864837646484,-5.0,2021-01-21 18:12:55.278000+00:00,train
97,-4.607966899871826,-5.0,2021-01-21 18:13:25.278000+00:00,train
98,-4.58906888961792,-5.0,2021-01-21 18:13:55.278000+00:00,train
99,-4.571178913116455,-5.0,2021-01-21 18:14:25.278000+00:00,train
100,-4.5543084144592285,-5.0,2021-01-21 18:14:55.278000+00:00,train
101,-4.5384697914123535,-5.0,2021-01-21 18:15:25.278000+00:00,train
102,-4.52367639541626,-5.0,2021-01-21 18:15:55.278000+00:00,train
103,-4.509945869445801,-5.0,2021-01-21 18:16:25.278000+00:00,train
104,-4.4972968101501465,-5.0,2021-01-21 18:16:55.278000+00:00,train
105,-4.485749244689941,-5.0,2021-01-21 18:17:25.278000+00:00,train
106,-4.4753265380859375,-4.0,2021-01-21 18:17:55.278000+00:00,train
107,-4.466054916381836,-4.0,2021-01-21 18:18:25.278000+00:00,train
108,-4.457963466644287,-4.0,2021-01-21 18:18:55.278000+00:00,train
109,-4.451084613800049,-4.0,2021-01-21 18:19:25.278000+00:00,train
110,-4.4454545974731445,-4.0,2021-01-21 18:19:55.278000+00:00,train
111,-4.441116809844971,-4.0,2021-01-21 18:20:25.278000+00:00,train
112,-4.438114643096924,-4.0,2021-01-21 18:20:55.278000+00:00,train
113,-4.407173156738281,-4.0,2021-01-21 18:21:25.278000+00:00,train
114,-4.378171443939209,-4.0,2021-01-21 18:21:55.278000+00:00,train
115,-4.351120948791504,-4.0,2021-01-21 18:22:25.278000+00:00,train
116,-4.326035499572754,-4.0,2021-01-21 18:22:55.278000+00:00,train
117,-4.302938461303711,-4.0,2021-01-21 18:23:25.278000+00:00,train
118,-4.281860828399658,-4.0,2021-01-21 18:23:55.278000+00:00,train
119,-4.262841701507568,-4.0,2021-01-21 18:24:25.278000+00:00,train
120,-4.228277683258057,-4.0,2021-01-21 18:24:55.278000+00:00,train
121,-4.1949310302734375,-4.0,2021-01-21 18:25:25.278000+00:00,train
122,-4.162775993347168,-4.0,2021-01-21 18:25:55.278000+00:00,train
123,-4.131790637969971,-4.0,2021-01-21 18:26:25.278000+00:00,train
124,-4.10195779800415,-4.0,2021-01-21 18:26:55.278000+00:00,train
125,-4.073260307312012,-4.0,2021-01-21 18:27:25.278000+00:00,train
126,-4.045683860778809,-4.0,2021-01-21 18:27:55.278000+00:00,train
127,-4.0192155838012695,-4.0,2021-01-21 18:28:25.278000+00:00,train
128,-3.9938466548919678,-4.0,2021-01-21 18:28:55.278000+00:00,train
129,-3.9695684909820557,-4.0,2021-01-21 18:29:25.278000+00:00,train
130,-3.946375608444214,-4.0,2021-01-21 18:29:55.278000+00:00,train
131,-3.9242632389068604,-4.0,2021-01-21 18:30:25.278000+00:00,train
132,-3.903228998184204,-4.0,2021-01-21 18:30:55.278000+00:00,train
133,-3.883272171020508,-4.0,2021-01-21 18:31:25.278000+00:00,train
134,-3.8643958568573,-4.0,2021-01-21 18:31:55.278000+00:00,train
135,-3.846602201461792,-4.0,2021-01-21 18:32:25.278000+00:00,train
136,-3.829899311065674,-4.0,2021-01-21 18:32:55.278000+00:00,train
137,-3.814293622970581,-4.0,2021-01-21 18:33:25.278000+00:00,train
138,-3.799797296524048,-4.0,2021-01-21 18:33:55.278000+00:00,train
139,-3.786423444747925,-4.0,2021-01-21 18:34:25.278000+00:00,train
140,-3.7741892337799072,-4.0,2021-01-21 18:34:55.278000+00:00,train
141,-3.7631149291992188,-4.0,2021-01-21 18:35:25.278000+00:00,train
142,-3.753223180770874,-4.0,2021-01-21 18:35:55.278000+00:00,train
143,-3.7445414066314697,-4.0,2021-01-21 18:36:25.278000+00:00,train
144,-3.73710298538208,-4.0,2021-01-21 18:36:55.278000+00:00,train
145,-3.730942964553833,-4.0,2021-01-21 18:37:25.278000+00:00,train
146,-3.7261061668395996,-4.0,2021-01-21 18:37:55.278000+00:00,train
147,-3.722640037536621,-4.0,2021-01-21 18:38:25.278000+00:00,train
148,-3.72060227394104,-4.0,2021-01-21 18:38:55.278000+00:00,train
149,-3.720057964324951,-4.0,2021-01-21 18:39:25.278000+00:00,train
150,-3.721082925796509,-4.0,2021-01-21 18:39:55.278000+00:00,train
151,-3.7237653732299805,-4.0,2021-01-21 18:40:25.278000+00:00,train
152,-3.72820782661438,-4.0,2021-01-21 18:40:55.278000+00:00,train
153,-3.7157697677612305,-4.0,2021-01-21 18:41:25.278000+00:00,train
154,-3.7039060592651367,-4.0,2021-01-21 18:41:55.278000+00:00,train
155,-3.6926190853118896,-4.0,2021-01-21 18:42:25.278000+00:00,train
156,-3.6819121837615967,-4.0,2021-01-21 18:42:55.278000+00:00,train
157,-3.6717894077301025,-4.0,2021-01-21 18:43:25.278000+00:00,train
158,-3.662256956100464,-4.0,2021-01-21 18:43:55.278000+00:00,train
159,-3.6533191204071045,-4.0,2021-01-21 18:44:25.278000+00:00,train
160,-3.6449849605560303,-4.0,2021-01-21 18:44:55.278000+00:00,train
161,-3.6372616291046143,-4.0,2021-01-21 18:45:25.278000+00:00,train
162,-3.630159378051758,-4.0,2021-01-21 18:45:55.278000+00:00,train
163,-3.6236889362335205,-4.0,2021-01-21 18:46:25.278000+00:00,train
164,-3.617861747741699,-4.0,2021-01-21 18:46:55.278000+00:00,train
165,-3.612691640853882,-4.0,2021-01-21 18:47:25.278000+00:00,train
166,-3.6081929206848145,-4.0,2021-01-21 18:47:55.278000+00:00,train
167,-3.6043827533721924,-4.0,2021-01-21 18:48:25.278000+00:00,train
168,-3.60127854347229,-4.0,2021-01-21 18:48:55.278000+00:00,train
169,-3.5989017486572266,-4.0,2021-01-21 18:49:25.278000+00:00,train
170,-3.5972745418548584,-4.0,2021-01-21 18:49:55.278000+00:00,train
171,-3.5964229106903076,-4.0,2021-01-21 18:50:25.278000+00:00,train
172,-3.596374988555908,-4.0,2021-01-21 18:50:55.278000+00:00,train
173,-3.597163677215576,-4.0,2021-01-21 18:51:25.278000+00:00,train
174,-3.5988245010375977,-4.0,2021-01-21 18:51:55.278000+00:00,train
175,-3.6013994216918945,-4.0,2021-01-21 18:52:25.278000+00:00,train
176,-3.6049344539642334,-3.0,2021-01-21 18:52:55.278000+00:00,train
177,-3.6094839572906494,-3.0,2021-01-21 18:53:25.278000+00:00,train
178,-3.61510968208313,-3.0,2021-01-21 18:53:55.278000+00:00,train
179,-3.6218833923339844,-3.0,2021-01-21 18:54:25.278000+00:00,train
180,-3.6298892498016357,-3.0,2021-01-21 18:54:55.278000+00:00,train
181,-3.639225721359253,-3.0,2021-01-21 18:55:25.278000+00:00,train
182,-3.650012731552124,-3.0,2021-01-21 18:55:55.278000+00:00,train
183,-3.6322903633117676,-3.0,2021-01-21 18:56:25.278000+00:00,train
184,-3.616387367248535,-3.0,2021-01-21 18:56:55.278000+00:00,train
185,-3.5839285850524902,-3.0,2021-01-21 18:57:25.278000+00:00,train
186,-3.5527138710021973,-3.0,2021-01-21 18:57:55.278000+00:00,train
187,-3.5226693153381348,-3.0,2021-01-21 18:58:25.278000+00:00,train
188,-3.4937312602996826,-3.0,2021-01-21 18:58:55.278000+00:00,train
189,-3.4658427238464355,-3.0,2021-01-21 18:59:25.278000+00:00,train
190,-3.4389538764953613,-3.0,2021-01-21 18:59:55.278000+00:00,train
191,-3.41302227973938,-3.0,2021-01-21 19:00:25.278000+00:00,train
192,-3.388007879257202,-3.0,2021-01-21 19:00:55.278000+00:00,train
193,-3.3638765811920166,-3.0,2021-01-21 19:01:25.278000+00:00,train
194,-3.3405978679656982,-3.0,2021-01-21 19:01:55.278000+00:00,train
195,-3.318143367767334,-3.0,2021-01-21 19:02:25.278000+00:00,train
196,-3.2964892387390137,-3.0,2021-01-21 19:02:55.278000+00:00,train
197,-3.2756123542785645,-3.0,2021-01-21 19:03:25.278000+00:00,train
198,-3.255492925643921,-3.0,2021-01-21 19:03:55.278000+00:00,train
199,-3.2361128330230713,-3.0,2021-01-21 19:04:25.278000+00:00,train
200,-3.217456340789795,-3.0,2021-01-21 19:04:55.278000+00:00,train
201,-3.1995067596435547,-3.0,2021-01-21 19:05:25.278000+00:00,train
202,-3.182252883911133,-3.0,2021-01-21 19:05:55.278000+00:00,train
203,-3.1656813621520996,-3.0,2021-01-21 19:06:25.278000+00:00,train
204,-3.149782657623291,-3.0,2021-01-21 19:06:55.278000+00:00,train
205,-3.1345465183258057,-3.0,2021-01-21 19:07:25.278000+00:00,train
206,-3.1199657917022705,-3.0,2021-01-21 19:07:55.278000+00:00,train
207,-3.106031894683838,-3.0,2021-01-21 19:08:25.278000+00:00,train
208,-3.0927391052246094,-3.0,2021-01-21 19:08:55.278000+00:00,train
209,-3.080083131790161,-3.0,2021-01-21 19:09:25.278000+00:00,train
210,-3.0680582523345947,-3.0,2021-01-21 19:09:55.278000+00:00,train
211,-3.0566623210906982,-3.0,2021-01-21 19:10:25.278000+00:00,train
212,-3.0458927154541016,-3.0,2021-01-21 19:10:55.278000+00:00,train
213,-3.03574800491333,-3.0,2021-01-21 19:11:25.278000+00:00,train
214,-3.0262279510498047,-3.0,2021-01-21 19:11:55.278000+00:00,train
215,-3.0173327922821045,-3.0,2021-01-21 19:12:25.278000+00:00,train
216,-3.0090651512145996,-3.0,2021-01-21 19:12:55.278000+00:00,train
217,-3.001427412033081,-3.0,2021-01-21 19:13:25.278000+00:00,train
218,-2.994424343109131,-3.0,2021-01-21 19:13:55.278000+00:00,train
219,-2.988060474395752,-3.0,2021-01-21 19:14:25.278000+00:00,train
220,-2.982344150543213,-3.0,2021-01-21 19:14:55.278000+00:00,train
221,-2.977283000946045,-3.0,2021-01-21 19:15:25.278000+00:00,train
222,-2.9728877544403076,-3.0,2021-01-21 19:15:55.278000+00:00,train
223,-2.9691717624664307,-3.0,2021-01-21 19:16:25.278000+00:00,train
224,-2.96614933013916,-3.0,2021-01-21 19:16:55.278000+00:00,train
225,-2.963838577270508,-3.0,2021-01-21 19:17:25.278000+00:00,train
226,-2.9622602462768555,-3.0,2021-01-21 19:17:55.278000+00:00,train
227,-2.961439609527588,-3.0,2021-01-21 19:18:25.278000+00:00,train
228,-2.961406946182251,-3.0,2021-01-21 19:18:55.278000+00:00,train
229,-2.9621965885162354,-3.0,2021-01-21 19:19:25.278000+00:00,train
230,-2.963850736618042,-3.0,2021-01-21 19:19:55.278000+00:00,train
231,-2.9664201736450195,-3.0,2021-01-21 19:20:25.278000+00:00,train
232,-2.9699645042419434,-3.0,2021-01-21 19:20:55.278000+00:00,train
233,-2.963188648223877,-3.0,2021-01-21 19:21:25.278000+00:00,train
234,-2.956634283065796,-3.0,2021-01-21 19:21:55.278000+00:00,train
235,-2.950296640396118,-3.0,2021-01-21 19:22:25.278000+00:00,train
236,-2.944169759750366,-3.0,2021-01-21 19:22:55.278000+00:00,train
237,-2.9382498264312744,-3.0,2021-01-21 19:23:25.278000+00:00,train
238,-2.932530641555786,-3.0,2021-01-21 19:23:55.278000+00:00,train
239,-2.9270074367523193,-3.0,2021-01-21 19:24:25.278000+00:00,train
240,-2.921674966812134,-3.0,2021-01-21 19:24:55.278000+00:00,train
241,-2.9165282249450684,-3.0,2021-01-21 19:25:25.278000+00:00,train
242,-2.9115612506866455,-3.0,2021-01-21 19:25:55.278000+00:00,train
243,-2.9067678451538086,-3.0,2021-01-21 19:26:25.278000+00:00,train
244,-2.902142286300659,-3.0,2021-01-21 19:26:55.278000+00:00,train
245,-2.8976755142211914,-3.0,2021-01-21 19:27:25.278000+00:00,train
246,-2.8933568000793457,-3.0,2021-01-21 19:27:55.278000+00:00,train
247,-2.889167070388794,-3.0,2021-01-21 19:28:25.278000+00:00,train
248,-2.885072946548462,-3.0,2021-01-21 19:28:55.278000+00:00,train
249,-2.8810102939605713,-3.0,2021-01-21 19:29:25.278000+00:00,train
250,-2.8768413066864014,-3.0,2021-01-21 19:29:55.278000+00:00,train
251,-2.872267723083496,-3.0,2021-01-21 19:30:25.278000+00:00,train
252,-2.8666131496429443,-3.0,2021-01-21 19:30:55.278000+00:00,train
253,-2.8583333492279053,-3.0,2021-01-21 19:31:25.278000+00:00,train
254,-2.8439853191375732,-3.0,2021-01-21 19:31:55.278000+00:00,train
255,-2.816941261291504,-3.0,2021-01-21 19:32:25.278000+00:00,train
256,-2.7708334922790527,-3.0,2021-01-21 19:32:55.278000+00:00,train
257,-2.716681718826294,-3.0,2021-01-21 19:33:25.278000+00:00,train
258,-2.6798810958862305,-3.0,2021-01-21 19:33:55.278000+00:00,train
259,-2.6629021167755127,-3.0,2021-01-21 19:34:25.278000+00:00,train
260,-2.6552724838256836,-3.0,2021-01-21 19:34:55.278000+00:00,train
261,-2.651050567626953,-3.0,2021-01-21 19:35:25.278000+00:00,train
262,-2.6481316089630127,-3.0,2021-01-21 19:35:55.278000+00:00,train
263,-2.645815372467041,-3.0,2021-01-21 19:36:25.278000+00:00,train
264,-2.6438546180725098,-3.0,2021-01-21 19:36:55.278000+00:00,train
265,-2.6421561241149902,-3.0,2021-01-21 19:37:25.278000+00:00,train
266,-2.640683174133301,-3.0,2021-01-21 19:37:55.278000+00:00,train
267,-2.639420986175537,-3.0,2021-01-21 19:38:25.278000+00:00,train
268,-2.6383655071258545,-3.0,2021-01-21 19:38:55.278000+00:00,train
269,-2.6375179290771484,-3.0,2021-01-21 19:39:25.278000+00:00,train
270,-2.63688063621521,-3.0,2021-01-21 19:39:55.278000+00:00,train
271,-2.636457920074463,-3.0,2021-01-21 19:40:25.278000+00:00,train
272,-2.6362521648406982,-3.0,2021-01-21 19:40:55.278000+00:00,train
273,-2.6362624168395996,-3.0,2021-01-21 19:41:25.278000+00:00,train
274,-2.6364805698394775,-3.0,2021-01-21 19:41:55.278000+00:00,train
275,-2.6368799209594727,-3.0,2021-01-21 19:42:25.278000+00:00,train
276,-2.6374001502990723,-3.0,2021-01-21 19:42:55.278000+00:00,train
277,-2.6379048824310303,-3.0,2021-01-21 19:43:25.278000+00:00,train
278,-2.6380975246429443,-3.0,2021-01-21 19:43:55.278000+00:00,train
279,-2.637329339981079,-2.0,2021-01-21 19:44:25.278000+00:00,train
280,-2.634169340133667,-2.0,2021-01-21 19:44:55.278000+00:00,train
281,-2.625514268875122,-2.0,2021-01-21 19:45:25.278000+00:00,train
282,-2.60557222366333,-2.0,2021-01-21 19:45:55.278000+00:00,train
283,-2.570091962814331,-2.0,2021-01-21 19:46:25.278000+00:00,train
284,-2.53423810005188,-2.0,2021-01-21 19:46:55.278000+00:00,train
285,-2.5191266536712646,-2.0,2021-01-21 19:47:25.278000+00:00,train
286,-2.4835689067840576,-2.0,2021-01-21 19:47:55.278000+00:00,train
287,-2.4543206691741943,-2.0,2021-01-21 19:48:25.278000+00:00,train
288,-2.427894353866577,-2.0,2021-01-21 19:48:55.278000+00:00,train
289,-2.4030895233154297,-2.0,2021-01-21 19:49:25.278000+00:00,train
290,-2.3794126510620117,-2.0,2021-01-21 19:49:55.278000+00:00,train
291,-2.356612205505371,-2.0,2021-01-21 19:50:25.278000+00:00,train
292,-2.3345818519592285,-2.0,2021-01-21 19:50:55.278000+00:00,train
293,-2.313366651535034,-2.0,2021-01-21 19:51:25.278000+00:00,train
294,-2.293173313140869,-2.0,2021-01-21 19:51:55.278000+00:00,train
295,-2.274355173110962,-2.0,2021-01-21 19:52:25.278000+00:00,train
296,-2.2573843002319336,-2.0,2021-01-21 19:52:55.278000+00:00,train
297,-2.2428557872772217,-2.0,2021-01-21 19:53:25.278000+00:00,train
298,-2.2315144538879395,-2.0,2021-01-21 19:53:55.278000+00:00,train
299,-2.224198818206787,-2.0,2021-01-21 19:54:25.278000+00:00,train
300,-2.2214667797088623,-2.0,2021-01-21 19:54:55.278000+00:00,train
301,-2.2229104042053223,-2.0,2021-01-21 19:55:25.278000+00:00,train
302,-2.227043628692627,-2.0,2021-01-21 19:55:55.278000+00:00,train
303,-2.212855815887451,-2.0,2021-01-21 19:56:25.278000+00:00,train
304,-2.1989448070526123,-2.0,2021-01-21 19:56:55.278000+00:00,train
305,-2.185194492340088,-2.0,2021-01-21 19:57:25.278000+00:00,train
306,-2.1717529296875,-2.0,2021-01-21 19:57:55.278000+00:00,train
307,-2.1587941646575928,-2.0,2021-01-21 19:58:25.278000+00:00,train
308,-2.146451234817505,-2.0,2021-01-21 19:58:55.278000+00:00,train
309,-2.1348118782043457,-2.0,2021-01-21 19:59:25.278000+00:00,train
310,-2.1239304542541504,-2.0,2021-01-21 19:59:55.278000+00:00,train
311,-2.1138362884521484,-2.0,2021-01-21 20:00:25.278000+00:00,train
312,-2.1045451164245605,-2.0,2021-01-21 20:00:55.278000+00:00,train
313,-2.0960633754730225,-2.0,2021-01-21 20:01:25.278000+00:00,train
314,-2.088388204574585,-2.0,2021-01-21 20:01:55.278000+00:00,train
315,-2.081512212753296,-2.0,2021-01-21 20:02:25.278000+00:00,train
316,-2.07541823387146,-2.0,2021-01-21 20:02:55.278000+00:00,train
317,-2.0700738430023193,-2.0,2021-01-21 20:03:25.278000+00:00,train
318,-2.0654258728027344,-2.0,2021-01-21 20:03:55.278000+00:00,train
319,-2.0613958835601807,-2.0,2021-01-21 20:04:25.278000+00:00,train
320,-2.0578808784484863,-2.0,2021-01-21 20:04:55.278000+00:00,train
321,-2.054762840270996,-2.0,2021-01-21 20:05:25.278000+00:00,train
322,-2.0519189834594727,-2.0,2021-01-21 20:05:55.278000+00:00,train
323,-2.0492379665374756,-2.0,2021-01-21 20:06:25.278000+00:00,train
324,-2.046631097793579,-2.0,2021-01-21 20:06:55.278000+00:00,train
325,-2.044036626815796,-2.0,2021-01-21 20:07:25.278000+00:00,train
326,-2.0414185523986816,-2.0,2021-01-21 20:07:55.278000+00:00,train
327,-2.03875994682312,-2.0,2021-01-21 20:08:25.278000+00:00,train
328,-2.036058187484741,-2.0,2021-01-21 20:08:55.278000+00:00,train
329,-2.0333173274993896,-2.0,2021-01-21 20:09:25.278000+00:00,train
330,-2.0305440425872803,-2.0,2021-01-21 20:09:55.278000+00:00,train
331,-2.027751922607422,-2.0,2021-01-21 20:10:25.278000+00:00,train
332,-2.024937868118286,-2.0,2021-01-21 20:10:55.278000+00:00,train
333,-2.0221121311187744,-2.0,2021-01-21 20:11:25.278000+00:00,train
334,-2.0192811489105225,-2.0,2021-01-21 20:11:55.278000+00:00,train
335,-2.0164499282836914,-2.0,2021-01-21 20:12:25.278000+00:00,train
336,-2.013624668121338,-2.0,2021-01-21 20:12:55.278000+00:00,train
337,-2.010809898376465,-2.0,2021-01-21 20:13:25.278000+00:00,train
338,-2.008012294769287,-2.0,2021-01-21 20:13:55.278000+00:00,train
339,-2.005236864089966,-2.0,2021-01-21 20:14:25.278000+00:00,train
340,-2.002488136291504,-2.0,2021-01-21 20:14:55.278000+00:00,train
341,-1.9997714757919312,-2.0,2021-01-21 20:15:25.278000+00:00,train
342,-1.9970905780792236,-2.0,2021-01-21 20:15:55.278000+00:00,train
343,-1.9944511651992798,-2.0,2021-01-21 20:16:25.278000+00:00,train
344,-1.9918568134307861,-2.0,2021-01-21 20:16:55.278000+00:00,train
345,-1.9893096685409546,-2.0,2021-01-21 20:17:25.278000+00:00,train
346,-1.9868119955062866,-2.0,2021-01-21 20:17:55.278000+00:00,train
347,-1.9843659400939941,-2.0,2021-01-21 20:18:25.278000+00:00,train
348,-1.981998324394226,-2.0,2021-01-21 20:18:55.278000+00:00,train
349,-1.979661226272583,-2.0,2021-01-21 20:19:25.278000+00:00,train
350,-1.9773770570755005,-2.0,2021-01-21 20:19:55.278000+00:00,train
351,-1.9751486778259277,-2.0,2021-01-21 20:20:25.278000+00:00,train
352,-1.9729766845703125,-2.0,2021-01-21 20:20:55.278000+00:00,train
353,-1.9708644151687622,-2.0,2021-01-21 20:21:25.278000+00:00,train
354,-1.9687538146972656,-2.0,2021-01-21 20:21:55.278000+00:00,train
355,-1.9667832851409912,-2.0,2021-01-21 20:22:25.278000+00:00,train
356,-1.9649672508239746,-2.0,2021-01-21 20:22:55.278000+00:00,train
357,-1.9635199308395386,-2.0,2021-01-21 20:23:25.278000+00:00,train
358,-1.9633140563964844,-2.0,2021-01-21 20:23:55.278000+00:00,train
359,-1.968007206916809,-2.0,2021-01-21 20:24:25.278000+00:00,train
360,-1.9865442514419556,-2.0,2021-01-21 20:24:55.278000+00:00,train
361,-2.0081090927124023,-2.0,2021-01-21 20:25:25.278000+00:00,train
362,-2.0146281719207764,-2.0,2021-01-21 20:25:55.278000+00:00,train
363,-2.014453887939453,-2.0,2021-01-21 20:26:25.278000+00:00,train
364,-2.01263689994812,-2.0,2021-01-21 20:26:55.278000+00:00,train
365,-2.010420560836792,-2.0,2021-01-21 20:27:25.278000+00:00,train
366,-2.008124828338623,-2.0,2021-01-21 20:27:55.278000+00:00,train
367,-2.0058467388153076,-2.0,2021-01-21 20:28:25.278000+00:00,train
368,-2.003621816635132,-2.0,2021-01-21 20:28:55.278000+00:00,train
369,-2.001467704772949,-2.0,2021-01-21 20:29:25.278000+00:00,train
370,-1.9993946552276611,-2.0,2021-01-21 20:29:55.278000+00:00,train
371,-1.9974104166030884,-2.0,2021-01-21 20:30:25.278000+00:00,train
372,-1.995522379875183,-2.0,2021-01-21 20:30:55.278000+00:00,train
373,-1.9937381744384766,-2.0,2021-01-21 20:31:25.278000+00:00,train
374,-1.9920653104782104,-2.0,2021-01-21 20:31:55.278000+00:00,train
375,-1.9905134439468384,-2.0,2021-01-21 20:32:25.278000+00:00,train
376,-1.9890917539596558,-2.0,2021-01-21 20:32:55.278000+00:00,train
377,-1.987809658050537,-2.0,2021-01-21 20:33:25.278000+00:00,train
378,-1.9866769313812256,-2.0,2021-01-21 20:33:55.278000+00:00,train
379,-1.9857041835784912,-2.0,2021-01-21 20:34:25.278000+00:00,train
380,-1.9849200248718262,-2.0,2021-01-21 20:34:55.278000+00:00,train
381,-1.9843008518218994,-2.0,2021-01-21 20:35:25.278000+00:00,train
382,-1.9838670492172241,-2.0,2021-01-21 20:35:55.278000+00:00,train
383,-1.9836279153823853,-2.0,2021-01-21 20:36:25.278000+00:00,train
384,-1.9835871458053589,-2.0,2021-01-21 20:36:55.278000+00:00,train
385,-1.9837449789047241,-2.0,2021-01-21 20:37:25.278000+00:00,train
386,-1.9840935468673706,-2.0,2021-01-21 20:37:55.278000+00:00,train
387,-1.9846222400665283,-2.0,2021-01-21 20:38:25.278000+00:00,train
388,-1.9853074550628662,-2.0,2021-01-21 20:38:55.278000+00:00,train
389,-1.9861164093017578,-2.0,2021-01-21 20:39:25.278000+00:00,train
390,-1.9870036840438843,-2.0,2021-01-21 20:39:55.278000+00:00,train
391,-1.9879130125045776,-2.0,2021-01-21 20:40:25.278000+00:00,train
392,-1.9887813329696655,-2.0,2021-01-21 20:40:55.278000+00:00,train
393,-1.9895380735397339,-2.0,2021-01-21 20:41:25.278000+00:00,train
394,-1.9901155233383179,-2.0,2021-01-21 20:41:55.278000+00:00,train
395,-1.990454077720642,-2.0,2021-01-21 20:42:25.278000+00:00,train
396,-1.9905123710632324,-2.0,2021-01-21 20:42:55.278000+00:00,train
397,-1.9902876615524292,-2.0,2021-01-21 20:43:25.278000+00:00,train
398,-1.9897650480270386,-2.0,2021-01-21 20:43:55.278000+00:00,train
399,-1.9889953136444092,-2.0,2021-01-21 20:44:25.278000+00:00,train
400,-1.9880623817443848,-2.0,2021-01-21 20:44:55.278000+00:00,train
401,-1.9870963096618652,-2.0,2021-01-21 20:45:25.278000+00:00,train
402,-1.9863073825836182,-2.0,2021-01-21 20:45:55.278000+00:00,train
403,-1.9860795736312866,-2.0,2021-01-21 20:46:25.278000+00:00,train
404,-1.9873570203781128,-2.0,2021-01-21 20:46:55.278000+00:00,train
405,-2.0,-2.0,2021-01-21 20:47:25.278000+00:00,train
406,-2.0,-2.0,2021-01-21 20:47:55.278000+00:00,train
407,-2.0,-2.0,2021-01-21 20:48:25.278000+00:00,train
408,-2.0,-2.0,2021-01-21 20:48:55.278000+00:00,train
409,-2.0,-2.0,2021-01-21 20:49:25.278000+00:00,train
410,-2.0,-2.0,2021-01-21 20:49:55.278000+00:00,train
411,-2.0,-2.0,2021-01-21 20:50:25.278000+00:00,train
412,-2.0,-2.0,2021-01-21 20:50:55.278000+00:00,train
413,-2.0,-2.0,2021-01-21 20:51:25.278000+00:00,train
414,-2.0,-2.0,2021-01-21 20:51:55.278000+00:00,train
415,-2.0,-2.0,2021-01-21 20:52:25.278000+00:00,train
416,-2.0,-2.0,2021-01-21 20:52:55.278000+00:00,train
417,-2.0,-2.0,2021-01-21 20:53:25.278000+00:00,train
418,-2.0,-2.0,2021-01-21 20:53:55.278000+00:00,train
419,-2.0,-2.0,2021-01-21 20:54:25.278000+00:00,train
420,-2.0,-2.0,2021-01-21 20:54:55.278000+00:00,train
421,-2.0,-2.0,2021-01-21 20:55:25.278000+00:00,train
422,-2.0,-2.0,2021-01-21 20:55:55.278000+00:00,train
423,-2.0,-2.0,2021-01-21 20:56:25.278000+00:00,train
424,-2.0,-2.0,2021-01-21 20:56:55.278000+00:00,train
425,-2.0,-2.0,2021-01-21 20:57:25.278000+00:00,train
426,-2.0,-2.0,2021-01-21 20:57:55.278000+00:00,train
427,-2.0,-2.0,2021-01-21 20:58:25.278000+00:00,train
428,-2.0,-2.0,2021-01-21 20:58:55.278000+00:00,train
429,-2.0,-2.0,2021-01-21 20:59:25.278000+00:00,train
430,-2.0,-2.0,2021-01-21 20:59:55.278000+00:00,train
431,-2.0,-2.0,2021-01-21 21:00:25.278000+00:00,train
432,-2.0,0.0,2021-01-21 21:00:55.278000+00:00,train
433,-2.0,-2.0,2021-01-21 21:01:25.278000+00:00,train
434,-2.0,-2.0,2021-01-21 21:01:55.278000+00:00,train
435,-2.0,-2.0,2021-01-21 21:02:25.278000+00:00,train
436,-2.0,-2.0,2021-01-21 21:02:55.278000+00:00,train
437,-2.0,-2.0,2021-01-21 21:03:25.278000+00:00,train
438,-2.0,-2.0,2021-01-21 21:03:55.278000+00:00,train
439,-1.980833649635315,-2.0,2021-01-21 21:04:25.278000+00:00,train
440,-1.9810445308685303,-2.0,2021-01-21 21:04:55.278000+00:00,train
441,-1.9812419414520264,-2.0,2021-01-21 21:05:25.278000+00:00,train
442,-1.981432557106018,-2.0,2021-01-21 21:05:55.278000+00:00,train
443,-1.9816172122955322,-2.0,2021-01-21 21:06:25.278000+00:00,train
444,-1.9817968606948853,-2.0,2021-01-21 21:06:55.278000+00:00,train
445,-1.981972098350525,-2.0,2021-01-21 21:07:25.278000+00:00,train
446,-1.982143521308899,-2.0,2021-01-21 21:07:55.278000+00:00,train
447,-1.9823112487792969,-2.0,2021-01-21 21:08:25.278000+00:00,train
448,-1.982475757598877,-2.0,2021-01-21 21:08:55.278000+00:00,train
449,-1.9826372861862183,-2.0,2021-01-21 21:09:25.278000+00:00,train
450,-1.9827957153320312,-2.0,2021-01-21 21:09:55.278000+00:00,train
451,-1.9829514026641846,-2.0,2021-01-21 21:10:25.278000+00:00,train
452,-1.9831044673919678,-2.0,2021-01-21 21:10:55.278000+00:00,train
453,-1.9832550287246704,-2.0,2021-01-21 21:11:25.278000+00:00,train
454,-1.9834028482437134,-2.0,2021-01-21 21:11:55.278000+00:00,train
455,-1.9835485219955444,-2.0,2021-01-21 21:12:25.278000+00:00,train
456,-1.9836915731430054,-2.0,2021-01-21 21:12:55.278000+00:00,train
457,-1.9838324785232544,-2.0,2021-01-21 21:13:25.278000+00:00,train
458,-1.9839707612991333,-2.0,2021-01-21 21:13:55.278000+00:00,train
459,-1.9841071367263794,-2.0,2021-01-21 21:14:25.278000+00:00,train
460,-1.984241008758545,-2.0,2021-01-21 21:14:55.278000+00:00,train
461,-1.9843727350234985,-2.0,2021-01-21 21:15:25.278000+00:00,train
462,-1.9845023155212402,-2.0,2021-01-21 21:15:55.278000+00:00,train
463,-1.98462975025177,-2.0,2021-01-21 21:16:25.278000+00:00,train
464,-1.984755039215088,-2.0,2021-01-21 21:16:55.278000+00:00,train
465,-1.9848781824111938,-2.0,2021-01-21 21:17:25.278000+00:00,train
466,-1.9849992990493774,-2.0,2021-01-21 21:17:55.278000+00:00,train
467,-1.9851181507110596,-2.0,2021-01-21 21:18:25.278000+00:00,train
468,-1.9852352142333984,-2.0,2021-01-21 21:18:55.278000+00:00,train
469,-1.9853501319885254,-2.0,2021-01-21 21:19:25.278000+00:00,train
470,-1.9854629039764404,-2.0,2021-01-21 21:19:55.278000+00:00,train
471,-1.9855737686157227,-2.0,2021-01-21 21:20:25.278000+00:00,train
472,-1.985682725906372,-2.0,2021-01-21 21:20:55.278000+00:00,train
473,-1.9857896566390991,-2.0,2021-01-21 21:21:25.278000+00:00,train
474,-1.9858945608139038,-2.0,2021-01-21 21:21:55.278000+00:00,train
475,-1.9859976768493652,-2.0,2021-01-21 21:22:25.278000+00:00,train
476,-1.9860988855361938,-2.0,2021-01-21 21:22:55.278000+00:00,train
477,-1.9861981868743896,-2.0,2021-01-21 21:23:25.278000+00:00,train
478,-1.9862955808639526,-2.0,2021-01-21 21:23:55.278000+00:00,train
479,-1.9863910675048828,-2.0,2021-01-21 21:24:25.278000+00:00,train
480,-1.9864847660064697,-2.0,2021-01-21 21:24:55.278000+00:00,train
481,-1.9865764379501343,-2.0,2021-01-21 21:25:25.278000+00:00,train
482,-1.9866663217544556,-2.0,2021-01-21 21:25:55.278000+00:00,train
483,-1.9867545366287231,-2.0,2021-01-21 21:26:25.278000+00:00,train
484,-1.986840844154358,-2.0,2021-01-21 21:26:55.278000+00:00,train
485,-1.9869252443313599,-2.0,2021-01-21 21:27:25.278000+00:00,train
486,-1.987007737159729,-2.0,2021-01-21 21:27:55.278000+00:00,train
487,-1.9870883226394653,-2.0,2021-01-21 21:28:25.278000+00:00,train
488,-1.9871673583984375,-2.0,2021-01-21 21:28:55.278000+00:00,train
489,-1.9872446060180664,-2.0,2021-01-21 21:29:25.278000+00:00,train
490,-1.987320065498352,-2.0,2021-01-21 21:29:55.278000+00:00,train
491,-1.9873936176300049,-2.0,2021-01-21 21:30:25.278000+00:00,train
492,-1.987465500831604,-2.0,2021-01-21 21:30:55.278000+00:00,train
493,-1.9875354766845703,-2.0,2021-01-21 21:31:25.278000+00:00,train
494,-1.987603783607483,-2.0,2021-01-21 21:31:55.278000+00:00,train
495,-1.9876701831817627,-2.0,2021-01-21 21:32:25.278000+00:00,train
496,-1.9877350330352783,-2.0,2021-01-21 21:32:55.278000+00:00,train
497,-1.9877978563308716,-2.0,2021-01-21 21:33:25.278000+00:00,train
498,-1.9878586530685425,-2.0,2021-01-21 21:33:55.278000+00:00,train
499,-1.9879177808761597,-2.0,2021-01-21 21:34:25.278000+00:00,train
500,-1.987974762916565,-2.0,2021-01-21 21:34:55.278000+00:00,train
501,-1.9880298376083374,-2.0,2021-01-21 21:35:25.278000+00:00,train
502,-1.9880825281143188,-2.0,2021-01-21 21:35:55.278000+00:00,train
503,-1.988133430480957,-2.0,2021-01-21 21:36:25.278000+00:00,train
504,-1.988182783126831,-2.0,2021-01-21 21:36:55.278000+00:00,train
505,-1.9882313013076782,-2.0,2021-01-21 21:37:25.278000+00:00,train
506,-1.9882792234420776,-2.0,2021-01-21 21:37:55.278000+00:00,train
507,-1.9883270263671875,-2.0,2021-01-21 21:38:25.278000+00:00,train
508,-1.9883594512939453,-2.0,2021-01-21 21:38:55.278000+00:00,train
509,-1.9883899688720703,-2.0,2021-01-21 21:39:25.278000+00:00,train
510,-1.9884095191955566,-2.0,2021-01-21 21:39:55.278000+00:00,train
511,-1.988402009010315,-2.0,2021-01-21 21:40:25.278000+00:00,train
512,-1.9883404970169067,-2.0,2021-01-21 21:40:55.278000+00:00,train
513,-1.988184928894043,-2.0,2021-01-21 21:41:25.278000+00:00,train
514,-1.987862467765808,-2.0,2021-01-21 21:41:55.278000+00:00,train
515,-1.9873188734054565,-2.0,2021-01-21 21:42:25.278000+00:00,train
516,-1.9864963293075562,-2.0,2021-01-21 21:42:55.278000+00:00,train
517,-1.9853283166885376,-2.0,2021-01-21 21:43:25.278000+00:00,train
518,-1.9837007522583008,-2.0,2021-01-21 21:43:55.278000+00:00,train
519,-1.9810715913772583,-2.0,2021-01-21 21:44:25.278000+00:00,train
520,-1.9743890762329102,-2.0,2021-01-21 21:44:55.278000+00:00,train
521,-1.9628124237060547,-2.0,2021-01-21 21:45:25.278000+00:00,train
522,-1.9580470323562622,-2.0,2021-01-21 21:45:55.278000+00:00,train
523,-1.9560470581054688,-2.0,2021-01-21 21:46:25.278000+00:00,train
524,-1.9544683694839478,-2.0,2021-01-21 21:46:55.278000+00:00,train
525,-1.95113205909729,-2.0,2021-01-21 21:47:25.278000+00:00,train
526,-1.9425337314605713,-2.0,2021-01-21 21:47:55.278000+00:00,train
527,-1.9352703094482422,-2.0,2021-01-21 21:48:25.278000+00:00,train
528,-1.933255672454834,-2.0,2021-01-21 21:48:55.278000+00:00,train
529,-1.9343079328536987,-2.0,2021-01-21 21:49:25.278000+00:00,train
530,-1.9380472898483276,-2.0,2021-01-21 21:49:55.278000+00:00,train
531,-1.9423823356628418,-2.0,2021-01-21 21:50:25.278000+00:00,train
532,-1.945611596107483,-2.0,2021-01-21 21:50:55.278000+00:00,train
533,-1.9477092027664185,-2.0,2021-01-21 21:51:25.278000+00:00,train
534,-1.948981523513794,-2.0,2021-01-21 21:51:55.278000+00:00,train
535,-1.9496630430221558,-2.0,2021-01-21 21:52:25.278000+00:00,train
536,-1.9504950046539307,-2.0,2021-01-21 21:52:55.278000+00:00,train
537,-1.9517258405685425,-2.0,2021-01-21 21:53:25.278000+00:00,train
538,-1.9482711553573608,-2.0,2021-01-21 21:53:55.278000+00:00,train
539,-1.7964818477630615,-2.0,2021-01-21 21:54:25.278000+00:00,train
540,-1.7648872137069702,-2.0,2021-01-21 21:54:55.278000+00:00,train
541,-1.7398854494094849,-2.0,2021-01-21 21:55:25.278000+00:00,train
542,-1.7231535911560059,-2.0,2021-01-21 21:55:55.278000+00:00,train
543,-1.7106095552444458,-1.0,2021-01-21 21:56:25.278000+00:00,train
544,-1.6999154090881348,-2.0,2021-01-21 21:56:55.278000+00:00,train
545,-1.6902720928192139,-2.0,2021-01-21 21:57:25.278000+00:00,train
546,-1.6813573837280273,-2.0,2021-01-21 21:57:55.278000+00:00,train
547,-1.6730784177780151,-2.0,2021-01-21 21:58:25.278000+00:00,train
548,-1.6654151678085327,-2.0,2021-01-21 21:58:55.278000+00:00,train
549,-1.6583930253982544,-2.0,2021-01-21 21:59:25.278000+00:00,train
550,-1.605725884437561,-1.0,2021-01-21 21:59:55.278000+00:00,train
551,-1.598635196685791,-1.0,2021-01-21 22:00:25.278000+00:00,train
552,-1.5914162397384644,0.0,2021-01-21 22:00:55.278000+00:00,train
553,-1.5838215351104736,-1.0,2021-01-21 22:01:25.278000+00:00,train
554,-1.575757622718811,-1.0,2021-01-21 22:01:55.278000+00:00,train
555,-1.5671924352645874,-1.0,2021-01-21 22:02:25.278000+00:00,train
556,-1.5581618547439575,-1.0,2021-01-21 22:02:55.278000+00:00,train
557,-1.5013614892959595,-1.0,2021-01-21 22:03:25.278000+00:00,train
558,-1.4456195831298828,-1.0,2021-01-21 22:03:55.278000+00:00,train
559,-1.4432339668273926,-1.0,2021-01-21 22:04:25.278000+00:00,train
560,-1.395298719406128,-1.0,2021-01-21 22:04:55.278000+00:00,train
561,-1.3312876224517822,-1.0,2021-01-21 22:05:25.278000+00:00,train
562,-1.2790608406066895,-1.0,2021-01-21 22:05:55.278000+00:00,train
563,-1.2333667278289795,-1.0,2021-01-21 22:06:25.278000+00:00,train
564,-1.1916133165359497,-1.0,2021-01-21 22:06:55.278000+00:00,train
565,-1.1541553735733032,-1.0,2021-01-21 22:07:25.278000+00:00,train
566,-1.1214717626571655,-1.0,2021-01-21 22:07:55.278000+00:00,train
567,-1.0940768718719482,-1.0,2021-01-21 22:08:25.278000+00:00,train
568,-1.0717090368270874,-1.0,2021-01-21 22:08:55.278000+00:00,train
569,-1.0545451641082764,-1.0,2021-01-21 22:09:25.278000+00:00,train
570,-1.0422415733337402,-1.0,2021-01-21 22:09:55.278000+00:00,train
571,-1.0339452028274536,-1.0,2021-01-21 22:10:25.278000+00:00,train
572,-1.0280532836914062,-1.0,2021-01-21 22:10:55.278000+00:00,train
573,-1.0235780477523804,-1.0,2021-01-21 22:11:25.278000+00:00,train
574,-1.0198538303375244,-1.0,2021-01-21 22:11:55.278000+00:00,train
575,-1.016427755355835,-1.0,2021-01-21 22:12:25.278000+00:00,train
576,-1.0130527019500732,-1.0,2021-01-21 22:12:55.278000+00:00,train
577,-1.0096147060394287,-1.0,2021-01-21 22:13:25.278000+00:00,train
578,-1.0060800313949585,-1.0,2021-01-21 22:13:55.278000+00:00,train
579,-1.002398133277893,-1.0,2021-01-21 22:14:25.278000+00:00,train
580,-0.9985940456390381,-1.0,2021-01-21 22:14:55.278000+00:00,train
581,-0.9947219491004944,-1.0,2021-01-21 22:15:25.278000+00:00,train
582,-0.9908411502838135,-1.0,2021-01-21 22:15:55.278000+00:00,train
583,-0.9870150089263916,-1.0,2021-01-21 22:16:25.278000+00:00,train
584,-0.9832679033279419,-1.0,2021-01-21 22:16:55.278000+00:00,train
585,-0.9796098470687866,-1.0,2021-01-21 22:17:25.278000+00:00,train
586,-0.9760251045227051,-1.0,2021-01-21 22:17:55.278000+00:00,train
587,-0.972466766834259,-1.0,2021-01-21 22:18:25.278000+00:00,train
588,-0.9688851833343506,-1.0,2021-01-21 22:18:55.278000+00:00,train
589,-0.9652336835861206,-1.0,2021-01-21 22:19:25.278000+00:00,train
590,-0.9615212082862854,-1.0,2021-01-21 22:19:55.278000+00:00,train
591,-0.9576495885848999,-1.0,2021-01-21 22:20:25.278000+00:00,train
592,-0.9544733166694641,-1.0,2021-01-21 22:20:55.278000+00:00,train
593,-0.9512379765510559,-1.0,2021-01-21 22:21:25.278000+00:00,train
594,-0.948695719242096,-1.0,2021-01-21 22:21:55.278000+00:00,train
595,-0.9462551474571228,-1.0,2021-01-21 22:22:25.278000+00:00,train
596,-0.9439231753349304,-1.0,2021-01-21 22:22:55.278000+00:00,train
597,-0.9417244791984558,-1.0,2021-01-21 22:23:25.278000+00:00,train
598,-0.9396918416023254,-1.0,2021-01-21 22:23:55.278000+00:00,train
599,-0.9378710389137268,-1.0,2021-01-21 22:24:25.278000+00:00,train
600,-0.936317503452301,-1.0,2021-01-21 22:24:55.278000+00:00,train
601,-0.9351068139076233,-1.0,2021-01-21 22:25:25.278000+00:00,train
602,-0.9343229532241821,-1.0,2021-01-21 22:25:55.278000+00:00,train
603,-0.9339582324028015,-1.0,2021-01-21 22:26:25.278000+00:00,train
604,-0.9344077706336975,-1.0,2021-01-21 22:26:55.278000+00:00,train
605,-0.9338213205337524,-1.0,2021-01-21 22:27:25.278000+00:00,train
606,-0.933379590511322,-1.0,2021-01-21 22:27:55.278000+00:00,train
607,-0.933102548122406,-1.0,2021-01-21 22:28:25.278000+00:00,train
608,-0.9329495429992676,-1.0,2021-01-21 22:28:55.278000+00:00,train
609,-0.9328701496124268,-1.0,2021-01-21 22:29:25.278000+00:00,train
610,-0.9328649640083313,-1.0,2021-01-21 22:29:55.278000+00:00,train
611,-0.9327622056007385,-1.0,2021-01-21 22:30:25.278000+00:00,train
612,-0.9326657652854919,-1.0,2021-01-21 22:30:55.278000+00:00,train
613,-0.9326028227806091,-1.0,2021-01-21 22:31:25.278000+00:00,train
614,-0.9326267838478088,-1.0,2021-01-21 22:31:55.278000+00:00,train
615,-0.9328029155731201,-1.0,2021-01-21 22:32:25.278000+00:00,train
616,-0.9333060383796692,-1.0,2021-01-21 22:32:55.278000+00:00,train
617,-0.9339926242828369,-1.0,2021-01-21 22:33:25.278000+00:00,train
618,-0.9351853132247925,-1.0,2021-01-21 22:33:55.278000+00:00,train
619,-0.9370973110198975,-1.0,2021-01-21 22:34:25.278000+00:00,train
620,-0.9400032162666321,-1.0,2021-01-21 22:34:55.278000+00:00,train
621,-0.9444870948791504,-1.0,2021-01-21 22:35:25.278000+00:00,train
622,-0.9506050944328308,-1.0,2021-01-21 22:35:55.278000+00:00,train
623,-0.9595276117324829,-1.0,2021-01-21 22:36:25.278000+00:00,train
624,-0.9722408652305603,-1.0,2021-01-21 22:36:55.278000+00:00,train
625,-0.988964319229126,-1.0,2021-01-21 22:37:25.278000+00:00,train
626,-1.0062826871871948,-1.0,2021-01-21 22:37:55.278000+00:00,train
627,-1.019108533859253,-1.0,2021-01-21 22:38:25.278000+00:00,train
628,-1.015105128288269,-1.0,2021-01-21 22:38:55.278000+00:00,train
629,-1.0100834369659424,-1.0,2021-01-21 22:39:25.278000+00:00,train
630,-1.0046555995941162,-1.0,2021-01-21 22:39:55.278000+00:00,train
631,-0.9991148710250854,-1.0,2021-01-21 22:40:25.278000+00:00,train
632,-0.9935928583145142,-1.0,2021-01-21 22:40:55.278000+00:00,train
633,-0.9881492257118225,-1.0,2021-01-21 22:41:25.278000+00:00,train
634,-0.9828143119812012,-1.0,2021-01-21 22:41:55.278000+00:00,train
635,-0.977591335773468,-1.0,2021-01-21 22:42:25.278000+00:00,train
636,-0.9724823832511902,-1.0,2021-01-21 22:42:55.278000+00:00,train
637,-0.967487096786499,-1.0,2021-01-21 22:43:25.278000+00:00,train
638,-0.962605357170105,-1.0,2021-01-21 22:43:55.278000+00:00,train
639,-0.9578376412391663,-1.0,2021-01-21 22:44:25.278000+00:00,train
640,-0.9531605243682861,-1.0,2021-01-21 22:44:55.278000+00:00,train
641,-0.9486162662506104,-1.0,2021-01-21 22:45:25.278000+00:00,train
642,-0.9441955089569092,-1.0,2021-01-21 22:45:55.278000+00:00,train
643,-0.939897894859314,-1.0,2021-01-21 22:46:25.278000+00:00,train
644,-0.9357249736785889,-1.0,2021-01-21 22:46:55.278000+00:00,train
645,-0.9316795468330383,-1.0,2021-01-21 22:47:25.278000+00:00,train
646,-0.9277685880661011,-1.0,2021-01-21 22:47:55.278000+00:00,train
647,-0.923989474773407,-1.0,2021-01-21 22:48:25.278000+00:00,train
648,-0.9203479290008545,-1.0,2021-01-21 22:48:55.278000+00:00,train
649,-0.91684889793396,-1.0,2021-01-21 22:49:25.278000+00:00,train
650,-0.9134973287582397,-1.0,2021-01-21 22:49:55.278000+00:00,train
651,-0.9102989435195923,-1.0,2021-01-21 22:50:25.278000+00:00,train
652,-0.9072631597518921,-1.0,2021-01-21 22:50:55.278000+00:00,train
653,-0.904390811920166,-1.0,2021-01-21 22:51:25.278000+00:00,train
654,-0.9016907215118408,-1.0,2021-01-21 22:51:55.278000+00:00,train
655,-0.8991716504096985,-1.0,2021-01-21 22:52:25.278000+00:00,train
656,-0.8968431949615479,-1.0,2021-01-21 22:52:55.278000+00:00,train
657,-0.8947198390960693,-1.0,2021-01-21 22:53:25.278000+00:00,train
658,-0.8928070664405823,-1.0,2021-01-21 22:53:55.278000+00:00,train
659,-0.891120195388794,-1.0,2021-01-21 22:54:25.278000+00:00,train
660,-0.8896754384040833,-1.0,2021-01-21 22:54:55.278000+00:00,train
661,-0.8884909152984619,-1.0,2021-01-21 22:55:25.278000+00:00,train
662,-0.8875881433486938,-1.0,2021-01-21 22:55:55.278000+00:00,train
663,-0.8869675993919373,-1.0,2021-01-21 22:56:25.278000+00:00,train
664,-0.8867019414901733,-1.0,2021-01-21 22:56:55.278000+00:00,train
665,-0.8868141770362854,-1.0,2021-01-21 22:57:25.278000+00:00,train
666,-0.8873465061187744,-1.0,2021-01-21 22:57:55.278000+00:00,train
667,-0.8883547782897949,-1.0,2021-01-21 22:58:25.278000+00:00,train
668,-0.8899122476577759,-1.0,2021-01-21 22:58:55.278000+00:00,train
669,-0.8921194672584534,-1.0,2021-01-21 22:59:25.278000+00:00,train
670,-0.8929392695426941,-1.0,2021-01-21 22:59:55.278000+00:00,train
671,-0.8958834409713745,-1.0,2021-01-21 23:00:25.278000+00:00,train
672,-0.8997904062271118,0.0,2021-01-21 23:00:55.278000+00:00,train
673,-0.9049564599990845,-1.0,2021-01-21 23:01:25.278000+00:00,train
674,-0.9118863344192505,-1.0,2021-01-21 23:01:55.278000+00:00,train
675,-0.9215869903564453,-1.0,2021-01-21 23:02:25.278000+00:00,train
676,-0.9367039203643799,-1.0,2021-01-21 23:02:55.278000+00:00,train
677,-0.9366063475608826,-1.0,2021-01-21 23:03:25.278000+00:00,train
678,-0.9322848320007324,-1.0,2021-01-21 23:03:55.278000+00:00,train
679,-0.9360856413841248,-1.0,2021-01-21 23:04:25.278000+00:00,train
680,-0.9390437006950378,-1.0,2021-01-21 23:04:55.278000+00:00,train
681,-0.939436674118042,-1.0,2021-01-21 23:05:25.278000+00:00,train
682,-0.9399206638336182,-1.0,2021-01-21 23:05:55.278000+00:00,train
683,-0.9404417872428894,-1.0,2021-01-21 23:06:25.278000+00:00,train
684,-0.9409831166267395,-1.0,2021-01-21 23:06:55.278000+00:00,train
685,-0.9415422081947327,-1.0,2021-01-21 23:07:25.278000+00:00,train
686,-0.9421795606613159,-1.0,2021-01-21 23:07:55.278000+00:00,train
687,-0.9427971243858337,-1.0,2021-01-21 23:08:25.278000+00:00,train
688,-0.9434210658073425,-1.0,2021-01-21 23:08:55.278000+00:00,train
689,-0.9440580010414124,-1.0,2021-01-21 23:09:25.278000+00:00,train
690,-0.9447044730186462,-1.0,2021-01-21 23:09:55.278000+00:00,train
691,-0.9453610777854919,-1.0,2021-01-21 23:10:25.278000+00:00,train
692,-0.9460270404815674,-1.0,2021-01-21 23:10:55.278000+00:00,train
693,-0.9466990828514099,-1.0,2021-01-21 23:11:25.278000+00:00,train
694,-0.9473758935928345,-1.0,2021-01-21 23:11:55.278000+00:00,train
695,-0.9480591416358948,-1.0,2021-01-21 23:12:25.278000+00:00,train
696,-0.9487429261207581,-1.0,2021-01-21 23:12:55.278000+00:00,train
697,-0.9494264721870422,-1.0,2021-01-21 23:13:25.278000+00:00,train
698,-0.9501092433929443,-1.0,2021-01-21 23:13:55.278000+00:00,train
699,-0.9507903456687927,-1.0,2021-01-21 23:14:25.278000+00:00,train
700,-0.9514691233634949,-1.0,2021-01-21 23:14:55.278000+00:00,train
701,-0.9521476030349731,-1.0,2021-01-21 23:15:25.278000+00:00,train
702,-0.9528208374977112,-1.0,2021-01-21 23:15:55.278000+00:00,train
703,-0.9534894227981567,-1.0,2021-01-21 23:16:25.278000+00:00,train
704,-0.9541535377502441,-1.0,2021-01-21 23:16:55.278000+00:00,train
705,-0.9548128247261047,-1.0,2021-01-21 23:17:25.278000+00:00,train
706,-0.9554698467254639,-1.0,2021-01-21 23:17:55.278000+00:00,train
707,-0.956119954586029,-1.0,2021-01-21 23:18:25.278000+00:00,train
708,-0.9567642211914062,-1.0,2021-01-21 23:18:55.278000+00:00,train
709,-0.9574031233787537,-1.0,2021-01-21 23:19:25.278000+00:00,train
710,-0.9580370783805847,-1.0,2021-01-21 23:19:55.278000+00:00,train
711,-0.9586666226387024,-1.0,2021-01-21 23:20:25.278000+00:00,train
712,-0.9592843055725098,-1.0,2021-01-21 23:20:55.278000+00:00,train
713,-0.9599047303199768,-1.0,2021-01-21 23:21:25.278000+00:00,train
714,-0.9605242609977722,-1.0,2021-01-21 23:21:55.278000+00:00,train
715,-0.9611431360244751,-1.0,2021-01-21 23:22:25.278000+00:00,train
716,-0.9617627263069153,-1.0,2021-01-21 23:22:55.278000+00:00,train
717,-0.9623846411705017,-1.0,2021-01-21 23:23:25.278000+00:00,train
718,-0.9630136489868164,-1.0,2021-01-21 23:23:55.278000+00:00,train
719,-0.963647723197937,-1.0,2021-01-21 23:24:25.278000+00:00,train
720,-0.9642910361289978,-1.0,2021-01-21 23:24:55.278000+00:00,train
721,-0.964946985244751,-1.0,2021-01-21 23:25:25.278000+00:00,train
722,-0.965619683265686,-1.0,2021-01-21 23:25:55.278000+00:00,train
723,-0.9663164615631104,-1.0,2021-01-21 23:26:25.278000+00:00,train
724,-0.9670373201370239,-1.0,2021-01-21 23:26:55.278000+00:00,train
725,-0.967788577079773,-1.0,2021-01-21 23:27:25.278000+00:00,train
726,-0.9685758948326111,-1.0,2021-01-21 23:27:55.278000+00:00,train
727,-0.969404399394989,-1.0,2021-01-21 23:28:25.278000+00:00,train
728,-0.9702786207199097,-1.0,2021-01-21 23:28:55.278000+00:00,train
729,-0.9712061882019043,-1.0,2021-01-21 23:29:25.278000+00:00,train
730,-0.9721823930740356,-1.0,2021-01-21 23:29:55.278000+00:00,train
731,-0.973207414150238,-1.0,2021-01-21 23:30:25.278000+00:00,train
732,-0.9742777347564697,-1.0,2021-01-21 23:30:55.278000+00:00,train
733,-0.975385844707489,-1.0,2021-01-21 23:31:25.278000+00:00,train
734,-0.9764946103096008,-1.0,2021-01-21 23:31:55.278000+00:00,train
735,-0.9776164293289185,-1.0,2021-01-21 23:32:25.278000+00:00,train
736,-0.9787128567695618,-1.0,2021-01-21 23:32:55.278000+00:00,train
737,-0.9797378778457642,-1.0,2021-01-21 23:33:25.278000+00:00,train
738,-0.9806748628616333,-1.0,2021-01-21 23:33:55.278000+00:00,train
739,-0.9815217852592468,-1.0,2021-01-21 23:34:25.278000+00:00,train
740,-0.9822806715965271,-1.0,2021-01-21 23:34:55.278000+00:00,train
741,-0.9829589128494263,-1.0,2021-01-21 23:35:25.278000+00:00,train
742,-0.983557939529419,-1.0,2021-01-21 23:35:55.278000+00:00,train
743,-0.9840864539146423,-1.0,2021-01-21 23:36:25.278000+00:00,train
744,-0.9845523238182068,-1.0,2021-01-21 23:36:55.278000+00:00,train
745,-0.9849638342857361,-1.0,2021-01-21 23:37:25.278000+00:00,train
746,-0.9853298664093018,-1.0,2021-01-21 23:37:55.278000+00:00,train
747,-0.9856542348861694,-1.0,2021-01-21 23:38:25.278000+00:00,train
748,-0.9859432578086853,-1.0,2021-01-21 23:38:55.278000+00:00,train
749,-0.9862019419670105,-1.0,2021-01-21 23:39:25.278000+00:00,train
750,-0.9864344000816345,-1.0,2021-01-21 23:39:55.278000+00:00,train
751,-0.98664391040802,-1.0,2021-01-21 23:40:25.278000+00:00,train
752,-0.9868342876434326,-1.0,2021-01-21 23:40:55.278000+00:00,train
753,-0.9870062470436096,-1.0,2021-01-21 23:41:25.278000+00:00,train
754,-0.9871622323989868,-1.0,2021-01-21 23:41:55.278000+00:00,train
755,-0.9873040318489075,-1.0,2021-01-21 23:42:25.278000+00:00,train
756,-0.9874329566955566,-1.0,2021-01-21 23:42:55.278000+00:00,train
757,-0.9875501990318298,-1.0,2021-01-21 23:43:25.278000+00:00,train
758,-0.9876573085784912,-1.0,2021-01-21 23:43:55.278000+00:00,train
759,-0.9877541065216064,-1.0,2021-01-21 23:44:25.278000+00:00,train
760,-0.9878414869308472,-1.0,2021-01-21 23:44:55.278000+00:00,train
761,-0.9879202246665955,-1.0,2021-01-21 23:45:25.278000+00:00,train
762,-0.9879907965660095,-1.0,2021-01-21 23:45:55.278000+00:00,train
763,-0.9880525469779968,-1.0,2021-01-21 23:46:25.278000+00:00,train
764,-0.9881079792976379,-1.0,2021-01-21 23:46:55.278000+00:00,train
765,-0.9881566166877747,-1.0,2021-01-21 23:47:25.278000+00:00,train
766,-0.9881986975669861,-1.0,2021-01-21 23:47:55.278000+00:00,train
767,-0.9882344603538513,-1.0,2021-01-21 23:48:25.278000+00:00,train
768,-0.9882641434669495,-1.0,2021-01-21 23:48:55.278000+00:00,train
769,-0.9882882237434387,-1.0,2021-01-21 23:49:25.278000+00:00,train
770,-0.9883065223693848,-1.0,2021-01-21 23:49:55.278000+00:00,train
771,-0.9883192777633667,-1.0,2021-01-21 23:50:25.278000+00:00,train
772,-0.9883268475532532,-1.0,2021-01-21 23:50:55.278000+00:00,train
773,-0.988329291343689,-1.0,2021-01-21 23:51:25.278000+00:00,train
774,-0.9883267879486084,-1.0,2021-01-21 23:51:55.278000+00:00,train
775,-0.9883196353912354,-1.0,2021-01-21 23:52:25.278000+00:00,train
776,-0.988307774066925,-1.0,2021-01-21 23:52:55.278000+00:00,train
777,-0.988291323184967,-1.0,2021-01-21 23:53:25.278000+00:00,train
778,-0.9882705211639404,-1.0,2021-01-21 23:53:55.278000+00:00,train
779,-0.9882454872131348,-1.0,2021-01-21 23:54:25.278000+00:00,train
780,-0.9882163405418396,-1.0,2021-01-21 23:54:55.278000+00:00,train
781,-0.9881833791732788,-1.0,2021-01-21 23:55:25.278000+00:00,train
782,-0.9881463646888733,-1.0,2021-01-21 23:55:55.278000+00:00,train
783,-0.9881055951118469,-1.0,2021-01-21 23:56:25.278000+00:00,train
784,-0.9880610108375549,-1.0,2021-01-21 23:56:55.278000+00:00,train
785,-0.9880127310752869,-1.0,2021-01-21 23:57:25.278000+00:00,train
786,-0.9879612326622009,-1.0,2021-01-21 23:57:55.278000+00:00,train
787,-0.9879052042961121,-1.0,2021-01-21 23:58:25.278000+00:00,train
788,-0.9878450036048889,-1.0,2021-01-21 23:58:55.278000+00:00,train
789,-0.9877803325653076,-1.0,2021-01-21 23:59:25.278000+00:00,train
790,-0.9877103567123413,-1.0,2021-01-21 23:59:55.278000+00:00,train
791,-0.9876333475112915,-1.0,2021-01-22 00:00:25.278000+00:00,train
792,-0.9875450730323792,-1.0,2021-01-22 00:00:55.278000+00:00,train
793,-0.9874371886253357,-1.0,2021-01-22 00:01:25.278000+00:00,train
794,-0.9872943162918091,-1.0,2021-01-22 00:01:55.278000+00:00,train
795,-0.9871028065681458,-1.0,2021-01-22 00:02:25.278000+00:00,train
796,-0.9868524074554443,-1.0,2021-01-22 00:02:55.278000+00:00,train
797,-0.9863345623016357,-1.0,2021-01-22 00:03:25.278000+00:00,train
798,-0.978108823299408,-1.0,2021-01-22 00:03:55.278000+00:00,train
799,-1.0,-1.0,2021-01-22 00:04:25.278000+00:00,train
800,-1.0,-1.0,2021-01-22 00:04:55.278000+00:00,train
801,-1.0,-1.0,2021-01-22 00:05:25.278000+00:00,train
802,-1.0,-1.0,2021-01-22 00:05:55.278000+00:00,train
803,-1.0,-1.0,2021-01-22 00:06:25.278000+00:00,train
804,-1.0,-1.0,2021-01-22 00:06:55.278000+00:00,train
805,-1.0,-1.0,2021-01-22 00:07:25.278000+00:00,train
806,-1.0,-1.0,2021-01-22 00:07:55.278000+00:00,train
807,-1.0,-1.0,2021-01-22 00:08:25.278000+00:00,train
808,-1.0,-1.0,2021-01-22 00:08:55.278000+00:00,train
809,-1.0,-1.0,2021-01-22 00:09:25.278000+00:00,train
810,-1.0,-1.0,2021-01-22 00:09:55.278000+00:00,train
811,-1.0,-1.0,2021-01-22 00:10:25.278000+00:00,train
812,-1.0,-1.0,2021-01-22 00:10:55.278000+00:00,train
813,-1.0,-1.0,2021-01-22 00:11:25.278000+00:00,train
814,-1.0,-1.0,2021-01-22 00:11:55.278000+00:00,train
815,-1.0,-1.0,2021-01-22 00:12:25.278000+00:00,train
816,-1.0,-1.0,2021-01-22 00:12:55.278000+00:00,train
817,-1.0,-1.0,2021-01-22 00:13:25.278000+00:00,train
818,-1.0,-1.0,2021-01-22 00:13:55.278000+00:00,train
819,-1.0,-1.0,2021-01-22 00:14:25.278000+00:00,train
820,-1.0,-1.0,2021-01-22 00:14:55.278000+00:00,train
821,-1.0,-1.0,2021-01-22 00:15:25.278000+00:00,train
822,-1.0,-1.0,2021-01-22 00:15:55.278000+00:00,train
823,-1.0,-1.0,2021-01-22 00:16:25.278000+00:00,train
824,-1.0,-1.0,2021-01-22 00:16:55.278000+00:00,train
825,-1.0,-1.0,2021-01-22 00:17:25.278000+00:00,train
826,-1.0,-1.0,2021-01-22 00:17:55.278000+00:00,train
827,-1.0,-1.0,2021-01-22 00:18:25.278000+00:00,train
828,-1.0,-1.0,2021-01-22 00:18:55.278000+00:00,train
829,-1.0,-1.0,2021-01-22 00:19:25.278000+00:00,train
830,-1.0,-1.0,2021-01-22 00:19:55.278000+00:00,train
831,-1.0,-1.0,2021-01-22 00:20:25.278000+00:00,train
832,-1.0,-1.0,2021-01-22 00:20:55.278000+00:00,train
833,-1.0,-1.0,2021-01-22 00:21:25.278000+00:00,train
834,-1.0,-1.0,2021-01-22 00:21:55.278000+00:00,train
835,-1.0,-1.0,2021-01-22 00:22:25.278000+00:00,train
836,-1.0,-1.0,2021-01-22 00:22:55.278000+00:00,train
837,-1.0,-1.0,2021-01-22 00:23:25.278000+00:00,train
838,-1.0,-1.0,2021-01-22 00:23:55.278000+00:00,train
839,-1.0,-1.0,2021-01-22 00:24:25.278000+00:00,train
840,-1.0,-1.0,2021-01-22 00:24:55.278000+00:00,train
841,-1.0,-1.0,2021-01-22 00:25:25.278000+00:00,train
842,-1.0,-1.0,2021-01-22 00:25:55.278000+00:00,train
843,-1.0,-1.0,2021-01-22 00:26:25.278000+00:00,train
844,-1.0,-1.0,2021-01-22 00:26:55.278000+00:00,train
845,-1.0,-1.0,2021-01-22 00:27:25.278000+00:00,train
846,-1.0,-1.0,2021-01-22 00:27:55.278000+00:00,train
847,-1.0,-1.0,2021-01-22 00:28:25.278000+00:00,train
848,-1.0,-1.0,2021-01-22 00:28:55.278000+00:00,train
849,-1.0,-1.0,2021-01-22 00:29:25.278000+00:00,train
850,-1.0,-1.0,2021-01-22 00:29:55.278000+00:00,train
851,-1.0,-1.0,2021-01-22 00:30:25.278000+00:00,train
852,-1.0,-1.0,2021-01-22 00:30:55.278000+00:00,train
853,-1.0,-1.0,2021-01-22 00:31:25.278000+00:00,train
854,-1.0,-1.0,2021-01-22 00:31:55.278000+00:00,train
855,-1.0,-1.0,2021-01-22 00:32:25.278000+00:00,train
856,-1.0,-1.0,2021-01-22 00:32:55.278000+00:00,train
857,-1.0,-1.0,2021-01-22 00:33:25.278000+00:00,train
858,-1.0,-1.0,2021-01-22 00:33:55.278000+00:00,train
859,-1.0,-1.0,2021-01-22 00:34:25.278000+00:00,train
860,-1.0,-1.0,2021-01-22 00:34:55.278000+00:00,train
861,-1.0,-1.0,2021-01-22 00:35:25.278000+00:00,train
862,-1.0,-1.0,2021-01-22 00:35:55.278000+00:00,train
863,-1.0,-1.0,2021-01-22 00:36:25.278000+00:00,train
864,-1.0,-1.0,2021-01-22 00:36:55.278000+00:00,train
865,-1.0,-1.0,2021-01-22 00:37:25.278000+00:00,train
866,-1.0,-1.0,2021-01-22 00:37:55.278000+00:00,train
867,-1.0,-1.0,2021-01-22 00:38:25.278000+00:00,train
868,-1.0,-1.0,2021-01-22 00:38:55.278000+00:00,train
869,-1.0,-1.0,2021-01-22 00:39:25.278000+00:00,train
870,-1.0,-1.0,2021-01-22 00:39:55.278000+00:00,train
871,-1.0,-1.0,2021-01-22 00:40:25.278000+00:00,train
872,-1.0,-1.0,2021-01-22 00:40:55.278000+00:00,train
873,-1.0,-1.0,2021-01-22 00:41:25.278000+00:00,train
874,-1.0,-1.0,2021-01-22 00:41:55.278000+00:00,train
875,-1.0,-1.0,2021-01-22 00:42:25.278000+00:00,train
876,-1.0,-1.0,2021-01-22 00:42:55.278000+00:00,train
877,-1.0,-1.0,2021-01-22 00:43:25.278000+00:00,train
878,-1.0,-1.0,2021-01-22 00:43:55.278000+00:00,train
879,-1.0,-1.0,2021-01-22 00:44:25.278000+00:00,train
880,-1.0,-1.0,2021-01-22 00:44:55.278000+00:00,train
881,-1.0,-1.0,2021-01-22 00:45:25.278000+00:00,train
882,-1.0,-1.0,2021-01-22 00:45:55.278000+00:00,train
883,-1.0,-1.0,2021-01-22 00:46:25.278000+00:00,train
884,-1.0,-1.0,2021-01-22 00:46:55.278000+00:00,train
885,-1.0,-1.0,2021-01-22 00:47:25.278000+00:00,train
886,-1.0,-1.0,2021-01-22 00:47:55.278000+00:00,train
887,-1.0,-1.0,2021-01-22 00:48:25.278000+00:00,train
888,-1.0,-1.0,2021-01-22 00:48:55.278000+00:00,train
889,-1.0,-1.0,2021-01-22 00:49:25.278000+00:00,train
890,-1.0,-1.0,2021-01-22 00:49:55.278000+00:00,train
891,-1.0,-1.0,2021-01-22 00:50:25.278000+00:00,train
892,-1.0,-1.0,2021-01-22 00:50:55.278000+00:00,train
893,-1.0,-1.0,2021-01-22 00:51:25.278000+00:00,train
894,-1.0,-1.0,2021-01-22 00:51:55.278000+00:00,train
895,-1.0,-1.0,2021-01-22 00:52:25.278000+00:00,train
896,-1.0,-1.0,2021-01-22 00:52:55.278000+00:00,train
897,-1.0,-1.0,2021-01-22 00:53:25.278000+00:00,train
898,-1.0,-1.0,2021-01-22 00:53:55.278000+00:00,train
899,-1.0,-1.0,2021-01-22 00:54:25.278000+00:00,train
900,-1.0,-1.0,2021-01-22 00:54:55.278000+00:00,train
901,-1.0,-1.0,2021-01-22 00:55:25.278000+00:00,train
902,-1.0,-1.0,2021-01-22 00:55:55.278000+00:00,train
903,-1.0,-1.0,2021-01-22 00:56:25.278000+00:00,train
904,-1.0,-1.0,2021-01-22 00:56:55.278000+00:00,train
905,-1.0,-1.0,2021-01-22 00:57:25.278000+00:00,train
906,-1.0,-1.0,2021-01-22 00:57:55.278000+00:00,train
907,-1.0,-1.0,2021-01-22 00:58:25.278000+00:00,train
908,-1.0,-1.0,2021-01-22 00:58:55.278000+00:00,train
909,-1.0,-1.0,2021-01-22 00:59:25.278000+00:00,train
910,-1.0,-1.0,2021-01-22 00:59:55.278000+00:00,train
911,-1.0,-1.0,2021-01-22 01:00:25.278000+00:00,train
912,-1.0,-1.0,2021-01-22 01:00:55.278000+00:00,train
913,-1.0,-1.0,2021-01-22 01:01:25.278000+00:00,train
914,-1.0,-1.0,2021-01-22 01:01:55.278000+00:00,train
915,-1.0,-1.0,2021-01-22 01:02:25.278000+00:00,train
916,-1.0,-1.0,2021-01-22 01:02:55.278000+00:00,train
917,-1.0,-1.0,2021-01-22 01:03:25.278000+00:00,train
918,-1.0,-1.0,2021-01-22 01:03:55.278000+00:00,train
919,-1.0,-1.0,2021-01-22 01:04:25.278000+00:00,train
920,-1.0,-1.0,2021-01-22 01:04:55.278000+00:00,train
921,-1.0,-1.0,2021-01-22 01:05:25.278000+00:00,train
922,-1.0,-1.0,2021-01-22 01:05:55.278000+00:00,train
923,-1.0,-1.0,2021-01-22 01:06:25.278000+00:00,train
924,-1.0,-1.0,2021-01-22 01:06:55.278000+00:00,train
925,-1.0,-1.0,2021-01-22 01:07:25.278000+00:00,train
926,-1.0,-1.0,2021-01-22 01:07:55.278000+00:00,train
927,-1.0,-1.0,2021-01-22 01:08:25.278000+00:00,train
928,-1.0,-1.0,2021-01-22 01:08:55.278000+00:00,train
929,-1.0,-1.0,2021-01-22 01:09:25.278000+00:00,train
930,-1.0,-1.0,2021-01-22 01:09:55.278000+00:00,train
931,-1.0,-1.0,2021-01-22 01:10:25.278000+00:00,train
932,-1.0,-1.0,2021-01-22 01:10:55.278000+00:00,train
933,-1.0,-1.0,2021-01-22 01:11:25.278000+00:00,train
934,-1.0,-1.0,2021-01-22 01:11:55.278000+00:00,train
935,-1.0,-1.0,2021-01-22 01:12:25.278000+00:00,train
936,-1.0,-1.0,2021-01-22 01:12:55.278000+00:00,train
937,-1.0,-1.0,2021-01-22 01:13:25.278000+00:00,train
938,-1.0,-1.0,2021-01-22 01:13:55.278000+00:00,train
939,-1.0,-1.0,2021-01-22 01:14:25.278000+00:00,train
940,-1.0,-1.0,2021-01-22 01:14:55.278000+00:00,train
941,-1.0,-1.0,2021-01-22 01:15:25.278000+00:00,train
942,-1.0,-1.0,2021-01-22 01:15:55.278000+00:00,train
943,-1.0,-1.0,2021-01-22 01:16:25.278000+00:00,train
944,-1.0,-1.0,2021-01-22 01:16:55.278000+00:00,train
945,-1.0,-1.0,2021-01-22 01:17:25.278000+00:00,train
946,-1.0,-1.0,2021-01-22 01:17:55.278000+00:00,train
947,-1.0,-1.0,2021-01-22 01:18:25.278000+00:00,train
948,-1.0,-1.0,2021-01-22 01:18:55.278000+00:00,train
949,-1.0,-1.0,2021-01-22 01:19:25.278000+00:00,train
950,-1.0,-1.0,2021-01-22 01:19:55.278000+00:00,train
951,-1.0,-1.0,2021-01-22 01:20:25.278000+00:00,train
952,-1.0,-1.0,2021-01-22 01:20:55.278000+00:00,train
953,-1.0,-1.0,2021-01-22 01:21:25.278000+00:00,train
954,-1.0,-1.0,2021-01-22 01:21:55.278000+00:00,train
955,-1.0,-1.0,2021-01-22 01:22:25.278000+00:00,train
956,-1.0,-1.0,2021-01-22 01:22:55.278000+00:00,train
957,-1.0,-1.0,2021-01-22 01:23:25.278000+00:00,train
958,-1.0,-1.0,2021-01-22 01:23:55.278000+00:00,train
959,-1.0,-1.0,2021-01-22 01:24:25.278000+00:00,train
960,-1.0,-1.0,2021-01-22 01:24:55.278000+00:00,train
961,-1.0,-1.0,2021-01-22 01:25:25.278000+00:00,train
962,-1.0,-1.0,2021-01-22 01:25:55.278000+00:00,train
963,-1.0,-1.0,2021-01-22 01:26:25.278000+00:00,train
964,-1.0,-1.0,2021-01-22 01:26:55.278000+00:00,train
965,-1.0,-1.0,2021-01-22 01:27:25.278000+00:00,train
966,-1.0,-1.0,2021-01-22 01:27:55.278000+00:00,train
967,-1.0,-1.0,2021-01-22 01:28:25.278000+00:00,train
968,-1.0,-1.0,2021-01-22 01:28:55.278000+00:00,train
969,-1.0,-1.0,2021-01-22 01:29:25.278000+00:00,train
970,-1.0,-1.0,2021-01-22 01:29:55.278000+00:00,train
971,-1.0,-1.0,2021-01-22 01:30:25.278000+00:00,train
972,-1.0,-1.0,2021-01-22 01:30:55.278000+00:00,train
973,-1.0,-1.0,2021-01-22 01:31:25.278000+00:00,train
974,-1.0,-1.0,2021-01-22 01:31:55.278000+00:00,train
975,-1.0,-1.0,2021-01-22 01:32:25.278000+00:00,train
976,-1.0,0.0,2021-01-22 01:32:55.278000+00:00,train
977,-1.0,0.0,2021-01-22 01:33:25.278000+00:00,train
978,-1.0,0.0,2021-01-22 01:33:55.278000+00:00,train
979,-1.0,0.0,2021-01-22 01:34:25.278000+00:00,train
980,-1.0,0.0,2021-01-22 01:34:55.278000+00:00,train
981,-1.0,0.0,2021-01-22 01:35:25.278000+00:00,train
982,-1.0,0.0,2021-01-22 01:35:55.278000+00:00,train
983,-0.8507656455039978,0.0,2021-01-22 01:36:25.278000+00:00,train
984,-0.7848554253578186,0.0,2021-01-22 01:36:55.278000+00:00,train
985,-0.7328831553459167,0.0,2021-01-22 01:37:25.278000+00:00,train
986,-0.6882179379463196,-1.0,2021-01-22 01:37:55.278000+00:00,train
987,-0.6482813954353333,0.0,2021-01-22 01:38:25.278000+00:00,train
988,-0.6117467284202576,0.0,2021-01-22 01:38:55.278000+00:00,train
989,-0.5778229832649231,0.0,2021-01-22 01:39:25.278000+00:00,train
990,-0.5459933876991272,0.0,2021-01-22 01:39:55.278000+00:00,train
991,-0.5158975720405579,0.0,2021-01-22 01:40:25.278000+00:00,train
992,-0.4872730076313019,0.0,2021-01-22 01:40:55.278000+00:00,train
993,-0.4871566891670227,0.0,2021-01-22 01:41:25.278000+00:00,train
994,-0.4597926735877991,0.0,2021-01-22 01:41:55.278000+00:00,train
995,-0.4335510730743408,0.0,2021-01-22 01:42:25.278000+00:00,train
996,-0.4083023965358734,0.0,2021-01-22 01:42:55.278000+00:00,train
997,-0.3839453160762787,0.0,2021-01-22 01:43:25.278000+00:00,train
998,-0.3603958487510681,0.0,2021-01-22 01:43:55.278000+00:00,train
999,-0.3375871479511261,0.0,2021-01-22 01:44:25.278000+00:00,train
1000,-0.3154890835285187,0.0,2021-01-22 01:44:55.278000+00:00,train
1001,-0.2939821779727936,0.0,2021-01-22 01:45:25.278000+00:00,train
1002,-0.2730633020401001,0.0,2021-01-22 01:45:55.278000+00:00,train
1003,-0.252695769071579,0.0,2021-01-22 01:46:25.278000+00:00,train
1004,-0.23284374177455902,0.0,2021-01-22 01:46:55.278000+00:00,train
1005,-0.2134796679019928,0.0,2021-01-22 01:47:25.278000+00:00,train
1006,-0.19457946717739105,0.0,2021-01-22 01:47:55.278000+00:00,train
1007,-0.17611856758594513,0.0,2021-01-22 01:48:25.278000+00:00,train
1008,-0.15807785093784332,0.0,2021-01-22 01:48:55.278000+00:00,train
1009,-0.14043524861335754,0.0,2021-01-22 01:49:25.278000+00:00,train
1010,-0.12317638099193573,0.0,2021-01-22 01:49:55.278000+00:00,train
1011,-0.10628731548786163,0.0,2021-01-22 01:50:25.278000+00:00,train
1012,-0.08975333720445633,0.0,2021-01-22 01:50:55.278000+00:00,train
1013,-0.07356137037277222,0.0,2021-01-22 01:51:25.278000+00:00,train
1014,-0.0577019602060318,0.0,2021-01-22 01:51:55.278000+00:00,train
1015,-0.042160987854003906,0.0,2021-01-22 01:52:25.278000+00:00,train
1016,-0.02693134918808937,0.0,2021-01-22 01:52:55.278000+00:00,train
1017,-0.01200551725924015,0.0,2021-01-22 01:53:25.278000+00:00,train
1018,0.002625743392854929,0.0,2021-01-22 01:53:55.278000+00:00,train
1019,0.016970764845609665,0.0,2021-01-22 01:54:25.278000+00:00,train
1020,0.031040867790579796,0.0,2021-01-22 01:54:55.278000+00:00,train
1021,0.04482840374112129,0.0,2021-01-22 01:55:25.278000+00:00,train
1022,0.05834593251347542,0.0,2021-01-22 01:55:55.278000+00:00,train
1023,0.0716005191206932,0.0,2021-01-22 01:56:25.278000+00:00,train
1024,0.08459708094596863,0.0,2021-01-22 01:56:55.278000+00:00,train
1025,0.09733989834785461,0.0,2021-01-22 01:57:25.278000+00:00,train
1026,0.10983163118362427,0.0,2021-01-22 01:57:55.278000+00:00,train
1027,0.12208782136440277,0.0,2021-01-22 01:58:25.278000+00:00,train
1028,0.1341000199317932,0.0,2021-01-22 01:58:55.278000+00:00,train
1029,0.1458732932806015,0.0,2021-01-22 01:59:25.278000+00:00,train
1030,0.15740986168384552,0.0,2021-01-22 01:59:55.278000+00:00,train
1031,0.16871145367622375,0.0,2021-01-22 02:00:25.278000+00:00,train
1032,0.17978399991989136,0.0,2021-01-22 02:00:55.278000+00:00,train
1033,0.19062553346157074,0.0,2021-01-22 02:01:25.278000+00:00,train
1034,0.20123979449272156,0.0,2021-01-22 02:01:55.278000+00:00,train
1035,0.21162843704223633,0.0,2021-01-22 02:02:25.278000+00:00,train
1036,0.22179289162158966,0.0,2021-01-22 02:02:55.278000+00:00,train
1037,0.23173293471336365,0.0,2021-01-22 02:03:25.278000+00:00,train
1038,0.2414534091949463,0.0,2021-01-22 02:03:55.278000+00:00,train
1039,0.25095126032829285,0.0,2021-01-22 02:04:25.278000+00:00,train
1040,0.2602289021015167,0.0,2021-01-22 02:04:55.278000+00:00,train
1041,0.2692869305610657,0.0,2021-01-22 02:05:25.278000+00:00,train
1042,0.27812519669532776,0.0,2021-01-22 02:05:55.278000+00:00,train
1043,0.2867429852485657,0.0,2021-01-22 02:06:25.278000+00:00,train
1044,0.29514139890670776,0.0,2021-01-22 02:06:55.278000+00:00,train
1045,0.3033202588558197,0.0,2021-01-22 02:07:25.278000+00:00,train
1046,0.3112788796424866,0.0,2021-01-22 02:07:55.278000+00:00,train
1047,-0.10772765427827835,0.0,2021-01-22 02:08:25.278000+00:00,train
1048,-0.0997016429901123,0.0,2021-01-22 02:08:55.278000+00:00,train
1049,-0.09177754819393158,0.0,2021-01-22 02:09:25.278000+00:00,train
1050,-0.08395575731992722,0.0,2021-01-22 02:09:55.278000+00:00,train
1051,-0.07623742520809174,0.0,2021-01-22 02:10:25.278000+00:00,train
1052,-0.06862320750951767,0.0,2021-01-22 02:10:55.278000+00:00,train
1053,-0.061113957315683365,0.0,2021-01-22 02:11:25.278000+00:00,train
1054,-0.053710632026195526,0.0,2021-01-22 02:11:55.278000+00:00,train
1055,-0.04641411453485489,0.0,2021-01-22 02:12:25.278000+00:00,train
1056,-0.03922585770487785,0.0,2021-01-22 02:12:55.278000+00:00,train
1057,-0.032146941870450974,0.0,2021-01-22 02:13:25.278000+00:00,train
1058,-0.02517879009246826,0.0,2021-01-22 02:13:55.278000+00:00,train
1059,-0.01830064319074154,0.0,2021-01-22 02:14:25.278000+00:00,train
1060,-0.011558594182133675,0.0,2021-01-22 02:14:55.278000+00:00,train
1061,-0.004934108350425959,0.0,2021-01-22 02:15:25.278000+00:00,train
1062,0.00157453422434628,0.0,2021-01-22 02:15:55.278000+00:00,train
1063,0.007963379845023155,0.0,2021-01-22 02:16:25.278000+00:00,train
1064,0.014230194501578808,0.0,2021-01-22 02:16:55.278000+00:00,train
1065,0.02037225477397442,0.0,2021-01-22 02:17:25.278000+00:00,train
1066,0.026387017220258713,0.0,2021-01-22 02:17:55.278000+00:00,train
1067,0.03227173164486885,0.0,2021-01-22 02:18:25.278000+00:00,train
1068,0.03802323341369629,0.0,2021-01-22 02:18:55.278000+00:00,train
1069,0.04363790526986122,0.0,2021-01-22 02:19:25.278000+00:00,train
1070,0.049112364649772644,0.0,2021-01-22 02:19:55.278000+00:00,train
1071,0.054442599415779114,0.0,2021-01-22 02:20:25.278000+00:00,train
1072,0.05962420254945755,0.0,2021-01-22 02:20:55.278000+00:00,train
1073,0.06465256214141846,0.0,2021-01-22 02:21:25.278000+00:00,train
1074,0.06952255964279175,0.0,2021-01-22 02:21:55.278000+00:00,train
1075,0.07422850281000137,0.0,2021-01-22 02:22:25.278000+00:00,train
1076,0.07876446098089218,0.0,2021-01-22 02:22:55.278000+00:00,train
1077,0.08312361687421799,0.0,2021-01-22 02:23:25.278000+00:00,train
1078,0.08729879558086395,0.0,2021-01-22 02:23:55.278000+00:00,train
1079,0.09128165245056152,0.0,2021-01-22 02:24:25.278000+00:00,train
1080,0.09506335854530334,0.0,2021-01-22 02:24:55.278000+00:00,train
1081,0.09863394498825073,0.0,2021-01-22 02:25:25.278000+00:00,train
1082,0.10198213905096054,0.0,2021-01-22 02:25:55.278000+00:00,val
1083,0.10509558767080307,0.0,2021-01-22 02:26:25.278000+00:00,val
1084,0.1079602763056755,0.0,2021-01-22 02:26:55.278000+00:00,val
1085,0.1105600893497467,0.0,2021-01-22 02:27:25.278000+00:00,val
1086,0.1128769963979721,0.0,2021-01-22 02:27:55.278000+00:00,val
1087,0.11489013582468033,0.0,2021-01-22 02:28:25.278000+00:00,val
1088,0.11657541990280151,0.0,2021-01-22 02:28:55.278000+00:00,val
1089,0.11790454387664795,0.0,2021-01-22 02:29:25.278000+00:00,val
1090,0.1188444197177887,0.0,2021-01-22 02:29:55.278000+00:00,val
1091,0.11935551464557648,0.0,2021-01-22 02:30:25.278000+00:00,val
1092,0.11938965320587158,0.0,2021-01-22 02:30:55.278000+00:00,val
1093,0.1188880205154419,0.0,2021-01-22 02:31:25.278000+00:00,val
1094,0.1177765503525734,0.0,2021-01-22 02:31:55.278000+00:00,val
1095,0.11596047878265381,0.0,2021-01-22 02:32:25.278000+00:00,val
1096,0.11331453919410706,0.0,2021-01-22 02:32:55.278000+00:00,val
1097,0.10966738313436508,0.0,2021-01-22 02:33:25.278000+00:00,val
1098,0.1047731339931488,0.0,2021-01-22 02:33:55.278000+00:00,val
1099,0.09825614839792252,0.0,2021-01-22 02:34:25.278000+00:00,val
1100,0.08948614448308945,0.0,2021-01-22 02:34:55.278000+00:00,val
1101,0.07723957300186157,0.0,2021-01-22 02:35:25.278000+00:00,val
1102,0.05837114155292511,0.0,2021-01-22 02:35:55.278000+00:00,val
1103,0.05839230492711067,0.0,2021-01-22 02:36:25.278000+00:00,val
1104,0.05841336399316788,0.0,2021-01-22 02:36:55.278000+00:00,val
1105,0.058434370905160904,0.0,2021-01-22 02:37:25.278000+00:00,val
1106,0.058455269783735275,0.0,2021-01-22 02:37:55.278000+00:00,val
1107,0.058476101607084274,0.0,2021-01-22 02:38:25.278000+00:00,val
1108,0.05849685147404671,0.0,2021-01-22 02:38:55.278000+00:00,val
1109,0.05851752310991287,0.0,2021-01-22 02:39:25.278000+00:00,val
1110,0.058538105338811874,0.0,2021-01-22 02:39:55.278000+00:00,val
1111,0.05855858698487282,0.0,2021-01-22 02:40:25.278000+00:00,val
1112,0.05857900157570839,0.0,2021-01-22 02:40:55.278000+00:00,val
1113,0.0,0.0,2021-01-22 02:41:25.278000+00:00,val
1114,0.0,0.0,2021-01-22 02:41:55.278000+00:00,val
1115,0.0,0.0,2021-01-22 02:42:25.278000+00:00,val
1116,0.0,0.0,2021-01-22 02:42:55.278000+00:00,val
1117,0.0,0.0,2021-01-22 02:43:25.278000+00:00,val
1118,0.0,0.0,2021-01-22 02:43:55.278000+00:00,val
1119,0.0,0.0,2021-01-22 02:44:25.278000+00:00,val
1120,0.0,0.0,2021-01-22 02:44:55.278000+00:00,val
1121,0.0,0.0,2021-01-22 02:45:25.278000+00:00,val
1122,0.0,0.0,2021-01-22 02:45:55.278000+00:00,val
1123,0.0,0.0,2021-01-22 02:46:25.278000+00:00,val
1124,0.0,0.0,2021-01-22 02:46:55.278000+00:00,val
1125,0.0,0.0,2021-01-22 02:47:25.278000+00:00,val
1126,0.0,0.0,2021-01-22 02:47:55.278000+00:00,val
1127,0.0,0.0,2021-01-22 02:48:25.278000+00:00,val
1128,0.0,0.0,2021-01-22 02:48:55.278000+00:00,val
1129,0.0,0.0,2021-01-22 02:49:25.278000+00:00,val
1130,0.0,0.0,2021-01-22 02:49:55.278000+00:00,val
1131,0.0,0.0,2021-01-22 02:50:25.278000+00:00,val
1132,0.0,0.0,2021-01-22 02:50:55.278000+00:00,val
1133,0.0,0.0,2021-01-22 02:51:25.278000+00:00,val
1134,0.0,0.0,2021-01-22 02:51:55.278000+00:00,val
1135,0.0,0.0,2021-01-22 02:52:25.278000+00:00,val
1136,0.0,0.0,2021-01-22 02:52:55.278000+00:00,val
1137,0.0,0.0,2021-01-22 02:53:25.278000+00:00,val
1138,0.0,0.0,2021-01-22 02:53:55.278000+00:00,val
1139,0.0,0.0,2021-01-22 02:54:25.278000+00:00,val
1140,0.0,0.0,2021-01-22 02:54:55.278000+00:00,val
1141,0.0,0.0,2021-01-22 02:55:25.278000+00:00,val
1142,0.0,0.0,2021-01-22 02:55:55.278000+00:00,val
1143,0.0,0.0,2021-01-22 02:56:25.278000+00:00,val
1144,0.0,0.0,2021-01-22 02:56:55.278000+00:00,val
1145,0.0,0.0,2021-01-22 02:57:25.278000+00:00,val
1146,0.0,0.0,2021-01-22 02:57:55.278000+00:00,val
1147,0.0,0.0,2021-01-22 02:58:25.278000+00:00,val
1148,0.0,0.0,2021-01-22 02:58:55.278000+00:00,val
1149,0.0,0.0,2021-01-22 02:59:25.278000+00:00,val
1150,0.0,0.0,2021-01-22 02:59:55.278000+00:00,val
1151,0.0,0.0,2021-01-22 03:00:25.278000+00:00,val
1152,0.0,0.0,2021-01-22 03:00:55.278000+00:00,val
1153,0.0,0.0,2021-01-22 03:01:25.278000+00:00,val
1154,0.0,0.0,2021-01-22 03:01:55.278000+00:00,val
1155,0.0,0.0,2021-01-22 03:02:25.278000+00:00,val
1156,0.0,0.0,2021-01-22 03:02:55.278000+00:00,val
1157,0.0,0.0,2021-01-22 03:03:25.278000+00:00,val
1158,0.0,0.0,2021-01-22 03:03:55.278000+00:00,val
1159,0.0,0.0,2021-01-22 03:04:25.278000+00:00,val
1160,0.0,0.0,2021-01-22 03:04:55.278000+00:00,val
1161,0.0,0.0,2021-01-22 03:05:25.278000+00:00,val
1162,0.0,0.0,2021-01-22 03:05:55.278000+00:00,val
1163,0.0,0.0,2021-01-22 03:06:25.278000+00:00,val
1164,0.0,0.0,2021-01-22 03:06:55.278000+00:00,val
1165,0.0,0.0,2021-01-22 03:07:25.278000+00:00,val
1166,0.0,0.0,2021-01-22 03:07:55.278000+00:00,val
1167,0.0,0.0,2021-01-22 03:08:25.278000+00:00,val
1168,0.0,0.0,2021-01-22 03:08:55.278000+00:00,val
1169,0.0,0.0,2021-01-22 03:09:25.278000+00:00,val
1170,0.0,0.0,2021-01-22 03:09:55.278000+00:00,val
1171,0.0,0.0,2021-01-22 03:10:25.278000+00:00,val
1172,0.0,0.0,2021-01-22 03:10:55.278000+00:00,val
1173,0.0,0.0,2021-01-22 03:11:25.278000+00:00,val
1174,0.0,0.0,2021-01-22 03:11:55.278000+00:00,val
1175,0.0,0.0,2021-01-22 03:12:25.278000+00:00,val
1176,0.0,0.0,2021-01-22 03:12:55.278000+00:00,val
1177,0.0,0.0,2021-01-22 03:13:25.278000+00:00,val
1178,0.0,0.0,2021-01-22 03:13:55.278000+00:00,val
1179,0.0,0.0,2021-01-22 03:14:25.278000+00:00,val
1180,0.0,0.0,2021-01-22 03:14:55.278000+00:00,val
1181,0.0,0.0,2021-01-22 03:15:25.278000+00:00,val
1182,0.0,0.0,2021-01-22 03:15:55.278000+00:00,val
1183,0.0,0.0,2021-01-22 03:16:25.278000+00:00,val
1184,0.0,0.0,2021-01-22 03:16:55.278000+00:00,val
1185,0.0,0.0,2021-01-22 03:17:25.278000+00:00,val
1186,0.0,0.0,2021-01-22 03:17:55.278000+00:00,val
1187,0.0,0.0,2021-01-22 03:18:25.278000+00:00,val
1188,0.0,0.0,2021-01-22 03:18:55.278000+00:00,val
1189,0.0,0.0,2021-01-22 03:19:25.278000+00:00,val
1190,0.0,0.0,2021-01-22 03:19:55.278000+00:00,val
1191,0.0,0.0,2021-01-22 03:20:25.278000+00:00,val
1192,0.0,0.0,2021-01-22 03:20:55.278000+00:00,val
1193,0.0,0.0,2021-01-22 03:21:25.278000+00:00,val
1194,0.0,0.0,2021-01-22 03:21:55.278000+00:00,val
1195,0.0,0.0,2021-01-22 03:22:25.278000+00:00,val
1196,0.0,0.0,2021-01-22 03:22:55.278000+00:00,val
1197,0.0,0.0,2021-01-22 03:23:25.278000+00:00,val
1198,0.0,0.0,2021-01-22 03:23:55.278000+00:00,val
1199,0.0,0.0,2021-01-22 03:24:25.278000+00:00,val
1200,0.0,0.0,2021-01-22 03:24:55.278000+00:00,val
1201,0.0,0.0,2021-01-22 03:25:25.278000+00:00,val
1202,0.0,0.0,2021-01-22 03:25:55.278000+00:00,val
1203,0.0,0.0,2021-01-22 03:26:25.278000+00:00,val
1204,0.0,0.0,2021-01-22 03:26:55.278000+00:00,val
1205,0.0,0.0,2021-01-22 03:27:25.278000+00:00,val
1206,0.0,0.0,2021-01-22 03:27:55.278000+00:00,val
1207,0.0,0.0,2021-01-22 03:28:25.278000+00:00,val
1208,0.0,0.0,2021-01-22 03:28:55.278000+00:00,val
1209,0.0,0.0,2021-01-22 03:29:25.278000+00:00,val
1210,0.0,0.0,2021-01-22 03:29:55.278000+00:00,val
1211,0.0,0.0,2021-01-22 03:30:25.278000+00:00,val
1212,0.0,0.0,2021-01-22 03:30:55.278000+00:00,val
1213,0.0,0.0,2021-01-22 03:31:25.278000+00:00,val
1214,0.0,0.0,2021-01-22 03:31:55.278000+00:00,val
1215,0.0,0.0,2021-01-22 03:32:25.278000+00:00,val
1216,0.0,0.0,2021-01-22 03:32:55.278000+00:00,val
1217,0.0,0.0,2021-01-22 03:33:25.278000+00:00,val
1218,0.0,0.0,2021-01-22 03:33:55.278000+00:00,val
1219,0.0,0.0,2021-01-22 03:34:25.278000+00:00,val
1220,0.0,0.0,2021-01-22 03:34:55.278000+00:00,val
1221,0.0,0.0,2021-01-22 03:35:25.278000+00:00,val
1222,0.0,0.0,2021-01-22 03:35:55.278000+00:00,val
1223,0.0,0.0,2021-01-22 03:36:25.278000+00:00,val
1224,0.0,0.0,2021-01-22 03:36:55.278000+00:00,val
1225,0.0,0.0,2021-01-22 03:37:25.278000+00:00,val
1226,0.0,0.0,2021-01-22 03:37:55.278000+00:00,val
1227,0.0,0.0,2021-01-22 03:38:25.278000+00:00,val
1228,0.0,0.0,2021-01-22 03:38:55.278000+00:00,val
1229,0.0,0.0,2021-01-22 03:39:25.278000+00:00,val
1230,0.0,0.0,2021-01-22 03:39:55.278000+00:00,val
1231,0.0,0.0,2021-01-22 03:40:25.278000+00:00,val
1232,0.0,0.0,2021-01-22 03:40:55.278000+00:00,val
1233,0.0,0.0,2021-01-22 03:41:25.278000+00:00,val
1234,0.0,0.0,2021-01-22 03:41:55.278000+00:00,val
1235,0.0,0.0,2021-01-22 03:42:25.278000+00:00,val
1236,0.0,0.0,2021-01-22 03:42:55.278000+00:00,val
1237,0.0,0.0,2021-01-22 03:43:25.278000+00:00,val
1238,0.0,0.0,2021-01-22 03:43:55.278000+00:00,val
1239,0.0,0.0,2021-01-22 03:44:25.278000+00:00,val
1240,0.0,0.0,2021-01-22 03:44:55.278000+00:00,val
1241,0.0,0.0,2021-01-22 03:45:25.278000+00:00,val
1242,0.0,0.0,2021-01-22 03:45:55.278000+00:00,val
1243,0.0,0.0,2021-01-22 03:46:25.278000+00:00,val
1244,0.0,0.0,2021-01-22 03:46:55.278000+00:00,val
1245,0.0,0.0,2021-01-22 03:47:25.278000+00:00,val
1246,0.0,0.0,2021-01-22 03:47:55.278000+00:00,val
1247,0.0,0.0,2021-01-22 03:48:25.278000+00:00,val
1248,0.0,0.0,2021-01-22 03:48:55.278000+00:00,val
1249,0.0,0.0,2021-01-22 03:49:25.278000+00:00,val
1250,0.0,0.0,2021-01-22 03:49:55.278000+00:00,val
1251,0.0,0.0,2021-01-22 03:50:25.278000+00:00,val
1252,0.0,0.0,2021-01-22 03:50:55.278000+00:00,val
1253,0.0,0.0,2021-01-22 03:51:25.278000+00:00,val
1254,0.0,0.0,2021-01-22 03:51:55.278000+00:00,val
1255,0.0,0.0,2021-01-22 03:52:25.278000+00:00,val
1256,0.0,0.0,2021-01-22 03:52:55.278000+00:00,val
1257,0.0,0.0,2021-01-22 03:53:25.278000+00:00,val
1258,0.0,0.0,2021-01-22 03:53:55.278000+00:00,val
1259,0.0,0.0,2021-01-22 03:54:25.278000+00:00,val
1260,0.0,0.0,2021-01-22 03:54:55.278000+00:00,val
1261,0.0,0.0,2021-01-22 03:55:25.278000+00:00,val
1262,0.0,0.0,2021-01-22 03:55:55.278000+00:00,val
1263,0.0,0.0,2021-01-22 03:56:25.278000+00:00,val
1264,0.0,0.0,2021-01-22 03:56:55.278000+00:00,val
1265,0.0,0.0,2021-01-22 03:57:25.278000+00:00,val
1266,0.0,0.0,2021-01-22 03:57:55.278000+00:00,val
1267,0.0,0.0,2021-01-22 03:58:25.278000+00:00,val
1268,0.0,0.0,2021-01-22 03:58:55.278000+00:00,val
1269,0.0,0.0,2021-01-22 03:59:25.278000+00:00,val
1270,0.0,0.0,2021-01-22 03:59:55.278000+00:00,val
1271,0.0,0.0,2021-01-22 04:00:25.278000+00:00,val
1272,0.0,0.0,2021-01-22 04:00:55.278000+00:00,val
1273,0.0,0.0,2021-01-22 04:01:25.278000+00:00,val
1274,0.0,0.0,2021-01-22 04:01:55.278000+00:00,val
1275,0.0,0.0,2021-01-22 04:02:25.278000+00:00,val
1276,0.0,0.0,2021-01-22 04:02:55.278000+00:00,val
1277,0.0,0.0,2021-01-22 04:03:25.278000+00:00,val
1278,0.0,0.0,2021-01-22 04:03:55.278000+00:00,val
1279,0.0,0.0,2021-01-22 04:04:25.278000+00:00,val
1280,0.0,0.0,2021-01-22 04:04:55.278000+00:00,val
1281,0.0,0.0,2021-01-22 04:05:25.278000+00:00,val
1282,0.0,0.0,2021-01-22 04:05:55.278000+00:00,val
1283,0.0,0.0,2021-01-22 04:06:25.278000+00:00,val
1284,0.0,0.0,2021-01-22 04:06:55.278000+00:00,val
1285,0.0,0.0,2021-01-22 04:07:25.278000+00:00,val
1286,0.0,0.0,2021-01-22 04:07:55.278000+00:00,val
1287,0.0,0.0,2021-01-22 04:08:25.278000+00:00,val
1288,0.0,0.0,2021-01-22 04:08:55.278000+00:00,val
1289,0.0,0.0,2021-01-22 04:09:25.278000+00:00,val
1290,0.0,0.0,2021-01-22 04:09:55.278000+00:00,val
1291,0.0,0.0,2021-01-22 04:10:25.278000+00:00,val
1292,0.0,0.0,2021-01-22 04:10:55.278000+00:00,val
1293,0.0,0.0,2021-01-22 04:11:25.278000+00:00,val
1294,0.0,0.0,2021-01-22 04:11:55.278000+00:00,val
1295,0.0,0.0,2021-01-22 04:12:25.278000+00:00,val
1296,0.0,0.0,2021-01-22 04:12:55.278000+00:00,val
1297,0.0,0.0,2021-01-22 04:13:25.278000+00:00,val
1298,0.0,0.0,2021-01-22 04:13:55.278000+00:00,val
1299,0.0,0.0,2021-01-22 04:14:25.278000+00:00,val
1300,0.0,0.0,2021-01-22 04:14:55.278000+00:00,val
1301,0.0,0.0,2021-01-22 04:15:25.278000+00:00,val
1302,0.0,0.0,2021-01-22 04:15:55.278000+00:00,val
1303,0.0,0.0,2021-01-22 04:16:25.278000+00:00,val
1304,0.0,0.0,2021-01-22 04:16:55.278000+00:00,val
1305,0.0,0.0,2021-01-22 04:17:25.278000+00:00,val
1306,0.0,0.0,2021-01-22 04:17:55.278000+00:00,val
1307,0.0,0.0,2021-01-22 04:18:25.278000+00:00,val
1308,0.0,0.0,2021-01-22 04:18:55.278000+00:00,val
1309,0.0,0.0,2021-01-22 04:19:25.278000+00:00,val
1310,0.0,0.0,2021-01-22 04:19:55.278000+00:00,val
1311,0.0,0.0,2021-01-22 04:20:25.278000+00:00,val
1312,0.0,0.0,2021-01-22 04:20:55.278000+00:00,val
1313,0.0,0.0,2021-01-22 04:21:25.278000+00:00,val
1314,0.0,0.0,2021-01-22 04:21:55.278000+00:00,val
1315,0.0,0.0,2021-01-22 04:22:25.278000+00:00,val
1316,0.0,0.0,2021-01-22 04:22:55.278000+00:00,val
1317,0.0,0.0,2021-01-22 04:23:25.278000+00:00,val
1318,0.0,0.0,2021-01-22 04:23:55.278000+00:00,val
1319,0.0,0.0,2021-01-22 04:24:25.278000+00:00,val
1320,0.0,0.0,2021-01-22 04:24:55.278000+00:00,val
1321,0.0,0.0,2021-01-22 04:25:25.278000+00:00,val
1322,0.0,0.0,2021-01-22 04:25:55.278000+00:00,val
1323,0.0,0.0,2021-01-22 04:26:25.278000+00:00,val
1324,0.0,0.0,2021-01-22 04:26:55.278000+00:00,val
1325,0.0,0.0,2021-01-22 04:27:25.278000+00:00,val
1326,0.0,0.0,2021-01-22 04:27:55.278000+00:00,val
1327,0.0,0.0,2021-01-22 04:28:25.278000+00:00,val
1328,0.0,0.0,2021-01-22 04:28:55.278000+00:00,val
1329,0.0,0.0,2021-01-22 04:29:25.278000+00:00,val
1330,0.0,0.0,2021-01-22 04:29:55.278000+00:00,val
1331,0.0,0.0,2021-01-22 04:30:25.278000+00:00,val
1332,0.0,0.0,2021-01-22 04:30:55.278000+00:00,val
1333,0.0,0.0,2021-01-22 04:31:25.278000+00:00,val
1334,0.0,0.0,2021-01-22 04:31:55.278000+00:00,val
1335,0.0,0.0,2021-01-22 04:32:25.278000+00:00,val
1336,0.0,0.0,2021-01-22 04:32:55.278000+00:00,val
1337,0.0,0.0,2021-01-22 04:33:25.278000+00:00,val
1338,0.0,0.0,2021-01-22 04:33:55.278000+00:00,val
1339,0.0,0.0,2021-01-22 04:34:25.278000+00:00,val
1340,0.0,0.0,2021-01-22 04:34:55.278000+00:00,val
1341,0.0,0.0,2021-01-22 04:35:25.278000+00:00,val
1342,0.0,0.0,2021-01-22 04:35:55.278000+00:00,val
1343,0.0,0.0,2021-01-22 04:36:25.278000+00:00,val
1344,0.0,0.0,2021-01-22 04:36:55.278000+00:00,val
1345,0.0,0.0,2021-01-22 04:37:25.278000+00:00,val
1346,0.0,0.0,2021-01-22 04:37:55.278000+00:00,val
1347,0.0,0.0,2021-01-22 04:38:25.278000+00:00,val
1348,0.0,0.0,2021-01-22 04:38:55.278000+00:00,val
1349,0.0,0.0,2021-01-22 04:39:25.278000+00:00,val
1350,0.0,0.0,2021-01-22 04:39:55.278000+00:00,val
1351,0.0,0.0,2021-01-22 04:40:25.278000+00:00,val
1352,0.0,0.0,2021-01-22 04:40:55.278000+00:00,val
1353,0.0,0.0,2021-01-22 04:41:25.278000+00:00,val
1354,0.0,0.0,2021-01-22 04:41:55.278000+00:00,val
1355,0.0,0.0,2021-01-22 04:42:25.278000+00:00,val
1356,0.0,0.0,2021-01-22 04:42:55.278000+00:00,val
1357,0.0,0.0,2021-01-22 04:43:25.278000+00:00,val
1358,0.0,0.0,2021-01-22 04:43:55.278000+00:00,val
1359,0.0,0.0,2021-01-22 04:44:25.278000+00:00,val
1360,0.0,0.0,2021-01-22 04:44:55.278000+00:00,val
1361,0.0,0.0,2021-01-22 04:45:25.278000+00:00,val
1362,0.0,0.0,2021-01-22 04:45:55.278000+00:00,val
1363,0.0,0.0,2021-01-22 04:46:25.278000+00:00,val
1364,0.0,0.0,2021-01-22 04:46:55.278000+00:00,val
1365,0.0,0.0,2021-01-22 04:47:25.278000+00:00,val
1366,0.0,0.0,2021-01-22 04:47:55.278000+00:00,val
1367,0.0,0.0,2021-01-22 04:48:25.278000+00:00,val
1368,0.0,0.0,2021-01-22 04:48:55.278000+00:00,val
1369,0.0,0.0,2021-01-22 04:49:25.278000+00:00,val
1370,0.0,0.0,2021-01-22 04:49:55.278000+00:00,val
1371,0.0,0.0,2021-01-22 04:50:25.278000+00:00,val
1372,0.0,0.0,2021-01-22 04:50:55.278000+00:00,val
1373,0.0,0.0,2021-01-22 04:51:25.278000+00:00,val
1374,0.0,0.0,2021-01-22 04:51:55.278000+00:00,val
1375,0.0,0.0,2021-01-22 04:52:25.278000+00:00,val
1376,0.0,0.0,2021-01-22 04:52:55.278000+00:00,val
1377,0.0,0.0,2021-01-22 04:53:25.278000+00:00,val
1378,0.0,0.0,2021-01-22 04:53:55.278000+00:00,val
1379,0.0,0.0,2021-01-22 04:54:25.278000+00:00,val
1380,0.0,0.0,2021-01-22 04:54:55.278000+00:00,val
1381,0.0,0.0,2021-01-22 04:55:25.278000+00:00,val
1382,0.0,0.0,2021-01-22 04:55:55.278000+00:00,val
1383,0.0,0.0,2021-01-22 04:56:25.278000+00:00,val
1384,0.0,0.0,2021-01-22 04:56:55.278000+00:00,val
1385,0.0,0.0,2021-01-22 04:57:25.278000+00:00,val
1386,0.0,0.0,2021-01-22 04:57:55.278000+00:00,val
1387,0.0,0.0,2021-01-22 04:58:25.278000+00:00,val
1388,0.0,0.0,2021-01-22 04:58:55.278000+00:00,val
1389,0.0,0.0,2021-01-22 04:59:25.278000+00:00,val
1390,0.0,0.0,2021-01-22 04:59:55.278000+00:00,val
1391,0.0,0.0,2021-01-22 05:00:25.278000+00:00,val
1392,0.0,0.0,2021-01-22 05:00:55.278000+00:00,val
1393,0.0,0.0,2021-01-22 05:01:25.278000+00:00,val
1394,0.0,0.0,2021-01-22 05:01:55.278000+00:00,val
1395,0.0,0.0,2021-01-22 05:02:25.278000+00:00,val
1396,0.0,0.0,2021-01-22 05:02:55.278000+00:00,val
1397,0.0,0.0,2021-01-22 05:03:25.278000+00:00,val
1398,0.0,0.0,2021-01-22 05:03:55.278000+00:00,val
1399,0.0,0.0,2021-01-22 05:04:25.278000+00:00,val
1400,0.0,0.0,2021-01-22 05:04:55.278000+00:00,val
1401,0.0,0.0,2021-01-22 05:05:25.278000+00:00,val
1402,0.0,0.0,2021-01-22 05:05:55.278000+00:00,val
1403,0.0,0.0,2021-01-22 05:06:25.278000+00:00,val
1404,0.0,0.0,2021-01-22 05:06:55.278000+00:00,val
1405,0.0,0.0,2021-01-22 05:07:25.278000+00:00,val
1406,0.0,0.0,2021-01-22 05:07:55.278000+00:00,val
1407,0.0,0.0,2021-01-22 05:08:25.278000+00:00,val
1408,0.0,0.0,2021-01-22 05:08:55.278000+00:00,val
1409,0.0,0.0,2021-01-22 05:09:25.278000+00:00,val
1410,0.0,0.0,2021-01-22 05:09:55.278000+00:00,val
1411,0.0,0.0,2021-01-22 05:10:25.278000+00:00,val
1412,0.0,0.0,2021-01-22 05:10:55.278000+00:00,val
1413,0.0,0.0,2021-01-22 05:11:25.278000+00:00,val
1414,0.0,0.0,2021-01-22 05:11:55.278000+00:00,val
1415,0.0,0.0,2021-01-22 05:12:25.278000+00:00,val
1416,0.0,0.0,2021-01-22 05:12:55.278000+00:00,val
1417,0.0,0.0,2021-01-22 05:13:25.278000+00:00,val
1418,0.0,0.0,2021-01-22 05:13:55.278000+00:00,val
1419,0.0,0.0,2021-01-22 05:14:25.278000+00:00,val
1420,0.0,0.0,2021-01-22 05:14:55.278000+00:00,val
1421,0.0,0.0,2021-01-22 05:15:25.278000+00:00,val
1422,0.0,0.0,2021-01-22 05:15:55.278000+00:00,val
1423,0.0,0.0,2021-01-22 05:16:25.278000+00:00,val
1424,0.0,0.0,2021-01-22 05:16:55.278000+00:00,val
1425,0.0,0.0,2021-01-22 05:17:25.278000+00:00,val
1426,0.0,0.0,2021-01-22 05:17:55.278000+00:00,test
1427,0.0,0.0,2021-01-22 05:18:25.278000+00:00,test
1428,0.0,0.0,2021-01-22 05:18:55.278000+00:00,test
1429,0.0,0.0,2021-01-22 05:19:25.278000+00:00,test
1430,0.0,0.0,2021-01-22 05:19:55.278000+00:00,test
1431,0.0,0.0,2021-01-22 05:20:25.278000+00:00,test
1432,0.0,0.0,2021-01-22 05:20:55.278000+00:00,test
1433,0.0,0.0,2021-01-22 05:21:25.278000+00:00,test
1434,0.0,0.0,2021-01-22 05:21:55.278000+00:00,test
1435,0.0,0.0,2021-01-22 05:22:25.278000+00:00,test
1436,0.0,0.0,2021-01-22 05:22:55.278000+00:00,test
1437,0.0,0.0,2021-01-22 05:23:25.278000+00:00,test
1438,0.0,0.0,2021-01-22 05:23:55.278000+00:00,test
1439,0.0,0.0,2021-01-22 05:24:25.278000+00:00,test
1440,0.0,0.0,2021-01-22 05:24:55.278000+00:00,test
1441,0.0,0.0,2021-01-22 05:25:25.278000+00:00,test
1442,0.0,0.0,2021-01-22 05:25:55.278000+00:00,test
1443,0.0,0.0,2021-01-22 05:26:25.278000+00:00,test
1444,0.0,0.0,2021-01-22 05:26:55.278000+00:00,test
1445,0.0,0.0,2021-01-22 05:27:25.278000+00:00,test
1446,0.0,0.0,2021-01-22 05:27:55.278000+00:00,test
1447,0.0,0.0,2021-01-22 05:28:25.278000+00:00,test
1448,0.0,0.0,2021-01-22 05:28:55.278000+00:00,test
1449,0.0,0.0,2021-01-22 05:29:25.278000+00:00,test
1450,0.0,0.0,2021-01-22 05:29:55.278000+00:00,test
1451,0.0,0.0,2021-01-22 05:30:25.278000+00:00,test
1452,0.0,0.0,2021-01-22 05:30:55.278000+00:00,test
1453,0.0,0.0,2021-01-22 05:31:25.278000+00:00,test
1454,0.0,0.0,2021-01-22 05:31:55.278000+00:00,test
1455,0.0,0.0,2021-01-22 05:32:25.278000+00:00,test
1456,0.0,0.0,2021-01-22 05:32:55.278000+00:00,test
1457,0.0,0.0,2021-01-22 05:33:25.278000+00:00,test
1458,0.0,0.0,2021-01-22 05:33:55.278000+00:00,test
1459,0.0,0.0,2021-01-22 05:34:25.278000+00:00,test
1460,0.0,0.0,2021-01-22 05:34:55.278000+00:00,test
1461,0.0,0.0,2021-01-22 05:35:25.278000+00:00,test
1462,0.0,0.0,2021-01-22 05:35:55.278000+00:00,test
1463,0.0,0.0,2021-01-22 05:36:25.278000+00:00,test
1464,0.0,0.0,2021-01-22 05:36:55.278000+00:00,test
1465,0.0,0.0,2021-01-22 05:37:25.278000+00:00,test
1466,0.0,0.0,2021-01-22 05:37:55.278000+00:00,test
1467,0.0,0.0,2021-01-22 05:38:25.278000+00:00,test
1468,0.0,0.0,2021-01-22 05:38:55.278000+00:00,test
1469,0.0,0.0,2021-01-22 05:39:25.278000+00:00,test
1470,0.0,0.0,2021-01-22 05:39:55.278000+00:00,test
1471,0.0,0.0,2021-01-22 05:40:25.278000+00:00,test
1472,0.0,0.0,2021-01-22 05:40:55.278000+00:00,test
1473,0.0,0.0,2021-01-22 05:41:25.278000+00:00,test
1474,0.0,0.0,2021-01-22 05:41:55.278000+00:00,test
1475,0.0,0.0,2021-01-22 05:42:25.278000+00:00,test
1476,0.0,0.0,2021-01-22 05:42:55.278000+00:00,test
1477,0.0,0.0,2021-01-22 05:43:25.278000+00:00,test
1478,0.0,0.0,2021-01-22 05:43:55.278000+00:00,test
1479,0.0,0.0,2021-01-22 05:44:25.278000+00:00,test
1480,0.0,0.0,2021-01-22 05:44:55.278000+00:00,test
1481,0.0,0.0,2021-01-22 05:45:25.278000+00:00,test
1482,0.0,0.0,2021-01-22 05:45:55.278000+00:00,test
1483,0.0,0.0,2021-01-22 05:46:25.278000+00:00,test
1484,0.0,0.0,2021-01-22 05:46:55.278000+00:00,test
1485,0.0,0.0,2021-01-22 05:47:25.278000+00:00,test
1486,0.0,0.0,2021-01-22 05:47:55.278000+00:00,test
1487,0.0,0.0,2021-01-22 05:48:25.278000+00:00,test
1488,0.0,0.0,2021-01-22 05:48:55.278000+00:00,test
1489,0.0,0.0,2021-01-22 05:49:25.278000+00:00,test
1490,0.0,0.0,2021-01-22 05:49:55.278000+00:00,test
1491,0.0,0.0,2021-01-22 05:50:25.278000+00:00,test
1492,0.0,0.0,2021-01-22 05:50:55.278000+00:00,test
1493,0.0,0.0,2021-01-22 05:51:25.278000+00:00,test
1494,0.0,0.0,2021-01-22 05:51:55.278000+00:00,test
1495,0.0,0.0,2021-01-22 05:52:25.278000+00:00,test
1496,0.0,0.0,2021-01-22 05:52:55.278000+00:00,test
1497,0.0,0.0,2021-01-22 05:53:25.278000+00:00,test
1498,0.0,0.0,2021-01-22 05:53:55.278000+00:00,test
1499,0.0,0.0,2021-01-22 05:54:25.278000+00:00,test
1500,0.0,0.0,2021-01-22 05:54:55.278000+00:00,test
1501,0.0,0.0,2021-01-22 05:55:25.278000+00:00,test
1502,0.0,0.0,2021-01-22 05:55:55.278000+00:00,test
1503,0.0,0.0,2021-01-22 05:56:25.278000+00:00,test
1504,0.0,0.0,2021-01-22 05:56:55.278000+00:00,test
1505,0.0,0.0,2021-01-22 05:57:25.278000+00:00,test
1506,0.0,0.0,2021-01-22 05:57:55.278000+00:00,test
1507,0.0,0.0,2021-01-22 05:58:25.278000+00:00,test
1508,0.0,0.0,2021-01-22 05:58:55.278000+00:00,test
1509,0.0,0.0,2021-01-22 05:59:25.278000+00:00,test
1510,0.0,0.0,2021-01-22 05:59:55.278000+00:00,test
1511,0.0,0.0,2021-01-22 06:00:25.278000+00:00,test
1512,0.0,0.0,2021-01-22 06:00:55.278000+00:00,test
1513,0.0,0.0,2021-01-22 06:01:25.278000+00:00,test
1514,0.0,0.0,2021-01-22 06:01:55.278000+00:00,test
1515,0.0,0.0,2021-01-22 06:02:25.278000+00:00,test
1516,0.0,0.0,2021-01-22 06:02:55.278000+00:00,test
1517,0.0,0.0,2021-01-22 06:03:25.278000+00:00,test
1518,0.0,0.0,2021-01-22 06:03:55.278000+00:00,test
1519,0.0,0.0,2021-01-22 06:04:25.278000+00:00,test
1520,0.0,0.0,2021-01-22 06:04:55.278000+00:00,test
1521,0.0,0.0,2021-01-22 06:05:25.278000+00:00,test
1522,0.0,0.0,2021-01-22 06:05:55.278000+00:00,test
1523,0.0,0.0,2021-01-22 06:06:25.278000+00:00,test
1524,0.0,0.0,2021-01-22 06:06:55.278000+00:00,test
1525,0.0,0.0,2021-01-22 06:07:25.278000+00:00,test
1526,0.0,0.0,2021-01-22 06:07:55.278000+00:00,test
1527,0.0,0.0,2021-01-22 06:08:25.278000+00:00,test
1528,0.0,0.0,2021-01-22 06:08:55.278000+00:00,test
1529,0.0,0.0,2021-01-22 06:09:25.278000+00:00,test
1530,0.0,0.0,2021-01-22 06:09:55.278000+00:00,test
1531,0.0,0.0,2021-01-22 06:10:25.278000+00:00,test
1532,0.0,0.0,2021-01-22 06:10:55.278000+00:00,test
1533,0.0,0.0,2021-01-22 06:11:25.278000+00:00,test
1534,0.0,0.0,2021-01-22 06:11:55.278000+00:00,test
1535,0.0,0.0,2021-01-22 06:12:25.278000+00:00,test
1536,0.0,0.0,2021-01-22 06:12:55.278000+00:00,test
1537,0.0,0.0,2021-01-22 06:13:25.278000+00:00,test
1538,0.0,0.0,2021-01-22 06:13:55.278000+00:00,test
1539,0.0,0.0,2021-01-22 06:14:25.278000+00:00,test
1540,0.0,0.0,2021-01-22 06:14:55.278000+00:00,test
1541,0.0,0.0,2021-01-22 06:15:25.278000+00:00,test
1542,0.0,0.0,2021-01-22 06:15:55.278000+00:00,test
1543,0.0,0.0,2021-01-22 06:16:25.278000+00:00,test
1544,0.0,0.0,2021-01-22 06:16:55.278000+00:00,test
1545,0.0,0.0,2021-01-22 06:17:25.278000+00:00,test
1546,0.0,0.0,2021-01-22 06:17:55.278000+00:00,test
1547,0.0,0.0,2021-01-22 06:18:25.278000+00:00,test
1548,0.0,0.0,2021-01-22 06:18:55.278000+00:00,test
1549,0.0,0.0,2021-01-22 06:19:25.278000+00:00,test
1550,0.0,0.0,2021-01-22 06:19:55.278000+00:00,test
1551,0.0,0.0,2021-01-22 06:20:25.278000+00:00,test
1552,0.0,0.0,2021-01-22 06:20:55.278000+00:00,test
1553,0.0,0.0,2021-01-22 06:21:25.278000+00:00,test
1554,0.0,0.0,2021-01-22 06:21:55.278000+00:00,test
1555,0.0,0.0,2021-01-22 06:22:25.278000+00:00,test
1556,0.0,0.0,2021-01-22 06:22:55.278000+00:00,test
1557,0.0,0.0,2021-01-22 06:23:25.278000+00:00,test
1558,0.0,0.0,2021-01-22 06:23:55.278000+00:00,test
1559,0.0,0.0,2021-01-22 06:24:25.278000+00:00,test
1560,0.0,0.0,2021-01-22 06:24:55.278000+00:00,test
1561,0.0,0.0,2021-01-22 06:25:25.278000+00:00,test
1562,0.0,0.0,2021-01-22 06:25:55.278000+00:00,test
1563,0.0,0.0,2021-01-22 06:26:25.278000+00:00,test
1564,0.0,0.0,2021-01-22 06:26:55.278000+00:00,test
1565,0.0,0.0,2021-01-22 06:27:25.278000+00:00,test
1566,0.0,0.0,2021-01-22 06:27:55.278000+00:00,test
1567,0.0,0.0,2021-01-22 06:28:25.278000+00:00,test
1568,0.0,0.0,2021-01-22 06:28:55.278000+00:00,test
1569,0.0,0.0,2021-01-22 06:29:25.278000+00:00,test
1570,0.0,0.0,2021-01-22 06:29:55.278000+00:00,test
1571,0.0,0.0,2021-01-22 06:30:25.278000+00:00,test
1572,0.0,0.0,2021-01-22 06:30:55.278000+00:00,test
1573,0.0,0.0,2021-01-22 06:31:25.278000+00:00,test
1574,0.0,0.0,2021-01-22 06:31:55.278000+00:00,test
1575,0.0,0.0,2021-01-22 06:32:25.278000+00:00,test
1576,0.0,0.0,2021-01-22 06:32:55.278000+00:00,test
1577,0.0,0.0,2021-01-22 06:33:25.278000+00:00,test
1578,0.0,0.0,2021-01-22 06:33:55.278000+00:00,test
1579,0.0,0.0,2021-01-22 06:34:25.278000+00:00,test
1580,0.0,0.0,2021-01-22 06:34:55.278000+00:00,test
1581,0.0,0.0,2021-01-22 06:35:25.278000+00:00,test
1582,0.0,0.0,2021-01-22 06:35:55.278000+00:00,test
1583,0.0,0.0,2021-01-22 06:36:25.278000+00:00,test
1584,0.0,0.0,2021-01-22 06:36:55.278000+00:00,test
1585,0.0,0.0,2021-01-22 06:37:25.278000+00:00,test
1586,0.0,0.0,2021-01-22 06:37:55.278000+00:00,test
1587,0.0,0.0,2021-01-22 06:38:25.278000+00:00,test
1588,0.0,0.0,2021-01-22 06:38:55.278000+00:00,test
1589,0.0,0.0,2021-01-22 06:39:25.278000+00:00,test
1590,0.0,0.0,2021-01-22 06:39:55.278000+00:00,test
1591,0.0,0.0,2021-01-22 06:40:25.278000+00:00,test
1592,0.0,0.0,2021-01-22 06:40:55.278000+00:00,test
1593,0.0,0.0,2021-01-22 06:41:25.278000+00:00,test
1594,0.0,0.0,2021-01-22 06:41:55.278000+00:00,test
1595,0.0,0.0,2021-01-22 06:42:25.278000+00:00,test
