,prediction,real,time,split
0,-5.600296497344971,-6.0,2021-01-21 17:44:55.278000+00:00,train
1,-5.5745697021484375,-6.0,2021-01-21 17:45:25.278000+00:00,train
2,-5.551157474517822,-6.0,2021-01-21 17:45:55.278000+00:00,train
3,-5.530120372772217,-6.0,2021-01-21 17:46:25.278000+00:00,train
4,-5.51152229309082,-6.0,2021-01-21 17:46:55.278000+00:00,train
5,-5.480349540710449,-6.0,2021-01-21 17:47:25.278000+00:00,train
6,-5.450963973999023,-6.0,2021-01-21 17:47:55.278000+00:00,train
7,-5.4233927726745605,-6.0,2021-01-21 17:48:25.278000+00:00,train
8,-5.397672653198242,-6.0,2021-01-21 17:48:55.278000+00:00,train
9,-5.373834133148193,-6.0,2021-01-21 17:49:25.278000+00:00,train
10,-5.351917743682861,-6.0,2021-01-21 17:49:55.278000+00:00,train
11,-5.331969738006592,-6.0,2021-01-21 17:50:25.278000+00:00,train
12,-5.314038276672363,-6.0,2021-01-21 17:50:55.278000+00:00,train
13,-5.2981696128845215,-6.0,2021-01-21 17:51:25.278000+00:00,train
14,-5.284424781799316,-6.0,2021-01-21 17:51:55.278000+00:00,train
15,-5.27286434173584,-6.0,2021-01-21 17:52:25.278000+00:00,train
16,-5.263559818267822,-6.0,2021-01-21 17:52:55.278000+00:00,train
17,-5.25658655166626,-6.0,2021-01-21 17:53:25.278000+00:00,train
18,-5.236145496368408,-5.0,2021-01-21 17:53:55.278000+00:00,train
19,-5.2173051834106445,-5.0,2021-01-21 17:54:25.278000+00:00,train
20,-5.200108051300049,-5.0,2021-01-21 17:54:55.278000+00:00,train
21,-5.184587001800537,-5.0,2021-01-21 17:55:25.278000+00:00,train
22,-5.170783996582031,-5.0,2021-01-21 17:55:55.278000+00:00,train
23,-5.158745765686035,-5.0,2021-01-21 17:56:25.278000+00:00,train
24,-5.1485185623168945,-5.0,2021-01-21 17:56:55.278000+00:00,train
25,-5.119414806365967,-5.0,2021-01-21 17:57:25.278000+00:00,train
26,-5.092434883117676,-5.0,2021-01-21 17:57:55.278000+00:00,train
27,-5.067618370056152,-5.0,2021-01-21 17:58:25.278000+00:00,train
28,-5.045019626617432,-5.0,2021-01-21 17:58:55.278000+00:00,train
29,-5.009398460388184,-5.0,2021-01-21 17:59:25.278000+00:00,train
30,-4.975358486175537,-5.0,2021-01-21 17:59:55.278000+00:00,train
31,-4.942917346954346,-5.0,2021-01-21 18:00:25.278000+00:00,train
32,-4.912090301513672,-5.0,2021-01-21 18:00:55.278000+00:00,train
33,-4.88289737701416,-5.0,2021-01-21 18:01:25.278000+00:00,train
34,-4.855358600616455,-5.0,2021-01-21 18:01:55.278000+00:00,train
35,-4.829501152038574,-5.0,2021-01-21 18:02:25.278000+00:00,train
36,-4.805350303649902,-5.0,2021-01-21 18:02:55.278000+00:00,train
37,-4.782938480377197,-5.0,2021-01-21 18:03:25.278000+00:00,train
38,-4.762276649475098,-5.0,2021-01-21 18:03:55.278000+00:00,train
39,-4.743445873260498,-5.0,2021-01-21 18:04:25.278000+00:00,train
40,-4.7264790534973145,-5.0,2021-01-21 18:04:55.278000+00:00,train
41,-4.711418628692627,-5.0,2021-01-21 18:05:25.278000+00:00,train
42,-4.698314189910889,-5.0,2021-01-21 18:05:55.278000+00:00,train
43,-4.687224864959717,-5.0,2021-01-21 18:06:25.278000+00:00,train
44,-4.662681579589844,-5.0,2021-01-21 18:06:55.278000+00:00,train
45,-4.63946008682251,-5.0,2021-01-21 18:07:25.278000+00:00,train
46,-4.617579936981201,-5.0,2021-01-21 18:07:55.278000+00:00,train
47,-4.597064018249512,-5.0,2021-01-21 18:08:25.278000+00:00,train
48,-4.577931880950928,-5.0,2021-01-21 18:08:55.278000+00:00,train
49,-4.560210704803467,-5.0,2021-01-21 18:09:25.278000+00:00,train
50,-4.5439300537109375,-5.0,2021-01-21 18:09:55.278000+00:00,train
51,-4.52911901473999,-5.0,2021-01-21 18:10:25.278000+00:00,train
52,-4.515811443328857,-5.0,2021-01-21 18:10:55.278000+00:00,train
53,-4.504047870635986,-5.0,2021-01-21 18:11:25.278000+00:00,train
54,-4.493866920471191,-5.0,2021-01-21 18:11:55.278000+00:00,train
55,-4.485315799713135,-5.0,2021-01-21 18:12:25.278000+00:00,train
56,-4.478447437286377,-5.0,2021-01-21 18:12:55.278000+00:00,train
57,-4.4733147621154785,-5.0,2021-01-21 18:13:25.278000+00:00,train
58,-4.454936504364014,-5.0,2021-01-21 18:13:55.278000+00:00,train
59,-4.4376020431518555,-5.0,2021-01-21 18:14:25.278000+00:00,train
60,-4.421323776245117,-5.0,2021-01-21 18:14:55.278000+00:00,train
61,-4.406120300292969,-5.0,2021-01-21 18:15:25.278000+00:00,train
62,-4.3920111656188965,-5.0,2021-01-21 18:15:55.278000+00:00,train
63,-4.37901496887207,-5.0,2021-01-21 18:16:25.278000+00:00,train
64,-4.367154598236084,-5.0,2021-01-21 18:16:55.278000+00:00,train
65,-4.356456756591797,-5.0,2021-01-21 18:17:25.278000+00:00,train
66,-4.346946716308594,-4.0,2021-01-21 18:17:55.278000+00:00,train
67,-4.338652610778809,-4.0,2021-01-21 18:18:25.278000+00:00,train
68,-4.331610679626465,-4.0,2021-01-21 18:18:55.278000+00:00,train
69,-4.32585334777832,-4.0,2021-01-21 18:19:25.278000+00:00,train
70,-4.321420669555664,-4.0,2021-01-21 18:19:55.278000+00:00,train
71,-4.3184003829956055,-4.0,2021-01-21 18:20:25.278000+00:00,train
72,-4.316764831542969,-4.0,2021-01-21 18:20:55.278000+00:00,train
73,-4.295557975769043,-4.0,2021-01-21 18:21:25.278000+00:00,train
74,-4.276042461395264,-4.0,2021-01-21 18:21:55.278000+00:00,train
75,-4.258266448974609,-4.0,2021-01-21 18:22:25.278000+00:00,train
76,-4.242259502410889,-4.0,2021-01-21 18:22:55.278000+00:00,train
77,-4.228073596954346,-4.0,2021-01-21 18:23:25.278000+00:00,train
78,-4.215766906738281,-4.0,2021-01-21 18:23:55.278000+00:00,train
79,-4.188676357269287,-4.0,2021-01-21 18:24:25.278000+00:00,train
80,-4.162750720977783,-4.0,2021-01-21 18:24:55.278000+00:00,train
81,-4.137997627258301,-4.0,2021-01-21 18:25:25.278000+00:00,train
82,-4.114424705505371,-4.0,2021-01-21 18:25:55.278000+00:00,train
83,-4.092038631439209,-4.0,2021-01-21 18:26:25.278000+00:00,train
84,-4.070854187011719,-4.0,2021-01-21 18:26:55.278000+00:00,train
85,-4.050886631011963,-4.0,2021-01-21 18:27:25.278000+00:00,train
86,-4.0321502685546875,-4.0,2021-01-21 18:27:55.278000+00:00,train
87,-4.014665126800537,-4.0,2021-01-21 18:28:25.278000+00:00,train
88,-3.9984543323516846,-4.0,2021-01-21 18:28:55.278000+00:00,train
89,-3.983539342880249,-4.0,2021-01-21 18:29:25.278000+00:00,train
90,-3.969949722290039,-4.0,2021-01-21 18:29:55.278000+00:00,train
91,-3.9447081089019775,-4.0,2021-01-21 18:30:25.278000+00:00,train
92,-3.920250177383423,-4.0,2021-01-21 18:30:55.278000+00:00,train
93,-3.896576166152954,-4.0,2021-01-21 18:31:25.278000+00:00,train
94,-3.873687267303467,-4.0,2021-01-21 18:31:55.278000+00:00,train
95,-3.8515825271606445,-4.0,2021-01-21 18:32:25.278000+00:00,train
96,-3.830264091491699,-4.0,2021-01-21 18:32:55.278000+00:00,train
97,-3.8097355365753174,-4.0,2021-01-21 18:33:25.278000+00:00,train
98,-3.789997100830078,-4.0,2021-01-21 18:33:55.278000+00:00,train
99,-3.77105450630188,-4.0,2021-01-21 18:34:25.278000+00:00,train
100,-3.752915382385254,-4.0,2021-01-21 18:34:55.278000+00:00,train
101,-3.735581636428833,-4.0,2021-01-21 18:35:25.278000+00:00,train
102,-3.719062089920044,-4.0,2021-01-21 18:35:55.278000+00:00,train
103,-3.7033636569976807,-4.0,2021-01-21 18:36:25.278000+00:00,train
104,-3.68849778175354,-4.0,2021-01-21 18:36:55.278000+00:00,train
105,-3.6744725704193115,-4.0,2021-01-21 18:37:25.278000+00:00,train
106,-3.6613006591796875,-4.0,2021-01-21 18:37:55.278000+00:00,train
107,-3.6489951610565186,-4.0,2021-01-21 18:38:25.278000+00:00,train
108,-3.637568473815918,-4.0,2021-01-21 18:38:55.278000+00:00,train
109,-3.627037525177002,-4.0,2021-01-21 18:39:25.278000+00:00,train
110,-3.617419958114624,-4.0,2021-01-21 18:39:55.278000+00:00,train
111,-3.608734607696533,-4.0,2021-01-21 18:40:25.278000+00:00,train
112,-3.601001501083374,-4.0,2021-01-21 18:40:55.278000+00:00,train
113,-3.5942461490631104,-4.0,2021-01-21 18:41:25.278000+00:00,train
114,-3.588491439819336,-4.0,2021-01-21 18:41:55.278000+00:00,train
115,-3.583766460418701,-4.0,2021-01-21 18:42:25.278000+00:00,train
116,-3.5801031589508057,-4.0,2021-01-21 18:42:55.278000+00:00,train
117,-3.5775344371795654,-4.0,2021-01-21 18:43:25.278000+00:00,train
118,-3.5760977268218994,-4.0,2021-01-21 18:43:55.278000+00:00,train
119,-3.575826644897461,-4.0,2021-01-21 18:44:25.278000+00:00,train
120,-3.5631461143493652,-4.0,2021-01-21 18:44:55.278000+00:00,train
121,-3.550994873046875,-4.0,2021-01-21 18:45:25.278000+00:00,train
122,-3.5393762588500977,-4.0,2021-01-21 18:45:55.278000+00:00,train
123,-3.528294801712036,-4.0,2021-01-21 18:46:25.278000+00:00,train
124,-3.5177536010742188,-4.0,2021-01-21 18:46:55.278000+00:00,train
125,-3.5077619552612305,-4.0,2021-01-21 18:47:25.278000+00:00,train
126,-3.4983229637145996,-4.0,2021-01-21 18:47:55.278000+00:00,train
127,-3.4894449710845947,-4.0,2021-01-21 18:48:25.278000+00:00,train
128,-3.481137275695801,-4.0,2021-01-21 18:48:55.278000+00:00,train
129,-3.473405599594116,-4.0,2021-01-21 18:49:25.278000+00:00,train
130,-3.4662609100341797,-4.0,2021-01-21 18:49:55.278000+00:00,train
131,-3.459712266921997,-4.0,2021-01-21 18:50:25.278000+00:00,train
132,-3.4537723064422607,-4.0,2021-01-21 18:50:55.278000+00:00,train
133,-3.4484517574310303,-4.0,2021-01-21 18:51:25.278000+00:00,train
134,-3.443763256072998,-4.0,2021-01-21 18:51:55.278000+00:00,train
135,-3.439722776412964,-4.0,2021-01-21 18:52:25.278000+00:00,train
136,-3.4363434314727783,-3.0,2021-01-21 18:52:55.278000+00:00,train
137,-3.4336435794830322,-3.0,2021-01-21 18:53:25.278000+00:00,train
138,-3.431642532348633,-3.0,2021-01-21 18:53:55.278000+00:00,train
139,-3.4303576946258545,-3.0,2021-01-21 18:54:25.278000+00:00,train
140,-3.429813861846924,-3.0,2021-01-21 18:54:55.278000+00:00,train
141,-3.4300339221954346,-3.0,2021-01-21 18:55:25.278000+00:00,train
142,-3.431044101715088,-3.0,2021-01-21 18:55:55.278000+00:00,train
143,-3.412325859069824,-3.0,2021-01-21 18:56:25.278000+00:00,train
144,-3.39469313621521,-3.0,2021-01-21 18:56:55.278000+00:00,train
145,-3.3781204223632812,-3.0,2021-01-21 18:57:25.278000+00:00,train
146,-3.3626365661621094,-3.0,2021-01-21 18:57:55.278000+00:00,train
147,-3.3482608795166016,-3.0,2021-01-21 18:58:25.278000+00:00,train
148,-3.3350205421447754,-3.0,2021-01-21 18:58:55.278000+00:00,train
149,-3.322930097579956,-3.0,2021-01-21 18:59:25.278000+00:00,train
150,-3.312018394470215,-3.0,2021-01-21 18:59:55.278000+00:00,train
151,-3.3023197650909424,-3.0,2021-01-21 19:00:25.278000+00:00,train
152,-3.293867826461792,-3.0,2021-01-21 19:00:55.278000+00:00,train
153,-3.271932363510132,-3.0,2021-01-21 19:01:25.278000+00:00,train
154,-3.250643491744995,-3.0,2021-01-21 19:01:55.278000+00:00,train
155,-3.23000168800354,-3.0,2021-01-21 19:02:25.278000+00:00,train
156,-3.209998369216919,-3.0,2021-01-21 19:02:55.278000+00:00,train
157,-3.1906299591064453,-3.0,2021-01-21 19:03:25.278000+00:00,train
158,-3.1718921661376953,-3.0,2021-01-21 19:03:55.278000+00:00,train
159,-3.153780460357666,-3.0,2021-01-21 19:04:25.278000+00:00,train
160,-3.136293411254883,-3.0,2021-01-21 19:04:55.278000+00:00,train
161,-3.1194281578063965,-3.0,2021-01-21 19:05:25.278000+00:00,train
162,-3.1031851768493652,-3.0,2021-01-21 19:05:55.278000+00:00,train
163,-3.0875654220581055,-3.0,2021-01-21 19:06:25.278000+00:00,train
164,-3.0725677013397217,-3.0,2021-01-21 19:06:55.278000+00:00,train
165,-3.058195114135742,-3.0,2021-01-21 19:07:25.278000+00:00,train
166,-3.0444507598876953,-3.0,2021-01-21 19:07:55.278000+00:00,train
167,-3.031337022781372,-3.0,2021-01-21 19:08:25.278000+00:00,train
168,-3.0188589096069336,-3.0,2021-01-21 19:08:55.278000+00:00,train
169,-3.0070221424102783,-3.0,2021-01-21 19:09:25.278000+00:00,train
170,-2.995833158493042,-3.0,2021-01-21 19:09:55.278000+00:00,train
171,-2.9852981567382812,-3.0,2021-01-21 19:10:25.278000+00:00,train
172,-2.9754273891448975,-3.0,2021-01-21 19:10:55.278000+00:00,train
173,-2.9662301540374756,-3.0,2021-01-21 19:11:25.278000+00:00,train
174,-2.957716226577759,-3.0,2021-01-21 19:11:55.278000+00:00,train
175,-2.9499011039733887,-3.0,2021-01-21 19:12:25.278000+00:00,train
176,-2.942795753479004,-3.0,2021-01-21 19:12:55.278000+00:00,train
177,-2.9364173412323,-3.0,2021-01-21 19:13:25.278000+00:00,train
178,-2.93078351020813,-3.0,2021-01-21 19:13:55.278000+00:00,train
179,-2.925914764404297,-3.0,2021-01-21 19:14:25.278000+00:00,train
180,-2.921832323074341,-3.0,2021-01-21 19:14:55.278000+00:00,train
181,-2.918560028076172,-3.0,2021-01-21 19:15:25.278000+00:00,train
182,-2.916126251220703,-3.0,2021-01-21 19:15:55.278000+00:00,train
183,-2.914562463760376,-3.0,2021-01-21 19:16:25.278000+00:00,train
184,-2.9139013290405273,-3.0,2021-01-21 19:16:55.278000+00:00,train
185,-2.901801824569702,-3.0,2021-01-21 19:17:25.278000+00:00,train
186,-2.8900225162506104,-3.0,2021-01-21 19:17:55.278000+00:00,train
187,-2.87856388092041,-3.0,2021-01-21 19:18:25.278000+00:00,train
188,-2.867424726486206,-3.0,2021-01-21 19:18:55.278000+00:00,train
189,-2.8566033840179443,-3.0,2021-01-21 19:19:25.278000+00:00,train
190,-2.846099376678467,-3.0,2021-01-21 19:19:55.278000+00:00,train
191,-2.8359131813049316,-3.0,2021-01-21 19:20:25.278000+00:00,train
192,-2.826042890548706,-3.0,2021-01-21 19:20:55.278000+00:00,train
193,-2.8164899349212646,-3.0,2021-01-21 19:21:25.278000+00:00,train
194,-2.8072545528411865,-3.0,2021-01-21 19:21:55.278000+00:00,train
195,-2.7983367443084717,-3.0,2021-01-21 19:22:25.278000+00:00,train
196,-2.789736747741699,-3.0,2021-01-21 19:22:55.278000+00:00,train
197,-2.7814576625823975,-3.0,2021-01-21 19:23:25.278000+00:00,train
198,-2.7734975814819336,-3.0,2021-01-21 19:23:55.278000+00:00,train
199,-2.765860080718994,-3.0,2021-01-21 19:24:25.278000+00:00,train
200,-2.7585480213165283,-3.0,2021-01-21 19:24:55.278000+00:00,train
201,-2.7515625953674316,-3.0,2021-01-21 19:25:25.278000+00:00,train
202,-2.744905948638916,-3.0,2021-01-21 19:25:55.278000+00:00,train
203,-2.7385785579681396,-3.0,2021-01-21 19:26:25.278000+00:00,train
204,-2.732591390609741,-3.0,2021-01-21 19:26:55.278000+00:00,train
205,-2.726944923400879,-3.0,2021-01-21 19:27:25.278000+00:00,train
206,-2.721642255783081,-3.0,2021-01-21 19:27:55.278000+00:00,train
207,-2.716688394546509,-3.0,2021-01-21 19:28:25.278000+00:00,train
208,-2.712087631225586,-3.0,2021-01-21 19:28:55.278000+00:00,train
209,-2.707845449447632,-3.0,2021-01-21 19:29:25.278000+00:00,train
210,-2.7039692401885986,-3.0,2021-01-21 19:29:55.278000+00:00,train
211,-2.7004647254943848,-3.0,2021-01-21 19:30:25.278000+00:00,train
212,-2.697338581085205,-3.0,2021-01-21 19:30:55.278000+00:00,train
213,-2.694613218307495,-3.0,2021-01-21 19:31:25.278000+00:00,train
214,-2.692276954650879,-3.0,2021-01-21 19:31:55.278000+00:00,train
215,-2.6903412342071533,-3.0,2021-01-21 19:32:25.278000+00:00,train
216,-2.6888198852539062,-3.0,2021-01-21 19:32:55.278000+00:00,train
217,-2.6877262592315674,-3.0,2021-01-21 19:33:25.278000+00:00,train
218,-2.6870741844177246,-3.0,2021-01-21 19:33:55.278000+00:00,train
219,-2.6868770122528076,-3.0,2021-01-21 19:34:25.278000+00:00,train
220,-2.687150239944458,-3.0,2021-01-21 19:34:55.278000+00:00,train
221,-2.6879115104675293,-3.0,2021-01-21 19:35:25.278000+00:00,train
222,-2.6891796588897705,-3.0,2021-01-21 19:35:55.278000+00:00,train
223,-2.690974473953247,-3.0,2021-01-21 19:36:25.278000+00:00,train
224,-2.6933212280273438,-3.0,2021-01-21 19:36:55.278000+00:00,train
225,-2.6962454319000244,-3.0,2021-01-21 19:37:25.278000+00:00,train
226,-2.699775218963623,-3.0,2021-01-21 19:37:55.278000+00:00,train
227,-2.7039458751678467,-3.0,2021-01-21 19:38:25.278000+00:00,train
228,-2.7087931632995605,-3.0,2021-01-21 19:38:55.278000+00:00,train
229,-2.714359998703003,-3.0,2021-01-21 19:39:25.278000+00:00,train
230,-2.720695972442627,-3.0,2021-01-21 19:39:55.278000+00:00,train
231,-2.727858304977417,-3.0,2021-01-21 19:40:25.278000+00:00,train
232,-2.735910177230835,-3.0,2021-01-21 19:40:55.278000+00:00,train
233,-2.731794834136963,-3.0,2021-01-21 19:41:25.278000+00:00,train
234,-2.7277936935424805,-3.0,2021-01-21 19:41:55.278000+00:00,train
235,-2.723907470703125,-3.0,2021-01-21 19:42:25.278000+00:00,train
236,-2.720134735107422,-3.0,2021-01-21 19:42:55.278000+00:00,train
237,-2.716475248336792,-3.0,2021-01-21 19:43:25.278000+00:00,train
238,-2.7129290103912354,-3.0,2021-01-21 19:43:55.278000+00:00,train
239,-2.709495782852173,-2.0,2021-01-21 19:44:25.278000+00:00,train
240,-2.706176996231079,-2.0,2021-01-21 19:44:55.278000+00:00,train
241,-2.702972412109375,-2.0,2021-01-21 19:45:25.278000+00:00,train
242,-2.699883460998535,-2.0,2021-01-21 19:45:55.278000+00:00,train
243,-2.6969101428985596,-2.0,2021-01-21 19:46:25.278000+00:00,train
244,-2.6940529346466064,-2.0,2021-01-21 19:46:55.278000+00:00,train
245,-2.6913137435913086,-2.0,2021-01-21 19:47:25.278000+00:00,train
246,-2.6672403812408447,-2.0,2021-01-21 19:47:55.278000+00:00,train
247,-2.643867254257202,-2.0,2021-01-21 19:48:25.278000+00:00,train
248,-2.6211583614349365,-2.0,2021-01-21 19:48:55.278000+00:00,train
249,-2.5990819931030273,-2.0,2021-01-21 19:49:25.278000+00:00,train
250,-2.5776093006134033,-2.0,2021-01-21 19:49:55.278000+00:00,train
251,-2.5567147731781006,-2.0,2021-01-21 19:50:25.278000+00:00,train
252,-2.53637433052063,-2.0,2021-01-21 19:50:55.278000+00:00,train
253,-2.516566753387451,-2.0,2021-01-21 19:51:25.278000+00:00,train
254,-2.4972734451293945,-2.0,2021-01-21 19:51:55.278000+00:00,train
255,-2.4784762859344482,-2.0,2021-01-21 19:52:25.278000+00:00,train
256,-2.4601595401763916,-2.0,2021-01-21 19:52:55.278000+00:00,train
257,-2.442309617996216,-2.0,2021-01-21 19:53:25.278000+00:00,train
258,-2.4249119758605957,-2.0,2021-01-21 19:53:55.278000+00:00,train
259,-2.4079556465148926,-2.0,2021-01-21 19:54:25.278000+00:00,train
260,-2.391428232192993,-2.0,2021-01-21 19:54:55.278000+00:00,train
261,-2.3753209114074707,-2.0,2021-01-21 19:55:25.278000+00:00,train
262,-2.359621047973633,-2.0,2021-01-21 19:55:55.278000+00:00,train
263,-2.344325542449951,-2.0,2021-01-21 19:56:25.278000+00:00,train
264,-2.329425573348999,-2.0,2021-01-21 19:56:55.278000+00:00,train
265,-2.314912796020508,-2.0,2021-01-21 19:57:25.278000+00:00,train
266,-2.300781011581421,-2.0,2021-01-21 19:57:55.278000+00:00,train
267,-2.2870242595672607,-2.0,2021-01-21 19:58:25.278000+00:00,train
268,-2.2736377716064453,-2.0,2021-01-21 19:58:55.278000+00:00,train
269,-2.260617256164551,-2.0,2021-01-21 19:59:25.278000+00:00,train
270,-2.2479569911956787,-2.0,2021-01-21 19:59:55.278000+00:00,train
271,-2.2356550693511963,-2.0,2021-01-21 20:00:25.278000+00:00,train
272,-2.223707675933838,-2.0,2021-01-21 20:00:55.278000+00:00,train
273,-2.2121083736419678,-2.0,2021-01-21 20:01:25.278000+00:00,train
274,-2.2008635997772217,-2.0,2021-01-21 20:01:55.278000+00:00,train
275,-2.189967155456543,-2.0,2021-01-21 20:02:25.278000+00:00,train
276,-2.1794180870056152,-2.0,2021-01-21 20:02:55.278000+00:00,train
277,-2.1692147254943848,-2.0,2021-01-21 20:03:25.278000+00:00,train
278,-2.1593575477600098,-2.0,2021-01-21 20:03:55.278000+00:00,train
279,-2.1498444080352783,-2.0,2021-01-21 20:04:25.278000+00:00,train
280,-2.1406781673431396,-2.0,2021-01-21 20:04:55.278000+00:00,train
281,-2.1318588256835938,-2.0,2021-01-21 20:05:25.278000+00:00,train
282,-2.1233890056610107,-2.0,2021-01-21 20:05:55.278000+00:00,train
283,-2.159743070602417,-2.0,2021-01-21 20:06:25.278000+00:00,train
284,-2.1517674922943115,-2.0,2021-01-21 20:06:55.278000+00:00,train
285,-2.1441280841827393,-2.0,2021-01-21 20:07:25.278000+00:00,train
286,-2.136827230453491,-2.0,2021-01-21 20:07:55.278000+00:00,train
287,-2.1298696994781494,-2.0,2021-01-21 20:08:25.278000+00:00,train
288,-2.123260259628296,-2.0,2021-01-21 20:08:55.278000+00:00,train
289,-2.11700439453125,-2.0,2021-01-21 20:09:25.278000+00:00,train
290,-2.1111080646514893,-2.0,2021-01-21 20:09:55.278000+00:00,train
291,-2.105569839477539,-2.0,2021-01-21 20:10:25.278000+00:00,train
292,-2.1004116535186768,-2.0,2021-01-21 20:10:55.278000+00:00,train
293,-2.0956366062164307,-2.0,2021-01-21 20:11:25.278000+00:00,train
294,-2.091254949569702,-2.0,2021-01-21 20:11:55.278000+00:00,train
295,-2.08727765083313,-2.0,2021-01-21 20:12:25.278000+00:00,train
296,-2.0837175846099854,-2.0,2021-01-21 20:12:55.278000+00:00,train
297,-2.080589771270752,-2.0,2021-01-21 20:13:25.278000+00:00,train
298,-2.0779104232788086,-2.0,2021-01-21 20:13:55.278000+00:00,train
299,-2.075697660446167,-2.0,2021-01-21 20:14:25.278000+00:00,train
300,-2.073971748352051,-2.0,2021-01-21 20:14:55.278000+00:00,train
301,-2.072756767272949,-2.0,2021-01-21 20:15:25.278000+00:00,train
302,-2.0720815658569336,-2.0,2021-01-21 20:15:55.278000+00:00,train
303,-2.064641237258911,-2.0,2021-01-21 20:16:25.278000+00:00,train
304,-2.0573067665100098,-2.0,2021-01-21 20:16:55.278000+00:00,train
305,-2.050082206726074,-2.0,2021-01-21 20:17:25.278000+00:00,train
306,-2.0429654121398926,-2.0,2021-01-21 20:17:55.278000+00:00,train
307,-2.035954475402832,-2.0,2021-01-21 20:18:25.278000+00:00,train
308,-2.0290348529815674,-2.0,2021-01-21 20:18:55.278000+00:00,train
309,-2.022226095199585,-2.0,2021-01-21 20:19:25.278000+00:00,train
310,-2.0155200958251953,-2.0,2021-01-21 20:19:55.278000+00:00,train
311,-2.0089142322540283,-2.0,2021-01-21 20:20:25.278000+00:00,train
312,-2.0024073123931885,-2.0,2021-01-21 20:20:55.278000+00:00,train
313,-1.9959992170333862,-2.0,2021-01-21 20:21:25.278000+00:00,train
314,-1.9897173643112183,-2.0,2021-01-21 20:21:55.278000+00:00,train
315,-1.983517050743103,-2.0,2021-01-21 20:22:25.278000+00:00,train
316,-1.977411150932312,-2.0,2021-01-21 20:22:55.278000+00:00,train
317,-1.971401333808899,-2.0,2021-01-21 20:23:25.278000+00:00,train
318,-1.9654868841171265,-2.0,2021-01-21 20:23:55.278000+00:00,train
319,-1.9596660137176514,-2.0,2021-01-21 20:24:25.278000+00:00,train
320,-1.9539380073547363,-2.0,2021-01-21 20:24:55.278000+00:00,train
321,-1.9483015537261963,-2.0,2021-01-21 20:25:25.278000+00:00,train
322,-1.9427555799484253,-2.0,2021-01-21 20:25:55.278000+00:00,train
323,-1.937300205230713,-2.0,2021-01-21 20:26:25.278000+00:00,train
324,-1.9319343566894531,-2.0,2021-01-21 20:26:55.278000+00:00,train
325,-1.9266571998596191,-2.0,2021-01-21 20:27:25.278000+00:00,train
326,-1.9214686155319214,-2.0,2021-01-21 20:27:55.278000+00:00,train
327,-1.9163674116134644,-2.0,2021-01-21 20:28:25.278000+00:00,train
328,-1.911354660987854,-2.0,2021-01-21 20:28:55.278000+00:00,train
329,-1.9064282178878784,-2.0,2021-01-21 20:29:25.278000+00:00,train
330,-1.9015889167785645,-2.0,2021-01-21 20:29:55.278000+00:00,train
331,-1.8968359231948853,-2.0,2021-01-21 20:30:25.278000+00:00,train
332,-1.8921687602996826,-2.0,2021-01-21 20:30:55.278000+00:00,train
333,-1.8875879049301147,-2.0,2021-01-21 20:31:25.278000+00:00,train
334,-1.883092999458313,-2.0,2021-01-21 20:31:55.278000+00:00,train
335,-1.8786838054656982,-2.0,2021-01-21 20:32:25.278000+00:00,train
336,-1.8743599653244019,-2.0,2021-01-21 20:32:55.278000+00:00,train
337,-1.8701214790344238,-2.0,2021-01-21 20:33:25.278000+00:00,train
338,-1.8659685850143433,-2.0,2021-01-21 20:33:55.278000+00:00,train
339,-1.861901044845581,-2.0,2021-01-21 20:34:25.278000+00:00,train
340,-1.857908844947815,-2.0,2021-01-21 20:34:55.278000+00:00,train
341,-1.854007601737976,-2.0,2021-01-21 20:35:25.278000+00:00,train
342,-1.8501920700073242,-2.0,2021-01-21 20:35:55.278000+00:00,train
343,-1.8464624881744385,-2.0,2021-01-21 20:36:25.278000+00:00,train
344,-1.8428187370300293,-2.0,2021-01-21 20:36:55.278000+00:00,train
345,-1.839261770248413,-2.0,2021-01-21 20:37:25.278000+00:00,train
346,-1.8357923030853271,-2.0,2021-01-21 20:37:55.278000+00:00,train
347,-1.8324103355407715,-2.0,2021-01-21 20:38:25.278000+00:00,train
348,-1.8291168212890625,-2.0,2021-01-21 20:38:55.278000+00:00,train
349,-1.8259118795394897,-2.0,2021-01-21 20:39:25.278000+00:00,train
350,-1.8227967023849487,-2.0,2021-01-21 20:39:55.278000+00:00,train
351,-1.8197721242904663,-2.0,2021-01-21 20:40:25.278000+00:00,train
352,-1.8168385028839111,-2.0,2021-01-21 20:40:55.278000+00:00,train
353,-1.8139967918395996,-2.0,2021-01-21 20:41:25.278000+00:00,train
354,-1.8112479448318481,-2.0,2021-01-21 20:41:55.278000+00:00,train
355,-1.8085930347442627,-2.0,2021-01-21 20:42:25.278000+00:00,train
356,-1.8060334920883179,-2.0,2021-01-21 20:42:55.278000+00:00,train
357,-1.803552269935608,-2.0,2021-01-21 20:43:25.278000+00:00,train
358,-1.8011760711669922,-2.0,2021-01-21 20:43:55.278000+00:00,train
359,-1.7988992929458618,-2.0,2021-01-21 20:44:25.278000+00:00,train
360,-1.7967227697372437,-2.0,2021-01-21 20:44:55.278000+00:00,train
361,-1.7946480512619019,-2.0,2021-01-21 20:45:25.278000+00:00,train
362,-1.7926775217056274,-2.0,2021-01-21 20:45:55.278000+00:00,train
363,-1.7908159494400024,-2.0,2021-01-21 20:46:25.278000+00:00,train
364,-1.7890621423721313,-2.0,2021-01-21 20:46:55.278000+00:00,train
365,-1.7874189615249634,-2.0,2021-01-21 20:47:25.278000+00:00,train
366,-1.7858893871307373,-2.0,2021-01-21 20:47:55.278000+00:00,train
367,-1.7844750881195068,-2.0,2021-01-21 20:48:25.278000+00:00,train
368,-1.783179759979248,-2.0,2021-01-21 20:48:55.278000+00:00,train
369,-1.7820066213607788,-2.0,2021-01-21 20:49:25.278000+00:00,train
370,-1.7809584140777588,-2.0,2021-01-21 20:49:55.278000+00:00,train
371,-1.7800387144088745,-2.0,2021-01-21 20:50:25.278000+00:00,train
372,-1.7792497873306274,-2.0,2021-01-21 20:50:55.278000+00:00,train
373,-1.7785956859588623,-2.0,2021-01-21 20:51:25.278000+00:00,train
374,-1.7780609130859375,-2.0,2021-01-21 20:51:55.278000+00:00,train
375,-1.7776817083358765,-2.0,2021-01-21 20:52:25.278000+00:00,train
376,-1.7774558067321777,-2.0,2021-01-21 20:52:55.278000+00:00,train
377,-1.7773874998092651,-2.0,2021-01-21 20:53:25.278000+00:00,train
378,-1.7774839401245117,-2.0,2021-01-21 20:53:55.278000+00:00,train
379,-1.7777525186538696,-2.0,2021-01-21 20:54:25.278000+00:00,train
380,-1.7782021760940552,-2.0,2021-01-21 20:54:55.278000+00:00,train
381,-1.7788416147232056,-2.0,2021-01-21 20:55:25.278000+00:00,train
382,-1.7796802520751953,-2.0,2021-01-21 20:55:55.278000+00:00,train
383,-1.7807300090789795,-2.0,2021-01-21 20:56:25.278000+00:00,train
384,-1.7820028066635132,-2.0,2021-01-21 20:56:55.278000+00:00,train
385,-1.783512830734253,-2.0,2021-01-21 20:57:25.278000+00:00,train
386,-1.785275936126709,-2.0,2021-01-21 20:57:55.278000+00:00,train
387,-1.7873095273971558,-2.0,2021-01-21 20:58:25.278000+00:00,train
388,-1.789633870124817,-2.0,2021-01-21 20:58:55.278000+00:00,train
389,-1.7922725677490234,-2.0,2021-01-21 20:59:25.278000+00:00,train
390,-1.7952529191970825,-2.0,2021-01-21 20:59:55.278000+00:00,train
391,-1.798587441444397,-2.0,2021-01-21 21:00:25.278000+00:00,train
392,-1.8023405075073242,0.0,2021-01-21 21:00:55.278000+00:00,train
393,-1.8065499067306519,-2.0,2021-01-21 21:01:25.278000+00:00,train
394,-1.8112695217132568,-2.0,2021-01-21 21:01:55.278000+00:00,train
395,-1.8165675401687622,-2.0,2021-01-21 21:02:25.278000+00:00,train
396,-1.8225287199020386,-2.0,2021-01-21 21:02:55.278000+00:00,train
397,-1.8292624950408936,-2.0,2021-01-21 21:03:25.278000+00:00,train
398,-1.8369139432907104,-2.0,2021-01-21 21:03:55.278000+00:00,train
399,-1.773850440979004,-2.0,2021-01-21 21:04:25.278000+00:00,train
400,-1.7802950143814087,-2.0,2021-01-21 21:04:55.278000+00:00,train
401,-1.7876397371292114,-2.0,2021-01-21 21:05:25.278000+00:00,train
402,-1.7959872484207153,-2.0,2021-01-21 21:05:55.278000+00:00,train
403,-1.805540919303894,-2.0,2021-01-21 21:06:25.278000+00:00,train
404,-1.816613793373108,-2.0,2021-01-21 21:06:55.278000+00:00,train
405,-1.8297017812728882,-2.0,2021-01-21 21:07:25.278000+00:00,train
406,-1.8299394845962524,-2.0,2021-01-21 21:07:55.278000+00:00,train
407,-1.8301759958267212,-2.0,2021-01-21 21:08:25.278000+00:00,train
408,-1.8304038047790527,-2.0,2021-01-21 21:08:55.278000+00:00,train
409,-1.8306330442428589,-2.0,2021-01-21 21:09:25.278000+00:00,train
410,-1.8308607339859009,-2.0,2021-01-21 21:09:55.278000+00:00,train
411,-1.8310863971710205,-2.0,2021-01-21 21:10:25.278000+00:00,train
412,-1.8313100337982178,-2.0,2021-01-21 21:10:55.278000+00:00,train
413,-1.8315321207046509,-2.0,2021-01-21 21:11:25.278000+00:00,train
414,-1.8317526578903198,-2.0,2021-01-21 21:11:55.278000+00:00,train
415,-1.8319717645645142,-2.0,2021-01-21 21:12:25.278000+00:00,train
416,-1.8321895599365234,-2.0,2021-01-21 21:12:55.278000+00:00,train
417,-1.832405924797058,-2.0,2021-01-21 21:13:25.278000+00:00,train
418,-1.8326208591461182,-2.0,2021-01-21 21:13:55.278000+00:00,train
419,-1.8328346014022827,-2.0,2021-01-21 21:14:25.278000+00:00,train
420,-1.8330472707748413,-2.0,2021-01-21 21:14:55.278000+00:00,train
421,-1.833258867263794,-2.0,2021-01-21 21:15:25.278000+00:00,train
422,-1.833469271659851,-2.0,2021-01-21 21:15:55.278000+00:00,train
423,-1.8336782455444336,-2.0,2021-01-21 21:16:25.278000+00:00,train
424,-1.8338860273361206,-2.0,2021-01-21 21:16:55.278000+00:00,train
425,-1.834092378616333,-2.0,2021-01-21 21:17:25.278000+00:00,train
426,-1.8342976570129395,-2.0,2021-01-21 21:17:55.278000+00:00,train
427,-1.8345015048980713,-2.0,2021-01-21 21:18:25.278000+00:00,train
428,-1.834703803062439,-2.0,2021-01-21 21:18:55.278000+00:00,train
429,-1.8349050283432007,-2.0,2021-01-21 21:19:25.278000+00:00,train
430,-1.8351047039031982,-2.0,2021-01-21 21:19:55.278000+00:00,train
431,-1.835303783416748,-2.0,2021-01-21 21:20:25.278000+00:00,train
432,-1.8355131149291992,-2.0,2021-01-21 21:20:55.278000+00:00,train
433,-1.8357200622558594,-2.0,2021-01-21 21:21:25.278000+00:00,train
434,-1.8359414339065552,-2.0,2021-01-21 21:21:55.278000+00:00,train
435,-1.8361598253250122,-2.0,2021-01-21 21:22:25.278000+00:00,train
436,-1.8363773822784424,-2.0,2021-01-21 21:22:55.278000+00:00,train
437,-1.8365949392318726,-2.0,2021-01-21 21:23:25.278000+00:00,train
438,-1.836811900138855,-2.0,2021-01-21 21:23:55.278000+00:00,train
439,-1.8370283842086792,-2.0,2021-01-21 21:24:25.278000+00:00,train
440,-1.8372441530227661,-2.0,2021-01-21 21:24:55.278000+00:00,train
441,-1.8374590873718262,-2.0,2021-01-21 21:25:25.278000+00:00,train
442,-1.8376729488372803,-2.0,2021-01-21 21:25:55.278000+00:00,train
443,-1.8378857374191284,-2.0,2021-01-21 21:26:25.278000+00:00,train
444,-1.8380975723266602,-2.0,2021-01-21 21:26:55.278000+00:00,train
445,-1.8382905721664429,-2.0,2021-01-21 21:27:25.278000+00:00,train
446,-1.8384864330291748,-2.0,2021-01-21 21:27:55.278000+00:00,train
447,-1.8386809825897217,-2.0,2021-01-21 21:28:25.278000+00:00,train
448,-1.8388739824295044,-2.0,2021-01-21 21:28:55.278000+00:00,train
449,-1.8390653133392334,-2.0,2021-01-21 21:29:25.278000+00:00,train
450,-1.8392550945281982,-2.0,2021-01-21 21:29:55.278000+00:00,train
451,-1.8394474983215332,-2.0,2021-01-21 21:30:25.278000+00:00,train
452,-1.8396384716033936,-2.0,2021-01-21 21:30:55.278000+00:00,train
453,-1.8398282527923584,-2.0,2021-01-21 21:31:25.278000+00:00,train
454,-1.8400166034698486,-2.0,2021-01-21 21:31:55.278000+00:00,train
455,-1.840203881263733,-2.0,2021-01-21 21:32:25.278000+00:00,train
456,-1.8403898477554321,-2.0,2021-01-21 21:32:55.278000+00:00,train
457,-1.8405749797821045,-2.0,2021-01-21 21:33:25.278000+00:00,train
458,-1.8407586812973022,-2.0,2021-01-21 21:33:55.278000+00:00,train
459,-1.8409411907196045,-2.0,2021-01-21 21:34:25.278000+00:00,train
460,-1.8411225080490112,-2.0,2021-01-21 21:34:55.278000+00:00,train
461,-1.841302514076233,-2.0,2021-01-21 21:35:25.278000+00:00,train
462,-1.8414815664291382,-2.0,2021-01-21 21:35:55.278000+00:00,train
463,-1.8416591882705688,-2.0,2021-01-21 21:36:25.278000+00:00,train
464,-1.841835618019104,-2.0,2021-01-21 21:36:55.278000+00:00,train
465,-1.8420106172561646,-2.0,2021-01-21 21:37:25.278000+00:00,train
466,-1.842184066772461,-2.0,2021-01-21 21:37:55.278000+00:00,train
467,-1.8423559665679932,-2.0,2021-01-21 21:38:25.278000+00:00,train
468,-1.8425215482711792,-2.0,2021-01-21 21:38:55.278000+00:00,train
469,-1.8426882028579712,-2.0,2021-01-21 21:39:25.278000+00:00,train
470,-1.842853307723999,-2.0,2021-01-21 21:39:55.278000+00:00,train
471,-1.8430166244506836,-2.0,2021-01-21 21:40:25.278000+00:00,train
472,-1.8431782722473145,-2.0,2021-01-21 21:40:55.278000+00:00,train
473,-1.8433380126953125,-2.0,2021-01-21 21:41:25.278000+00:00,train
474,-1.8434842824935913,-2.0,2021-01-21 21:41:55.278000+00:00,train
475,-1.8436287641525269,-2.0,2021-01-21 21:42:25.278000+00:00,train
476,-1.8437716960906982,-2.0,2021-01-21 21:42:55.278000+00:00,train
477,-1.843912959098816,-2.0,2021-01-21 21:43:25.278000+00:00,train
478,-1.844052791595459,-2.0,2021-01-21 21:43:55.278000+00:00,train
479,-1.8441911935806274,-2.0,2021-01-21 21:44:25.278000+00:00,train
480,-1.8443279266357422,-2.0,2021-01-21 21:44:55.278000+00:00,train
481,-1.8444631099700928,-2.0,2021-01-21 21:45:25.278000+00:00,train
482,-1.8445966243743896,-2.0,2021-01-21 21:45:55.278000+00:00,train
483,-1.8447285890579224,-2.0,2021-01-21 21:46:25.278000+00:00,train
484,-1.8448591232299805,-2.0,2021-01-21 21:46:55.278000+00:00,train
485,-1.8449881076812744,-2.0,2021-01-21 21:47:25.278000+00:00,train
486,-1.8451154232025146,-2.0,2021-01-21 21:47:55.278000+00:00,train
487,-1.8452411890029907,-2.0,2021-01-21 21:48:25.278000+00:00,train
488,-1.8453654050827026,-2.0,2021-01-21 21:48:55.278000+00:00,train
489,-1.8454878330230713,-2.0,2021-01-21 21:49:25.278000+00:00,train
490,-1.845602035522461,-2.0,2021-01-21 21:49:55.278000+00:00,train
491,-1.8457154035568237,-2.0,2021-01-21 21:50:25.278000+00:00,train
492,-1.845826268196106,-2.0,2021-01-21 21:50:55.278000+00:00,train
493,-1.8459340333938599,-2.0,2021-01-21 21:51:25.278000+00:00,train
494,-1.8460394144058228,-2.0,2021-01-21 21:51:55.278000+00:00,train
495,-1.8461424112319946,-2.0,2021-01-21 21:52:25.278000+00:00,train
496,-1.8462436199188232,-2.0,2021-01-21 21:52:55.278000+00:00,train
497,-1.8463425636291504,-2.0,2021-01-21 21:53:25.278000+00:00,train
498,-1.8464397192001343,-2.0,2021-01-21 21:53:55.278000+00:00,train
499,-1.8465354442596436,-2.0,2021-01-21 21:54:25.278000+00:00,train
500,-1.846633791923523,-2.0,2021-01-21 21:54:55.278000+00:00,train
501,-1.8467305898666382,-2.0,2021-01-21 21:55:25.278000+00:00,train
502,-1.8468254804611206,-2.0,2021-01-21 21:55:55.278000+00:00,train
503,-1.8469183444976807,-1.0,2021-01-21 21:56:25.278000+00:00,train
504,-1.8470094203948975,-2.0,2021-01-21 21:56:55.278000+00:00,train
505,-1.847098469734192,-2.0,2021-01-21 21:57:25.278000+00:00,train
506,-1.847185730934143,-2.0,2021-01-21 21:57:55.278000+00:00,train
507,-1.8472713232040405,-2.0,2021-01-21 21:58:25.278000+00:00,train
508,-1.8473550081253052,-2.0,2021-01-21 21:58:55.278000+00:00,train
509,-1.8474366664886475,-2.0,2021-01-21 21:59:25.278000+00:00,train
510,-1.8251374959945679,-1.0,2021-01-21 21:59:55.278000+00:00,train
511,-1.825222134590149,-1.0,2021-01-21 22:00:25.278000+00:00,train
512,-1.825303554534912,0.0,2021-01-21 22:00:55.278000+00:00,train
513,-1.825382947921753,-1.0,2021-01-21 22:01:25.278000+00:00,train
514,-1.8254585266113281,-1.0,2021-01-21 22:01:55.278000+00:00,train
515,-1.8255302906036377,-1.0,2021-01-21 22:02:25.278000+00:00,train
516,-1.8255997896194458,-1.0,2021-01-21 22:02:55.278000+00:00,train
517,-1.8050479888916016,-1.0,2021-01-21 22:03:25.278000+00:00,train
518,-1.7857980728149414,-1.0,2021-01-21 22:03:55.278000+00:00,train
519,-1.7278296947479248,-1.0,2021-01-21 22:04:25.278000+00:00,train
520,-1.7120640277862549,-1.0,2021-01-21 22:04:55.278000+00:00,train
521,-1.6968815326690674,-1.0,2021-01-21 22:05:25.278000+00:00,train
522,-1.6821714639663696,-1.0,2021-01-21 22:05:55.278000+00:00,train
523,-1.6678690910339355,-1.0,2021-01-21 22:06:25.278000+00:00,train
524,-1.6539301872253418,-1.0,2021-01-21 22:06:55.278000+00:00,train
525,-1.6403217315673828,-1.0,2021-01-21 22:07:25.278000+00:00,train
526,-1.6270158290863037,-1.0,2021-01-21 22:07:55.278000+00:00,train
527,-1.6139897108078003,-1.0,2021-01-21 22:08:25.278000+00:00,train
528,-1.601223349571228,-1.0,2021-01-21 22:08:55.278000+00:00,train
529,-1.5886995792388916,-1.0,2021-01-21 22:09:25.278000+00:00,train
530,-1.5764020681381226,-1.0,2021-01-21 22:09:55.278000+00:00,train
531,-1.5643157958984375,-1.0,2021-01-21 22:10:25.278000+00:00,train
532,-1.552427887916565,-1.0,2021-01-21 22:10:55.278000+00:00,train
533,-1.540729284286499,-1.0,2021-01-21 22:11:25.278000+00:00,train
534,-1.5292669534683228,-1.0,2021-01-21 22:11:55.278000+00:00,train
535,-1.5179774761199951,-1.0,2021-01-21 22:12:25.278000+00:00,train
536,-1.5068496465682983,-1.0,2021-01-21 22:12:55.278000+00:00,train
537,-1.4958769083023071,-1.0,2021-01-21 22:13:25.278000+00:00,train
538,-1.4850528240203857,-1.0,2021-01-21 22:13:55.278000+00:00,train
539,-1.4743716716766357,-1.0,2021-01-21 22:14:25.278000+00:00,train
540,-1.4638402462005615,-1.0,2021-01-21 22:14:55.278000+00:00,train
541,-1.4534419775009155,-1.0,2021-01-21 22:15:25.278000+00:00,train
542,-1.443178415298462,-1.0,2021-01-21 22:15:55.278000+00:00,train
543,-1.4330835342407227,-1.0,2021-01-21 22:16:25.278000+00:00,train
544,-1.423110008239746,-1.0,2021-01-21 22:16:55.278000+00:00,train
545,-1.4132577180862427,-1.0,2021-01-21 22:17:25.278000+00:00,train
546,-1.4035212993621826,-1.0,2021-01-21 22:17:55.278000+00:00,train
547,-1.3938950300216675,-1.0,2021-01-21 22:18:25.278000+00:00,train
548,-1.384372591972351,-1.0,2021-01-21 22:18:55.278000+00:00,train
549,-1.3749480247497559,-1.0,2021-01-21 22:19:25.278000+00:00,train
550,-1.3656166791915894,-1.0,2021-01-21 22:19:55.278000+00:00,train
551,-1.3564797639846802,-1.0,2021-01-21 22:20:25.278000+00:00,train
552,-1.347441554069519,-1.0,2021-01-21 22:20:55.278000+00:00,train
553,-1.3385013341903687,-1.0,2021-01-21 22:21:25.278000+00:00,train
554,-1.3296152353286743,-1.0,2021-01-21 22:21:55.278000+00:00,train
555,-1.320845127105713,-1.0,2021-01-21 22:22:25.278000+00:00,train
556,-1.312218189239502,-1.0,2021-01-21 22:22:55.278000+00:00,train
557,-1.3037995100021362,-1.0,2021-01-21 22:23:25.278000+00:00,train
558,-1.295601725578308,-1.0,2021-01-21 22:23:55.278000+00:00,train
559,-1.3150299787521362,-1.0,2021-01-21 22:24:25.278000+00:00,train
560,-1.3062443733215332,-1.0,2021-01-21 22:24:55.278000+00:00,train
561,-1.2976856231689453,-1.0,2021-01-21 22:25:25.278000+00:00,train
562,-1.289210319519043,-1.0,2021-01-21 22:25:55.278000+00:00,train
563,-1.2808151245117188,-1.0,2021-01-21 22:26:25.278000+00:00,train
564,-1.272497296333313,-1.0,2021-01-21 22:26:55.278000+00:00,train
565,-1.2642521858215332,-1.0,2021-01-21 22:27:25.278000+00:00,train
566,-1.2560733556747437,-1.0,2021-01-21 22:27:55.278000+00:00,train
567,-1.247950553894043,-1.0,2021-01-21 22:28:25.278000+00:00,train
568,-1.2400310039520264,-1.0,2021-01-21 22:28:55.278000+00:00,train
569,-1.2321867942810059,-1.0,2021-01-21 22:29:25.278000+00:00,train
570,-1.224418044090271,-1.0,2021-01-21 22:29:55.278000+00:00,train
571,-1.2167233228683472,-1.0,2021-01-21 22:30:25.278000+00:00,train
572,-1.2091032266616821,-1.0,2021-01-21 22:30:55.278000+00:00,train
573,-1.2015551328659058,-1.0,2021-01-21 22:31:25.278000+00:00,train
574,-1.194077730178833,-1.0,2021-01-21 22:31:55.278000+00:00,train
575,-1.1866707801818848,-1.0,2021-01-21 22:32:25.278000+00:00,train
576,-1.1793338060379028,-1.0,2021-01-21 22:32:55.278000+00:00,train
577,-1.1720466613769531,-1.0,2021-01-21 22:33:25.278000+00:00,train
578,-1.1648277044296265,-1.0,2021-01-21 22:33:55.278000+00:00,train
579,-1.157672643661499,-1.0,2021-01-21 22:34:25.278000+00:00,train
580,-1.150580883026123,-1.0,2021-01-21 22:34:55.278000+00:00,train
581,-1.143553376197815,-1.0,2021-01-21 22:35:25.278000+00:00,train
582,-1.136590600013733,-1.0,2021-01-21 22:35:55.278000+00:00,train
583,-1.1296932697296143,-1.0,2021-01-21 22:36:25.278000+00:00,train
584,-1.1228606700897217,-1.0,2021-01-21 22:36:55.278000+00:00,train
585,-1.1160931587219238,-1.0,2021-01-21 22:37:25.278000+00:00,train
586,-1.109390139579773,-1.0,2021-01-21 22:37:55.278000+00:00,train
587,-1.102753758430481,-1.0,2021-01-21 22:38:25.278000+00:00,train
588,-1.0961872339248657,-1.0,2021-01-21 22:38:55.278000+00:00,train
589,-1.0896971225738525,-1.0,2021-01-21 22:39:25.278000+00:00,train
590,-1.083294153213501,-1.0,2021-01-21 22:39:55.278000+00:00,train
591,-1.0769884586334229,-1.0,2021-01-21 22:40:25.278000+00:00,train
592,-1.0747326612472534,-1.0,2021-01-21 22:40:55.278000+00:00,train
593,-1.0684772729873657,-1.0,2021-01-21 22:41:25.278000+00:00,train
594,-1.0620992183685303,-1.0,2021-01-21 22:41:55.278000+00:00,train
595,-1.0557770729064941,-1.0,2021-01-21 22:42:25.278000+00:00,train
596,-1.049511194229126,-1.0,2021-01-21 22:42:55.278000+00:00,train
597,-1.0433011054992676,-1.0,2021-01-21 22:43:25.278000+00:00,train
598,-1.0371469259262085,-1.0,2021-01-21 22:43:55.278000+00:00,train
599,-1.0310477018356323,-1.0,2021-01-21 22:44:25.278000+00:00,train
600,-1.0250006914138794,-1.0,2021-01-21 22:44:55.278000+00:00,train
601,-1.0190014839172363,-1.0,2021-01-21 22:45:25.278000+00:00,train
602,-1.013046383857727,-1.0,2021-01-21 22:45:55.278000+00:00,train
603,-1.0071340799331665,-1.0,2021-01-21 22:46:25.278000+00:00,train
604,-1.0012626647949219,-1.0,2021-01-21 22:46:55.278000+00:00,train
605,-0.9956556558609009,-1.0,2021-01-21 22:47:25.278000+00:00,train
606,-0.9901086688041687,-1.0,2021-01-21 22:47:55.278000+00:00,train
607,-0.984622597694397,-1.0,2021-01-21 22:48:25.278000+00:00,train
608,-0.9791976809501648,-1.0,2021-01-21 22:48:55.278000+00:00,train
609,-0.9738348126411438,-1.0,2021-01-21 22:49:25.278000+00:00,train
610,-0.9685345888137817,-1.0,2021-01-21 22:49:55.278000+00:00,train
611,-0.9632964134216309,-1.0,2021-01-21 22:50:25.278000+00:00,train
612,-0.9581223130226135,-1.0,2021-01-21 22:50:55.278000+00:00,train
613,-0.9530123472213745,-1.0,2021-01-21 22:51:25.278000+00:00,train
614,-0.9479672908782959,-1.0,2021-01-21 22:51:55.278000+00:00,train
615,-0.9429880380630493,-1.0,2021-01-21 22:52:25.278000+00:00,train
616,-0.9380751848220825,-1.0,2021-01-21 22:52:55.278000+00:00,train
617,-0.9332293272018433,-1.0,2021-01-21 22:53:25.278000+00:00,train
618,-0.928135097026825,-1.0,2021-01-21 22:53:55.278000+00:00,train
619,-0.9234327673912048,-1.0,2021-01-21 22:54:25.278000+00:00,train
620,-0.9178746342658997,-1.0,2021-01-21 22:54:55.278000+00:00,train
621,-0.9115589261054993,-1.0,2021-01-21 22:55:25.278000+00:00,train
622,-0.9070961475372314,-1.0,2021-01-21 22:55:55.278000+00:00,train
623,-0.8998686075210571,-1.0,2021-01-21 22:56:25.278000+00:00,train
624,-0.8919268250465393,-1.0,2021-01-21 22:56:55.278000+00:00,train
625,-0.8877168893814087,-1.0,2021-01-21 22:57:25.278000+00:00,train
626,-0.8812785744667053,-1.0,2021-01-21 22:57:55.278000+00:00,train
627,-0.8837365508079529,-1.0,2021-01-21 22:58:25.278000+00:00,train
628,-0.9907594323158264,-1.0,2021-01-21 22:58:55.278000+00:00,train
629,-0.9858977794647217,-1.0,2021-01-21 22:59:25.278000+00:00,train
630,-0.9811065793037415,-1.0,2021-01-21 22:59:55.278000+00:00,train
631,-0.9763883948326111,-1.0,2021-01-21 23:00:25.278000+00:00,train
632,-0.9717453122138977,0.0,2021-01-21 23:00:55.278000+00:00,train
633,-0.9671787619590759,-1.0,2021-01-21 23:01:25.278000+00:00,train
634,-0.9626908302307129,-1.0,2021-01-21 23:01:55.278000+00:00,train
635,-0.9582849740982056,-1.0,2021-01-21 23:02:25.278000+00:00,train
636,-0.9539617896080017,-1.0,2021-01-21 23:02:55.278000+00:00,train
637,-0.949724018573761,-1.0,2021-01-21 23:03:25.278000+00:00,train
638,-0.9455747604370117,-1.0,2021-01-21 23:03:55.278000+00:00,train
639,-0.9290310740470886,-1.0,2021-01-21 23:04:25.278000+00:00,train
640,-0.9250158071517944,-1.0,2021-01-21 23:04:55.278000+00:00,train
641,-0.921105682849884,-1.0,2021-01-21 23:05:25.278000+00:00,train
642,-0.9172986745834351,-1.0,2021-01-21 23:05:55.278000+00:00,train
643,-0.9135972261428833,-1.0,2021-01-21 23:06:25.278000+00:00,train
644,-0.9100021719932556,-1.0,2021-01-21 23:06:55.278000+00:00,train
645,-0.9065151810646057,-1.0,2021-01-21 23:07:25.278000+00:00,train
646,-0.9032583236694336,-1.0,2021-01-21 23:07:55.278000+00:00,train
647,-0.9001081585884094,-1.0,2021-01-21 23:08:25.278000+00:00,train
648,-0.8970693349838257,-1.0,2021-01-21 23:08:55.278000+00:00,train
649,-0.8941445350646973,-1.0,2021-01-21 23:09:25.278000+00:00,train
650,-0.8914336562156677,-1.0,2021-01-21 23:09:55.278000+00:00,train
651,-0.8888529539108276,-1.0,2021-01-21 23:10:25.278000+00:00,train
652,-0.8864087462425232,-1.0,2021-01-21 23:10:55.278000+00:00,train
653,-0.8841078281402588,-1.0,2021-01-21 23:11:25.278000+00:00,train
654,-0.8819578886032104,-1.0,2021-01-21 23:11:55.278000+00:00,train
655,-0.8799677491188049,-1.0,2021-01-21 23:12:25.278000+00:00,train
656,-0.8781454563140869,-1.0,2021-01-21 23:12:55.278000+00:00,train
657,-0.8765015602111816,-1.0,2021-01-21 23:13:25.278000+00:00,train
658,-0.8750475645065308,-1.0,2021-01-21 23:13:55.278000+00:00,train
659,-0.8737964630126953,-1.0,2021-01-21 23:14:25.278000+00:00,train
660,-0.8727632164955139,-1.0,2021-01-21 23:14:55.278000+00:00,train
661,-0.8719651699066162,-1.0,2021-01-21 23:15:25.278000+00:00,train
662,-0.8714214563369751,-1.0,2021-01-21 23:15:55.278000+00:00,train
663,-0.8711551427841187,-1.0,2021-01-21 23:16:25.278000+00:00,train
664,-0.8711932301521301,-1.0,2021-01-21 23:16:55.278000+00:00,train
665,-0.8715682029724121,-1.0,2021-01-21 23:17:25.278000+00:00,train
666,-0.8723200559616089,-1.0,2021-01-21 23:17:55.278000+00:00,train
667,-0.8734959959983826,-1.0,2021-01-21 23:18:25.278000+00:00,train
668,-0.8751576542854309,-1.0,2021-01-21 23:18:55.278000+00:00,train
669,-0.877383291721344,-1.0,2021-01-21 23:19:25.278000+00:00,train
670,-0.877269983291626,-1.0,2021-01-21 23:19:55.278000+00:00,train
671,-0.8801609873771667,-1.0,2021-01-21 23:20:25.278000+00:00,train
672,-0.8838735818862915,-1.0,2021-01-21 23:20:55.278000+00:00,train
673,-0.8885990977287292,-1.0,2021-01-21 23:21:25.278000+00:00,train
674,-0.8946537375450134,-1.0,2021-01-21 23:21:55.278000+00:00,train
675,-0.9025734663009644,-1.0,2021-01-21 23:22:25.278000+00:00,train
676,-0.913419246673584,-1.0,2021-01-21 23:22:55.278000+00:00,train
677,-0.913381040096283,-1.0,2021-01-21 23:23:25.278000+00:00,train
678,-0.9133557677268982,-1.0,2021-01-21 23:23:55.278000+00:00,train
679,-0.9411079287528992,-1.0,2021-01-21 23:24:25.278000+00:00,train
680,-0.941027820110321,-1.0,2021-01-21 23:24:55.278000+00:00,train
681,-0.9409956932067871,-1.0,2021-01-21 23:25:25.278000+00:00,train
682,-0.940963625907898,-1.0,2021-01-21 23:25:55.278000+00:00,train
683,-0.9409316182136536,-1.0,2021-01-21 23:26:25.278000+00:00,train
684,-0.9408997297286987,-1.0,2021-01-21 23:26:55.278000+00:00,train
685,-0.9408677816390991,-1.0,2021-01-21 23:27:25.278000+00:00,train
686,-0.9408359527587891,-1.0,2021-01-21 23:27:55.278000+00:00,train
687,-0.9408042430877686,-1.0,2021-01-21 23:28:25.278000+00:00,train
688,-0.940772533416748,-1.0,2021-01-21 23:28:55.278000+00:00,train
689,-0.9407408833503723,-1.0,2021-01-21 23:29:25.278000+00:00,train
690,-0.9407094120979309,-1.0,2021-01-21 23:29:55.278000+00:00,train
691,-0.9406779408454895,-1.0,2021-01-21 23:30:25.278000+00:00,train
692,-0.9406465291976929,-1.0,2021-01-21 23:30:55.278000+00:00,train
693,-0.9406144022941589,-1.0,2021-01-21 23:31:25.278000+00:00,train
694,-0.9405867457389832,-1.0,2021-01-21 23:31:55.278000+00:00,train
695,-0.9405596256256104,-1.0,2021-01-21 23:32:25.278000+00:00,train
696,-0.9405328631401062,-1.0,2021-01-21 23:32:55.278000+00:00,train
697,-0.9405064582824707,-1.0,2021-01-21 23:33:25.278000+00:00,train
698,-0.9404804706573486,-1.0,2021-01-21 23:33:55.278000+00:00,train
699,-0.9404577612876892,-1.0,2021-01-21 23:34:25.278000+00:00,train
700,-0.9404027462005615,-1.0,2021-01-21 23:34:55.278000+00:00,train
701,-0.9403481483459473,-1.0,2021-01-21 23:35:25.278000+00:00,train
702,-0.9402955770492554,-1.0,2021-01-21 23:35:55.278000+00:00,train
703,-0.9402211308479309,-1.0,2021-01-21 23:36:25.278000+00:00,train
704,-0.9401466250419617,-1.0,2021-01-21 23:36:55.278000+00:00,train
705,-0.9400720596313477,-1.0,2021-01-21 23:37:25.278000+00:00,train
706,-0.9399976134300232,-1.0,2021-01-21 23:37:55.278000+00:00,train
707,-0.939923107624054,-1.0,2021-01-21 23:38:25.278000+00:00,train
708,-0.9398484826087952,-1.0,2021-01-21 23:38:55.278000+00:00,train
709,-0.939773678779602,-1.0,2021-01-21 23:39:25.278000+00:00,train
710,-0.9396987557411194,-1.0,2021-01-21 23:39:55.278000+00:00,train
711,-0.9396237134933472,-1.0,2021-01-21 23:40:25.278000+00:00,train
712,-0.9395484924316406,-1.0,2021-01-21 23:40:55.278000+00:00,train
713,-0.939471423625946,-1.0,2021-01-21 23:41:25.278000+00:00,train
714,-0.9394164681434631,-1.0,2021-01-21 23:41:55.278000+00:00,train
715,-0.9393614530563354,-1.0,2021-01-21 23:42:25.278000+00:00,train
716,-0.9393064379692078,-1.0,2021-01-21 23:42:55.278000+00:00,train
717,-0.9392514824867249,-1.0,2021-01-21 23:43:25.278000+00:00,train
718,-0.9391967058181763,-1.0,2021-01-21 23:43:55.278000+00:00,train
719,-0.9391419887542725,-1.0,2021-01-21 23:44:25.278000+00:00,train
720,-0.9390871524810791,-1.0,2021-01-21 23:44:55.278000+00:00,train
721,-0.9390323758125305,-1.0,2021-01-21 23:45:25.278000+00:00,train
722,-0.9389775991439819,-1.0,2021-01-21 23:45:55.278000+00:00,train
723,-0.9389157295227051,-1.0,2021-01-21 23:46:25.278000+00:00,train
724,-0.9388542175292969,-1.0,2021-01-21 23:46:55.278000+00:00,train
725,-0.9387931227684021,-1.0,2021-01-21 23:47:25.278000+00:00,train
726,-0.9387321472167969,-1.0,2021-01-21 23:47:55.278000+00:00,train
727,-0.938671350479126,-1.0,2021-01-21 23:48:25.278000+00:00,train
728,-0.9386106133460999,-1.0,2021-01-21 23:48:55.278000+00:00,train
729,-0.9385501146316528,-1.0,2021-01-21 23:49:25.278000+00:00,train
730,-0.938489556312561,-1.0,2021-01-21 23:49:55.278000+00:00,train
731,-0.938429057598114,-1.0,2021-01-21 23:50:25.278000+00:00,train
732,-0.9383684992790222,-1.0,2021-01-21 23:50:55.278000+00:00,train
733,-0.9383079409599304,-1.0,2021-01-21 23:51:25.278000+00:00,train
734,-0.9382473826408386,-1.0,2021-01-21 23:51:55.278000+00:00,train
735,-0.9381868243217468,-1.0,2021-01-21 23:52:25.278000+00:00,train
736,-0.9381244778633118,-1.0,2021-01-21 23:52:55.278000+00:00,train
737,-0.9380799531936646,-1.0,2021-01-21 23:53:25.278000+00:00,train
738,-0.9380354881286621,-1.0,2021-01-21 23:53:55.278000+00:00,train
739,-0.9379910826683044,-1.0,2021-01-21 23:54:25.278000+00:00,train
740,-0.9379467368125916,-1.0,2021-01-21 23:54:55.278000+00:00,train
741,-0.9379026293754578,-1.0,2021-01-21 23:55:25.278000+00:00,train
742,-0.9378586411476135,-1.0,2021-01-21 23:55:55.278000+00:00,train
743,-0.9378145337104797,-1.0,2021-01-21 23:56:25.278000+00:00,train
744,-0.9377705454826355,-1.0,2021-01-21 23:56:55.278000+00:00,train
745,-0.937726616859436,-1.0,2021-01-21 23:57:25.278000+00:00,train
746,-0.9377005100250244,-1.0,2021-01-21 23:57:55.278000+00:00,train
747,-0.9376736283302307,-1.0,2021-01-21 23:58:25.278000+00:00,train
748,-0.9376460313796997,-1.0,2021-01-21 23:58:55.278000+00:00,train
749,-0.9376180768013,-1.0,2021-01-21 23:59:25.278000+00:00,train
750,-0.9375899434089661,-1.0,2021-01-21 23:59:55.278000+00:00,train
751,-0.9375618100166321,-1.0,2021-01-22 00:00:25.278000+00:00,train
752,-0.9375337362289429,-1.0,2021-01-22 00:00:55.278000+00:00,train
753,-0.9375056624412537,-1.0,2021-01-22 00:01:25.278000+00:00,train
754,-0.9374775290489197,-1.0,2021-01-22 00:01:55.278000+00:00,train
755,-0.9374496340751648,-1.0,2021-01-22 00:02:25.278000+00:00,train
756,-0.9374218583106995,-1.0,2021-01-22 00:02:55.278000+00:00,train
757,-0.9373941421508789,-1.0,2021-01-22 00:03:25.278000+00:00,train
758,-0.9373664259910583,-1.0,2021-01-22 00:03:55.278000+00:00,train
759,-0.9373380541801453,-1.0,2021-01-22 00:04:25.278000+00:00,train
760,-0.9373226165771484,-1.0,2021-01-22 00:04:55.278000+00:00,train
761,-0.9373074173927307,-1.0,2021-01-22 00:05:25.278000+00:00,train
762,-0.937292218208313,-1.0,2021-01-22 00:05:55.278000+00:00,train
763,-0.93727707862854,-1.0,2021-01-22 00:06:25.278000+00:00,train
764,-0.9372619986534119,-1.0,2021-01-22 00:06:55.278000+00:00,train
765,-0.9372470378875732,-1.0,2021-01-22 00:07:25.278000+00:00,train
766,-0.9372321367263794,-1.0,2021-01-22 00:07:55.278000+00:00,train
767,-0.9372171759605408,-1.0,2021-01-22 00:08:25.278000+00:00,train
768,-0.9372023940086365,-1.0,2021-01-22 00:08:55.278000+00:00,train
769,-0.9371875524520874,-1.0,2021-01-22 00:09:25.278000+00:00,train
770,-0.9371728897094727,-1.0,2021-01-22 00:09:55.278000+00:00,train
771,-0.9371581673622131,-1.0,2021-01-22 00:10:25.278000+00:00,train
772,-0.9371436238288879,-1.0,2021-01-22 00:10:55.278000+00:00,train
773,-0.937129020690918,-1.0,2021-01-22 00:11:25.278000+00:00,train
774,-0.9371145367622375,-1.0,2021-01-22 00:11:55.278000+00:00,train
775,-0.9371001720428467,-1.0,2021-01-22 00:12:25.278000+00:00,train
776,-0.937085747718811,-1.0,2021-01-22 00:12:55.278000+00:00,train
777,-0.9370713829994202,-1.0,2021-01-22 00:13:25.278000+00:00,train
778,-0.9370489120483398,-1.0,2021-01-22 00:13:55.278000+00:00,train
779,-0.9370266199111938,-1.0,2021-01-22 00:14:25.278000+00:00,train
780,-0.9370048642158508,-1.0,2021-01-22 00:14:55.278000+00:00,train
781,-0.9369833469390869,-1.0,2021-01-22 00:15:25.278000+00:00,train
782,-0.9369616508483887,-1.0,2021-01-22 00:15:55.278000+00:00,train
783,-0.9369497299194336,-1.0,2021-01-22 00:16:25.278000+00:00,train
784,-0.9369379878044128,-1.0,2021-01-22 00:16:55.278000+00:00,train
785,-0.9369263052940369,-1.0,2021-01-22 00:17:25.278000+00:00,train
786,-0.9369145631790161,-1.0,2021-01-22 00:17:55.278000+00:00,train
787,-0.9369029402732849,-1.0,2021-01-22 00:18:25.278000+00:00,train
788,-0.9368914365768433,-1.0,2021-01-22 00:18:55.278000+00:00,train
789,-0.9368798136711121,-1.0,2021-01-22 00:19:25.278000+00:00,train
790,-0.9368682503700256,-1.0,2021-01-22 00:19:55.278000+00:00,train
791,-0.9368566274642944,-1.0,2021-01-22 00:20:25.278000+00:00,train
792,-0.9368450045585632,-1.0,2021-01-22 00:20:55.278000+00:00,train
793,-0.9368333220481873,-1.0,2021-01-22 00:21:25.278000+00:00,train
794,-0.936821460723877,-1.0,2021-01-22 00:21:55.278000+00:00,train
795,-0.9368095397949219,-1.0,2021-01-22 00:22:25.278000+00:00,train
796,-0.9367979764938354,-1.0,2021-01-22 00:22:55.278000+00:00,train
797,-0.9367877840995789,-1.0,2021-01-22 00:23:25.278000+00:00,train
798,-0.9367833733558655,-1.0,2021-01-22 00:23:55.278000+00:00,train
799,-1.0,-1.0,2021-01-22 00:24:25.278000+00:00,train
800,-1.0,-1.0,2021-01-22 00:24:55.278000+00:00,train
801,-1.0,-1.0,2021-01-22 00:25:25.278000+00:00,train
802,-1.0,-1.0,2021-01-22 00:25:55.278000+00:00,train
803,-1.0,-1.0,2021-01-22 00:26:25.278000+00:00,train
804,-1.0,-1.0,2021-01-22 00:26:55.278000+00:00,train
805,-1.0,-1.0,2021-01-22 00:27:25.278000+00:00,train
806,-1.0,-1.0,2021-01-22 00:27:55.278000+00:00,train
807,-1.0,-1.0,2021-01-22 00:28:25.278000+00:00,train
808,-1.0,-1.0,2021-01-22 00:28:55.278000+00:00,train
809,-1.0,-1.0,2021-01-22 00:29:25.278000+00:00,train
810,-1.0,-1.0,2021-01-22 00:29:55.278000+00:00,train
811,-1.0,-1.0,2021-01-22 00:30:25.278000+00:00,train
812,-1.0,-1.0,2021-01-22 00:30:55.278000+00:00,train
813,-1.0,-1.0,2021-01-22 00:31:25.278000+00:00,train
814,-1.0,-1.0,2021-01-22 00:31:55.278000+00:00,train
815,-1.0,-1.0,2021-01-22 00:32:25.278000+00:00,train
816,-1.0,-1.0,2021-01-22 00:32:55.278000+00:00,train
817,-1.0,-1.0,2021-01-22 00:33:25.278000+00:00,train
818,-1.0,-1.0,2021-01-22 00:33:55.278000+00:00,train
819,-1.0,-1.0,2021-01-22 00:34:25.278000+00:00,train
820,-1.0,-1.0,2021-01-22 00:34:55.278000+00:00,train
821,-1.0,-1.0,2021-01-22 00:35:25.278000+00:00,train
822,-1.0,-1.0,2021-01-22 00:35:55.278000+00:00,train
823,-1.0,-1.0,2021-01-22 00:36:25.278000+00:00,train
824,-1.0,-1.0,2021-01-22 00:36:55.278000+00:00,train
825,-1.0,-1.0,2021-01-22 00:37:25.278000+00:00,train
826,-1.0,-1.0,2021-01-22 00:37:55.278000+00:00,train
827,-1.0,-1.0,2021-01-22 00:38:25.278000+00:00,train
828,-1.0,-1.0,2021-01-22 00:38:55.278000+00:00,train
829,-1.0,-1.0,2021-01-22 00:39:25.278000+00:00,train
830,-1.0,-1.0,2021-01-22 00:39:55.278000+00:00,train
831,-1.0,-1.0,2021-01-22 00:40:25.278000+00:00,train
832,-1.0,-1.0,2021-01-22 00:40:55.278000+00:00,train
833,-1.0,-1.0,2021-01-22 00:41:25.278000+00:00,train
834,-1.0,-1.0,2021-01-22 00:41:55.278000+00:00,train
835,-1.0,-1.0,2021-01-22 00:42:25.278000+00:00,train
836,-1.0,-1.0,2021-01-22 00:42:55.278000+00:00,train
837,-1.0,-1.0,2021-01-22 00:43:25.278000+00:00,train
838,-1.0,-1.0,2021-01-22 00:43:55.278000+00:00,train
839,-1.0,-1.0,2021-01-22 00:44:25.278000+00:00,train
840,-1.0,-1.0,2021-01-22 00:44:55.278000+00:00,train
841,-1.0,-1.0,2021-01-22 00:45:25.278000+00:00,train
842,-1.0,-1.0,2021-01-22 00:45:55.278000+00:00,train
843,-1.0,-1.0,2021-01-22 00:46:25.278000+00:00,train
844,-1.0,-1.0,2021-01-22 00:46:55.278000+00:00,train
845,-1.0,-1.0,2021-01-22 00:47:25.278000+00:00,train
846,-1.0,-1.0,2021-01-22 00:47:55.278000+00:00,train
847,-1.0,-1.0,2021-01-22 00:48:25.278000+00:00,train
848,-1.0,-1.0,2021-01-22 00:48:55.278000+00:00,train
849,-1.0,-1.0,2021-01-22 00:49:25.278000+00:00,train
850,-1.0,-1.0,2021-01-22 00:49:55.278000+00:00,train
851,-1.0,-1.0,2021-01-22 00:50:25.278000+00:00,train
852,-1.0,-1.0,2021-01-22 00:50:55.278000+00:00,train
853,-1.0,-1.0,2021-01-22 00:51:25.278000+00:00,train
854,-1.0,-1.0,2021-01-22 00:51:55.278000+00:00,train
855,-1.0,-1.0,2021-01-22 00:52:25.278000+00:00,train
856,-1.0,-1.0,2021-01-22 00:52:55.278000+00:00,train
857,-1.0,-1.0,2021-01-22 00:53:25.278000+00:00,train
858,-1.0,-1.0,2021-01-22 00:53:55.278000+00:00,train
859,-1.0,-1.0,2021-01-22 00:54:25.278000+00:00,train
860,-1.0,-1.0,2021-01-22 00:54:55.278000+00:00,train
861,-1.0,-1.0,2021-01-22 00:55:25.278000+00:00,train
862,-1.0,-1.0,2021-01-22 00:55:55.278000+00:00,train
863,-1.0,-1.0,2021-01-22 00:56:25.278000+00:00,train
864,-1.0,-1.0,2021-01-22 00:56:55.278000+00:00,train
865,-1.0,-1.0,2021-01-22 00:57:25.278000+00:00,train
866,-1.0,-1.0,2021-01-22 00:57:55.278000+00:00,train
867,-1.0,-1.0,2021-01-22 00:58:25.278000+00:00,train
868,-1.0,-1.0,2021-01-22 00:58:55.278000+00:00,train
869,-1.0,-1.0,2021-01-22 00:59:25.278000+00:00,train
870,-1.0,-1.0,2021-01-22 00:59:55.278000+00:00,train
871,-1.0,-1.0,2021-01-22 01:00:25.278000+00:00,train
872,-1.0,-1.0,2021-01-22 01:00:55.278000+00:00,train
873,-1.0,-1.0,2021-01-22 01:01:25.278000+00:00,train
874,-1.0,-1.0,2021-01-22 01:01:55.278000+00:00,train
875,-1.0,-1.0,2021-01-22 01:02:25.278000+00:00,train
876,-1.0,-1.0,2021-01-22 01:02:55.278000+00:00,train
877,-1.0,-1.0,2021-01-22 01:03:25.278000+00:00,train
878,-1.0,-1.0,2021-01-22 01:03:55.278000+00:00,train
879,-1.0,-1.0,2021-01-22 01:04:25.278000+00:00,train
880,-1.0,-1.0,2021-01-22 01:04:55.278000+00:00,train
881,-1.0,-1.0,2021-01-22 01:05:25.278000+00:00,train
882,-1.0,-1.0,2021-01-22 01:05:55.278000+00:00,train
883,-1.0,-1.0,2021-01-22 01:06:25.278000+00:00,train
884,-1.0,-1.0,2021-01-22 01:06:55.278000+00:00,train
885,-1.0,-1.0,2021-01-22 01:07:25.278000+00:00,train
886,-1.0,-1.0,2021-01-22 01:07:55.278000+00:00,train
887,-1.0,-1.0,2021-01-22 01:08:25.278000+00:00,train
888,-1.0,-1.0,2021-01-22 01:08:55.278000+00:00,train
889,-1.0,-1.0,2021-01-22 01:09:25.278000+00:00,train
890,-1.0,-1.0,2021-01-22 01:09:55.278000+00:00,train
891,-1.0,-1.0,2021-01-22 01:10:25.278000+00:00,train
892,-1.0,-1.0,2021-01-22 01:10:55.278000+00:00,train
893,-1.0,-1.0,2021-01-22 01:11:25.278000+00:00,train
894,-1.0,-1.0,2021-01-22 01:11:55.278000+00:00,train
895,-1.0,-1.0,2021-01-22 01:12:25.278000+00:00,train
896,-1.0,-1.0,2021-01-22 01:12:55.278000+00:00,train
897,-1.0,-1.0,2021-01-22 01:13:25.278000+00:00,train
898,-1.0,-1.0,2021-01-22 01:13:55.278000+00:00,train
899,-1.0,-1.0,2021-01-22 01:14:25.278000+00:00,train
900,-1.0,-1.0,2021-01-22 01:14:55.278000+00:00,train
901,-1.0,-1.0,2021-01-22 01:15:25.278000+00:00,train
902,-1.0,-1.0,2021-01-22 01:15:55.278000+00:00,train
903,-1.0,-1.0,2021-01-22 01:16:25.278000+00:00,train
904,-1.0,-1.0,2021-01-22 01:16:55.278000+00:00,train
905,-1.0,-1.0,2021-01-22 01:17:25.278000+00:00,train
906,-1.0,-1.0,2021-01-22 01:17:55.278000+00:00,train
907,-1.0,-1.0,2021-01-22 01:18:25.278000+00:00,train
908,-1.0,-1.0,2021-01-22 01:18:55.278000+00:00,train
909,-1.0,-1.0,2021-01-22 01:19:25.278000+00:00,train
910,-1.0,-1.0,2021-01-22 01:19:55.278000+00:00,train
911,-1.0,-1.0,2021-01-22 01:20:25.278000+00:00,train
912,-1.0,-1.0,2021-01-22 01:20:55.278000+00:00,train
913,-1.0,-1.0,2021-01-22 01:21:25.278000+00:00,train
914,-1.0,-1.0,2021-01-22 01:21:55.278000+00:00,train
915,-1.0,-1.0,2021-01-22 01:22:25.278000+00:00,train
916,-1.0,-1.0,2021-01-22 01:22:55.278000+00:00,train
917,-1.0,-1.0,2021-01-22 01:23:25.278000+00:00,train
918,-1.0,-1.0,2021-01-22 01:23:55.278000+00:00,train
919,-1.0,-1.0,2021-01-22 01:24:25.278000+00:00,train
920,-1.0,-1.0,2021-01-22 01:24:55.278000+00:00,train
921,-1.0,-1.0,2021-01-22 01:25:25.278000+00:00,train
922,-1.0,-1.0,2021-01-22 01:25:55.278000+00:00,train
923,-1.0,-1.0,2021-01-22 01:26:25.278000+00:00,train
924,-1.0,-1.0,2021-01-22 01:26:55.278000+00:00,train
925,-1.0,-1.0,2021-01-22 01:27:25.278000+00:00,train
926,-1.0,-1.0,2021-01-22 01:27:55.278000+00:00,train
927,-1.0,-1.0,2021-01-22 01:28:25.278000+00:00,train
928,-1.0,-1.0,2021-01-22 01:28:55.278000+00:00,train
929,-1.0,-1.0,2021-01-22 01:29:25.278000+00:00,train
930,-1.0,-1.0,2021-01-22 01:29:55.278000+00:00,train
931,-1.0,-1.0,2021-01-22 01:30:25.278000+00:00,train
932,-1.0,-1.0,2021-01-22 01:30:55.278000+00:00,train
933,-1.0,-1.0,2021-01-22 01:31:25.278000+00:00,train
934,-1.0,-1.0,2021-01-22 01:31:55.278000+00:00,train
935,-1.0,-1.0,2021-01-22 01:32:25.278000+00:00,train
936,-1.0,0.0,2021-01-22 01:32:55.278000+00:00,train
937,-1.0,0.0,2021-01-22 01:33:25.278000+00:00,train
938,-1.0,0.0,2021-01-22 01:33:55.278000+00:00,train
939,-1.0,0.0,2021-01-22 01:34:25.278000+00:00,train
940,-1.0,0.0,2021-01-22 01:34:55.278000+00:00,train
941,-1.0,0.0,2021-01-22 01:35:25.278000+00:00,train
942,-1.0,0.0,2021-01-22 01:35:55.278000+00:00,train
943,-0.9343214631080627,0.0,2021-01-22 01:36:25.278000+00:00,train
944,-0.9036840200424194,0.0,2021-01-22 01:36:55.278000+00:00,train
945,-0.8788842558860779,0.0,2021-01-22 01:37:25.278000+00:00,train
946,-0.8571352958679199,-1.0,2021-01-22 01:37:55.278000+00:00,train
947,-0.8373539447784424,0.0,2021-01-22 01:38:25.278000+00:00,train
948,-0.8189834356307983,0.0,2021-01-22 01:38:55.278000+00:00,train
949,-0.801692008972168,0.0,2021-01-22 01:39:25.278000+00:00,train
950,-0.785262942314148,0.0,2021-01-22 01:39:55.278000+00:00,train
951,-0.7695452570915222,0.0,2021-01-22 01:40:25.278000+00:00,train
952,-0.7544288039207458,0.0,2021-01-22 01:40:55.278000+00:00,train
953,-0.7544349431991577,0.0,2021-01-22 01:41:25.278000+00:00,train
954,-0.739810049533844,0.0,2021-01-22 01:41:55.278000+00:00,train
955,-0.7256368398666382,0.0,2021-01-22 01:42:25.278000+00:00,train
956,-0.711864173412323,0.0,2021-01-22 01:42:55.278000+00:00,train
957,-0.6984498500823975,0.0,2021-01-22 01:43:25.278000+00:00,train
958,-0.6853588819503784,0.0,2021-01-22 01:43:55.278000+00:00,train
959,-0.6725620627403259,0.0,2021-01-22 01:44:25.278000+00:00,train
960,-0.6600354313850403,0.0,2021-01-22 01:44:55.278000+00:00,train
961,-0.644504189491272,0.0,2021-01-22 01:45:25.278000+00:00,train
962,-0.6324107646942139,0.0,2021-01-22 01:45:55.278000+00:00,train
963,-0.6205371022224426,0.0,2021-01-22 01:46:25.278000+00:00,train
964,-0.6088690161705017,0.0,2021-01-22 01:46:55.278000+00:00,train
965,-0.5973934531211853,0.0,2021-01-22 01:47:25.278000+00:00,train
966,-0.5861249566078186,0.0,2021-01-22 01:47:55.278000+00:00,train
967,-0.5750287771224976,0.0,2021-01-22 01:48:25.278000+00:00,train
968,-0.5640963912010193,0.0,2021-01-22 01:48:55.278000+00:00,train
969,-0.5533198118209839,0.0,2021-01-22 01:49:25.278000+00:00,train
970,-0.5426918268203735,0.0,2021-01-22 01:49:55.278000+00:00,train
971,-0.5322062373161316,0.0,2021-01-22 01:50:25.278000+00:00,train
972,-0.5218560695648193,0.0,2021-01-22 01:50:55.278000+00:00,train
973,-0.5116362571716309,0.0,2021-01-22 01:51:25.278000+00:00,train
974,-0.5015418529510498,0.0,2021-01-22 01:51:55.278000+00:00,train
975,-0.4915681779384613,0.0,2021-01-22 01:52:25.278000+00:00,train
976,-0.4817110002040863,0.0,2021-01-22 01:52:55.278000+00:00,train
977,-0.4719668924808502,0.0,2021-01-22 01:53:25.278000+00:00,train
978,-0.4623311460018158,0.0,2021-01-22 01:53:55.278000+00:00,train
979,-0.45280101895332336,0.0,2021-01-22 01:54:25.278000+00:00,train
980,-0.4433733820915222,0.0,2021-01-22 01:54:55.278000+00:00,train
981,-0.4340452551841736,0.0,2021-01-22 01:55:25.278000+00:00,train
982,-0.42481446266174316,0.0,2021-01-22 01:55:55.278000+00:00,train
983,-0.41567784547805786,0.0,2021-01-22 01:56:25.278000+00:00,train
984,-0.4066329300403595,0.0,2021-01-22 01:56:55.278000+00:00,train
985,-0.3976777195930481,0.0,2021-01-22 01:57:25.278000+00:00,train
986,-0.38881024718284607,0.0,2021-01-22 01:57:55.278000+00:00,train
987,-0.3799949884414673,0.0,2021-01-22 01:58:25.278000+00:00,train
988,-0.3712644577026367,0.0,2021-01-22 01:58:55.278000+00:00,train
989,-0.3626169264316559,0.0,2021-01-22 01:59:25.278000+00:00,train
990,-0.354050874710083,0.0,2021-01-22 01:59:55.278000+00:00,train
991,-0.3455645740032196,0.0,2021-01-22 02:00:25.278000+00:00,train
992,-0.3371567130088806,0.0,2021-01-22 02:00:55.278000+00:00,train
993,-0.328825980424881,0.0,2021-01-22 02:01:25.278000+00:00,train
994,-0.3205711245536804,0.0,2021-01-22 02:01:55.278000+00:00,train
995,-0.312411904335022,0.0,2021-01-22 02:02:25.278000+00:00,train
996,-0.3043256402015686,0.0,2021-01-22 02:02:55.278000+00:00,train
997,-0.2963111698627472,0.0,2021-01-22 02:03:25.278000+00:00,train
998,-0.28836768865585327,0.0,2021-01-22 02:03:55.278000+00:00,train
999,-0.28049468994140625,0.0,2021-01-22 02:04:25.278000+00:00,train
1000,-0.27269527316093445,0.0,2021-01-22 02:04:55.278000+00:00,train
1001,-0.26486074924468994,0.0,2021-01-22 02:05:25.278000+00:00,train
1002,-0.2570958733558655,0.0,2021-01-22 02:05:55.278000+00:00,train
1003,-0.24940073490142822,0.0,2021-01-22 02:06:25.278000+00:00,train
1004,-0.24177493155002594,0.0,2021-01-22 02:06:55.278000+00:00,train
1005,-0.2342187911272049,0.0,2021-01-22 02:07:25.278000+00:00,train
1006,-0.2267320454120636,0.0,2021-01-22 02:07:55.278000+00:00,train
1007,-0.2193155139684677,0.0,2021-01-22 02:08:25.278000+00:00,train
1008,-0.21196924149990082,0.0,2021-01-22 02:08:55.278000+00:00,train
1009,-0.2046932578086853,0.0,2021-01-22 02:09:25.278000+00:00,train
1010,-0.19758081436157227,0.0,2021-01-22 02:09:55.278000+00:00,train
1011,-0.19053754210472107,0.0,2021-01-22 02:10:25.278000+00:00,train
1012,-0.1835639923810959,0.0,2021-01-22 02:10:55.278000+00:00,train
1013,-0.17666326463222504,0.0,2021-01-22 02:11:25.278000+00:00,train
1014,-0.16983658075332642,0.0,2021-01-22 02:11:55.278000+00:00,train
1015,-0.1630849540233612,0.0,2021-01-22 02:12:25.278000+00:00,train
1016,-0.156410351395607,0.0,2021-01-22 02:12:55.278000+00:00,train
1017,-0.14981438219547272,0.0,2021-01-22 02:13:25.278000+00:00,train
1018,-0.14329800009727478,0.0,2021-01-22 02:13:55.278000+00:00,train
1019,-0.13686251640319824,0.0,2021-01-22 02:14:25.278000+00:00,train
1020,-0.13050444424152374,0.0,2021-01-22 02:14:55.278000+00:00,train
1021,-0.1242692768573761,0.0,2021-01-22 02:15:25.278000+00:00,train
1022,-0.11811282485723495,0.0,2021-01-22 02:15:55.278000+00:00,train
1023,-0.11202865839004517,0.0,2021-01-22 02:16:25.278000+00:00,train
1024,-0.10601150244474411,0.0,2021-01-22 02:16:55.278000+00:00,train
1025,-0.1000528484582901,0.0,2021-01-22 02:17:25.278000+00:00,train
1026,-0.09414223581552505,0.0,2021-01-22 02:17:55.278000+00:00,train
1027,-0.0882650837302208,0.0,2021-01-22 02:18:25.278000+00:00,train
1028,-0.08240324258804321,0.0,2021-01-22 02:18:55.278000+00:00,train
1029,-0.07528916001319885,0.0,2021-01-22 02:19:25.278000+00:00,train
1030,-0.06919293105602264,0.0,2021-01-22 02:19:55.278000+00:00,train
1031,-0.06290402263402939,0.0,2021-01-22 02:20:25.278000+00:00,train
1032,-0.056305479258298874,0.0,2021-01-22 02:20:55.278000+00:00,train
1033,-0.04924000799655914,0.0,2021-01-22 02:21:25.278000+00:00,train
1034,-0.041569244116544724,0.0,2021-01-22 02:21:55.278000+00:00,train
1035,-0.03345495089888573,0.0,2021-01-22 02:22:25.278000+00:00,train
1036,-0.025438616052269936,0.0,2021-01-22 02:22:55.278000+00:00,train
1037,-0.018364066258072853,0.0,2021-01-22 02:23:25.278000+00:00,train
1038,-0.01259896345436573,0.0,2021-01-22 02:23:55.278000+00:00,train
1039,-0.008043956942856312,0.0,2021-01-22 02:24:25.278000+00:00,train
1040,-0.004348561633378267,0.0,2021-01-22 02:24:55.278000+00:00,train
1041,-0.000938145793043077,0.0,2021-01-22 02:25:25.278000+00:00,train
1042,0.0024867623578757048,0.0,2021-01-22 02:25:55.278000+00:00,val
1043,0.006029203534126282,0.0,2021-01-22 02:26:25.278000+00:00,val
1044,0.00971969123929739,0.0,2021-01-22 02:26:55.278000+00:00,val
1045,0.013542594388127327,0.0,2021-01-22 02:27:25.278000+00:00,val
1046,0.01747027225792408,0.0,2021-01-22 02:27:55.278000+00:00,val
1047,0.02147303707897663,0.0,2021-01-22 02:28:25.278000+00:00,val
1048,0.025524701923131943,0.0,2021-01-22 02:28:55.278000+00:00,val
1049,0.02958402782678604,0.0,2021-01-22 02:29:25.278000+00:00,val
1050,0.03365422785282135,0.0,2021-01-22 02:29:55.278000+00:00,val
1051,0.03771985322237015,0.0,2021-01-22 02:30:25.278000+00:00,val
1052,0.04176819324493408,0.0,2021-01-22 02:30:55.278000+00:00,val
1053,0.045820847153663635,0.0,2021-01-22 02:31:25.278000+00:00,val
1054,0.04983685910701752,0.0,2021-01-22 02:31:55.278000+00:00,val
1055,0.0538082979619503,0.0,2021-01-22 02:32:25.278000+00:00,val
1056,0.05772871896624565,0.0,2021-01-22 02:32:55.278000+00:00,val
1057,0.06159254536032677,0.0,2021-01-22 02:33:25.278000+00:00,val
1058,0.06539540737867355,0.0,2021-01-22 02:33:55.278000+00:00,val
1059,0.06913227587938309,0.0,2021-01-22 02:34:25.278000+00:00,val
1060,0.07279973477125168,0.0,2021-01-22 02:34:55.278000+00:00,val
1061,0.07639431953430176,0.0,2021-01-22 02:35:25.278000+00:00,val
1062,0.07991203665733337,0.0,2021-01-22 02:35:55.278000+00:00,val
1063,0.08334940671920776,0.0,2021-01-22 02:36:25.278000+00:00,val
1064,0.0867026075720787,0.0,2021-01-22 02:36:55.278000+00:00,val
1065,0.08996877074241638,0.0,2021-01-22 02:37:25.278000+00:00,val
1066,0.09314446151256561,0.0,2021-01-22 02:37:55.278000+00:00,val
1067,0.09622626006603241,0.0,2021-01-22 02:38:25.278000+00:00,val
1068,0.09921059012413025,0.0,2021-01-22 02:38:55.278000+00:00,val
1069,0.10209335386753082,0.0,2021-01-22 02:39:25.278000+00:00,val
1070,0.10487047582864761,0.0,2021-01-22 02:39:55.278000+00:00,val
1071,0.10753829777240753,0.0,2021-01-22 02:40:25.278000+00:00,val
1072,0.11009269207715988,0.0,2021-01-22 02:40:55.278000+00:00,val
1073,0.11252868175506592,0.0,2021-01-22 02:41:25.278000+00:00,val
1074,0.11484121531248093,0.0,2021-01-22 02:41:55.278000+00:00,val
1075,0.11702509969472885,0.0,2021-01-22 02:42:25.278000+00:00,val
1076,0.119074247777462,0.0,2021-01-22 02:42:55.278000+00:00,val
1077,0.12098274379968643,0.0,2021-01-22 02:43:25.278000+00:00,val
1078,0.12274385988712311,0.0,2021-01-22 02:43:55.278000+00:00,val
1079,0.12435000389814377,0.0,2021-01-22 02:44:25.278000+00:00,val
1080,0.12579281628131866,0.0,2021-01-22 02:44:55.278000+00:00,val
1081,0.12706317007541656,0.0,2021-01-22 02:45:25.278000+00:00,val
1082,0.12815064191818237,0.0,2021-01-22 02:45:55.278000+00:00,val
1083,0.1290438175201416,0.0,2021-01-22 02:46:25.278000+00:00,val
1084,0.1297203004360199,0.0,2021-01-22 02:46:55.278000+00:00,val
1085,0.13017722964286804,0.0,2021-01-22 02:47:25.278000+00:00,val
1086,0.1303989738225937,0.0,2021-01-22 02:47:55.278000+00:00,val
1087,0.13031747937202454,0.0,2021-01-22 02:48:25.278000+00:00,val
1088,0.12996549904346466,0.0,2021-01-22 02:48:55.278000+00:00,val
1089,0.1293550729751587,0.0,2021-01-22 02:49:25.278000+00:00,val
1090,0.12841428816318512,0.0,2021-01-22 02:49:55.278000+00:00,val
1091,0.12710751593112946,0.0,2021-01-22 02:50:25.278000+00:00,val
1092,0.1253916174173355,0.0,2021-01-22 02:50:55.278000+00:00,val
1093,0.12321355938911438,0.0,2021-01-22 02:51:25.278000+00:00,val
1094,0.12050707638263702,0.0,2021-01-22 02:51:55.278000+00:00,val
1095,0.11718734353780746,0.0,2021-01-22 02:52:25.278000+00:00,val
1096,0.113141730427742,0.0,2021-01-22 02:52:55.278000+00:00,val
1097,0.10821692645549774,0.0,2021-01-22 02:53:25.278000+00:00,val
1098,0.10219231247901917,0.0,2021-01-22 02:53:55.278000+00:00,val
1099,0.09472998231649399,0.0,2021-01-22 02:54:25.278000+00:00,val
1100,0.08526310324668884,0.0,2021-01-22 02:54:55.278000+00:00,val
1101,0.07268945872783661,0.0,2021-01-22 02:55:25.278000+00:00,val
1102,0.05417243391275406,0.0,2021-01-22 02:55:55.278000+00:00,val
1103,0.054167505353689194,0.0,2021-01-22 02:56:25.278000+00:00,val
1104,0.054162632673978806,0.0,2021-01-22 02:56:55.278000+00:00,val
1105,0.05415767431259155,0.0,2021-01-22 02:57:25.278000+00:00,val
1106,0.0541527085006237,0.0,2021-01-22 02:57:55.278000+00:00,val
1107,0.05414759740233421,0.0,2021-01-22 02:58:25.278000+00:00,val
1108,0.054142482578754425,0.0,2021-01-22 02:58:55.278000+00:00,val
1109,0.05413736775517464,0.0,2021-01-22 02:59:25.278000+00:00,val
1110,0.05413215979933739,0.0,2021-01-22 02:59:55.278000+00:00,val
1111,0.05412682518362999,0.0,2021-01-22 03:00:25.278000+00:00,val
1112,0.0541217140853405,0.0,2021-01-22 03:00:55.278000+00:00,val
1113,0.0,0.0,2021-01-22 03:01:25.278000+00:00,val
1114,0.0,0.0,2021-01-22 03:01:55.278000+00:00,val
1115,0.0,0.0,2021-01-22 03:02:25.278000+00:00,val
1116,0.0,0.0,2021-01-22 03:02:55.278000+00:00,val
1117,0.0,0.0,2021-01-22 03:03:25.278000+00:00,val
1118,0.0,0.0,2021-01-22 03:03:55.278000+00:00,val
1119,0.0,0.0,2021-01-22 03:04:25.278000+00:00,val
1120,0.0,0.0,2021-01-22 03:04:55.278000+00:00,val
1121,0.0,0.0,2021-01-22 03:05:25.278000+00:00,val
1122,0.0,0.0,2021-01-22 03:05:55.278000+00:00,val
1123,0.0,0.0,2021-01-22 03:06:25.278000+00:00,val
1124,0.0,0.0,2021-01-22 03:06:55.278000+00:00,val
1125,0.0,0.0,2021-01-22 03:07:25.278000+00:00,val
1126,0.0,0.0,2021-01-22 03:07:55.278000+00:00,val
1127,0.0,0.0,2021-01-22 03:08:25.278000+00:00,val
1128,0.0,0.0,2021-01-22 03:08:55.278000+00:00,val
1129,0.0,0.0,2021-01-22 03:09:25.278000+00:00,val
1130,0.0,0.0,2021-01-22 03:09:55.278000+00:00,val
1131,0.0,0.0,2021-01-22 03:10:25.278000+00:00,val
1132,0.0,0.0,2021-01-22 03:10:55.278000+00:00,val
1133,0.0,0.0,2021-01-22 03:11:25.278000+00:00,val
1134,0.0,0.0,2021-01-22 03:11:55.278000+00:00,val
1135,0.0,0.0,2021-01-22 03:12:25.278000+00:00,val
1136,0.0,0.0,2021-01-22 03:12:55.278000+00:00,val
1137,0.0,0.0,2021-01-22 03:13:25.278000+00:00,val
1138,0.0,0.0,2021-01-22 03:13:55.278000+00:00,val
1139,0.0,0.0,2021-01-22 03:14:25.278000+00:00,val
1140,0.0,0.0,2021-01-22 03:14:55.278000+00:00,val
1141,0.0,0.0,2021-01-22 03:15:25.278000+00:00,val
1142,0.0,0.0,2021-01-22 03:15:55.278000+00:00,val
1143,0.0,0.0,2021-01-22 03:16:25.278000+00:00,val
1144,0.0,0.0,2021-01-22 03:16:55.278000+00:00,val
1145,0.0,0.0,2021-01-22 03:17:25.278000+00:00,val
1146,0.0,0.0,2021-01-22 03:17:55.278000+00:00,val
1147,0.0,0.0,2021-01-22 03:18:25.278000+00:00,val
1148,0.0,0.0,2021-01-22 03:18:55.278000+00:00,val
1149,0.0,0.0,2021-01-22 03:19:25.278000+00:00,val
1150,0.0,0.0,2021-01-22 03:19:55.278000+00:00,val
1151,0.0,0.0,2021-01-22 03:20:25.278000+00:00,val
1152,0.0,0.0,2021-01-22 03:20:55.278000+00:00,val
1153,0.0,0.0,2021-01-22 03:21:25.278000+00:00,val
1154,0.0,0.0,2021-01-22 03:21:55.278000+00:00,val
1155,0.0,0.0,2021-01-22 03:22:25.278000+00:00,val
1156,0.0,0.0,2021-01-22 03:22:55.278000+00:00,val
1157,0.0,0.0,2021-01-22 03:23:25.278000+00:00,val
1158,0.0,0.0,2021-01-22 03:23:55.278000+00:00,val
1159,0.0,0.0,2021-01-22 03:24:25.278000+00:00,val
1160,0.0,0.0,2021-01-22 03:24:55.278000+00:00,val
1161,0.0,0.0,2021-01-22 03:25:25.278000+00:00,val
1162,0.0,0.0,2021-01-22 03:25:55.278000+00:00,val
1163,0.0,0.0,2021-01-22 03:26:25.278000+00:00,val
1164,0.0,0.0,2021-01-22 03:26:55.278000+00:00,val
1165,0.0,0.0,2021-01-22 03:27:25.278000+00:00,val
1166,0.0,0.0,2021-01-22 03:27:55.278000+00:00,val
1167,0.0,0.0,2021-01-22 03:28:25.278000+00:00,val
1168,0.0,0.0,2021-01-22 03:28:55.278000+00:00,val
1169,0.0,0.0,2021-01-22 03:29:25.278000+00:00,val
1170,0.0,0.0,2021-01-22 03:29:55.278000+00:00,val
1171,0.0,0.0,2021-01-22 03:30:25.278000+00:00,val
1172,0.0,0.0,2021-01-22 03:30:55.278000+00:00,val
1173,0.0,0.0,2021-01-22 03:31:25.278000+00:00,val
1174,0.0,0.0,2021-01-22 03:31:55.278000+00:00,val
1175,0.0,0.0,2021-01-22 03:32:25.278000+00:00,val
1176,0.0,0.0,2021-01-22 03:32:55.278000+00:00,val
1177,0.0,0.0,2021-01-22 03:33:25.278000+00:00,val
1178,0.0,0.0,2021-01-22 03:33:55.278000+00:00,val
1179,0.0,0.0,2021-01-22 03:34:25.278000+00:00,val
1180,0.0,0.0,2021-01-22 03:34:55.278000+00:00,val
1181,0.0,0.0,2021-01-22 03:35:25.278000+00:00,val
1182,0.0,0.0,2021-01-22 03:35:55.278000+00:00,val
1183,0.0,0.0,2021-01-22 03:36:25.278000+00:00,val
1184,0.0,0.0,2021-01-22 03:36:55.278000+00:00,val
1185,0.0,0.0,2021-01-22 03:37:25.278000+00:00,val
1186,0.0,0.0,2021-01-22 03:37:55.278000+00:00,val
1187,0.0,0.0,2021-01-22 03:38:25.278000+00:00,val
1188,0.0,0.0,2021-01-22 03:38:55.278000+00:00,val
1189,0.0,0.0,2021-01-22 03:39:25.278000+00:00,val
1190,0.0,0.0,2021-01-22 03:39:55.278000+00:00,val
1191,0.0,0.0,2021-01-22 03:40:25.278000+00:00,val
1192,0.0,0.0,2021-01-22 03:40:55.278000+00:00,val
1193,0.0,0.0,2021-01-22 03:41:25.278000+00:00,val
1194,0.0,0.0,2021-01-22 03:41:55.278000+00:00,val
1195,0.0,0.0,2021-01-22 03:42:25.278000+00:00,val
1196,0.0,0.0,2021-01-22 03:42:55.278000+00:00,val
1197,0.0,0.0,2021-01-22 03:43:25.278000+00:00,val
1198,0.0,0.0,2021-01-22 03:43:55.278000+00:00,val
1199,0.0,0.0,2021-01-22 03:44:25.278000+00:00,val
1200,0.0,0.0,2021-01-22 03:44:55.278000+00:00,val
1201,0.0,0.0,2021-01-22 03:45:25.278000+00:00,val
1202,0.0,0.0,2021-01-22 03:45:55.278000+00:00,val
1203,0.0,0.0,2021-01-22 03:46:25.278000+00:00,val
1204,0.0,0.0,2021-01-22 03:46:55.278000+00:00,val
1205,0.0,0.0,2021-01-22 03:47:25.278000+00:00,val
1206,0.0,0.0,2021-01-22 03:47:55.278000+00:00,val
1207,0.0,0.0,2021-01-22 03:48:25.278000+00:00,val
1208,0.0,0.0,2021-01-22 03:48:55.278000+00:00,val
1209,0.0,0.0,2021-01-22 03:49:25.278000+00:00,val
1210,0.0,0.0,2021-01-22 03:49:55.278000+00:00,val
1211,0.0,0.0,2021-01-22 03:50:25.278000+00:00,val
1212,0.0,0.0,2021-01-22 03:50:55.278000+00:00,val
1213,0.0,0.0,2021-01-22 03:51:25.278000+00:00,val
1214,0.0,0.0,2021-01-22 03:51:55.278000+00:00,val
1215,0.0,0.0,2021-01-22 03:52:25.278000+00:00,val
1216,0.0,0.0,2021-01-22 03:52:55.278000+00:00,val
1217,0.0,0.0,2021-01-22 03:53:25.278000+00:00,val
1218,0.0,0.0,2021-01-22 03:53:55.278000+00:00,val
1219,0.0,0.0,2021-01-22 03:54:25.278000+00:00,val
1220,0.0,0.0,2021-01-22 03:54:55.278000+00:00,val
1221,0.0,0.0,2021-01-22 03:55:25.278000+00:00,val
1222,0.0,0.0,2021-01-22 03:55:55.278000+00:00,val
1223,0.0,0.0,2021-01-22 03:56:25.278000+00:00,val
1224,0.0,0.0,2021-01-22 03:56:55.278000+00:00,val
1225,0.0,0.0,2021-01-22 03:57:25.278000+00:00,val
1226,0.0,0.0,2021-01-22 03:57:55.278000+00:00,val
1227,0.0,0.0,2021-01-22 03:58:25.278000+00:00,val
1228,0.0,0.0,2021-01-22 03:58:55.278000+00:00,val
1229,0.0,0.0,2021-01-22 03:59:25.278000+00:00,val
1230,0.0,0.0,2021-01-22 03:59:55.278000+00:00,val
1231,0.0,0.0,2021-01-22 04:00:25.278000+00:00,val
1232,0.0,0.0,2021-01-22 04:00:55.278000+00:00,val
1233,0.0,0.0,2021-01-22 04:01:25.278000+00:00,val
1234,0.0,0.0,2021-01-22 04:01:55.278000+00:00,val
1235,0.0,0.0,2021-01-22 04:02:25.278000+00:00,val
1236,0.0,0.0,2021-01-22 04:02:55.278000+00:00,val
1237,0.0,0.0,2021-01-22 04:03:25.278000+00:00,val
1238,0.0,0.0,2021-01-22 04:03:55.278000+00:00,val
1239,0.0,0.0,2021-01-22 04:04:25.278000+00:00,val
1240,0.0,0.0,2021-01-22 04:04:55.278000+00:00,val
1241,0.0,0.0,2021-01-22 04:05:25.278000+00:00,val
1242,0.0,0.0,2021-01-22 04:05:55.278000+00:00,val
1243,0.0,0.0,2021-01-22 04:06:25.278000+00:00,val
1244,0.0,0.0,2021-01-22 04:06:55.278000+00:00,val
1245,0.0,0.0,2021-01-22 04:07:25.278000+00:00,val
1246,0.0,0.0,2021-01-22 04:07:55.278000+00:00,val
1247,0.0,0.0,2021-01-22 04:08:25.278000+00:00,val
1248,0.0,0.0,2021-01-22 04:08:55.278000+00:00,val
1249,0.0,0.0,2021-01-22 04:09:25.278000+00:00,val
1250,0.0,0.0,2021-01-22 04:09:55.278000+00:00,val
1251,0.0,0.0,2021-01-22 04:10:25.278000+00:00,val
1252,0.0,0.0,2021-01-22 04:10:55.278000+00:00,val
1253,0.0,0.0,2021-01-22 04:11:25.278000+00:00,val
1254,0.0,0.0,2021-01-22 04:11:55.278000+00:00,val
1255,0.0,0.0,2021-01-22 04:12:25.278000+00:00,val
1256,0.0,0.0,2021-01-22 04:12:55.278000+00:00,val
1257,0.0,0.0,2021-01-22 04:13:25.278000+00:00,val
1258,0.0,0.0,2021-01-22 04:13:55.278000+00:00,val
1259,0.0,0.0,2021-01-22 04:14:25.278000+00:00,val
1260,0.0,0.0,2021-01-22 04:14:55.278000+00:00,val
1261,0.0,0.0,2021-01-22 04:15:25.278000+00:00,val
1262,0.0,0.0,2021-01-22 04:15:55.278000+00:00,val
1263,0.0,0.0,2021-01-22 04:16:25.278000+00:00,val
1264,0.0,0.0,2021-01-22 04:16:55.278000+00:00,val
1265,0.0,0.0,2021-01-22 04:17:25.278000+00:00,val
1266,0.0,0.0,2021-01-22 04:17:55.278000+00:00,val
1267,0.0,0.0,2021-01-22 04:18:25.278000+00:00,val
1268,0.0,0.0,2021-01-22 04:18:55.278000+00:00,val
1269,0.0,0.0,2021-01-22 04:19:25.278000+00:00,val
1270,0.0,0.0,2021-01-22 04:19:55.278000+00:00,val
1271,0.0,0.0,2021-01-22 04:20:25.278000+00:00,val
1272,0.0,0.0,2021-01-22 04:20:55.278000+00:00,val
1273,0.0,0.0,2021-01-22 04:21:25.278000+00:00,val
1274,0.0,0.0,2021-01-22 04:21:55.278000+00:00,val
1275,0.0,0.0,2021-01-22 04:22:25.278000+00:00,val
1276,0.0,0.0,2021-01-22 04:22:55.278000+00:00,val
1277,0.0,0.0,2021-01-22 04:23:25.278000+00:00,val
1278,0.0,0.0,2021-01-22 04:23:55.278000+00:00,val
1279,0.0,0.0,2021-01-22 04:24:25.278000+00:00,val
1280,0.0,0.0,2021-01-22 04:24:55.278000+00:00,val
1281,0.0,0.0,2021-01-22 04:25:25.278000+00:00,val
1282,0.0,0.0,2021-01-22 04:25:55.278000+00:00,val
1283,0.0,0.0,2021-01-22 04:26:25.278000+00:00,val
1284,0.0,0.0,2021-01-22 04:26:55.278000+00:00,val
1285,0.0,0.0,2021-01-22 04:27:25.278000+00:00,val
1286,0.0,0.0,2021-01-22 04:27:55.278000+00:00,val
1287,0.0,0.0,2021-01-22 04:28:25.278000+00:00,val
1288,0.0,0.0,2021-01-22 04:28:55.278000+00:00,val
1289,0.0,0.0,2021-01-22 04:29:25.278000+00:00,val
1290,0.0,0.0,2021-01-22 04:29:55.278000+00:00,val
1291,0.0,0.0,2021-01-22 04:30:25.278000+00:00,val
1292,0.0,0.0,2021-01-22 04:30:55.278000+00:00,val
1293,0.0,0.0,2021-01-22 04:31:25.278000+00:00,val
1294,0.0,0.0,2021-01-22 04:31:55.278000+00:00,val
1295,0.0,0.0,2021-01-22 04:32:25.278000+00:00,val
1296,0.0,0.0,2021-01-22 04:32:55.278000+00:00,val
1297,0.0,0.0,2021-01-22 04:33:25.278000+00:00,val
1298,0.0,0.0,2021-01-22 04:33:55.278000+00:00,val
1299,0.0,0.0,2021-01-22 04:34:25.278000+00:00,val
1300,0.0,0.0,2021-01-22 04:34:55.278000+00:00,val
1301,0.0,0.0,2021-01-22 04:35:25.278000+00:00,val
1302,0.0,0.0,2021-01-22 04:35:55.278000+00:00,val
1303,0.0,0.0,2021-01-22 04:36:25.278000+00:00,val
1304,0.0,0.0,2021-01-22 04:36:55.278000+00:00,val
1305,0.0,0.0,2021-01-22 04:37:25.278000+00:00,val
1306,0.0,0.0,2021-01-22 04:37:55.278000+00:00,val
1307,0.0,0.0,2021-01-22 04:38:25.278000+00:00,val
1308,0.0,0.0,2021-01-22 04:38:55.278000+00:00,val
1309,0.0,0.0,2021-01-22 04:39:25.278000+00:00,val
1310,0.0,0.0,2021-01-22 04:39:55.278000+00:00,val
1311,0.0,0.0,2021-01-22 04:40:25.278000+00:00,val
1312,0.0,0.0,2021-01-22 04:40:55.278000+00:00,val
1313,0.0,0.0,2021-01-22 04:41:25.278000+00:00,val
1314,0.0,0.0,2021-01-22 04:41:55.278000+00:00,val
1315,0.0,0.0,2021-01-22 04:42:25.278000+00:00,val
1316,0.0,0.0,2021-01-22 04:42:55.278000+00:00,val
1317,0.0,0.0,2021-01-22 04:43:25.278000+00:00,val
1318,0.0,0.0,2021-01-22 04:43:55.278000+00:00,val
1319,0.0,0.0,2021-01-22 04:44:25.278000+00:00,val
1320,0.0,0.0,2021-01-22 04:44:55.278000+00:00,val
1321,0.0,0.0,2021-01-22 04:45:25.278000+00:00,val
1322,0.0,0.0,2021-01-22 04:45:55.278000+00:00,val
1323,0.0,0.0,2021-01-22 04:46:25.278000+00:00,val
1324,0.0,0.0,2021-01-22 04:46:55.278000+00:00,val
1325,0.0,0.0,2021-01-22 04:47:25.278000+00:00,val
1326,0.0,0.0,2021-01-22 04:47:55.278000+00:00,val
1327,0.0,0.0,2021-01-22 04:48:25.278000+00:00,val
1328,0.0,0.0,2021-01-22 04:48:55.278000+00:00,val
1329,0.0,0.0,2021-01-22 04:49:25.278000+00:00,val
1330,0.0,0.0,2021-01-22 04:49:55.278000+00:00,val
1331,0.0,0.0,2021-01-22 04:50:25.278000+00:00,val
1332,0.0,0.0,2021-01-22 04:50:55.278000+00:00,val
1333,0.0,0.0,2021-01-22 04:51:25.278000+00:00,val
1334,0.0,0.0,2021-01-22 04:51:55.278000+00:00,val
1335,0.0,0.0,2021-01-22 04:52:25.278000+00:00,val
1336,0.0,0.0,2021-01-22 04:52:55.278000+00:00,val
1337,0.0,0.0,2021-01-22 04:53:25.278000+00:00,val
1338,0.0,0.0,2021-01-22 04:53:55.278000+00:00,val
1339,0.0,0.0,2021-01-22 04:54:25.278000+00:00,val
1340,0.0,0.0,2021-01-22 04:54:55.278000+00:00,val
1341,0.0,0.0,2021-01-22 04:55:25.278000+00:00,val
1342,0.0,0.0,2021-01-22 04:55:55.278000+00:00,val
1343,0.0,0.0,2021-01-22 04:56:25.278000+00:00,val
1344,0.0,0.0,2021-01-22 04:56:55.278000+00:00,val
1345,0.0,0.0,2021-01-22 04:57:25.278000+00:00,val
1346,0.0,0.0,2021-01-22 04:57:55.278000+00:00,val
1347,0.0,0.0,2021-01-22 04:58:25.278000+00:00,val
1348,0.0,0.0,2021-01-22 04:58:55.278000+00:00,val
1349,0.0,0.0,2021-01-22 04:59:25.278000+00:00,val
1350,0.0,0.0,2021-01-22 04:59:55.278000+00:00,val
1351,0.0,0.0,2021-01-22 05:00:25.278000+00:00,val
1352,0.0,0.0,2021-01-22 05:00:55.278000+00:00,val
1353,0.0,0.0,2021-01-22 05:01:25.278000+00:00,val
1354,0.0,0.0,2021-01-22 05:01:55.278000+00:00,val
1355,0.0,0.0,2021-01-22 05:02:25.278000+00:00,val
1356,0.0,0.0,2021-01-22 05:02:55.278000+00:00,val
1357,0.0,0.0,2021-01-22 05:03:25.278000+00:00,val
1358,0.0,0.0,2021-01-22 05:03:55.278000+00:00,val
1359,0.0,0.0,2021-01-22 05:04:25.278000+00:00,val
1360,0.0,0.0,2021-01-22 05:04:55.278000+00:00,val
1361,0.0,0.0,2021-01-22 05:05:25.278000+00:00,val
1362,0.0,0.0,2021-01-22 05:05:55.278000+00:00,val
1363,0.0,0.0,2021-01-22 05:06:25.278000+00:00,val
1364,0.0,0.0,2021-01-22 05:06:55.278000+00:00,val
1365,0.0,0.0,2021-01-22 05:07:25.278000+00:00,val
1366,0.0,0.0,2021-01-22 05:07:55.278000+00:00,val
1367,0.0,0.0,2021-01-22 05:08:25.278000+00:00,val
1368,0.0,0.0,2021-01-22 05:08:55.278000+00:00,val
1369,0.0,0.0,2021-01-22 05:09:25.278000+00:00,val
1370,0.0,0.0,2021-01-22 05:09:55.278000+00:00,val
1371,0.0,0.0,2021-01-22 05:10:25.278000+00:00,val
1372,0.0,0.0,2021-01-22 05:10:55.278000+00:00,val
1373,0.0,0.0,2021-01-22 05:11:25.278000+00:00,val
1374,0.0,0.0,2021-01-22 05:11:55.278000+00:00,val
1375,0.0,0.0,2021-01-22 05:12:25.278000+00:00,val
1376,0.0,0.0,2021-01-22 05:12:55.278000+00:00,val
1377,0.0,0.0,2021-01-22 05:13:25.278000+00:00,val
1378,0.0,0.0,2021-01-22 05:13:55.278000+00:00,val
1379,0.0,0.0,2021-01-22 05:14:25.278000+00:00,val
1380,0.0,0.0,2021-01-22 05:14:55.278000+00:00,val
1381,0.0,0.0,2021-01-22 05:15:25.278000+00:00,val
1382,0.0,0.0,2021-01-22 05:15:55.278000+00:00,val
1383,0.0,0.0,2021-01-22 05:16:25.278000+00:00,val
1384,0.0,0.0,2021-01-22 05:16:55.278000+00:00,val
1385,0.0,0.0,2021-01-22 05:17:25.278000+00:00,val
1386,0.0,0.0,2021-01-22 05:17:55.278000+00:00,test
1387,0.0,0.0,2021-01-22 05:18:25.278000+00:00,test
1388,0.0,0.0,2021-01-22 05:18:55.278000+00:00,test
1389,0.0,0.0,2021-01-22 05:19:25.278000+00:00,test
1390,0.0,0.0,2021-01-22 05:19:55.278000+00:00,test
1391,0.0,0.0,2021-01-22 05:20:25.278000+00:00,test
1392,0.0,0.0,2021-01-22 05:20:55.278000+00:00,test
1393,0.0,0.0,2021-01-22 05:21:25.278000+00:00,test
1394,0.0,0.0,2021-01-22 05:21:55.278000+00:00,test
1395,0.0,0.0,2021-01-22 05:22:25.278000+00:00,test
1396,0.0,0.0,2021-01-22 05:22:55.278000+00:00,test
1397,0.0,0.0,2021-01-22 05:23:25.278000+00:00,test
1398,0.0,0.0,2021-01-22 05:23:55.278000+00:00,test
1399,0.0,0.0,2021-01-22 05:24:25.278000+00:00,test
1400,0.0,0.0,2021-01-22 05:24:55.278000+00:00,test
1401,0.0,0.0,2021-01-22 05:25:25.278000+00:00,test
1402,0.0,0.0,2021-01-22 05:25:55.278000+00:00,test
1403,0.0,0.0,2021-01-22 05:26:25.278000+00:00,test
1404,0.0,0.0,2021-01-22 05:26:55.278000+00:00,test
1405,0.0,0.0,2021-01-22 05:27:25.278000+00:00,test
1406,0.0,0.0,2021-01-22 05:27:55.278000+00:00,test
1407,0.0,0.0,2021-01-22 05:28:25.278000+00:00,test
1408,0.0,0.0,2021-01-22 05:28:55.278000+00:00,test
1409,0.0,0.0,2021-01-22 05:29:25.278000+00:00,test
1410,0.0,0.0,2021-01-22 05:29:55.278000+00:00,test
1411,0.0,0.0,2021-01-22 05:30:25.278000+00:00,test
1412,0.0,0.0,2021-01-22 05:30:55.278000+00:00,test
1413,0.0,0.0,2021-01-22 05:31:25.278000+00:00,test
1414,0.0,0.0,2021-01-22 05:31:55.278000+00:00,test
1415,0.0,0.0,2021-01-22 05:32:25.278000+00:00,test
1416,0.0,0.0,2021-01-22 05:32:55.278000+00:00,test
1417,0.0,0.0,2021-01-22 05:33:25.278000+00:00,test
1418,0.0,0.0,2021-01-22 05:33:55.278000+00:00,test
1419,0.0,0.0,2021-01-22 05:34:25.278000+00:00,test
1420,0.0,0.0,2021-01-22 05:34:55.278000+00:00,test
1421,0.0,0.0,2021-01-22 05:35:25.278000+00:00,test
1422,0.0,0.0,2021-01-22 05:35:55.278000+00:00,test
1423,0.0,0.0,2021-01-22 05:36:25.278000+00:00,test
1424,0.0,0.0,2021-01-22 05:36:55.278000+00:00,test
1425,0.0,0.0,2021-01-22 05:37:25.278000+00:00,test
1426,0.0,0.0,2021-01-22 05:37:55.278000+00:00,test
1427,0.0,0.0,2021-01-22 05:38:25.278000+00:00,test
1428,0.0,0.0,2021-01-22 05:38:55.278000+00:00,test
1429,0.0,0.0,2021-01-22 05:39:25.278000+00:00,test
1430,0.0,0.0,2021-01-22 05:39:55.278000+00:00,test
1431,0.0,0.0,2021-01-22 05:40:25.278000+00:00,test
1432,0.0,0.0,2021-01-22 05:40:55.278000+00:00,test
1433,0.0,0.0,2021-01-22 05:41:25.278000+00:00,test
1434,0.0,0.0,2021-01-22 05:41:55.278000+00:00,test
1435,0.0,0.0,2021-01-22 05:42:25.278000+00:00,test
1436,0.0,0.0,2021-01-22 05:42:55.278000+00:00,test
1437,0.0,0.0,2021-01-22 05:43:25.278000+00:00,test
1438,0.0,0.0,2021-01-22 05:43:55.278000+00:00,test
1439,0.0,0.0,2021-01-22 05:44:25.278000+00:00,test
1440,0.0,0.0,2021-01-22 05:44:55.278000+00:00,test
1441,0.0,0.0,2021-01-22 05:45:25.278000+00:00,test
1442,0.0,0.0,2021-01-22 05:45:55.278000+00:00,test
1443,0.0,0.0,2021-01-22 05:46:25.278000+00:00,test
1444,0.0,0.0,2021-01-22 05:46:55.278000+00:00,test
1445,0.0,0.0,2021-01-22 05:47:25.278000+00:00,test
1446,0.0,0.0,2021-01-22 05:47:55.278000+00:00,test
1447,0.0,0.0,2021-01-22 05:48:25.278000+00:00,test
1448,0.0,0.0,2021-01-22 05:48:55.278000+00:00,test
1449,0.0,0.0,2021-01-22 05:49:25.278000+00:00,test
1450,0.0,0.0,2021-01-22 05:49:55.278000+00:00,test
1451,0.0,0.0,2021-01-22 05:50:25.278000+00:00,test
1452,0.0,0.0,2021-01-22 05:50:55.278000+00:00,test
1453,0.0,0.0,2021-01-22 05:51:25.278000+00:00,test
1454,0.0,0.0,2021-01-22 05:51:55.278000+00:00,test
1455,0.0,0.0,2021-01-22 05:52:25.278000+00:00,test
1456,0.0,0.0,2021-01-22 05:52:55.278000+00:00,test
1457,0.0,0.0,2021-01-22 05:53:25.278000+00:00,test
1458,0.0,0.0,2021-01-22 05:53:55.278000+00:00,test
1459,0.0,0.0,2021-01-22 05:54:25.278000+00:00,test
1460,0.0,0.0,2021-01-22 05:54:55.278000+00:00,test
1461,0.0,0.0,2021-01-22 05:55:25.278000+00:00,test
1462,0.0,0.0,2021-01-22 05:55:55.278000+00:00,test
1463,0.0,0.0,2021-01-22 05:56:25.278000+00:00,test
1464,0.0,0.0,2021-01-22 05:56:55.278000+00:00,test
1465,0.0,0.0,2021-01-22 05:57:25.278000+00:00,test
1466,0.0,0.0,2021-01-22 05:57:55.278000+00:00,test
1467,0.0,0.0,2021-01-22 05:58:25.278000+00:00,test
1468,0.0,0.0,2021-01-22 05:58:55.278000+00:00,test
1469,0.0,0.0,2021-01-22 05:59:25.278000+00:00,test
1470,0.0,0.0,2021-01-22 05:59:55.278000+00:00,test
1471,0.0,0.0,2021-01-22 06:00:25.278000+00:00,test
1472,0.0,0.0,2021-01-22 06:00:55.278000+00:00,test
1473,0.0,0.0,2021-01-22 06:01:25.278000+00:00,test
1474,0.0,0.0,2021-01-22 06:01:55.278000+00:00,test
1475,0.0,0.0,2021-01-22 06:02:25.278000+00:00,test
1476,0.0,0.0,2021-01-22 06:02:55.278000+00:00,test
1477,0.0,0.0,2021-01-22 06:03:25.278000+00:00,test
1478,0.0,0.0,2021-01-22 06:03:55.278000+00:00,test
1479,0.0,0.0,2021-01-22 06:04:25.278000+00:00,test
1480,0.0,0.0,2021-01-22 06:04:55.278000+00:00,test
1481,0.0,0.0,2021-01-22 06:05:25.278000+00:00,test
1482,0.0,0.0,2021-01-22 06:05:55.278000+00:00,test
1483,0.0,0.0,2021-01-22 06:06:25.278000+00:00,test
1484,0.0,0.0,2021-01-22 06:06:55.278000+00:00,test
1485,0.0,0.0,2021-01-22 06:07:25.278000+00:00,test
1486,0.0,0.0,2021-01-22 06:07:55.278000+00:00,test
1487,0.0,0.0,2021-01-22 06:08:25.278000+00:00,test
1488,0.0,0.0,2021-01-22 06:08:55.278000+00:00,test
1489,0.0,0.0,2021-01-22 06:09:25.278000+00:00,test
1490,0.0,0.0,2021-01-22 06:09:55.278000+00:00,test
1491,0.0,0.0,2021-01-22 06:10:25.278000+00:00,test
1492,0.0,0.0,2021-01-22 06:10:55.278000+00:00,test
1493,0.0,0.0,2021-01-22 06:11:25.278000+00:00,test
1494,0.0,0.0,2021-01-22 06:11:55.278000+00:00,test
1495,0.0,0.0,2021-01-22 06:12:25.278000+00:00,test
1496,0.0,0.0,2021-01-22 06:12:55.278000+00:00,test
1497,0.0,0.0,2021-01-22 06:13:25.278000+00:00,test
1498,0.0,0.0,2021-01-22 06:13:55.278000+00:00,test
1499,0.0,0.0,2021-01-22 06:14:25.278000+00:00,test
1500,0.0,0.0,2021-01-22 06:14:55.278000+00:00,test
1501,0.0,0.0,2021-01-22 06:15:25.278000+00:00,test
1502,0.0,0.0,2021-01-22 06:15:55.278000+00:00,test
1503,0.0,0.0,2021-01-22 06:16:25.278000+00:00,test
1504,0.0,0.0,2021-01-22 06:16:55.278000+00:00,test
1505,0.0,0.0,2021-01-22 06:17:25.278000+00:00,test
1506,0.0,0.0,2021-01-22 06:17:55.278000+00:00,test
1507,0.0,0.0,2021-01-22 06:18:25.278000+00:00,test
1508,0.0,0.0,2021-01-22 06:18:55.278000+00:00,test
1509,0.0,0.0,2021-01-22 06:19:25.278000+00:00,test
1510,0.0,0.0,2021-01-22 06:19:55.278000+00:00,test
1511,0.0,0.0,2021-01-22 06:20:25.278000+00:00,test
1512,0.0,0.0,2021-01-22 06:20:55.278000+00:00,test
1513,0.0,0.0,2021-01-22 06:21:25.278000+00:00,test
1514,0.0,0.0,2021-01-22 06:21:55.278000+00:00,test
1515,0.0,0.0,2021-01-22 06:22:25.278000+00:00,test
1516,0.0,0.0,2021-01-22 06:22:55.278000+00:00,test
1517,0.0,0.0,2021-01-22 06:23:25.278000+00:00,test
1518,0.0,0.0,2021-01-22 06:23:55.278000+00:00,test
1519,0.0,0.0,2021-01-22 06:24:25.278000+00:00,test
1520,0.0,0.0,2021-01-22 06:24:55.278000+00:00,test
1521,0.0,0.0,2021-01-22 06:25:25.278000+00:00,test
1522,0.0,0.0,2021-01-22 06:25:55.278000+00:00,test
1523,0.0,0.0,2021-01-22 06:26:25.278000+00:00,test
1524,0.0,0.0,2021-01-22 06:26:55.278000+00:00,test
1525,0.0,0.0,2021-01-22 06:27:25.278000+00:00,test
1526,0.0,0.0,2021-01-22 06:27:55.278000+00:00,test
1527,0.0,0.0,2021-01-22 06:28:25.278000+00:00,test
1528,0.0,0.0,2021-01-22 06:28:55.278000+00:00,test
1529,0.0,0.0,2021-01-22 06:29:25.278000+00:00,test
1530,0.0,0.0,2021-01-22 06:29:55.278000+00:00,test
1531,0.0,0.0,2021-01-22 06:30:25.278000+00:00,test
1532,0.0,0.0,2021-01-22 06:30:55.278000+00:00,test
1533,0.0,0.0,2021-01-22 06:31:25.278000+00:00,test
1534,0.0,0.0,2021-01-22 06:31:55.278000+00:00,test
1535,0.0,0.0,2021-01-22 06:32:25.278000+00:00,test
1536,0.0,0.0,2021-01-22 06:32:55.278000+00:00,test
1537,0.0,0.0,2021-01-22 06:33:25.278000+00:00,test
1538,0.0,0.0,2021-01-22 06:33:55.278000+00:00,test
1539,0.0,0.0,2021-01-22 06:34:25.278000+00:00,test
1540,0.0,0.0,2021-01-22 06:34:55.278000+00:00,test
1541,0.0,0.0,2021-01-22 06:35:25.278000+00:00,test
1542,0.0,0.0,2021-01-22 06:35:55.278000+00:00,test
1543,0.0,0.0,2021-01-22 06:36:25.278000+00:00,test
1544,0.0,0.0,2021-01-22 06:36:55.278000+00:00,test
1545,0.0,0.0,2021-01-22 06:37:25.278000+00:00,test
