,prediction,real,time,split
0,-5.627947807312012,-6.0,2021-01-21 17:43:25.278000+00:00,train
1,-5.6018476486206055,-6.0,2021-01-21 17:43:55.278000+00:00,train
2,-5.578054904937744,-6.0,2021-01-21 17:44:25.278000+00:00,train
3,-5.55662202835083,-6.0,2021-01-21 17:44:55.278000+00:00,train
4,-5.537613868713379,-6.0,2021-01-21 17:45:25.278000+00:00,train
5,-5.506162643432617,-6.0,2021-01-21 17:45:55.278000+00:00,train
6,-5.476485252380371,-6.0,2021-01-21 17:46:25.278000+00:00,train
7,-5.448611259460449,-6.0,2021-01-21 17:46:55.278000+00:00,train
8,-5.422581195831299,-6.0,2021-01-21 17:47:25.278000+00:00,train
9,-5.398419380187988,-6.0,2021-01-21 17:47:55.278000+00:00,train
10,-5.376168251037598,-6.0,2021-01-21 17:48:25.278000+00:00,train
11,-5.3558783531188965,-6.0,2021-01-21 17:48:55.278000+00:00,train
12,-5.337590217590332,-6.0,2021-01-21 17:49:25.278000+00:00,train
13,-5.321354866027832,-6.0,2021-01-21 17:49:55.278000+00:00,train
14,-5.307235240936279,-6.0,2021-01-21 17:50:25.278000+00:00,train
15,-5.295285701751709,-6.0,2021-01-21 17:50:55.278000+00:00,train
16,-5.285580158233643,-6.0,2021-01-21 17:51:25.278000+00:00,train
17,-5.278198719024658,-6.0,2021-01-21 17:51:55.278000+00:00,train
18,-5.257468223571777,-6.0,2021-01-21 17:52:25.278000+00:00,train
19,-5.238330841064453,-6.0,2021-01-21 17:52:55.278000+00:00,train
20,-5.220830917358398,-6.0,2021-01-21 17:53:25.278000+00:00,train
21,-5.2049970626831055,-5.0,2021-01-21 17:53:55.278000+00:00,train
22,-5.19087028503418,-5.0,2021-01-21 17:54:25.278000+00:00,train
23,-5.17850399017334,-5.0,2021-01-21 17:54:55.278000+00:00,train
24,-5.167938232421875,-5.0,2021-01-21 17:55:25.278000+00:00,train
25,-5.13861083984375,-5.0,2021-01-21 17:55:55.278000+00:00,train
26,-5.111383438110352,-5.0,2021-01-21 17:56:25.278000+00:00,train
27,-5.086296081542969,-5.0,2021-01-21 17:56:55.278000+00:00,train
28,-5.0634074211120605,-5.0,2021-01-21 17:57:25.278000+00:00,train
29,-5.02760648727417,-5.0,2021-01-21 17:57:55.278000+00:00,train
30,-4.993375301361084,-5.0,2021-01-21 17:58:25.278000+00:00,train
31,-4.960731506347656,-5.0,2021-01-21 17:58:55.278000+00:00,train
32,-4.929696083068848,-5.0,2021-01-21 17:59:25.278000+00:00,train
33,-4.900284290313721,-5.0,2021-01-21 17:59:55.278000+00:00,train
34,-4.872517108917236,-5.0,2021-01-21 18:00:25.278000+00:00,train
35,-4.8464274406433105,-5.0,2021-01-21 18:00:55.278000+00:00,train
36,-4.822032451629639,-5.0,2021-01-21 18:01:25.278000+00:00,train
37,-4.799367904663086,-5.0,2021-01-21 18:01:55.278000+00:00,train
38,-4.778404712677002,-5.0,2021-01-21 18:02:25.278000+00:00,train
39,-4.759302616119385,-5.0,2021-01-21 18:02:55.278000+00:00,train
40,-4.742064476013184,-5.0,2021-01-21 18:03:25.278000+00:00,train
41,-4.726728439331055,-5.0,2021-01-21 18:03:55.278000+00:00,train
42,-4.713336944580078,-5.0,2021-01-21 18:04:25.278000+00:00,train
43,-4.701950550079346,-5.0,2021-01-21 18:04:55.278000+00:00,train
44,-4.677211284637451,-5.0,2021-01-21 18:05:25.278000+00:00,train
45,-4.6537861824035645,-5.0,2021-01-21 18:05:55.278000+00:00,train
46,-4.631696701049805,-5.0,2021-01-21 18:06:25.278000+00:00,train
47,-4.61096715927124,-5.0,2021-01-21 18:06:55.278000+00:00,train
48,-4.591614246368408,-5.0,2021-01-21 18:07:25.278000+00:00,train
49,-4.573666095733643,-5.0,2021-01-21 18:07:55.278000+00:00,train
50,-4.557156085968018,-5.0,2021-01-21 18:08:25.278000+00:00,train
51,-4.542108058929443,-5.0,2021-01-21 18:08:55.278000+00:00,train
52,-4.528557777404785,-5.0,2021-01-21 18:09:25.278000+00:00,train
53,-4.516548156738281,-5.0,2021-01-21 18:09:55.278000+00:00,train
54,-4.5061163902282715,-5.0,2021-01-21 18:10:25.278000+00:00,train
55,-4.4973063468933105,-5.0,2021-01-21 18:10:55.278000+00:00,train
56,-4.490177154541016,-5.0,2021-01-21 18:11:25.278000+00:00,train
57,-4.484776973724365,-5.0,2021-01-21 18:11:55.278000+00:00,train
58,-4.466216087341309,-5.0,2021-01-21 18:12:25.278000+00:00,train
59,-4.4486985206604,-5.0,2021-01-21 18:12:55.278000+00:00,train
60,-4.432231903076172,-5.0,2021-01-21 18:13:25.278000+00:00,train
61,-4.416835308074951,-5.0,2021-01-21 18:13:55.278000+00:00,train
62,-4.402532577514648,-5.0,2021-01-21 18:14:25.278000+00:00,train
63,-4.389337539672852,-5.0,2021-01-21 18:14:55.278000+00:00,train
64,-4.377274036407471,-5.0,2021-01-21 18:15:25.278000+00:00,train
65,-4.366373062133789,-5.0,2021-01-21 18:15:55.278000+00:00,train
66,-4.356654644012451,-5.0,2021-01-21 18:16:25.278000+00:00,train
67,-4.348147869110107,-5.0,2021-01-21 18:16:55.278000+00:00,train
68,-4.34089469909668,-5.0,2021-01-21 18:17:25.278000+00:00,train
69,-4.3349199295043945,-4.0,2021-01-21 18:17:55.278000+00:00,train
70,-4.33026647567749,-4.0,2021-01-21 18:18:25.278000+00:00,train
71,-4.327104568481445,-4.0,2021-01-21 18:18:55.278000+00:00,train
72,-4.325261116027832,-4.0,2021-01-21 18:19:25.278000+00:00,train
73,-4.30391788482666,-4.0,2021-01-21 18:19:55.278000+00:00,train
74,-4.284242153167725,-4.0,2021-01-21 18:20:25.278000+00:00,train
75,-4.266311168670654,-4.0,2021-01-21 18:20:55.278000+00:00,train
76,-4.250126361846924,-4.0,2021-01-21 18:21:25.278000+00:00,train
77,-4.2357497215271,-4.0,2021-01-21 18:21:55.278000+00:00,train
78,-4.2232441902160645,-4.0,2021-01-21 18:22:25.278000+00:00,train
79,-4.196006774902344,-4.0,2021-01-21 18:22:55.278000+00:00,train
80,-4.16994571685791,-4.0,2021-01-21 18:23:25.278000+00:00,train
81,-4.14505672454834,-4.0,2021-01-21 18:23:55.278000+00:00,train
82,-4.121346473693848,-4.0,2021-01-21 18:24:25.278000+00:00,train
83,-4.098820209503174,-4.0,2021-01-21 18:24:55.278000+00:00,train
84,-4.07749080657959,-4.0,2021-01-21 18:25:25.278000+00:00,train
85,-4.057377338409424,-4.0,2021-01-21 18:25:55.278000+00:00,train
86,-4.038491249084473,-4.0,2021-01-21 18:26:25.278000+00:00,train
87,-4.020851135253906,-4.0,2021-01-21 18:26:55.278000+00:00,train
88,-4.004485130310059,-4.0,2021-01-21 18:27:25.278000+00:00,train
89,-3.9894118309020996,-4.0,2021-01-21 18:27:55.278000+00:00,train
90,-3.975660562515259,-4.0,2021-01-21 18:28:25.278000+00:00,train
91,-3.9503092765808105,-4.0,2021-01-21 18:28:55.278000+00:00,train
92,-3.9257376194000244,-4.0,2021-01-21 18:29:25.278000+00:00,train
93,-3.901946783065796,-4.0,2021-01-21 18:29:55.278000+00:00,train
94,-3.878941059112549,-4.0,2021-01-21 18:30:25.278000+00:00,train
95,-3.8567159175872803,-4.0,2021-01-21 18:30:55.278000+00:00,train
96,-3.8352739810943604,-4.0,2021-01-21 18:31:25.278000+00:00,train
97,-3.814622402191162,-4.0,2021-01-21 18:31:55.278000+00:00,train
98,-3.794757843017578,-4.0,2021-01-21 18:32:25.278000+00:00,train
99,-3.775686740875244,-4.0,2021-01-21 18:32:55.278000+00:00,train
100,-3.7574188709259033,-4.0,2021-01-21 18:33:25.278000+00:00,train
101,-3.739954710006714,-4.0,2021-01-21 18:33:55.278000+00:00,train
102,-3.723301410675049,-4.0,2021-01-21 18:34:25.278000+00:00,train
103,-3.7074687480926514,-4.0,2021-01-21 18:34:55.278000+00:00,train
104,-3.692469835281372,-4.0,2021-01-21 18:35:25.278000+00:00,train
105,-3.678309440612793,-4.0,2021-01-21 18:35:55.278000+00:00,train
106,-3.6650002002716064,-4.0,2021-01-21 18:36:25.278000+00:00,train
107,-3.652559280395508,-4.0,2021-01-21 18:36:55.278000+00:00,train
108,-3.6409952640533447,-4.0,2021-01-21 18:37:25.278000+00:00,train
109,-3.6303255558013916,-4.0,2021-01-21 18:37:55.278000+00:00,train
110,-3.6205716133117676,-4.0,2021-01-21 18:38:25.278000+00:00,train
111,-3.6117477416992188,-4.0,2021-01-21 18:38:55.278000+00:00,train
112,-3.6038758754730225,-4.0,2021-01-21 18:39:25.278000+00:00,train
113,-3.5969836711883545,-4.0,2021-01-21 18:39:55.278000+00:00,train
114,-3.5910913944244385,-4.0,2021-01-21 18:40:25.278000+00:00,train
115,-3.586228132247925,-4.0,2021-01-21 18:40:55.278000+00:00,train
116,-3.582430124282837,-4.0,2021-01-21 18:41:25.278000+00:00,train
117,-3.5797250270843506,-4.0,2021-01-21 18:41:55.278000+00:00,train
118,-3.5781521797180176,-4.0,2021-01-21 18:42:25.278000+00:00,train
119,-3.577726125717163,-4.0,2021-01-21 18:42:55.278000+00:00,train
120,-3.564929723739624,-4.0,2021-01-21 18:43:25.278000+00:00,train
121,-3.552666187286377,-4.0,2021-01-21 18:43:55.278000+00:00,train
122,-3.5409393310546875,-4.0,2021-01-21 18:44:25.278000+00:00,train
123,-3.529745578765869,-4.0,2021-01-21 18:44:55.278000+00:00,train
124,-3.5190927982330322,-4.0,2021-01-21 18:45:25.278000+00:00,train
125,-3.50899076461792,-4.0,2021-01-21 18:45:55.278000+00:00,train
126,-3.4994399547576904,-4.0,2021-01-21 18:46:25.278000+00:00,train
127,-3.490449905395508,-4.0,2021-01-21 18:46:55.278000+00:00,train
128,-3.482032299041748,-4.0,2021-01-21 18:47:25.278000+00:00,train
129,-3.4741907119750977,-4.0,2021-01-21 18:47:55.278000+00:00,train
130,-3.466935634613037,-4.0,2021-01-21 18:48:25.278000+00:00,train
131,-3.460277557373047,-4.0,2021-01-21 18:48:55.278000+00:00,train
132,-3.454230785369873,-4.0,2021-01-21 18:49:25.278000+00:00,train
133,-3.4488039016723633,-4.0,2021-01-21 18:49:55.278000+00:00,train
134,-3.4440088272094727,-4.0,2021-01-21 18:50:25.278000+00:00,train
135,-3.439865827560425,-4.0,2021-01-21 18:50:55.278000+00:00,train
136,-3.4363842010498047,-4.0,2021-01-21 18:51:25.278000+00:00,train
137,-3.433582305908203,-4.0,2021-01-21 18:51:55.278000+00:00,train
138,-3.4314827919006348,-4.0,2021-01-21 18:52:25.278000+00:00,train
139,-3.4301013946533203,-3.0,2021-01-21 18:52:55.278000+00:00,train
140,-3.4294614791870117,-3.0,2021-01-21 18:53:25.278000+00:00,train
141,-3.4295897483825684,-3.0,2021-01-21 18:53:55.278000+00:00,train
142,-3.430509328842163,-3.0,2021-01-21 18:54:25.278000+00:00,train
143,-3.411729335784912,-3.0,2021-01-21 18:54:55.278000+00:00,train
144,-3.394076347351074,-3.0,2021-01-21 18:55:25.278000+00:00,train
145,-3.3774354457855225,-3.0,2021-01-21 18:55:55.278000+00:00,train
146,-3.3618698120117188,-3.0,2021-01-21 18:56:25.278000+00:00,train
147,-3.347407579421997,-3.0,2021-01-21 18:56:55.278000+00:00,train
148,-3.3340959548950195,-3.0,2021-01-21 18:57:25.278000+00:00,train
149,-3.3219239711761475,-3.0,2021-01-21 18:57:55.278000+00:00,train
150,-3.3109304904937744,-3.0,2021-01-21 18:58:25.278000+00:00,train
151,-3.301152229309082,-3.0,2021-01-21 18:58:55.278000+00:00,train
152,-3.2926228046417236,-3.0,2021-01-21 18:59:25.278000+00:00,train
153,-3.2705907821655273,-3.0,2021-01-21 18:59:55.278000+00:00,train
154,-3.249192953109741,-3.0,2021-01-21 19:00:25.278000+00:00,train
155,-3.2284512519836426,-3.0,2021-01-21 19:00:55.278000+00:00,train
156,-3.208350896835327,-3.0,2021-01-21 19:01:25.278000+00:00,train
157,-3.188887596130371,-3.0,2021-01-21 19:01:55.278000+00:00,train
158,-3.1700544357299805,-3.0,2021-01-21 19:02:25.278000+00:00,train
159,-3.1518471240997314,-3.0,2021-01-21 19:02:55.278000+00:00,train
160,-3.1342673301696777,-3.0,2021-01-21 19:03:25.278000+00:00,train
161,-3.1173088550567627,-3.0,2021-01-21 19:03:55.278000+00:00,train
162,-3.100973129272461,-3.0,2021-01-21 19:04:25.278000+00:00,train
163,-3.0852630138397217,-3.0,2021-01-21 19:04:55.278000+00:00,train
164,-3.0701756477355957,-3.0,2021-01-21 19:05:25.278000+00:00,train
165,-3.0557138919830322,-3.0,2021-01-21 19:05:55.278000+00:00,train
166,-3.041883707046509,-3.0,2021-01-21 19:06:25.278000+00:00,train
167,-3.028684616088867,-3.0,2021-01-21 19:06:55.278000+00:00,train
168,-3.016122579574585,-3.0,2021-01-21 19:07:25.278000+00:00,train
169,-3.0042054653167725,-3.0,2021-01-21 19:07:55.278000+00:00,train
170,-2.9929370880126953,-3.0,2021-01-21 19:08:25.278000+00:00,train
171,-2.9823246002197266,-3.0,2021-01-21 19:08:55.278000+00:00,train
172,-2.9723806381225586,-3.0,2021-01-21 19:09:25.278000+00:00,train
173,-2.963111162185669,-3.0,2021-01-21 19:09:55.278000+00:00,train
174,-2.954528331756592,-3.0,2021-01-21 19:10:25.278000+00:00,train
175,-2.946648359298706,-3.0,2021-01-21 19:10:55.278000+00:00,train
176,-2.9394803047180176,-3.0,2021-01-21 19:11:25.278000+00:00,train
177,-2.933042287826538,-3.0,2021-01-21 19:11:55.278000+00:00,train
178,-2.9273529052734375,-3.0,2021-01-21 19:12:25.278000+00:00,train
179,-2.922433614730835,-3.0,2021-01-21 19:12:55.278000+00:00,train
180,-2.9183034896850586,-3.0,2021-01-21 19:13:25.278000+00:00,train
181,-2.9149882793426514,-3.0,2021-01-21 19:13:55.278000+00:00,train
182,-2.91251802444458,-3.0,2021-01-21 19:14:25.278000+00:00,train
183,-2.910921096801758,-3.0,2021-01-21 19:14:55.278000+00:00,train
184,-2.9102327823638916,-3.0,2021-01-21 19:15:25.278000+00:00,train
185,-2.898050546646118,-3.0,2021-01-21 19:15:55.278000+00:00,train
186,-2.8861887454986572,-3.0,2021-01-21 19:16:25.278000+00:00,train
187,-2.8746485710144043,-3.0,2021-01-21 19:16:55.278000+00:00,train
188,-2.8634305000305176,-3.0,2021-01-21 19:17:25.278000+00:00,train
189,-2.852530002593994,-3.0,2021-01-21 19:17:55.278000+00:00,train
190,-2.8419482707977295,-3.0,2021-01-21 19:18:25.278000+00:00,train
191,-2.8316867351531982,-3.0,2021-01-21 19:18:55.278000+00:00,train
192,-2.821742296218872,-3.0,2021-01-21 19:19:25.278000+00:00,train
193,-2.8121156692504883,-3.0,2021-01-21 19:19:55.278000+00:00,train
194,-2.802809715270996,-3.0,2021-01-21 19:20:25.278000+00:00,train
195,-2.7938222885131836,-3.0,2021-01-21 19:20:55.278000+00:00,train
196,-2.7851545810699463,-3.0,2021-01-21 19:21:25.278000+00:00,train
197,-2.77681040763855,-3.0,2021-01-21 19:21:55.278000+00:00,train
198,-2.7687861919403076,-3.0,2021-01-21 19:22:25.278000+00:00,train
199,-2.7610864639282227,-3.0,2021-01-21 19:22:55.278000+00:00,train
200,-2.753716230392456,-3.0,2021-01-21 19:23:25.278000+00:00,train
201,-2.746673583984375,-3.0,2021-01-21 19:23:55.278000+00:00,train
202,-2.739961624145508,-3.0,2021-01-21 19:24:25.278000+00:00,train
203,-2.733565330505371,-3.0,2021-01-21 19:24:55.278000+00:00,train
204,-2.727525472640991,-3.0,2021-01-21 19:25:25.278000+00:00,train
205,-2.7218315601348877,-3.0,2021-01-21 19:25:55.278000+00:00,train
206,-2.7164838314056396,-3.0,2021-01-21 19:26:25.278000+00:00,train
207,-2.71148943901062,-3.0,2021-01-21 19:26:55.278000+00:00,train
208,-2.706850051879883,-3.0,2021-01-21 19:27:25.278000+00:00,train
209,-2.7025721073150635,-3.0,2021-01-21 19:27:55.278000+00:00,train
210,-2.698664665222168,-3.0,2021-01-21 19:28:25.278000+00:00,train
211,-2.6951308250427246,-3.0,2021-01-21 19:28:55.278000+00:00,train
212,-2.691979169845581,-3.0,2021-01-21 19:29:25.278000+00:00,train
213,-2.6892716884613037,-3.0,2021-01-21 19:29:55.278000+00:00,train
214,-2.686941385269165,-3.0,2021-01-21 19:30:25.278000+00:00,train
215,-2.6849982738494873,-3.0,2021-01-21 19:30:55.278000+00:00,train
216,-2.683468818664551,-3.0,2021-01-21 19:31:25.278000+00:00,train
217,-2.6823689937591553,-3.0,2021-01-21 19:31:55.278000+00:00,train
218,-2.6817164421081543,-3.0,2021-01-21 19:32:25.278000+00:00,train
219,-2.6815218925476074,-3.0,2021-01-21 19:32:55.278000+00:00,train
220,-2.681802272796631,-3.0,2021-01-21 19:33:25.278000+00:00,train
221,-2.682576894760132,-3.0,2021-01-21 19:33:55.278000+00:00,train
222,-2.6838622093200684,-3.0,2021-01-21 19:34:25.278000+00:00,train
223,-2.6856799125671387,-3.0,2021-01-21 19:34:55.278000+00:00,train
224,-2.688055992126465,-3.0,2021-01-21 19:35:25.278000+00:00,train
225,-2.6910147666931152,-3.0,2021-01-21 19:35:55.278000+00:00,train
226,-2.6945853233337402,-3.0,2021-01-21 19:36:25.278000+00:00,train
227,-2.6988039016723633,-3.0,2021-01-21 19:36:55.278000+00:00,train
228,-2.7037055492401123,-3.0,2021-01-21 19:37:25.278000+00:00,train
229,-2.709334135055542,-3.0,2021-01-21 19:37:55.278000+00:00,train
230,-2.715740442276001,-3.0,2021-01-21 19:38:25.278000+00:00,train
231,-2.7229812145233154,-3.0,2021-01-21 19:38:55.278000+00:00,train
232,-2.7311203479766846,-3.0,2021-01-21 19:39:25.278000+00:00,train
233,-2.7269608974456787,-3.0,2021-01-21 19:39:55.278000+00:00,train
234,-2.7229220867156982,-3.0,2021-01-21 19:40:25.278000+00:00,train
235,-2.719001054763794,-3.0,2021-01-21 19:40:55.278000+00:00,train
236,-2.715196132659912,-3.0,2021-01-21 19:41:25.278000+00:00,train
237,-2.71150541305542,-3.0,2021-01-21 19:41:55.278000+00:00,train
238,-2.7079291343688965,-3.0,2021-01-21 19:42:25.278000+00:00,train
239,-2.704468250274658,-3.0,2021-01-21 19:42:55.278000+00:00,train
240,-2.701122760772705,-3.0,2021-01-21 19:43:25.278000+00:00,train
241,-2.697892427444458,-3.0,2021-01-21 19:43:55.278000+00:00,train
242,-2.6947789192199707,-2.0,2021-01-21 19:44:25.278000+00:00,train
243,-2.6917829513549805,-2.0,2021-01-21 19:44:55.278000+00:00,train
244,-2.6889047622680664,-2.0,2021-01-21 19:45:25.278000+00:00,train
245,-2.6861467361450195,-2.0,2021-01-21 19:45:55.278000+00:00,train
246,-2.6619532108306885,-2.0,2021-01-21 19:46:25.278000+00:00,train
247,-2.638456106185913,-2.0,2021-01-21 19:46:55.278000+00:00,train
248,-2.6156229972839355,-2.0,2021-01-21 19:47:25.278000+00:00,train
249,-2.593424081802368,-2.0,2021-01-21 19:47:55.278000+00:00,train
250,-2.571831703186035,-2.0,2021-01-21 19:48:25.278000+00:00,train
251,-2.5508217811584473,-2.0,2021-01-21 19:48:55.278000+00:00,train
252,-2.530369281768799,-2.0,2021-01-21 19:49:25.278000+00:00,train
253,-2.5104522705078125,-2.0,2021-01-21 19:49:55.278000+00:00,train
254,-2.4910531044006348,-2.0,2021-01-21 19:50:25.278000+00:00,train
255,-2.472153425216675,-2.0,2021-01-21 19:50:55.278000+00:00,train
256,-2.453737497329712,-2.0,2021-01-21 19:51:25.278000+00:00,train
257,-2.435793161392212,-2.0,2021-01-21 19:51:55.278000+00:00,train
258,-2.4183034896850586,-2.0,2021-01-21 19:52:25.278000+00:00,train
259,-2.4012582302093506,-2.0,2021-01-21 19:52:55.278000+00:00,train
260,-2.384645462036133,-2.0,2021-01-21 19:53:25.278000+00:00,train
261,-2.3684558868408203,-2.0,2021-01-21 19:53:55.278000+00:00,train
262,-2.352666139602661,-2.0,2021-01-21 19:54:25.278000+00:00,train
263,-2.337292194366455,-2.0,2021-01-21 19:54:55.278000+00:00,train
264,-2.3223190307617188,-2.0,2021-01-21 19:55:25.278000+00:00,train
265,-2.307737350463867,-2.0,2021-01-21 19:55:55.278000+00:00,train
266,-2.2935402393341064,-2.0,2021-01-21 19:56:25.278000+00:00,train
267,-2.279722213745117,-2.0,2021-01-21 19:56:55.278000+00:00,train
268,-2.2662792205810547,-2.0,2021-01-21 19:57:25.278000+00:00,train
269,-2.253204822540283,-2.0,2021-01-21 19:57:55.278000+00:00,train
270,-2.240494966506958,-2.0,2021-01-21 19:58:25.278000+00:00,train
271,-2.2281458377838135,-2.0,2021-01-21 19:58:55.278000+00:00,train
272,-2.216155767440796,-2.0,2021-01-21 19:59:25.278000+00:00,train
273,-2.2045016288757324,-2.0,2021-01-21 19:59:55.278000+00:00,train
274,-2.19321870803833,-2.0,2021-01-21 20:00:25.278000+00:00,train
275,-2.1822903156280518,-2.0,2021-01-21 20:00:55.278000+00:00,train
276,-2.171713352203369,-2.0,2021-01-21 20:01:25.278000+00:00,train
277,-2.1614863872528076,-2.0,2021-01-21 20:01:55.278000+00:00,train
278,-2.151608943939209,-2.0,2021-01-21 20:02:25.278000+00:00,train
279,-2.1420798301696777,-2.0,2021-01-21 20:02:55.278000+00:00,train
280,-2.1329023838043213,-2.0,2021-01-21 20:03:25.278000+00:00,train
281,-2.1240761280059814,-2.0,2021-01-21 20:03:55.278000+00:00,train
282,-2.115602970123291,-2.0,2021-01-21 20:04:25.278000+00:00,train
283,-2.153524875640869,-2.0,2021-01-21 20:04:55.278000+00:00,train
284,-2.145540714263916,-2.0,2021-01-21 20:05:25.278000+00:00,train
285,-2.1378979682922363,-2.0,2021-01-21 20:05:55.278000+00:00,train
286,-2.1305971145629883,-2.0,2021-01-21 20:06:25.278000+00:00,train
287,-2.123643159866333,-2.0,2021-01-21 20:06:55.278000+00:00,train
288,-2.1170413494110107,-2.0,2021-01-21 20:07:25.278000+00:00,train
289,-2.110797166824341,-2.0,2021-01-21 20:07:55.278000+00:00,train
290,-2.104917049407959,-2.0,2021-01-21 20:08:25.278000+00:00,train
291,-2.0993878841400146,-2.0,2021-01-21 20:08:55.278000+00:00,train
292,-2.094256639480591,-2.0,2021-01-21 20:09:25.278000+00:00,train
293,-2.0895140171051025,-2.0,2021-01-21 20:09:55.278000+00:00,train
294,-2.0851683616638184,-2.0,2021-01-21 20:10:25.278000+00:00,train
295,-2.081231117248535,-2.0,2021-01-21 20:10:55.278000+00:00,train
296,-2.0777158737182617,-2.0,2021-01-21 20:11:25.278000+00:00,train
297,-2.0746397972106934,-2.0,2021-01-21 20:11:55.278000+00:00,train
298,-2.072016954421997,-2.0,2021-01-21 20:12:25.278000+00:00,train
299,-2.069866418838501,-2.0,2021-01-21 20:12:55.278000+00:00,train
300,-2.068209171295166,-2.0,2021-01-21 20:13:25.278000+00:00,train
301,-2.0670695304870605,-2.0,2021-01-21 20:13:55.278000+00:00,train
302,-2.0664775371551514,-2.0,2021-01-21 20:14:25.278000+00:00,train
303,-2.058993101119995,-2.0,2021-01-21 20:14:55.278000+00:00,train
304,-2.0516152381896973,-2.0,2021-01-21 20:15:25.278000+00:00,train
305,-2.04434871673584,-2.0,2021-01-21 20:15:55.278000+00:00,train
306,-2.037191390991211,-2.0,2021-01-21 20:16:25.278000+00:00,train
307,-2.0301408767700195,-2.0,2021-01-21 20:16:55.278000+00:00,train
308,-2.023175001144409,-2.0,2021-01-21 20:17:25.278000+00:00,train
309,-2.0163371562957764,-2.0,2021-01-21 20:17:55.278000+00:00,train
310,-2.0096018314361572,-2.0,2021-01-21 20:18:25.278000+00:00,train
311,-2.0029654502868652,-2.0,2021-01-21 20:18:55.278000+00:00,train
312,-1.9964271783828735,-2.0,2021-01-21 20:19:25.278000+00:00,train
313,-1.989988088607788,-2.0,2021-01-21 20:19:55.278000+00:00,train
314,-1.9837125539779663,-2.0,2021-01-21 20:20:25.278000+00:00,train
315,-1.977482795715332,-2.0,2021-01-21 20:20:55.278000+00:00,train
316,-1.9713448286056519,-2.0,2021-01-21 20:21:25.278000+00:00,train
317,-1.965307593345642,-2.0,2021-01-21 20:21:55.278000+00:00,train
318,-1.9593679904937744,-2.0,2021-01-21 20:22:25.278000+00:00,train
319,-1.9535239934921265,-2.0,2021-01-21 20:22:55.278000+00:00,train
320,-1.9477746486663818,-2.0,2021-01-21 20:23:25.278000+00:00,train
321,-1.942117691040039,-2.0,2021-01-21 20:23:55.278000+00:00,train
322,-1.936552882194519,-2.0,2021-01-21 20:24:25.278000+00:00,train
323,-1.9310808181762695,-2.0,2021-01-21 20:24:55.278000+00:00,train
324,-1.9256986379623413,-2.0,2021-01-21 20:25:25.278000+00:00,train
325,-1.9204062223434448,-2.0,2021-01-21 20:25:55.278000+00:00,train
326,-1.915203332901001,-2.0,2021-01-21 20:26:25.278000+00:00,train
327,-1.9100892543792725,-2.0,2021-01-21 20:26:55.278000+00:00,train
328,-1.905065894126892,-2.0,2021-01-21 20:27:25.278000+00:00,train
329,-1.900129795074463,-2.0,2021-01-21 20:27:55.278000+00:00,train
330,-1.895281434059143,-2.0,2021-01-21 20:28:25.278000+00:00,train
331,-1.8905208110809326,-2.0,2021-01-21 20:28:55.278000+00:00,train
332,-1.8858474493026733,-2.0,2021-01-21 20:29:25.278000+00:00,train
333,-1.8812615871429443,-2.0,2021-01-21 20:29:55.278000+00:00,train
334,-1.8767642974853516,-2.0,2021-01-21 20:30:25.278000+00:00,train
335,-1.8723533153533936,-2.0,2021-01-21 20:30:55.278000+00:00,train
336,-1.868028998374939,-2.0,2021-01-21 20:31:25.278000+00:00,train
337,-1.8637912273406982,-2.0,2021-01-21 20:31:55.278000+00:00,train
338,-1.85964035987854,-2.0,2021-01-21 20:32:25.278000+00:00,train
339,-1.8555761575698853,-2.0,2021-01-21 20:32:55.278000+00:00,train
340,-1.851574420928955,-2.0,2021-01-21 20:33:25.278000+00:00,train
341,-1.8476784229278564,-2.0,2021-01-21 20:33:55.278000+00:00,train
342,-1.843870759010315,-2.0,2021-01-21 20:34:25.278000+00:00,train
343,-1.8401498794555664,-2.0,2021-01-21 20:34:55.278000+00:00,train
344,-1.8365155458450317,-2.0,2021-01-21 20:35:25.278000+00:00,train
345,-1.8329696655273438,-2.0,2021-01-21 20:35:55.278000+00:00,train
346,-1.8295140266418457,-2.0,2021-01-21 20:36:25.278000+00:00,train
347,-1.8261467218399048,-2.0,2021-01-21 20:36:55.278000+00:00,train
348,-1.8228693008422852,-2.0,2021-01-21 20:37:25.278000+00:00,train
349,-1.8196818828582764,-2.0,2021-01-21 20:37:55.278000+00:00,train
350,-1.8165860176086426,-2.0,2021-01-21 20:38:25.278000+00:00,train
351,-1.813583254814148,-2.0,2021-01-21 20:38:55.278000+00:00,train
352,-1.810672402381897,-2.0,2021-01-21 20:39:25.278000+00:00,train
353,-1.8078550100326538,-2.0,2021-01-21 20:39:55.278000+00:00,train
354,-1.8051315546035767,-2.0,2021-01-21 20:40:25.278000+00:00,train
355,-1.8025039434432983,-2.0,2021-01-21 20:40:55.278000+00:00,train
356,-1.7999728918075562,-2.0,2021-01-21 20:41:25.278000+00:00,train
357,-1.7975112199783325,-2.0,2021-01-21 20:41:55.278000+00:00,train
358,-1.795172095298767,-2.0,2021-01-21 20:42:25.278000+00:00,train
359,-1.792933464050293,-2.0,2021-01-21 20:42:55.278000+00:00,train
360,-1.7907947301864624,-2.0,2021-01-21 20:43:25.278000+00:00,train
361,-1.7887579202651978,-2.0,2021-01-21 20:43:55.278000+00:00,train
362,-1.7868258953094482,-2.0,2021-01-21 20:44:25.278000+00:00,train
363,-1.7850052118301392,-2.0,2021-01-21 20:44:55.278000+00:00,train
364,-1.7832934856414795,-2.0,2021-01-21 20:45:25.278000+00:00,train
365,-1.7816944122314453,-2.0,2021-01-21 20:45:55.278000+00:00,train
366,-1.780210018157959,-2.0,2021-01-21 20:46:25.278000+00:00,train
367,-1.7788432836532593,-2.0,2021-01-21 20:46:55.278000+00:00,train
368,-1.777597427368164,-2.0,2021-01-21 20:47:25.278000+00:00,train
369,-1.7764766216278076,-2.0,2021-01-21 20:47:55.278000+00:00,train
370,-1.7754822969436646,-2.0,2021-01-21 20:48:25.278000+00:00,train
371,-1.7746182680130005,-2.0,2021-01-21 20:48:55.278000+00:00,train
372,-1.773886799812317,-2.0,2021-01-21 20:49:25.278000+00:00,train
373,-1.7732927799224854,-2.0,2021-01-21 20:49:55.278000+00:00,train
374,-1.7728219032287598,-2.0,2021-01-21 20:50:25.278000+00:00,train
375,-1.7725218534469604,-2.0,2021-01-21 20:50:55.278000+00:00,train
376,-1.7723731994628906,-2.0,2021-01-21 20:51:25.278000+00:00,train
377,-1.7723802328109741,-2.0,2021-01-21 20:51:55.278000+00:00,train
378,-1.7725512981414795,-2.0,2021-01-21 20:52:25.278000+00:00,train
379,-1.772895097732544,-2.0,2021-01-21 20:52:55.278000+00:00,train
380,-1.7734227180480957,-2.0,2021-01-21 20:53:25.278000+00:00,train
381,-1.7741419076919556,-2.0,2021-01-21 20:53:55.278000+00:00,train
382,-1.7750630378723145,-2.0,2021-01-21 20:54:25.278000+00:00,train
383,-1.776198387145996,-2.0,2021-01-21 20:54:55.278000+00:00,train
384,-1.7775598764419556,-2.0,2021-01-21 20:55:25.278000+00:00,train
385,-1.7791619300842285,-2.0,2021-01-21 20:55:55.278000+00:00,train
386,-1.7810215950012207,-2.0,2021-01-21 20:56:25.278000+00:00,train
387,-1.783155083656311,-2.0,2021-01-21 20:56:55.278000+00:00,train
388,-1.7855833768844604,-2.0,2021-01-21 20:57:25.278000+00:00,train
389,-1.788330316543579,-2.0,2021-01-21 20:57:55.278000+00:00,train
390,-1.7914237976074219,-2.0,2021-01-21 20:58:25.278000+00:00,train
391,-1.7948917150497437,-2.0,2021-01-21 20:58:55.278000+00:00,train
392,-1.7987881898880005,-2.0,2021-01-21 20:59:25.278000+00:00,train
393,-1.8031396865844727,-2.0,2021-01-21 20:59:55.278000+00:00,train
394,-1.8080024719238281,-2.0,2021-01-21 21:00:25.278000+00:00,train
395,-1.81344735622406,0.0,2021-01-21 21:00:55.278000+00:00,train
396,-1.8195620775222778,-2.0,2021-01-21 21:01:25.278000+00:00,train
397,-1.8264590501785278,-2.0,2021-01-21 21:01:55.278000+00:00,train
398,-1.8342846632003784,-2.0,2021-01-21 21:02:25.278000+00:00,train
399,-1.7712287902832031,-2.0,2021-01-21 21:02:55.278000+00:00,train
400,-1.7775547504425049,-2.0,2021-01-21 21:03:25.278000+00:00,train
401,-1.7849056720733643,-2.0,2021-01-21 21:03:55.278000+00:00,train
402,-1.7933679819107056,-2.0,2021-01-21 21:04:25.278000+00:00,train
403,-1.8030900955200195,-2.0,2021-01-21 21:04:55.278000+00:00,train
404,-1.8143672943115234,-2.0,2021-01-21 21:05:25.278000+00:00,train
405,-1.8276931047439575,-2.0,2021-01-21 21:05:55.278000+00:00,train
406,-1.8279290199279785,-2.0,2021-01-21 21:06:25.278000+00:00,train
407,-1.8281651735305786,-2.0,2021-01-21 21:06:55.278000+00:00,train
408,-1.8284107446670532,-2.0,2021-01-21 21:07:25.278000+00:00,train
409,-1.8286572694778442,-2.0,2021-01-21 21:07:55.278000+00:00,train
410,-1.8288967609405518,-2.0,2021-01-21 21:08:25.278000+00:00,train
411,-1.829129934310913,-2.0,2021-01-21 21:08:55.278000+00:00,train
412,-1.8293585777282715,-2.0,2021-01-21 21:09:25.278000+00:00,train
413,-1.829584002494812,-2.0,2021-01-21 21:09:55.278000+00:00,train
414,-1.8298076391220093,-2.0,2021-01-21 21:10:25.278000+00:00,train
415,-1.830029010772705,-2.0,2021-01-21 21:10:55.278000+00:00,train
416,-1.8302488327026367,-2.0,2021-01-21 21:11:25.278000+00:00,train
417,-1.8304672241210938,-2.0,2021-01-21 21:11:55.278000+00:00,train
418,-1.8306840658187866,-2.0,2021-01-21 21:12:25.278000+00:00,train
419,-1.8308998346328735,-2.0,2021-01-21 21:12:55.278000+00:00,train
420,-1.8311147689819336,-2.0,2021-01-21 21:13:25.278000+00:00,train
421,-1.831328272819519,-2.0,2021-01-21 21:13:55.278000+00:00,train
422,-1.8315409421920776,-2.0,2021-01-21 21:14:25.278000+00:00,train
423,-1.831752061843872,-2.0,2021-01-21 21:14:55.278000+00:00,train
424,-1.8319618701934814,-2.0,2021-01-21 21:15:25.278000+00:00,train
425,-1.8321702480316162,-2.0,2021-01-21 21:15:55.278000+00:00,train
426,-1.8323776721954346,-2.0,2021-01-21 21:16:25.278000+00:00,train
427,-1.8325836658477783,-2.0,2021-01-21 21:16:55.278000+00:00,train
428,-1.832788109779358,-2.0,2021-01-21 21:17:25.278000+00:00,train
429,-1.832991361618042,-2.0,2021-01-21 21:17:55.278000+00:00,train
430,-1.8331929445266724,-2.0,2021-01-21 21:18:25.278000+00:00,train
431,-1.8333946466445923,-2.0,2021-01-21 21:18:55.278000+00:00,train
432,-1.8335893154144287,-2.0,2021-01-21 21:19:25.278000+00:00,train
433,-1.8337823152542114,-2.0,2021-01-21 21:19:55.278000+00:00,train
434,-1.8339862823486328,-2.0,2021-01-21 21:20:25.278000+00:00,train
435,-1.8341891765594482,-2.0,2021-01-21 21:20:55.278000+00:00,train
436,-1.8343980312347412,-2.0,2021-01-21 21:21:25.278000+00:00,train
437,-1.8346116542816162,-2.0,2021-01-21 21:21:55.278000+00:00,train
438,-1.8348276615142822,-2.0,2021-01-21 21:22:25.278000+00:00,train
439,-1.835044503211975,-2.0,2021-01-21 21:22:55.278000+00:00,train
440,-1.8352620601654053,-2.0,2021-01-21 21:23:25.278000+00:00,train
441,-1.8354787826538086,-2.0,2021-01-21 21:23:55.278000+00:00,train
442,-1.835694670677185,-2.0,2021-01-21 21:24:25.278000+00:00,train
443,-1.8359096050262451,-2.0,2021-01-21 21:24:55.278000+00:00,train
444,-1.8361233472824097,-2.0,2021-01-21 21:25:25.278000+00:00,train
445,-1.8363271951675415,-2.0,2021-01-21 21:25:55.278000+00:00,train
446,-1.8365367650985718,-2.0,2021-01-21 21:26:25.278000+00:00,train
447,-1.83674156665802,-2.0,2021-01-21 21:26:55.278000+00:00,train
448,-1.8369413614273071,-2.0,2021-01-21 21:27:25.278000+00:00,train
449,-1.8371373414993286,-2.0,2021-01-21 21:27:55.278000+00:00,train
450,-1.8373305797576904,-2.0,2021-01-21 21:28:25.278000+00:00,train
451,-1.8375258445739746,-2.0,2021-01-21 21:28:55.278000+00:00,train
452,-1.837719440460205,-2.0,2021-01-21 21:29:25.278000+00:00,train
453,-1.8379113674163818,-2.0,2021-01-21 21:29:55.278000+00:00,train
454,-1.8381022214889526,-2.0,2021-01-21 21:30:25.278000+00:00,train
455,-1.8382916450500488,-2.0,2021-01-21 21:30:55.278000+00:00,train
456,-1.8384798765182495,-2.0,2021-01-21 21:31:25.278000+00:00,train
457,-1.838667392730713,-2.0,2021-01-21 21:31:55.278000+00:00,train
458,-1.838853359222412,-2.0,2021-01-21 21:32:25.278000+00:00,train
459,-1.8390382528305054,-2.0,2021-01-21 21:32:55.278000+00:00,train
460,-1.8392218351364136,-2.0,2021-01-21 21:33:25.278000+00:00,train
461,-1.8394039869308472,-2.0,2021-01-21 21:33:55.278000+00:00,train
462,-1.8395856618881226,-2.0,2021-01-21 21:34:25.278000+00:00,train
463,-1.8397656679153442,-2.0,2021-01-21 21:34:55.278000+00:00,train
464,-1.8399443626403809,-2.0,2021-01-21 21:35:25.278000+00:00,train
465,-1.8401215076446533,-2.0,2021-01-21 21:35:55.278000+00:00,train
466,-1.8402971029281616,-2.0,2021-01-21 21:36:25.278000+00:00,train
467,-1.8404713869094849,-2.0,2021-01-21 21:36:55.278000+00:00,train
468,-1.8406589031219482,-2.0,2021-01-21 21:37:25.278000+00:00,train
469,-1.8408451080322266,-2.0,2021-01-21 21:37:55.278000+00:00,train
470,-1.8410236835479736,-2.0,2021-01-21 21:38:25.278000+00:00,train
471,-1.8411957025527954,-2.0,2021-01-21 21:38:55.278000+00:00,train
472,-1.8413633108139038,-2.0,2021-01-21 21:39:25.278000+00:00,train
473,-1.8415271043777466,-2.0,2021-01-21 21:39:55.278000+00:00,train
474,-1.8416768312454224,-2.0,2021-01-21 21:40:25.278000+00:00,train
475,-1.8418242931365967,-2.0,2021-01-21 21:40:55.278000+00:00,train
476,-1.8419697284698486,-2.0,2021-01-21 21:41:25.278000+00:00,train
477,-1.8421133756637573,-2.0,2021-01-21 21:41:55.278000+00:00,train
478,-1.8422554731369019,-2.0,2021-01-21 21:42:25.278000+00:00,train
479,-1.8423962593078613,-2.0,2021-01-21 21:42:55.278000+00:00,train
480,-1.8425354957580566,-2.0,2021-01-21 21:43:25.278000+00:00,train
481,-1.8426730632781982,-2.0,2021-01-21 21:43:55.278000+00:00,train
482,-1.8428089618682861,-2.0,2021-01-21 21:44:25.278000+00:00,train
483,-1.8429431915283203,-2.0,2021-01-21 21:44:55.278000+00:00,train
484,-1.8430758714675903,-2.0,2021-01-21 21:45:25.278000+00:00,train
485,-1.8432072401046753,-2.0,2021-01-21 21:45:55.278000+00:00,train
486,-1.843337059020996,-2.0,2021-01-21 21:46:25.278000+00:00,train
487,-1.843464970588684,-2.0,2021-01-21 21:46:55.278000+00:00,train
488,-1.843591332435608,-2.0,2021-01-21 21:47:25.278000+00:00,train
489,-1.8437161445617676,-2.0,2021-01-21 21:47:55.278000+00:00,train
490,-1.8438589572906494,-2.0,2021-01-21 21:48:25.278000+00:00,train
491,-1.8439947366714478,-2.0,2021-01-21 21:48:55.278000+00:00,train
492,-1.8441201448440552,-2.0,2021-01-21 21:49:25.278000+00:00,train
493,-1.8442373275756836,-2.0,2021-01-21 21:49:55.278000+00:00,train
494,-1.8443487882614136,-2.0,2021-01-21 21:50:25.278000+00:00,train
495,-1.8444561958312988,-2.0,2021-01-21 21:50:55.278000+00:00,train
496,-1.8445607423782349,-2.0,2021-01-21 21:51:25.278000+00:00,train
497,-1.8446625471115112,-2.0,2021-01-21 21:51:55.278000+00:00,train
498,-1.8447620868682861,-2.0,2021-01-21 21:52:25.278000+00:00,train
499,-1.8448600769042969,-2.0,2021-01-21 21:52:55.278000+00:00,train
500,-1.8449606895446777,-2.0,2021-01-21 21:53:25.278000+00:00,train
501,-1.845059871673584,-2.0,2021-01-21 21:53:55.278000+00:00,train
502,-1.8451569080352783,-2.0,2021-01-21 21:54:25.278000+00:00,train
503,-1.8452520370483398,-2.0,2021-01-21 21:54:55.278000+00:00,train
504,-1.845345139503479,-2.0,2021-01-21 21:55:25.278000+00:00,train
505,-1.8454363346099854,-2.0,2021-01-21 21:55:55.278000+00:00,train
506,-1.8455257415771484,-1.0,2021-01-21 21:56:25.278000+00:00,train
507,-1.8456134796142578,-2.0,2021-01-21 21:56:55.278000+00:00,train
508,-1.8456991910934448,-2.0,2021-01-21 21:57:25.278000+00:00,train
509,-1.8457828760147095,-2.0,2021-01-21 21:57:55.278000+00:00,train
510,-1.8233067989349365,-2.0,2021-01-21 21:58:25.278000+00:00,train
511,-1.8233879804611206,-2.0,2021-01-21 21:58:55.278000+00:00,train
512,-1.823500633239746,-2.0,2021-01-21 21:59:25.278000+00:00,train
513,-1.8236031532287598,-1.0,2021-01-21 21:59:55.278000+00:00,train
514,-1.8236935138702393,-1.0,2021-01-21 22:00:25.278000+00:00,train
515,-1.8237746953964233,0.0,2021-01-21 22:00:55.278000+00:00,train
516,-1.8238502740859985,-1.0,2021-01-21 22:01:25.278000+00:00,train
517,-1.8031538724899292,-1.0,2021-01-21 22:01:55.278000+00:00,train
518,-1.7837692499160767,-1.0,2021-01-21 22:02:25.278000+00:00,train
519,-1.7257554531097412,-1.0,2021-01-21 22:02:55.278000+00:00,train
520,-1.7096364498138428,-1.0,2021-01-21 22:03:25.278000+00:00,train
521,-1.6942195892333984,-1.0,2021-01-21 22:03:55.278000+00:00,train
522,-1.6793761253356934,-1.0,2021-01-21 22:04:25.278000+00:00,train
523,-1.6649748086929321,-1.0,2021-01-21 22:04:55.278000+00:00,train
524,-1.6509510278701782,-1.0,2021-01-21 22:05:25.278000+00:00,train
525,-1.637264370918274,-1.0,2021-01-21 22:05:55.278000+00:00,train
526,-1.6238839626312256,-1.0,2021-01-21 22:06:25.278000+00:00,train
527,-1.6107864379882812,-1.0,2021-01-21 22:06:55.278000+00:00,train
528,-1.5979514122009277,-1.0,2021-01-21 22:07:25.278000+00:00,train
529,-1.5853617191314697,-1.0,2021-01-21 22:07:55.278000+00:00,train
530,-1.5730006694793701,-1.0,2021-01-21 22:08:25.278000+00:00,train
531,-1.560853362083435,-1.0,2021-01-21 22:08:55.278000+00:00,train
532,-1.5489065647125244,-1.0,2021-01-21 22:09:25.278000+00:00,train
533,-1.5371512174606323,-1.0,2021-01-21 22:09:55.278000+00:00,train
534,-1.5256991386413574,-1.0,2021-01-21 22:10:25.278000+00:00,train
535,-1.5144031047821045,-1.0,2021-01-21 22:10:55.278000+00:00,train
536,-1.5032529830932617,-1.0,2021-01-21 22:11:25.278000+00:00,train
537,-1.492248773574829,-1.0,2021-01-21 22:11:55.278000+00:00,train
538,-1.4813884496688843,-1.0,2021-01-21 22:12:25.278000+00:00,train
539,-1.470669150352478,-1.0,2021-01-21 22:12:55.278000+00:00,train
540,-1.4599562883377075,-1.0,2021-01-21 22:13:25.278000+00:00,train
541,-1.4494158029556274,-1.0,2021-01-21 22:13:55.278000+00:00,train
542,-1.439051866531372,-1.0,2021-01-21 22:14:25.278000+00:00,train
543,-1.4288065433502197,-1.0,2021-01-21 22:14:55.278000+00:00,train
544,-1.4187169075012207,-1.0,2021-01-21 22:15:25.278000+00:00,train
545,-1.4087809324264526,-1.0,2021-01-21 22:15:55.278000+00:00,train
546,-1.3989813327789307,-1.0,2021-01-21 22:16:25.278000+00:00,train
547,-1.3893048763275146,-1.0,2021-01-21 22:16:55.278000+00:00,train
548,-1.379739761352539,-1.0,2021-01-21 22:17:25.278000+00:00,train
549,-1.3702774047851562,-1.0,2021-01-21 22:17:55.278000+00:00,train
550,-1.360911250114441,-1.0,2021-01-21 22:18:25.278000+00:00,train
551,-1.351742148399353,-1.0,2021-01-21 22:18:55.278000+00:00,train
552,-1.3426735401153564,-1.0,2021-01-21 22:19:25.278000+00:00,train
553,-1.3337042331695557,-1.0,2021-01-21 22:19:55.278000+00:00,train
554,-1.3248724937438965,-1.0,2021-01-21 22:20:25.278000+00:00,train
555,-1.3161377906799316,-1.0,2021-01-21 22:20:55.278000+00:00,train
556,-1.3075225353240967,-1.0,2021-01-21 22:21:25.278000+00:00,train
557,-1.2990994453430176,-1.0,2021-01-21 22:21:55.278000+00:00,train
558,-1.2908871173858643,-1.0,2021-01-21 22:22:25.278000+00:00,train
559,-1.3104956150054932,-1.0,2021-01-21 22:22:55.278000+00:00,train
560,-1.3016875982284546,-1.0,2021-01-21 22:23:25.278000+00:00,train
561,-1.2931084632873535,-1.0,2021-01-21 22:23:55.278000+00:00,train
562,-1.2846128940582275,-1.0,2021-01-21 22:24:25.278000+00:00,train
563,-1.2761977910995483,-1.0,2021-01-21 22:24:55.278000+00:00,train
564,-1.2678611278533936,-1.0,2021-01-21 22:25:25.278000+00:00,train
565,-1.2595977783203125,-1.0,2021-01-21 22:25:55.278000+00:00,train
566,-1.251401662826538,-1.0,2021-01-21 22:26:25.278000+00:00,train
567,-1.2432619333267212,-1.0,2021-01-21 22:26:55.278000+00:00,train
568,-1.2353280782699585,-1.0,2021-01-21 22:27:25.278000+00:00,train
569,-1.2274705171585083,-1.0,2021-01-21 22:27:55.278000+00:00,train
570,-1.2196890115737915,-1.0,2021-01-21 22:28:25.278000+00:00,train
571,-1.2119827270507812,-1.0,2021-01-21 22:28:55.278000+00:00,train
572,-1.2043520212173462,-1.0,2021-01-21 22:29:25.278000+00:00,train
573,-1.1967939138412476,-1.0,2021-01-21 22:29:55.278000+00:00,train
574,-1.1893072128295898,-1.0,2021-01-21 22:30:25.278000+00:00,train
575,-1.1818920373916626,-1.0,2021-01-21 22:30:55.278000+00:00,train
576,-1.1745474338531494,-1.0,2021-01-21 22:31:25.278000+00:00,train
577,-1.167346477508545,-1.0,2021-01-21 22:31:55.278000+00:00,train
578,-1.1601858139038086,-1.0,2021-01-21 22:32:25.278000+00:00,train
579,-1.1530638933181763,-1.0,2021-01-21 22:32:55.278000+00:00,train
580,-1.1459894180297852,-1.0,2021-01-21 22:33:25.278000+00:00,train
581,-1.1389703750610352,-1.0,2021-01-21 22:33:55.278000+00:00,train
582,-1.1320111751556396,-1.0,2021-01-21 22:34:25.278000+00:00,train
583,-1.1251153945922852,-1.0,2021-01-21 22:34:55.278000+00:00,train
584,-1.1182835102081299,-1.0,2021-01-21 22:35:25.278000+00:00,train
585,-1.1115161180496216,-1.0,2021-01-21 22:35:55.278000+00:00,train
586,-1.1048134565353394,-1.0,2021-01-21 22:36:25.278000+00:00,train
587,-1.0981780290603638,-1.0,2021-01-21 22:36:55.278000+00:00,train
588,-1.0916125774383545,-1.0,2021-01-21 22:37:25.278000+00:00,train
589,-1.0851250886917114,-1.0,2021-01-21 22:37:55.278000+00:00,train
590,-1.0787253379821777,-1.0,2021-01-21 22:38:25.278000+00:00,train
591,-1.0724235773086548,-1.0,2021-01-21 22:38:55.278000+00:00,train
592,-1.0704339742660522,-1.0,2021-01-21 22:39:25.278000+00:00,train
593,-1.064180612564087,-1.0,2021-01-21 22:39:55.278000+00:00,train
594,-1.0578023195266724,-1.0,2021-01-21 22:40:25.278000+00:00,train
595,-1.0514801740646362,-1.0,2021-01-21 22:40:55.278000+00:00,train
596,-1.0452144145965576,-1.0,2021-01-21 22:41:25.278000+00:00,train
597,-1.0390053987503052,-1.0,2021-01-21 22:41:55.278000+00:00,train
598,-1.032852292060852,-1.0,2021-01-21 22:42:25.278000+00:00,train
599,-1.02675461769104,-1.0,2021-01-21 22:42:55.278000+00:00,train
600,-1.0208014249801636,-1.0,2021-01-21 22:43:25.278000+00:00,train
601,-1.0148649215698242,-1.0,2021-01-21 22:43:55.278000+00:00,train
602,-1.0089470148086548,-1.0,2021-01-21 22:44:25.278000+00:00,train
603,-1.0030573606491089,-1.0,2021-01-21 22:44:55.278000+00:00,train
604,-0.9971998333930969,-1.0,2021-01-21 22:45:25.278000+00:00,train
605,-0.9916058778762817,-1.0,2021-01-21 22:45:55.278000+00:00,train
606,-0.9860697984695435,-1.0,2021-01-21 22:46:25.278000+00:00,train
607,-0.9805933833122253,-1.0,2021-01-21 22:46:55.278000+00:00,train
608,-0.9751777052879333,-1.0,2021-01-21 22:47:25.278000+00:00,train
609,-0.9698240756988525,-1.0,2021-01-21 22:47:55.278000+00:00,train
610,-0.9645329713821411,-1.0,2021-01-21 22:48:25.278000+00:00,train
611,-0.9593043327331543,-1.0,2021-01-21 22:48:55.278000+00:00,train
612,-0.9541404247283936,-1.0,2021-01-21 22:49:25.278000+00:00,train
613,-0.9490410089492798,-1.0,2021-01-21 22:49:55.278000+00:00,train
614,-0.9440069198608398,-1.0,2021-01-21 22:50:25.278000+00:00,train
615,-0.9390388131141663,-1.0,2021-01-21 22:50:55.278000+00:00,train
616,-0.9341378211975098,-1.0,2021-01-21 22:51:25.278000+00:00,train
617,-0.929304301738739,-1.0,2021-01-21 22:51:55.278000+00:00,train
618,-0.9225216507911682,-1.0,2021-01-21 22:52:25.278000+00:00,train
619,-0.9178340435028076,-1.0,2021-01-21 22:52:55.278000+00:00,train
620,-0.909425675868988,-1.0,2021-01-21 22:53:25.278000+00:00,train
621,-0.9012222290039062,-1.0,2021-01-21 22:53:55.278000+00:00,train
622,-0.8968098163604736,-1.0,2021-01-21 22:54:25.278000+00:00,train
623,-1.0169692039489746,-1.0,2021-01-21 22:54:55.278000+00:00,train
624,-1.01164710521698,-1.0,2021-01-21 22:55:25.278000+00:00,train
625,-1.0063871145248413,-1.0,2021-01-21 22:55:55.278000+00:00,train
626,-1.0011935234069824,-1.0,2021-01-21 22:56:25.278000+00:00,train
627,-0.9960652589797974,-1.0,2021-01-21 22:56:55.278000+00:00,train
628,-0.9911146759986877,-1.0,2021-01-21 22:57:25.278000+00:00,train
629,-0.9862351417541504,-1.0,2021-01-21 22:57:55.278000+00:00,train
630,-0.9814265966415405,-1.0,2021-01-21 22:58:25.278000+00:00,train
631,-0.9766910672187805,-1.0,2021-01-21 22:58:55.278000+00:00,train
632,-0.9720303416252136,-1.0,2021-01-21 22:59:25.278000+00:00,train
633,-0.967446506023407,-1.0,2021-01-21 22:59:55.278000+00:00,train
634,-0.9629411697387695,-1.0,2021-01-21 23:00:25.278000+00:00,train
635,-0.9585186243057251,0.0,2021-01-21 23:00:55.278000+00:00,train
636,-0.9541786313056946,-1.0,2021-01-21 23:01:25.278000+00:00,train
637,-0.9499242305755615,-1.0,2021-01-21 23:01:55.278000+00:00,train
638,-0.9457589387893677,-1.0,2021-01-21 23:02:25.278000+00:00,train
639,-0.9297769665718079,-1.0,2021-01-21 23:02:55.278000+00:00,train
640,-0.9253386855125427,-1.0,2021-01-21 23:03:25.278000+00:00,train
641,-0.921284019947052,-1.0,2021-01-21 23:03:55.278000+00:00,train
642,-0.9174173474311829,-1.0,2021-01-21 23:04:25.278000+00:00,train
643,-0.9136908054351807,-1.0,2021-01-21 23:04:55.278000+00:00,train
644,-0.9100829362869263,-1.0,2021-01-21 23:05:25.278000+00:00,train
645,-0.9065867066383362,-1.0,2021-01-21 23:05:55.278000+00:00,train
646,-0.903306245803833,-1.0,2021-01-21 23:06:25.278000+00:00,train
647,-0.9001317024230957,-1.0,2021-01-21 23:06:55.278000+00:00,train
648,-0.8970732092857361,-1.0,2021-01-21 23:07:25.278000+00:00,train
649,-0.8941317796707153,-1.0,2021-01-21 23:07:55.278000+00:00,train
650,-0.8914104104042053,-1.0,2021-01-21 23:08:25.278000+00:00,train
651,-0.888821005821228,-1.0,2021-01-21 23:08:55.278000+00:00,train
652,-0.8863694071769714,-1.0,2021-01-21 23:09:25.278000+00:00,train
653,-0.8840621709823608,-1.0,2021-01-21 23:09:55.278000+00:00,train
654,-0.8819066286087036,-1.0,2021-01-21 23:10:25.278000+00:00,train
655,-0.8799120187759399,-1.0,2021-01-21 23:10:55.278000+00:00,train
656,-0.8780854344367981,-1.0,2021-01-21 23:11:25.278000+00:00,train
657,-0.8764374852180481,-1.0,2021-01-21 23:11:55.278000+00:00,train
658,-0.8749798536300659,-1.0,2021-01-21 23:12:25.278000+00:00,train
659,-0.8737255334854126,-1.0,2021-01-21 23:12:55.278000+00:00,train
660,-0.8726893663406372,-1.0,2021-01-21 23:13:25.278000+00:00,train
661,-0.8718891143798828,-1.0,2021-01-21 23:13:55.278000+00:00,train
662,-0.8713432550430298,-1.0,2021-01-21 23:14:25.278000+00:00,train
663,-0.8710752129554749,-1.0,2021-01-21 23:14:55.278000+00:00,train
664,-0.8711119294166565,-1.0,2021-01-21 23:15:25.278000+00:00,train
665,-0.8714860081672668,-1.0,2021-01-21 23:15:55.278000+00:00,train
666,-0.8722376227378845,-1.0,2021-01-21 23:16:25.278000+00:00,train
667,-0.873413622379303,-1.0,2021-01-21 23:16:55.278000+00:00,train
668,-0.8750758767127991,-1.0,2021-01-21 23:17:25.278000+00:00,train
669,-0.8773027658462524,-1.0,2021-01-21 23:17:55.278000+00:00,train
670,-0.8771857619285583,-1.0,2021-01-21 23:18:25.278000+00:00,train
671,-0.8800786733627319,-1.0,2021-01-21 23:18:55.278000+00:00,train
672,-0.8838017582893372,-1.0,2021-01-21 23:19:25.278000+00:00,train
673,-0.8885364532470703,-1.0,2021-01-21 23:19:55.278000+00:00,train
674,-0.8945989012718201,-1.0,2021-01-21 23:20:25.278000+00:00,train
675,-0.9025262594223022,-1.0,2021-01-21 23:20:55.278000+00:00,train
676,-0.9133806824684143,-1.0,2021-01-21 23:21:25.278000+00:00,train
677,-0.9133420586585999,-1.0,2021-01-21 23:21:55.278000+00:00,train
678,-0.9133168458938599,-1.0,2021-01-21 23:22:25.278000+00:00,train
679,-0.9410781860351562,-1.0,2021-01-21 23:22:55.278000+00:00,train
680,-0.9409939646720886,-1.0,2021-01-21 23:23:25.278000+00:00,train
681,-0.9409608840942383,-1.0,2021-01-21 23:23:55.278000+00:00,train
682,-0.9409279227256775,-1.0,2021-01-21 23:24:25.278000+00:00,train
683,-0.9408950805664062,-1.0,2021-01-21 23:24:55.278000+00:00,train
684,-0.9408621788024902,-1.0,2021-01-21 23:25:25.278000+00:00,train
685,-0.940829336643219,-1.0,2021-01-21 23:25:55.278000+00:00,train
686,-0.9407965540885925,-1.0,2021-01-21 23:26:25.278000+00:00,train
687,-0.9407638311386108,-1.0,2021-01-21 23:26:55.278000+00:00,train
688,-0.9407311081886292,-1.0,2021-01-21 23:27:25.278000+00:00,train
689,-0.9406986236572266,-1.0,2021-01-21 23:27:55.278000+00:00,train
690,-0.940666139125824,-1.0,2021-01-21 23:28:25.278000+00:00,train
691,-0.9406337738037109,-1.0,2021-01-21 23:28:55.278000+00:00,train
692,-0.9406014084815979,-1.0,2021-01-21 23:29:25.278000+00:00,train
693,-0.940568208694458,-1.0,2021-01-21 23:29:55.278000+00:00,train
694,-0.940541684627533,-1.0,2021-01-21 23:30:25.278000+00:00,train
695,-0.940515398979187,-1.0,2021-01-21 23:30:55.278000+00:00,train
696,-0.9404891729354858,-1.0,2021-01-21 23:31:25.278000+00:00,train
697,-0.9404628872871399,-1.0,2021-01-21 23:31:55.278000+00:00,train
698,-0.9404367804527283,-1.0,2021-01-21 23:32:25.278000+00:00,train
699,-0.9404140114784241,-1.0,2021-01-21 23:32:55.278000+00:00,train
700,-0.9403574466705322,-1.0,2021-01-21 23:33:25.278000+00:00,train
701,-0.9403013586997986,-1.0,2021-01-21 23:33:55.278000+00:00,train
702,-0.9402472376823425,-1.0,2021-01-21 23:34:25.278000+00:00,train
703,-0.9401702284812927,-1.0,2021-01-21 23:34:55.278000+00:00,train
704,-0.9400931000709534,-1.0,2021-01-21 23:35:25.278000+00:00,train
705,-0.9400159120559692,-1.0,2021-01-21 23:35:55.278000+00:00,train
706,-0.9399389028549194,-1.0,2021-01-21 23:36:25.278000+00:00,train
707,-0.9398617148399353,-1.0,2021-01-21 23:36:55.278000+00:00,train
708,-0.9397844672203064,-1.0,2021-01-21 23:37:25.278000+00:00,train
709,-0.9397069811820984,-1.0,2021-01-21 23:37:55.278000+00:00,train
710,-0.9396294951438904,-1.0,2021-01-21 23:38:25.278000+00:00,train
711,-0.9395517110824585,-1.0,2021-01-21 23:38:55.278000+00:00,train
712,-0.9394738674163818,-1.0,2021-01-21 23:39:25.278000+00:00,train
713,-0.9393940567970276,-1.0,2021-01-21 23:39:55.278000+00:00,train
714,-0.9393371939659119,-1.0,2021-01-21 23:40:25.278000+00:00,train
715,-0.9392803907394409,-1.0,2021-01-21 23:40:55.278000+00:00,train
716,-0.93922358751297,-1.0,2021-01-21 23:41:25.278000+00:00,train
717,-0.939166784286499,-1.0,2021-01-21 23:41:55.278000+00:00,train
718,-0.939110279083252,-1.0,2021-01-21 23:42:25.278000+00:00,train
719,-0.9390537738800049,-1.0,2021-01-21 23:42:55.278000+00:00,train
720,-0.9389971494674683,-1.0,2021-01-21 23:43:25.278000+00:00,train
721,-0.9389405846595764,-1.0,2021-01-21 23:43:55.278000+00:00,train
722,-0.9388840794563293,-1.0,2021-01-21 23:44:25.278000+00:00,train
723,-0.9388213753700256,-1.0,2021-01-21 23:44:55.278000+00:00,train
724,-0.9387587904930115,-1.0,2021-01-21 23:45:25.278000+00:00,train
725,-0.9386963844299316,-1.0,2021-01-21 23:45:55.278000+00:00,train
726,-0.938633918762207,-1.0,2021-01-21 23:46:25.278000+00:00,train
727,-0.9385714530944824,-1.0,2021-01-21 23:46:55.278000+00:00,train
728,-0.9385089874267578,-1.0,2021-01-21 23:47:25.278000+00:00,train
729,-0.938446581363678,-1.0,2021-01-21 23:47:55.278000+00:00,train
730,-0.9383842349052429,-1.0,2021-01-21 23:48:25.278000+00:00,train
731,-0.9383218288421631,-1.0,2021-01-21 23:48:55.278000+00:00,train
732,-0.9382593035697937,-1.0,2021-01-21 23:49:25.278000+00:00,train
733,-0.9381967782974243,-1.0,2021-01-21 23:49:55.278000+00:00,train
734,-0.9381341934204102,-1.0,2021-01-21 23:50:25.278000+00:00,train
735,-0.9380717277526855,-1.0,2021-01-21 23:50:55.278000+00:00,train
736,-0.9380072951316833,-1.0,2021-01-21 23:51:25.278000+00:00,train
737,-0.9379614591598511,-1.0,2021-01-21 23:51:55.278000+00:00,train
738,-0.9379156231880188,-1.0,2021-01-21 23:52:25.278000+00:00,train
739,-0.9378699064254761,-1.0,2021-01-21 23:52:55.278000+00:00,train
740,-0.9378243088722229,-1.0,2021-01-21 23:53:25.278000+00:00,train
741,-0.9377790093421936,-1.0,2021-01-21 23:53:55.278000+00:00,train
742,-0.9377337098121643,-1.0,2021-01-21 23:54:25.278000+00:00,train
743,-0.9376883506774902,-1.0,2021-01-21 23:54:55.278000+00:00,train
744,-0.9376430511474609,-1.0,2021-01-21 23:55:25.278000+00:00,train
745,-0.937597930431366,-1.0,2021-01-21 23:55:55.278000+00:00,train
746,-0.9375681281089783,-1.0,2021-01-21 23:56:25.278000+00:00,train
747,-0.937538206577301,-1.0,2021-01-21 23:56:55.278000+00:00,train
748,-0.937508225440979,-1.0,2021-01-21 23:57:25.278000+00:00,train
749,-0.9374784231185913,-1.0,2021-01-21 23:57:55.278000+00:00,train
750,-0.9374487400054932,-1.0,2021-01-21 23:58:25.278000+00:00,train
751,-0.9374192953109741,-1.0,2021-01-21 23:58:55.278000+00:00,train
752,-0.9373900890350342,-1.0,2021-01-21 23:59:25.278000+00:00,train
753,-0.9373610019683838,-1.0,2021-01-21 23:59:55.278000+00:00,train
754,-0.937332034111023,-1.0,2021-01-22 00:00:25.278000+00:00,train
755,-0.937303364276886,-1.0,2021-01-22 00:00:55.278000+00:00,train
756,-0.9372748136520386,-1.0,2021-01-22 00:01:25.278000+00:00,train
757,-0.9372463226318359,-1.0,2021-01-22 00:01:55.278000+00:00,train
758,-0.9372179508209229,-1.0,2021-01-22 00:02:25.278000+00:00,train
759,-0.9371887445449829,-1.0,2021-01-22 00:02:55.278000+00:00,train
760,-0.937173068523407,-1.0,2021-01-22 00:03:25.278000+00:00,train
761,-0.9371576309204102,-1.0,2021-01-22 00:03:55.278000+00:00,train
762,-0.9371421933174133,-1.0,2021-01-22 00:04:25.278000+00:00,train
763,-0.937126874923706,-1.0,2021-01-22 00:04:55.278000+00:00,train
764,-0.937111496925354,-1.0,2021-01-22 00:05:25.278000+00:00,train
765,-0.9370962977409363,-1.0,2021-01-22 00:05:55.278000+00:00,train
766,-0.9370812177658081,-1.0,2021-01-22 00:06:25.278000+00:00,train
767,-0.9370660781860352,-1.0,2021-01-22 00:06:55.278000+00:00,train
768,-0.937050998210907,-1.0,2021-01-22 00:07:25.278000+00:00,train
769,-0.9370359778404236,-1.0,2021-01-22 00:07:55.278000+00:00,train
770,-0.937021017074585,-1.0,2021-01-22 00:08:25.278000+00:00,train
771,-0.9370061159133911,-1.0,2021-01-22 00:08:55.278000+00:00,train
772,-0.9369913935661316,-1.0,2021-01-22 00:09:25.278000+00:00,train
773,-0.9369766712188721,-1.0,2021-01-22 00:09:55.278000+00:00,train
774,-0.9369619488716125,-1.0,2021-01-22 00:10:25.278000+00:00,train
775,-0.9369472861289978,-1.0,2021-01-22 00:10:55.278000+00:00,train
776,-0.9369326829910278,-1.0,2021-01-22 00:11:25.278000+00:00,train
777,-0.9369181394577026,-1.0,2021-01-22 00:11:55.278000+00:00,train
778,-0.9368975162506104,-1.0,2021-01-22 00:12:25.278000+00:00,train
779,-0.9368763566017151,-1.0,2021-01-22 00:12:55.278000+00:00,train
780,-0.9368551969528198,-1.0,2021-01-22 00:13:25.278000+00:00,train
781,-0.9368339776992798,-1.0,2021-01-22 00:13:55.278000+00:00,train
782,-0.9368122816085815,-1.0,2021-01-22 00:14:25.278000+00:00,train
783,-0.9368005990982056,-1.0,2021-01-22 00:14:55.278000+00:00,train
784,-0.9367889761924744,-1.0,2021-01-22 00:15:25.278000+00:00,train
785,-0.9367773532867432,-1.0,2021-01-22 00:15:55.278000+00:00,train
786,-0.9367656111717224,-1.0,2021-01-22 00:16:25.278000+00:00,train
787,-0.9367538690567017,-1.0,2021-01-22 00:16:55.278000+00:00,train
788,-0.9367421865463257,-1.0,2021-01-22 00:17:25.278000+00:00,train
789,-0.9367305636405945,-1.0,2021-01-22 00:17:55.278000+00:00,train
790,-0.9367188811302185,-1.0,2021-01-22 00:18:25.278000+00:00,train
791,-0.9367071390151978,-1.0,2021-01-22 00:18:55.278000+00:00,train
792,-0.9366953372955322,-1.0,2021-01-22 00:19:25.278000+00:00,train
793,-0.9366834759712219,-1.0,2021-01-22 00:19:55.278000+00:00,train
794,-0.9366714358329773,-1.0,2021-01-22 00:20:25.278000+00:00,train
795,-0.9366593956947327,-1.0,2021-01-22 00:20:55.278000+00:00,train
796,-0.9366475939750671,-1.0,2021-01-22 00:21:25.278000+00:00,train
797,-0.9366371631622314,-1.0,2021-01-22 00:21:55.278000+00:00,train
798,-0.9366325736045837,-1.0,2021-01-22 00:22:25.278000+00:00,train
799,-1.0,-1.0,2021-01-22 00:22:55.278000+00:00,train
800,-1.0,-1.0,2021-01-22 00:23:25.278000+00:00,train
801,-1.0,-1.0,2021-01-22 00:23:55.278000+00:00,train
802,-1.0,-1.0,2021-01-22 00:24:25.278000+00:00,train
803,-1.0,-1.0,2021-01-22 00:24:55.278000+00:00,train
804,-1.0,-1.0,2021-01-22 00:25:25.278000+00:00,train
805,-1.0,-1.0,2021-01-22 00:25:55.278000+00:00,train
806,-1.0,-1.0,2021-01-22 00:26:25.278000+00:00,train
807,-1.0,-1.0,2021-01-22 00:26:55.278000+00:00,train
808,-1.0,-1.0,2021-01-22 00:27:25.278000+00:00,train
809,-1.0,-1.0,2021-01-22 00:27:55.278000+00:00,train
810,-1.0,-1.0,2021-01-22 00:28:25.278000+00:00,train
811,-1.0,-1.0,2021-01-22 00:28:55.278000+00:00,train
812,-1.0,-1.0,2021-01-22 00:29:25.278000+00:00,train
813,-1.0,-1.0,2021-01-22 00:29:55.278000+00:00,train
814,-1.0,-1.0,2021-01-22 00:30:25.278000+00:00,train
815,-1.0,-1.0,2021-01-22 00:30:55.278000+00:00,train
816,-1.0,-1.0,2021-01-22 00:31:25.278000+00:00,train
817,-1.0,-1.0,2021-01-22 00:31:55.278000+00:00,train
818,-1.0,-1.0,2021-01-22 00:32:25.278000+00:00,train
819,-1.0,-1.0,2021-01-22 00:32:55.278000+00:00,train
820,-1.0,-1.0,2021-01-22 00:33:25.278000+00:00,train
821,-1.0,-1.0,2021-01-22 00:33:55.278000+00:00,train
822,-1.0,-1.0,2021-01-22 00:34:25.278000+00:00,train
823,-1.0,-1.0,2021-01-22 00:34:55.278000+00:00,train
824,-1.0,-1.0,2021-01-22 00:35:25.278000+00:00,train
825,-1.0,-1.0,2021-01-22 00:35:55.278000+00:00,train
826,-1.0,-1.0,2021-01-22 00:36:25.278000+00:00,train
827,-1.0,-1.0,2021-01-22 00:36:55.278000+00:00,train
828,-1.0,-1.0,2021-01-22 00:37:25.278000+00:00,train
829,-1.0,-1.0,2021-01-22 00:37:55.278000+00:00,train
830,-1.0,-1.0,2021-01-22 00:38:25.278000+00:00,train
831,-1.0,-1.0,2021-01-22 00:38:55.278000+00:00,train
832,-1.0,-1.0,2021-01-22 00:39:25.278000+00:00,train
833,-1.0,-1.0,2021-01-22 00:39:55.278000+00:00,train
834,-1.0,-1.0,2021-01-22 00:40:25.278000+00:00,train
835,-1.0,-1.0,2021-01-22 00:40:55.278000+00:00,train
836,-1.0,-1.0,2021-01-22 00:41:25.278000+00:00,train
837,-1.0,-1.0,2021-01-22 00:41:55.278000+00:00,train
838,-1.0,-1.0,2021-01-22 00:42:25.278000+00:00,train
839,-1.0,-1.0,2021-01-22 00:42:55.278000+00:00,train
840,-1.0,-1.0,2021-01-22 00:43:25.278000+00:00,train
841,-1.0,-1.0,2021-01-22 00:43:55.278000+00:00,train
842,-1.0,-1.0,2021-01-22 00:44:25.278000+00:00,train
843,-1.0,-1.0,2021-01-22 00:44:55.278000+00:00,train
844,-1.0,-1.0,2021-01-22 00:45:25.278000+00:00,train
845,-1.0,-1.0,2021-01-22 00:45:55.278000+00:00,train
846,-1.0,-1.0,2021-01-22 00:46:25.278000+00:00,train
847,-1.0,-1.0,2021-01-22 00:46:55.278000+00:00,train
848,-1.0,-1.0,2021-01-22 00:47:25.278000+00:00,train
849,-1.0,-1.0,2021-01-22 00:47:55.278000+00:00,train
850,-1.0,-1.0,2021-01-22 00:48:25.278000+00:00,train
851,-1.0,-1.0,2021-01-22 00:48:55.278000+00:00,train
852,-1.0,-1.0,2021-01-22 00:49:25.278000+00:00,train
853,-1.0,-1.0,2021-01-22 00:49:55.278000+00:00,train
854,-1.0,-1.0,2021-01-22 00:50:25.278000+00:00,train
855,-1.0,-1.0,2021-01-22 00:50:55.278000+00:00,train
856,-1.0,-1.0,2021-01-22 00:51:25.278000+00:00,train
857,-1.0,-1.0,2021-01-22 00:51:55.278000+00:00,train
858,-1.0,-1.0,2021-01-22 00:52:25.278000+00:00,train
859,-1.0,-1.0,2021-01-22 00:52:55.278000+00:00,train
860,-1.0,-1.0,2021-01-22 00:53:25.278000+00:00,train
861,-1.0,-1.0,2021-01-22 00:53:55.278000+00:00,train
862,-1.0,-1.0,2021-01-22 00:54:25.278000+00:00,train
863,-1.0,-1.0,2021-01-22 00:54:55.278000+00:00,train
864,-1.0,-1.0,2021-01-22 00:55:25.278000+00:00,train
865,-1.0,-1.0,2021-01-22 00:55:55.278000+00:00,train
866,-1.0,-1.0,2021-01-22 00:56:25.278000+00:00,train
867,-1.0,-1.0,2021-01-22 00:56:55.278000+00:00,train
868,-1.0,-1.0,2021-01-22 00:57:25.278000+00:00,train
869,-1.0,-1.0,2021-01-22 00:57:55.278000+00:00,train
870,-1.0,-1.0,2021-01-22 00:58:25.278000+00:00,train
871,-1.0,-1.0,2021-01-22 00:58:55.278000+00:00,train
872,-1.0,-1.0,2021-01-22 00:59:25.278000+00:00,train
873,-1.0,-1.0,2021-01-22 00:59:55.278000+00:00,train
874,-1.0,-1.0,2021-01-22 01:00:25.278000+00:00,train
875,-1.0,-1.0,2021-01-22 01:00:55.278000+00:00,train
876,-1.0,-1.0,2021-01-22 01:01:25.278000+00:00,train
877,-1.0,-1.0,2021-01-22 01:01:55.278000+00:00,train
878,-1.0,-1.0,2021-01-22 01:02:25.278000+00:00,train
879,-1.0,-1.0,2021-01-22 01:02:55.278000+00:00,train
880,-1.0,-1.0,2021-01-22 01:03:25.278000+00:00,train
881,-1.0,-1.0,2021-01-22 01:03:55.278000+00:00,train
882,-1.0,-1.0,2021-01-22 01:04:25.278000+00:00,train
883,-1.0,-1.0,2021-01-22 01:04:55.278000+00:00,train
884,-1.0,-1.0,2021-01-22 01:05:25.278000+00:00,train
885,-1.0,-1.0,2021-01-22 01:05:55.278000+00:00,train
886,-1.0,-1.0,2021-01-22 01:06:25.278000+00:00,train
887,-1.0,-1.0,2021-01-22 01:06:55.278000+00:00,train
888,-1.0,-1.0,2021-01-22 01:07:25.278000+00:00,train
889,-1.0,-1.0,2021-01-22 01:07:55.278000+00:00,train
890,-1.0,-1.0,2021-01-22 01:08:25.278000+00:00,train
891,-1.0,-1.0,2021-01-22 01:08:55.278000+00:00,train
892,-1.0,-1.0,2021-01-22 01:09:25.278000+00:00,train
893,-1.0,-1.0,2021-01-22 01:09:55.278000+00:00,train
894,-1.0,-1.0,2021-01-22 01:10:25.278000+00:00,train
895,-1.0,-1.0,2021-01-22 01:10:55.278000+00:00,train
896,-1.0,-1.0,2021-01-22 01:11:25.278000+00:00,train
897,-1.0,-1.0,2021-01-22 01:11:55.278000+00:00,train
898,-1.0,-1.0,2021-01-22 01:12:25.278000+00:00,train
899,-1.0,-1.0,2021-01-22 01:12:55.278000+00:00,train
900,-1.0,-1.0,2021-01-22 01:13:25.278000+00:00,train
901,-1.0,-1.0,2021-01-22 01:13:55.278000+00:00,train
902,-1.0,-1.0,2021-01-22 01:14:25.278000+00:00,train
903,-1.0,-1.0,2021-01-22 01:14:55.278000+00:00,train
904,-1.0,-1.0,2021-01-22 01:15:25.278000+00:00,train
905,-1.0,-1.0,2021-01-22 01:15:55.278000+00:00,train
906,-1.0,-1.0,2021-01-22 01:16:25.278000+00:00,train
907,-1.0,-1.0,2021-01-22 01:16:55.278000+00:00,train
908,-1.0,-1.0,2021-01-22 01:17:25.278000+00:00,train
909,-1.0,-1.0,2021-01-22 01:17:55.278000+00:00,train
910,-1.0,-1.0,2021-01-22 01:18:25.278000+00:00,train
911,-1.0,-1.0,2021-01-22 01:18:55.278000+00:00,train
912,-1.0,-1.0,2021-01-22 01:19:25.278000+00:00,train
913,-1.0,-1.0,2021-01-22 01:19:55.278000+00:00,train
914,-1.0,-1.0,2021-01-22 01:20:25.278000+00:00,train
915,-1.0,-1.0,2021-01-22 01:20:55.278000+00:00,train
916,-1.0,-1.0,2021-01-22 01:21:25.278000+00:00,train
917,-1.0,-1.0,2021-01-22 01:21:55.278000+00:00,train
918,-1.0,-1.0,2021-01-22 01:22:25.278000+00:00,train
919,-1.0,-1.0,2021-01-22 01:22:55.278000+00:00,train
920,-1.0,-1.0,2021-01-22 01:23:25.278000+00:00,train
921,-1.0,-1.0,2021-01-22 01:23:55.278000+00:00,train
922,-1.0,-1.0,2021-01-22 01:24:25.278000+00:00,train
923,-1.0,-1.0,2021-01-22 01:24:55.278000+00:00,train
924,-1.0,-1.0,2021-01-22 01:25:25.278000+00:00,train
925,-1.0,-1.0,2021-01-22 01:25:55.278000+00:00,train
926,-1.0,-1.0,2021-01-22 01:26:25.278000+00:00,train
927,-1.0,-1.0,2021-01-22 01:26:55.278000+00:00,train
928,-1.0,-1.0,2021-01-22 01:27:25.278000+00:00,train
929,-1.0,-1.0,2021-01-22 01:27:55.278000+00:00,train
930,-1.0,-1.0,2021-01-22 01:28:25.278000+00:00,train
931,-1.0,-1.0,2021-01-22 01:28:55.278000+00:00,train
932,-1.0,-1.0,2021-01-22 01:29:25.278000+00:00,train
933,-1.0,-1.0,2021-01-22 01:29:55.278000+00:00,train
934,-1.0,-1.0,2021-01-22 01:30:25.278000+00:00,train
935,-1.0,-1.0,2021-01-22 01:30:55.278000+00:00,train
936,-1.0,-1.0,2021-01-22 01:31:25.278000+00:00,train
937,-1.0,-1.0,2021-01-22 01:31:55.278000+00:00,train
938,-1.0,-1.0,2021-01-22 01:32:25.278000+00:00,train
939,-1.0,0.0,2021-01-22 01:32:55.278000+00:00,train
940,-1.0,0.0,2021-01-22 01:33:25.278000+00:00,train
941,-1.0,0.0,2021-01-22 01:33:55.278000+00:00,train
942,-1.0,0.0,2021-01-22 01:34:25.278000+00:00,train
943,-0.9341323971748352,0.0,2021-01-22 01:34:55.278000+00:00,train
944,-0.9034217000007629,0.0,2021-01-22 01:35:25.278000+00:00,train
945,-0.8785679340362549,0.0,2021-01-22 01:35:55.278000+00:00,train
946,-0.856775164604187,0.0,2021-01-22 01:36:25.278000+00:00,train
947,-0.836956799030304,0.0,2021-01-22 01:36:55.278000+00:00,train
948,-0.8185542225837708,0.0,2021-01-22 01:37:25.278000+00:00,train
949,-0.8012347221374512,-1.0,2021-01-22 01:37:55.278000+00:00,train
950,-0.784780740737915,0.0,2021-01-22 01:38:25.278000+00:00,train
951,-0.7690407633781433,0.0,2021-01-22 01:38:55.278000+00:00,train
952,-0.753904402256012,0.0,2021-01-22 01:39:25.278000+00:00,train
953,-0.7539050579071045,0.0,2021-01-22 01:39:55.278000+00:00,train
954,-0.739273190498352,0.0,2021-01-22 01:40:25.278000+00:00,train
955,-0.725088894367218,0.0,2021-01-22 01:40:55.278000+00:00,train
956,-0.7113049030303955,0.0,2021-01-22 01:41:25.278000+00:00,train
957,-0.6978795528411865,0.0,2021-01-22 01:41:55.278000+00:00,train
958,-0.6847781538963318,0.0,2021-01-22 01:42:25.278000+00:00,train
959,-0.6719719171524048,0.0,2021-01-22 01:42:55.278000+00:00,train
960,-0.6594365835189819,0.0,2021-01-22 01:43:25.278000+00:00,train
961,-0.6442615985870361,0.0,2021-01-22 01:43:55.278000+00:00,train
962,-0.6321684718132019,0.0,2021-01-22 01:44:25.278000+00:00,train
963,-0.6202954053878784,0.0,2021-01-22 01:44:55.278000+00:00,train
964,-0.6086283922195435,0.0,2021-01-22 01:45:25.278000+00:00,train
965,-0.5971542000770569,0.0,2021-01-22 01:45:55.278000+00:00,train
966,-0.5858885645866394,0.0,2021-01-22 01:46:25.278000+00:00,train
967,-0.5747955441474915,0.0,2021-01-22 01:46:55.278000+00:00,train
968,-0.5638666749000549,0.0,2021-01-22 01:47:25.278000+00:00,train
969,-0.5530940294265747,0.0,2021-01-22 01:47:55.278000+00:00,train
970,-0.5424704551696777,0.0,2021-01-22 01:48:25.278000+00:00,train
971,-0.5319898724555969,0.0,2021-01-22 01:48:55.278000+00:00,train
972,-0.5216450095176697,0.0,2021-01-22 01:49:25.278000+00:00,train
973,-0.5114307999610901,0.0,2021-01-22 01:49:55.278000+00:00,train
974,-0.5013425350189209,0.0,2021-01-22 01:50:25.278000+00:00,train
975,-0.4913753569126129,0.0,2021-01-22 01:50:55.278000+00:00,train
976,-0.48152512311935425,0.0,2021-01-22 01:51:25.278000+00:00,train
977,-0.47178852558135986,0.0,2021-01-22 01:51:55.278000+00:00,train
978,-0.46216052770614624,0.0,2021-01-22 01:52:25.278000+00:00,train
979,-0.4526385962963104,0.0,2021-01-22 01:52:55.278000+00:00,train
980,-0.443219393491745,0.0,2021-01-22 01:53:25.278000+00:00,train
981,-0.43390020728111267,0.0,2021-01-22 01:53:55.278000+00:00,train
982,-0.4246789216995239,0.0,2021-01-22 01:54:25.278000+00:00,train
983,-0.4155522286891937,0.0,2021-01-22 01:54:55.278000+00:00,train
984,-0.40651735663414,0.0,2021-01-22 01:55:25.278000+00:00,train
985,-0.3975725769996643,0.0,2021-01-22 01:55:55.278000+00:00,train
986,-0.38871610164642334,0.0,2021-01-22 01:56:25.278000+00:00,train
987,-0.37991786003112793,0.0,2021-01-22 01:56:55.278000+00:00,train
988,-0.37120336294174194,0.0,2021-01-22 01:57:25.278000+00:00,train
989,-0.3625704050064087,0.0,2021-01-22 01:57:55.278000+00:00,train
990,-0.3540184497833252,0.0,2021-01-22 01:58:25.278000+00:00,train
991,-0.3455459475517273,0.0,2021-01-22 01:58:55.278000+00:00,train
992,-0.33715179562568665,0.0,2021-01-22 01:59:25.278000+00:00,train
993,-0.3288353383541107,0.0,2021-01-22 01:59:55.278000+00:00,train
994,-0.32059428095817566,0.0,2021-01-22 02:00:25.278000+00:00,train
995,-0.3124501407146454,0.0,2021-01-22 02:00:55.278000+00:00,train
996,-0.304379403591156,0.0,2021-01-22 02:01:25.278000+00:00,train
997,-0.2963809370994568,0.0,2021-01-22 02:01:55.278000+00:00,train
998,-0.2884542942047119,0.0,2021-01-22 02:02:25.278000+00:00,train
999,-0.28059908747673035,0.0,2021-01-22 02:02:55.278000+00:00,train
1000,-0.27281829714775085,0.0,2021-01-22 02:03:25.278000+00:00,train
1001,-0.26500099897384644,0.0,2021-01-22 02:03:55.278000+00:00,train
1002,-0.2572539746761322,0.0,2021-01-22 02:04:25.278000+00:00,train
1003,-0.24957701563835144,0.0,2021-01-22 02:04:55.278000+00:00,train
1004,-0.2419702410697937,0.0,2021-01-22 02:05:25.278000+00:00,train
1005,-0.23443330824375153,0.0,2021-01-22 02:05:55.278000+00:00,train
1006,-0.22696635127067566,0.0,2021-01-22 02:06:25.278000+00:00,train
1007,-0.21956981718540192,0.0,2021-01-22 02:06:55.278000+00:00,train
1008,-0.2122441530227661,0.0,2021-01-22 02:07:25.278000+00:00,train
1009,-0.2049889713525772,0.0,2021-01-22 02:07:55.278000+00:00,train
1010,-0.19788728654384613,0.0,2021-01-22 02:08:25.278000+00:00,train
1011,-0.19085507094860077,0.0,2021-01-22 02:08:55.278000+00:00,train
1012,-0.18389664590358734,0.0,2021-01-22 02:09:25.278000+00:00,train
1013,-0.17701393365859985,0.0,2021-01-22 02:09:55.278000+00:00,train
1014,-0.1702067255973816,0.0,2021-01-22 02:10:25.278000+00:00,train
1015,-0.16347531974315643,0.0,2021-01-22 02:10:55.278000+00:00,train
1016,-0.15682166814804077,0.0,2021-01-22 02:11:25.278000+00:00,train
1017,-0.15024670958518982,0.0,2021-01-22 02:11:55.278000+00:00,train
1018,-0.14375123381614685,0.0,2021-01-22 02:12:25.278000+00:00,train
1019,-0.1373365968465805,0.0,2021-01-22 02:12:55.278000+00:00,train
1020,-0.1309984177350998,0.0,2021-01-22 02:13:25.278000+00:00,train
1021,-0.12478210777044296,0.0,2021-01-22 02:13:55.278000+00:00,train
1022,-0.11864341795444489,0.0,2021-01-22 02:14:25.278000+00:00,train
1023,-0.11257871985435486,0.0,2021-01-22 02:14:55.278000+00:00,train
1024,-0.10658029466867447,0.0,2021-01-22 02:15:25.278000+00:00,train
1025,-0.10063853114843369,0.0,2021-01-22 02:15:55.278000+00:00,train
1026,-0.09474338591098785,0.0,2021-01-22 02:16:25.278000+00:00,train
1027,-0.08887997269630432,0.0,2021-01-22 02:16:55.278000+00:00,train
1028,-0.08303068578243256,0.0,2021-01-22 02:17:25.278000+00:00,train
1029,-0.07578831911087036,0.0,2021-01-22 02:17:55.278000+00:00,train
1030,-0.06968719512224197,0.0,2021-01-22 02:18:25.278000+00:00,train
1031,-0.06338263303041458,0.0,2021-01-22 02:18:55.278000+00:00,train
1032,-0.05675295367836952,0.0,2021-01-22 02:19:25.278000+00:00,train
1033,-0.049633484333753586,0.0,2021-01-22 02:19:55.278000+00:00,train
1034,-0.041881710290908813,0.0,2021-01-22 02:20:25.278000+00:00,train
1035,-0.03365393355488777,0.0,2021-01-22 02:20:55.278000+00:00,train
1036,-0.025502586737275124,0.0,2021-01-22 02:21:25.278000+00:00,train
1037,-0.018293648958206177,0.0,2021-01-22 02:21:55.278000+00:00,train
1038,-0.012427452951669693,0.0,2021-01-22 02:22:25.278000+00:00,train
1039,-0.0077977897599339485,0.0,2021-01-22 02:22:55.278000+00:00,train
1040,-0.004049656447023153,0.0,2021-01-22 02:23:25.278000+00:00,train
1041,-0.0005846954882144928,0.0,2021-01-22 02:23:55.278000+00:00,train
1042,0.002881573745980859,0.0,2021-01-22 02:24:25.278000+00:00,train
1043,0.006451830267906189,0.0,2021-01-22 02:24:55.278000+00:00,train
1044,0.010161253623664379,0.0,2021-01-22 02:25:25.278000+00:00,train
1045,0.013998624868690968,0.0,2021-01-22 02:25:55.278000+00:00,val
1046,0.01793738082051277,0.0,2021-01-22 02:26:25.278000+00:00,val
1047,0.021948307752609253,0.0,2021-01-22 02:26:55.278000+00:00,val
1048,0.026006687432527542,0.0,2021-01-22 02:27:25.278000+00:00,val
1049,0.03007032535970211,0.0,2021-01-22 02:27:55.278000+00:00,val
1050,0.03414352610707283,0.0,2021-01-22 02:28:25.278000+00:00,val
1051,0.038210999220609665,0.0,2021-01-22 02:28:55.278000+00:00,val
1052,0.04226015508174896,0.0,2021-01-22 02:29:25.278000+00:00,val
1053,0.04630301147699356,0.0,2021-01-22 02:29:55.278000+00:00,val
1054,0.05031449347734451,0.0,2021-01-22 02:30:25.278000+00:00,val
1055,0.05428333580493927,0.0,2021-01-22 02:30:55.278000+00:00,val
1056,0.05820159986615181,0.0,2021-01-22 02:31:25.278000+00:00,val
1057,0.06206352263689041,0.0,2021-01-22 02:31:55.278000+00:00,val
1058,0.06586405634880066,0.0,2021-01-22 02:32:25.278000+00:00,val
1059,0.06959822028875351,0.0,2021-01-22 02:32:55.278000+00:00,val
1060,0.07326274365186691,0.0,2021-01-22 02:33:25.278000+00:00,val
1061,0.07685413211584091,0.0,2021-01-22 02:33:55.278000+00:00,val
1062,0.08036826550960541,0.0,2021-01-22 02:34:25.278000+00:00,val
1063,0.08380171656608582,0.0,2021-01-22 02:34:55.278000+00:00,val
1064,0.08715058118104935,0.0,2021-01-22 02:35:25.278000+00:00,val
1065,0.09041237086057663,0.0,2021-01-22 02:35:55.278000+00:00,val
1066,0.09358346462249756,0.0,2021-01-22 02:36:25.278000+00:00,val
1067,0.09666047990322113,0.0,2021-01-22 02:36:55.278000+00:00,val
1068,0.09963957965373993,0.0,2021-01-22 02:37:25.278000+00:00,val
1069,0.1025170311331749,0.0,2021-01-22 02:37:55.278000+00:00,val
1070,0.10528842359781265,0.0,2021-01-22 02:38:25.278000+00:00,val
1071,0.10795038193464279,0.0,2021-01-22 02:38:55.278000+00:00,val
1072,0.11049859970808029,0.0,2021-01-22 02:39:25.278000+00:00,val
1073,0.1129283532500267,0.0,2021-01-22 02:39:55.278000+00:00,val
1074,0.11523441225290298,0.0,2021-01-22 02:40:25.278000+00:00,val
1075,0.11741158366203308,0.0,2021-01-22 02:40:55.278000+00:00,val
1076,0.1194535493850708,0.0,2021-01-22 02:41:25.278000+00:00,val
1077,0.12135489284992218,0.0,2021-01-22 02:41:55.278000+00:00,val
1078,0.12310869991779327,0.0,2021-01-22 02:42:25.278000+00:00,val
1079,0.12470734864473343,0.0,2021-01-22 02:42:55.278000+00:00,val
1080,0.12614238262176514,0.0,2021-01-22 02:43:25.278000+00:00,val
1081,0.1274048089981079,0.0,2021-01-22 02:43:55.278000+00:00,val
1082,0.1284838169813156,0.0,2021-01-22 02:44:25.278000+00:00,val
1083,0.12936857342720032,0.0,2021-01-22 02:44:55.278000+00:00,val
1084,0.13003598153591156,0.0,2021-01-22 02:45:25.278000+00:00,val
1085,0.13048364222049713,0.0,2021-01-22 02:45:55.278000+00:00,val
1086,0.13069576025009155,0.0,2021-01-22 02:46:25.278000+00:00,val
1087,0.13061583042144775,0.0,2021-01-22 02:46:55.278000+00:00,val
1088,0.13025975227355957,0.0,2021-01-22 02:47:25.278000+00:00,val
1089,0.12964224815368652,0.0,2021-01-22 02:47:55.278000+00:00,val
1090,0.12869177758693695,0.0,2021-01-22 02:48:25.278000+00:00,val
1091,0.12737412750720978,0.0,2021-01-22 02:48:55.278000+00:00,val
1092,0.1256464272737503,0.0,2021-01-22 02:49:25.278000+00:00,val
1093,0.12345576286315918,0.0,2021-01-22 02:49:55.278000+00:00,val
1094,0.12073615938425064,0.0,2021-01-22 02:50:25.278000+00:00,val
1095,0.11740245670080185,0.0,2021-01-22 02:50:55.278000+00:00,val
1096,0.11334210634231567,0.0,2021-01-22 02:51:25.278000+00:00,val
1097,0.10840176790952682,0.0,2021-01-22 02:51:55.278000+00:00,val
1098,0.10236047208309174,0.0,2021-01-22 02:52:25.278000+00:00,val
1099,0.09487990289926529,0.0,2021-01-22 02:52:55.278000+00:00,val
1100,0.0853925421833992,0.0,2021-01-22 02:53:25.278000+00:00,val
1101,0.07279493659734726,0.0,2021-01-22 02:53:55.278000+00:00,val
1102,0.05424690991640091,0.0,2021-01-22 02:54:25.278000+00:00,val
1103,0.054241325706243515,0.0,2021-01-22 02:54:55.278000+00:00,val
1104,0.054235756397247314,0.0,2021-01-22 02:55:25.278000+00:00,val
1105,0.054230161011219025,0.0,2021-01-22 02:55:55.278000+00:00,val
1106,0.054224517196416855,0.0,2021-01-22 02:56:25.278000+00:00,val
1107,0.054218679666519165,0.0,2021-01-22 02:56:55.278000+00:00,val
1108,0.05421285703778267,0.0,2021-01-22 02:57:25.278000+00:00,val
1109,0.05420706421136856,0.0,2021-01-22 02:57:55.278000+00:00,val
1110,0.05420117452740669,0.0,2021-01-22 02:58:25.278000+00:00,val
1111,0.05419514700770378,0.0,2021-01-22 02:58:55.278000+00:00,val
1112,0.054189302027225494,0.0,2021-01-22 02:59:25.278000+00:00,val
1113,0.0,0.0,2021-01-22 02:59:55.278000+00:00,val
1114,0.0,0.0,2021-01-22 03:00:25.278000+00:00,val
1115,0.0,0.0,2021-01-22 03:00:55.278000+00:00,val
1116,0.0,0.0,2021-01-22 03:01:25.278000+00:00,val
1117,0.0,0.0,2021-01-22 03:01:55.278000+00:00,val
1118,0.0,0.0,2021-01-22 03:02:25.278000+00:00,val
1119,0.0,0.0,2021-01-22 03:02:55.278000+00:00,val
1120,0.0,0.0,2021-01-22 03:03:25.278000+00:00,val
1121,0.0,0.0,2021-01-22 03:03:55.278000+00:00,val
1122,0.0,0.0,2021-01-22 03:04:25.278000+00:00,val
1123,0.0,0.0,2021-01-22 03:04:55.278000+00:00,val
1124,0.0,0.0,2021-01-22 03:05:25.278000+00:00,val
1125,0.0,0.0,2021-01-22 03:05:55.278000+00:00,val
1126,0.0,0.0,2021-01-22 03:06:25.278000+00:00,val
1127,0.0,0.0,2021-01-22 03:06:55.278000+00:00,val
1128,0.0,0.0,2021-01-22 03:07:25.278000+00:00,val
1129,0.0,0.0,2021-01-22 03:07:55.278000+00:00,val
1130,0.0,0.0,2021-01-22 03:08:25.278000+00:00,val
1131,0.0,0.0,2021-01-22 03:08:55.278000+00:00,val
1132,0.0,0.0,2021-01-22 03:09:25.278000+00:00,val
1133,0.0,0.0,2021-01-22 03:09:55.278000+00:00,val
1134,0.0,0.0,2021-01-22 03:10:25.278000+00:00,val
1135,0.0,0.0,2021-01-22 03:10:55.278000+00:00,val
1136,0.0,0.0,2021-01-22 03:11:25.278000+00:00,val
1137,0.0,0.0,2021-01-22 03:11:55.278000+00:00,val
1138,0.0,0.0,2021-01-22 03:12:25.278000+00:00,val
1139,0.0,0.0,2021-01-22 03:12:55.278000+00:00,val
1140,0.0,0.0,2021-01-22 03:13:25.278000+00:00,val
1141,0.0,0.0,2021-01-22 03:13:55.278000+00:00,val
1142,0.0,0.0,2021-01-22 03:14:25.278000+00:00,val
1143,0.0,0.0,2021-01-22 03:14:55.278000+00:00,val
1144,0.0,0.0,2021-01-22 03:15:25.278000+00:00,val
1145,0.0,0.0,2021-01-22 03:15:55.278000+00:00,val
1146,0.0,0.0,2021-01-22 03:16:25.278000+00:00,val
1147,0.0,0.0,2021-01-22 03:16:55.278000+00:00,val
1148,0.0,0.0,2021-01-22 03:17:25.278000+00:00,val
1149,0.0,0.0,2021-01-22 03:17:55.278000+00:00,val
1150,0.0,0.0,2021-01-22 03:18:25.278000+00:00,val
1151,0.0,0.0,2021-01-22 03:18:55.278000+00:00,val
1152,0.0,0.0,2021-01-22 03:19:25.278000+00:00,val
1153,0.0,0.0,2021-01-22 03:19:55.278000+00:00,val
1154,0.0,0.0,2021-01-22 03:20:25.278000+00:00,val
1155,0.0,0.0,2021-01-22 03:20:55.278000+00:00,val
1156,0.0,0.0,2021-01-22 03:21:25.278000+00:00,val
1157,0.0,0.0,2021-01-22 03:21:55.278000+00:00,val
1158,0.0,0.0,2021-01-22 03:22:25.278000+00:00,val
1159,0.0,0.0,2021-01-22 03:22:55.278000+00:00,val
1160,0.0,0.0,2021-01-22 03:23:25.278000+00:00,val
1161,0.0,0.0,2021-01-22 03:23:55.278000+00:00,val
1162,0.0,0.0,2021-01-22 03:24:25.278000+00:00,val
1163,0.0,0.0,2021-01-22 03:24:55.278000+00:00,val
1164,0.0,0.0,2021-01-22 03:25:25.278000+00:00,val
1165,0.0,0.0,2021-01-22 03:25:55.278000+00:00,val
1166,0.0,0.0,2021-01-22 03:26:25.278000+00:00,val
1167,0.0,0.0,2021-01-22 03:26:55.278000+00:00,val
1168,0.0,0.0,2021-01-22 03:27:25.278000+00:00,val
1169,0.0,0.0,2021-01-22 03:27:55.278000+00:00,val
1170,0.0,0.0,2021-01-22 03:28:25.278000+00:00,val
1171,0.0,0.0,2021-01-22 03:28:55.278000+00:00,val
1172,0.0,0.0,2021-01-22 03:29:25.278000+00:00,val
1173,0.0,0.0,2021-01-22 03:29:55.278000+00:00,val
1174,0.0,0.0,2021-01-22 03:30:25.278000+00:00,val
1175,0.0,0.0,2021-01-22 03:30:55.278000+00:00,val
1176,0.0,0.0,2021-01-22 03:31:25.278000+00:00,val
1177,0.0,0.0,2021-01-22 03:31:55.278000+00:00,val
1178,0.0,0.0,2021-01-22 03:32:25.278000+00:00,val
1179,0.0,0.0,2021-01-22 03:32:55.278000+00:00,val
1180,0.0,0.0,2021-01-22 03:33:25.278000+00:00,val
1181,0.0,0.0,2021-01-22 03:33:55.278000+00:00,val
1182,0.0,0.0,2021-01-22 03:34:25.278000+00:00,val
1183,0.0,0.0,2021-01-22 03:34:55.278000+00:00,val
1184,0.0,0.0,2021-01-22 03:35:25.278000+00:00,val
1185,0.0,0.0,2021-01-22 03:35:55.278000+00:00,val
1186,0.0,0.0,2021-01-22 03:36:25.278000+00:00,val
1187,0.0,0.0,2021-01-22 03:36:55.278000+00:00,val
1188,0.0,0.0,2021-01-22 03:37:25.278000+00:00,val
1189,0.0,0.0,2021-01-22 03:37:55.278000+00:00,val
1190,0.0,0.0,2021-01-22 03:38:25.278000+00:00,val
1191,0.0,0.0,2021-01-22 03:38:55.278000+00:00,val
1192,0.0,0.0,2021-01-22 03:39:25.278000+00:00,val
1193,0.0,0.0,2021-01-22 03:39:55.278000+00:00,val
1194,0.0,0.0,2021-01-22 03:40:25.278000+00:00,val
1195,0.0,0.0,2021-01-22 03:40:55.278000+00:00,val
1196,0.0,0.0,2021-01-22 03:41:25.278000+00:00,val
1197,0.0,0.0,2021-01-22 03:41:55.278000+00:00,val
1198,0.0,0.0,2021-01-22 03:42:25.278000+00:00,val
1199,0.0,0.0,2021-01-22 03:42:55.278000+00:00,val
1200,0.0,0.0,2021-01-22 03:43:25.278000+00:00,val
1201,0.0,0.0,2021-01-22 03:43:55.278000+00:00,val
1202,0.0,0.0,2021-01-22 03:44:25.278000+00:00,val
1203,0.0,0.0,2021-01-22 03:44:55.278000+00:00,val
1204,0.0,0.0,2021-01-22 03:45:25.278000+00:00,val
1205,0.0,0.0,2021-01-22 03:45:55.278000+00:00,val
1206,0.0,0.0,2021-01-22 03:46:25.278000+00:00,val
1207,0.0,0.0,2021-01-22 03:46:55.278000+00:00,val
1208,0.0,0.0,2021-01-22 03:47:25.278000+00:00,val
1209,0.0,0.0,2021-01-22 03:47:55.278000+00:00,val
1210,0.0,0.0,2021-01-22 03:48:25.278000+00:00,val
1211,0.0,0.0,2021-01-22 03:48:55.278000+00:00,val
1212,0.0,0.0,2021-01-22 03:49:25.278000+00:00,val
1213,0.0,0.0,2021-01-22 03:49:55.278000+00:00,val
1214,0.0,0.0,2021-01-22 03:50:25.278000+00:00,val
1215,0.0,0.0,2021-01-22 03:50:55.278000+00:00,val
1216,0.0,0.0,2021-01-22 03:51:25.278000+00:00,val
1217,0.0,0.0,2021-01-22 03:51:55.278000+00:00,val
1218,0.0,0.0,2021-01-22 03:52:25.278000+00:00,val
1219,0.0,0.0,2021-01-22 03:52:55.278000+00:00,val
1220,0.0,0.0,2021-01-22 03:53:25.278000+00:00,val
1221,0.0,0.0,2021-01-22 03:53:55.278000+00:00,val
1222,0.0,0.0,2021-01-22 03:54:25.278000+00:00,val
1223,0.0,0.0,2021-01-22 03:54:55.278000+00:00,val
1224,0.0,0.0,2021-01-22 03:55:25.278000+00:00,val
1225,0.0,0.0,2021-01-22 03:55:55.278000+00:00,val
1226,0.0,0.0,2021-01-22 03:56:25.278000+00:00,val
1227,0.0,0.0,2021-01-22 03:56:55.278000+00:00,val
1228,0.0,0.0,2021-01-22 03:57:25.278000+00:00,val
1229,0.0,0.0,2021-01-22 03:57:55.278000+00:00,val
1230,0.0,0.0,2021-01-22 03:58:25.278000+00:00,val
1231,0.0,0.0,2021-01-22 03:58:55.278000+00:00,val
1232,0.0,0.0,2021-01-22 03:59:25.278000+00:00,val
1233,0.0,0.0,2021-01-22 03:59:55.278000+00:00,val
1234,0.0,0.0,2021-01-22 04:00:25.278000+00:00,val
1235,0.0,0.0,2021-01-22 04:00:55.278000+00:00,val
1236,0.0,0.0,2021-01-22 04:01:25.278000+00:00,val
1237,0.0,0.0,2021-01-22 04:01:55.278000+00:00,val
1238,0.0,0.0,2021-01-22 04:02:25.278000+00:00,val
1239,0.0,0.0,2021-01-22 04:02:55.278000+00:00,val
1240,0.0,0.0,2021-01-22 04:03:25.278000+00:00,val
1241,0.0,0.0,2021-01-22 04:03:55.278000+00:00,val
1242,0.0,0.0,2021-01-22 04:04:25.278000+00:00,val
1243,0.0,0.0,2021-01-22 04:04:55.278000+00:00,val
1244,0.0,0.0,2021-01-22 04:05:25.278000+00:00,val
1245,0.0,0.0,2021-01-22 04:05:55.278000+00:00,val
1246,0.0,0.0,2021-01-22 04:06:25.278000+00:00,val
1247,0.0,0.0,2021-01-22 04:06:55.278000+00:00,val
1248,0.0,0.0,2021-01-22 04:07:25.278000+00:00,val
1249,0.0,0.0,2021-01-22 04:07:55.278000+00:00,val
1250,0.0,0.0,2021-01-22 04:08:25.278000+00:00,val
1251,0.0,0.0,2021-01-22 04:08:55.278000+00:00,val
1252,0.0,0.0,2021-01-22 04:09:25.278000+00:00,val
1253,0.0,0.0,2021-01-22 04:09:55.278000+00:00,val
1254,0.0,0.0,2021-01-22 04:10:25.278000+00:00,val
1255,0.0,0.0,2021-01-22 04:10:55.278000+00:00,val
1256,0.0,0.0,2021-01-22 04:11:25.278000+00:00,val
1257,0.0,0.0,2021-01-22 04:11:55.278000+00:00,val
1258,0.0,0.0,2021-01-22 04:12:25.278000+00:00,val
1259,0.0,0.0,2021-01-22 04:12:55.278000+00:00,val
1260,0.0,0.0,2021-01-22 04:13:25.278000+00:00,val
1261,0.0,0.0,2021-01-22 04:13:55.278000+00:00,val
1262,0.0,0.0,2021-01-22 04:14:25.278000+00:00,val
1263,0.0,0.0,2021-01-22 04:14:55.278000+00:00,val
1264,0.0,0.0,2021-01-22 04:15:25.278000+00:00,val
1265,0.0,0.0,2021-01-22 04:15:55.278000+00:00,val
1266,0.0,0.0,2021-01-22 04:16:25.278000+00:00,val
1267,0.0,0.0,2021-01-22 04:16:55.278000+00:00,val
1268,0.0,0.0,2021-01-22 04:17:25.278000+00:00,val
1269,0.0,0.0,2021-01-22 04:17:55.278000+00:00,val
1270,0.0,0.0,2021-01-22 04:18:25.278000+00:00,val
1271,0.0,0.0,2021-01-22 04:18:55.278000+00:00,val
1272,0.0,0.0,2021-01-22 04:19:25.278000+00:00,val
1273,0.0,0.0,2021-01-22 04:19:55.278000+00:00,val
1274,0.0,0.0,2021-01-22 04:20:25.278000+00:00,val
1275,0.0,0.0,2021-01-22 04:20:55.278000+00:00,val
1276,0.0,0.0,2021-01-22 04:21:25.278000+00:00,val
1277,0.0,0.0,2021-01-22 04:21:55.278000+00:00,val
1278,0.0,0.0,2021-01-22 04:22:25.278000+00:00,val
1279,0.0,0.0,2021-01-22 04:22:55.278000+00:00,val
1280,0.0,0.0,2021-01-22 04:23:25.278000+00:00,val
1281,0.0,0.0,2021-01-22 04:23:55.278000+00:00,val
1282,0.0,0.0,2021-01-22 04:24:25.278000+00:00,val
1283,0.0,0.0,2021-01-22 04:24:55.278000+00:00,val
1284,0.0,0.0,2021-01-22 04:25:25.278000+00:00,val
1285,0.0,0.0,2021-01-22 04:25:55.278000+00:00,val
1286,0.0,0.0,2021-01-22 04:26:25.278000+00:00,val
1287,0.0,0.0,2021-01-22 04:26:55.278000+00:00,val
1288,0.0,0.0,2021-01-22 04:27:25.278000+00:00,val
1289,0.0,0.0,2021-01-22 04:27:55.278000+00:00,val
1290,0.0,0.0,2021-01-22 04:28:25.278000+00:00,val
1291,0.0,0.0,2021-01-22 04:28:55.278000+00:00,val
1292,0.0,0.0,2021-01-22 04:29:25.278000+00:00,val
1293,0.0,0.0,2021-01-22 04:29:55.278000+00:00,val
1294,0.0,0.0,2021-01-22 04:30:25.278000+00:00,val
1295,0.0,0.0,2021-01-22 04:30:55.278000+00:00,val
1296,0.0,0.0,2021-01-22 04:31:25.278000+00:00,val
1297,0.0,0.0,2021-01-22 04:31:55.278000+00:00,val
1298,0.0,0.0,2021-01-22 04:32:25.278000+00:00,val
1299,0.0,0.0,2021-01-22 04:32:55.278000+00:00,val
1300,0.0,0.0,2021-01-22 04:33:25.278000+00:00,val
1301,0.0,0.0,2021-01-22 04:33:55.278000+00:00,val
1302,0.0,0.0,2021-01-22 04:34:25.278000+00:00,val
1303,0.0,0.0,2021-01-22 04:34:55.278000+00:00,val
1304,0.0,0.0,2021-01-22 04:35:25.278000+00:00,val
1305,0.0,0.0,2021-01-22 04:35:55.278000+00:00,val
1306,0.0,0.0,2021-01-22 04:36:25.278000+00:00,val
1307,0.0,0.0,2021-01-22 04:36:55.278000+00:00,val
1308,0.0,0.0,2021-01-22 04:37:25.278000+00:00,val
1309,0.0,0.0,2021-01-22 04:37:55.278000+00:00,val
1310,0.0,0.0,2021-01-22 04:38:25.278000+00:00,val
1311,0.0,0.0,2021-01-22 04:38:55.278000+00:00,val
1312,0.0,0.0,2021-01-22 04:39:25.278000+00:00,val
1313,0.0,0.0,2021-01-22 04:39:55.278000+00:00,val
1314,0.0,0.0,2021-01-22 04:40:25.278000+00:00,val
1315,0.0,0.0,2021-01-22 04:40:55.278000+00:00,val
1316,0.0,0.0,2021-01-22 04:41:25.278000+00:00,val
1317,0.0,0.0,2021-01-22 04:41:55.278000+00:00,val
1318,0.0,0.0,2021-01-22 04:42:25.278000+00:00,val
1319,0.0,0.0,2021-01-22 04:42:55.278000+00:00,val
1320,0.0,0.0,2021-01-22 04:43:25.278000+00:00,val
1321,0.0,0.0,2021-01-22 04:43:55.278000+00:00,val
1322,0.0,0.0,2021-01-22 04:44:25.278000+00:00,val
1323,0.0,0.0,2021-01-22 04:44:55.278000+00:00,val
1324,0.0,0.0,2021-01-22 04:45:25.278000+00:00,val
1325,0.0,0.0,2021-01-22 04:45:55.278000+00:00,val
1326,0.0,0.0,2021-01-22 04:46:25.278000+00:00,val
1327,0.0,0.0,2021-01-22 04:46:55.278000+00:00,val
1328,0.0,0.0,2021-01-22 04:47:25.278000+00:00,val
1329,0.0,0.0,2021-01-22 04:47:55.278000+00:00,val
1330,0.0,0.0,2021-01-22 04:48:25.278000+00:00,val
1331,0.0,0.0,2021-01-22 04:48:55.278000+00:00,val
1332,0.0,0.0,2021-01-22 04:49:25.278000+00:00,val
1333,0.0,0.0,2021-01-22 04:49:55.278000+00:00,val
1334,0.0,0.0,2021-01-22 04:50:25.278000+00:00,val
1335,0.0,0.0,2021-01-22 04:50:55.278000+00:00,val
1336,0.0,0.0,2021-01-22 04:51:25.278000+00:00,val
1337,0.0,0.0,2021-01-22 04:51:55.278000+00:00,val
1338,0.0,0.0,2021-01-22 04:52:25.278000+00:00,val
1339,0.0,0.0,2021-01-22 04:52:55.278000+00:00,val
1340,0.0,0.0,2021-01-22 04:53:25.278000+00:00,val
1341,0.0,0.0,2021-01-22 04:53:55.278000+00:00,val
1342,0.0,0.0,2021-01-22 04:54:25.278000+00:00,val
1343,0.0,0.0,2021-01-22 04:54:55.278000+00:00,val
1344,0.0,0.0,2021-01-22 04:55:25.278000+00:00,val
1345,0.0,0.0,2021-01-22 04:55:55.278000+00:00,val
1346,0.0,0.0,2021-01-22 04:56:25.278000+00:00,val
1347,0.0,0.0,2021-01-22 04:56:55.278000+00:00,val
1348,0.0,0.0,2021-01-22 04:57:25.278000+00:00,val
1349,0.0,0.0,2021-01-22 04:57:55.278000+00:00,val
1350,0.0,0.0,2021-01-22 04:58:25.278000+00:00,val
1351,0.0,0.0,2021-01-22 04:58:55.278000+00:00,val
1352,0.0,0.0,2021-01-22 04:59:25.278000+00:00,val
1353,0.0,0.0,2021-01-22 04:59:55.278000+00:00,val
1354,0.0,0.0,2021-01-22 05:00:25.278000+00:00,val
1355,0.0,0.0,2021-01-22 05:00:55.278000+00:00,val
1356,0.0,0.0,2021-01-22 05:01:25.278000+00:00,val
1357,0.0,0.0,2021-01-22 05:01:55.278000+00:00,val
1358,0.0,0.0,2021-01-22 05:02:25.278000+00:00,val
1359,0.0,0.0,2021-01-22 05:02:55.278000+00:00,val
1360,0.0,0.0,2021-01-22 05:03:25.278000+00:00,val
1361,0.0,0.0,2021-01-22 05:03:55.278000+00:00,val
1362,0.0,0.0,2021-01-22 05:04:25.278000+00:00,val
1363,0.0,0.0,2021-01-22 05:04:55.278000+00:00,val
1364,0.0,0.0,2021-01-22 05:05:25.278000+00:00,val
1365,0.0,0.0,2021-01-22 05:05:55.278000+00:00,val
1366,0.0,0.0,2021-01-22 05:06:25.278000+00:00,val
1367,0.0,0.0,2021-01-22 05:06:55.278000+00:00,val
1368,0.0,0.0,2021-01-22 05:07:25.278000+00:00,val
1369,0.0,0.0,2021-01-22 05:07:55.278000+00:00,val
1370,0.0,0.0,2021-01-22 05:08:25.278000+00:00,val
1371,0.0,0.0,2021-01-22 05:08:55.278000+00:00,val
1372,0.0,0.0,2021-01-22 05:09:25.278000+00:00,val
1373,0.0,0.0,2021-01-22 05:09:55.278000+00:00,val
1374,0.0,0.0,2021-01-22 05:10:25.278000+00:00,val
1375,0.0,0.0,2021-01-22 05:10:55.278000+00:00,val
1376,0.0,0.0,2021-01-22 05:11:25.278000+00:00,val
1377,0.0,0.0,2021-01-22 05:11:55.278000+00:00,val
1378,0.0,0.0,2021-01-22 05:12:25.278000+00:00,val
1379,0.0,0.0,2021-01-22 05:12:55.278000+00:00,val
1380,0.0,0.0,2021-01-22 05:13:25.278000+00:00,val
1381,0.0,0.0,2021-01-22 05:13:55.278000+00:00,val
1382,0.0,0.0,2021-01-22 05:14:25.278000+00:00,val
1383,0.0,0.0,2021-01-22 05:14:55.278000+00:00,val
1384,0.0,0.0,2021-01-22 05:15:25.278000+00:00,val
1385,0.0,0.0,2021-01-22 05:15:55.278000+00:00,val
1386,0.0,0.0,2021-01-22 05:16:25.278000+00:00,val
1387,0.0,0.0,2021-01-22 05:16:55.278000+00:00,val
1388,0.0,0.0,2021-01-22 05:17:25.278000+00:00,val
1389,0.0,0.0,2021-01-22 05:17:55.278000+00:00,test
1390,0.0,0.0,2021-01-22 05:18:25.278000+00:00,test
1391,0.0,0.0,2021-01-22 05:18:55.278000+00:00,test
1392,0.0,0.0,2021-01-22 05:19:25.278000+00:00,test
1393,0.0,0.0,2021-01-22 05:19:55.278000+00:00,test
1394,0.0,0.0,2021-01-22 05:20:25.278000+00:00,test
1395,0.0,0.0,2021-01-22 05:20:55.278000+00:00,test
1396,0.0,0.0,2021-01-22 05:21:25.278000+00:00,test
1397,0.0,0.0,2021-01-22 05:21:55.278000+00:00,test
1398,0.0,0.0,2021-01-22 05:22:25.278000+00:00,test
1399,0.0,0.0,2021-01-22 05:22:55.278000+00:00,test
1400,0.0,0.0,2021-01-22 05:23:25.278000+00:00,test
1401,0.0,0.0,2021-01-22 05:23:55.278000+00:00,test
1402,0.0,0.0,2021-01-22 05:24:25.278000+00:00,test
1403,0.0,0.0,2021-01-22 05:24:55.278000+00:00,test
1404,0.0,0.0,2021-01-22 05:25:25.278000+00:00,test
1405,0.0,0.0,2021-01-22 05:25:55.278000+00:00,test
1406,0.0,0.0,2021-01-22 05:26:25.278000+00:00,test
1407,0.0,0.0,2021-01-22 05:26:55.278000+00:00,test
1408,0.0,0.0,2021-01-22 05:27:25.278000+00:00,test
1409,0.0,0.0,2021-01-22 05:27:55.278000+00:00,test
1410,0.0,0.0,2021-01-22 05:28:25.278000+00:00,test
1411,0.0,0.0,2021-01-22 05:28:55.278000+00:00,test
1412,0.0,0.0,2021-01-22 05:29:25.278000+00:00,test
1413,0.0,0.0,2021-01-22 05:29:55.278000+00:00,test
1414,0.0,0.0,2021-01-22 05:30:25.278000+00:00,test
1415,0.0,0.0,2021-01-22 05:30:55.278000+00:00,test
1416,0.0,0.0,2021-01-22 05:31:25.278000+00:00,test
1417,0.0,0.0,2021-01-22 05:31:55.278000+00:00,test
1418,0.0,0.0,2021-01-22 05:32:25.278000+00:00,test
1419,0.0,0.0,2021-01-22 05:32:55.278000+00:00,test
1420,0.0,0.0,2021-01-22 05:33:25.278000+00:00,test
1421,0.0,0.0,2021-01-22 05:33:55.278000+00:00,test
1422,0.0,0.0,2021-01-22 05:34:25.278000+00:00,test
1423,0.0,0.0,2021-01-22 05:34:55.278000+00:00,test
1424,0.0,0.0,2021-01-22 05:35:25.278000+00:00,test
1425,0.0,0.0,2021-01-22 05:35:55.278000+00:00,test
1426,0.0,0.0,2021-01-22 05:36:25.278000+00:00,test
1427,0.0,0.0,2021-01-22 05:36:55.278000+00:00,test
1428,0.0,0.0,2021-01-22 05:37:25.278000+00:00,test
1429,0.0,0.0,2021-01-22 05:37:55.278000+00:00,test
1430,0.0,0.0,2021-01-22 05:38:25.278000+00:00,test
1431,0.0,0.0,2021-01-22 05:38:55.278000+00:00,test
1432,0.0,0.0,2021-01-22 05:39:25.278000+00:00,test
1433,0.0,0.0,2021-01-22 05:39:55.278000+00:00,test
1434,0.0,0.0,2021-01-22 05:40:25.278000+00:00,test
1435,0.0,0.0,2021-01-22 05:40:55.278000+00:00,test
1436,0.0,0.0,2021-01-22 05:41:25.278000+00:00,test
1437,0.0,0.0,2021-01-22 05:41:55.278000+00:00,test
1438,0.0,0.0,2021-01-22 05:42:25.278000+00:00,test
1439,0.0,0.0,2021-01-22 05:42:55.278000+00:00,test
1440,0.0,0.0,2021-01-22 05:43:25.278000+00:00,test
1441,0.0,0.0,2021-01-22 05:43:55.278000+00:00,test
1442,0.0,0.0,2021-01-22 05:44:25.278000+00:00,test
1443,0.0,0.0,2021-01-22 05:44:55.278000+00:00,test
1444,0.0,0.0,2021-01-22 05:45:25.278000+00:00,test
1445,0.0,0.0,2021-01-22 05:45:55.278000+00:00,test
1446,0.0,0.0,2021-01-22 05:46:25.278000+00:00,test
1447,0.0,0.0,2021-01-22 05:46:55.278000+00:00,test
1448,0.0,0.0,2021-01-22 05:47:25.278000+00:00,test
1449,0.0,0.0,2021-01-22 05:47:55.278000+00:00,test
1450,0.0,0.0,2021-01-22 05:48:25.278000+00:00,test
1451,0.0,0.0,2021-01-22 05:48:55.278000+00:00,test
1452,0.0,0.0,2021-01-22 05:49:25.278000+00:00,test
1453,0.0,0.0,2021-01-22 05:49:55.278000+00:00,test
1454,0.0,0.0,2021-01-22 05:50:25.278000+00:00,test
1455,0.0,0.0,2021-01-22 05:50:55.278000+00:00,test
1456,0.0,0.0,2021-01-22 05:51:25.278000+00:00,test
1457,0.0,0.0,2021-01-22 05:51:55.278000+00:00,test
1458,0.0,0.0,2021-01-22 05:52:25.278000+00:00,test
1459,0.0,0.0,2021-01-22 05:52:55.278000+00:00,test
1460,0.0,0.0,2021-01-22 05:53:25.278000+00:00,test
1461,0.0,0.0,2021-01-22 05:53:55.278000+00:00,test
1462,0.0,0.0,2021-01-22 05:54:25.278000+00:00,test
1463,0.0,0.0,2021-01-22 05:54:55.278000+00:00,test
1464,0.0,0.0,2021-01-22 05:55:25.278000+00:00,test
1465,0.0,0.0,2021-01-22 05:55:55.278000+00:00,test
1466,0.0,0.0,2021-01-22 05:56:25.278000+00:00,test
1467,0.0,0.0,2021-01-22 05:56:55.278000+00:00,test
1468,0.0,0.0,2021-01-22 05:57:25.278000+00:00,test
1469,0.0,0.0,2021-01-22 05:57:55.278000+00:00,test
1470,0.0,0.0,2021-01-22 05:58:25.278000+00:00,test
1471,0.0,0.0,2021-01-22 05:58:55.278000+00:00,test
1472,0.0,0.0,2021-01-22 05:59:25.278000+00:00,test
1473,0.0,0.0,2021-01-22 05:59:55.278000+00:00,test
1474,0.0,0.0,2021-01-22 06:00:25.278000+00:00,test
1475,0.0,0.0,2021-01-22 06:00:55.278000+00:00,test
1476,0.0,0.0,2021-01-22 06:01:25.278000+00:00,test
1477,0.0,0.0,2021-01-22 06:01:55.278000+00:00,test
1478,0.0,0.0,2021-01-22 06:02:25.278000+00:00,test
1479,0.0,0.0,2021-01-22 06:02:55.278000+00:00,test
1480,0.0,0.0,2021-01-22 06:03:25.278000+00:00,test
1481,0.0,0.0,2021-01-22 06:03:55.278000+00:00,test
1482,0.0,0.0,2021-01-22 06:04:25.278000+00:00,test
1483,0.0,0.0,2021-01-22 06:04:55.278000+00:00,test
1484,0.0,0.0,2021-01-22 06:05:25.278000+00:00,test
1485,0.0,0.0,2021-01-22 06:05:55.278000+00:00,test
1486,0.0,0.0,2021-01-22 06:06:25.278000+00:00,test
1487,0.0,0.0,2021-01-22 06:06:55.278000+00:00,test
1488,0.0,0.0,2021-01-22 06:07:25.278000+00:00,test
1489,0.0,0.0,2021-01-22 06:07:55.278000+00:00,test
1490,0.0,0.0,2021-01-22 06:08:25.278000+00:00,test
1491,0.0,0.0,2021-01-22 06:08:55.278000+00:00,test
1492,0.0,0.0,2021-01-22 06:09:25.278000+00:00,test
1493,0.0,0.0,2021-01-22 06:09:55.278000+00:00,test
1494,0.0,0.0,2021-01-22 06:10:25.278000+00:00,test
1495,0.0,0.0,2021-01-22 06:10:55.278000+00:00,test
1496,0.0,0.0,2021-01-22 06:11:25.278000+00:00,test
1497,0.0,0.0,2021-01-22 06:11:55.278000+00:00,test
1498,0.0,0.0,2021-01-22 06:12:25.278000+00:00,test
1499,0.0,0.0,2021-01-22 06:12:55.278000+00:00,test
1500,0.0,0.0,2021-01-22 06:13:25.278000+00:00,test
1501,0.0,0.0,2021-01-22 06:13:55.278000+00:00,test
1502,0.0,0.0,2021-01-22 06:14:25.278000+00:00,test
1503,0.0,0.0,2021-01-22 06:14:55.278000+00:00,test
1504,0.0,0.0,2021-01-22 06:15:25.278000+00:00,test
1505,0.0,0.0,2021-01-22 06:15:55.278000+00:00,test
1506,0.0,0.0,2021-01-22 06:16:25.278000+00:00,test
1507,0.0,0.0,2021-01-22 06:16:55.278000+00:00,test
1508,0.0,0.0,2021-01-22 06:17:25.278000+00:00,test
1509,0.0,0.0,2021-01-22 06:17:55.278000+00:00,test
1510,0.0,0.0,2021-01-22 06:18:25.278000+00:00,test
1511,0.0,0.0,2021-01-22 06:18:55.278000+00:00,test
1512,0.0,0.0,2021-01-22 06:19:25.278000+00:00,test
1513,0.0,0.0,2021-01-22 06:19:55.278000+00:00,test
1514,0.0,0.0,2021-01-22 06:20:25.278000+00:00,test
1515,0.0,0.0,2021-01-22 06:20:55.278000+00:00,test
1516,0.0,0.0,2021-01-22 06:21:25.278000+00:00,test
1517,0.0,0.0,2021-01-22 06:21:55.278000+00:00,test
1518,0.0,0.0,2021-01-22 06:22:25.278000+00:00,test
1519,0.0,0.0,2021-01-22 06:22:55.278000+00:00,test
1520,0.0,0.0,2021-01-22 06:23:25.278000+00:00,test
1521,0.0,0.0,2021-01-22 06:23:55.278000+00:00,test
1522,0.0,0.0,2021-01-22 06:24:25.278000+00:00,test
1523,0.0,0.0,2021-01-22 06:24:55.278000+00:00,test
1524,0.0,0.0,2021-01-22 06:25:25.278000+00:00,test
1525,0.0,0.0,2021-01-22 06:25:55.278000+00:00,test
1526,0.0,0.0,2021-01-22 06:26:25.278000+00:00,test
1527,0.0,0.0,2021-01-22 06:26:55.278000+00:00,test
1528,0.0,0.0,2021-01-22 06:27:25.278000+00:00,test
1529,0.0,0.0,2021-01-22 06:27:55.278000+00:00,test
1530,0.0,0.0,2021-01-22 06:28:25.278000+00:00,test
1531,0.0,0.0,2021-01-22 06:28:55.278000+00:00,test
1532,0.0,0.0,2021-01-22 06:29:25.278000+00:00,test
1533,0.0,0.0,2021-01-22 06:29:55.278000+00:00,test
1534,0.0,0.0,2021-01-22 06:30:25.278000+00:00,test
1535,0.0,0.0,2021-01-22 06:30:55.278000+00:00,test
1536,0.0,0.0,2021-01-22 06:31:25.278000+00:00,test
1537,0.0,0.0,2021-01-22 06:31:55.278000+00:00,test
1538,0.0,0.0,2021-01-22 06:32:25.278000+00:00,test
1539,0.0,0.0,2021-01-22 06:32:55.278000+00:00,test
1540,0.0,0.0,2021-01-22 06:33:25.278000+00:00,test
1541,0.0,0.0,2021-01-22 06:33:55.278000+00:00,test
1542,0.0,0.0,2021-01-22 06:34:25.278000+00:00,test
1543,0.0,0.0,2021-01-22 06:34:55.278000+00:00,test
1544,0.0,0.0,2021-01-22 06:35:25.278000+00:00,test
1545,0.0,0.0,2021-01-22 06:35:55.278000+00:00,test
