,prediction,real,time,split
0,-7.350519180297852,-7.0,2021-01-21 17:30:25.278000+00:00,train
1,-7.302402973175049,-7.0,2021-01-21 17:30:55.278000+00:00,train
2,-7.257501125335693,-7.0,2021-01-21 17:31:25.278000+00:00,train
3,-7.215877056121826,-7.0,2021-01-21 17:31:55.278000+00:00,train
4,-7.177609443664551,-7.0,2021-01-21 17:32:25.278000+00:00,train
5,-7.126092433929443,-7.0,2021-01-21 17:32:55.278000+00:00,train
6,-7.07702112197876,-7.0,2021-01-21 17:33:25.278000+00:00,train
7,-7.0304179191589355,-7.0,2021-01-21 17:33:55.278000+00:00,train
8,-6.98630952835083,-7.0,2021-01-21 17:34:25.278000+00:00,train
9,-6.944730281829834,-7.0,2021-01-21 17:34:55.278000+00:00,train
10,-6.90571928024292,-7.0,2021-01-21 17:35:25.278000+00:00,train
11,-6.869326114654541,-7.0,2021-01-21 17:35:55.278000+00:00,train
12,-6.835606575012207,-7.0,2021-01-21 17:36:25.278000+00:00,train
13,-6.804623603820801,-7.0,2021-01-21 17:36:55.278000+00:00,train
14,-6.776454925537109,-7.0,2021-01-21 17:37:25.278000+00:00,train
15,-6.751181602478027,-6.0,2021-01-21 17:37:55.278000+00:00,train
16,-6.728902816772461,-6.0,2021-01-21 17:38:25.278000+00:00,train
17,-6.709730625152588,-6.0,2021-01-21 17:38:55.278000+00:00,train
18,-6.676137447357178,-6.0,2021-01-21 17:39:25.278000+00:00,train
19,-6.644615650177002,-6.0,2021-01-21 17:39:55.278000+00:00,train
20,-6.615205764770508,-6.0,2021-01-21 17:40:25.278000+00:00,train
21,-6.587954998016357,-6.0,2021-01-21 17:40:55.278000+00:00,train
22,-6.562912464141846,-6.0,2021-01-21 17:41:25.278000+00:00,train
23,-6.540139198303223,-6.0,2021-01-21 17:41:55.278000+00:00,train
24,-6.519704818725586,-6.0,2021-01-21 17:42:25.278000+00:00,train
25,-6.501682758331299,-6.0,2021-01-21 17:42:55.278000+00:00,train
26,-6.486161231994629,-6.0,2021-01-21 17:43:25.278000+00:00,train
27,-6.473236560821533,-6.0,2021-01-21 17:43:55.278000+00:00,train
28,-6.4630208015441895,-6.0,2021-01-21 17:44:25.278000+00:00,train
29,-6.438296794891357,-6.0,2021-01-21 17:44:55.278000+00:00,train
30,-6.415221214294434,-6.0,2021-01-21 17:45:25.278000+00:00,train
31,-6.393828392028809,-6.0,2021-01-21 17:45:55.278000+00:00,train
32,-6.37415885925293,-6.0,2021-01-21 17:46:25.278000+00:00,train
33,-6.33022403717041,-6.0,2021-01-21 17:46:55.278000+00:00,train
34,-6.288568019866943,-6.0,2021-01-21 17:47:25.278000+00:00,train
35,-6.249208927154541,-6.0,2021-01-21 17:47:55.278000+00:00,train
36,-6.212178707122803,-6.0,2021-01-21 17:48:25.278000+00:00,train
37,-6.177513122558594,-6.0,2021-01-21 17:48:55.278000+00:00,train
38,-6.145257949829102,-6.0,2021-01-21 17:49:25.278000+00:00,train
39,-6.115463733673096,-6.0,2021-01-21 17:49:55.278000+00:00,train
40,-6.088191986083984,-6.0,2021-01-21 17:50:25.278000+00:00,train
41,-6.063516139984131,-6.0,2021-01-21 17:50:55.278000+00:00,train
42,-6.041518211364746,-6.0,2021-01-21 17:51:25.278000+00:00,train
43,-6.022295951843262,-6.0,2021-01-21 17:51:55.278000+00:00,train
44,-5.987987518310547,-6.0,2021-01-21 17:52:25.278000+00:00,train
45,-5.955407619476318,-6.0,2021-01-21 17:52:55.278000+00:00,train
46,-5.924577713012695,-6.0,2021-01-21 17:53:25.278000+00:00,train
47,-5.895524024963379,-5.0,2021-01-21 17:53:55.278000+00:00,train
48,-5.86827278137207,-5.0,2021-01-21 17:54:25.278000+00:00,train
49,-5.842861175537109,-5.0,2021-01-21 17:54:55.278000+00:00,train
50,-5.819328784942627,-5.0,2021-01-21 17:55:25.278000+00:00,train
51,-5.797719955444336,-5.0,2021-01-21 17:55:55.278000+00:00,train
52,-5.778088092803955,-5.0,2021-01-21 17:56:25.278000+00:00,train
53,-5.760494709014893,-5.0,2021-01-21 17:56:55.278000+00:00,train
54,-5.745005130767822,-5.0,2021-01-21 17:57:25.278000+00:00,train
55,-5.731701850891113,-5.0,2021-01-21 17:57:55.278000+00:00,train
56,-5.720670223236084,-5.0,2021-01-21 17:58:25.278000+00:00,train
57,-5.712013244628906,-5.0,2021-01-21 17:58:55.278000+00:00,train
58,-5.6882781982421875,-5.0,2021-01-21 17:59:25.278000+00:00,train
59,-5.665829658508301,-5.0,2021-01-21 17:59:55.278000+00:00,train
60,-5.644687175750732,-5.0,2021-01-21 18:00:25.278000+00:00,train
61,-5.624875068664551,-5.0,2021-01-21 18:00:55.278000+00:00,train
62,-5.606419563293457,-5.0,2021-01-21 18:01:25.278000+00:00,train
63,-5.589351177215576,-5.0,2021-01-21 18:01:55.278000+00:00,train
64,-5.573705673217773,-5.0,2021-01-21 18:02:25.278000+00:00,train
65,-5.531888484954834,-5.0,2021-01-21 18:02:55.278000+00:00,train
66,-5.492084980010986,-5.0,2021-01-21 18:03:25.278000+00:00,train
67,-5.454301834106445,-5.0,2021-01-21 18:03:55.278000+00:00,train
68,-5.418549537658691,-5.0,2021-01-21 18:04:25.278000+00:00,train
69,-5.3848466873168945,-5.0,2021-01-21 18:04:55.278000+00:00,train
70,-5.353219509124756,-5.0,2021-01-21 18:05:25.278000+00:00,train
71,-5.323698043823242,-5.0,2021-01-21 18:05:55.278000+00:00,train
72,-5.296324729919434,-5.0,2021-01-21 18:06:25.278000+00:00,train
73,-5.27114725112915,-5.0,2021-01-21 18:06:55.278000+00:00,train
74,-5.248223304748535,-5.0,2021-01-21 18:07:25.278000+00:00,train
75,-5.2276225090026855,-5.0,2021-01-21 18:07:55.278000+00:00,train
76,-5.2094244956970215,-5.0,2021-01-21 18:08:25.278000+00:00,train
77,-5.193723678588867,-5.0,2021-01-21 18:08:55.278000+00:00,train
78,-5.180629730224609,-5.0,2021-01-21 18:09:25.278000+00:00,train
79,-5.150557518005371,-5.0,2021-01-21 18:09:55.278000+00:00,train
80,-5.12192440032959,-5.0,2021-01-21 18:10:25.278000+00:00,train
81,-5.09473991394043,-5.0,2021-01-21 18:10:55.278000+00:00,train
82,-5.0690202713012695,-5.0,2021-01-21 18:11:25.278000+00:00,train
83,-5.044785022735596,-5.0,2021-01-21 18:11:55.278000+00:00,train
84,-5.022056579589844,-5.0,2021-01-21 18:12:25.278000+00:00,train
85,-5.000863075256348,-5.0,2021-01-21 18:12:55.278000+00:00,train
86,-4.981236934661865,-5.0,2021-01-21 18:13:25.278000+00:00,train
87,-4.963216304779053,-5.0,2021-01-21 18:13:55.278000+00:00,train
88,-4.946846008300781,-5.0,2021-01-21 18:14:25.278000+00:00,train
89,-4.932176113128662,-5.0,2021-01-21 18:14:55.278000+00:00,train
90,-4.9192657470703125,-5.0,2021-01-21 18:15:25.278000+00:00,train
91,-4.893298149108887,-5.0,2021-01-21 18:15:55.278000+00:00,train
92,-4.868200302124023,-5.0,2021-01-21 18:16:25.278000+00:00,train
93,-4.843972682952881,-5.0,2021-01-21 18:16:55.278000+00:00,train
94,-4.820615768432617,-5.0,2021-01-21 18:17:25.278000+00:00,train
95,-4.79813289642334,-4.0,2021-01-21 18:17:55.278000+00:00,train
96,-4.776528835296631,-4.0,2021-01-21 18:18:25.278000+00:00,train
97,-4.7558064460754395,-4.0,2021-01-21 18:18:55.278000+00:00,train
98,-4.735974311828613,-4.0,2021-01-21 18:19:25.278000+00:00,train
99,-4.717040061950684,-4.0,2021-01-21 18:19:55.278000+00:00,train
100,-4.699014663696289,-4.0,2021-01-21 18:20:25.278000+00:00,train
101,-4.681910037994385,-4.0,2021-01-21 18:20:55.278000+00:00,train
102,-4.665738582611084,-4.0,2021-01-21 18:21:25.278000+00:00,train
103,-4.650517463684082,-4.0,2021-01-21 18:21:55.278000+00:00,train
104,-4.636263370513916,-4.0,2021-01-21 18:22:25.278000+00:00,train
105,-4.6229963302612305,-4.0,2021-01-21 18:22:55.278000+00:00,train
106,-4.610739707946777,-4.0,2021-01-21 18:23:25.278000+00:00,train
107,-4.599518299102783,-4.0,2021-01-21 18:23:55.278000+00:00,train
108,-4.589359760284424,-4.0,2021-01-21 18:24:25.278000+00:00,train
109,-4.580296993255615,-4.0,2021-01-21 18:24:55.278000+00:00,train
110,-4.572364330291748,-4.0,2021-01-21 18:25:25.278000+00:00,train
111,-4.565602779388428,-4.0,2021-01-21 18:25:55.278000+00:00,train
112,-4.560055255889893,-4.0,2021-01-21 18:26:25.278000+00:00,train
113,-4.528081893920898,-4.0,2021-01-21 18:26:55.278000+00:00,train
114,-4.497865676879883,-4.0,2021-01-21 18:27:25.278000+00:00,train
115,-4.469417572021484,-4.0,2021-01-21 18:27:55.278000+00:00,train
116,-4.44275426864624,-4.0,2021-01-21 18:28:25.278000+00:00,train
117,-4.417903423309326,-4.0,2021-01-21 18:28:55.278000+00:00,train
118,-4.394895553588867,-4.0,2021-01-21 18:29:25.278000+00:00,train
119,-4.373772144317627,-4.0,2021-01-21 18:29:55.278000+00:00,train
120,-4.338842391967773,-4.0,2021-01-21 18:30:25.278000+00:00,train
121,-4.304988384246826,-4.0,2021-01-21 18:30:55.278000+00:00,train
122,-4.272189617156982,-4.0,2021-01-21 18:31:25.278000+00:00,train
123,-4.240428447723389,-4.0,2021-01-21 18:31:55.278000+00:00,train
124,-4.209690093994141,-4.0,2021-01-21 18:32:25.278000+00:00,train
125,-4.179961681365967,-4.0,2021-01-21 18:32:55.278000+00:00,train
126,-4.151234149932861,-4.0,2021-01-21 18:33:25.278000+00:00,train
127,-4.12349796295166,-4.0,2021-01-21 18:33:55.278000+00:00,train
128,-4.096747875213623,-4.0,2021-01-21 18:34:25.278000+00:00,train
129,-4.070979595184326,-4.0,2021-01-21 18:34:55.278000+00:00,train
130,-4.046192646026611,-4.0,2021-01-21 18:35:25.278000+00:00,train
131,-4.02238655090332,-4.0,2021-01-21 18:35:55.278000+00:00,train
132,-3.999562978744507,-4.0,2021-01-21 18:36:25.278000+00:00,train
133,-3.977726459503174,-4.0,2021-01-21 18:36:55.278000+00:00,train
134,-3.9568841457366943,-4.0,2021-01-21 18:37:25.278000+00:00,train
135,-3.9370436668395996,-4.0,2021-01-21 18:37:55.278000+00:00,train
136,-3.9182164669036865,-4.0,2021-01-21 18:38:25.278000+00:00,train
137,-3.9004149436950684,-4.0,2021-01-21 18:38:55.278000+00:00,train
138,-3.883655071258545,-4.0,2021-01-21 18:39:25.278000+00:00,train
139,-3.867955207824707,-4.0,2021-01-21 18:39:55.278000+00:00,train
140,-3.8533360958099365,-4.0,2021-01-21 18:40:25.278000+00:00,train
141,-3.8398234844207764,-4.0,2021-01-21 18:40:55.278000+00:00,train
142,-3.827443838119507,-4.0,2021-01-21 18:41:25.278000+00:00,train
143,-3.8162286281585693,-4.0,2021-01-21 18:41:55.278000+00:00,train
144,-3.8062148094177246,-4.0,2021-01-21 18:42:25.278000+00:00,train
145,-3.797443389892578,-4.0,2021-01-21 18:42:55.278000+00:00,train
146,-3.789961338043213,-4.0,2021-01-21 18:43:25.278000+00:00,train
147,-3.7838199138641357,-4.0,2021-01-21 18:43:55.278000+00:00,train
148,-3.7790801525115967,-4.0,2021-01-21 18:44:25.278000+00:00,train
149,-3.7758114337921143,-4.0,2021-01-21 18:44:55.278000+00:00,train
150,-3.7740917205810547,-4.0,2021-01-21 18:45:25.278000+00:00,train
151,-3.7740137577056885,-4.0,2021-01-21 18:45:55.278000+00:00,train
152,-3.775681257247925,-4.0,2021-01-21 18:46:25.278000+00:00,train
153,-3.7614898681640625,-4.0,2021-01-21 18:46:55.278000+00:00,train
154,-3.7478463649749756,-4.0,2021-01-21 18:47:25.278000+00:00,train
155,-3.7347538471221924,-4.0,2021-01-21 18:47:55.278000+00:00,train
156,-3.7222185134887695,-4.0,2021-01-21 18:48:25.278000+00:00,train
157,-3.7102456092834473,-4.0,2021-01-21 18:48:55.278000+00:00,train
158,-3.6988422870635986,-4.0,2021-01-21 18:49:25.278000+00:00,train
159,-3.6880156993865967,-4.0,2021-01-21 18:49:55.278000+00:00,train
160,-3.6777758598327637,-4.0,2021-01-21 18:50:25.278000+00:00,train
161,-3.6681315898895264,-4.0,2021-01-21 18:50:55.278000+00:00,train
162,-3.659095525741577,-4.0,2021-01-21 18:51:25.278000+00:00,train
163,-3.6506783962249756,-4.0,2021-01-21 18:51:55.278000+00:00,train
164,-3.642895460128784,-4.0,2021-01-21 18:52:25.278000+00:00,train
165,-3.6357624530792236,-3.0,2021-01-21 18:52:55.278000+00:00,train
166,-3.6292948722839355,-3.0,2021-01-21 18:53:25.278000+00:00,train
167,-3.62351393699646,-3.0,2021-01-21 18:53:55.278000+00:00,train
168,-3.6184394359588623,-3.0,2021-01-21 18:54:25.278000+00:00,train
169,-3.6140952110290527,-3.0,2021-01-21 18:54:55.278000+00:00,train
170,-3.6105072498321533,-3.0,2021-01-21 18:55:25.278000+00:00,train
171,-3.607706069946289,-3.0,2021-01-21 18:55:55.278000+00:00,train
172,-3.6057229042053223,-3.0,2021-01-21 18:56:25.278000+00:00,train
173,-3.604595184326172,-3.0,2021-01-21 18:56:55.278000+00:00,train
174,-3.6043636798858643,-3.0,2021-01-21 18:57:25.278000+00:00,train
175,-3.6050758361816406,-3.0,2021-01-21 18:57:55.278000+00:00,train
176,-3.606783390045166,-3.0,2021-01-21 18:58:25.278000+00:00,train
177,-3.6095476150512695,-3.0,2021-01-21 18:58:55.278000+00:00,train
178,-3.6134376525878906,-3.0,2021-01-21 18:59:25.278000+00:00,train
179,-3.618532657623291,-3.0,2021-01-21 18:59:55.278000+00:00,train
180,-3.6249277591705322,-3.0,2021-01-21 19:00:25.278000+00:00,train
181,-3.632730722427368,-3.0,2021-01-21 19:00:55.278000+00:00,train
182,-3.642073392868042,-3.0,2021-01-21 19:01:25.278000+00:00,train
183,-3.622741937637329,-3.0,2021-01-21 19:01:55.278000+00:00,train
184,-3.6052517890930176,-3.0,2021-01-21 19:02:25.278000+00:00,train
185,-3.570793867111206,-3.0,2021-01-21 19:02:55.278000+00:00,train
186,-3.537494659423828,-3.0,2021-01-21 19:03:25.278000+00:00,train
187,-3.505284547805786,-3.0,2021-01-21 19:03:55.278000+00:00,train
188,-3.474102735519409,-3.0,2021-01-21 19:04:25.278000+00:00,train
189,-3.443897247314453,-3.0,2021-01-21 19:04:55.278000+00:00,train
190,-3.4146218299865723,-3.0,2021-01-21 19:05:25.278000+00:00,train
191,-3.3862366676330566,-3.0,2021-01-21 19:05:55.278000+00:00,train
192,-3.35870623588562,-3.0,2021-01-21 19:06:25.278000+00:00,train
193,-3.3319990634918213,-3.0,2021-01-21 19:06:55.278000+00:00,train
194,-3.306088924407959,-3.0,2021-01-21 19:07:25.278000+00:00,train
195,-3.2809510231018066,-3.0,2021-01-21 19:07:55.278000+00:00,train
196,-3.256564140319824,-3.0,2021-01-21 19:08:25.278000+00:00,train
197,-3.2329087257385254,-3.0,2021-01-21 19:08:55.278000+00:00,train
198,-3.2099695205688477,-3.0,2021-01-21 19:09:25.278000+00:00,train
199,-3.1877310276031494,-3.0,2021-01-21 19:09:55.278000+00:00,train
200,-3.1661815643310547,-3.0,2021-01-21 19:10:25.278000+00:00,train
201,-3.1453094482421875,-3.0,2021-01-21 19:10:55.278000+00:00,train
202,-3.1251063346862793,-3.0,2021-01-21 19:11:25.278000+00:00,train
203,-3.105564594268799,-3.0,2021-01-21 19:11:55.278000+00:00,train
204,-3.0866780281066895,-3.0,2021-01-21 19:12:25.278000+00:00,train
205,-3.068441390991211,-3.0,2021-01-21 19:12:55.278000+00:00,train
206,-3.0508525371551514,-3.0,2021-01-21 19:13:25.278000+00:00,train
207,-3.0339081287384033,-3.0,2021-01-21 19:13:55.278000+00:00,train
208,-3.017608404159546,-3.0,2021-01-21 19:14:25.278000+00:00,train
209,-3.001953363418579,-3.0,2021-01-21 19:14:55.278000+00:00,train
210,-2.986945152282715,-3.0,2021-01-21 19:15:25.278000+00:00,train
211,-2.9725868701934814,-3.0,2021-01-21 19:15:55.278000+00:00,train
212,-2.9588828086853027,-3.0,2021-01-21 19:16:25.278000+00:00,train
213,-2.9458394050598145,-3.0,2021-01-21 19:16:55.278000+00:00,train
214,-2.9334635734558105,-3.0,2021-01-21 19:17:25.278000+00:00,train
215,-2.9217638969421387,-3.0,2021-01-21 19:17:55.278000+00:00,train
216,-2.9107518196105957,-3.0,2021-01-21 19:18:25.278000+00:00,train
217,-2.900439500808716,-3.0,2021-01-21 19:18:55.278000+00:00,train
218,-2.8908402919769287,-3.0,2021-01-21 19:19:25.278000+00:00,train
219,-2.8819711208343506,-3.0,2021-01-21 19:19:55.278000+00:00,train
220,-2.8738503456115723,-3.0,2021-01-21 19:20:25.278000+00:00,train
221,-2.866499423980713,-3.0,2021-01-21 19:20:55.278000+00:00,train
222,-2.8599419593811035,-3.0,2021-01-21 19:21:25.278000+00:00,train
223,-2.8542051315307617,-3.0,2021-01-21 19:21:55.278000+00:00,train
224,-2.8493196964263916,-3.0,2021-01-21 19:22:25.278000+00:00,train
225,-2.8453211784362793,-3.0,2021-01-21 19:22:55.278000+00:00,train
226,-2.8422486782073975,-3.0,2021-01-21 19:23:25.278000+00:00,train
227,-2.8401479721069336,-3.0,2021-01-21 19:23:55.278000+00:00,train
228,-2.839071273803711,-3.0,2021-01-21 19:24:25.278000+00:00,train
229,-2.839078664779663,-3.0,2021-01-21 19:24:55.278000+00:00,train
230,-2.8402392864227295,-3.0,2021-01-21 19:25:25.278000+00:00,train
231,-2.842634677886963,-3.0,2021-01-21 19:25:55.278000+00:00,train
232,-2.846360206604004,-3.0,2021-01-21 19:26:25.278000+00:00,train
233,-2.836066722869873,-3.0,2021-01-21 19:26:55.278000+00:00,train
234,-2.8259878158569336,-3.0,2021-01-21 19:27:25.278000+00:00,train
235,-2.8161230087280273,-3.0,2021-01-21 19:27:55.278000+00:00,train
236,-2.806469678878784,-3.0,2021-01-21 19:28:25.278000+00:00,train
237,-2.797028064727783,-3.0,2021-01-21 19:28:55.278000+00:00,train
238,-2.7877957820892334,-3.0,2021-01-21 19:29:25.278000+00:00,train
239,-2.778773546218872,-3.0,2021-01-21 19:29:55.278000+00:00,train
240,-2.7699594497680664,-3.0,2021-01-21 19:30:25.278000+00:00,train
241,-2.7613534927368164,-3.0,2021-01-21 19:30:55.278000+00:00,train
242,-2.7529549598693848,-3.0,2021-01-21 19:31:25.278000+00:00,train
243,-2.744764566421509,-3.0,2021-01-21 19:31:55.278000+00:00,train
244,-2.7367823123931885,-3.0,2021-01-21 19:32:25.278000+00:00,train
245,-2.7290079593658447,-3.0,2021-01-21 19:32:55.278000+00:00,train
246,-2.721442222595215,-3.0,2021-01-21 19:33:25.278000+00:00,train
247,-2.714085102081299,-3.0,2021-01-21 19:33:55.278000+00:00,train
248,-2.706937551498413,-3.0,2021-01-21 19:34:25.278000+00:00,train
249,-2.7000010013580322,-3.0,2021-01-21 19:34:55.278000+00:00,train
250,-2.6932759284973145,-3.0,2021-01-21 19:35:25.278000+00:00,train
251,-2.6867637634277344,-3.0,2021-01-21 19:35:55.278000+00:00,train
252,-2.680466651916504,-3.0,2021-01-21 19:36:25.278000+00:00,train
253,-2.674384117126465,-3.0,2021-01-21 19:36:55.278000+00:00,train
254,-2.6685194969177246,-3.0,2021-01-21 19:37:25.278000+00:00,train
255,-2.662874698638916,-3.0,2021-01-21 19:37:55.278000+00:00,train
256,-2.6574528217315674,-3.0,2021-01-21 19:38:25.278000+00:00,train
257,-2.652256488800049,-3.0,2021-01-21 19:38:55.278000+00:00,train
258,-2.6472880840301514,-3.0,2021-01-21 19:39:25.278000+00:00,train
259,-2.6425511837005615,-3.0,2021-01-21 19:39:55.278000+00:00,train
260,-2.6380488872528076,-3.0,2021-01-21 19:40:25.278000+00:00,train
261,-2.6337854862213135,-3.0,2021-01-21 19:40:55.278000+00:00,train
262,-2.6297643184661865,-3.0,2021-01-21 19:41:25.278000+00:00,train
263,-2.625990867614746,-3.0,2021-01-21 19:41:55.278000+00:00,train
264,-2.6224684715270996,-3.0,2021-01-21 19:42:25.278000+00:00,train
265,-2.619203567504883,-3.0,2021-01-21 19:42:55.278000+00:00,train
266,-2.6162009239196777,-3.0,2021-01-21 19:43:25.278000+00:00,train
267,-2.6134674549102783,-3.0,2021-01-21 19:43:55.278000+00:00,train
268,-2.611008882522583,-2.0,2021-01-21 19:44:25.278000+00:00,train
269,-2.6088333129882812,-2.0,2021-01-21 19:44:55.278000+00:00,train
270,-2.606947898864746,-2.0,2021-01-21 19:45:25.278000+00:00,train
271,-2.6053619384765625,-2.0,2021-01-21 19:45:55.278000+00:00,train
272,-2.604083776473999,-2.0,2021-01-21 19:46:25.278000+00:00,train
273,-2.6031243801116943,-2.0,2021-01-21 19:46:55.278000+00:00,train
274,-2.602494716644287,-2.0,2021-01-21 19:47:25.278000+00:00,train
275,-2.6022064685821533,-2.0,2021-01-21 19:47:55.278000+00:00,train
276,-2.602273464202881,-2.0,2021-01-21 19:48:25.278000+00:00,train
277,-2.6027095317840576,-2.0,2021-01-21 19:48:55.278000+00:00,train
278,-2.6035315990448,-2.0,2021-01-21 19:49:25.278000+00:00,train
279,-2.604757308959961,-2.0,2021-01-21 19:49:55.278000+00:00,train
280,-2.6064069271087646,-2.0,2021-01-21 19:50:25.278000+00:00,train
281,-2.608502149581909,-2.0,2021-01-21 19:50:55.278000+00:00,train
282,-2.6110684871673584,-2.0,2021-01-21 19:51:25.278000+00:00,train
283,-2.6141340732574463,-2.0,2021-01-21 19:51:55.278000+00:00,train
284,-2.6177306175231934,-2.0,2021-01-21 19:52:25.278000+00:00,train
285,-2.6218948364257812,-2.0,2021-01-21 19:52:55.278000+00:00,train
286,-2.595846652984619,-2.0,2021-01-21 19:53:25.278000+00:00,train
287,-2.5711119174957275,-2.0,2021-01-21 19:53:55.278000+00:00,train
288,-2.54763126373291,-2.0,2021-01-21 19:54:25.278000+00:00,train
289,-2.525357484817505,-2.0,2021-01-21 19:54:55.278000+00:00,train
290,-2.5042543411254883,-2.0,2021-01-21 19:55:25.278000+00:00,train
291,-2.484292984008789,-2.0,2021-01-21 19:55:55.278000+00:00,train
292,-2.4654526710510254,-2.0,2021-01-21 19:56:25.278000+00:00,train
293,-2.4477200508117676,-2.0,2021-01-21 19:56:55.278000+00:00,train
294,-2.431088447570801,-2.0,2021-01-21 19:57:25.278000+00:00,train
295,-2.415557622909546,-2.0,2021-01-21 19:57:55.278000+00:00,train
296,-2.4011340141296387,-2.0,2021-01-21 19:58:25.278000+00:00,train
297,-2.3878304958343506,-2.0,2021-01-21 19:58:55.278000+00:00,train
298,-2.3756673336029053,-2.0,2021-01-21 19:59:25.278000+00:00,train
299,-2.3646724224090576,-2.0,2021-01-21 19:59:55.278000+00:00,train
300,-2.354881763458252,-2.0,2021-01-21 20:00:25.278000+00:00,train
301,-2.3474152088165283,-2.0,2021-01-21 20:00:55.278000+00:00,train
302,-2.3401706218719482,-2.0,2021-01-21 20:01:25.278000+00:00,train
303,-2.3194456100463867,-2.0,2021-01-21 20:01:55.278000+00:00,train
304,-2.299290657043457,-2.0,2021-01-21 20:02:25.278000+00:00,train
305,-2.279667615890503,-2.0,2021-01-21 20:02:55.278000+00:00,train
306,-2.260545015335083,-2.0,2021-01-21 20:03:25.278000+00:00,train
307,-2.241894006729126,-2.0,2021-01-21 20:03:55.278000+00:00,train
308,-2.2236905097961426,-2.0,2021-01-21 20:04:25.278000+00:00,train
309,-2.205911159515381,-2.0,2021-01-21 20:04:55.278000+00:00,train
310,-2.1885364055633545,-2.0,2021-01-21 20:05:25.278000+00:00,train
311,-2.1715478897094727,-2.0,2021-01-21 20:05:55.278000+00:00,train
312,-2.1549293994903564,-2.0,2021-01-21 20:06:25.278000+00:00,train
313,-2.1386663913726807,-2.0,2021-01-21 20:06:55.278000+00:00,train
314,-2.1227447986602783,-2.0,2021-01-21 20:07:25.278000+00:00,train
315,-2.1071527004241943,-2.0,2021-01-21 20:07:55.278000+00:00,train
316,-2.091878890991211,-2.0,2021-01-21 20:08:25.278000+00:00,train
317,-2.076913595199585,-2.0,2021-01-21 20:08:55.278000+00:00,train
318,-2.0622470378875732,-2.0,2021-01-21 20:09:25.278000+00:00,train
319,-2.0478711128234863,-2.0,2021-01-21 20:09:55.278000+00:00,train
320,-2.0337772369384766,-2.0,2021-01-21 20:10:25.278000+00:00,train
321,-2.019958734512329,-2.0,2021-01-21 20:10:55.278000+00:00,train
322,-2.00640869140625,-2.0,2021-01-21 20:11:25.278000+00:00,train
323,-1.9931209087371826,-2.0,2021-01-21 20:11:55.278000+00:00,train
324,-1.9800893068313599,-2.0,2021-01-21 20:12:25.278000+00:00,train
325,-1.9673093557357788,-2.0,2021-01-21 20:12:55.278000+00:00,train
326,-1.954775333404541,-2.0,2021-01-21 20:13:25.278000+00:00,train
327,-1.94248366355896,-2.0,2021-01-21 20:13:55.278000+00:00,train
328,-1.930429458618164,-2.0,2021-01-21 20:14:25.278000+00:00,train
329,-1.918609619140625,-2.0,2021-01-21 20:14:55.278000+00:00,train
330,-1.907019853591919,-2.0,2021-01-21 20:15:25.278000+00:00,train
331,-1.8956574201583862,-2.0,2021-01-21 20:15:55.278000+00:00,train
332,-1.8845196962356567,-2.0,2021-01-21 20:16:25.278000+00:00,train
333,-1.8736032247543335,-2.0,2021-01-21 20:16:55.278000+00:00,train
334,-1.8629059791564941,-2.0,2021-01-21 20:17:25.278000+00:00,train
335,-1.8524256944656372,-2.0,2021-01-21 20:17:55.278000+00:00,train
336,-1.8421604633331299,-2.0,2021-01-21 20:18:25.278000+00:00,train
337,-1.8321083784103394,-2.0,2021-01-21 20:18:55.278000+00:00,train
338,-1.822267770767212,-2.0,2021-01-21 20:19:25.278000+00:00,train
339,-1.812637209892273,-2.0,2021-01-21 20:19:55.278000+00:00,train
340,-1.803215742111206,-2.0,2021-01-21 20:20:25.278000+00:00,train
341,-1.7940020561218262,-2.0,2021-01-21 20:20:55.278000+00:00,train
342,-1.7849960327148438,-2.0,2021-01-21 20:21:25.278000+00:00,train
343,-1.776196002960205,-2.0,2021-01-21 20:21:55.278000+00:00,train
344,-1.7676022052764893,-2.0,2021-01-21 20:22:25.278000+00:00,train
345,-1.7592138051986694,-2.0,2021-01-21 20:22:55.278000+00:00,train
346,-1.7510313987731934,-2.0,2021-01-21 20:23:25.278000+00:00,train
347,-1.7430545091629028,-2.0,2021-01-21 20:23:55.278000+00:00,train
348,-1.735283374786377,-2.0,2021-01-21 20:24:25.278000+00:00,train
349,-1.7277189493179321,-2.0,2021-01-21 20:24:55.278000+00:00,train
350,-1.7203606367111206,-2.0,2021-01-21 20:25:25.278000+00:00,train
351,-1.7132102251052856,-2.0,2021-01-21 20:25:55.278000+00:00,train
352,-1.706268310546875,-2.0,2021-01-21 20:26:25.278000+00:00,train
353,-1.699535846710205,-2.0,2021-01-21 20:26:55.278000+00:00,train
354,-1.6930137872695923,-2.0,2021-01-21 20:27:25.278000+00:00,train
355,-1.686704397201538,-2.0,2021-01-21 20:27:55.278000+00:00,train
356,-1.680608868598938,-2.0,2021-01-21 20:28:25.278000+00:00,train
357,-1.674729347229004,-2.0,2021-01-21 20:28:55.278000+00:00,train
358,-1.6690678596496582,-2.0,2021-01-21 20:29:25.278000+00:00,train
359,-1.6636269092559814,-2.0,2021-01-21 20:29:55.278000+00:00,train
360,-1.6584089994430542,-2.0,2021-01-21 20:30:25.278000+00:00,train
361,-1.6534168720245361,-2.0,2021-01-21 20:30:55.278000+00:00,train
362,-1.6486538648605347,-2.0,2021-01-21 20:31:25.278000+00:00,train
363,-1.6441218852996826,-2.0,2021-01-21 20:31:55.278000+00:00,train
364,-1.6398264169692993,-2.0,2021-01-21 20:32:25.278000+00:00,train
365,-1.6357709169387817,-2.0,2021-01-21 20:32:55.278000+00:00,train
366,-1.6319597959518433,-2.0,2021-01-21 20:33:25.278000+00:00,train
367,-1.628398060798645,-2.0,2021-01-21 20:33:55.278000+00:00,train
368,-1.6250905990600586,-2.0,2021-01-21 20:34:25.278000+00:00,train
369,-1.6220428943634033,-2.0,2021-01-21 20:34:55.278000+00:00,train
370,-1.619261384010315,-2.0,2021-01-21 20:35:25.278000+00:00,train
371,-1.6167521476745605,-2.0,2021-01-21 20:35:55.278000+00:00,train
372,-1.6145228147506714,-2.0,2021-01-21 20:36:25.278000+00:00,train
373,-1.6125831604003906,-2.0,2021-01-21 20:36:55.278000+00:00,train
374,-1.6109410524368286,-2.0,2021-01-21 20:37:25.278000+00:00,train
375,-1.6096036434173584,-2.0,2021-01-21 20:37:55.278000+00:00,train
376,-1.6085814237594604,-2.0,2021-01-21 20:38:25.278000+00:00,train
377,-1.6078855991363525,-2.0,2021-01-21 20:38:55.278000+00:00,train
378,-1.6075280904769897,-2.0,2021-01-21 20:39:25.278000+00:00,train
379,-1.6075220108032227,-2.0,2021-01-21 20:39:55.278000+00:00,train
380,-1.607881784439087,-2.0,2021-01-21 20:40:25.278000+00:00,train
381,-1.6086242198944092,-2.0,2021-01-21 20:40:55.278000+00:00,train
382,-1.6103543043136597,-2.0,2021-01-21 20:41:25.278000+00:00,train
383,-1.6119047403335571,-2.0,2021-01-21 20:41:55.278000+00:00,train
384,-1.6138968467712402,-2.0,2021-01-21 20:42:25.278000+00:00,train
385,-1.6163551807403564,-2.0,2021-01-21 20:42:55.278000+00:00,train
386,-1.6193076372146606,-2.0,2021-01-21 20:43:25.278000+00:00,train
387,-1.6227864027023315,-2.0,2021-01-21 20:43:55.278000+00:00,train
388,-1.6268268823623657,-2.0,2021-01-21 20:44:25.278000+00:00,train
389,-1.6314711570739746,-2.0,2021-01-21 20:44:55.278000+00:00,train
390,-1.6367672681808472,-2.0,2021-01-21 20:45:25.278000+00:00,train
391,-1.6427708864212036,-2.0,2021-01-21 20:45:55.278000+00:00,train
392,-1.6495490074157715,-2.0,2021-01-21 20:46:25.278000+00:00,train
393,-1.6571797132492065,-2.0,2021-01-21 20:46:55.278000+00:00,train
394,-1.6657602787017822,-2.0,2021-01-21 20:47:25.278000+00:00,train
395,-1.6754075288772583,-2.0,2021-01-21 20:47:55.278000+00:00,train
396,-1.6862703561782837,-2.0,2021-01-21 20:48:25.278000+00:00,train
397,-1.698538064956665,-2.0,2021-01-21 20:48:55.278000+00:00,train
398,-1.7124624252319336,-2.0,2021-01-21 20:49:25.278000+00:00,train
399,-1.7283861637115479,-2.0,2021-01-21 20:49:55.278000+00:00,train
400,-1.7468029260635376,-2.0,2021-01-21 20:50:25.278000+00:00,train
401,-1.7684664726257324,-2.0,2021-01-21 20:50:55.278000+00:00,train
402,-1.7946420907974243,-2.0,2021-01-21 20:51:25.278000+00:00,train
403,-1.8277860879898071,-2.0,2021-01-21 20:51:55.278000+00:00,train
404,-1.8742157220840454,-2.0,2021-01-21 20:52:25.278000+00:00,train
405,-2.0,-2.0,2021-01-21 20:52:55.278000+00:00,train
406,-2.0,-2.0,2021-01-21 20:53:25.278000+00:00,train
407,-2.0,-2.0,2021-01-21 20:53:55.278000+00:00,train
408,-2.0,-2.0,2021-01-21 20:54:25.278000+00:00,train
409,-2.0,-2.0,2021-01-21 20:54:55.278000+00:00,train
410,-2.0,-2.0,2021-01-21 20:55:25.278000+00:00,train
411,-2.0,-2.0,2021-01-21 20:55:55.278000+00:00,train
412,-2.0,-2.0,2021-01-21 20:56:25.278000+00:00,train
413,-2.0,-2.0,2021-01-21 20:56:55.278000+00:00,train
414,-2.0,-2.0,2021-01-21 20:57:25.278000+00:00,train
415,-2.0,-2.0,2021-01-21 20:57:55.278000+00:00,train
416,-2.0,-2.0,2021-01-21 20:58:25.278000+00:00,train
417,-2.0,-2.0,2021-01-21 20:58:55.278000+00:00,train
418,-2.0,-2.0,2021-01-21 20:59:25.278000+00:00,train
419,-2.0,-2.0,2021-01-21 20:59:55.278000+00:00,train
420,-2.0,-2.0,2021-01-21 21:00:25.278000+00:00,train
421,-2.0,0.0,2021-01-21 21:00:55.278000+00:00,train
422,-2.0,-2.0,2021-01-21 21:01:25.278000+00:00,train
423,-2.0,-2.0,2021-01-21 21:01:55.278000+00:00,train
424,-2.0,-2.0,2021-01-21 21:02:25.278000+00:00,train
425,-2.0,-2.0,2021-01-21 21:02:55.278000+00:00,train
426,-2.0,-2.0,2021-01-21 21:03:25.278000+00:00,train
427,-2.0,-2.0,2021-01-21 21:03:55.278000+00:00,train
428,-2.0,-2.0,2021-01-21 21:04:25.278000+00:00,train
429,-2.0,-2.0,2021-01-21 21:04:55.278000+00:00,train
430,-2.0,-2.0,2021-01-21 21:05:25.278000+00:00,train
431,-2.0,-2.0,2021-01-21 21:05:55.278000+00:00,train
432,-2.0,-2.0,2021-01-21 21:06:25.278000+00:00,train
433,-2.0,-2.0,2021-01-21 21:06:55.278000+00:00,train
434,-2.0,-2.0,2021-01-21 21:07:25.278000+00:00,train
435,-2.0,-2.0,2021-01-21 21:07:55.278000+00:00,train
436,-2.0,-2.0,2021-01-21 21:08:25.278000+00:00,train
437,-2.0,-2.0,2021-01-21 21:08:55.278000+00:00,train
438,-2.0,-2.0,2021-01-21 21:09:25.278000+00:00,train
439,-1.7153996229171753,-2.0,2021-01-21 21:09:55.278000+00:00,train
440,-1.7154052257537842,-2.0,2021-01-21 21:10:25.278000+00:00,train
441,-1.7154124975204468,-2.0,2021-01-21 21:10:55.278000+00:00,train
442,-1.7154195308685303,-2.0,2021-01-21 21:11:25.278000+00:00,train
443,-1.7154260873794556,-2.0,2021-01-21 21:11:55.278000+00:00,train
444,-1.7154325246810913,-2.0,2021-01-21 21:12:25.278000+00:00,train
445,-1.7154388427734375,-2.0,2021-01-21 21:12:55.278000+00:00,train
446,-1.715444803237915,-2.0,2021-01-21 21:13:25.278000+00:00,train
447,-1.7154508829116821,-2.0,2021-01-21 21:13:55.278000+00:00,train
448,-1.7154566049575806,-2.0,2021-01-21 21:14:25.278000+00:00,train
449,-1.7154624462127686,-2.0,2021-01-21 21:14:55.278000+00:00,train
450,-1.715467929840088,-2.0,2021-01-21 21:15:25.278000+00:00,train
451,-1.7154735326766968,-2.0,2021-01-21 21:15:55.278000+00:00,train
452,-1.7154788970947266,-2.0,2021-01-21 21:16:25.278000+00:00,train
453,-1.7154840230941772,-2.0,2021-01-21 21:16:55.278000+00:00,train
454,-1.7154892683029175,-2.0,2021-01-21 21:17:25.278000+00:00,train
455,-1.7154942750930786,-2.0,2021-01-21 21:17:55.278000+00:00,train
456,-1.7154991626739502,-2.0,2021-01-21 21:18:25.278000+00:00,train
457,-1.7155039310455322,-2.0,2021-01-21 21:18:55.278000+00:00,train
458,-1.7155086994171143,-2.0,2021-01-21 21:19:25.278000+00:00,train
459,-1.7155132293701172,-2.0,2021-01-21 21:19:55.278000+00:00,train
460,-1.7155177593231201,-2.0,2021-01-21 21:20:25.278000+00:00,train
461,-1.7155221700668335,-2.0,2021-01-21 21:20:55.278000+00:00,train
462,-1.7155263423919678,-2.0,2021-01-21 21:21:25.278000+00:00,train
463,-1.715530514717102,-2.0,2021-01-21 21:21:55.278000+00:00,train
464,-1.7155345678329468,-2.0,2021-01-21 21:22:25.278000+00:00,train
465,-1.715538501739502,-2.0,2021-01-21 21:22:55.278000+00:00,train
466,-1.7155423164367676,-2.0,2021-01-21 21:23:25.278000+00:00,train
467,-1.7155460119247437,-2.0,2021-01-21 21:23:55.278000+00:00,train
468,-1.7155495882034302,-2.0,2021-01-21 21:24:25.278000+00:00,train
469,-1.7155529260635376,-2.0,2021-01-21 21:24:55.278000+00:00,train
470,-1.7155563831329346,-2.0,2021-01-21 21:25:25.278000+00:00,train
471,-1.7155596017837524,-2.0,2021-01-21 21:25:55.278000+00:00,train
472,-1.7155628204345703,-2.0,2021-01-21 21:26:25.278000+00:00,train
473,-1.7155659198760986,-2.0,2021-01-21 21:26:55.278000+00:00,train
474,-1.7155687808990479,-2.0,2021-01-21 21:27:25.278000+00:00,train
475,-1.7155717611312866,-2.0,2021-01-21 21:27:55.278000+00:00,train
476,-1.7155745029449463,-2.0,2021-01-21 21:28:25.278000+00:00,train
477,-1.7155771255493164,-2.0,2021-01-21 21:28:55.278000+00:00,train
478,-1.7155797481536865,-2.0,2021-01-21 21:29:25.278000+00:00,train
479,-1.7155821323394775,-2.0,2021-01-21 21:29:55.278000+00:00,train
480,-1.7155845165252686,-2.0,2021-01-21 21:30:25.278000+00:00,train
481,-1.7155866622924805,-2.0,2021-01-21 21:30:55.278000+00:00,train
482,-1.7155888080596924,-2.0,2021-01-21 21:31:25.278000+00:00,train
483,-1.7155907154083252,-2.0,2021-01-21 21:31:55.278000+00:00,train
484,-1.7155927419662476,-2.0,2021-01-21 21:32:25.278000+00:00,train
485,-1.7155945301055908,-2.0,2021-01-21 21:32:55.278000+00:00,train
486,-1.715596079826355,-2.0,2021-01-21 21:33:25.278000+00:00,train
487,-1.7155977487564087,-2.0,2021-01-21 21:33:55.278000+00:00,train
488,-1.7155991792678833,-2.0,2021-01-21 21:34:25.278000+00:00,train
489,-1.7156004905700684,-2.0,2021-01-21 21:34:55.278000+00:00,train
490,-1.7156018018722534,-2.0,2021-01-21 21:35:25.278000+00:00,train
491,-1.7156028747558594,-2.0,2021-01-21 21:35:55.278000+00:00,train
492,-1.7156039476394653,-2.0,2021-01-21 21:36:25.278000+00:00,train
493,-1.7156049013137817,-2.0,2021-01-21 21:36:55.278000+00:00,train
494,-1.715605616569519,-2.0,2021-01-21 21:37:25.278000+00:00,train
495,-1.7156063318252563,-2.0,2021-01-21 21:37:55.278000+00:00,train
496,-1.715606927871704,-2.0,2021-01-21 21:38:25.278000+00:00,train
497,-1.7156074047088623,-2.0,2021-01-21 21:38:55.278000+00:00,train
498,-1.715607762336731,-2.0,2021-01-21 21:39:25.278000+00:00,train
499,-1.71560800075531,-2.0,2021-01-21 21:39:55.278000+00:00,train
500,-1.7156081199645996,-2.0,2021-01-21 21:40:25.278000+00:00,train
501,-1.7156081199645996,-2.0,2021-01-21 21:40:55.278000+00:00,train
502,-1.71560800075531,-2.0,2021-01-21 21:41:25.278000+00:00,train
503,-1.715607762336731,-2.0,2021-01-21 21:41:55.278000+00:00,train
504,-1.7156074047088623,-2.0,2021-01-21 21:42:25.278000+00:00,train
505,-1.7156070470809937,-2.0,2021-01-21 21:42:55.278000+00:00,train
506,-1.715606451034546,-2.0,2021-01-21 21:43:25.278000+00:00,train
507,-1.7156058549880981,-2.0,2021-01-21 21:43:55.278000+00:00,train
508,-1.7156050205230713,-2.0,2021-01-21 21:44:25.278000+00:00,train
509,-1.7156041860580444,-2.0,2021-01-21 21:44:55.278000+00:00,train
510,-1.715603232383728,-2.0,2021-01-21 21:45:25.278000+00:00,train
511,-1.715602159500122,-2.0,2021-01-21 21:45:55.278000+00:00,train
512,-1.7156009674072266,-2.0,2021-01-21 21:46:25.278000+00:00,train
513,-1.7155996561050415,-2.0,2021-01-21 21:46:55.278000+00:00,train
514,-1.715598225593567,-2.0,2021-01-21 21:47:25.278000+00:00,train
515,-1.7155965566635132,-2.0,2021-01-21 21:47:55.278000+00:00,train
516,-1.715595006942749,-2.0,2021-01-21 21:48:25.278000+00:00,train
517,-1.7155933380126953,-2.0,2021-01-21 21:48:55.278000+00:00,train
518,-1.7155914306640625,-2.0,2021-01-21 21:49:25.278000+00:00,train
519,-1.7155892848968506,-2.0,2021-01-21 21:49:55.278000+00:00,train
520,-1.7155872583389282,-2.0,2021-01-21 21:50:25.278000+00:00,train
521,-1.7155849933624268,-2.0,2021-01-21 21:50:55.278000+00:00,train
522,-1.7155826091766357,-2.0,2021-01-21 21:51:25.278000+00:00,train
523,-1.7155802249908447,-2.0,2021-01-21 21:51:55.278000+00:00,train
524,-1.7155777215957642,-2.0,2021-01-21 21:52:25.278000+00:00,train
525,-1.7155749797821045,-2.0,2021-01-21 21:52:55.278000+00:00,train
526,-1.7155722379684448,-2.0,2021-01-21 21:53:25.278000+00:00,train
527,-1.715569257736206,-2.0,2021-01-21 21:53:55.278000+00:00,train
528,-1.7155663967132568,-2.0,2021-01-21 21:54:25.278000+00:00,train
529,-1.7155632972717285,-2.0,2021-01-21 21:54:55.278000+00:00,train
530,-1.715559959411621,-2.0,2021-01-21 21:55:25.278000+00:00,train
531,-1.7155566215515137,-2.0,2021-01-21 21:55:55.278000+00:00,train
532,-1.7155532836914062,-1.0,2021-01-21 21:56:25.278000+00:00,train
533,-1.7155498266220093,-2.0,2021-01-21 21:56:55.278000+00:00,train
534,-1.7155462503433228,-2.0,2021-01-21 21:57:25.278000+00:00,train
535,-1.7155424356460571,-2.0,2021-01-21 21:57:55.278000+00:00,train
536,-1.7155386209487915,-2.0,2021-01-21 21:58:25.278000+00:00,train
537,-1.7155346870422363,-2.0,2021-01-21 21:58:55.278000+00:00,train
538,-1.7155306339263916,-2.0,2021-01-21 21:59:25.278000+00:00,train
539,-1.7155263423919678,-1.0,2021-01-21 21:59:55.278000+00:00,train
540,-1.7155221700668335,-1.0,2021-01-21 22:00:25.278000+00:00,train
541,-1.7155178785324097,0.0,2021-01-21 22:00:55.278000+00:00,train
542,-1.7155133485794067,-1.0,2021-01-21 22:01:25.278000+00:00,train
543,-1.7155088186264038,-1.0,2021-01-21 22:01:55.278000+00:00,train
544,-1.7155041694641113,-1.0,2021-01-21 22:02:25.278000+00:00,train
545,-1.7154994010925293,-1.0,2021-01-21 22:02:55.278000+00:00,train
546,-1.7154945135116577,-1.0,2021-01-21 22:03:25.278000+00:00,train
547,-1.7154895067214966,-1.0,2021-01-21 22:03:55.278000+00:00,train
548,-1.715484380722046,-1.0,2021-01-21 22:04:25.278000+00:00,train
549,-1.7154792547225952,-1.0,2021-01-21 22:04:55.278000+00:00,train
550,-1.676532506942749,-1.0,2021-01-21 22:05:25.278000+00:00,train
551,-1.6765265464782715,-1.0,2021-01-21 22:05:55.278000+00:00,train
552,-1.6765204668045044,-1.0,2021-01-21 22:06:25.278000+00:00,train
553,-1.6765142679214478,-1.0,2021-01-21 22:06:55.278000+00:00,train
554,-1.676507830619812,-1.0,2021-01-21 22:07:25.278000+00:00,train
555,-1.6765013933181763,-1.0,2021-01-21 22:07:55.278000+00:00,train
556,-1.676494836807251,-1.0,2021-01-21 22:08:25.278000+00:00,train
557,-1.6408642530441284,-1.0,2021-01-21 22:08:55.278000+00:00,train
558,-1.6077780723571777,-1.0,2021-01-21 22:09:25.278000+00:00,train
559,-1.6077685356140137,-1.0,2021-01-21 22:09:55.278000+00:00,train
560,-1.5767202377319336,-1.0,2021-01-21 22:10:25.278000+00:00,train
561,-1.547358512878418,-1.0,2021-01-21 22:10:55.278000+00:00,train
562,-1.519424319267273,-1.0,2021-01-21 22:11:25.278000+00:00,train
563,-1.492723822593689,-1.0,2021-01-21 22:11:55.278000+00:00,train
564,-1.4671059846878052,-1.0,2021-01-21 22:12:25.278000+00:00,train
565,-1.4424501657485962,-1.0,2021-01-21 22:12:55.278000+00:00,train
566,-1.41865873336792,-1.0,2021-01-21 22:13:25.278000+00:00,train
567,-1.395650863647461,-1.0,2021-01-21 22:13:55.278000+00:00,train
568,-1.3733587265014648,-1.0,2021-01-21 22:14:25.278000+00:00,train
569,-1.351725459098816,-1.0,2021-01-21 22:14:55.278000+00:00,train
570,-1.3307017087936401,-1.0,2021-01-21 22:15:25.278000+00:00,train
571,-1.3102455139160156,-1.0,2021-01-21 22:15:55.278000+00:00,train
572,-1.2903194427490234,-1.0,2021-01-21 22:16:25.278000+00:00,train
573,-1.2700079679489136,-1.0,2021-01-21 22:16:55.278000+00:00,train
574,-1.2510312795639038,-1.0,2021-01-21 22:17:25.278000+00:00,train
575,-1.232499599456787,-1.0,2021-01-21 22:17:55.278000+00:00,train
576,-1.2143902778625488,-1.0,2021-01-21 22:18:25.278000+00:00,train
577,-1.1966831684112549,-1.0,2021-01-21 22:18:55.278000+00:00,train
578,-1.179360032081604,-1.0,2021-01-21 22:19:25.278000+00:00,train
579,-1.1624045372009277,-1.0,2021-01-21 22:19:55.278000+00:00,train
580,-1.1458019018173218,-1.0,2021-01-21 22:20:25.278000+00:00,train
581,-1.129538655281067,-1.0,2021-01-21 22:20:55.278000+00:00,train
582,-1.1136020421981812,-1.0,2021-01-21 22:21:25.278000+00:00,train
583,-1.0979810953140259,-1.0,2021-01-21 22:21:55.278000+00:00,train
584,-1.0826655626296997,-1.0,2021-01-21 22:22:25.278000+00:00,train
585,-1.0676456689834595,-1.0,2021-01-21 22:22:55.278000+00:00,train
586,-1.052912950515747,-1.0,2021-01-21 22:23:25.278000+00:00,train
587,-1.0384594202041626,-1.0,2021-01-21 22:23:55.278000+00:00,train
588,-1.024277687072754,-1.0,2021-01-21 22:24:25.278000+00:00,train
589,-1.0103609561920166,-1.0,2021-01-21 22:24:55.278000+00:00,train
590,-0.9967027306556702,-1.0,2021-01-21 22:25:25.278000+00:00,train
591,-0.9832977652549744,-1.0,2021-01-21 22:25:55.278000+00:00,train
592,-0.970139741897583,-1.0,2021-01-21 22:26:25.278000+00:00,train
593,-0.9572243690490723,-1.0,2021-01-21 22:26:55.278000+00:00,train
594,-0.9445469379425049,-1.0,2021-01-21 22:27:25.278000+00:00,train
595,-0.9321033954620361,-1.0,2021-01-21 22:27:55.278000+00:00,train
596,-0.9198896288871765,-1.0,2021-01-21 22:28:25.278000+00:00,train
597,-0.907902181148529,-1.0,2021-01-21 22:28:55.278000+00:00,train
598,-0.8961377143859863,-1.0,2021-01-21 22:29:25.278000+00:00,train
599,-0.8845933675765991,-1.0,2021-01-21 22:29:55.278000+00:00,train
600,-0.8732659220695496,-1.0,2021-01-21 22:30:25.278000+00:00,train
601,-0.8621528744697571,-1.0,2021-01-21 22:30:55.278000+00:00,train
602,-0.8512521982192993,-1.0,2021-01-21 22:31:25.278000+00:00,train
603,-0.8405616879463196,-1.0,2021-01-21 22:31:55.278000+00:00,train
604,-0.830079197883606,-1.0,2021-01-21 22:32:25.278000+00:00,train
605,-0.81980299949646,-1.0,2021-01-21 22:32:55.278000+00:00,train
606,-0.8097319006919861,-1.0,2021-01-21 22:33:25.278000+00:00,train
607,-0.7998640537261963,-1.0,2021-01-21 22:33:55.278000+00:00,train
608,-0.7901986837387085,-1.0,2021-01-21 22:34:25.278000+00:00,train
609,-0.7807347178459167,-1.0,2021-01-21 22:34:55.278000+00:00,train
610,-0.7714711427688599,-1.0,2021-01-21 22:35:25.278000+00:00,train
611,-0.7624073028564453,-1.0,2021-01-21 22:35:55.278000+00:00,train
612,-0.7535426616668701,-1.0,2021-01-21 22:36:25.278000+00:00,train
613,-0.7448770999908447,-1.0,2021-01-21 22:36:55.278000+00:00,train
614,-0.7364102602005005,-1.0,2021-01-21 22:37:25.278000+00:00,train
615,-0.7281419634819031,-1.0,2021-01-21 22:37:55.278000+00:00,train
616,-0.7200722098350525,-1.0,2021-01-21 22:38:25.278000+00:00,train
617,-0.7122016549110413,-1.0,2021-01-21 22:38:55.278000+00:00,train
618,-0.7045305371284485,-1.0,2021-01-21 22:39:25.278000+00:00,train
619,-0.6970594525337219,-1.0,2021-01-21 22:39:55.278000+00:00,train
620,-0.6897889971733093,-1.0,2021-01-21 22:40:25.278000+00:00,train
621,-0.6827203631401062,-1.0,2021-01-21 22:40:55.278000+00:00,train
622,-0.6758542060852051,-1.0,2021-01-21 22:41:25.278000+00:00,train
623,-0.6691921353340149,-1.0,2021-01-21 22:41:55.278000+00:00,train
624,-0.6627355217933655,-1.0,2021-01-21 22:42:25.278000+00:00,train
625,-0.656485915184021,-1.0,2021-01-21 22:42:55.278000+00:00,train
626,-0.6504448652267456,-1.0,2021-01-21 22:43:25.278000+00:00,train
627,-0.6446148157119751,-1.0,2021-01-21 22:43:55.278000+00:00,train
628,-0.6389976143836975,-1.0,2021-01-21 22:44:25.278000+00:00,train
629,-0.633595883846283,-1.0,2021-01-21 22:44:55.278000+00:00,train
630,-0.6284121870994568,-1.0,2021-01-21 22:45:25.278000+00:00,train
631,-0.6234491467475891,-1.0,2021-01-21 22:45:55.278000+00:00,train
632,-0.6187103390693665,-1.0,2021-01-21 22:46:25.278000+00:00,train
633,-0.6141986846923828,-1.0,2021-01-21 22:46:55.278000+00:00,train
634,-0.6099181175231934,-1.0,2021-01-21 22:47:25.278000+00:00,train
635,-0.605872631072998,-1.0,2021-01-21 22:47:55.278000+00:00,train
636,-0.6020663976669312,-1.0,2021-01-21 22:48:25.278000+00:00,train
637,-0.5985040664672852,-1.0,2021-01-21 22:48:55.278000+00:00,train
638,-0.5951907634735107,-1.0,2021-01-21 22:49:25.278000+00:00,train
639,-0.5921319723129272,-1.0,2021-01-21 22:49:55.278000+00:00,train
640,-0.5893334746360779,-1.0,2021-01-21 22:50:25.278000+00:00,train
641,-0.5868015289306641,-1.0,2021-01-21 22:50:55.278000+00:00,train
642,-0.5845431685447693,-1.0,2021-01-21 22:51:25.278000+00:00,train
643,-0.58256596326828,-1.0,2021-01-21 22:51:55.278000+00:00,train
644,-0.5808779001235962,-1.0,2021-01-21 22:52:25.278000+00:00,train
645,-0.5794875621795654,-1.0,2021-01-21 22:52:55.278000+00:00,train
646,-0.5784047245979309,-1.0,2021-01-21 22:53:25.278000+00:00,train
647,-0.5776398181915283,-1.0,2021-01-21 22:53:55.278000+00:00,train
648,-0.577204167842865,-1.0,2021-01-21 22:54:25.278000+00:00,train
649,-0.5771100521087646,-1.0,2021-01-21 22:54:55.278000+00:00,train
650,-0.5773715376853943,-1.0,2021-01-21 22:55:25.278000+00:00,train
651,-0.5780031681060791,-1.0,2021-01-21 22:55:55.278000+00:00,train
652,-0.5790217518806458,-1.0,2021-01-21 22:56:25.278000+00:00,train
653,-0.5804457664489746,-1.0,2021-01-21 22:56:55.278000+00:00,train
654,-0.5822955965995789,-1.0,2021-01-21 22:57:25.278000+00:00,train
655,-0.5845937132835388,-1.0,2021-01-21 22:57:55.278000+00:00,train
656,-0.587365984916687,-1.0,2021-01-21 22:58:25.278000+00:00,train
657,-0.5906407833099365,-1.0,2021-01-21 22:58:55.278000+00:00,train
658,-0.5944511294364929,-1.0,2021-01-21 22:59:25.278000+00:00,train
659,-0.5988338589668274,-1.0,2021-01-21 22:59:55.278000+00:00,train
660,-0.6038321256637573,-1.0,2021-01-21 23:00:25.278000+00:00,train
661,-0.6094947457313538,0.0,2021-01-21 23:00:55.278000+00:00,train
662,-0.615880012512207,-1.0,2021-01-21 23:01:25.278000+00:00,train
663,-0.6230558753013611,-1.0,2021-01-21 23:01:55.278000+00:00,train
664,-0.6311039328575134,-1.0,2021-01-21 23:02:25.278000+00:00,train
665,-0.640122652053833,-1.0,2021-01-21 23:02:55.278000+00:00,train
666,-0.650233805179596,-1.0,2021-01-21 23:03:25.278000+00:00,train
667,-0.6615896224975586,-1.0,2021-01-21 23:03:55.278000+00:00,train
668,-0.6743861436843872,-1.0,2021-01-21 23:04:25.278000+00:00,train
669,-0.6888822913169861,-1.0,2021-01-21 23:04:55.278000+00:00,train
670,-0.6888619065284729,-1.0,2021-01-21 23:05:25.278000+00:00,train
671,-0.7054138779640198,-1.0,2021-01-21 23:05:55.278000+00:00,train
672,-0.724530816078186,-1.0,2021-01-21 23:06:25.278000+00:00,train
673,-0.7469951510429382,-1.0,2021-01-21 23:06:55.278000+00:00,train
674,-0.7741237878799438,-1.0,2021-01-21 23:07:25.278000+00:00,train
675,-0.8084911108016968,-1.0,2021-01-21 23:07:55.278000+00:00,train
676,-0.8568066954612732,-1.0,2021-01-21 23:08:25.278000+00:00,train
677,-0.856798529624939,-1.0,2021-01-21 23:08:55.278000+00:00,train
678,-0.8567906022071838,-1.0,2021-01-21 23:09:25.278000+00:00,train
679,-0.8567798137664795,-1.0,2021-01-21 23:09:55.278000+00:00,train
680,-0.8567734360694885,-1.0,2021-01-21 23:10:25.278000+00:00,train
681,-0.8567659258842468,-1.0,2021-01-21 23:10:55.278000+00:00,train
682,-0.856758177280426,-1.0,2021-01-21 23:11:25.278000+00:00,train
683,-0.8567503094673157,-1.0,2021-01-21 23:11:55.278000+00:00,train
684,-0.8567425012588501,-1.0,2021-01-21 23:12:25.278000+00:00,train
685,-0.856734573841095,-1.0,2021-01-21 23:12:55.278000+00:00,train
686,-0.8567267656326294,-1.0,2021-01-21 23:13:25.278000+00:00,train
687,-0.8567190170288086,-1.0,2021-01-21 23:13:55.278000+00:00,train
688,-0.8567111492156982,-1.0,2021-01-21 23:14:25.278000+00:00,train
689,-0.8567032814025879,-1.0,2021-01-21 23:14:55.278000+00:00,train
690,-0.8566954135894775,-1.0,2021-01-21 23:15:25.278000+00:00,train
691,-0.8566874861717224,-1.0,2021-01-21 23:15:55.278000+00:00,train
692,-0.8566796183586121,-1.0,2021-01-21 23:16:25.278000+00:00,train
693,-0.8566716909408569,-1.0,2021-01-21 23:16:55.278000+00:00,train
694,-0.8566638231277466,-1.0,2021-01-21 23:17:25.278000+00:00,train
695,-0.8566558957099915,-1.0,2021-01-21 23:17:55.278000+00:00,train
696,-0.8566480875015259,-1.0,2021-01-21 23:18:25.278000+00:00,train
697,-0.8566401600837708,-1.0,2021-01-21 23:18:55.278000+00:00,train
698,-0.8566322326660156,-1.0,2021-01-21 23:19:25.278000+00:00,train
699,-0.8566243052482605,-1.0,2021-01-21 23:19:55.278000+00:00,train
700,-0.8566162586212158,-1.0,2021-01-21 23:20:25.278000+00:00,train
701,-0.8566082119941711,-1.0,2021-01-21 23:20:55.278000+00:00,train
702,-0.8566002249717712,-1.0,2021-01-21 23:21:25.278000+00:00,train
703,-0.8565921187400818,-1.0,2021-01-21 23:21:55.278000+00:00,train
704,-0.8565841317176819,-1.0,2021-01-21 23:22:25.278000+00:00,train
705,-0.8565760850906372,-1.0,2021-01-21 23:22:55.278000+00:00,train
706,-0.8565680384635925,-1.0,2021-01-21 23:23:25.278000+00:00,train
707,-0.8565599918365479,-1.0,2021-01-21 23:23:55.278000+00:00,train
708,-0.8565518856048584,-1.0,2021-01-21 23:24:25.278000+00:00,train
709,-0.856543779373169,-1.0,2021-01-21 23:24:55.278000+00:00,train
710,-0.8565357327461243,-1.0,2021-01-21 23:25:25.278000+00:00,train
711,-0.8565276861190796,-1.0,2021-01-21 23:25:55.278000+00:00,train
712,-0.8565195798873901,-1.0,2021-01-21 23:26:25.278000+00:00,train
713,-0.8565114736557007,-1.0,2021-01-21 23:26:55.278000+00:00,train
714,-0.8565033674240112,-1.0,2021-01-21 23:27:25.278000+00:00,train
715,-0.8564953207969666,-1.0,2021-01-21 23:27:55.278000+00:00,train
716,-0.8564871549606323,-1.0,2021-01-21 23:28:25.278000+00:00,train
717,-0.8564790487289429,-1.0,2021-01-21 23:28:55.278000+00:00,train
718,-0.8564710021018982,-1.0,2021-01-21 23:29:25.278000+00:00,train
719,-0.8564628958702087,-1.0,2021-01-21 23:29:55.278000+00:00,train
720,-0.8564547896385193,-1.0,2021-01-21 23:30:25.278000+00:00,train
721,-0.8564466238021851,-1.0,2021-01-21 23:30:55.278000+00:00,train
722,-0.8564385771751404,-1.0,2021-01-21 23:31:25.278000+00:00,train
723,-0.8564304113388062,-1.0,2021-01-21 23:31:55.278000+00:00,train
724,-0.8564223051071167,-1.0,2021-01-21 23:32:25.278000+00:00,train
725,-0.856414258480072,-1.0,2021-01-21 23:32:55.278000+00:00,train
726,-0.8564060926437378,-1.0,2021-01-21 23:33:25.278000+00:00,train
727,-0.8563979268074036,-1.0,2021-01-21 23:33:55.278000+00:00,train
728,-0.8563898205757141,-1.0,2021-01-21 23:34:25.278000+00:00,train
729,-0.8563816547393799,-1.0,2021-01-21 23:34:55.278000+00:00,train
730,-0.8563735485076904,-1.0,2021-01-21 23:35:25.278000+00:00,train
731,-0.8563653826713562,-1.0,2021-01-21 23:35:55.278000+00:00,train
732,-0.8563572764396667,-1.0,2021-01-21 23:36:25.278000+00:00,train
733,-0.8563491702079773,-1.0,2021-01-21 23:36:55.278000+00:00,train
734,-0.8563410043716431,-1.0,2021-01-21 23:37:25.278000+00:00,train
735,-0.8563328385353088,-1.0,2021-01-21 23:37:55.278000+00:00,train
736,-0.8563246726989746,-1.0,2021-01-21 23:38:25.278000+00:00,train
737,-0.8563165068626404,-1.0,2021-01-21 23:38:55.278000+00:00,train
738,-0.8563084006309509,-1.0,2021-01-21 23:39:25.278000+00:00,train
739,-0.8563002943992615,-1.0,2021-01-21 23:39:55.278000+00:00,train
740,-0.8562921285629272,-1.0,2021-01-21 23:40:25.278000+00:00,train
741,-0.856283962726593,-1.0,2021-01-21 23:40:55.278000+00:00,train
742,-0.8562757968902588,-1.0,2021-01-21 23:41:25.278000+00:00,train
743,-0.8562676310539246,-1.0,2021-01-21 23:41:55.278000+00:00,train
744,-0.8562594652175903,-1.0,2021-01-21 23:42:25.278000+00:00,train
745,-0.8562513589859009,-1.0,2021-01-21 23:42:55.278000+00:00,train
746,-0.8562432527542114,-1.0,2021-01-21 23:43:25.278000+00:00,train
747,-0.8562350869178772,-1.0,2021-01-21 23:43:55.278000+00:00,train
748,-0.8562268614768982,-1.0,2021-01-21 23:44:25.278000+00:00,train
749,-0.856218695640564,-1.0,2021-01-21 23:44:55.278000+00:00,train
750,-0.8562105894088745,-1.0,2021-01-21 23:45:25.278000+00:00,train
751,-0.8562023639678955,-1.0,2021-01-21 23:45:55.278000+00:00,train
752,-0.856194257736206,-1.0,2021-01-21 23:46:25.278000+00:00,train
753,-0.8561860918998718,-1.0,2021-01-21 23:46:55.278000+00:00,train
754,-0.8561779260635376,-1.0,2021-01-21 23:47:25.278000+00:00,train
755,-0.8561697602272034,-1.0,2021-01-21 23:47:55.278000+00:00,train
756,-0.8561615943908691,-1.0,2021-01-21 23:48:25.278000+00:00,train
757,-0.8561534285545349,-1.0,2021-01-21 23:48:55.278000+00:00,train
758,-0.8561452031135559,-1.0,2021-01-21 23:49:25.278000+00:00,train
759,-0.8561370968818665,-1.0,2021-01-21 23:49:55.278000+00:00,train
760,-0.8561289310455322,-1.0,2021-01-21 23:50:25.278000+00:00,train
761,-0.856120765209198,-1.0,2021-01-21 23:50:55.278000+00:00,train
762,-0.8561125993728638,-1.0,2021-01-21 23:51:25.278000+00:00,train
763,-0.8561043739318848,-1.0,2021-01-21 23:51:55.278000+00:00,train
764,-0.8560962080955505,-1.0,2021-01-21 23:52:25.278000+00:00,train
765,-0.8560881018638611,-1.0,2021-01-21 23:52:55.278000+00:00,train
766,-0.8560799360275269,-1.0,2021-01-21 23:53:25.278000+00:00,train
767,-0.8560717105865479,-1.0,2021-01-21 23:53:55.278000+00:00,train
768,-0.8560635447502136,-1.0,2021-01-21 23:54:25.278000+00:00,train
769,-0.8560553193092346,-1.0,2021-01-21 23:54:55.278000+00:00,train
770,-0.8560471534729004,-1.0,2021-01-21 23:55:25.278000+00:00,train
771,-0.8560389876365662,-1.0,2021-01-21 23:55:55.278000+00:00,train
772,-0.8560308814048767,-1.0,2021-01-21 23:56:25.278000+00:00,train
773,-0.8560226559638977,-1.0,2021-01-21 23:56:55.278000+00:00,train
774,-0.8560144305229187,-1.0,2021-01-21 23:57:25.278000+00:00,train
775,-0.8560062646865845,-1.0,2021-01-21 23:57:55.278000+00:00,train
776,-0.8559980988502502,-1.0,2021-01-21 23:58:25.278000+00:00,train
777,-0.8559898734092712,-1.0,2021-01-21 23:58:55.278000+00:00,train
778,-0.855981707572937,-1.0,2021-01-21 23:59:25.278000+00:00,train
779,-0.8559735417366028,-1.0,2021-01-21 23:59:55.278000+00:00,train
780,-0.8559653162956238,-1.0,2021-01-22 00:00:25.278000+00:00,train
781,-0.8559570908546448,-1.0,2021-01-22 00:00:55.278000+00:00,train
782,-0.8559488654136658,-1.0,2021-01-22 00:01:25.278000+00:00,train
783,-0.8559406995773315,-1.0,2021-01-22 00:01:55.278000+00:00,train
784,-0.8559324741363525,-1.0,2021-01-22 00:02:25.278000+00:00,train
785,-0.8559243679046631,-1.0,2021-01-22 00:02:55.278000+00:00,train
786,-0.8559162020683289,-1.0,2021-01-22 00:03:25.278000+00:00,train
787,-0.8559080958366394,-1.0,2021-01-22 00:03:55.278000+00:00,train
788,-0.85589998960495,-1.0,2021-01-22 00:04:25.278000+00:00,train
789,-0.8558918237686157,-1.0,2021-01-22 00:04:55.278000+00:00,train
790,-0.8558836579322815,-1.0,2021-01-22 00:05:25.278000+00:00,train
791,-0.8558754920959473,-1.0,2021-01-22 00:05:55.278000+00:00,train
792,-0.8558673858642578,-1.0,2021-01-22 00:06:25.278000+00:00,train
793,-0.8558591604232788,-1.0,2021-01-22 00:06:55.278000+00:00,train
794,-0.855850875377655,-1.0,2021-01-22 00:07:25.278000+00:00,train
795,-0.8558425903320312,-1.0,2021-01-22 00:07:55.278000+00:00,train
796,-0.8558342456817627,-1.0,2021-01-22 00:08:25.278000+00:00,train
797,-0.8558259010314941,-1.0,2021-01-22 00:08:55.278000+00:00,train
798,-0.8558176159858704,-1.0,2021-01-22 00:09:25.278000+00:00,train
799,-1.0,-1.0,2021-01-22 00:09:55.278000+00:00,train
800,-1.0,-1.0,2021-01-22 00:10:25.278000+00:00,train
801,-1.0,-1.0,2021-01-22 00:10:55.278000+00:00,train
802,-1.0,-1.0,2021-01-22 00:11:25.278000+00:00,train
803,-1.0,-1.0,2021-01-22 00:11:55.278000+00:00,train
804,-1.0,-1.0,2021-01-22 00:12:25.278000+00:00,train
805,-1.0,-1.0,2021-01-22 00:12:55.278000+00:00,train
806,-1.0,-1.0,2021-01-22 00:13:25.278000+00:00,train
807,-1.0,-1.0,2021-01-22 00:13:55.278000+00:00,train
808,-1.0,-1.0,2021-01-22 00:14:25.278000+00:00,train
809,-1.0,-1.0,2021-01-22 00:14:55.278000+00:00,train
810,-1.0,-1.0,2021-01-22 00:15:25.278000+00:00,train
811,-1.0,-1.0,2021-01-22 00:15:55.278000+00:00,train
812,-1.0,-1.0,2021-01-22 00:16:25.278000+00:00,train
813,-1.0,-1.0,2021-01-22 00:16:55.278000+00:00,train
814,-1.0,-1.0,2021-01-22 00:17:25.278000+00:00,train
815,-1.0,-1.0,2021-01-22 00:17:55.278000+00:00,train
816,-1.0,-1.0,2021-01-22 00:18:25.278000+00:00,train
817,-1.0,-1.0,2021-01-22 00:18:55.278000+00:00,train
818,-1.0,-1.0,2021-01-22 00:19:25.278000+00:00,train
819,-1.0,-1.0,2021-01-22 00:19:55.278000+00:00,train
820,-1.0,-1.0,2021-01-22 00:20:25.278000+00:00,train
821,-1.0,-1.0,2021-01-22 00:20:55.278000+00:00,train
822,-1.0,-1.0,2021-01-22 00:21:25.278000+00:00,train
823,-1.0,-1.0,2021-01-22 00:21:55.278000+00:00,train
824,-1.0,-1.0,2021-01-22 00:22:25.278000+00:00,train
825,-1.0,-1.0,2021-01-22 00:22:55.278000+00:00,train
826,-1.0,-1.0,2021-01-22 00:23:25.278000+00:00,train
827,-1.0,-1.0,2021-01-22 00:23:55.278000+00:00,train
828,-1.0,-1.0,2021-01-22 00:24:25.278000+00:00,train
829,-1.0,-1.0,2021-01-22 00:24:55.278000+00:00,train
830,-1.0,-1.0,2021-01-22 00:25:25.278000+00:00,train
831,-1.0,-1.0,2021-01-22 00:25:55.278000+00:00,train
832,-1.0,-1.0,2021-01-22 00:26:25.278000+00:00,train
833,-1.0,-1.0,2021-01-22 00:26:55.278000+00:00,train
834,-1.0,-1.0,2021-01-22 00:27:25.278000+00:00,train
835,-1.0,-1.0,2021-01-22 00:27:55.278000+00:00,train
836,-1.0,-1.0,2021-01-22 00:28:25.278000+00:00,train
837,-1.0,-1.0,2021-01-22 00:28:55.278000+00:00,train
838,-1.0,-1.0,2021-01-22 00:29:25.278000+00:00,train
839,-1.0,-1.0,2021-01-22 00:29:55.278000+00:00,train
840,-1.0,-1.0,2021-01-22 00:30:25.278000+00:00,train
841,-1.0,-1.0,2021-01-22 00:30:55.278000+00:00,train
842,-1.0,-1.0,2021-01-22 00:31:25.278000+00:00,train
843,-1.0,-1.0,2021-01-22 00:31:55.278000+00:00,train
844,-1.0,-1.0,2021-01-22 00:32:25.278000+00:00,train
845,-1.0,-1.0,2021-01-22 00:32:55.278000+00:00,train
846,-1.0,-1.0,2021-01-22 00:33:25.278000+00:00,train
847,-1.0,-1.0,2021-01-22 00:33:55.278000+00:00,train
848,-1.0,-1.0,2021-01-22 00:34:25.278000+00:00,train
849,-1.0,-1.0,2021-01-22 00:34:55.278000+00:00,train
850,-1.0,-1.0,2021-01-22 00:35:25.278000+00:00,train
851,-1.0,-1.0,2021-01-22 00:35:55.278000+00:00,train
852,-1.0,-1.0,2021-01-22 00:36:25.278000+00:00,train
853,-1.0,-1.0,2021-01-22 00:36:55.278000+00:00,train
854,-1.0,-1.0,2021-01-22 00:37:25.278000+00:00,train
855,-1.0,-1.0,2021-01-22 00:37:55.278000+00:00,train
856,-1.0,-1.0,2021-01-22 00:38:25.278000+00:00,train
857,-1.0,-1.0,2021-01-22 00:38:55.278000+00:00,train
858,-1.0,-1.0,2021-01-22 00:39:25.278000+00:00,train
859,-1.0,-1.0,2021-01-22 00:39:55.278000+00:00,train
860,-1.0,-1.0,2021-01-22 00:40:25.278000+00:00,train
861,-1.0,-1.0,2021-01-22 00:40:55.278000+00:00,train
862,-1.0,-1.0,2021-01-22 00:41:25.278000+00:00,train
863,-1.0,-1.0,2021-01-22 00:41:55.278000+00:00,train
864,-1.0,-1.0,2021-01-22 00:42:25.278000+00:00,train
865,-1.0,-1.0,2021-01-22 00:42:55.278000+00:00,train
866,-1.0,-1.0,2021-01-22 00:43:25.278000+00:00,train
867,-1.0,-1.0,2021-01-22 00:43:55.278000+00:00,train
868,-1.0,-1.0,2021-01-22 00:44:25.278000+00:00,train
869,-1.0,-1.0,2021-01-22 00:44:55.278000+00:00,train
870,-1.0,-1.0,2021-01-22 00:45:25.278000+00:00,train
871,-1.0,-1.0,2021-01-22 00:45:55.278000+00:00,train
872,-1.0,-1.0,2021-01-22 00:46:25.278000+00:00,train
873,-1.0,-1.0,2021-01-22 00:46:55.278000+00:00,train
874,-1.0,-1.0,2021-01-22 00:47:25.278000+00:00,train
875,-1.0,-1.0,2021-01-22 00:47:55.278000+00:00,train
876,-1.0,-1.0,2021-01-22 00:48:25.278000+00:00,train
877,-1.0,-1.0,2021-01-22 00:48:55.278000+00:00,train
878,-1.0,-1.0,2021-01-22 00:49:25.278000+00:00,train
879,-1.0,-1.0,2021-01-22 00:49:55.278000+00:00,train
880,-1.0,-1.0,2021-01-22 00:50:25.278000+00:00,train
881,-1.0,-1.0,2021-01-22 00:50:55.278000+00:00,train
882,-1.0,-1.0,2021-01-22 00:51:25.278000+00:00,train
883,-1.0,-1.0,2021-01-22 00:51:55.278000+00:00,train
884,-1.0,-1.0,2021-01-22 00:52:25.278000+00:00,train
885,-1.0,-1.0,2021-01-22 00:52:55.278000+00:00,train
886,-1.0,-1.0,2021-01-22 00:53:25.278000+00:00,train
887,-1.0,-1.0,2021-01-22 00:53:55.278000+00:00,train
888,-1.0,-1.0,2021-01-22 00:54:25.278000+00:00,train
889,-1.0,-1.0,2021-01-22 00:54:55.278000+00:00,train
890,-1.0,-1.0,2021-01-22 00:55:25.278000+00:00,train
891,-1.0,-1.0,2021-01-22 00:55:55.278000+00:00,train
892,-1.0,-1.0,2021-01-22 00:56:25.278000+00:00,train
893,-1.0,-1.0,2021-01-22 00:56:55.278000+00:00,train
894,-1.0,-1.0,2021-01-22 00:57:25.278000+00:00,train
895,-1.0,-1.0,2021-01-22 00:57:55.278000+00:00,train
896,-1.0,-1.0,2021-01-22 00:58:25.278000+00:00,train
897,-1.0,-1.0,2021-01-22 00:58:55.278000+00:00,train
898,-1.0,-1.0,2021-01-22 00:59:25.278000+00:00,train
899,-1.0,-1.0,2021-01-22 00:59:55.278000+00:00,train
900,-1.0,-1.0,2021-01-22 01:00:25.278000+00:00,train
901,-1.0,-1.0,2021-01-22 01:00:55.278000+00:00,train
902,-1.0,-1.0,2021-01-22 01:01:25.278000+00:00,train
903,-1.0,-1.0,2021-01-22 01:01:55.278000+00:00,train
904,-1.0,-1.0,2021-01-22 01:02:25.278000+00:00,train
905,-1.0,-1.0,2021-01-22 01:02:55.278000+00:00,train
906,-1.0,-1.0,2021-01-22 01:03:25.278000+00:00,train
907,-1.0,-1.0,2021-01-22 01:03:55.278000+00:00,train
908,-1.0,-1.0,2021-01-22 01:04:25.278000+00:00,train
909,-1.0,-1.0,2021-01-22 01:04:55.278000+00:00,train
910,-1.0,-1.0,2021-01-22 01:05:25.278000+00:00,train
911,-1.0,-1.0,2021-01-22 01:05:55.278000+00:00,train
912,-1.0,-1.0,2021-01-22 01:06:25.278000+00:00,train
913,-1.0,-1.0,2021-01-22 01:06:55.278000+00:00,train
914,-1.0,-1.0,2021-01-22 01:07:25.278000+00:00,train
915,-1.0,-1.0,2021-01-22 01:07:55.278000+00:00,train
916,-1.0,-1.0,2021-01-22 01:08:25.278000+00:00,train
917,-1.0,-1.0,2021-01-22 01:08:55.278000+00:00,train
918,-1.0,-1.0,2021-01-22 01:09:25.278000+00:00,train
919,-1.0,-1.0,2021-01-22 01:09:55.278000+00:00,train
920,-1.0,-1.0,2021-01-22 01:10:25.278000+00:00,train
921,-1.0,-1.0,2021-01-22 01:10:55.278000+00:00,train
922,-1.0,-1.0,2021-01-22 01:11:25.278000+00:00,train
923,-1.0,-1.0,2021-01-22 01:11:55.278000+00:00,train
924,-1.0,-1.0,2021-01-22 01:12:25.278000+00:00,train
925,-1.0,-1.0,2021-01-22 01:12:55.278000+00:00,train
926,-1.0,-1.0,2021-01-22 01:13:25.278000+00:00,train
927,-1.0,-1.0,2021-01-22 01:13:55.278000+00:00,train
928,-1.0,-1.0,2021-01-22 01:14:25.278000+00:00,train
929,-1.0,-1.0,2021-01-22 01:14:55.278000+00:00,train
930,-1.0,-1.0,2021-01-22 01:15:25.278000+00:00,train
931,-1.0,-1.0,2021-01-22 01:15:55.278000+00:00,train
932,-1.0,-1.0,2021-01-22 01:16:25.278000+00:00,train
933,-1.0,-1.0,2021-01-22 01:16:55.278000+00:00,train
934,-1.0,-1.0,2021-01-22 01:17:25.278000+00:00,train
935,-1.0,-1.0,2021-01-22 01:17:55.278000+00:00,train
936,-1.0,-1.0,2021-01-22 01:18:25.278000+00:00,train
937,-1.0,-1.0,2021-01-22 01:18:55.278000+00:00,train
938,-1.0,-1.0,2021-01-22 01:19:25.278000+00:00,train
939,-1.0,-1.0,2021-01-22 01:19:55.278000+00:00,train
940,-1.0,-1.0,2021-01-22 01:20:25.278000+00:00,train
941,-1.0,-1.0,2021-01-22 01:20:55.278000+00:00,train
942,-1.0,-1.0,2021-01-22 01:21:25.278000+00:00,train
943,-1.0,-1.0,2021-01-22 01:21:55.278000+00:00,train
944,-1.0,-1.0,2021-01-22 01:22:25.278000+00:00,train
945,-1.0,-1.0,2021-01-22 01:22:55.278000+00:00,train
946,-1.0,-1.0,2021-01-22 01:23:25.278000+00:00,train
947,-1.0,-1.0,2021-01-22 01:23:55.278000+00:00,train
948,-1.0,-1.0,2021-01-22 01:24:25.278000+00:00,train
949,-1.0,-1.0,2021-01-22 01:24:55.278000+00:00,train
950,-1.0,-1.0,2021-01-22 01:25:25.278000+00:00,train
951,-1.0,-1.0,2021-01-22 01:25:55.278000+00:00,train
952,-1.0,-1.0,2021-01-22 01:26:25.278000+00:00,train
953,-1.0,-1.0,2021-01-22 01:26:55.278000+00:00,train
954,-1.0,-1.0,2021-01-22 01:27:25.278000+00:00,train
955,-1.0,-1.0,2021-01-22 01:27:55.278000+00:00,train
956,-1.0,-1.0,2021-01-22 01:28:25.278000+00:00,train
957,-1.0,-1.0,2021-01-22 01:28:55.278000+00:00,train
958,-1.0,-1.0,2021-01-22 01:29:25.278000+00:00,train
959,-1.0,-1.0,2021-01-22 01:29:55.278000+00:00,train
960,-1.0,-1.0,2021-01-22 01:30:25.278000+00:00,train
961,-1.0,-1.0,2021-01-22 01:30:55.278000+00:00,train
962,-1.0,-1.0,2021-01-22 01:31:25.278000+00:00,train
963,-1.0,-1.0,2021-01-22 01:31:55.278000+00:00,train
964,-1.0,-1.0,2021-01-22 01:32:25.278000+00:00,train
965,-1.0,0.0,2021-01-22 01:32:55.278000+00:00,train
966,-1.0,0.0,2021-01-22 01:33:25.278000+00:00,train
967,-1.0,0.0,2021-01-22 01:33:55.278000+00:00,train
968,-1.0,0.0,2021-01-22 01:34:25.278000+00:00,train
969,-1.0,0.0,2021-01-22 01:34:55.278000+00:00,train
970,-1.0,0.0,2021-01-22 01:35:25.278000+00:00,train
971,-1.0,0.0,2021-01-22 01:35:55.278000+00:00,train
972,-1.0,0.0,2021-01-22 01:36:25.278000+00:00,train
973,-1.0,0.0,2021-01-22 01:36:55.278000+00:00,train
974,-1.0,0.0,2021-01-22 01:37:25.278000+00:00,train
975,-1.0,-1.0,2021-01-22 01:37:55.278000+00:00,train
976,-1.0,0.0,2021-01-22 01:38:25.278000+00:00,train
977,-1.0,0.0,2021-01-22 01:38:55.278000+00:00,train
978,-1.0,0.0,2021-01-22 01:39:25.278000+00:00,train
979,-1.0,0.0,2021-01-22 01:39:55.278000+00:00,train
980,-1.0,0.0,2021-01-22 01:40:25.278000+00:00,train
981,-1.0,0.0,2021-01-22 01:40:55.278000+00:00,train
982,-1.0,0.0,2021-01-22 01:41:25.278000+00:00,train
983,-0.8568840026855469,0.0,2021-01-22 01:41:55.278000+00:00,train
984,-0.7938202619552612,0.0,2021-01-22 01:42:25.278000+00:00,train
985,-0.7438798546791077,0.0,2021-01-22 01:42:55.278000+00:00,train
986,-0.7009334564208984,0.0,2021-01-22 01:43:25.278000+00:00,train
987,-0.662516176700592,0.0,2021-01-22 01:43:55.278000+00:00,train
988,-0.6273588538169861,0.0,2021-01-22 01:44:25.278000+00:00,train
989,-0.5950363874435425,0.0,2021-01-22 01:44:55.278000+00:00,train
990,-0.5644113421440125,0.0,2021-01-22 01:45:25.278000+00:00,train
991,-0.535447895526886,0.0,2021-01-22 01:45:55.278000+00:00,train
992,-0.5078944563865662,0.0,2021-01-22 01:46:25.278000+00:00,train
993,-0.5081260204315186,0.0,2021-01-22 01:46:55.278000+00:00,train
994,-0.4818022549152374,0.0,2021-01-22 01:47:25.278000+00:00,train
995,-0.4565489888191223,0.0,2021-01-22 01:47:55.278000+00:00,train
996,-0.4322478175163269,0.0,2021-01-22 01:48:25.278000+00:00,train
997,-0.40896353125572205,0.0,2021-01-22 01:48:55.278000+00:00,train
998,-0.3862999975681305,0.0,2021-01-22 01:49:25.278000+00:00,train
999,-0.3643464744091034,0.0,2021-01-22 01:49:55.278000+00:00,train
1000,-0.34304651618003845,0.0,2021-01-22 01:50:25.278000+00:00,train
1001,-0.322353333234787,0.0,2021-01-22 01:50:55.278000+00:00,train
1002,-0.30232957005500793,0.0,2021-01-22 01:51:25.278000+00:00,train
1003,-0.2827288508415222,0.0,2021-01-22 01:51:55.278000+00:00,train
1004,-0.26362380385398865,0.0,2021-01-22 01:52:25.278000+00:00,train
1005,-0.24498651921749115,0.0,2021-01-22 01:52:55.278000+00:00,train
1006,-0.2268616110086441,0.0,2021-01-22 01:53:25.278000+00:00,train
1007,-0.20908914506435394,0.0,2021-01-22 01:53:55.278000+00:00,train
1008,-0.19171743094921112,0.0,2021-01-22 01:54:25.278000+00:00,train
1009,-0.17472872138023376,0.0,2021-01-22 01:54:55.278000+00:00,train
1010,-0.15815067291259766,0.0,2021-01-22 01:55:25.278000+00:00,train
1011,-0.14188162982463837,0.0,2021-01-22 01:55:55.278000+00:00,train
1012,-0.1259516328573227,0.0,2021-01-22 01:56:25.278000+00:00,train
1013,-0.11034862697124481,0.0,2021-01-22 01:56:55.278000+00:00,train
1014,-0.09508851915597916,0.0,2021-01-22 01:57:25.278000+00:00,train
1015,-0.08010732382535934,0.0,2021-01-22 01:57:55.278000+00:00,train
1016,-0.06542304903268814,0.0,2021-01-22 01:58:25.278000+00:00,train
1017,-0.05102654546499252,0.0,2021-01-22 01:58:55.278000+00:00,train
1018,-0.03691012039780617,0.0,2021-01-22 01:59:25.278000+00:00,train
1019,-0.023083137348294258,0.0,2021-01-22 01:59:55.278000+00:00,train
1020,-0.0095063466578722,0.0,2021-01-22 02:00:25.278000+00:00,train
1021,0.003810032270848751,0.0,2021-01-22 02:00:55.278000+00:00,train
1022,0.016871605068445206,0.0,2021-01-22 02:01:25.278000+00:00,train
1023,0.029674291610717773,0.0,2021-01-22 02:01:55.278000+00:00,train
1024,0.04224148765206337,0.0,2021-01-22 02:02:25.278000+00:00,train
1025,0.054568223655223846,0.0,2021-01-22 02:02:55.278000+00:00,train
1026,0.06665866076946259,0.0,2021-01-22 02:03:25.278000+00:00,train
1027,0.07851163297891617,0.0,2021-01-22 02:03:55.278000+00:00,train
1028,0.09014025330543518,0.0,2021-01-22 02:04:25.278000+00:00,train
1029,0.10154282301664352,0.0,2021-01-22 02:04:55.278000+00:00,train
1030,0.11272227764129639,0.0,2021-01-22 02:05:25.278000+00:00,train
1031,0.12367916852235794,0.0,2021-01-22 02:05:55.278000+00:00,train
1032,0.13442005217075348,0.0,2021-01-22 02:06:25.278000+00:00,train
1033,0.1449449062347412,0.0,2021-01-22 02:06:55.278000+00:00,train
1034,0.15525567531585693,0.0,2021-01-22 02:07:25.278000+00:00,train
1035,0.1653541624546051,0.0,2021-01-22 02:07:55.278000+00:00,train
1036,0.17524179816246033,0.0,2021-01-22 02:08:25.278000+00:00,train
1037,0.1849200278520584,0.0,2021-01-22 02:08:55.278000+00:00,train
1038,0.19439007341861725,0.0,2021-01-22 02:09:25.278000+00:00,train
1039,0.20365265011787415,0.0,2021-01-22 02:09:55.278000+00:00,train
1040,0.21271027624607086,0.0,2021-01-22 02:10:25.278000+00:00,train
1041,0.22156044840812683,0.0,2021-01-22 02:10:55.278000+00:00,train
1042,0.23020504415035248,0.0,2021-01-22 02:11:25.278000+00:00,train
1043,0.23864436149597168,0.0,2021-01-22 02:11:55.278000+00:00,train
1044,0.24687837064266205,0.0,2021-01-22 02:12:25.278000+00:00,train
1045,0.2549073398113251,0.0,2021-01-22 02:12:55.278000+00:00,train
1046,0.26273059844970703,0.0,2021-01-22 02:13:25.278000+00:00,train
1047,0.2700575292110443,0.0,2021-01-22 02:13:55.278000+00:00,train
1048,0.27746787667274475,0.0,2021-01-22 02:14:25.278000+00:00,train
1049,0.28467077016830444,0.0,2021-01-22 02:14:55.278000+00:00,train
1050,0.29166561365127563,0.0,2021-01-22 02:15:25.278000+00:00,train
1051,0.29845094680786133,0.0,2021-01-22 02:15:55.278000+00:00,train
1052,0.30502569675445557,0.0,2021-01-22 02:16:25.278000+00:00,train
1053,0.31138816475868225,0.0,2021-01-22 02:16:55.278000+00:00,train
1054,0.31754446029663086,0.0,2021-01-22 02:17:25.278000+00:00,train
1055,0.3234771192073822,0.0,2021-01-22 02:17:55.278000+00:00,train
1056,0.32919153571128845,0.0,2021-01-22 02:18:25.278000+00:00,train
1057,0.33468568325042725,0.0,2021-01-22 02:18:55.278000+00:00,train
1058,0.3399565815925598,0.0,2021-01-22 02:19:25.278000+00:00,train
1059,0.3450014591217041,0.0,2021-01-22 02:19:55.278000+00:00,train
1060,0.349817156791687,0.0,2021-01-22 02:20:25.278000+00:00,train
1061,0.3544003665447235,0.0,2021-01-22 02:20:55.278000+00:00,train
1062,0.35874706506729126,0.0,2021-01-22 02:21:25.278000+00:00,train
1063,0.36285337805747986,0.0,2021-01-22 02:21:55.278000+00:00,train
1064,0.3667149841785431,0.0,2021-01-22 02:22:25.278000+00:00,train
1065,0.370326966047287,0.0,2021-01-22 02:22:55.278000+00:00,train
1066,0.37368401885032654,0.0,2021-01-22 02:23:25.278000+00:00,train
1067,0.37678077816963196,0.0,2021-01-22 02:23:55.278000+00:00,train
1068,0.379611074924469,0.0,2021-01-22 02:24:25.278000+00:00,train
1069,0.38216808438301086,0.0,2021-01-22 02:24:55.278000+00:00,train
1070,0.3844448924064636,0.0,2021-01-22 02:25:25.278000+00:00,train
1071,0.3864334225654602,0.0,2021-01-22 02:25:55.278000+00:00,val
1072,0.3881255090236664,0.0,2021-01-22 02:26:25.278000+00:00,val
1073,0.38951170444488525,0.0,2021-01-22 02:26:55.278000+00:00,val
1074,0.390581876039505,0.0,2021-01-22 02:27:25.278000+00:00,val
1075,0.3913252651691437,0.0,2021-01-22 02:27:55.278000+00:00,val
1076,0.3917294144630432,0.0,2021-01-22 02:28:25.278000+00:00,val
1077,0.39178135991096497,0.0,2021-01-22 02:28:55.278000+00:00,val
1078,0.3914664089679718,0.0,2021-01-22 02:29:25.278000+00:00,val
1079,0.3907683491706848,0.0,2021-01-22 02:29:55.278000+00:00,val
1080,0.3896695077419281,0.0,2021-01-22 02:30:25.278000+00:00,val
1081,0.3881499469280243,0.0,2021-01-22 02:30:55.278000+00:00,val
1082,0.38618743419647217,0.0,2021-01-22 02:31:25.278000+00:00,val
1083,0.38375717401504517,0.0,2021-01-22 02:31:55.278000+00:00,val
1084,0.3808310925960541,0.0,2021-01-22 02:32:25.278000+00:00,val
1085,0.3773774802684784,0.0,2021-01-22 02:32:55.278000+00:00,val
1086,0.37336018681526184,0.0,2021-01-22 02:33:25.278000+00:00,val
1087,0.3687375485897064,0.0,2021-01-22 02:33:55.278000+00:00,val
1088,0.3634612560272217,0.0,2021-01-22 02:34:25.278000+00:00,val
1089,0.35747531056404114,0.0,2021-01-22 02:34:55.278000+00:00,val
1090,0.35071301460266113,0.0,2021-01-22 02:35:25.278000+00:00,val
1091,0.34309521317481995,0.0,2021-01-22 02:35:55.278000+00:00,val
1092,0.3345257043838501,0.0,2021-01-22 02:36:25.278000+00:00,val
1093,0.32488638162612915,0.0,2021-01-22 02:36:55.278000+00:00,val
1094,0.31402885913848877,0.0,2021-01-22 02:37:25.278000+00:00,val
1095,0.30176302790641785,0.0,2021-01-22 02:37:55.278000+00:00,val
1096,0.2878374457359314,0.0,2021-01-22 02:38:25.278000+00:00,val
1097,0.2719080150127411,0.0,2021-01-22 02:38:55.278000+00:00,val
1098,0.25348085165023804,0.0,2021-01-22 02:39:25.278000+00:00,val
1099,0.2318008542060852,0.0,2021-01-22 02:39:55.278000+00:00,val
1100,0.20560133457183838,0.0,2021-01-22 02:40:25.278000+00:00,val
1101,0.1724221408367157,0.0,2021-01-22 02:40:55.278000+00:00,val
1102,0.1259385645389557,0.0,2021-01-22 02:41:25.278000+00:00,val
1103,0.12593905627727509,0.0,2021-01-22 02:41:55.278000+00:00,val
1104,0.1259395033121109,0.0,2021-01-22 02:42:25.278000+00:00,val
1105,0.1259399801492691,0.0,2021-01-22 02:42:55.278000+00:00,val
1106,0.1259404420852661,0.0,2021-01-22 02:43:25.278000+00:00,val
1107,0.12594090402126312,0.0,2021-01-22 02:43:55.278000+00:00,val
1108,0.12594136595726013,0.0,2021-01-22 02:44:25.278000+00:00,val
1109,0.12594184279441833,0.0,2021-01-22 02:44:55.278000+00:00,val
1110,0.12594230473041534,0.0,2021-01-22 02:45:25.278000+00:00,val
1111,0.12594275176525116,0.0,2021-01-22 02:45:55.278000+00:00,val
1112,0.12594322860240936,0.0,2021-01-22 02:46:25.278000+00:00,val
1113,0.0,0.0,2021-01-22 02:46:55.278000+00:00,val
1114,0.0,0.0,2021-01-22 02:47:25.278000+00:00,val
1115,0.0,0.0,2021-01-22 02:47:55.278000+00:00,val
1116,0.0,0.0,2021-01-22 02:48:25.278000+00:00,val
1117,0.0,0.0,2021-01-22 02:48:55.278000+00:00,val
1118,0.0,0.0,2021-01-22 02:49:25.278000+00:00,val
1119,0.0,0.0,2021-01-22 02:49:55.278000+00:00,val
1120,0.0,0.0,2021-01-22 02:50:25.278000+00:00,val
1121,0.0,0.0,2021-01-22 02:50:55.278000+00:00,val
1122,0.0,0.0,2021-01-22 02:51:25.278000+00:00,val
1123,0.0,0.0,2021-01-22 02:51:55.278000+00:00,val
1124,0.0,0.0,2021-01-22 02:52:25.278000+00:00,val
1125,0.0,0.0,2021-01-22 02:52:55.278000+00:00,val
1126,0.0,0.0,2021-01-22 02:53:25.278000+00:00,val
1127,0.0,0.0,2021-01-22 02:53:55.278000+00:00,val
1128,0.0,0.0,2021-01-22 02:54:25.278000+00:00,val
1129,0.0,0.0,2021-01-22 02:54:55.278000+00:00,val
1130,0.0,0.0,2021-01-22 02:55:25.278000+00:00,val
1131,0.0,0.0,2021-01-22 02:55:55.278000+00:00,val
1132,0.0,0.0,2021-01-22 02:56:25.278000+00:00,val
1133,0.0,0.0,2021-01-22 02:56:55.278000+00:00,val
1134,0.0,0.0,2021-01-22 02:57:25.278000+00:00,val
1135,0.0,0.0,2021-01-22 02:57:55.278000+00:00,val
1136,0.0,0.0,2021-01-22 02:58:25.278000+00:00,val
1137,0.0,0.0,2021-01-22 02:58:55.278000+00:00,val
1138,0.0,0.0,2021-01-22 02:59:25.278000+00:00,val
1139,0.0,0.0,2021-01-22 02:59:55.278000+00:00,val
1140,0.0,0.0,2021-01-22 03:00:25.278000+00:00,val
1141,0.0,0.0,2021-01-22 03:00:55.278000+00:00,val
1142,0.0,0.0,2021-01-22 03:01:25.278000+00:00,val
1143,0.0,0.0,2021-01-22 03:01:55.278000+00:00,val
1144,0.0,0.0,2021-01-22 03:02:25.278000+00:00,val
1145,0.0,0.0,2021-01-22 03:02:55.278000+00:00,val
1146,0.0,0.0,2021-01-22 03:03:25.278000+00:00,val
1147,0.0,0.0,2021-01-22 03:03:55.278000+00:00,val
1148,0.0,0.0,2021-01-22 03:04:25.278000+00:00,val
1149,0.0,0.0,2021-01-22 03:04:55.278000+00:00,val
1150,0.0,0.0,2021-01-22 03:05:25.278000+00:00,val
1151,0.0,0.0,2021-01-22 03:05:55.278000+00:00,val
1152,0.0,0.0,2021-01-22 03:06:25.278000+00:00,val
1153,0.0,0.0,2021-01-22 03:06:55.278000+00:00,val
1154,0.0,0.0,2021-01-22 03:07:25.278000+00:00,val
1155,0.0,0.0,2021-01-22 03:07:55.278000+00:00,val
1156,0.0,0.0,2021-01-22 03:08:25.278000+00:00,val
1157,0.0,0.0,2021-01-22 03:08:55.278000+00:00,val
1158,0.0,0.0,2021-01-22 03:09:25.278000+00:00,val
1159,0.0,0.0,2021-01-22 03:09:55.278000+00:00,val
1160,0.0,0.0,2021-01-22 03:10:25.278000+00:00,val
1161,0.0,0.0,2021-01-22 03:10:55.278000+00:00,val
1162,0.0,0.0,2021-01-22 03:11:25.278000+00:00,val
1163,0.0,0.0,2021-01-22 03:11:55.278000+00:00,val
1164,0.0,0.0,2021-01-22 03:12:25.278000+00:00,val
1165,0.0,0.0,2021-01-22 03:12:55.278000+00:00,val
1166,0.0,0.0,2021-01-22 03:13:25.278000+00:00,val
1167,0.0,0.0,2021-01-22 03:13:55.278000+00:00,val
1168,0.0,0.0,2021-01-22 03:14:25.278000+00:00,val
1169,0.0,0.0,2021-01-22 03:14:55.278000+00:00,val
1170,0.0,0.0,2021-01-22 03:15:25.278000+00:00,val
1171,0.0,0.0,2021-01-22 03:15:55.278000+00:00,val
1172,0.0,0.0,2021-01-22 03:16:25.278000+00:00,val
1173,0.0,0.0,2021-01-22 03:16:55.278000+00:00,val
1174,0.0,0.0,2021-01-22 03:17:25.278000+00:00,val
1175,0.0,0.0,2021-01-22 03:17:55.278000+00:00,val
1176,0.0,0.0,2021-01-22 03:18:25.278000+00:00,val
1177,0.0,0.0,2021-01-22 03:18:55.278000+00:00,val
1178,0.0,0.0,2021-01-22 03:19:25.278000+00:00,val
1179,0.0,0.0,2021-01-22 03:19:55.278000+00:00,val
1180,0.0,0.0,2021-01-22 03:20:25.278000+00:00,val
1181,0.0,0.0,2021-01-22 03:20:55.278000+00:00,val
1182,0.0,0.0,2021-01-22 03:21:25.278000+00:00,val
1183,0.0,0.0,2021-01-22 03:21:55.278000+00:00,val
1184,0.0,0.0,2021-01-22 03:22:25.278000+00:00,val
1185,0.0,0.0,2021-01-22 03:22:55.278000+00:00,val
1186,0.0,0.0,2021-01-22 03:23:25.278000+00:00,val
1187,0.0,0.0,2021-01-22 03:23:55.278000+00:00,val
1188,0.0,0.0,2021-01-22 03:24:25.278000+00:00,val
1189,0.0,0.0,2021-01-22 03:24:55.278000+00:00,val
1190,0.0,0.0,2021-01-22 03:25:25.278000+00:00,val
1191,0.0,0.0,2021-01-22 03:25:55.278000+00:00,val
1192,0.0,0.0,2021-01-22 03:26:25.278000+00:00,val
1193,0.0,0.0,2021-01-22 03:26:55.278000+00:00,val
1194,0.0,0.0,2021-01-22 03:27:25.278000+00:00,val
1195,0.0,0.0,2021-01-22 03:27:55.278000+00:00,val
1196,0.0,0.0,2021-01-22 03:28:25.278000+00:00,val
1197,0.0,0.0,2021-01-22 03:28:55.278000+00:00,val
1198,0.0,0.0,2021-01-22 03:29:25.278000+00:00,val
1199,0.0,0.0,2021-01-22 03:29:55.278000+00:00,val
1200,0.0,0.0,2021-01-22 03:30:25.278000+00:00,val
1201,0.0,0.0,2021-01-22 03:30:55.278000+00:00,val
1202,0.0,0.0,2021-01-22 03:31:25.278000+00:00,val
1203,0.0,0.0,2021-01-22 03:31:55.278000+00:00,val
1204,0.0,0.0,2021-01-22 03:32:25.278000+00:00,val
1205,0.0,0.0,2021-01-22 03:32:55.278000+00:00,val
1206,0.0,0.0,2021-01-22 03:33:25.278000+00:00,val
1207,0.0,0.0,2021-01-22 03:33:55.278000+00:00,val
1208,0.0,0.0,2021-01-22 03:34:25.278000+00:00,val
1209,0.0,0.0,2021-01-22 03:34:55.278000+00:00,val
1210,0.0,0.0,2021-01-22 03:35:25.278000+00:00,val
1211,0.0,0.0,2021-01-22 03:35:55.278000+00:00,val
1212,0.0,0.0,2021-01-22 03:36:25.278000+00:00,val
1213,0.0,0.0,2021-01-22 03:36:55.278000+00:00,val
1214,0.0,0.0,2021-01-22 03:37:25.278000+00:00,val
1215,0.0,0.0,2021-01-22 03:37:55.278000+00:00,val
1216,0.0,0.0,2021-01-22 03:38:25.278000+00:00,val
1217,0.0,0.0,2021-01-22 03:38:55.278000+00:00,val
1218,0.0,0.0,2021-01-22 03:39:25.278000+00:00,val
1219,0.0,0.0,2021-01-22 03:39:55.278000+00:00,val
1220,0.0,0.0,2021-01-22 03:40:25.278000+00:00,val
1221,0.0,0.0,2021-01-22 03:40:55.278000+00:00,val
1222,0.0,0.0,2021-01-22 03:41:25.278000+00:00,val
1223,0.0,0.0,2021-01-22 03:41:55.278000+00:00,val
1224,0.0,0.0,2021-01-22 03:42:25.278000+00:00,val
1225,0.0,0.0,2021-01-22 03:42:55.278000+00:00,val
1226,0.0,0.0,2021-01-22 03:43:25.278000+00:00,val
1227,0.0,0.0,2021-01-22 03:43:55.278000+00:00,val
1228,0.0,0.0,2021-01-22 03:44:25.278000+00:00,val
1229,0.0,0.0,2021-01-22 03:44:55.278000+00:00,val
1230,0.0,0.0,2021-01-22 03:45:25.278000+00:00,val
1231,0.0,0.0,2021-01-22 03:45:55.278000+00:00,val
1232,0.0,0.0,2021-01-22 03:46:25.278000+00:00,val
1233,0.0,0.0,2021-01-22 03:46:55.278000+00:00,val
1234,0.0,0.0,2021-01-22 03:47:25.278000+00:00,val
1235,0.0,0.0,2021-01-22 03:47:55.278000+00:00,val
1236,0.0,0.0,2021-01-22 03:48:25.278000+00:00,val
1237,0.0,0.0,2021-01-22 03:48:55.278000+00:00,val
1238,0.0,0.0,2021-01-22 03:49:25.278000+00:00,val
1239,0.0,0.0,2021-01-22 03:49:55.278000+00:00,val
1240,0.0,0.0,2021-01-22 03:50:25.278000+00:00,val
1241,0.0,0.0,2021-01-22 03:50:55.278000+00:00,val
1242,0.0,0.0,2021-01-22 03:51:25.278000+00:00,val
1243,0.0,0.0,2021-01-22 03:51:55.278000+00:00,val
1244,0.0,0.0,2021-01-22 03:52:25.278000+00:00,val
1245,0.0,0.0,2021-01-22 03:52:55.278000+00:00,val
1246,0.0,0.0,2021-01-22 03:53:25.278000+00:00,val
1247,0.0,0.0,2021-01-22 03:53:55.278000+00:00,val
1248,0.0,0.0,2021-01-22 03:54:25.278000+00:00,val
1249,0.0,0.0,2021-01-22 03:54:55.278000+00:00,val
1250,0.0,0.0,2021-01-22 03:55:25.278000+00:00,val
1251,0.0,0.0,2021-01-22 03:55:55.278000+00:00,val
1252,0.0,0.0,2021-01-22 03:56:25.278000+00:00,val
1253,0.0,0.0,2021-01-22 03:56:55.278000+00:00,val
1254,0.0,0.0,2021-01-22 03:57:25.278000+00:00,val
1255,0.0,0.0,2021-01-22 03:57:55.278000+00:00,val
1256,0.0,0.0,2021-01-22 03:58:25.278000+00:00,val
1257,0.0,0.0,2021-01-22 03:58:55.278000+00:00,val
1258,0.0,0.0,2021-01-22 03:59:25.278000+00:00,val
1259,0.0,0.0,2021-01-22 03:59:55.278000+00:00,val
1260,0.0,0.0,2021-01-22 04:00:25.278000+00:00,val
1261,0.0,0.0,2021-01-22 04:00:55.278000+00:00,val
1262,0.0,0.0,2021-01-22 04:01:25.278000+00:00,val
1263,0.0,0.0,2021-01-22 04:01:55.278000+00:00,val
1264,0.0,0.0,2021-01-22 04:02:25.278000+00:00,val
1265,0.0,0.0,2021-01-22 04:02:55.278000+00:00,val
1266,0.0,0.0,2021-01-22 04:03:25.278000+00:00,val
1267,0.0,0.0,2021-01-22 04:03:55.278000+00:00,val
1268,0.0,0.0,2021-01-22 04:04:25.278000+00:00,val
1269,0.0,0.0,2021-01-22 04:04:55.278000+00:00,val
1270,0.0,0.0,2021-01-22 04:05:25.278000+00:00,val
1271,0.0,0.0,2021-01-22 04:05:55.278000+00:00,val
1272,0.0,0.0,2021-01-22 04:06:25.278000+00:00,val
1273,0.0,0.0,2021-01-22 04:06:55.278000+00:00,val
1274,0.0,0.0,2021-01-22 04:07:25.278000+00:00,val
1275,0.0,0.0,2021-01-22 04:07:55.278000+00:00,val
1276,0.0,0.0,2021-01-22 04:08:25.278000+00:00,val
1277,0.0,0.0,2021-01-22 04:08:55.278000+00:00,val
1278,0.0,0.0,2021-01-22 04:09:25.278000+00:00,val
1279,0.0,0.0,2021-01-22 04:09:55.278000+00:00,val
1280,0.0,0.0,2021-01-22 04:10:25.278000+00:00,val
1281,0.0,0.0,2021-01-22 04:10:55.278000+00:00,val
1282,0.0,0.0,2021-01-22 04:11:25.278000+00:00,val
1283,0.0,0.0,2021-01-22 04:11:55.278000+00:00,val
1284,0.0,0.0,2021-01-22 04:12:25.278000+00:00,val
1285,0.0,0.0,2021-01-22 04:12:55.278000+00:00,val
1286,0.0,0.0,2021-01-22 04:13:25.278000+00:00,val
1287,0.0,0.0,2021-01-22 04:13:55.278000+00:00,val
1288,0.0,0.0,2021-01-22 04:14:25.278000+00:00,val
1289,0.0,0.0,2021-01-22 04:14:55.278000+00:00,val
1290,0.0,0.0,2021-01-22 04:15:25.278000+00:00,val
1291,0.0,0.0,2021-01-22 04:15:55.278000+00:00,val
1292,0.0,0.0,2021-01-22 04:16:25.278000+00:00,val
1293,0.0,0.0,2021-01-22 04:16:55.278000+00:00,val
1294,0.0,0.0,2021-01-22 04:17:25.278000+00:00,val
1295,0.0,0.0,2021-01-22 04:17:55.278000+00:00,val
1296,0.0,0.0,2021-01-22 04:18:25.278000+00:00,val
1297,0.0,0.0,2021-01-22 04:18:55.278000+00:00,val
1298,0.0,0.0,2021-01-22 04:19:25.278000+00:00,val
1299,0.0,0.0,2021-01-22 04:19:55.278000+00:00,val
1300,0.0,0.0,2021-01-22 04:20:25.278000+00:00,val
1301,0.0,0.0,2021-01-22 04:20:55.278000+00:00,val
1302,0.0,0.0,2021-01-22 04:21:25.278000+00:00,val
1303,0.0,0.0,2021-01-22 04:21:55.278000+00:00,val
1304,0.0,0.0,2021-01-22 04:22:25.278000+00:00,val
1305,0.0,0.0,2021-01-22 04:22:55.278000+00:00,val
1306,0.0,0.0,2021-01-22 04:23:25.278000+00:00,val
1307,0.0,0.0,2021-01-22 04:23:55.278000+00:00,val
1308,0.0,0.0,2021-01-22 04:24:25.278000+00:00,val
1309,0.0,0.0,2021-01-22 04:24:55.278000+00:00,val
1310,0.0,0.0,2021-01-22 04:25:25.278000+00:00,val
1311,0.0,0.0,2021-01-22 04:25:55.278000+00:00,val
1312,0.0,0.0,2021-01-22 04:26:25.278000+00:00,val
1313,0.0,0.0,2021-01-22 04:26:55.278000+00:00,val
1314,0.0,0.0,2021-01-22 04:27:25.278000+00:00,val
1315,0.0,0.0,2021-01-22 04:27:55.278000+00:00,val
1316,0.0,0.0,2021-01-22 04:28:25.278000+00:00,val
1317,0.0,0.0,2021-01-22 04:28:55.278000+00:00,val
1318,0.0,0.0,2021-01-22 04:29:25.278000+00:00,val
1319,0.0,0.0,2021-01-22 04:29:55.278000+00:00,val
1320,0.0,0.0,2021-01-22 04:30:25.278000+00:00,val
1321,0.0,0.0,2021-01-22 04:30:55.278000+00:00,val
1322,0.0,0.0,2021-01-22 04:31:25.278000+00:00,val
1323,0.0,0.0,2021-01-22 04:31:55.278000+00:00,val
1324,0.0,0.0,2021-01-22 04:32:25.278000+00:00,val
1325,0.0,0.0,2021-01-22 04:32:55.278000+00:00,val
1326,0.0,0.0,2021-01-22 04:33:25.278000+00:00,val
1327,0.0,0.0,2021-01-22 04:33:55.278000+00:00,val
1328,0.0,0.0,2021-01-22 04:34:25.278000+00:00,val
1329,0.0,0.0,2021-01-22 04:34:55.278000+00:00,val
1330,0.0,0.0,2021-01-22 04:35:25.278000+00:00,val
1331,0.0,0.0,2021-01-22 04:35:55.278000+00:00,val
1332,0.0,0.0,2021-01-22 04:36:25.278000+00:00,val
1333,0.0,0.0,2021-01-22 04:36:55.278000+00:00,val
1334,0.0,0.0,2021-01-22 04:37:25.278000+00:00,val
1335,0.0,0.0,2021-01-22 04:37:55.278000+00:00,val
1336,0.0,0.0,2021-01-22 04:38:25.278000+00:00,val
1337,0.0,0.0,2021-01-22 04:38:55.278000+00:00,val
1338,0.0,0.0,2021-01-22 04:39:25.278000+00:00,val
1339,0.0,0.0,2021-01-22 04:39:55.278000+00:00,val
1340,0.0,0.0,2021-01-22 04:40:25.278000+00:00,val
1341,0.0,0.0,2021-01-22 04:40:55.278000+00:00,val
1342,0.0,0.0,2021-01-22 04:41:25.278000+00:00,val
1343,0.0,0.0,2021-01-22 04:41:55.278000+00:00,val
1344,0.0,0.0,2021-01-22 04:42:25.278000+00:00,val
1345,0.0,0.0,2021-01-22 04:42:55.278000+00:00,val
1346,0.0,0.0,2021-01-22 04:43:25.278000+00:00,val
1347,0.0,0.0,2021-01-22 04:43:55.278000+00:00,val
1348,0.0,0.0,2021-01-22 04:44:25.278000+00:00,val
1349,0.0,0.0,2021-01-22 04:44:55.278000+00:00,val
1350,0.0,0.0,2021-01-22 04:45:25.278000+00:00,val
1351,0.0,0.0,2021-01-22 04:45:55.278000+00:00,val
1352,0.0,0.0,2021-01-22 04:46:25.278000+00:00,val
1353,0.0,0.0,2021-01-22 04:46:55.278000+00:00,val
1354,0.0,0.0,2021-01-22 04:47:25.278000+00:00,val
1355,0.0,0.0,2021-01-22 04:47:55.278000+00:00,val
1356,0.0,0.0,2021-01-22 04:48:25.278000+00:00,val
1357,0.0,0.0,2021-01-22 04:48:55.278000+00:00,val
1358,0.0,0.0,2021-01-22 04:49:25.278000+00:00,val
1359,0.0,0.0,2021-01-22 04:49:55.278000+00:00,val
1360,0.0,0.0,2021-01-22 04:50:25.278000+00:00,val
1361,0.0,0.0,2021-01-22 04:50:55.278000+00:00,val
1362,0.0,0.0,2021-01-22 04:51:25.278000+00:00,val
1363,0.0,0.0,2021-01-22 04:51:55.278000+00:00,val
1364,0.0,0.0,2021-01-22 04:52:25.278000+00:00,val
1365,0.0,0.0,2021-01-22 04:52:55.278000+00:00,val
1366,0.0,0.0,2021-01-22 04:53:25.278000+00:00,val
1367,0.0,0.0,2021-01-22 04:53:55.278000+00:00,val
1368,0.0,0.0,2021-01-22 04:54:25.278000+00:00,val
1369,0.0,0.0,2021-01-22 04:54:55.278000+00:00,val
1370,0.0,0.0,2021-01-22 04:55:25.278000+00:00,val
1371,0.0,0.0,2021-01-22 04:55:55.278000+00:00,val
1372,0.0,0.0,2021-01-22 04:56:25.278000+00:00,val
1373,0.0,0.0,2021-01-22 04:56:55.278000+00:00,val
1374,0.0,0.0,2021-01-22 04:57:25.278000+00:00,val
1375,0.0,0.0,2021-01-22 04:57:55.278000+00:00,val
1376,0.0,0.0,2021-01-22 04:58:25.278000+00:00,val
1377,0.0,0.0,2021-01-22 04:58:55.278000+00:00,val
1378,0.0,0.0,2021-01-22 04:59:25.278000+00:00,val
1379,0.0,0.0,2021-01-22 04:59:55.278000+00:00,val
1380,0.0,0.0,2021-01-22 05:00:25.278000+00:00,val
1381,0.0,0.0,2021-01-22 05:00:55.278000+00:00,val
1382,0.0,0.0,2021-01-22 05:01:25.278000+00:00,val
1383,0.0,0.0,2021-01-22 05:01:55.278000+00:00,val
1384,0.0,0.0,2021-01-22 05:02:25.278000+00:00,val
1385,0.0,0.0,2021-01-22 05:02:55.278000+00:00,val
1386,0.0,0.0,2021-01-22 05:03:25.278000+00:00,val
1387,0.0,0.0,2021-01-22 05:03:55.278000+00:00,val
1388,0.0,0.0,2021-01-22 05:04:25.278000+00:00,val
1389,0.0,0.0,2021-01-22 05:04:55.278000+00:00,val
1390,0.0,0.0,2021-01-22 05:05:25.278000+00:00,val
1391,0.0,0.0,2021-01-22 05:05:55.278000+00:00,val
1392,0.0,0.0,2021-01-22 05:06:25.278000+00:00,val
1393,0.0,0.0,2021-01-22 05:06:55.278000+00:00,val
1394,0.0,0.0,2021-01-22 05:07:25.278000+00:00,val
1395,0.0,0.0,2021-01-22 05:07:55.278000+00:00,val
1396,0.0,0.0,2021-01-22 05:08:25.278000+00:00,val
1397,0.0,0.0,2021-01-22 05:08:55.278000+00:00,val
1398,0.0,0.0,2021-01-22 05:09:25.278000+00:00,val
1399,0.0,0.0,2021-01-22 05:09:55.278000+00:00,val
1400,0.0,0.0,2021-01-22 05:10:25.278000+00:00,val
1401,0.0,0.0,2021-01-22 05:10:55.278000+00:00,val
1402,0.0,0.0,2021-01-22 05:11:25.278000+00:00,val
1403,0.0,0.0,2021-01-22 05:11:55.278000+00:00,val
1404,0.0,0.0,2021-01-22 05:12:25.278000+00:00,val
1405,0.0,0.0,2021-01-22 05:12:55.278000+00:00,val
1406,0.0,0.0,2021-01-22 05:13:25.278000+00:00,val
1407,0.0,0.0,2021-01-22 05:13:55.278000+00:00,val
1408,0.0,0.0,2021-01-22 05:14:25.278000+00:00,val
1409,0.0,0.0,2021-01-22 05:14:55.278000+00:00,val
1410,0.0,0.0,2021-01-22 05:15:25.278000+00:00,val
1411,0.0,0.0,2021-01-22 05:15:55.278000+00:00,val
1412,0.0,0.0,2021-01-22 05:16:25.278000+00:00,val
1413,0.0,0.0,2021-01-22 05:16:55.278000+00:00,val
1414,0.0,0.0,2021-01-22 05:17:25.278000+00:00,val
1415,0.0,0.0,2021-01-22 05:17:55.278000+00:00,test
1416,0.0,0.0,2021-01-22 05:18:25.278000+00:00,test
1417,0.0,0.0,2021-01-22 05:18:55.278000+00:00,test
1418,0.0,0.0,2021-01-22 05:19:25.278000+00:00,test
1419,0.0,0.0,2021-01-22 05:19:55.278000+00:00,test
1420,0.0,0.0,2021-01-22 05:20:25.278000+00:00,test
1421,0.0,0.0,2021-01-22 05:20:55.278000+00:00,test
1422,0.0,0.0,2021-01-22 05:21:25.278000+00:00,test
1423,0.0,0.0,2021-01-22 05:21:55.278000+00:00,test
1424,0.0,0.0,2021-01-22 05:22:25.278000+00:00,test
1425,0.0,0.0,2021-01-22 05:22:55.278000+00:00,test
1426,0.0,0.0,2021-01-22 05:23:25.278000+00:00,test
1427,0.0,0.0,2021-01-22 05:23:55.278000+00:00,test
1428,0.0,0.0,2021-01-22 05:24:25.278000+00:00,test
1429,0.0,0.0,2021-01-22 05:24:55.278000+00:00,test
1430,0.0,0.0,2021-01-22 05:25:25.278000+00:00,test
1431,0.0,0.0,2021-01-22 05:25:55.278000+00:00,test
1432,0.0,0.0,2021-01-22 05:26:25.278000+00:00,test
1433,0.0,0.0,2021-01-22 05:26:55.278000+00:00,test
1434,0.0,0.0,2021-01-22 05:27:25.278000+00:00,test
1435,0.0,0.0,2021-01-22 05:27:55.278000+00:00,test
1436,0.0,0.0,2021-01-22 05:28:25.278000+00:00,test
1437,0.0,0.0,2021-01-22 05:28:55.278000+00:00,test
1438,0.0,0.0,2021-01-22 05:29:25.278000+00:00,test
1439,0.0,0.0,2021-01-22 05:29:55.278000+00:00,test
1440,0.0,0.0,2021-01-22 05:30:25.278000+00:00,test
1441,0.0,0.0,2021-01-22 05:30:55.278000+00:00,test
1442,0.0,0.0,2021-01-22 05:31:25.278000+00:00,test
1443,0.0,0.0,2021-01-22 05:31:55.278000+00:00,test
1444,0.0,0.0,2021-01-22 05:32:25.278000+00:00,test
1445,0.0,0.0,2021-01-22 05:32:55.278000+00:00,test
1446,0.0,0.0,2021-01-22 05:33:25.278000+00:00,test
1447,0.0,0.0,2021-01-22 05:33:55.278000+00:00,test
1448,0.0,0.0,2021-01-22 05:34:25.278000+00:00,test
1449,0.0,0.0,2021-01-22 05:34:55.278000+00:00,test
1450,0.0,0.0,2021-01-22 05:35:25.278000+00:00,test
1451,0.0,0.0,2021-01-22 05:35:55.278000+00:00,test
1452,0.0,0.0,2021-01-22 05:36:25.278000+00:00,test
1453,0.0,0.0,2021-01-22 05:36:55.278000+00:00,test
1454,0.0,0.0,2021-01-22 05:37:25.278000+00:00,test
1455,0.0,0.0,2021-01-22 05:37:55.278000+00:00,test
1456,0.0,0.0,2021-01-22 05:38:25.278000+00:00,test
1457,0.0,0.0,2021-01-22 05:38:55.278000+00:00,test
1458,0.0,0.0,2021-01-22 05:39:25.278000+00:00,test
1459,0.0,0.0,2021-01-22 05:39:55.278000+00:00,test
1460,0.0,0.0,2021-01-22 05:40:25.278000+00:00,test
1461,0.0,0.0,2021-01-22 05:40:55.278000+00:00,test
1462,0.0,0.0,2021-01-22 05:41:25.278000+00:00,test
1463,0.0,0.0,2021-01-22 05:41:55.278000+00:00,test
1464,0.0,0.0,2021-01-22 05:42:25.278000+00:00,test
1465,0.0,0.0,2021-01-22 05:42:55.278000+00:00,test
1466,0.0,0.0,2021-01-22 05:43:25.278000+00:00,test
1467,0.0,0.0,2021-01-22 05:43:55.278000+00:00,test
1468,0.0,0.0,2021-01-22 05:44:25.278000+00:00,test
1469,0.0,0.0,2021-01-22 05:44:55.278000+00:00,test
1470,0.0,0.0,2021-01-22 05:45:25.278000+00:00,test
1471,0.0,0.0,2021-01-22 05:45:55.278000+00:00,test
1472,0.0,0.0,2021-01-22 05:46:25.278000+00:00,test
1473,0.0,0.0,2021-01-22 05:46:55.278000+00:00,test
1474,0.0,0.0,2021-01-22 05:47:25.278000+00:00,test
1475,0.0,0.0,2021-01-22 05:47:55.278000+00:00,test
1476,0.0,0.0,2021-01-22 05:48:25.278000+00:00,test
1477,0.0,0.0,2021-01-22 05:48:55.278000+00:00,test
1478,0.0,0.0,2021-01-22 05:49:25.278000+00:00,test
1479,0.0,0.0,2021-01-22 05:49:55.278000+00:00,test
1480,0.0,0.0,2021-01-22 05:50:25.278000+00:00,test
1481,0.0,0.0,2021-01-22 05:50:55.278000+00:00,test
1482,0.0,0.0,2021-01-22 05:51:25.278000+00:00,test
1483,0.0,0.0,2021-01-22 05:51:55.278000+00:00,test
1484,0.0,0.0,2021-01-22 05:52:25.278000+00:00,test
1485,0.0,0.0,2021-01-22 05:52:55.278000+00:00,test
1486,0.0,0.0,2021-01-22 05:53:25.278000+00:00,test
1487,0.0,0.0,2021-01-22 05:53:55.278000+00:00,test
1488,0.0,0.0,2021-01-22 05:54:25.278000+00:00,test
1489,0.0,0.0,2021-01-22 05:54:55.278000+00:00,test
1490,0.0,0.0,2021-01-22 05:55:25.278000+00:00,test
1491,0.0,0.0,2021-01-22 05:55:55.278000+00:00,test
1492,0.0,0.0,2021-01-22 05:56:25.278000+00:00,test
1493,0.0,0.0,2021-01-22 05:56:55.278000+00:00,test
1494,0.0,0.0,2021-01-22 05:57:25.278000+00:00,test
1495,0.0,0.0,2021-01-22 05:57:55.278000+00:00,test
1496,0.0,0.0,2021-01-22 05:58:25.278000+00:00,test
1497,0.0,0.0,2021-01-22 05:58:55.278000+00:00,test
1498,0.0,0.0,2021-01-22 05:59:25.278000+00:00,test
1499,0.0,0.0,2021-01-22 05:59:55.278000+00:00,test
1500,0.0,0.0,2021-01-22 06:00:25.278000+00:00,test
1501,0.0,0.0,2021-01-22 06:00:55.278000+00:00,test
1502,0.0,0.0,2021-01-22 06:01:25.278000+00:00,test
1503,0.0,0.0,2021-01-22 06:01:55.278000+00:00,test
1504,0.0,0.0,2021-01-22 06:02:25.278000+00:00,test
1505,0.0,0.0,2021-01-22 06:02:55.278000+00:00,test
1506,0.0,0.0,2021-01-22 06:03:25.278000+00:00,test
1507,0.0,0.0,2021-01-22 06:03:55.278000+00:00,test
1508,0.0,0.0,2021-01-22 06:04:25.278000+00:00,test
1509,0.0,0.0,2021-01-22 06:04:55.278000+00:00,test
1510,0.0,0.0,2021-01-22 06:05:25.278000+00:00,test
1511,0.0,0.0,2021-01-22 06:05:55.278000+00:00,test
1512,0.0,0.0,2021-01-22 06:06:25.278000+00:00,test
1513,0.0,0.0,2021-01-22 06:06:55.278000+00:00,test
1514,0.0,0.0,2021-01-22 06:07:25.278000+00:00,test
1515,0.0,0.0,2021-01-22 06:07:55.278000+00:00,test
1516,0.0,0.0,2021-01-22 06:08:25.278000+00:00,test
1517,0.0,0.0,2021-01-22 06:08:55.278000+00:00,test
1518,0.0,0.0,2021-01-22 06:09:25.278000+00:00,test
1519,0.0,0.0,2021-01-22 06:09:55.278000+00:00,test
1520,0.0,0.0,2021-01-22 06:10:25.278000+00:00,test
1521,0.0,0.0,2021-01-22 06:10:55.278000+00:00,test
1522,0.0,0.0,2021-01-22 06:11:25.278000+00:00,test
1523,0.0,0.0,2021-01-22 06:11:55.278000+00:00,test
1524,0.0,0.0,2021-01-22 06:12:25.278000+00:00,test
1525,0.0,0.0,2021-01-22 06:12:55.278000+00:00,test
1526,0.0,0.0,2021-01-22 06:13:25.278000+00:00,test
1527,0.0,0.0,2021-01-22 06:13:55.278000+00:00,test
1528,0.0,0.0,2021-01-22 06:14:25.278000+00:00,test
1529,0.0,0.0,2021-01-22 06:14:55.278000+00:00,test
1530,0.0,0.0,2021-01-22 06:15:25.278000+00:00,test
1531,0.0,0.0,2021-01-22 06:15:55.278000+00:00,test
1532,0.0,0.0,2021-01-22 06:16:25.278000+00:00,test
1533,0.0,0.0,2021-01-22 06:16:55.278000+00:00,test
1534,0.0,0.0,2021-01-22 06:17:25.278000+00:00,test
1535,0.0,0.0,2021-01-22 06:17:55.278000+00:00,test
1536,0.0,0.0,2021-01-22 06:18:25.278000+00:00,test
1537,0.0,0.0,2021-01-22 06:18:55.278000+00:00,test
1538,0.0,0.0,2021-01-22 06:19:25.278000+00:00,test
1539,0.0,0.0,2021-01-22 06:19:55.278000+00:00,test
1540,0.0,0.0,2021-01-22 06:20:25.278000+00:00,test
1541,0.0,0.0,2021-01-22 06:20:55.278000+00:00,test
1542,0.0,0.0,2021-01-22 06:21:25.278000+00:00,test
1543,0.0,0.0,2021-01-22 06:21:55.278000+00:00,test
1544,0.0,0.0,2021-01-22 06:22:25.278000+00:00,test
1545,0.0,0.0,2021-01-22 06:22:55.278000+00:00,test
1546,0.0,0.0,2021-01-22 06:23:25.278000+00:00,test
1547,0.0,0.0,2021-01-22 06:23:55.278000+00:00,test
1548,0.0,0.0,2021-01-22 06:24:25.278000+00:00,test
1549,0.0,0.0,2021-01-22 06:24:55.278000+00:00,test
1550,0.0,0.0,2021-01-22 06:25:25.278000+00:00,test
1551,0.0,0.0,2021-01-22 06:25:55.278000+00:00,test
1552,0.0,0.0,2021-01-22 06:26:25.278000+00:00,test
1553,0.0,0.0,2021-01-22 06:26:55.278000+00:00,test
1554,0.0,0.0,2021-01-22 06:27:25.278000+00:00,test
1555,0.0,0.0,2021-01-22 06:27:55.278000+00:00,test
1556,0.0,0.0,2021-01-22 06:28:25.278000+00:00,test
1557,0.0,0.0,2021-01-22 06:28:55.278000+00:00,test
1558,0.0,0.0,2021-01-22 06:29:25.278000+00:00,test
1559,0.0,0.0,2021-01-22 06:29:55.278000+00:00,test
1560,0.0,0.0,2021-01-22 06:30:25.278000+00:00,test
1561,0.0,0.0,2021-01-22 06:30:55.278000+00:00,test
1562,0.0,0.0,2021-01-22 06:31:25.278000+00:00,test
1563,0.0,0.0,2021-01-22 06:31:55.278000+00:00,test
1564,0.0,0.0,2021-01-22 06:32:25.278000+00:00,test
1565,0.0,0.0,2021-01-22 06:32:55.278000+00:00,test
1566,0.0,0.0,2021-01-22 06:33:25.278000+00:00,test
1567,0.0,0.0,2021-01-22 06:33:55.278000+00:00,test
1568,0.0,0.0,2021-01-22 06:34:25.278000+00:00,test
1569,0.0,0.0,2021-01-22 06:34:55.278000+00:00,test
1570,0.0,0.0,2021-01-22 06:35:25.278000+00:00,test
1571,0.0,0.0,2021-01-22 06:35:55.278000+00:00,test
1572,0.0,0.0,2021-01-22 06:36:25.278000+00:00,test
1573,0.0,0.0,2021-01-22 06:36:55.278000+00:00,test
1574,0.0,0.0,2021-01-22 06:37:25.278000+00:00,test
1575,0.0,0.0,2021-01-22 06:37:55.278000+00:00,test
1576,0.0,0.0,2021-01-22 06:38:25.278000+00:00,test
1577,0.0,0.0,2021-01-22 06:38:55.278000+00:00,test
1578,0.0,0.0,2021-01-22 06:39:25.278000+00:00,test
1579,0.0,0.0,2021-01-22 06:39:55.278000+00:00,test
1580,0.0,0.0,2021-01-22 06:40:25.278000+00:00,test
1581,0.0,0.0,2021-01-22 06:40:55.278000+00:00,test
1582,0.0,0.0,2021-01-22 06:41:25.278000+00:00,test
1583,0.0,0.0,2021-01-22 06:41:55.278000+00:00,test
1584,0.0,0.0,2021-01-22 06:42:25.278000+00:00,test
1585,0.0,0.0,2021-01-22 06:42:55.278000+00:00,test
