,prediction,real,time,split
0,-7.747492790222168,-8.0,2021-01-21 17:16:55.278000+00:00,train
1,-7.699728488922119,-8.0,2021-01-21 17:17:25.278000+00:00,train
2,-7.656413555145264,-8.0,2021-01-21 17:17:55.278000+00:00,train
3,-7.617621421813965,-8.0,2021-01-21 17:18:25.278000+00:00,train
4,-7.5835161209106445,-8.0,2021-01-21 17:18:55.278000+00:00,train
5,-7.5311455726623535,-8.0,2021-01-21 17:19:25.278000+00:00,train
6,-7.48200798034668,-8.0,2021-01-21 17:19:55.278000+00:00,train
7,-7.436172008514404,-8.0,2021-01-21 17:20:25.278000+00:00,train
8,-7.393673896789551,-8.0,2021-01-21 17:20:55.278000+00:00,train
9,-7.354537487030029,-7.0,2021-01-21 17:21:25.278000+00:00,train
10,-7.318860054016113,-7.0,2021-01-21 17:21:55.278000+00:00,train
11,-7.28671932220459,-7.0,2021-01-21 17:22:25.278000+00:00,train
12,-7.258446216583252,-7.0,2021-01-21 17:22:55.278000+00:00,train
13,-7.233834743499756,-7.0,2021-01-21 17:23:25.278000+00:00,train
14,-7.213029861450195,-7.0,2021-01-21 17:23:55.278000+00:00,train
15,-7.196162700653076,-7.0,2021-01-21 17:24:25.278000+00:00,train
16,-7.183454990386963,-7.0,2021-01-21 17:24:55.278000+00:00,train
17,-7.175105571746826,-7.0,2021-01-21 17:25:25.278000+00:00,train
18,-7.1462178230285645,-7.0,2021-01-21 17:25:55.278000+00:00,train
19,-7.120034694671631,-7.0,2021-01-21 17:26:25.278000+00:00,train
20,-7.0615386962890625,-7.0,2021-01-21 17:26:55.278000+00:00,train
21,-7.006680011749268,-7.0,2021-01-21 17:27:25.278000+00:00,train
22,-6.955493450164795,-7.0,2021-01-21 17:27:55.278000+00:00,train
23,-6.908028602600098,-7.0,2021-01-21 17:28:25.278000+00:00,train
24,-6.864306926727295,-7.0,2021-01-21 17:28:55.278000+00:00,train
25,-6.824434280395508,-7.0,2021-01-21 17:29:25.278000+00:00,train
26,-6.788491725921631,-7.0,2021-01-21 17:29:55.278000+00:00,train
27,-6.756552696228027,-7.0,2021-01-21 17:30:25.278000+00:00,train
28,-6.7287750244140625,-7.0,2021-01-21 17:30:55.278000+00:00,train
29,-6.681888103485107,-7.0,2021-01-21 17:31:25.278000+00:00,train
30,-6.637680530548096,-7.0,2021-01-21 17:31:55.278000+00:00,train
31,-6.596200466156006,-7.0,2021-01-21 17:32:25.278000+00:00,train
32,-6.557445526123047,-7.0,2021-01-21 17:32:55.278000+00:00,train
33,-6.521477222442627,-7.0,2021-01-21 17:33:25.278000+00:00,train
34,-6.488336563110352,-7.0,2021-01-21 17:33:55.278000+00:00,train
35,-6.4580464363098145,-7.0,2021-01-21 17:34:25.278000+00:00,train
36,-6.430703163146973,-7.0,2021-01-21 17:34:55.278000+00:00,train
37,-6.40637731552124,-7.0,2021-01-21 17:35:25.278000+00:00,train
38,-6.385155200958252,-7.0,2021-01-21 17:35:55.278000+00:00,train
39,-6.367112636566162,-7.0,2021-01-21 17:36:25.278000+00:00,train
40,-6.352399826049805,-7.0,2021-01-21 17:36:55.278000+00:00,train
41,-6.341157913208008,-7.0,2021-01-21 17:37:25.278000+00:00,train
42,-6.333522319793701,-6.0,2021-01-21 17:37:55.278000+00:00,train
43,-6.329712390899658,-6.0,2021-01-21 17:38:25.278000+00:00,train
44,-6.304697036743164,-6.0,2021-01-21 17:38:55.278000+00:00,train
45,-6.28175163269043,-6.0,2021-01-21 17:39:25.278000+00:00,train
46,-6.260949611663818,-6.0,2021-01-21 17:39:55.278000+00:00,train
47,-6.242341041564941,-6.0,2021-01-21 17:40:25.278000+00:00,train
48,-6.2259602546691895,-6.0,2021-01-21 17:40:55.278000+00:00,train
49,-6.211903095245361,-6.0,2021-01-21 17:41:25.278000+00:00,train
50,-6.200248718261719,-6.0,2021-01-21 17:41:55.278000+00:00,train
51,-6.191061973571777,-6.0,2021-01-21 17:42:25.278000+00:00,train
52,-6.184474468231201,-6.0,2021-01-21 17:42:55.278000+00:00,train
53,-6.1459221839904785,-6.0,2021-01-21 17:43:25.278000+00:00,train
54,-6.110802173614502,-6.0,2021-01-21 17:43:55.278000+00:00,train
55,-6.079197883605957,-6.0,2021-01-21 17:44:25.278000+00:00,train
56,-6.051212787628174,-6.0,2021-01-21 17:44:55.278000+00:00,train
57,-6.0266289710998535,-6.0,2021-01-21 17:45:25.278000+00:00,train
58,-5.981298923492432,-6.0,2021-01-21 17:45:55.278000+00:00,train
59,-5.938323974609375,-6.0,2021-01-21 17:46:25.278000+00:00,train
60,-5.8976874351501465,-6.0,2021-01-21 17:46:55.278000+00:00,train
61,-5.859363079071045,-6.0,2021-01-21 17:47:25.278000+00:00,train
62,-5.823317050933838,-6.0,2021-01-21 17:47:55.278000+00:00,train
63,-5.789577960968018,-6.0,2021-01-21 17:48:25.278000+00:00,train
64,-5.7581562995910645,-6.0,2021-01-21 17:48:55.278000+00:00,train
65,-5.729050636291504,-6.0,2021-01-21 17:49:25.278000+00:00,train
66,-5.702320098876953,-6.0,2021-01-21 17:49:55.278000+00:00,train
67,-5.678003311157227,-6.0,2021-01-21 17:50:25.278000+00:00,train
68,-5.656130790710449,-6.0,2021-01-21 17:50:55.278000+00:00,train
69,-5.6367926597595215,-6.0,2021-01-21 17:51:25.278000+00:00,train
70,-5.620060443878174,-6.0,2021-01-21 17:51:55.278000+00:00,train
71,-5.606004238128662,-6.0,2021-01-21 17:52:25.278000+00:00,train
72,-5.594756603240967,-6.0,2021-01-21 17:52:55.278000+00:00,train
73,-5.586439609527588,-6.0,2021-01-21 17:53:25.278000+00:00,train
74,-5.581181049346924,-5.0,2021-01-21 17:53:55.278000+00:00,train
75,-5.5791778564453125,-5.0,2021-01-21 17:54:25.278000+00:00,train
76,-5.580636501312256,-5.0,2021-01-21 17:54:55.278000+00:00,train
77,-5.585782527923584,-5.0,2021-01-21 17:55:25.278000+00:00,train
78,-5.594933986663818,-5.0,2021-01-21 17:55:55.278000+00:00,train
79,-5.578014373779297,-5.0,2021-01-21 17:56:25.278000+00:00,train
80,-5.562784194946289,-5.0,2021-01-21 17:56:55.278000+00:00,train
81,-5.549308776855469,-5.0,2021-01-21 17:57:25.278000+00:00,train
82,-5.537639617919922,-5.0,2021-01-21 17:57:55.278000+00:00,train
83,-5.527817249298096,-5.0,2021-01-21 17:58:25.278000+00:00,train
84,-5.51993465423584,-5.0,2021-01-21 17:58:55.278000+00:00,train
85,-5.474997043609619,-5.0,2021-01-21 17:59:25.278000+00:00,train
86,-5.433013916015625,-5.0,2021-01-21 17:59:55.278000+00:00,train
87,-5.3939690589904785,-5.0,2021-01-21 18:00:25.278000+00:00,train
88,-5.357884407043457,-5.0,2021-01-21 18:00:55.278000+00:00,train
89,-5.324769020080566,-5.0,2021-01-21 18:01:25.278000+00:00,train
90,-5.294689178466797,-5.0,2021-01-21 18:01:55.278000+00:00,train
91,-5.246096134185791,-5.0,2021-01-21 18:02:25.278000+00:00,train
92,-5.199367523193359,-5.0,2021-01-21 18:02:55.278000+00:00,train
93,-5.1544694900512695,-5.0,2021-01-21 18:03:25.278000+00:00,train
94,-5.111347675323486,-5.0,2021-01-21 18:03:55.278000+00:00,train
95,-5.069938659667969,-5.0,2021-01-21 18:04:25.278000+00:00,train
96,-5.030230522155762,-5.0,2021-01-21 18:04:55.278000+00:00,train
97,-4.9921875,-5.0,2021-01-21 18:05:25.278000+00:00,train
98,-4.955955505371094,-5.0,2021-01-21 18:05:55.278000+00:00,train
99,-4.921292781829834,-5.0,2021-01-21 18:06:25.278000+00:00,train
100,-4.8881988525390625,-5.0,2021-01-21 18:06:55.278000+00:00,train
101,-4.85665225982666,-5.0,2021-01-21 18:07:25.278000+00:00,train
102,-4.826682090759277,-5.0,2021-01-21 18:07:55.278000+00:00,train
103,-4.798287868499756,-5.0,2021-01-21 18:08:25.278000+00:00,train
104,-4.771450996398926,-5.0,2021-01-21 18:08:55.278000+00:00,train
105,-4.746211528778076,-5.0,2021-01-21 18:09:25.278000+00:00,train
106,-4.72257661819458,-5.0,2021-01-21 18:09:55.278000+00:00,train
107,-4.700542449951172,-5.0,2021-01-21 18:10:25.278000+00:00,train
108,-4.680158615112305,-5.0,2021-01-21 18:10:55.278000+00:00,train
109,-4.661450386047363,-5.0,2021-01-21 18:11:25.278000+00:00,train
110,-4.6444268226623535,-5.0,2021-01-21 18:11:55.278000+00:00,train
111,-4.62915563583374,-5.0,2021-01-21 18:12:25.278000+00:00,train
112,-4.615682125091553,-5.0,2021-01-21 18:12:55.278000+00:00,train
113,-4.6040358543396,-5.0,2021-01-21 18:13:25.278000+00:00,train
114,-4.594309329986572,-5.0,2021-01-21 18:13:55.278000+00:00,train
115,-4.586573123931885,-5.0,2021-01-21 18:14:25.278000+00:00,train
116,-4.580891132354736,-5.0,2021-01-21 18:14:55.278000+00:00,train
117,-4.577389717102051,-5.0,2021-01-21 18:15:25.278000+00:00,train
118,-4.576186180114746,-5.0,2021-01-21 18:15:55.278000+00:00,train
119,-4.577391624450684,-5.0,2021-01-21 18:16:25.278000+00:00,train
120,-4.558917999267578,-5.0,2021-01-21 18:16:55.278000+00:00,train
121,-4.54128360748291,-5.0,2021-01-21 18:17:25.278000+00:00,train
122,-4.524468421936035,-4.0,2021-01-21 18:17:55.278000+00:00,train
123,-4.508504390716553,-4.0,2021-01-21 18:18:25.278000+00:00,train
124,-4.4933953285217285,-4.0,2021-01-21 18:18:55.278000+00:00,train
125,-4.479123592376709,-4.0,2021-01-21 18:19:25.278000+00:00,train
126,-4.465727806091309,-4.0,2021-01-21 18:19:55.278000+00:00,train
127,-4.453216075897217,-4.0,2021-01-21 18:20:25.278000+00:00,train
128,-4.441575050354004,-4.0,2021-01-21 18:20:55.278000+00:00,train
129,-4.430851459503174,-4.0,2021-01-21 18:21:25.278000+00:00,train
130,-4.42105770111084,-4.0,2021-01-21 18:21:55.278000+00:00,train
131,-4.411629676818848,-4.0,2021-01-21 18:22:25.278000+00:00,train
132,-4.403368949890137,-4.0,2021-01-21 18:22:55.278000+00:00,train
133,-4.360472202301025,-4.0,2021-01-21 18:23:25.278000+00:00,train
134,-4.319626331329346,-4.0,2021-01-21 18:23:55.278000+00:00,train
135,-4.280486106872559,-4.0,2021-01-21 18:24:25.278000+00:00,train
136,-4.243337631225586,-4.0,2021-01-21 18:24:55.278000+00:00,train
137,-4.208181858062744,-4.0,2021-01-21 18:25:25.278000+00:00,train
138,-4.174988269805908,-4.0,2021-01-21 18:25:55.278000+00:00,train
139,-4.143993377685547,-4.0,2021-01-21 18:26:25.278000+00:00,train
140,-4.114853858947754,-4.0,2021-01-21 18:26:55.278000+00:00,train
141,-4.087594985961914,-4.0,2021-01-21 18:27:25.278000+00:00,train
142,-4.062203884124756,-4.0,2021-01-21 18:27:55.278000+00:00,train
143,-4.038753032684326,-4.0,2021-01-21 18:28:25.278000+00:00,train
144,-4.017269611358643,-4.0,2021-01-21 18:28:55.278000+00:00,train
145,-3.9977474212646484,-4.0,2021-01-21 18:29:25.278000+00:00,train
146,-3.980285167694092,-4.0,2021-01-21 18:29:55.278000+00:00,train
147,-3.9649338722229004,-4.0,2021-01-21 18:30:25.278000+00:00,train
148,-3.951711654663086,-4.0,2021-01-21 18:30:55.278000+00:00,train
149,-3.940761089324951,-4.0,2021-01-21 18:31:25.278000+00:00,train
150,-3.932173728942871,-4.0,2021-01-21 18:31:55.278000+00:00,train
151,-3.926008462905884,-4.0,2021-01-21 18:32:25.278000+00:00,train
152,-3.9224743843078613,-4.0,2021-01-21 18:32:55.278000+00:00,train
153,-3.8981525897979736,-4.0,2021-01-21 18:33:25.278000+00:00,train
154,-3.8748204708099365,-4.0,2021-01-21 18:33:55.278000+00:00,train
155,-3.85256028175354,-4.0,2021-01-21 18:34:25.278000+00:00,train
156,-3.8313591480255127,-4.0,2021-01-21 18:34:55.278000+00:00,train
157,-3.8111183643341064,-4.0,2021-01-21 18:35:25.278000+00:00,train
158,-3.791943073272705,-4.0,2021-01-21 18:35:55.278000+00:00,train
159,-3.773810863494873,-4.0,2021-01-21 18:36:25.278000+00:00,train
160,-3.756596803665161,-4.0,2021-01-21 18:36:55.278000+00:00,train
161,-3.740422248840332,-4.0,2021-01-21 18:37:25.278000+00:00,train
162,-3.725254535675049,-4.0,2021-01-21 18:37:55.278000+00:00,train
163,-3.7110674381256104,-4.0,2021-01-21 18:38:25.278000+00:00,train
164,-3.697735071182251,-4.0,2021-01-21 18:38:55.278000+00:00,train
165,-3.6853997707366943,-4.0,2021-01-21 18:39:25.278000+00:00,train
166,-3.6740386486053467,-4.0,2021-01-21 18:39:55.278000+00:00,train
167,-3.6635451316833496,-4.0,2021-01-21 18:40:25.278000+00:00,train
168,-3.654066801071167,-4.0,2021-01-21 18:40:55.278000+00:00,train
169,-3.6455957889556885,-4.0,2021-01-21 18:41:25.278000+00:00,train
170,-3.6380579471588135,-4.0,2021-01-21 18:41:55.278000+00:00,train
171,-3.6315994262695312,-4.0,2021-01-21 18:42:25.278000+00:00,train
172,-3.6262331008911133,-4.0,2021-01-21 18:42:55.278000+00:00,train
173,-3.6219160556793213,-4.0,2021-01-21 18:43:25.278000+00:00,train
174,-3.6187944412231445,-4.0,2021-01-21 18:43:55.278000+00:00,train
175,-3.616903305053711,-4.0,2021-01-21 18:44:25.278000+00:00,train
176,-3.6162338256835938,-4.0,2021-01-21 18:44:55.278000+00:00,train
177,-3.616940975189209,-4.0,2021-01-21 18:45:25.278000+00:00,train
178,-3.619091749191284,-4.0,2021-01-21 18:45:55.278000+00:00,train
179,-3.623187780380249,-4.0,2021-01-21 18:46:25.278000+00:00,train
180,-3.628728151321411,-4.0,2021-01-21 18:46:55.278000+00:00,train
181,-3.6359331607818604,-4.0,2021-01-21 18:47:25.278000+00:00,train
182,-3.6449596881866455,-4.0,2021-01-21 18:47:55.278000+00:00,train
183,-3.6560864448547363,-4.0,2021-01-21 18:48:25.278000+00:00,train
184,-3.669550657272339,-4.0,2021-01-21 18:48:55.278000+00:00,train
185,-3.6612818241119385,-4.0,2021-01-21 18:49:25.278000+00:00,train
186,-3.6533584594726562,-4.0,2021-01-21 18:49:55.278000+00:00,train
187,-3.6457769870758057,-4.0,2021-01-21 18:50:25.278000+00:00,train
188,-3.638498306274414,-4.0,2021-01-21 18:50:55.278000+00:00,train
189,-3.6315758228302,-4.0,2021-01-21 18:51:25.278000+00:00,train
190,-3.6250061988830566,-4.0,2021-01-21 18:51:55.278000+00:00,train
191,-3.618788242340088,-4.0,2021-01-21 18:52:25.278000+00:00,train
192,-3.612886905670166,-3.0,2021-01-21 18:52:55.278000+00:00,train
193,-3.6073546409606934,-3.0,2021-01-21 18:53:25.278000+00:00,train
194,-3.6021907329559326,-3.0,2021-01-21 18:53:55.278000+00:00,train
195,-3.597358226776123,-3.0,2021-01-21 18:54:25.278000+00:00,train
196,-3.5929114818573,-3.0,2021-01-21 18:54:55.278000+00:00,train
197,-3.5888490676879883,-3.0,2021-01-21 18:55:25.278000+00:00,train
198,-3.585137128829956,-3.0,2021-01-21 18:55:55.278000+00:00,train
199,-3.58182954788208,-3.0,2021-01-21 18:56:25.278000+00:00,train
200,-3.578928232192993,-3.0,2021-01-21 18:56:55.278000+00:00,train
201,-3.5764000415802,-3.0,2021-01-21 18:57:25.278000+00:00,train
202,-3.5743021965026855,-3.0,2021-01-21 18:57:55.278000+00:00,train
203,-3.5373950004577637,-3.0,2021-01-21 18:58:25.278000+00:00,train
204,-3.50104022026062,-3.0,2021-01-21 18:58:55.278000+00:00,train
205,-3.4663851261138916,-3.0,2021-01-21 18:59:25.278000+00:00,train
206,-3.4333174228668213,-3.0,2021-01-21 18:59:55.278000+00:00,train
207,-3.401815891265869,-3.0,2021-01-21 19:00:25.278000+00:00,train
208,-3.371424674987793,-3.0,2021-01-21 19:00:55.278000+00:00,train
209,-3.3425793647766113,-3.0,2021-01-21 19:01:25.278000+00:00,train
210,-3.31520414352417,-3.0,2021-01-21 19:01:55.278000+00:00,train
211,-3.289196729660034,-3.0,2021-01-21 19:02:25.278000+00:00,train
212,-3.2645621299743652,-3.0,2021-01-21 19:02:55.278000+00:00,train
213,-3.2412571907043457,-3.0,2021-01-21 19:03:25.278000+00:00,train
214,-3.2196083068847656,-3.0,2021-01-21 19:03:55.278000+00:00,train
215,-3.1991305351257324,-3.0,2021-01-21 19:04:25.278000+00:00,train
216,-3.1798322200775146,-3.0,2021-01-21 19:04:55.278000+00:00,train
217,-3.161667823791504,-3.0,2021-01-21 19:05:25.278000+00:00,train
218,-3.1446995735168457,-3.0,2021-01-21 19:05:55.278000+00:00,train
219,-3.12892484664917,-3.0,2021-01-21 19:06:25.278000+00:00,train
220,-3.1142947673797607,-3.0,2021-01-21 19:06:55.278000+00:00,train
221,-3.1008756160736084,-3.0,2021-01-21 19:07:25.278000+00:00,train
222,-3.088670015335083,-3.0,2021-01-21 19:07:55.278000+00:00,train
223,-3.0776350498199463,-3.0,2021-01-21 19:08:25.278000+00:00,train
224,-3.0678486824035645,-3.0,2021-01-21 19:08:55.278000+00:00,train
225,-3.0593247413635254,-3.0,2021-01-21 19:09:25.278000+00:00,train
226,-3.0520331859588623,-3.0,2021-01-21 19:09:55.278000+00:00,train
227,-3.0460681915283203,-3.0,2021-01-21 19:10:25.278000+00:00,train
228,-3.041459560394287,-3.0,2021-01-21 19:10:55.278000+00:00,train
229,-3.0382001399993896,-3.0,2021-01-21 19:11:25.278000+00:00,train
230,-3.0364060401916504,-3.0,2021-01-21 19:11:55.278000+00:00,train
231,-3.03613543510437,-3.0,2021-01-21 19:12:25.278000+00:00,train
232,-3.0374178886413574,-3.0,2021-01-21 19:12:55.278000+00:00,train
233,-3.0245532989501953,-3.0,2021-01-21 19:13:25.278000+00:00,train
234,-3.0121800899505615,-3.0,2021-01-21 19:13:55.278000+00:00,train
235,-3.0002176761627197,-3.0,2021-01-21 19:14:25.278000+00:00,train
236,-2.9886891841888428,-3.0,2021-01-21 19:14:55.278000+00:00,train
237,-2.9775497913360596,-3.0,2021-01-21 19:15:25.278000+00:00,train
238,-2.9667558670043945,-3.0,2021-01-21 19:15:55.278000+00:00,train
239,-2.9562244415283203,-3.0,2021-01-21 19:16:25.278000+00:00,train
240,-2.945972204208374,-3.0,2021-01-21 19:16:55.278000+00:00,train
241,-2.9359583854675293,-3.0,2021-01-21 19:17:25.278000+00:00,train
242,-2.9261157512664795,-3.0,2021-01-21 19:17:55.278000+00:00,train
243,-2.91646671295166,-3.0,2021-01-21 19:18:25.278000+00:00,train
244,-2.9069859981536865,-3.0,2021-01-21 19:18:55.278000+00:00,train
245,-2.897629737854004,-3.0,2021-01-21 19:19:25.278000+00:00,train
246,-2.8884286880493164,-3.0,2021-01-21 19:19:55.278000+00:00,train
247,-2.87937331199646,-3.0,2021-01-21 19:20:25.278000+00:00,train
248,-2.8704397678375244,-3.0,2021-01-21 19:20:55.278000+00:00,train
249,-2.8616604804992676,-3.0,2021-01-21 19:21:25.278000+00:00,train
250,-2.8530359268188477,-3.0,2021-01-21 19:21:55.278000+00:00,train
251,-2.8445534706115723,-3.0,2021-01-21 19:22:25.278000+00:00,train
252,-2.83624267578125,-3.0,2021-01-21 19:22:55.278000+00:00,train
253,-2.828108072280884,-3.0,2021-01-21 19:23:25.278000+00:00,train
254,-2.8201417922973633,-3.0,2021-01-21 19:23:55.278000+00:00,train
255,-2.8123700618743896,-3.0,2021-01-21 19:24:25.278000+00:00,train
256,-2.8047971725463867,-3.0,2021-01-21 19:24:55.278000+00:00,train
257,-2.7974185943603516,-3.0,2021-01-21 19:25:25.278000+00:00,train
258,-2.790255308151245,-3.0,2021-01-21 19:25:55.278000+00:00,train
259,-2.7833123207092285,-3.0,2021-01-21 19:26:25.278000+00:00,train
260,-2.7765860557556152,-3.0,2021-01-21 19:26:55.278000+00:00,train
261,-2.770094633102417,-3.0,2021-01-21 19:27:25.278000+00:00,train
262,-2.7638425827026367,-3.0,2021-01-21 19:27:55.278000+00:00,train
263,-2.757904291152954,-3.0,2021-01-21 19:28:25.278000+00:00,train
264,-2.7521865367889404,-3.0,2021-01-21 19:28:55.278000+00:00,train
265,-2.746713161468506,-3.0,2021-01-21 19:29:25.278000+00:00,train
266,-2.741494655609131,-3.0,2021-01-21 19:29:55.278000+00:00,train
267,-2.7365317344665527,-3.0,2021-01-21 19:30:25.278000+00:00,train
268,-2.731841564178467,-3.0,2021-01-21 19:30:55.278000+00:00,train
269,-2.727430820465088,-3.0,2021-01-21 19:31:25.278000+00:00,train
270,-2.7233009338378906,-3.0,2021-01-21 19:31:55.278000+00:00,train
271,-2.7194674015045166,-3.0,2021-01-21 19:32:25.278000+00:00,train
272,-2.715937852859497,-3.0,2021-01-21 19:32:55.278000+00:00,train
273,-2.71256947517395,-3.0,2021-01-21 19:33:25.278000+00:00,train
274,-2.709507465362549,-3.0,2021-01-21 19:33:55.278000+00:00,train
275,-2.7068192958831787,-3.0,2021-01-21 19:34:25.278000+00:00,train
276,-2.7045226097106934,-3.0,2021-01-21 19:34:55.278000+00:00,train
277,-2.7025856971740723,-3.0,2021-01-21 19:35:25.278000+00:00,train
278,-2.7010300159454346,-3.0,2021-01-21 19:35:55.278000+00:00,train
279,-2.6998722553253174,-3.0,2021-01-21 19:36:25.278000+00:00,train
280,-2.6991255283355713,-3.0,2021-01-21 19:36:55.278000+00:00,train
281,-2.698800563812256,-3.0,2021-01-21 19:37:25.278000+00:00,train
282,-2.6989223957061768,-3.0,2021-01-21 19:37:55.278000+00:00,train
283,-2.699511766433716,-3.0,2021-01-21 19:38:25.278000+00:00,train
284,-2.700590133666992,-3.0,2021-01-21 19:38:55.278000+00:00,train
285,-2.702191114425659,-3.0,2021-01-21 19:39:25.278000+00:00,train
286,-2.7043492794036865,-3.0,2021-01-21 19:39:55.278000+00:00,train
287,-2.707099676132202,-3.0,2021-01-21 19:40:25.278000+00:00,train
288,-2.71049427986145,-3.0,2021-01-21 19:40:55.278000+00:00,train
289,-2.7145891189575195,-3.0,2021-01-21 19:41:25.278000+00:00,train
290,-2.7194466590881348,-3.0,2021-01-21 19:41:55.278000+00:00,train
291,-2.725154399871826,-3.0,2021-01-21 19:42:25.278000+00:00,train
292,-2.7318122386932373,-3.0,2021-01-21 19:42:55.278000+00:00,train
293,-2.739570379257202,-3.0,2021-01-21 19:43:25.278000+00:00,train
294,-2.748563766479492,-3.0,2021-01-21 19:43:55.278000+00:00,train
295,-2.7590115070343018,-2.0,2021-01-21 19:44:25.278000+00:00,train
296,-2.771212339401245,-2.0,2021-01-21 19:44:55.278000+00:00,train
297,-2.7856013774871826,-2.0,2021-01-21 19:45:25.278000+00:00,train
298,-2.802841901779175,-2.0,2021-01-21 19:45:55.278000+00:00,train
299,-2.8240466117858887,-2.0,2021-01-21 19:46:25.278000+00:00,train
300,-2.851388931274414,-2.0,2021-01-21 19:46:55.278000+00:00,train
301,-2.8904645442962646,-2.0,2021-01-21 19:47:25.278000+00:00,train
302,-3.0,-2.0,2021-01-21 19:47:55.278000+00:00,train
303,-3.0,-2.0,2021-01-21 19:48:25.278000+00:00,train
304,-3.0,-2.0,2021-01-21 19:48:55.278000+00:00,train
305,-3.0,-2.0,2021-01-21 19:49:25.278000+00:00,train
306,-2.871943473815918,-2.0,2021-01-21 19:49:55.278000+00:00,train
307,-2.8142893314361572,-2.0,2021-01-21 19:50:25.278000+00:00,train
308,-2.7685937881469727,-2.0,2021-01-21 19:50:55.278000+00:00,train
309,-2.7292404174804688,-2.0,2021-01-21 19:51:25.278000+00:00,train
310,-2.6940367221832275,-2.0,2021-01-21 19:51:55.278000+00:00,train
311,-2.66184663772583,-2.0,2021-01-21 19:52:25.278000+00:00,train
312,-2.6319947242736816,-2.0,2021-01-21 19:52:55.278000+00:00,train
313,-2.604036569595337,-2.0,2021-01-21 19:53:25.278000+00:00,train
314,-2.5776607990264893,-2.0,2021-01-21 19:53:55.278000+00:00,train
315,-2.5526397228240967,-2.0,2021-01-21 19:54:25.278000+00:00,train
316,-2.5287997722625732,-2.0,2021-01-21 19:54:55.278000+00:00,train
317,-2.3300182819366455,-2.0,2021-01-21 19:55:25.278000+00:00,train
318,-2.3025693893432617,-2.0,2021-01-21 19:55:55.278000+00:00,train
319,-2.276425361633301,-2.0,2021-01-21 19:56:25.278000+00:00,train
320,-2.2514936923980713,-2.0,2021-01-21 19:56:55.278000+00:00,train
321,-2.2277028560638428,-2.0,2021-01-21 19:57:25.278000+00:00,train
322,-2.205021381378174,-2.0,2021-01-21 19:57:55.278000+00:00,train
323,-2.183398962020874,-2.0,2021-01-21 19:58:25.278000+00:00,train
324,-2.162836790084839,-2.0,2021-01-21 19:58:55.278000+00:00,train
325,-2.143378496170044,-2.0,2021-01-21 19:59:25.278000+00:00,train
326,-2.1251444816589355,-2.0,2021-01-21 19:59:55.278000+00:00,train
327,-2.108416795730591,-2.0,2021-01-21 20:00:25.278000+00:00,train
328,-2.0938193798065186,-2.0,2021-01-21 20:00:55.278000+00:00,train
329,-2.082789659500122,-2.0,2021-01-21 20:01:25.278000+00:00,train
330,-2.0777599811553955,-2.0,2021-01-21 20:01:55.278000+00:00,train
331,-2.079084873199463,-2.0,2021-01-21 20:02:25.278000+00:00,train
332,-2.0804665088653564,-2.0,2021-01-21 20:02:55.278000+00:00,train
333,-2.077517032623291,-2.0,2021-01-21 20:03:25.278000+00:00,train
334,-2.0708167552948,-2.0,2021-01-21 20:03:55.278000+00:00,train
335,-2.062532663345337,-2.0,2021-01-21 20:04:25.278000+00:00,train
336,-2.0537257194519043,-2.0,2021-01-21 20:04:55.278000+00:00,train
337,-2.0449044704437256,-2.0,2021-01-21 20:05:25.278000+00:00,train
338,-2.0363144874572754,-2.0,2021-01-21 20:05:55.278000+00:00,train
339,-2.0280802249908447,-2.0,2021-01-21 20:06:25.278000+00:00,train
340,-2.0202550888061523,-2.0,2021-01-21 20:06:55.278000+00:00,train
341,-2.012887954711914,-2.0,2021-01-21 20:07:25.278000+00:00,train
342,-2.005995750427246,-2.0,2021-01-21 20:07:55.278000+00:00,train
343,-1.9995877742767334,-2.0,2021-01-21 20:08:25.278000+00:00,train
344,-1.9936676025390625,-2.0,2021-01-21 20:08:55.278000+00:00,train
345,-1.9882160425186157,-2.0,2021-01-21 20:09:25.278000+00:00,train
346,-1.9832475185394287,-2.0,2021-01-21 20:09:55.278000+00:00,train
347,-1.9787530899047852,-2.0,2021-01-21 20:10:25.278000+00:00,train
348,-1.9747207164764404,-2.0,2021-01-21 20:10:55.278000+00:00,train
349,-1.9711337089538574,-2.0,2021-01-21 20:11:25.278000+00:00,train
350,-1.9679718017578125,-2.0,2021-01-21 20:11:55.278000+00:00,train
351,-1.9653688669204712,-2.0,2021-01-21 20:12:25.278000+00:00,train
352,-1.9631072282791138,-2.0,2021-01-21 20:12:55.278000+00:00,train
353,-1.9611589908599854,-2.0,2021-01-21 20:13:25.278000+00:00,train
354,-1.9594959020614624,-2.0,2021-01-21 20:13:55.278000+00:00,train
355,-1.9580881595611572,-2.0,2021-01-21 20:14:25.278000+00:00,train
356,-1.956907868385315,-2.0,2021-01-21 20:14:55.278000+00:00,train
357,-1.9559077024459839,-2.0,2021-01-21 20:15:25.278000+00:00,train
358,-1.9550886154174805,-2.0,2021-01-21 20:15:55.278000+00:00,train
359,-1.9544312953948975,-2.0,2021-01-21 20:16:25.278000+00:00,train
360,-1.9539204835891724,-2.0,2021-01-21 20:16:55.278000+00:00,train
361,-1.9535444974899292,-2.0,2021-01-21 20:17:25.278000+00:00,train
362,-1.953282117843628,-2.0,2021-01-21 20:17:55.278000+00:00,train
363,-1.9531432390213013,-2.0,2021-01-21 20:18:25.278000+00:00,train
364,-1.9531223773956299,-2.0,2021-01-21 20:18:55.278000+00:00,train
365,-1.9532147645950317,-2.0,2021-01-21 20:19:25.278000+00:00,train
366,-1.9534162282943726,-2.0,2021-01-21 20:19:55.278000+00:00,train
367,-1.9537241458892822,-2.0,2021-01-21 20:20:25.278000+00:00,train
368,-1.9541746377944946,-2.0,2021-01-21 20:20:55.278000+00:00,train
369,-1.9547091722488403,-2.0,2021-01-21 20:21:25.278000+00:00,train
370,-1.9553282260894775,-2.0,2021-01-21 20:21:55.278000+00:00,train
371,-1.956031322479248,-2.0,2021-01-21 20:22:25.278000+00:00,train
372,-1.9568148851394653,-2.0,2021-01-21 20:22:55.278000+00:00,train
373,-1.957675814628601,-2.0,2021-01-21 20:23:25.278000+00:00,train
374,-1.9585380554199219,-2.0,2021-01-21 20:23:55.278000+00:00,train
375,-1.9594907760620117,-2.0,2021-01-21 20:24:25.278000+00:00,train
376,-1.960520625114441,-2.0,2021-01-21 20:24:55.278000+00:00,train
377,-1.9616111516952515,-2.0,2021-01-21 20:25:25.278000+00:00,train
378,-1.9627526998519897,-2.0,2021-01-21 20:25:55.278000+00:00,train
379,-1.9639331102371216,-2.0,2021-01-21 20:26:25.278000+00:00,train
380,-1.9651399850845337,-2.0,2021-01-21 20:26:55.278000+00:00,train
381,-1.9663619995117188,-2.0,2021-01-21 20:27:25.278000+00:00,train
382,-1.9675869941711426,-2.0,2021-01-21 20:27:55.278000+00:00,train
383,-1.96880304813385,-2.0,2021-01-21 20:28:25.278000+00:00,train
384,-1.9699996709823608,-2.0,2021-01-21 20:28:55.278000+00:00,train
385,-1.9711655378341675,-2.0,2021-01-21 20:29:25.278000+00:00,train
386,-1.9722892045974731,-2.0,2021-01-21 20:29:55.278000+00:00,train
387,-1.9733595848083496,-2.0,2021-01-21 20:30:25.278000+00:00,train
388,-1.974364995956421,-2.0,2021-01-21 20:30:55.278000+00:00,train
389,-1.9752964973449707,-2.0,2021-01-21 20:31:25.278000+00:00,train
390,-1.9761446714401245,-2.0,2021-01-21 20:31:55.278000+00:00,train
391,-1.976900577545166,-2.0,2021-01-21 20:32:25.278000+00:00,train
392,-1.9775573015213013,-2.0,2021-01-21 20:32:55.278000+00:00,train
393,-1.9781086444854736,-2.0,2021-01-21 20:33:25.278000+00:00,train
394,-1.9785517454147339,-2.0,2021-01-21 20:33:55.278000+00:00,train
395,-1.978886604309082,-2.0,2021-01-21 20:34:25.278000+00:00,train
396,-1.979117512702942,-2.0,2021-01-21 20:34:55.278000+00:00,train
397,-1.9792543649673462,-2.0,2021-01-21 20:35:25.278000+00:00,train
398,-1.9793158769607544,-2.0,2021-01-21 20:35:55.278000+00:00,train
399,-1.9793347120285034,-2.0,2021-01-21 20:36:25.278000+00:00,train
400,-1.9793685674667358,-2.0,2021-01-21 20:36:55.278000+00:00,train
401,-1.979508399963379,-2.0,2021-01-21 20:37:25.278000+00:00,train
402,-1.9799296855926514,-2.0,2021-01-21 20:37:55.278000+00:00,train
403,-1.981002688407898,-2.0,2021-01-21 20:38:25.278000+00:00,train
404,-1.9837524890899658,-2.0,2021-01-21 20:38:55.278000+00:00,train
405,-2.0,-2.0,2021-01-21 20:39:25.278000+00:00,train
406,-2.0,-2.0,2021-01-21 20:39:55.278000+00:00,train
407,-2.0,-2.0,2021-01-21 20:40:25.278000+00:00,train
408,-2.0,-2.0,2021-01-21 20:40:55.278000+00:00,train
409,-2.0,-2.0,2021-01-21 20:41:25.278000+00:00,train
410,-2.0,-2.0,2021-01-21 20:41:55.278000+00:00,train
411,-2.0,-2.0,2021-01-21 20:42:25.278000+00:00,train
412,-2.0,-2.0,2021-01-21 20:42:55.278000+00:00,train
413,-2.0,-2.0,2021-01-21 20:43:25.278000+00:00,train
414,-2.0,-2.0,2021-01-21 20:43:55.278000+00:00,train
415,-2.0,-2.0,2021-01-21 20:44:25.278000+00:00,train
416,-2.0,-2.0,2021-01-21 20:44:55.278000+00:00,train
417,-2.0,-2.0,2021-01-21 20:45:25.278000+00:00,train
418,-2.0,-2.0,2021-01-21 20:45:55.278000+00:00,train
419,-2.0,-2.0,2021-01-21 20:46:25.278000+00:00,train
420,-2.0,-2.0,2021-01-21 20:46:55.278000+00:00,train
421,-2.0,-2.0,2021-01-21 20:47:25.278000+00:00,train
422,-2.0,-2.0,2021-01-21 20:47:55.278000+00:00,train
423,-2.0,-2.0,2021-01-21 20:48:25.278000+00:00,train
424,-2.0,-2.0,2021-01-21 20:48:55.278000+00:00,train
425,-2.0,-2.0,2021-01-21 20:49:25.278000+00:00,train
426,-2.0,-2.0,2021-01-21 20:49:55.278000+00:00,train
427,-2.0,-2.0,2021-01-21 20:50:25.278000+00:00,train
428,-2.0,-2.0,2021-01-21 20:50:55.278000+00:00,train
429,-2.0,-2.0,2021-01-21 20:51:25.278000+00:00,train
430,-2.0,-2.0,2021-01-21 20:51:55.278000+00:00,train
431,-2.0,-2.0,2021-01-21 20:52:25.278000+00:00,train
432,-2.0,-2.0,2021-01-21 20:52:55.278000+00:00,train
433,-2.0,-2.0,2021-01-21 20:53:25.278000+00:00,train
434,-2.0,-2.0,2021-01-21 20:53:55.278000+00:00,train
435,-2.0,-2.0,2021-01-21 20:54:25.278000+00:00,train
436,-2.0,-2.0,2021-01-21 20:54:55.278000+00:00,train
437,-2.0,-2.0,2021-01-21 20:55:25.278000+00:00,train
438,-2.0,-2.0,2021-01-21 20:55:55.278000+00:00,train
439,-2.0,-2.0,2021-01-21 20:56:25.278000+00:00,train
440,-2.0,-2.0,2021-01-21 20:56:55.278000+00:00,train
441,-2.0,-2.0,2021-01-21 20:57:25.278000+00:00,train
442,-2.0,-2.0,2021-01-21 20:57:55.278000+00:00,train
443,-2.0,-2.0,2021-01-21 20:58:25.278000+00:00,train
444,-2.0,-2.0,2021-01-21 20:58:55.278000+00:00,train
445,-2.0,-2.0,2021-01-21 20:59:25.278000+00:00,train
446,-2.0,-2.0,2021-01-21 20:59:55.278000+00:00,train
447,-2.0,-2.0,2021-01-21 21:00:25.278000+00:00,train
448,-2.0,0.0,2021-01-21 21:00:55.278000+00:00,train
449,-2.0,-2.0,2021-01-21 21:01:25.278000+00:00,train
450,-2.0,-2.0,2021-01-21 21:01:55.278000+00:00,train
451,-2.0,-2.0,2021-01-21 21:02:25.278000+00:00,train
452,-2.0,-2.0,2021-01-21 21:02:55.278000+00:00,train
453,-2.0,-2.0,2021-01-21 21:03:25.278000+00:00,train
454,-2.0,-2.0,2021-01-21 21:03:55.278000+00:00,train
455,-2.0,-2.0,2021-01-21 21:04:25.278000+00:00,train
456,-2.0,-2.0,2021-01-21 21:04:55.278000+00:00,train
457,-2.0,-2.0,2021-01-21 21:05:25.278000+00:00,train
458,-2.0,-2.0,2021-01-21 21:05:55.278000+00:00,train
459,-2.0114991664886475,-2.0,2021-01-21 21:06:25.278000+00:00,train
460,-2.0118207931518555,-2.0,2021-01-21 21:06:55.278000+00:00,train
461,-2.012105941772461,-2.0,2021-01-21 21:07:25.278000+00:00,train
462,-2.012356758117676,-2.0,2021-01-21 21:07:55.278000+00:00,train
463,-2.0125746726989746,-2.0,2021-01-21 21:08:25.278000+00:00,train
464,-2.0127599239349365,-2.0,2021-01-21 21:08:55.278000+00:00,train
465,-2.012913703918457,-2.0,2021-01-21 21:09:25.278000+00:00,train
466,-2.013036012649536,-2.0,2021-01-21 21:09:55.278000+00:00,train
467,-2.0131278038024902,-2.0,2021-01-21 21:10:25.278000+00:00,train
468,-2.0131900310516357,-2.0,2021-01-21 21:10:55.278000+00:00,train
469,-2.0132226943969727,-2.0,2021-01-21 21:11:25.278000+00:00,train
470,-2.0132265090942383,-2.0,2021-01-21 21:11:55.278000+00:00,train
471,-2.013202428817749,-2.0,2021-01-21 21:12:25.278000+00:00,train
472,-2.013151168823242,-2.0,2021-01-21 21:12:55.278000+00:00,train
473,-2.0130727291107178,-2.0,2021-01-21 21:13:25.278000+00:00,train
474,-2.012967824935913,-2.0,2021-01-21 21:13:55.278000+00:00,train
475,-2.0128374099731445,-2.0,2021-01-21 21:14:25.278000+00:00,train
476,-2.012681484222412,-2.0,2021-01-21 21:14:55.278000+00:00,train
477,-2.0125014781951904,-2.0,2021-01-21 21:15:25.278000+00:00,train
478,-2.0122971534729004,-2.0,2021-01-21 21:15:55.278000+00:00,train
479,-2.0120692253112793,-2.0,2021-01-21 21:16:25.278000+00:00,train
480,-2.0118188858032227,-2.0,2021-01-21 21:16:55.278000+00:00,train
481,-2.0115461349487305,-2.0,2021-01-21 21:17:25.278000+00:00,train
482,-2.01125168800354,-2.0,2021-01-21 21:17:55.278000+00:00,train
483,-2.0109360218048096,-2.0,2021-01-21 21:18:25.278000+00:00,train
484,-2.0106003284454346,-2.0,2021-01-21 21:18:55.278000+00:00,train
485,-2.010244369506836,-2.0,2021-01-21 21:19:25.278000+00:00,train
486,-2.00986909866333,-2.0,2021-01-21 21:19:55.278000+00:00,train
487,-2.009474992752075,-2.0,2021-01-21 21:20:25.278000+00:00,train
488,-2.0090630054473877,-2.0,2021-01-21 21:20:55.278000+00:00,train
489,-2.0086328983306885,-2.0,2021-01-21 21:21:25.278000+00:00,train
490,-2.008185863494873,-2.0,2021-01-21 21:21:55.278000+00:00,train
491,-2.0077221393585205,-2.0,2021-01-21 21:22:25.278000+00:00,train
492,-2.007242441177368,-2.0,2021-01-21 21:22:55.278000+00:00,train
493,-2.006747245788574,-2.0,2021-01-21 21:23:25.278000+00:00,train
494,-2.0062367916107178,-2.0,2021-01-21 21:23:55.278000+00:00,train
495,-2.0057122707366943,-2.0,2021-01-21 21:24:25.278000+00:00,train
496,-2.0051732063293457,-2.0,2021-01-21 21:24:55.278000+00:00,train
497,-2.0046207904815674,-2.0,2021-01-21 21:25:25.278000+00:00,train
498,-2.0040552616119385,-2.0,2021-01-21 21:25:55.278000+00:00,train
499,-2.003477096557617,-2.0,2021-01-21 21:26:25.278000+00:00,train
500,-2.0028867721557617,-2.0,2021-01-21 21:26:55.278000+00:00,train
501,-2.0022847652435303,-2.0,2021-01-21 21:27:25.278000+00:00,train
502,-2.001671314239502,-2.0,2021-01-21 21:27:55.278000+00:00,train
503,-2.001046895980835,-2.0,2021-01-21 21:28:25.278000+00:00,train
504,-2.0004122257232666,-2.0,2021-01-21 21:28:55.278000+00:00,train
505,-1.9997671842575073,-2.0,2021-01-21 21:29:25.278000+00:00,train
506,-1.9991124868392944,-2.0,2021-01-21 21:29:55.278000+00:00,train
507,-1.9984482526779175,-2.0,2021-01-21 21:30:25.278000+00:00,train
508,-1.9977750778198242,-2.0,2021-01-21 21:30:55.278000+00:00,train
509,-1.9970929622650146,-2.0,2021-01-21 21:31:25.278000+00:00,train
510,-1.9964025020599365,-2.0,2021-01-21 21:31:55.278000+00:00,train
511,-1.9957035779953003,-2.0,2021-01-21 21:32:25.278000+00:00,train
512,-1.9949969053268433,-2.0,2021-01-21 21:32:55.278000+00:00,train
513,-1.9942824840545654,-2.0,2021-01-21 21:33:25.278000+00:00,train
514,-1.9935616254806519,-2.0,2021-01-21 21:33:55.278000+00:00,train
515,-1.9928345680236816,-2.0,2021-01-21 21:34:25.278000+00:00,train
516,-1.9921015501022339,-2.0,2021-01-21 21:34:55.278000+00:00,train
517,-1.9913626909255981,-2.0,2021-01-21 21:35:25.278000+00:00,train
518,-1.9906179904937744,-2.0,2021-01-21 21:35:55.278000+00:00,train
519,-1.9898676872253418,-2.0,2021-01-21 21:36:25.278000+00:00,train
520,-1.9891138076782227,-2.0,2021-01-21 21:36:55.278000+00:00,train
521,-1.988356590270996,-2.0,2021-01-21 21:37:25.278000+00:00,train
522,-1.987595796585083,-2.0,2021-01-21 21:37:55.278000+00:00,train
523,-1.9868303537368774,-2.0,2021-01-21 21:38:25.278000+00:00,train
524,-1.9860597848892212,-2.0,2021-01-21 21:38:55.278000+00:00,train
525,-1.9852824211120605,-2.0,2021-01-21 21:39:25.278000+00:00,train
526,-1.9844962358474731,-2.0,2021-01-21 21:39:55.278000+00:00,train
527,-1.9836980104446411,-2.0,2021-01-21 21:40:25.278000+00:00,train
528,-1.982879877090454,-2.0,2021-01-21 21:40:55.278000+00:00,train
529,-1.9820353984832764,-2.0,2021-01-21 21:41:25.278000+00:00,train
530,-1.9811478853225708,-2.0,2021-01-21 21:41:55.278000+00:00,train
531,-1.9801843166351318,-2.0,2021-01-21 21:42:25.278000+00:00,train
532,-1.97907555103302,-2.0,2021-01-21 21:42:55.278000+00:00,train
533,-1.9776504039764404,-2.0,2021-01-21 21:43:25.278000+00:00,train
534,-1.9754430055618286,-2.0,2021-01-21 21:43:55.278000+00:00,train
535,-1.9710159301757812,-2.0,2021-01-21 21:44:25.278000+00:00,train
536,-1.9614089727401733,-2.0,2021-01-21 21:44:55.278000+00:00,train
537,-1.948643684387207,-2.0,2021-01-21 21:45:25.278000+00:00,train
538,-1.940102219581604,-2.0,2021-01-21 21:45:55.278000+00:00,train
539,-1.9353851079940796,-2.0,2021-01-21 21:46:25.278000+00:00,train
540,-1.9323376417160034,-2.0,2021-01-21 21:46:55.278000+00:00,train
541,-1.9300123453140259,-2.0,2021-01-21 21:47:25.278000+00:00,train
542,-1.928030252456665,-2.0,2021-01-21 21:47:55.278000+00:00,train
543,-1.9262267351150513,-2.0,2021-01-21 21:48:25.278000+00:00,train
544,-1.9245216846466064,-2.0,2021-01-21 21:48:55.278000+00:00,train
545,-1.9228730201721191,-2.0,2021-01-21 21:49:25.278000+00:00,train
546,-1.9212497472763062,-2.0,2021-01-21 21:49:55.278000+00:00,train
547,-1.919634461402893,-2.0,2021-01-21 21:50:25.278000+00:00,train
548,-1.918013572692871,-2.0,2021-01-21 21:50:55.278000+00:00,train
549,-1.9163775444030762,-2.0,2021-01-21 21:51:25.278000+00:00,train
550,-1.9147130250930786,-2.0,2021-01-21 21:51:55.278000+00:00,train
551,-1.9130322933197021,-2.0,2021-01-21 21:52:25.278000+00:00,train
552,-1.91133713722229,-2.0,2021-01-21 21:52:55.278000+00:00,train
553,-1.9096370935440063,-2.0,2021-01-21 21:53:25.278000+00:00,train
554,-1.9079481363296509,-2.0,2021-01-21 21:53:55.278000+00:00,train
555,-1.9062902927398682,-2.0,2021-01-21 21:54:25.278000+00:00,train
556,-1.9046862125396729,-2.0,2021-01-21 21:54:55.278000+00:00,train
557,-1.9031555652618408,-2.0,2021-01-21 21:55:25.278000+00:00,train
558,-1.9017188549041748,-2.0,2021-01-21 21:55:55.278000+00:00,train
559,-2.0,-1.0,2021-01-21 21:56:25.278000+00:00,train
560,-2.0,-2.0,2021-01-21 21:56:55.278000+00:00,train
561,-2.0,-2.0,2021-01-21 21:57:25.278000+00:00,train
562,-2.0,-2.0,2021-01-21 21:57:55.278000+00:00,train
563,-2.0,-2.0,2021-01-21 21:58:25.278000+00:00,train
564,-2.0,-2.0,2021-01-21 21:58:55.278000+00:00,train
565,-2.0,-2.0,2021-01-21 21:59:25.278000+00:00,train
566,-2.0,-1.0,2021-01-21 21:59:55.278000+00:00,train
567,-2.0,-1.0,2021-01-21 22:00:25.278000+00:00,train
568,-2.0,0.0,2021-01-21 22:00:55.278000+00:00,train
569,-2.0,-1.0,2021-01-21 22:01:25.278000+00:00,train
570,-1.9454329013824463,-1.0,2021-01-21 22:01:55.278000+00:00,train
571,-1.945139765739441,-1.0,2021-01-21 22:02:25.278000+00:00,train
572,-1.9448626041412354,-1.0,2021-01-21 22:02:55.278000+00:00,train
573,-1.9445977210998535,-1.0,2021-01-21 22:03:25.278000+00:00,train
574,-1.9443445205688477,-1.0,2021-01-21 22:03:55.278000+00:00,train
575,-1.944102168083191,-1.0,2021-01-21 22:04:25.278000+00:00,train
576,-1.9438698291778564,-1.0,2021-01-21 22:04:55.278000+00:00,train
577,-1.9147613048553467,-1.0,2021-01-21 22:05:25.278000+00:00,train
578,-1.8901208639144897,-1.0,2021-01-21 22:05:55.278000+00:00,train
579,-1.8270502090454102,-1.0,2021-01-21 22:06:25.278000+00:00,train
580,-1.8087348937988281,-1.0,2021-01-21 22:06:55.278000+00:00,train
581,-1.7909603118896484,-1.0,2021-01-21 22:07:25.278000+00:00,train
582,-1.7736454010009766,-1.0,2021-01-21 22:07:55.278000+00:00,train
583,-1.7567392587661743,-1.0,2021-01-21 22:08:25.278000+00:00,train
584,-1.7401995658874512,-1.0,2021-01-21 22:08:55.278000+00:00,train
585,-1.723989725112915,-1.0,2021-01-21 22:09:25.278000+00:00,train
586,-1.708079218864441,-1.0,2021-01-21 22:09:55.278000+00:00,train
587,-1.6924428939819336,-1.0,2021-01-21 22:10:25.278000+00:00,train
588,-1.677059292793274,-1.0,2021-01-21 22:10:55.278000+00:00,train
589,-1.6619104146957397,-1.0,2021-01-21 22:11:25.278000+00:00,train
590,-1.6469815969467163,-1.0,2021-01-21 22:11:55.278000+00:00,train
591,-1.6322593688964844,-1.0,2021-01-21 22:12:25.278000+00:00,train
592,-1.6177284717559814,-1.0,2021-01-21 22:12:55.278000+00:00,train
593,-1.603381872177124,-1.0,2021-01-21 22:13:25.278000+00:00,train
594,-1.5892095565795898,-1.0,2021-01-21 22:13:55.278000+00:00,train
595,-1.5752015113830566,-1.0,2021-01-21 22:14:25.278000+00:00,train
596,-1.5613526105880737,-1.0,2021-01-21 22:14:55.278000+00:00,train
597,-1.547656774520874,-1.0,2021-01-21 22:15:25.278000+00:00,train
598,-1.534109115600586,-1.0,2021-01-21 22:15:55.278000+00:00,train
599,-1.5207045078277588,-1.0,2021-01-21 22:16:25.278000+00:00,train
600,-1.5074362754821777,-1.0,2021-01-21 22:16:55.278000+00:00,train
601,-1.4943116903305054,-1.0,2021-01-21 22:17:25.278000+00:00,train
602,-1.4813233613967896,-1.0,2021-01-21 22:17:55.278000+00:00,train
603,-1.4684638977050781,-1.0,2021-01-21 22:18:25.278000+00:00,train
604,-1.455733060836792,-1.0,2021-01-21 22:18:55.278000+00:00,train
605,-1.4431287050247192,-1.0,2021-01-21 22:19:25.278000+00:00,train
606,-1.430645227432251,-1.0,2021-01-21 22:19:55.278000+00:00,train
607,-1.4182801246643066,-1.0,2021-01-21 22:20:25.278000+00:00,train
608,-1.4060310125350952,-1.0,2021-01-21 22:20:55.278000+00:00,train
609,-1.393896222114563,-1.0,2021-01-21 22:21:25.278000+00:00,train
610,-1.381874442100525,-1.0,2021-01-21 22:21:55.278000+00:00,train
611,-1.3699636459350586,-1.0,2021-01-21 22:22:25.278000+00:00,train
612,-1.3581628799438477,-1.0,2021-01-21 22:22:55.278000+00:00,train
613,-1.3464710712432861,-1.0,2021-01-21 22:23:25.278000+00:00,train
614,-1.3348872661590576,-1.0,2021-01-21 22:23:55.278000+00:00,train
615,-1.3234083652496338,-1.0,2021-01-21 22:24:25.278000+00:00,train
616,-1.3120348453521729,-1.0,2021-01-21 22:24:55.278000+00:00,train
617,-1.3007664680480957,-1.0,2021-01-21 22:25:25.278000+00:00,train
618,-1.2896032333374023,-1.0,2021-01-21 22:25:55.278000+00:00,train
619,-1.2785452604293823,-1.0,2021-01-21 22:26:25.278000+00:00,train
620,-1.2675927877426147,-1.0,2021-01-21 22:26:55.278000+00:00,train
621,-1.2567455768585205,-1.0,2021-01-21 22:27:25.278000+00:00,train
622,-1.2460033893585205,-1.0,2021-01-21 22:27:55.278000+00:00,train
623,-1.2353664636611938,-1.0,2021-01-21 22:28:25.278000+00:00,train
624,-1.22483491897583,-1.0,2021-01-21 22:28:55.278000+00:00,train
625,-1.2144092321395874,-1.0,2021-01-21 22:29:25.278000+00:00,train
626,-1.2040892839431763,-1.0,2021-01-21 22:29:55.278000+00:00,train
627,-1.1938761472702026,-1.0,2021-01-21 22:30:25.278000+00:00,train
628,-1.1837732791900635,-1.0,2021-01-21 22:30:55.278000+00:00,train
629,-1.173779010772705,-1.0,2021-01-21 22:31:25.278000+00:00,train
630,-1.1638944149017334,-1.0,2021-01-21 22:31:55.278000+00:00,train
631,-1.1541200876235962,-1.0,2021-01-21 22:32:25.278000+00:00,train
632,-1.1444581747055054,-1.0,2021-01-21 22:32:55.278000+00:00,train
633,-1.134909749031067,-1.0,2021-01-21 22:33:25.278000+00:00,train
634,-1.125475525856018,-1.0,2021-01-21 22:33:55.278000+00:00,train
635,-1.1161575317382812,-1.0,2021-01-21 22:34:25.278000+00:00,train
636,-1.1069576740264893,-1.0,2021-01-21 22:34:55.278000+00:00,train
637,-1.0978755950927734,-1.0,2021-01-21 22:35:25.278000+00:00,train
638,-1.088913917541504,-1.0,2021-01-21 22:35:55.278000+00:00,train
639,-1.0800750255584717,-1.0,2021-01-21 22:36:25.278000+00:00,train
640,-1.0713624954223633,-1.0,2021-01-21 22:36:55.278000+00:00,train
641,-1.062779426574707,-1.0,2021-01-21 22:37:25.278000+00:00,train
642,-1.0543287992477417,-1.0,2021-01-21 22:37:55.278000+00:00,train
643,-1.046014666557312,-1.0,2021-01-21 22:38:25.278000+00:00,train
644,-1.0378402471542358,-1.0,2021-01-21 22:38:55.278000+00:00,train
645,-1.0298086404800415,-1.0,2021-01-21 22:39:25.278000+00:00,train
646,-1.0219244956970215,-1.0,2021-01-21 22:39:55.278000+00:00,train
647,-1.0141916275024414,-1.0,2021-01-21 22:40:25.278000+00:00,train
648,-1.0066149234771729,-1.0,2021-01-21 22:40:55.278000+00:00,train
649,-0.9992002844810486,-1.0,2021-01-21 22:41:25.278000+00:00,train
650,-0.9919569492340088,-1.0,2021-01-21 22:41:55.278000+00:00,train
651,-0.98488849401474,-1.0,2021-01-21 22:42:25.278000+00:00,train
652,-0.9780021905899048,-1.0,2021-01-21 22:42:55.278000+00:00,train
653,-0.9713059067726135,-1.0,2021-01-21 22:43:25.278000+00:00,train
654,-0.9648091197013855,-1.0,2021-01-21 22:43:55.278000+00:00,train
655,-0.9585215449333191,-1.0,2021-01-21 22:44:25.278000+00:00,train
656,-0.9524532556533813,-1.0,2021-01-21 22:44:55.278000+00:00,train
657,-0.9466175436973572,-1.0,2021-01-21 22:45:25.278000+00:00,train
658,-0.9410287141799927,-1.0,2021-01-21 22:45:55.278000+00:00,train
659,-0.9357025623321533,-1.0,2021-01-21 22:46:25.278000+00:00,train
660,-0.9306545853614807,-1.0,2021-01-21 22:46:55.278000+00:00,train
661,-0.9259079098701477,-1.0,2021-01-21 22:47:25.278000+00:00,train
662,-0.9214886426925659,-1.0,2021-01-21 22:47:55.278000+00:00,train
663,-0.917426586151123,-1.0,2021-01-21 22:48:25.278000+00:00,train
664,-0.9137572646141052,-1.0,2021-01-21 22:48:55.278000+00:00,train
665,-0.9105234742164612,-1.0,2021-01-21 22:49:25.278000+00:00,train
666,-0.9077779054641724,-1.0,2021-01-21 22:49:55.278000+00:00,train
667,-0.9055850505828857,-1.0,2021-01-21 22:50:25.278000+00:00,train
668,-0.904029369354248,-1.0,2021-01-21 22:50:55.278000+00:00,train
669,-0.9032220244407654,-1.0,2021-01-21 22:51:25.278000+00:00,train
670,-0.903040885925293,-1.0,2021-01-21 22:51:55.278000+00:00,train
671,-0.9031465649604797,-1.0,2021-01-21 22:52:25.278000+00:00,train
672,-0.9043741822242737,-1.0,2021-01-21 22:52:55.278000+00:00,train
673,-0.9070556163787842,-1.0,2021-01-21 22:53:25.278000+00:00,train
674,-0.9117529392242432,-1.0,2021-01-21 22:53:55.278000+00:00,train
675,-0.9195645451545715,-1.0,2021-01-21 22:54:25.278000+00:00,train
676,-0.933355450630188,-1.0,2021-01-21 22:54:55.278000+00:00,train
677,-0.9332926273345947,-1.0,2021-01-21 22:55:25.278000+00:00,train
678,-0.9332334995269775,-1.0,2021-01-21 22:55:55.278000+00:00,train
679,-1.0,-1.0,2021-01-21 22:56:25.278000+00:00,train
680,-1.0,-1.0,2021-01-21 22:56:55.278000+00:00,train
681,-1.0,-1.0,2021-01-21 22:57:25.278000+00:00,train
682,-1.0,-1.0,2021-01-21 22:57:55.278000+00:00,train
683,-1.0,-1.0,2021-01-21 22:58:25.278000+00:00,train
684,-1.0,-1.0,2021-01-21 22:58:55.278000+00:00,train
685,-1.0,-1.0,2021-01-21 22:59:25.278000+00:00,train
686,-1.0,-1.0,2021-01-21 22:59:55.278000+00:00,train
687,-1.0,-1.0,2021-01-21 23:00:25.278000+00:00,train
688,-1.0,0.0,2021-01-21 23:00:55.278000+00:00,train
689,-1.0,-1.0,2021-01-21 23:01:25.278000+00:00,train
690,-1.0,-1.0,2021-01-21 23:01:55.278000+00:00,train
691,-1.0,-1.0,2021-01-21 23:02:25.278000+00:00,train
692,-1.0,-1.0,2021-01-21 23:02:55.278000+00:00,train
693,-1.0,-1.0,2021-01-21 23:03:25.278000+00:00,train
694,-1.0,-1.0,2021-01-21 23:03:55.278000+00:00,train
695,-1.0,-1.0,2021-01-21 23:04:25.278000+00:00,train
696,-1.0,-1.0,2021-01-21 23:04:55.278000+00:00,train
697,-1.0,-1.0,2021-01-21 23:05:25.278000+00:00,train
698,-1.0,-1.0,2021-01-21 23:05:55.278000+00:00,train
699,-0.9316524267196655,-1.0,2021-01-21 23:06:25.278000+00:00,train
700,-0.9316139221191406,-1.0,2021-01-21 23:06:55.278000+00:00,train
701,-0.9315724968910217,-1.0,2021-01-21 23:07:25.278000+00:00,train
702,-0.9315269589424133,-1.0,2021-01-21 23:07:55.278000+00:00,train
703,-0.9314781427383423,-1.0,2021-01-21 23:08:25.278000+00:00,train
704,-0.9314277172088623,-1.0,2021-01-21 23:08:55.278000+00:00,train
705,-0.9313762784004211,-1.0,2021-01-21 23:09:25.278000+00:00,train
706,-0.9313331842422485,-1.0,2021-01-21 23:09:55.278000+00:00,train
707,-0.9312903881072998,-1.0,2021-01-21 23:10:25.278000+00:00,train
708,-0.9312472939491272,-1.0,2021-01-21 23:10:55.278000+00:00,train
709,-0.9312034249305725,-1.0,2021-01-21 23:11:25.278000+00:00,train
710,-0.9311585426330566,-1.0,2021-01-21 23:11:55.278000+00:00,train
711,-0.9311124086380005,-1.0,2021-01-21 23:12:25.278000+00:00,train
712,-0.9310651421546936,-1.0,2021-01-21 23:12:55.278000+00:00,train
713,-0.9310168027877808,-1.0,2021-01-21 23:13:25.278000+00:00,train
714,-0.9309689998626709,-1.0,2021-01-21 23:13:55.278000+00:00,train
715,-0.9309205412864685,-1.0,2021-01-21 23:14:25.278000+00:00,train
716,-0.9308714270591736,-1.0,2021-01-21 23:14:55.278000+00:00,train
717,-0.9308218359947205,-1.0,2021-01-21 23:15:25.278000+00:00,train
718,-0.9307716488838196,-1.0,2021-01-21 23:15:55.278000+00:00,train
719,-0.9307210445404053,-1.0,2021-01-21 23:16:25.278000+00:00,train
720,-0.9306697249412537,-1.0,2021-01-21 23:16:55.278000+00:00,train
721,-0.9306182861328125,-1.0,2021-01-21 23:17:25.278000+00:00,train
722,-0.9305666089057922,-1.0,2021-01-21 23:17:55.278000+00:00,train
723,-0.9305146336555481,-1.0,2021-01-21 23:18:25.278000+00:00,train
724,-0.9304623603820801,-1.0,2021-01-21 23:18:55.278000+00:00,train
725,-0.9304097890853882,-1.0,2021-01-21 23:19:25.278000+00:00,train
726,-0.930357038974762,-1.0,2021-01-21 23:19:55.278000+00:00,train
727,-0.9303041100502014,-1.0,2021-01-21 23:20:25.278000+00:00,train
728,-0.9302509427070618,-1.0,2021-01-21 23:20:55.278000+00:00,train
729,-0.9301977157592773,-1.0,2021-01-21 23:21:25.278000+00:00,train
730,-0.9301442503929138,-1.0,2021-01-21 23:21:55.278000+00:00,train
731,-0.9300904870033264,-1.0,2021-01-21 23:22:25.278000+00:00,train
732,-0.9300342202186584,-1.0,2021-01-21 23:22:55.278000+00:00,train
733,-0.9299773573875427,-1.0,2021-01-21 23:23:25.278000+00:00,train
734,-0.9299198985099792,-1.0,2021-01-21 23:23:55.278000+00:00,train
735,-0.9298619627952576,-1.0,2021-01-21 23:24:25.278000+00:00,train
736,-0.9298041462898254,-1.0,2021-01-21 23:24:55.278000+00:00,train
737,-0.9297474026679993,-1.0,2021-01-21 23:25:25.278000+00:00,train
738,-0.9296910166740417,-1.0,2021-01-21 23:25:55.278000+00:00,train
739,-0.929634690284729,-1.0,2021-01-21 23:26:25.278000+00:00,train
740,-0.9295783042907715,-1.0,2021-01-21 23:26:55.278000+00:00,train
741,-0.9295219779014587,-1.0,2021-01-21 23:27:25.278000+00:00,train
742,-0.9294655323028564,-1.0,2021-01-21 23:27:55.278000+00:00,train
743,-0.9294092059135437,-1.0,2021-01-21 23:28:25.278000+00:00,train
744,-0.929352879524231,-1.0,2021-01-21 23:28:55.278000+00:00,train
745,-0.9292965531349182,-1.0,2021-01-21 23:29:25.278000+00:00,train
746,-0.9292401671409607,-1.0,2021-01-21 23:29:55.278000+00:00,train
747,-0.9291837215423584,-1.0,2021-01-21 23:30:25.278000+00:00,train
748,-0.9291271567344666,-1.0,2021-01-21 23:30:55.278000+00:00,train
749,-0.9290707111358643,-1.0,2021-01-21 23:31:25.278000+00:00,train
750,-0.9290143847465515,-1.0,2021-01-21 23:31:55.278000+00:00,train
751,-0.9289578795433044,-1.0,2021-01-21 23:32:25.278000+00:00,train
752,-0.9289012551307678,-1.0,2021-01-21 23:32:55.278000+00:00,train
753,-0.9288443922996521,-1.0,2021-01-21 23:33:25.278000+00:00,train
754,-0.9287837743759155,-1.0,2021-01-21 23:33:55.278000+00:00,train
755,-0.9287229776382446,-1.0,2021-01-21 23:34:25.278000+00:00,train
756,-0.9286617040634155,-1.0,2021-01-21 23:34:55.278000+00:00,train
757,-0.928600013256073,-1.0,2021-01-21 23:35:25.278000+00:00,train
758,-0.9285383224487305,-1.0,2021-01-21 23:35:55.278000+00:00,train
759,-0.9284769892692566,-1.0,2021-01-21 23:36:25.278000+00:00,train
760,-0.9284166693687439,-1.0,2021-01-21 23:36:55.278000+00:00,train
761,-0.9283570051193237,-1.0,2021-01-21 23:37:25.278000+00:00,train
762,-0.9282973408699036,-1.0,2021-01-21 23:37:55.278000+00:00,train
763,-0.9282376170158386,-1.0,2021-01-21 23:38:25.278000+00:00,train
764,-0.9281777739524841,-1.0,2021-01-21 23:38:55.278000+00:00,train
765,-0.9281178116798401,-1.0,2021-01-21 23:39:25.278000+00:00,train
766,-0.9280581474304199,-1.0,2021-01-21 23:39:55.278000+00:00,train
767,-0.9279985427856445,-1.0,2021-01-21 23:40:25.278000+00:00,train
768,-0.9279387593269348,-1.0,2021-01-21 23:40:55.278000+00:00,train
769,-0.9278789162635803,-1.0,2021-01-21 23:41:25.278000+00:00,train
770,-0.9278189539909363,-1.0,2021-01-21 23:41:55.278000+00:00,train
771,-0.9277586936950684,-1.0,2021-01-21 23:42:25.278000+00:00,train
772,-0.9276987314224243,-1.0,2021-01-21 23:42:55.278000+00:00,train
773,-0.9276386499404907,-1.0,2021-01-21 23:43:25.278000+00:00,train
774,-0.9275782108306885,-1.0,2021-01-21 23:43:55.278000+00:00,train
775,-0.9275174736976624,-1.0,2021-01-21 23:44:25.278000+00:00,train
776,-0.9274560213088989,-1.0,2021-01-21 23:44:55.278000+00:00,train
777,-0.9273939728736877,-1.0,2021-01-21 23:45:25.278000+00:00,train
778,-0.9273321628570557,-1.0,2021-01-21 23:45:55.278000+00:00,train
779,-0.927270233631134,-1.0,2021-01-21 23:46:25.278000+00:00,train
780,-0.9272082448005676,-1.0,2021-01-21 23:46:55.278000+00:00,train
781,-0.9271463751792908,-1.0,2021-01-21 23:47:25.278000+00:00,train
782,-0.9270848035812378,-1.0,2021-01-21 23:47:55.278000+00:00,train
783,-0.9270198941230774,-1.0,2021-01-21 23:48:25.278000+00:00,train
784,-0.9269543886184692,-1.0,2021-01-21 23:48:55.278000+00:00,train
785,-0.9268884658813477,-1.0,2021-01-21 23:49:25.278000+00:00,train
786,-0.926822304725647,-1.0,2021-01-21 23:49:55.278000+00:00,train
787,-0.9267560839653015,-1.0,2021-01-21 23:50:25.278000+00:00,train
788,-0.9266901016235352,-1.0,2021-01-21 23:50:55.278000+00:00,train
789,-0.9266260266304016,-1.0,2021-01-21 23:51:25.278000+00:00,train
790,-0.9265639185905457,-1.0,2021-01-21 23:51:55.278000+00:00,train
791,-0.926503598690033,-1.0,2021-01-21 23:52:25.278000+00:00,train
792,-0.926444411277771,-1.0,2021-01-21 23:52:55.278000+00:00,train
793,-0.9263867139816284,-1.0,2021-01-21 23:53:25.278000+00:00,train
794,-0.9263314604759216,-1.0,2021-01-21 23:53:55.278000+00:00,train
795,-0.9262791275978088,-1.0,2021-01-21 23:54:25.278000+00:00,train
796,-0.9262272715568542,-1.0,2021-01-21 23:54:55.278000+00:00,train
797,-0.926173985004425,-1.0,2021-01-21 23:55:25.278000+00:00,train
798,-0.9261252284049988,-1.0,2021-01-21 23:55:55.278000+00:00,train
799,-1.0,-1.0,2021-01-21 23:56:25.278000+00:00,train
800,-1.0,-1.0,2021-01-21 23:56:55.278000+00:00,train
801,-1.0,-1.0,2021-01-21 23:57:25.278000+00:00,train
802,-1.0,-1.0,2021-01-21 23:57:55.278000+00:00,train
803,-1.0,-1.0,2021-01-21 23:58:25.278000+00:00,train
804,-1.0,-1.0,2021-01-21 23:58:55.278000+00:00,train
805,-1.0,-1.0,2021-01-21 23:59:25.278000+00:00,train
806,-1.0,-1.0,2021-01-21 23:59:55.278000+00:00,train
807,-1.0,-1.0,2021-01-22 00:00:25.278000+00:00,train
808,-1.0,-1.0,2021-01-22 00:00:55.278000+00:00,train
809,-1.0,-1.0,2021-01-22 00:01:25.278000+00:00,train
810,-1.0,-1.0,2021-01-22 00:01:55.278000+00:00,train
811,-1.0,-1.0,2021-01-22 00:02:25.278000+00:00,train
812,-1.0,-1.0,2021-01-22 00:02:55.278000+00:00,train
813,-1.0,-1.0,2021-01-22 00:03:25.278000+00:00,train
814,-1.0,-1.0,2021-01-22 00:03:55.278000+00:00,train
815,-1.0,-1.0,2021-01-22 00:04:25.278000+00:00,train
816,-1.0,-1.0,2021-01-22 00:04:55.278000+00:00,train
817,-1.0,-1.0,2021-01-22 00:05:25.278000+00:00,train
818,-1.0,-1.0,2021-01-22 00:05:55.278000+00:00,train
819,-1.0,-1.0,2021-01-22 00:06:25.278000+00:00,train
820,-1.0,-1.0,2021-01-22 00:06:55.278000+00:00,train
821,-1.0,-1.0,2021-01-22 00:07:25.278000+00:00,train
822,-1.0,-1.0,2021-01-22 00:07:55.278000+00:00,train
823,-1.0,-1.0,2021-01-22 00:08:25.278000+00:00,train
824,-1.0,-1.0,2021-01-22 00:08:55.278000+00:00,train
825,-1.0,-1.0,2021-01-22 00:09:25.278000+00:00,train
826,-1.0,-1.0,2021-01-22 00:09:55.278000+00:00,train
827,-1.0,-1.0,2021-01-22 00:10:25.278000+00:00,train
828,-1.0,-1.0,2021-01-22 00:10:55.278000+00:00,train
829,-1.0,-1.0,2021-01-22 00:11:25.278000+00:00,train
830,-1.0,-1.0,2021-01-22 00:11:55.278000+00:00,train
831,-1.0,-1.0,2021-01-22 00:12:25.278000+00:00,train
832,-1.0,-1.0,2021-01-22 00:12:55.278000+00:00,train
833,-1.0,-1.0,2021-01-22 00:13:25.278000+00:00,train
834,-1.0,-1.0,2021-01-22 00:13:55.278000+00:00,train
835,-1.0,-1.0,2021-01-22 00:14:25.278000+00:00,train
836,-1.0,-1.0,2021-01-22 00:14:55.278000+00:00,train
837,-1.0,-1.0,2021-01-22 00:15:25.278000+00:00,train
838,-1.0,-1.0,2021-01-22 00:15:55.278000+00:00,train
839,-1.0,-1.0,2021-01-22 00:16:25.278000+00:00,train
840,-1.0,-1.0,2021-01-22 00:16:55.278000+00:00,train
841,-1.0,-1.0,2021-01-22 00:17:25.278000+00:00,train
842,-1.0,-1.0,2021-01-22 00:17:55.278000+00:00,train
843,-1.0,-1.0,2021-01-22 00:18:25.278000+00:00,train
844,-1.0,-1.0,2021-01-22 00:18:55.278000+00:00,train
845,-1.0,-1.0,2021-01-22 00:19:25.278000+00:00,train
846,-1.0,-1.0,2021-01-22 00:19:55.278000+00:00,train
847,-1.0,-1.0,2021-01-22 00:20:25.278000+00:00,train
848,-1.0,-1.0,2021-01-22 00:20:55.278000+00:00,train
849,-1.0,-1.0,2021-01-22 00:21:25.278000+00:00,train
850,-1.0,-1.0,2021-01-22 00:21:55.278000+00:00,train
851,-1.0,-1.0,2021-01-22 00:22:25.278000+00:00,train
852,-1.0,-1.0,2021-01-22 00:22:55.278000+00:00,train
853,-1.0,-1.0,2021-01-22 00:23:25.278000+00:00,train
854,-1.0,-1.0,2021-01-22 00:23:55.278000+00:00,train
855,-1.0,-1.0,2021-01-22 00:24:25.278000+00:00,train
856,-1.0,-1.0,2021-01-22 00:24:55.278000+00:00,train
857,-1.0,-1.0,2021-01-22 00:25:25.278000+00:00,train
858,-1.0,-1.0,2021-01-22 00:25:55.278000+00:00,train
859,-1.0,-1.0,2021-01-22 00:26:25.278000+00:00,train
860,-1.0,-1.0,2021-01-22 00:26:55.278000+00:00,train
861,-1.0,-1.0,2021-01-22 00:27:25.278000+00:00,train
862,-1.0,-1.0,2021-01-22 00:27:55.278000+00:00,train
863,-1.0,-1.0,2021-01-22 00:28:25.278000+00:00,train
864,-1.0,-1.0,2021-01-22 00:28:55.278000+00:00,train
865,-1.0,-1.0,2021-01-22 00:29:25.278000+00:00,train
866,-1.0,-1.0,2021-01-22 00:29:55.278000+00:00,train
867,-1.0,-1.0,2021-01-22 00:30:25.278000+00:00,train
868,-1.0,-1.0,2021-01-22 00:30:55.278000+00:00,train
869,-1.0,-1.0,2021-01-22 00:31:25.278000+00:00,train
870,-1.0,-1.0,2021-01-22 00:31:55.278000+00:00,train
871,-1.0,-1.0,2021-01-22 00:32:25.278000+00:00,train
872,-1.0,-1.0,2021-01-22 00:32:55.278000+00:00,train
873,-1.0,-1.0,2021-01-22 00:33:25.278000+00:00,train
874,-1.0,-1.0,2021-01-22 00:33:55.278000+00:00,train
875,-1.0,-1.0,2021-01-22 00:34:25.278000+00:00,train
876,-1.0,-1.0,2021-01-22 00:34:55.278000+00:00,train
877,-1.0,-1.0,2021-01-22 00:35:25.278000+00:00,train
878,-1.0,-1.0,2021-01-22 00:35:55.278000+00:00,train
879,-1.0,-1.0,2021-01-22 00:36:25.278000+00:00,train
880,-1.0,-1.0,2021-01-22 00:36:55.278000+00:00,train
881,-1.0,-1.0,2021-01-22 00:37:25.278000+00:00,train
882,-1.0,-1.0,2021-01-22 00:37:55.278000+00:00,train
883,-1.0,-1.0,2021-01-22 00:38:25.278000+00:00,train
884,-1.0,-1.0,2021-01-22 00:38:55.278000+00:00,train
885,-1.0,-1.0,2021-01-22 00:39:25.278000+00:00,train
886,-1.0,-1.0,2021-01-22 00:39:55.278000+00:00,train
887,-1.0,-1.0,2021-01-22 00:40:25.278000+00:00,train
888,-1.0,-1.0,2021-01-22 00:40:55.278000+00:00,train
889,-1.0,-1.0,2021-01-22 00:41:25.278000+00:00,train
890,-1.0,-1.0,2021-01-22 00:41:55.278000+00:00,train
891,-1.0,-1.0,2021-01-22 00:42:25.278000+00:00,train
892,-1.0,-1.0,2021-01-22 00:42:55.278000+00:00,train
893,-1.0,-1.0,2021-01-22 00:43:25.278000+00:00,train
894,-1.0,-1.0,2021-01-22 00:43:55.278000+00:00,train
895,-1.0,-1.0,2021-01-22 00:44:25.278000+00:00,train
896,-1.0,-1.0,2021-01-22 00:44:55.278000+00:00,train
897,-1.0,-1.0,2021-01-22 00:45:25.278000+00:00,train
898,-1.0,-1.0,2021-01-22 00:45:55.278000+00:00,train
899,-1.0,-1.0,2021-01-22 00:46:25.278000+00:00,train
900,-1.0,-1.0,2021-01-22 00:46:55.278000+00:00,train
901,-1.0,-1.0,2021-01-22 00:47:25.278000+00:00,train
902,-1.0,-1.0,2021-01-22 00:47:55.278000+00:00,train
903,-1.0,-1.0,2021-01-22 00:48:25.278000+00:00,train
904,-1.0,-1.0,2021-01-22 00:48:55.278000+00:00,train
905,-1.0,-1.0,2021-01-22 00:49:25.278000+00:00,train
906,-1.0,-1.0,2021-01-22 00:49:55.278000+00:00,train
907,-1.0,-1.0,2021-01-22 00:50:25.278000+00:00,train
908,-1.0,-1.0,2021-01-22 00:50:55.278000+00:00,train
909,-1.0,-1.0,2021-01-22 00:51:25.278000+00:00,train
910,-1.0,-1.0,2021-01-22 00:51:55.278000+00:00,train
911,-1.0,-1.0,2021-01-22 00:52:25.278000+00:00,train
912,-1.0,-1.0,2021-01-22 00:52:55.278000+00:00,train
913,-1.0,-1.0,2021-01-22 00:53:25.278000+00:00,train
914,-1.0,-1.0,2021-01-22 00:53:55.278000+00:00,train
915,-1.0,-1.0,2021-01-22 00:54:25.278000+00:00,train
916,-1.0,-1.0,2021-01-22 00:54:55.278000+00:00,train
917,-1.0,-1.0,2021-01-22 00:55:25.278000+00:00,train
918,-1.0,-1.0,2021-01-22 00:55:55.278000+00:00,train
919,-1.0,-1.0,2021-01-22 00:56:25.278000+00:00,train
920,-1.0,-1.0,2021-01-22 00:56:55.278000+00:00,train
921,-1.0,-1.0,2021-01-22 00:57:25.278000+00:00,train
922,-1.0,-1.0,2021-01-22 00:57:55.278000+00:00,train
923,-1.0,-1.0,2021-01-22 00:58:25.278000+00:00,train
924,-1.0,-1.0,2021-01-22 00:58:55.278000+00:00,train
925,-1.0,-1.0,2021-01-22 00:59:25.278000+00:00,train
926,-1.0,-1.0,2021-01-22 00:59:55.278000+00:00,train
927,-1.0,-1.0,2021-01-22 01:00:25.278000+00:00,train
928,-1.0,-1.0,2021-01-22 01:00:55.278000+00:00,train
929,-1.0,-1.0,2021-01-22 01:01:25.278000+00:00,train
930,-1.0,-1.0,2021-01-22 01:01:55.278000+00:00,train
931,-1.0,-1.0,2021-01-22 01:02:25.278000+00:00,train
932,-1.0,-1.0,2021-01-22 01:02:55.278000+00:00,train
933,-1.0,-1.0,2021-01-22 01:03:25.278000+00:00,train
934,-1.0,-1.0,2021-01-22 01:03:55.278000+00:00,train
935,-1.0,-1.0,2021-01-22 01:04:25.278000+00:00,train
936,-1.0,-1.0,2021-01-22 01:04:55.278000+00:00,train
937,-1.0,-1.0,2021-01-22 01:05:25.278000+00:00,train
938,-1.0,-1.0,2021-01-22 01:05:55.278000+00:00,train
939,-1.0,-1.0,2021-01-22 01:06:25.278000+00:00,train
940,-1.0,-1.0,2021-01-22 01:06:55.278000+00:00,train
941,-1.0,-1.0,2021-01-22 01:07:25.278000+00:00,train
942,-1.0,-1.0,2021-01-22 01:07:55.278000+00:00,train
943,-1.0,-1.0,2021-01-22 01:08:25.278000+00:00,train
944,-1.0,-1.0,2021-01-22 01:08:55.278000+00:00,train
945,-1.0,-1.0,2021-01-22 01:09:25.278000+00:00,train
946,-1.0,-1.0,2021-01-22 01:09:55.278000+00:00,train
947,-1.0,-1.0,2021-01-22 01:10:25.278000+00:00,train
948,-1.0,-1.0,2021-01-22 01:10:55.278000+00:00,train
949,-1.0,-1.0,2021-01-22 01:11:25.278000+00:00,train
950,-1.0,-1.0,2021-01-22 01:11:55.278000+00:00,train
951,-1.0,-1.0,2021-01-22 01:12:25.278000+00:00,train
952,-1.0,-1.0,2021-01-22 01:12:55.278000+00:00,train
953,-1.0,-1.0,2021-01-22 01:13:25.278000+00:00,train
954,-1.0,-1.0,2021-01-22 01:13:55.278000+00:00,train
955,-1.0,-1.0,2021-01-22 01:14:25.278000+00:00,train
956,-1.0,-1.0,2021-01-22 01:14:55.278000+00:00,train
957,-1.0,-1.0,2021-01-22 01:15:25.278000+00:00,train
958,-1.0,-1.0,2021-01-22 01:15:55.278000+00:00,train
959,-1.0,-1.0,2021-01-22 01:16:25.278000+00:00,train
960,-1.0,-1.0,2021-01-22 01:16:55.278000+00:00,train
961,-1.0,-1.0,2021-01-22 01:17:25.278000+00:00,train
962,-1.0,-1.0,2021-01-22 01:17:55.278000+00:00,train
963,-1.0,-1.0,2021-01-22 01:18:25.278000+00:00,train
964,-1.0,-1.0,2021-01-22 01:18:55.278000+00:00,train
965,-1.0,-1.0,2021-01-22 01:19:25.278000+00:00,train
966,-1.0,-1.0,2021-01-22 01:19:55.278000+00:00,train
967,-1.0,-1.0,2021-01-22 01:20:25.278000+00:00,train
968,-1.0,-1.0,2021-01-22 01:20:55.278000+00:00,train
969,-1.0,-1.0,2021-01-22 01:21:25.278000+00:00,train
970,-1.0,-1.0,2021-01-22 01:21:55.278000+00:00,train
971,-1.0,-1.0,2021-01-22 01:22:25.278000+00:00,train
972,-1.0,-1.0,2021-01-22 01:22:55.278000+00:00,train
973,-1.0,-1.0,2021-01-22 01:23:25.278000+00:00,train
974,-1.0,-1.0,2021-01-22 01:23:55.278000+00:00,train
975,-1.0,-1.0,2021-01-22 01:24:25.278000+00:00,train
976,-1.0,-1.0,2021-01-22 01:24:55.278000+00:00,train
977,-1.0,-1.0,2021-01-22 01:25:25.278000+00:00,train
978,-1.0,-1.0,2021-01-22 01:25:55.278000+00:00,train
979,-1.0,-1.0,2021-01-22 01:26:25.278000+00:00,train
980,-1.0,-1.0,2021-01-22 01:26:55.278000+00:00,train
981,-1.0,-1.0,2021-01-22 01:27:25.278000+00:00,train
982,-1.0,-1.0,2021-01-22 01:27:55.278000+00:00,train
983,-1.0,-1.0,2021-01-22 01:28:25.278000+00:00,train
984,-1.0,-1.0,2021-01-22 01:28:55.278000+00:00,train
985,-1.0,-1.0,2021-01-22 01:29:25.278000+00:00,train
986,-1.0,-1.0,2021-01-22 01:29:55.278000+00:00,train
987,-1.0,-1.0,2021-01-22 01:30:25.278000+00:00,train
988,-1.0,-1.0,2021-01-22 01:30:55.278000+00:00,train
989,-1.0,-1.0,2021-01-22 01:31:25.278000+00:00,train
990,-1.0,-1.0,2021-01-22 01:31:55.278000+00:00,train
991,-1.0,-1.0,2021-01-22 01:32:25.278000+00:00,train
992,-1.0,0.0,2021-01-22 01:32:55.278000+00:00,train
993,-1.0,0.0,2021-01-22 01:33:25.278000+00:00,train
994,-1.0,0.0,2021-01-22 01:33:55.278000+00:00,train
995,-1.0,0.0,2021-01-22 01:34:25.278000+00:00,train
996,-1.0,0.0,2021-01-22 01:34:55.278000+00:00,train
997,-1.0,0.0,2021-01-22 01:35:25.278000+00:00,train
998,-1.0,0.0,2021-01-22 01:35:55.278000+00:00,train
999,-1.0,0.0,2021-01-22 01:36:25.278000+00:00,train
1000,-1.0,0.0,2021-01-22 01:36:55.278000+00:00,train
1001,-1.0,0.0,2021-01-22 01:37:25.278000+00:00,train
1002,-1.0,-1.0,2021-01-22 01:37:55.278000+00:00,train
1003,-0.7955665588378906,0.0,2021-01-22 01:38:25.278000+00:00,train
1004,-0.7063986659049988,0.0,2021-01-22 01:38:55.278000+00:00,train
1005,-0.6365824341773987,0.0,2021-01-22 01:39:25.278000+00:00,train
1006,-0.576941728591919,0.0,2021-01-22 01:39:55.278000+00:00,train
1007,-0.5239060521125793,0.0,2021-01-22 01:40:25.278000+00:00,train
1008,-0.47563600540161133,0.0,2021-01-22 01:40:55.278000+00:00,train
1009,-0.4310324490070343,0.0,2021-01-22 01:41:25.278000+00:00,train
1010,-0.39038896560668945,0.0,2021-01-22 01:41:55.278000+00:00,train
1011,-0.35130640864372253,0.0,2021-01-22 01:42:25.278000+00:00,train
1012,-0.3143260180950165,0.0,2021-01-22 01:42:55.278000+00:00,train
1013,-0.3142029643058777,0.0,2021-01-22 01:43:25.278000+00:00,train
1014,-0.27904772758483887,0.0,2021-01-22 01:43:55.278000+00:00,train
1015,-0.24550917744636536,0.0,2021-01-22 01:44:25.278000+00:00,train
1016,-0.21342775225639343,0.0,2021-01-22 01:44:55.278000+00:00,train
1017,-0.18267053365707397,0.0,2021-01-22 01:45:25.278000+00:00,train
1018,-0.1531306654214859,0.0,2021-01-22 01:45:55.278000+00:00,train
1019,-0.12471868842840195,0.0,2021-01-22 01:46:25.278000+00:00,train
1020,-0.0973564013838768,0.0,2021-01-22 01:46:55.278000+00:00,train
1021,-0.07099396735429764,0.0,2021-01-22 01:47:25.278000+00:00,train
1022,-0.045573536306619644,0.0,2021-01-22 01:47:55.278000+00:00,train
1023,-0.02105550840497017,0.0,2021-01-22 01:48:25.278000+00:00,train
1024,0.0025915170554071665,0.0,2021-01-22 01:48:55.278000+00:00,train
1025,0.02539139799773693,0.0,2021-01-22 01:49:25.278000+00:00,train
1026,0.04736661911010742,0.0,2021-01-22 01:49:55.278000+00:00,train
1027,0.06853121519088745,0.0,2021-01-22 01:50:25.278000+00:00,train
1028,0.08889225125312805,0.0,2021-01-22 01:50:55.278000+00:00,train
1029,0.1084565743803978,0.0,2021-01-22 01:51:25.278000+00:00,train
1030,0.1272239089012146,0.0,2021-01-22 01:51:55.278000+00:00,train
1031,0.1451946347951889,0.0,2021-01-22 01:52:25.278000+00:00,train
1032,0.1623629778623581,0.0,2021-01-22 01:52:55.278000+00:00,train
1033,0.17873480916023254,0.0,2021-01-22 01:53:25.278000+00:00,train
1034,0.19433952867984772,0.0,2021-01-22 01:53:55.278000+00:00,train
1035,0.2091783881187439,0.0,2021-01-22 01:54:25.278000+00:00,train
1036,0.22324207425117493,0.0,2021-01-22 01:54:55.278000+00:00,train
1037,0.23652173578739166,0.0,2021-01-22 01:55:25.278000+00:00,train
1038,0.2489943951368332,0.0,2021-01-22 01:55:55.278000+00:00,train
1039,0.26062506437301636,0.0,2021-01-22 01:56:25.278000+00:00,train
1040,0.2713664174079895,0.0,2021-01-22 01:56:55.278000+00:00,train
1041,0.28116801381111145,0.0,2021-01-22 01:57:25.278000+00:00,train
1042,0.289989709854126,0.0,2021-01-22 01:57:55.278000+00:00,train
1043,0.2977176308631897,0.0,2021-01-22 01:58:25.278000+00:00,train
1044,0.30417877435684204,0.0,2021-01-22 01:58:55.278000+00:00,train
1045,0.3086947202682495,0.0,2021-01-22 01:59:25.278000+00:00,train
1046,0.30555614829063416,0.0,2021-01-22 01:59:55.278000+00:00,train
1047,0.228692889213562,0.0,2021-01-22 02:00:25.278000+00:00,train
1048,0.09336595982313156,0.0,2021-01-22 02:00:55.278000+00:00,train
1049,-0.017609979957342148,0.0,2021-01-22 02:01:25.278000+00:00,train
1050,-0.06373624503612518,0.0,2021-01-22 02:01:55.278000+00:00,train
1051,-0.07263178378343582,0.0,2021-01-22 02:02:25.278000+00:00,train
1052,-0.07143312692642212,0.0,2021-01-22 02:02:55.278000+00:00,train
1053,-0.06676781177520752,0.0,2021-01-22 02:03:25.278000+00:00,train
1054,-0.060308683663606644,0.0,2021-01-22 02:03:55.278000+00:00,train
1055,-0.05287138745188713,0.0,2021-01-22 02:04:25.278000+00:00,train
1056,-0.04489205405116081,0.0,2021-01-22 02:04:55.278000+00:00,train
1057,-0.05058986321091652,0.0,2021-01-22 02:05:25.278000+00:00,train
1058,-0.04110316187143326,0.0,2021-01-22 02:05:55.278000+00:00,train
1059,-0.03179100155830383,0.0,2021-01-22 02:06:25.278000+00:00,train
1060,-0.02265189401805401,0.0,2021-01-22 02:06:55.278000+00:00,train
1061,-0.013687011785805225,0.0,2021-01-22 02:07:25.278000+00:00,train
1062,-0.004898455925285816,0.0,2021-01-22 02:07:55.278000+00:00,train
1063,0.0037120343185961246,0.0,2021-01-22 02:08:25.278000+00:00,train
1064,0.012140310369431973,0.0,2021-01-22 02:08:55.278000+00:00,train
1065,0.020386282354593277,0.0,2021-01-22 02:09:25.278000+00:00,train
1066,0.02844744548201561,0.0,2021-01-22 02:09:55.278000+00:00,train
1067,0.03632050007581711,0.0,2021-01-22 02:10:25.278000+00:00,train
1068,0.04400213435292244,0.0,2021-01-22 02:10:55.278000+00:00,train
1069,0.05148867517709732,0.0,2021-01-22 02:11:25.278000+00:00,train
1070,0.058719538152217865,0.0,2021-01-22 02:11:55.278000+00:00,train
1071,0.0657610297203064,0.0,2021-01-22 02:12:25.278000+00:00,train
1072,0.07260473817586899,0.0,2021-01-22 02:12:55.278000+00:00,train
1073,0.07924029231071472,0.0,2021-01-22 02:13:25.278000+00:00,train
1074,0.08566213399171829,0.0,2021-01-22 02:13:55.278000+00:00,train
1075,0.08978616446256638,0.0,2021-01-22 02:14:25.278000+00:00,train
1076,0.09574044495820999,0.0,2021-01-22 02:14:55.278000+00:00,train
1077,0.10146036744117737,0.0,2021-01-22 02:15:25.278000+00:00,train
1078,0.10693612694740295,0.0,2021-01-22 02:15:55.278000+00:00,train
1079,0.11215510219335556,0.0,2021-01-22 02:16:25.278000+00:00,train
1080,0.11710865050554276,0.0,2021-01-22 02:16:55.278000+00:00,train
1081,0.1217840164899826,0.0,2021-01-22 02:17:25.278000+00:00,train
1082,0.1261671483516693,0.0,2021-01-22 02:17:55.278000+00:00,train
1083,0.13024210929870605,0.0,2021-01-22 02:18:25.278000+00:00,train
1084,0.13398975133895874,0.0,2021-01-22 02:18:55.278000+00:00,train
1085,0.13739213347434998,0.0,2021-01-22 02:19:25.278000+00:00,train
1086,0.14042694866657257,0.0,2021-01-22 02:19:55.278000+00:00,train
1087,0.14306777715682983,0.0,2021-01-22 02:20:25.278000+00:00,train
1088,0.14528408646583557,0.0,2021-01-22 02:20:55.278000+00:00,train
1089,0.1470400094985962,0.0,2021-01-22 02:21:25.278000+00:00,train
1090,0.14829301834106445,0.0,2021-01-22 02:21:55.278000+00:00,train
1091,0.14899598062038422,0.0,2021-01-22 02:22:25.278000+00:00,train
1092,0.1490887850522995,0.0,2021-01-22 02:22:55.278000+00:00,train
1093,0.14849784970283508,0.0,2021-01-22 02:23:25.278000+00:00,train
1094,0.14713075757026672,0.0,2021-01-22 02:23:55.278000+00:00,train
1095,0.14486899971961975,0.0,2021-01-22 02:24:25.278000+00:00,train
1096,0.14155499637126923,0.0,2021-01-22 02:24:55.278000+00:00,train
1097,0.13697676360607147,0.0,2021-01-22 02:25:25.278000+00:00,train
1098,0.13082773983478546,0.0,2021-01-22 02:25:55.278000+00:00,val
1099,0.122639499604702,0.0,2021-01-22 02:26:25.278000+00:00,val
1100,0.11162777245044708,0.0,2021-01-22 02:26:55.278000+00:00,val
1101,0.09627081453800201,0.0,2021-01-22 02:27:25.278000+00:00,val
1102,0.07266267389059067,0.0,2021-01-22 02:27:55.278000+00:00,val
1103,0.07269004732370377,0.0,2021-01-22 02:28:25.278000+00:00,val
1104,0.07271751016378403,0.0,2021-01-22 02:28:55.278000+00:00,val
1105,0.07274506241083145,0.0,2021-01-22 02:29:25.278000+00:00,val
1106,0.07277271151542664,0.0,2021-01-22 02:29:55.278000+00:00,val
1107,0.07279979437589645,0.0,2021-01-22 02:30:25.278000+00:00,val
1108,0.0728270635008812,0.0,2021-01-22 02:30:55.278000+00:00,val
1109,0.07285451143980026,0.0,2021-01-22 02:31:25.278000+00:00,val
1110,0.07288219034671783,0.0,2021-01-22 02:31:55.278000+00:00,val
1111,0.0729098841547966,0.0,2021-01-22 02:32:25.278000+00:00,val
1112,0.0729375034570694,0.0,2021-01-22 02:32:55.278000+00:00,val
1113,0.0,0.0,2021-01-22 02:33:25.278000+00:00,val
1114,0.0,0.0,2021-01-22 02:33:55.278000+00:00,val
1115,0.0,0.0,2021-01-22 02:34:25.278000+00:00,val
1116,0.0,0.0,2021-01-22 02:34:55.278000+00:00,val
1117,0.0,0.0,2021-01-22 02:35:25.278000+00:00,val
1118,0.0,0.0,2021-01-22 02:35:55.278000+00:00,val
1119,0.0,0.0,2021-01-22 02:36:25.278000+00:00,val
1120,0.0,0.0,2021-01-22 02:36:55.278000+00:00,val
1121,0.0,0.0,2021-01-22 02:37:25.278000+00:00,val
1122,0.0,0.0,2021-01-22 02:37:55.278000+00:00,val
1123,0.0,0.0,2021-01-22 02:38:25.278000+00:00,val
1124,0.0,0.0,2021-01-22 02:38:55.278000+00:00,val
1125,0.0,0.0,2021-01-22 02:39:25.278000+00:00,val
1126,0.0,0.0,2021-01-22 02:39:55.278000+00:00,val
1127,0.0,0.0,2021-01-22 02:40:25.278000+00:00,val
1128,0.0,0.0,2021-01-22 02:40:55.278000+00:00,val
1129,0.0,0.0,2021-01-22 02:41:25.278000+00:00,val
1130,0.0,0.0,2021-01-22 02:41:55.278000+00:00,val
1131,0.0,0.0,2021-01-22 02:42:25.278000+00:00,val
1132,0.0,0.0,2021-01-22 02:42:55.278000+00:00,val
1133,0.0,0.0,2021-01-22 02:43:25.278000+00:00,val
1134,0.0,0.0,2021-01-22 02:43:55.278000+00:00,val
1135,0.0,0.0,2021-01-22 02:44:25.278000+00:00,val
1136,0.0,0.0,2021-01-22 02:44:55.278000+00:00,val
1137,0.0,0.0,2021-01-22 02:45:25.278000+00:00,val
1138,0.0,0.0,2021-01-22 02:45:55.278000+00:00,val
1139,0.0,0.0,2021-01-22 02:46:25.278000+00:00,val
1140,0.0,0.0,2021-01-22 02:46:55.278000+00:00,val
1141,0.0,0.0,2021-01-22 02:47:25.278000+00:00,val
1142,0.0,0.0,2021-01-22 02:47:55.278000+00:00,val
1143,0.0,0.0,2021-01-22 02:48:25.278000+00:00,val
1144,0.0,0.0,2021-01-22 02:48:55.278000+00:00,val
1145,0.0,0.0,2021-01-22 02:49:25.278000+00:00,val
1146,0.0,0.0,2021-01-22 02:49:55.278000+00:00,val
1147,0.0,0.0,2021-01-22 02:50:25.278000+00:00,val
1148,0.0,0.0,2021-01-22 02:50:55.278000+00:00,val
1149,0.0,0.0,2021-01-22 02:51:25.278000+00:00,val
1150,0.0,0.0,2021-01-22 02:51:55.278000+00:00,val
1151,0.0,0.0,2021-01-22 02:52:25.278000+00:00,val
1152,0.0,0.0,2021-01-22 02:52:55.278000+00:00,val
1153,0.0,0.0,2021-01-22 02:53:25.278000+00:00,val
1154,0.0,0.0,2021-01-22 02:53:55.278000+00:00,val
1155,0.0,0.0,2021-01-22 02:54:25.278000+00:00,val
1156,0.0,0.0,2021-01-22 02:54:55.278000+00:00,val
1157,0.0,0.0,2021-01-22 02:55:25.278000+00:00,val
1158,0.0,0.0,2021-01-22 02:55:55.278000+00:00,val
1159,0.0,0.0,2021-01-22 02:56:25.278000+00:00,val
1160,0.0,0.0,2021-01-22 02:56:55.278000+00:00,val
1161,0.0,0.0,2021-01-22 02:57:25.278000+00:00,val
1162,0.0,0.0,2021-01-22 02:57:55.278000+00:00,val
1163,0.0,0.0,2021-01-22 02:58:25.278000+00:00,val
1164,0.0,0.0,2021-01-22 02:58:55.278000+00:00,val
1165,0.0,0.0,2021-01-22 02:59:25.278000+00:00,val
1166,0.0,0.0,2021-01-22 02:59:55.278000+00:00,val
1167,0.0,0.0,2021-01-22 03:00:25.278000+00:00,val
1168,0.0,0.0,2021-01-22 03:00:55.278000+00:00,val
1169,0.0,0.0,2021-01-22 03:01:25.278000+00:00,val
1170,0.0,0.0,2021-01-22 03:01:55.278000+00:00,val
1171,0.0,0.0,2021-01-22 03:02:25.278000+00:00,val
1172,0.0,0.0,2021-01-22 03:02:55.278000+00:00,val
1173,0.0,0.0,2021-01-22 03:03:25.278000+00:00,val
1174,0.0,0.0,2021-01-22 03:03:55.278000+00:00,val
1175,0.0,0.0,2021-01-22 03:04:25.278000+00:00,val
1176,0.0,0.0,2021-01-22 03:04:55.278000+00:00,val
1177,0.0,0.0,2021-01-22 03:05:25.278000+00:00,val
1178,0.0,0.0,2021-01-22 03:05:55.278000+00:00,val
1179,0.0,0.0,2021-01-22 03:06:25.278000+00:00,val
1180,0.0,0.0,2021-01-22 03:06:55.278000+00:00,val
1181,0.0,0.0,2021-01-22 03:07:25.278000+00:00,val
1182,0.0,0.0,2021-01-22 03:07:55.278000+00:00,val
1183,0.0,0.0,2021-01-22 03:08:25.278000+00:00,val
1184,0.0,0.0,2021-01-22 03:08:55.278000+00:00,val
1185,0.0,0.0,2021-01-22 03:09:25.278000+00:00,val
1186,0.0,0.0,2021-01-22 03:09:55.278000+00:00,val
1187,0.0,0.0,2021-01-22 03:10:25.278000+00:00,val
1188,0.0,0.0,2021-01-22 03:10:55.278000+00:00,val
1189,0.0,0.0,2021-01-22 03:11:25.278000+00:00,val
1190,0.0,0.0,2021-01-22 03:11:55.278000+00:00,val
1191,0.0,0.0,2021-01-22 03:12:25.278000+00:00,val
1192,0.0,0.0,2021-01-22 03:12:55.278000+00:00,val
1193,0.0,0.0,2021-01-22 03:13:25.278000+00:00,val
1194,0.0,0.0,2021-01-22 03:13:55.278000+00:00,val
1195,0.0,0.0,2021-01-22 03:14:25.278000+00:00,val
1196,0.0,0.0,2021-01-22 03:14:55.278000+00:00,val
1197,0.0,0.0,2021-01-22 03:15:25.278000+00:00,val
1198,0.0,0.0,2021-01-22 03:15:55.278000+00:00,val
1199,0.0,0.0,2021-01-22 03:16:25.278000+00:00,val
1200,0.0,0.0,2021-01-22 03:16:55.278000+00:00,val
1201,0.0,0.0,2021-01-22 03:17:25.278000+00:00,val
1202,0.0,0.0,2021-01-22 03:17:55.278000+00:00,val
1203,0.0,0.0,2021-01-22 03:18:25.278000+00:00,val
1204,0.0,0.0,2021-01-22 03:18:55.278000+00:00,val
1205,0.0,0.0,2021-01-22 03:19:25.278000+00:00,val
1206,0.0,0.0,2021-01-22 03:19:55.278000+00:00,val
1207,0.0,0.0,2021-01-22 03:20:25.278000+00:00,val
1208,0.0,0.0,2021-01-22 03:20:55.278000+00:00,val
1209,0.0,0.0,2021-01-22 03:21:25.278000+00:00,val
1210,0.0,0.0,2021-01-22 03:21:55.278000+00:00,val
1211,0.0,0.0,2021-01-22 03:22:25.278000+00:00,val
1212,0.0,0.0,2021-01-22 03:22:55.278000+00:00,val
1213,0.0,0.0,2021-01-22 03:23:25.278000+00:00,val
1214,0.0,0.0,2021-01-22 03:23:55.278000+00:00,val
1215,0.0,0.0,2021-01-22 03:24:25.278000+00:00,val
1216,0.0,0.0,2021-01-22 03:24:55.278000+00:00,val
1217,0.0,0.0,2021-01-22 03:25:25.278000+00:00,val
1218,0.0,0.0,2021-01-22 03:25:55.278000+00:00,val
1219,0.0,0.0,2021-01-22 03:26:25.278000+00:00,val
1220,0.0,0.0,2021-01-22 03:26:55.278000+00:00,val
1221,0.0,0.0,2021-01-22 03:27:25.278000+00:00,val
1222,0.0,0.0,2021-01-22 03:27:55.278000+00:00,val
1223,0.0,0.0,2021-01-22 03:28:25.278000+00:00,val
1224,0.0,0.0,2021-01-22 03:28:55.278000+00:00,val
1225,0.0,0.0,2021-01-22 03:29:25.278000+00:00,val
1226,0.0,0.0,2021-01-22 03:29:55.278000+00:00,val
1227,0.0,0.0,2021-01-22 03:30:25.278000+00:00,val
1228,0.0,0.0,2021-01-22 03:30:55.278000+00:00,val
1229,0.0,0.0,2021-01-22 03:31:25.278000+00:00,val
1230,0.0,0.0,2021-01-22 03:31:55.278000+00:00,val
1231,0.0,0.0,2021-01-22 03:32:25.278000+00:00,val
1232,0.0,0.0,2021-01-22 03:32:55.278000+00:00,val
1233,0.0,0.0,2021-01-22 03:33:25.278000+00:00,val
1234,0.0,0.0,2021-01-22 03:33:55.278000+00:00,val
1235,0.0,0.0,2021-01-22 03:34:25.278000+00:00,val
1236,0.0,0.0,2021-01-22 03:34:55.278000+00:00,val
1237,0.0,0.0,2021-01-22 03:35:25.278000+00:00,val
1238,0.0,0.0,2021-01-22 03:35:55.278000+00:00,val
1239,0.0,0.0,2021-01-22 03:36:25.278000+00:00,val
1240,0.0,0.0,2021-01-22 03:36:55.278000+00:00,val
1241,0.0,0.0,2021-01-22 03:37:25.278000+00:00,val
1242,0.0,0.0,2021-01-22 03:37:55.278000+00:00,val
1243,0.0,0.0,2021-01-22 03:38:25.278000+00:00,val
1244,0.0,0.0,2021-01-22 03:38:55.278000+00:00,val
1245,0.0,0.0,2021-01-22 03:39:25.278000+00:00,val
1246,0.0,0.0,2021-01-22 03:39:55.278000+00:00,val
1247,0.0,0.0,2021-01-22 03:40:25.278000+00:00,val
1248,0.0,0.0,2021-01-22 03:40:55.278000+00:00,val
1249,0.0,0.0,2021-01-22 03:41:25.278000+00:00,val
1250,0.0,0.0,2021-01-22 03:41:55.278000+00:00,val
1251,0.0,0.0,2021-01-22 03:42:25.278000+00:00,val
1252,0.0,0.0,2021-01-22 03:42:55.278000+00:00,val
1253,0.0,0.0,2021-01-22 03:43:25.278000+00:00,val
1254,0.0,0.0,2021-01-22 03:43:55.278000+00:00,val
1255,0.0,0.0,2021-01-22 03:44:25.278000+00:00,val
1256,0.0,0.0,2021-01-22 03:44:55.278000+00:00,val
1257,0.0,0.0,2021-01-22 03:45:25.278000+00:00,val
1258,0.0,0.0,2021-01-22 03:45:55.278000+00:00,val
1259,0.0,0.0,2021-01-22 03:46:25.278000+00:00,val
1260,0.0,0.0,2021-01-22 03:46:55.278000+00:00,val
1261,0.0,0.0,2021-01-22 03:47:25.278000+00:00,val
1262,0.0,0.0,2021-01-22 03:47:55.278000+00:00,val
1263,0.0,0.0,2021-01-22 03:48:25.278000+00:00,val
1264,0.0,0.0,2021-01-22 03:48:55.278000+00:00,val
1265,0.0,0.0,2021-01-22 03:49:25.278000+00:00,val
1266,0.0,0.0,2021-01-22 03:49:55.278000+00:00,val
1267,0.0,0.0,2021-01-22 03:50:25.278000+00:00,val
1268,0.0,0.0,2021-01-22 03:50:55.278000+00:00,val
1269,0.0,0.0,2021-01-22 03:51:25.278000+00:00,val
1270,0.0,0.0,2021-01-22 03:51:55.278000+00:00,val
1271,0.0,0.0,2021-01-22 03:52:25.278000+00:00,val
1272,0.0,0.0,2021-01-22 03:52:55.278000+00:00,val
1273,0.0,0.0,2021-01-22 03:53:25.278000+00:00,val
1274,0.0,0.0,2021-01-22 03:53:55.278000+00:00,val
1275,0.0,0.0,2021-01-22 03:54:25.278000+00:00,val
1276,0.0,0.0,2021-01-22 03:54:55.278000+00:00,val
1277,0.0,0.0,2021-01-22 03:55:25.278000+00:00,val
1278,0.0,0.0,2021-01-22 03:55:55.278000+00:00,val
1279,0.0,0.0,2021-01-22 03:56:25.278000+00:00,val
1280,0.0,0.0,2021-01-22 03:56:55.278000+00:00,val
1281,0.0,0.0,2021-01-22 03:57:25.278000+00:00,val
1282,0.0,0.0,2021-01-22 03:57:55.278000+00:00,val
1283,0.0,0.0,2021-01-22 03:58:25.278000+00:00,val
1284,0.0,0.0,2021-01-22 03:58:55.278000+00:00,val
1285,0.0,0.0,2021-01-22 03:59:25.278000+00:00,val
1286,0.0,0.0,2021-01-22 03:59:55.278000+00:00,val
1287,0.0,0.0,2021-01-22 04:00:25.278000+00:00,val
1288,0.0,0.0,2021-01-22 04:00:55.278000+00:00,val
1289,0.0,0.0,2021-01-22 04:01:25.278000+00:00,val
1290,0.0,0.0,2021-01-22 04:01:55.278000+00:00,val
1291,0.0,0.0,2021-01-22 04:02:25.278000+00:00,val
1292,0.0,0.0,2021-01-22 04:02:55.278000+00:00,val
1293,0.0,0.0,2021-01-22 04:03:25.278000+00:00,val
1294,0.0,0.0,2021-01-22 04:03:55.278000+00:00,val
1295,0.0,0.0,2021-01-22 04:04:25.278000+00:00,val
1296,0.0,0.0,2021-01-22 04:04:55.278000+00:00,val
1297,0.0,0.0,2021-01-22 04:05:25.278000+00:00,val
1298,0.0,0.0,2021-01-22 04:05:55.278000+00:00,val
1299,0.0,0.0,2021-01-22 04:06:25.278000+00:00,val
1300,0.0,0.0,2021-01-22 04:06:55.278000+00:00,val
1301,0.0,0.0,2021-01-22 04:07:25.278000+00:00,val
1302,0.0,0.0,2021-01-22 04:07:55.278000+00:00,val
1303,0.0,0.0,2021-01-22 04:08:25.278000+00:00,val
1304,0.0,0.0,2021-01-22 04:08:55.278000+00:00,val
1305,0.0,0.0,2021-01-22 04:09:25.278000+00:00,val
1306,0.0,0.0,2021-01-22 04:09:55.278000+00:00,val
1307,0.0,0.0,2021-01-22 04:10:25.278000+00:00,val
1308,0.0,0.0,2021-01-22 04:10:55.278000+00:00,val
1309,0.0,0.0,2021-01-22 04:11:25.278000+00:00,val
1310,0.0,0.0,2021-01-22 04:11:55.278000+00:00,val
1311,0.0,0.0,2021-01-22 04:12:25.278000+00:00,val
1312,0.0,0.0,2021-01-22 04:12:55.278000+00:00,val
1313,0.0,0.0,2021-01-22 04:13:25.278000+00:00,val
1314,0.0,0.0,2021-01-22 04:13:55.278000+00:00,val
1315,0.0,0.0,2021-01-22 04:14:25.278000+00:00,val
1316,0.0,0.0,2021-01-22 04:14:55.278000+00:00,val
1317,0.0,0.0,2021-01-22 04:15:25.278000+00:00,val
1318,0.0,0.0,2021-01-22 04:15:55.278000+00:00,val
1319,0.0,0.0,2021-01-22 04:16:25.278000+00:00,val
1320,0.0,0.0,2021-01-22 04:16:55.278000+00:00,val
1321,0.0,0.0,2021-01-22 04:17:25.278000+00:00,val
1322,0.0,0.0,2021-01-22 04:17:55.278000+00:00,val
1323,0.0,0.0,2021-01-22 04:18:25.278000+00:00,val
1324,0.0,0.0,2021-01-22 04:18:55.278000+00:00,val
1325,0.0,0.0,2021-01-22 04:19:25.278000+00:00,val
1326,0.0,0.0,2021-01-22 04:19:55.278000+00:00,val
1327,0.0,0.0,2021-01-22 04:20:25.278000+00:00,val
1328,0.0,0.0,2021-01-22 04:20:55.278000+00:00,val
1329,0.0,0.0,2021-01-22 04:21:25.278000+00:00,val
1330,0.0,0.0,2021-01-22 04:21:55.278000+00:00,val
1331,0.0,0.0,2021-01-22 04:22:25.278000+00:00,val
1332,0.0,0.0,2021-01-22 04:22:55.278000+00:00,val
1333,0.0,0.0,2021-01-22 04:23:25.278000+00:00,val
1334,0.0,0.0,2021-01-22 04:23:55.278000+00:00,val
1335,0.0,0.0,2021-01-22 04:24:25.278000+00:00,val
1336,0.0,0.0,2021-01-22 04:24:55.278000+00:00,val
1337,0.0,0.0,2021-01-22 04:25:25.278000+00:00,val
1338,0.0,0.0,2021-01-22 04:25:55.278000+00:00,val
1339,0.0,0.0,2021-01-22 04:26:25.278000+00:00,val
1340,0.0,0.0,2021-01-22 04:26:55.278000+00:00,val
1341,0.0,0.0,2021-01-22 04:27:25.278000+00:00,val
1342,0.0,0.0,2021-01-22 04:27:55.278000+00:00,val
1343,0.0,0.0,2021-01-22 04:28:25.278000+00:00,val
1344,0.0,0.0,2021-01-22 04:28:55.278000+00:00,val
1345,0.0,0.0,2021-01-22 04:29:25.278000+00:00,val
1346,0.0,0.0,2021-01-22 04:29:55.278000+00:00,val
1347,0.0,0.0,2021-01-22 04:30:25.278000+00:00,val
1348,0.0,0.0,2021-01-22 04:30:55.278000+00:00,val
1349,0.0,0.0,2021-01-22 04:31:25.278000+00:00,val
1350,0.0,0.0,2021-01-22 04:31:55.278000+00:00,val
1351,0.0,0.0,2021-01-22 04:32:25.278000+00:00,val
1352,0.0,0.0,2021-01-22 04:32:55.278000+00:00,val
1353,0.0,0.0,2021-01-22 04:33:25.278000+00:00,val
1354,0.0,0.0,2021-01-22 04:33:55.278000+00:00,val
1355,0.0,0.0,2021-01-22 04:34:25.278000+00:00,val
1356,0.0,0.0,2021-01-22 04:34:55.278000+00:00,val
1357,0.0,0.0,2021-01-22 04:35:25.278000+00:00,val
1358,0.0,0.0,2021-01-22 04:35:55.278000+00:00,val
1359,0.0,0.0,2021-01-22 04:36:25.278000+00:00,val
1360,0.0,0.0,2021-01-22 04:36:55.278000+00:00,val
1361,0.0,0.0,2021-01-22 04:37:25.278000+00:00,val
1362,0.0,0.0,2021-01-22 04:37:55.278000+00:00,val
1363,0.0,0.0,2021-01-22 04:38:25.278000+00:00,val
1364,0.0,0.0,2021-01-22 04:38:55.278000+00:00,val
1365,0.0,0.0,2021-01-22 04:39:25.278000+00:00,val
1366,0.0,0.0,2021-01-22 04:39:55.278000+00:00,val
1367,0.0,0.0,2021-01-22 04:40:25.278000+00:00,val
1368,0.0,0.0,2021-01-22 04:40:55.278000+00:00,val
1369,0.0,0.0,2021-01-22 04:41:25.278000+00:00,val
1370,0.0,0.0,2021-01-22 04:41:55.278000+00:00,val
1371,0.0,0.0,2021-01-22 04:42:25.278000+00:00,val
1372,0.0,0.0,2021-01-22 04:42:55.278000+00:00,val
1373,0.0,0.0,2021-01-22 04:43:25.278000+00:00,val
1374,0.0,0.0,2021-01-22 04:43:55.278000+00:00,val
1375,0.0,0.0,2021-01-22 04:44:25.278000+00:00,val
1376,0.0,0.0,2021-01-22 04:44:55.278000+00:00,val
1377,0.0,0.0,2021-01-22 04:45:25.278000+00:00,val
1378,0.0,0.0,2021-01-22 04:45:55.278000+00:00,val
1379,0.0,0.0,2021-01-22 04:46:25.278000+00:00,val
1380,0.0,0.0,2021-01-22 04:46:55.278000+00:00,val
1381,0.0,0.0,2021-01-22 04:47:25.278000+00:00,val
1382,0.0,0.0,2021-01-22 04:47:55.278000+00:00,val
1383,0.0,0.0,2021-01-22 04:48:25.278000+00:00,val
1384,0.0,0.0,2021-01-22 04:48:55.278000+00:00,val
1385,0.0,0.0,2021-01-22 04:49:25.278000+00:00,val
1386,0.0,0.0,2021-01-22 04:49:55.278000+00:00,val
1387,0.0,0.0,2021-01-22 04:50:25.278000+00:00,val
1388,0.0,0.0,2021-01-22 04:50:55.278000+00:00,val
1389,0.0,0.0,2021-01-22 04:51:25.278000+00:00,val
1390,0.0,0.0,2021-01-22 04:51:55.278000+00:00,val
1391,0.0,0.0,2021-01-22 04:52:25.278000+00:00,val
1392,0.0,0.0,2021-01-22 04:52:55.278000+00:00,val
1393,0.0,0.0,2021-01-22 04:53:25.278000+00:00,val
1394,0.0,0.0,2021-01-22 04:53:55.278000+00:00,val
1395,0.0,0.0,2021-01-22 04:54:25.278000+00:00,val
1396,0.0,0.0,2021-01-22 04:54:55.278000+00:00,val
1397,0.0,0.0,2021-01-22 04:55:25.278000+00:00,val
1398,0.0,0.0,2021-01-22 04:55:55.278000+00:00,val
1399,0.0,0.0,2021-01-22 04:56:25.278000+00:00,val
1400,0.0,0.0,2021-01-22 04:56:55.278000+00:00,val
1401,0.0,0.0,2021-01-22 04:57:25.278000+00:00,val
1402,0.0,0.0,2021-01-22 04:57:55.278000+00:00,val
1403,0.0,0.0,2021-01-22 04:58:25.278000+00:00,val
1404,0.0,0.0,2021-01-22 04:58:55.278000+00:00,val
1405,0.0,0.0,2021-01-22 04:59:25.278000+00:00,val
1406,0.0,0.0,2021-01-22 04:59:55.278000+00:00,val
1407,0.0,0.0,2021-01-22 05:00:25.278000+00:00,val
1408,0.0,0.0,2021-01-22 05:00:55.278000+00:00,val
1409,0.0,0.0,2021-01-22 05:01:25.278000+00:00,val
1410,0.0,0.0,2021-01-22 05:01:55.278000+00:00,val
1411,0.0,0.0,2021-01-22 05:02:25.278000+00:00,val
1412,0.0,0.0,2021-01-22 05:02:55.278000+00:00,val
1413,0.0,0.0,2021-01-22 05:03:25.278000+00:00,val
1414,0.0,0.0,2021-01-22 05:03:55.278000+00:00,val
1415,0.0,0.0,2021-01-22 05:04:25.278000+00:00,val
1416,0.0,0.0,2021-01-22 05:04:55.278000+00:00,val
1417,0.0,0.0,2021-01-22 05:05:25.278000+00:00,val
1418,0.0,0.0,2021-01-22 05:05:55.278000+00:00,val
1419,0.0,0.0,2021-01-22 05:06:25.278000+00:00,val
1420,0.0,0.0,2021-01-22 05:06:55.278000+00:00,val
1421,0.0,0.0,2021-01-22 05:07:25.278000+00:00,val
1422,0.0,0.0,2021-01-22 05:07:55.278000+00:00,val
1423,0.0,0.0,2021-01-22 05:08:25.278000+00:00,val
1424,0.0,0.0,2021-01-22 05:08:55.278000+00:00,val
1425,0.0,0.0,2021-01-22 05:09:25.278000+00:00,val
1426,0.0,0.0,2021-01-22 05:09:55.278000+00:00,val
1427,0.0,0.0,2021-01-22 05:10:25.278000+00:00,val
1428,0.0,0.0,2021-01-22 05:10:55.278000+00:00,val
1429,0.0,0.0,2021-01-22 05:11:25.278000+00:00,val
1430,0.0,0.0,2021-01-22 05:11:55.278000+00:00,val
1431,0.0,0.0,2021-01-22 05:12:25.278000+00:00,val
1432,0.0,0.0,2021-01-22 05:12:55.278000+00:00,val
1433,0.0,0.0,2021-01-22 05:13:25.278000+00:00,val
1434,0.0,0.0,2021-01-22 05:13:55.278000+00:00,val
1435,0.0,0.0,2021-01-22 05:14:25.278000+00:00,val
1436,0.0,0.0,2021-01-22 05:14:55.278000+00:00,val
1437,0.0,0.0,2021-01-22 05:15:25.278000+00:00,val
1438,0.0,0.0,2021-01-22 05:15:55.278000+00:00,val
1439,0.0,0.0,2021-01-22 05:16:25.278000+00:00,val
1440,0.0,0.0,2021-01-22 05:16:55.278000+00:00,val
1441,0.0,0.0,2021-01-22 05:17:25.278000+00:00,val
1442,0.0,0.0,2021-01-22 05:17:55.278000+00:00,test
1443,0.0,0.0,2021-01-22 05:18:25.278000+00:00,test
1444,0.0,0.0,2021-01-22 05:18:55.278000+00:00,test
1445,0.0,0.0,2021-01-22 05:19:25.278000+00:00,test
1446,0.0,0.0,2021-01-22 05:19:55.278000+00:00,test
1447,0.0,0.0,2021-01-22 05:20:25.278000+00:00,test
1448,0.0,0.0,2021-01-22 05:20:55.278000+00:00,test
1449,0.0,0.0,2021-01-22 05:21:25.278000+00:00,test
1450,0.0,0.0,2021-01-22 05:21:55.278000+00:00,test
1451,0.0,0.0,2021-01-22 05:22:25.278000+00:00,test
1452,0.0,0.0,2021-01-22 05:22:55.278000+00:00,test
1453,0.0,0.0,2021-01-22 05:23:25.278000+00:00,test
1454,0.0,0.0,2021-01-22 05:23:55.278000+00:00,test
1455,0.0,0.0,2021-01-22 05:24:25.278000+00:00,test
1456,0.0,0.0,2021-01-22 05:24:55.278000+00:00,test
1457,0.0,0.0,2021-01-22 05:25:25.278000+00:00,test
1458,0.0,0.0,2021-01-22 05:25:55.278000+00:00,test
1459,0.0,0.0,2021-01-22 05:26:25.278000+00:00,test
1460,0.0,0.0,2021-01-22 05:26:55.278000+00:00,test
1461,0.0,0.0,2021-01-22 05:27:25.278000+00:00,test
1462,0.0,0.0,2021-01-22 05:27:55.278000+00:00,test
1463,0.0,0.0,2021-01-22 05:28:25.278000+00:00,test
1464,0.0,0.0,2021-01-22 05:28:55.278000+00:00,test
1465,0.0,0.0,2021-01-22 05:29:25.278000+00:00,test
1466,0.0,0.0,2021-01-22 05:29:55.278000+00:00,test
1467,0.0,0.0,2021-01-22 05:30:25.278000+00:00,test
1468,0.0,0.0,2021-01-22 05:30:55.278000+00:00,test
1469,0.0,0.0,2021-01-22 05:31:25.278000+00:00,test
1470,0.0,0.0,2021-01-22 05:31:55.278000+00:00,test
1471,0.0,0.0,2021-01-22 05:32:25.278000+00:00,test
1472,0.0,0.0,2021-01-22 05:32:55.278000+00:00,test
1473,0.0,0.0,2021-01-22 05:33:25.278000+00:00,test
1474,0.0,0.0,2021-01-22 05:33:55.278000+00:00,test
1475,0.0,0.0,2021-01-22 05:34:25.278000+00:00,test
1476,0.0,0.0,2021-01-22 05:34:55.278000+00:00,test
1477,0.0,0.0,2021-01-22 05:35:25.278000+00:00,test
1478,0.0,0.0,2021-01-22 05:35:55.278000+00:00,test
1479,0.0,0.0,2021-01-22 05:36:25.278000+00:00,test
1480,0.0,0.0,2021-01-22 05:36:55.278000+00:00,test
1481,0.0,0.0,2021-01-22 05:37:25.278000+00:00,test
1482,0.0,0.0,2021-01-22 05:37:55.278000+00:00,test
1483,0.0,0.0,2021-01-22 05:38:25.278000+00:00,test
1484,0.0,0.0,2021-01-22 05:38:55.278000+00:00,test
1485,0.0,0.0,2021-01-22 05:39:25.278000+00:00,test
1486,0.0,0.0,2021-01-22 05:39:55.278000+00:00,test
1487,0.0,0.0,2021-01-22 05:40:25.278000+00:00,test
1488,0.0,0.0,2021-01-22 05:40:55.278000+00:00,test
1489,0.0,0.0,2021-01-22 05:41:25.278000+00:00,test
1490,0.0,0.0,2021-01-22 05:41:55.278000+00:00,test
1491,0.0,0.0,2021-01-22 05:42:25.278000+00:00,test
1492,0.0,0.0,2021-01-22 05:42:55.278000+00:00,test
1493,0.0,0.0,2021-01-22 05:43:25.278000+00:00,test
1494,0.0,0.0,2021-01-22 05:43:55.278000+00:00,test
1495,0.0,0.0,2021-01-22 05:44:25.278000+00:00,test
1496,0.0,0.0,2021-01-22 05:44:55.278000+00:00,test
1497,0.0,0.0,2021-01-22 05:45:25.278000+00:00,test
1498,0.0,0.0,2021-01-22 05:45:55.278000+00:00,test
1499,0.0,0.0,2021-01-22 05:46:25.278000+00:00,test
1500,0.0,0.0,2021-01-22 05:46:55.278000+00:00,test
1501,0.0,0.0,2021-01-22 05:47:25.278000+00:00,test
1502,0.0,0.0,2021-01-22 05:47:55.278000+00:00,test
1503,0.0,0.0,2021-01-22 05:48:25.278000+00:00,test
1504,0.0,0.0,2021-01-22 05:48:55.278000+00:00,test
1505,0.0,0.0,2021-01-22 05:49:25.278000+00:00,test
1506,0.0,0.0,2021-01-22 05:49:55.278000+00:00,test
1507,0.0,0.0,2021-01-22 05:50:25.278000+00:00,test
1508,0.0,0.0,2021-01-22 05:50:55.278000+00:00,test
1509,0.0,0.0,2021-01-22 05:51:25.278000+00:00,test
1510,0.0,0.0,2021-01-22 05:51:55.278000+00:00,test
1511,0.0,0.0,2021-01-22 05:52:25.278000+00:00,test
1512,0.0,0.0,2021-01-22 05:52:55.278000+00:00,test
1513,0.0,0.0,2021-01-22 05:53:25.278000+00:00,test
1514,0.0,0.0,2021-01-22 05:53:55.278000+00:00,test
1515,0.0,0.0,2021-01-22 05:54:25.278000+00:00,test
1516,0.0,0.0,2021-01-22 05:54:55.278000+00:00,test
1517,0.0,0.0,2021-01-22 05:55:25.278000+00:00,test
1518,0.0,0.0,2021-01-22 05:55:55.278000+00:00,test
1519,0.0,0.0,2021-01-22 05:56:25.278000+00:00,test
1520,0.0,0.0,2021-01-22 05:56:55.278000+00:00,test
1521,0.0,0.0,2021-01-22 05:57:25.278000+00:00,test
1522,0.0,0.0,2021-01-22 05:57:55.278000+00:00,test
1523,0.0,0.0,2021-01-22 05:58:25.278000+00:00,test
1524,0.0,0.0,2021-01-22 05:58:55.278000+00:00,test
1525,0.0,0.0,2021-01-22 05:59:25.278000+00:00,test
1526,0.0,0.0,2021-01-22 05:59:55.278000+00:00,test
1527,0.0,0.0,2021-01-22 06:00:25.278000+00:00,test
1528,0.0,0.0,2021-01-22 06:00:55.278000+00:00,test
1529,0.0,0.0,2021-01-22 06:01:25.278000+00:00,test
1530,0.0,0.0,2021-01-22 06:01:55.278000+00:00,test
1531,0.0,0.0,2021-01-22 06:02:25.278000+00:00,test
1532,0.0,0.0,2021-01-22 06:02:55.278000+00:00,test
1533,0.0,0.0,2021-01-22 06:03:25.278000+00:00,test
1534,0.0,0.0,2021-01-22 06:03:55.278000+00:00,test
1535,0.0,0.0,2021-01-22 06:04:25.278000+00:00,test
1536,0.0,0.0,2021-01-22 06:04:55.278000+00:00,test
1537,0.0,0.0,2021-01-22 06:05:25.278000+00:00,test
1538,0.0,0.0,2021-01-22 06:05:55.278000+00:00,test
1539,0.0,0.0,2021-01-22 06:06:25.278000+00:00,test
1540,0.0,0.0,2021-01-22 06:06:55.278000+00:00,test
1541,0.0,0.0,2021-01-22 06:07:25.278000+00:00,test
1542,0.0,0.0,2021-01-22 06:07:55.278000+00:00,test
1543,0.0,0.0,2021-01-22 06:08:25.278000+00:00,test
1544,0.0,0.0,2021-01-22 06:08:55.278000+00:00,test
1545,0.0,0.0,2021-01-22 06:09:25.278000+00:00,test
1546,0.0,0.0,2021-01-22 06:09:55.278000+00:00,test
1547,0.0,0.0,2021-01-22 06:10:25.278000+00:00,test
1548,0.0,0.0,2021-01-22 06:10:55.278000+00:00,test
1549,0.0,0.0,2021-01-22 06:11:25.278000+00:00,test
1550,0.0,0.0,2021-01-22 06:11:55.278000+00:00,test
1551,0.0,0.0,2021-01-22 06:12:25.278000+00:00,test
1552,0.0,0.0,2021-01-22 06:12:55.278000+00:00,test
1553,0.0,0.0,2021-01-22 06:13:25.278000+00:00,test
1554,0.0,0.0,2021-01-22 06:13:55.278000+00:00,test
1555,0.0,0.0,2021-01-22 06:14:25.278000+00:00,test
1556,0.0,0.0,2021-01-22 06:14:55.278000+00:00,test
1557,0.0,0.0,2021-01-22 06:15:25.278000+00:00,test
1558,0.0,0.0,2021-01-22 06:15:55.278000+00:00,test
1559,0.0,0.0,2021-01-22 06:16:25.278000+00:00,test
1560,0.0,0.0,2021-01-22 06:16:55.278000+00:00,test
1561,0.0,0.0,2021-01-22 06:17:25.278000+00:00,test
1562,0.0,0.0,2021-01-22 06:17:55.278000+00:00,test
1563,0.0,0.0,2021-01-22 06:18:25.278000+00:00,test
1564,0.0,0.0,2021-01-22 06:18:55.278000+00:00,test
1565,0.0,0.0,2021-01-22 06:19:25.278000+00:00,test
1566,0.0,0.0,2021-01-22 06:19:55.278000+00:00,test
1567,0.0,0.0,2021-01-22 06:20:25.278000+00:00,test
1568,0.0,0.0,2021-01-22 06:20:55.278000+00:00,test
1569,0.0,0.0,2021-01-22 06:21:25.278000+00:00,test
1570,0.0,0.0,2021-01-22 06:21:55.278000+00:00,test
1571,0.0,0.0,2021-01-22 06:22:25.278000+00:00,test
1572,0.0,0.0,2021-01-22 06:22:55.278000+00:00,test
1573,0.0,0.0,2021-01-22 06:23:25.278000+00:00,test
1574,0.0,0.0,2021-01-22 06:23:55.278000+00:00,test
1575,0.0,0.0,2021-01-22 06:24:25.278000+00:00,test
1576,0.0,0.0,2021-01-22 06:24:55.278000+00:00,test
1577,0.0,0.0,2021-01-22 06:25:25.278000+00:00,test
1578,0.0,0.0,2021-01-22 06:25:55.278000+00:00,test
1579,0.0,0.0,2021-01-22 06:26:25.278000+00:00,test
1580,0.0,0.0,2021-01-22 06:26:55.278000+00:00,test
1581,0.0,0.0,2021-01-22 06:27:25.278000+00:00,test
1582,0.0,0.0,2021-01-22 06:27:55.278000+00:00,test
1583,0.0,0.0,2021-01-22 06:28:25.278000+00:00,test
1584,0.0,0.0,2021-01-22 06:28:55.278000+00:00,test
1585,0.0,0.0,2021-01-22 06:29:25.278000+00:00,test
1586,0.0,0.0,2021-01-22 06:29:55.278000+00:00,test
1587,0.0,0.0,2021-01-22 06:30:25.278000+00:00,test
1588,0.0,0.0,2021-01-22 06:30:55.278000+00:00,test
1589,0.0,0.0,2021-01-22 06:31:25.278000+00:00,test
1590,0.0,0.0,2021-01-22 06:31:55.278000+00:00,test
1591,0.0,0.0,2021-01-22 06:32:25.278000+00:00,test
1592,0.0,0.0,2021-01-22 06:32:55.278000+00:00,test
1593,0.0,0.0,2021-01-22 06:33:25.278000+00:00,test
1594,0.0,0.0,2021-01-22 06:33:55.278000+00:00,test
1595,0.0,0.0,2021-01-22 06:34:25.278000+00:00,test
1596,0.0,0.0,2021-01-22 06:34:55.278000+00:00,test
1597,0.0,0.0,2021-01-22 06:35:25.278000+00:00,test
1598,0.0,0.0,2021-01-22 06:35:55.278000+00:00,test
1599,0.0,0.0,2021-01-22 06:36:25.278000+00:00,test
1600,0.0,0.0,2021-01-22 06:36:55.278000+00:00,test
1601,0.0,0.0,2021-01-22 06:37:25.278000+00:00,test
1602,0.0,0.0,2021-01-22 06:37:55.278000+00:00,test
1603,0.0,0.0,2021-01-22 06:38:25.278000+00:00,test
1604,0.0,0.0,2021-01-22 06:38:55.278000+00:00,test
1605,0.0,0.0,2021-01-22 06:39:25.278000+00:00,test
