,prediction,real,time,split
0,-5.667487621307373,-6.0,2021-01-21 17:42:25.278000+00:00,train
1,-5.640902996063232,-6.0,2021-01-21 17:42:55.278000+00:00,train
2,-5.616616725921631,-6.0,2021-01-21 17:43:25.278000+00:00,train
3,-5.594671249389648,-6.0,2021-01-21 17:43:55.278000+00:00,train
4,-5.575127124786377,-6.0,2021-01-21 17:44:25.278000+00:00,train
5,-5.543327331542969,-6.0,2021-01-21 17:44:55.278000+00:00,train
6,-5.513282775878906,-6.0,2021-01-21 17:45:25.278000+00:00,train
7,-5.485022068023682,-6.0,2021-01-21 17:45:55.278000+00:00,train
8,-5.45859432220459,-6.0,2021-01-21 17:46:25.278000+00:00,train
9,-5.434014797210693,-6.0,2021-01-21 17:46:55.278000+00:00,train
10,-5.411325454711914,-6.0,2021-01-21 17:47:25.278000+00:00,train
11,-5.390588283538818,-6.0,2021-01-21 17:47:55.278000+00:00,train
12,-5.37183141708374,-6.0,2021-01-21 17:48:25.278000+00:00,train
13,-5.355105876922607,-6.0,2021-01-21 17:48:55.278000+00:00,train
14,-5.340487003326416,-6.0,2021-01-21 17:49:25.278000+00:00,train
15,-5.32801628112793,-6.0,2021-01-21 17:49:55.278000+00:00,train
16,-5.317769527435303,-6.0,2021-01-21 17:50:25.278000+00:00,train
17,-5.309834003448486,-6.0,2021-01-21 17:50:55.278000+00:00,train
18,-5.288723945617676,-6.0,2021-01-21 17:51:25.278000+00:00,train
19,-5.269190788269043,-6.0,2021-01-21 17:51:55.278000+00:00,train
20,-5.251290321350098,-6.0,2021-01-21 17:52:25.278000+00:00,train
21,-5.235036849975586,-6.0,2021-01-21 17:52:55.278000+00:00,train
22,-5.220476150512695,-6.0,2021-01-21 17:53:25.278000+00:00,train
23,-5.207668304443359,-5.0,2021-01-21 17:53:55.278000+00:00,train
24,-5.196642875671387,-5.0,2021-01-21 17:54:25.278000+00:00,train
25,-5.166958332061768,-5.0,2021-01-21 17:54:55.278000+00:00,train
26,-5.139379501342773,-5.0,2021-01-21 17:55:25.278000+00:00,train
27,-5.11391544342041,-5.0,2021-01-21 17:55:55.278000+00:00,train
28,-5.0906291007995605,-5.0,2021-01-21 17:56:25.278000+00:00,train
29,-5.054597854614258,-5.0,2021-01-21 17:56:55.278000+00:00,train
30,-5.020118713378906,-5.0,2021-01-21 17:57:25.278000+00:00,train
31,-4.987210750579834,-5.0,2021-01-21 17:57:55.278000+00:00,train
32,-4.955904006958008,-5.0,2021-01-21 17:58:25.278000+00:00,train
33,-4.926201820373535,-5.0,2021-01-21 17:58:55.278000+00:00,train
34,-4.898129940032959,-5.0,2021-01-21 17:59:25.278000+00:00,train
35,-4.87172794342041,-5.0,2021-01-21 17:59:55.278000+00:00,train
36,-4.8470048904418945,-5.0,2021-01-21 18:00:25.278000+00:00,train
37,-4.823996067047119,-5.0,2021-01-21 18:00:55.278000+00:00,train
38,-4.802640914916992,-5.0,2021-01-21 18:01:25.278000+00:00,train
39,-4.78317403793335,-5.0,2021-01-21 18:01:55.278000+00:00,train
40,-4.765565395355225,-5.0,2021-01-21 18:02:25.278000+00:00,train
41,-4.749849319458008,-5.0,2021-01-21 18:02:55.278000+00:00,train
42,-4.736058235168457,-5.0,2021-01-21 18:03:25.278000+00:00,train
43,-4.7242536544799805,-5.0,2021-01-21 18:03:55.278000+00:00,train
44,-4.699252128601074,-5.0,2021-01-21 18:04:25.278000+00:00,train
45,-4.675550937652588,-5.0,2021-01-21 18:04:55.278000+00:00,train
46,-4.653172492980957,-5.0,2021-01-21 18:05:25.278000+00:00,train
47,-4.632152080535889,-5.0,2021-01-21 18:05:55.278000+00:00,train
48,-4.612494468688965,-5.0,2021-01-21 18:06:25.278000+00:00,train
49,-4.594230651855469,-5.0,2021-01-21 18:06:55.278000+00:00,train
50,-4.577402114868164,-5.0,2021-01-21 18:07:25.278000+00:00,train
51,-4.562023162841797,-5.0,2021-01-21 18:07:55.278000+00:00,train
52,-4.548130512237549,-5.0,2021-01-21 18:08:25.278000+00:00,train
53,-4.535776138305664,-5.0,2021-01-21 18:08:55.278000+00:00,train
54,-4.524985313415527,-5.0,2021-01-21 18:09:25.278000+00:00,train
55,-4.515807151794434,-5.0,2021-01-21 18:09:55.278000+00:00,train
56,-4.508306980133057,-5.0,2021-01-21 18:10:25.278000+00:00,train
57,-4.5025224685668945,-5.0,2021-01-21 18:10:55.278000+00:00,train
58,-4.48370885848999,-5.0,2021-01-21 18:11:25.278000+00:00,train
59,-4.46593713760376,-5.0,2021-01-21 18:11:55.278000+00:00,train
60,-4.449206829071045,-5.0,2021-01-21 18:12:25.278000+00:00,train
61,-4.433538436889648,-5.0,2021-01-21 18:12:55.278000+00:00,train
62,-4.41896390914917,-5.0,2021-01-21 18:13:25.278000+00:00,train
63,-4.40548849105835,-5.0,2021-01-21 18:13:55.278000+00:00,train
64,-4.393136501312256,-5.0,2021-01-21 18:14:25.278000+00:00,train
65,-4.381946086883545,-5.0,2021-01-21 18:14:55.278000+00:00,train
66,-4.371929168701172,-5.0,2021-01-21 18:15:25.278000+00:00,train
67,-4.363118648529053,-5.0,2021-01-21 18:15:55.278000+00:00,train
68,-4.3555588722229,-5.0,2021-01-21 18:16:25.278000+00:00,train
69,-4.349269866943359,-5.0,2021-01-21 18:16:55.278000+00:00,train
70,-4.344295024871826,-5.0,2021-01-21 18:17:25.278000+00:00,train
71,-4.340912818908691,-4.0,2021-01-21 18:17:55.278000+00:00,train
72,-4.3387556076049805,-4.0,2021-01-21 18:18:25.278000+00:00,train
73,-4.317166805267334,-4.0,2021-01-21 18:18:55.278000+00:00,train
74,-4.29723596572876,-4.0,2021-01-21 18:19:25.278000+00:00,train
75,-4.279077053070068,-4.0,2021-01-21 18:19:55.278000+00:00,train
76,-4.262632846832275,-4.0,2021-01-21 18:20:25.278000+00:00,train
77,-4.2479777336120605,-4.0,2021-01-21 18:20:55.278000+00:00,train
78,-4.235182285308838,-4.0,2021-01-21 18:21:25.278000+00:00,train
79,-4.207736015319824,-4.0,2021-01-21 18:21:55.278000+00:00,train
80,-4.181484222412109,-4.0,2021-01-21 18:22:25.278000+00:00,train
81,-4.156403541564941,-4.0,2021-01-21 18:22:55.278000+00:00,train
82,-4.132503032684326,-4.0,2021-01-21 18:23:25.278000+00:00,train
83,-4.109776020050049,-4.0,2021-01-21 18:23:55.278000+00:00,train
84,-4.088238716125488,-4.0,2021-01-21 18:24:25.278000+00:00,train
85,-4.067916393280029,-4.0,2021-01-21 18:24:55.278000+00:00,train
86,-4.048811912536621,-4.0,2021-01-21 18:25:25.278000+00:00,train
87,-4.030949592590332,-4.0,2021-01-21 18:25:55.278000+00:00,train
88,-4.014359951019287,-4.0,2021-01-21 18:26:25.278000+00:00,train
89,-3.999056100845337,-4.0,2021-01-21 18:26:55.278000+00:00,train
90,-3.98506760597229,-4.0,2021-01-21 18:27:25.278000+00:00,train
91,-3.9595656394958496,-4.0,2021-01-21 18:27:55.278000+00:00,train
92,-3.9348368644714355,-4.0,2021-01-21 18:28:25.278000+00:00,train
93,-3.9108822345733643,-4.0,2021-01-21 18:28:55.278000+00:00,train
94,-3.887714385986328,-4.0,2021-01-21 18:29:25.278000+00:00,train
95,-3.8653197288513184,-4.0,2021-01-21 18:29:55.278000+00:00,train
96,-3.843703508377075,-4.0,2021-01-21 18:30:25.278000+00:00,train
97,-3.822878360748291,-4.0,2021-01-21 18:30:55.278000+00:00,train
98,-3.8028345108032227,-4.0,2021-01-21 18:31:25.278000+00:00,train
99,-3.7835793495178223,-4.0,2021-01-21 18:31:55.278000+00:00,train
100,-3.765129566192627,-4.0,2021-01-21 18:32:25.278000+00:00,train
101,-3.7474772930145264,-4.0,2021-01-21 18:32:55.278000+00:00,train
102,-3.7306320667266846,-4.0,2021-01-21 18:33:25.278000+00:00,train
103,-3.714604616165161,-4.0,2021-01-21 18:33:55.278000+00:00,train
104,-3.699413537979126,-4.0,2021-01-21 18:34:25.278000+00:00,train
105,-3.685056209564209,-4.0,2021-01-21 18:34:55.278000+00:00,train
106,-3.671546459197998,-4.0,2021-01-21 18:35:25.278000+00:00,train
107,-3.6589083671569824,-4.0,2021-01-21 18:35:55.278000+00:00,train
108,-3.647142171859741,-4.0,2021-01-21 18:36:25.278000+00:00,train
109,-3.636267900466919,-4.0,2021-01-21 18:36:55.278000+00:00,train
110,-3.626312494277954,-4.0,2021-01-21 18:37:25.278000+00:00,train
111,-3.617283821105957,-4.0,2021-01-21 18:37:55.278000+00:00,train
112,-3.6092050075531006,-4.0,2021-01-21 18:38:25.278000+00:00,train
113,-3.602109432220459,-4.0,2021-01-21 18:38:55.278000+00:00,train
114,-3.596010208129883,-4.0,2021-01-21 18:39:25.278000+00:00,train
115,-3.5909385681152344,-4.0,2021-01-21 18:39:55.278000+00:00,train
116,-3.5869362354278564,-4.0,2021-01-21 18:40:25.278000+00:00,train
117,-3.58402419090271,-4.0,2021-01-21 18:40:55.278000+00:00,train
118,-3.582244396209717,-4.0,2021-01-21 18:41:25.278000+00:00,train
119,-3.5815823078155518,-4.0,2021-01-21 18:41:55.278000+00:00,train
120,-3.568619728088379,-4.0,2021-01-21 18:42:25.278000+00:00,train
121,-3.556194305419922,-4.0,2021-01-21 18:42:55.278000+00:00,train
122,-3.544308662414551,-4.0,2021-01-21 18:43:25.278000+00:00,train
123,-3.5329530239105225,-4.0,2021-01-21 18:43:55.278000+00:00,train
124,-3.5221359729766846,-4.0,2021-01-21 18:44:25.278000+00:00,train
125,-3.5118720531463623,-4.0,2021-01-21 18:44:55.278000+00:00,train
126,-3.502157211303711,-4.0,2021-01-21 18:45:25.278000+00:00,train
127,-3.4930014610290527,-4.0,2021-01-21 18:45:55.278000+00:00,train
128,-3.4844226837158203,-4.0,2021-01-21 18:46:25.278000+00:00,train
129,-3.4764182567596436,-4.0,2021-01-21 18:46:55.278000+00:00,train
130,-3.4689993858337402,-4.0,2021-01-21 18:47:25.278000+00:00,train
131,-3.462177038192749,-4.0,2021-01-21 18:47:55.278000+00:00,train
132,-3.4559719562530518,-4.0,2021-01-21 18:48:25.278000+00:00,train
133,-3.4503846168518066,-4.0,2021-01-21 18:48:55.278000+00:00,train
134,-3.445430278778076,-4.0,2021-01-21 18:49:25.278000+00:00,train
135,-3.4411323070526123,-4.0,2021-01-21 18:49:55.278000+00:00,train
136,-3.437495231628418,-4.0,2021-01-21 18:50:25.278000+00:00,train
137,-3.4345388412475586,-4.0,2021-01-21 18:50:55.278000+00:00,train
138,-3.4322903156280518,-4.0,2021-01-21 18:51:25.278000+00:00,train
139,-3.4307591915130615,-4.0,2021-01-21 18:51:55.278000+00:00,train
140,-3.4299705028533936,-4.0,2021-01-21 18:52:25.278000+00:00,train
141,-3.4299564361572266,-3.0,2021-01-21 18:52:55.278000+00:00,train
142,-3.430734634399414,-3.0,2021-01-21 18:53:25.278000+00:00,train
143,-3.4118261337280273,-3.0,2021-01-21 18:53:55.278000+00:00,train
144,-3.3941421508789062,-3.0,2021-01-21 18:54:25.278000+00:00,train
145,-3.37739634513855,-3.0,2021-01-21 18:54:55.278000+00:00,train
146,-3.361707925796509,-3.0,2021-01-21 18:55:25.278000+00:00,train
147,-3.3471150398254395,-3.0,2021-01-21 18:55:55.278000+00:00,train
148,-3.3337085247039795,-3.0,2021-01-21 18:56:25.278000+00:00,train
149,-3.3214190006256104,-3.0,2021-01-21 18:56:55.278000+00:00,train
150,-3.3103017807006836,-3.0,2021-01-21 18:57:25.278000+00:00,train
151,-3.3004040718078613,-3.0,2021-01-21 18:57:55.278000+00:00,train
152,-3.2917540073394775,-3.0,2021-01-21 18:58:25.278000+00:00,train
153,-3.2695887088775635,-3.0,2021-01-21 18:58:55.278000+00:00,train
154,-3.24802827835083,-3.0,2021-01-21 18:59:25.278000+00:00,train
155,-3.2271416187286377,-3.0,2021-01-21 18:59:55.278000+00:00,train
156,-3.2069010734558105,-3.0,2021-01-21 19:00:25.278000+00:00,train
157,-3.187303066253662,-3.0,2021-01-21 19:00:55.278000+00:00,train
158,-3.1683340072631836,-3.0,2021-01-21 19:01:25.278000+00:00,train
159,-3.1499900817871094,-3.0,2021-01-21 19:01:55.278000+00:00,train
160,-3.132277250289917,-3.0,2021-01-21 19:02:25.278000+00:00,train
161,-3.115185022354126,-3.0,2021-01-21 19:02:55.278000+00:00,train
162,-3.0987143516540527,-3.0,2021-01-21 19:03:25.278000+00:00,train
163,-3.0828747749328613,-3.0,2021-01-21 19:03:55.278000+00:00,train
164,-3.0676565170288086,-3.0,2021-01-21 19:04:25.278000+00:00,train
165,-3.053065061569214,-3.0,2021-01-21 19:04:55.278000+00:00,train
166,-3.039109706878662,-3.0,2021-01-21 19:05:25.278000+00:00,train
167,-3.025784730911255,-3.0,2021-01-21 19:05:55.278000+00:00,train
168,-3.0130984783172607,-3.0,2021-01-21 19:06:25.278000+00:00,train
169,-3.0010628700256348,-3.0,2021-01-21 19:06:55.278000+00:00,train
170,-2.9896762371063232,-3.0,2021-01-21 19:07:25.278000+00:00,train
171,-2.978947162628174,-3.0,2021-01-21 19:07:55.278000+00:00,train
172,-2.968892812728882,-3.0,2021-01-21 19:08:25.278000+00:00,train
173,-2.959514617919922,-3.0,2021-01-21 19:08:55.278000+00:00,train
174,-2.9508252143859863,-3.0,2021-01-21 19:09:25.278000+00:00,train
175,-2.942845582962036,-3.0,2021-01-21 19:09:55.278000+00:00,train
176,-2.935580253601074,-3.0,2021-01-21 19:10:25.278000+00:00,train
177,-2.9290478229522705,-3.0,2021-01-21 19:10:55.278000+00:00,train
178,-2.9232687950134277,-3.0,2021-01-21 19:11:25.278000+00:00,train
179,-2.9182674884796143,-3.0,2021-01-21 19:11:55.278000+00:00,train
180,-2.91405987739563,-3.0,2021-01-21 19:12:25.278000+00:00,train
181,-2.9106712341308594,-3.0,2021-01-21 19:12:55.278000+00:00,train
182,-2.908137083053589,-3.0,2021-01-21 19:13:25.278000+00:00,train
183,-2.9064807891845703,-3.0,2021-01-21 19:13:55.278000+00:00,train
184,-2.9057390689849854,-3.0,2021-01-21 19:14:25.278000+00:00,train
185,-2.893437623977661,-3.0,2021-01-21 19:14:55.278000+00:00,train
186,-2.881456136703491,-3.0,2021-01-21 19:15:25.278000+00:00,train
187,-2.8697962760925293,-3.0,2021-01-21 19:15:55.278000+00:00,train
188,-2.8584628105163574,-3.0,2021-01-21 19:16:25.278000+00:00,train
189,-2.847446918487549,-3.0,2021-01-21 19:16:55.278000+00:00,train
190,-2.836749792098999,-3.0,2021-01-21 19:17:25.278000+00:00,train
191,-2.8263776302337646,-3.0,2021-01-21 19:17:55.278000+00:00,train
192,-2.8163225650787354,-3.0,2021-01-21 19:18:25.278000+00:00,train
193,-2.8065860271453857,-3.0,2021-01-21 19:18:55.278000+00:00,train
194,-2.797175407409668,-3.0,2021-01-21 19:19:25.278000+00:00,train
195,-2.788083553314209,-3.0,2021-01-21 19:19:55.278000+00:00,train
196,-2.7793128490448,-3.0,2021-01-21 19:20:25.278000+00:00,train
197,-2.7708704471588135,-3.0,2021-01-21 19:20:55.278000+00:00,train
198,-2.762749195098877,-3.0,2021-01-21 19:21:25.278000+00:00,train
199,-2.7549540996551514,-3.0,2021-01-21 19:21:55.278000+00:00,train
200,-2.7474935054779053,-3.0,2021-01-21 19:22:25.278000+00:00,train
201,-2.7403619289398193,-3.0,2021-01-21 19:22:55.278000+00:00,train
202,-2.7335636615753174,-3.0,2021-01-21 19:23:25.278000+00:00,train
203,-2.727051258087158,-3.0,2021-01-21 19:23:55.278000+00:00,train
204,-2.7209246158599854,-3.0,2021-01-21 19:24:25.278000+00:00,train
205,-2.715151309967041,-3.0,2021-01-21 19:24:55.278000+00:00,train
206,-2.7097294330596924,-3.0,2021-01-21 19:25:25.278000+00:00,train
207,-2.704667806625366,-3.0,2021-01-21 19:25:55.278000+00:00,train
208,-2.699963331222534,-3.0,2021-01-21 19:26:25.278000+00:00,train
209,-2.6956238746643066,-3.0,2021-01-21 19:26:55.278000+00:00,train
210,-2.691661834716797,-3.0,2021-01-21 19:27:25.278000+00:00,train
211,-2.6880762577056885,-3.0,2021-01-21 19:27:55.278000+00:00,train
212,-2.6848766803741455,-3.0,2021-01-21 19:28:25.278000+00:00,train
213,-2.6822121143341064,-3.0,2021-01-21 19:28:55.278000+00:00,train
214,-2.679903268814087,-3.0,2021-01-21 19:29:25.278000+00:00,train
215,-2.6779491901397705,-3.0,2021-01-21 19:29:55.278000+00:00,train
216,-2.6763999462127686,-3.0,2021-01-21 19:30:25.278000+00:00,train
217,-2.6752820014953613,-3.0,2021-01-21 19:30:55.278000+00:00,train
218,-2.6746182441711426,-3.0,2021-01-21 19:31:25.278000+00:00,train
219,-2.6744158267974854,-3.0,2021-01-21 19:31:55.278000+00:00,train
220,-2.6746938228607178,-3.0,2021-01-21 19:32:25.278000+00:00,train
221,-2.6754748821258545,-3.0,2021-01-21 19:32:55.278000+00:00,train
222,-2.676771640777588,-3.0,2021-01-21 19:33:25.278000+00:00,train
223,-2.678607940673828,-3.0,2021-01-21 19:33:55.278000+00:00,train
224,-2.6810121536254883,-3.0,2021-01-21 19:34:25.278000+00:00,train
225,-2.6840054988861084,-3.0,2021-01-21 19:34:55.278000+00:00,train
226,-2.6876189708709717,-3.0,2021-01-21 19:35:25.278000+00:00,train
227,-2.69189190864563,-3.0,2021-01-21 19:35:55.278000+00:00,train
228,-2.6968560218811035,-3.0,2021-01-21 19:36:25.278000+00:00,train
229,-2.702556848526001,-3.0,2021-01-21 19:36:55.278000+00:00,train
230,-2.7090485095977783,-3.0,2021-01-21 19:37:25.278000+00:00,train
231,-2.7163846492767334,-3.0,2021-01-21 19:37:55.278000+00:00,train
232,-2.7246315479278564,-3.0,2021-01-21 19:38:25.278000+00:00,train
233,-2.720393180847168,-3.0,2021-01-21 19:38:55.278000+00:00,train
234,-2.7162888050079346,-3.0,2021-01-21 19:39:25.278000+00:00,train
235,-2.712308168411255,-3.0,2021-01-21 19:39:55.278000+00:00,train
236,-2.708448886871338,-3.0,2021-01-21 19:40:25.278000+00:00,train
237,-2.704704999923706,-3.0,2021-01-21 19:40:55.278000+00:00,train
238,-2.7010772228240967,-3.0,2021-01-21 19:41:25.278000+00:00,train
239,-2.6975691318511963,-3.0,2021-01-21 19:41:55.278000+00:00,train
240,-2.694176435470581,-3.0,2021-01-21 19:42:25.278000+00:00,train
241,-2.690901041030884,-3.0,2021-01-21 19:42:55.278000+00:00,train
242,-2.687744379043579,-3.0,2021-01-21 19:43:25.278000+00:00,train
243,-2.6847071647644043,-3.0,2021-01-21 19:43:55.278000+00:00,train
244,-2.6817898750305176,-2.0,2021-01-21 19:44:25.278000+00:00,train
245,-2.6789968013763428,-2.0,2021-01-21 19:44:55.278000+00:00,train
246,-2.6546132564544678,-2.0,2021-01-21 19:45:25.278000+00:00,train
247,-2.6309256553649902,-2.0,2021-01-21 19:45:55.278000+00:00,train
248,-2.6079044342041016,-2.0,2021-01-21 19:46:25.278000+00:00,train
249,-2.585521936416626,-2.0,2021-01-21 19:46:55.278000+00:00,train
250,-2.5637500286102295,-2.0,2021-01-21 19:47:25.278000+00:00,train
251,-2.5425682067871094,-2.0,2021-01-21 19:47:55.278000+00:00,train
252,-2.521946430206299,-2.0,2021-01-21 19:48:25.278000+00:00,train
253,-2.5018651485443115,-2.0,2021-01-21 19:48:55.278000+00:00,train
254,-2.4823055267333984,-2.0,2021-01-21 19:49:25.278000+00:00,train
255,-2.463249921798706,-2.0,2021-01-21 19:49:55.278000+00:00,train
256,-2.4446828365325928,-2.0,2021-01-21 19:50:25.278000+00:00,train
257,-2.426593780517578,-2.0,2021-01-21 19:50:55.278000+00:00,train
258,-2.408963203430176,-2.0,2021-01-21 19:51:25.278000+00:00,train
259,-2.3917806148529053,-2.0,2021-01-21 19:51:55.278000+00:00,train
260,-2.375035285949707,-2.0,2021-01-21 19:52:25.278000+00:00,train
261,-2.358717441558838,-2.0,2021-01-21 19:52:55.278000+00:00,train
262,-2.34277606010437,-2.0,2021-01-21 19:53:25.278000+00:00,train
263,-2.3272719383239746,-2.0,2021-01-21 19:53:55.278000+00:00,train
264,-2.3121795654296875,-2.0,2021-01-21 19:54:25.278000+00:00,train
265,-2.297485828399658,-2.0,2021-01-21 19:54:55.278000+00:00,train
266,-2.283182382583618,-2.0,2021-01-21 19:55:25.278000+00:00,train
267,-2.26926326751709,-2.0,2021-01-21 19:55:55.278000+00:00,train
268,-2.2557270526885986,-2.0,2021-01-21 19:56:25.278000+00:00,train
269,-2.242563247680664,-2.0,2021-01-21 19:56:55.278000+00:00,train
270,-2.2297685146331787,-2.0,2021-01-21 19:57:25.278000+00:00,train
271,-2.2173397541046143,-2.0,2021-01-21 19:57:55.278000+00:00,train
272,-2.2052745819091797,-2.0,2021-01-21 19:58:25.278000+00:00,train
273,-2.1935181617736816,-2.0,2021-01-21 19:58:55.278000+00:00,train
274,-2.182162046432495,-2.0,2021-01-21 19:59:25.278000+00:00,train
275,-2.1711719036102295,-2.0,2021-01-21 19:59:55.278000+00:00,train
276,-2.1605398654937744,-2.0,2021-01-21 20:00:25.278000+00:00,train
277,-2.150264263153076,-2.0,2021-01-21 20:00:55.278000+00:00,train
278,-2.1403443813323975,-2.0,2021-01-21 20:01:25.278000+00:00,train
279,-2.1307790279388428,-2.0,2021-01-21 20:01:55.278000+00:00,train
280,-2.1215744018554688,-2.0,2021-01-21 20:02:25.278000+00:00,train
281,-2.112725257873535,-2.0,2021-01-21 20:02:55.278000+00:00,train
282,-2.1042351722717285,-2.0,2021-01-21 20:03:25.278000+00:00,train
283,-2.14475154876709,-2.0,2021-01-21 20:03:55.278000+00:00,train
284,-2.1367404460906982,-2.0,2021-01-21 20:04:25.278000+00:00,train
285,-2.129080295562744,-2.0,2021-01-21 20:04:55.278000+00:00,train
286,-2.1217658519744873,-2.0,2021-01-21 20:05:25.278000+00:00,train
287,-2.1148030757904053,-2.0,2021-01-21 20:05:55.278000+00:00,train
288,-2.1081979274749756,-2.0,2021-01-21 20:06:25.278000+00:00,train
289,-2.101956367492676,-2.0,2021-01-21 20:06:55.278000+00:00,train
290,-2.0960853099823,-2.0,2021-01-21 20:07:25.278000+00:00,train
291,-2.090541124343872,-2.0,2021-01-21 20:07:55.278000+00:00,train
292,-2.0854272842407227,-2.0,2021-01-21 20:08:25.278000+00:00,train
293,-2.080711841583252,-2.0,2021-01-21 20:08:55.278000+00:00,train
294,-2.076399803161621,-2.0,2021-01-21 20:09:25.278000+00:00,train
295,-2.0725038051605225,-2.0,2021-01-21 20:09:55.278000+00:00,train
296,-2.0690383911132812,-2.0,2021-01-21 20:10:25.278000+00:00,train
297,-2.0660243034362793,-2.0,2021-01-21 20:10:55.278000+00:00,train
298,-2.0634708404541016,-2.0,2021-01-21 20:11:25.278000+00:00,train
299,-2.0613982677459717,-2.0,2021-01-21 20:11:55.278000+00:00,train
300,-2.059828042984009,-2.0,2021-01-21 20:12:25.278000+00:00,train
301,-2.0587854385375977,-2.0,2021-01-21 20:12:55.278000+00:00,train
302,-2.0583043098449707,-2.0,2021-01-21 20:13:25.278000+00:00,train
303,-2.050743579864502,-2.0,2021-01-21 20:13:55.278000+00:00,train
304,-2.0432918071746826,-2.0,2021-01-21 20:14:25.278000+00:00,train
305,-2.035952091217041,-2.0,2021-01-21 20:14:55.278000+00:00,train
306,-2.0287232398986816,-2.0,2021-01-21 20:15:25.278000+00:00,train
307,-2.0216028690338135,-2.0,2021-01-21 20:15:55.278000+00:00,train
308,-2.0145745277404785,-2.0,2021-01-21 20:16:25.278000+00:00,train
309,-2.0076892375946045,-2.0,2021-01-21 20:16:55.278000+00:00,train
310,-2.000901460647583,-2.0,2021-01-21 20:17:25.278000+00:00,train
311,-1.994207739830017,-2.0,2021-01-21 20:17:55.278000+00:00,train
312,-1.987610101699829,-2.0,2021-01-21 20:18:25.278000+00:00,train
313,-1.981111764907837,-2.0,2021-01-21 20:18:55.278000+00:00,train
314,-1.974844217300415,-2.0,2021-01-21 20:19:25.278000+00:00,train
315,-1.9685653448104858,-2.0,2021-01-21 20:19:55.278000+00:00,train
316,-1.9623743295669556,-2.0,2021-01-21 20:20:25.278000+00:00,train
317,-1.9562909603118896,-2.0,2021-01-21 20:20:55.278000+00:00,train
318,-1.9503073692321777,-2.0,2021-01-21 20:21:25.278000+00:00,train
319,-1.9444206953048706,-2.0,2021-01-21 20:21:55.278000+00:00,train
320,-1.9386295080184937,-2.0,2021-01-21 20:22:25.278000+00:00,train
321,-1.932931661605835,-2.0,2021-01-21 20:22:55.278000+00:00,train
322,-1.9273267984390259,-2.0,2021-01-21 20:23:25.278000+00:00,train
323,-1.9218195676803589,-2.0,2021-01-21 20:23:55.278000+00:00,train
324,-1.9164013862609863,-2.0,2021-01-21 20:24:25.278000+00:00,train
325,-1.911073923110962,-2.0,2021-01-21 20:24:55.278000+00:00,train
326,-1.9058372974395752,-2.0,2021-01-21 20:25:25.278000+00:00,train
327,-1.9006911516189575,-2.0,2021-01-21 20:25:55.278000+00:00,train
328,-1.8956409692764282,-2.0,2021-01-21 20:26:25.278000+00:00,train
329,-1.8906781673431396,-2.0,2021-01-21 20:26:55.278000+00:00,train
330,-1.8858046531677246,-2.0,2021-01-21 20:27:25.278000+00:00,train
331,-1.881019949913025,-2.0,2021-01-21 20:27:55.278000+00:00,train
332,-1.8763244152069092,-2.0,2021-01-21 20:28:25.278000+00:00,train
333,-1.8717186450958252,-2.0,2021-01-21 20:28:55.278000+00:00,train
334,-1.8672065734863281,-2.0,2021-01-21 20:29:25.278000+00:00,train
335,-1.862781286239624,-2.0,2021-01-21 20:29:55.278000+00:00,train
336,-1.8584438562393188,-2.0,2021-01-21 20:30:25.278000+00:00,train
337,-1.8541946411132812,-2.0,2021-01-21 20:30:55.278000+00:00,train
338,-1.8500343561172485,-2.0,2021-01-21 20:31:25.278000+00:00,train
339,-1.8459630012512207,-2.0,2021-01-21 20:31:55.278000+00:00,train
340,-1.8419229984283447,-2.0,2021-01-21 20:32:25.278000+00:00,train
341,-1.8380151987075806,-2.0,2021-01-21 20:32:55.278000+00:00,train
342,-1.8342012166976929,-2.0,2021-01-21 20:33:25.278000+00:00,train
343,-1.830476999282837,-2.0,2021-01-21 20:33:55.278000+00:00,train
344,-1.8268423080444336,-2.0,2021-01-21 20:34:25.278000+00:00,train
345,-1.823298692703247,-2.0,2021-01-21 20:34:55.278000+00:00,train
346,-1.8198519945144653,-2.0,2021-01-21 20:35:25.278000+00:00,train
347,-1.8164950609207153,-2.0,2021-01-21 20:35:55.278000+00:00,train
348,-1.813230276107788,-2.0,2021-01-21 20:36:25.278000+00:00,train
349,-1.8100581169128418,-2.0,2021-01-21 20:36:55.278000+00:00,train
350,-1.8069796562194824,-2.0,2021-01-21 20:37:25.278000+00:00,train
351,-1.8040003776550293,-2.0,2021-01-21 20:37:55.278000+00:00,train
352,-1.8011137247085571,-2.0,2021-01-21 20:38:25.278000+00:00,train
353,-1.798322319984436,-2.0,2021-01-21 20:38:55.278000+00:00,train
354,-1.795627236366272,-2.0,2021-01-21 20:39:25.278000+00:00,train
355,-1.7930302619934082,-2.0,2021-01-21 20:39:55.278000+00:00,train
356,-1.7905325889587402,-2.0,2021-01-21 20:40:25.278000+00:00,train
357,-1.7881124019622803,-2.0,2021-01-21 20:40:55.278000+00:00,train
358,-1.7858295440673828,-2.0,2021-01-21 20:41:25.278000+00:00,train
359,-1.7836419343948364,-2.0,2021-01-21 20:41:55.278000+00:00,train
360,-1.7815505266189575,-2.0,2021-01-21 20:42:25.278000+00:00,train
361,-1.7795605659484863,-2.0,2021-01-21 20:42:55.278000+00:00,train
362,-1.777677059173584,-2.0,2021-01-21 20:43:25.278000+00:00,train
363,-1.775909662246704,-2.0,2021-01-21 20:43:55.278000+00:00,train
364,-1.774253249168396,-2.0,2021-01-21 20:44:25.278000+00:00,train
365,-1.772711992263794,-2.0,2021-01-21 20:44:55.278000+00:00,train
366,-1.7712888717651367,-2.0,2021-01-21 20:45:25.278000+00:00,train
367,-1.7699865102767944,-2.0,2021-01-21 20:45:55.278000+00:00,train
368,-1.7688086032867432,-2.0,2021-01-21 20:46:25.278000+00:00,train
369,-1.767760992050171,-2.0,2021-01-21 20:46:55.278000+00:00,train
370,-1.7668423652648926,-2.0,2021-01-21 20:47:25.278000+00:00,train
371,-1.7660566568374634,-2.0,2021-01-21 20:47:55.278000+00:00,train
372,-1.7654070854187012,-2.0,2021-01-21 20:48:25.278000+00:00,train
373,-1.7648985385894775,-2.0,2021-01-21 20:48:55.278000+00:00,train
374,-1.764590859413147,-2.0,2021-01-21 20:49:25.278000+00:00,train
375,-1.7644405364990234,-2.0,2021-01-21 20:49:55.278000+00:00,train
376,-1.764420509338379,-2.0,2021-01-21 20:50:25.278000+00:00,train
377,-1.7645435333251953,-2.0,2021-01-21 20:50:55.278000+00:00,train
378,-1.7648255825042725,-2.0,2021-01-21 20:51:25.278000+00:00,train
379,-1.7652804851531982,-2.0,2021-01-21 20:51:55.278000+00:00,train
380,-1.765923023223877,-2.0,2021-01-21 20:52:25.278000+00:00,train
381,-1.7667603492736816,-2.0,2021-01-21 20:52:55.278000+00:00,train
382,-1.7678039073944092,-2.0,2021-01-21 20:53:25.278000+00:00,train
383,-1.769066572189331,-2.0,2021-01-21 20:53:55.278000+00:00,train
384,-1.7705607414245605,-2.0,2021-01-21 20:54:25.278000+00:00,train
385,-1.7723013162612915,-2.0,2021-01-21 20:54:55.278000+00:00,train
386,-1.7743068933486938,-2.0,2021-01-21 20:55:25.278000+00:00,train
387,-1.7765921354293823,-2.0,2021-01-21 20:55:55.278000+00:00,train
388,-1.7791787385940552,-2.0,2021-01-21 20:56:25.278000+00:00,train
389,-1.7820910215377808,-2.0,2021-01-21 20:56:55.278000+00:00,train
390,-1.7853578329086304,-2.0,2021-01-21 20:57:25.278000+00:00,train
391,-1.789124608039856,-2.0,2021-01-21 20:57:55.278000+00:00,train
392,-1.7932851314544678,-2.0,2021-01-21 20:58:25.278000+00:00,train
393,-1.7978742122650146,-2.0,2021-01-21 20:58:55.278000+00:00,train
394,-1.8029636144638062,-2.0,2021-01-21 20:59:25.278000+00:00,train
395,-1.8086358308792114,-2.0,2021-01-21 20:59:55.278000+00:00,train
396,-1.8149856328964233,-2.0,2021-01-21 21:00:25.278000+00:00,train
397,-1.8221315145492554,0.0,2021-01-21 21:00:55.278000+00:00,train
398,-1.8302230834960938,-2.0,2021-01-21 21:01:25.278000+00:00,train
399,-1.7677234411239624,-2.0,2021-01-21 21:01:55.278000+00:00,train
400,-1.7736808061599731,-2.0,2021-01-21 21:02:25.278000+00:00,train
401,-1.7808473110198975,-2.0,2021-01-21 21:02:55.278000+00:00,train
402,-1.7894014120101929,-2.0,2021-01-21 21:03:25.278000+00:00,train
403,-1.7993425130844116,-2.0,2021-01-21 21:03:55.278000+00:00,train
404,-1.8109136819839478,-2.0,2021-01-21 21:04:25.278000+00:00,train
405,-1.8245946168899536,-2.0,2021-01-21 21:04:55.278000+00:00,train
406,-1.8248201608657837,-2.0,2021-01-21 21:05:25.278000+00:00,train
407,-1.8250497579574585,-2.0,2021-01-21 21:05:55.278000+00:00,train
408,-1.8253836631774902,-2.0,2021-01-21 21:06:25.278000+00:00,train
409,-1.8256866931915283,-2.0,2021-01-21 21:06:55.278000+00:00,train
410,-1.8259583711624146,-2.0,2021-01-21 21:07:25.278000+00:00,train
411,-1.8262094259262085,-2.0,2021-01-21 21:07:55.278000+00:00,train
412,-1.8264480829238892,-2.0,2021-01-21 21:08:25.278000+00:00,train
413,-1.826678991317749,-2.0,2021-01-21 21:08:55.278000+00:00,train
414,-1.8269062042236328,-2.0,2021-01-21 21:09:25.278000+00:00,train
415,-1.8271299600601196,-2.0,2021-01-21 21:09:55.278000+00:00,train
416,-1.8273515701293945,-2.0,2021-01-21 21:10:25.278000+00:00,train
417,-1.8275715112686157,-2.0,2021-01-21 21:10:55.278000+00:00,train
418,-1.8277900218963623,-2.0,2021-01-21 21:11:25.278000+00:00,train
419,-1.8280071020126343,-2.0,2021-01-21 21:11:55.278000+00:00,train
420,-1.8282238245010376,-2.0,2021-01-21 21:12:25.278000+00:00,train
421,-1.8284392356872559,-2.0,2021-01-21 21:12:55.278000+00:00,train
422,-1.8286534547805786,-2.0,2021-01-21 21:13:25.278000+00:00,train
423,-1.8288661241531372,-2.0,2021-01-21 21:13:55.278000+00:00,train
424,-1.8290776014328003,-2.0,2021-01-21 21:14:25.278000+00:00,train
425,-1.8292877674102783,-2.0,2021-01-21 21:14:55.278000+00:00,train
426,-1.8294973373413086,-2.0,2021-01-21 21:15:25.278000+00:00,train
427,-1.8297053575515747,-2.0,2021-01-21 21:15:55.278000+00:00,train
428,-1.829911708831787,-2.0,2021-01-21 21:16:25.278000+00:00,train
429,-1.830116868019104,-2.0,2021-01-21 21:16:55.278000+00:00,train
430,-1.8303207159042358,-2.0,2021-01-21 21:17:25.278000+00:00,train
431,-1.830525279045105,-2.0,2021-01-21 21:17:55.278000+00:00,train
432,-1.830626368522644,-2.0,2021-01-21 21:18:25.278000+00:00,train
433,-1.8307597637176514,-2.0,2021-01-21 21:18:55.278000+00:00,train
434,-1.830857276916504,-2.0,2021-01-21 21:19:25.278000+00:00,train
435,-1.830994725227356,-2.0,2021-01-21 21:19:55.278000+00:00,train
436,-1.8311679363250732,-2.0,2021-01-21 21:20:25.278000+00:00,train
437,-1.831363320350647,-2.0,2021-01-21 21:20:55.278000+00:00,train
438,-1.8315706253051758,-2.0,2021-01-21 21:21:25.278000+00:00,train
439,-1.8317838907241821,-2.0,2021-01-21 21:21:55.278000+00:00,train
440,-1.8320008516311646,-2.0,2021-01-21 21:22:25.278000+00:00,train
441,-1.832217812538147,-2.0,2021-01-21 21:22:55.278000+00:00,train
442,-1.8324342966079712,-2.0,2021-01-21 21:23:25.278000+00:00,train
443,-1.8326501846313477,-2.0,2021-01-21 21:23:55.278000+00:00,train
444,-1.8328648805618286,-2.0,2021-01-21 21:24:25.278000+00:00,train
445,-1.8331440687179565,-2.0,2021-01-21 21:24:55.278000+00:00,train
446,-1.833404302597046,-2.0,2021-01-21 21:25:25.278000+00:00,train
447,-1.8336386680603027,-2.0,2021-01-21 21:25:55.278000+00:00,train
448,-1.8338550329208374,-2.0,2021-01-21 21:26:25.278000+00:00,train
449,-1.8340600728988647,-2.0,2021-01-21 21:26:55.278000+00:00,train
450,-1.834258794784546,-2.0,2021-01-21 21:27:25.278000+00:00,train
451,-1.8344578742980957,-2.0,2021-01-21 21:27:55.278000+00:00,train
452,-1.8346540927886963,-2.0,2021-01-21 21:28:25.278000+00:00,train
453,-1.834848403930664,-2.0,2021-01-21 21:28:55.278000+00:00,train
454,-1.8350410461425781,-2.0,2021-01-21 21:29:25.278000+00:00,train
455,-1.8352324962615967,-2.0,2021-01-21 21:29:55.278000+00:00,train
456,-1.8354226350784302,-2.0,2021-01-21 21:30:25.278000+00:00,train
457,-1.8356125354766846,-2.0,2021-01-21 21:30:55.278000+00:00,train
458,-1.8358007669448853,-2.0,2021-01-21 21:31:25.278000+00:00,train
459,-1.8359878063201904,-2.0,2021-01-21 21:31:55.278000+00:00,train
460,-1.836173415184021,-2.0,2021-01-21 21:32:25.278000+00:00,train
461,-1.836357831954956,-2.0,2021-01-21 21:32:55.278000+00:00,train
462,-1.836541771888733,-2.0,2021-01-21 21:33:25.278000+00:00,train
463,-1.8367242813110352,-2.0,2021-01-21 21:33:55.278000+00:00,train
464,-1.8369051218032837,-2.0,2021-01-21 21:34:25.278000+00:00,train
465,-1.8370846509933472,-2.0,2021-01-21 21:34:55.278000+00:00,train
466,-1.837262511253357,-2.0,2021-01-21 21:35:25.278000+00:00,train
467,-1.837438941001892,-2.0,2021-01-21 21:35:55.278000+00:00,train
468,-1.8377342224121094,-2.0,2021-01-21 21:36:25.278000+00:00,train
469,-1.8379889726638794,-2.0,2021-01-21 21:36:55.278000+00:00,train
470,-1.838207483291626,-2.0,2021-01-21 21:37:25.278000+00:00,train
471,-1.8384029865264893,-2.0,2021-01-21 21:37:55.278000+00:00,train
472,-1.838584303855896,-2.0,2021-01-21 21:38:25.278000+00:00,train
473,-1.838756799697876,-2.0,2021-01-21 21:38:55.278000+00:00,train
474,-1.8389124870300293,-2.0,2021-01-21 21:39:25.278000+00:00,train
475,-1.839064359664917,-2.0,2021-01-21 21:39:55.278000+00:00,train
476,-1.8392136096954346,-2.0,2021-01-21 21:40:25.278000+00:00,train
477,-1.8393608331680298,-2.0,2021-01-21 21:40:55.278000+00:00,train
478,-1.8395061492919922,-2.0,2021-01-21 21:41:25.278000+00:00,train
479,-1.839650273323059,-2.0,2021-01-21 21:41:55.278000+00:00,train
480,-1.8397926092147827,-2.0,2021-01-21 21:42:25.278000+00:00,train
481,-1.839933156967163,-2.0,2021-01-21 21:42:55.278000+00:00,train
482,-1.8400721549987793,-2.0,2021-01-21 21:43:25.278000+00:00,train
483,-1.8402096033096313,-2.0,2021-01-21 21:43:55.278000+00:00,train
484,-1.8403453826904297,-2.0,2021-01-21 21:44:25.278000+00:00,train
485,-1.840480089187622,-2.0,2021-01-21 21:44:55.278000+00:00,train
486,-1.8406130075454712,-2.0,2021-01-21 21:45:25.278000+00:00,train
487,-1.840744137763977,-2.0,2021-01-21 21:45:55.278000+00:00,train
488,-1.8408737182617188,-2.0,2021-01-21 21:46:25.278000+00:00,train
489,-1.8410016298294067,-2.0,2021-01-21 21:46:55.278000+00:00,train
490,-1.8412667512893677,-2.0,2021-01-21 21:47:25.278000+00:00,train
491,-1.8414784669876099,-2.0,2021-01-21 21:47:55.278000+00:00,train
492,-1.8416481018066406,-2.0,2021-01-21 21:48:25.278000+00:00,train
493,-1.8417915105819702,-2.0,2021-01-21 21:48:55.278000+00:00,train
494,-1.8419189453125,-2.0,2021-01-21 21:49:25.278000+00:00,train
495,-1.8420363664627075,-2.0,2021-01-21 21:49:55.278000+00:00,train
496,-1.8421483039855957,-2.0,2021-01-21 21:50:25.278000+00:00,train
497,-1.8422555923461914,-2.0,2021-01-21 21:50:55.278000+00:00,train
498,-1.8423596620559692,-2.0,2021-01-21 21:51:25.278000+00:00,train
499,-1.8424619436264038,-2.0,2021-01-21 21:51:55.278000+00:00,train
500,-1.8425664901733398,-2.0,2021-01-21 21:52:25.278000+00:00,train
501,-1.8426692485809326,-2.0,2021-01-21 21:52:55.278000+00:00,train
502,-1.8427698612213135,-2.0,2021-01-21 21:53:25.278000+00:00,train
503,-1.8428685665130615,-2.0,2021-01-21 21:53:55.278000+00:00,train
504,-1.8429652452468872,-2.0,2021-01-21 21:54:25.278000+00:00,train
505,-1.8430598974227905,-2.0,2021-01-21 21:54:55.278000+00:00,train
506,-1.8431528806686401,-2.0,2021-01-21 21:55:25.278000+00:00,train
507,-1.8432440757751465,-2.0,2021-01-21 21:55:55.278000+00:00,train
508,-1.8433332443237305,-1.0,2021-01-21 21:56:25.278000+00:00,train
509,-1.8434202671051025,-2.0,2021-01-21 21:56:55.278000+00:00,train
510,-1.8206981420516968,-2.0,2021-01-21 21:57:25.278000+00:00,train
511,-1.8207708597183228,-2.0,2021-01-21 21:57:55.278000+00:00,train
512,-1.8210119009017944,-2.0,2021-01-21 21:58:25.278000+00:00,train
513,-1.8211936950683594,-2.0,2021-01-21 21:58:55.278000+00:00,train
514,-1.8213305473327637,-2.0,2021-01-21 21:59:25.278000+00:00,train
515,-1.821439504623413,-1.0,2021-01-21 21:59:55.278000+00:00,train
516,-1.8215324878692627,-1.0,2021-01-21 22:00:25.278000+00:00,train
517,-1.8006582260131836,0.0,2021-01-21 22:00:55.278000+00:00,train
518,-1.7811036109924316,-1.0,2021-01-21 22:01:25.278000+00:00,train
519,-1.7233891487121582,-1.0,2021-01-21 22:01:55.278000+00:00,train
520,-1.7065662145614624,-1.0,2021-01-21 22:02:25.278000+00:00,train
521,-1.6907527446746826,-1.0,2021-01-21 22:02:55.278000+00:00,train
522,-1.6757184267044067,-1.0,2021-01-21 22:03:25.278000+00:00,train
523,-1.6611874103546143,-1.0,2021-01-21 22:03:55.278000+00:00,train
524,-1.647055983543396,-1.0,2021-01-21 22:04:25.278000+00:00,train
525,-1.6332696676254272,-1.0,2021-01-21 22:04:55.278000+00:00,train
526,-1.6197940111160278,-1.0,2021-01-21 22:05:25.278000+00:00,train
527,-1.6066045761108398,-1.0,2021-01-21 22:05:55.278000+00:00,train
528,-1.59368097782135,-1.0,2021-01-21 22:06:25.278000+00:00,train
529,-1.581006407737732,-1.0,2021-01-21 22:06:55.278000+00:00,train
530,-1.5685640573501587,-1.0,2021-01-21 22:07:25.278000+00:00,train
531,-1.5563385486602783,-1.0,2021-01-21 22:07:55.278000+00:00,train
532,-1.5443167686462402,-1.0,2021-01-21 22:08:25.278000+00:00,train
533,-1.5324900150299072,-1.0,2021-01-21 22:08:55.278000+00:00,train
534,-1.5212198495864868,-1.0,2021-01-21 22:09:25.278000+00:00,train
535,-1.5100125074386597,-1.0,2021-01-21 22:09:55.278000+00:00,train
536,-1.4988901615142822,-1.0,2021-01-21 22:10:25.278000+00:00,train
537,-1.4878802299499512,-1.0,2021-01-21 22:10:55.278000+00:00,train
538,-1.4769961833953857,-1.0,2021-01-21 22:11:25.278000+00:00,train
539,-1.4662436246871948,-1.0,2021-01-21 22:11:55.278000+00:00,train
540,-1.4549094438552856,-1.0,2021-01-21 22:12:25.278000+00:00,train
541,-1.4439644813537598,-1.0,2021-01-21 22:12:55.278000+00:00,train
542,-1.4333499670028687,-1.0,2021-01-21 22:13:25.278000+00:00,train
543,-1.4225980043411255,-1.0,2021-01-21 22:13:55.278000+00:00,train
544,-1.4121795892715454,-1.0,2021-01-21 22:14:25.278000+00:00,train
545,-1.4020344018936157,-1.0,2021-01-21 22:14:55.278000+00:00,train
546,-1.3920941352844238,-1.0,2021-01-21 22:15:25.278000+00:00,train
547,-1.3823163509368896,-1.0,2021-01-21 22:15:55.278000+00:00,train
548,-1.3726720809936523,-1.0,2021-01-21 22:16:25.278000+00:00,train
549,-1.3631443977355957,-1.0,2021-01-21 22:16:55.278000+00:00,train
550,-1.3537201881408691,-1.0,2021-01-21 22:17:25.278000+00:00,train
551,-1.3444989919662476,-1.0,2021-01-21 22:17:55.278000+00:00,train
552,-1.3353815078735352,-1.0,2021-01-21 22:18:25.278000+00:00,train
553,-1.3263659477233887,-1.0,2021-01-21 22:18:55.278000+00:00,train
554,-1.3178644180297852,-1.0,2021-01-21 22:19:25.278000+00:00,train
555,-1.309316873550415,-1.0,2021-01-21 22:19:55.278000+00:00,train
556,-1.30079185962677,-1.0,2021-01-21 22:20:25.278000+00:00,train
557,-1.2924000024795532,-1.0,2021-01-21 22:20:55.278000+00:00,train
558,-1.2841814756393433,-1.0,2021-01-21 22:21:25.278000+00:00,train
559,-1.304092288017273,-1.0,2021-01-21 22:21:55.278000+00:00,train
560,-1.2952630519866943,-1.0,2021-01-21 22:22:25.278000+00:00,train
561,-1.2866604328155518,-1.0,2021-01-21 22:22:55.278000+00:00,train
562,-1.2781399488449097,-1.0,2021-01-21 22:23:25.278000+00:00,train
563,-1.269700050354004,-1.0,2021-01-21 22:23:55.278000+00:00,train
564,-1.261338710784912,-1.0,2021-01-21 22:24:25.278000+00:00,train
565,-1.2530518770217896,-1.0,2021-01-21 22:24:55.278000+00:00,train
566,-1.2448331117630005,-1.0,2021-01-21 22:25:25.278000+00:00,train
567,-1.2366724014282227,-1.0,2021-01-21 22:25:55.278000+00:00,train
568,-1.2287189960479736,-1.0,2021-01-21 22:26:25.278000+00:00,train
569,-1.2208431959152222,-1.0,2021-01-21 22:26:55.278000+00:00,train
570,-1.2130448818206787,-1.0,2021-01-21 22:27:25.278000+00:00,train
571,-1.2053227424621582,-1.0,2021-01-21 22:27:55.278000+00:00,train
572,-1.197677493095398,-1.0,2021-01-21 22:28:25.278000+00:00,train
573,-1.1901062726974487,-1.0,2021-01-21 22:28:55.278000+00:00,train
574,-1.1826072931289673,-1.0,2021-01-21 22:29:25.278000+00:00,train
575,-1.1751810312271118,-1.0,2021-01-21 22:29:55.278000+00:00,train
576,-1.167826533317566,-1.0,2021-01-21 22:30:25.278000+00:00,train
577,-1.1609981060028076,-1.0,2021-01-21 22:30:55.278000+00:00,train
578,-1.154058814048767,-1.0,2021-01-21 22:31:25.278000+00:00,train
579,-1.147060513496399,-1.0,2021-01-21 22:31:55.278000+00:00,train
580,-1.14005446434021,-1.0,2021-01-21 22:32:25.278000+00:00,train
581,-1.1330729722976685,-1.0,2021-01-21 22:32:55.278000+00:00,train
582,-1.126134991645813,-1.0,2021-01-21 22:33:25.278000+00:00,train
583,-1.1192513704299927,-1.0,2021-01-21 22:33:55.278000+00:00,train
584,-1.1124266386032104,-1.0,2021-01-21 22:34:25.278000+00:00,train
585,-1.105664610862732,-1.0,2021-01-21 22:34:55.278000+00:00,train
586,-1.098966360092163,-1.0,2021-01-21 22:35:25.278000+00:00,train
587,-1.0923351049423218,-1.0,2021-01-21 22:35:55.278000+00:00,train
588,-1.0857741832733154,-1.0,2021-01-21 22:36:25.278000+00:00,train
589,-1.079291582107544,-1.0,2021-01-21 22:36:55.278000+00:00,train
590,-1.0728973150253296,-1.0,2021-01-21 22:37:25.278000+00:00,train
591,-1.0666015148162842,-1.0,2021-01-21 22:37:55.278000+00:00,train
592,-1.0653091669082642,-1.0,2021-01-21 22:38:25.278000+00:00,train
593,-1.0590596199035645,-1.0,2021-01-21 22:38:55.278000+00:00,train
594,-1.0526851415634155,-1.0,2021-01-21 22:39:25.278000+00:00,train
595,-1.0463669300079346,-1.0,2021-01-21 22:39:55.278000+00:00,train
596,-1.040105938911438,-1.0,2021-01-21 22:40:25.278000+00:00,train
597,-1.0339019298553467,-1.0,2021-01-21 22:40:55.278000+00:00,train
598,-1.0277544260025024,-1.0,2021-01-21 22:41:25.278000+00:00,train
599,-1.021662950515747,-1.0,2021-01-21 22:41:55.278000+00:00,train
600,-1.0160720348358154,-1.0,2021-01-21 22:42:25.278000+00:00,train
601,-1.0103540420532227,-1.0,2021-01-21 22:42:55.278000+00:00,train
602,-1.0045627355575562,-1.0,2021-01-21 22:43:25.278000+00:00,train
603,-0.9987486004829407,-1.0,2021-01-21 22:43:55.278000+00:00,train
604,-0.992938756942749,-1.0,2021-01-21 22:44:25.278000+00:00,train
605,-0.9873777031898499,-1.0,2021-01-21 22:44:55.278000+00:00,train
606,-0.9818659424781799,-1.0,2021-01-21 22:45:25.278000+00:00,train
607,-0.9764088988304138,-1.0,2021-01-21 22:45:55.278000+00:00,train
608,-0.9710097312927246,-1.0,2021-01-21 22:46:25.278000+00:00,train
609,-0.9656710028648376,-1.0,2021-01-21 22:46:55.278000+00:00,train
610,-0.9603943824768066,-1.0,2021-01-21 22:47:25.278000+00:00,train
611,-0.9551799297332764,-1.0,2021-01-21 22:47:55.278000+00:00,train
612,-0.9500305652618408,-1.0,2021-01-21 22:48:25.278000+00:00,train
613,-0.9449456334114075,-1.0,2021-01-21 22:48:55.278000+00:00,train
614,-0.9399263262748718,-1.0,2021-01-21 22:49:25.278000+00:00,train
615,-0.9349736571311951,-1.0,2021-01-21 22:49:55.278000+00:00,train
616,-0.9300882816314697,-1.0,2021-01-21 22:50:25.278000+00:00,train
617,-0.9252710938453674,-1.0,2021-01-21 22:50:55.278000+00:00,train
618,-0.9172975420951843,-1.0,2021-01-21 22:51:25.278000+00:00,train
619,-0.9126191735267639,-1.0,2021-01-21 22:51:55.278000+00:00,train
620,-1.0364190340042114,-1.0,2021-01-21 22:52:25.278000+00:00,train
621,-1.030929446220398,-1.0,2021-01-21 22:52:55.278000+00:00,train
622,-1.0254989862442017,-1.0,2021-01-21 22:53:25.278000+00:00,train
623,-1.0201927423477173,-1.0,2021-01-21 22:53:55.278000+00:00,train
624,-1.014907956123352,-1.0,2021-01-21 22:54:25.278000+00:00,train
625,-1.0096577405929565,-1.0,2021-01-21 22:54:55.278000+00:00,train
626,-1.0044569969177246,-1.0,2021-01-21 22:55:25.278000+00:00,train
627,-0.9993116855621338,-1.0,2021-01-21 22:55:55.278000+00:00,train
628,-0.9943399429321289,-1.0,2021-01-21 22:56:25.278000+00:00,train
629,-0.9894359111785889,-1.0,2021-01-21 22:56:55.278000+00:00,train
630,-0.9845996499061584,-1.0,2021-01-21 22:57:25.278000+00:00,train
631,-0.9798344373703003,-1.0,2021-01-21 22:57:55.278000+00:00,train
632,-0.9751425981521606,-1.0,2021-01-21 22:58:25.278000+00:00,train
633,-0.970526397228241,-1.0,2021-01-21 22:58:55.278000+00:00,train
634,-0.965988039970398,-1.0,2021-01-21 22:59:25.278000+00:00,train
635,-0.9615319967269897,-1.0,2021-01-21 22:59:55.278000+00:00,train
636,-0.9571577310562134,-1.0,2021-01-21 23:00:25.278000+00:00,train
637,-0.9528681039810181,0.0,2021-01-21 23:00:55.278000+00:00,train
638,-0.9486678242683411,-1.0,2021-01-21 23:01:25.278000+00:00,train
639,-0.9341028332710266,-1.0,2021-01-21 23:01:55.278000+00:00,train
640,-0.9284761548042297,-1.0,2021-01-21 23:02:25.278000+00:00,train
641,-0.9240978360176086,-1.0,2021-01-21 23:02:55.278000+00:00,train
642,-0.9201210737228394,-1.0,2021-01-21 23:03:25.278000+00:00,train
643,-0.9163604378700256,-1.0,2021-01-21 23:03:55.278000+00:00,train
644,-0.9127381443977356,-1.0,2021-01-21 23:04:25.278000+00:00,train
645,-0.9092273712158203,-1.0,2021-01-21 23:04:55.278000+00:00,train
646,-0.9057005643844604,-1.0,2021-01-21 23:05:25.278000+00:00,train
647,-0.902360737323761,-1.0,2021-01-21 23:05:55.278000+00:00,train
648,-0.8991971611976624,-1.0,2021-01-21 23:06:25.278000+00:00,train
649,-0.8961812853813171,-1.0,2021-01-21 23:06:55.278000+00:00,train
650,-0.8934034705162048,-1.0,2021-01-21 23:07:25.278000+00:00,train
651,-0.8907658457756042,-1.0,2021-01-21 23:07:55.278000+00:00,train
652,-0.8882706761360168,-1.0,2021-01-21 23:08:25.278000+00:00,train
653,-0.8859220147132874,-1.0,2021-01-21 23:08:55.278000+00:00,train
654,-0.883726179599762,-1.0,2021-01-21 23:09:25.278000+00:00,train
655,-0.8816917538642883,-1.0,2021-01-21 23:09:55.278000+00:00,train
656,-0.8798248171806335,-1.0,2021-01-21 23:10:25.278000+00:00,train
657,-0.8781357407569885,-1.0,2021-01-21 23:10:55.278000+00:00,train
658,-0.8766360878944397,-1.0,2021-01-21 23:11:25.278000+00:00,train
659,-0.875338613986969,-1.0,2021-01-21 23:11:55.278000+00:00,train
660,-0.8742581009864807,-1.0,2021-01-21 23:12:25.278000+00:00,train
661,-0.8734126687049866,-1.0,2021-01-21 23:12:55.278000+00:00,train
662,-0.8728196024894714,-1.0,2021-01-21 23:13:25.278000+00:00,train
663,-0.8725025057792664,-1.0,2021-01-21 23:13:55.278000+00:00,train
664,-0.8724883198738098,-1.0,2021-01-21 23:14:25.278000+00:00,train
665,-0.8728092312812805,-1.0,2021-01-21 23:14:55.278000+00:00,train
666,-0.8735055923461914,-1.0,2021-01-21 23:15:25.278000+00:00,train
667,-0.8746233582496643,-1.0,2021-01-21 23:15:55.278000+00:00,train
668,-0.8762239813804626,-1.0,2021-01-21 23:16:25.278000+00:00,train
669,-0.878385603427887,-1.0,2021-01-21 23:16:55.278000+00:00,train
670,-0.8782655000686646,-1.0,2021-01-21 23:17:25.278000+00:00,train
671,-0.8810885548591614,-1.0,2021-01-21 23:17:55.278000+00:00,train
672,-0.8847993612289429,-1.0,2021-01-21 23:18:25.278000+00:00,train
673,-0.8894826173782349,-1.0,2021-01-21 23:18:55.278000+00:00,train
674,-0.8954629302024841,-1.0,2021-01-21 23:19:25.278000+00:00,train
675,-0.9032822847366333,-1.0,2021-01-21 23:19:55.278000+00:00,train
676,-0.9139986634254456,-1.0,2021-01-21 23:20:25.278000+00:00,train
677,-0.9139620661735535,-1.0,2021-01-21 23:20:55.278000+00:00,train
678,-0.9139378666877747,-1.0,2021-01-21 23:21:25.278000+00:00,train
679,-0.9415203928947449,-1.0,2021-01-21 23:21:55.278000+00:00,train
680,-0.9414333701133728,-1.0,2021-01-21 23:22:25.278000+00:00,train
681,-0.9413999915122986,-1.0,2021-01-21 23:22:55.278000+00:00,train
682,-0.94136643409729,-1.0,2021-01-21 23:23:25.278000+00:00,train
683,-0.9413330554962158,-1.0,2021-01-21 23:23:55.278000+00:00,train
684,-0.941299557685852,-1.0,2021-01-21 23:24:25.278000+00:00,train
685,-0.9412660598754883,-1.0,2021-01-21 23:24:55.278000+00:00,train
686,-0.9412325620651245,-1.0,2021-01-21 23:25:25.278000+00:00,train
687,-0.9411990642547607,-1.0,2021-01-21 23:25:55.278000+00:00,train
688,-0.9411656856536865,-1.0,2021-01-21 23:26:25.278000+00:00,train
689,-0.9411324858665466,-1.0,2021-01-21 23:26:55.278000+00:00,train
690,-0.9410992860794067,-1.0,2021-01-21 23:27:25.278000+00:00,train
691,-0.9410661458969116,-1.0,2021-01-21 23:27:55.278000+00:00,train
692,-0.9410330653190613,-1.0,2021-01-21 23:28:25.278000+00:00,train
693,-0.9409990310668945,-1.0,2021-01-21 23:28:55.278000+00:00,train
694,-0.9409919381141663,-1.0,2021-01-21 23:29:25.278000+00:00,train
695,-0.9409773349761963,-1.0,2021-01-21 23:29:55.278000+00:00,train
696,-0.9409576058387756,-1.0,2021-01-21 23:30:25.278000+00:00,train
697,-0.9409351348876953,-1.0,2021-01-21 23:30:55.278000+00:00,train
698,-0.9409111142158508,-1.0,2021-01-21 23:31:25.278000+00:00,train
699,-0.9408896565437317,-1.0,2021-01-21 23:31:55.278000+00:00,train
700,-0.940832793712616,-1.0,2021-01-21 23:32:25.278000+00:00,train
701,-0.9407761693000793,-1.0,2021-01-21 23:32:55.278000+00:00,train
702,-0.9407212138175964,-1.0,2021-01-21 23:33:25.278000+00:00,train
703,-0.9406426548957825,-1.0,2021-01-21 23:33:55.278000+00:00,train
704,-0.9405638575553894,-1.0,2021-01-21 23:34:25.278000+00:00,train
705,-0.9404849410057068,-1.0,2021-01-21 23:34:55.278000+00:00,train
706,-0.9404062628746033,-1.0,2021-01-21 23:35:25.278000+00:00,train
707,-0.9403273463249207,-1.0,2021-01-21 23:35:55.278000+00:00,train
708,-0.9402483105659485,-1.0,2021-01-21 23:36:25.278000+00:00,train
709,-0.940169095993042,-1.0,2021-01-21 23:36:55.278000+00:00,train
710,-0.940089762210846,-1.0,2021-01-21 23:37:25.278000+00:00,train
711,-0.940010130405426,-1.0,2021-01-21 23:37:55.278000+00:00,train
712,-0.9399305582046509,-1.0,2021-01-21 23:38:25.278000+00:00,train
713,-0.9398488998413086,-1.0,2021-01-21 23:38:55.278000+00:00,train
714,-0.9397908449172974,-1.0,2021-01-21 23:39:25.278000+00:00,train
715,-0.9397327899932861,-1.0,2021-01-21 23:39:55.278000+00:00,train
716,-0.9396747350692749,-1.0,2021-01-21 23:40:25.278000+00:00,train
717,-0.9396166801452637,-1.0,2021-01-21 23:40:55.278000+00:00,train
718,-0.9395589828491211,-1.0,2021-01-21 23:41:25.278000+00:00,train
719,-0.9395012259483337,-1.0,2021-01-21 23:41:55.278000+00:00,train
720,-0.9394433498382568,-1.0,2021-01-21 23:42:25.278000+00:00,train
721,-0.9393855333328247,-1.0,2021-01-21 23:42:55.278000+00:00,train
722,-0.9393277764320374,-1.0,2021-01-21 23:43:25.278000+00:00,train
723,-0.9392784833908081,-1.0,2021-01-21 23:43:55.278000+00:00,train
724,-0.9392232894897461,-1.0,2021-01-21 23:44:25.278000+00:00,train
725,-0.9391645193099976,-1.0,2021-01-21 23:44:55.278000+00:00,train
726,-0.9391036629676819,-1.0,2021-01-21 23:45:25.278000+00:00,train
727,-0.9390416145324707,-1.0,2021-01-21 23:45:55.278000+00:00,train
728,-0.9389787912368774,-1.0,2021-01-21 23:46:25.278000+00:00,train
729,-0.9389157891273499,-1.0,2021-01-21 23:46:55.278000+00:00,train
730,-0.9388523697853088,-1.0,2021-01-21 23:47:25.278000+00:00,train
731,-0.9387888312339783,-1.0,2021-01-21 23:47:55.278000+00:00,train
732,-0.9387250542640686,-1.0,2021-01-21 23:48:25.278000+00:00,train
733,-0.9386612772941589,-1.0,2021-01-21 23:48:55.278000+00:00,train
734,-0.9385974407196045,-1.0,2021-01-21 23:49:25.278000+00:00,train
735,-0.93853360414505,-1.0,2021-01-21 23:49:55.278000+00:00,train
736,-0.9384677410125732,-1.0,2021-01-21 23:50:25.278000+00:00,train
737,-0.9384210109710693,-1.0,2021-01-21 23:50:55.278000+00:00,train
738,-0.938374400138855,-1.0,2021-01-21 23:51:25.278000+00:00,train
739,-0.9383278489112854,-1.0,2021-01-21 23:51:55.278000+00:00,train
740,-0.9382814168930054,-1.0,2021-01-21 23:52:25.278000+00:00,train
741,-0.9382352828979492,-1.0,2021-01-21 23:52:55.278000+00:00,train
742,-0.9381891489028931,-1.0,2021-01-21 23:53:25.278000+00:00,train
743,-0.9381429553031921,-1.0,2021-01-21 23:53:55.278000+00:00,train
744,-0.938096821308136,-1.0,2021-01-21 23:54:25.278000+00:00,train
745,-0.9380508065223694,-1.0,2021-01-21 23:54:55.278000+00:00,train
746,-0.9379844069480896,-1.0,2021-01-21 23:55:25.278000+00:00,train
747,-0.9379323124885559,-1.0,2021-01-21 23:55:55.278000+00:00,train
748,-0.9378899335861206,-1.0,2021-01-21 23:56:25.278000+00:00,train
749,-0.9378528594970703,-1.0,2021-01-21 23:56:55.278000+00:00,train
750,-0.937818706035614,-1.0,2021-01-21 23:57:25.278000+00:00,train
751,-0.9377864003181458,-1.0,2021-01-21 23:57:55.278000+00:00,train
752,-0.937755286693573,-1.0,2021-01-21 23:58:25.278000+00:00,train
753,-0.9377249479293823,-1.0,2021-01-21 23:58:55.278000+00:00,train
754,-0.9376949071884155,-1.0,2021-01-21 23:59:25.278000+00:00,train
755,-0.9376654028892517,-1.0,2021-01-21 23:59:55.278000+00:00,train
756,-0.9376360774040222,-1.0,2021-01-22 00:00:25.278000+00:00,train
757,-0.937606930732727,-1.0,2021-01-22 00:00:55.278000+00:00,train
758,-0.9375779032707214,-1.0,2021-01-22 00:01:25.278000+00:00,train
759,-0.9375479817390442,-1.0,2021-01-22 00:01:55.278000+00:00,train
760,-0.9375320076942444,-1.0,2021-01-22 00:02:25.278000+00:00,train
761,-0.9375163912773132,-1.0,2021-01-22 00:02:55.278000+00:00,train
762,-0.9375006556510925,-1.0,2021-01-22 00:03:25.278000+00:00,train
763,-0.9374850392341614,-1.0,2021-01-22 00:03:55.278000+00:00,train
764,-0.937469482421875,-1.0,2021-01-22 00:04:25.278000+00:00,train
765,-0.9374539256095886,-1.0,2021-01-22 00:04:55.278000+00:00,train
766,-0.9374386072158813,-1.0,2021-01-22 00:05:25.278000+00:00,train
767,-0.9374231696128845,-1.0,2021-01-22 00:05:55.278000+00:00,train
768,-0.937407910823822,-1.0,2021-01-22 00:06:25.278000+00:00,train
769,-0.9373926520347595,-1.0,2021-01-22 00:06:55.278000+00:00,train
770,-0.937377393245697,-1.0,2021-01-22 00:07:25.278000+00:00,train
771,-0.9373623132705688,-1.0,2021-01-22 00:07:55.278000+00:00,train
772,-0.9373472929000854,-1.0,2021-01-22 00:08:25.278000+00:00,train
773,-0.9373323321342468,-1.0,2021-01-22 00:08:55.278000+00:00,train
774,-0.9373173713684082,-1.0,2021-01-22 00:09:25.278000+00:00,train
775,-0.9373024702072144,-1.0,2021-01-22 00:09:55.278000+00:00,train
776,-0.9372876882553101,-1.0,2021-01-22 00:10:25.278000+00:00,train
777,-0.9372727870941162,-1.0,2021-01-22 00:10:55.278000+00:00,train
778,-0.9372725486755371,-1.0,2021-01-22 00:11:25.278000+00:00,train
779,-0.9372634291648865,-1.0,2021-01-22 00:11:55.278000+00:00,train
780,-0.937248945236206,-1.0,2021-01-22 00:12:25.278000+00:00,train
781,-0.9372316002845764,-1.0,2021-01-22 00:12:55.278000+00:00,train
782,-0.9372121691703796,-1.0,2021-01-22 00:13:25.278000+00:00,train
783,-0.9372017979621887,-1.0,2021-01-22 00:13:55.278000+00:00,train
784,-0.9371910095214844,-1.0,2021-01-22 00:14:25.278000+00:00,train
785,-0.9371797442436218,-1.0,2021-01-22 00:14:55.278000+00:00,train
786,-0.9371681809425354,-1.0,2021-01-22 00:15:25.278000+00:00,train
787,-0.9371565580368042,-1.0,2021-01-22 00:15:55.278000+00:00,train
788,-0.9371448159217834,-1.0,2021-01-22 00:16:25.278000+00:00,train
789,-0.9371331334114075,-1.0,2021-01-22 00:16:55.278000+00:00,train
790,-0.9371212720870972,-1.0,2021-01-22 00:17:25.278000+00:00,train
791,-0.9371094107627869,-1.0,2021-01-22 00:17:55.278000+00:00,train
792,-0.9370974898338318,-1.0,2021-01-22 00:18:25.278000+00:00,train
793,-0.9370853900909424,-1.0,2021-01-22 00:18:55.278000+00:00,train
794,-0.9370732307434082,-1.0,2021-01-22 00:19:25.278000+00:00,train
795,-0.937061071395874,-1.0,2021-01-22 00:19:55.278000+00:00,train
796,-0.9370490312576294,-1.0,2021-01-22 00:20:25.278000+00:00,train
797,-0.937038242816925,-1.0,2021-01-22 00:20:55.278000+00:00,train
798,-0.9370331764221191,-1.0,2021-01-22 00:21:25.278000+00:00,train
799,-1.0,-1.0,2021-01-22 00:21:55.278000+00:00,train
800,-1.0,-1.0,2021-01-22 00:22:25.278000+00:00,train
801,-1.0,-1.0,2021-01-22 00:22:55.278000+00:00,train
802,-1.0,-1.0,2021-01-22 00:23:25.278000+00:00,train
803,-1.0,-1.0,2021-01-22 00:23:55.278000+00:00,train
804,-1.0,-1.0,2021-01-22 00:24:25.278000+00:00,train
805,-1.0,-1.0,2021-01-22 00:24:55.278000+00:00,train
806,-1.0,-1.0,2021-01-22 00:25:25.278000+00:00,train
807,-1.0,-1.0,2021-01-22 00:25:55.278000+00:00,train
808,-1.0,-1.0,2021-01-22 00:26:25.278000+00:00,train
809,-1.0,-1.0,2021-01-22 00:26:55.278000+00:00,train
810,-1.0,-1.0,2021-01-22 00:27:25.278000+00:00,train
811,-1.0,-1.0,2021-01-22 00:27:55.278000+00:00,train
812,-1.0,-1.0,2021-01-22 00:28:25.278000+00:00,train
813,-1.0,-1.0,2021-01-22 00:28:55.278000+00:00,train
814,-1.0,-1.0,2021-01-22 00:29:25.278000+00:00,train
815,-1.0,-1.0,2021-01-22 00:29:55.278000+00:00,train
816,-1.0,-1.0,2021-01-22 00:30:25.278000+00:00,train
817,-1.0,-1.0,2021-01-22 00:30:55.278000+00:00,train
818,-1.0,-1.0,2021-01-22 00:31:25.278000+00:00,train
819,-1.0,-1.0,2021-01-22 00:31:55.278000+00:00,train
820,-1.0,-1.0,2021-01-22 00:32:25.278000+00:00,train
821,-1.0,-1.0,2021-01-22 00:32:55.278000+00:00,train
822,-1.0,-1.0,2021-01-22 00:33:25.278000+00:00,train
823,-1.0,-1.0,2021-01-22 00:33:55.278000+00:00,train
824,-1.0,-1.0,2021-01-22 00:34:25.278000+00:00,train
825,-1.0,-1.0,2021-01-22 00:34:55.278000+00:00,train
826,-1.0,-1.0,2021-01-22 00:35:25.278000+00:00,train
827,-1.0,-1.0,2021-01-22 00:35:55.278000+00:00,train
828,-1.0,-1.0,2021-01-22 00:36:25.278000+00:00,train
829,-1.0,-1.0,2021-01-22 00:36:55.278000+00:00,train
830,-1.0,-1.0,2021-01-22 00:37:25.278000+00:00,train
831,-1.0,-1.0,2021-01-22 00:37:55.278000+00:00,train
832,-1.0,-1.0,2021-01-22 00:38:25.278000+00:00,train
833,-1.0,-1.0,2021-01-22 00:38:55.278000+00:00,train
834,-1.0,-1.0,2021-01-22 00:39:25.278000+00:00,train
835,-1.0,-1.0,2021-01-22 00:39:55.278000+00:00,train
836,-1.0,-1.0,2021-01-22 00:40:25.278000+00:00,train
837,-1.0,-1.0,2021-01-22 00:40:55.278000+00:00,train
838,-1.0,-1.0,2021-01-22 00:41:25.278000+00:00,train
839,-1.0,-1.0,2021-01-22 00:41:55.278000+00:00,train
840,-1.0,-1.0,2021-01-22 00:42:25.278000+00:00,train
841,-1.0,-1.0,2021-01-22 00:42:55.278000+00:00,train
842,-1.0,-1.0,2021-01-22 00:43:25.278000+00:00,train
843,-1.0,-1.0,2021-01-22 00:43:55.278000+00:00,train
844,-1.0,-1.0,2021-01-22 00:44:25.278000+00:00,train
845,-1.0,-1.0,2021-01-22 00:44:55.278000+00:00,train
846,-1.0,-1.0,2021-01-22 00:45:25.278000+00:00,train
847,-1.0,-1.0,2021-01-22 00:45:55.278000+00:00,train
848,-1.0,-1.0,2021-01-22 00:46:25.278000+00:00,train
849,-1.0,-1.0,2021-01-22 00:46:55.278000+00:00,train
850,-1.0,-1.0,2021-01-22 00:47:25.278000+00:00,train
851,-1.0,-1.0,2021-01-22 00:47:55.278000+00:00,train
852,-1.0,-1.0,2021-01-22 00:48:25.278000+00:00,train
853,-1.0,-1.0,2021-01-22 00:48:55.278000+00:00,train
854,-1.0,-1.0,2021-01-22 00:49:25.278000+00:00,train
855,-1.0,-1.0,2021-01-22 00:49:55.278000+00:00,train
856,-1.0,-1.0,2021-01-22 00:50:25.278000+00:00,train
857,-1.0,-1.0,2021-01-22 00:50:55.278000+00:00,train
858,-1.0,-1.0,2021-01-22 00:51:25.278000+00:00,train
859,-1.0,-1.0,2021-01-22 00:51:55.278000+00:00,train
860,-1.0,-1.0,2021-01-22 00:52:25.278000+00:00,train
861,-1.0,-1.0,2021-01-22 00:52:55.278000+00:00,train
862,-1.0,-1.0,2021-01-22 00:53:25.278000+00:00,train
863,-1.0,-1.0,2021-01-22 00:53:55.278000+00:00,train
864,-1.0,-1.0,2021-01-22 00:54:25.278000+00:00,train
865,-1.0,-1.0,2021-01-22 00:54:55.278000+00:00,train
866,-1.0,-1.0,2021-01-22 00:55:25.278000+00:00,train
867,-1.0,-1.0,2021-01-22 00:55:55.278000+00:00,train
868,-1.0,-1.0,2021-01-22 00:56:25.278000+00:00,train
869,-1.0,-1.0,2021-01-22 00:56:55.278000+00:00,train
870,-1.0,-1.0,2021-01-22 00:57:25.278000+00:00,train
871,-1.0,-1.0,2021-01-22 00:57:55.278000+00:00,train
872,-1.0,-1.0,2021-01-22 00:58:25.278000+00:00,train
873,-1.0,-1.0,2021-01-22 00:58:55.278000+00:00,train
874,-1.0,-1.0,2021-01-22 00:59:25.278000+00:00,train
875,-1.0,-1.0,2021-01-22 00:59:55.278000+00:00,train
876,-1.0,-1.0,2021-01-22 01:00:25.278000+00:00,train
877,-1.0,-1.0,2021-01-22 01:00:55.278000+00:00,train
878,-1.0,-1.0,2021-01-22 01:01:25.278000+00:00,train
879,-1.0,-1.0,2021-01-22 01:01:55.278000+00:00,train
880,-1.0,-1.0,2021-01-22 01:02:25.278000+00:00,train
881,-1.0,-1.0,2021-01-22 01:02:55.278000+00:00,train
882,-1.0,-1.0,2021-01-22 01:03:25.278000+00:00,train
883,-1.0,-1.0,2021-01-22 01:03:55.278000+00:00,train
884,-1.0,-1.0,2021-01-22 01:04:25.278000+00:00,train
885,-1.0,-1.0,2021-01-22 01:04:55.278000+00:00,train
886,-1.0,-1.0,2021-01-22 01:05:25.278000+00:00,train
887,-1.0,-1.0,2021-01-22 01:05:55.278000+00:00,train
888,-1.0,-1.0,2021-01-22 01:06:25.278000+00:00,train
889,-1.0,-1.0,2021-01-22 01:06:55.278000+00:00,train
890,-1.0,-1.0,2021-01-22 01:07:25.278000+00:00,train
891,-1.0,-1.0,2021-01-22 01:07:55.278000+00:00,train
892,-1.0,-1.0,2021-01-22 01:08:25.278000+00:00,train
893,-1.0,-1.0,2021-01-22 01:08:55.278000+00:00,train
894,-1.0,-1.0,2021-01-22 01:09:25.278000+00:00,train
895,-1.0,-1.0,2021-01-22 01:09:55.278000+00:00,train
896,-1.0,-1.0,2021-01-22 01:10:25.278000+00:00,train
897,-1.0,-1.0,2021-01-22 01:10:55.278000+00:00,train
898,-1.0,-1.0,2021-01-22 01:11:25.278000+00:00,train
899,-1.0,-1.0,2021-01-22 01:11:55.278000+00:00,train
900,-1.0,-1.0,2021-01-22 01:12:25.278000+00:00,train
901,-1.0,-1.0,2021-01-22 01:12:55.278000+00:00,train
902,-1.0,-1.0,2021-01-22 01:13:25.278000+00:00,train
903,-1.0,-1.0,2021-01-22 01:13:55.278000+00:00,train
904,-1.0,-1.0,2021-01-22 01:14:25.278000+00:00,train
905,-1.0,-1.0,2021-01-22 01:14:55.278000+00:00,train
906,-1.0,-1.0,2021-01-22 01:15:25.278000+00:00,train
907,-1.0,-1.0,2021-01-22 01:15:55.278000+00:00,train
908,-1.0,-1.0,2021-01-22 01:16:25.278000+00:00,train
909,-1.0,-1.0,2021-01-22 01:16:55.278000+00:00,train
910,-1.0,-1.0,2021-01-22 01:17:25.278000+00:00,train
911,-1.0,-1.0,2021-01-22 01:17:55.278000+00:00,train
912,-1.0,-1.0,2021-01-22 01:18:25.278000+00:00,train
913,-1.0,-1.0,2021-01-22 01:18:55.278000+00:00,train
914,-1.0,-1.0,2021-01-22 01:19:25.278000+00:00,train
915,-1.0,-1.0,2021-01-22 01:19:55.278000+00:00,train
916,-1.0,-1.0,2021-01-22 01:20:25.278000+00:00,train
917,-1.0,-1.0,2021-01-22 01:20:55.278000+00:00,train
918,-1.0,-1.0,2021-01-22 01:21:25.278000+00:00,train
919,-1.0,-1.0,2021-01-22 01:21:55.278000+00:00,train
920,-1.0,-1.0,2021-01-22 01:22:25.278000+00:00,train
921,-1.0,-1.0,2021-01-22 01:22:55.278000+00:00,train
922,-1.0,-1.0,2021-01-22 01:23:25.278000+00:00,train
923,-1.0,-1.0,2021-01-22 01:23:55.278000+00:00,train
924,-1.0,-1.0,2021-01-22 01:24:25.278000+00:00,train
925,-1.0,-1.0,2021-01-22 01:24:55.278000+00:00,train
926,-1.0,-1.0,2021-01-22 01:25:25.278000+00:00,train
927,-1.0,-1.0,2021-01-22 01:25:55.278000+00:00,train
928,-1.0,-1.0,2021-01-22 01:26:25.278000+00:00,train
929,-1.0,-1.0,2021-01-22 01:26:55.278000+00:00,train
930,-1.0,-1.0,2021-01-22 01:27:25.278000+00:00,train
931,-1.0,-1.0,2021-01-22 01:27:55.278000+00:00,train
932,-1.0,-1.0,2021-01-22 01:28:25.278000+00:00,train
933,-1.0,-1.0,2021-01-22 01:28:55.278000+00:00,train
934,-1.0,-1.0,2021-01-22 01:29:25.278000+00:00,train
935,-1.0,-1.0,2021-01-22 01:29:55.278000+00:00,train
936,-1.0,-1.0,2021-01-22 01:30:25.278000+00:00,train
937,-1.0,-1.0,2021-01-22 01:30:55.278000+00:00,train
938,-1.0,-1.0,2021-01-22 01:31:25.278000+00:00,train
939,-1.0,-1.0,2021-01-22 01:31:55.278000+00:00,train
940,-1.0,-1.0,2021-01-22 01:32:25.278000+00:00,train
941,-1.0,0.0,2021-01-22 01:32:55.278000+00:00,train
942,-1.0,0.0,2021-01-22 01:33:25.278000+00:00,train
943,-0.934460461139679,0.0,2021-01-22 01:33:55.278000+00:00,train
944,-0.9038863778114319,0.0,2021-01-22 01:34:25.278000+00:00,train
945,-0.8791366815567017,0.0,2021-01-22 01:34:55.278000+00:00,train
946,-0.8574310541152954,0.0,2021-01-22 01:35:25.278000+00:00,train
947,-0.837689220905304,0.0,2021-01-22 01:35:55.278000+00:00,train
948,-0.8193557858467102,0.0,2021-01-22 01:36:25.278000+00:00,train
949,-0.8021000623703003,0.0,2021-01-22 01:36:55.278000+00:00,train
950,-0.785705029964447,0.0,2021-01-22 01:37:25.278000+00:00,train
951,-0.7700207829475403,-1.0,2021-01-22 01:37:55.278000+00:00,train
952,-0.7549371123313904,0.0,2021-01-22 01:38:25.278000+00:00,train
953,-0.7549240589141846,0.0,2021-01-22 01:38:55.278000+00:00,train
954,-0.7404187321662903,0.0,2021-01-22 01:39:25.278000+00:00,train
955,-0.7263242602348328,0.0,2021-01-22 01:39:55.278000+00:00,train
956,-0.7126120924949646,0.0,2021-01-22 01:40:25.278000+00:00,train
957,-0.6992479562759399,0.0,2021-01-22 01:40:55.278000+00:00,train
958,-0.6862010955810547,0.0,2021-01-22 01:41:25.278000+00:00,train
959,-0.673444926738739,0.0,2021-01-22 01:41:55.278000+00:00,train
960,-0.6609567999839783,0.0,2021-01-22 01:42:25.278000+00:00,train
961,-0.6460444927215576,0.0,2021-01-22 01:42:55.278000+00:00,train
962,-0.633996844291687,0.0,2021-01-22 01:43:25.278000+00:00,train
963,-0.6221671104431152,0.0,2021-01-22 01:43:55.278000+00:00,train
964,-0.6105416417121887,0.0,2021-01-22 01:44:25.278000+00:00,train
965,-0.5991075038909912,0.0,2021-01-22 01:44:55.278000+00:00,train
966,-0.5878809094429016,0.0,2021-01-22 01:45:25.278000+00:00,train
967,-0.5768254995346069,0.0,2021-01-22 01:45:55.278000+00:00,train
968,-0.5659328699111938,0.0,2021-01-22 01:46:25.278000+00:00,train
969,-0.5551955699920654,0.0,2021-01-22 01:46:55.278000+00:00,train
970,-0.5446061491966248,0.0,2021-01-22 01:47:25.278000+00:00,train
971,-0.534159243106842,0.0,2021-01-22 01:47:55.278000+00:00,train
972,-0.5238466858863831,0.0,2021-01-22 01:48:25.278000+00:00,train
973,-0.5136639475822449,0.0,2021-01-22 01:48:55.278000+00:00,train
974,-0.5036062002182007,0.0,2021-01-22 01:49:25.278000+00:00,train
975,-0.4936688542366028,0.0,2021-01-22 01:49:55.278000+00:00,train
976,-0.483847439289093,0.0,2021-01-22 01:50:25.278000+00:00,train
977,-0.4741395115852356,0.0,2021-01-22 01:50:55.278000+00:00,train
978,-0.4645389914512634,0.0,2021-01-22 01:51:25.278000+00:00,train
979,-0.45504358410835266,0.0,2021-01-22 01:51:55.278000+00:00,train
980,-0.44565051794052124,0.0,2021-01-22 01:52:25.278000+00:00,train
981,-0.4363565742969513,0.0,2021-01-22 01:52:55.278000+00:00,train
982,-0.4271604120731354,0.0,2021-01-22 01:53:25.278000+00:00,train
983,-0.41805750131607056,0.0,2021-01-22 01:53:55.278000+00:00,train
984,-0.4090459644794464,0.0,2021-01-22 01:54:25.278000+00:00,train
985,-0.4001240134239197,0.0,2021-01-22 01:54:55.278000+00:00,train
986,-0.3912895917892456,0.0,2021-01-22 01:55:25.278000+00:00,train
987,-0.38259759545326233,0.0,2021-01-22 01:55:55.278000+00:00,train
988,-0.37395212054252625,0.0,2021-01-22 01:56:25.278000+00:00,train
989,-0.3653659522533417,0.0,2021-01-22 01:56:55.278000+00:00,train
990,-0.3568490445613861,0.0,2021-01-22 01:57:25.278000+00:00,train
991,-0.348405122756958,0.0,2021-01-22 01:57:55.278000+00:00,train
992,-0.34003567695617676,0.0,2021-01-22 01:58:25.278000+00:00,train
993,-0.33174172043800354,0.0,2021-01-22 01:58:55.278000+00:00,train
994,-0.3235214650630951,0.0,2021-01-22 01:59:25.278000+00:00,train
995,-0.3153964579105377,0.0,2021-01-22 01:59:55.278000+00:00,train
996,-0.3073439300060272,0.0,2021-01-22 02:00:25.278000+00:00,train
997,-0.29936298727989197,0.0,2021-01-22 02:00:55.278000+00:00,train
998,-0.2914530336856842,0.0,2021-01-22 02:01:25.278000+00:00,train
999,-0.2836143970489502,0.0,2021-01-22 02:01:55.278000+00:00,train
1000,-0.2758486568927765,0.0,2021-01-22 02:02:25.278000+00:00,train
1001,-0.2680463492870331,0.0,2021-01-22 02:02:55.278000+00:00,train
1002,-0.2603137493133545,0.0,2021-01-22 02:03:25.278000+00:00,train
1003,-0.2526506781578064,0.0,2021-01-22 02:03:55.278000+00:00,train
1004,-0.24505771696567535,0.0,2021-01-22 02:04:25.278000+00:00,train
1005,-0.23753340542316437,0.0,2021-01-22 02:04:55.278000+00:00,train
1006,-0.23007835447788239,0.0,2021-01-22 02:05:25.278000+00:00,train
1007,-0.22269313037395477,0.0,2021-01-22 02:05:55.278000+00:00,train
1008,-0.21537810564041138,0.0,2021-01-22 02:06:25.278000+00:00,train
1009,-0.2081330418586731,0.0,2021-01-22 02:06:55.278000+00:00,train
1010,-0.20083267986774445,0.0,2021-01-22 02:07:25.278000+00:00,train
1011,-0.19368775188922882,0.0,2021-01-22 02:07:55.278000+00:00,train
1012,-0.1866743564605713,0.0,2021-01-22 02:08:25.278000+00:00,train
1013,-0.1797659695148468,0.0,2021-01-22 02:08:55.278000+00:00,train
1014,-0.17294718325138092,0.0,2021-01-22 02:09:25.278000+00:00,train
1015,-0.16621233522891998,0.0,2021-01-22 02:09:55.278000+00:00,train
1016,-0.15955886244773865,0.0,2021-01-22 02:10:25.278000+00:00,train
1017,-0.15298575162887573,0.0,2021-01-22 02:10:55.278000+00:00,train
1018,-0.1464928388595581,0.0,2021-01-22 02:11:25.278000+00:00,train
1019,-0.14008131623268127,0.0,2021-01-22 02:11:55.278000+00:00,train
1020,-0.13374508917331696,0.0,2021-01-22 02:12:25.278000+00:00,train
1021,-0.12752941250801086,0.0,2021-01-22 02:12:55.278000+00:00,train
1022,-0.12139083445072174,0.0,2021-01-22 02:13:25.278000+00:00,train
1023,-0.11532613635063171,0.0,2021-01-22 02:13:55.278000+00:00,train
1024,-0.10932950675487518,0.0,2021-01-22 02:14:25.278000+00:00,train
1025,-0.10338708758354187,0.0,2021-01-22 02:14:55.278000+00:00,train
1026,-0.0974891409277916,0.0,2021-01-22 02:15:25.278000+00:00,train
1027,-0.091620534658432,0.0,2021-01-22 02:15:55.278000+00:00,train
1028,-0.08576245605945587,0.0,2021-01-22 02:16:25.278000+00:00,train
1029,-0.07850900292396545,0.0,2021-01-22 02:16:55.278000+00:00,train
1030,-0.07239449769258499,0.0,2021-01-22 02:17:25.278000+00:00,train
1031,-0.06606535613536835,0.0,2021-01-22 02:17:55.278000+00:00,train
1032,-0.059394050389528275,0.0,2021-01-22 02:18:25.278000+00:00,train
1033,-0.052208200097084045,0.0,2021-01-22 02:18:55.278000+00:00,train
1034,-0.044353943318128586,0.0,2021-01-22 02:19:25.278000+00:00,train
1035,-0.03597994148731232,0.0,2021-01-22 02:19:55.278000+00:00,train
1036,-0.0276497732847929,0.0,2021-01-22 02:20:25.278000+00:00,train
1037,-0.02026340551674366,0.0,2021-01-22 02:20:55.278000+00:00,train
1038,-0.014259610325098038,0.0,2021-01-22 02:21:25.278000+00:00,train
1039,-0.009537959471344948,0.0,2021-01-22 02:21:55.278000+00:00,train
1040,-0.005735317245125771,0.0,2021-01-22 02:22:25.278000+00:00,train
1041,-0.0022229051683098078,0.0,2021-01-22 02:22:55.278000+00:00,train
1042,0.001274149864912033,0.0,2021-01-22 02:23:25.278000+00:00,train
1043,0.004865437746047974,0.0,2021-01-22 02:23:55.278000+00:00,train
1044,0.008587761782109737,0.0,2021-01-22 02:24:25.278000+00:00,train
1045,0.012434646487236023,0.0,2021-01-22 02:24:55.278000+00:00,train
1046,0.01638113148510456,0.0,2021-01-22 02:25:25.278000+00:00,train
1047,0.02039903961122036,0.0,2021-01-22 02:25:55.278000+00:00,val
1048,0.024464350193738937,0.0,2021-01-22 02:26:25.278000+00:00,val
1049,0.028534868732094765,0.0,2021-01-22 02:26:55.278000+00:00,val
1050,0.032614704221487045,0.0,2021-01-22 02:27:25.278000+00:00,val
1051,0.0366886705160141,0.0,2021-01-22 02:27:55.278000+00:00,val
1052,0.04074452817440033,0.0,2021-01-22 02:28:25.278000+00:00,val
1053,0.04469543695449829,0.0,2021-01-22 02:28:55.278000+00:00,val
1054,0.04866422712802887,0.0,2021-01-22 02:29:25.278000+00:00,val
1055,0.05261607468128204,0.0,2021-01-22 02:29:55.278000+00:00,val
1056,0.05653002858161926,0.0,2021-01-22 02:30:25.278000+00:00,val
1057,0.06039433926343918,0.0,2021-01-22 02:30:55.278000+00:00,val
1058,0.06420088559389114,0.0,2021-01-22 02:31:25.278000+00:00,val
1059,0.0679435208439827,0.0,2021-01-22 02:31:55.278000+00:00,val
1060,0.07161828875541687,0.0,2021-01-22 02:32:25.278000+00:00,val
1061,0.07522069662809372,0.0,2021-01-22 02:32:55.278000+00:00,val
1062,0.07874643802642822,0.0,2021-01-22 02:33:25.278000+00:00,val
1063,0.08219197392463684,0.0,2021-01-22 02:33:55.278000+00:00,val
1064,0.0855535939335823,0.0,2021-01-22 02:34:25.278000+00:00,val
1065,0.08882874995470047,0.0,2021-01-22 02:34:55.278000+00:00,val
1066,0.09201338142156601,0.0,2021-01-22 02:35:25.278000+00:00,val
1067,0.09510423243045807,0.0,2021-01-22 02:35:55.278000+00:00,val
1068,0.09809746593236923,0.0,2021-01-22 02:36:25.278000+00:00,val
1069,0.10098949074745178,0.0,2021-01-22 02:36:55.278000+00:00,val
1070,0.10377628356218338,0.0,2021-01-22 02:37:25.278000+00:00,val
1071,0.10645430535078049,0.0,2021-01-22 02:37:55.278000+00:00,val
1072,0.10901906341314316,0.0,2021-01-22 02:38:25.278000+00:00,val
1073,0.11146565526723862,0.0,2021-01-22 02:38:55.278000+00:00,val
1074,0.1137891411781311,0.0,2021-01-22 02:39:25.278000+00:00,val
1075,0.11598440259695053,0.0,2021-01-22 02:39:55.278000+00:00,val
1076,0.11804528534412384,0.0,2021-01-22 02:40:25.278000+00:00,val
1077,0.11996643990278244,0.0,2021-01-22 02:40:55.278000+00:00,val
1078,0.12174075841903687,0.0,2021-01-22 02:41:25.278000+00:00,val
1079,0.12336046248674393,0.0,2021-01-22 02:41:55.278000+00:00,val
1080,0.12481744587421417,0.0,2021-01-22 02:42:25.278000+00:00,val
1081,0.12610255181789398,0.0,2021-01-22 02:42:55.278000+00:00,val
1082,0.12720546126365662,0.0,2021-01-22 02:43:25.278000+00:00,val
1083,0.12811538577079773,0.0,2021-01-22 02:43:55.278000+00:00,val
1084,0.1288086175918579,0.0,2021-01-22 02:44:25.278000+00:00,val
1085,0.12928324937820435,0.0,2021-01-22 02:44:55.278000+00:00,val
1086,0.12952350080013275,0.0,2021-01-22 02:45:25.278000+00:00,val
1087,0.12962107360363007,0.0,2021-01-22 02:45:55.278000+00:00,val
1088,0.12937146425247192,0.0,2021-01-22 02:46:25.278000+00:00,val
1089,0.12881934642791748,0.0,2021-01-22 02:46:55.278000+00:00,val
1090,0.1279144287109375,0.0,2021-01-22 02:47:25.278000+00:00,val
1091,0.12663307785987854,0.0,2021-01-22 02:47:55.278000+00:00,val
1092,0.12493783980607986,0.0,2021-01-22 02:48:25.278000+00:00,val
1093,0.12277872860431671,0.0,2021-01-22 02:48:55.278000+00:00,val
1094,0.12009130418300629,0.0,2021-01-22 02:49:25.278000+00:00,val
1095,0.11679160594940186,0.0,2021-01-22 02:49:55.278000+00:00,val
1096,0.11276781558990479,0.0,2021-01-22 02:50:25.278000+00:00,val
1097,0.10786750167608261,0.0,2021-01-22 02:50:55.278000+00:00,val
1098,0.10187040269374847,0.0,2021-01-22 02:51:25.278000+00:00,val
1099,0.09443946927785873,0.0,2021-01-22 02:51:55.278000+00:00,val
1100,0.08500932157039642,0.0,2021-01-22 02:52:25.278000+00:00,val
1101,0.07248061895370483,0.0,2021-01-22 02:52:55.278000+00:00,val
1102,0.054023709148168564,0.0,2021-01-22 02:53:25.278000+00:00,val
1103,0.05401767045259476,0.0,2021-01-22 02:53:55.278000+00:00,val
1104,0.05401165038347244,0.0,2021-01-22 02:54:25.278000+00:00,val
1105,0.054005563259124756,0.0,2021-01-22 02:54:55.278000+00:00,val
1106,0.05399942025542259,0.0,2021-01-22 02:55:25.278000+00:00,val
1107,0.05399308353662491,0.0,2021-01-22 02:55:55.278000+00:00,val
1108,0.0539867989718914,0.0,2021-01-22 02:56:25.278000+00:00,val
1109,0.0539805069565773,0.0,2021-01-22 02:56:55.278000+00:00,val
1110,0.05397411808371544,0.0,2021-01-22 02:57:25.278000+00:00,val
1111,0.053967561572790146,0.0,2021-01-22 02:57:55.278000+00:00,val
1112,0.05396117642521858,0.0,2021-01-22 02:58:25.278000+00:00,val
1113,0.0,0.0,2021-01-22 02:58:55.278000+00:00,val
1114,0.0,0.0,2021-01-22 02:59:25.278000+00:00,val
1115,0.0,0.0,2021-01-22 02:59:55.278000+00:00,val
1116,0.0,0.0,2021-01-22 03:00:25.278000+00:00,val
1117,0.0,0.0,2021-01-22 03:00:55.278000+00:00,val
1118,0.0,0.0,2021-01-22 03:01:25.278000+00:00,val
1119,0.0,0.0,2021-01-22 03:01:55.278000+00:00,val
1120,0.0,0.0,2021-01-22 03:02:25.278000+00:00,val
1121,0.0,0.0,2021-01-22 03:02:55.278000+00:00,val
1122,0.0,0.0,2021-01-22 03:03:25.278000+00:00,val
1123,0.0,0.0,2021-01-22 03:03:55.278000+00:00,val
1124,0.0,0.0,2021-01-22 03:04:25.278000+00:00,val
1125,0.0,0.0,2021-01-22 03:04:55.278000+00:00,val
1126,0.0,0.0,2021-01-22 03:05:25.278000+00:00,val
1127,0.0,0.0,2021-01-22 03:05:55.278000+00:00,val
1128,0.0,0.0,2021-01-22 03:06:25.278000+00:00,val
1129,0.0,0.0,2021-01-22 03:06:55.278000+00:00,val
1130,0.0,0.0,2021-01-22 03:07:25.278000+00:00,val
1131,0.0,0.0,2021-01-22 03:07:55.278000+00:00,val
1132,0.0,0.0,2021-01-22 03:08:25.278000+00:00,val
1133,0.0,0.0,2021-01-22 03:08:55.278000+00:00,val
1134,0.0,0.0,2021-01-22 03:09:25.278000+00:00,val
1135,0.0,0.0,2021-01-22 03:09:55.278000+00:00,val
1136,0.0,0.0,2021-01-22 03:10:25.278000+00:00,val
1137,0.0,0.0,2021-01-22 03:10:55.278000+00:00,val
1138,0.0,0.0,2021-01-22 03:11:25.278000+00:00,val
1139,0.0,0.0,2021-01-22 03:11:55.278000+00:00,val
1140,0.0,0.0,2021-01-22 03:12:25.278000+00:00,val
1141,0.0,0.0,2021-01-22 03:12:55.278000+00:00,val
1142,0.0,0.0,2021-01-22 03:13:25.278000+00:00,val
1143,0.0,0.0,2021-01-22 03:13:55.278000+00:00,val
1144,0.0,0.0,2021-01-22 03:14:25.278000+00:00,val
1145,0.0,0.0,2021-01-22 03:14:55.278000+00:00,val
1146,0.0,0.0,2021-01-22 03:15:25.278000+00:00,val
1147,0.0,0.0,2021-01-22 03:15:55.278000+00:00,val
1148,0.0,0.0,2021-01-22 03:16:25.278000+00:00,val
1149,0.0,0.0,2021-01-22 03:16:55.278000+00:00,val
1150,0.0,0.0,2021-01-22 03:17:25.278000+00:00,val
1151,0.0,0.0,2021-01-22 03:17:55.278000+00:00,val
1152,0.0,0.0,2021-01-22 03:18:25.278000+00:00,val
1153,0.0,0.0,2021-01-22 03:18:55.278000+00:00,val
1154,0.0,0.0,2021-01-22 03:19:25.278000+00:00,val
1155,0.0,0.0,2021-01-22 03:19:55.278000+00:00,val
1156,0.0,0.0,2021-01-22 03:20:25.278000+00:00,val
1157,0.0,0.0,2021-01-22 03:20:55.278000+00:00,val
1158,0.0,0.0,2021-01-22 03:21:25.278000+00:00,val
1159,0.0,0.0,2021-01-22 03:21:55.278000+00:00,val
1160,0.0,0.0,2021-01-22 03:22:25.278000+00:00,val
1161,0.0,0.0,2021-01-22 03:22:55.278000+00:00,val
1162,0.0,0.0,2021-01-22 03:23:25.278000+00:00,val
1163,0.0,0.0,2021-01-22 03:23:55.278000+00:00,val
1164,0.0,0.0,2021-01-22 03:24:25.278000+00:00,val
1165,0.0,0.0,2021-01-22 03:24:55.278000+00:00,val
1166,0.0,0.0,2021-01-22 03:25:25.278000+00:00,val
1167,0.0,0.0,2021-01-22 03:25:55.278000+00:00,val
1168,0.0,0.0,2021-01-22 03:26:25.278000+00:00,val
1169,0.0,0.0,2021-01-22 03:26:55.278000+00:00,val
1170,0.0,0.0,2021-01-22 03:27:25.278000+00:00,val
1171,0.0,0.0,2021-01-22 03:27:55.278000+00:00,val
1172,0.0,0.0,2021-01-22 03:28:25.278000+00:00,val
1173,0.0,0.0,2021-01-22 03:28:55.278000+00:00,val
1174,0.0,0.0,2021-01-22 03:29:25.278000+00:00,val
1175,0.0,0.0,2021-01-22 03:29:55.278000+00:00,val
1176,0.0,0.0,2021-01-22 03:30:25.278000+00:00,val
1177,0.0,0.0,2021-01-22 03:30:55.278000+00:00,val
1178,0.0,0.0,2021-01-22 03:31:25.278000+00:00,val
1179,0.0,0.0,2021-01-22 03:31:55.278000+00:00,val
1180,0.0,0.0,2021-01-22 03:32:25.278000+00:00,val
1181,0.0,0.0,2021-01-22 03:32:55.278000+00:00,val
1182,0.0,0.0,2021-01-22 03:33:25.278000+00:00,val
1183,0.0,0.0,2021-01-22 03:33:55.278000+00:00,val
1184,0.0,0.0,2021-01-22 03:34:25.278000+00:00,val
1185,0.0,0.0,2021-01-22 03:34:55.278000+00:00,val
1186,0.0,0.0,2021-01-22 03:35:25.278000+00:00,val
1187,0.0,0.0,2021-01-22 03:35:55.278000+00:00,val
1188,0.0,0.0,2021-01-22 03:36:25.278000+00:00,val
1189,0.0,0.0,2021-01-22 03:36:55.278000+00:00,val
1190,0.0,0.0,2021-01-22 03:37:25.278000+00:00,val
1191,0.0,0.0,2021-01-22 03:37:55.278000+00:00,val
1192,0.0,0.0,2021-01-22 03:38:25.278000+00:00,val
1193,0.0,0.0,2021-01-22 03:38:55.278000+00:00,val
1194,0.0,0.0,2021-01-22 03:39:25.278000+00:00,val
1195,0.0,0.0,2021-01-22 03:39:55.278000+00:00,val
1196,0.0,0.0,2021-01-22 03:40:25.278000+00:00,val
1197,0.0,0.0,2021-01-22 03:40:55.278000+00:00,val
1198,0.0,0.0,2021-01-22 03:41:25.278000+00:00,val
1199,0.0,0.0,2021-01-22 03:41:55.278000+00:00,val
1200,0.0,0.0,2021-01-22 03:42:25.278000+00:00,val
1201,0.0,0.0,2021-01-22 03:42:55.278000+00:00,val
1202,0.0,0.0,2021-01-22 03:43:25.278000+00:00,val
1203,0.0,0.0,2021-01-22 03:43:55.278000+00:00,val
1204,0.0,0.0,2021-01-22 03:44:25.278000+00:00,val
1205,0.0,0.0,2021-01-22 03:44:55.278000+00:00,val
1206,0.0,0.0,2021-01-22 03:45:25.278000+00:00,val
1207,0.0,0.0,2021-01-22 03:45:55.278000+00:00,val
1208,0.0,0.0,2021-01-22 03:46:25.278000+00:00,val
1209,0.0,0.0,2021-01-22 03:46:55.278000+00:00,val
1210,0.0,0.0,2021-01-22 03:47:25.278000+00:00,val
1211,0.0,0.0,2021-01-22 03:47:55.278000+00:00,val
1212,0.0,0.0,2021-01-22 03:48:25.278000+00:00,val
1213,0.0,0.0,2021-01-22 03:48:55.278000+00:00,val
1214,0.0,0.0,2021-01-22 03:49:25.278000+00:00,val
1215,0.0,0.0,2021-01-22 03:49:55.278000+00:00,val
1216,0.0,0.0,2021-01-22 03:50:25.278000+00:00,val
1217,0.0,0.0,2021-01-22 03:50:55.278000+00:00,val
1218,0.0,0.0,2021-01-22 03:51:25.278000+00:00,val
1219,0.0,0.0,2021-01-22 03:51:55.278000+00:00,val
1220,0.0,0.0,2021-01-22 03:52:25.278000+00:00,val
1221,0.0,0.0,2021-01-22 03:52:55.278000+00:00,val
1222,0.0,0.0,2021-01-22 03:53:25.278000+00:00,val
1223,0.0,0.0,2021-01-22 03:53:55.278000+00:00,val
1224,0.0,0.0,2021-01-22 03:54:25.278000+00:00,val
1225,0.0,0.0,2021-01-22 03:54:55.278000+00:00,val
1226,0.0,0.0,2021-01-22 03:55:25.278000+00:00,val
1227,0.0,0.0,2021-01-22 03:55:55.278000+00:00,val
1228,0.0,0.0,2021-01-22 03:56:25.278000+00:00,val
1229,0.0,0.0,2021-01-22 03:56:55.278000+00:00,val
1230,0.0,0.0,2021-01-22 03:57:25.278000+00:00,val
1231,0.0,0.0,2021-01-22 03:57:55.278000+00:00,val
1232,0.0,0.0,2021-01-22 03:58:25.278000+00:00,val
1233,0.0,0.0,2021-01-22 03:58:55.278000+00:00,val
1234,0.0,0.0,2021-01-22 03:59:25.278000+00:00,val
1235,0.0,0.0,2021-01-22 03:59:55.278000+00:00,val
1236,0.0,0.0,2021-01-22 04:00:25.278000+00:00,val
1237,0.0,0.0,2021-01-22 04:00:55.278000+00:00,val
1238,0.0,0.0,2021-01-22 04:01:25.278000+00:00,val
1239,0.0,0.0,2021-01-22 04:01:55.278000+00:00,val
1240,0.0,0.0,2021-01-22 04:02:25.278000+00:00,val
1241,0.0,0.0,2021-01-22 04:02:55.278000+00:00,val
1242,0.0,0.0,2021-01-22 04:03:25.278000+00:00,val
1243,0.0,0.0,2021-01-22 04:03:55.278000+00:00,val
1244,0.0,0.0,2021-01-22 04:04:25.278000+00:00,val
1245,0.0,0.0,2021-01-22 04:04:55.278000+00:00,val
1246,0.0,0.0,2021-01-22 04:05:25.278000+00:00,val
1247,0.0,0.0,2021-01-22 04:05:55.278000+00:00,val
1248,0.0,0.0,2021-01-22 04:06:25.278000+00:00,val
1249,0.0,0.0,2021-01-22 04:06:55.278000+00:00,val
1250,0.0,0.0,2021-01-22 04:07:25.278000+00:00,val
1251,0.0,0.0,2021-01-22 04:07:55.278000+00:00,val
1252,0.0,0.0,2021-01-22 04:08:25.278000+00:00,val
1253,0.0,0.0,2021-01-22 04:08:55.278000+00:00,val
1254,0.0,0.0,2021-01-22 04:09:25.278000+00:00,val
1255,0.0,0.0,2021-01-22 04:09:55.278000+00:00,val
1256,0.0,0.0,2021-01-22 04:10:25.278000+00:00,val
1257,0.0,0.0,2021-01-22 04:10:55.278000+00:00,val
1258,0.0,0.0,2021-01-22 04:11:25.278000+00:00,val
1259,0.0,0.0,2021-01-22 04:11:55.278000+00:00,val
1260,0.0,0.0,2021-01-22 04:12:25.278000+00:00,val
1261,0.0,0.0,2021-01-22 04:12:55.278000+00:00,val
1262,0.0,0.0,2021-01-22 04:13:25.278000+00:00,val
1263,0.0,0.0,2021-01-22 04:13:55.278000+00:00,val
1264,0.0,0.0,2021-01-22 04:14:25.278000+00:00,val
1265,0.0,0.0,2021-01-22 04:14:55.278000+00:00,val
1266,0.0,0.0,2021-01-22 04:15:25.278000+00:00,val
1267,0.0,0.0,2021-01-22 04:15:55.278000+00:00,val
1268,0.0,0.0,2021-01-22 04:16:25.278000+00:00,val
1269,0.0,0.0,2021-01-22 04:16:55.278000+00:00,val
1270,0.0,0.0,2021-01-22 04:17:25.278000+00:00,val
1271,0.0,0.0,2021-01-22 04:17:55.278000+00:00,val
1272,0.0,0.0,2021-01-22 04:18:25.278000+00:00,val
1273,0.0,0.0,2021-01-22 04:18:55.278000+00:00,val
1274,0.0,0.0,2021-01-22 04:19:25.278000+00:00,val
1275,0.0,0.0,2021-01-22 04:19:55.278000+00:00,val
1276,0.0,0.0,2021-01-22 04:20:25.278000+00:00,val
1277,0.0,0.0,2021-01-22 04:20:55.278000+00:00,val
1278,0.0,0.0,2021-01-22 04:21:25.278000+00:00,val
1279,0.0,0.0,2021-01-22 04:21:55.278000+00:00,val
1280,0.0,0.0,2021-01-22 04:22:25.278000+00:00,val
1281,0.0,0.0,2021-01-22 04:22:55.278000+00:00,val
1282,0.0,0.0,2021-01-22 04:23:25.278000+00:00,val
1283,0.0,0.0,2021-01-22 04:23:55.278000+00:00,val
1284,0.0,0.0,2021-01-22 04:24:25.278000+00:00,val
1285,0.0,0.0,2021-01-22 04:24:55.278000+00:00,val
1286,0.0,0.0,2021-01-22 04:25:25.278000+00:00,val
1287,0.0,0.0,2021-01-22 04:25:55.278000+00:00,val
1288,0.0,0.0,2021-01-22 04:26:25.278000+00:00,val
1289,0.0,0.0,2021-01-22 04:26:55.278000+00:00,val
1290,0.0,0.0,2021-01-22 04:27:25.278000+00:00,val
1291,0.0,0.0,2021-01-22 04:27:55.278000+00:00,val
1292,0.0,0.0,2021-01-22 04:28:25.278000+00:00,val
1293,0.0,0.0,2021-01-22 04:28:55.278000+00:00,val
1294,0.0,0.0,2021-01-22 04:29:25.278000+00:00,val
1295,0.0,0.0,2021-01-22 04:29:55.278000+00:00,val
1296,0.0,0.0,2021-01-22 04:30:25.278000+00:00,val
1297,0.0,0.0,2021-01-22 04:30:55.278000+00:00,val
1298,0.0,0.0,2021-01-22 04:31:25.278000+00:00,val
1299,0.0,0.0,2021-01-22 04:31:55.278000+00:00,val
1300,0.0,0.0,2021-01-22 04:32:25.278000+00:00,val
1301,0.0,0.0,2021-01-22 04:32:55.278000+00:00,val
1302,0.0,0.0,2021-01-22 04:33:25.278000+00:00,val
1303,0.0,0.0,2021-01-22 04:33:55.278000+00:00,val
1304,0.0,0.0,2021-01-22 04:34:25.278000+00:00,val
1305,0.0,0.0,2021-01-22 04:34:55.278000+00:00,val
1306,0.0,0.0,2021-01-22 04:35:25.278000+00:00,val
1307,0.0,0.0,2021-01-22 04:35:55.278000+00:00,val
1308,0.0,0.0,2021-01-22 04:36:25.278000+00:00,val
1309,0.0,0.0,2021-01-22 04:36:55.278000+00:00,val
1310,0.0,0.0,2021-01-22 04:37:25.278000+00:00,val
1311,0.0,0.0,2021-01-22 04:37:55.278000+00:00,val
1312,0.0,0.0,2021-01-22 04:38:25.278000+00:00,val
1313,0.0,0.0,2021-01-22 04:38:55.278000+00:00,val
1314,0.0,0.0,2021-01-22 04:39:25.278000+00:00,val
1315,0.0,0.0,2021-01-22 04:39:55.278000+00:00,val
1316,0.0,0.0,2021-01-22 04:40:25.278000+00:00,val
1317,0.0,0.0,2021-01-22 04:40:55.278000+00:00,val
1318,0.0,0.0,2021-01-22 04:41:25.278000+00:00,val
1319,0.0,0.0,2021-01-22 04:41:55.278000+00:00,val
1320,0.0,0.0,2021-01-22 04:42:25.278000+00:00,val
1321,0.0,0.0,2021-01-22 04:42:55.278000+00:00,val
1322,0.0,0.0,2021-01-22 04:43:25.278000+00:00,val
1323,0.0,0.0,2021-01-22 04:43:55.278000+00:00,val
1324,0.0,0.0,2021-01-22 04:44:25.278000+00:00,val
1325,0.0,0.0,2021-01-22 04:44:55.278000+00:00,val
1326,0.0,0.0,2021-01-22 04:45:25.278000+00:00,val
1327,0.0,0.0,2021-01-22 04:45:55.278000+00:00,val
1328,0.0,0.0,2021-01-22 04:46:25.278000+00:00,val
1329,0.0,0.0,2021-01-22 04:46:55.278000+00:00,val
1330,0.0,0.0,2021-01-22 04:47:25.278000+00:00,val
1331,0.0,0.0,2021-01-22 04:47:55.278000+00:00,val
1332,0.0,0.0,2021-01-22 04:48:25.278000+00:00,val
1333,0.0,0.0,2021-01-22 04:48:55.278000+00:00,val
1334,0.0,0.0,2021-01-22 04:49:25.278000+00:00,val
1335,0.0,0.0,2021-01-22 04:49:55.278000+00:00,val
1336,0.0,0.0,2021-01-22 04:50:25.278000+00:00,val
1337,0.0,0.0,2021-01-22 04:50:55.278000+00:00,val
1338,0.0,0.0,2021-01-22 04:51:25.278000+00:00,val
1339,0.0,0.0,2021-01-22 04:51:55.278000+00:00,val
1340,0.0,0.0,2021-01-22 04:52:25.278000+00:00,val
1341,0.0,0.0,2021-01-22 04:52:55.278000+00:00,val
1342,0.0,0.0,2021-01-22 04:53:25.278000+00:00,val
1343,0.0,0.0,2021-01-22 04:53:55.278000+00:00,val
1344,0.0,0.0,2021-01-22 04:54:25.278000+00:00,val
1345,0.0,0.0,2021-01-22 04:54:55.278000+00:00,val
1346,0.0,0.0,2021-01-22 04:55:25.278000+00:00,val
1347,0.0,0.0,2021-01-22 04:55:55.278000+00:00,val
1348,0.0,0.0,2021-01-22 04:56:25.278000+00:00,val
1349,0.0,0.0,2021-01-22 04:56:55.278000+00:00,val
1350,0.0,0.0,2021-01-22 04:57:25.278000+00:00,val
1351,0.0,0.0,2021-01-22 04:57:55.278000+00:00,val
1352,0.0,0.0,2021-01-22 04:58:25.278000+00:00,val
1353,0.0,0.0,2021-01-22 04:58:55.278000+00:00,val
1354,0.0,0.0,2021-01-22 04:59:25.278000+00:00,val
1355,0.0,0.0,2021-01-22 04:59:55.278000+00:00,val
1356,0.0,0.0,2021-01-22 05:00:25.278000+00:00,val
1357,0.0,0.0,2021-01-22 05:00:55.278000+00:00,val
1358,0.0,0.0,2021-01-22 05:01:25.278000+00:00,val
1359,0.0,0.0,2021-01-22 05:01:55.278000+00:00,val
1360,0.0,0.0,2021-01-22 05:02:25.278000+00:00,val
1361,0.0,0.0,2021-01-22 05:02:55.278000+00:00,val
1362,0.0,0.0,2021-01-22 05:03:25.278000+00:00,val
1363,0.0,0.0,2021-01-22 05:03:55.278000+00:00,val
1364,0.0,0.0,2021-01-22 05:04:25.278000+00:00,val
1365,0.0,0.0,2021-01-22 05:04:55.278000+00:00,val
1366,0.0,0.0,2021-01-22 05:05:25.278000+00:00,val
1367,0.0,0.0,2021-01-22 05:05:55.278000+00:00,val
1368,0.0,0.0,2021-01-22 05:06:25.278000+00:00,val
1369,0.0,0.0,2021-01-22 05:06:55.278000+00:00,val
1370,0.0,0.0,2021-01-22 05:07:25.278000+00:00,val
1371,0.0,0.0,2021-01-22 05:07:55.278000+00:00,val
1372,0.0,0.0,2021-01-22 05:08:25.278000+00:00,val
1373,0.0,0.0,2021-01-22 05:08:55.278000+00:00,val
1374,0.0,0.0,2021-01-22 05:09:25.278000+00:00,val
1375,0.0,0.0,2021-01-22 05:09:55.278000+00:00,val
1376,0.0,0.0,2021-01-22 05:10:25.278000+00:00,val
1377,0.0,0.0,2021-01-22 05:10:55.278000+00:00,val
1378,0.0,0.0,2021-01-22 05:11:25.278000+00:00,val
1379,0.0,0.0,2021-01-22 05:11:55.278000+00:00,val
1380,0.0,0.0,2021-01-22 05:12:25.278000+00:00,val
1381,0.0,0.0,2021-01-22 05:12:55.278000+00:00,val
1382,0.0,0.0,2021-01-22 05:13:25.278000+00:00,val
1383,0.0,0.0,2021-01-22 05:13:55.278000+00:00,val
1384,0.0,0.0,2021-01-22 05:14:25.278000+00:00,val
1385,0.0,0.0,2021-01-22 05:14:55.278000+00:00,val
1386,0.0,0.0,2021-01-22 05:15:25.278000+00:00,val
1387,0.0,0.0,2021-01-22 05:15:55.278000+00:00,val
1388,0.0,0.0,2021-01-22 05:16:25.278000+00:00,val
1389,0.0,0.0,2021-01-22 05:16:55.278000+00:00,val
1390,0.0,0.0,2021-01-22 05:17:25.278000+00:00,val
1391,0.0,0.0,2021-01-22 05:17:55.278000+00:00,test
1392,0.0,0.0,2021-01-22 05:18:25.278000+00:00,test
1393,0.0,0.0,2021-01-22 05:18:55.278000+00:00,test
1394,0.0,0.0,2021-01-22 05:19:25.278000+00:00,test
1395,0.0,0.0,2021-01-22 05:19:55.278000+00:00,test
1396,0.0,0.0,2021-01-22 05:20:25.278000+00:00,test
1397,0.0,0.0,2021-01-22 05:20:55.278000+00:00,test
1398,0.0,0.0,2021-01-22 05:21:25.278000+00:00,test
1399,0.0,0.0,2021-01-22 05:21:55.278000+00:00,test
1400,0.0,0.0,2021-01-22 05:22:25.278000+00:00,test
1401,0.0,0.0,2021-01-22 05:22:55.278000+00:00,test
1402,0.0,0.0,2021-01-22 05:23:25.278000+00:00,test
1403,0.0,0.0,2021-01-22 05:23:55.278000+00:00,test
1404,0.0,0.0,2021-01-22 05:24:25.278000+00:00,test
1405,0.0,0.0,2021-01-22 05:24:55.278000+00:00,test
1406,0.0,0.0,2021-01-22 05:25:25.278000+00:00,test
1407,0.0,0.0,2021-01-22 05:25:55.278000+00:00,test
1408,0.0,0.0,2021-01-22 05:26:25.278000+00:00,test
1409,0.0,0.0,2021-01-22 05:26:55.278000+00:00,test
1410,0.0,0.0,2021-01-22 05:27:25.278000+00:00,test
1411,0.0,0.0,2021-01-22 05:27:55.278000+00:00,test
1412,0.0,0.0,2021-01-22 05:28:25.278000+00:00,test
1413,0.0,0.0,2021-01-22 05:28:55.278000+00:00,test
1414,0.0,0.0,2021-01-22 05:29:25.278000+00:00,test
1415,0.0,0.0,2021-01-22 05:29:55.278000+00:00,test
1416,0.0,0.0,2021-01-22 05:30:25.278000+00:00,test
1417,0.0,0.0,2021-01-22 05:30:55.278000+00:00,test
1418,0.0,0.0,2021-01-22 05:31:25.278000+00:00,test
1419,0.0,0.0,2021-01-22 05:31:55.278000+00:00,test
1420,0.0,0.0,2021-01-22 05:32:25.278000+00:00,test
1421,0.0,0.0,2021-01-22 05:32:55.278000+00:00,test
1422,0.0,0.0,2021-01-22 05:33:25.278000+00:00,test
1423,0.0,0.0,2021-01-22 05:33:55.278000+00:00,test
1424,0.0,0.0,2021-01-22 05:34:25.278000+00:00,test
1425,0.0,0.0,2021-01-22 05:34:55.278000+00:00,test
1426,0.0,0.0,2021-01-22 05:35:25.278000+00:00,test
1427,0.0,0.0,2021-01-22 05:35:55.278000+00:00,test
1428,0.0,0.0,2021-01-22 05:36:25.278000+00:00,test
1429,0.0,0.0,2021-01-22 05:36:55.278000+00:00,test
1430,0.0,0.0,2021-01-22 05:37:25.278000+00:00,test
1431,0.0,0.0,2021-01-22 05:37:55.278000+00:00,test
1432,0.0,0.0,2021-01-22 05:38:25.278000+00:00,test
1433,0.0,0.0,2021-01-22 05:38:55.278000+00:00,test
1434,0.0,0.0,2021-01-22 05:39:25.278000+00:00,test
1435,0.0,0.0,2021-01-22 05:39:55.278000+00:00,test
1436,0.0,0.0,2021-01-22 05:40:25.278000+00:00,test
1437,0.0,0.0,2021-01-22 05:40:55.278000+00:00,test
1438,0.0,0.0,2021-01-22 05:41:25.278000+00:00,test
1439,0.0,0.0,2021-01-22 05:41:55.278000+00:00,test
1440,0.0,0.0,2021-01-22 05:42:25.278000+00:00,test
1441,0.0,0.0,2021-01-22 05:42:55.278000+00:00,test
1442,0.0,0.0,2021-01-22 05:43:25.278000+00:00,test
1443,0.0,0.0,2021-01-22 05:43:55.278000+00:00,test
1444,0.0,0.0,2021-01-22 05:44:25.278000+00:00,test
1445,0.0,0.0,2021-01-22 05:44:55.278000+00:00,test
1446,0.0,0.0,2021-01-22 05:45:25.278000+00:00,test
1447,0.0,0.0,2021-01-22 05:45:55.278000+00:00,test
1448,0.0,0.0,2021-01-22 05:46:25.278000+00:00,test
1449,0.0,0.0,2021-01-22 05:46:55.278000+00:00,test
1450,0.0,0.0,2021-01-22 05:47:25.278000+00:00,test
1451,0.0,0.0,2021-01-22 05:47:55.278000+00:00,test
1452,0.0,0.0,2021-01-22 05:48:25.278000+00:00,test
1453,0.0,0.0,2021-01-22 05:48:55.278000+00:00,test
1454,0.0,0.0,2021-01-22 05:49:25.278000+00:00,test
1455,0.0,0.0,2021-01-22 05:49:55.278000+00:00,test
1456,0.0,0.0,2021-01-22 05:50:25.278000+00:00,test
1457,0.0,0.0,2021-01-22 05:50:55.278000+00:00,test
1458,0.0,0.0,2021-01-22 05:51:25.278000+00:00,test
1459,0.0,0.0,2021-01-22 05:51:55.278000+00:00,test
1460,0.0,0.0,2021-01-22 05:52:25.278000+00:00,test
1461,0.0,0.0,2021-01-22 05:52:55.278000+00:00,test
1462,0.0,0.0,2021-01-22 05:53:25.278000+00:00,test
1463,0.0,0.0,2021-01-22 05:53:55.278000+00:00,test
1464,0.0,0.0,2021-01-22 05:54:25.278000+00:00,test
1465,0.0,0.0,2021-01-22 05:54:55.278000+00:00,test
1466,0.0,0.0,2021-01-22 05:55:25.278000+00:00,test
1467,0.0,0.0,2021-01-22 05:55:55.278000+00:00,test
1468,0.0,0.0,2021-01-22 05:56:25.278000+00:00,test
1469,0.0,0.0,2021-01-22 05:56:55.278000+00:00,test
1470,0.0,0.0,2021-01-22 05:57:25.278000+00:00,test
1471,0.0,0.0,2021-01-22 05:57:55.278000+00:00,test
1472,0.0,0.0,2021-01-22 05:58:25.278000+00:00,test
1473,0.0,0.0,2021-01-22 05:58:55.278000+00:00,test
1474,0.0,0.0,2021-01-22 05:59:25.278000+00:00,test
1475,0.0,0.0,2021-01-22 05:59:55.278000+00:00,test
1476,0.0,0.0,2021-01-22 06:00:25.278000+00:00,test
1477,0.0,0.0,2021-01-22 06:00:55.278000+00:00,test
1478,0.0,0.0,2021-01-22 06:01:25.278000+00:00,test
1479,0.0,0.0,2021-01-22 06:01:55.278000+00:00,test
1480,0.0,0.0,2021-01-22 06:02:25.278000+00:00,test
1481,0.0,0.0,2021-01-22 06:02:55.278000+00:00,test
1482,0.0,0.0,2021-01-22 06:03:25.278000+00:00,test
1483,0.0,0.0,2021-01-22 06:03:55.278000+00:00,test
1484,0.0,0.0,2021-01-22 06:04:25.278000+00:00,test
1485,0.0,0.0,2021-01-22 06:04:55.278000+00:00,test
1486,0.0,0.0,2021-01-22 06:05:25.278000+00:00,test
1487,0.0,0.0,2021-01-22 06:05:55.278000+00:00,test
1488,0.0,0.0,2021-01-22 06:06:25.278000+00:00,test
1489,0.0,0.0,2021-01-22 06:06:55.278000+00:00,test
1490,0.0,0.0,2021-01-22 06:07:25.278000+00:00,test
1491,0.0,0.0,2021-01-22 06:07:55.278000+00:00,test
1492,0.0,0.0,2021-01-22 06:08:25.278000+00:00,test
1493,0.0,0.0,2021-01-22 06:08:55.278000+00:00,test
1494,0.0,0.0,2021-01-22 06:09:25.278000+00:00,test
1495,0.0,0.0,2021-01-22 06:09:55.278000+00:00,test
1496,0.0,0.0,2021-01-22 06:10:25.278000+00:00,test
1497,0.0,0.0,2021-01-22 06:10:55.278000+00:00,test
1498,0.0,0.0,2021-01-22 06:11:25.278000+00:00,test
1499,0.0,0.0,2021-01-22 06:11:55.278000+00:00,test
1500,0.0,0.0,2021-01-22 06:12:25.278000+00:00,test
1501,0.0,0.0,2021-01-22 06:12:55.278000+00:00,test
1502,0.0,0.0,2021-01-22 06:13:25.278000+00:00,test
1503,0.0,0.0,2021-01-22 06:13:55.278000+00:00,test
1504,0.0,0.0,2021-01-22 06:14:25.278000+00:00,test
1505,0.0,0.0,2021-01-22 06:14:55.278000+00:00,test
1506,0.0,0.0,2021-01-22 06:15:25.278000+00:00,test
1507,0.0,0.0,2021-01-22 06:15:55.278000+00:00,test
1508,0.0,0.0,2021-01-22 06:16:25.278000+00:00,test
1509,0.0,0.0,2021-01-22 06:16:55.278000+00:00,test
1510,0.0,0.0,2021-01-22 06:17:25.278000+00:00,test
1511,0.0,0.0,2021-01-22 06:17:55.278000+00:00,test
1512,0.0,0.0,2021-01-22 06:18:25.278000+00:00,test
1513,0.0,0.0,2021-01-22 06:18:55.278000+00:00,test
1514,0.0,0.0,2021-01-22 06:19:25.278000+00:00,test
1515,0.0,0.0,2021-01-22 06:19:55.278000+00:00,test
1516,0.0,0.0,2021-01-22 06:20:25.278000+00:00,test
1517,0.0,0.0,2021-01-22 06:20:55.278000+00:00,test
1518,0.0,0.0,2021-01-22 06:21:25.278000+00:00,test
1519,0.0,0.0,2021-01-22 06:21:55.278000+00:00,test
1520,0.0,0.0,2021-01-22 06:22:25.278000+00:00,test
1521,0.0,0.0,2021-01-22 06:22:55.278000+00:00,test
1522,0.0,0.0,2021-01-22 06:23:25.278000+00:00,test
1523,0.0,0.0,2021-01-22 06:23:55.278000+00:00,test
1524,0.0,0.0,2021-01-22 06:24:25.278000+00:00,test
1525,0.0,0.0,2021-01-22 06:24:55.278000+00:00,test
1526,0.0,0.0,2021-01-22 06:25:25.278000+00:00,test
1527,0.0,0.0,2021-01-22 06:25:55.278000+00:00,test
1528,0.0,0.0,2021-01-22 06:26:25.278000+00:00,test
1529,0.0,0.0,2021-01-22 06:26:55.278000+00:00,test
1530,0.0,0.0,2021-01-22 06:27:25.278000+00:00,test
1531,0.0,0.0,2021-01-22 06:27:55.278000+00:00,test
1532,0.0,0.0,2021-01-22 06:28:25.278000+00:00,test
1533,0.0,0.0,2021-01-22 06:28:55.278000+00:00,test
1534,0.0,0.0,2021-01-22 06:29:25.278000+00:00,test
1535,0.0,0.0,2021-01-22 06:29:55.278000+00:00,test
1536,0.0,0.0,2021-01-22 06:30:25.278000+00:00,test
1537,0.0,0.0,2021-01-22 06:30:55.278000+00:00,test
1538,0.0,0.0,2021-01-22 06:31:25.278000+00:00,test
1539,0.0,0.0,2021-01-22 06:31:55.278000+00:00,test
1540,0.0,0.0,2021-01-22 06:32:25.278000+00:00,test
1541,0.0,0.0,2021-01-22 06:32:55.278000+00:00,test
1542,0.0,0.0,2021-01-22 06:33:25.278000+00:00,test
1543,0.0,0.0,2021-01-22 06:33:55.278000+00:00,test
1544,0.0,0.0,2021-01-22 06:34:25.278000+00:00,test
1545,0.0,0.0,2021-01-22 06:34:55.278000+00:00,test
