,prediction,real,time,split
0,-7.320481300354004,-7.0,2021-01-21 17:24:25.278000+00:00,train
1,-7.272292137145996,-7.0,2021-01-21 17:24:55.278000+00:00,train
2,-7.227299213409424,-7.0,2021-01-21 17:25:25.278000+00:00,train
3,-7.185583114624023,-7.0,2021-01-21 17:25:55.278000+00:00,train
4,-7.147235870361328,-7.0,2021-01-21 17:26:25.278000+00:00,train
5,-7.095410346984863,-7.0,2021-01-21 17:26:55.278000+00:00,train
6,-7.046032905578613,-7.0,2021-01-21 17:27:25.278000+00:00,train
7,-6.999135971069336,-7.0,2021-01-21 17:27:55.278000+00:00,train
8,-6.954741477966309,-7.0,2021-01-21 17:28:25.278000+00:00,train
9,-6.9128899574279785,-7.0,2021-01-21 17:28:55.278000+00:00,train
10,-6.873627662658691,-7.0,2021-01-21 17:29:25.278000+00:00,train
11,-6.837002754211426,-7.0,2021-01-21 17:29:55.278000+00:00,train
12,-6.803079128265381,-7.0,2021-01-21 17:30:25.278000+00:00,train
13,-6.771917819976807,-7.0,2021-01-21 17:30:55.278000+00:00,train
14,-6.743599891662598,-7.0,2021-01-21 17:31:25.278000+00:00,train
15,-6.718215465545654,-7.0,2021-01-21 17:31:55.278000+00:00,train
16,-6.695862770080566,-7.0,2021-01-21 17:32:25.278000+00:00,train
17,-6.676657199859619,-7.0,2021-01-21 17:32:55.278000+00:00,train
18,-6.6427741050720215,-7.0,2021-01-21 17:33:25.278000+00:00,train
19,-6.61099100112915,-7.0,2021-01-21 17:33:55.278000+00:00,train
20,-6.58134651184082,-7.0,2021-01-21 17:34:25.278000+00:00,train
21,-6.55388879776001,-7.0,2021-01-21 17:34:55.278000+00:00,train
22,-6.528674602508545,-7.0,2021-01-21 17:35:25.278000+00:00,train
23,-6.505763053894043,-7.0,2021-01-21 17:35:55.278000+00:00,train
24,-6.485223770141602,-7.0,2021-01-21 17:36:25.278000+00:00,train
25,-6.467139720916748,-7.0,2021-01-21 17:36:55.278000+00:00,train
26,-6.451595783233643,-7.0,2021-01-21 17:37:25.278000+00:00,train
27,-6.438693046569824,-6.0,2021-01-21 17:37:55.278000+00:00,train
28,-6.4285502433776855,-6.0,2021-01-21 17:38:25.278000+00:00,train
29,-6.403604984283447,-6.0,2021-01-21 17:38:55.278000+00:00,train
30,-6.38033390045166,-6.0,2021-01-21 17:39:25.278000+00:00,train
31,-6.358778476715088,-6.0,2021-01-21 17:39:55.278000+00:00,train
32,-6.338975429534912,-6.0,2021-01-21 17:40:25.278000+00:00,train
33,-6.295128345489502,-6.0,2021-01-21 17:40:55.278000+00:00,train
34,-6.253516674041748,-6.0,2021-01-21 17:41:25.278000+00:00,train
35,-6.214183807373047,-6.0,2021-01-21 17:41:55.278000+00:00,train
36,-6.177173137664795,-6.0,2021-01-21 17:42:25.278000+00:00,train
37,-6.142612934112549,-6.0,2021-01-21 17:42:55.278000+00:00,train
38,-6.110512733459473,-6.0,2021-01-21 17:43:25.278000+00:00,train
39,-6.080870628356934,-6.0,2021-01-21 17:43:55.278000+00:00,train
40,-6.053750991821289,-6.0,2021-01-21 17:44:25.278000+00:00,train
41,-6.029233455657959,-6.0,2021-01-21 17:44:55.278000+00:00,train
42,-6.007418632507324,-6.0,2021-01-21 17:45:25.278000+00:00,train
43,-5.988399982452393,-6.0,2021-01-21 17:45:55.278000+00:00,train
44,-5.953938007354736,-6.0,2021-01-21 17:46:25.278000+00:00,train
45,-5.921220779418945,-6.0,2021-01-21 17:46:55.278000+00:00,train
46,-5.890263557434082,-6.0,2021-01-21 17:47:25.278000+00:00,train
47,-5.861098766326904,-6.0,2021-01-21 17:47:55.278000+00:00,train
48,-5.833763122558594,-6.0,2021-01-21 17:48:25.278000+00:00,train
49,-5.808285713195801,-6.0,2021-01-21 17:48:55.278000+00:00,train
50,-5.784712314605713,-6.0,2021-01-21 17:49:25.278000+00:00,train
51,-5.763097286224365,-6.0,2021-01-21 17:49:55.278000+00:00,train
52,-5.743489742279053,-6.0,2021-01-21 17:50:25.278000+00:00,train
53,-5.7259521484375,-6.0,2021-01-21 17:50:55.278000+00:00,train
54,-5.710563659667969,-6.0,2021-01-21 17:51:25.278000+00:00,train
55,-5.697397232055664,-6.0,2021-01-21 17:51:55.278000+00:00,train
56,-5.686546802520752,-6.0,2021-01-21 17:52:25.278000+00:00,train
57,-5.678125381469727,-6.0,2021-01-21 17:52:55.278000+00:00,train
58,-5.654243469238281,-6.0,2021-01-21 17:53:25.278000+00:00,train
59,-5.631669998168945,-5.0,2021-01-21 17:53:55.278000+00:00,train
60,-5.610433578491211,-5.0,2021-01-21 17:54:25.278000+00:00,train
61,-5.590551853179932,-5.0,2021-01-21 17:54:55.278000+00:00,train
62,-5.572053909301758,-5.0,2021-01-21 17:55:25.278000+00:00,train
63,-5.554978847503662,-5.0,2021-01-21 17:55:55.278000+00:00,train
64,-5.5393548011779785,-5.0,2021-01-21 17:56:25.278000+00:00,train
65,-5.497744083404541,-5.0,2021-01-21 17:56:55.278000+00:00,train
66,-5.4581122398376465,-5.0,2021-01-21 17:57:25.278000+00:00,train
67,-5.4204792976379395,-5.0,2021-01-21 17:57:55.278000+00:00,train
68,-5.384871006011963,-5.0,2021-01-21 17:58:25.278000+00:00,train
69,-5.351323127746582,-5.0,2021-01-21 17:58:55.278000+00:00,train
70,-5.319855213165283,-5.0,2021-01-21 17:59:25.278000+00:00,train
71,-5.290503978729248,-5.0,2021-01-21 17:59:55.278000+00:00,train
72,-5.263325214385986,-5.0,2021-01-21 18:00:25.278000+00:00,train
73,-5.23836088180542,-5.0,2021-01-21 18:00:55.278000+00:00,train
74,-5.215672492980957,-5.0,2021-01-21 18:01:25.278000+00:00,train
75,-5.195345878601074,-5.0,2021-01-21 18:01:55.278000+00:00,train
76,-5.177452564239502,-5.0,2021-01-21 18:02:25.278000+00:00,train
77,-5.162092685699463,-5.0,2021-01-21 18:02:55.278000+00:00,train
78,-5.1493096351623535,-5.0,2021-01-21 18:03:25.278000+00:00,train
79,-5.119113922119141,-5.0,2021-01-21 18:03:55.278000+00:00,train
80,-5.090387344360352,-5.0,2021-01-21 18:04:25.278000+00:00,train
81,-5.063149929046631,-5.0,2021-01-21 18:04:55.278000+00:00,train
82,-5.037407398223877,-5.0,2021-01-21 18:05:25.278000+00:00,train
83,-5.013180255889893,-5.0,2021-01-21 18:05:55.278000+00:00,train
84,-4.9905009269714355,-5.0,2021-01-21 18:06:25.278000+00:00,train
85,-4.96938943862915,-5.0,2021-01-21 18:06:55.278000+00:00,train
86,-4.949880599975586,-5.0,2021-01-21 18:07:25.278000+00:00,train
87,-4.932021617889404,-5.0,2021-01-21 18:07:55.278000+00:00,train
88,-4.915848731994629,-5.0,2021-01-21 18:08:25.278000+00:00,train
89,-4.901415824890137,-5.0,2021-01-21 18:08:55.278000+00:00,train
90,-4.888792514801025,-5.0,2021-01-21 18:09:25.278000+00:00,train
91,-4.862718105316162,-5.0,2021-01-21 18:09:55.278000+00:00,train
92,-4.837533950805664,-5.0,2021-01-21 18:10:25.278000+00:00,train
93,-4.813251972198486,-5.0,2021-01-21 18:10:55.278000+00:00,train
94,-4.78986120223999,-5.0,2021-01-21 18:11:25.278000+00:00,train
95,-4.767366886138916,-5.0,2021-01-21 18:11:55.278000+00:00,train
96,-4.745784282684326,-5.0,2021-01-21 18:12:25.278000+00:00,train
97,-4.725106239318848,-5.0,2021-01-21 18:12:55.278000+00:00,train
98,-4.705341815948486,-5.0,2021-01-21 18:13:25.278000+00:00,train
99,-4.686511516571045,-5.0,2021-01-21 18:13:55.278000+00:00,train
100,-4.668613910675049,-5.0,2021-01-21 18:14:25.278000+00:00,train
101,-4.651663303375244,-5.0,2021-01-21 18:14:55.278000+00:00,train
102,-4.635683536529541,-5.0,2021-01-21 18:15:25.278000+00:00,train
103,-4.6206793785095215,-5.0,2021-01-21 18:15:55.278000+00:00,train
104,-4.606670379638672,-5.0,2021-01-21 18:16:25.278000+00:00,train
105,-4.59368896484375,-5.0,2021-01-21 18:16:55.278000+00:00,train
106,-4.5817461013793945,-5.0,2021-01-21 18:17:25.278000+00:00,train
107,-4.570868492126465,-4.0,2021-01-21 18:17:55.278000+00:00,train
108,-4.561096668243408,-4.0,2021-01-21 18:18:25.278000+00:00,train
109,-4.552450656890869,-4.0,2021-01-21 18:18:55.278000+00:00,train
110,-4.544969081878662,-4.0,2021-01-21 18:19:25.278000+00:00,train
111,-4.539031982421875,-4.0,2021-01-21 18:19:55.278000+00:00,train
112,-4.534254550933838,-4.0,2021-01-21 18:20:25.278000+00:00,train
113,-4.503068923950195,-4.0,2021-01-21 18:20:55.278000+00:00,train
114,-4.473596096038818,-4.0,2021-01-21 18:21:25.278000+00:00,train
115,-4.446066856384277,-4.0,2021-01-21 18:21:55.278000+00:00,train
116,-4.420302391052246,-4.0,2021-01-21 18:22:25.278000+00:00,train
117,-4.396337032318115,-4.0,2021-01-21 18:22:55.278000+00:00,train
118,-4.374218940734863,-4.0,2021-01-21 18:23:25.278000+00:00,train
119,-4.353806972503662,-4.0,2021-01-21 18:23:55.278000+00:00,train
120,-4.319328784942627,-4.0,2021-01-21 18:24:25.278000+00:00,train
121,-4.285985469818115,-4.0,2021-01-21 18:24:55.278000+00:00,train
122,-4.253783226013184,-4.0,2021-01-21 18:25:25.278000+00:00,train
123,-4.222681522369385,-4.0,2021-01-21 18:25:55.278000+00:00,train
124,-4.192677021026611,-4.0,2021-01-21 18:26:25.278000+00:00,train
125,-4.163798809051514,-4.0,2021-01-21 18:26:55.278000+00:00,train
126,-4.136014461517334,-4.0,2021-01-21 18:27:25.278000+00:00,train
127,-4.10933780670166,-4.0,2021-01-21 18:27:55.278000+00:00,train
128,-4.08381986618042,-4.0,2021-01-21 18:28:25.278000+00:00,train
129,-4.059438705444336,-4.0,2021-01-21 18:28:55.278000+00:00,train
130,-4.036232948303223,-4.0,2021-01-21 18:29:25.278000+00:00,train
131,-4.014289855957031,-4.0,2021-01-21 18:29:55.278000+00:00,train
132,-3.9936025142669678,-4.0,2021-01-21 18:30:25.278000+00:00,train
133,-3.9742488861083984,-4.0,2021-01-21 18:30:55.278000+00:00,train
134,-3.9563770294189453,-4.0,2021-01-21 18:31:25.278000+00:00,train
135,-3.9400076866149902,-4.0,2021-01-21 18:31:55.278000+00:00,train
136,-3.925279140472412,-4.0,2021-01-21 18:32:25.278000+00:00,train
137,-3.9124302864074707,-4.0,2021-01-21 18:32:55.278000+00:00,train
138,-3.901489496231079,-4.0,2021-01-21 18:33:25.278000+00:00,train
139,-3.8926312923431396,-4.0,2021-01-21 18:33:55.278000+00:00,train
140,-3.886131763458252,-4.0,2021-01-21 18:34:25.278000+00:00,train
141,-3.8818423748016357,-4.0,2021-01-21 18:34:55.278000+00:00,train
142,-3.8797433376312256,-4.0,2021-01-21 18:35:25.278000+00:00,train
143,-3.879627227783203,-4.0,2021-01-21 18:35:55.278000+00:00,train
144,-3.881333112716675,-4.0,2021-01-21 18:36:25.278000+00:00,train
145,-3.884045124053955,-4.0,2021-01-21 18:36:55.278000+00:00,train
146,-3.887321710586548,-4.0,2021-01-21 18:37:25.278000+00:00,train
147,-3.890925884246826,-4.0,2021-01-21 18:37:55.278000+00:00,train
148,-3.894299030303955,-4.0,2021-01-21 18:38:25.278000+00:00,train
149,-3.897447109222412,-4.0,2021-01-21 18:38:55.278000+00:00,train
150,-3.9005894660949707,-4.0,2021-01-21 18:39:25.278000+00:00,train
151,-3.903740167617798,-4.0,2021-01-21 18:39:55.278000+00:00,train
152,-3.9072327613830566,-4.0,2021-01-21 18:40:25.278000+00:00,train
153,-3.8967719078063965,-4.0,2021-01-21 18:40:55.278000+00:00,train
154,-3.8860766887664795,-4.0,2021-01-21 18:41:25.278000+00:00,train
155,-3.8753104209899902,-4.0,2021-01-21 18:41:55.278000+00:00,train
156,-3.8646399974823,-4.0,2021-01-21 18:42:25.278000+00:00,train
157,-3.854081630706787,-4.0,2021-01-21 18:42:55.278000+00:00,train
158,-3.843731164932251,-4.0,2021-01-21 18:43:25.278000+00:00,train
159,-3.8333706855773926,-4.0,2021-01-21 18:43:55.278000+00:00,train
160,-3.8234636783599854,-4.0,2021-01-21 18:44:25.278000+00:00,train
161,-3.813966989517212,-4.0,2021-01-21 18:44:55.278000+00:00,train
162,-3.804927110671997,-4.0,2021-01-21 18:45:25.278000+00:00,train
163,-3.79632830619812,-4.0,2021-01-21 18:45:55.278000+00:00,train
164,-3.7882018089294434,-4.0,2021-01-21 18:46:25.278000+00:00,train
165,-3.780597686767578,-4.0,2021-01-21 18:46:55.278000+00:00,train
166,-3.7735061645507812,-4.0,2021-01-21 18:47:25.278000+00:00,train
167,-3.766956090927124,-4.0,2021-01-21 18:47:55.278000+00:00,train
168,-3.7609949111938477,-4.0,2021-01-21 18:48:25.278000+00:00,train
169,-3.75561785697937,-4.0,2021-01-21 18:48:55.278000+00:00,train
170,-3.750854253768921,-4.0,2021-01-21 18:49:25.278000+00:00,train
171,-3.746734142303467,-4.0,2021-01-21 18:49:55.278000+00:00,train
172,-3.7433087825775146,-4.0,2021-01-21 18:50:25.278000+00:00,train
173,-3.740583896636963,-4.0,2021-01-21 18:50:55.278000+00:00,train
174,-3.738598585128784,-4.0,2021-01-21 18:51:25.278000+00:00,train
175,-3.7374167442321777,-4.0,2021-01-21 18:51:55.278000+00:00,train
176,-3.737056016921997,-4.0,2021-01-21 18:52:25.278000+00:00,train
177,-3.737572431564331,-3.0,2021-01-21 18:52:55.278000+00:00,train
178,-3.7390458583831787,-3.0,2021-01-21 18:53:25.278000+00:00,train
179,-3.7415192127227783,-3.0,2021-01-21 18:53:55.278000+00:00,train
180,-3.7450759410858154,-3.0,2021-01-21 18:54:25.278000+00:00,train
181,-3.7498276233673096,-3.0,2021-01-21 18:54:55.278000+00:00,train
182,-3.7558610439300537,-3.0,2021-01-21 18:55:25.278000+00:00,train
183,-3.7352983951568604,-3.0,2021-01-21 18:55:55.278000+00:00,train
184,-3.7170350551605225,-3.0,2021-01-21 18:56:25.278000+00:00,train
185,-3.6853749752044678,-3.0,2021-01-21 18:56:55.278000+00:00,train
186,-3.6547493934631348,-3.0,2021-01-21 18:57:25.278000+00:00,train
187,-3.6250689029693604,-3.0,2021-01-21 18:57:55.278000+00:00,train
188,-3.596672773361206,-3.0,2021-01-21 18:58:25.278000+00:00,train
189,-3.569037914276123,-3.0,2021-01-21 18:58:55.278000+00:00,train
190,-3.5421719551086426,-3.0,2021-01-21 18:59:25.278000+00:00,train
191,-3.5160956382751465,-3.0,2021-01-21 18:59:55.278000+00:00,train
192,-3.4907257556915283,-3.0,2021-01-21 19:00:25.278000+00:00,train
193,-3.4660441875457764,-3.0,2021-01-21 19:00:55.278000+00:00,train
194,-3.4416821002960205,-3.0,2021-01-21 19:01:25.278000+00:00,train
195,-3.418058395385742,-3.0,2021-01-21 19:01:55.278000+00:00,train
196,-3.395111322402954,-3.0,2021-01-21 19:02:25.278000+00:00,train
197,-3.372856616973877,-3.0,2021-01-21 19:02:55.278000+00:00,train
198,-3.3512229919433594,-3.0,2021-01-21 19:03:25.278000+00:00,train
199,-3.3301987648010254,-3.0,2021-01-21 19:03:55.278000+00:00,train
200,-3.309814929962158,-3.0,2021-01-21 19:04:25.278000+00:00,train
201,-3.2900052070617676,-3.0,2021-01-21 19:04:55.278000+00:00,train
202,-3.270766258239746,-3.0,2021-01-21 19:05:25.278000+00:00,train
203,-3.2521355152130127,-3.0,2021-01-21 19:05:55.278000+00:00,train
204,-3.2340502738952637,-3.0,2021-01-21 19:06:25.278000+00:00,train
205,-3.2165112495422363,-3.0,2021-01-21 19:06:55.278000+00:00,train
206,-3.199561834335327,-3.0,2021-01-21 19:07:25.278000+00:00,train
207,-3.183140754699707,-3.0,2021-01-21 19:07:55.278000+00:00,train
208,-3.1672537326812744,-3.0,2021-01-21 19:08:25.278000+00:00,train
209,-3.1519477367401123,-3.0,2021-01-21 19:08:55.278000+00:00,train
210,-3.13716459274292,-3.0,2021-01-21 19:09:25.278000+00:00,train
211,-3.1229145526885986,-3.0,2021-01-21 19:09:55.278000+00:00,train
212,-3.109246015548706,-3.0,2021-01-21 19:10:25.278000+00:00,train
213,-3.0961062908172607,-3.0,2021-01-21 19:10:55.278000+00:00,train
214,-3.083507776260376,-3.0,2021-01-21 19:11:25.278000+00:00,train
215,-3.071503162384033,-3.0,2021-01-21 19:11:55.278000+00:00,train
216,-3.060044527053833,-3.0,2021-01-21 19:12:25.278000+00:00,train
217,-3.0491485595703125,-3.0,2021-01-21 19:12:55.278000+00:00,train
218,-3.0388290882110596,-3.0,2021-01-21 19:13:25.278000+00:00,train
219,-3.0291409492492676,-3.0,2021-01-21 19:13:55.278000+00:00,train
220,-3.020045757293701,-3.0,2021-01-21 19:14:25.278000+00:00,train
221,-3.011568069458008,-3.0,2021-01-21 19:14:55.278000+00:00,train
222,-3.0037667751312256,-3.0,2021-01-21 19:15:25.278000+00:00,train
223,-2.996615171432495,-3.0,2021-01-21 19:15:55.278000+00:00,train
224,-2.990145206451416,-3.0,2021-01-21 19:16:25.278000+00:00,train
225,-2.9844229221343994,-3.0,2021-01-21 19:16:55.278000+00:00,train
226,-2.979435443878174,-3.0,2021-01-21 19:17:25.278000+00:00,train
227,-2.9752273559570312,-3.0,2021-01-21 19:17:55.278000+00:00,train
228,-2.9718756675720215,-3.0,2021-01-21 19:18:25.278000+00:00,train
229,-2.969388961791992,-3.0,2021-01-21 19:18:55.278000+00:00,train
230,-2.967832326889038,-3.0,2021-01-21 19:19:25.278000+00:00,train
231,-2.9673023223876953,-3.0,2021-01-21 19:19:55.278000+00:00,train
232,-2.9678428173065186,-3.0,2021-01-21 19:20:25.278000+00:00,train
233,-2.958022117614746,-3.0,2021-01-21 19:20:55.278000+00:00,train
234,-2.94838285446167,-3.0,2021-01-21 19:21:25.278000+00:00,train
235,-2.9388926029205322,-3.0,2021-01-21 19:21:55.278000+00:00,train
236,-2.9295547008514404,-3.0,2021-01-21 19:22:25.278000+00:00,train
237,-2.920391321182251,-3.0,2021-01-21 19:22:55.278000+00:00,train
238,-2.911372661590576,-3.0,2021-01-21 19:23:25.278000+00:00,train
239,-2.9025042057037354,-3.0,2021-01-21 19:23:55.278000+00:00,train
240,-2.8938040733337402,-3.0,2021-01-21 19:24:25.278000+00:00,train
241,-2.8852474689483643,-3.0,2021-01-21 19:24:55.278000+00:00,train
242,-2.8768386840820312,-3.0,2021-01-21 19:25:25.278000+00:00,train
243,-2.868450164794922,-3.0,2021-01-21 19:25:55.278000+00:00,train
244,-2.8602750301361084,-3.0,2021-01-21 19:26:25.278000+00:00,train
245,-2.8522677421569824,-3.0,2021-01-21 19:26:55.278000+00:00,train
246,-2.844430685043335,-3.0,2021-01-21 19:27:25.278000+00:00,train
247,-2.836773633956909,-3.0,2021-01-21 19:27:55.278000+00:00,train
248,-2.8292782306671143,-3.0,2021-01-21 19:28:25.278000+00:00,train
249,-2.821946382522583,-3.0,2021-01-21 19:28:55.278000+00:00,train
250,-2.814788579940796,-3.0,2021-01-21 19:29:25.278000+00:00,train
251,-2.807790517807007,-3.0,2021-01-21 19:29:55.278000+00:00,train
252,-2.8009557723999023,-3.0,2021-01-21 19:30:25.278000+00:00,train
253,-2.7944369316101074,-3.0,2021-01-21 19:30:55.278000+00:00,train
254,-2.787811040878296,-3.0,2021-01-21 19:31:25.278000+00:00,train
255,-2.7812771797180176,-3.0,2021-01-21 19:31:55.278000+00:00,train
256,-2.774906873703003,-3.0,2021-01-21 19:32:25.278000+00:00,train
257,-2.7687125205993652,-3.0,2021-01-21 19:32:55.278000+00:00,train
258,-2.7626733779907227,-3.0,2021-01-21 19:33:25.278000+00:00,train
259,-2.756828784942627,-3.0,2021-01-21 19:33:55.278000+00:00,train
260,-2.751185178756714,-3.0,2021-01-21 19:34:25.278000+00:00,train
261,-2.7457051277160645,-3.0,2021-01-21 19:34:55.278000+00:00,train
262,-2.7404263019561768,-3.0,2021-01-21 19:35:25.278000+00:00,train
263,-2.7353506088256836,-3.0,2021-01-21 19:35:55.278000+00:00,train
264,-2.7304329872131348,-3.0,2021-01-21 19:36:25.278000+00:00,train
265,-2.7257208824157715,-3.0,2021-01-21 19:36:55.278000+00:00,train
266,-2.7212181091308594,-3.0,2021-01-21 19:37:25.278000+00:00,train
267,-2.7168707847595215,-3.0,2021-01-21 19:37:55.278000+00:00,train
268,-2.712742328643799,-3.0,2021-01-21 19:38:25.278000+00:00,train
269,-2.708838939666748,-3.0,2021-01-21 19:38:55.278000+00:00,train
270,-2.705092191696167,-3.0,2021-01-21 19:39:25.278000+00:00,train
271,-2.701587438583374,-3.0,2021-01-21 19:39:55.278000+00:00,train
272,-2.698333501815796,-3.0,2021-01-21 19:40:25.278000+00:00,train
273,-2.6957595348358154,-3.0,2021-01-21 19:40:55.278000+00:00,train
274,-2.6933939456939697,-3.0,2021-01-21 19:41:25.278000+00:00,train
275,-2.6912572383880615,-3.0,2021-01-21 19:41:55.278000+00:00,train
276,-2.6893560886383057,-3.0,2021-01-21 19:42:25.278000+00:00,train
277,-2.6877553462982178,-3.0,2021-01-21 19:42:55.278000+00:00,train
278,-2.6864781379699707,-3.0,2021-01-21 19:43:25.278000+00:00,train
279,-2.685494899749756,-3.0,2021-01-21 19:43:55.278000+00:00,train
280,-2.6848785877227783,-2.0,2021-01-21 19:44:25.278000+00:00,train
281,-2.6846511363983154,-2.0,2021-01-21 19:44:55.278000+00:00,train
282,-2.6848349571228027,-2.0,2021-01-21 19:45:25.278000+00:00,train
283,-2.6854567527770996,-2.0,2021-01-21 19:45:55.278000+00:00,train
284,-2.686547040939331,-2.0,2021-01-21 19:46:25.278000+00:00,train
285,-2.6880714893341064,-2.0,2021-01-21 19:46:55.278000+00:00,train
286,-2.6425795555114746,-2.0,2021-01-21 19:47:25.278000+00:00,train
287,-2.5963680744171143,-2.0,2021-01-21 19:47:55.278000+00:00,train
288,-2.5576491355895996,-2.0,2021-01-21 19:48:25.278000+00:00,train
289,-2.5256683826446533,-2.0,2021-01-21 19:48:55.278000+00:00,train
290,-2.4980146884918213,-2.0,2021-01-21 19:49:25.278000+00:00,train
291,-2.472978115081787,-2.0,2021-01-21 19:49:55.278000+00:00,train
292,-2.4499123096466064,-2.0,2021-01-21 19:50:25.278000+00:00,train
293,-2.4284071922302246,-2.0,2021-01-21 19:50:55.278000+00:00,train
294,-2.4082863330841064,-2.0,2021-01-21 19:51:25.278000+00:00,train
295,-2.3894739151000977,-2.0,2021-01-21 19:51:55.278000+00:00,train
296,-2.371946096420288,-2.0,2021-01-21 19:52:25.278000+00:00,train
297,-2.355555772781372,-2.0,2021-01-21 19:52:55.278000+00:00,train
298,-2.340564012527466,-2.0,2021-01-21 19:53:25.278000+00:00,train
299,-2.326974391937256,-2.0,2021-01-21 19:53:55.278000+00:00,train
300,-2.3148305416107178,-2.0,2021-01-21 19:54:25.278000+00:00,train
301,-2.3020331859588623,-2.0,2021-01-21 19:54:55.278000+00:00,train
302,-2.2940337657928467,-2.0,2021-01-21 19:55:25.278000+00:00,train
303,-2.270155668258667,-2.0,2021-01-21 19:55:55.278000+00:00,train
304,-2.2467057704925537,-2.0,2021-01-21 19:56:25.278000+00:00,train
305,-2.2237956523895264,-2.0,2021-01-21 19:56:55.278000+00:00,train
306,-2.2014739513397217,-2.0,2021-01-21 19:57:25.278000+00:00,train
307,-2.179763078689575,-2.0,2021-01-21 19:57:55.278000+00:00,train
308,-2.158581018447876,-2.0,2021-01-21 19:58:25.278000+00:00,train
309,-2.1380813121795654,-2.0,2021-01-21 19:58:55.278000+00:00,train
310,-2.1182503700256348,-2.0,2021-01-21 19:59:25.278000+00:00,train
311,-2.0991251468658447,-2.0,2021-01-21 19:59:55.278000+00:00,train
312,-2.080803871154785,-2.0,2021-01-21 20:00:25.278000+00:00,train
313,-2.0635416507720947,-2.0,2021-01-21 20:00:55.278000+00:00,train
314,-2.047175168991089,-2.0,2021-01-21 20:01:25.278000+00:00,train
315,-2.0323739051818848,-2.0,2021-01-21 20:01:55.278000+00:00,train
316,-2.02004075050354,-2.0,2021-01-21 20:02:25.278000+00:00,train
317,-2.011532783508301,-2.0,2021-01-21 20:02:55.278000+00:00,train
318,-2.008406162261963,-2.0,2021-01-21 20:03:25.278000+00:00,train
319,-2.011296272277832,-2.0,2021-01-21 20:03:55.278000+00:00,train
320,-2.019160270690918,-2.0,2021-01-21 20:04:25.278000+00:00,train
321,-2.0271646976470947,-2.0,2021-01-21 20:04:55.278000+00:00,train
322,-2.032623529434204,-2.0,2021-01-21 20:05:25.278000+00:00,train
323,-2.034731149673462,-2.0,2021-01-21 20:05:55.278000+00:00,train
324,-2.0338854789733887,-2.0,2021-01-21 20:06:25.278000+00:00,train
325,-2.0311450958251953,-2.0,2021-01-21 20:06:55.278000+00:00,train
326,-2.0266826152801514,-2.0,2021-01-21 20:07:25.278000+00:00,train
327,-2.0212244987487793,-2.0,2021-01-21 20:07:55.278000+00:00,train
328,-2.015211343765259,-2.0,2021-01-21 20:08:25.278000+00:00,train
329,-2.008923053741455,-2.0,2021-01-21 20:08:55.278000+00:00,train
330,-2.002542734146118,-2.0,2021-01-21 20:09:25.278000+00:00,train
331,-1.9955042600631714,-2.0,2021-01-21 20:09:55.278000+00:00,train
332,-1.9890921115875244,-2.0,2021-01-21 20:10:25.278000+00:00,train
333,-1.9830601215362549,-2.0,2021-01-21 20:10:55.278000+00:00,train
334,-1.9773311614990234,-2.0,2021-01-21 20:11:25.278000+00:00,train
335,-1.971882700920105,-2.0,2021-01-21 20:11:55.278000+00:00,train
336,-1.9667130708694458,-2.0,2021-01-21 20:12:25.278000+00:00,train
337,-1.9618890285491943,-2.0,2021-01-21 20:12:55.278000+00:00,train
338,-1.9573159217834473,-2.0,2021-01-21 20:13:25.278000+00:00,train
339,-1.9530220031738281,-2.0,2021-01-21 20:13:55.278000+00:00,train
340,-1.9490156173706055,-2.0,2021-01-21 20:14:25.278000+00:00,train
341,-1.9452894926071167,-2.0,2021-01-21 20:14:55.278000+00:00,train
342,-1.9419138431549072,-2.0,2021-01-21 20:15:25.278000+00:00,train
343,-1.9387904405593872,-2.0,2021-01-21 20:15:55.278000+00:00,train
344,-1.9359432458877563,-2.0,2021-01-21 20:16:25.278000+00:00,train
345,-1.933382511138916,-2.0,2021-01-21 20:16:55.278000+00:00,train
346,-1.931115984916687,-2.0,2021-01-21 20:17:25.278000+00:00,train
347,-1.9291481971740723,-2.0,2021-01-21 20:17:55.278000+00:00,train
348,-1.9270552396774292,-2.0,2021-01-21 20:18:25.278000+00:00,train
349,-1.9254978895187378,-2.0,2021-01-21 20:18:55.278000+00:00,train
350,-1.9243594408035278,-2.0,2021-01-21 20:19:25.278000+00:00,train
351,-1.923577904701233,-2.0,2021-01-21 20:19:55.278000+00:00,train
352,-1.9231199026107788,-2.0,2021-01-21 20:20:25.278000+00:00,train
353,-1.9229669570922852,-2.0,2021-01-21 20:20:55.278000+00:00,train
354,-1.9258432388305664,-2.0,2021-01-21 20:21:25.278000+00:00,train
355,-1.9279649257659912,-2.0,2021-01-21 20:21:55.278000+00:00,train
356,-1.9297009706497192,-2.0,2021-01-21 20:22:25.278000+00:00,train
357,-1.9314805269241333,-2.0,2021-01-21 20:22:55.278000+00:00,train
358,-1.9332001209259033,-2.0,2021-01-21 20:23:25.278000+00:00,train
359,-1.9349926710128784,-2.0,2021-01-21 20:23:55.278000+00:00,train
360,-1.9369337558746338,-2.0,2021-01-21 20:24:25.278000+00:00,train
361,-1.9390676021575928,-2.0,2021-01-21 20:24:55.278000+00:00,train
362,-1.941407561302185,-2.0,2021-01-21 20:25:25.278000+00:00,train
363,-1.9441744089126587,-2.0,2021-01-21 20:25:55.278000+00:00,train
364,-1.9470723867416382,-2.0,2021-01-21 20:26:25.278000+00:00,train
365,-1.950106143951416,-2.0,2021-01-21 20:26:55.278000+00:00,train
366,-1.9532655477523804,-2.0,2021-01-21 20:27:25.278000+00:00,train
367,-1.956527829170227,-2.0,2021-01-21 20:27:55.278000+00:00,train
368,-1.9600789546966553,-2.0,2021-01-21 20:28:25.278000+00:00,train
369,-1.9636096954345703,-2.0,2021-01-21 20:28:55.278000+00:00,train
370,-1.9670987129211426,-2.0,2021-01-21 20:29:25.278000+00:00,train
371,-1.9705164432525635,-2.0,2021-01-21 20:29:55.278000+00:00,train
372,-1.973845362663269,-2.0,2021-01-21 20:30:25.278000+00:00,train
373,-1.977023959159851,-2.0,2021-01-21 20:30:55.278000+00:00,train
374,-1.9802132844924927,-2.0,2021-01-21 20:31:25.278000+00:00,train
375,-1.9831156730651855,-2.0,2021-01-21 20:31:55.278000+00:00,train
376,-1.9857033491134644,-2.0,2021-01-21 20:32:25.278000+00:00,train
377,-1.9879525899887085,-2.0,2021-01-21 20:32:55.278000+00:00,train
378,-1.9898375272750854,-2.0,2021-01-21 20:33:25.278000+00:00,train
379,-1.9913406372070312,-2.0,2021-01-21 20:33:55.278000+00:00,train
380,-1.991286039352417,-2.0,2021-01-21 20:34:25.278000+00:00,train
381,-1.9912803173065186,-2.0,2021-01-21 20:34:55.278000+00:00,train
382,-1.9912190437316895,-2.0,2021-01-21 20:35:25.278000+00:00,train
383,-1.9910036325454712,-2.0,2021-01-21 20:35:55.278000+00:00,train
384,-1.9905644655227661,-2.0,2021-01-21 20:36:25.278000+00:00,train
385,-1.9898673295974731,-2.0,2021-01-21 20:36:55.278000+00:00,train
386,-1.9890058040618896,-2.0,2021-01-21 20:37:25.278000+00:00,train
387,-1.9878326654434204,-2.0,2021-01-21 20:37:55.278000+00:00,train
388,-1.9863845109939575,-2.0,2021-01-21 20:38:25.278000+00:00,train
389,-1.9847049713134766,-2.0,2021-01-21 20:38:55.278000+00:00,train
390,-1.9828366041183472,-2.0,2021-01-21 20:39:25.278000+00:00,train
391,-1.98088538646698,-2.0,2021-01-21 20:39:55.278000+00:00,train
392,-1.978804588317871,-2.0,2021-01-21 20:40:25.278000+00:00,train
393,-1.9766631126403809,-2.0,2021-01-21 20:40:55.278000+00:00,train
394,-1.9745138883590698,-2.0,2021-01-21 20:41:25.278000+00:00,train
395,-1.9724152088165283,-2.0,2021-01-21 20:41:55.278000+00:00,train
396,-1.9704272747039795,-2.0,2021-01-21 20:42:25.278000+00:00,train
397,-1.9684593677520752,-2.0,2021-01-21 20:42:55.278000+00:00,train
398,-1.9668352603912354,-2.0,2021-01-21 20:43:25.278000+00:00,train
399,-1.9656249284744263,-2.0,2021-01-21 20:43:55.278000+00:00,train
400,-1.9649384021759033,-2.0,2021-01-21 20:44:25.278000+00:00,train
401,-1.9649540185928345,-2.0,2021-01-21 20:44:55.278000+00:00,train
402,-1.9659814834594727,-2.0,2021-01-21 20:45:25.278000+00:00,train
403,-1.9686386585235596,-2.0,2021-01-21 20:45:55.278000+00:00,train
404,-1.9744806289672852,-2.0,2021-01-21 20:46:25.278000+00:00,train
405,-2.0,-2.0,2021-01-21 20:46:55.278000+00:00,train
406,-2.0,-2.0,2021-01-21 20:47:25.278000+00:00,train
407,-2.0,-2.0,2021-01-21 20:47:55.278000+00:00,train
408,-2.0,-2.0,2021-01-21 20:48:25.278000+00:00,train
409,-2.0,-2.0,2021-01-21 20:48:55.278000+00:00,train
410,-2.0,-2.0,2021-01-21 20:49:25.278000+00:00,train
411,-2.0,-2.0,2021-01-21 20:49:55.278000+00:00,train
412,-2.0,-2.0,2021-01-21 20:50:25.278000+00:00,train
413,-2.0,-2.0,2021-01-21 20:50:55.278000+00:00,train
414,-2.0,-2.0,2021-01-21 20:51:25.278000+00:00,train
415,-2.0,-2.0,2021-01-21 20:51:55.278000+00:00,train
416,-2.0,-2.0,2021-01-21 20:52:25.278000+00:00,train
417,-2.0,-2.0,2021-01-21 20:52:55.278000+00:00,train
418,-2.0,-2.0,2021-01-21 20:53:25.278000+00:00,train
419,-2.0,-2.0,2021-01-21 20:53:55.278000+00:00,train
420,-2.0,-2.0,2021-01-21 20:54:25.278000+00:00,train
421,-2.0,-2.0,2021-01-21 20:54:55.278000+00:00,train
422,-2.0,-2.0,2021-01-21 20:55:25.278000+00:00,train
423,-2.0,-2.0,2021-01-21 20:55:55.278000+00:00,train
424,-2.0,-2.0,2021-01-21 20:56:25.278000+00:00,train
425,-2.0,-2.0,2021-01-21 20:56:55.278000+00:00,train
426,-2.0,-2.0,2021-01-21 20:57:25.278000+00:00,train
427,-2.0,-2.0,2021-01-21 20:57:55.278000+00:00,train
428,-2.0,-2.0,2021-01-21 20:58:25.278000+00:00,train
429,-2.0,-2.0,2021-01-21 20:58:55.278000+00:00,train
430,-2.0,-2.0,2021-01-21 20:59:25.278000+00:00,train
431,-2.0,-2.0,2021-01-21 20:59:55.278000+00:00,train
432,-2.0,-2.0,2021-01-21 21:00:25.278000+00:00,train
433,-2.0,0.0,2021-01-21 21:00:55.278000+00:00,train
434,-2.0,-2.0,2021-01-21 21:01:25.278000+00:00,train
435,-2.0,-2.0,2021-01-21 21:01:55.278000+00:00,train
436,-2.0,-2.0,2021-01-21 21:02:25.278000+00:00,train
437,-2.0,-2.0,2021-01-21 21:02:55.278000+00:00,train
438,-2.0,-2.0,2021-01-21 21:03:25.278000+00:00,train
439,-2.0011861324310303,-2.0,2021-01-21 21:03:55.278000+00:00,train
440,-2.0014801025390625,-2.0,2021-01-21 21:04:25.278000+00:00,train
441,-2.0017542839050293,-2.0,2021-01-21 21:04:55.278000+00:00,train
442,-2.0019750595092773,-2.0,2021-01-21 21:05:25.278000+00:00,train
443,-2.00215482711792,-2.0,2021-01-21 21:05:55.278000+00:00,train
444,-2.002305030822754,-2.0,2021-01-21 21:06:25.278000+00:00,train
445,-2.0024349689483643,-2.0,2021-01-21 21:06:55.278000+00:00,train
446,-2.0025506019592285,-2.0,2021-01-21 21:07:25.278000+00:00,train
447,-2.002655267715454,-2.0,2021-01-21 21:07:55.278000+00:00,train
448,-2.002744436264038,-2.0,2021-01-21 21:08:25.278000+00:00,train
449,-2.0028302669525146,-2.0,2021-01-21 21:08:55.278000+00:00,train
450,-2.002912759780884,-2.0,2021-01-21 21:09:25.278000+00:00,train
451,-2.0029916763305664,-2.0,2021-01-21 21:09:55.278000+00:00,train
452,-2.0030667781829834,-2.0,2021-01-21 21:10:25.278000+00:00,train
453,-2.0031380653381348,-2.0,2021-01-21 21:10:55.278000+00:00,train
454,-2.0032060146331787,-2.0,2021-01-21 21:11:25.278000+00:00,train
455,-2.0032691955566406,-2.0,2021-01-21 21:11:55.278000+00:00,train
456,-2.0033280849456787,-2.0,2021-01-21 21:12:25.278000+00:00,train
457,-2.0033833980560303,-2.0,2021-01-21 21:12:55.278000+00:00,train
458,-2.003434896469116,-2.0,2021-01-21 21:13:25.278000+00:00,train
459,-2.0034828186035156,-2.0,2021-01-21 21:13:55.278000+00:00,train
460,-2.003528118133545,-2.0,2021-01-21 21:14:25.278000+00:00,train
461,-2.003570079803467,-2.0,2021-01-21 21:14:55.278000+00:00,train
462,-2.003608226776123,-2.0,2021-01-21 21:15:25.278000+00:00,train
463,-2.003643035888672,-2.0,2021-01-21 21:15:55.278000+00:00,train
464,-2.0036747455596924,-2.0,2021-01-21 21:16:25.278000+00:00,train
465,-2.0037033557891846,-2.0,2021-01-21 21:16:55.278000+00:00,train
466,-2.0037295818328857,-2.0,2021-01-21 21:17:25.278000+00:00,train
467,-2.0037527084350586,-2.0,2021-01-21 21:17:55.278000+00:00,train
468,-2.003772735595703,-2.0,2021-01-21 21:18:25.278000+00:00,train
469,-2.0037894248962402,-2.0,2021-01-21 21:18:55.278000+00:00,train
470,-2.0038034915924072,-2.0,2021-01-21 21:19:25.278000+00:00,train
471,-2.003817319869995,-2.0,2021-01-21 21:19:55.278000+00:00,train
472,-2.0038394927978516,-2.0,2021-01-21 21:20:25.278000+00:00,train
473,-2.0038537979125977,-2.0,2021-01-21 21:20:55.278000+00:00,train
474,-2.0038514137268066,-2.0,2021-01-21 21:21:25.278000+00:00,train
475,-2.0038394927978516,-2.0,2021-01-21 21:21:55.278000+00:00,train
476,-2.0038230419158936,-2.0,2021-01-21 21:22:25.278000+00:00,train
477,-2.003803014755249,-2.0,2021-01-21 21:22:55.278000+00:00,train
478,-2.0037803649902344,-2.0,2021-01-21 21:23:25.278000+00:00,train
479,-2.003756523132324,-2.0,2021-01-21 21:23:55.278000+00:00,train
480,-2.003728151321411,-2.0,2021-01-21 21:24:25.278000+00:00,train
481,-2.003700017929077,-2.0,2021-01-21 21:24:55.278000+00:00,train
482,-2.003671646118164,-2.0,2021-01-21 21:25:25.278000+00:00,train
483,-2.0036427974700928,-2.0,2021-01-21 21:25:55.278000+00:00,train
484,-2.003613233566284,-2.0,2021-01-21 21:26:25.278000+00:00,train
485,-2.0036017894744873,-2.0,2021-01-21 21:26:55.278000+00:00,train
486,-2.0035812854766846,-2.0,2021-01-21 21:27:25.278000+00:00,train
487,-2.003556966781616,-2.0,2021-01-21 21:27:55.278000+00:00,train
488,-2.0035293102264404,-2.0,2021-01-21 21:28:25.278000+00:00,train
489,-2.0034992694854736,-2.0,2021-01-21 21:28:55.278000+00:00,train
490,-2.0034666061401367,-2.0,2021-01-21 21:29:25.278000+00:00,train
491,-2.0034306049346924,-2.0,2021-01-21 21:29:55.278000+00:00,train
492,-2.003392457962036,-2.0,2021-01-21 21:30:25.278000+00:00,train
493,-2.003352403640747,-2.0,2021-01-21 21:30:55.278000+00:00,train
494,-2.0033106803894043,-2.0,2021-01-21 21:31:25.278000+00:00,train
495,-2.0032668113708496,-2.0,2021-01-21 21:31:55.278000+00:00,train
496,-2.003221273422241,-2.0,2021-01-21 21:32:25.278000+00:00,train
497,-2.0031721591949463,-2.0,2021-01-21 21:32:55.278000+00:00,train
498,-2.003122091293335,-2.0,2021-01-21 21:33:25.278000+00:00,train
499,-2.00307035446167,-2.0,2021-01-21 21:33:55.278000+00:00,train
500,-2.0030176639556885,-2.0,2021-01-21 21:34:25.278000+00:00,train
501,-2.0029637813568115,-2.0,2021-01-21 21:34:55.278000+00:00,train
502,-2.002906560897827,-2.0,2021-01-21 21:35:25.278000+00:00,train
503,-2.0028491020202637,-2.0,2021-01-21 21:35:55.278000+00:00,train
504,-2.002790927886963,-2.0,2021-01-21 21:36:25.278000+00:00,train
505,-2.002732276916504,-2.0,2021-01-21 21:36:55.278000+00:00,train
506,-2.0026731491088867,-2.0,2021-01-21 21:37:25.278000+00:00,train
507,-2.0026133060455322,-2.0,2021-01-21 21:37:55.278000+00:00,train
508,-2.0025622844696045,-2.0,2021-01-21 21:38:25.278000+00:00,train
509,-2.0025084018707275,-2.0,2021-01-21 21:38:55.278000+00:00,train
510,-2.0024523735046387,-2.0,2021-01-21 21:39:25.278000+00:00,train
511,-2.002394914627075,-2.0,2021-01-21 21:39:55.278000+00:00,train
512,-2.0023365020751953,-2.0,2021-01-21 21:40:25.278000+00:00,train
513,-2.002276659011841,-2.0,2021-01-21 21:40:55.278000+00:00,train
514,-2.0022151470184326,-2.0,2021-01-21 21:41:25.278000+00:00,train
515,-2.00215220451355,-2.0,2021-01-21 21:41:55.278000+00:00,train
516,-2.0020875930786133,-2.0,2021-01-21 21:42:25.278000+00:00,train
517,-2.0020205974578857,-2.0,2021-01-21 21:42:55.278000+00:00,train
518,-2.001951217651367,-2.0,2021-01-21 21:43:25.278000+00:00,train
519,-2.001877784729004,-2.0,2021-01-21 21:43:55.278000+00:00,train
520,-2.001801013946533,-2.0,2021-01-21 21:44:25.278000+00:00,train
521,-2.0017199516296387,-2.0,2021-01-21 21:44:55.278000+00:00,train
522,-2.001633644104004,-2.0,2021-01-21 21:45:25.278000+00:00,train
523,-2.0015413761138916,-2.0,2021-01-21 21:45:55.278000+00:00,train
524,-2.0014419555664062,-2.0,2021-01-21 21:46:25.278000+00:00,train
525,-2.0013327598571777,-2.0,2021-01-21 21:46:55.278000+00:00,train
526,-2.001213550567627,-2.0,2021-01-21 21:47:25.278000+00:00,train
527,-2.0010833740234375,-2.0,2021-01-21 21:47:55.278000+00:00,train
528,-2.0009405612945557,-2.0,2021-01-21 21:48:25.278000+00:00,train
529,-2.0007834434509277,-2.0,2021-01-21 21:48:55.278000+00:00,train
530,-2.0006136894226074,-2.0,2021-01-21 21:49:25.278000+00:00,train
531,-2.0004258155822754,-2.0,2021-01-21 21:49:55.278000+00:00,train
532,-2.000215530395508,-2.0,2021-01-21 21:50:25.278000+00:00,train
533,-1.9999821186065674,-2.0,2021-01-21 21:50:55.278000+00:00,train
534,-1.999724268913269,-2.0,2021-01-21 21:51:25.278000+00:00,train
535,-1.9994398355484009,-2.0,2021-01-21 21:51:55.278000+00:00,train
536,-1.9991282224655151,-2.0,2021-01-21 21:52:25.278000+00:00,train
537,-1.9987837076187134,-2.0,2021-01-21 21:52:55.278000+00:00,train
538,-1.9984030723571777,-2.0,2021-01-21 21:53:25.278000+00:00,train
539,-1.9979794025421143,-2.0,2021-01-21 21:53:55.278000+00:00,train
540,-1.9975017309188843,-2.0,2021-01-21 21:54:25.278000+00:00,train
541,-1.9969590902328491,-2.0,2021-01-21 21:54:55.278000+00:00,train
542,-1.9963127374649048,-2.0,2021-01-21 21:55:25.278000+00:00,train
543,-1.9955055713653564,-2.0,2021-01-21 21:55:55.278000+00:00,train
544,-1.9944125413894653,-1.0,2021-01-21 21:56:25.278000+00:00,train
545,-1.992745041847229,-2.0,2021-01-21 21:56:55.278000+00:00,train
546,-1.9897633790969849,-2.0,2021-01-21 21:57:25.278000+00:00,train
547,-1.9836574792861938,-2.0,2021-01-21 21:57:55.278000+00:00,train
548,-1.9695749282836914,-2.0,2021-01-21 21:58:25.278000+00:00,train
549,-1.9417589902877808,-2.0,2021-01-21 21:58:55.278000+00:00,train
550,-1.4179432392120361,-2.0,2021-01-21 21:59:25.278000+00:00,train
551,-1.4182260036468506,-1.0,2021-01-21 21:59:55.278000+00:00,train
552,-1.41843843460083,-1.0,2021-01-21 22:00:25.278000+00:00,train
553,-1.4187135696411133,0.0,2021-01-21 22:00:55.278000+00:00,train
554,-1.418826937675476,-1.0,2021-01-21 22:01:25.278000+00:00,train
555,-1.4186965227127075,-1.0,2021-01-21 22:01:55.278000+00:00,train
556,-1.418394923210144,-1.0,2021-01-21 22:02:25.278000+00:00,train
557,-1.3543528318405151,-1.0,2021-01-21 22:02:55.278000+00:00,train
558,-1.2871530055999756,-1.0,2021-01-21 22:03:25.278000+00:00,train
559,-1.2781093120574951,-1.0,2021-01-21 22:03:55.278000+00:00,train
560,-1.2253972291946411,-1.0,2021-01-21 22:04:25.278000+00:00,train
561,-1.1755719184875488,-1.0,2021-01-21 22:04:55.278000+00:00,train
562,-1.1349339485168457,-1.0,2021-01-21 22:05:25.278000+00:00,train
563,-1.1049834489822388,-1.0,2021-01-21 22:05:55.278000+00:00,train
564,-1.080385446548462,-1.0,2021-01-21 22:06:25.278000+00:00,train
565,-1.0595272779464722,-1.0,2021-01-21 22:06:55.278000+00:00,train
566,-1.041497826576233,-1.0,2021-01-21 22:07:25.278000+00:00,train
567,-1.0255283117294312,-1.0,2021-01-21 22:07:55.278000+00:00,train
568,-1.012010931968689,-1.0,2021-01-21 22:08:25.278000+00:00,train
569,-1.0027661323547363,-1.0,2021-01-21 22:08:55.278000+00:00,train
570,-0.9965744614601135,-1.0,2021-01-21 22:09:25.278000+00:00,train
571,-0.9939497709274292,-1.0,2021-01-21 22:09:55.278000+00:00,train
572,-0.9950795769691467,-1.0,2021-01-21 22:10:25.278000+00:00,train
573,-0.9993441700935364,-1.0,2021-01-21 22:10:55.278000+00:00,train
574,-0.991902232170105,-1.0,2021-01-21 22:11:25.278000+00:00,train
575,-0.9877359867095947,-1.0,2021-01-21 22:11:55.278000+00:00,train
576,-0.9865115284919739,-1.0,2021-01-21 22:12:25.278000+00:00,train
577,-0.9878568053245544,-1.0,2021-01-21 22:12:55.278000+00:00,train
578,-0.9911767244338989,-1.0,2021-01-21 22:13:25.278000+00:00,train
579,-0.9958334565162659,-1.0,2021-01-21 22:13:55.278000+00:00,train
580,-1.0301672220230103,-1.0,2021-01-21 22:14:25.278000+00:00,train
581,-1.0386348962783813,-1.0,2021-01-21 22:14:55.278000+00:00,train
582,-1.0408117771148682,-1.0,2021-01-21 22:15:25.278000+00:00,train
583,-1.0406230688095093,-1.0,2021-01-21 22:15:55.278000+00:00,train
584,-1.0397138595581055,-1.0,2021-01-21 22:16:25.278000+00:00,train
585,-1.0387078523635864,-1.0,2021-01-21 22:16:55.278000+00:00,train
586,-1.0375362634658813,-1.0,2021-01-21 22:17:25.278000+00:00,train
587,-1.0363187789916992,-1.0,2021-01-21 22:17:55.278000+00:00,train
588,-1.0351370573043823,-1.0,2021-01-21 22:18:25.278000+00:00,train
589,-1.0344369411468506,-1.0,2021-01-21 22:18:55.278000+00:00,train
590,-1.0360771417617798,-1.0,2021-01-21 22:19:25.278000+00:00,train
591,-1.0376065969467163,-1.0,2021-01-21 22:19:55.278000+00:00,train
592,-1.0397603511810303,-1.0,2021-01-21 22:20:25.278000+00:00,train
593,-1.0411893129348755,-1.0,2021-01-21 22:20:55.278000+00:00,train
594,-1.0398669242858887,-1.0,2021-01-21 22:21:25.278000+00:00,train
595,-1.0382885932922363,-1.0,2021-01-21 22:21:55.278000+00:00,train
596,-1.036881446838379,-1.0,2021-01-21 22:22:25.278000+00:00,train
597,-1.0358645915985107,-1.0,2021-01-21 22:22:55.278000+00:00,train
598,-1.0350834131240845,-1.0,2021-01-21 22:23:25.278000+00:00,train
599,-1.0340818166732788,-1.0,2021-01-21 22:23:55.278000+00:00,train
600,-1.0327519178390503,-1.0,2021-01-21 22:24:25.278000+00:00,train
601,-1.0310001373291016,-1.0,2021-01-21 22:24:55.278000+00:00,train
602,-1.0279810428619385,-1.0,2021-01-21 22:25:25.278000+00:00,train
603,-1.0241451263427734,-1.0,2021-01-21 22:25:55.278000+00:00,train
604,-1.021500825881958,-1.0,2021-01-21 22:26:25.278000+00:00,train
605,-1.0208678245544434,-1.0,2021-01-21 22:26:55.278000+00:00,train
606,-1.0199726819992065,-1.0,2021-01-21 22:27:25.278000+00:00,train
607,-1.0191073417663574,-1.0,2021-01-21 22:27:55.278000+00:00,train
608,-1.0183677673339844,-1.0,2021-01-21 22:28:25.278000+00:00,train
609,-1.0178718566894531,-1.0,2021-01-21 22:28:55.278000+00:00,train
610,-1.017342209815979,-1.0,2021-01-21 22:29:25.278000+00:00,train
611,-1.0165621042251587,-1.0,2021-01-21 22:29:55.278000+00:00,train
612,-1.0157907009124756,-1.0,2021-01-21 22:30:25.278000+00:00,train
613,-1.0150225162506104,-1.0,2021-01-21 22:30:55.278000+00:00,train
614,-1.0143682956695557,-1.0,2021-01-21 22:31:25.278000+00:00,train
615,-1.0139317512512207,-1.0,2021-01-21 22:31:55.278000+00:00,train
616,-1.0134172439575195,-1.0,2021-01-21 22:32:25.278000+00:00,train
617,-1.0126489400863647,-1.0,2021-01-21 22:32:55.278000+00:00,train
618,-1.0119879245758057,-1.0,2021-01-21 22:33:25.278000+00:00,train
619,-1.0115000009536743,-1.0,2021-01-21 22:33:55.278000+00:00,train
620,-1.0112427473068237,-1.0,2021-01-21 22:34:25.278000+00:00,train
621,-1.0109071731567383,-1.0,2021-01-21 22:34:55.278000+00:00,train
622,-1.0103559494018555,-1.0,2021-01-21 22:35:25.278000+00:00,train
623,-1.0098671913146973,-1.0,2021-01-21 22:35:55.278000+00:00,train
624,-1.0093693733215332,-1.0,2021-01-21 22:36:25.278000+00:00,train
625,-1.0083621740341187,-1.0,2021-01-21 22:36:55.278000+00:00,train
626,-1.0064208507537842,-1.0,2021-01-21 22:37:25.278000+00:00,train
627,-1.004537582397461,-1.0,2021-01-21 22:37:55.278000+00:00,train
628,-1.00399911403656,-1.0,2021-01-21 22:38:25.278000+00:00,train
629,-1.0034629106521606,-1.0,2021-01-21 22:38:55.278000+00:00,train
630,-1.0029237270355225,-1.0,2021-01-21 22:39:25.278000+00:00,train
631,-1.0024222135543823,-1.0,2021-01-21 22:39:55.278000+00:00,train
632,-1.0020958185195923,-1.0,2021-01-21 22:40:25.278000+00:00,train
633,-1.0018779039382935,-1.0,2021-01-21 22:40:55.278000+00:00,train
634,-1.001481056213379,-1.0,2021-01-21 22:41:25.278000+00:00,train
635,-1.001107096672058,-1.0,2021-01-21 22:41:55.278000+00:00,train
636,-1.0008090734481812,-1.0,2021-01-21 22:42:25.278000+00:00,train
637,-1.0007513761520386,-1.0,2021-01-21 22:42:55.278000+00:00,train
638,-1.00083327293396,-1.0,2021-01-21 22:43:25.278000+00:00,train
639,-1.0007574558258057,-1.0,2021-01-21 22:43:55.278000+00:00,train
640,-1.0007787942886353,-1.0,2021-01-21 22:44:25.278000+00:00,train
641,-1.0008623600006104,-1.0,2021-01-21 22:44:55.278000+00:00,train
642,-1.0010731220245361,-1.0,2021-01-21 22:45:25.278000+00:00,train
643,-1.0016143321990967,-1.0,2021-01-21 22:45:55.278000+00:00,train
644,-1.0023528337478638,-1.0,2021-01-21 22:46:25.278000+00:00,train
645,-1.0029996633529663,-1.0,2021-01-21 22:46:55.278000+00:00,train
646,-1.0039007663726807,-1.0,2021-01-21 22:47:25.278000+00:00,train
647,-1.004759669303894,-1.0,2021-01-21 22:47:55.278000+00:00,train
648,-1.0047017335891724,-1.0,2021-01-21 22:48:25.278000+00:00,train
649,-1.0040411949157715,-1.0,2021-01-21 22:48:55.278000+00:00,train
650,-1.0046814680099487,-1.0,2021-01-21 22:49:25.278000+00:00,train
651,-1.0053253173828125,-1.0,2021-01-21 22:49:55.278000+00:00,train
652,-1.0059491395950317,-1.0,2021-01-21 22:50:25.278000+00:00,train
653,-1.0065405368804932,-1.0,2021-01-21 22:50:55.278000+00:00,train
654,-1.007225751876831,-1.0,2021-01-21 22:51:25.278000+00:00,train
655,-1.0080609321594238,-1.0,2021-01-21 22:51:55.278000+00:00,train
656,-1.0086863040924072,-1.0,2021-01-21 22:52:25.278000+00:00,train
657,-1.0092343091964722,-1.0,2021-01-21 22:52:55.278000+00:00,train
658,-1.0096898078918457,-1.0,2021-01-21 22:53:25.278000+00:00,train
659,-1.0102107524871826,-1.0,2021-01-21 22:53:55.278000+00:00,train
660,-1.0108293294906616,-1.0,2021-01-21 22:54:25.278000+00:00,train
661,-1.011193037033081,-1.0,2021-01-21 22:54:55.278000+00:00,train
662,-1.011566162109375,-1.0,2021-01-21 22:55:25.278000+00:00,train
663,-1.0121142864227295,-1.0,2021-01-21 22:55:55.278000+00:00,train
664,-1.0135948657989502,-1.0,2021-01-21 22:56:25.278000+00:00,train
665,-1.0159392356872559,-1.0,2021-01-21 22:56:55.278000+00:00,train
666,-1.0174458026885986,-1.0,2021-01-21 22:57:25.278000+00:00,train
667,-1.0193558931350708,-1.0,2021-01-21 22:57:55.278000+00:00,train
668,-1.0197890996932983,-1.0,2021-01-21 22:58:25.278000+00:00,train
669,-1.0183451175689697,-1.0,2021-01-21 22:58:55.278000+00:00,train
670,-1.0189340114593506,-1.0,2021-01-21 22:59:25.278000+00:00,train
671,-1.0161467790603638,-1.0,2021-01-21 22:59:55.278000+00:00,train
672,-1.0143671035766602,-1.0,2021-01-21 23:00:25.278000+00:00,train
673,-1.0122789144515991,0.0,2021-01-21 23:00:55.278000+00:00,train
674,-1.0081063508987427,-1.0,2021-01-21 23:01:25.278000+00:00,train
675,-1.0021576881408691,-1.0,2021-01-21 23:01:55.278000+00:00,train
676,-0.9943917989730835,-1.0,2021-01-21 23:02:25.278000+00:00,train
677,-0.9946841597557068,-1.0,2021-01-21 23:02:55.278000+00:00,train
678,-0.9949912428855896,-1.0,2021-01-21 23:03:25.278000+00:00,train
679,-0.9951106309890747,-1.0,2021-01-21 23:03:55.278000+00:00,train
680,-0.995562732219696,-1.0,2021-01-21 23:04:25.278000+00:00,train
681,-0.9958159327507019,-1.0,2021-01-21 23:04:55.278000+00:00,train
682,-0.9960687756538391,-1.0,2021-01-21 23:05:25.278000+00:00,train
683,-0.9963086843490601,-1.0,2021-01-21 23:05:55.278000+00:00,train
684,-0.9965451955795288,-1.0,2021-01-21 23:06:25.278000+00:00,train
685,-0.9967784285545349,-1.0,2021-01-21 23:06:55.278000+00:00,train
686,-0.9970359206199646,-1.0,2021-01-21 23:07:25.278000+00:00,train
687,-0.9972872734069824,-1.0,2021-01-21 23:07:55.278000+00:00,train
688,-0.9975361824035645,-1.0,2021-01-21 23:08:25.278000+00:00,train
689,-0.9977725148200989,-1.0,2021-01-21 23:08:55.278000+00:00,train
690,-0.9980051517486572,-1.0,2021-01-21 23:09:25.278000+00:00,train
691,-0.998233437538147,-1.0,2021-01-21 23:09:55.278000+00:00,train
692,-0.9984546303749084,-1.0,2021-01-21 23:10:25.278000+00:00,train
693,-0.9986600875854492,-1.0,2021-01-21 23:10:55.278000+00:00,train
694,-0.9989195466041565,-1.0,2021-01-21 23:11:25.278000+00:00,train
695,-0.9991673827171326,-1.0,2021-01-21 23:11:55.278000+00:00,train
696,-0.9994128942489624,-1.0,2021-01-21 23:12:25.278000+00:00,train
697,-0.9996586441993713,-1.0,2021-01-21 23:12:55.278000+00:00,train
698,-0.9999114274978638,-1.0,2021-01-21 23:13:25.278000+00:00,train
699,-1.000199317932129,-1.0,2021-01-21 23:13:55.278000+00:00,train
700,-1.0003238916397095,-1.0,2021-01-21 23:14:25.278000+00:00,train
701,-1.0004485845565796,-1.0,2021-01-21 23:14:55.278000+00:00,train
702,-1.0005760192871094,-1.0,2021-01-21 23:15:25.278000+00:00,train
703,-1.0006808042526245,-1.0,2021-01-21 23:15:55.278000+00:00,train
704,-1.0007846355438232,-1.0,2021-01-21 23:16:25.278000+00:00,train
705,-1.0008876323699951,-1.0,2021-01-21 23:16:55.278000+00:00,train
706,-1.0009897947311401,-1.0,2021-01-21 23:17:25.278000+00:00,train
707,-1.0010911226272583,-1.0,2021-01-21 23:17:55.278000+00:00,train
708,-1.0011917352676392,-1.0,2021-01-21 23:18:25.278000+00:00,train
709,-1.00128972530365,-1.0,2021-01-21 23:18:55.278000+00:00,train
710,-1.0013866424560547,-1.0,2021-01-21 23:19:25.278000+00:00,train
711,-1.0014824867248535,-1.0,2021-01-21 23:19:55.278000+00:00,train
712,-1.0015761852264404,-1.0,2021-01-21 23:20:25.278000+00:00,train
713,-1.0016670227050781,-1.0,2021-01-21 23:20:55.278000+00:00,train
714,-1.0017733573913574,-1.0,2021-01-21 23:21:25.278000+00:00,train
715,-1.0018757581710815,-1.0,2021-01-21 23:21:55.278000+00:00,train
716,-1.0019774436950684,-1.0,2021-01-21 23:22:25.278000+00:00,train
717,-1.0020784139633179,-1.0,2021-01-21 23:22:55.278000+00:00,train
718,-1.0021790266036987,-1.0,2021-01-21 23:23:25.278000+00:00,train
719,-1.0022791624069214,-1.0,2021-01-21 23:23:55.278000+00:00,train
720,-1.0023757219314575,-1.0,2021-01-21 23:24:25.278000+00:00,train
721,-1.002471685409546,-1.0,2021-01-21 23:24:55.278000+00:00,train
722,-1.002566933631897,-1.0,2021-01-21 23:25:25.278000+00:00,train
723,-1.0026614665985107,-1.0,2021-01-21 23:25:55.278000+00:00,train
724,-1.0027555227279663,-1.0,2021-01-21 23:26:25.278000+00:00,train
725,-1.0028492212295532,-1.0,2021-01-21 23:26:55.278000+00:00,train
726,-1.0029397010803223,-1.0,2021-01-21 23:27:25.278000+00:00,train
727,-1.0030295848846436,-1.0,2021-01-21 23:27:55.278000+00:00,train
728,-1.003118872642517,-1.0,2021-01-21 23:28:25.278000+00:00,train
729,-1.0032073259353638,-1.0,2021-01-21 23:28:55.278000+00:00,train
730,-1.0032954216003418,-1.0,2021-01-21 23:29:25.278000+00:00,train
731,-1.0033831596374512,-1.0,2021-01-21 23:29:55.278000+00:00,train
732,-1.0034680366516113,-1.0,2021-01-21 23:30:25.278000+00:00,train
733,-1.003551959991455,-1.0,2021-01-21 23:30:55.278000+00:00,train
734,-1.0036342144012451,-1.0,2021-01-21 23:31:25.278000+00:00,train
735,-1.0037153959274292,-1.0,2021-01-21 23:31:55.278000+00:00,train
736,-1.0037933588027954,-1.0,2021-01-21 23:32:25.278000+00:00,train
737,-1.0038859844207764,-1.0,2021-01-21 23:32:55.278000+00:00,train
738,-1.00397789478302,-1.0,2021-01-21 23:33:25.278000+00:00,train
739,-1.0040693283081055,-1.0,2021-01-21 23:33:55.278000+00:00,train
740,-1.0041600465774536,-1.0,2021-01-21 23:34:25.278000+00:00,train
741,-1.0042507648468018,-1.0,2021-01-21 23:34:55.278000+00:00,train
742,-1.0043413639068604,-1.0,2021-01-21 23:35:25.278000+00:00,train
743,-1.0044279098510742,-1.0,2021-01-21 23:35:55.278000+00:00,train
744,-1.0045140981674194,-1.0,2021-01-21 23:36:25.278000+00:00,train
745,-1.004599690437317,-1.0,2021-01-21 23:36:55.278000+00:00,train
746,-1.0046849250793457,-1.0,2021-01-21 23:37:25.278000+00:00,train
747,-1.0047698020935059,-1.0,2021-01-21 23:37:55.278000+00:00,train
748,-1.0048545598983765,-1.0,2021-01-21 23:38:25.278000+00:00,train
749,-1.0049359798431396,-1.0,2021-01-21 23:38:55.278000+00:00,train
750,-1.0050166845321655,-1.0,2021-01-21 23:39:25.278000+00:00,train
751,-1.0050969123840332,-1.0,2021-01-21 23:39:55.278000+00:00,train
752,-1.0051771402359009,-1.0,2021-01-21 23:40:25.278000+00:00,train
753,-1.0052570104599,-1.0,2021-01-21 23:40:55.278000+00:00,train
754,-1.0053337812423706,-1.0,2021-01-21 23:41:25.278000+00:00,train
755,-1.005409836769104,-1.0,2021-01-21 23:41:55.278000+00:00,train
756,-1.0054854154586792,-1.0,2021-01-21 23:42:25.278000+00:00,train
757,-1.0055599212646484,-1.0,2021-01-21 23:42:55.278000+00:00,train
758,-1.0056331157684326,-1.0,2021-01-21 23:43:25.278000+00:00,train
759,-1.0057026147842407,-1.0,2021-01-21 23:43:55.278000+00:00,train
760,-1.0057891607284546,-1.0,2021-01-21 23:44:25.278000+00:00,train
761,-1.0058753490447998,-1.0,2021-01-21 23:44:55.278000+00:00,train
762,-1.0059610605239868,-1.0,2021-01-21 23:45:25.278000+00:00,train
763,-1.0060455799102783,-1.0,2021-01-21 23:45:55.278000+00:00,train
764,-1.0061298608779907,-1.0,2021-01-21 23:46:25.278000+00:00,train
765,-1.0062143802642822,-1.0,2021-01-21 23:46:55.278000+00:00,train
766,-1.00629460811615,-1.0,2021-01-21 23:47:25.278000+00:00,train
767,-1.0063742399215698,-1.0,2021-01-21 23:47:55.278000+00:00,train
768,-1.0064533948898315,-1.0,2021-01-21 23:48:25.278000+00:00,train
769,-1.0065323114395142,-1.0,2021-01-21 23:48:55.278000+00:00,train
770,-1.0066109895706177,-1.0,2021-01-21 23:49:25.278000+00:00,train
771,-1.0066896677017212,-1.0,2021-01-21 23:49:55.278000+00:00,train
772,-1.0067644119262695,-1.0,2021-01-21 23:50:25.278000+00:00,train
773,-1.0068385601043701,-1.0,2021-01-21 23:50:55.278000+00:00,train
774,-1.0069124698638916,-1.0,2021-01-21 23:51:25.278000+00:00,train
775,-1.0069860219955444,-1.0,2021-01-21 23:51:55.278000+00:00,train
776,-1.0070596933364868,-1.0,2021-01-21 23:52:25.278000+00:00,train
777,-1.0071296691894531,-1.0,2021-01-21 23:52:55.278000+00:00,train
778,-1.0071990489959717,-1.0,2021-01-21 23:53:25.278000+00:00,train
779,-1.007267713546753,-1.0,2021-01-21 23:53:55.278000+00:00,train
780,-1.0073353052139282,-1.0,2021-01-21 23:54:25.278000+00:00,train
781,-1.0074015855789185,-1.0,2021-01-21 23:54:55.278000+00:00,train
782,-1.0074635744094849,-1.0,2021-01-21 23:55:25.278000+00:00,train
783,-1.0075434446334839,-1.0,2021-01-21 23:55:55.278000+00:00,train
784,-1.007622480392456,-1.0,2021-01-21 23:56:25.278000+00:00,train
785,-1.0077006816864014,-1.0,2021-01-21 23:56:55.278000+00:00,train
786,-1.0077776908874512,-1.0,2021-01-21 23:57:25.278000+00:00,train
787,-1.0078538656234741,-1.0,2021-01-21 23:57:55.278000+00:00,train
788,-1.0079299211502075,-1.0,2021-01-21 23:58:25.278000+00:00,train
789,-1.0080008506774902,-1.0,2021-01-21 23:58:55.278000+00:00,train
790,-1.008070707321167,-1.0,2021-01-21 23:59:25.278000+00:00,train
791,-1.0081392526626587,-1.0,2021-01-21 23:59:55.278000+00:00,train
792,-1.0082066059112549,-1.0,2021-01-22 00:00:25.278000+00:00,train
793,-1.0082727670669556,-1.0,2021-01-22 00:00:55.278000+00:00,train
794,-1.0083380937576294,-1.0,2021-01-22 00:01:25.278000+00:00,train
795,-1.0083987712860107,-1.0,2021-01-22 00:01:55.278000+00:00,train
796,-1.0084577798843384,-1.0,2021-01-22 00:02:25.278000+00:00,train
797,-1.0085152387619019,-1.0,2021-01-22 00:02:55.278000+00:00,train
798,-1.008571982383728,-1.0,2021-01-22 00:03:25.278000+00:00,train
799,-1.0,-1.0,2021-01-22 00:03:55.278000+00:00,train
800,-1.0,-1.0,2021-01-22 00:04:25.278000+00:00,train
801,-1.0,-1.0,2021-01-22 00:04:55.278000+00:00,train
802,-1.0,-1.0,2021-01-22 00:05:25.278000+00:00,train
803,-1.0,-1.0,2021-01-22 00:05:55.278000+00:00,train
804,-1.0,-1.0,2021-01-22 00:06:25.278000+00:00,train
805,-1.0,-1.0,2021-01-22 00:06:55.278000+00:00,train
806,-1.0,-1.0,2021-01-22 00:07:25.278000+00:00,train
807,-1.0,-1.0,2021-01-22 00:07:55.278000+00:00,train
808,-1.0,-1.0,2021-01-22 00:08:25.278000+00:00,train
809,-1.0,-1.0,2021-01-22 00:08:55.278000+00:00,train
810,-1.0,-1.0,2021-01-22 00:09:25.278000+00:00,train
811,-1.0,-1.0,2021-01-22 00:09:55.278000+00:00,train
812,-1.0,-1.0,2021-01-22 00:10:25.278000+00:00,train
813,-1.0,-1.0,2021-01-22 00:10:55.278000+00:00,train
814,-1.0,-1.0,2021-01-22 00:11:25.278000+00:00,train
815,-1.0,-1.0,2021-01-22 00:11:55.278000+00:00,train
816,-1.0,-1.0,2021-01-22 00:12:25.278000+00:00,train
817,-1.0,-1.0,2021-01-22 00:12:55.278000+00:00,train
818,-1.0,-1.0,2021-01-22 00:13:25.278000+00:00,train
819,-1.0,-1.0,2021-01-22 00:13:55.278000+00:00,train
820,-1.0,-1.0,2021-01-22 00:14:25.278000+00:00,train
821,-1.0,-1.0,2021-01-22 00:14:55.278000+00:00,train
822,-1.0,-1.0,2021-01-22 00:15:25.278000+00:00,train
823,-1.0,-1.0,2021-01-22 00:15:55.278000+00:00,train
824,-1.0,-1.0,2021-01-22 00:16:25.278000+00:00,train
825,-1.0,-1.0,2021-01-22 00:16:55.278000+00:00,train
826,-1.0,-1.0,2021-01-22 00:17:25.278000+00:00,train
827,-1.0,-1.0,2021-01-22 00:17:55.278000+00:00,train
828,-1.0,-1.0,2021-01-22 00:18:25.278000+00:00,train
829,-1.0,-1.0,2021-01-22 00:18:55.278000+00:00,train
830,-1.0,-1.0,2021-01-22 00:19:25.278000+00:00,train
831,-1.0,-1.0,2021-01-22 00:19:55.278000+00:00,train
832,-1.0,-1.0,2021-01-22 00:20:25.278000+00:00,train
833,-1.0,-1.0,2021-01-22 00:20:55.278000+00:00,train
834,-1.0,-1.0,2021-01-22 00:21:25.278000+00:00,train
835,-1.0,-1.0,2021-01-22 00:21:55.278000+00:00,train
836,-1.0,-1.0,2021-01-22 00:22:25.278000+00:00,train
837,-1.0,-1.0,2021-01-22 00:22:55.278000+00:00,train
838,-1.0,-1.0,2021-01-22 00:23:25.278000+00:00,train
839,-1.0,-1.0,2021-01-22 00:23:55.278000+00:00,train
840,-1.0,-1.0,2021-01-22 00:24:25.278000+00:00,train
841,-1.0,-1.0,2021-01-22 00:24:55.278000+00:00,train
842,-1.0,-1.0,2021-01-22 00:25:25.278000+00:00,train
843,-1.0,-1.0,2021-01-22 00:25:55.278000+00:00,train
844,-1.0,-1.0,2021-01-22 00:26:25.278000+00:00,train
845,-1.0,-1.0,2021-01-22 00:26:55.278000+00:00,train
846,-1.0,-1.0,2021-01-22 00:27:25.278000+00:00,train
847,-1.0,-1.0,2021-01-22 00:27:55.278000+00:00,train
848,-1.0,-1.0,2021-01-22 00:28:25.278000+00:00,train
849,-1.0,-1.0,2021-01-22 00:28:55.278000+00:00,train
850,-1.0,-1.0,2021-01-22 00:29:25.278000+00:00,train
851,-1.0,-1.0,2021-01-22 00:29:55.278000+00:00,train
852,-1.0,-1.0,2021-01-22 00:30:25.278000+00:00,train
853,-1.0,-1.0,2021-01-22 00:30:55.278000+00:00,train
854,-1.0,-1.0,2021-01-22 00:31:25.278000+00:00,train
855,-1.0,-1.0,2021-01-22 00:31:55.278000+00:00,train
856,-1.0,-1.0,2021-01-22 00:32:25.278000+00:00,train
857,-1.0,-1.0,2021-01-22 00:32:55.278000+00:00,train
858,-1.0,-1.0,2021-01-22 00:33:25.278000+00:00,train
859,-1.0,-1.0,2021-01-22 00:33:55.278000+00:00,train
860,-1.0,-1.0,2021-01-22 00:34:25.278000+00:00,train
861,-1.0,-1.0,2021-01-22 00:34:55.278000+00:00,train
862,-1.0,-1.0,2021-01-22 00:35:25.278000+00:00,train
863,-1.0,-1.0,2021-01-22 00:35:55.278000+00:00,train
864,-1.0,-1.0,2021-01-22 00:36:25.278000+00:00,train
865,-1.0,-1.0,2021-01-22 00:36:55.278000+00:00,train
866,-1.0,-1.0,2021-01-22 00:37:25.278000+00:00,train
867,-1.0,-1.0,2021-01-22 00:37:55.278000+00:00,train
868,-1.0,-1.0,2021-01-22 00:38:25.278000+00:00,train
869,-1.0,-1.0,2021-01-22 00:38:55.278000+00:00,train
870,-1.0,-1.0,2021-01-22 00:39:25.278000+00:00,train
871,-1.0,-1.0,2021-01-22 00:39:55.278000+00:00,train
872,-1.0,-1.0,2021-01-22 00:40:25.278000+00:00,train
873,-1.0,-1.0,2021-01-22 00:40:55.278000+00:00,train
874,-1.0,-1.0,2021-01-22 00:41:25.278000+00:00,train
875,-1.0,-1.0,2021-01-22 00:41:55.278000+00:00,train
876,-1.0,-1.0,2021-01-22 00:42:25.278000+00:00,train
877,-1.0,-1.0,2021-01-22 00:42:55.278000+00:00,train
878,-1.0,-1.0,2021-01-22 00:43:25.278000+00:00,train
879,-1.0,-1.0,2021-01-22 00:43:55.278000+00:00,train
880,-1.0,-1.0,2021-01-22 00:44:25.278000+00:00,train
881,-1.0,-1.0,2021-01-22 00:44:55.278000+00:00,train
882,-1.0,-1.0,2021-01-22 00:45:25.278000+00:00,train
883,-1.0,-1.0,2021-01-22 00:45:55.278000+00:00,train
884,-1.0,-1.0,2021-01-22 00:46:25.278000+00:00,train
885,-1.0,-1.0,2021-01-22 00:46:55.278000+00:00,train
886,-1.0,-1.0,2021-01-22 00:47:25.278000+00:00,train
887,-1.0,-1.0,2021-01-22 00:47:55.278000+00:00,train
888,-1.0,-1.0,2021-01-22 00:48:25.278000+00:00,train
889,-1.0,-1.0,2021-01-22 00:48:55.278000+00:00,train
890,-1.0,-1.0,2021-01-22 00:49:25.278000+00:00,train
891,-1.0,-1.0,2021-01-22 00:49:55.278000+00:00,train
892,-1.0,-1.0,2021-01-22 00:50:25.278000+00:00,train
893,-1.0,-1.0,2021-01-22 00:50:55.278000+00:00,train
894,-1.0,-1.0,2021-01-22 00:51:25.278000+00:00,train
895,-1.0,-1.0,2021-01-22 00:51:55.278000+00:00,train
896,-1.0,-1.0,2021-01-22 00:52:25.278000+00:00,train
897,-1.0,-1.0,2021-01-22 00:52:55.278000+00:00,train
898,-1.0,-1.0,2021-01-22 00:53:25.278000+00:00,train
899,-1.0,-1.0,2021-01-22 00:53:55.278000+00:00,train
900,-1.0,-1.0,2021-01-22 00:54:25.278000+00:00,train
901,-1.0,-1.0,2021-01-22 00:54:55.278000+00:00,train
902,-1.0,-1.0,2021-01-22 00:55:25.278000+00:00,train
903,-1.0,-1.0,2021-01-22 00:55:55.278000+00:00,train
904,-1.0,-1.0,2021-01-22 00:56:25.278000+00:00,train
905,-1.0,-1.0,2021-01-22 00:56:55.278000+00:00,train
906,-1.0,-1.0,2021-01-22 00:57:25.278000+00:00,train
907,-1.0,-1.0,2021-01-22 00:57:55.278000+00:00,train
908,-1.0,-1.0,2021-01-22 00:58:25.278000+00:00,train
909,-1.0,-1.0,2021-01-22 00:58:55.278000+00:00,train
910,-1.0,-1.0,2021-01-22 00:59:25.278000+00:00,train
911,-1.0,-1.0,2021-01-22 00:59:55.278000+00:00,train
912,-1.0,-1.0,2021-01-22 01:00:25.278000+00:00,train
913,-1.0,-1.0,2021-01-22 01:00:55.278000+00:00,train
914,-1.0,-1.0,2021-01-22 01:01:25.278000+00:00,train
915,-1.0,-1.0,2021-01-22 01:01:55.278000+00:00,train
916,-1.0,-1.0,2021-01-22 01:02:25.278000+00:00,train
917,-1.0,-1.0,2021-01-22 01:02:55.278000+00:00,train
918,-1.0,-1.0,2021-01-22 01:03:25.278000+00:00,train
919,-1.0,-1.0,2021-01-22 01:03:55.278000+00:00,train
920,-1.0,-1.0,2021-01-22 01:04:25.278000+00:00,train
921,-1.0,-1.0,2021-01-22 01:04:55.278000+00:00,train
922,-1.0,-1.0,2021-01-22 01:05:25.278000+00:00,train
923,-1.0,-1.0,2021-01-22 01:05:55.278000+00:00,train
924,-1.0,-1.0,2021-01-22 01:06:25.278000+00:00,train
925,-1.0,-1.0,2021-01-22 01:06:55.278000+00:00,train
926,-1.0,-1.0,2021-01-22 01:07:25.278000+00:00,train
927,-1.0,-1.0,2021-01-22 01:07:55.278000+00:00,train
928,-1.0,-1.0,2021-01-22 01:08:25.278000+00:00,train
929,-1.0,-1.0,2021-01-22 01:08:55.278000+00:00,train
930,-1.0,-1.0,2021-01-22 01:09:25.278000+00:00,train
931,-1.0,-1.0,2021-01-22 01:09:55.278000+00:00,train
932,-1.0,-1.0,2021-01-22 01:10:25.278000+00:00,train
933,-1.0,-1.0,2021-01-22 01:10:55.278000+00:00,train
934,-1.0,-1.0,2021-01-22 01:11:25.278000+00:00,train
935,-1.0,-1.0,2021-01-22 01:11:55.278000+00:00,train
936,-1.0,-1.0,2021-01-22 01:12:25.278000+00:00,train
937,-1.0,-1.0,2021-01-22 01:12:55.278000+00:00,train
938,-1.0,-1.0,2021-01-22 01:13:25.278000+00:00,train
939,-1.0,-1.0,2021-01-22 01:13:55.278000+00:00,train
940,-1.0,-1.0,2021-01-22 01:14:25.278000+00:00,train
941,-1.0,-1.0,2021-01-22 01:14:55.278000+00:00,train
942,-1.0,-1.0,2021-01-22 01:15:25.278000+00:00,train
943,-1.0,-1.0,2021-01-22 01:15:55.278000+00:00,train
944,-1.0,-1.0,2021-01-22 01:16:25.278000+00:00,train
945,-1.0,-1.0,2021-01-22 01:16:55.278000+00:00,train
946,-1.0,-1.0,2021-01-22 01:17:25.278000+00:00,train
947,-1.0,-1.0,2021-01-22 01:17:55.278000+00:00,train
948,-1.0,-1.0,2021-01-22 01:18:25.278000+00:00,train
949,-1.0,-1.0,2021-01-22 01:18:55.278000+00:00,train
950,-1.0,-1.0,2021-01-22 01:19:25.278000+00:00,train
951,-1.0,-1.0,2021-01-22 01:19:55.278000+00:00,train
952,-1.0,-1.0,2021-01-22 01:20:25.278000+00:00,train
953,-1.0,-1.0,2021-01-22 01:20:55.278000+00:00,train
954,-1.0,-1.0,2021-01-22 01:21:25.278000+00:00,train
955,-1.0,-1.0,2021-01-22 01:21:55.278000+00:00,train
956,-1.0,-1.0,2021-01-22 01:22:25.278000+00:00,train
957,-1.0,-1.0,2021-01-22 01:22:55.278000+00:00,train
958,-1.0,-1.0,2021-01-22 01:23:25.278000+00:00,train
959,-1.0,-1.0,2021-01-22 01:23:55.278000+00:00,train
960,-1.0,-1.0,2021-01-22 01:24:25.278000+00:00,train
961,-1.0,-1.0,2021-01-22 01:24:55.278000+00:00,train
962,-1.0,-1.0,2021-01-22 01:25:25.278000+00:00,train
963,-1.0,-1.0,2021-01-22 01:25:55.278000+00:00,train
964,-1.0,-1.0,2021-01-22 01:26:25.278000+00:00,train
965,-1.0,-1.0,2021-01-22 01:26:55.278000+00:00,train
966,-1.0,-1.0,2021-01-22 01:27:25.278000+00:00,train
967,-1.0,-1.0,2021-01-22 01:27:55.278000+00:00,train
968,-1.0,-1.0,2021-01-22 01:28:25.278000+00:00,train
969,-1.0,-1.0,2021-01-22 01:28:55.278000+00:00,train
970,-1.0,-1.0,2021-01-22 01:29:25.278000+00:00,train
971,-1.0,-1.0,2021-01-22 01:29:55.278000+00:00,train
972,-1.0,-1.0,2021-01-22 01:30:25.278000+00:00,train
973,-1.0,-1.0,2021-01-22 01:30:55.278000+00:00,train
974,-1.0,-1.0,2021-01-22 01:31:25.278000+00:00,train
975,-1.0,-1.0,2021-01-22 01:31:55.278000+00:00,train
976,-1.0,-1.0,2021-01-22 01:32:25.278000+00:00,train
977,-1.0,0.0,2021-01-22 01:32:55.278000+00:00,train
978,-1.0,0.0,2021-01-22 01:33:25.278000+00:00,train
979,-1.0,0.0,2021-01-22 01:33:55.278000+00:00,train
980,-1.0,0.0,2021-01-22 01:34:25.278000+00:00,train
981,-1.0,0.0,2021-01-22 01:34:55.278000+00:00,train
982,-1.0,0.0,2021-01-22 01:35:25.278000+00:00,train
983,-0.752845287322998,0.0,2021-01-22 01:35:55.278000+00:00,train
984,-0.6475558876991272,0.0,2021-01-22 01:36:25.278000+00:00,train
985,-0.566239058971405,0.0,2021-01-22 01:36:55.278000+00:00,train
986,-0.4976122975349426,0.0,2021-01-22 01:37:25.278000+00:00,train
987,-0.4372933506965637,-1.0,2021-01-22 01:37:55.278000+00:00,train
988,-0.3830333352088928,0.0,2021-01-22 01:38:25.278000+00:00,train
989,-0.3334790766239166,0.0,2021-01-22 01:38:55.278000+00:00,train
990,-0.28779447078704834,0.0,2021-01-22 01:39:25.278000+00:00,train
991,-0.24539223313331604,0.0,2021-01-22 01:39:55.278000+00:00,train
992,-0.2058572918176651,0.0,2021-01-22 01:40:25.278000+00:00,train
993,-0.2075902372598648,0.0,2021-01-22 01:40:55.278000+00:00,train
994,-0.17072078585624695,0.0,2021-01-22 01:41:25.278000+00:00,train
995,-0.13631398975849152,0.0,2021-01-22 01:41:55.278000+00:00,train
996,-0.10423808544874191,0.0,2021-01-22 01:42:25.278000+00:00,train
997,-0.0746949091553688,0.0,2021-01-22 01:42:55.278000+00:00,train
998,-0.048082657158374786,0.0,2021-01-22 01:43:25.278000+00:00,train
999,-0.021910985931754112,0.0,2021-01-22 01:43:55.278000+00:00,train
1000,0.003862629411742091,0.0,2021-01-22 01:44:25.278000+00:00,train
1001,0.02860841155052185,0.0,2021-01-22 01:44:55.278000+00:00,train
1002,0.05177991837263107,0.0,2021-01-22 01:45:25.278000+00:00,train
1003,0.07298032194375992,0.0,2021-01-22 01:45:55.278000+00:00,train
1004,0.09122148901224136,0.0,2021-01-22 01:46:25.278000+00:00,train
1005,0.10397142171859741,0.0,2021-01-22 01:46:55.278000+00:00,train
1006,0.10592330992221832,0.0,2021-01-22 01:47:25.278000+00:00,train
1007,0.09112272411584854,0.0,2021-01-22 01:47:55.278000+00:00,train
1008,0.06609126180410385,0.0,2021-01-22 01:48:25.278000+00:00,train
1009,0.043850041925907135,0.0,2021-01-22 01:48:55.278000+00:00,train
1010,0.029924120754003525,0.0,2021-01-22 01:49:25.278000+00:00,train
1011,0.022155042737722397,0.0,2021-01-22 01:49:55.278000+00:00,train
1012,0.017540475353598595,0.0,2021-01-22 01:50:25.278000+00:00,train
1013,0.01401454210281372,0.0,2021-01-22 01:50:55.278000+00:00,train
1014,0.010014692321419716,0.0,2021-01-22 01:51:25.278000+00:00,train
1015,0.004142665769904852,0.0,2021-01-22 01:51:55.278000+00:00,train
1016,-0.004687872715294361,0.0,2021-01-22 01:52:25.278000+00:00,train
1017,-0.017193369567394257,0.0,2021-01-22 01:52:55.278000+00:00,train
1018,-0.03200669586658478,0.0,2021-01-22 01:53:25.278000+00:00,train
1019,-0.046998027712106705,0.0,2021-01-22 01:53:55.278000+00:00,train
1020,-0.059900809079408646,0.0,2021-01-22 01:54:25.278000+00:00,train
1021,-0.06970786303281784,0.0,2021-01-22 01:54:55.278000+00:00,train
1022,-0.07575473189353943,0.0,2021-01-22 01:55:25.278000+00:00,train
1023,-0.07791932672262192,0.0,2021-01-22 01:55:55.278000+00:00,train
1024,-0.07666053622961044,0.0,2021-01-22 01:56:25.278000+00:00,train
1025,-0.0728863850235939,0.0,2021-01-22 01:56:55.278000+00:00,train
1026,-0.06737183779478073,0.0,2021-01-22 01:57:25.278000+00:00,train
1027,-0.06062696501612663,0.0,2021-01-22 01:57:55.278000+00:00,train
1028,-0.05249243229627609,0.0,2021-01-22 01:58:25.278000+00:00,train
1029,-0.0418647937476635,0.0,2021-01-22 01:58:55.278000+00:00,train
1030,-0.03141624107956886,0.0,2021-01-22 01:59:25.278000+00:00,train
1031,-0.021144462749361992,0.0,2021-01-22 01:59:55.278000+00:00,train
1032,-0.011047204956412315,0.0,2021-01-22 02:00:25.278000+00:00,train
1033,-0.0011244416236877441,0.0,2021-01-22 02:00:55.278000+00:00,train
1034,0.008628693409264088,0.0,2021-01-22 02:01:25.278000+00:00,train
1035,0.01821213588118553,0.0,2021-01-22 02:01:55.278000+00:00,train
1036,0.02762751094996929,0.0,2021-01-22 02:02:25.278000+00:00,train
1037,0.036875784397125244,0.0,2021-01-22 02:02:55.278000+00:00,train
1038,0.04595787450671196,0.0,2021-01-22 02:03:25.278000+00:00,train
1039,0.05487334355711937,0.0,2021-01-22 02:03:55.278000+00:00,train
1040,0.06362603604793549,0.0,2021-01-22 02:04:25.278000+00:00,train
1041,0.07221494615077972,0.0,2021-01-22 02:04:55.278000+00:00,train
1042,0.08064068108797073,0.0,2021-01-22 02:05:25.278000+00:00,train
1043,0.08890336751937866,0.0,2021-01-22 02:05:55.278000+00:00,train
1044,0.0970018282532692,0.0,2021-01-22 02:06:25.278000+00:00,train
1045,0.10493887960910797,0.0,2021-01-22 02:06:55.278000+00:00,train
1046,0.11271315813064575,0.0,2021-01-22 02:07:25.278000+00:00,train
1047,-0.10724861919879913,0.0,2021-01-22 02:07:55.278000+00:00,train
1048,-0.09945077449083328,0.0,2021-01-22 02:08:25.278000+00:00,train
1049,-0.09175348281860352,0.0,2021-01-22 02:08:55.278000+00:00,train
1050,-0.08418494462966919,0.0,2021-01-22 02:09:25.278000+00:00,train
1051,-0.07669413089752197,0.0,2021-01-22 02:09:55.278000+00:00,train
1052,-0.06930314004421234,0.0,2021-01-22 02:10:25.278000+00:00,train
1053,-0.0620153546333313,0.0,2021-01-22 02:10:55.278000+00:00,train
1054,-0.05482959747314453,0.0,2021-01-22 02:11:25.278000+00:00,train
1055,-0.0477478988468647,0.0,2021-01-22 02:11:55.278000+00:00,train
1056,-0.040771447122097015,0.0,2021-01-22 02:12:25.278000+00:00,train
1057,-0.03390124440193176,0.0,2021-01-22 02:12:55.278000+00:00,train
1058,-0.02713870257139206,0.0,2021-01-22 02:13:25.278000+00:00,train
1059,-0.02048647403717041,0.0,2021-01-22 02:13:55.278000+00:00,train
1060,-0.013943379744887352,0.0,2021-01-22 02:14:25.278000+00:00,train
1061,-0.007512250449508429,0.0,2021-01-22 02:14:55.278000+00:00,train
1062,-0.0011947284219786525,0.0,2021-01-22 02:15:25.278000+00:00,train
1063,0.0050070686265826225,0.0,2021-01-22 02:15:55.278000+00:00,train
1064,0.011089995503425598,0.0,2021-01-22 02:16:25.278000+00:00,train
1065,0.017054064199328423,0.0,2021-01-22 02:16:55.278000+00:00,train
1066,0.0228956937789917,0.0,2021-01-22 02:17:25.278000+00:00,train
1067,0.028612377122044563,0.0,2021-01-22 02:17:55.278000+00:00,train
1068,0.034201137721538544,0.0,2021-01-22 02:18:25.278000+00:00,train
1069,0.03965882584452629,0.0,2021-01-22 02:18:55.278000+00:00,train
1070,0.04498077929019928,0.0,2021-01-22 02:19:25.278000+00:00,train
1071,0.05016559362411499,0.0,2021-01-22 02:19:55.278000+00:00,train
1072,0.05520831048488617,0.0,2021-01-22 02:20:25.278000+00:00,train
1073,0.06010451912879944,0.0,2021-01-22 02:20:55.278000+00:00,train
1074,0.06484917551279068,0.0,2021-01-22 02:21:25.278000+00:00,train
1075,0.06943711638450623,0.0,2021-01-22 02:21:55.278000+00:00,train
1076,0.07386159896850586,0.0,2021-01-22 02:22:25.278000+00:00,train
1077,0.0781182199716568,0.0,2021-01-22 02:22:55.278000+00:00,train
1078,0.08219920098781586,0.0,2021-01-22 02:23:25.278000+00:00,train
1079,0.08609676361083984,0.0,2021-01-22 02:23:55.278000+00:00,train
1080,0.0898023471236229,0.0,2021-01-22 02:24:25.278000+00:00,train
1081,0.09330649673938751,0.0,2021-01-22 02:24:55.278000+00:00,train
1082,0.09659752249717712,0.0,2021-01-22 02:25:25.278000+00:00,train
1083,0.09966536611318588,0.0,2021-01-22 02:25:55.278000+00:00,val
1084,0.10249586403369904,0.0,2021-01-22 02:26:25.278000+00:00,val
1085,0.10507378727197647,0.0,2021-01-22 02:26:55.278000+00:00,val
1086,0.10738159716129303,0.0,2021-01-22 02:27:25.278000+00:00,val
1087,0.10939861088991165,0.0,2021-01-22 02:27:55.278000+00:00,val
1088,0.11110320687294006,0.0,2021-01-22 02:28:25.278000+00:00,val
1089,0.10935288667678833,0.0,2021-01-22 02:28:55.278000+00:00,val
1090,0.11045125871896744,0.0,2021-01-22 02:29:25.278000+00:00,val
1091,0.11114542931318283,0.0,2021-01-22 02:29:55.278000+00:00,val
1092,0.11138972640037537,0.0,2021-01-22 02:30:25.278000+00:00,val
1093,0.11112695932388306,0.0,2021-01-22 02:30:55.278000+00:00,val
1094,0.11028852313756943,0.0,2021-01-22 02:31:25.278000+00:00,val
1095,0.10878226161003113,0.0,2021-01-22 02:31:55.278000+00:00,val
1096,0.10648564994335175,0.0,2021-01-22 02:32:25.278000+00:00,val
1097,0.10321656614542007,0.0,2021-01-22 02:32:55.278000+00:00,val
1098,0.10068275034427643,0.0,2021-01-22 02:33:25.278000+00:00,val
1099,0.09443037211894989,0.0,2021-01-22 02:33:55.278000+00:00,val
1100,0.08611877262592316,0.0,2021-01-22 02:34:25.278000+00:00,val
1101,0.07446204125881195,0.0,2021-01-22 02:34:55.278000+00:00,val
1102,0.056162092834711075,0.0,2021-01-22 02:35:25.278000+00:00,val
1103,0.05614902451634407,0.0,2021-01-22 02:35:55.278000+00:00,val
1104,0.05613567680120468,0.0,2021-01-22 02:36:25.278000+00:00,val
1105,0.05612265318632126,0.0,2021-01-22 02:36:55.278000+00:00,val
1106,0.056109678000211716,0.0,2021-01-22 02:37:25.278000+00:00,val
1107,0.056096795946359634,0.0,2021-01-22 02:37:55.278000+00:00,val
1108,0.05608393996953964,0.0,2021-01-22 02:38:25.278000+00:00,val
1109,0.05607113614678383,0.0,2021-01-22 02:38:55.278000+00:00,val
1110,0.05605808272957802,0.0,2021-01-22 02:39:25.278000+00:00,val
1111,0.05604531988501549,0.0,2021-01-22 02:39:55.278000+00:00,val
1112,0.05603265389800072,0.0,2021-01-22 02:40:25.278000+00:00,val
1113,0.0,0.0,2021-01-22 02:40:55.278000+00:00,val
1114,0.0,0.0,2021-01-22 02:41:25.278000+00:00,val
1115,0.0,0.0,2021-01-22 02:41:55.278000+00:00,val
1116,0.0,0.0,2021-01-22 02:42:25.278000+00:00,val
1117,0.0,0.0,2021-01-22 02:42:55.278000+00:00,val
1118,0.0,0.0,2021-01-22 02:43:25.278000+00:00,val
1119,0.0,0.0,2021-01-22 02:43:55.278000+00:00,val
1120,0.0,0.0,2021-01-22 02:44:25.278000+00:00,val
1121,0.0,0.0,2021-01-22 02:44:55.278000+00:00,val
1122,0.0,0.0,2021-01-22 02:45:25.278000+00:00,val
1123,0.0,0.0,2021-01-22 02:45:55.278000+00:00,val
1124,0.0,0.0,2021-01-22 02:46:25.278000+00:00,val
1125,0.0,0.0,2021-01-22 02:46:55.278000+00:00,val
1126,0.0,0.0,2021-01-22 02:47:25.278000+00:00,val
1127,0.0,0.0,2021-01-22 02:47:55.278000+00:00,val
1128,0.0,0.0,2021-01-22 02:48:25.278000+00:00,val
1129,0.0,0.0,2021-01-22 02:48:55.278000+00:00,val
1130,0.0,0.0,2021-01-22 02:49:25.278000+00:00,val
1131,0.0,0.0,2021-01-22 02:49:55.278000+00:00,val
1132,0.0,0.0,2021-01-22 02:50:25.278000+00:00,val
1133,0.0,0.0,2021-01-22 02:50:55.278000+00:00,val
1134,0.0,0.0,2021-01-22 02:51:25.278000+00:00,val
1135,0.0,0.0,2021-01-22 02:51:55.278000+00:00,val
1136,0.0,0.0,2021-01-22 02:52:25.278000+00:00,val
1137,0.0,0.0,2021-01-22 02:52:55.278000+00:00,val
1138,0.0,0.0,2021-01-22 02:53:25.278000+00:00,val
1139,0.0,0.0,2021-01-22 02:53:55.278000+00:00,val
1140,0.0,0.0,2021-01-22 02:54:25.278000+00:00,val
1141,0.0,0.0,2021-01-22 02:54:55.278000+00:00,val
1142,0.0,0.0,2021-01-22 02:55:25.278000+00:00,val
1143,0.0,0.0,2021-01-22 02:55:55.278000+00:00,val
1144,0.0,0.0,2021-01-22 02:56:25.278000+00:00,val
1145,0.0,0.0,2021-01-22 02:56:55.278000+00:00,val
1146,0.0,0.0,2021-01-22 02:57:25.278000+00:00,val
1147,0.0,0.0,2021-01-22 02:57:55.278000+00:00,val
1148,0.0,0.0,2021-01-22 02:58:25.278000+00:00,val
1149,0.0,0.0,2021-01-22 02:58:55.278000+00:00,val
1150,0.0,0.0,2021-01-22 02:59:25.278000+00:00,val
1151,0.0,0.0,2021-01-22 02:59:55.278000+00:00,val
1152,0.0,0.0,2021-01-22 03:00:25.278000+00:00,val
1153,0.0,0.0,2021-01-22 03:00:55.278000+00:00,val
1154,0.0,0.0,2021-01-22 03:01:25.278000+00:00,val
1155,0.0,0.0,2021-01-22 03:01:55.278000+00:00,val
1156,0.0,0.0,2021-01-22 03:02:25.278000+00:00,val
1157,0.0,0.0,2021-01-22 03:02:55.278000+00:00,val
1158,0.0,0.0,2021-01-22 03:03:25.278000+00:00,val
1159,0.0,0.0,2021-01-22 03:03:55.278000+00:00,val
1160,0.0,0.0,2021-01-22 03:04:25.278000+00:00,val
1161,0.0,0.0,2021-01-22 03:04:55.278000+00:00,val
1162,0.0,0.0,2021-01-22 03:05:25.278000+00:00,val
1163,0.0,0.0,2021-01-22 03:05:55.278000+00:00,val
1164,0.0,0.0,2021-01-22 03:06:25.278000+00:00,val
1165,0.0,0.0,2021-01-22 03:06:55.278000+00:00,val
1166,0.0,0.0,2021-01-22 03:07:25.278000+00:00,val
1167,0.0,0.0,2021-01-22 03:07:55.278000+00:00,val
1168,0.0,0.0,2021-01-22 03:08:25.278000+00:00,val
1169,0.0,0.0,2021-01-22 03:08:55.278000+00:00,val
1170,0.0,0.0,2021-01-22 03:09:25.278000+00:00,val
1171,0.0,0.0,2021-01-22 03:09:55.278000+00:00,val
1172,0.0,0.0,2021-01-22 03:10:25.278000+00:00,val
1173,0.0,0.0,2021-01-22 03:10:55.278000+00:00,val
1174,0.0,0.0,2021-01-22 03:11:25.278000+00:00,val
1175,0.0,0.0,2021-01-22 03:11:55.278000+00:00,val
1176,0.0,0.0,2021-01-22 03:12:25.278000+00:00,val
1177,0.0,0.0,2021-01-22 03:12:55.278000+00:00,val
1178,0.0,0.0,2021-01-22 03:13:25.278000+00:00,val
1179,0.0,0.0,2021-01-22 03:13:55.278000+00:00,val
1180,0.0,0.0,2021-01-22 03:14:25.278000+00:00,val
1181,0.0,0.0,2021-01-22 03:14:55.278000+00:00,val
1182,0.0,0.0,2021-01-22 03:15:25.278000+00:00,val
1183,0.0,0.0,2021-01-22 03:15:55.278000+00:00,val
1184,0.0,0.0,2021-01-22 03:16:25.278000+00:00,val
1185,0.0,0.0,2021-01-22 03:16:55.278000+00:00,val
1186,0.0,0.0,2021-01-22 03:17:25.278000+00:00,val
1187,0.0,0.0,2021-01-22 03:17:55.278000+00:00,val
1188,0.0,0.0,2021-01-22 03:18:25.278000+00:00,val
1189,0.0,0.0,2021-01-22 03:18:55.278000+00:00,val
1190,0.0,0.0,2021-01-22 03:19:25.278000+00:00,val
1191,0.0,0.0,2021-01-22 03:19:55.278000+00:00,val
1192,0.0,0.0,2021-01-22 03:20:25.278000+00:00,val
1193,0.0,0.0,2021-01-22 03:20:55.278000+00:00,val
1194,0.0,0.0,2021-01-22 03:21:25.278000+00:00,val
1195,0.0,0.0,2021-01-22 03:21:55.278000+00:00,val
1196,0.0,0.0,2021-01-22 03:22:25.278000+00:00,val
1197,0.0,0.0,2021-01-22 03:22:55.278000+00:00,val
1198,0.0,0.0,2021-01-22 03:23:25.278000+00:00,val
1199,0.0,0.0,2021-01-22 03:23:55.278000+00:00,val
1200,0.0,0.0,2021-01-22 03:24:25.278000+00:00,val
1201,0.0,0.0,2021-01-22 03:24:55.278000+00:00,val
1202,0.0,0.0,2021-01-22 03:25:25.278000+00:00,val
1203,0.0,0.0,2021-01-22 03:25:55.278000+00:00,val
1204,0.0,0.0,2021-01-22 03:26:25.278000+00:00,val
1205,0.0,0.0,2021-01-22 03:26:55.278000+00:00,val
1206,0.0,0.0,2021-01-22 03:27:25.278000+00:00,val
1207,0.0,0.0,2021-01-22 03:27:55.278000+00:00,val
1208,0.0,0.0,2021-01-22 03:28:25.278000+00:00,val
1209,0.0,0.0,2021-01-22 03:28:55.278000+00:00,val
1210,0.0,0.0,2021-01-22 03:29:25.278000+00:00,val
1211,0.0,0.0,2021-01-22 03:29:55.278000+00:00,val
1212,0.0,0.0,2021-01-22 03:30:25.278000+00:00,val
1213,0.0,0.0,2021-01-22 03:30:55.278000+00:00,val
1214,0.0,0.0,2021-01-22 03:31:25.278000+00:00,val
1215,0.0,0.0,2021-01-22 03:31:55.278000+00:00,val
1216,0.0,0.0,2021-01-22 03:32:25.278000+00:00,val
1217,0.0,0.0,2021-01-22 03:32:55.278000+00:00,val
1218,0.0,0.0,2021-01-22 03:33:25.278000+00:00,val
1219,0.0,0.0,2021-01-22 03:33:55.278000+00:00,val
1220,0.0,0.0,2021-01-22 03:34:25.278000+00:00,val
1221,0.0,0.0,2021-01-22 03:34:55.278000+00:00,val
1222,0.0,0.0,2021-01-22 03:35:25.278000+00:00,val
1223,0.0,0.0,2021-01-22 03:35:55.278000+00:00,val
1224,0.0,0.0,2021-01-22 03:36:25.278000+00:00,val
1225,0.0,0.0,2021-01-22 03:36:55.278000+00:00,val
1226,0.0,0.0,2021-01-22 03:37:25.278000+00:00,val
1227,0.0,0.0,2021-01-22 03:37:55.278000+00:00,val
1228,0.0,0.0,2021-01-22 03:38:25.278000+00:00,val
1229,0.0,0.0,2021-01-22 03:38:55.278000+00:00,val
1230,0.0,0.0,2021-01-22 03:39:25.278000+00:00,val
1231,0.0,0.0,2021-01-22 03:39:55.278000+00:00,val
1232,0.0,0.0,2021-01-22 03:40:25.278000+00:00,val
1233,0.0,0.0,2021-01-22 03:40:55.278000+00:00,val
1234,0.0,0.0,2021-01-22 03:41:25.278000+00:00,val
1235,0.0,0.0,2021-01-22 03:41:55.278000+00:00,val
1236,0.0,0.0,2021-01-22 03:42:25.278000+00:00,val
1237,0.0,0.0,2021-01-22 03:42:55.278000+00:00,val
1238,0.0,0.0,2021-01-22 03:43:25.278000+00:00,val
1239,0.0,0.0,2021-01-22 03:43:55.278000+00:00,val
1240,0.0,0.0,2021-01-22 03:44:25.278000+00:00,val
1241,0.0,0.0,2021-01-22 03:44:55.278000+00:00,val
1242,0.0,0.0,2021-01-22 03:45:25.278000+00:00,val
1243,0.0,0.0,2021-01-22 03:45:55.278000+00:00,val
1244,0.0,0.0,2021-01-22 03:46:25.278000+00:00,val
1245,0.0,0.0,2021-01-22 03:46:55.278000+00:00,val
1246,0.0,0.0,2021-01-22 03:47:25.278000+00:00,val
1247,0.0,0.0,2021-01-22 03:47:55.278000+00:00,val
1248,0.0,0.0,2021-01-22 03:48:25.278000+00:00,val
1249,0.0,0.0,2021-01-22 03:48:55.278000+00:00,val
1250,0.0,0.0,2021-01-22 03:49:25.278000+00:00,val
1251,0.0,0.0,2021-01-22 03:49:55.278000+00:00,val
1252,0.0,0.0,2021-01-22 03:50:25.278000+00:00,val
1253,0.0,0.0,2021-01-22 03:50:55.278000+00:00,val
1254,0.0,0.0,2021-01-22 03:51:25.278000+00:00,val
1255,0.0,0.0,2021-01-22 03:51:55.278000+00:00,val
1256,0.0,0.0,2021-01-22 03:52:25.278000+00:00,val
1257,0.0,0.0,2021-01-22 03:52:55.278000+00:00,val
1258,0.0,0.0,2021-01-22 03:53:25.278000+00:00,val
1259,0.0,0.0,2021-01-22 03:53:55.278000+00:00,val
1260,0.0,0.0,2021-01-22 03:54:25.278000+00:00,val
1261,0.0,0.0,2021-01-22 03:54:55.278000+00:00,val
1262,0.0,0.0,2021-01-22 03:55:25.278000+00:00,val
1263,0.0,0.0,2021-01-22 03:55:55.278000+00:00,val
1264,0.0,0.0,2021-01-22 03:56:25.278000+00:00,val
1265,0.0,0.0,2021-01-22 03:56:55.278000+00:00,val
1266,0.0,0.0,2021-01-22 03:57:25.278000+00:00,val
1267,0.0,0.0,2021-01-22 03:57:55.278000+00:00,val
1268,0.0,0.0,2021-01-22 03:58:25.278000+00:00,val
1269,0.0,0.0,2021-01-22 03:58:55.278000+00:00,val
1270,0.0,0.0,2021-01-22 03:59:25.278000+00:00,val
1271,0.0,0.0,2021-01-22 03:59:55.278000+00:00,val
1272,0.0,0.0,2021-01-22 04:00:25.278000+00:00,val
1273,0.0,0.0,2021-01-22 04:00:55.278000+00:00,val
1274,0.0,0.0,2021-01-22 04:01:25.278000+00:00,val
1275,0.0,0.0,2021-01-22 04:01:55.278000+00:00,val
1276,0.0,0.0,2021-01-22 04:02:25.278000+00:00,val
1277,0.0,0.0,2021-01-22 04:02:55.278000+00:00,val
1278,0.0,0.0,2021-01-22 04:03:25.278000+00:00,val
1279,0.0,0.0,2021-01-22 04:03:55.278000+00:00,val
1280,0.0,0.0,2021-01-22 04:04:25.278000+00:00,val
1281,0.0,0.0,2021-01-22 04:04:55.278000+00:00,val
1282,0.0,0.0,2021-01-22 04:05:25.278000+00:00,val
1283,0.0,0.0,2021-01-22 04:05:55.278000+00:00,val
1284,0.0,0.0,2021-01-22 04:06:25.278000+00:00,val
1285,0.0,0.0,2021-01-22 04:06:55.278000+00:00,val
1286,0.0,0.0,2021-01-22 04:07:25.278000+00:00,val
1287,0.0,0.0,2021-01-22 04:07:55.278000+00:00,val
1288,0.0,0.0,2021-01-22 04:08:25.278000+00:00,val
1289,0.0,0.0,2021-01-22 04:08:55.278000+00:00,val
1290,0.0,0.0,2021-01-22 04:09:25.278000+00:00,val
1291,0.0,0.0,2021-01-22 04:09:55.278000+00:00,val
1292,0.0,0.0,2021-01-22 04:10:25.278000+00:00,val
1293,0.0,0.0,2021-01-22 04:10:55.278000+00:00,val
1294,0.0,0.0,2021-01-22 04:11:25.278000+00:00,val
1295,0.0,0.0,2021-01-22 04:11:55.278000+00:00,val
1296,0.0,0.0,2021-01-22 04:12:25.278000+00:00,val
1297,0.0,0.0,2021-01-22 04:12:55.278000+00:00,val
1298,0.0,0.0,2021-01-22 04:13:25.278000+00:00,val
1299,0.0,0.0,2021-01-22 04:13:55.278000+00:00,val
1300,0.0,0.0,2021-01-22 04:14:25.278000+00:00,val
1301,0.0,0.0,2021-01-22 04:14:55.278000+00:00,val
1302,0.0,0.0,2021-01-22 04:15:25.278000+00:00,val
1303,0.0,0.0,2021-01-22 04:15:55.278000+00:00,val
1304,0.0,0.0,2021-01-22 04:16:25.278000+00:00,val
1305,0.0,0.0,2021-01-22 04:16:55.278000+00:00,val
1306,0.0,0.0,2021-01-22 04:17:25.278000+00:00,val
1307,0.0,0.0,2021-01-22 04:17:55.278000+00:00,val
1308,0.0,0.0,2021-01-22 04:18:25.278000+00:00,val
1309,0.0,0.0,2021-01-22 04:18:55.278000+00:00,val
1310,0.0,0.0,2021-01-22 04:19:25.278000+00:00,val
1311,0.0,0.0,2021-01-22 04:19:55.278000+00:00,val
1312,0.0,0.0,2021-01-22 04:20:25.278000+00:00,val
1313,0.0,0.0,2021-01-22 04:20:55.278000+00:00,val
1314,0.0,0.0,2021-01-22 04:21:25.278000+00:00,val
1315,0.0,0.0,2021-01-22 04:21:55.278000+00:00,val
1316,0.0,0.0,2021-01-22 04:22:25.278000+00:00,val
1317,0.0,0.0,2021-01-22 04:22:55.278000+00:00,val
1318,0.0,0.0,2021-01-22 04:23:25.278000+00:00,val
1319,0.0,0.0,2021-01-22 04:23:55.278000+00:00,val
1320,0.0,0.0,2021-01-22 04:24:25.278000+00:00,val
1321,0.0,0.0,2021-01-22 04:24:55.278000+00:00,val
1322,0.0,0.0,2021-01-22 04:25:25.278000+00:00,val
1323,0.0,0.0,2021-01-22 04:25:55.278000+00:00,val
1324,0.0,0.0,2021-01-22 04:26:25.278000+00:00,val
1325,0.0,0.0,2021-01-22 04:26:55.278000+00:00,val
1326,0.0,0.0,2021-01-22 04:27:25.278000+00:00,val
1327,0.0,0.0,2021-01-22 04:27:55.278000+00:00,val
1328,0.0,0.0,2021-01-22 04:28:25.278000+00:00,val
1329,0.0,0.0,2021-01-22 04:28:55.278000+00:00,val
1330,0.0,0.0,2021-01-22 04:29:25.278000+00:00,val
1331,0.0,0.0,2021-01-22 04:29:55.278000+00:00,val
1332,0.0,0.0,2021-01-22 04:30:25.278000+00:00,val
1333,0.0,0.0,2021-01-22 04:30:55.278000+00:00,val
1334,0.0,0.0,2021-01-22 04:31:25.278000+00:00,val
1335,0.0,0.0,2021-01-22 04:31:55.278000+00:00,val
1336,0.0,0.0,2021-01-22 04:32:25.278000+00:00,val
1337,0.0,0.0,2021-01-22 04:32:55.278000+00:00,val
1338,0.0,0.0,2021-01-22 04:33:25.278000+00:00,val
1339,0.0,0.0,2021-01-22 04:33:55.278000+00:00,val
1340,0.0,0.0,2021-01-22 04:34:25.278000+00:00,val
1341,0.0,0.0,2021-01-22 04:34:55.278000+00:00,val
1342,0.0,0.0,2021-01-22 04:35:25.278000+00:00,val
1343,0.0,0.0,2021-01-22 04:35:55.278000+00:00,val
1344,0.0,0.0,2021-01-22 04:36:25.278000+00:00,val
1345,0.0,0.0,2021-01-22 04:36:55.278000+00:00,val
1346,0.0,0.0,2021-01-22 04:37:25.278000+00:00,val
1347,0.0,0.0,2021-01-22 04:37:55.278000+00:00,val
1348,0.0,0.0,2021-01-22 04:38:25.278000+00:00,val
1349,0.0,0.0,2021-01-22 04:38:55.278000+00:00,val
1350,0.0,0.0,2021-01-22 04:39:25.278000+00:00,val
1351,0.0,0.0,2021-01-22 04:39:55.278000+00:00,val
1352,0.0,0.0,2021-01-22 04:40:25.278000+00:00,val
1353,0.0,0.0,2021-01-22 04:40:55.278000+00:00,val
1354,0.0,0.0,2021-01-22 04:41:25.278000+00:00,val
1355,0.0,0.0,2021-01-22 04:41:55.278000+00:00,val
1356,0.0,0.0,2021-01-22 04:42:25.278000+00:00,val
1357,0.0,0.0,2021-01-22 04:42:55.278000+00:00,val
1358,0.0,0.0,2021-01-22 04:43:25.278000+00:00,val
1359,0.0,0.0,2021-01-22 04:43:55.278000+00:00,val
1360,0.0,0.0,2021-01-22 04:44:25.278000+00:00,val
1361,0.0,0.0,2021-01-22 04:44:55.278000+00:00,val
1362,0.0,0.0,2021-01-22 04:45:25.278000+00:00,val
1363,0.0,0.0,2021-01-22 04:45:55.278000+00:00,val
1364,0.0,0.0,2021-01-22 04:46:25.278000+00:00,val
1365,0.0,0.0,2021-01-22 04:46:55.278000+00:00,val
1366,0.0,0.0,2021-01-22 04:47:25.278000+00:00,val
1367,0.0,0.0,2021-01-22 04:47:55.278000+00:00,val
1368,0.0,0.0,2021-01-22 04:48:25.278000+00:00,val
1369,0.0,0.0,2021-01-22 04:48:55.278000+00:00,val
1370,0.0,0.0,2021-01-22 04:49:25.278000+00:00,val
1371,0.0,0.0,2021-01-22 04:49:55.278000+00:00,val
1372,0.0,0.0,2021-01-22 04:50:25.278000+00:00,val
1373,0.0,0.0,2021-01-22 04:50:55.278000+00:00,val
1374,0.0,0.0,2021-01-22 04:51:25.278000+00:00,val
1375,0.0,0.0,2021-01-22 04:51:55.278000+00:00,val
1376,0.0,0.0,2021-01-22 04:52:25.278000+00:00,val
1377,0.0,0.0,2021-01-22 04:52:55.278000+00:00,val
1378,0.0,0.0,2021-01-22 04:53:25.278000+00:00,val
1379,0.0,0.0,2021-01-22 04:53:55.278000+00:00,val
1380,0.0,0.0,2021-01-22 04:54:25.278000+00:00,val
1381,0.0,0.0,2021-01-22 04:54:55.278000+00:00,val
1382,0.0,0.0,2021-01-22 04:55:25.278000+00:00,val
1383,0.0,0.0,2021-01-22 04:55:55.278000+00:00,val
1384,0.0,0.0,2021-01-22 04:56:25.278000+00:00,val
1385,0.0,0.0,2021-01-22 04:56:55.278000+00:00,val
1386,0.0,0.0,2021-01-22 04:57:25.278000+00:00,val
1387,0.0,0.0,2021-01-22 04:57:55.278000+00:00,val
1388,0.0,0.0,2021-01-22 04:58:25.278000+00:00,val
1389,0.0,0.0,2021-01-22 04:58:55.278000+00:00,val
1390,0.0,0.0,2021-01-22 04:59:25.278000+00:00,val
1391,0.0,0.0,2021-01-22 04:59:55.278000+00:00,val
1392,0.0,0.0,2021-01-22 05:00:25.278000+00:00,val
1393,0.0,0.0,2021-01-22 05:00:55.278000+00:00,val
1394,0.0,0.0,2021-01-22 05:01:25.278000+00:00,val
1395,0.0,0.0,2021-01-22 05:01:55.278000+00:00,val
1396,0.0,0.0,2021-01-22 05:02:25.278000+00:00,val
1397,0.0,0.0,2021-01-22 05:02:55.278000+00:00,val
1398,0.0,0.0,2021-01-22 05:03:25.278000+00:00,val
1399,0.0,0.0,2021-01-22 05:03:55.278000+00:00,val
1400,0.0,0.0,2021-01-22 05:04:25.278000+00:00,val
1401,0.0,0.0,2021-01-22 05:04:55.278000+00:00,val
1402,0.0,0.0,2021-01-22 05:05:25.278000+00:00,val
1403,0.0,0.0,2021-01-22 05:05:55.278000+00:00,val
1404,0.0,0.0,2021-01-22 05:06:25.278000+00:00,val
1405,0.0,0.0,2021-01-22 05:06:55.278000+00:00,val
1406,0.0,0.0,2021-01-22 05:07:25.278000+00:00,val
1407,0.0,0.0,2021-01-22 05:07:55.278000+00:00,val
1408,0.0,0.0,2021-01-22 05:08:25.278000+00:00,val
1409,0.0,0.0,2021-01-22 05:08:55.278000+00:00,val
1410,0.0,0.0,2021-01-22 05:09:25.278000+00:00,val
1411,0.0,0.0,2021-01-22 05:09:55.278000+00:00,val
1412,0.0,0.0,2021-01-22 05:10:25.278000+00:00,val
1413,0.0,0.0,2021-01-22 05:10:55.278000+00:00,val
1414,0.0,0.0,2021-01-22 05:11:25.278000+00:00,val
1415,0.0,0.0,2021-01-22 05:11:55.278000+00:00,val
1416,0.0,0.0,2021-01-22 05:12:25.278000+00:00,val
1417,0.0,0.0,2021-01-22 05:12:55.278000+00:00,val
1418,0.0,0.0,2021-01-22 05:13:25.278000+00:00,val
1419,0.0,0.0,2021-01-22 05:13:55.278000+00:00,val
1420,0.0,0.0,2021-01-22 05:14:25.278000+00:00,val
1421,0.0,0.0,2021-01-22 05:14:55.278000+00:00,val
1422,0.0,0.0,2021-01-22 05:15:25.278000+00:00,val
1423,0.0,0.0,2021-01-22 05:15:55.278000+00:00,val
1424,0.0,0.0,2021-01-22 05:16:25.278000+00:00,val
1425,0.0,0.0,2021-01-22 05:16:55.278000+00:00,val
1426,0.0,0.0,2021-01-22 05:17:25.278000+00:00,val
1427,0.0,0.0,2021-01-22 05:17:55.278000+00:00,test
1428,0.0,0.0,2021-01-22 05:18:25.278000+00:00,test
1429,0.0,0.0,2021-01-22 05:18:55.278000+00:00,test
1430,0.0,0.0,2021-01-22 05:19:25.278000+00:00,test
1431,0.0,0.0,2021-01-22 05:19:55.278000+00:00,test
1432,0.0,0.0,2021-01-22 05:20:25.278000+00:00,test
1433,0.0,0.0,2021-01-22 05:20:55.278000+00:00,test
1434,0.0,0.0,2021-01-22 05:21:25.278000+00:00,test
1435,0.0,0.0,2021-01-22 05:21:55.278000+00:00,test
1436,0.0,0.0,2021-01-22 05:22:25.278000+00:00,test
1437,0.0,0.0,2021-01-22 05:22:55.278000+00:00,test
1438,0.0,0.0,2021-01-22 05:23:25.278000+00:00,test
1439,0.0,0.0,2021-01-22 05:23:55.278000+00:00,test
1440,0.0,0.0,2021-01-22 05:24:25.278000+00:00,test
1441,0.0,0.0,2021-01-22 05:24:55.278000+00:00,test
1442,0.0,0.0,2021-01-22 05:25:25.278000+00:00,test
1443,0.0,0.0,2021-01-22 05:25:55.278000+00:00,test
1444,0.0,0.0,2021-01-22 05:26:25.278000+00:00,test
1445,0.0,0.0,2021-01-22 05:26:55.278000+00:00,test
1446,0.0,0.0,2021-01-22 05:27:25.278000+00:00,test
1447,0.0,0.0,2021-01-22 05:27:55.278000+00:00,test
1448,0.0,0.0,2021-01-22 05:28:25.278000+00:00,test
1449,0.0,0.0,2021-01-22 05:28:55.278000+00:00,test
1450,0.0,0.0,2021-01-22 05:29:25.278000+00:00,test
1451,0.0,0.0,2021-01-22 05:29:55.278000+00:00,test
1452,0.0,0.0,2021-01-22 05:30:25.278000+00:00,test
1453,0.0,0.0,2021-01-22 05:30:55.278000+00:00,test
1454,0.0,0.0,2021-01-22 05:31:25.278000+00:00,test
1455,0.0,0.0,2021-01-22 05:31:55.278000+00:00,test
1456,0.0,0.0,2021-01-22 05:32:25.278000+00:00,test
1457,0.0,0.0,2021-01-22 05:32:55.278000+00:00,test
1458,0.0,0.0,2021-01-22 05:33:25.278000+00:00,test
1459,0.0,0.0,2021-01-22 05:33:55.278000+00:00,test
1460,0.0,0.0,2021-01-22 05:34:25.278000+00:00,test
1461,0.0,0.0,2021-01-22 05:34:55.278000+00:00,test
1462,0.0,0.0,2021-01-22 05:35:25.278000+00:00,test
1463,0.0,0.0,2021-01-22 05:35:55.278000+00:00,test
1464,0.0,0.0,2021-01-22 05:36:25.278000+00:00,test
1465,0.0,0.0,2021-01-22 05:36:55.278000+00:00,test
1466,0.0,0.0,2021-01-22 05:37:25.278000+00:00,test
1467,0.0,0.0,2021-01-22 05:37:55.278000+00:00,test
1468,0.0,0.0,2021-01-22 05:38:25.278000+00:00,test
1469,0.0,0.0,2021-01-22 05:38:55.278000+00:00,test
1470,0.0,0.0,2021-01-22 05:39:25.278000+00:00,test
1471,0.0,0.0,2021-01-22 05:39:55.278000+00:00,test
1472,0.0,0.0,2021-01-22 05:40:25.278000+00:00,test
1473,0.0,0.0,2021-01-22 05:40:55.278000+00:00,test
1474,0.0,0.0,2021-01-22 05:41:25.278000+00:00,test
1475,0.0,0.0,2021-01-22 05:41:55.278000+00:00,test
1476,0.0,0.0,2021-01-22 05:42:25.278000+00:00,test
1477,0.0,0.0,2021-01-22 05:42:55.278000+00:00,test
1478,0.0,0.0,2021-01-22 05:43:25.278000+00:00,test
1479,0.0,0.0,2021-01-22 05:43:55.278000+00:00,test
1480,0.0,0.0,2021-01-22 05:44:25.278000+00:00,test
1481,0.0,0.0,2021-01-22 05:44:55.278000+00:00,test
1482,0.0,0.0,2021-01-22 05:45:25.278000+00:00,test
1483,0.0,0.0,2021-01-22 05:45:55.278000+00:00,test
1484,0.0,0.0,2021-01-22 05:46:25.278000+00:00,test
1485,0.0,0.0,2021-01-22 05:46:55.278000+00:00,test
1486,0.0,0.0,2021-01-22 05:47:25.278000+00:00,test
1487,0.0,0.0,2021-01-22 05:47:55.278000+00:00,test
1488,0.0,0.0,2021-01-22 05:48:25.278000+00:00,test
1489,0.0,0.0,2021-01-22 05:48:55.278000+00:00,test
1490,0.0,0.0,2021-01-22 05:49:25.278000+00:00,test
1491,0.0,0.0,2021-01-22 05:49:55.278000+00:00,test
1492,0.0,0.0,2021-01-22 05:50:25.278000+00:00,test
1493,0.0,0.0,2021-01-22 05:50:55.278000+00:00,test
1494,0.0,0.0,2021-01-22 05:51:25.278000+00:00,test
1495,0.0,0.0,2021-01-22 05:51:55.278000+00:00,test
1496,0.0,0.0,2021-01-22 05:52:25.278000+00:00,test
1497,0.0,0.0,2021-01-22 05:52:55.278000+00:00,test
1498,0.0,0.0,2021-01-22 05:53:25.278000+00:00,test
1499,0.0,0.0,2021-01-22 05:53:55.278000+00:00,test
1500,0.0,0.0,2021-01-22 05:54:25.278000+00:00,test
1501,0.0,0.0,2021-01-22 05:54:55.278000+00:00,test
1502,0.0,0.0,2021-01-22 05:55:25.278000+00:00,test
1503,0.0,0.0,2021-01-22 05:55:55.278000+00:00,test
1504,0.0,0.0,2021-01-22 05:56:25.278000+00:00,test
1505,0.0,0.0,2021-01-22 05:56:55.278000+00:00,test
1506,0.0,0.0,2021-01-22 05:57:25.278000+00:00,test
1507,0.0,0.0,2021-01-22 05:57:55.278000+00:00,test
1508,0.0,0.0,2021-01-22 05:58:25.278000+00:00,test
1509,0.0,0.0,2021-01-22 05:58:55.278000+00:00,test
1510,0.0,0.0,2021-01-22 05:59:25.278000+00:00,test
1511,0.0,0.0,2021-01-22 05:59:55.278000+00:00,test
1512,0.0,0.0,2021-01-22 06:00:25.278000+00:00,test
1513,0.0,0.0,2021-01-22 06:00:55.278000+00:00,test
1514,0.0,0.0,2021-01-22 06:01:25.278000+00:00,test
1515,0.0,0.0,2021-01-22 06:01:55.278000+00:00,test
1516,0.0,0.0,2021-01-22 06:02:25.278000+00:00,test
1517,0.0,0.0,2021-01-22 06:02:55.278000+00:00,test
1518,0.0,0.0,2021-01-22 06:03:25.278000+00:00,test
1519,0.0,0.0,2021-01-22 06:03:55.278000+00:00,test
1520,0.0,0.0,2021-01-22 06:04:25.278000+00:00,test
1521,0.0,0.0,2021-01-22 06:04:55.278000+00:00,test
1522,0.0,0.0,2021-01-22 06:05:25.278000+00:00,test
1523,0.0,0.0,2021-01-22 06:05:55.278000+00:00,test
1524,0.0,0.0,2021-01-22 06:06:25.278000+00:00,test
1525,0.0,0.0,2021-01-22 06:06:55.278000+00:00,test
1526,0.0,0.0,2021-01-22 06:07:25.278000+00:00,test
1527,0.0,0.0,2021-01-22 06:07:55.278000+00:00,test
1528,0.0,0.0,2021-01-22 06:08:25.278000+00:00,test
1529,0.0,0.0,2021-01-22 06:08:55.278000+00:00,test
1530,0.0,0.0,2021-01-22 06:09:25.278000+00:00,test
1531,0.0,0.0,2021-01-22 06:09:55.278000+00:00,test
1532,0.0,0.0,2021-01-22 06:10:25.278000+00:00,test
1533,0.0,0.0,2021-01-22 06:10:55.278000+00:00,test
1534,0.0,0.0,2021-01-22 06:11:25.278000+00:00,test
1535,0.0,0.0,2021-01-22 06:11:55.278000+00:00,test
1536,0.0,0.0,2021-01-22 06:12:25.278000+00:00,test
1537,0.0,0.0,2021-01-22 06:12:55.278000+00:00,test
1538,0.0,0.0,2021-01-22 06:13:25.278000+00:00,test
1539,0.0,0.0,2021-01-22 06:13:55.278000+00:00,test
1540,0.0,0.0,2021-01-22 06:14:25.278000+00:00,test
1541,0.0,0.0,2021-01-22 06:14:55.278000+00:00,test
1542,0.0,0.0,2021-01-22 06:15:25.278000+00:00,test
1543,0.0,0.0,2021-01-22 06:15:55.278000+00:00,test
1544,0.0,0.0,2021-01-22 06:16:25.278000+00:00,test
1545,0.0,0.0,2021-01-22 06:16:55.278000+00:00,test
1546,0.0,0.0,2021-01-22 06:17:25.278000+00:00,test
1547,0.0,0.0,2021-01-22 06:17:55.278000+00:00,test
1548,0.0,0.0,2021-01-22 06:18:25.278000+00:00,test
1549,0.0,0.0,2021-01-22 06:18:55.278000+00:00,test
1550,0.0,0.0,2021-01-22 06:19:25.278000+00:00,test
1551,0.0,0.0,2021-01-22 06:19:55.278000+00:00,test
1552,0.0,0.0,2021-01-22 06:20:25.278000+00:00,test
1553,0.0,0.0,2021-01-22 06:20:55.278000+00:00,test
1554,0.0,0.0,2021-01-22 06:21:25.278000+00:00,test
1555,0.0,0.0,2021-01-22 06:21:55.278000+00:00,test
1556,0.0,0.0,2021-01-22 06:22:25.278000+00:00,test
1557,0.0,0.0,2021-01-22 06:22:55.278000+00:00,test
1558,0.0,0.0,2021-01-22 06:23:25.278000+00:00,test
1559,0.0,0.0,2021-01-22 06:23:55.278000+00:00,test
1560,0.0,0.0,2021-01-22 06:24:25.278000+00:00,test
1561,0.0,0.0,2021-01-22 06:24:55.278000+00:00,test
1562,0.0,0.0,2021-01-22 06:25:25.278000+00:00,test
1563,0.0,0.0,2021-01-22 06:25:55.278000+00:00,test
1564,0.0,0.0,2021-01-22 06:26:25.278000+00:00,test
1565,0.0,0.0,2021-01-22 06:26:55.278000+00:00,test
1566,0.0,0.0,2021-01-22 06:27:25.278000+00:00,test
1567,0.0,0.0,2021-01-22 06:27:55.278000+00:00,test
1568,0.0,0.0,2021-01-22 06:28:25.278000+00:00,test
1569,0.0,0.0,2021-01-22 06:28:55.278000+00:00,test
1570,0.0,0.0,2021-01-22 06:29:25.278000+00:00,test
1571,0.0,0.0,2021-01-22 06:29:55.278000+00:00,test
1572,0.0,0.0,2021-01-22 06:30:25.278000+00:00,test
1573,0.0,0.0,2021-01-22 06:30:55.278000+00:00,test
1574,0.0,0.0,2021-01-22 06:31:25.278000+00:00,test
1575,0.0,0.0,2021-01-22 06:31:55.278000+00:00,test
1576,0.0,0.0,2021-01-22 06:32:25.278000+00:00,test
1577,0.0,0.0,2021-01-22 06:32:55.278000+00:00,test
1578,0.0,0.0,2021-01-22 06:33:25.278000+00:00,test
1579,0.0,0.0,2021-01-22 06:33:55.278000+00:00,test
1580,0.0,0.0,2021-01-22 06:34:25.278000+00:00,test
1581,0.0,0.0,2021-01-22 06:34:55.278000+00:00,test
1582,0.0,0.0,2021-01-22 06:35:25.278000+00:00,test
1583,0.0,0.0,2021-01-22 06:35:55.278000+00:00,test
1584,0.0,0.0,2021-01-22 06:36:25.278000+00:00,test
1585,0.0,0.0,2021-01-22 06:36:55.278000+00:00,test
1586,0.0,0.0,2021-01-22 06:37:25.278000+00:00,test
1587,0.0,0.0,2021-01-22 06:37:55.278000+00:00,test
1588,0.0,0.0,2021-01-22 06:38:25.278000+00:00,test
1589,0.0,0.0,2021-01-22 06:38:55.278000+00:00,test
1590,0.0,0.0,2021-01-22 06:39:25.278000+00:00,test
1591,0.0,0.0,2021-01-22 06:39:55.278000+00:00,test
1592,0.0,0.0,2021-01-22 06:40:25.278000+00:00,test
1593,0.0,0.0,2021-01-22 06:40:55.278000+00:00,test
1594,0.0,0.0,2021-01-22 06:41:25.278000+00:00,test
1595,0.0,0.0,2021-01-22 06:41:55.278000+00:00,test
