,prediction,real,time,split
0,-8.153983116149902,-8.0,2021-01-21 17:18:55.278000+00:00,train
1,-8.102493286132812,-8.0,2021-01-21 17:19:25.278000+00:00,train
2,-8.05492115020752,-8.0,2021-01-21 17:19:55.278000+00:00,train
3,-8.011368751525879,-8.0,2021-01-21 17:20:25.278000+00:00,train
4,-7.971951007843018,-8.0,2021-01-21 17:20:55.278000+00:00,train
5,-7.91758394241333,-7.0,2021-01-21 17:21:25.278000+00:00,train
6,-7.866090774536133,-7.0,2021-01-21 17:21:55.278000+00:00,train
7,-7.817498207092285,-7.0,2021-01-21 17:22:25.278000+00:00,train
8,-7.771847724914551,-7.0,2021-01-21 17:22:55.278000+00:00,train
9,-7.729193210601807,-7.0,2021-01-21 17:23:25.278000+00:00,train
10,-7.689591407775879,-7.0,2021-01-21 17:23:55.278000+00:00,train
11,-7.653117656707764,-7.0,2021-01-21 17:24:25.278000+00:00,train
12,-7.619846820831299,-7.0,2021-01-21 17:24:55.278000+00:00,train
13,-7.5898966789245605,-7.0,2021-01-21 17:25:25.278000+00:00,train
14,-7.563378810882568,-7.0,2021-01-21 17:25:55.278000+00:00,train
15,-7.5404276847839355,-7.0,2021-01-21 17:26:25.278000+00:00,train
16,-7.521200656890869,-7.0,2021-01-21 17:26:55.278000+00:00,train
17,-7.505877494812012,-7.0,2021-01-21 17:27:25.278000+00:00,train
18,-7.473509788513184,-7.0,2021-01-21 17:27:55.278000+00:00,train
19,-7.443549633026123,-7.0,2021-01-21 17:28:25.278000+00:00,train
20,-7.383682727813721,-7.0,2021-01-21 17:28:55.278000+00:00,train
21,-7.327085494995117,-7.0,2021-01-21 17:29:25.278000+00:00,train
22,-7.273777008056641,-7.0,2021-01-21 17:29:55.278000+00:00,train
23,-7.223793983459473,-7.0,2021-01-21 17:30:25.278000+00:00,train
24,-7.177181720733643,-7.0,2021-01-21 17:30:55.278000+00:00,train
25,-7.134000778198242,-7.0,2021-01-21 17:31:25.278000+00:00,train
26,-7.094333171844482,-7.0,2021-01-21 17:31:55.278000+00:00,train
27,-7.0582685470581055,-7.0,2021-01-21 17:32:25.278000+00:00,train
28,-7.025926113128662,-7.0,2021-01-21 17:32:55.278000+00:00,train
29,-6.977634429931641,-7.0,2021-01-21 17:33:25.278000+00:00,train
30,-6.931753635406494,-7.0,2021-01-21 17:33:55.278000+00:00,train
31,-6.88830041885376,-7.0,2021-01-21 17:34:25.278000+00:00,train
32,-6.84730339050293,-7.0,2021-01-21 17:34:55.278000+00:00,train
33,-6.8087944984436035,-7.0,2021-01-21 17:35:25.278000+00:00,train
34,-6.772817134857178,-7.0,2021-01-21 17:35:55.278000+00:00,train
35,-6.739424228668213,-7.0,2021-01-21 17:36:25.278000+00:00,train
36,-6.70867919921875,-7.0,2021-01-21 17:36:55.278000+00:00,train
37,-6.680656433105469,-7.0,2021-01-21 17:37:25.278000+00:00,train
38,-6.655441761016846,-6.0,2021-01-21 17:37:55.278000+00:00,train
39,-6.6331353187561035,-6.0,2021-01-21 17:38:25.278000+00:00,train
40,-6.613862037658691,-6.0,2021-01-21 17:38:55.278000+00:00,train
41,-6.5977606773376465,-6.0,2021-01-21 17:39:25.278000+00:00,train
42,-6.584991455078125,-6.0,2021-01-21 17:39:55.278000+00:00,train
43,-6.575755596160889,-6.0,2021-01-21 17:40:25.278000+00:00,train
44,-6.548644542694092,-6.0,2021-01-21 17:40:55.278000+00:00,train
45,-6.523536205291748,-6.0,2021-01-21 17:41:25.278000+00:00,train
46,-6.500515460968018,-6.0,2021-01-21 17:41:55.278000+00:00,train
47,-6.479620933532715,-6.0,2021-01-21 17:42:25.278000+00:00,train
48,-6.460845470428467,-6.0,2021-01-21 17:42:55.278000+00:00,train
49,-6.444223403930664,-6.0,2021-01-21 17:43:25.278000+00:00,train
50,-6.429732322692871,-6.0,2021-01-21 17:43:55.278000+00:00,train
51,-6.417370796203613,-6.0,2021-01-21 17:44:25.278000+00:00,train
52,-6.407243728637695,-6.0,2021-01-21 17:44:55.278000+00:00,train
53,-6.367177486419678,-6.0,2021-01-21 17:45:25.278000+00:00,train
54,-6.3301262855529785,-6.0,2021-01-21 17:45:55.278000+00:00,train
55,-6.296186923980713,-6.0,2021-01-21 17:46:25.278000+00:00,train
56,-6.265450954437256,-6.0,2021-01-21 17:46:55.278000+00:00,train
57,-6.2379231452941895,-6.0,2021-01-21 17:47:25.278000+00:00,train
58,-6.192869663238525,-6.0,2021-01-21 17:47:55.278000+00:00,train
59,-6.149866580963135,-6.0,2021-01-21 17:48:25.278000+00:00,train
60,-6.10887336730957,-6.0,2021-01-21 17:48:55.278000+00:00,train
61,-6.069884777069092,-6.0,2021-01-21 17:49:25.278000+00:00,train
62,-6.032905101776123,-6.0,2021-01-21 17:49:55.278000+00:00,train
63,-5.997957706451416,-6.0,2021-01-21 17:50:25.278000+00:00,train
64,-5.965062618255615,-6.0,2021-01-21 17:50:55.278000+00:00,train
65,-5.934246063232422,-6.0,2021-01-21 17:51:25.278000+00:00,train
66,-5.905550479888916,-6.0,2021-01-21 17:51:55.278000+00:00,train
67,-5.879019737243652,-6.0,2021-01-21 17:52:25.278000+00:00,train
68,-5.854702949523926,-6.0,2021-01-21 17:52:55.278000+00:00,train
69,-5.832669258117676,-6.0,2021-01-21 17:53:25.278000+00:00,train
70,-5.812990188598633,-5.0,2021-01-21 17:53:55.278000+00:00,train
71,-5.795750141143799,-5.0,2021-01-21 17:54:25.278000+00:00,train
72,-5.7810540199279785,-5.0,2021-01-21 17:54:55.278000+00:00,train
73,-5.76901912689209,-5.0,2021-01-21 17:55:25.278000+00:00,train
74,-5.759777069091797,-5.0,2021-01-21 17:55:55.278000+00:00,train
75,-5.75349760055542,-5.0,2021-01-21 17:56:25.278000+00:00,train
76,-5.750369071960449,-5.0,2021-01-21 17:56:55.278000+00:00,train
77,-5.750613689422607,-5.0,2021-01-21 17:57:25.278000+00:00,train
78,-5.75451135635376,-5.0,2021-01-21 17:57:55.278000+00:00,train
79,-5.735793590545654,-5.0,2021-01-21 17:58:25.278000+00:00,train
80,-5.718624114990234,-5.0,2021-01-21 17:58:55.278000+00:00,train
81,-5.703052520751953,-5.0,2021-01-21 17:59:25.278000+00:00,train
82,-5.689128398895264,-5.0,2021-01-21 17:59:55.278000+00:00,train
83,-5.676900386810303,-5.0,2021-01-21 18:00:25.278000+00:00,train
84,-5.666444778442383,-5.0,2021-01-21 18:00:55.278000+00:00,train
85,-5.621372699737549,-5.0,2021-01-21 18:01:25.278000+00:00,train
86,-5.579009056091309,-5.0,2021-01-21 18:01:55.278000+00:00,train
87,-5.5393524169921875,-5.0,2021-01-21 18:02:25.278000+00:00,train
88,-5.502407073974609,-5.0,2021-01-21 18:02:55.278000+00:00,train
89,-5.4681854248046875,-5.0,2021-01-21 18:03:25.278000+00:00,train
90,-5.436735153198242,-5.0,2021-01-21 18:03:55.278000+00:00,train
91,-5.389380931854248,-5.0,2021-01-21 18:04:25.278000+00:00,train
92,-5.343723773956299,-5.0,2021-01-21 18:04:55.278000+00:00,train
93,-5.29972505569458,-5.0,2021-01-21 18:05:25.278000+00:00,train
94,-5.257336616516113,-5.0,2021-01-21 18:05:55.278000+00:00,train
95,-5.21651029586792,-5.0,2021-01-21 18:06:25.278000+00:00,train
96,-5.177227973937988,-5.0,2021-01-21 18:06:55.278000+00:00,train
97,-5.139460563659668,-5.0,2021-01-21 18:07:25.278000+00:00,train
98,-5.103278160095215,-5.0,2021-01-21 18:07:55.278000+00:00,train
99,-5.068528175354004,-5.0,2021-01-21 18:08:25.278000+00:00,train
100,-5.035223484039307,-5.0,2021-01-21 18:08:55.278000+00:00,train
101,-5.003350257873535,-5.0,2021-01-21 18:09:25.278000+00:00,train
102,-4.972929000854492,-5.0,2021-01-21 18:09:55.278000+00:00,train
103,-4.943960189819336,-5.0,2021-01-21 18:10:25.278000+00:00,train
104,-4.916430473327637,-5.0,2021-01-21 18:10:55.278000+00:00,train
105,-4.890371799468994,-5.0,2021-01-21 18:11:25.278000+00:00,train
106,-4.865791320800781,-5.0,2021-01-21 18:11:55.278000+00:00,train
107,-4.84268856048584,-5.0,2021-01-21 18:12:25.278000+00:00,train
108,-4.821108341217041,-5.0,2021-01-21 18:12:55.278000+00:00,train
109,-4.80107307434082,-5.0,2021-01-21 18:13:25.278000+00:00,train
110,-4.782592296600342,-5.0,2021-01-21 18:13:55.278000+00:00,train
111,-4.7657318115234375,-5.0,2021-01-21 18:14:25.278000+00:00,train
112,-4.7505292892456055,-5.0,2021-01-21 18:14:55.278000+00:00,train
113,-4.73701286315918,-5.0,2021-01-21 18:15:25.278000+00:00,train
114,-4.7252726554870605,-5.0,2021-01-21 18:15:55.278000+00:00,train
115,-4.715370178222656,-5.0,2021-01-21 18:16:25.278000+00:00,train
116,-4.707362174987793,-5.0,2021-01-21 18:16:55.278000+00:00,train
117,-4.701372146606445,-5.0,2021-01-21 18:17:25.278000+00:00,train
118,-4.69750452041626,-4.0,2021-01-21 18:17:55.278000+00:00,train
119,-4.695856094360352,-4.0,2021-01-21 18:18:25.278000+00:00,train
120,-4.67705774307251,-4.0,2021-01-21 18:18:55.278000+00:00,train
121,-4.6590399742126465,-4.0,2021-01-21 18:19:25.278000+00:00,train
122,-4.6417765617370605,-4.0,2021-01-21 18:19:55.278000+00:00,train
123,-4.625310897827148,-4.0,2021-01-21 18:20:25.278000+00:00,train
124,-4.6096415519714355,-4.0,2021-01-21 18:20:55.278000+00:00,train
125,-4.594742774963379,-4.0,2021-01-21 18:21:25.278000+00:00,train
126,-4.580667018890381,-4.0,2021-01-21 18:21:55.278000+00:00,train
127,-4.567416191101074,-4.0,2021-01-21 18:22:25.278000+00:00,train
128,-4.554965496063232,-4.0,2021-01-21 18:22:55.278000+00:00,train
129,-4.54337739944458,-4.0,2021-01-21 18:23:25.278000+00:00,train
130,-4.53265905380249,-4.0,2021-01-21 18:23:55.278000+00:00,train
131,-4.521948337554932,-4.0,2021-01-21 18:24:25.278000+00:00,train
132,-4.512561798095703,-4.0,2021-01-21 18:24:55.278000+00:00,train
133,-4.470227241516113,-4.0,2021-01-21 18:25:25.278000+00:00,train
134,-4.4299235343933105,-4.0,2021-01-21 18:25:55.278000+00:00,train
135,-4.391242027282715,-4.0,2021-01-21 18:26:25.278000+00:00,train
136,-4.354529857635498,-4.0,2021-01-21 18:26:55.278000+00:00,train
137,-4.319713592529297,-4.0,2021-01-21 18:27:25.278000+00:00,train
138,-4.286724090576172,-4.0,2021-01-21 18:27:55.278000+00:00,train
139,-4.2558393478393555,-4.0,2021-01-21 18:28:25.278000+00:00,train
140,-4.226593017578125,-4.0,2021-01-21 18:28:55.278000+00:00,train
141,-4.199052810668945,-4.0,2021-01-21 18:29:25.278000+00:00,train
142,-4.173206806182861,-4.0,2021-01-21 18:29:55.278000+00:00,train
143,-4.149149417877197,-4.0,2021-01-21 18:30:25.278000+00:00,train
144,-4.126899719238281,-4.0,2021-01-21 18:30:55.278000+00:00,train
145,-4.106433868408203,-4.0,2021-01-21 18:31:25.278000+00:00,train
146,-4.08786678314209,-4.0,2021-01-21 18:31:55.278000+00:00,train
147,-4.071234226226807,-4.0,2021-01-21 18:32:25.278000+00:00,train
148,-4.0565338134765625,-4.0,2021-01-21 18:32:55.278000+00:00,train
149,-4.043918132781982,-4.0,2021-01-21 18:33:25.278000+00:00,train
150,-4.033459186553955,-4.0,2021-01-21 18:33:55.278000+00:00,train
151,-4.025193214416504,-4.0,2021-01-21 18:34:25.278000+00:00,train
152,-4.019332408905029,-4.0,2021-01-21 18:34:55.278000+00:00,train
153,-3.995143175125122,-4.0,2021-01-21 18:35:25.278000+00:00,train
154,-3.9718124866485596,-4.0,2021-01-21 18:35:55.278000+00:00,train
155,-3.9494240283966064,-4.0,2021-01-21 18:36:25.278000+00:00,train
156,-3.9279541969299316,-4.0,2021-01-21 18:36:55.278000+00:00,train
157,-3.907311201095581,-4.0,2021-01-21 18:37:25.278000+00:00,train
158,-3.887599468231201,-4.0,2021-01-21 18:37:55.278000+00:00,train
159,-3.868797779083252,-4.0,2021-01-21 18:38:25.278000+00:00,train
160,-3.8508095741271973,-4.0,2021-01-21 18:38:55.278000+00:00,train
161,-3.8337576389312744,-4.0,2021-01-21 18:39:25.278000+00:00,train
162,-3.817624807357788,-4.0,2021-01-21 18:39:55.278000+00:00,train
163,-3.8024067878723145,-4.0,2021-01-21 18:40:25.278000+00:00,train
164,-3.7880032062530518,-4.0,2021-01-21 18:40:55.278000+00:00,train
165,-3.774566411972046,-4.0,2021-01-21 18:41:25.278000+00:00,train
166,-3.7620856761932373,-4.0,2021-01-21 18:41:55.278000+00:00,train
167,-3.750450849533081,-4.0,2021-01-21 18:42:25.278000+00:00,train
168,-3.739832878112793,-4.0,2021-01-21 18:42:55.278000+00:00,train
169,-3.7302258014678955,-4.0,2021-01-21 18:43:25.278000+00:00,train
170,-3.721514940261841,-4.0,2021-01-21 18:43:55.278000+00:00,train
171,-3.7138946056365967,-4.0,2021-01-21 18:44:25.278000+00:00,train
172,-3.707366704940796,-4.0,2021-01-21 18:44:55.278000+00:00,train
173,-3.7018187046051025,-4.0,2021-01-21 18:45:25.278000+00:00,train
174,-3.697470188140869,-4.0,2021-01-21 18:45:55.278000+00:00,train
175,-3.6943366527557373,-4.0,2021-01-21 18:46:25.278000+00:00,train
176,-3.692314863204956,-4.0,2021-01-21 18:46:55.278000+00:00,train
177,-3.691657066345215,-4.0,2021-01-21 18:47:25.278000+00:00,train
178,-3.6924028396606445,-4.0,2021-01-21 18:47:55.278000+00:00,train
179,-3.695788860321045,-4.0,2021-01-21 18:48:25.278000+00:00,train
180,-3.700265884399414,-4.0,2021-01-21 18:48:55.278000+00:00,train
181,-3.706139326095581,-4.0,2021-01-21 18:49:25.278000+00:00,train
182,-3.71350359916687,-4.0,2021-01-21 18:49:55.278000+00:00,train
183,-3.722822427749634,-4.0,2021-01-21 18:50:25.278000+00:00,train
184,-3.734309434890747,-4.0,2021-01-21 18:50:55.278000+00:00,train
185,-3.7265241146087646,-4.0,2021-01-21 18:51:25.278000+00:00,train
186,-3.7191765308380127,-4.0,2021-01-21 18:51:55.278000+00:00,train
187,-3.7122507095336914,-4.0,2021-01-21 18:52:25.278000+00:00,train
188,-3.705533504486084,-3.0,2021-01-21 18:52:55.278000+00:00,train
189,-3.699296474456787,-3.0,2021-01-21 18:53:25.278000+00:00,train
190,-3.6935207843780518,-3.0,2021-01-21 18:53:55.278000+00:00,train
191,-3.6881954669952393,-3.0,2021-01-21 18:54:25.278000+00:00,train
192,-3.6830670833587646,-3.0,2021-01-21 18:54:55.278000+00:00,train
193,-3.6784708499908447,-3.0,2021-01-21 18:55:25.278000+00:00,train
194,-3.6743886470794678,-3.0,2021-01-21 18:55:55.278000+00:00,train
195,-3.6705071926116943,-3.0,2021-01-21 18:56:25.278000+00:00,train
196,-3.6672093868255615,-3.0,2021-01-21 18:56:55.278000+00:00,train
197,-3.6644651889801025,-3.0,2021-01-21 18:57:25.278000+00:00,train
198,-3.661903142929077,-3.0,2021-01-21 18:57:55.278000+00:00,train
199,-3.6599557399749756,-3.0,2021-01-21 18:58:25.278000+00:00,train
200,-3.658580780029297,-3.0,2021-01-21 18:58:55.278000+00:00,train
201,-3.6573469638824463,-3.0,2021-01-21 18:59:25.278000+00:00,train
202,-3.656731128692627,-3.0,2021-01-21 18:59:55.278000+00:00,train
203,-3.6218299865722656,-3.0,2021-01-21 19:00:25.278000+00:00,train
204,-3.5776426792144775,-3.0,2021-01-21 19:00:55.278000+00:00,train
205,-3.5396933555603027,-3.0,2021-01-21 19:01:25.278000+00:00,train
206,-3.5055832862854004,-3.0,2021-01-21 19:01:55.278000+00:00,train
207,-3.474520206451416,-3.0,2021-01-21 19:02:25.278000+00:00,train
208,-3.441920280456543,-3.0,2021-01-21 19:02:55.278000+00:00,train
209,-3.4127297401428223,-3.0,2021-01-21 19:03:25.278000+00:00,train
210,-3.3860297203063965,-3.0,2021-01-21 19:03:55.278000+00:00,train
211,-3.360872983932495,-3.0,2021-01-21 19:04:25.278000+00:00,train
212,-3.337524890899658,-3.0,2021-01-21 19:04:55.278000+00:00,train
213,-3.315751791000366,-3.0,2021-01-21 19:05:25.278000+00:00,train
214,-3.2990622520446777,-3.0,2021-01-21 19:05:55.278000+00:00,train
215,-3.282465696334839,-3.0,2021-01-21 19:06:25.278000+00:00,train
216,-3.2662975788116455,-3.0,2021-01-21 19:06:55.278000+00:00,train
217,-3.250298261642456,-3.0,2021-01-21 19:07:25.278000+00:00,train
218,-3.2353570461273193,-3.0,2021-01-21 19:07:55.278000+00:00,train
219,-3.221482992172241,-3.0,2021-01-21 19:08:25.278000+00:00,train
220,-3.208080530166626,-3.0,2021-01-21 19:08:55.278000+00:00,train
221,-3.1959152221679688,-3.0,2021-01-21 19:09:25.278000+00:00,train
222,-3.1849048137664795,-3.0,2021-01-21 19:09:55.278000+00:00,train
223,-3.1743979454040527,-3.0,2021-01-21 19:10:25.278000+00:00,train
224,-3.1651532649993896,-3.0,2021-01-21 19:10:55.278000+00:00,train
225,-3.1570796966552734,-3.0,2021-01-21 19:11:25.278000+00:00,train
226,-3.1495401859283447,-3.0,2021-01-21 19:11:55.278000+00:00,train
227,-3.1432836055755615,-3.0,2021-01-21 19:12:25.278000+00:00,train
228,-3.138228416442871,-3.0,2021-01-21 19:12:55.278000+00:00,train
229,-3.1337904930114746,-3.0,2021-01-21 19:13:25.278000+00:00,train
230,-3.130689859390259,-3.0,2021-01-21 19:13:55.278000+00:00,train
231,-3.128873586654663,-3.0,2021-01-21 19:14:25.278000+00:00,train
232,-3.127864122390747,-3.0,2021-01-21 19:14:55.278000+00:00,train
233,-3.116070032119751,-3.0,2021-01-21 19:15:25.278000+00:00,train
234,-3.104688882827759,-3.0,2021-01-21 19:15:55.278000+00:00,train
235,-3.0932154655456543,-3.0,2021-01-21 19:16:25.278000+00:00,train
236,-3.0821590423583984,-3.0,2021-01-21 19:16:55.278000+00:00,train
237,-3.0714268684387207,-3.0,2021-01-21 19:17:25.278000+00:00,train
238,-3.0609445571899414,-3.0,2021-01-21 19:17:55.278000+00:00,train
239,-3.050330400466919,-3.0,2021-01-21 19:18:25.278000+00:00,train
240,-3.0400218963623047,-3.0,2021-01-21 19:18:55.278000+00:00,train
241,-3.0299603939056396,-3.0,2021-01-21 19:19:25.278000+00:00,train
242,-3.0198216438293457,-3.0,2021-01-21 19:19:55.278000+00:00,train
243,-3.00996470451355,-3.0,2021-01-21 19:20:25.278000+00:00,train
244,-3.000338315963745,-3.0,2021-01-21 19:20:55.278000+00:00,train
245,-2.990675687789917,-3.0,2021-01-21 19:21:25.278000+00:00,train
246,-2.981271505355835,-3.0,2021-01-21 19:21:55.278000+00:00,train
247,-2.9720842838287354,-3.0,2021-01-21 19:22:25.278000+00:00,train
248,-2.9628965854644775,-3.0,2021-01-21 19:22:55.278000+00:00,train
249,-2.9539499282836914,-3.0,2021-01-21 19:23:25.278000+00:00,train
250,-2.945209503173828,-3.0,2021-01-21 19:23:55.278000+00:00,train
251,-2.9365005493164062,-3.0,2021-01-21 19:24:25.278000+00:00,train
252,-2.9280192852020264,-3.0,2021-01-21 19:24:55.278000+00:00,train
253,-2.919738292694092,-3.0,2021-01-21 19:25:25.278000+00:00,train
254,-2.9115183353424072,-3.0,2021-01-21 19:25:55.278000+00:00,train
255,-2.9035186767578125,-3.0,2021-01-21 19:26:25.278000+00:00,train
256,-2.895716905593872,-3.0,2021-01-21 19:26:55.278000+00:00,train
257,-2.88800311088562,-3.0,2021-01-21 19:27:25.278000+00:00,train
258,-2.880506753921509,-3.0,2021-01-21 19:27:55.278000+00:00,train
259,-2.8732097148895264,-3.0,2021-01-21 19:28:25.278000+00:00,train
260,-2.8660264015197754,-3.0,2021-01-21 19:28:55.278000+00:00,train
261,-2.8590614795684814,-3.0,2021-01-21 19:29:25.278000+00:00,train
262,-2.8523006439208984,-3.0,2021-01-21 19:29:55.278000+00:00,train
263,-2.8462002277374268,-3.0,2021-01-21 19:30:25.278000+00:00,train
264,-2.840017557144165,-3.0,2021-01-21 19:30:55.278000+00:00,train
265,-2.83392596244812,-3.0,2021-01-21 19:31:25.278000+00:00,train
266,-2.827965497970581,-3.0,2021-01-21 19:31:55.278000+00:00,train
267,-2.8221383094787598,-3.0,2021-01-21 19:32:25.278000+00:00,train
268,-2.8165123462677,-3.0,2021-01-21 19:32:55.278000+00:00,train
269,-2.8110971450805664,-3.0,2021-01-21 19:33:25.278000+00:00,train
270,-2.8058810234069824,-3.0,2021-01-21 19:33:55.278000+00:00,train
271,-2.8009092807769775,-3.0,2021-01-21 19:34:25.278000+00:00,train
272,-2.796184539794922,-3.0,2021-01-21 19:34:55.278000+00:00,train
273,-2.7908167839050293,-3.0,2021-01-21 19:35:25.278000+00:00,train
274,-2.7859246730804443,-3.0,2021-01-21 19:35:55.278000+00:00,train
275,-2.781550168991089,-3.0,2021-01-21 19:36:25.278000+00:00,train
276,-2.7776474952697754,-3.0,2021-01-21 19:36:55.278000+00:00,train
277,-2.774196147918701,-3.0,2021-01-21 19:37:25.278000+00:00,train
278,-2.7711308002471924,-3.0,2021-01-21 19:37:55.278000+00:00,train
279,-2.7684874534606934,-3.0,2021-01-21 19:38:25.278000+00:00,train
280,-2.7662465572357178,-3.0,2021-01-21 19:38:55.278000+00:00,train
281,-2.76436710357666,-3.0,2021-01-21 19:39:25.278000+00:00,train
282,-2.762901782989502,-3.0,2021-01-21 19:39:55.278000+00:00,train
283,-2.7618536949157715,-3.0,2021-01-21 19:40:25.278000+00:00,train
284,-2.761209487915039,-3.0,2021-01-21 19:40:55.278000+00:00,train
285,-2.7610321044921875,-3.0,2021-01-21 19:41:25.278000+00:00,train
286,-2.7613437175750732,-3.0,2021-01-21 19:41:55.278000+00:00,train
287,-2.762155771255493,-3.0,2021-01-21 19:42:25.278000+00:00,train
288,-2.7635419368743896,-3.0,2021-01-21 19:42:55.278000+00:00,train
289,-2.76554799079895,-3.0,2021-01-21 19:43:25.278000+00:00,train
290,-2.768216848373413,-3.0,2021-01-21 19:43:55.278000+00:00,train
291,-2.77164888381958,-2.0,2021-01-21 19:44:25.278000+00:00,train
292,-2.7759323120117188,-2.0,2021-01-21 19:44:55.278000+00:00,train
293,-2.7812721729278564,-2.0,2021-01-21 19:45:25.278000+00:00,train
294,-2.7876782417297363,-2.0,2021-01-21 19:45:55.278000+00:00,train
295,-2.7953763008117676,-2.0,2021-01-21 19:46:25.278000+00:00,train
296,-2.804640531539917,-2.0,2021-01-21 19:46:55.278000+00:00,train
297,-2.8158793449401855,-2.0,2021-01-21 19:47:25.278000+00:00,train
298,-2.829692840576172,-2.0,2021-01-21 19:47:55.278000+00:00,train
299,-2.8470828533172607,-2.0,2021-01-21 19:48:25.278000+00:00,train
300,-2.8700106143951416,-2.0,2021-01-21 19:48:55.278000+00:00,train
301,-2.903491735458374,-2.0,2021-01-21 19:49:25.278000+00:00,train
302,-3.0,-2.0,2021-01-21 19:49:55.278000+00:00,train
303,-3.0,-2.0,2021-01-21 19:50:25.278000+00:00,train
304,-3.0,-2.0,2021-01-21 19:50:55.278000+00:00,train
305,-3.0,-2.0,2021-01-21 19:51:25.278000+00:00,train
306,-2.8839032649993896,-2.0,2021-01-21 19:51:55.278000+00:00,train
307,-2.8308236598968506,-2.0,2021-01-21 19:52:25.278000+00:00,train
308,-2.7883636951446533,-2.0,2021-01-21 19:52:55.278000+00:00,train
309,-2.75150203704834,-2.0,2021-01-21 19:53:25.278000+00:00,train
310,-2.71828293800354,-2.0,2021-01-21 19:53:55.278000+00:00,train
311,-2.687694787979126,-2.0,2021-01-21 19:54:25.278000+00:00,train
312,-2.6591451168060303,-2.0,2021-01-21 19:54:55.278000+00:00,train
313,-2.632244348526001,-2.0,2021-01-21 19:55:25.278000+00:00,train
314,-2.6067309379577637,-2.0,2021-01-21 19:55:55.278000+00:00,train
315,-2.582432270050049,-2.0,2021-01-21 19:56:25.278000+00:00,train
316,-2.5592596530914307,-2.0,2021-01-21 19:56:55.278000+00:00,train
317,-2.537193536758423,-2.0,2021-01-21 19:57:25.278000+00:00,train
318,-2.5165133476257324,-2.0,2021-01-21 19:57:55.278000+00:00,train
319,-2.497464656829834,-2.0,2021-01-21 19:58:25.278000+00:00,train
320,-2.4789977073669434,-2.0,2021-01-21 19:58:55.278000+00:00,train
321,-2.4600448608398438,-2.0,2021-01-21 19:59:25.278000+00:00,train
322,-2.4411447048187256,-2.0,2021-01-21 19:59:55.278000+00:00,train
323,-2.4224472045898438,-2.0,2021-01-21 20:00:25.278000+00:00,train
324,-2.404170036315918,-2.0,2021-01-21 20:00:55.278000+00:00,train
325,-2.3863062858581543,-2.0,2021-01-21 20:01:25.278000+00:00,train
326,-2.3688390254974365,-2.0,2021-01-21 20:01:55.278000+00:00,train
327,-2.351750373840332,-2.0,2021-01-21 20:02:25.278000+00:00,train
328,-2.3350467681884766,-2.0,2021-01-21 20:02:55.278000+00:00,train
329,-2.3186910152435303,-2.0,2021-01-21 20:03:25.278000+00:00,train
330,-2.3026652336120605,-2.0,2021-01-21 20:03:55.278000+00:00,train
331,-2.2869582176208496,-2.0,2021-01-21 20:04:25.278000+00:00,train
332,-2.2715601921081543,-2.0,2021-01-21 20:04:55.278000+00:00,train
333,-2.256155014038086,-2.0,2021-01-21 20:05:25.278000+00:00,train
334,-2.241321086883545,-2.0,2021-01-21 20:05:55.278000+00:00,train
335,-2.2268574237823486,-2.0,2021-01-21 20:06:25.278000+00:00,train
336,-2.2127153873443604,-2.0,2021-01-21 20:06:55.278000+00:00,train
337,-2.1988697052001953,-2.0,2021-01-21 20:07:25.278000+00:00,train
338,-2.1853034496307373,-2.0,2021-01-21 20:07:55.278000+00:00,train
339,-2.1720070838928223,-2.0,2021-01-21 20:08:25.278000+00:00,train
340,-2.1589484214782715,-2.0,2021-01-21 20:08:55.278000+00:00,train
341,-2.1461472511291504,-2.0,2021-01-21 20:09:25.278000+00:00,train
342,-2.1335995197296143,-2.0,2021-01-21 20:09:55.278000+00:00,train
343,-2.121300458908081,-2.0,2021-01-21 20:10:25.278000+00:00,train
344,-2.1092472076416016,-2.0,2021-01-21 20:10:55.278000+00:00,train
345,-2.0973927974700928,-2.0,2021-01-21 20:11:25.278000+00:00,train
346,-2.0857815742492676,-2.0,2021-01-21 20:11:55.278000+00:00,train
347,-2.074409246444702,-2.0,2021-01-21 20:12:25.278000+00:00,train
348,-2.063272476196289,-2.0,2021-01-21 20:12:55.278000+00:00,train
349,-2.052368640899658,-2.0,2021-01-21 20:13:25.278000+00:00,train
350,-2.041693687438965,-2.0,2021-01-21 20:13:55.278000+00:00,train
351,-2.032135486602783,-2.0,2021-01-21 20:14:25.278000+00:00,train
352,-2.0224645137786865,-2.0,2021-01-21 20:14:55.278000+00:00,train
353,-2.0129170417785645,-2.0,2021-01-21 20:15:25.278000+00:00,train
354,-2.0036044120788574,-2.0,2021-01-21 20:15:55.278000+00:00,train
355,-1.994593858718872,-2.0,2021-01-21 20:16:25.278000+00:00,train
356,-1.9859178066253662,-2.0,2021-01-21 20:16:55.278000+00:00,train
357,-1.977323055267334,-2.0,2021-01-21 20:17:25.278000+00:00,train
358,-1.969170331954956,-2.0,2021-01-21 20:17:55.278000+00:00,train
359,-1.9615395069122314,-2.0,2021-01-21 20:18:25.278000+00:00,train
360,-1.9545409679412842,-2.0,2021-01-21 20:18:55.278000+00:00,train
361,-1.9483227729797363,-2.0,2021-01-21 20:19:25.278000+00:00,train
362,-1.9422696828842163,-2.0,2021-01-21 20:19:55.278000+00:00,train
363,-1.9372395277023315,-2.0,2021-01-21 20:20:25.278000+00:00,train
364,-1.9334312677383423,-2.0,2021-01-21 20:20:55.278000+00:00,train
365,-1.931012749671936,-2.0,2021-01-21 20:21:25.278000+00:00,train
366,-1.9300498962402344,-2.0,2021-01-21 20:21:55.278000+00:00,train
367,-1.9304736852645874,-2.0,2021-01-21 20:22:25.278000+00:00,train
368,-1.9562959671020508,-2.0,2021-01-21 20:22:55.278000+00:00,train
369,-1.9758021831512451,-2.0,2021-01-21 20:23:25.278000+00:00,train
370,-1.9899296760559082,-2.0,2021-01-21 20:23:55.278000+00:00,train
371,-1.9996154308319092,-2.0,2021-01-21 20:24:25.278000+00:00,train
372,-2.0058116912841797,-2.0,2021-01-21 20:24:55.278000+00:00,train
373,-2.0094404220581055,-2.0,2021-01-21 20:25:25.278000+00:00,train
374,-2.0011212825775146,-2.0,2021-01-21 20:25:55.278000+00:00,train
375,-1.9928903579711914,-2.0,2021-01-21 20:26:25.278000+00:00,train
376,-1.9847638607025146,-2.0,2021-01-21 20:26:55.278000+00:00,train
377,-1.9768322706222534,-2.0,2021-01-21 20:27:25.278000+00:00,train
378,-1.9690521955490112,-2.0,2021-01-21 20:27:55.278000+00:00,train
379,-1.9614793062210083,-2.0,2021-01-21 20:28:25.278000+00:00,train
380,-1.9541844129562378,-2.0,2021-01-21 20:28:55.278000+00:00,train
381,-1.9472562074661255,-2.0,2021-01-21 20:29:25.278000+00:00,train
382,-1.9407938718795776,-2.0,2021-01-21 20:29:55.278000+00:00,train
383,-1.9347155094146729,-2.0,2021-01-21 20:30:25.278000+00:00,train
384,-1.929230809211731,-2.0,2021-01-21 20:30:55.278000+00:00,train
385,-1.9244294166564941,-2.0,2021-01-21 20:31:25.278000+00:00,train
386,-2.0341622829437256,-2.0,2021-01-21 20:31:55.278000+00:00,train
387,-2.027651309967041,-2.0,2021-01-21 20:32:25.278000+00:00,train
388,-2.021332025527954,-2.0,2021-01-21 20:32:55.278000+00:00,train
389,-2.015328884124756,-2.0,2021-01-21 20:33:25.278000+00:00,train
390,-2.0096652507781982,-2.0,2021-01-21 20:33:55.278000+00:00,train
391,-2.0043587684631348,-2.0,2021-01-21 20:34:25.278000+00:00,train
392,-1.9994233846664429,-2.0,2021-01-21 20:34:55.278000+00:00,train
393,-1.9948666095733643,-2.0,2021-01-21 20:35:25.278000+00:00,train
394,-1.9904654026031494,-2.0,2021-01-21 20:35:55.278000+00:00,train
395,-1.9864782094955444,-2.0,2021-01-21 20:36:25.278000+00:00,train
396,-1.9829213619232178,-2.0,2021-01-21 20:36:55.278000+00:00,train
397,-1.9798152446746826,-2.0,2021-01-21 20:37:25.278000+00:00,train
398,-1.977189540863037,-2.0,2021-01-21 20:37:55.278000+00:00,train
399,-1.9750896692276,-2.0,2021-01-21 20:38:25.278000+00:00,train
400,-1.977003574371338,-2.0,2021-01-21 20:38:55.278000+00:00,train
401,-1.9784469604492188,-2.0,2021-01-21 20:39:25.278000+00:00,train
402,-1.9797338247299194,-2.0,2021-01-21 20:39:55.278000+00:00,train
403,-1.9813145399093628,-2.0,2021-01-21 20:40:25.278000+00:00,train
404,-1.9842430353164673,-2.0,2021-01-21 20:40:55.278000+00:00,train
405,-2.0,-2.0,2021-01-21 20:41:25.278000+00:00,train
406,-2.0,-2.0,2021-01-21 20:41:55.278000+00:00,train
407,-2.0,-2.0,2021-01-21 20:42:25.278000+00:00,train
408,-2.0,-2.0,2021-01-21 20:42:55.278000+00:00,train
409,-2.0,-2.0,2021-01-21 20:43:25.278000+00:00,train
410,-2.0,-2.0,2021-01-21 20:43:55.278000+00:00,train
411,-2.0,-2.0,2021-01-21 20:44:25.278000+00:00,train
412,-2.0,-2.0,2021-01-21 20:44:55.278000+00:00,train
413,-2.0,-2.0,2021-01-21 20:45:25.278000+00:00,train
414,-2.0,-2.0,2021-01-21 20:45:55.278000+00:00,train
415,-2.0,-2.0,2021-01-21 20:46:25.278000+00:00,train
416,-2.0,-2.0,2021-01-21 20:46:55.278000+00:00,train
417,-2.0,-2.0,2021-01-21 20:47:25.278000+00:00,train
418,-2.0,-2.0,2021-01-21 20:47:55.278000+00:00,train
419,-2.0,-2.0,2021-01-21 20:48:25.278000+00:00,train
420,-2.0,-2.0,2021-01-21 20:48:55.278000+00:00,train
421,-2.0,-2.0,2021-01-21 20:49:25.278000+00:00,train
422,-2.0,-2.0,2021-01-21 20:49:55.278000+00:00,train
423,-2.0,-2.0,2021-01-21 20:50:25.278000+00:00,train
424,-2.0,-2.0,2021-01-21 20:50:55.278000+00:00,train
425,-2.0,-2.0,2021-01-21 20:51:25.278000+00:00,train
426,-2.0,-2.0,2021-01-21 20:51:55.278000+00:00,train
427,-2.0,-2.0,2021-01-21 20:52:25.278000+00:00,train
428,-2.0,-2.0,2021-01-21 20:52:55.278000+00:00,train
429,-2.0,-2.0,2021-01-21 20:53:25.278000+00:00,train
430,-2.0,-2.0,2021-01-21 20:53:55.278000+00:00,train
431,-2.0,-2.0,2021-01-21 20:54:25.278000+00:00,train
432,-2.0,-2.0,2021-01-21 20:54:55.278000+00:00,train
433,-2.0,-2.0,2021-01-21 20:55:25.278000+00:00,train
434,-2.0,-2.0,2021-01-21 20:55:55.278000+00:00,train
435,-2.0,-2.0,2021-01-21 20:56:25.278000+00:00,train
436,-2.0,-2.0,2021-01-21 20:56:55.278000+00:00,train
437,-2.0,-2.0,2021-01-21 20:57:25.278000+00:00,train
438,-2.0,-2.0,2021-01-21 20:57:55.278000+00:00,train
439,-2.0,-2.0,2021-01-21 20:58:25.278000+00:00,train
440,-2.0,-2.0,2021-01-21 20:58:55.278000+00:00,train
441,-2.0,-2.0,2021-01-21 20:59:25.278000+00:00,train
442,-2.0,-2.0,2021-01-21 20:59:55.278000+00:00,train
443,-2.0,-2.0,2021-01-21 21:00:25.278000+00:00,train
444,-2.0,0.0,2021-01-21 21:00:55.278000+00:00,train
445,-2.0,-2.0,2021-01-21 21:01:25.278000+00:00,train
446,-2.0,-2.0,2021-01-21 21:01:55.278000+00:00,train
447,-2.0,-2.0,2021-01-21 21:02:25.278000+00:00,train
448,-2.0,-2.0,2021-01-21 21:02:55.278000+00:00,train
449,-2.0,-2.0,2021-01-21 21:03:25.278000+00:00,train
450,-2.0,-2.0,2021-01-21 21:03:55.278000+00:00,train
451,-2.0,-2.0,2021-01-21 21:04:25.278000+00:00,train
452,-2.0,-2.0,2021-01-21 21:04:55.278000+00:00,train
453,-2.0,-2.0,2021-01-21 21:05:25.278000+00:00,train
454,-2.0,-2.0,2021-01-21 21:05:55.278000+00:00,train
455,-2.0,-2.0,2021-01-21 21:06:25.278000+00:00,train
456,-2.0,-2.0,2021-01-21 21:06:55.278000+00:00,train
457,-2.0,-2.0,2021-01-21 21:07:25.278000+00:00,train
458,-2.0,-2.0,2021-01-21 21:07:55.278000+00:00,train
459,-1.9788967370986938,-2.0,2021-01-21 21:08:25.278000+00:00,train
460,-1.9888912439346313,-2.0,2021-01-21 21:08:55.278000+00:00,train
461,-1.9919294118881226,-2.0,2021-01-21 21:09:25.278000+00:00,train
462,-1.9931492805480957,-2.0,2021-01-21 21:09:55.278000+00:00,train
463,-1.9937909841537476,-2.0,2021-01-21 21:10:25.278000+00:00,train
464,-1.9942156076431274,-2.0,2021-01-21 21:10:55.278000+00:00,train
465,-1.9945430755615234,-2.0,2021-01-21 21:11:25.278000+00:00,train
466,-1.994821310043335,-2.0,2021-01-21 21:11:55.278000+00:00,train
467,-1.9950708150863647,-2.0,2021-01-21 21:12:25.278000+00:00,train
468,-1.9953639507293701,-2.0,2021-01-21 21:12:55.278000+00:00,train
469,-1.9956238269805908,-2.0,2021-01-21 21:13:25.278000+00:00,train
470,-1.995863676071167,-2.0,2021-01-21 21:13:55.278000+00:00,train
471,-1.9960871934890747,-2.0,2021-01-21 21:14:25.278000+00:00,train
472,-1.996296763420105,-2.0,2021-01-21 21:14:55.278000+00:00,train
473,-1.9964935779571533,-2.0,2021-01-21 21:15:25.278000+00:00,train
474,-1.9966737031936646,-2.0,2021-01-21 21:15:55.278000+00:00,train
475,-1.996843934059143,-2.0,2021-01-21 21:16:25.278000+00:00,train
476,-1.9970043897628784,-2.0,2021-01-21 21:16:55.278000+00:00,train
477,-1.9971554279327393,-2.0,2021-01-21 21:17:25.278000+00:00,train
478,-1.9972970485687256,-2.0,2021-01-21 21:17:55.278000+00:00,train
479,-1.9974292516708374,-2.0,2021-01-21 21:18:25.278000+00:00,train
480,-1.997550129890442,-2.0,2021-01-21 21:18:55.278000+00:00,train
481,-1.9976626634597778,-2.0,2021-01-21 21:19:25.278000+00:00,train
482,-1.9977668523788452,-2.0,2021-01-21 21:19:55.278000+00:00,train
483,-1.9978625774383545,-2.0,2021-01-21 21:20:25.278000+00:00,train
484,-1.9979499578475952,-2.0,2021-01-21 21:20:55.278000+00:00,train
485,-1.9980289936065674,-2.0,2021-01-21 21:21:25.278000+00:00,train
486,-1.9980988502502441,-2.0,2021-01-21 21:21:55.278000+00:00,train
487,-1.9981614351272583,-2.0,2021-01-21 21:22:25.278000+00:00,train
488,-1.9982168674468994,-2.0,2021-01-21 21:22:55.278000+00:00,train
489,-1.998265027999878,-2.0,2021-01-21 21:23:25.278000+00:00,train
490,-1.998306393623352,-2.0,2021-01-21 21:23:55.278000+00:00,train
491,-1.9983389377593994,-2.0,2021-01-21 21:24:25.278000+00:00,train
492,-1.9983516931533813,-2.0,2021-01-21 21:24:55.278000+00:00,train
493,-1.9983680248260498,-2.0,2021-01-21 21:25:25.278000+00:00,train
494,-1.9983783960342407,-2.0,2021-01-21 21:25:55.278000+00:00,train
495,-1.9983909130096436,-2.0,2021-01-21 21:26:25.278000+00:00,train
496,-1.9984049797058105,-2.0,2021-01-21 21:26:55.278000+00:00,train
497,-1.9984179735183716,-2.0,2021-01-21 21:27:25.278000+00:00,train
498,-1.9984288215637207,-2.0,2021-01-21 21:27:55.278000+00:00,train
499,-1.998436689376831,-2.0,2021-01-21 21:28:25.278000+00:00,train
500,-1.9984402656555176,-2.0,2021-01-21 21:28:55.278000+00:00,train
501,-1.9984408617019653,-2.0,2021-01-21 21:29:25.278000+00:00,train
502,-1.998438835144043,-2.0,2021-01-21 21:29:55.278000+00:00,train
503,-1.9984331130981445,-2.0,2021-01-21 21:30:25.278000+00:00,train
504,-1.9984244108200073,-2.0,2021-01-21 21:30:55.278000+00:00,train
505,-1.9984149932861328,-2.0,2021-01-21 21:31:25.278000+00:00,train
506,-1.9983991384506226,-2.0,2021-01-21 21:31:55.278000+00:00,train
507,-1.9983779191970825,-2.0,2021-01-21 21:32:25.278000+00:00,train
508,-1.9983528852462769,-2.0,2021-01-21 21:32:55.278000+00:00,train
509,-1.9983247518539429,-2.0,2021-01-21 21:33:25.278000+00:00,train
510,-1.9982936382293701,-2.0,2021-01-21 21:33:55.278000+00:00,train
511,-1.9982601404190063,-2.0,2021-01-21 21:34:25.278000+00:00,train
512,-1.9982242584228516,-2.0,2021-01-21 21:34:55.278000+00:00,train
513,-1.9981862306594849,-2.0,2021-01-21 21:35:25.278000+00:00,train
514,-1.9981462955474854,-2.0,2021-01-21 21:35:55.278000+00:00,train
515,-1.9981045722961426,-2.0,2021-01-21 21:36:25.278000+00:00,train
516,-1.9980629682540894,-2.0,2021-01-21 21:36:55.278000+00:00,train
517,-1.9980149269104004,-2.0,2021-01-21 21:37:25.278000+00:00,train
518,-1.9979639053344727,-2.0,2021-01-21 21:37:55.278000+00:00,train
519,-1.9979102611541748,-2.0,2021-01-21 21:38:25.278000+00:00,train
520,-1.9978541135787964,-2.0,2021-01-21 21:38:55.278000+00:00,train
521,-1.9977951049804688,-2.0,2021-01-21 21:39:25.278000+00:00,train
522,-1.997733235359192,-2.0,2021-01-21 21:39:55.278000+00:00,train
523,-1.9976698160171509,-2.0,2021-01-21 21:40:25.278000+00:00,train
524,-1.997602939605713,-2.0,2021-01-21 21:40:55.278000+00:00,train
525,-1.997532606124878,-2.0,2021-01-21 21:41:25.278000+00:00,train
526,-1.9974583387374878,-2.0,2021-01-21 21:41:55.278000+00:00,train
527,-1.9973794221878052,-2.0,2021-01-21 21:42:25.278000+00:00,train
528,-1.9972724914550781,-2.0,2021-01-21 21:42:55.278000+00:00,train
529,-1.9971647262573242,-2.0,2021-01-21 21:43:25.278000+00:00,train
530,-1.997048258781433,-2.0,2021-01-21 21:43:55.278000+00:00,train
531,-1.9969196319580078,-2.0,2021-01-21 21:44:25.278000+00:00,train
532,-1.9967750310897827,-2.0,2021-01-21 21:44:55.278000+00:00,train
533,-1.9966098070144653,-2.0,2021-01-21 21:45:25.278000+00:00,train
534,-1.9963949918746948,-2.0,2021-01-21 21:45:55.278000+00:00,train
535,-1.9961310625076294,-2.0,2021-01-21 21:46:25.278000+00:00,train
536,-1.995793342590332,-2.0,2021-01-21 21:46:55.278000+00:00,train
537,-1.995344877243042,-2.0,2021-01-21 21:47:25.278000+00:00,train
538,-1.9947240352630615,-2.0,2021-01-21 21:47:55.278000+00:00,train
539,-1.9939069747924805,-2.0,2021-01-21 21:48:25.278000+00:00,train
540,-1.9926939010620117,-2.0,2021-01-21 21:48:55.278000+00:00,train
541,-1.9906786680221558,-2.0,2021-01-21 21:49:25.278000+00:00,train
542,-1.9865856170654297,-2.0,2021-01-21 21:49:55.278000+00:00,train
543,-1.9445005655288696,-2.0,2021-01-21 21:50:25.278000+00:00,train
544,-1.7130781412124634,-2.0,2021-01-21 21:50:55.278000+00:00,train
545,-1.658754587173462,-2.0,2021-01-21 21:51:25.278000+00:00,train
546,-1.6448352336883545,-2.0,2021-01-21 21:51:55.278000+00:00,train
547,-1.6399115324020386,-2.0,2021-01-21 21:52:25.278000+00:00,train
548,-1.637664556503296,-2.0,2021-01-21 21:52:55.278000+00:00,train
549,-1.6362496614456177,-2.0,2021-01-21 21:53:25.278000+00:00,train
550,-1.6350078582763672,-2.0,2021-01-21 21:53:55.278000+00:00,train
551,-1.6340972185134888,-2.0,2021-01-21 21:54:25.278000+00:00,train
552,-1.6332265138626099,-2.0,2021-01-21 21:54:55.278000+00:00,train
553,-1.6323697566986084,-2.0,2021-01-21 21:55:25.278000+00:00,train
554,-1.631516695022583,-2.0,2021-01-21 21:55:55.278000+00:00,train
555,-1.6306673288345337,-1.0,2021-01-21 21:56:25.278000+00:00,train
556,-1.6298227310180664,-2.0,2021-01-21 21:56:55.278000+00:00,train
557,-1.6287777423858643,-2.0,2021-01-21 21:57:25.278000+00:00,train
558,-1.627155065536499,-2.0,2021-01-21 21:57:55.278000+00:00,train
559,-2.0,-2.0,2021-01-21 21:58:25.278000+00:00,train
560,-2.0,-2.0,2021-01-21 21:58:55.278000+00:00,train
561,-2.0,-2.0,2021-01-21 21:59:25.278000+00:00,train
562,-2.0,-1.0,2021-01-21 21:59:55.278000+00:00,train
563,-2.0,-1.0,2021-01-21 22:00:25.278000+00:00,train
564,-2.0,0.0,2021-01-21 22:00:55.278000+00:00,train
565,-2.0,-1.0,2021-01-21 22:01:25.278000+00:00,train
566,-2.0,-1.0,2021-01-21 22:01:55.278000+00:00,train
567,-2.0,-1.0,2021-01-21 22:02:25.278000+00:00,train
568,-2.0,-1.0,2021-01-21 22:02:55.278000+00:00,train
569,-2.0,-1.0,2021-01-21 22:03:25.278000+00:00,train
570,-1.8100931644439697,-1.0,2021-01-21 22:03:55.278000+00:00,train
571,-1.8099567890167236,-1.0,2021-01-21 22:04:25.278000+00:00,train
572,-1.8098828792572021,-1.0,2021-01-21 22:04:55.278000+00:00,train
573,-1.8098293542861938,-1.0,2021-01-21 22:05:25.278000+00:00,train
574,-1.8097795248031616,-1.0,2021-01-21 22:05:55.278000+00:00,train
575,-1.8097460269927979,-1.0,2021-01-21 22:06:25.278000+00:00,train
576,-1.8097286224365234,-1.0,2021-01-21 22:06:55.278000+00:00,train
577,-1.7263928651809692,-1.0,2021-01-21 22:07:25.278000+00:00,train
578,-1.6609609127044678,-1.0,2021-01-21 22:07:55.278000+00:00,train
579,-1.4403316974639893,-1.0,2021-01-21 22:08:25.278000+00:00,train
580,-1.3924760818481445,-1.0,2021-01-21 22:08:55.278000+00:00,train
581,-1.349765658378601,-1.0,2021-01-21 22:09:25.278000+00:00,train
582,-1.3102800846099854,-1.0,2021-01-21 22:09:55.278000+00:00,train
583,-1.2731722593307495,-1.0,2021-01-21 22:10:25.278000+00:00,train
584,-1.2380362749099731,-1.0,2021-01-21 22:10:55.278000+00:00,train
585,-1.2045643329620361,-1.0,2021-01-21 22:11:25.278000+00:00,train
586,-1.1725412607192993,-1.0,2021-01-21 22:11:55.278000+00:00,train
587,-1.1418262720108032,-1.0,2021-01-21 22:12:25.278000+00:00,train
588,-1.112305998802185,-1.0,2021-01-21 22:12:55.278000+00:00,train
589,-1.0837838649749756,-1.0,2021-01-21 22:13:25.278000+00:00,train
590,-1.0563387870788574,-1.0,2021-01-21 22:13:55.278000+00:00,train
591,-1.0299347639083862,-1.0,2021-01-21 22:14:25.278000+00:00,train
592,-1.0043097734451294,-1.0,2021-01-21 22:14:55.278000+00:00,train
593,-0.9799382090568542,-1.0,2021-01-21 22:15:25.278000+00:00,train
594,-0.9626489877700806,-1.0,2021-01-21 22:15:55.278000+00:00,train
595,-1.0180553197860718,-1.0,2021-01-21 22:16:25.278000+00:00,train
596,-1.1268092393875122,-1.0,2021-01-21 22:16:55.278000+00:00,train
597,-1.1449044942855835,-1.0,2021-01-21 22:17:25.278000+00:00,train
598,-1.1425776481628418,-1.0,2021-01-21 22:17:55.278000+00:00,train
599,-1.1337823867797852,-1.0,2021-01-21 22:18:25.278000+00:00,train
600,-1.0829682350158691,-1.0,2021-01-21 22:18:55.278000+00:00,train
601,-1.0539158582687378,-1.0,2021-01-21 22:19:25.278000+00:00,train
602,-1.034523367881775,-1.0,2021-01-21 22:19:55.278000+00:00,train
603,-1.0108187198638916,-1.0,2021-01-21 22:20:25.278000+00:00,train
604,-0.9939306378364563,-1.0,2021-01-21 22:20:55.278000+00:00,train
605,-0.9793696999549866,-1.0,2021-01-21 22:21:25.278000+00:00,train
606,-0.9670863151550293,-1.0,2021-01-21 22:21:55.278000+00:00,train
607,-0.95619797706604,-1.0,2021-01-21 22:22:25.278000+00:00,train
608,-0.9463250637054443,-1.0,2021-01-21 22:22:55.278000+00:00,train
609,-0.9358797073364258,-1.0,2021-01-21 22:23:25.278000+00:00,train
610,-0.9266417026519775,-1.0,2021-01-21 22:23:55.278000+00:00,train
611,-0.9186245799064636,-1.0,2021-01-21 22:24:25.278000+00:00,train
612,-0.9113873243331909,-1.0,2021-01-21 22:24:55.278000+00:00,train
613,-0.9048061370849609,-1.0,2021-01-21 22:25:25.278000+00:00,train
614,-0.9106069803237915,-1.0,2021-01-21 22:25:55.278000+00:00,train
615,-0.9090704321861267,-1.0,2021-01-21 22:26:25.278000+00:00,train
616,-0.9056761860847473,-1.0,2021-01-21 22:26:55.278000+00:00,train
617,-0.9021957516670227,-1.0,2021-01-21 22:27:25.278000+00:00,train
618,-0.898771345615387,-1.0,2021-01-21 22:27:55.278000+00:00,train
619,-0.8955584168434143,-1.0,2021-01-21 22:28:25.278000+00:00,train
620,-0.8904496431350708,-1.0,2021-01-21 22:28:55.278000+00:00,train
621,-0.8868485689163208,-1.0,2021-01-21 22:29:25.278000+00:00,train
622,-0.8844653367996216,-1.0,2021-01-21 22:29:55.278000+00:00,train
623,-0.8825258016586304,-1.0,2021-01-21 22:30:25.278000+00:00,train
624,-0.880903422832489,-1.0,2021-01-21 22:30:55.278000+00:00,train
625,-0.8796038627624512,-1.0,2021-01-21 22:31:25.278000+00:00,train
626,-0.876611590385437,-1.0,2021-01-21 22:31:55.278000+00:00,train
627,-0.8756939768791199,-1.0,2021-01-21 22:32:25.278000+00:00,train
628,-0.8733291625976562,-1.0,2021-01-21 22:32:55.278000+00:00,train
629,-0.8714131116867065,-1.0,2021-01-21 22:33:25.278000+00:00,train
630,-0.869959831237793,-1.0,2021-01-21 22:33:55.278000+00:00,train
631,-0.8691471815109253,-1.0,2021-01-21 22:34:25.278000+00:00,train
632,-0.8664718270301819,-1.0,2021-01-21 22:34:55.278000+00:00,train
633,-0.8669477105140686,-1.0,2021-01-21 22:35:25.278000+00:00,train
634,-0.8708741664886475,-1.0,2021-01-21 22:35:55.278000+00:00,train
635,-0.8794066309928894,-1.0,2021-01-21 22:36:25.278000+00:00,train
636,-0.8930923938751221,-1.0,2021-01-21 22:36:55.278000+00:00,train
637,-0.9366123080253601,-1.0,2021-01-21 22:37:25.278000+00:00,train
638,-0.9448873400688171,-1.0,2021-01-21 22:37:55.278000+00:00,train
639,-0.9465278387069702,-1.0,2021-01-21 22:38:25.278000+00:00,train
640,-0.9462257623672485,-1.0,2021-01-21 22:38:55.278000+00:00,train
641,-0.9451944231987,-1.0,2021-01-21 22:39:25.278000+00:00,train
642,-0.9438647627830505,-1.0,2021-01-21 22:39:55.278000+00:00,train
643,-0.9408255815505981,-1.0,2021-01-21 22:40:25.278000+00:00,train
644,-0.9392690658569336,-1.0,2021-01-21 22:40:55.278000+00:00,train
645,-0.9393243789672852,-1.0,2021-01-21 22:41:25.278000+00:00,train
646,-0.9408328533172607,-1.0,2021-01-21 22:41:55.278000+00:00,train
647,-0.9447522163391113,-1.0,2021-01-21 22:42:25.278000+00:00,train
648,-0.95389324426651,-1.0,2021-01-21 22:42:55.278000+00:00,train
649,-0.9766826629638672,-1.0,2021-01-21 22:43:25.278000+00:00,train
650,-0.9818310141563416,-1.0,2021-01-21 22:43:55.278000+00:00,train
651,-0.9874743223190308,-1.0,2021-01-21 22:44:25.278000+00:00,train
652,-0.9933032989501953,-1.0,2021-01-21 22:44:55.278000+00:00,train
653,-0.9989180564880371,-1.0,2021-01-21 22:45:25.278000+00:00,train
654,-1.0020838975906372,-1.0,2021-01-21 22:45:55.278000+00:00,train
655,-1.0024957656860352,-1.0,2021-01-21 22:46:25.278000+00:00,train
656,-1.0078686475753784,-1.0,2021-01-21 22:46:55.278000+00:00,train
657,-1.0126301050186157,-1.0,2021-01-21 22:47:25.278000+00:00,train
658,-1.0165590047836304,-1.0,2021-01-21 22:47:55.278000+00:00,train
659,-1.0190277099609375,-1.0,2021-01-21 22:48:25.278000+00:00,train
660,-1.0210635662078857,-1.0,2021-01-21 22:48:55.278000+00:00,train
661,-1.0239506959915161,-1.0,2021-01-21 22:49:25.278000+00:00,train
662,-1.0256152153015137,-1.0,2021-01-21 22:49:55.278000+00:00,train
663,-1.0263171195983887,-1.0,2021-01-21 22:50:25.278000+00:00,train
664,-1.0261176824569702,-1.0,2021-01-21 22:50:55.278000+00:00,train
665,-1.0249446630477905,-1.0,2021-01-21 22:51:25.278000+00:00,train
666,-1.0216056108474731,-1.0,2021-01-21 22:51:55.278000+00:00,train
667,-1.019515037536621,-1.0,2021-01-21 22:52:25.278000+00:00,train
668,-1.0166696310043335,-1.0,2021-01-21 22:52:55.278000+00:00,train
669,-1.0129057168960571,-1.0,2021-01-21 22:53:25.278000+00:00,train
670,-1.0171740055084229,-1.0,2021-01-21 22:53:55.278000+00:00,train
671,-1.0141322612762451,-1.0,2021-01-21 22:54:25.278000+00:00,train
672,-1.0079758167266846,-1.0,2021-01-21 22:54:55.278000+00:00,train
673,-1.001766562461853,-1.0,2021-01-21 22:55:25.278000+00:00,train
674,-0.9954361319541931,-1.0,2021-01-21 22:55:55.278000+00:00,train
675,-0.9890692234039307,-1.0,2021-01-21 22:56:25.278000+00:00,train
676,-0.982920229434967,-1.0,2021-01-21 22:56:55.278000+00:00,train
677,-0.9833928346633911,-1.0,2021-01-21 22:57:25.278000+00:00,train
678,-0.9840865731239319,-1.0,2021-01-21 22:57:55.278000+00:00,train
679,-1.0,-1.0,2021-01-21 22:58:25.278000+00:00,train
680,-1.0,-1.0,2021-01-21 22:58:55.278000+00:00,train
681,-1.0,-1.0,2021-01-21 22:59:25.278000+00:00,train
682,-1.0,-1.0,2021-01-21 22:59:55.278000+00:00,train
683,-1.0,-1.0,2021-01-21 23:00:25.278000+00:00,train
684,-1.0,0.0,2021-01-21 23:00:55.278000+00:00,train
685,-1.0,-1.0,2021-01-21 23:01:25.278000+00:00,train
686,-1.0,-1.0,2021-01-21 23:01:55.278000+00:00,train
687,-1.0,-1.0,2021-01-21 23:02:25.278000+00:00,train
688,-1.0,-1.0,2021-01-21 23:02:55.278000+00:00,train
689,-1.0,-1.0,2021-01-21 23:03:25.278000+00:00,train
690,-1.0,-1.0,2021-01-21 23:03:55.278000+00:00,train
691,-1.0,-1.0,2021-01-21 23:04:25.278000+00:00,train
692,-1.0,-1.0,2021-01-21 23:04:55.278000+00:00,train
693,-1.0,-1.0,2021-01-21 23:05:25.278000+00:00,train
694,-1.0,-1.0,2021-01-21 23:05:55.278000+00:00,train
695,-1.0,-1.0,2021-01-21 23:06:25.278000+00:00,train
696,-1.0,-1.0,2021-01-21 23:06:55.278000+00:00,train
697,-1.0,-1.0,2021-01-21 23:07:25.278000+00:00,train
698,-1.0,-1.0,2021-01-21 23:07:55.278000+00:00,train
699,-0.9914882183074951,-1.0,2021-01-21 23:08:25.278000+00:00,train
700,-0.9914535284042358,-1.0,2021-01-21 23:08:55.278000+00:00,train
701,-0.9912808537483215,-1.0,2021-01-21 23:09:25.278000+00:00,train
702,-0.9911181330680847,-1.0,2021-01-21 23:09:55.278000+00:00,train
703,-0.9913609623908997,-1.0,2021-01-21 23:10:25.278000+00:00,train
704,-0.9916523694992065,-1.0,2021-01-21 23:10:55.278000+00:00,train
705,-0.9919712543487549,-1.0,2021-01-21 23:11:25.278000+00:00,train
706,-0.9913963675498962,-1.0,2021-01-21 23:11:55.278000+00:00,train
707,-0.9913476705551147,-1.0,2021-01-21 23:12:25.278000+00:00,train
708,-0.9914602637290955,-1.0,2021-01-21 23:12:55.278000+00:00,train
709,-0.9916865825653076,-1.0,2021-01-21 23:13:25.278000+00:00,train
710,-0.9920137524604797,-1.0,2021-01-21 23:13:55.278000+00:00,train
711,-0.992404043674469,-1.0,2021-01-21 23:14:25.278000+00:00,train
712,-0.9928494095802307,-1.0,2021-01-21 23:14:55.278000+00:00,train
713,-0.9933815598487854,-1.0,2021-01-21 23:15:25.278000+00:00,train
714,-0.9936480522155762,-1.0,2021-01-21 23:15:55.278000+00:00,train
715,-0.9938998818397522,-1.0,2021-01-21 23:16:25.278000+00:00,train
716,-0.9941686391830444,-1.0,2021-01-21 23:16:55.278000+00:00,train
717,-0.9944354295730591,-1.0,2021-01-21 23:17:25.278000+00:00,train
718,-0.9946951866149902,-1.0,2021-01-21 23:17:55.278000+00:00,train
719,-0.9949432611465454,-1.0,2021-01-21 23:18:25.278000+00:00,train
720,-0.9952056407928467,-1.0,2021-01-21 23:18:55.278000+00:00,train
721,-0.9954265356063843,-1.0,2021-01-21 23:19:25.278000+00:00,train
722,-0.995656430721283,-1.0,2021-01-21 23:19:55.278000+00:00,train
723,-0.9958817362785339,-1.0,2021-01-21 23:20:25.278000+00:00,train
724,-0.9960992336273193,-1.0,2021-01-21 23:20:55.278000+00:00,train
725,-0.9963065981864929,-1.0,2021-01-21 23:21:25.278000+00:00,train
726,-0.9964986443519592,-1.0,2021-01-21 23:21:55.278000+00:00,train
727,-0.996698796749115,-1.0,2021-01-21 23:22:25.278000+00:00,train
728,-0.9968957304954529,-1.0,2021-01-21 23:22:55.278000+00:00,train
729,-0.997087299823761,-1.0,2021-01-21 23:23:25.278000+00:00,train
730,-0.997272253036499,-1.0,2021-01-21 23:23:55.278000+00:00,train
731,-0.9974499344825745,-1.0,2021-01-21 23:24:25.278000+00:00,train
732,-0.9977352023124695,-1.0,2021-01-21 23:24:55.278000+00:00,train
733,-0.9979506134986877,-1.0,2021-01-21 23:25:25.278000+00:00,train
734,-0.9981422424316406,-1.0,2021-01-21 23:25:55.278000+00:00,train
735,-0.9983217716217041,-1.0,2021-01-21 23:26:25.278000+00:00,train
736,-0.9984958171844482,-1.0,2021-01-21 23:26:55.278000+00:00,train
737,-0.9986101984977722,-1.0,2021-01-21 23:27:25.278000+00:00,train
738,-0.9987038969993591,-1.0,2021-01-21 23:27:55.278000+00:00,train
739,-0.998802661895752,-1.0,2021-01-21 23:28:25.278000+00:00,train
740,-0.9988999366760254,-1.0,2021-01-21 23:28:55.278000+00:00,train
741,-0.9989947080612183,-1.0,2021-01-21 23:29:25.278000+00:00,train
742,-0.9990864992141724,-1.0,2021-01-21 23:29:55.278000+00:00,train
743,-0.9991686344146729,-1.0,2021-01-21 23:30:25.278000+00:00,train
744,-0.9992567896842957,-1.0,2021-01-21 23:30:55.278000+00:00,train
745,-0.9993448257446289,-1.0,2021-01-21 23:31:25.278000+00:00,train
746,-0.999431848526001,-1.0,2021-01-21 23:31:55.278000+00:00,train
747,-0.9995171427726746,-1.0,2021-01-21 23:32:25.278000+00:00,train
748,-0.9996008276939392,-1.0,2021-01-21 23:32:55.278000+00:00,train
749,-0.9996778964996338,-1.0,2021-01-21 23:33:25.278000+00:00,train
750,-0.9997608661651611,-1.0,2021-01-21 23:33:55.278000+00:00,train
751,-0.9998449087142944,-1.0,2021-01-21 23:34:25.278000+00:00,train
752,-0.9999290108680725,-1.0,2021-01-21 23:34:55.278000+00:00,train
753,-1.0000128746032715,-1.0,2021-01-21 23:35:25.278000+00:00,train
754,-1.0001494884490967,-1.0,2021-01-21 23:35:55.278000+00:00,train
755,-1.0002424716949463,-1.0,2021-01-21 23:36:25.278000+00:00,train
756,-1.000330924987793,-1.0,2021-01-21 23:36:55.278000+00:00,train
757,-1.0004146099090576,-1.0,2021-01-21 23:37:25.278000+00:00,train
758,-1.0004944801330566,-1.0,2021-01-21 23:37:55.278000+00:00,train
759,-1.0005691051483154,-1.0,2021-01-21 23:38:25.278000+00:00,train
760,-1.0006221532821655,-1.0,2021-01-21 23:38:55.278000+00:00,train
761,-1.0006654262542725,-1.0,2021-01-21 23:39:25.278000+00:00,train
762,-1.000709891319275,-1.0,2021-01-21 23:39:55.278000+00:00,train
763,-1.000751256942749,-1.0,2021-01-21 23:40:25.278000+00:00,train
764,-1.000788688659668,-1.0,2021-01-21 23:40:55.278000+00:00,train
765,-1.0008220672607422,-1.0,2021-01-21 23:41:25.278000+00:00,train
766,-1.0008453130722046,-1.0,2021-01-21 23:41:55.278000+00:00,train
767,-1.0008659362792969,-1.0,2021-01-21 23:42:25.278000+00:00,train
768,-1.0008798837661743,-1.0,2021-01-21 23:42:55.278000+00:00,train
769,-1.0008857250213623,-1.0,2021-01-21 23:43:25.278000+00:00,train
770,-1.0008827447891235,-1.0,2021-01-21 23:43:55.278000+00:00,train
771,-1.0008703470230103,-1.0,2021-01-21 23:44:25.278000+00:00,train
772,-1.0008366107940674,-1.0,2021-01-21 23:44:55.278000+00:00,train
773,-1.0007904767990112,-1.0,2021-01-21 23:45:25.278000+00:00,train
774,-1.0007268190383911,-1.0,2021-01-21 23:45:55.278000+00:00,train
775,-1.0006446838378906,-1.0,2021-01-21 23:46:25.278000+00:00,train
776,-1.0005407333374023,-1.0,2021-01-21 23:46:55.278000+00:00,train
777,-1.0003918409347534,-1.0,2021-01-21 23:47:25.278000+00:00,train
778,-1.0002045631408691,-1.0,2021-01-21 23:47:55.278000+00:00,train
779,-0.9999843835830688,-1.0,2021-01-21 23:48:25.278000+00:00,train
780,-0.9997260570526123,-1.0,2021-01-21 23:48:55.278000+00:00,train
781,-0.9994140267372131,-1.0,2021-01-21 23:49:25.278000+00:00,train
782,-0.9990967512130737,-1.0,2021-01-21 23:49:55.278000+00:00,train
783,-0.9989707469940186,-1.0,2021-01-21 23:50:25.278000+00:00,train
784,-0.9988491535186768,-1.0,2021-01-21 23:50:55.278000+00:00,train
785,-0.9987459182739258,-1.0,2021-01-21 23:51:25.278000+00:00,train
786,-0.9986631870269775,-1.0,2021-01-21 23:51:55.278000+00:00,train
787,-0.9986025094985962,-1.0,2021-01-21 23:52:25.278000+00:00,train
788,-0.9985555410385132,-1.0,2021-01-21 23:52:55.278000+00:00,train
789,-0.9985188245773315,-1.0,2021-01-21 23:53:25.278000+00:00,train
790,-0.9985031485557556,-1.0,2021-01-21 23:53:55.278000+00:00,train
791,-0.9985032677650452,-1.0,2021-01-21 23:54:25.278000+00:00,train
792,-0.9985160231590271,-1.0,2021-01-21 23:54:55.278000+00:00,train
793,-0.998538076877594,-1.0,2021-01-21 23:55:25.278000+00:00,train
794,-0.9985631108283997,-1.0,2021-01-21 23:55:55.278000+00:00,train
795,-0.998591423034668,-1.0,2021-01-21 23:56:25.278000+00:00,train
796,-0.9986216425895691,-1.0,2021-01-21 23:56:55.278000+00:00,train
797,-0.9986452460289001,-1.0,2021-01-21 23:57:25.278000+00:00,train
798,-0.9986728429794312,-1.0,2021-01-21 23:57:55.278000+00:00,train
799,-1.0,-1.0,2021-01-21 23:58:25.278000+00:00,train
800,-1.0,-1.0,2021-01-21 23:58:55.278000+00:00,train
801,-1.0,-1.0,2021-01-21 23:59:25.278000+00:00,train
802,-1.0,-1.0,2021-01-21 23:59:55.278000+00:00,train
803,-1.0,-1.0,2021-01-22 00:00:25.278000+00:00,train
804,-1.0,-1.0,2021-01-22 00:00:55.278000+00:00,train
805,-1.0,-1.0,2021-01-22 00:01:25.278000+00:00,train
806,-1.0,-1.0,2021-01-22 00:01:55.278000+00:00,train
807,-1.0,-1.0,2021-01-22 00:02:25.278000+00:00,train
808,-1.0,-1.0,2021-01-22 00:02:55.278000+00:00,train
809,-1.0,-1.0,2021-01-22 00:03:25.278000+00:00,train
810,-1.0,-1.0,2021-01-22 00:03:55.278000+00:00,train
811,-1.0,-1.0,2021-01-22 00:04:25.278000+00:00,train
812,-1.0,-1.0,2021-01-22 00:04:55.278000+00:00,train
813,-1.0,-1.0,2021-01-22 00:05:25.278000+00:00,train
814,-1.0,-1.0,2021-01-22 00:05:55.278000+00:00,train
815,-1.0,-1.0,2021-01-22 00:06:25.278000+00:00,train
816,-1.0,-1.0,2021-01-22 00:06:55.278000+00:00,train
817,-1.0,-1.0,2021-01-22 00:07:25.278000+00:00,train
818,-1.0,-1.0,2021-01-22 00:07:55.278000+00:00,train
819,-1.0,-1.0,2021-01-22 00:08:25.278000+00:00,train
820,-1.0,-1.0,2021-01-22 00:08:55.278000+00:00,train
821,-1.0,-1.0,2021-01-22 00:09:25.278000+00:00,train
822,-1.0,-1.0,2021-01-22 00:09:55.278000+00:00,train
823,-1.0,-1.0,2021-01-22 00:10:25.278000+00:00,train
824,-1.0,-1.0,2021-01-22 00:10:55.278000+00:00,train
825,-1.0,-1.0,2021-01-22 00:11:25.278000+00:00,train
826,-1.0,-1.0,2021-01-22 00:11:55.278000+00:00,train
827,-1.0,-1.0,2021-01-22 00:12:25.278000+00:00,train
828,-1.0,-1.0,2021-01-22 00:12:55.278000+00:00,train
829,-1.0,-1.0,2021-01-22 00:13:25.278000+00:00,train
830,-1.0,-1.0,2021-01-22 00:13:55.278000+00:00,train
831,-1.0,-1.0,2021-01-22 00:14:25.278000+00:00,train
832,-1.0,-1.0,2021-01-22 00:14:55.278000+00:00,train
833,-1.0,-1.0,2021-01-22 00:15:25.278000+00:00,train
834,-1.0,-1.0,2021-01-22 00:15:55.278000+00:00,train
835,-1.0,-1.0,2021-01-22 00:16:25.278000+00:00,train
836,-1.0,-1.0,2021-01-22 00:16:55.278000+00:00,train
837,-1.0,-1.0,2021-01-22 00:17:25.278000+00:00,train
838,-1.0,-1.0,2021-01-22 00:17:55.278000+00:00,train
839,-1.0,-1.0,2021-01-22 00:18:25.278000+00:00,train
840,-1.0,-1.0,2021-01-22 00:18:55.278000+00:00,train
841,-1.0,-1.0,2021-01-22 00:19:25.278000+00:00,train
842,-1.0,-1.0,2021-01-22 00:19:55.278000+00:00,train
843,-1.0,-1.0,2021-01-22 00:20:25.278000+00:00,train
844,-1.0,-1.0,2021-01-22 00:20:55.278000+00:00,train
845,-1.0,-1.0,2021-01-22 00:21:25.278000+00:00,train
846,-1.0,-1.0,2021-01-22 00:21:55.278000+00:00,train
847,-1.0,-1.0,2021-01-22 00:22:25.278000+00:00,train
848,-1.0,-1.0,2021-01-22 00:22:55.278000+00:00,train
849,-1.0,-1.0,2021-01-22 00:23:25.278000+00:00,train
850,-1.0,-1.0,2021-01-22 00:23:55.278000+00:00,train
851,-1.0,-1.0,2021-01-22 00:24:25.278000+00:00,train
852,-1.0,-1.0,2021-01-22 00:24:55.278000+00:00,train
853,-1.0,-1.0,2021-01-22 00:25:25.278000+00:00,train
854,-1.0,-1.0,2021-01-22 00:25:55.278000+00:00,train
855,-1.0,-1.0,2021-01-22 00:26:25.278000+00:00,train
856,-1.0,-1.0,2021-01-22 00:26:55.278000+00:00,train
857,-1.0,-1.0,2021-01-22 00:27:25.278000+00:00,train
858,-1.0,-1.0,2021-01-22 00:27:55.278000+00:00,train
859,-1.0,-1.0,2021-01-22 00:28:25.278000+00:00,train
860,-1.0,-1.0,2021-01-22 00:28:55.278000+00:00,train
861,-1.0,-1.0,2021-01-22 00:29:25.278000+00:00,train
862,-1.0,-1.0,2021-01-22 00:29:55.278000+00:00,train
863,-1.0,-1.0,2021-01-22 00:30:25.278000+00:00,train
864,-1.0,-1.0,2021-01-22 00:30:55.278000+00:00,train
865,-1.0,-1.0,2021-01-22 00:31:25.278000+00:00,train
866,-1.0,-1.0,2021-01-22 00:31:55.278000+00:00,train
867,-1.0,-1.0,2021-01-22 00:32:25.278000+00:00,train
868,-1.0,-1.0,2021-01-22 00:32:55.278000+00:00,train
869,-1.0,-1.0,2021-01-22 00:33:25.278000+00:00,train
870,-1.0,-1.0,2021-01-22 00:33:55.278000+00:00,train
871,-1.0,-1.0,2021-01-22 00:34:25.278000+00:00,train
872,-1.0,-1.0,2021-01-22 00:34:55.278000+00:00,train
873,-1.0,-1.0,2021-01-22 00:35:25.278000+00:00,train
874,-1.0,-1.0,2021-01-22 00:35:55.278000+00:00,train
875,-1.0,-1.0,2021-01-22 00:36:25.278000+00:00,train
876,-1.0,-1.0,2021-01-22 00:36:55.278000+00:00,train
877,-1.0,-1.0,2021-01-22 00:37:25.278000+00:00,train
878,-1.0,-1.0,2021-01-22 00:37:55.278000+00:00,train
879,-1.0,-1.0,2021-01-22 00:38:25.278000+00:00,train
880,-1.0,-1.0,2021-01-22 00:38:55.278000+00:00,train
881,-1.0,-1.0,2021-01-22 00:39:25.278000+00:00,train
882,-1.0,-1.0,2021-01-22 00:39:55.278000+00:00,train
883,-1.0,-1.0,2021-01-22 00:40:25.278000+00:00,train
884,-1.0,-1.0,2021-01-22 00:40:55.278000+00:00,train
885,-1.0,-1.0,2021-01-22 00:41:25.278000+00:00,train
886,-1.0,-1.0,2021-01-22 00:41:55.278000+00:00,train
887,-1.0,-1.0,2021-01-22 00:42:25.278000+00:00,train
888,-1.0,-1.0,2021-01-22 00:42:55.278000+00:00,train
889,-1.0,-1.0,2021-01-22 00:43:25.278000+00:00,train
890,-1.0,-1.0,2021-01-22 00:43:55.278000+00:00,train
891,-1.0,-1.0,2021-01-22 00:44:25.278000+00:00,train
892,-1.0,-1.0,2021-01-22 00:44:55.278000+00:00,train
893,-1.0,-1.0,2021-01-22 00:45:25.278000+00:00,train
894,-1.0,-1.0,2021-01-22 00:45:55.278000+00:00,train
895,-1.0,-1.0,2021-01-22 00:46:25.278000+00:00,train
896,-1.0,-1.0,2021-01-22 00:46:55.278000+00:00,train
897,-1.0,-1.0,2021-01-22 00:47:25.278000+00:00,train
898,-1.0,-1.0,2021-01-22 00:47:55.278000+00:00,train
899,-1.0,-1.0,2021-01-22 00:48:25.278000+00:00,train
900,-1.0,-1.0,2021-01-22 00:48:55.278000+00:00,train
901,-1.0,-1.0,2021-01-22 00:49:25.278000+00:00,train
902,-1.0,-1.0,2021-01-22 00:49:55.278000+00:00,train
903,-1.0,-1.0,2021-01-22 00:50:25.278000+00:00,train
904,-1.0,-1.0,2021-01-22 00:50:55.278000+00:00,train
905,-1.0,-1.0,2021-01-22 00:51:25.278000+00:00,train
906,-1.0,-1.0,2021-01-22 00:51:55.278000+00:00,train
907,-1.0,-1.0,2021-01-22 00:52:25.278000+00:00,train
908,-1.0,-1.0,2021-01-22 00:52:55.278000+00:00,train
909,-1.0,-1.0,2021-01-22 00:53:25.278000+00:00,train
910,-1.0,-1.0,2021-01-22 00:53:55.278000+00:00,train
911,-1.0,-1.0,2021-01-22 00:54:25.278000+00:00,train
912,-1.0,-1.0,2021-01-22 00:54:55.278000+00:00,train
913,-1.0,-1.0,2021-01-22 00:55:25.278000+00:00,train
914,-1.0,-1.0,2021-01-22 00:55:55.278000+00:00,train
915,-1.0,-1.0,2021-01-22 00:56:25.278000+00:00,train
916,-1.0,-1.0,2021-01-22 00:56:55.278000+00:00,train
917,-1.0,-1.0,2021-01-22 00:57:25.278000+00:00,train
918,-1.0,-1.0,2021-01-22 00:57:55.278000+00:00,train
919,-1.0,-1.0,2021-01-22 00:58:25.278000+00:00,train
920,-1.0,-1.0,2021-01-22 00:58:55.278000+00:00,train
921,-1.0,-1.0,2021-01-22 00:59:25.278000+00:00,train
922,-1.0,-1.0,2021-01-22 00:59:55.278000+00:00,train
923,-1.0,-1.0,2021-01-22 01:00:25.278000+00:00,train
924,-1.0,-1.0,2021-01-22 01:00:55.278000+00:00,train
925,-1.0,-1.0,2021-01-22 01:01:25.278000+00:00,train
926,-1.0,-1.0,2021-01-22 01:01:55.278000+00:00,train
927,-1.0,-1.0,2021-01-22 01:02:25.278000+00:00,train
928,-1.0,-1.0,2021-01-22 01:02:55.278000+00:00,train
929,-1.0,-1.0,2021-01-22 01:03:25.278000+00:00,train
930,-1.0,-1.0,2021-01-22 01:03:55.278000+00:00,train
931,-1.0,-1.0,2021-01-22 01:04:25.278000+00:00,train
932,-1.0,-1.0,2021-01-22 01:04:55.278000+00:00,train
933,-1.0,-1.0,2021-01-22 01:05:25.278000+00:00,train
934,-1.0,-1.0,2021-01-22 01:05:55.278000+00:00,train
935,-1.0,-1.0,2021-01-22 01:06:25.278000+00:00,train
936,-1.0,-1.0,2021-01-22 01:06:55.278000+00:00,train
937,-1.0,-1.0,2021-01-22 01:07:25.278000+00:00,train
938,-1.0,-1.0,2021-01-22 01:07:55.278000+00:00,train
939,-1.0,-1.0,2021-01-22 01:08:25.278000+00:00,train
940,-1.0,-1.0,2021-01-22 01:08:55.278000+00:00,train
941,-1.0,-1.0,2021-01-22 01:09:25.278000+00:00,train
942,-1.0,-1.0,2021-01-22 01:09:55.278000+00:00,train
943,-1.0,-1.0,2021-01-22 01:10:25.278000+00:00,train
944,-1.0,-1.0,2021-01-22 01:10:55.278000+00:00,train
945,-1.0,-1.0,2021-01-22 01:11:25.278000+00:00,train
946,-1.0,-1.0,2021-01-22 01:11:55.278000+00:00,train
947,-1.0,-1.0,2021-01-22 01:12:25.278000+00:00,train
948,-1.0,-1.0,2021-01-22 01:12:55.278000+00:00,train
949,-1.0,-1.0,2021-01-22 01:13:25.278000+00:00,train
950,-1.0,-1.0,2021-01-22 01:13:55.278000+00:00,train
951,-1.0,-1.0,2021-01-22 01:14:25.278000+00:00,train
952,-1.0,-1.0,2021-01-22 01:14:55.278000+00:00,train
953,-1.0,-1.0,2021-01-22 01:15:25.278000+00:00,train
954,-1.0,-1.0,2021-01-22 01:15:55.278000+00:00,train
955,-1.0,-1.0,2021-01-22 01:16:25.278000+00:00,train
956,-1.0,-1.0,2021-01-22 01:16:55.278000+00:00,train
957,-1.0,-1.0,2021-01-22 01:17:25.278000+00:00,train
958,-1.0,-1.0,2021-01-22 01:17:55.278000+00:00,train
959,-1.0,-1.0,2021-01-22 01:18:25.278000+00:00,train
960,-1.0,-1.0,2021-01-22 01:18:55.278000+00:00,train
961,-1.0,-1.0,2021-01-22 01:19:25.278000+00:00,train
962,-1.0,-1.0,2021-01-22 01:19:55.278000+00:00,train
963,-1.0,-1.0,2021-01-22 01:20:25.278000+00:00,train
964,-1.0,-1.0,2021-01-22 01:20:55.278000+00:00,train
965,-1.0,-1.0,2021-01-22 01:21:25.278000+00:00,train
966,-1.0,-1.0,2021-01-22 01:21:55.278000+00:00,train
967,-1.0,-1.0,2021-01-22 01:22:25.278000+00:00,train
968,-1.0,-1.0,2021-01-22 01:22:55.278000+00:00,train
969,-1.0,-1.0,2021-01-22 01:23:25.278000+00:00,train
970,-1.0,-1.0,2021-01-22 01:23:55.278000+00:00,train
971,-1.0,-1.0,2021-01-22 01:24:25.278000+00:00,train
972,-1.0,-1.0,2021-01-22 01:24:55.278000+00:00,train
973,-1.0,-1.0,2021-01-22 01:25:25.278000+00:00,train
974,-1.0,-1.0,2021-01-22 01:25:55.278000+00:00,train
975,-1.0,-1.0,2021-01-22 01:26:25.278000+00:00,train
976,-1.0,-1.0,2021-01-22 01:26:55.278000+00:00,train
977,-1.0,-1.0,2021-01-22 01:27:25.278000+00:00,train
978,-1.0,-1.0,2021-01-22 01:27:55.278000+00:00,train
979,-1.0,-1.0,2021-01-22 01:28:25.278000+00:00,train
980,-1.0,-1.0,2021-01-22 01:28:55.278000+00:00,train
981,-1.0,-1.0,2021-01-22 01:29:25.278000+00:00,train
982,-1.0,-1.0,2021-01-22 01:29:55.278000+00:00,train
983,-1.0,-1.0,2021-01-22 01:30:25.278000+00:00,train
984,-1.0,-1.0,2021-01-22 01:30:55.278000+00:00,train
985,-1.0,-1.0,2021-01-22 01:31:25.278000+00:00,train
986,-1.0,-1.0,2021-01-22 01:31:55.278000+00:00,train
987,-1.0,-1.0,2021-01-22 01:32:25.278000+00:00,train
988,-1.0,0.0,2021-01-22 01:32:55.278000+00:00,train
989,-1.0,0.0,2021-01-22 01:33:25.278000+00:00,train
990,-1.0,0.0,2021-01-22 01:33:55.278000+00:00,train
991,-1.0,0.0,2021-01-22 01:34:25.278000+00:00,train
992,-1.0,0.0,2021-01-22 01:34:55.278000+00:00,train
993,-1.0,0.0,2021-01-22 01:35:25.278000+00:00,train
994,-1.0,0.0,2021-01-22 01:35:55.278000+00:00,train
995,-1.0,0.0,2021-01-22 01:36:25.278000+00:00,train
996,-1.0,0.0,2021-01-22 01:36:55.278000+00:00,train
997,-1.0,0.0,2021-01-22 01:37:25.278000+00:00,train
998,-1.0,-1.0,2021-01-22 01:37:55.278000+00:00,train
999,-1.0,0.0,2021-01-22 01:38:25.278000+00:00,train
1000,-1.0,0.0,2021-01-22 01:38:55.278000+00:00,train
1001,-1.0,0.0,2021-01-22 01:39:25.278000+00:00,train
1002,-1.0,0.0,2021-01-22 01:39:55.278000+00:00,train
1003,-0.811852216720581,0.0,2021-01-22 01:40:25.278000+00:00,train
1004,-0.7294972538948059,0.0,2021-01-22 01:40:55.278000+00:00,train
1005,-0.6649468541145325,0.0,2021-01-22 01:41:25.278000+00:00,train
1006,-0.6098952293395996,0.0,2021-01-22 01:41:55.278000+00:00,train
1007,-0.5611478090286255,0.0,2021-01-22 01:42:25.278000+00:00,train
1008,-0.5171366333961487,0.0,2021-01-22 01:42:55.278000+00:00,train
1009,-0.47700807452201843,0.0,2021-01-22 01:43:25.278000+00:00,train
1010,-0.4403378665447235,0.0,2021-01-22 01:43:55.278000+00:00,train
1011,-0.40700793266296387,0.0,2021-01-22 01:44:25.278000+00:00,train
1012,-0.37717708945274353,0.0,2021-01-22 01:44:55.278000+00:00,train
1013,-0.3773972690105438,0.0,2021-01-22 01:45:25.278000+00:00,train
1014,-0.351596862077713,0.0,2021-01-22 01:45:55.278000+00:00,train
1015,-0.3304964005947113,0.0,2021-01-22 01:46:25.278000+00:00,train
1016,-0.31508299708366394,0.0,2021-01-22 01:46:55.278000+00:00,train
1017,-0.3064733147621155,0.0,2021-01-22 01:47:25.278000+00:00,train
1018,-0.30722716450691223,0.0,2021-01-22 01:47:55.278000+00:00,train
1019,-0.3230534493923187,0.0,2021-01-22 01:48:25.278000+00:00,train
1020,-0.3372192680835724,0.0,2021-01-22 01:48:55.278000+00:00,train
1021,-0.3290494382381439,0.0,2021-01-22 01:49:25.278000+00:00,train
1022,-0.312343955039978,0.0,2021-01-22 01:49:55.278000+00:00,train
1023,-0.295001745223999,0.0,2021-01-22 01:50:25.278000+00:00,train
1024,-0.27806219458580017,0.0,2021-01-22 01:50:55.278000+00:00,train
1025,-0.261104941368103,0.0,2021-01-22 01:51:25.278000+00:00,train
1026,-0.2439498007297516,0.0,2021-01-22 01:51:55.278000+00:00,train
1027,-0.2268780767917633,0.0,2021-01-22 01:52:25.278000+00:00,train
1028,-0.21006470918655396,0.0,2021-01-22 01:52:55.278000+00:00,train
1029,-0.1935608983039856,0.0,2021-01-22 01:53:25.278000+00:00,train
1030,-0.17734694480895996,0.0,2021-01-22 01:53:55.278000+00:00,train
1031,-0.1614023894071579,0.0,2021-01-22 01:54:25.278000+00:00,train
1032,-0.1457216739654541,0.0,2021-01-22 01:54:55.278000+00:00,train
1033,-0.13030721247196198,0.0,2021-01-22 01:55:25.278000+00:00,train
1034,-0.11516386270523071,0.0,2021-01-22 01:55:55.278000+00:00,train
1035,-0.1002952829003334,0.0,2021-01-22 01:56:25.278000+00:00,train
1036,-0.0857047438621521,0.0,2021-01-22 01:56:55.278000+00:00,train
1037,-0.07139372080564499,0.0,2021-01-22 01:57:25.278000+00:00,train
1038,-0.057361867278814316,0.0,2021-01-22 01:57:55.278000+00:00,train
1039,-0.0436081700026989,0.0,2021-01-22 01:58:25.278000+00:00,train
1040,-0.030130675062537193,0.0,2021-01-22 01:58:55.278000+00:00,train
1041,-0.016927367076277733,0.0,2021-01-22 01:59:25.278000+00:00,train
1042,-0.003995508421212435,0.0,2021-01-22 01:59:55.278000+00:00,train
1043,0.008667826652526855,0.0,2021-01-22 02:00:25.278000+00:00,train
1044,0.02106550894677639,0.0,2021-01-22 02:00:55.278000+00:00,train
1045,0.03319982811808586,0.0,2021-01-22 02:01:25.278000+00:00,train
1046,0.045073144137859344,0.0,2021-01-22 02:01:55.278000+00:00,train
1047,0.05668921396136284,0.0,2021-01-22 02:02:25.278000+00:00,train
1048,0.06804700940847397,0.0,2021-01-22 02:02:55.278000+00:00,train
1049,0.07914984226226807,0.0,2021-01-22 02:03:25.278000+00:00,train
1050,0.09000052511692047,0.0,2021-01-22 02:03:55.278000+00:00,train
1051,0.10060080140829086,0.0,2021-01-22 02:04:25.278000+00:00,train
1052,0.11095239967107773,0.0,2021-01-22 02:04:55.278000+00:00,train
1053,0.12105685472488403,0.0,2021-01-22 02:05:25.278000+00:00,train
1054,0.1309148520231247,0.0,2021-01-22 02:05:55.278000+00:00,train
1055,0.14052651822566986,0.0,2021-01-22 02:06:25.278000+00:00,train
1056,0.14989106357097626,0.0,2021-01-22 02:06:55.278000+00:00,train
1057,-0.09540321677923203,0.0,2021-01-22 02:07:25.278000+00:00,train
1058,-0.08797615766525269,0.0,2021-01-22 02:07:55.278000+00:00,train
1059,-0.08054306358098984,0.0,2021-01-22 02:08:25.278000+00:00,train
1060,-0.07314076274633408,0.0,2021-01-22 02:08:55.278000+00:00,train
1061,-0.06578504294157028,0.0,2021-01-22 02:09:25.278000+00:00,train
1062,-0.05847931653261185,0.0,2021-01-22 02:09:55.278000+00:00,train
1063,-0.05121741443872452,0.0,2021-01-22 02:10:25.278000+00:00,train
1064,-0.04398644343018532,0.0,2021-01-22 02:10:55.278000+00:00,train
1065,-0.03676983341574669,0.0,2021-01-22 02:11:25.278000+00:00,train
1066,-0.029552247375249863,0.0,2021-01-22 02:11:55.278000+00:00,train
1067,-0.0223261509090662,0.0,2021-01-22 02:12:25.278000+00:00,train
1068,-0.01510193943977356,0.0,2021-01-22 02:12:55.278000+00:00,train
1069,-0.007919950410723686,0.0,2021-01-22 02:13:25.278000+00:00,train
1070,-0.0012884330935776234,0.0,2021-01-22 02:13:55.278000+00:00,train
1071,0.005193938966840506,0.0,2021-01-22 02:14:25.278000+00:00,train
1072,0.010900248773396015,0.0,2021-01-22 02:14:55.278000+00:00,train
1073,0.014929497614502907,0.0,2021-01-22 02:15:25.278000+00:00,train
1074,0.015870679169893265,0.0,2021-01-22 02:15:55.278000+00:00,train
1075,0.011073751375079155,0.0,2021-01-22 02:16:25.278000+00:00,train
1076,-0.004519340116530657,0.0,2021-01-22 02:16:55.278000+00:00,train
1077,-0.026643015444278717,0.0,2021-01-22 02:17:25.278000+00:00,train
1078,-0.036275714635849,0.0,2021-01-22 02:17:55.278000+00:00,train
1079,-0.03659231215715408,0.0,2021-01-22 02:18:25.278000+00:00,train
1080,-0.03414028137922287,0.0,2021-01-22 02:18:55.278000+00:00,train
1081,-0.030860604718327522,0.0,2021-01-22 02:19:25.278000+00:00,train
1082,-0.027275603264570236,0.0,2021-01-22 02:19:55.278000+00:00,train
1083,-0.023528004065155983,0.0,2021-01-22 02:20:25.278000+00:00,train
1084,-0.01953217200934887,0.0,2021-01-22 02:20:55.278000+00:00,train
1085,-0.015224487520754337,0.0,2021-01-22 02:21:25.278000+00:00,train
1086,-0.010627634823322296,0.0,2021-01-22 02:21:55.278000+00:00,train
1087,-0.005815162323415279,0.0,2021-01-22 02:22:25.278000+00:00,train
1088,-0.0008705198997631669,0.0,2021-01-22 02:22:55.278000+00:00,train
1089,0.00413512485101819,0.0,2021-01-22 02:23:25.278000+00:00,train
1090,0.009122167713940144,0.0,2021-01-22 02:23:55.278000+00:00,train
1091,0.014024491421878338,0.0,2021-01-22 02:24:25.278000+00:00,train
1092,0.018778305500745773,0.0,2021-01-22 02:24:55.278000+00:00,train
1093,0.023318922147154808,0.0,2021-01-22 02:25:25.278000+00:00,train
1094,0.027575727552175522,0.0,2021-01-22 02:25:55.278000+00:00,val
1095,0.03146824613213539,0.0,2021-01-22 02:26:25.278000+00:00,val
1096,0.03489689528942108,0.0,2021-01-22 02:26:55.278000+00:00,val
1097,0.037729211151599884,0.0,2021-01-22 02:27:25.278000+00:00,val
1098,0.0398668609559536,0.0,2021-01-22 02:27:55.278000+00:00,val
1099,0.04107281565666199,0.0,2021-01-22 02:28:25.278000+00:00,val
1100,0.04085078090429306,0.0,2021-01-22 02:28:55.278000+00:00,val
1101,0.038413871079683304,0.0,2021-01-22 02:29:25.278000+00:00,val
1102,0.03424173593521118,0.0,2021-01-22 02:29:55.278000+00:00,val
1103,0.03424261510372162,0.0,2021-01-22 02:30:25.278000+00:00,val
1104,0.03424350544810295,0.0,2021-01-22 02:30:55.278000+00:00,val
1105,0.034244418144226074,0.0,2021-01-22 02:31:25.278000+00:00,val
1106,0.03424534574151039,0.0,2021-01-22 02:31:55.278000+00:00,val
1107,0.03424627333879471,0.0,2021-01-22 02:32:25.278000+00:00,val
1108,0.034247249364852905,0.0,2021-01-22 02:32:55.278000+00:00,val
1109,0.03424825146794319,0.0,2021-01-22 02:33:25.278000+00:00,val
1110,0.03424911946058273,0.0,2021-01-22 02:33:55.278000+00:00,val
1111,0.03424912691116333,0.0,2021-01-22 02:34:25.278000+00:00,val
1112,0.03425183147192001,0.0,2021-01-22 02:34:55.278000+00:00,val
1113,0.0,0.0,2021-01-22 02:35:25.278000+00:00,val
1114,0.0,0.0,2021-01-22 02:35:55.278000+00:00,val
1115,0.0,0.0,2021-01-22 02:36:25.278000+00:00,val
1116,0.0,0.0,2021-01-22 02:36:55.278000+00:00,val
1117,0.0,0.0,2021-01-22 02:37:25.278000+00:00,val
1118,0.0,0.0,2021-01-22 02:37:55.278000+00:00,val
1119,0.0,0.0,2021-01-22 02:38:25.278000+00:00,val
1120,0.0,0.0,2021-01-22 02:38:55.278000+00:00,val
1121,0.0,0.0,2021-01-22 02:39:25.278000+00:00,val
1122,0.0,0.0,2021-01-22 02:39:55.278000+00:00,val
1123,0.0,0.0,2021-01-22 02:40:25.278000+00:00,val
1124,0.0,0.0,2021-01-22 02:40:55.278000+00:00,val
1125,0.0,0.0,2021-01-22 02:41:25.278000+00:00,val
1126,0.0,0.0,2021-01-22 02:41:55.278000+00:00,val
1127,0.0,0.0,2021-01-22 02:42:25.278000+00:00,val
1128,0.0,0.0,2021-01-22 02:42:55.278000+00:00,val
1129,0.0,0.0,2021-01-22 02:43:25.278000+00:00,val
1130,0.0,0.0,2021-01-22 02:43:55.278000+00:00,val
1131,0.0,0.0,2021-01-22 02:44:25.278000+00:00,val
1132,0.0,0.0,2021-01-22 02:44:55.278000+00:00,val
1133,0.0,0.0,2021-01-22 02:45:25.278000+00:00,val
1134,0.0,0.0,2021-01-22 02:45:55.278000+00:00,val
1135,0.0,0.0,2021-01-22 02:46:25.278000+00:00,val
1136,0.0,0.0,2021-01-22 02:46:55.278000+00:00,val
1137,0.0,0.0,2021-01-22 02:47:25.278000+00:00,val
1138,0.0,0.0,2021-01-22 02:47:55.278000+00:00,val
1139,0.0,0.0,2021-01-22 02:48:25.278000+00:00,val
1140,0.0,0.0,2021-01-22 02:48:55.278000+00:00,val
1141,0.0,0.0,2021-01-22 02:49:25.278000+00:00,val
1142,0.0,0.0,2021-01-22 02:49:55.278000+00:00,val
1143,0.0,0.0,2021-01-22 02:50:25.278000+00:00,val
1144,0.0,0.0,2021-01-22 02:50:55.278000+00:00,val
1145,0.0,0.0,2021-01-22 02:51:25.278000+00:00,val
1146,0.0,0.0,2021-01-22 02:51:55.278000+00:00,val
1147,0.0,0.0,2021-01-22 02:52:25.278000+00:00,val
1148,0.0,0.0,2021-01-22 02:52:55.278000+00:00,val
1149,0.0,0.0,2021-01-22 02:53:25.278000+00:00,val
1150,0.0,0.0,2021-01-22 02:53:55.278000+00:00,val
1151,0.0,0.0,2021-01-22 02:54:25.278000+00:00,val
1152,0.0,0.0,2021-01-22 02:54:55.278000+00:00,val
1153,0.0,0.0,2021-01-22 02:55:25.278000+00:00,val
1154,0.0,0.0,2021-01-22 02:55:55.278000+00:00,val
1155,0.0,0.0,2021-01-22 02:56:25.278000+00:00,val
1156,0.0,0.0,2021-01-22 02:56:55.278000+00:00,val
1157,0.0,0.0,2021-01-22 02:57:25.278000+00:00,val
1158,0.0,0.0,2021-01-22 02:57:55.278000+00:00,val
1159,0.0,0.0,2021-01-22 02:58:25.278000+00:00,val
1160,0.0,0.0,2021-01-22 02:58:55.278000+00:00,val
1161,0.0,0.0,2021-01-22 02:59:25.278000+00:00,val
1162,0.0,0.0,2021-01-22 02:59:55.278000+00:00,val
1163,0.0,0.0,2021-01-22 03:00:25.278000+00:00,val
1164,0.0,0.0,2021-01-22 03:00:55.278000+00:00,val
1165,0.0,0.0,2021-01-22 03:01:25.278000+00:00,val
1166,0.0,0.0,2021-01-22 03:01:55.278000+00:00,val
1167,0.0,0.0,2021-01-22 03:02:25.278000+00:00,val
1168,0.0,0.0,2021-01-22 03:02:55.278000+00:00,val
1169,0.0,0.0,2021-01-22 03:03:25.278000+00:00,val
1170,0.0,0.0,2021-01-22 03:03:55.278000+00:00,val
1171,0.0,0.0,2021-01-22 03:04:25.278000+00:00,val
1172,0.0,0.0,2021-01-22 03:04:55.278000+00:00,val
1173,0.0,0.0,2021-01-22 03:05:25.278000+00:00,val
1174,0.0,0.0,2021-01-22 03:05:55.278000+00:00,val
1175,0.0,0.0,2021-01-22 03:06:25.278000+00:00,val
1176,0.0,0.0,2021-01-22 03:06:55.278000+00:00,val
1177,0.0,0.0,2021-01-22 03:07:25.278000+00:00,val
1178,0.0,0.0,2021-01-22 03:07:55.278000+00:00,val
1179,0.0,0.0,2021-01-22 03:08:25.278000+00:00,val
1180,0.0,0.0,2021-01-22 03:08:55.278000+00:00,val
1181,0.0,0.0,2021-01-22 03:09:25.278000+00:00,val
1182,0.0,0.0,2021-01-22 03:09:55.278000+00:00,val
1183,0.0,0.0,2021-01-22 03:10:25.278000+00:00,val
1184,0.0,0.0,2021-01-22 03:10:55.278000+00:00,val
1185,0.0,0.0,2021-01-22 03:11:25.278000+00:00,val
1186,0.0,0.0,2021-01-22 03:11:55.278000+00:00,val
1187,0.0,0.0,2021-01-22 03:12:25.278000+00:00,val
1188,0.0,0.0,2021-01-22 03:12:55.278000+00:00,val
1189,0.0,0.0,2021-01-22 03:13:25.278000+00:00,val
1190,0.0,0.0,2021-01-22 03:13:55.278000+00:00,val
1191,0.0,0.0,2021-01-22 03:14:25.278000+00:00,val
1192,0.0,0.0,2021-01-22 03:14:55.278000+00:00,val
1193,0.0,0.0,2021-01-22 03:15:25.278000+00:00,val
1194,0.0,0.0,2021-01-22 03:15:55.278000+00:00,val
1195,0.0,0.0,2021-01-22 03:16:25.278000+00:00,val
1196,0.0,0.0,2021-01-22 03:16:55.278000+00:00,val
1197,0.0,0.0,2021-01-22 03:17:25.278000+00:00,val
1198,0.0,0.0,2021-01-22 03:17:55.278000+00:00,val
1199,0.0,0.0,2021-01-22 03:18:25.278000+00:00,val
1200,0.0,0.0,2021-01-22 03:18:55.278000+00:00,val
1201,0.0,0.0,2021-01-22 03:19:25.278000+00:00,val
1202,0.0,0.0,2021-01-22 03:19:55.278000+00:00,val
1203,0.0,0.0,2021-01-22 03:20:25.278000+00:00,val
1204,0.0,0.0,2021-01-22 03:20:55.278000+00:00,val
1205,0.0,0.0,2021-01-22 03:21:25.278000+00:00,val
1206,0.0,0.0,2021-01-22 03:21:55.278000+00:00,val
1207,0.0,0.0,2021-01-22 03:22:25.278000+00:00,val
1208,0.0,0.0,2021-01-22 03:22:55.278000+00:00,val
1209,0.0,0.0,2021-01-22 03:23:25.278000+00:00,val
1210,0.0,0.0,2021-01-22 03:23:55.278000+00:00,val
1211,0.0,0.0,2021-01-22 03:24:25.278000+00:00,val
1212,0.0,0.0,2021-01-22 03:24:55.278000+00:00,val
1213,0.0,0.0,2021-01-22 03:25:25.278000+00:00,val
1214,0.0,0.0,2021-01-22 03:25:55.278000+00:00,val
1215,0.0,0.0,2021-01-22 03:26:25.278000+00:00,val
1216,0.0,0.0,2021-01-22 03:26:55.278000+00:00,val
1217,0.0,0.0,2021-01-22 03:27:25.278000+00:00,val
1218,0.0,0.0,2021-01-22 03:27:55.278000+00:00,val
1219,0.0,0.0,2021-01-22 03:28:25.278000+00:00,val
1220,0.0,0.0,2021-01-22 03:28:55.278000+00:00,val
1221,0.0,0.0,2021-01-22 03:29:25.278000+00:00,val
1222,0.0,0.0,2021-01-22 03:29:55.278000+00:00,val
1223,0.0,0.0,2021-01-22 03:30:25.278000+00:00,val
1224,0.0,0.0,2021-01-22 03:30:55.278000+00:00,val
1225,0.0,0.0,2021-01-22 03:31:25.278000+00:00,val
1226,0.0,0.0,2021-01-22 03:31:55.278000+00:00,val
1227,0.0,0.0,2021-01-22 03:32:25.278000+00:00,val
1228,0.0,0.0,2021-01-22 03:32:55.278000+00:00,val
1229,0.0,0.0,2021-01-22 03:33:25.278000+00:00,val
1230,0.0,0.0,2021-01-22 03:33:55.278000+00:00,val
1231,0.0,0.0,2021-01-22 03:34:25.278000+00:00,val
1232,0.0,0.0,2021-01-22 03:34:55.278000+00:00,val
1233,0.0,0.0,2021-01-22 03:35:25.278000+00:00,val
1234,0.0,0.0,2021-01-22 03:35:55.278000+00:00,val
1235,0.0,0.0,2021-01-22 03:36:25.278000+00:00,val
1236,0.0,0.0,2021-01-22 03:36:55.278000+00:00,val
1237,0.0,0.0,2021-01-22 03:37:25.278000+00:00,val
1238,0.0,0.0,2021-01-22 03:37:55.278000+00:00,val
1239,0.0,0.0,2021-01-22 03:38:25.278000+00:00,val
1240,0.0,0.0,2021-01-22 03:38:55.278000+00:00,val
1241,0.0,0.0,2021-01-22 03:39:25.278000+00:00,val
1242,0.0,0.0,2021-01-22 03:39:55.278000+00:00,val
1243,0.0,0.0,2021-01-22 03:40:25.278000+00:00,val
1244,0.0,0.0,2021-01-22 03:40:55.278000+00:00,val
1245,0.0,0.0,2021-01-22 03:41:25.278000+00:00,val
1246,0.0,0.0,2021-01-22 03:41:55.278000+00:00,val
1247,0.0,0.0,2021-01-22 03:42:25.278000+00:00,val
1248,0.0,0.0,2021-01-22 03:42:55.278000+00:00,val
1249,0.0,0.0,2021-01-22 03:43:25.278000+00:00,val
1250,0.0,0.0,2021-01-22 03:43:55.278000+00:00,val
1251,0.0,0.0,2021-01-22 03:44:25.278000+00:00,val
1252,0.0,0.0,2021-01-22 03:44:55.278000+00:00,val
1253,0.0,0.0,2021-01-22 03:45:25.278000+00:00,val
1254,0.0,0.0,2021-01-22 03:45:55.278000+00:00,val
1255,0.0,0.0,2021-01-22 03:46:25.278000+00:00,val
1256,0.0,0.0,2021-01-22 03:46:55.278000+00:00,val
1257,0.0,0.0,2021-01-22 03:47:25.278000+00:00,val
1258,0.0,0.0,2021-01-22 03:47:55.278000+00:00,val
1259,0.0,0.0,2021-01-22 03:48:25.278000+00:00,val
1260,0.0,0.0,2021-01-22 03:48:55.278000+00:00,val
1261,0.0,0.0,2021-01-22 03:49:25.278000+00:00,val
1262,0.0,0.0,2021-01-22 03:49:55.278000+00:00,val
1263,0.0,0.0,2021-01-22 03:50:25.278000+00:00,val
1264,0.0,0.0,2021-01-22 03:50:55.278000+00:00,val
1265,0.0,0.0,2021-01-22 03:51:25.278000+00:00,val
1266,0.0,0.0,2021-01-22 03:51:55.278000+00:00,val
1267,0.0,0.0,2021-01-22 03:52:25.278000+00:00,val
1268,0.0,0.0,2021-01-22 03:52:55.278000+00:00,val
1269,0.0,0.0,2021-01-22 03:53:25.278000+00:00,val
1270,0.0,0.0,2021-01-22 03:53:55.278000+00:00,val
1271,0.0,0.0,2021-01-22 03:54:25.278000+00:00,val
1272,0.0,0.0,2021-01-22 03:54:55.278000+00:00,val
1273,0.0,0.0,2021-01-22 03:55:25.278000+00:00,val
1274,0.0,0.0,2021-01-22 03:55:55.278000+00:00,val
1275,0.0,0.0,2021-01-22 03:56:25.278000+00:00,val
1276,0.0,0.0,2021-01-22 03:56:55.278000+00:00,val
1277,0.0,0.0,2021-01-22 03:57:25.278000+00:00,val
1278,0.0,0.0,2021-01-22 03:57:55.278000+00:00,val
1279,0.0,0.0,2021-01-22 03:58:25.278000+00:00,val
1280,0.0,0.0,2021-01-22 03:58:55.278000+00:00,val
1281,0.0,0.0,2021-01-22 03:59:25.278000+00:00,val
1282,0.0,0.0,2021-01-22 03:59:55.278000+00:00,val
1283,0.0,0.0,2021-01-22 04:00:25.278000+00:00,val
1284,0.0,0.0,2021-01-22 04:00:55.278000+00:00,val
1285,0.0,0.0,2021-01-22 04:01:25.278000+00:00,val
1286,0.0,0.0,2021-01-22 04:01:55.278000+00:00,val
1287,0.0,0.0,2021-01-22 04:02:25.278000+00:00,val
1288,0.0,0.0,2021-01-22 04:02:55.278000+00:00,val
1289,0.0,0.0,2021-01-22 04:03:25.278000+00:00,val
1290,0.0,0.0,2021-01-22 04:03:55.278000+00:00,val
1291,0.0,0.0,2021-01-22 04:04:25.278000+00:00,val
1292,0.0,0.0,2021-01-22 04:04:55.278000+00:00,val
1293,0.0,0.0,2021-01-22 04:05:25.278000+00:00,val
1294,0.0,0.0,2021-01-22 04:05:55.278000+00:00,val
1295,0.0,0.0,2021-01-22 04:06:25.278000+00:00,val
1296,0.0,0.0,2021-01-22 04:06:55.278000+00:00,val
1297,0.0,0.0,2021-01-22 04:07:25.278000+00:00,val
1298,0.0,0.0,2021-01-22 04:07:55.278000+00:00,val
1299,0.0,0.0,2021-01-22 04:08:25.278000+00:00,val
1300,0.0,0.0,2021-01-22 04:08:55.278000+00:00,val
1301,0.0,0.0,2021-01-22 04:09:25.278000+00:00,val
1302,0.0,0.0,2021-01-22 04:09:55.278000+00:00,val
1303,0.0,0.0,2021-01-22 04:10:25.278000+00:00,val
1304,0.0,0.0,2021-01-22 04:10:55.278000+00:00,val
1305,0.0,0.0,2021-01-22 04:11:25.278000+00:00,val
1306,0.0,0.0,2021-01-22 04:11:55.278000+00:00,val
1307,0.0,0.0,2021-01-22 04:12:25.278000+00:00,val
1308,0.0,0.0,2021-01-22 04:12:55.278000+00:00,val
1309,0.0,0.0,2021-01-22 04:13:25.278000+00:00,val
1310,0.0,0.0,2021-01-22 04:13:55.278000+00:00,val
1311,0.0,0.0,2021-01-22 04:14:25.278000+00:00,val
1312,0.0,0.0,2021-01-22 04:14:55.278000+00:00,val
1313,0.0,0.0,2021-01-22 04:15:25.278000+00:00,val
1314,0.0,0.0,2021-01-22 04:15:55.278000+00:00,val
1315,0.0,0.0,2021-01-22 04:16:25.278000+00:00,val
1316,0.0,0.0,2021-01-22 04:16:55.278000+00:00,val
1317,0.0,0.0,2021-01-22 04:17:25.278000+00:00,val
1318,0.0,0.0,2021-01-22 04:17:55.278000+00:00,val
1319,0.0,0.0,2021-01-22 04:18:25.278000+00:00,val
1320,0.0,0.0,2021-01-22 04:18:55.278000+00:00,val
1321,0.0,0.0,2021-01-22 04:19:25.278000+00:00,val
1322,0.0,0.0,2021-01-22 04:19:55.278000+00:00,val
1323,0.0,0.0,2021-01-22 04:20:25.278000+00:00,val
1324,0.0,0.0,2021-01-22 04:20:55.278000+00:00,val
1325,0.0,0.0,2021-01-22 04:21:25.278000+00:00,val
1326,0.0,0.0,2021-01-22 04:21:55.278000+00:00,val
1327,0.0,0.0,2021-01-22 04:22:25.278000+00:00,val
1328,0.0,0.0,2021-01-22 04:22:55.278000+00:00,val
1329,0.0,0.0,2021-01-22 04:23:25.278000+00:00,val
1330,0.0,0.0,2021-01-22 04:23:55.278000+00:00,val
1331,0.0,0.0,2021-01-22 04:24:25.278000+00:00,val
1332,0.0,0.0,2021-01-22 04:24:55.278000+00:00,val
1333,0.0,0.0,2021-01-22 04:25:25.278000+00:00,val
1334,0.0,0.0,2021-01-22 04:25:55.278000+00:00,val
1335,0.0,0.0,2021-01-22 04:26:25.278000+00:00,val
1336,0.0,0.0,2021-01-22 04:26:55.278000+00:00,val
1337,0.0,0.0,2021-01-22 04:27:25.278000+00:00,val
1338,0.0,0.0,2021-01-22 04:27:55.278000+00:00,val
1339,0.0,0.0,2021-01-22 04:28:25.278000+00:00,val
1340,0.0,0.0,2021-01-22 04:28:55.278000+00:00,val
1341,0.0,0.0,2021-01-22 04:29:25.278000+00:00,val
1342,0.0,0.0,2021-01-22 04:29:55.278000+00:00,val
1343,0.0,0.0,2021-01-22 04:30:25.278000+00:00,val
1344,0.0,0.0,2021-01-22 04:30:55.278000+00:00,val
1345,0.0,0.0,2021-01-22 04:31:25.278000+00:00,val
1346,0.0,0.0,2021-01-22 04:31:55.278000+00:00,val
1347,0.0,0.0,2021-01-22 04:32:25.278000+00:00,val
1348,0.0,0.0,2021-01-22 04:32:55.278000+00:00,val
1349,0.0,0.0,2021-01-22 04:33:25.278000+00:00,val
1350,0.0,0.0,2021-01-22 04:33:55.278000+00:00,val
1351,0.0,0.0,2021-01-22 04:34:25.278000+00:00,val
1352,0.0,0.0,2021-01-22 04:34:55.278000+00:00,val
1353,0.0,0.0,2021-01-22 04:35:25.278000+00:00,val
1354,0.0,0.0,2021-01-22 04:35:55.278000+00:00,val
1355,0.0,0.0,2021-01-22 04:36:25.278000+00:00,val
1356,0.0,0.0,2021-01-22 04:36:55.278000+00:00,val
1357,0.0,0.0,2021-01-22 04:37:25.278000+00:00,val
1358,0.0,0.0,2021-01-22 04:37:55.278000+00:00,val
1359,0.0,0.0,2021-01-22 04:38:25.278000+00:00,val
1360,0.0,0.0,2021-01-22 04:38:55.278000+00:00,val
1361,0.0,0.0,2021-01-22 04:39:25.278000+00:00,val
1362,0.0,0.0,2021-01-22 04:39:55.278000+00:00,val
1363,0.0,0.0,2021-01-22 04:40:25.278000+00:00,val
1364,0.0,0.0,2021-01-22 04:40:55.278000+00:00,val
1365,0.0,0.0,2021-01-22 04:41:25.278000+00:00,val
1366,0.0,0.0,2021-01-22 04:41:55.278000+00:00,val
1367,0.0,0.0,2021-01-22 04:42:25.278000+00:00,val
1368,0.0,0.0,2021-01-22 04:42:55.278000+00:00,val
1369,0.0,0.0,2021-01-22 04:43:25.278000+00:00,val
1370,0.0,0.0,2021-01-22 04:43:55.278000+00:00,val
1371,0.0,0.0,2021-01-22 04:44:25.278000+00:00,val
1372,0.0,0.0,2021-01-22 04:44:55.278000+00:00,val
1373,0.0,0.0,2021-01-22 04:45:25.278000+00:00,val
1374,0.0,0.0,2021-01-22 04:45:55.278000+00:00,val
1375,0.0,0.0,2021-01-22 04:46:25.278000+00:00,val
1376,0.0,0.0,2021-01-22 04:46:55.278000+00:00,val
1377,0.0,0.0,2021-01-22 04:47:25.278000+00:00,val
1378,0.0,0.0,2021-01-22 04:47:55.278000+00:00,val
1379,0.0,0.0,2021-01-22 04:48:25.278000+00:00,val
1380,0.0,0.0,2021-01-22 04:48:55.278000+00:00,val
1381,0.0,0.0,2021-01-22 04:49:25.278000+00:00,val
1382,0.0,0.0,2021-01-22 04:49:55.278000+00:00,val
1383,0.0,0.0,2021-01-22 04:50:25.278000+00:00,val
1384,0.0,0.0,2021-01-22 04:50:55.278000+00:00,val
1385,0.0,0.0,2021-01-22 04:51:25.278000+00:00,val
1386,0.0,0.0,2021-01-22 04:51:55.278000+00:00,val
1387,0.0,0.0,2021-01-22 04:52:25.278000+00:00,val
1388,0.0,0.0,2021-01-22 04:52:55.278000+00:00,val
1389,0.0,0.0,2021-01-22 04:53:25.278000+00:00,val
1390,0.0,0.0,2021-01-22 04:53:55.278000+00:00,val
1391,0.0,0.0,2021-01-22 04:54:25.278000+00:00,val
1392,0.0,0.0,2021-01-22 04:54:55.278000+00:00,val
1393,0.0,0.0,2021-01-22 04:55:25.278000+00:00,val
1394,0.0,0.0,2021-01-22 04:55:55.278000+00:00,val
1395,0.0,0.0,2021-01-22 04:56:25.278000+00:00,val
1396,0.0,0.0,2021-01-22 04:56:55.278000+00:00,val
1397,0.0,0.0,2021-01-22 04:57:25.278000+00:00,val
1398,0.0,0.0,2021-01-22 04:57:55.278000+00:00,val
1399,0.0,0.0,2021-01-22 04:58:25.278000+00:00,val
1400,0.0,0.0,2021-01-22 04:58:55.278000+00:00,val
1401,0.0,0.0,2021-01-22 04:59:25.278000+00:00,val
1402,0.0,0.0,2021-01-22 04:59:55.278000+00:00,val
1403,0.0,0.0,2021-01-22 05:00:25.278000+00:00,val
1404,0.0,0.0,2021-01-22 05:00:55.278000+00:00,val
1405,0.0,0.0,2021-01-22 05:01:25.278000+00:00,val
1406,0.0,0.0,2021-01-22 05:01:55.278000+00:00,val
1407,0.0,0.0,2021-01-22 05:02:25.278000+00:00,val
1408,0.0,0.0,2021-01-22 05:02:55.278000+00:00,val
1409,0.0,0.0,2021-01-22 05:03:25.278000+00:00,val
1410,0.0,0.0,2021-01-22 05:03:55.278000+00:00,val
1411,0.0,0.0,2021-01-22 05:04:25.278000+00:00,val
1412,0.0,0.0,2021-01-22 05:04:55.278000+00:00,val
1413,0.0,0.0,2021-01-22 05:05:25.278000+00:00,val
1414,0.0,0.0,2021-01-22 05:05:55.278000+00:00,val
1415,0.0,0.0,2021-01-22 05:06:25.278000+00:00,val
1416,0.0,0.0,2021-01-22 05:06:55.278000+00:00,val
1417,0.0,0.0,2021-01-22 05:07:25.278000+00:00,val
1418,0.0,0.0,2021-01-22 05:07:55.278000+00:00,val
1419,0.0,0.0,2021-01-22 05:08:25.278000+00:00,val
1420,0.0,0.0,2021-01-22 05:08:55.278000+00:00,val
1421,0.0,0.0,2021-01-22 05:09:25.278000+00:00,val
1422,0.0,0.0,2021-01-22 05:09:55.278000+00:00,val
1423,0.0,0.0,2021-01-22 05:10:25.278000+00:00,val
1424,0.0,0.0,2021-01-22 05:10:55.278000+00:00,val
1425,0.0,0.0,2021-01-22 05:11:25.278000+00:00,val
1426,0.0,0.0,2021-01-22 05:11:55.278000+00:00,val
1427,0.0,0.0,2021-01-22 05:12:25.278000+00:00,val
1428,0.0,0.0,2021-01-22 05:12:55.278000+00:00,val
1429,0.0,0.0,2021-01-22 05:13:25.278000+00:00,val
1430,0.0,0.0,2021-01-22 05:13:55.278000+00:00,val
1431,0.0,0.0,2021-01-22 05:14:25.278000+00:00,val
1432,0.0,0.0,2021-01-22 05:14:55.278000+00:00,val
1433,0.0,0.0,2021-01-22 05:15:25.278000+00:00,val
1434,0.0,0.0,2021-01-22 05:15:55.278000+00:00,val
1435,0.0,0.0,2021-01-22 05:16:25.278000+00:00,val
1436,0.0,0.0,2021-01-22 05:16:55.278000+00:00,val
1437,0.0,0.0,2021-01-22 05:17:25.278000+00:00,val
1438,0.0,0.0,2021-01-22 05:17:55.278000+00:00,test
1439,0.0,0.0,2021-01-22 05:18:25.278000+00:00,test
1440,0.0,0.0,2021-01-22 05:18:55.278000+00:00,test
1441,0.0,0.0,2021-01-22 05:19:25.278000+00:00,test
1442,0.0,0.0,2021-01-22 05:19:55.278000+00:00,test
1443,0.0,0.0,2021-01-22 05:20:25.278000+00:00,test
1444,0.0,0.0,2021-01-22 05:20:55.278000+00:00,test
1445,0.0,0.0,2021-01-22 05:21:25.278000+00:00,test
1446,0.0,0.0,2021-01-22 05:21:55.278000+00:00,test
1447,0.0,0.0,2021-01-22 05:22:25.278000+00:00,test
1448,0.0,0.0,2021-01-22 05:22:55.278000+00:00,test
1449,0.0,0.0,2021-01-22 05:23:25.278000+00:00,test
1450,0.0,0.0,2021-01-22 05:23:55.278000+00:00,test
1451,0.0,0.0,2021-01-22 05:24:25.278000+00:00,test
1452,0.0,0.0,2021-01-22 05:24:55.278000+00:00,test
1453,0.0,0.0,2021-01-22 05:25:25.278000+00:00,test
1454,0.0,0.0,2021-01-22 05:25:55.278000+00:00,test
1455,0.0,0.0,2021-01-22 05:26:25.278000+00:00,test
1456,0.0,0.0,2021-01-22 05:26:55.278000+00:00,test
1457,0.0,0.0,2021-01-22 05:27:25.278000+00:00,test
1458,0.0,0.0,2021-01-22 05:27:55.278000+00:00,test
1459,0.0,0.0,2021-01-22 05:28:25.278000+00:00,test
1460,0.0,0.0,2021-01-22 05:28:55.278000+00:00,test
1461,0.0,0.0,2021-01-22 05:29:25.278000+00:00,test
1462,0.0,0.0,2021-01-22 05:29:55.278000+00:00,test
1463,0.0,0.0,2021-01-22 05:30:25.278000+00:00,test
1464,0.0,0.0,2021-01-22 05:30:55.278000+00:00,test
1465,0.0,0.0,2021-01-22 05:31:25.278000+00:00,test
1466,0.0,0.0,2021-01-22 05:31:55.278000+00:00,test
1467,0.0,0.0,2021-01-22 05:32:25.278000+00:00,test
1468,0.0,0.0,2021-01-22 05:32:55.278000+00:00,test
1469,0.0,0.0,2021-01-22 05:33:25.278000+00:00,test
1470,0.0,0.0,2021-01-22 05:33:55.278000+00:00,test
1471,0.0,0.0,2021-01-22 05:34:25.278000+00:00,test
1472,0.0,0.0,2021-01-22 05:34:55.278000+00:00,test
1473,0.0,0.0,2021-01-22 05:35:25.278000+00:00,test
1474,0.0,0.0,2021-01-22 05:35:55.278000+00:00,test
1475,0.0,0.0,2021-01-22 05:36:25.278000+00:00,test
1476,0.0,0.0,2021-01-22 05:36:55.278000+00:00,test
1477,0.0,0.0,2021-01-22 05:37:25.278000+00:00,test
1478,0.0,0.0,2021-01-22 05:37:55.278000+00:00,test
1479,0.0,0.0,2021-01-22 05:38:25.278000+00:00,test
1480,0.0,0.0,2021-01-22 05:38:55.278000+00:00,test
1481,0.0,0.0,2021-01-22 05:39:25.278000+00:00,test
1482,0.0,0.0,2021-01-22 05:39:55.278000+00:00,test
1483,0.0,0.0,2021-01-22 05:40:25.278000+00:00,test
1484,0.0,0.0,2021-01-22 05:40:55.278000+00:00,test
1485,0.0,0.0,2021-01-22 05:41:25.278000+00:00,test
1486,0.0,0.0,2021-01-22 05:41:55.278000+00:00,test
1487,0.0,0.0,2021-01-22 05:42:25.278000+00:00,test
1488,0.0,0.0,2021-01-22 05:42:55.278000+00:00,test
1489,0.0,0.0,2021-01-22 05:43:25.278000+00:00,test
1490,0.0,0.0,2021-01-22 05:43:55.278000+00:00,test
1491,0.0,0.0,2021-01-22 05:44:25.278000+00:00,test
1492,0.0,0.0,2021-01-22 05:44:55.278000+00:00,test
1493,0.0,0.0,2021-01-22 05:45:25.278000+00:00,test
1494,0.0,0.0,2021-01-22 05:45:55.278000+00:00,test
1495,0.0,0.0,2021-01-22 05:46:25.278000+00:00,test
1496,0.0,0.0,2021-01-22 05:46:55.278000+00:00,test
1497,0.0,0.0,2021-01-22 05:47:25.278000+00:00,test
1498,0.0,0.0,2021-01-22 05:47:55.278000+00:00,test
1499,0.0,0.0,2021-01-22 05:48:25.278000+00:00,test
1500,0.0,0.0,2021-01-22 05:48:55.278000+00:00,test
1501,0.0,0.0,2021-01-22 05:49:25.278000+00:00,test
1502,0.0,0.0,2021-01-22 05:49:55.278000+00:00,test
1503,0.0,0.0,2021-01-22 05:50:25.278000+00:00,test
1504,0.0,0.0,2021-01-22 05:50:55.278000+00:00,test
1505,0.0,0.0,2021-01-22 05:51:25.278000+00:00,test
1506,0.0,0.0,2021-01-22 05:51:55.278000+00:00,test
1507,0.0,0.0,2021-01-22 05:52:25.278000+00:00,test
1508,0.0,0.0,2021-01-22 05:52:55.278000+00:00,test
1509,0.0,0.0,2021-01-22 05:53:25.278000+00:00,test
1510,0.0,0.0,2021-01-22 05:53:55.278000+00:00,test
1511,0.0,0.0,2021-01-22 05:54:25.278000+00:00,test
1512,0.0,0.0,2021-01-22 05:54:55.278000+00:00,test
1513,0.0,0.0,2021-01-22 05:55:25.278000+00:00,test
1514,0.0,0.0,2021-01-22 05:55:55.278000+00:00,test
1515,0.0,0.0,2021-01-22 05:56:25.278000+00:00,test
1516,0.0,0.0,2021-01-22 05:56:55.278000+00:00,test
1517,0.0,0.0,2021-01-22 05:57:25.278000+00:00,test
1518,0.0,0.0,2021-01-22 05:57:55.278000+00:00,test
1519,0.0,0.0,2021-01-22 05:58:25.278000+00:00,test
1520,0.0,0.0,2021-01-22 05:58:55.278000+00:00,test
1521,0.0,0.0,2021-01-22 05:59:25.278000+00:00,test
1522,0.0,0.0,2021-01-22 05:59:55.278000+00:00,test
1523,0.0,0.0,2021-01-22 06:00:25.278000+00:00,test
1524,0.0,0.0,2021-01-22 06:00:55.278000+00:00,test
1525,0.0,0.0,2021-01-22 06:01:25.278000+00:00,test
1526,0.0,0.0,2021-01-22 06:01:55.278000+00:00,test
1527,0.0,0.0,2021-01-22 06:02:25.278000+00:00,test
1528,0.0,0.0,2021-01-22 06:02:55.278000+00:00,test
1529,0.0,0.0,2021-01-22 06:03:25.278000+00:00,test
1530,0.0,0.0,2021-01-22 06:03:55.278000+00:00,test
1531,0.0,0.0,2021-01-22 06:04:25.278000+00:00,test
1532,0.0,0.0,2021-01-22 06:04:55.278000+00:00,test
1533,0.0,0.0,2021-01-22 06:05:25.278000+00:00,test
1534,0.0,0.0,2021-01-22 06:05:55.278000+00:00,test
1535,0.0,0.0,2021-01-22 06:06:25.278000+00:00,test
1536,0.0,0.0,2021-01-22 06:06:55.278000+00:00,test
1537,0.0,0.0,2021-01-22 06:07:25.278000+00:00,test
1538,0.0,0.0,2021-01-22 06:07:55.278000+00:00,test
1539,0.0,0.0,2021-01-22 06:08:25.278000+00:00,test
1540,0.0,0.0,2021-01-22 06:08:55.278000+00:00,test
1541,0.0,0.0,2021-01-22 06:09:25.278000+00:00,test
1542,0.0,0.0,2021-01-22 06:09:55.278000+00:00,test
1543,0.0,0.0,2021-01-22 06:10:25.278000+00:00,test
1544,0.0,0.0,2021-01-22 06:10:55.278000+00:00,test
1545,0.0,0.0,2021-01-22 06:11:25.278000+00:00,test
1546,0.0,0.0,2021-01-22 06:11:55.278000+00:00,test
1547,0.0,0.0,2021-01-22 06:12:25.278000+00:00,test
1548,0.0,0.0,2021-01-22 06:12:55.278000+00:00,test
1549,0.0,0.0,2021-01-22 06:13:25.278000+00:00,test
1550,0.0,0.0,2021-01-22 06:13:55.278000+00:00,test
1551,0.0,0.0,2021-01-22 06:14:25.278000+00:00,test
1552,0.0,0.0,2021-01-22 06:14:55.278000+00:00,test
1553,0.0,0.0,2021-01-22 06:15:25.278000+00:00,test
1554,0.0,0.0,2021-01-22 06:15:55.278000+00:00,test
1555,0.0,0.0,2021-01-22 06:16:25.278000+00:00,test
1556,0.0,0.0,2021-01-22 06:16:55.278000+00:00,test
1557,0.0,0.0,2021-01-22 06:17:25.278000+00:00,test
1558,0.0,0.0,2021-01-22 06:17:55.278000+00:00,test
1559,0.0,0.0,2021-01-22 06:18:25.278000+00:00,test
1560,0.0,0.0,2021-01-22 06:18:55.278000+00:00,test
1561,0.0,0.0,2021-01-22 06:19:25.278000+00:00,test
1562,0.0,0.0,2021-01-22 06:19:55.278000+00:00,test
1563,0.0,0.0,2021-01-22 06:20:25.278000+00:00,test
1564,0.0,0.0,2021-01-22 06:20:55.278000+00:00,test
1565,0.0,0.0,2021-01-22 06:21:25.278000+00:00,test
1566,0.0,0.0,2021-01-22 06:21:55.278000+00:00,test
1567,0.0,0.0,2021-01-22 06:22:25.278000+00:00,test
1568,0.0,0.0,2021-01-22 06:22:55.278000+00:00,test
1569,0.0,0.0,2021-01-22 06:23:25.278000+00:00,test
1570,0.0,0.0,2021-01-22 06:23:55.278000+00:00,test
1571,0.0,0.0,2021-01-22 06:24:25.278000+00:00,test
1572,0.0,0.0,2021-01-22 06:24:55.278000+00:00,test
1573,0.0,0.0,2021-01-22 06:25:25.278000+00:00,test
1574,0.0,0.0,2021-01-22 06:25:55.278000+00:00,test
1575,0.0,0.0,2021-01-22 06:26:25.278000+00:00,test
1576,0.0,0.0,2021-01-22 06:26:55.278000+00:00,test
1577,0.0,0.0,2021-01-22 06:27:25.278000+00:00,test
1578,0.0,0.0,2021-01-22 06:27:55.278000+00:00,test
1579,0.0,0.0,2021-01-22 06:28:25.278000+00:00,test
1580,0.0,0.0,2021-01-22 06:28:55.278000+00:00,test
1581,0.0,0.0,2021-01-22 06:29:25.278000+00:00,test
1582,0.0,0.0,2021-01-22 06:29:55.278000+00:00,test
1583,0.0,0.0,2021-01-22 06:30:25.278000+00:00,test
1584,0.0,0.0,2021-01-22 06:30:55.278000+00:00,test
1585,0.0,0.0,2021-01-22 06:31:25.278000+00:00,test
1586,0.0,0.0,2021-01-22 06:31:55.278000+00:00,test
1587,0.0,0.0,2021-01-22 06:32:25.278000+00:00,test
1588,0.0,0.0,2021-01-22 06:32:55.278000+00:00,test
1589,0.0,0.0,2021-01-22 06:33:25.278000+00:00,test
1590,0.0,0.0,2021-01-22 06:33:55.278000+00:00,test
1591,0.0,0.0,2021-01-22 06:34:25.278000+00:00,test
1592,0.0,0.0,2021-01-22 06:34:55.278000+00:00,test
1593,0.0,0.0,2021-01-22 06:35:25.278000+00:00,test
1594,0.0,0.0,2021-01-22 06:35:55.278000+00:00,test
1595,0.0,0.0,2021-01-22 06:36:25.278000+00:00,test
1596,0.0,0.0,2021-01-22 06:36:55.278000+00:00,test
1597,0.0,0.0,2021-01-22 06:37:25.278000+00:00,test
1598,0.0,0.0,2021-01-22 06:37:55.278000+00:00,test
1599,0.0,0.0,2021-01-22 06:38:25.278000+00:00,test
1600,0.0,0.0,2021-01-22 06:38:55.278000+00:00,test
1601,0.0,0.0,2021-01-22 06:39:25.278000+00:00,test
1602,0.0,0.0,2021-01-22 06:39:55.278000+00:00,test
1603,0.0,0.0,2021-01-22 06:40:25.278000+00:00,test
1604,0.0,0.0,2021-01-22 06:40:55.278000+00:00,test
1605,0.0,0.0,2021-01-22 06:41:25.278000+00:00,test
