,prediction,real,time,split
0,-8.146613121032715,-8.0,2021-01-21 17:20:55.278000+00:00,train
1,-8.095141410827637,-7.0,2021-01-21 17:21:25.278000+00:00,train
2,-8.047597885131836,-7.0,2021-01-21 17:21:55.278000+00:00,train
3,-8.004084587097168,-7.0,2021-01-21 17:22:25.278000+00:00,train
4,-7.96471643447876,-7.0,2021-01-21 17:22:55.278000+00:00,train
5,-7.910337448120117,-7.0,2021-01-21 17:23:25.278000+00:00,train
6,-7.858839511871338,-7.0,2021-01-21 17:23:55.278000+00:00,train
7,-7.810247898101807,-7.0,2021-01-21 17:24:25.278000+00:00,train
8,-7.7646074295043945,-7.0,2021-01-21 17:24:55.278000+00:00,train
9,-7.721971035003662,-7.0,2021-01-21 17:25:25.278000+00:00,train
10,-7.682394981384277,-7.0,2021-01-21 17:25:55.278000+00:00,train
11,-7.645954132080078,-7.0,2021-01-21 17:26:25.278000+00:00,train
12,-7.612714767456055,-7.0,2021-01-21 17:26:55.278000+00:00,train
13,-7.5828142166137695,-7.0,2021-01-21 17:27:25.278000+00:00,train
14,-7.556354522705078,-7.0,2021-01-21 17:27:55.278000+00:00,train
15,-7.533473968505859,-7.0,2021-01-21 17:28:25.278000+00:00,train
16,-7.514326572418213,-7.0,2021-01-21 17:28:55.278000+00:00,train
17,-7.499093532562256,-7.0,2021-01-21 17:29:25.278000+00:00,train
18,-7.466748237609863,-7.0,2021-01-21 17:29:55.278000+00:00,train
19,-7.4368157386779785,-7.0,2021-01-21 17:30:25.278000+00:00,train
20,-7.376924514770508,-7.0,2021-01-21 17:30:55.278000+00:00,train
21,-7.320313453674316,-7.0,2021-01-21 17:31:25.278000+00:00,train
22,-7.266997814178467,-7.0,2021-01-21 17:31:55.278000+00:00,train
23,-7.217015743255615,-7.0,2021-01-21 17:32:25.278000+00:00,train
24,-7.170414924621582,-7.0,2021-01-21 17:32:55.278000+00:00,train
25,-7.127254009246826,-7.0,2021-01-21 17:33:25.278000+00:00,train
26,-7.0876145362854,-7.0,2021-01-21 17:33:55.278000+00:00,train
27,-7.051590919494629,-7.0,2021-01-21 17:34:25.278000+00:00,train
28,-7.019296169281006,-7.0,2021-01-21 17:34:55.278000+00:00,train
29,-6.970983028411865,-7.0,2021-01-21 17:35:25.278000+00:00,train
30,-6.925086498260498,-7.0,2021-01-21 17:35:55.278000+00:00,train
31,-6.881624221801758,-7.0,2021-01-21 17:36:25.278000+00:00,train
32,-6.8406243324279785,-7.0,2021-01-21 17:36:55.278000+00:00,train
33,-6.802118301391602,-7.0,2021-01-21 17:37:25.278000+00:00,train
34,-6.766149520874023,-6.0,2021-01-21 17:37:55.278000+00:00,train
35,-6.7327728271484375,-6.0,2021-01-21 17:38:25.278000+00:00,train
36,-6.702049255371094,-6.0,2021-01-21 17:38:55.278000+00:00,train
37,-6.674054145812988,-6.0,2021-01-21 17:39:25.278000+00:00,train
38,-6.6488752365112305,-6.0,2021-01-21 17:39:55.278000+00:00,train
39,-6.626615047454834,-6.0,2021-01-21 17:40:25.278000+00:00,train
40,-6.607396125793457,-6.0,2021-01-21 17:40:55.278000+00:00,train
41,-6.591364860534668,-6.0,2021-01-21 17:41:25.278000+00:00,train
42,-6.578690052032471,-6.0,2021-01-21 17:41:55.278000+00:00,train
43,-6.569582462310791,-6.0,2021-01-21 17:42:25.278000+00:00,train
44,-6.542568206787109,-6.0,2021-01-21 17:42:55.278000+00:00,train
45,-6.5176472663879395,-6.0,2021-01-21 17:43:25.278000+00:00,train
46,-6.494932651519775,-6.0,2021-01-21 17:43:55.278000+00:00,train
47,-6.474455833435059,-6.0,2021-01-21 17:44:25.278000+00:00,train
48,-6.456119060516357,-6.0,2021-01-21 17:44:55.278000+00:00,train
49,-6.43983268737793,-6.0,2021-01-21 17:45:25.278000+00:00,train
50,-6.425507068634033,-6.0,2021-01-21 17:45:55.278000+00:00,train
51,-6.413175106048584,-6.0,2021-01-21 17:46:25.278000+00:00,train
52,-6.402992248535156,-6.0,2021-01-21 17:46:55.278000+00:00,train
53,-6.362800121307373,-6.0,2021-01-21 17:47:25.278000+00:00,train
54,-6.325629234313965,-6.0,2021-01-21 17:47:55.278000+00:00,train
55,-6.291583061218262,-6.0,2021-01-21 17:48:25.278000+00:00,train
56,-6.260765075683594,-6.0,2021-01-21 17:48:55.278000+00:00,train
57,-6.2332658767700195,-6.0,2021-01-21 17:49:25.278000+00:00,train
58,-6.188162326812744,-6.0,2021-01-21 17:49:55.278000+00:00,train
59,-6.145085334777832,-6.0,2021-01-21 17:50:25.278000+00:00,train
60,-6.104022026062012,-6.0,2021-01-21 17:50:55.278000+00:00,train
61,-6.064975738525391,-6.0,2021-01-21 17:51:25.278000+00:00,train
62,-6.027953147888184,-6.0,2021-01-21 17:51:55.278000+00:00,train
63,-5.992971897125244,-6.0,2021-01-21 17:52:25.278000+00:00,train
64,-5.960054397583008,-6.0,2021-01-21 17:52:55.278000+00:00,train
65,-5.929228782653809,-6.0,2021-01-21 17:53:25.278000+00:00,train
66,-5.900532245635986,-5.0,2021-01-21 17:53:55.278000+00:00,train
67,-5.874007701873779,-5.0,2021-01-21 17:54:25.278000+00:00,train
68,-5.849710464477539,-5.0,2021-01-21 17:54:55.278000+00:00,train
69,-5.827701568603516,-5.0,2021-01-21 17:55:25.278000+00:00,train
70,-5.808056831359863,-5.0,2021-01-21 17:55:55.278000+00:00,train
71,-5.7908616065979,-5.0,2021-01-21 17:56:25.278000+00:00,train
72,-5.776217937469482,-5.0,2021-01-21 17:56:55.278000+00:00,train
73,-5.764242172241211,-5.0,2021-01-21 17:57:25.278000+00:00,train
74,-5.755071640014648,-5.0,2021-01-21 17:57:55.278000+00:00,train
75,-5.748870849609375,-5.0,2021-01-21 17:58:25.278000+00:00,train
76,-5.745830535888672,-5.0,2021-01-21 17:58:55.278000+00:00,train
77,-5.746176719665527,-5.0,2021-01-21 17:59:25.278000+00:00,train
78,-5.750184535980225,-5.0,2021-01-21 17:59:55.278000+00:00,train
79,-5.731483459472656,-5.0,2021-01-21 18:00:25.278000+00:00,train
80,-5.7143378257751465,-5.0,2021-01-21 18:00:55.278000+00:00,train
81,-5.698792934417725,-5.0,2021-01-21 18:01:25.278000+00:00,train
82,-5.684898376464844,-5.0,2021-01-21 18:01:55.278000+00:00,train
83,-5.672708511352539,-5.0,2021-01-21 18:02:25.278000+00:00,train
84,-5.662292957305908,-5.0,2021-01-21 18:02:55.278000+00:00,train
85,-5.617191314697266,-5.0,2021-01-21 18:03:25.278000+00:00,train
86,-5.5748066902160645,-5.0,2021-01-21 18:03:55.278000+00:00,train
87,-5.535132884979248,-5.0,2021-01-21 18:04:25.278000+00:00,train
88,-5.498176097869873,-5.0,2021-01-21 18:04:55.278000+00:00,train
89,-5.463955402374268,-5.0,2021-01-21 18:05:25.278000+00:00,train
90,-5.432509422302246,-5.0,2021-01-21 18:05:55.278000+00:00,train
91,-5.3850789070129395,-5.0,2021-01-21 18:06:25.278000+00:00,train
92,-5.339353084564209,-5.0,2021-01-21 18:06:55.278000+00:00,train
93,-5.295286655426025,-5.0,2021-01-21 18:07:25.278000+00:00,train
94,-5.252830982208252,-5.0,2021-01-21 18:07:55.278000+00:00,train
95,-5.211945533752441,-5.0,2021-01-21 18:08:25.278000+00:00,train
96,-5.172603607177734,-5.0,2021-01-21 18:08:55.278000+00:00,train
97,-5.1347761154174805,-5.0,2021-01-21 18:09:25.278000+00:00,train
98,-5.098480224609375,-5.0,2021-01-21 18:09:55.278000+00:00,train
99,-5.0636444091796875,-5.0,2021-01-21 18:10:25.278000+00:00,train
100,-5.030266284942627,-5.0,2021-01-21 18:10:55.278000+00:00,train
101,-4.9983344078063965,-5.0,2021-01-21 18:11:25.278000+00:00,train
102,-4.967855453491211,-5.0,2021-01-21 18:11:55.278000+00:00,train
103,-4.9388298988342285,-5.0,2021-01-21 18:12:25.278000+00:00,train
104,-4.911254405975342,-5.0,2021-01-21 18:12:55.278000+00:00,train
105,-4.885148048400879,-5.0,2021-01-21 18:13:25.278000+00:00,train
106,-4.8605194091796875,-5.0,2021-01-21 18:13:55.278000+00:00,train
107,-4.8373799324035645,-5.0,2021-01-21 18:14:25.278000+00:00,train
108,-4.815759181976318,-5.0,2021-01-21 18:14:55.278000+00:00,train
109,-4.795683860778809,-5.0,2021-01-21 18:15:25.278000+00:00,train
110,-4.777174949645996,-5.0,2021-01-21 18:15:55.278000+00:00,train
111,-4.76028299331665,-5.0,2021-01-21 18:16:25.278000+00:00,train
112,-4.745051383972168,-5.0,2021-01-21 18:16:55.278000+00:00,train
113,-4.731518268585205,-5.0,2021-01-21 18:17:25.278000+00:00,train
114,-4.719758987426758,-4.0,2021-01-21 18:17:55.278000+00:00,train
115,-4.709840297698975,-4.0,2021-01-21 18:18:25.278000+00:00,train
116,-4.701831817626953,-4.0,2021-01-21 18:18:55.278000+00:00,train
117,-4.695840835571289,-4.0,2021-01-21 18:19:25.278000+00:00,train
118,-4.6919755935668945,-4.0,2021-01-21 18:19:55.278000+00:00,train
119,-4.6903510093688965,-4.0,2021-01-21 18:20:25.278000+00:00,train
120,-4.67144775390625,-4.0,2021-01-21 18:20:55.278000+00:00,train
121,-4.653319835662842,-4.0,2021-01-21 18:21:25.278000+00:00,train
122,-4.635956287384033,-4.0,2021-01-21 18:21:55.278000+00:00,train
123,-4.619380950927734,-4.0,2021-01-21 18:22:25.278000+00:00,train
124,-4.603595733642578,-4.0,2021-01-21 18:22:55.278000+00:00,train
125,-4.588593006134033,-4.0,2021-01-21 18:23:25.278000+00:00,train
126,-4.57440185546875,-4.0,2021-01-21 18:23:55.278000+00:00,train
127,-4.561030387878418,-4.0,2021-01-21 18:24:25.278000+00:00,train
128,-4.548471927642822,-4.0,2021-01-21 18:24:55.278000+00:00,train
129,-4.536765098571777,-4.0,2021-01-21 18:25:25.278000+00:00,train
130,-4.5259222984313965,-4.0,2021-01-21 18:25:55.278000+00:00,train
131,-4.515523910522461,-4.0,2021-01-21 18:26:25.278000+00:00,train
132,-4.50623893737793,-4.0,2021-01-21 18:26:55.278000+00:00,train
133,-4.463822841644287,-4.0,2021-01-21 18:27:25.278000+00:00,train
134,-4.423378944396973,-4.0,2021-01-21 18:27:55.278000+00:00,train
135,-4.384677886962891,-4.0,2021-01-21 18:28:25.278000+00:00,train
136,-4.347877025604248,-4.0,2021-01-21 18:28:55.278000+00:00,train
137,-4.312923908233643,-4.0,2021-01-21 18:29:25.278000+00:00,train
138,-4.279773712158203,-4.0,2021-01-21 18:29:55.278000+00:00,train
139,-4.248561859130859,-4.0,2021-01-21 18:30:25.278000+00:00,train
140,-4.219046592712402,-4.0,2021-01-21 18:30:55.278000+00:00,train
141,-4.1912641525268555,-4.0,2021-01-21 18:31:25.278000+00:00,train
142,-4.165214538574219,-4.0,2021-01-21 18:31:55.278000+00:00,train
143,-4.140953540802002,-4.0,2021-01-21 18:32:25.278000+00:00,train
144,-4.118502616882324,-4.0,2021-01-21 18:32:55.278000+00:00,train
145,-4.097864627838135,-4.0,2021-01-21 18:33:25.278000+00:00,train
146,-4.079120635986328,-4.0,2021-01-21 18:33:55.278000+00:00,train
147,-4.062312126159668,-4.0,2021-01-21 18:34:25.278000+00:00,train
148,-4.047469615936279,-4.0,2021-01-21 18:34:55.278000+00:00,train
149,-4.034709930419922,-4.0,2021-01-21 18:35:25.278000+00:00,train
150,-4.024113178253174,-4.0,2021-01-21 18:35:55.278000+00:00,train
151,-4.015751838684082,-4.0,2021-01-21 18:36:25.278000+00:00,train
152,-4.009799003601074,-4.0,2021-01-21 18:36:55.278000+00:00,train
153,-3.985258102416992,-4.0,2021-01-21 18:37:25.278000+00:00,train
154,-3.9615955352783203,-4.0,2021-01-21 18:37:55.278000+00:00,train
155,-3.938852310180664,-4.0,2021-01-21 18:38:25.278000+00:00,train
156,-3.9170126914978027,-4.0,2021-01-21 18:38:55.278000+00:00,train
157,-3.8960256576538086,-4.0,2021-01-21 18:39:25.278000+00:00,train
158,-3.875945806503296,-4.0,2021-01-21 18:39:55.278000+00:00,train
159,-3.8567616939544678,-4.0,2021-01-21 18:40:25.278000+00:00,train
160,-3.8384222984313965,-4.0,2021-01-21 18:40:55.278000+00:00,train
161,-3.820995330810547,-4.0,2021-01-21 18:41:25.278000+00:00,train
162,-3.8044748306274414,-4.0,2021-01-21 18:41:55.278000+00:00,train
163,-3.7888615131378174,-4.0,2021-01-21 18:42:25.278000+00:00,train
164,-3.774106979370117,-4.0,2021-01-21 18:42:55.278000+00:00,train
165,-3.7602992057800293,-4.0,2021-01-21 18:43:25.278000+00:00,train
166,-3.747438907623291,-4.0,2021-01-21 18:43:55.278000+00:00,train
167,-3.7354748249053955,-4.0,2021-01-21 18:44:25.278000+00:00,train
168,-3.7245094776153564,-4.0,2021-01-21 18:44:55.278000+00:00,train
169,-3.7145519256591797,-4.0,2021-01-21 18:45:25.278000+00:00,train
170,-3.705549955368042,-4.0,2021-01-21 18:45:55.278000+00:00,train
171,-3.6976256370544434,-4.0,2021-01-21 18:46:25.278000+00:00,train
172,-3.6907975673675537,-4.0,2021-01-21 18:46:55.278000+00:00,train
173,-3.685018539428711,-4.0,2021-01-21 18:47:25.278000+00:00,train
174,-3.6804347038269043,-4.0,2021-01-21 18:47:55.278000+00:00,train
175,-3.6770780086517334,-4.0,2021-01-21 18:48:25.278000+00:00,train
176,-3.6749136447906494,-4.0,2021-01-21 18:48:55.278000+00:00,train
177,-3.6741185188293457,-4.0,2021-01-21 18:49:25.278000+00:00,train
178,-3.674750804901123,-4.0,2021-01-21 18:49:55.278000+00:00,train
179,-3.677611827850342,-4.0,2021-01-21 18:50:25.278000+00:00,train
180,-3.681811809539795,-4.0,2021-01-21 18:50:55.278000+00:00,train
181,-3.6875782012939453,-4.0,2021-01-21 18:51:25.278000+00:00,train
182,-3.6950154304504395,-4.0,2021-01-21 18:51:55.278000+00:00,train
183,-3.7044825553894043,-4.0,2021-01-21 18:52:25.278000+00:00,train
184,-3.716200351715088,-3.0,2021-01-21 18:52:55.278000+00:00,train
185,-3.7080016136169434,-3.0,2021-01-21 18:53:25.278000+00:00,train
186,-3.7002153396606445,-3.0,2021-01-21 18:53:55.278000+00:00,train
187,-3.6928319931030273,-3.0,2021-01-21 18:54:25.278000+00:00,train
188,-3.6857082843780518,-3.0,2021-01-21 18:54:55.278000+00:00,train
189,-3.6790268421173096,-3.0,2021-01-21 18:55:25.278000+00:00,train
190,-3.672776222229004,-3.0,2021-01-21 18:55:55.278000+00:00,train
191,-3.6669483184814453,-3.0,2021-01-21 18:56:25.278000+00:00,train
192,-3.661369800567627,-3.0,2021-01-21 18:56:55.278000+00:00,train
193,-3.656269073486328,-3.0,2021-01-21 18:57:25.278000+00:00,train
194,-3.6516354084014893,-3.0,2021-01-21 18:57:55.278000+00:00,train
195,-3.6472582817077637,-3.0,2021-01-21 18:58:25.278000+00:00,train
196,-3.6434028148651123,-3.0,2021-01-21 18:58:55.278000+00:00,train
197,-3.6400558948516846,-3.0,2021-01-21 18:59:25.278000+00:00,train
198,-3.6369738578796387,-3.0,2021-01-21 18:59:55.278000+00:00,train
199,-3.634462594985962,-3.0,2021-01-21 19:00:25.278000+00:00,train
200,-3.6325113773345947,-3.0,2021-01-21 19:00:55.278000+00:00,train
201,-3.6308295726776123,-3.0,2021-01-21 19:01:25.278000+00:00,train
202,-3.629770040512085,-3.0,2021-01-21 19:01:55.278000+00:00,train
203,-3.593726396560669,-3.0,2021-01-21 19:02:25.278000+00:00,train
204,-3.5512185096740723,-3.0,2021-01-21 19:02:55.278000+00:00,train
205,-3.513733386993408,-3.0,2021-01-21 19:03:25.278000+00:00,train
206,-3.479442834854126,-3.0,2021-01-21 19:03:55.278000+00:00,train
207,-3.4477996826171875,-3.0,2021-01-21 19:04:25.278000+00:00,train
208,-3.4154398441314697,-3.0,2021-01-21 19:04:55.278000+00:00,train
209,-3.385951519012451,-3.0,2021-01-21 19:05:25.278000+00:00,train
210,-3.3586740493774414,-3.0,2021-01-21 19:05:55.278000+00:00,train
211,-3.332916021347046,-3.0,2021-01-21 19:06:25.278000+00:00,train
212,-3.308870553970337,-3.0,2021-01-21 19:06:55.278000+00:00,train
213,-3.2863664627075195,-3.0,2021-01-21 19:07:25.278000+00:00,train
214,-3.2681281566619873,-3.0,2021-01-21 19:07:55.278000+00:00,train
215,-3.250427722930908,-3.0,2021-01-21 19:08:25.278000+00:00,train
216,-3.2334799766540527,-3.0,2021-01-21 19:08:55.278000+00:00,train
217,-3.217012643814087,-3.0,2021-01-21 19:09:25.278000+00:00,train
218,-3.201732873916626,-3.0,2021-01-21 19:09:55.278000+00:00,train
219,-3.187652111053467,-3.0,2021-01-21 19:10:25.278000+00:00,train
220,-3.1742324829101562,-3.0,2021-01-21 19:10:55.278000+00:00,train
221,-3.1621463298797607,-3.0,2021-01-21 19:11:25.278000+00:00,train
222,-3.1513302326202393,-3.0,2021-01-21 19:11:55.278000+00:00,train
223,-3.1411640644073486,-3.0,2021-01-21 19:12:25.278000+00:00,train
224,-3.1323580741882324,-3.0,2021-01-21 19:12:55.278000+00:00,train
225,-3.124835729598999,-3.0,2021-01-21 19:13:25.278000+00:00,train
226,-3.117957592010498,-3.0,2021-01-21 19:13:55.278000+00:00,train
227,-3.1124632358551025,-3.0,2021-01-21 19:14:25.278000+00:00,train
228,-3.108285427093506,-3.0,2021-01-21 19:14:55.278000+00:00,train
229,-3.104809284210205,-3.0,2021-01-21 19:15:25.278000+00:00,train
230,-3.102787971496582,-3.0,2021-01-21 19:15:55.278000+00:00,train
231,-3.1021833419799805,-3.0,2021-01-21 19:16:25.278000+00:00,train
232,-3.1024556159973145,-3.0,2021-01-21 19:16:55.278000+00:00,train
233,-3.0911152362823486,-3.0,2021-01-21 19:17:25.278000+00:00,train
234,-3.0803346633911133,-3.0,2021-01-21 19:17:55.278000+00:00,train
235,-3.0694973468780518,-3.0,2021-01-21 19:18:25.278000+00:00,train
236,-3.0592141151428223,-3.0,2021-01-21 19:18:55.278000+00:00,train
237,-3.049381971359253,-3.0,2021-01-21 19:19:25.278000+00:00,train
238,-3.039893627166748,-3.0,2021-01-21 19:19:55.278000+00:00,train
239,-3.0302023887634277,-3.0,2021-01-21 19:20:25.278000+00:00,train
240,-3.020876169204712,-3.0,2021-01-21 19:20:55.278000+00:00,train
241,-3.0118324756622314,-3.0,2021-01-21 19:21:25.278000+00:00,train
242,-3.0025970935821533,-3.0,2021-01-21 19:21:55.278000+00:00,train
243,-2.9936633110046387,-3.0,2021-01-21 19:22:25.278000+00:00,train
244,-2.9849636554718018,-3.0,2021-01-21 19:22:55.278000+00:00,train
245,-2.9761104583740234,-3.0,2021-01-21 19:23:25.278000+00:00,train
246,-2.9675180912017822,-3.0,2021-01-21 19:23:55.278000+00:00,train
247,-2.959135055541992,-3.0,2021-01-21 19:24:25.278000+00:00,train
248,-2.950648546218872,-3.0,2021-01-21 19:24:55.278000+00:00,train
249,-2.942399024963379,-3.0,2021-01-21 19:25:25.278000+00:00,train
250,-2.9343454837799072,-3.0,2021-01-21 19:25:55.278000+00:00,train
251,-2.9262382984161377,-3.0,2021-01-21 19:26:25.278000+00:00,train
252,-2.9183526039123535,-3.0,2021-01-21 19:26:55.278000+00:00,train
253,-2.910656690597534,-3.0,2021-01-21 19:27:25.278000+00:00,train
254,-2.902951240539551,-3.0,2021-01-21 19:27:55.278000+00:00,train
255,-2.895458459854126,-3.0,2021-01-21 19:28:25.278000+00:00,train
256,-2.888152837753296,-3.0,2021-01-21 19:28:55.278000+00:00,train
257,-2.880877733230591,-3.0,2021-01-21 19:29:25.278000+00:00,train
258,-2.8738112449645996,-3.0,2021-01-21 19:29:55.278000+00:00,train
259,-2.8669333457946777,-3.0,2021-01-21 19:30:25.278000+00:00,train
260,-2.860121965408325,-3.0,2021-01-21 19:30:55.278000+00:00,train
261,-2.853520154953003,-3.0,2021-01-21 19:31:25.278000+00:00,train
262,-2.8471121788024902,-3.0,2021-01-21 19:31:55.278000+00:00,train
263,-2.8415534496307373,-3.0,2021-01-21 19:32:25.278000+00:00,train
264,-2.8358101844787598,-3.0,2021-01-21 19:32:55.278000+00:00,train
265,-2.8300905227661133,-3.0,2021-01-21 19:33:25.278000+00:00,train
266,-2.824450731277466,-3.0,2021-01-21 19:33:55.278000+00:00,train
267,-2.8188905715942383,-3.0,2021-01-21 19:34:25.278000+00:00,train
268,-2.813505172729492,-3.0,2021-01-21 19:34:55.278000+00:00,train
269,-2.8083088397979736,-3.0,2021-01-21 19:35:25.278000+00:00,train
270,-2.8032822608947754,-3.0,2021-01-21 19:35:55.278000+00:00,train
271,-2.7984867095947266,-3.0,2021-01-21 19:36:25.278000+00:00,train
272,-2.79392671585083,-3.0,2021-01-21 19:36:55.278000+00:00,train
273,-2.788439989089966,-3.0,2021-01-21 19:37:25.278000+00:00,train
274,-2.7833733558654785,-3.0,2021-01-21 19:37:55.278000+00:00,train
275,-2.7788867950439453,-3.0,2021-01-21 19:38:25.278000+00:00,train
276,-2.774935722351074,-3.0,2021-01-21 19:38:55.278000+00:00,train
277,-2.7714920043945312,-3.0,2021-01-21 19:39:25.278000+00:00,train
278,-2.768463611602783,-3.0,2021-01-21 19:39:55.278000+00:00,train
279,-2.76589298248291,-3.0,2021-01-21 19:40:25.278000+00:00,train
280,-2.763751268386841,-3.0,2021-01-21 19:40:55.278000+00:00,train
281,-2.7619752883911133,-3.0,2021-01-21 19:41:25.278000+00:00,train
282,-2.760627031326294,-3.0,2021-01-21 19:41:55.278000+00:00,train
283,-2.75970458984375,-3.0,2021-01-21 19:42:25.278000+00:00,train
284,-2.7591793537139893,-3.0,2021-01-21 19:42:55.278000+00:00,train
285,-2.759124755859375,-3.0,2021-01-21 19:43:25.278000+00:00,train
286,-2.7595601081848145,-3.0,2021-01-21 19:43:55.278000+00:00,train
287,-2.7604868412017822,-2.0,2021-01-21 19:44:25.278000+00:00,train
288,-2.7619876861572266,-2.0,2021-01-21 19:44:55.278000+00:00,train
289,-2.7641069889068604,-2.0,2021-01-21 19:45:25.278000+00:00,train
290,-2.7668800354003906,-2.0,2021-01-21 19:45:55.278000+00:00,train
291,-2.7704153060913086,-2.0,2021-01-21 19:46:25.278000+00:00,train
292,-2.7747998237609863,-2.0,2021-01-21 19:46:55.278000+00:00,train
293,-2.7802703380584717,-2.0,2021-01-21 19:47:25.278000+00:00,train
294,-2.7867915630340576,-2.0,2021-01-21 19:47:55.278000+00:00,train
295,-2.794593095779419,-2.0,2021-01-21 19:48:25.278000+00:00,train
296,-2.8039491176605225,-2.0,2021-01-21 19:48:55.278000+00:00,train
297,-2.815274953842163,-2.0,2021-01-21 19:49:25.278000+00:00,train
298,-2.8291735649108887,-2.0,2021-01-21 19:49:55.278000+00:00,train
299,-2.846648693084717,-2.0,2021-01-21 19:50:25.278000+00:00,train
300,-2.8696672916412354,-2.0,2021-01-21 19:50:55.278000+00:00,train
301,-2.903256416320801,-2.0,2021-01-21 19:51:25.278000+00:00,train
302,-3.0,-2.0,2021-01-21 19:51:55.278000+00:00,train
303,-3.0,-2.0,2021-01-21 19:52:25.278000+00:00,train
304,-3.0,-2.0,2021-01-21 19:52:55.278000+00:00,train
305,-3.0,-2.0,2021-01-21 19:53:25.278000+00:00,train
306,-2.8836958408355713,-2.0,2021-01-21 19:53:55.278000+00:00,train
307,-2.8305344581604004,-2.0,2021-01-21 19:54:25.278000+00:00,train
308,-2.788015842437744,-2.0,2021-01-21 19:54:55.278000+00:00,train
309,-2.751108407974243,-2.0,2021-01-21 19:55:25.278000+00:00,train
310,-2.7178523540496826,-2.0,2021-01-21 19:55:55.278000+00:00,train
311,-2.687232494354248,-2.0,2021-01-21 19:56:25.278000+00:00,train
312,-2.6586573123931885,-2.0,2021-01-21 19:56:55.278000+00:00,train
313,-2.6317386627197266,-2.0,2021-01-21 19:57:25.278000+00:00,train
314,-2.6062235832214355,-2.0,2021-01-21 19:57:55.278000+00:00,train
315,-2.5819711685180664,-2.0,2021-01-21 19:58:25.278000+00:00,train
316,-2.5590322017669678,-2.0,2021-01-21 19:58:55.278000+00:00,train
317,-2.537914752960205,-2.0,2021-01-21 19:59:25.278000+00:00,train
318,-2.5194852352142334,-2.0,2021-01-21 19:59:55.278000+00:00,train
319,-2.499889373779297,-2.0,2021-01-21 20:00:25.278000+00:00,train
320,-2.4799206256866455,-2.0,2021-01-21 20:00:55.278000+00:00,train
321,-2.4603874683380127,-2.0,2021-01-21 20:01:25.278000+00:00,train
322,-2.4413254261016846,-2.0,2021-01-21 20:01:55.278000+00:00,train
323,-2.422623872756958,-2.0,2021-01-21 20:02:25.278000+00:00,train
324,-2.4043538570404053,-2.0,2021-01-21 20:02:55.278000+00:00,train
325,-2.3864989280700684,-2.0,2021-01-21 20:03:25.278000+00:00,train
326,-2.3690390586853027,-2.0,2021-01-21 20:03:55.278000+00:00,train
327,-2.351957082748413,-2.0,2021-01-21 20:04:25.278000+00:00,train
328,-2.3352577686309814,-2.0,2021-01-21 20:04:55.278000+00:00,train
329,-2.31890606880188,-2.0,2021-01-21 20:05:25.278000+00:00,train
330,-2.3028833866119385,-2.0,2021-01-21 20:05:55.278000+00:00,train
331,-2.2871785163879395,-2.0,2021-01-21 20:06:25.278000+00:00,train
332,-2.271782398223877,-2.0,2021-01-21 20:06:55.278000+00:00,train
333,-2.256383180618286,-2.0,2021-01-21 20:07:25.278000+00:00,train
334,-2.2415518760681152,-2.0,2021-01-21 20:07:55.278000+00:00,train
335,-2.2270894050598145,-2.0,2021-01-21 20:08:25.278000+00:00,train
336,-2.2129480838775635,-2.0,2021-01-21 20:08:55.278000+00:00,train
337,-2.199101209640503,-2.0,2021-01-21 20:09:25.278000+00:00,train
338,-2.185533046722412,-2.0,2021-01-21 20:09:55.278000+00:00,train
339,-2.1722347736358643,-2.0,2021-01-21 20:10:25.278000+00:00,train
340,-2.159173011779785,-2.0,2021-01-21 20:10:55.278000+00:00,train
341,-2.1463685035705566,-2.0,2021-01-21 20:11:25.278000+00:00,train
342,-2.1338164806365967,-2.0,2021-01-21 20:11:55.278000+00:00,train
343,-2.1215133666992188,-2.0,2021-01-21 20:12:25.278000+00:00,train
344,-2.1094555854797363,-2.0,2021-01-21 20:12:55.278000+00:00,train
345,-2.0975961685180664,-2.0,2021-01-21 20:13:25.278000+00:00,train
346,-2.085979700088501,-2.0,2021-01-21 20:13:55.278000+00:00,train
347,-2.074601888656616,-2.0,2021-01-21 20:14:25.278000+00:00,train
348,-2.063459634780884,-2.0,2021-01-21 20:14:55.278000+00:00,train
349,-2.0525496006011963,-2.0,2021-01-21 20:15:25.278000+00:00,train
350,-2.0418689250946045,-2.0,2021-01-21 20:15:55.278000+00:00,train
351,-2.032304525375366,-2.0,2021-01-21 20:16:25.278000+00:00,train
352,-2.0226261615753174,-2.0,2021-01-21 20:16:55.278000+00:00,train
353,-2.013071298599243,-2.0,2021-01-21 20:17:25.278000+00:00,train
354,-2.003751277923584,-2.0,2021-01-21 20:17:55.278000+00:00,train
355,-1.9947326183319092,-2.0,2021-01-21 20:18:25.278000+00:00,train
356,-1.9860479831695557,-2.0,2021-01-21 20:18:55.278000+00:00,train
357,-1.9774445295333862,-2.0,2021-01-21 20:19:25.278000+00:00,train
358,-1.9692829847335815,-2.0,2021-01-21 20:19:55.278000+00:00,train
359,-1.9616432189941406,-2.0,2021-01-21 20:20:25.278000+00:00,train
360,-1.9546349048614502,-2.0,2021-01-21 20:20:55.278000+00:00,train
361,-1.9484063386917114,-2.0,2021-01-21 20:21:25.278000+00:00,train
362,-1.9423422813415527,-2.0,2021-01-21 20:21:55.278000+00:00,train
363,-1.937300205230713,-2.0,2021-01-21 20:22:25.278000+00:00,train
364,-1.933478832244873,-2.0,2021-01-21 20:22:55.278000+00:00,train
365,-1.9310449361801147,-2.0,2021-01-21 20:23:25.278000+00:00,train
366,-1.9300638437271118,-2.0,2021-01-21 20:23:55.278000+00:00,train
367,-1.930465817451477,-2.0,2021-01-21 20:24:25.278000+00:00,train
368,-1.9562749862670898,-2.0,2021-01-21 20:24:55.278000+00:00,train
369,-1.9757376909255981,-2.0,2021-01-21 20:25:25.278000+00:00,train
370,-1.9898080825805664,-2.0,2021-01-21 20:25:55.278000+00:00,train
371,-1.9994351863861084,-2.0,2021-01-21 20:26:25.278000+00:00,train
372,-2.005579948425293,-2.0,2021-01-21 20:26:55.278000+00:00,train
373,-2.0091664791107178,-2.0,2021-01-21 20:27:25.278000+00:00,train
374,-2.0008528232574463,-2.0,2021-01-21 20:27:55.278000+00:00,train
375,-1.9926273822784424,-2.0,2021-01-21 20:28:25.278000+00:00,train
376,-1.9845058917999268,-2.0,2021-01-21 20:28:55.278000+00:00,train
377,-1.9765788316726685,-2.0,2021-01-21 20:29:25.278000+00:00,train
378,-1.9688026905059814,-2.0,2021-01-21 20:29:55.278000+00:00,train
379,-1.9612324237823486,-2.0,2021-01-21 20:30:25.278000+00:00,train
380,-1.9539388418197632,-2.0,2021-01-21 20:30:55.278000+00:00,train
381,-1.9470102787017822,-2.0,2021-01-21 20:31:25.278000+00:00,train
382,-1.940545678138733,-2.0,2021-01-21 20:31:55.278000+00:00,train
383,-1.9344650506973267,-2.0,2021-01-21 20:32:25.278000+00:00,train
384,-1.9289764165878296,-2.0,2021-01-21 20:32:55.278000+00:00,train
385,-1.9241700172424316,-2.0,2021-01-21 20:33:25.278000+00:00,train
386,-2.0335934162139893,-2.0,2021-01-21 20:33:55.278000+00:00,train
387,-2.0270893573760986,-2.0,2021-01-21 20:34:25.278000+00:00,train
388,-2.020777702331543,-2.0,2021-01-21 20:34:55.278000+00:00,train
389,-2.0147833824157715,-2.0,2021-01-21 20:35:25.278000+00:00,train
390,-2.0091288089752197,-2.0,2021-01-21 20:35:55.278000+00:00,train
391,-2.0038325786590576,-2.0,2021-01-21 20:36:25.278000+00:00,train
392,-1.9989081621170044,-2.0,2021-01-21 20:36:55.278000+00:00,train
393,-1.9943640232086182,-2.0,2021-01-21 20:37:25.278000+00:00,train
394,-1.989976406097412,-2.0,2021-01-21 20:37:55.278000+00:00,train
395,-1.9860045909881592,-2.0,2021-01-21 20:38:25.278000+00:00,train
396,-1.9824645519256592,-2.0,2021-01-21 20:38:55.278000+00:00,train
397,-1.9793771505355835,-2.0,2021-01-21 20:39:25.278000+00:00,train
398,-1.9767725467681885,-2.0,2021-01-21 20:39:55.278000+00:00,train
399,-1.9746965169906616,-2.0,2021-01-21 20:40:25.278000+00:00,train
400,-1.976635217666626,-2.0,2021-01-21 20:40:55.278000+00:00,train
401,-1.9781055450439453,-2.0,2021-01-21 20:41:25.278000+00:00,train
402,-1.9794261455535889,-2.0,2021-01-21 20:41:55.278000+00:00,train
403,-1.9810526371002197,-2.0,2021-01-21 20:42:25.278000+00:00,train
404,-1.984049916267395,-2.0,2021-01-21 20:42:55.278000+00:00,train
405,-2.0,-2.0,2021-01-21 20:43:25.278000+00:00,train
406,-2.0,-2.0,2021-01-21 20:43:55.278000+00:00,train
407,-2.0,-2.0,2021-01-21 20:44:25.278000+00:00,train
408,-2.0,-2.0,2021-01-21 20:44:55.278000+00:00,train
409,-2.0,-2.0,2021-01-21 20:45:25.278000+00:00,train
410,-2.0,-2.0,2021-01-21 20:45:55.278000+00:00,train
411,-2.0,-2.0,2021-01-21 20:46:25.278000+00:00,train
412,-2.0,-2.0,2021-01-21 20:46:55.278000+00:00,train
413,-2.0,-2.0,2021-01-21 20:47:25.278000+00:00,train
414,-2.0,-2.0,2021-01-21 20:47:55.278000+00:00,train
415,-2.0,-2.0,2021-01-21 20:48:25.278000+00:00,train
416,-2.0,-2.0,2021-01-21 20:48:55.278000+00:00,train
417,-2.0,-2.0,2021-01-21 20:49:25.278000+00:00,train
418,-2.0,-2.0,2021-01-21 20:49:55.278000+00:00,train
419,-2.0,-2.0,2021-01-21 20:50:25.278000+00:00,train
420,-2.0,-2.0,2021-01-21 20:50:55.278000+00:00,train
421,-2.0,-2.0,2021-01-21 20:51:25.278000+00:00,train
422,-2.0,-2.0,2021-01-21 20:51:55.278000+00:00,train
423,-2.0,-2.0,2021-01-21 20:52:25.278000+00:00,train
424,-2.0,-2.0,2021-01-21 20:52:55.278000+00:00,train
425,-2.0,-2.0,2021-01-21 20:53:25.278000+00:00,train
426,-2.0,-2.0,2021-01-21 20:53:55.278000+00:00,train
427,-2.0,-2.0,2021-01-21 20:54:25.278000+00:00,train
428,-2.0,-2.0,2021-01-21 20:54:55.278000+00:00,train
429,-2.0,-2.0,2021-01-21 20:55:25.278000+00:00,train
430,-2.0,-2.0,2021-01-21 20:55:55.278000+00:00,train
431,-2.0,-2.0,2021-01-21 20:56:25.278000+00:00,train
432,-2.0,-2.0,2021-01-21 20:56:55.278000+00:00,train
433,-2.0,-2.0,2021-01-21 20:57:25.278000+00:00,train
434,-2.0,-2.0,2021-01-21 20:57:55.278000+00:00,train
435,-2.0,-2.0,2021-01-21 20:58:25.278000+00:00,train
436,-2.0,-2.0,2021-01-21 20:58:55.278000+00:00,train
437,-2.0,-2.0,2021-01-21 20:59:25.278000+00:00,train
438,-2.0,-2.0,2021-01-21 20:59:55.278000+00:00,train
439,-2.0,-2.0,2021-01-21 21:00:25.278000+00:00,train
440,-2.0,0.0,2021-01-21 21:00:55.278000+00:00,train
441,-2.0,-2.0,2021-01-21 21:01:25.278000+00:00,train
442,-2.0,-2.0,2021-01-21 21:01:55.278000+00:00,train
443,-2.0,-2.0,2021-01-21 21:02:25.278000+00:00,train
444,-2.0,-2.0,2021-01-21 21:02:55.278000+00:00,train
445,-2.0,-2.0,2021-01-21 21:03:25.278000+00:00,train
446,-2.0,-2.0,2021-01-21 21:03:55.278000+00:00,train
447,-2.0,-2.0,2021-01-21 21:04:25.278000+00:00,train
448,-2.0,-2.0,2021-01-21 21:04:55.278000+00:00,train
449,-2.0,-2.0,2021-01-21 21:05:25.278000+00:00,train
450,-2.0,-2.0,2021-01-21 21:05:55.278000+00:00,train
451,-2.0,-2.0,2021-01-21 21:06:25.278000+00:00,train
452,-2.0,-2.0,2021-01-21 21:06:55.278000+00:00,train
453,-2.0,-2.0,2021-01-21 21:07:25.278000+00:00,train
454,-2.0,-2.0,2021-01-21 21:07:55.278000+00:00,train
455,-2.0,-2.0,2021-01-21 21:08:25.278000+00:00,train
456,-2.0,-2.0,2021-01-21 21:08:55.278000+00:00,train
457,-2.0,-2.0,2021-01-21 21:09:25.278000+00:00,train
458,-2.0,-2.0,2021-01-21 21:09:55.278000+00:00,train
459,-1.978125810623169,-2.0,2021-01-21 21:10:25.278000+00:00,train
460,-1.9879827499389648,-2.0,2021-01-21 21:10:55.278000+00:00,train
461,-1.9911545515060425,-2.0,2021-01-21 21:11:25.278000+00:00,train
462,-1.992470145225525,-2.0,2021-01-21 21:11:55.278000+00:00,train
463,-1.9931681156158447,-2.0,2021-01-21 21:12:25.278000+00:00,train
464,-1.9936257600784302,-2.0,2021-01-21 21:12:55.278000+00:00,train
465,-1.993973731994629,-2.0,2021-01-21 21:13:25.278000+00:00,train
466,-1.9942647218704224,-2.0,2021-01-21 21:13:55.278000+00:00,train
467,-1.9945224523544312,-2.0,2021-01-21 21:14:25.278000+00:00,train
468,-1.9948208332061768,-2.0,2021-01-21 21:14:55.278000+00:00,train
469,-1.995084524154663,-2.0,2021-01-21 21:15:25.278000+00:00,train
470,-1.9953261613845825,-2.0,2021-01-21 21:15:55.278000+00:00,train
471,-1.9955508708953857,-2.0,2021-01-21 21:16:25.278000+00:00,train
472,-1.9957610368728638,-2.0,2021-01-21 21:16:55.278000+00:00,train
473,-1.995957612991333,-2.0,2021-01-21 21:17:25.278000+00:00,train
474,-1.9961374998092651,-2.0,2021-01-21 21:17:55.278000+00:00,train
475,-1.9963066577911377,-2.0,2021-01-21 21:18:25.278000+00:00,train
476,-1.9964662790298462,-2.0,2021-01-21 21:18:55.278000+00:00,train
477,-1.9966158866882324,-2.0,2021-01-21 21:19:25.278000+00:00,train
478,-1.9967560768127441,-2.0,2021-01-21 21:19:55.278000+00:00,train
479,-1.9968866109848022,-2.0,2021-01-21 21:20:25.278000+00:00,train
480,-1.997005820274353,-2.0,2021-01-21 21:20:55.278000+00:00,train
481,-1.9971165657043457,-2.0,2021-01-21 21:21:25.278000+00:00,train
482,-1.9972187280654907,-2.0,2021-01-21 21:21:55.278000+00:00,train
483,-1.9973124265670776,-2.0,2021-01-21 21:22:25.278000+00:00,train
484,-1.9973976612091064,-2.0,2021-01-21 21:22:55.278000+00:00,train
485,-1.9974745512008667,-2.0,2021-01-21 21:23:25.278000+00:00,train
486,-1.997542142868042,-2.0,2021-01-21 21:23:55.278000+00:00,train
487,-1.9976023435592651,-2.0,2021-01-21 21:24:25.278000+00:00,train
488,-1.9976553916931152,-2.0,2021-01-21 21:24:55.278000+00:00,train
489,-1.9977009296417236,-2.0,2021-01-21 21:25:25.278000+00:00,train
490,-1.9977396726608276,-2.0,2021-01-21 21:25:55.278000+00:00,train
491,-1.997770071029663,-2.0,2021-01-21 21:26:25.278000+00:00,train
492,-1.9977830648422241,-2.0,2021-01-21 21:26:55.278000+00:00,train
493,-1.9977986812591553,-2.0,2021-01-21 21:27:25.278000+00:00,train
494,-1.997808814048767,-2.0,2021-01-21 21:27:55.278000+00:00,train
495,-1.9978203773498535,-2.0,2021-01-21 21:28:25.278000+00:00,train
496,-1.9978331327438354,-2.0,2021-01-21 21:28:55.278000+00:00,train
497,-1.997844934463501,-2.0,2021-01-21 21:29:25.278000+00:00,train
498,-1.9978538751602173,-2.0,2021-01-21 21:29:55.278000+00:00,train
499,-1.9978595972061157,-2.0,2021-01-21 21:30:25.278000+00:00,train
500,-1.9978612661361694,-2.0,2021-01-21 21:30:55.278000+00:00,train
501,-1.9978598356246948,-2.0,2021-01-21 21:31:25.278000+00:00,train
502,-1.997855305671692,-2.0,2021-01-21 21:31:55.278000+00:00,train
503,-1.997847557067871,-2.0,2021-01-21 21:32:25.278000+00:00,train
504,-1.9978359937667847,-2.0,2021-01-21 21:32:55.278000+00:00,train
505,-1.9978227615356445,-2.0,2021-01-21 21:33:25.278000+00:00,train
506,-1.9978033304214478,-2.0,2021-01-21 21:33:55.278000+00:00,train
507,-1.9977784156799316,-2.0,2021-01-21 21:34:25.278000+00:00,train
508,-1.9977500438690186,-2.0,2021-01-21 21:34:55.278000+00:00,train
509,-1.9977182149887085,-2.0,2021-01-21 21:35:25.278000+00:00,train
510,-1.9976835250854492,-2.0,2021-01-21 21:35:55.278000+00:00,train
511,-1.997646689414978,-2.0,2021-01-21 21:36:25.278000+00:00,train
512,-1.9976074695587158,-2.0,2021-01-21 21:36:55.278000+00:00,train
513,-1.9975659847259521,-2.0,2021-01-21 21:37:25.278000+00:00,train
514,-1.997522234916687,-2.0,2021-01-21 21:37:55.278000+00:00,train
515,-1.9974769353866577,-2.0,2021-01-21 21:38:25.278000+00:00,train
516,-1.9974313974380493,-2.0,2021-01-21 21:38:55.278000+00:00,train
517,-1.9973796606063843,-2.0,2021-01-21 21:39:25.278000+00:00,train
518,-1.9973251819610596,-2.0,2021-01-21 21:39:55.278000+00:00,train
519,-1.9972678422927856,-2.0,2021-01-21 21:40:25.278000+00:00,train
520,-1.9972074031829834,-2.0,2021-01-21 21:40:55.278000+00:00,train
521,-1.997144103050232,-2.0,2021-01-21 21:41:25.278000+00:00,train
522,-1.997078537940979,-2.0,2021-01-21 21:41:55.278000+00:00,train
523,-1.9970110654830933,-2.0,2021-01-21 21:42:25.278000+00:00,train
524,-1.996940016746521,-2.0,2021-01-21 21:42:55.278000+00:00,train
525,-1.996864914894104,-2.0,2021-01-21 21:43:25.278000+00:00,train
526,-1.996786117553711,-2.0,2021-01-21 21:43:55.278000+00:00,train
527,-1.9967025518417358,-2.0,2021-01-21 21:44:25.278000+00:00,train
528,-1.996585488319397,-2.0,2021-01-21 21:44:55.278000+00:00,train
529,-1.9964686632156372,-2.0,2021-01-21 21:45:25.278000+00:00,train
530,-1.9963442087173462,-2.0,2021-01-21 21:45:55.278000+00:00,train
531,-1.9962078332901,-2.0,2021-01-21 21:46:25.278000+00:00,train
532,-1.9960551261901855,-2.0,2021-01-21 21:46:55.278000+00:00,train
533,-1.9958808422088623,-2.0,2021-01-21 21:47:25.278000+00:00,train
534,-1.9956566095352173,-2.0,2021-01-21 21:47:55.278000+00:00,train
535,-1.9953802824020386,-2.0,2021-01-21 21:48:25.278000+00:00,train
536,-1.9950257539749146,-2.0,2021-01-21 21:48:55.278000+00:00,train
537,-1.9945544004440308,-2.0,2021-01-21 21:49:25.278000+00:00,train
538,-1.993903636932373,-2.0,2021-01-21 21:49:55.278000+00:00,train
539,-1.9930522441864014,-2.0,2021-01-21 21:50:25.278000+00:00,train
540,-1.9917998313903809,-2.0,2021-01-21 21:50:55.278000+00:00,train
541,-1.989725112915039,-2.0,2021-01-21 21:51:25.278000+00:00,train
542,-1.9853777885437012,-2.0,2021-01-21 21:51:55.278000+00:00,train
543,-1.9422028064727783,-2.0,2021-01-21 21:52:25.278000+00:00,train
544,-1.7016746997833252,-2.0,2021-01-21 21:52:55.278000+00:00,train
545,-1.6607153415679932,-2.0,2021-01-21 21:53:25.278000+00:00,train
546,-1.6461700201034546,-2.0,2021-01-21 21:53:55.278000+00:00,train
547,-1.6404926776885986,-2.0,2021-01-21 21:54:25.278000+00:00,train
548,-1.637911319732666,-2.0,2021-01-21 21:54:55.278000+00:00,train
549,-1.6363539695739746,-2.0,2021-01-21 21:55:25.278000+00:00,train
550,-1.6350531578063965,-2.0,2021-01-21 21:55:55.278000+00:00,train
551,-1.6341114044189453,-1.0,2021-01-21 21:56:25.278000+00:00,train
552,-1.6332225799560547,-2.0,2021-01-21 21:56:55.278000+00:00,train
553,-1.6323537826538086,-2.0,2021-01-21 21:57:25.278000+00:00,train
554,-1.6314926147460938,-2.0,2021-01-21 21:57:55.278000+00:00,train
555,-1.630637288093567,-2.0,2021-01-21 21:58:25.278000+00:00,train
556,-1.629787564277649,-2.0,2021-01-21 21:58:55.278000+00:00,train
557,-1.6287376880645752,-2.0,2021-01-21 21:59:25.278000+00:00,train
558,-1.6271092891693115,-1.0,2021-01-21 21:59:55.278000+00:00,train
559,-2.0,-1.0,2021-01-21 22:00:25.278000+00:00,train
560,-2.0,0.0,2021-01-21 22:00:55.278000+00:00,train
561,-2.0,-1.0,2021-01-21 22:01:25.278000+00:00,train
562,-2.0,-1.0,2021-01-21 22:01:55.278000+00:00,train
563,-2.0,-1.0,2021-01-21 22:02:25.278000+00:00,train
564,-2.0,-1.0,2021-01-21 22:02:55.278000+00:00,train
565,-2.0,-1.0,2021-01-21 22:03:25.278000+00:00,train
566,-2.0,-1.0,2021-01-21 22:03:55.278000+00:00,train
567,-2.0,-1.0,2021-01-21 22:04:25.278000+00:00,train
568,-2.0,-1.0,2021-01-21 22:04:55.278000+00:00,train
569,-2.0,-1.0,2021-01-21 22:05:25.278000+00:00,train
570,-1.8100799322128296,-1.0,2021-01-21 22:05:55.278000+00:00,train
571,-1.8099480867385864,-1.0,2021-01-21 22:06:25.278000+00:00,train
572,-1.8098862171173096,-1.0,2021-01-21 22:06:55.278000+00:00,train
573,-1.8098477125167847,-1.0,2021-01-21 22:07:25.278000+00:00,train
574,-1.8098151683807373,-1.0,2021-01-21 22:07:55.278000+00:00,train
575,-1.8098011016845703,-1.0,2021-01-21 22:08:25.278000+00:00,train
576,-1.8098050355911255,-1.0,2021-01-21 22:08:55.278000+00:00,train
577,-1.7265419960021973,-1.0,2021-01-21 22:09:25.278000+00:00,train
578,-1.6611729860305786,-1.0,2021-01-21 22:09:55.278000+00:00,train
579,-1.4408061504364014,-1.0,2021-01-21 22:10:25.278000+00:00,train
580,-1.3933696746826172,-1.0,2021-01-21 22:10:55.278000+00:00,train
581,-1.3507699966430664,-1.0,2021-01-21 22:11:25.278000+00:00,train
582,-1.3112881183624268,-1.0,2021-01-21 22:11:55.278000+00:00,train
583,-1.2741646766662598,-1.0,2021-01-21 22:12:25.278000+00:00,train
584,-1.239038109779358,-1.0,2021-01-21 22:12:55.278000+00:00,train
585,-1.2056037187576294,-1.0,2021-01-21 22:13:25.278000+00:00,train
586,-1.1736457347869873,-1.0,2021-01-21 22:13:55.278000+00:00,train
587,-1.1430221796035767,-1.0,2021-01-21 22:14:25.278000+00:00,train
588,-1.113619327545166,-1.0,2021-01-21 22:14:55.278000+00:00,train
589,-1.0852041244506836,-1.0,2021-01-21 22:15:25.278000+00:00,train
590,-1.0578985214233398,-1.0,2021-01-21 22:15:55.278000+00:00,train
591,-1.0316684246063232,-1.0,2021-01-21 22:16:25.278000+00:00,train
592,-1.0062633752822876,-1.0,2021-01-21 22:16:55.278000+00:00,train
593,-0.9822993874549866,-1.0,2021-01-21 22:17:25.278000+00:00,train
594,-0.967370867729187,-1.0,2021-01-21 22:17:55.278000+00:00,train
595,-1.0387550592422485,-1.0,2021-01-21 22:18:25.278000+00:00,train
596,-1.142680287361145,-1.0,2021-01-21 22:18:55.278000+00:00,train
597,-1.1627963781356812,-1.0,2021-01-21 22:19:25.278000+00:00,train
598,-1.1616867780685425,-1.0,2021-01-21 22:19:55.278000+00:00,train
599,-1.1535049676895142,-1.0,2021-01-21 22:20:25.278000+00:00,train
600,-1.101014494895935,-1.0,2021-01-21 22:20:55.278000+00:00,train
601,-1.0709383487701416,-1.0,2021-01-21 22:21:25.278000+00:00,train
602,-1.0513038635253906,-1.0,2021-01-21 22:21:55.278000+00:00,train
603,-1.0266677141189575,-1.0,2021-01-21 22:22:25.278000+00:00,train
604,-1.009509563446045,-1.0,2021-01-21 22:22:55.278000+00:00,train
605,-0.9951081275939941,-1.0,2021-01-21 22:23:25.278000+00:00,train
606,-0.9832057952880859,-1.0,2021-01-21 22:23:55.278000+00:00,train
607,-0.9728068113327026,-1.0,2021-01-21 22:24:25.278000+00:00,train
608,-0.9634681344032288,-1.0,2021-01-21 22:24:55.278000+00:00,train
609,-0.9534077048301697,-1.0,2021-01-21 22:25:25.278000+00:00,train
610,-0.9446287155151367,-1.0,2021-01-21 22:25:55.278000+00:00,train
611,-0.937096357345581,-1.0,2021-01-21 22:26:25.278000+00:00,train
612,-0.9303388595581055,-1.0,2021-01-21 22:26:55.278000+00:00,train
613,-0.9242144823074341,-1.0,2021-01-21 22:27:25.278000+00:00,train
614,-0.931300163269043,-1.0,2021-01-21 22:27:55.278000+00:00,train
615,-0.9302710294723511,-1.0,2021-01-21 22:28:25.278000+00:00,train
616,-0.9271709322929382,-1.0,2021-01-21 22:28:55.278000+00:00,train
617,-0.923876941204071,-1.0,2021-01-21 22:29:25.278000+00:00,train
618,-0.9205709099769592,-1.0,2021-01-21 22:29:55.278000+00:00,train
619,-0.9174203872680664,-1.0,2021-01-21 22:30:25.278000+00:00,train
620,-0.912286639213562,-1.0,2021-01-21 22:30:55.278000+00:00,train
621,-0.908656895160675,-1.0,2021-01-21 22:31:25.278000+00:00,train
622,-0.906198263168335,-1.0,2021-01-21 22:31:55.278000+00:00,train
623,-0.9041335582733154,-1.0,2021-01-21 22:32:25.278000+00:00,train
624,-0.9023290872573853,-1.0,2021-01-21 22:32:55.278000+00:00,train
625,-0.9007834196090698,-1.0,2021-01-21 22:33:25.278000+00:00,train
626,-0.8975203633308411,-1.0,2021-01-21 22:33:55.278000+00:00,train
627,-0.8962332010269165,-1.0,2021-01-21 22:34:25.278000+00:00,train
628,-0.8934234380722046,-1.0,2021-01-21 22:34:55.278000+00:00,train
629,-0.8908963799476624,-1.0,2021-01-21 22:35:25.278000+00:00,train
630,-0.8885768055915833,-1.0,2021-01-21 22:35:55.278000+00:00,train
631,-0.886471688747406,-1.0,2021-01-21 22:36:25.278000+00:00,train
632,-0.8823437690734863,-1.0,2021-01-21 22:36:55.278000+00:00,train
633,-0.8801387548446655,-1.0,2021-01-21 22:37:25.278000+00:00,train
634,-0.8792806267738342,-1.0,2021-01-21 22:37:55.278000+00:00,train
635,-0.8796660304069519,-1.0,2021-01-21 22:38:25.278000+00:00,train
636,-0.8825064897537231,-1.0,2021-01-21 22:38:55.278000+00:00,train
637,-0.9349490404129028,-1.0,2021-01-21 22:39:25.278000+00:00,train
638,-0.9564143419265747,-1.0,2021-01-21 22:39:55.278000+00:00,train
639,-0.9615647792816162,-1.0,2021-01-21 22:40:25.278000+00:00,train
640,-0.9623987078666687,-1.0,2021-01-21 22:40:55.278000+00:00,train
641,-0.961685299873352,-1.0,2021-01-21 22:41:25.278000+00:00,train
642,-0.9603222012519836,-1.0,2021-01-21 22:41:55.278000+00:00,train
643,-0.9571354389190674,-1.0,2021-01-21 22:42:25.278000+00:00,train
644,-0.9553259611129761,-1.0,2021-01-21 22:42:55.278000+00:00,train
645,-0.9550331830978394,-1.0,2021-01-21 22:43:25.278000+00:00,train
646,-0.9561277627944946,-1.0,2021-01-21 22:43:55.278000+00:00,train
647,-0.9595623016357422,-1.0,2021-01-21 22:44:25.278000+00:00,train
648,-0.9680996537208557,-1.0,2021-01-21 22:44:55.278000+00:00,train
649,-0.9901106357574463,-1.0,2021-01-21 22:45:25.278000+00:00,train
650,-0.9947866201400757,-1.0,2021-01-21 22:45:55.278000+00:00,train
651,-0.9999520778656006,-1.0,2021-01-21 22:46:25.278000+00:00,train
652,-1.0053155422210693,-1.0,2021-01-21 22:46:55.278000+00:00,train
653,-1.010488748550415,-1.0,2021-01-21 22:47:25.278000+00:00,train
654,-1.01332688331604,-1.0,2021-01-21 22:47:55.278000+00:00,train
655,-1.013393759727478,-1.0,2021-01-21 22:48:25.278000+00:00,train
656,-1.0183565616607666,-1.0,2021-01-21 22:48:55.278000+00:00,train
657,-1.0227243900299072,-1.0,2021-01-21 22:49:25.278000+00:00,train
658,-1.0262773036956787,-1.0,2021-01-21 22:49:55.278000+00:00,train
659,-1.028391718864441,-1.0,2021-01-21 22:50:25.278000+00:00,train
660,-1.029839038848877,-1.0,2021-01-21 22:50:55.278000+00:00,train
661,-1.0323282480239868,-1.0,2021-01-21 22:51:25.278000+00:00,train
662,-1.033613920211792,-1.0,2021-01-21 22:51:55.278000+00:00,train
663,-1.0339211225509644,-1.0,2021-01-21 22:52:25.278000+00:00,train
664,-1.0333038568496704,-1.0,2021-01-21 22:52:55.278000+00:00,train
665,-1.0316916704177856,-1.0,2021-01-21 22:53:25.278000+00:00,train
666,-1.0279425382614136,-1.0,2021-01-21 22:53:55.278000+00:00,train
667,-1.0253788232803345,-1.0,2021-01-21 22:54:25.278000+00:00,train
668,-1.0220459699630737,-1.0,2021-01-21 22:54:55.278000+00:00,train
669,-1.0177849531173706,-1.0,2021-01-21 22:55:25.278000+00:00,train
670,-1.0218673944473267,-1.0,2021-01-21 22:55:55.278000+00:00,train
671,-1.0183180570602417,-1.0,2021-01-21 22:56:25.278000+00:00,train
672,-1.0117019414901733,-1.0,2021-01-21 22:56:55.278000+00:00,train
673,-1.0049947500228882,-1.0,2021-01-21 22:57:25.278000+00:00,train
674,-0.9981362223625183,-1.0,2021-01-21 22:57:55.278000+00:00,train
675,-0.9911915063858032,-1.0,2021-01-21 22:58:25.278000+00:00,train
676,-0.9843528866767883,-1.0,2021-01-21 22:58:55.278000+00:00,train
677,-0.9847819209098816,-1.0,2021-01-21 22:59:25.278000+00:00,train
678,-0.985423743724823,-1.0,2021-01-21 22:59:55.278000+00:00,train
679,-1.0,-1.0,2021-01-21 23:00:25.278000+00:00,train
680,-1.0,0.0,2021-01-21 23:00:55.278000+00:00,train
681,-1.0,-1.0,2021-01-21 23:01:25.278000+00:00,train
682,-1.0,-1.0,2021-01-21 23:01:55.278000+00:00,train
683,-1.0,-1.0,2021-01-21 23:02:25.278000+00:00,train
684,-1.0,-1.0,2021-01-21 23:02:55.278000+00:00,train
685,-1.0,-1.0,2021-01-21 23:03:25.278000+00:00,train
686,-1.0,-1.0,2021-01-21 23:03:55.278000+00:00,train
687,-1.0,-1.0,2021-01-21 23:04:25.278000+00:00,train
688,-1.0,-1.0,2021-01-21 23:04:55.278000+00:00,train
689,-1.0,-1.0,2021-01-21 23:05:25.278000+00:00,train
690,-1.0,-1.0,2021-01-21 23:05:55.278000+00:00,train
691,-1.0,-1.0,2021-01-21 23:06:25.278000+00:00,train
692,-1.0,-1.0,2021-01-21 23:06:55.278000+00:00,train
693,-1.0,-1.0,2021-01-21 23:07:25.278000+00:00,train
694,-1.0,-1.0,2021-01-21 23:07:55.278000+00:00,train
695,-1.0,-1.0,2021-01-21 23:08:25.278000+00:00,train
696,-1.0,-1.0,2021-01-21 23:08:55.278000+00:00,train
697,-1.0,-1.0,2021-01-21 23:09:25.278000+00:00,train
698,-1.0,-1.0,2021-01-21 23:09:55.278000+00:00,train
699,-0.9920040369033813,-1.0,2021-01-21 23:10:25.278000+00:00,train
700,-0.991904079914093,-1.0,2021-01-21 23:10:55.278000+00:00,train
701,-0.9917683601379395,-1.0,2021-01-21 23:11:25.278000+00:00,train
702,-0.9916181564331055,-1.0,2021-01-21 23:11:55.278000+00:00,train
703,-0.991859495639801,-1.0,2021-01-21 23:12:25.278000+00:00,train
704,-0.9921426177024841,-1.0,2021-01-21 23:12:55.278000+00:00,train
705,-0.9924495816230774,-1.0,2021-01-21 23:13:25.278000+00:00,train
706,-0.9920006394386292,-1.0,2021-01-21 23:13:55.278000+00:00,train
707,-0.9919936656951904,-1.0,2021-01-21 23:14:25.278000+00:00,train
708,-0.9921212792396545,-1.0,2021-01-21 23:14:55.278000+00:00,train
709,-0.9923552870750427,-1.0,2021-01-21 23:15:25.278000+00:00,train
710,-0.9926772117614746,-1.0,2021-01-21 23:15:55.278000+00:00,train
711,-0.9930554628372192,-1.0,2021-01-21 23:16:25.278000+00:00,train
712,-0.9934850335121155,-1.0,2021-01-21 23:16:55.278000+00:00,train
713,-0.9939991235733032,-1.0,2021-01-21 23:17:25.278000+00:00,train
714,-0.9942470788955688,-1.0,2021-01-21 23:17:55.278000+00:00,train
715,-0.9944859743118286,-1.0,2021-01-21 23:18:25.278000+00:00,train
716,-0.9947379231452942,-1.0,2021-01-21 23:18:55.278000+00:00,train
717,-0.9949873089790344,-1.0,2021-01-21 23:19:25.278000+00:00,train
718,-0.9952294826507568,-1.0,2021-01-21 23:19:55.278000+00:00,train
719,-0.9954600930213928,-1.0,2021-01-21 23:20:25.278000+00:00,train
720,-0.9957056641578674,-1.0,2021-01-21 23:20:55.278000+00:00,train
721,-0.9959152936935425,-1.0,2021-01-21 23:21:25.278000+00:00,train
722,-0.9961312413215637,-1.0,2021-01-21 23:21:55.278000+00:00,train
723,-0.9963423609733582,-1.0,2021-01-21 23:22:25.278000+00:00,train
724,-0.9965458512306213,-1.0,2021-01-21 23:22:55.278000+00:00,train
725,-0.9967396259307861,-1.0,2021-01-21 23:23:25.278000+00:00,train
726,-0.9969224333763123,-1.0,2021-01-21 23:23:55.278000+00:00,train
727,-0.9971112608909607,-1.0,2021-01-21 23:24:25.278000+00:00,train
728,-0.9972966313362122,-1.0,2021-01-21 23:24:55.278000+00:00,train
729,-0.9974767565727234,-1.0,2021-01-21 23:25:25.278000+00:00,train
730,-0.9976505041122437,-1.0,2021-01-21 23:25:55.278000+00:00,train
731,-0.9978174567222595,-1.0,2021-01-21 23:26:25.278000+00:00,train
732,-0.9980770945549011,-1.0,2021-01-21 23:26:55.278000+00:00,train
733,-0.9982777237892151,-1.0,2021-01-21 23:27:25.278000+00:00,train
734,-0.9984579682350159,-1.0,2021-01-21 23:27:55.278000+00:00,train
735,-0.9986279010772705,-1.0,2021-01-21 23:28:25.278000+00:00,train
736,-0.998793363571167,-1.0,2021-01-21 23:28:55.278000+00:00,train
737,-0.9988996982574463,-1.0,2021-01-21 23:29:25.278000+00:00,train
738,-0.9989883303642273,-1.0,2021-01-21 23:29:55.278000+00:00,train
739,-0.9990807175636292,-1.0,2021-01-21 23:30:25.278000+00:00,train
740,-0.9991714954376221,-1.0,2021-01-21 23:30:55.278000+00:00,train
741,-0.999259889125824,-1.0,2021-01-21 23:31:25.278000+00:00,train
742,-0.9993454217910767,-1.0,2021-01-21 23:31:55.278000+00:00,train
743,-0.9994235634803772,-1.0,2021-01-21 23:32:25.278000+00:00,train
744,-0.999506413936615,-1.0,2021-01-21 23:32:55.278000+00:00,train
745,-0.9995890259742737,-1.0,2021-01-21 23:33:25.278000+00:00,train
746,-0.9996705651283264,-1.0,2021-01-21 23:33:55.278000+00:00,train
747,-0.9997507333755493,-1.0,2021-01-21 23:34:25.278000+00:00,train
748,-0.9998294115066528,-1.0,2021-01-21 23:34:55.278000+00:00,train
749,-0.9999032020568848,-1.0,2021-01-21 23:35:25.278000+00:00,train
750,-0.9999818801879883,-1.0,2021-01-21 23:35:55.278000+00:00,train
751,-1.0000613927841187,-1.0,2021-01-21 23:36:25.278000+00:00,train
752,-1.0001412630081177,-1.0,2021-01-21 23:36:55.278000+00:00,train
753,-1.0002208948135376,-1.0,2021-01-21 23:37:25.278000+00:00,train
754,-1.0003459453582764,-1.0,2021-01-21 23:37:55.278000+00:00,train
755,-1.0004346370697021,-1.0,2021-01-21 23:38:25.278000+00:00,train
756,-1.0005193948745728,-1.0,2021-01-21 23:38:55.278000+00:00,train
757,-1.00059974193573,-1.0,2021-01-21 23:39:25.278000+00:00,train
758,-1.0006767511367798,-1.0,2021-01-21 23:39:55.278000+00:00,train
759,-1.0007487535476685,-1.0,2021-01-21 23:40:25.278000+00:00,train
760,-1.000799298286438,-1.0,2021-01-21 23:40:55.278000+00:00,train
761,-1.0008413791656494,-1.0,2021-01-21 23:41:25.278000+00:00,train
762,-1.0008841753005981,-1.0,2021-01-21 23:41:55.278000+00:00,train
763,-1.0009238719940186,-1.0,2021-01-21 23:42:25.278000+00:00,train
764,-1.000959873199463,-1.0,2021-01-21 23:42:55.278000+00:00,train
765,-1.0009921789169312,-1.0,2021-01-21 23:43:25.278000+00:00,train
766,-1.001015305519104,-1.0,2021-01-21 23:43:55.278000+00:00,train
767,-1.001035451889038,-1.0,2021-01-21 23:44:25.278000+00:00,train
768,-1.0010489225387573,-1.0,2021-01-21 23:44:55.278000+00:00,train
769,-1.0010544061660767,-1.0,2021-01-21 23:45:25.278000+00:00,train
770,-1.001051425933838,-1.0,2021-01-21 23:45:55.278000+00:00,train
771,-1.0010392665863037,-1.0,2021-01-21 23:46:25.278000+00:00,train
772,-1.0010063648223877,-1.0,2021-01-21 23:46:55.278000+00:00,train
773,-1.0009605884552002,-1.0,2021-01-21 23:47:25.278000+00:00,train
774,-1.0008974075317383,-1.0,2021-01-21 23:47:55.278000+00:00,train
775,-1.000815510749817,-1.0,2021-01-21 23:48:25.278000+00:00,train
776,-1.0007117986679077,-1.0,2021-01-21 23:48:55.278000+00:00,train
777,-1.000563383102417,-1.0,2021-01-21 23:49:25.278000+00:00,train
778,-1.0003770589828491,-1.0,2021-01-21 23:49:55.278000+00:00,train
779,-1.0001568794250488,-1.0,2021-01-21 23:50:25.278000+00:00,train
780,-0.9998987317085266,-1.0,2021-01-21 23:50:55.278000+00:00,train
781,-0.9995866417884827,-1.0,2021-01-21 23:51:25.278000+00:00,train
782,-0.9992695450782776,-1.0,2021-01-21 23:51:55.278000+00:00,train
783,-0.9991415143013,-1.0,2021-01-21 23:52:25.278000+00:00,train
784,-0.9990203976631165,-1.0,2021-01-21 23:52:55.278000+00:00,train
785,-0.9989177584648132,-1.0,2021-01-21 23:53:25.278000+00:00,train
786,-0.9988356232643127,-1.0,2021-01-21 23:53:55.278000+00:00,train
787,-0.9987753033638,-1.0,2021-01-21 23:54:25.278000+00:00,train
788,-0.9987288117408752,-1.0,2021-01-21 23:54:55.278000+00:00,train
789,-0.9986926913261414,-1.0,2021-01-21 23:55:25.278000+00:00,train
790,-0.9986770153045654,-1.0,2021-01-21 23:55:55.278000+00:00,train
791,-0.998677134513855,-1.0,2021-01-21 23:56:25.278000+00:00,train
792,-0.9986897110939026,-1.0,2021-01-21 23:56:55.278000+00:00,train
793,-0.9987117052078247,-1.0,2021-01-21 23:57:25.278000+00:00,train
794,-0.9987363219261169,-1.0,2021-01-21 23:57:55.278000+00:00,train
795,-0.99876469373703,-1.0,2021-01-21 23:58:25.278000+00:00,train
796,-0.9987945556640625,-1.0,2021-01-21 23:58:55.278000+00:00,train
797,-0.9988175630569458,-1.0,2021-01-21 23:59:25.278000+00:00,train
798,-0.9988446831703186,-1.0,2021-01-21 23:59:55.278000+00:00,train
799,-1.0,-1.0,2021-01-22 00:00:25.278000+00:00,train
800,-1.0,-1.0,2021-01-22 00:00:55.278000+00:00,train
801,-1.0,-1.0,2021-01-22 00:01:25.278000+00:00,train
802,-1.0,-1.0,2021-01-22 00:01:55.278000+00:00,train
803,-1.0,-1.0,2021-01-22 00:02:25.278000+00:00,train
804,-1.0,-1.0,2021-01-22 00:02:55.278000+00:00,train
805,-1.0,-1.0,2021-01-22 00:03:25.278000+00:00,train
806,-1.0,-1.0,2021-01-22 00:03:55.278000+00:00,train
807,-1.0,-1.0,2021-01-22 00:04:25.278000+00:00,train
808,-1.0,-1.0,2021-01-22 00:04:55.278000+00:00,train
809,-1.0,-1.0,2021-01-22 00:05:25.278000+00:00,train
810,-1.0,-1.0,2021-01-22 00:05:55.278000+00:00,train
811,-1.0,-1.0,2021-01-22 00:06:25.278000+00:00,train
812,-1.0,-1.0,2021-01-22 00:06:55.278000+00:00,train
813,-1.0,-1.0,2021-01-22 00:07:25.278000+00:00,train
814,-1.0,-1.0,2021-01-22 00:07:55.278000+00:00,train
815,-1.0,-1.0,2021-01-22 00:08:25.278000+00:00,train
816,-1.0,-1.0,2021-01-22 00:08:55.278000+00:00,train
817,-1.0,-1.0,2021-01-22 00:09:25.278000+00:00,train
818,-1.0,-1.0,2021-01-22 00:09:55.278000+00:00,train
819,-1.0,-1.0,2021-01-22 00:10:25.278000+00:00,train
820,-1.0,-1.0,2021-01-22 00:10:55.278000+00:00,train
821,-1.0,-1.0,2021-01-22 00:11:25.278000+00:00,train
822,-1.0,-1.0,2021-01-22 00:11:55.278000+00:00,train
823,-1.0,-1.0,2021-01-22 00:12:25.278000+00:00,train
824,-1.0,-1.0,2021-01-22 00:12:55.278000+00:00,train
825,-1.0,-1.0,2021-01-22 00:13:25.278000+00:00,train
826,-1.0,-1.0,2021-01-22 00:13:55.278000+00:00,train
827,-1.0,-1.0,2021-01-22 00:14:25.278000+00:00,train
828,-1.0,-1.0,2021-01-22 00:14:55.278000+00:00,train
829,-1.0,-1.0,2021-01-22 00:15:25.278000+00:00,train
830,-1.0,-1.0,2021-01-22 00:15:55.278000+00:00,train
831,-1.0,-1.0,2021-01-22 00:16:25.278000+00:00,train
832,-1.0,-1.0,2021-01-22 00:16:55.278000+00:00,train
833,-1.0,-1.0,2021-01-22 00:17:25.278000+00:00,train
834,-1.0,-1.0,2021-01-22 00:17:55.278000+00:00,train
835,-1.0,-1.0,2021-01-22 00:18:25.278000+00:00,train
836,-1.0,-1.0,2021-01-22 00:18:55.278000+00:00,train
837,-1.0,-1.0,2021-01-22 00:19:25.278000+00:00,train
838,-1.0,-1.0,2021-01-22 00:19:55.278000+00:00,train
839,-1.0,-1.0,2021-01-22 00:20:25.278000+00:00,train
840,-1.0,-1.0,2021-01-22 00:20:55.278000+00:00,train
841,-1.0,-1.0,2021-01-22 00:21:25.278000+00:00,train
842,-1.0,-1.0,2021-01-22 00:21:55.278000+00:00,train
843,-1.0,-1.0,2021-01-22 00:22:25.278000+00:00,train
844,-1.0,-1.0,2021-01-22 00:22:55.278000+00:00,train
845,-1.0,-1.0,2021-01-22 00:23:25.278000+00:00,train
846,-1.0,-1.0,2021-01-22 00:23:55.278000+00:00,train
847,-1.0,-1.0,2021-01-22 00:24:25.278000+00:00,train
848,-1.0,-1.0,2021-01-22 00:24:55.278000+00:00,train
849,-1.0,-1.0,2021-01-22 00:25:25.278000+00:00,train
850,-1.0,-1.0,2021-01-22 00:25:55.278000+00:00,train
851,-1.0,-1.0,2021-01-22 00:26:25.278000+00:00,train
852,-1.0,-1.0,2021-01-22 00:26:55.278000+00:00,train
853,-1.0,-1.0,2021-01-22 00:27:25.278000+00:00,train
854,-1.0,-1.0,2021-01-22 00:27:55.278000+00:00,train
855,-1.0,-1.0,2021-01-22 00:28:25.278000+00:00,train
856,-1.0,-1.0,2021-01-22 00:28:55.278000+00:00,train
857,-1.0,-1.0,2021-01-22 00:29:25.278000+00:00,train
858,-1.0,-1.0,2021-01-22 00:29:55.278000+00:00,train
859,-1.0,-1.0,2021-01-22 00:30:25.278000+00:00,train
860,-1.0,-1.0,2021-01-22 00:30:55.278000+00:00,train
861,-1.0,-1.0,2021-01-22 00:31:25.278000+00:00,train
862,-1.0,-1.0,2021-01-22 00:31:55.278000+00:00,train
863,-1.0,-1.0,2021-01-22 00:32:25.278000+00:00,train
864,-1.0,-1.0,2021-01-22 00:32:55.278000+00:00,train
865,-1.0,-1.0,2021-01-22 00:33:25.278000+00:00,train
866,-1.0,-1.0,2021-01-22 00:33:55.278000+00:00,train
867,-1.0,-1.0,2021-01-22 00:34:25.278000+00:00,train
868,-1.0,-1.0,2021-01-22 00:34:55.278000+00:00,train
869,-1.0,-1.0,2021-01-22 00:35:25.278000+00:00,train
870,-1.0,-1.0,2021-01-22 00:35:55.278000+00:00,train
871,-1.0,-1.0,2021-01-22 00:36:25.278000+00:00,train
872,-1.0,-1.0,2021-01-22 00:36:55.278000+00:00,train
873,-1.0,-1.0,2021-01-22 00:37:25.278000+00:00,train
874,-1.0,-1.0,2021-01-22 00:37:55.278000+00:00,train
875,-1.0,-1.0,2021-01-22 00:38:25.278000+00:00,train
876,-1.0,-1.0,2021-01-22 00:38:55.278000+00:00,train
877,-1.0,-1.0,2021-01-22 00:39:25.278000+00:00,train
878,-1.0,-1.0,2021-01-22 00:39:55.278000+00:00,train
879,-1.0,-1.0,2021-01-22 00:40:25.278000+00:00,train
880,-1.0,-1.0,2021-01-22 00:40:55.278000+00:00,train
881,-1.0,-1.0,2021-01-22 00:41:25.278000+00:00,train
882,-1.0,-1.0,2021-01-22 00:41:55.278000+00:00,train
883,-1.0,-1.0,2021-01-22 00:42:25.278000+00:00,train
884,-1.0,-1.0,2021-01-22 00:42:55.278000+00:00,train
885,-1.0,-1.0,2021-01-22 00:43:25.278000+00:00,train
886,-1.0,-1.0,2021-01-22 00:43:55.278000+00:00,train
887,-1.0,-1.0,2021-01-22 00:44:25.278000+00:00,train
888,-1.0,-1.0,2021-01-22 00:44:55.278000+00:00,train
889,-1.0,-1.0,2021-01-22 00:45:25.278000+00:00,train
890,-1.0,-1.0,2021-01-22 00:45:55.278000+00:00,train
891,-1.0,-1.0,2021-01-22 00:46:25.278000+00:00,train
892,-1.0,-1.0,2021-01-22 00:46:55.278000+00:00,train
893,-1.0,-1.0,2021-01-22 00:47:25.278000+00:00,train
894,-1.0,-1.0,2021-01-22 00:47:55.278000+00:00,train
895,-1.0,-1.0,2021-01-22 00:48:25.278000+00:00,train
896,-1.0,-1.0,2021-01-22 00:48:55.278000+00:00,train
897,-1.0,-1.0,2021-01-22 00:49:25.278000+00:00,train
898,-1.0,-1.0,2021-01-22 00:49:55.278000+00:00,train
899,-1.0,-1.0,2021-01-22 00:50:25.278000+00:00,train
900,-1.0,-1.0,2021-01-22 00:50:55.278000+00:00,train
901,-1.0,-1.0,2021-01-22 00:51:25.278000+00:00,train
902,-1.0,-1.0,2021-01-22 00:51:55.278000+00:00,train
903,-1.0,-1.0,2021-01-22 00:52:25.278000+00:00,train
904,-1.0,-1.0,2021-01-22 00:52:55.278000+00:00,train
905,-1.0,-1.0,2021-01-22 00:53:25.278000+00:00,train
906,-1.0,-1.0,2021-01-22 00:53:55.278000+00:00,train
907,-1.0,-1.0,2021-01-22 00:54:25.278000+00:00,train
908,-1.0,-1.0,2021-01-22 00:54:55.278000+00:00,train
909,-1.0,-1.0,2021-01-22 00:55:25.278000+00:00,train
910,-1.0,-1.0,2021-01-22 00:55:55.278000+00:00,train
911,-1.0,-1.0,2021-01-22 00:56:25.278000+00:00,train
912,-1.0,-1.0,2021-01-22 00:56:55.278000+00:00,train
913,-1.0,-1.0,2021-01-22 00:57:25.278000+00:00,train
914,-1.0,-1.0,2021-01-22 00:57:55.278000+00:00,train
915,-1.0,-1.0,2021-01-22 00:58:25.278000+00:00,train
916,-1.0,-1.0,2021-01-22 00:58:55.278000+00:00,train
917,-1.0,-1.0,2021-01-22 00:59:25.278000+00:00,train
918,-1.0,-1.0,2021-01-22 00:59:55.278000+00:00,train
919,-1.0,-1.0,2021-01-22 01:00:25.278000+00:00,train
920,-1.0,-1.0,2021-01-22 01:00:55.278000+00:00,train
921,-1.0,-1.0,2021-01-22 01:01:25.278000+00:00,train
922,-1.0,-1.0,2021-01-22 01:01:55.278000+00:00,train
923,-1.0,-1.0,2021-01-22 01:02:25.278000+00:00,train
924,-1.0,-1.0,2021-01-22 01:02:55.278000+00:00,train
925,-1.0,-1.0,2021-01-22 01:03:25.278000+00:00,train
926,-1.0,-1.0,2021-01-22 01:03:55.278000+00:00,train
927,-1.0,-1.0,2021-01-22 01:04:25.278000+00:00,train
928,-1.0,-1.0,2021-01-22 01:04:55.278000+00:00,train
929,-1.0,-1.0,2021-01-22 01:05:25.278000+00:00,train
930,-1.0,-1.0,2021-01-22 01:05:55.278000+00:00,train
931,-1.0,-1.0,2021-01-22 01:06:25.278000+00:00,train
932,-1.0,-1.0,2021-01-22 01:06:55.278000+00:00,train
933,-1.0,-1.0,2021-01-22 01:07:25.278000+00:00,train
934,-1.0,-1.0,2021-01-22 01:07:55.278000+00:00,train
935,-1.0,-1.0,2021-01-22 01:08:25.278000+00:00,train
936,-1.0,-1.0,2021-01-22 01:08:55.278000+00:00,train
937,-1.0,-1.0,2021-01-22 01:09:25.278000+00:00,train
938,-1.0,-1.0,2021-01-22 01:09:55.278000+00:00,train
939,-1.0,-1.0,2021-01-22 01:10:25.278000+00:00,train
940,-1.0,-1.0,2021-01-22 01:10:55.278000+00:00,train
941,-1.0,-1.0,2021-01-22 01:11:25.278000+00:00,train
942,-1.0,-1.0,2021-01-22 01:11:55.278000+00:00,train
943,-1.0,-1.0,2021-01-22 01:12:25.278000+00:00,train
944,-1.0,-1.0,2021-01-22 01:12:55.278000+00:00,train
945,-1.0,-1.0,2021-01-22 01:13:25.278000+00:00,train
946,-1.0,-1.0,2021-01-22 01:13:55.278000+00:00,train
947,-1.0,-1.0,2021-01-22 01:14:25.278000+00:00,train
948,-1.0,-1.0,2021-01-22 01:14:55.278000+00:00,train
949,-1.0,-1.0,2021-01-22 01:15:25.278000+00:00,train
950,-1.0,-1.0,2021-01-22 01:15:55.278000+00:00,train
951,-1.0,-1.0,2021-01-22 01:16:25.278000+00:00,train
952,-1.0,-1.0,2021-01-22 01:16:55.278000+00:00,train
953,-1.0,-1.0,2021-01-22 01:17:25.278000+00:00,train
954,-1.0,-1.0,2021-01-22 01:17:55.278000+00:00,train
955,-1.0,-1.0,2021-01-22 01:18:25.278000+00:00,train
956,-1.0,-1.0,2021-01-22 01:18:55.278000+00:00,train
957,-1.0,-1.0,2021-01-22 01:19:25.278000+00:00,train
958,-1.0,-1.0,2021-01-22 01:19:55.278000+00:00,train
959,-1.0,-1.0,2021-01-22 01:20:25.278000+00:00,train
960,-1.0,-1.0,2021-01-22 01:20:55.278000+00:00,train
961,-1.0,-1.0,2021-01-22 01:21:25.278000+00:00,train
962,-1.0,-1.0,2021-01-22 01:21:55.278000+00:00,train
963,-1.0,-1.0,2021-01-22 01:22:25.278000+00:00,train
964,-1.0,-1.0,2021-01-22 01:22:55.278000+00:00,train
965,-1.0,-1.0,2021-01-22 01:23:25.278000+00:00,train
966,-1.0,-1.0,2021-01-22 01:23:55.278000+00:00,train
967,-1.0,-1.0,2021-01-22 01:24:25.278000+00:00,train
968,-1.0,-1.0,2021-01-22 01:24:55.278000+00:00,train
969,-1.0,-1.0,2021-01-22 01:25:25.278000+00:00,train
970,-1.0,-1.0,2021-01-22 01:25:55.278000+00:00,train
971,-1.0,-1.0,2021-01-22 01:26:25.278000+00:00,train
972,-1.0,-1.0,2021-01-22 01:26:55.278000+00:00,train
973,-1.0,-1.0,2021-01-22 01:27:25.278000+00:00,train
974,-1.0,-1.0,2021-01-22 01:27:55.278000+00:00,train
975,-1.0,-1.0,2021-01-22 01:28:25.278000+00:00,train
976,-1.0,-1.0,2021-01-22 01:28:55.278000+00:00,train
977,-1.0,-1.0,2021-01-22 01:29:25.278000+00:00,train
978,-1.0,-1.0,2021-01-22 01:29:55.278000+00:00,train
979,-1.0,-1.0,2021-01-22 01:30:25.278000+00:00,train
980,-1.0,-1.0,2021-01-22 01:30:55.278000+00:00,train
981,-1.0,-1.0,2021-01-22 01:31:25.278000+00:00,train
982,-1.0,-1.0,2021-01-22 01:31:55.278000+00:00,train
983,-1.0,-1.0,2021-01-22 01:32:25.278000+00:00,train
984,-1.0,0.0,2021-01-22 01:32:55.278000+00:00,train
985,-1.0,0.0,2021-01-22 01:33:25.278000+00:00,train
986,-1.0,0.0,2021-01-22 01:33:55.278000+00:00,train
987,-1.0,0.0,2021-01-22 01:34:25.278000+00:00,train
988,-1.0,0.0,2021-01-22 01:34:55.278000+00:00,train
989,-1.0,0.0,2021-01-22 01:35:25.278000+00:00,train
990,-1.0,0.0,2021-01-22 01:35:55.278000+00:00,train
991,-1.0,0.0,2021-01-22 01:36:25.278000+00:00,train
992,-1.0,0.0,2021-01-22 01:36:55.278000+00:00,train
993,-1.0,0.0,2021-01-22 01:37:25.278000+00:00,train
994,-1.0,-1.0,2021-01-22 01:37:55.278000+00:00,train
995,-1.0,0.0,2021-01-22 01:38:25.278000+00:00,train
996,-1.0,0.0,2021-01-22 01:38:55.278000+00:00,train
997,-1.0,0.0,2021-01-22 01:39:25.278000+00:00,train
998,-1.0,0.0,2021-01-22 01:39:55.278000+00:00,train
999,-1.0,0.0,2021-01-22 01:40:25.278000+00:00,train
1000,-1.0,0.0,2021-01-22 01:40:55.278000+00:00,train
1001,-1.0,0.0,2021-01-22 01:41:25.278000+00:00,train
1002,-1.0,0.0,2021-01-22 01:41:55.278000+00:00,train
1003,-0.8120599389076233,0.0,2021-01-22 01:42:25.278000+00:00,train
1004,-0.729774534702301,0.0,2021-01-22 01:42:55.278000+00:00,train
1005,-0.6652837991714478,0.0,2021-01-22 01:43:25.278000+00:00,train
1006,-0.610281229019165,0.0,2021-01-22 01:43:55.278000+00:00,train
1007,-0.5615757703781128,0.0,2021-01-22 01:44:25.278000+00:00,train
1008,-0.5176013708114624,0.0,2021-01-22 01:44:55.278000+00:00,train
1009,-0.4775056540966034,0.0,2021-01-22 01:45:25.278000+00:00,train
1010,-0.44086402654647827,0.0,2021-01-22 01:45:55.278000+00:00,train
1011,-0.4075583517551422,0.0,2021-01-22 01:46:25.278000+00:00,train
1012,-0.37774649262428284,0.0,2021-01-22 01:46:55.278000+00:00,train
1013,-0.37796932458877563,0.0,2021-01-22 01:47:25.278000+00:00,train
1014,-0.35217663645744324,0.0,2021-01-22 01:47:55.278000+00:00,train
1015,-0.33107542991638184,0.0,2021-01-22 01:48:25.278000+00:00,train
1016,-0.31564927101135254,0.0,2021-01-22 01:48:55.278000+00:00,train
1017,-0.30703943967819214,0.0,2021-01-22 01:49:25.278000+00:00,train
1018,-0.3079613149166107,0.0,2021-01-22 01:49:55.278000+00:00,train
1019,-0.32437965273857117,0.0,2021-01-22 01:50:25.278000+00:00,train
1020,-0.3383752107620239,0.0,2021-01-22 01:50:55.278000+00:00,train
1021,-0.3297876715660095,0.0,2021-01-22 01:51:25.278000+00:00,train
1022,-0.3130291700363159,0.0,2021-01-22 01:51:55.278000+00:00,train
1023,-0.2957431972026825,0.0,2021-01-22 01:52:25.278000+00:00,train
1024,-0.2788296043872833,0.0,2021-01-22 01:52:55.278000+00:00,train
1025,-0.26181724667549133,0.0,2021-01-22 01:53:25.278000+00:00,train
1026,-0.24462567269802094,0.0,2021-01-22 01:53:55.278000+00:00,train
1027,-0.22754375636577606,0.0,2021-01-22 01:54:25.278000+00:00,train
1028,-0.21073280274868011,0.0,2021-01-22 01:54:55.278000+00:00,train
1029,-0.19423729181289673,0.0,2021-01-22 01:55:25.278000+00:00,train
1030,-0.17803294956684113,0.0,2021-01-22 01:55:55.278000+00:00,train
1031,-0.16209684312343597,0.0,2021-01-22 01:56:25.278000+00:00,train
1032,-0.14642298221588135,0.0,2021-01-22 01:56:55.278000+00:00,train
1033,-0.1310141384601593,0.0,2021-01-22 01:57:25.278000+00:00,train
1034,-0.11587560921907425,0.0,2021-01-22 01:57:55.278000+00:00,train
1035,-0.10101151466369629,0.0,2021-01-22 01:58:25.278000+00:00,train
1036,-0.08642501384019852,0.0,2021-01-22 01:58:55.278000+00:00,train
1037,-0.07211779057979584,0.0,2021-01-22 01:59:25.278000+00:00,train
1038,-0.05808953568339348,0.0,2021-01-22 01:59:55.278000+00:00,train
1039,-0.044339101761579514,0.0,2021-01-22 02:00:25.278000+00:00,train
1040,-0.030864683911204338,0.0,2021-01-22 02:00:55.278000+00:00,train
1041,-0.017664063721895218,0.0,2021-01-22 02:01:25.278000+00:00,train
1042,-0.004734502173960209,0.0,2021-01-22 02:01:55.278000+00:00,train
1043,0.007927036844193935,0.0,2021-01-22 02:02:25.278000+00:00,train
1044,0.02032328024506569,0.0,2021-01-22 02:02:55.278000+00:00,train
1045,0.0324564203619957,0.0,2021-01-22 02:03:25.278000+00:00,train
1046,0.04432909935712814,0.0,2021-01-22 02:03:55.278000+00:00,train
1047,0.05594460666179657,0.0,2021-01-22 02:04:25.278000+00:00,train
1048,0.06730232387781143,0.0,2021-01-22 02:04:55.278000+00:00,train
1049,0.07840543240308762,0.0,2021-01-22 02:05:25.278000+00:00,train
1050,0.08925676345825195,0.0,2021-01-22 02:05:55.278000+00:00,train
1051,0.09985768049955368,0.0,2021-01-22 02:06:25.278000+00:00,train
1052,0.11021056026220322,0.0,2021-01-22 02:06:55.278000+00:00,train
1053,0.12031614780426025,0.0,2021-01-22 02:07:25.278000+00:00,train
1054,0.13017570972442627,0.0,2021-01-22 02:07:55.278000+00:00,train
1055,0.13978900015354156,0.0,2021-01-22 02:08:25.278000+00:00,train
1056,0.14915552735328674,0.0,2021-01-22 02:08:55.278000+00:00,train
1057,-0.0963980033993721,0.0,2021-01-22 02:09:25.278000+00:00,train
1058,-0.08888547867536545,0.0,2021-01-22 02:09:55.278000+00:00,train
1059,-0.0813690796494484,0.0,2021-01-22 02:10:25.278000+00:00,train
1060,-0.07388467341661453,0.0,2021-01-22 02:10:55.278000+00:00,train
1061,-0.0664481669664383,0.0,2021-01-22 02:11:25.278000+00:00,train
1062,-0.05906311422586441,0.0,2021-01-22 02:11:55.278000+00:00,train
1063,-0.05172376707196236,0.0,2021-01-22 02:12:25.278000+00:00,train
1064,-0.044417932629585266,0.0,2021-01-22 02:12:55.278000+00:00,train
1065,-0.03712885454297066,0.0,2021-01-22 02:13:25.278000+00:00,train
1066,-0.029838262125849724,0.0,2021-01-22 02:13:55.278000+00:00,train
1067,-0.02253079228103161,0.0,2021-01-22 02:14:25.278000+00:00,train
1068,-0.01520086545497179,0.0,2021-01-22 02:14:55.278000+00:00,train
1069,-0.007860511541366577,0.0,2021-01-22 02:15:25.278000+00:00,train
1070,-0.00091284338850528,0.0,2021-01-22 02:15:55.278000+00:00,train
1071,0.006018485873937607,0.0,2021-01-22 02:16:25.278000+00:00,train
1072,0.012435724027454853,0.0,2021-01-22 02:16:55.278000+00:00,train
1073,0.017597151920199394,0.0,2021-01-22 02:17:25.278000+00:00,train
1074,0.02024981752038002,0.0,2021-01-22 02:17:55.278000+00:00,train
1075,0.01778889261186123,0.0,2021-01-22 02:18:25.278000+00:00,train
1076,0.003913493361324072,0.0,2021-01-22 02:18:55.278000+00:00,train
1077,-0.02016529068350792,0.0,2021-01-22 02:19:25.278000+00:00,train
1078,-0.032514601945877075,0.0,2021-01-22 02:19:55.278000+00:00,train
1079,-0.03399515897035599,0.0,2021-01-22 02:20:25.278000+00:00,train
1080,-0.03200257197022438,0.0,2021-01-22 02:20:55.278000+00:00,train
1081,-0.02900027297437191,0.0,2021-01-22 02:21:25.278000+00:00,train
1082,-0.025611545890569687,0.0,2021-01-22 02:21:55.278000+00:00,train
1083,-0.022003842517733574,0.0,2021-01-22 02:22:25.278000+00:00,train
1084,-0.018108170479536057,0.0,2021-01-22 02:22:55.278000+00:00,train
1085,-0.013874349184334278,0.0,2021-01-22 02:23:25.278000+00:00,train
1086,-0.009334852918982506,0.0,2021-01-22 02:23:55.278000+00:00,train
1087,-0.00456971162930131,0.0,2021-01-22 02:24:25.278000+00:00,train
1088,0.0003332555352244526,0.0,2021-01-22 02:24:55.278000+00:00,train
1089,0.00530010461807251,0.0,2021-01-22 02:25:25.278000+00:00,train
1090,0.01024927943944931,0.0,2021-01-22 02:25:55.278000+00:00,val
1091,0.015113381668925285,0.0,2021-01-22 02:26:25.278000+00:00,val
1092,0.019827714189887047,0.0,2021-01-22 02:26:55.278000+00:00,val
1093,0.024326836690306664,0.0,2021-01-22 02:27:25.278000+00:00,val
1094,0.028539476916193962,0.0,2021-01-22 02:27:55.278000+00:00,val
1095,0.03238441422581673,0.0,2021-01-22 02:28:25.278000+00:00,val
1096,0.03576140105724335,0.0,2021-01-22 02:28:55.278000+00:00,val
1097,0.03853706270456314,0.0,2021-01-22 02:29:25.278000+00:00,val
1098,0.04061148688197136,0.0,2021-01-22 02:29:55.278000+00:00,val
1099,0.0417451374232769,0.0,2021-01-22 02:30:25.278000+00:00,val
1100,0.04143892601132393,0.0,2021-01-22 02:30:55.278000+00:00,val
1101,0.03889952227473259,0.0,2021-01-22 02:31:25.278000+00:00,val
1102,0.03458653390407562,0.0,2021-01-22 02:31:55.278000+00:00,val
1103,0.034587468951940536,0.0,2021-01-22 02:32:25.278000+00:00,val
1104,0.03458840772509575,0.0,2021-01-22 02:32:55.278000+00:00,val
1105,0.03458935767412186,0.0,2021-01-22 02:33:25.278000+00:00,val
1106,0.03459033742547035,0.0,2021-01-22 02:33:55.278000+00:00,val
1107,0.034591302275657654,0.0,2021-01-22 02:34:25.278000+00:00,val
1108,0.03459233045578003,0.0,2021-01-22 02:34:55.278000+00:00,val
1109,0.0345933772623539,0.0,2021-01-22 02:35:25.278000+00:00,val
1110,0.03459429368376732,0.0,2021-01-22 02:35:55.278000+00:00,val
1111,0.034594353288412094,0.0,2021-01-22 02:36:25.278000+00:00,val
1112,0.03459709882736206,0.0,2021-01-22 02:36:55.278000+00:00,val
1113,0.0,0.0,2021-01-22 02:37:25.278000+00:00,val
1114,0.0,0.0,2021-01-22 02:37:55.278000+00:00,val
1115,0.0,0.0,2021-01-22 02:38:25.278000+00:00,val
1116,0.0,0.0,2021-01-22 02:38:55.278000+00:00,val
1117,0.0,0.0,2021-01-22 02:39:25.278000+00:00,val
1118,0.0,0.0,2021-01-22 02:39:55.278000+00:00,val
1119,0.0,0.0,2021-01-22 02:40:25.278000+00:00,val
1120,0.0,0.0,2021-01-22 02:40:55.278000+00:00,val
1121,0.0,0.0,2021-01-22 02:41:25.278000+00:00,val
1122,0.0,0.0,2021-01-22 02:41:55.278000+00:00,val
1123,0.0,0.0,2021-01-22 02:42:25.278000+00:00,val
1124,0.0,0.0,2021-01-22 02:42:55.278000+00:00,val
1125,0.0,0.0,2021-01-22 02:43:25.278000+00:00,val
1126,0.0,0.0,2021-01-22 02:43:55.278000+00:00,val
1127,0.0,0.0,2021-01-22 02:44:25.278000+00:00,val
1128,0.0,0.0,2021-01-22 02:44:55.278000+00:00,val
1129,0.0,0.0,2021-01-22 02:45:25.278000+00:00,val
1130,0.0,0.0,2021-01-22 02:45:55.278000+00:00,val
1131,0.0,0.0,2021-01-22 02:46:25.278000+00:00,val
1132,0.0,0.0,2021-01-22 02:46:55.278000+00:00,val
1133,0.0,0.0,2021-01-22 02:47:25.278000+00:00,val
1134,0.0,0.0,2021-01-22 02:47:55.278000+00:00,val
1135,0.0,0.0,2021-01-22 02:48:25.278000+00:00,val
1136,0.0,0.0,2021-01-22 02:48:55.278000+00:00,val
1137,0.0,0.0,2021-01-22 02:49:25.278000+00:00,val
1138,0.0,0.0,2021-01-22 02:49:55.278000+00:00,val
1139,0.0,0.0,2021-01-22 02:50:25.278000+00:00,val
1140,0.0,0.0,2021-01-22 02:50:55.278000+00:00,val
1141,0.0,0.0,2021-01-22 02:51:25.278000+00:00,val
1142,0.0,0.0,2021-01-22 02:51:55.278000+00:00,val
1143,0.0,0.0,2021-01-22 02:52:25.278000+00:00,val
1144,0.0,0.0,2021-01-22 02:52:55.278000+00:00,val
1145,0.0,0.0,2021-01-22 02:53:25.278000+00:00,val
1146,0.0,0.0,2021-01-22 02:53:55.278000+00:00,val
1147,0.0,0.0,2021-01-22 02:54:25.278000+00:00,val
1148,0.0,0.0,2021-01-22 02:54:55.278000+00:00,val
1149,0.0,0.0,2021-01-22 02:55:25.278000+00:00,val
1150,0.0,0.0,2021-01-22 02:55:55.278000+00:00,val
1151,0.0,0.0,2021-01-22 02:56:25.278000+00:00,val
1152,0.0,0.0,2021-01-22 02:56:55.278000+00:00,val
1153,0.0,0.0,2021-01-22 02:57:25.278000+00:00,val
1154,0.0,0.0,2021-01-22 02:57:55.278000+00:00,val
1155,0.0,0.0,2021-01-22 02:58:25.278000+00:00,val
1156,0.0,0.0,2021-01-22 02:58:55.278000+00:00,val
1157,0.0,0.0,2021-01-22 02:59:25.278000+00:00,val
1158,0.0,0.0,2021-01-22 02:59:55.278000+00:00,val
1159,0.0,0.0,2021-01-22 03:00:25.278000+00:00,val
1160,0.0,0.0,2021-01-22 03:00:55.278000+00:00,val
1161,0.0,0.0,2021-01-22 03:01:25.278000+00:00,val
1162,0.0,0.0,2021-01-22 03:01:55.278000+00:00,val
1163,0.0,0.0,2021-01-22 03:02:25.278000+00:00,val
1164,0.0,0.0,2021-01-22 03:02:55.278000+00:00,val
1165,0.0,0.0,2021-01-22 03:03:25.278000+00:00,val
1166,0.0,0.0,2021-01-22 03:03:55.278000+00:00,val
1167,0.0,0.0,2021-01-22 03:04:25.278000+00:00,val
1168,0.0,0.0,2021-01-22 03:04:55.278000+00:00,val
1169,0.0,0.0,2021-01-22 03:05:25.278000+00:00,val
1170,0.0,0.0,2021-01-22 03:05:55.278000+00:00,val
1171,0.0,0.0,2021-01-22 03:06:25.278000+00:00,val
1172,0.0,0.0,2021-01-22 03:06:55.278000+00:00,val
1173,0.0,0.0,2021-01-22 03:07:25.278000+00:00,val
1174,0.0,0.0,2021-01-22 03:07:55.278000+00:00,val
1175,0.0,0.0,2021-01-22 03:08:25.278000+00:00,val
1176,0.0,0.0,2021-01-22 03:08:55.278000+00:00,val
1177,0.0,0.0,2021-01-22 03:09:25.278000+00:00,val
1178,0.0,0.0,2021-01-22 03:09:55.278000+00:00,val
1179,0.0,0.0,2021-01-22 03:10:25.278000+00:00,val
1180,0.0,0.0,2021-01-22 03:10:55.278000+00:00,val
1181,0.0,0.0,2021-01-22 03:11:25.278000+00:00,val
1182,0.0,0.0,2021-01-22 03:11:55.278000+00:00,val
1183,0.0,0.0,2021-01-22 03:12:25.278000+00:00,val
1184,0.0,0.0,2021-01-22 03:12:55.278000+00:00,val
1185,0.0,0.0,2021-01-22 03:13:25.278000+00:00,val
1186,0.0,0.0,2021-01-22 03:13:55.278000+00:00,val
1187,0.0,0.0,2021-01-22 03:14:25.278000+00:00,val
1188,0.0,0.0,2021-01-22 03:14:55.278000+00:00,val
1189,0.0,0.0,2021-01-22 03:15:25.278000+00:00,val
1190,0.0,0.0,2021-01-22 03:15:55.278000+00:00,val
1191,0.0,0.0,2021-01-22 03:16:25.278000+00:00,val
1192,0.0,0.0,2021-01-22 03:16:55.278000+00:00,val
1193,0.0,0.0,2021-01-22 03:17:25.278000+00:00,val
1194,0.0,0.0,2021-01-22 03:17:55.278000+00:00,val
1195,0.0,0.0,2021-01-22 03:18:25.278000+00:00,val
1196,0.0,0.0,2021-01-22 03:18:55.278000+00:00,val
1197,0.0,0.0,2021-01-22 03:19:25.278000+00:00,val
1198,0.0,0.0,2021-01-22 03:19:55.278000+00:00,val
1199,0.0,0.0,2021-01-22 03:20:25.278000+00:00,val
1200,0.0,0.0,2021-01-22 03:20:55.278000+00:00,val
1201,0.0,0.0,2021-01-22 03:21:25.278000+00:00,val
1202,0.0,0.0,2021-01-22 03:21:55.278000+00:00,val
1203,0.0,0.0,2021-01-22 03:22:25.278000+00:00,val
1204,0.0,0.0,2021-01-22 03:22:55.278000+00:00,val
1205,0.0,0.0,2021-01-22 03:23:25.278000+00:00,val
1206,0.0,0.0,2021-01-22 03:23:55.278000+00:00,val
1207,0.0,0.0,2021-01-22 03:24:25.278000+00:00,val
1208,0.0,0.0,2021-01-22 03:24:55.278000+00:00,val
1209,0.0,0.0,2021-01-22 03:25:25.278000+00:00,val
1210,0.0,0.0,2021-01-22 03:25:55.278000+00:00,val
1211,0.0,0.0,2021-01-22 03:26:25.278000+00:00,val
1212,0.0,0.0,2021-01-22 03:26:55.278000+00:00,val
1213,0.0,0.0,2021-01-22 03:27:25.278000+00:00,val
1214,0.0,0.0,2021-01-22 03:27:55.278000+00:00,val
1215,0.0,0.0,2021-01-22 03:28:25.278000+00:00,val
1216,0.0,0.0,2021-01-22 03:28:55.278000+00:00,val
1217,0.0,0.0,2021-01-22 03:29:25.278000+00:00,val
1218,0.0,0.0,2021-01-22 03:29:55.278000+00:00,val
1219,0.0,0.0,2021-01-22 03:30:25.278000+00:00,val
1220,0.0,0.0,2021-01-22 03:30:55.278000+00:00,val
1221,0.0,0.0,2021-01-22 03:31:25.278000+00:00,val
1222,0.0,0.0,2021-01-22 03:31:55.278000+00:00,val
1223,0.0,0.0,2021-01-22 03:32:25.278000+00:00,val
1224,0.0,0.0,2021-01-22 03:32:55.278000+00:00,val
1225,0.0,0.0,2021-01-22 03:33:25.278000+00:00,val
1226,0.0,0.0,2021-01-22 03:33:55.278000+00:00,val
1227,0.0,0.0,2021-01-22 03:34:25.278000+00:00,val
1228,0.0,0.0,2021-01-22 03:34:55.278000+00:00,val
1229,0.0,0.0,2021-01-22 03:35:25.278000+00:00,val
1230,0.0,0.0,2021-01-22 03:35:55.278000+00:00,val
1231,0.0,0.0,2021-01-22 03:36:25.278000+00:00,val
1232,0.0,0.0,2021-01-22 03:36:55.278000+00:00,val
1233,0.0,0.0,2021-01-22 03:37:25.278000+00:00,val
1234,0.0,0.0,2021-01-22 03:37:55.278000+00:00,val
1235,0.0,0.0,2021-01-22 03:38:25.278000+00:00,val
1236,0.0,0.0,2021-01-22 03:38:55.278000+00:00,val
1237,0.0,0.0,2021-01-22 03:39:25.278000+00:00,val
1238,0.0,0.0,2021-01-22 03:39:55.278000+00:00,val
1239,0.0,0.0,2021-01-22 03:40:25.278000+00:00,val
1240,0.0,0.0,2021-01-22 03:40:55.278000+00:00,val
1241,0.0,0.0,2021-01-22 03:41:25.278000+00:00,val
1242,0.0,0.0,2021-01-22 03:41:55.278000+00:00,val
1243,0.0,0.0,2021-01-22 03:42:25.278000+00:00,val
1244,0.0,0.0,2021-01-22 03:42:55.278000+00:00,val
1245,0.0,0.0,2021-01-22 03:43:25.278000+00:00,val
1246,0.0,0.0,2021-01-22 03:43:55.278000+00:00,val
1247,0.0,0.0,2021-01-22 03:44:25.278000+00:00,val
1248,0.0,0.0,2021-01-22 03:44:55.278000+00:00,val
1249,0.0,0.0,2021-01-22 03:45:25.278000+00:00,val
1250,0.0,0.0,2021-01-22 03:45:55.278000+00:00,val
1251,0.0,0.0,2021-01-22 03:46:25.278000+00:00,val
1252,0.0,0.0,2021-01-22 03:46:55.278000+00:00,val
1253,0.0,0.0,2021-01-22 03:47:25.278000+00:00,val
1254,0.0,0.0,2021-01-22 03:47:55.278000+00:00,val
1255,0.0,0.0,2021-01-22 03:48:25.278000+00:00,val
1256,0.0,0.0,2021-01-22 03:48:55.278000+00:00,val
1257,0.0,0.0,2021-01-22 03:49:25.278000+00:00,val
1258,0.0,0.0,2021-01-22 03:49:55.278000+00:00,val
1259,0.0,0.0,2021-01-22 03:50:25.278000+00:00,val
1260,0.0,0.0,2021-01-22 03:50:55.278000+00:00,val
1261,0.0,0.0,2021-01-22 03:51:25.278000+00:00,val
1262,0.0,0.0,2021-01-22 03:51:55.278000+00:00,val
1263,0.0,0.0,2021-01-22 03:52:25.278000+00:00,val
1264,0.0,0.0,2021-01-22 03:52:55.278000+00:00,val
1265,0.0,0.0,2021-01-22 03:53:25.278000+00:00,val
1266,0.0,0.0,2021-01-22 03:53:55.278000+00:00,val
1267,0.0,0.0,2021-01-22 03:54:25.278000+00:00,val
1268,0.0,0.0,2021-01-22 03:54:55.278000+00:00,val
1269,0.0,0.0,2021-01-22 03:55:25.278000+00:00,val
1270,0.0,0.0,2021-01-22 03:55:55.278000+00:00,val
1271,0.0,0.0,2021-01-22 03:56:25.278000+00:00,val
1272,0.0,0.0,2021-01-22 03:56:55.278000+00:00,val
1273,0.0,0.0,2021-01-22 03:57:25.278000+00:00,val
1274,0.0,0.0,2021-01-22 03:57:55.278000+00:00,val
1275,0.0,0.0,2021-01-22 03:58:25.278000+00:00,val
1276,0.0,0.0,2021-01-22 03:58:55.278000+00:00,val
1277,0.0,0.0,2021-01-22 03:59:25.278000+00:00,val
1278,0.0,0.0,2021-01-22 03:59:55.278000+00:00,val
1279,0.0,0.0,2021-01-22 04:00:25.278000+00:00,val
1280,0.0,0.0,2021-01-22 04:00:55.278000+00:00,val
1281,0.0,0.0,2021-01-22 04:01:25.278000+00:00,val
1282,0.0,0.0,2021-01-22 04:01:55.278000+00:00,val
1283,0.0,0.0,2021-01-22 04:02:25.278000+00:00,val
1284,0.0,0.0,2021-01-22 04:02:55.278000+00:00,val
1285,0.0,0.0,2021-01-22 04:03:25.278000+00:00,val
1286,0.0,0.0,2021-01-22 04:03:55.278000+00:00,val
1287,0.0,0.0,2021-01-22 04:04:25.278000+00:00,val
1288,0.0,0.0,2021-01-22 04:04:55.278000+00:00,val
1289,0.0,0.0,2021-01-22 04:05:25.278000+00:00,val
1290,0.0,0.0,2021-01-22 04:05:55.278000+00:00,val
1291,0.0,0.0,2021-01-22 04:06:25.278000+00:00,val
1292,0.0,0.0,2021-01-22 04:06:55.278000+00:00,val
1293,0.0,0.0,2021-01-22 04:07:25.278000+00:00,val
1294,0.0,0.0,2021-01-22 04:07:55.278000+00:00,val
1295,0.0,0.0,2021-01-22 04:08:25.278000+00:00,val
1296,0.0,0.0,2021-01-22 04:08:55.278000+00:00,val
1297,0.0,0.0,2021-01-22 04:09:25.278000+00:00,val
1298,0.0,0.0,2021-01-22 04:09:55.278000+00:00,val
1299,0.0,0.0,2021-01-22 04:10:25.278000+00:00,val
1300,0.0,0.0,2021-01-22 04:10:55.278000+00:00,val
1301,0.0,0.0,2021-01-22 04:11:25.278000+00:00,val
1302,0.0,0.0,2021-01-22 04:11:55.278000+00:00,val
1303,0.0,0.0,2021-01-22 04:12:25.278000+00:00,val
1304,0.0,0.0,2021-01-22 04:12:55.278000+00:00,val
1305,0.0,0.0,2021-01-22 04:13:25.278000+00:00,val
1306,0.0,0.0,2021-01-22 04:13:55.278000+00:00,val
1307,0.0,0.0,2021-01-22 04:14:25.278000+00:00,val
1308,0.0,0.0,2021-01-22 04:14:55.278000+00:00,val
1309,0.0,0.0,2021-01-22 04:15:25.278000+00:00,val
1310,0.0,0.0,2021-01-22 04:15:55.278000+00:00,val
1311,0.0,0.0,2021-01-22 04:16:25.278000+00:00,val
1312,0.0,0.0,2021-01-22 04:16:55.278000+00:00,val
1313,0.0,0.0,2021-01-22 04:17:25.278000+00:00,val
1314,0.0,0.0,2021-01-22 04:17:55.278000+00:00,val
1315,0.0,0.0,2021-01-22 04:18:25.278000+00:00,val
1316,0.0,0.0,2021-01-22 04:18:55.278000+00:00,val
1317,0.0,0.0,2021-01-22 04:19:25.278000+00:00,val
1318,0.0,0.0,2021-01-22 04:19:55.278000+00:00,val
1319,0.0,0.0,2021-01-22 04:20:25.278000+00:00,val
1320,0.0,0.0,2021-01-22 04:20:55.278000+00:00,val
1321,0.0,0.0,2021-01-22 04:21:25.278000+00:00,val
1322,0.0,0.0,2021-01-22 04:21:55.278000+00:00,val
1323,0.0,0.0,2021-01-22 04:22:25.278000+00:00,val
1324,0.0,0.0,2021-01-22 04:22:55.278000+00:00,val
1325,0.0,0.0,2021-01-22 04:23:25.278000+00:00,val
1326,0.0,0.0,2021-01-22 04:23:55.278000+00:00,val
1327,0.0,0.0,2021-01-22 04:24:25.278000+00:00,val
1328,0.0,0.0,2021-01-22 04:24:55.278000+00:00,val
1329,0.0,0.0,2021-01-22 04:25:25.278000+00:00,val
1330,0.0,0.0,2021-01-22 04:25:55.278000+00:00,val
1331,0.0,0.0,2021-01-22 04:26:25.278000+00:00,val
1332,0.0,0.0,2021-01-22 04:26:55.278000+00:00,val
1333,0.0,0.0,2021-01-22 04:27:25.278000+00:00,val
1334,0.0,0.0,2021-01-22 04:27:55.278000+00:00,val
1335,0.0,0.0,2021-01-22 04:28:25.278000+00:00,val
1336,0.0,0.0,2021-01-22 04:28:55.278000+00:00,val
1337,0.0,0.0,2021-01-22 04:29:25.278000+00:00,val
1338,0.0,0.0,2021-01-22 04:29:55.278000+00:00,val
1339,0.0,0.0,2021-01-22 04:30:25.278000+00:00,val
1340,0.0,0.0,2021-01-22 04:30:55.278000+00:00,val
1341,0.0,0.0,2021-01-22 04:31:25.278000+00:00,val
1342,0.0,0.0,2021-01-22 04:31:55.278000+00:00,val
1343,0.0,0.0,2021-01-22 04:32:25.278000+00:00,val
1344,0.0,0.0,2021-01-22 04:32:55.278000+00:00,val
1345,0.0,0.0,2021-01-22 04:33:25.278000+00:00,val
1346,0.0,0.0,2021-01-22 04:33:55.278000+00:00,val
1347,0.0,0.0,2021-01-22 04:34:25.278000+00:00,val
1348,0.0,0.0,2021-01-22 04:34:55.278000+00:00,val
1349,0.0,0.0,2021-01-22 04:35:25.278000+00:00,val
1350,0.0,0.0,2021-01-22 04:35:55.278000+00:00,val
1351,0.0,0.0,2021-01-22 04:36:25.278000+00:00,val
1352,0.0,0.0,2021-01-22 04:36:55.278000+00:00,val
1353,0.0,0.0,2021-01-22 04:37:25.278000+00:00,val
1354,0.0,0.0,2021-01-22 04:37:55.278000+00:00,val
1355,0.0,0.0,2021-01-22 04:38:25.278000+00:00,val
1356,0.0,0.0,2021-01-22 04:38:55.278000+00:00,val
1357,0.0,0.0,2021-01-22 04:39:25.278000+00:00,val
1358,0.0,0.0,2021-01-22 04:39:55.278000+00:00,val
1359,0.0,0.0,2021-01-22 04:40:25.278000+00:00,val
1360,0.0,0.0,2021-01-22 04:40:55.278000+00:00,val
1361,0.0,0.0,2021-01-22 04:41:25.278000+00:00,val
1362,0.0,0.0,2021-01-22 04:41:55.278000+00:00,val
1363,0.0,0.0,2021-01-22 04:42:25.278000+00:00,val
1364,0.0,0.0,2021-01-22 04:42:55.278000+00:00,val
1365,0.0,0.0,2021-01-22 04:43:25.278000+00:00,val
1366,0.0,0.0,2021-01-22 04:43:55.278000+00:00,val
1367,0.0,0.0,2021-01-22 04:44:25.278000+00:00,val
1368,0.0,0.0,2021-01-22 04:44:55.278000+00:00,val
1369,0.0,0.0,2021-01-22 04:45:25.278000+00:00,val
1370,0.0,0.0,2021-01-22 04:45:55.278000+00:00,val
1371,0.0,0.0,2021-01-22 04:46:25.278000+00:00,val
1372,0.0,0.0,2021-01-22 04:46:55.278000+00:00,val
1373,0.0,0.0,2021-01-22 04:47:25.278000+00:00,val
1374,0.0,0.0,2021-01-22 04:47:55.278000+00:00,val
1375,0.0,0.0,2021-01-22 04:48:25.278000+00:00,val
1376,0.0,0.0,2021-01-22 04:48:55.278000+00:00,val
1377,0.0,0.0,2021-01-22 04:49:25.278000+00:00,val
1378,0.0,0.0,2021-01-22 04:49:55.278000+00:00,val
1379,0.0,0.0,2021-01-22 04:50:25.278000+00:00,val
1380,0.0,0.0,2021-01-22 04:50:55.278000+00:00,val
1381,0.0,0.0,2021-01-22 04:51:25.278000+00:00,val
1382,0.0,0.0,2021-01-22 04:51:55.278000+00:00,val
1383,0.0,0.0,2021-01-22 04:52:25.278000+00:00,val
1384,0.0,0.0,2021-01-22 04:52:55.278000+00:00,val
1385,0.0,0.0,2021-01-22 04:53:25.278000+00:00,val
1386,0.0,0.0,2021-01-22 04:53:55.278000+00:00,val
1387,0.0,0.0,2021-01-22 04:54:25.278000+00:00,val
1388,0.0,0.0,2021-01-22 04:54:55.278000+00:00,val
1389,0.0,0.0,2021-01-22 04:55:25.278000+00:00,val
1390,0.0,0.0,2021-01-22 04:55:55.278000+00:00,val
1391,0.0,0.0,2021-01-22 04:56:25.278000+00:00,val
1392,0.0,0.0,2021-01-22 04:56:55.278000+00:00,val
1393,0.0,0.0,2021-01-22 04:57:25.278000+00:00,val
1394,0.0,0.0,2021-01-22 04:57:55.278000+00:00,val
1395,0.0,0.0,2021-01-22 04:58:25.278000+00:00,val
1396,0.0,0.0,2021-01-22 04:58:55.278000+00:00,val
1397,0.0,0.0,2021-01-22 04:59:25.278000+00:00,val
1398,0.0,0.0,2021-01-22 04:59:55.278000+00:00,val
1399,0.0,0.0,2021-01-22 05:00:25.278000+00:00,val
1400,0.0,0.0,2021-01-22 05:00:55.278000+00:00,val
1401,0.0,0.0,2021-01-22 05:01:25.278000+00:00,val
1402,0.0,0.0,2021-01-22 05:01:55.278000+00:00,val
1403,0.0,0.0,2021-01-22 05:02:25.278000+00:00,val
1404,0.0,0.0,2021-01-22 05:02:55.278000+00:00,val
1405,0.0,0.0,2021-01-22 05:03:25.278000+00:00,val
1406,0.0,0.0,2021-01-22 05:03:55.278000+00:00,val
1407,0.0,0.0,2021-01-22 05:04:25.278000+00:00,val
1408,0.0,0.0,2021-01-22 05:04:55.278000+00:00,val
1409,0.0,0.0,2021-01-22 05:05:25.278000+00:00,val
1410,0.0,0.0,2021-01-22 05:05:55.278000+00:00,val
1411,0.0,0.0,2021-01-22 05:06:25.278000+00:00,val
1412,0.0,0.0,2021-01-22 05:06:55.278000+00:00,val
1413,0.0,0.0,2021-01-22 05:07:25.278000+00:00,val
1414,0.0,0.0,2021-01-22 05:07:55.278000+00:00,val
1415,0.0,0.0,2021-01-22 05:08:25.278000+00:00,val
1416,0.0,0.0,2021-01-22 05:08:55.278000+00:00,val
1417,0.0,0.0,2021-01-22 05:09:25.278000+00:00,val
1418,0.0,0.0,2021-01-22 05:09:55.278000+00:00,val
1419,0.0,0.0,2021-01-22 05:10:25.278000+00:00,val
1420,0.0,0.0,2021-01-22 05:10:55.278000+00:00,val
1421,0.0,0.0,2021-01-22 05:11:25.278000+00:00,val
1422,0.0,0.0,2021-01-22 05:11:55.278000+00:00,val
1423,0.0,0.0,2021-01-22 05:12:25.278000+00:00,val
1424,0.0,0.0,2021-01-22 05:12:55.278000+00:00,val
1425,0.0,0.0,2021-01-22 05:13:25.278000+00:00,val
1426,0.0,0.0,2021-01-22 05:13:55.278000+00:00,val
1427,0.0,0.0,2021-01-22 05:14:25.278000+00:00,val
1428,0.0,0.0,2021-01-22 05:14:55.278000+00:00,val
1429,0.0,0.0,2021-01-22 05:15:25.278000+00:00,val
1430,0.0,0.0,2021-01-22 05:15:55.278000+00:00,val
1431,0.0,0.0,2021-01-22 05:16:25.278000+00:00,val
1432,0.0,0.0,2021-01-22 05:16:55.278000+00:00,val
1433,0.0,0.0,2021-01-22 05:17:25.278000+00:00,val
1434,0.0,0.0,2021-01-22 05:17:55.278000+00:00,test
1435,0.0,0.0,2021-01-22 05:18:25.278000+00:00,test
1436,0.0,0.0,2021-01-22 05:18:55.278000+00:00,test
1437,0.0,0.0,2021-01-22 05:19:25.278000+00:00,test
1438,0.0,0.0,2021-01-22 05:19:55.278000+00:00,test
1439,0.0,0.0,2021-01-22 05:20:25.278000+00:00,test
1440,0.0,0.0,2021-01-22 05:20:55.278000+00:00,test
1441,0.0,0.0,2021-01-22 05:21:25.278000+00:00,test
1442,0.0,0.0,2021-01-22 05:21:55.278000+00:00,test
1443,0.0,0.0,2021-01-22 05:22:25.278000+00:00,test
1444,0.0,0.0,2021-01-22 05:22:55.278000+00:00,test
1445,0.0,0.0,2021-01-22 05:23:25.278000+00:00,test
1446,0.0,0.0,2021-01-22 05:23:55.278000+00:00,test
1447,0.0,0.0,2021-01-22 05:24:25.278000+00:00,test
1448,0.0,0.0,2021-01-22 05:24:55.278000+00:00,test
1449,0.0,0.0,2021-01-22 05:25:25.278000+00:00,test
1450,0.0,0.0,2021-01-22 05:25:55.278000+00:00,test
1451,0.0,0.0,2021-01-22 05:26:25.278000+00:00,test
1452,0.0,0.0,2021-01-22 05:26:55.278000+00:00,test
1453,0.0,0.0,2021-01-22 05:27:25.278000+00:00,test
1454,0.0,0.0,2021-01-22 05:27:55.278000+00:00,test
1455,0.0,0.0,2021-01-22 05:28:25.278000+00:00,test
1456,0.0,0.0,2021-01-22 05:28:55.278000+00:00,test
1457,0.0,0.0,2021-01-22 05:29:25.278000+00:00,test
1458,0.0,0.0,2021-01-22 05:29:55.278000+00:00,test
1459,0.0,0.0,2021-01-22 05:30:25.278000+00:00,test
1460,0.0,0.0,2021-01-22 05:30:55.278000+00:00,test
1461,0.0,0.0,2021-01-22 05:31:25.278000+00:00,test
1462,0.0,0.0,2021-01-22 05:31:55.278000+00:00,test
1463,0.0,0.0,2021-01-22 05:32:25.278000+00:00,test
1464,0.0,0.0,2021-01-22 05:32:55.278000+00:00,test
1465,0.0,0.0,2021-01-22 05:33:25.278000+00:00,test
1466,0.0,0.0,2021-01-22 05:33:55.278000+00:00,test
1467,0.0,0.0,2021-01-22 05:34:25.278000+00:00,test
1468,0.0,0.0,2021-01-22 05:34:55.278000+00:00,test
1469,0.0,0.0,2021-01-22 05:35:25.278000+00:00,test
1470,0.0,0.0,2021-01-22 05:35:55.278000+00:00,test
1471,0.0,0.0,2021-01-22 05:36:25.278000+00:00,test
1472,0.0,0.0,2021-01-22 05:36:55.278000+00:00,test
1473,0.0,0.0,2021-01-22 05:37:25.278000+00:00,test
1474,0.0,0.0,2021-01-22 05:37:55.278000+00:00,test
1475,0.0,0.0,2021-01-22 05:38:25.278000+00:00,test
1476,0.0,0.0,2021-01-22 05:38:55.278000+00:00,test
1477,0.0,0.0,2021-01-22 05:39:25.278000+00:00,test
1478,0.0,0.0,2021-01-22 05:39:55.278000+00:00,test
1479,0.0,0.0,2021-01-22 05:40:25.278000+00:00,test
1480,0.0,0.0,2021-01-22 05:40:55.278000+00:00,test
1481,0.0,0.0,2021-01-22 05:41:25.278000+00:00,test
1482,0.0,0.0,2021-01-22 05:41:55.278000+00:00,test
1483,0.0,0.0,2021-01-22 05:42:25.278000+00:00,test
1484,0.0,0.0,2021-01-22 05:42:55.278000+00:00,test
1485,0.0,0.0,2021-01-22 05:43:25.278000+00:00,test
1486,0.0,0.0,2021-01-22 05:43:55.278000+00:00,test
1487,0.0,0.0,2021-01-22 05:44:25.278000+00:00,test
1488,0.0,0.0,2021-01-22 05:44:55.278000+00:00,test
1489,0.0,0.0,2021-01-22 05:45:25.278000+00:00,test
1490,0.0,0.0,2021-01-22 05:45:55.278000+00:00,test
1491,0.0,0.0,2021-01-22 05:46:25.278000+00:00,test
1492,0.0,0.0,2021-01-22 05:46:55.278000+00:00,test
1493,0.0,0.0,2021-01-22 05:47:25.278000+00:00,test
1494,0.0,0.0,2021-01-22 05:47:55.278000+00:00,test
1495,0.0,0.0,2021-01-22 05:48:25.278000+00:00,test
1496,0.0,0.0,2021-01-22 05:48:55.278000+00:00,test
1497,0.0,0.0,2021-01-22 05:49:25.278000+00:00,test
1498,0.0,0.0,2021-01-22 05:49:55.278000+00:00,test
1499,0.0,0.0,2021-01-22 05:50:25.278000+00:00,test
1500,0.0,0.0,2021-01-22 05:50:55.278000+00:00,test
1501,0.0,0.0,2021-01-22 05:51:25.278000+00:00,test
1502,0.0,0.0,2021-01-22 05:51:55.278000+00:00,test
1503,0.0,0.0,2021-01-22 05:52:25.278000+00:00,test
1504,0.0,0.0,2021-01-22 05:52:55.278000+00:00,test
1505,0.0,0.0,2021-01-22 05:53:25.278000+00:00,test
1506,0.0,0.0,2021-01-22 05:53:55.278000+00:00,test
1507,0.0,0.0,2021-01-22 05:54:25.278000+00:00,test
1508,0.0,0.0,2021-01-22 05:54:55.278000+00:00,test
1509,0.0,0.0,2021-01-22 05:55:25.278000+00:00,test
1510,0.0,0.0,2021-01-22 05:55:55.278000+00:00,test
1511,0.0,0.0,2021-01-22 05:56:25.278000+00:00,test
1512,0.0,0.0,2021-01-22 05:56:55.278000+00:00,test
1513,0.0,0.0,2021-01-22 05:57:25.278000+00:00,test
1514,0.0,0.0,2021-01-22 05:57:55.278000+00:00,test
1515,0.0,0.0,2021-01-22 05:58:25.278000+00:00,test
1516,0.0,0.0,2021-01-22 05:58:55.278000+00:00,test
1517,0.0,0.0,2021-01-22 05:59:25.278000+00:00,test
1518,0.0,0.0,2021-01-22 05:59:55.278000+00:00,test
1519,0.0,0.0,2021-01-22 06:00:25.278000+00:00,test
1520,0.0,0.0,2021-01-22 06:00:55.278000+00:00,test
1521,0.0,0.0,2021-01-22 06:01:25.278000+00:00,test
1522,0.0,0.0,2021-01-22 06:01:55.278000+00:00,test
1523,0.0,0.0,2021-01-22 06:02:25.278000+00:00,test
1524,0.0,0.0,2021-01-22 06:02:55.278000+00:00,test
1525,0.0,0.0,2021-01-22 06:03:25.278000+00:00,test
1526,0.0,0.0,2021-01-22 06:03:55.278000+00:00,test
1527,0.0,0.0,2021-01-22 06:04:25.278000+00:00,test
1528,0.0,0.0,2021-01-22 06:04:55.278000+00:00,test
1529,0.0,0.0,2021-01-22 06:05:25.278000+00:00,test
1530,0.0,0.0,2021-01-22 06:05:55.278000+00:00,test
1531,0.0,0.0,2021-01-22 06:06:25.278000+00:00,test
1532,0.0,0.0,2021-01-22 06:06:55.278000+00:00,test
1533,0.0,0.0,2021-01-22 06:07:25.278000+00:00,test
1534,0.0,0.0,2021-01-22 06:07:55.278000+00:00,test
1535,0.0,0.0,2021-01-22 06:08:25.278000+00:00,test
1536,0.0,0.0,2021-01-22 06:08:55.278000+00:00,test
1537,0.0,0.0,2021-01-22 06:09:25.278000+00:00,test
1538,0.0,0.0,2021-01-22 06:09:55.278000+00:00,test
1539,0.0,0.0,2021-01-22 06:10:25.278000+00:00,test
1540,0.0,0.0,2021-01-22 06:10:55.278000+00:00,test
1541,0.0,0.0,2021-01-22 06:11:25.278000+00:00,test
1542,0.0,0.0,2021-01-22 06:11:55.278000+00:00,test
1543,0.0,0.0,2021-01-22 06:12:25.278000+00:00,test
1544,0.0,0.0,2021-01-22 06:12:55.278000+00:00,test
1545,0.0,0.0,2021-01-22 06:13:25.278000+00:00,test
1546,0.0,0.0,2021-01-22 06:13:55.278000+00:00,test
1547,0.0,0.0,2021-01-22 06:14:25.278000+00:00,test
1548,0.0,0.0,2021-01-22 06:14:55.278000+00:00,test
1549,0.0,0.0,2021-01-22 06:15:25.278000+00:00,test
1550,0.0,0.0,2021-01-22 06:15:55.278000+00:00,test
1551,0.0,0.0,2021-01-22 06:16:25.278000+00:00,test
1552,0.0,0.0,2021-01-22 06:16:55.278000+00:00,test
1553,0.0,0.0,2021-01-22 06:17:25.278000+00:00,test
1554,0.0,0.0,2021-01-22 06:17:55.278000+00:00,test
1555,0.0,0.0,2021-01-22 06:18:25.278000+00:00,test
1556,0.0,0.0,2021-01-22 06:18:55.278000+00:00,test
1557,0.0,0.0,2021-01-22 06:19:25.278000+00:00,test
1558,0.0,0.0,2021-01-22 06:19:55.278000+00:00,test
1559,0.0,0.0,2021-01-22 06:20:25.278000+00:00,test
1560,0.0,0.0,2021-01-22 06:20:55.278000+00:00,test
1561,0.0,0.0,2021-01-22 06:21:25.278000+00:00,test
1562,0.0,0.0,2021-01-22 06:21:55.278000+00:00,test
1563,0.0,0.0,2021-01-22 06:22:25.278000+00:00,test
1564,0.0,0.0,2021-01-22 06:22:55.278000+00:00,test
1565,0.0,0.0,2021-01-22 06:23:25.278000+00:00,test
1566,0.0,0.0,2021-01-22 06:23:55.278000+00:00,test
1567,0.0,0.0,2021-01-22 06:24:25.278000+00:00,test
1568,0.0,0.0,2021-01-22 06:24:55.278000+00:00,test
1569,0.0,0.0,2021-01-22 06:25:25.278000+00:00,test
1570,0.0,0.0,2021-01-22 06:25:55.278000+00:00,test
1571,0.0,0.0,2021-01-22 06:26:25.278000+00:00,test
1572,0.0,0.0,2021-01-22 06:26:55.278000+00:00,test
1573,0.0,0.0,2021-01-22 06:27:25.278000+00:00,test
1574,0.0,0.0,2021-01-22 06:27:55.278000+00:00,test
1575,0.0,0.0,2021-01-22 06:28:25.278000+00:00,test
1576,0.0,0.0,2021-01-22 06:28:55.278000+00:00,test
1577,0.0,0.0,2021-01-22 06:29:25.278000+00:00,test
1578,0.0,0.0,2021-01-22 06:29:55.278000+00:00,test
1579,0.0,0.0,2021-01-22 06:30:25.278000+00:00,test
1580,0.0,0.0,2021-01-22 06:30:55.278000+00:00,test
1581,0.0,0.0,2021-01-22 06:31:25.278000+00:00,test
1582,0.0,0.0,2021-01-22 06:31:55.278000+00:00,test
1583,0.0,0.0,2021-01-22 06:32:25.278000+00:00,test
1584,0.0,0.0,2021-01-22 06:32:55.278000+00:00,test
1585,0.0,0.0,2021-01-22 06:33:25.278000+00:00,test
1586,0.0,0.0,2021-01-22 06:33:55.278000+00:00,test
1587,0.0,0.0,2021-01-22 06:34:25.278000+00:00,test
1588,0.0,0.0,2021-01-22 06:34:55.278000+00:00,test
1589,0.0,0.0,2021-01-22 06:35:25.278000+00:00,test
1590,0.0,0.0,2021-01-22 06:35:55.278000+00:00,test
1591,0.0,0.0,2021-01-22 06:36:25.278000+00:00,test
1592,0.0,0.0,2021-01-22 06:36:55.278000+00:00,test
1593,0.0,0.0,2021-01-22 06:37:25.278000+00:00,test
1594,0.0,0.0,2021-01-22 06:37:55.278000+00:00,test
1595,0.0,0.0,2021-01-22 06:38:25.278000+00:00,test
1596,0.0,0.0,2021-01-22 06:38:55.278000+00:00,test
1597,0.0,0.0,2021-01-22 06:39:25.278000+00:00,test
1598,0.0,0.0,2021-01-22 06:39:55.278000+00:00,test
1599,0.0,0.0,2021-01-22 06:40:25.278000+00:00,test
1600,0.0,0.0,2021-01-22 06:40:55.278000+00:00,test
1601,0.0,0.0,2021-01-22 06:41:25.278000+00:00,test
1602,0.0,0.0,2021-01-22 06:41:55.278000+00:00,test
1603,0.0,0.0,2021-01-22 06:42:25.278000+00:00,test
1604,0.0,0.0,2021-01-22 06:42:55.278000+00:00,test
1605,0.0,0.0,2021-01-22 06:43:25.278000+00:00,test
