,prediction,real,time,split
0,-4.66691780090332,-5.0,2021-01-21 18:03:55.278000+00:00,train
1,-4.6485114097595215,-5.0,2021-01-21 18:04:25.278000+00:00,train
2,-4.631707668304443,-5.0,2021-01-21 18:04:55.278000+00:00,train
3,-4.616547107696533,-5.0,2021-01-21 18:05:25.278000+00:00,train
4,-4.6030707359313965,-5.0,2021-01-21 18:05:55.278000+00:00,train
5,-4.579829216003418,-5.0,2021-01-21 18:06:25.278000+00:00,train
6,-4.557841777801514,-5.0,2021-01-21 18:06:55.278000+00:00,train
7,-4.537128448486328,-5.0,2021-01-21 18:07:25.278000+00:00,train
8,-4.517714977264404,-5.0,2021-01-21 18:07:55.278000+00:00,train
9,-4.499624729156494,-5.0,2021-01-21 18:08:25.278000+00:00,train
10,-4.482884883880615,-5.0,2021-01-21 18:08:55.278000+00:00,train
11,-4.467525005340576,-5.0,2021-01-21 18:09:25.278000+00:00,train
12,-4.453577995300293,-5.0,2021-01-21 18:09:55.278000+00:00,train
13,-4.441075801849365,-5.0,2021-01-21 18:10:25.278000+00:00,train
14,-4.430058479309082,-5.0,2021-01-21 18:10:55.278000+00:00,train
15,-4.4205641746521,-5.0,2021-01-21 18:11:25.278000+00:00,train
16,-4.412635803222656,-5.0,2021-01-21 18:11:55.278000+00:00,train
17,-4.40632438659668,-5.0,2021-01-21 18:12:25.278000+00:00,train
18,-4.389728546142578,-5.0,2021-01-21 18:12:55.278000+00:00,train
19,-4.374276161193848,-5.0,2021-01-21 18:13:25.278000+00:00,train
20,-4.359992027282715,-5.0,2021-01-21 18:13:55.278000+00:00,train
21,-4.346900463104248,-5.0,2021-01-21 18:14:25.278000+00:00,train
22,-4.335028171539307,-5.0,2021-01-21 18:14:55.278000+00:00,train
23,-4.324406623840332,-5.0,2021-01-21 18:15:25.278000+00:00,train
24,-4.315064907073975,-5.0,2021-01-21 18:15:55.278000+00:00,train
25,-4.307036399841309,-5.0,2021-01-21 18:16:25.278000+00:00,train
26,-4.300360202789307,-5.0,2021-01-21 18:16:55.278000+00:00,train
27,-4.295075416564941,-5.0,2021-01-21 18:17:25.278000+00:00,train
28,-4.291225433349609,-4.0,2021-01-21 18:17:55.278000+00:00,train
29,-4.2771897315979,-4.0,2021-01-21 18:18:25.278000+00:00,train
30,-4.2641215324401855,-4.0,2021-01-21 18:18:55.278000+00:00,train
31,-4.252028465270996,-4.0,2021-01-21 18:19:25.278000+00:00,train
32,-4.240944862365723,-4.0,2021-01-21 18:19:55.278000+00:00,train
33,-4.215599060058594,-4.0,2021-01-21 18:20:25.278000+00:00,train
34,-4.191430568695068,-4.0,2021-01-21 18:20:55.278000+00:00,train
35,-4.16845703125,-4.0,2021-01-21 18:21:25.278000+00:00,train
36,-4.146703720092773,-4.0,2021-01-21 18:21:55.278000+00:00,train
37,-4.12619161605835,-4.0,2021-01-21 18:22:25.278000+00:00,train
38,-4.1069440841674805,-4.0,2021-01-21 18:22:55.278000+00:00,train
39,-4.0889892578125,-4.0,2021-01-21 18:23:25.278000+00:00,train
40,-4.072349548339844,-4.0,2021-01-21 18:23:55.278000+00:00,train
41,-4.0570549964904785,-4.0,2021-01-21 18:24:25.278000+00:00,train
42,-4.04313850402832,-4.0,2021-01-21 18:24:55.278000+00:00,train
43,-4.030636310577393,-4.0,2021-01-21 18:25:25.278000+00:00,train
44,-4.007782936096191,-4.0,2021-01-21 18:25:55.278000+00:00,train
45,-3.9858973026275635,-4.0,2021-01-21 18:26:25.278000+00:00,train
46,-3.9649899005889893,-4.0,2021-01-21 18:26:55.278000+00:00,train
47,-3.9450783729553223,-4.0,2021-01-21 18:27:25.278000+00:00,train
48,-3.9261744022369385,-4.0,2021-01-21 18:27:55.278000+00:00,train
49,-3.908294439315796,-4.0,2021-01-21 18:28:25.278000+00:00,train
50,-3.8914599418640137,-4.0,2021-01-21 18:28:55.278000+00:00,train
51,-3.8756871223449707,-4.0,2021-01-21 18:29:25.278000+00:00,train
52,-3.860996723175049,-4.0,2021-01-21 18:29:55.278000+00:00,train
53,-3.847414255142212,-4.0,2021-01-21 18:30:25.278000+00:00,train
54,-3.8349640369415283,-4.0,2021-01-21 18:30:55.278000+00:00,train
55,-3.8236725330352783,-4.0,2021-01-21 18:31:25.278000+00:00,train
56,-3.8135690689086914,-4.0,2021-01-21 18:31:55.278000+00:00,train
57,-3.8046865463256836,-4.0,2021-01-21 18:32:25.278000+00:00,train
58,-3.7857720851898193,-4.0,2021-01-21 18:32:55.278000+00:00,train
59,-3.767641305923462,-4.0,2021-01-21 18:33:25.278000+00:00,train
60,-3.750302314758301,-4.0,2021-01-21 18:33:55.278000+00:00,train
61,-3.733769178390503,-4.0,2021-01-21 18:34:25.278000+00:00,train
62,-3.718052864074707,-4.0,2021-01-21 18:34:55.278000+00:00,train
63,-3.70316481590271,-4.0,2021-01-21 18:35:25.278000+00:00,train
64,-3.6891207695007324,-4.0,2021-01-21 18:35:55.278000+00:00,train
65,-3.6759352684020996,-4.0,2021-01-21 18:36:25.278000+00:00,train
66,-3.6636247634887695,-4.0,2021-01-21 18:36:55.278000+00:00,train
67,-3.652207136154175,-4.0,2021-01-21 18:37:25.278000+00:00,train
68,-3.6417012214660645,-4.0,2021-01-21 18:37:55.278000+00:00,train
69,-3.632127285003662,-4.0,2021-01-21 18:38:25.278000+00:00,train
70,-3.6235084533691406,-4.0,2021-01-21 18:38:55.278000+00:00,train
71,-3.6158690452575684,-4.0,2021-01-21 18:39:25.278000+00:00,train
72,-3.609234094619751,-4.0,2021-01-21 18:39:55.278000+00:00,train
73,-3.603632688522339,-4.0,2021-01-21 18:40:25.278000+00:00,train
74,-3.5990958213806152,-4.0,2021-01-21 18:40:55.278000+00:00,train
75,-3.5956552028656006,-4.0,2021-01-21 18:41:25.278000+00:00,train
76,-3.5933492183685303,-4.0,2021-01-21 18:41:55.278000+00:00,train
77,-3.592217206954956,-4.0,2021-01-21 18:42:25.278000+00:00,train
78,-3.5923023223876953,-4.0,2021-01-21 18:42:55.278000+00:00,train
79,-3.581242561340332,-4.0,2021-01-21 18:43:25.278000+00:00,train
80,-3.5708727836608887,-4.0,2021-01-21 18:43:55.278000+00:00,train
81,-3.5612051486968994,-4.0,2021-01-21 18:44:25.278000+00:00,train
82,-3.552252769470215,-4.0,2021-01-21 18:44:55.278000+00:00,train
83,-3.5440335273742676,-4.0,2021-01-21 18:45:25.278000+00:00,train
84,-3.5365631580352783,-4.0,2021-01-21 18:45:55.278000+00:00,train
85,-3.529857873916626,-4.0,2021-01-21 18:46:25.278000+00:00,train
86,-3.523937940597534,-4.0,2021-01-21 18:46:55.278000+00:00,train
87,-3.5188233852386475,-4.0,2021-01-21 18:47:25.278000+00:00,train
88,-3.5145363807678223,-4.0,2021-01-21 18:47:55.278000+00:00,train
89,-3.5111005306243896,-4.0,2021-01-21 18:48:25.278000+00:00,train
90,-3.508544445037842,-4.0,2021-01-21 18:48:55.278000+00:00,train
91,-3.4965171813964844,-4.0,2021-01-21 18:49:25.278000+00:00,train
92,-3.484945297241211,-4.0,2021-01-21 18:49:55.278000+00:00,train
93,-3.473834753036499,-4.0,2021-01-21 18:50:25.278000+00:00,train
94,-3.4631903171539307,-4.0,2021-01-21 18:50:55.278000+00:00,train
95,-3.453019380569458,-4.0,2021-01-21 18:51:25.278000+00:00,train
96,-3.4433281421661377,-4.0,2021-01-21 18:51:55.278000+00:00,train
97,-3.4341228008270264,-4.0,2021-01-21 18:52:25.278000+00:00,train
98,-3.42541241645813,-3.0,2021-01-21 18:52:55.278000+00:00,train
99,-3.4172043800354004,-3.0,2021-01-21 18:53:25.278000+00:00,train
100,-3.409508466720581,-3.0,2021-01-21 18:53:55.278000+00:00,train
101,-3.402332067489624,-3.0,2021-01-21 18:54:25.278000+00:00,train
102,-3.3956873416900635,-3.0,2021-01-21 18:54:55.278000+00:00,train
103,-3.374016761779785,-3.0,2021-01-21 18:55:25.278000+00:00,train
104,-3.3530466556549072,-3.0,2021-01-21 18:55:55.278000+00:00,train
105,-3.3327927589416504,-3.0,2021-01-21 18:56:25.278000+00:00,train
106,-3.313257932662964,-3.0,2021-01-21 18:56:55.278000+00:00,train
107,-3.294450044631958,-3.0,2021-01-21 18:57:25.278000+00:00,train
108,-3.2763724327087402,-3.0,2021-01-21 18:57:55.278000+00:00,train
109,-3.2590363025665283,-3.0,2021-01-21 18:58:25.278000+00:00,train
110,-3.2424509525299072,-3.0,2021-01-21 18:58:55.278000+00:00,train
111,-3.226623296737671,-3.0,2021-01-21 18:59:25.278000+00:00,train
112,-3.2115652561187744,-3.0,2021-01-21 18:59:55.278000+00:00,train
113,-3.197288751602173,-3.0,2021-01-21 19:00:25.278000+00:00,train
114,-3.1838080883026123,-3.0,2021-01-21 19:00:55.278000+00:00,train
115,-3.1711349487304688,-3.0,2021-01-21 19:01:25.278000+00:00,train
116,-3.159287214279175,-3.0,2021-01-21 19:01:55.278000+00:00,train
117,-3.1482789516448975,-3.0,2021-01-21 19:02:25.278000+00:00,train
118,-3.138131856918335,-3.0,2021-01-21 19:02:55.278000+00:00,train
119,-3.12886643409729,-3.0,2021-01-21 19:03:25.278000+00:00,train
120,-3.1098580360412598,-3.0,2021-01-21 19:03:55.278000+00:00,train
121,-3.091338634490967,-3.0,2021-01-21 19:04:25.278000+00:00,train
122,-3.0733089447021484,-3.0,2021-01-21 19:04:55.278000+00:00,train
123,-3.0557703971862793,-3.0,2021-01-21 19:05:25.278000+00:00,train
124,-3.0387258529663086,-3.0,2021-01-21 19:05:55.278000+00:00,train
125,-3.02217698097229,-3.0,2021-01-21 19:06:25.278000+00:00,train
126,-3.006126880645752,-3.0,2021-01-21 19:06:55.278000+00:00,train
127,-2.9905784130096436,-3.0,2021-01-21 19:07:25.278000+00:00,train
128,-2.9755351543426514,-3.0,2021-01-21 19:07:55.278000+00:00,train
129,-2.9610018730163574,-3.0,2021-01-21 19:08:25.278000+00:00,train
130,-2.9469830989837646,-3.0,2021-01-21 19:08:55.278000+00:00,train
131,-2.933483600616455,-3.0,2021-01-21 19:09:25.278000+00:00,train
132,-2.920508861541748,-3.0,2021-01-21 19:09:55.278000+00:00,train
133,-2.9080655574798584,-3.0,2021-01-21 19:10:25.278000+00:00,train
134,-2.896160364151001,-3.0,2021-01-21 19:10:55.278000+00:00,train
135,-2.884800434112549,-3.0,2021-01-21 19:11:25.278000+00:00,train
136,-2.8739938735961914,-3.0,2021-01-21 19:11:55.278000+00:00,train
137,-2.8637499809265137,-3.0,2021-01-21 19:12:25.278000+00:00,train
138,-2.8540773391723633,-3.0,2021-01-21 19:12:55.278000+00:00,train
139,-2.844986915588379,-3.0,2021-01-21 19:13:25.278000+00:00,train
140,-2.836489200592041,-3.0,2021-01-21 19:13:55.278000+00:00,train
141,-2.828597068786621,-3.0,2021-01-21 19:14:25.278000+00:00,train
142,-2.821322441101074,-3.0,2021-01-21 19:14:55.278000+00:00,train
143,-2.8146800994873047,-3.0,2021-01-21 19:15:25.278000+00:00,train
144,-2.808685302734375,-3.0,2021-01-21 19:15:55.278000+00:00,train
145,-2.803354024887085,-3.0,2021-01-21 19:16:25.278000+00:00,train
146,-2.7987051010131836,-3.0,2021-01-21 19:16:55.278000+00:00,train
147,-2.794757604598999,-3.0,2021-01-21 19:17:25.278000+00:00,train
148,-2.791532039642334,-3.0,2021-01-21 19:17:55.278000+00:00,train
149,-2.7890520095825195,-3.0,2021-01-21 19:18:25.278000+00:00,train
150,-2.7873425483703613,-3.0,2021-01-21 19:18:55.278000+00:00,train
151,-2.786431312561035,-3.0,2021-01-21 19:19:25.278000+00:00,train
152,-2.7863478660583496,-3.0,2021-01-21 19:19:55.278000+00:00,train
153,-2.7757232189178467,-3.0,2021-01-21 19:20:25.278000+00:00,train
154,-2.765444040298462,-3.0,2021-01-21 19:20:55.278000+00:00,train
155,-2.755513906478882,-3.0,2021-01-21 19:21:25.278000+00:00,train
156,-2.745936155319214,-3.0,2021-01-21 19:21:55.278000+00:00,train
157,-2.736715316772461,-3.0,2021-01-21 19:22:25.278000+00:00,train
158,-2.7278544902801514,-3.0,2021-01-21 19:22:55.278000+00:00,train
159,-2.719359874725342,-3.0,2021-01-21 19:23:25.278000+00:00,train
160,-2.7112345695495605,-3.0,2021-01-21 19:23:55.278000+00:00,train
161,-2.7034850120544434,-3.0,2021-01-21 19:24:25.278000+00:00,train
162,-2.6961147785186768,-3.0,2021-01-21 19:24:55.278000+00:00,train
163,-2.689134120941162,-3.0,2021-01-21 19:25:25.278000+00:00,train
164,-2.6825454235076904,-3.0,2021-01-21 19:25:55.278000+00:00,train
165,-2.676356554031372,-3.0,2021-01-21 19:26:25.278000+00:00,train
166,-2.6705753803253174,-3.0,2021-01-21 19:26:55.278000+00:00,train
167,-2.6652092933654785,-3.0,2021-01-21 19:27:25.278000+00:00,train
168,-2.6602671146392822,-3.0,2021-01-21 19:27:55.278000+00:00,train
169,-2.655757427215576,-3.0,2021-01-21 19:28:25.278000+00:00,train
170,-2.651691198348999,-3.0,2021-01-21 19:28:55.278000+00:00,train
171,-2.648078441619873,-3.0,2021-01-21 19:29:25.278000+00:00,train
172,-2.644930601119995,-3.0,2021-01-21 19:29:55.278000+00:00,train
173,-2.6422531604766846,-3.0,2021-01-21 19:30:25.278000+00:00,train
174,-2.640068292617798,-3.0,2021-01-21 19:30:55.278000+00:00,train
175,-2.638388156890869,-3.0,2021-01-21 19:31:25.278000+00:00,train
176,-2.6372292041778564,-3.0,2021-01-21 19:31:55.278000+00:00,train
177,-2.6366069316864014,-3.0,2021-01-21 19:32:25.278000+00:00,train
178,-2.6365394592285156,-3.0,2021-01-21 19:32:55.278000+00:00,train
179,-2.6370463371276855,-3.0,2021-01-21 19:33:25.278000+00:00,train
180,-2.6381494998931885,-3.0,2021-01-21 19:33:55.278000+00:00,train
181,-2.6398708820343018,-3.0,2021-01-21 19:34:25.278000+00:00,train
182,-2.6422369480133057,-3.0,2021-01-21 19:34:55.278000+00:00,train
183,-2.6452760696411133,-3.0,2021-01-21 19:35:25.278000+00:00,train
184,-2.6490182876586914,-3.0,2021-01-21 19:35:55.278000+00:00,train
185,-2.6423444747924805,-3.0,2021-01-21 19:36:25.278000+00:00,train
186,-2.6358718872070312,-3.0,2021-01-21 19:36:55.278000+00:00,train
187,-2.629601001739502,-3.0,2021-01-21 19:37:25.278000+00:00,train
188,-2.623534917831421,-3.0,2021-01-21 19:37:55.278000+00:00,train
189,-2.617675304412842,-3.0,2021-01-21 19:38:25.278000+00:00,train
190,-2.6120238304138184,-3.0,2021-01-21 19:38:55.278000+00:00,train
191,-2.606583833694458,-3.0,2021-01-21 19:39:25.278000+00:00,train
192,-2.6013574600219727,-3.0,2021-01-21 19:39:55.278000+00:00,train
193,-2.5963478088378906,-3.0,2021-01-21 19:40:25.278000+00:00,train
194,-2.591557264328003,-3.0,2021-01-21 19:40:55.278000+00:00,train
195,-2.5869884490966797,-3.0,2021-01-21 19:41:25.278000+00:00,train
196,-2.5826451778411865,-3.0,2021-01-21 19:41:55.278000+00:00,train
197,-2.5785303115844727,-3.0,2021-01-21 19:42:25.278000+00:00,train
198,-2.5746476650238037,-3.0,2021-01-21 19:42:55.278000+00:00,train
199,-2.5710012912750244,-3.0,2021-01-21 19:43:25.278000+00:00,train
200,-2.5675954818725586,-3.0,2021-01-21 19:43:55.278000+00:00,train
201,-2.564434289932251,-2.0,2021-01-21 19:44:25.278000+00:00,train
202,-2.5615224838256836,-2.0,2021-01-21 19:44:55.278000+00:00,train
203,-2.5588648319244385,-2.0,2021-01-21 19:45:25.278000+00:00,train
204,-2.5564663410186768,-2.0,2021-01-21 19:45:55.278000+00:00,train
205,-2.554333209991455,-2.0,2021-01-21 19:46:25.278000+00:00,train
206,-2.535770893096924,-2.0,2021-01-21 19:46:55.278000+00:00,train
207,-2.5176913738250732,-2.0,2021-01-21 19:47:25.278000+00:00,train
208,-2.5000908374786377,-2.0,2021-01-21 19:47:55.278000+00:00,train
209,-2.4829657077789307,-2.0,2021-01-21 19:48:25.278000+00:00,train
210,-2.466313362121582,-2.0,2021-01-21 19:48:55.278000+00:00,train
211,-2.4501311779022217,-2.0,2021-01-21 19:49:25.278000+00:00,train
212,-2.4344186782836914,-2.0,2021-01-21 19:49:55.278000+00:00,train
213,-2.4191737174987793,-2.0,2021-01-21 19:50:25.278000+00:00,train
214,-2.4043970108032227,-2.0,2021-01-21 19:50:55.278000+00:00,train
215,-2.390087842941284,-2.0,2021-01-21 19:51:25.278000+00:00,train
216,-2.3762481212615967,-2.0,2021-01-21 19:51:55.278000+00:00,train
217,-2.3628783226013184,-2.0,2021-01-21 19:52:25.278000+00:00,train
218,-2.3499810695648193,-2.0,2021-01-21 19:52:55.278000+00:00,train
219,-2.337559938430786,-2.0,2021-01-21 19:53:25.278000+00:00,train
220,-2.3256168365478516,-2.0,2021-01-21 19:53:55.278000+00:00,train
221,-2.314157247543335,-2.0,2021-01-21 19:54:25.278000+00:00,train
222,-2.3031857013702393,-2.0,2021-01-21 19:54:55.278000+00:00,train
223,-2.292707920074463,-2.0,2021-01-21 19:55:25.278000+00:00,train
224,-2.2827296257019043,-2.0,2021-01-21 19:55:55.278000+00:00,train
225,-2.2732582092285156,-2.0,2021-01-21 19:56:25.278000+00:00,train
226,-2.2643022537231445,-2.0,2021-01-21 19:56:55.278000+00:00,train
227,-2.2558703422546387,-2.0,2021-01-21 19:57:25.278000+00:00,train
228,-2.2479727268218994,-2.0,2021-01-21 19:57:55.278000+00:00,train
229,-2.2406206130981445,-2.0,2021-01-21 19:58:25.278000+00:00,train
230,-2.2338263988494873,-2.0,2021-01-21 19:58:55.278000+00:00,train
231,-2.227604627609253,-2.0,2021-01-21 19:59:25.278000+00:00,train
232,-2.2219696044921875,-2.0,2021-01-21 19:59:55.278000+00:00,train
233,-2.207217216491699,-2.0,2021-01-21 20:00:25.278000+00:00,train
234,-2.1927106380462646,-2.0,2021-01-21 20:00:55.278000+00:00,train
235,-2.1784474849700928,-2.0,2021-01-21 20:01:25.278000+00:00,train
236,-2.164424419403076,-2.0,2021-01-21 20:01:55.278000+00:00,train
237,-2.1506385803222656,-2.0,2021-01-21 20:02:25.278000+00:00,train
238,-2.137087106704712,-2.0,2021-01-21 20:02:55.278000+00:00,train
239,-2.123767852783203,-2.0,2021-01-21 20:03:25.278000+00:00,train
240,-2.1106784343719482,-2.0,2021-01-21 20:03:55.278000+00:00,train
241,-2.0978167057037354,-2.0,2021-01-21 20:04:25.278000+00:00,train
242,-2.08518123626709,-2.0,2021-01-21 20:04:55.278000+00:00,train
243,-2.072770118713379,-2.0,2021-01-21 20:05:25.278000+00:00,train
244,-2.060581684112549,-2.0,2021-01-21 20:05:55.278000+00:00,train
245,-2.048614025115967,-2.0,2021-01-21 20:06:25.278000+00:00,train
246,-2.0368669033050537,-2.0,2021-01-21 20:06:55.278000+00:00,train
247,-2.025338649749756,-2.0,2021-01-21 20:07:25.278000+00:00,train
248,-2.014028787612915,-2.0,2021-01-21 20:07:55.278000+00:00,train
249,-2.0029358863830566,-2.0,2021-01-21 20:08:25.278000+00:00,train
250,-1.992059588432312,-2.0,2021-01-21 20:08:55.278000+00:00,train
251,-1.9813998937606812,-2.0,2021-01-21 20:09:25.278000+00:00,train
252,-1.9709558486938477,-2.0,2021-01-21 20:09:55.278000+00:00,train
253,-1.960727334022522,-2.0,2021-01-21 20:10:25.278000+00:00,train
254,-1.9507136344909668,-2.0,2021-01-21 20:10:55.278000+00:00,train
255,-1.940915584564209,-2.0,2021-01-21 20:11:25.278000+00:00,train
256,-1.9313325881958008,-2.0,2021-01-21 20:11:55.278000+00:00,train
257,-1.9219653606414795,-2.0,2021-01-21 20:12:25.278000+00:00,train
258,-1.9128142595291138,-2.0,2021-01-21 20:12:55.278000+00:00,train
259,-1.903880000114441,-2.0,2021-01-21 20:13:25.278000+00:00,train
260,-1.895162582397461,-2.0,2021-01-21 20:13:55.278000+00:00,train
261,-1.8866636753082275,-2.0,2021-01-21 20:14:25.278000+00:00,train
262,-1.8783838748931885,-2.0,2021-01-21 20:14:55.278000+00:00,train
263,-1.8703240156173706,-2.0,2021-01-21 20:15:25.278000+00:00,train
264,-1.8624861240386963,-2.0,2021-01-21 20:15:55.278000+00:00,train
265,-1.9261850118637085,-2.0,2021-01-21 20:16:25.278000+00:00,train
266,-1.9186108112335205,-2.0,2021-01-21 20:16:55.278000+00:00,train
267,-1.9112473726272583,-2.0,2021-01-21 20:17:25.278000+00:00,train
268,-1.9040966033935547,-2.0,2021-01-21 20:17:55.278000+00:00,train
269,-1.8971598148345947,-2.0,2021-01-21 20:18:25.278000+00:00,train
270,-1.8904396295547485,-2.0,2021-01-21 20:18:55.278000+00:00,train
271,-1.883937954902649,-2.0,2021-01-21 20:19:25.278000+00:00,train
272,-1.877657413482666,-2.0,2021-01-21 20:19:55.278000+00:00,train
273,-1.8716009855270386,-2.0,2021-01-21 20:20:25.278000+00:00,train
274,-1.8657677173614502,-2.0,2021-01-21 20:20:55.278000+00:00,train
275,-1.8601655960083008,-2.0,2021-01-21 20:21:25.278000+00:00,train
276,-1.8547970056533813,-2.0,2021-01-21 20:21:55.278000+00:00,train
277,-1.8496651649475098,-2.0,2021-01-21 20:22:25.278000+00:00,train
278,-1.8447742462158203,-2.0,2021-01-21 20:22:55.278000+00:00,train
279,-1.8401275873184204,-2.0,2021-01-21 20:23:25.278000+00:00,train
280,-1.8357304334640503,-2.0,2021-01-21 20:23:55.278000+00:00,train
281,-1.8315869569778442,-2.0,2021-01-21 20:24:25.278000+00:00,train
282,-1.8277021646499634,-2.0,2021-01-21 20:24:55.278000+00:00,train
283,-1.8240816593170166,-2.0,2021-01-21 20:25:25.278000+00:00,train
284,-1.8207310438156128,-2.0,2021-01-21 20:25:55.278000+00:00,train
285,-1.8176580667495728,-2.0,2021-01-21 20:26:25.278000+00:00,train
286,-1.816821813583374,-2.0,2021-01-21 20:26:55.278000+00:00,train
287,-1.814305067062378,-2.0,2021-01-21 20:27:25.278000+00:00,train
288,-1.8120841979980469,-2.0,2021-01-21 20:27:55.278000+00:00,train
289,-1.8101688623428345,-2.0,2021-01-21 20:28:25.278000+00:00,train
290,-1.808568000793457,-2.0,2021-01-21 20:28:55.278000+00:00,train
291,-1.8072991371154785,-2.0,2021-01-21 20:29:25.278000+00:00,train
292,-1.8099552392959595,-2.0,2021-01-21 20:29:55.278000+00:00,train
293,-1.8093186616897583,-2.0,2021-01-21 20:30:25.278000+00:00,train
294,-1.8077387809753418,-2.0,2021-01-21 20:30:55.278000+00:00,train
295,-1.8078533411026,-2.0,2021-01-21 20:31:25.278000+00:00,train
296,-1.8145644664764404,-2.0,2021-01-21 20:31:55.278000+00:00,train
297,-1.8153759241104126,-2.0,2021-01-21 20:32:25.278000+00:00,train
298,-1.8166002035140991,-2.0,2021-01-21 20:32:55.278000+00:00,train
299,-1.818259835243225,-2.0,2021-01-21 20:33:25.278000+00:00,train
300,-1.8203775882720947,-2.0,2021-01-21 20:33:55.278000+00:00,train
301,-1.822994351387024,-2.0,2021-01-21 20:34:25.278000+00:00,train
302,-1.8353596925735474,-2.0,2021-01-21 20:34:55.278000+00:00,train
303,-1.8301745653152466,-2.0,2021-01-21 20:35:25.278000+00:00,train
304,-1.8250555992126465,-2.0,2021-01-21 20:35:55.278000+00:00,train
305,-1.820004940032959,-2.0,2021-01-21 20:36:25.278000+00:00,train
306,-1.8150254487991333,-2.0,2021-01-21 20:36:55.278000+00:00,train
307,-1.8108925819396973,-2.0,2021-01-21 20:37:25.278000+00:00,train
308,-2.0547611713409424,-2.0,2021-01-21 20:37:55.278000+00:00,train
309,-2.0497961044311523,-2.0,2021-01-21 20:38:25.278000+00:00,train
310,-2.0448734760284424,-2.0,2021-01-21 20:38:55.278000+00:00,train
311,-2.0399935245513916,-2.0,2021-01-21 20:39:25.278000+00:00,train
312,-2.0351569652557373,-2.0,2021-01-21 20:39:55.278000+00:00,train
313,-2.0303640365600586,-2.0,2021-01-21 20:40:25.278000+00:00,train
314,-2.0256145000457764,-2.0,2021-01-21 20:40:55.278000+00:00,train
315,-2.020908832550049,-2.0,2021-01-21 20:41:25.278000+00:00,train
316,-2.016246795654297,-2.0,2021-01-21 20:41:55.278000+00:00,train
317,-2.0116302967071533,-2.0,2021-01-21 20:42:25.278000+00:00,train
318,-2.0070574283599854,-2.0,2021-01-21 20:42:55.278000+00:00,train
319,-2.0025289058685303,-2.0,2021-01-21 20:43:25.278000+00:00,train
320,-1.9980449676513672,-2.0,2021-01-21 20:43:55.278000+00:00,train
321,-1.9936060905456543,-2.0,2021-01-21 20:44:25.278000+00:00,train
322,-1.9892122745513916,-2.0,2021-01-21 20:44:55.278000+00:00,train
323,-1.9848639965057373,-2.0,2021-01-21 20:45:25.278000+00:00,train
324,-1.9805611371994019,-2.0,2021-01-21 20:45:55.278000+00:00,train
325,-1.9763048887252808,-2.0,2021-01-21 20:46:25.278000+00:00,train
326,-1.9720948934555054,-2.0,2021-01-21 20:46:55.278000+00:00,train
327,-1.9679315090179443,-2.0,2021-01-21 20:47:25.278000+00:00,train
328,-1.9638153314590454,-2.0,2021-01-21 20:47:55.278000+00:00,train
329,-1.9597464799880981,-2.0,2021-01-21 20:48:25.278000+00:00,train
330,-1.9557254314422607,-2.0,2021-01-21 20:48:55.278000+00:00,train
331,-1.9517526626586914,-2.0,2021-01-21 20:49:25.278000+00:00,train
332,-1.9478288888931274,-2.0,2021-01-21 20:49:55.278000+00:00,train
333,-1.9439541101455688,-2.0,2021-01-21 20:50:25.278000+00:00,train
334,-1.9401301145553589,-2.0,2021-01-21 20:50:55.278000+00:00,train
335,-1.936355710029602,-2.0,2021-01-21 20:51:25.278000+00:00,train
336,-1.9326318502426147,-2.0,2021-01-21 20:51:55.278000+00:00,train
337,-1.9289591312408447,-2.0,2021-01-21 20:52:25.278000+00:00,train
338,-1.9253382682800293,-2.0,2021-01-21 20:52:55.278000+00:00,train
339,-1.9217698574066162,-2.0,2021-01-21 20:53:25.278000+00:00,train
340,-1.918254017829895,-2.0,2021-01-21 20:53:55.278000+00:00,train
341,-1.9147921800613403,-2.0,2021-01-21 20:54:25.278000+00:00,train
342,-1.9113847017288208,-2.0,2021-01-21 20:54:55.278000+00:00,train
343,-1.9080324172973633,-2.0,2021-01-21 20:55:25.278000+00:00,train
344,-1.9047359228134155,-2.0,2021-01-21 20:55:55.278000+00:00,train
345,-1.9014962911605835,-2.0,2021-01-21 20:56:25.278000+00:00,train
346,-1.8983137607574463,-2.0,2021-01-21 20:56:55.278000+00:00,train
347,-1.8951897621154785,-2.0,2021-01-21 20:57:25.278000+00:00,train
348,-1.8921253681182861,-2.0,2021-01-21 20:57:55.278000+00:00,train
349,-1.8891209363937378,-2.0,2021-01-21 20:58:25.278000+00:00,train
350,-1.8861782550811768,-2.0,2021-01-21 20:58:55.278000+00:00,train
351,-1.8832981586456299,-2.0,2021-01-21 20:59:25.278000+00:00,train
352,-1.8804816007614136,-2.0,2021-01-21 20:59:55.278000+00:00,train
353,-1.8777291774749756,-2.0,2021-01-21 21:00:25.278000+00:00,train
354,-1.8750430345535278,0.0,2021-01-21 21:00:55.278000+00:00,train
355,-1.8724238872528076,-2.0,2021-01-21 21:01:25.278000+00:00,train
356,-1.8698729276657104,-2.0,2021-01-21 21:01:55.278000+00:00,train
357,-1.871697187423706,-2.0,2021-01-21 21:02:25.278000+00:00,train
358,-1.8692413568496704,-2.0,2021-01-21 21:02:55.278000+00:00,train
359,-1.8323664665222168,-2.0,2021-01-21 21:03:25.278000+00:00,train
360,-1.8301042318344116,-2.0,2021-01-21 21:03:55.278000+00:00,train
361,-1.8277844190597534,-2.0,2021-01-21 21:04:25.278000+00:00,train
362,-1.825536847114563,-2.0,2021-01-21 21:04:55.278000+00:00,train
363,-1.8233562707901,-2.0,2021-01-21 21:05:25.278000+00:00,train
364,-1.8212482929229736,-2.0,2021-01-21 21:05:55.278000+00:00,train
365,-1.8192167282104492,-2.0,2021-01-21 21:06:25.278000+00:00,train
366,-1.8172634840011597,-2.0,2021-01-21 21:06:55.278000+00:00,train
367,-1.8153913021087646,-2.0,2021-01-21 21:07:25.278000+00:00,train
368,-1.8136028051376343,-2.0,2021-01-21 21:07:55.278000+00:00,train
369,-1.8118993043899536,-2.0,2021-01-21 21:08:25.278000+00:00,train
370,-1.8102835416793823,-2.0,2021-01-21 21:08:55.278000+00:00,train
371,-1.8087586164474487,-2.0,2021-01-21 21:09:25.278000+00:00,train
372,-1.8073266744613647,-2.0,2021-01-21 21:09:55.278000+00:00,train
373,-1.8059914112091064,-2.0,2021-01-21 21:10:25.278000+00:00,train
374,-1.804755449295044,-2.0,2021-01-21 21:10:55.278000+00:00,train
375,-1.8036229610443115,-2.0,2021-01-21 21:11:25.278000+00:00,train
376,-1.8025968074798584,-2.0,2021-01-21 21:11:55.278000+00:00,train
377,-1.801681637763977,-2.0,2021-01-21 21:12:25.278000+00:00,train
378,-1.800881266593933,-2.0,2021-01-21 21:12:55.278000+00:00,train
379,-1.8002005815505981,-2.0,2021-01-21 21:13:25.278000+00:00,train
380,-1.7996447086334229,-2.0,2021-01-21 21:13:55.278000+00:00,train
381,-1.7992186546325684,-2.0,2021-01-21 21:14:25.278000+00:00,train
382,-1.7989290952682495,-2.0,2021-01-21 21:14:55.278000+00:00,train
383,-1.7987818717956543,-2.0,2021-01-21 21:15:25.278000+00:00,train
384,-1.798784852027893,-2.0,2021-01-21 21:15:55.278000+00:00,train
385,-1.7989449501037598,-2.0,2021-01-21 21:16:25.278000+00:00,train
386,-1.7992713451385498,-2.0,2021-01-21 21:16:55.278000+00:00,train
387,-1.7997734546661377,-2.0,2021-01-21 21:17:25.278000+00:00,train
388,-1.8004623651504517,-2.0,2021-01-21 21:17:55.278000+00:00,train
389,-1.8013495206832886,-2.0,2021-01-21 21:18:25.278000+00:00,train
390,-1.8024489879608154,-2.0,2021-01-21 21:18:55.278000+00:00,train
391,-1.8037749528884888,-2.0,2021-01-21 21:19:25.278000+00:00,train
392,-1.8053443431854248,-2.0,2021-01-21 21:19:55.278000+00:00,train
393,-1.8071792125701904,-2.0,2021-01-21 21:20:25.278000+00:00,train
394,-1.8093019723892212,-2.0,2021-01-21 21:20:55.278000+00:00,train
395,-1.8117395639419556,-2.0,2021-01-21 21:21:25.278000+00:00,train
396,-1.81452476978302,-2.0,2021-01-21 21:21:55.278000+00:00,train
397,-1.817694902420044,-2.0,2021-01-21 21:22:25.278000+00:00,train
398,-1.8212971687316895,-2.0,2021-01-21 21:22:55.278000+00:00,train
399,-1.8253881931304932,-2.0,2021-01-21 21:23:25.278000+00:00,train
400,-1.8300409317016602,-2.0,2021-01-21 21:23:55.278000+00:00,train
401,-1.8353478908538818,-2.0,2021-01-21 21:24:25.278000+00:00,train
402,-1.8414336442947388,-2.0,2021-01-21 21:24:55.278000+00:00,train
403,-1.84846830368042,-2.0,2021-01-21 21:25:25.278000+00:00,train
404,-1.8567001819610596,-2.0,2021-01-21 21:25:55.278000+00:00,train
405,-1.8665134906768799,-2.0,2021-01-21 21:26:25.278000+00:00,train
406,-1.866477131843567,-2.0,2021-01-21 21:26:55.278000+00:00,train
407,-1.866440773010254,-2.0,2021-01-21 21:27:25.278000+00:00,train
408,-1.8664045333862305,-2.0,2021-01-21 21:27:55.278000+00:00,train
409,-1.866368293762207,-2.0,2021-01-21 21:28:25.278000+00:00,train
410,-1.866331934928894,-2.0,2021-01-21 21:28:55.278000+00:00,train
411,-1.8662956953048706,-2.0,2021-01-21 21:29:25.278000+00:00,train
412,-1.8662593364715576,-2.0,2021-01-21 21:29:55.278000+00:00,train
413,-1.8662230968475342,-2.0,2021-01-21 21:30:25.278000+00:00,train
414,-1.8661868572235107,-2.0,2021-01-21 21:30:55.278000+00:00,train
415,-1.8661507368087769,-2.0,2021-01-21 21:31:25.278000+00:00,train
416,-1.866114616394043,-2.0,2021-01-21 21:31:55.278000+00:00,train
417,-1.866078495979309,-2.0,2021-01-21 21:32:25.278000+00:00,train
418,-1.8660422563552856,-2.0,2021-01-21 21:32:55.278000+00:00,train
419,-1.8660062551498413,-2.0,2021-01-21 21:33:25.278000+00:00,train
420,-1.865970253944397,-2.0,2021-01-21 21:33:55.278000+00:00,train
421,-1.8659343719482422,-2.0,2021-01-21 21:34:25.278000+00:00,train
422,-1.8658982515335083,-2.0,2021-01-21 21:34:55.278000+00:00,train
423,-1.865862250328064,-2.0,2021-01-21 21:35:25.278000+00:00,train
424,-1.8658262491226196,-2.0,2021-01-21 21:35:55.278000+00:00,train
425,-1.8657903671264648,-2.0,2021-01-21 21:36:25.278000+00:00,train
426,-1.86575448513031,-2.0,2021-01-21 21:36:55.278000+00:00,train
427,-1.8657186031341553,-2.0,2021-01-21 21:37:25.278000+00:00,train
428,-1.8656829595565796,-2.0,2021-01-21 21:37:55.278000+00:00,train
429,-1.865647315979004,-2.0,2021-01-21 21:38:25.278000+00:00,train
430,-1.8656116724014282,-2.0,2021-01-21 21:38:55.278000+00:00,train
431,-1.865576148033142,-2.0,2021-01-21 21:39:25.278000+00:00,train
432,-1.8655405044555664,-2.0,2021-01-21 21:39:55.278000+00:00,train
433,-1.8655049800872803,-2.0,2021-01-21 21:40:25.278000+00:00,train
434,-1.8654693365097046,-2.0,2021-01-21 21:40:55.278000+00:00,train
435,-1.8654338121414185,-2.0,2021-01-21 21:41:25.278000+00:00,train
436,-1.8653981685638428,-2.0,2021-01-21 21:41:55.278000+00:00,train
437,-1.8653627634048462,-2.0,2021-01-21 21:42:25.278000+00:00,train
438,-1.86532723903656,-2.0,2021-01-21 21:42:55.278000+00:00,train
439,-1.8652918338775635,-2.0,2021-01-21 21:43:25.278000+00:00,train
440,-1.8652563095092773,-2.0,2021-01-21 21:43:55.278000+00:00,train
441,-1.8652210235595703,-2.0,2021-01-21 21:44:25.278000+00:00,train
442,-1.8651856184005737,-2.0,2021-01-21 21:44:55.278000+00:00,train
443,-1.8651504516601562,-2.0,2021-01-21 21:45:25.278000+00:00,train
444,-1.8651151657104492,-2.0,2021-01-21 21:45:55.278000+00:00,train
445,-1.8650798797607422,-2.0,2021-01-21 21:46:25.278000+00:00,train
446,-1.8650445938110352,-2.0,2021-01-21 21:46:55.278000+00:00,train
447,-1.8650095462799072,-2.0,2021-01-21 21:47:25.278000+00:00,train
448,-1.8649743795394897,-2.0,2021-01-21 21:47:55.278000+00:00,train
449,-1.8649393320083618,-2.0,2021-01-21 21:48:25.278000+00:00,train
450,-1.8649042844772339,-2.0,2021-01-21 21:48:55.278000+00:00,train
451,-1.864869475364685,-2.0,2021-01-21 21:49:25.278000+00:00,train
452,-1.8648344278335571,-2.0,2021-01-21 21:49:55.278000+00:00,train
453,-1.8647996187210083,-2.0,2021-01-21 21:50:25.278000+00:00,train
454,-1.86476469039917,-2.0,2021-01-21 21:50:55.278000+00:00,train
455,-1.8647300004959106,-2.0,2021-01-21 21:51:25.278000+00:00,train
456,-1.8646950721740723,-2.0,2021-01-21 21:51:55.278000+00:00,train
457,-1.864660382270813,-2.0,2021-01-21 21:52:25.278000+00:00,train
458,-1.8646255731582642,-2.0,2021-01-21 21:52:55.278000+00:00,train
459,-1.8645907640457153,-2.0,2021-01-21 21:53:25.278000+00:00,train
460,-1.8645561933517456,-2.0,2021-01-21 21:53:55.278000+00:00,train
461,-1.8645213842391968,-2.0,2021-01-21 21:54:25.278000+00:00,train
462,-1.8644869327545166,-2.0,2021-01-21 21:54:55.278000+00:00,train
463,-1.8644522428512573,-2.0,2021-01-21 21:55:25.278000+00:00,train
464,-1.8644177913665771,-2.0,2021-01-21 21:55:55.278000+00:00,train
465,-1.864383339881897,-1.0,2021-01-21 21:56:25.278000+00:00,train
466,-1.8643488883972168,-2.0,2021-01-21 21:56:55.278000+00:00,train
467,-1.8643144369125366,-2.0,2021-01-21 21:57:25.278000+00:00,train
468,-1.8642799854278564,-2.0,2021-01-21 21:57:55.278000+00:00,train
469,-1.8642455339431763,-2.0,2021-01-21 21:58:25.278000+00:00,train
470,-1.8446366786956787,-2.0,2021-01-21 21:58:55.278000+00:00,train
471,-1.8446000814437866,-2.0,2021-01-21 21:59:25.278000+00:00,train
472,-1.8445621728897095,-1.0,2021-01-21 21:59:55.278000+00:00,train
473,-1.8445241451263428,-1.0,2021-01-21 22:00:25.278000+00:00,train
474,-1.8444862365722656,0.0,2021-01-21 22:00:55.278000+00:00,train
475,-1.844448447227478,-1.0,2021-01-21 22:01:25.278000+00:00,train
476,-1.8444105386734009,-1.0,2021-01-21 22:01:55.278000+00:00,train
477,-1.8262768983840942,-1.0,2021-01-21 22:02:25.278000+00:00,train
478,-1.8092870712280273,-1.0,2021-01-21 22:02:55.278000+00:00,train
479,-1.7575619220733643,-1.0,2021-01-21 22:03:25.278000+00:00,train
480,-1.7438489198684692,-1.0,2021-01-21 22:03:55.278000+00:00,train
481,-1.7304611206054688,-1.0,2021-01-21 22:04:25.278000+00:00,train
482,-1.7174618244171143,-1.0,2021-01-21 22:04:55.278000+00:00,train
483,-1.7048016786575317,-1.0,2021-01-21 22:05:25.278000+00:00,train
484,-1.6924504041671753,-1.0,2021-01-21 22:05:55.278000+00:00,train
485,-1.680380940437317,-1.0,2021-01-21 22:06:25.278000+00:00,train
486,-1.6685711145401,-1.0,2021-01-21 22:06:55.278000+00:00,train
487,-1.6570011377334595,-1.0,2021-01-21 22:07:25.278000+00:00,train
488,-1.6456540822982788,-1.0,2021-01-21 22:07:55.278000+00:00,train
489,-1.634514570236206,-1.0,2021-01-21 22:08:25.278000+00:00,train
490,-1.6235697269439697,-1.0,2021-01-21 22:08:55.278000+00:00,train
491,-1.6128077507019043,-1.0,2021-01-21 22:09:25.278000+00:00,train
492,-1.6022180318832397,-1.0,2021-01-21 22:09:55.278000+00:00,train
493,-1.5917913913726807,-1.0,2021-01-21 22:10:25.278000+00:00,train
494,-1.5815199613571167,-1.0,2021-01-21 22:10:55.278000+00:00,train
495,-1.5713948011398315,-1.0,2021-01-21 22:11:25.278000+00:00,train
496,-1.5614094734191895,-1.0,2021-01-21 22:11:55.278000+00:00,train
497,-1.5515578985214233,-1.0,2021-01-21 22:12:25.278000+00:00,train
498,-1.5418338775634766,-1.0,2021-01-21 22:12:55.278000+00:00,train
499,-1.532232403755188,-1.0,2021-01-21 22:13:25.278000+00:00,train
500,-1.5227444171905518,-1.0,2021-01-21 22:13:55.278000+00:00,train
501,-1.513371229171753,-1.0,2021-01-21 22:14:25.278000+00:00,train
502,-1.5041072368621826,-1.0,2021-01-21 22:14:55.278000+00:00,train
503,-1.494947910308838,-1.0,2021-01-21 22:15:25.278000+00:00,train
504,-1.4858903884887695,-1.0,2021-01-21 22:15:55.278000+00:00,train
505,-1.476931095123291,-1.0,2021-01-21 22:16:25.278000+00:00,train
506,-1.4680671691894531,-1.0,2021-01-21 22:16:55.278000+00:00,train
507,-1.4592955112457275,-1.0,2021-01-21 22:17:25.278000+00:00,train
508,-1.4506131410598755,-1.0,2021-01-21 22:17:55.278000+00:00,train
509,-1.4420173168182373,-1.0,2021-01-21 22:18:25.278000+00:00,train
510,-1.433505892753601,-1.0,2021-01-21 22:18:55.278000+00:00,train
511,-1.4250766038894653,-1.0,2021-01-21 22:19:25.278000+00:00,train
512,-1.4167273044586182,-1.0,2021-01-21 22:19:55.278000+00:00,train
513,-1.4084558486938477,-1.0,2021-01-21 22:20:25.278000+00:00,train
514,-1.4002617597579956,-1.0,2021-01-21 22:20:55.278000+00:00,train
515,-1.3921414613723755,-1.0,2021-01-21 22:21:25.278000+00:00,train
516,-1.3840936422348022,-1.0,2021-01-21 22:21:55.278000+00:00,train
517,-1.3761168718338013,-1.0,2021-01-21 22:22:25.278000+00:00,train
518,-1.368209719657898,-1.0,2021-01-21 22:22:55.278000+00:00,train
519,-1.3603708744049072,-1.0,2021-01-21 22:23:25.278000+00:00,train
520,-1.3525986671447754,-1.0,2021-01-21 22:23:55.278000+00:00,train
521,-1.3448920249938965,-1.0,2021-01-21 22:24:25.278000+00:00,train
522,-1.3372498750686646,-1.0,2021-01-21 22:24:55.278000+00:00,train
523,-1.3296712636947632,-1.0,2021-01-21 22:25:25.278000+00:00,train
524,-1.3221547603607178,-1.0,2021-01-21 22:25:55.278000+00:00,train
525,-1.314699411392212,-1.0,2021-01-21 22:26:25.278000+00:00,train
526,-1.30730402469635,-1.0,2021-01-21 22:26:55.278000+00:00,train
527,-1.299967885017395,-1.0,2021-01-21 22:27:25.278000+00:00,train
528,-1.2926902770996094,-1.0,2021-01-21 22:27:55.278000+00:00,train
529,-1.2854701280593872,-1.0,2021-01-21 22:28:25.278000+00:00,train
530,-1.278306484222412,-1.0,2021-01-21 22:28:55.278000+00:00,train
531,-1.2711988687515259,-1.0,2021-01-21 22:29:25.278000+00:00,train
532,-1.264145851135254,-1.0,2021-01-21 22:29:55.278000+00:00,train
533,-1.2571474313735962,-1.0,2021-01-21 22:30:25.278000+00:00,train
534,-1.2502025365829468,-1.0,2021-01-21 22:30:55.278000+00:00,train
535,-1.2433106899261475,-1.0,2021-01-21 22:31:25.278000+00:00,train
536,-1.23647141456604,-1.0,2021-01-21 22:31:55.278000+00:00,train
537,-1.2296857833862305,-1.0,2021-01-21 22:32:25.278000+00:00,train
538,-1.2229511737823486,-1.0,2021-01-21 22:32:55.278000+00:00,train
539,-1.2162675857543945,-1.0,2021-01-21 22:33:25.278000+00:00,train
540,-1.2096343040466309,-1.0,2021-01-21 22:33:55.278000+00:00,train
541,-1.203050971031189,-1.0,2021-01-21 22:34:25.278000+00:00,train
542,-1.1965173482894897,-1.0,2021-01-21 22:34:55.278000+00:00,train
543,-1.1900326013565063,-1.0,2021-01-21 22:35:25.278000+00:00,train
544,-1.1835967302322388,-1.0,2021-01-21 22:35:55.278000+00:00,train
545,-1.1772093772888184,-1.0,2021-01-21 22:36:25.278000+00:00,train
546,-1.1708704233169556,-1.0,2021-01-21 22:36:55.278000+00:00,train
547,-1.164578914642334,-1.0,2021-01-21 22:37:25.278000+00:00,train
548,-1.1583349704742432,-1.0,2021-01-21 22:37:55.278000+00:00,train
549,-1.1521378755569458,-1.0,2021-01-21 22:38:25.278000+00:00,train
550,-1.1459875106811523,-1.0,2021-01-21 22:38:55.278000+00:00,train
551,-1.1398835182189941,-1.0,2021-01-21 22:39:25.278000+00:00,train
552,-1.133825659751892,-1.0,2021-01-21 22:39:55.278000+00:00,train
553,-1.1278139352798462,-1.0,2021-01-21 22:40:25.278000+00:00,train
554,-1.1218478679656982,-1.0,2021-01-21 22:40:55.278000+00:00,train
555,-1.1159276962280273,-1.0,2021-01-21 22:41:25.278000+00:00,train
556,-1.1100531816482544,-1.0,2021-01-21 22:41:55.278000+00:00,train
557,-1.1042240858078003,-1.0,2021-01-21 22:42:25.278000+00:00,train
558,-1.0984408855438232,-1.0,2021-01-21 22:42:55.278000+00:00,train
559,-1.113027572631836,-1.0,2021-01-21 22:43:25.278000+00:00,train
560,-1.107219934463501,-1.0,2021-01-21 22:43:55.278000+00:00,train
561,-1.101473093032837,-1.0,2021-01-21 22:44:25.278000+00:00,train
562,-1.0957716703414917,-1.0,2021-01-21 22:44:55.278000+00:00,train
563,-1.090116024017334,-1.0,2021-01-21 22:45:25.278000+00:00,train
564,-1.0845059156417847,-1.0,2021-01-21 22:45:55.278000+00:00,train
565,-1.0789412260055542,-1.0,2021-01-21 22:46:25.278000+00:00,train
566,-1.073421597480774,-1.0,2021-01-21 22:46:55.278000+00:00,train
567,-1.0679476261138916,-1.0,2021-01-21 22:47:25.278000+00:00,train
568,-1.0625183582305908,-1.0,2021-01-21 22:47:55.278000+00:00,train
569,-1.0571346282958984,-1.0,2021-01-21 22:48:25.278000+00:00,train
570,-1.0517961978912354,-1.0,2021-01-21 22:48:55.278000+00:00,train
571,-1.0465030670166016,-1.0,2021-01-21 22:49:25.278000+00:00,train
572,-1.0412547588348389,-1.0,2021-01-21 22:49:55.278000+00:00,train
573,-1.036051869392395,-1.0,2021-01-21 22:50:25.278000+00:00,train
574,-1.0308945178985596,-1.0,2021-01-21 22:50:55.278000+00:00,train
575,-1.025782585144043,-1.0,2021-01-21 22:51:25.278000+00:00,train
576,-1.0207161903381348,-1.0,2021-01-21 22:51:55.278000+00:00,train
577,-1.0156948566436768,-1.0,2021-01-21 22:52:25.278000+00:00,train
578,-1.0107192993164062,-1.0,2021-01-21 22:52:55.278000+00:00,train
579,-1.0057893991470337,-1.0,2021-01-21 22:53:25.278000+00:00,train
580,-1.0009055137634277,-1.0,2021-01-21 22:53:55.278000+00:00,train
581,-0.9960674047470093,-1.0,2021-01-21 22:54:25.278000+00:00,train
582,-0.9912754893302917,-1.0,2021-01-21 22:54:55.278000+00:00,train
583,-0.9865317940711975,-1.0,2021-01-21 22:55:25.278000+00:00,train
584,-0.9818336963653564,-1.0,2021-01-21 22:55:55.278000+00:00,train
585,-0.9771817922592163,-1.0,2021-01-21 22:56:25.278000+00:00,train
586,-0.972576379776001,-1.0,2021-01-21 22:56:55.278000+00:00,train
587,-0.9680176973342896,-1.0,2021-01-21 22:57:25.278000+00:00,train
588,-0.9635061621665955,-1.0,2021-01-21 22:57:55.278000+00:00,train
589,-0.9590413570404053,-1.0,2021-01-21 22:58:25.278000+00:00,train
590,-0.9546241164207458,-1.0,2021-01-21 22:58:55.278000+00:00,train
591,-0.9502549171447754,-1.0,2021-01-21 22:59:25.278000+00:00,train
592,-0.9459346532821655,-1.0,2021-01-21 22:59:55.278000+00:00,train
593,-0.9416628479957581,-1.0,2021-01-21 23:00:25.278000+00:00,train
594,-0.9374526739120483,0.0,2021-01-21 23:00:55.278000+00:00,train
595,-0.9332942962646484,-1.0,2021-01-21 23:01:25.278000+00:00,train
596,-0.9291849136352539,-1.0,2021-01-21 23:01:55.278000+00:00,train
597,-0.9251251816749573,-1.0,2021-01-21 23:02:25.278000+00:00,train
598,-0.921114981174469,-1.0,2021-01-21 23:02:55.278000+00:00,train
599,-0.9038817882537842,-1.0,2021-01-21 23:03:25.278000+00:00,train
600,-0.9000803232192993,-1.0,2021-01-21 23:03:55.278000+00:00,train
601,-0.8962745666503906,-1.0,2021-01-21 23:04:25.278000+00:00,train
602,-0.8925031423568726,-1.0,2021-01-21 23:04:55.278000+00:00,train
603,-0.8887760639190674,-1.0,2021-01-21 23:05:25.278000+00:00,train
604,-0.8850975632667542,-1.0,2021-01-21 23:05:55.278000+00:00,train
605,-0.8814690709114075,-1.0,2021-01-21 23:06:25.278000+00:00,train
606,-0.8778836727142334,-1.0,2021-01-21 23:06:55.278000+00:00,train
607,-0.8743540644645691,-1.0,2021-01-21 23:07:25.278000+00:00,train
608,-0.870879590511322,-1.0,2021-01-21 23:07:55.278000+00:00,train
609,-0.8674598932266235,-1.0,2021-01-21 23:08:25.278000+00:00,train
610,-0.8640954494476318,-1.0,2021-01-21 23:08:55.278000+00:00,train
611,-0.8607869148254395,-1.0,2021-01-21 23:09:25.278000+00:00,train
612,-0.857535183429718,-1.0,2021-01-21 23:09:55.278000+00:00,train
613,-0.8543404340744019,-1.0,2021-01-21 23:10:25.278000+00:00,train
614,-0.8512037992477417,-1.0,2021-01-21 23:10:55.278000+00:00,train
615,-0.8481253981590271,-1.0,2021-01-21 23:11:25.278000+00:00,train
616,-0.8451067209243774,-1.0,2021-01-21 23:11:55.278000+00:00,train
617,-0.8421485424041748,-1.0,2021-01-21 23:12:25.278000+00:00,train
618,-0.8392515778541565,-1.0,2021-01-21 23:12:55.278000+00:00,train
619,-0.8364170789718628,-1.0,2021-01-21 23:13:25.278000+00:00,train
620,-0.8336455821990967,-1.0,2021-01-21 23:13:55.278000+00:00,train
621,-0.8309382796287537,-1.0,2021-01-21 23:14:25.278000+00:00,train
622,-0.8282965421676636,-1.0,2021-01-21 23:14:55.278000+00:00,train
623,-0.8257213234901428,-1.0,2021-01-21 23:15:25.278000+00:00,train
624,-0.8232139945030212,-1.0,2021-01-21 23:15:55.278000+00:00,train
625,-0.8207758665084839,-1.0,2021-01-21 23:16:25.278000+00:00,train
626,-0.8184076547622681,-1.0,2021-01-21 23:16:55.278000+00:00,train
627,-0.8161113858222961,-1.0,2021-01-21 23:17:25.278000+00:00,train
628,-0.8138882517814636,-1.0,2021-01-21 23:17:55.278000+00:00,train
629,-0.811739981174469,-1.0,2021-01-21 23:18:25.278000+00:00,train
630,-0.8096681237220764,-1.0,2021-01-21 23:18:55.278000+00:00,train
631,-0.8076744675636292,-1.0,2021-01-21 23:19:25.278000+00:00,train
632,-0.8057626485824585,-1.0,2021-01-21 23:19:55.278000+00:00,train
633,-0.8039323091506958,-1.0,2021-01-21 23:20:25.278000+00:00,train
634,-0.8021859526634216,-1.0,2021-01-21 23:20:55.278000+00:00,train
635,-0.800525426864624,-1.0,2021-01-21 23:21:25.278000+00:00,train
636,-0.7989534735679626,-1.0,2021-01-21 23:21:55.278000+00:00,train
637,-0.7974724769592285,-1.0,2021-01-21 23:22:25.278000+00:00,train
638,-0.7960850596427917,-1.0,2021-01-21 23:22:55.278000+00:00,train
639,-0.7947940230369568,-1.0,2021-01-21 23:23:25.278000+00:00,train
640,-0.793602466583252,-1.0,2021-01-21 23:23:55.278000+00:00,train
641,-0.7925134897232056,-1.0,2021-01-21 23:24:25.278000+00:00,train
642,-0.7915305495262146,-1.0,2021-01-21 23:24:55.278000+00:00,train
643,-0.7906569242477417,-1.0,2021-01-21 23:25:25.278000+00:00,train
644,-0.7898968458175659,-1.0,2021-01-21 23:25:55.278000+00:00,train
645,-0.7892546057701111,-1.0,2021-01-21 23:26:25.278000+00:00,train
646,-0.7887345552444458,-1.0,2021-01-21 23:26:55.278000+00:00,train
647,-0.7883417010307312,-1.0,2021-01-21 23:27:25.278000+00:00,train
648,-0.788081169128418,-1.0,2021-01-21 23:27:55.278000+00:00,train
649,-0.7879587411880493,-1.0,2021-01-21 23:28:25.278000+00:00,train
650,-0.7879804372787476,-1.0,2021-01-21 23:28:55.278000+00:00,train
651,-0.7881532907485962,-1.0,2021-01-21 23:29:25.278000+00:00,train
652,-0.7884851694107056,-1.0,2021-01-21 23:29:55.278000+00:00,train
653,-0.788983941078186,-1.0,2021-01-21 23:30:25.278000+00:00,train
654,-0.7896603345870972,-1.0,2021-01-21 23:30:55.278000+00:00,train
655,-0.7905223965644836,-1.0,2021-01-21 23:31:25.278000+00:00,train
656,-0.7915816903114319,-1.0,2021-01-21 23:31:55.278000+00:00,train
657,-0.7928510308265686,-1.0,2021-01-21 23:32:25.278000+00:00,train
658,-0.7943446636199951,-1.0,2021-01-21 23:32:55.278000+00:00,train
659,-0.7960785031318665,-1.0,2021-01-21 23:33:25.278000+00:00,train
660,-0.7980709671974182,-1.0,2021-01-21 23:33:55.278000+00:00,train
661,-0.8003429174423218,-1.0,2021-01-21 23:34:25.278000+00:00,train
662,-0.8029188513755798,-1.0,2021-01-21 23:34:55.278000+00:00,train
663,-0.805827260017395,-1.0,2021-01-21 23:35:25.278000+00:00,train
664,-0.8091015219688416,-1.0,2021-01-21 23:35:55.278000+00:00,train
665,-0.812781810760498,-1.0,2021-01-21 23:36:25.278000+00:00,train
666,-0.8169165253639221,-1.0,2021-01-21 23:36:55.278000+00:00,train
667,-0.8215658664703369,-1.0,2021-01-21 23:37:25.278000+00:00,train
668,-0.8268049955368042,-1.0,2021-01-21 23:37:55.278000+00:00,train
669,-0.8327307105064392,-1.0,2021-01-21 23:38:25.278000+00:00,train
670,-0.8326902389526367,-1.0,2021-01-21 23:38:55.278000+00:00,train
671,-0.8394336104393005,-1.0,2021-01-21 23:39:25.278000+00:00,train
672,-0.8471682071685791,-1.0,2021-01-21 23:39:55.278000+00:00,train
673,-0.8561595678329468,-1.0,2021-01-21 23:40:25.278000+00:00,train
674,-0.8667922616004944,-1.0,2021-01-21 23:40:55.278000+00:00,train
675,-0.87972491979599,-1.0,2021-01-21 23:41:25.278000+00:00,train
676,-0.8962666988372803,-1.0,2021-01-21 23:41:55.278000+00:00,train
677,-0.8962463736534119,-1.0,2021-01-21 23:42:25.278000+00:00,train
678,-0.8962262868881226,-1.0,2021-01-21 23:42:55.278000+00:00,train
679,-0.928529679775238,-1.0,2021-01-21 23:43:25.278000+00:00,train
680,-0.9285123348236084,-1.0,2021-01-21 23:43:55.278000+00:00,train
681,-0.9284979701042175,-1.0,2021-01-21 23:44:25.278000+00:00,train
682,-0.9284835457801819,-1.0,2021-01-21 23:44:55.278000+00:00,train
683,-0.9284693598747253,-1.0,2021-01-21 23:45:25.278000+00:00,train
684,-0.9284551739692688,-1.0,2021-01-21 23:45:55.278000+00:00,train
685,-0.9284409284591675,-1.0,2021-01-21 23:46:25.278000+00:00,train
686,-0.9284266829490662,-1.0,2021-01-21 23:46:55.278000+00:00,train
687,-0.9284123778343201,-1.0,2021-01-21 23:47:25.278000+00:00,train
688,-0.928398072719574,-1.0,2021-01-21 23:47:55.278000+00:00,train
689,-0.9283837676048279,-1.0,2021-01-21 23:48:25.278000+00:00,train
690,-0.9283694624900818,-1.0,2021-01-21 23:48:55.278000+00:00,train
691,-0.9283552765846252,-1.0,2021-01-21 23:49:25.278000+00:00,train
692,-0.9283409714698792,-1.0,2021-01-21 23:49:55.278000+00:00,train
693,-0.9283267259597778,-1.0,2021-01-21 23:50:25.278000+00:00,train
694,-0.9283124208450317,-1.0,2021-01-21 23:50:55.278000+00:00,train
695,-0.9282980561256409,-1.0,2021-01-21 23:51:25.278000+00:00,train
696,-0.9282837510108948,-1.0,2021-01-21 23:51:55.278000+00:00,train
697,-0.9282694458961487,-1.0,2021-01-21 23:52:25.278000+00:00,train
698,-0.9282551407814026,-1.0,2021-01-21 23:52:55.278000+00:00,train
699,-0.9282407760620117,-1.0,2021-01-21 23:53:25.278000+00:00,train
700,-0.9282267093658447,-1.0,2021-01-21 23:53:55.278000+00:00,train
701,-0.9282126426696777,-1.0,2021-01-21 23:54:25.278000+00:00,train
702,-0.9281985759735107,-1.0,2021-01-21 23:54:55.278000+00:00,train
703,-0.9281846284866333,-1.0,2021-01-21 23:55:25.278000+00:00,train
704,-0.9281706809997559,-1.0,2021-01-21 23:55:55.278000+00:00,train
705,-0.9281567335128784,-1.0,2021-01-21 23:56:25.278000+00:00,train
706,-0.928141713142395,-1.0,2021-01-21 23:56:55.278000+00:00,train
707,-0.9281270503997803,-1.0,2021-01-21 23:57:25.278000+00:00,train
708,-0.9281125664710999,-1.0,2021-01-21 23:57:55.278000+00:00,train
709,-0.928098201751709,-1.0,2021-01-21 23:58:25.278000+00:00,train
710,-0.9280839562416077,-1.0,2021-01-21 23:58:55.278000+00:00,train
711,-0.9280697703361511,-1.0,2021-01-21 23:59:25.278000+00:00,train
712,-0.9280555844306946,-1.0,2021-01-21 23:59:55.278000+00:00,train
713,-0.9280414581298828,-1.0,2021-01-22 00:00:25.278000+00:00,train
714,-0.9280272722244263,-1.0,2021-01-22 00:00:55.278000+00:00,train
715,-0.9280130863189697,-1.0,2021-01-22 00:01:25.278000+00:00,train
716,-0.9279989004135132,-1.0,2021-01-22 00:01:55.278000+00:00,train
717,-0.9279847145080566,-1.0,2021-01-22 00:02:25.278000+00:00,train
718,-0.9279705882072449,-1.0,2021-01-22 00:02:55.278000+00:00,train
719,-0.9279564023017883,-1.0,2021-01-22 00:03:25.278000+00:00,train
720,-0.9279422760009766,-1.0,2021-01-22 00:03:55.278000+00:00,train
721,-0.9279282093048096,-1.0,2021-01-22 00:04:25.278000+00:00,train
722,-0.927914023399353,-1.0,2021-01-22 00:04:55.278000+00:00,train
723,-0.9278998970985413,-1.0,2021-01-22 00:05:25.278000+00:00,train
724,-0.9278858304023743,-1.0,2021-01-22 00:05:55.278000+00:00,train
725,-0.9278717041015625,-1.0,2021-01-22 00:06:25.278000+00:00,train
726,-0.9278576970100403,-1.0,2021-01-22 00:06:55.278000+00:00,train
727,-0.9278435707092285,-1.0,2021-01-22 00:07:25.278000+00:00,train
728,-0.9278295040130615,-1.0,2021-01-22 00:07:55.278000+00:00,train
729,-0.9278154373168945,-1.0,2021-01-22 00:08:25.278000+00:00,train
730,-0.9278014302253723,-1.0,2021-01-22 00:08:55.278000+00:00,train
731,-0.9277874231338501,-1.0,2021-01-22 00:09:25.278000+00:00,train
732,-0.9277733564376831,-1.0,2021-01-22 00:09:55.278000+00:00,train
733,-0.9277593493461609,-1.0,2021-01-22 00:10:25.278000+00:00,train
734,-0.9277452826499939,-1.0,2021-01-22 00:10:55.278000+00:00,train
735,-0.9277312755584717,-1.0,2021-01-22 00:11:25.278000+00:00,train
736,-0.9277173280715942,-1.0,2021-01-22 00:11:55.278000+00:00,train
737,-0.927703320980072,-1.0,2021-01-22 00:12:25.278000+00:00,train
738,-0.9276894927024841,-1.0,2021-01-22 00:12:55.278000+00:00,train
739,-0.9276756048202515,-1.0,2021-01-22 00:13:25.278000+00:00,train
740,-0.9276617169380188,-1.0,2021-01-22 00:13:55.278000+00:00,train
741,-0.9276477694511414,-1.0,2021-01-22 00:14:25.278000+00:00,train
742,-0.9276338815689087,-1.0,2021-01-22 00:14:55.278000+00:00,train
743,-0.927619993686676,-1.0,2021-01-22 00:15:25.278000+00:00,train
744,-0.9276060461997986,-1.0,2021-01-22 00:15:55.278000+00:00,train
745,-0.9275920987129211,-1.0,2021-01-22 00:16:25.278000+00:00,train
746,-0.9275781512260437,-1.0,2021-01-22 00:16:55.278000+00:00,train
747,-0.927564263343811,-1.0,2021-01-22 00:17:25.278000+00:00,train
748,-0.9275503754615784,-1.0,2021-01-22 00:17:55.278000+00:00,train
749,-0.9275364279747009,-1.0,2021-01-22 00:18:25.278000+00:00,train
750,-0.9275225400924683,-1.0,2021-01-22 00:18:55.278000+00:00,train
751,-0.9275086522102356,-1.0,2021-01-22 00:19:25.278000+00:00,train
752,-0.9274947643280029,-1.0,2021-01-22 00:19:55.278000+00:00,train
753,-0.9274808764457703,-1.0,2021-01-22 00:20:25.278000+00:00,train
754,-0.9274671077728271,-1.0,2021-01-22 00:20:55.278000+00:00,train
755,-0.9274532198905945,-1.0,2021-01-22 00:21:25.278000+00:00,train
756,-0.9274393320083618,-1.0,2021-01-22 00:21:55.278000+00:00,train
757,-0.9274255037307739,-1.0,2021-01-22 00:22:25.278000+00:00,train
758,-0.927411675453186,-1.0,2021-01-22 00:22:55.278000+00:00,train
759,-0.9273978471755981,-1.0,2021-01-22 00:23:25.278000+00:00,train
760,-0.927384078502655,-1.0,2021-01-22 00:23:55.278000+00:00,train
761,-0.9273701310157776,-1.0,2021-01-22 00:24:25.278000+00:00,train
762,-0.9273562431335449,-1.0,2021-01-22 00:24:55.278000+00:00,train
763,-0.927342414855957,-1.0,2021-01-22 00:25:25.278000+00:00,train
764,-0.9273285269737244,-1.0,2021-01-22 00:25:55.278000+00:00,train
765,-0.9273146986961365,-1.0,2021-01-22 00:26:25.278000+00:00,train
766,-0.9273011684417725,-1.0,2021-01-22 00:26:55.278000+00:00,train
767,-0.9272875189781189,-1.0,2021-01-22 00:27:25.278000+00:00,train
768,-0.9272738099098206,-1.0,2021-01-22 00:27:55.278000+00:00,train
769,-0.9272601008415222,-1.0,2021-01-22 00:28:25.278000+00:00,train
770,-0.9272463917732239,-1.0,2021-01-22 00:28:55.278000+00:00,train
771,-0.9272326827049255,-1.0,2021-01-22 00:29:25.278000+00:00,train
772,-0.9272189140319824,-1.0,2021-01-22 00:29:55.278000+00:00,train
773,-0.9272052049636841,-1.0,2021-01-22 00:30:25.278000+00:00,train
774,-0.9271914958953857,-1.0,2021-01-22 00:30:55.278000+00:00,train
775,-0.9271777868270874,-1.0,2021-01-22 00:31:25.278000+00:00,train
776,-0.9271641373634338,-1.0,2021-01-22 00:31:55.278000+00:00,train
777,-0.9271504282951355,-1.0,2021-01-22 00:32:25.278000+00:00,train
778,-0.9271367192268372,-1.0,2021-01-22 00:32:55.278000+00:00,train
779,-0.9271230697631836,-1.0,2021-01-22 00:33:25.278000+00:00,train
780,-0.92710942029953,-1.0,2021-01-22 00:33:55.278000+00:00,train
781,-0.9270957708358765,-1.0,2021-01-22 00:34:25.278000+00:00,train
782,-0.9270821213722229,-1.0,2021-01-22 00:34:55.278000+00:00,train
783,-0.9270684123039246,-1.0,2021-01-22 00:35:25.278000+00:00,train
784,-0.9270547032356262,-1.0,2021-01-22 00:35:55.278000+00:00,train
785,-0.9270409941673279,-1.0,2021-01-22 00:36:25.278000+00:00,train
786,-0.9270273447036743,-1.0,2021-01-22 00:36:55.278000+00:00,train
787,-0.927013635635376,-1.0,2021-01-22 00:37:25.278000+00:00,train
788,-0.9269999861717224,-1.0,2021-01-22 00:37:55.278000+00:00,train
789,-0.9269862771034241,-1.0,2021-01-22 00:38:25.278000+00:00,train
790,-0.9269726276397705,-1.0,2021-01-22 00:38:55.278000+00:00,train
791,-0.9269589185714722,-1.0,2021-01-22 00:39:25.278000+00:00,train
792,-0.9269453287124634,-1.0,2021-01-22 00:39:55.278000+00:00,train
793,-0.9269316792488098,-1.0,2021-01-22 00:40:25.278000+00:00,train
794,-0.9269180297851562,-1.0,2021-01-22 00:40:55.278000+00:00,train
795,-0.9269046783447266,-1.0,2021-01-22 00:41:25.278000+00:00,train
796,-0.9268912076950073,-1.0,2021-01-22 00:41:55.278000+00:00,train
797,-0.9268776774406433,-1.0,2021-01-22 00:42:25.278000+00:00,train
798,-0.9268642663955688,-1.0,2021-01-22 00:42:55.278000+00:00,train
799,-1.0,-1.0,2021-01-22 00:43:25.278000+00:00,train
800,-1.0,-1.0,2021-01-22 00:43:55.278000+00:00,train
801,-1.0,-1.0,2021-01-22 00:44:25.278000+00:00,train
802,-1.0,-1.0,2021-01-22 00:44:55.278000+00:00,train
803,-1.0,-1.0,2021-01-22 00:45:25.278000+00:00,train
804,-1.0,-1.0,2021-01-22 00:45:55.278000+00:00,train
805,-1.0,-1.0,2021-01-22 00:46:25.278000+00:00,train
806,-1.0,-1.0,2021-01-22 00:46:55.278000+00:00,train
807,-1.0,-1.0,2021-01-22 00:47:25.278000+00:00,train
808,-1.0,-1.0,2021-01-22 00:47:55.278000+00:00,train
809,-1.0,-1.0,2021-01-22 00:48:25.278000+00:00,train
810,-1.0,-1.0,2021-01-22 00:48:55.278000+00:00,train
811,-1.0,-1.0,2021-01-22 00:49:25.278000+00:00,train
812,-1.0,-1.0,2021-01-22 00:49:55.278000+00:00,train
813,-1.0,-1.0,2021-01-22 00:50:25.278000+00:00,train
814,-1.0,-1.0,2021-01-22 00:50:55.278000+00:00,train
815,-1.0,-1.0,2021-01-22 00:51:25.278000+00:00,train
816,-1.0,-1.0,2021-01-22 00:51:55.278000+00:00,train
817,-1.0,-1.0,2021-01-22 00:52:25.278000+00:00,train
818,-1.0,-1.0,2021-01-22 00:52:55.278000+00:00,train
819,-1.0,-1.0,2021-01-22 00:53:25.278000+00:00,train
820,-1.0,-1.0,2021-01-22 00:53:55.278000+00:00,train
821,-1.0,-1.0,2021-01-22 00:54:25.278000+00:00,train
822,-1.0,-1.0,2021-01-22 00:54:55.278000+00:00,train
823,-1.0,-1.0,2021-01-22 00:55:25.278000+00:00,train
824,-1.0,-1.0,2021-01-22 00:55:55.278000+00:00,train
825,-1.0,-1.0,2021-01-22 00:56:25.278000+00:00,train
826,-1.0,-1.0,2021-01-22 00:56:55.278000+00:00,train
827,-1.0,-1.0,2021-01-22 00:57:25.278000+00:00,train
828,-1.0,-1.0,2021-01-22 00:57:55.278000+00:00,train
829,-1.0,-1.0,2021-01-22 00:58:25.278000+00:00,train
830,-1.0,-1.0,2021-01-22 00:58:55.278000+00:00,train
831,-1.0,-1.0,2021-01-22 00:59:25.278000+00:00,train
832,-1.0,-1.0,2021-01-22 00:59:55.278000+00:00,train
833,-1.0,-1.0,2021-01-22 01:00:25.278000+00:00,train
834,-1.0,-1.0,2021-01-22 01:00:55.278000+00:00,train
835,-1.0,-1.0,2021-01-22 01:01:25.278000+00:00,train
836,-1.0,-1.0,2021-01-22 01:01:55.278000+00:00,train
837,-1.0,-1.0,2021-01-22 01:02:25.278000+00:00,train
838,-1.0,-1.0,2021-01-22 01:02:55.278000+00:00,train
839,-1.0,-1.0,2021-01-22 01:03:25.278000+00:00,train
840,-1.0,-1.0,2021-01-22 01:03:55.278000+00:00,train
841,-1.0,-1.0,2021-01-22 01:04:25.278000+00:00,train
842,-1.0,-1.0,2021-01-22 01:04:55.278000+00:00,train
843,-1.0,-1.0,2021-01-22 01:05:25.278000+00:00,train
844,-1.0,-1.0,2021-01-22 01:05:55.278000+00:00,train
845,-1.0,-1.0,2021-01-22 01:06:25.278000+00:00,train
846,-1.0,-1.0,2021-01-22 01:06:55.278000+00:00,train
847,-1.0,-1.0,2021-01-22 01:07:25.278000+00:00,train
848,-1.0,-1.0,2021-01-22 01:07:55.278000+00:00,train
849,-1.0,-1.0,2021-01-22 01:08:25.278000+00:00,train
850,-1.0,-1.0,2021-01-22 01:08:55.278000+00:00,train
851,-1.0,-1.0,2021-01-22 01:09:25.278000+00:00,train
852,-1.0,-1.0,2021-01-22 01:09:55.278000+00:00,train
853,-1.0,-1.0,2021-01-22 01:10:25.278000+00:00,train
854,-1.0,-1.0,2021-01-22 01:10:55.278000+00:00,train
855,-1.0,-1.0,2021-01-22 01:11:25.278000+00:00,train
856,-1.0,-1.0,2021-01-22 01:11:55.278000+00:00,train
857,-1.0,-1.0,2021-01-22 01:12:25.278000+00:00,train
858,-1.0,-1.0,2021-01-22 01:12:55.278000+00:00,train
859,-1.0,-1.0,2021-01-22 01:13:25.278000+00:00,train
860,-1.0,-1.0,2021-01-22 01:13:55.278000+00:00,train
861,-1.0,-1.0,2021-01-22 01:14:25.278000+00:00,train
862,-1.0,-1.0,2021-01-22 01:14:55.278000+00:00,train
863,-1.0,-1.0,2021-01-22 01:15:25.278000+00:00,train
864,-1.0,-1.0,2021-01-22 01:15:55.278000+00:00,train
865,-1.0,-1.0,2021-01-22 01:16:25.278000+00:00,train
866,-1.0,-1.0,2021-01-22 01:16:55.278000+00:00,train
867,-1.0,-1.0,2021-01-22 01:17:25.278000+00:00,train
868,-1.0,-1.0,2021-01-22 01:17:55.278000+00:00,train
869,-1.0,-1.0,2021-01-22 01:18:25.278000+00:00,train
870,-1.0,-1.0,2021-01-22 01:18:55.278000+00:00,train
871,-1.0,-1.0,2021-01-22 01:19:25.278000+00:00,train
872,-1.0,-1.0,2021-01-22 01:19:55.278000+00:00,train
873,-1.0,-1.0,2021-01-22 01:20:25.278000+00:00,train
874,-1.0,-1.0,2021-01-22 01:20:55.278000+00:00,train
875,-1.0,-1.0,2021-01-22 01:21:25.278000+00:00,train
876,-1.0,-1.0,2021-01-22 01:21:55.278000+00:00,train
877,-1.0,-1.0,2021-01-22 01:22:25.278000+00:00,train
878,-1.0,-1.0,2021-01-22 01:22:55.278000+00:00,train
879,-1.0,-1.0,2021-01-22 01:23:25.278000+00:00,train
880,-1.0,-1.0,2021-01-22 01:23:55.278000+00:00,train
881,-1.0,-1.0,2021-01-22 01:24:25.278000+00:00,train
882,-1.0,-1.0,2021-01-22 01:24:55.278000+00:00,train
883,-1.0,-1.0,2021-01-22 01:25:25.278000+00:00,train
884,-1.0,-1.0,2021-01-22 01:25:55.278000+00:00,train
885,-1.0,-1.0,2021-01-22 01:26:25.278000+00:00,train
886,-1.0,-1.0,2021-01-22 01:26:55.278000+00:00,train
887,-1.0,-1.0,2021-01-22 01:27:25.278000+00:00,train
888,-1.0,-1.0,2021-01-22 01:27:55.278000+00:00,train
889,-1.0,-1.0,2021-01-22 01:28:25.278000+00:00,train
890,-1.0,-1.0,2021-01-22 01:28:55.278000+00:00,train
891,-1.0,-1.0,2021-01-22 01:29:25.278000+00:00,train
892,-1.0,-1.0,2021-01-22 01:29:55.278000+00:00,train
893,-1.0,-1.0,2021-01-22 01:30:25.278000+00:00,train
894,-1.0,-1.0,2021-01-22 01:30:55.278000+00:00,train
895,-1.0,-1.0,2021-01-22 01:31:25.278000+00:00,train
896,-1.0,-1.0,2021-01-22 01:31:55.278000+00:00,train
897,-1.0,-1.0,2021-01-22 01:32:25.278000+00:00,train
898,-1.0,0.0,2021-01-22 01:32:55.278000+00:00,train
899,-1.0,0.0,2021-01-22 01:33:25.278000+00:00,train
900,-1.0,0.0,2021-01-22 01:33:55.278000+00:00,train
901,-1.0,0.0,2021-01-22 01:34:25.278000+00:00,train
902,-1.0,0.0,2021-01-22 01:34:55.278000+00:00,train
903,-0.9254729747772217,0.0,2021-01-22 01:35:25.278000+00:00,train
904,-0.8918808102607727,0.0,2021-01-22 01:35:55.278000+00:00,train
905,-0.8650892376899719,0.0,2021-01-22 01:36:25.278000+00:00,train
906,-0.8418445587158203,0.0,2021-01-22 01:36:55.278000+00:00,train
907,-0.8208923935890198,0.0,2021-01-22 01:37:25.278000+00:00,train
908,-0.8015862107276917,-1.0,2021-01-22 01:37:55.278000+00:00,train
909,-0.7835285067558289,0.0,2021-01-22 01:38:25.278000+00:00,train
910,-0.7664666771888733,0.0,2021-01-22 01:38:55.278000+00:00,train
911,-0.7502248287200928,0.0,2021-01-22 01:39:25.278000+00:00,train
912,-0.7346744537353516,0.0,2021-01-22 01:39:55.278000+00:00,train
913,-0.7346373200416565,0.0,2021-01-22 01:40:25.278000+00:00,train
914,-0.719678521156311,0.0,2021-01-22 01:40:55.278000+00:00,train
915,-0.70524001121521,0.0,2021-01-22 01:41:25.278000+00:00,train
916,-0.6912607550621033,0.0,2021-01-22 01:41:55.278000+00:00,train
917,-0.6776915788650513,0.0,2021-01-22 01:42:25.278000+00:00,train
918,-0.664492130279541,0.0,2021-01-22 01:42:55.278000+00:00,train
919,-0.6516283750534058,0.0,2021-01-22 01:43:25.278000+00:00,train
920,-0.6390718221664429,0.0,2021-01-22 01:43:55.278000+00:00,train
921,-0.6267980337142944,0.0,2021-01-22 01:44:25.278000+00:00,train
922,-0.6147857308387756,0.0,2021-01-22 01:44:55.278000+00:00,train
923,-0.60301673412323,0.0,2021-01-22 01:45:25.278000+00:00,train
924,-0.591474711894989,0.0,2021-01-22 01:45:55.278000+00:00,train
925,-0.5801452398300171,0.0,2021-01-22 01:46:25.278000+00:00,train
926,-0.5690158605575562,0.0,2021-01-22 01:46:55.278000+00:00,train
927,-0.5580751299858093,0.0,2021-01-22 01:47:25.278000+00:00,train
928,-0.5473129153251648,0.0,2021-01-22 01:47:55.278000+00:00,train
929,-0.5367198586463928,0.0,2021-01-22 01:48:25.278000+00:00,train
930,-0.5262880325317383,0.0,2021-01-22 01:48:55.278000+00:00,train
931,-0.5160094499588013,0.0,2021-01-22 01:49:25.278000+00:00,train
932,-0.5058774948120117,0.0,2021-01-22 01:49:55.278000+00:00,train
933,-0.495885968208313,0.0,2021-01-22 01:50:25.278000+00:00,train
934,-0.48602887988090515,0.0,2021-01-22 01:50:55.278000+00:00,train
935,-0.4763009548187256,0.0,2021-01-22 01:51:25.278000+00:00,train
936,-0.4666973054409027,0.0,2021-01-22 01:51:55.278000+00:00,train
937,-0.45721352100372314,0.0,2021-01-22 01:52:25.278000+00:00,train
938,-0.44784486293792725,0.0,2021-01-22 01:52:55.278000+00:00,train
939,-0.4385877847671509,0.0,2021-01-22 01:53:25.278000+00:00,train
940,-0.42943888902664185,0.0,2021-01-22 01:53:55.278000+00:00,train
941,-0.42039456963539124,0.0,2021-01-22 01:54:25.278000+00:00,train
942,-0.4114515781402588,0.0,2021-01-22 01:54:55.278000+00:00,train
943,-0.402607262134552,0.0,2021-01-22 01:55:25.278000+00:00,train
944,-0.39385876059532166,0.0,2021-01-22 01:55:55.278000+00:00,train
945,-0.38520348072052,0.0,2021-01-22 01:56:25.278000+00:00,train
946,-0.37663882970809937,0.0,2021-01-22 01:56:55.278000+00:00,train
947,-0.3681637942790985,0.0,2021-01-22 01:57:25.278000+00:00,train
948,-0.3597746789455414,0.0,2021-01-22 01:57:55.278000+00:00,train
949,-0.3514697849750519,0.0,2021-01-22 01:58:25.278000+00:00,train
950,-0.34324705600738525,0.0,2021-01-22 01:58:55.278000+00:00,train
951,-0.3351048529148102,0.0,2021-01-22 01:59:25.278000+00:00,train
952,-0.32704147696495056,0.0,2021-01-22 01:59:55.278000+00:00,train
953,-0.31905511021614075,0.0,2021-01-22 02:00:25.278000+00:00,train
954,-0.31114432215690613,0.0,2021-01-22 02:00:55.278000+00:00,train
955,-0.30330806970596313,0.0,2021-01-22 02:01:25.278000+00:00,train
956,-0.2955445349216461,0.0,2021-01-22 02:01:55.278000+00:00,train
957,-0.28785252571105957,0.0,2021-01-22 02:02:25.278000+00:00,train
958,-0.2802307605743408,0.0,2021-01-22 02:02:55.278000+00:00,train
959,-0.2726779580116272,0.0,2021-01-22 02:03:25.278000+00:00,train
960,-0.26519307494163513,0.0,2021-01-22 02:03:55.278000+00:00,train
961,-0.25777530670166016,0.0,2021-01-22 02:04:25.278000+00:00,train
962,-0.25042346119880676,0.0,2021-01-22 02:04:55.278000+00:00,train
963,-0.24313661456108093,0.0,2021-01-22 02:05:25.278000+00:00,train
964,-0.23591355979442596,0.0,2021-01-22 02:05:55.278000+00:00,train
965,-0.22875387966632843,0.0,2021-01-22 02:06:25.278000+00:00,train
966,-0.22165583074092865,0.0,2021-01-22 02:06:55.278000+00:00,train
967,-0.21461953222751617,0.0,2021-01-22 02:07:25.278000+00:00,train
968,-0.20764410495758057,0.0,2021-01-22 02:07:55.278000+00:00,train
969,-0.20072869956493378,0.0,2021-01-22 02:08:25.278000+00:00,train
970,-0.1938675045967102,0.0,2021-01-22 02:08:55.278000+00:00,train
971,-0.1870667040348053,0.0,2021-01-22 02:09:25.278000+00:00,train
972,-0.18032513558864594,0.0,2021-01-22 02:09:55.278000+00:00,train
973,-0.17364132404327393,0.0,2021-01-22 02:10:25.278000+00:00,train
974,-0.16701501607894897,0.0,2021-01-22 02:10:55.278000+00:00,train
975,-0.16044531762599945,0.0,2021-01-22 02:11:25.278000+00:00,train
976,-0.15393170714378357,0.0,2021-01-22 02:11:55.278000+00:00,train
977,-0.14747363328933716,0.0,2021-01-22 02:12:25.278000+00:00,train
978,-0.14107078313827515,0.0,2021-01-22 02:12:55.278000+00:00,train
979,-0.13472238183021545,0.0,2021-01-22 02:13:25.278000+00:00,train
980,-0.12842847406864166,0.0,2021-01-22 02:13:55.278000+00:00,train
981,-0.1221882626414299,0.0,2021-01-22 02:14:25.278000+00:00,train
982,-0.11600164324045181,0.0,2021-01-22 02:14:55.278000+00:00,train
983,-0.10986832529306412,0.0,2021-01-22 02:15:25.278000+00:00,train
984,-0.10378766804933548,0.0,2021-01-22 02:15:55.278000+00:00,train
985,-0.09775962680578232,0.0,2021-01-22 02:16:25.278000+00:00,train
986,-0.09178397804498672,0.0,2021-01-22 02:16:55.278000+00:00,train
987,-0.08586043119430542,0.0,2021-01-22 02:17:25.278000+00:00,train
988,-0.07998871058225632,0.0,2021-01-22 02:17:55.278000+00:00,train
989,-0.07416865974664688,0.0,2021-01-22 02:18:25.278000+00:00,train
990,-0.06839974969625473,0.0,2021-01-22 02:18:55.278000+00:00,train
991,-0.06268224120140076,0.0,2021-01-22 02:19:25.278000+00:00,train
992,-0.05701573193073273,0.0,2021-01-22 02:19:55.278000+00:00,train
993,-0.05140022560954094,0.0,2021-01-22 02:20:25.278000+00:00,train
994,-0.04583534970879555,0.0,2021-01-22 02:20:55.278000+00:00,train
995,-0.040320683270692825,0.0,2021-01-22 02:21:25.278000+00:00,train
996,-0.03485625237226486,0.0,2021-01-22 02:21:55.278000+00:00,train
997,-0.029442403465509415,0.0,2021-01-22 02:22:25.278000+00:00,train
998,-0.024078810587525368,0.0,2021-01-22 02:22:55.278000+00:00,train
999,-0.018765443935990334,0.0,2021-01-22 02:23:25.278000+00:00,train
1000,-0.01350217591971159,0.0,2021-01-22 02:23:55.278000+00:00,train
1001,-0.008291701786220074,0.0,2021-01-22 02:24:25.278000+00:00,train
1002,-0.0031314895022660494,0.0,2021-01-22 02:24:55.278000+00:00,train
1003,0.0019785165786743164,0.0,2021-01-22 02:25:25.278000+00:00,train
1004,0.00703825056552887,0.0,2021-01-22 02:25:55.278000+00:00,val
1005,0.01204758882522583,0.0,2021-01-22 02:26:25.278000+00:00,val
1006,0.01700655184686184,0.0,2021-01-22 02:26:55.278000+00:00,val
1007,0.021915435791015625,0.0,2021-01-22 02:27:25.278000+00:00,val
1008,0.026773663237690926,0.0,2021-01-22 02:27:55.278000+00:00,val
1009,0.03158123046159744,0.0,2021-01-22 02:28:25.278000+00:00,val
1010,0.04771691560745239,0.0,2021-01-22 02:28:55.278000+00:00,val
1011,0.052406586706638336,0.0,2021-01-22 02:29:25.278000+00:00,val
1012,0.05704417824745178,0.0,2021-01-22 02:29:55.278000+00:00,val
1013,0.061629705131053925,0.0,2021-01-22 02:30:25.278000+00:00,val
1014,0.06616269052028656,0.0,2021-01-22 02:30:55.278000+00:00,val
1015,0.07064304500818253,0.0,2021-01-22 02:31:25.278000+00:00,val
1016,0.07507053762674332,0.0,2021-01-22 02:31:55.278000+00:00,val
1017,0.07944510132074356,0.0,2021-01-22 02:32:25.278000+00:00,val
1018,0.08376635611057281,0.0,2021-01-22 02:32:55.278000+00:00,val
1019,0.08803404122591019,0.0,2021-01-22 02:33:25.278000+00:00,val
1020,0.09224779158830643,0.0,2021-01-22 02:33:55.278000+00:00,val
1021,0.09640777856111526,0.0,2021-01-22 02:34:25.278000+00:00,val
1022,0.10051339864730835,0.0,2021-01-22 02:34:55.278000+00:00,val
1023,0.10456418991088867,0.0,2021-01-22 02:35:25.278000+00:00,val
1024,0.10855986922979355,0.0,2021-01-22 02:35:55.278000+00:00,val
1025,0.1124999150633812,0.0,2021-01-22 02:36:25.278000+00:00,val
1026,0.11638424545526505,0.0,2021-01-22 02:36:55.278000+00:00,val
1027,0.12021226435899734,0.0,2021-01-22 02:37:25.278000+00:00,val
1028,0.12398368120193481,0.0,2021-01-22 02:37:55.278000+00:00,val
1029,0.12769769132137299,0.0,2021-01-22 02:38:25.278000+00:00,val
1030,0.13135401904582977,0.0,2021-01-22 02:38:55.278000+00:00,val
1031,0.13495206832885742,0.0,2021-01-22 02:39:25.278000+00:00,val
1032,0.13849151134490967,0.0,2021-01-22 02:39:55.278000+00:00,val
1033,0.14197157323360443,0.0,2021-01-22 02:40:25.278000+00:00,val
1034,0.1453917771577835,0.0,2021-01-22 02:40:55.278000+00:00,val
1035,0.1487600952386856,0.0,2021-01-22 02:41:25.278000+00:00,val
1036,0.1520731896162033,0.0,2021-01-22 02:41:55.278000+00:00,val
1037,0.15532365441322327,0.0,2021-01-22 02:42:25.278000+00:00,val
1038,0.1585106998682022,0.0,2021-01-22 02:42:55.278000+00:00,val
1039,0.16163364052772522,0.0,2021-01-22 02:43:25.278000+00:00,val
1040,0.16469179093837738,0.0,2021-01-22 02:43:55.278000+00:00,val
1041,0.16768431663513184,0.0,2021-01-22 02:44:25.278000+00:00,val
1042,0.17061005532741547,0.0,2021-01-22 02:44:55.278000+00:00,val
1043,0.1734686940908432,0.0,2021-01-22 02:45:25.278000+00:00,val
1044,0.17625893652439117,0.0,2021-01-22 02:45:55.278000+00:00,val
1045,0.17897984385490417,0.0,2021-01-22 02:46:25.278000+00:00,val
1046,0.1816304326057434,0.0,2021-01-22 02:46:55.278000+00:00,val
1047,0.18420635163784027,0.0,2021-01-22 02:47:25.278000+00:00,val
1048,0.18671084940433502,0.0,2021-01-22 02:47:55.278000+00:00,val
1049,0.189142644405365,0.0,2021-01-22 02:48:25.278000+00:00,val
1050,0.191499724984169,0.0,2021-01-22 02:48:55.278000+00:00,val
1051,0.19378076493740082,0.0,2021-01-22 02:49:25.278000+00:00,val
1052,0.19598418474197388,0.0,2021-01-22 02:49:55.278000+00:00,val
1053,0.1981084942817688,0.0,2021-01-22 02:50:25.278000+00:00,val
1054,0.20015181601047516,0.0,2021-01-22 02:50:55.278000+00:00,val
1055,0.20211264491081238,0.0,2021-01-22 02:51:25.278000+00:00,val
1056,0.20398908853530884,0.0,2021-01-22 02:51:55.278000+00:00,val
1057,0.20577940344810486,0.0,2021-01-22 02:52:25.278000+00:00,val
1058,0.2074817568063736,0.0,2021-01-22 02:52:55.278000+00:00,val
1059,0.20909383893013,0.0,2021-01-22 02:53:25.278000+00:00,val
1060,0.21061363816261292,0.0,2021-01-22 02:53:55.278000+00:00,val
1061,0.21203871071338654,0.0,2021-01-22 02:54:25.278000+00:00,val
1062,0.21336646378040314,0.0,2021-01-22 02:54:55.278000+00:00,val
1063,0.21459436416625977,0.0,2021-01-22 02:55:25.278000+00:00,val
1064,0.21571990847587585,0.0,2021-01-22 02:55:55.278000+00:00,val
1065,0.21673975884914398,0.0,2021-01-22 02:56:25.278000+00:00,val
1066,0.21765084564685822,0.0,2021-01-22 02:56:55.278000+00:00,val
1067,0.21844971179962158,0.0,2021-01-22 02:57:25.278000+00:00,val
1068,0.21913285553455353,0.0,2021-01-22 02:57:55.278000+00:00,val
1069,0.2196962684392929,0.0,2021-01-22 02:58:25.278000+00:00,val
1070,0.2201359122991562,0.0,2021-01-22 02:58:55.278000+00:00,val
1071,0.2204471230506897,0.0,2021-01-22 02:59:25.278000+00:00,val
1072,0.22062502801418304,0.0,2021-01-22 02:59:55.278000+00:00,val
1073,0.220664381980896,0.0,2021-01-22 03:00:25.278000+00:00,val
1074,0.22055964171886444,0.0,2021-01-22 03:00:55.278000+00:00,val
1075,0.22030454874038696,0.0,2021-01-22 03:01:25.278000+00:00,val
1076,0.21989233791828156,0.0,2021-01-22 03:01:55.278000+00:00,val
1077,0.21931566298007965,0.0,2021-01-22 03:02:25.278000+00:00,val
1078,0.21856644749641418,0.0,2021-01-22 03:02:55.278000+00:00,val
1079,0.21763597428798676,0.0,2021-01-22 03:03:25.278000+00:00,val
1080,0.2165141999721527,0.0,2021-01-22 03:03:55.278000+00:00,val
1081,0.2151903212070465,0.0,2021-01-22 03:04:25.278000+00:00,val
1082,0.21365226805210114,0.0,2021-01-22 03:04:55.278000+00:00,val
1083,0.2118864357471466,0.0,2021-01-22 03:05:25.278000+00:00,val
1084,0.20987778902053833,0.0,2021-01-22 03:05:55.278000+00:00,val
1085,0.2076089084148407,0.0,2021-01-22 03:06:25.278000+00:00,val
1086,0.20506036281585693,0.0,2021-01-22 03:06:55.278000+00:00,val
1087,0.20220941305160522,0.0,2021-01-22 03:07:25.278000+00:00,val
1088,0.19903013110160828,0.0,2021-01-22 03:07:55.278000+00:00,val
1089,0.19549164175987244,0.0,2021-01-22 03:08:25.278000+00:00,val
1090,0.19155842065811157,0.0,2021-01-22 03:08:55.278000+00:00,val
1091,0.18718771636486053,0.0,2021-01-22 03:09:25.278000+00:00,val
1092,0.18232743442058563,0.0,2021-01-22 03:09:55.278000+00:00,val
1093,0.17691384255886078,0.0,2021-01-22 03:10:25.278000+00:00,val
1094,0.17086665332317352,0.0,2021-01-22 03:10:55.278000+00:00,val
1095,0.16408297419548035,0.0,2021-01-22 03:11:25.278000+00:00,val
1096,0.1564265787601471,0.0,2021-01-22 03:11:55.278000+00:00,val
1097,0.1477111279964447,0.0,2021-01-22 03:12:25.278000+00:00,val
1098,0.13766881823539734,0.0,2021-01-22 03:12:55.278000+00:00,val
1099,0.12588948011398315,0.0,2021-01-22 03:13:25.278000+00:00,val
1100,0.11168470978736877,0.0,2021-01-22 03:13:55.278000+00:00,val
1101,0.0937153697013855,0.0,2021-01-22 03:14:25.278000+00:00,val
1102,0.06853409856557846,0.0,2021-01-22 03:14:55.278000+00:00,val
1103,0.06854404509067535,0.0,2021-01-22 03:15:25.278000+00:00,val
1104,0.06855399161577225,0.0,2021-01-22 03:15:55.278000+00:00,val
1105,0.06856393069028854,0.0,2021-01-22 03:16:25.278000+00:00,val
1106,0.06857386976480484,0.0,2021-01-22 03:16:55.278000+00:00,val
1107,0.06858380883932114,0.0,2021-01-22 03:17:25.278000+00:00,val
1108,0.06859368830919266,0.0,2021-01-22 03:17:55.278000+00:00,val
1109,0.06860357522964478,0.0,2021-01-22 03:18:25.278000+00:00,val
1110,0.0686134621500969,0.0,2021-01-22 03:18:55.278000+00:00,val
1111,0.06862334907054901,0.0,2021-01-22 03:19:25.278000+00:00,val
1112,0.06863322108983994,0.0,2021-01-22 03:19:55.278000+00:00,val
1113,0.0,0.0,2021-01-22 03:20:25.278000+00:00,val
1114,0.0,0.0,2021-01-22 03:20:55.278000+00:00,val
1115,0.0,0.0,2021-01-22 03:21:25.278000+00:00,val
1116,0.0,0.0,2021-01-22 03:21:55.278000+00:00,val
1117,0.0,0.0,2021-01-22 03:22:25.278000+00:00,val
1118,0.0,0.0,2021-01-22 03:22:55.278000+00:00,val
1119,0.0,0.0,2021-01-22 03:23:25.278000+00:00,val
1120,0.0,0.0,2021-01-22 03:23:55.278000+00:00,val
1121,0.0,0.0,2021-01-22 03:24:25.278000+00:00,val
1122,0.0,0.0,2021-01-22 03:24:55.278000+00:00,val
1123,0.0,0.0,2021-01-22 03:25:25.278000+00:00,val
1124,0.0,0.0,2021-01-22 03:25:55.278000+00:00,val
1125,0.0,0.0,2021-01-22 03:26:25.278000+00:00,val
1126,0.0,0.0,2021-01-22 03:26:55.278000+00:00,val
1127,0.0,0.0,2021-01-22 03:27:25.278000+00:00,val
1128,0.0,0.0,2021-01-22 03:27:55.278000+00:00,val
1129,0.0,0.0,2021-01-22 03:28:25.278000+00:00,val
1130,0.0,0.0,2021-01-22 03:28:55.278000+00:00,val
1131,0.0,0.0,2021-01-22 03:29:25.278000+00:00,val
1132,0.0,0.0,2021-01-22 03:29:55.278000+00:00,val
1133,0.0,0.0,2021-01-22 03:30:25.278000+00:00,val
1134,0.0,0.0,2021-01-22 03:30:55.278000+00:00,val
1135,0.0,0.0,2021-01-22 03:31:25.278000+00:00,val
1136,0.0,0.0,2021-01-22 03:31:55.278000+00:00,val
1137,0.0,0.0,2021-01-22 03:32:25.278000+00:00,val
1138,0.0,0.0,2021-01-22 03:32:55.278000+00:00,val
1139,0.0,0.0,2021-01-22 03:33:25.278000+00:00,val
1140,0.0,0.0,2021-01-22 03:33:55.278000+00:00,val
1141,0.0,0.0,2021-01-22 03:34:25.278000+00:00,val
1142,0.0,0.0,2021-01-22 03:34:55.278000+00:00,val
1143,0.0,0.0,2021-01-22 03:35:25.278000+00:00,val
1144,0.0,0.0,2021-01-22 03:35:55.278000+00:00,val
1145,0.0,0.0,2021-01-22 03:36:25.278000+00:00,val
1146,0.0,0.0,2021-01-22 03:36:55.278000+00:00,val
1147,0.0,0.0,2021-01-22 03:37:25.278000+00:00,val
1148,0.0,0.0,2021-01-22 03:37:55.278000+00:00,val
1149,0.0,0.0,2021-01-22 03:38:25.278000+00:00,val
1150,0.0,0.0,2021-01-22 03:38:55.278000+00:00,val
1151,0.0,0.0,2021-01-22 03:39:25.278000+00:00,val
1152,0.0,0.0,2021-01-22 03:39:55.278000+00:00,val
1153,0.0,0.0,2021-01-22 03:40:25.278000+00:00,val
1154,0.0,0.0,2021-01-22 03:40:55.278000+00:00,val
1155,0.0,0.0,2021-01-22 03:41:25.278000+00:00,val
1156,0.0,0.0,2021-01-22 03:41:55.278000+00:00,val
1157,0.0,0.0,2021-01-22 03:42:25.278000+00:00,val
1158,0.0,0.0,2021-01-22 03:42:55.278000+00:00,val
1159,0.0,0.0,2021-01-22 03:43:25.278000+00:00,val
1160,0.0,0.0,2021-01-22 03:43:55.278000+00:00,val
1161,0.0,0.0,2021-01-22 03:44:25.278000+00:00,val
1162,0.0,0.0,2021-01-22 03:44:55.278000+00:00,val
1163,0.0,0.0,2021-01-22 03:45:25.278000+00:00,val
1164,0.0,0.0,2021-01-22 03:45:55.278000+00:00,val
1165,0.0,0.0,2021-01-22 03:46:25.278000+00:00,val
1166,0.0,0.0,2021-01-22 03:46:55.278000+00:00,val
1167,0.0,0.0,2021-01-22 03:47:25.278000+00:00,val
1168,0.0,0.0,2021-01-22 03:47:55.278000+00:00,val
1169,0.0,0.0,2021-01-22 03:48:25.278000+00:00,val
1170,0.0,0.0,2021-01-22 03:48:55.278000+00:00,val
1171,0.0,0.0,2021-01-22 03:49:25.278000+00:00,val
1172,0.0,0.0,2021-01-22 03:49:55.278000+00:00,val
1173,0.0,0.0,2021-01-22 03:50:25.278000+00:00,val
1174,0.0,0.0,2021-01-22 03:50:55.278000+00:00,val
1175,0.0,0.0,2021-01-22 03:51:25.278000+00:00,val
1176,0.0,0.0,2021-01-22 03:51:55.278000+00:00,val
1177,0.0,0.0,2021-01-22 03:52:25.278000+00:00,val
1178,0.0,0.0,2021-01-22 03:52:55.278000+00:00,val
1179,0.0,0.0,2021-01-22 03:53:25.278000+00:00,val
1180,0.0,0.0,2021-01-22 03:53:55.278000+00:00,val
1181,0.0,0.0,2021-01-22 03:54:25.278000+00:00,val
1182,0.0,0.0,2021-01-22 03:54:55.278000+00:00,val
1183,0.0,0.0,2021-01-22 03:55:25.278000+00:00,val
1184,0.0,0.0,2021-01-22 03:55:55.278000+00:00,val
1185,0.0,0.0,2021-01-22 03:56:25.278000+00:00,val
1186,0.0,0.0,2021-01-22 03:56:55.278000+00:00,val
1187,0.0,0.0,2021-01-22 03:57:25.278000+00:00,val
1188,0.0,0.0,2021-01-22 03:57:55.278000+00:00,val
1189,0.0,0.0,2021-01-22 03:58:25.278000+00:00,val
1190,0.0,0.0,2021-01-22 03:58:55.278000+00:00,val
1191,0.0,0.0,2021-01-22 03:59:25.278000+00:00,val
1192,0.0,0.0,2021-01-22 03:59:55.278000+00:00,val
1193,0.0,0.0,2021-01-22 04:00:25.278000+00:00,val
1194,0.0,0.0,2021-01-22 04:00:55.278000+00:00,val
1195,0.0,0.0,2021-01-22 04:01:25.278000+00:00,val
1196,0.0,0.0,2021-01-22 04:01:55.278000+00:00,val
1197,0.0,0.0,2021-01-22 04:02:25.278000+00:00,val
1198,0.0,0.0,2021-01-22 04:02:55.278000+00:00,val
1199,0.0,0.0,2021-01-22 04:03:25.278000+00:00,val
1200,0.0,0.0,2021-01-22 04:03:55.278000+00:00,val
1201,0.0,0.0,2021-01-22 04:04:25.278000+00:00,val
1202,0.0,0.0,2021-01-22 04:04:55.278000+00:00,val
1203,0.0,0.0,2021-01-22 04:05:25.278000+00:00,val
1204,0.0,0.0,2021-01-22 04:05:55.278000+00:00,val
1205,0.0,0.0,2021-01-22 04:06:25.278000+00:00,val
1206,0.0,0.0,2021-01-22 04:06:55.278000+00:00,val
1207,0.0,0.0,2021-01-22 04:07:25.278000+00:00,val
1208,0.0,0.0,2021-01-22 04:07:55.278000+00:00,val
1209,0.0,0.0,2021-01-22 04:08:25.278000+00:00,val
1210,0.0,0.0,2021-01-22 04:08:55.278000+00:00,val
1211,0.0,0.0,2021-01-22 04:09:25.278000+00:00,val
1212,0.0,0.0,2021-01-22 04:09:55.278000+00:00,val
1213,0.0,0.0,2021-01-22 04:10:25.278000+00:00,val
1214,0.0,0.0,2021-01-22 04:10:55.278000+00:00,val
1215,0.0,0.0,2021-01-22 04:11:25.278000+00:00,val
1216,0.0,0.0,2021-01-22 04:11:55.278000+00:00,val
1217,0.0,0.0,2021-01-22 04:12:25.278000+00:00,val
1218,0.0,0.0,2021-01-22 04:12:55.278000+00:00,val
1219,0.0,0.0,2021-01-22 04:13:25.278000+00:00,val
1220,0.0,0.0,2021-01-22 04:13:55.278000+00:00,val
1221,0.0,0.0,2021-01-22 04:14:25.278000+00:00,val
1222,0.0,0.0,2021-01-22 04:14:55.278000+00:00,val
1223,0.0,0.0,2021-01-22 04:15:25.278000+00:00,val
1224,0.0,0.0,2021-01-22 04:15:55.278000+00:00,val
1225,0.0,0.0,2021-01-22 04:16:25.278000+00:00,val
1226,0.0,0.0,2021-01-22 04:16:55.278000+00:00,val
1227,0.0,0.0,2021-01-22 04:17:25.278000+00:00,val
1228,0.0,0.0,2021-01-22 04:17:55.278000+00:00,val
1229,0.0,0.0,2021-01-22 04:18:25.278000+00:00,val
1230,0.0,0.0,2021-01-22 04:18:55.278000+00:00,val
1231,0.0,0.0,2021-01-22 04:19:25.278000+00:00,val
1232,0.0,0.0,2021-01-22 04:19:55.278000+00:00,val
1233,0.0,0.0,2021-01-22 04:20:25.278000+00:00,val
1234,0.0,0.0,2021-01-22 04:20:55.278000+00:00,val
1235,0.0,0.0,2021-01-22 04:21:25.278000+00:00,val
1236,0.0,0.0,2021-01-22 04:21:55.278000+00:00,val
1237,0.0,0.0,2021-01-22 04:22:25.278000+00:00,val
1238,0.0,0.0,2021-01-22 04:22:55.278000+00:00,val
1239,0.0,0.0,2021-01-22 04:23:25.278000+00:00,val
1240,0.0,0.0,2021-01-22 04:23:55.278000+00:00,val
1241,0.0,0.0,2021-01-22 04:24:25.278000+00:00,val
1242,0.0,0.0,2021-01-22 04:24:55.278000+00:00,val
1243,0.0,0.0,2021-01-22 04:25:25.278000+00:00,val
1244,0.0,0.0,2021-01-22 04:25:55.278000+00:00,val
1245,0.0,0.0,2021-01-22 04:26:25.278000+00:00,val
1246,0.0,0.0,2021-01-22 04:26:55.278000+00:00,val
1247,0.0,0.0,2021-01-22 04:27:25.278000+00:00,val
1248,0.0,0.0,2021-01-22 04:27:55.278000+00:00,val
1249,0.0,0.0,2021-01-22 04:28:25.278000+00:00,val
1250,0.0,0.0,2021-01-22 04:28:55.278000+00:00,val
1251,0.0,0.0,2021-01-22 04:29:25.278000+00:00,val
1252,0.0,0.0,2021-01-22 04:29:55.278000+00:00,val
1253,0.0,0.0,2021-01-22 04:30:25.278000+00:00,val
1254,0.0,0.0,2021-01-22 04:30:55.278000+00:00,val
1255,0.0,0.0,2021-01-22 04:31:25.278000+00:00,val
1256,0.0,0.0,2021-01-22 04:31:55.278000+00:00,val
1257,0.0,0.0,2021-01-22 04:32:25.278000+00:00,val
1258,0.0,0.0,2021-01-22 04:32:55.278000+00:00,val
1259,0.0,0.0,2021-01-22 04:33:25.278000+00:00,val
1260,0.0,0.0,2021-01-22 04:33:55.278000+00:00,val
1261,0.0,0.0,2021-01-22 04:34:25.278000+00:00,val
1262,0.0,0.0,2021-01-22 04:34:55.278000+00:00,val
1263,0.0,0.0,2021-01-22 04:35:25.278000+00:00,val
1264,0.0,0.0,2021-01-22 04:35:55.278000+00:00,val
1265,0.0,0.0,2021-01-22 04:36:25.278000+00:00,val
1266,0.0,0.0,2021-01-22 04:36:55.278000+00:00,val
1267,0.0,0.0,2021-01-22 04:37:25.278000+00:00,val
1268,0.0,0.0,2021-01-22 04:37:55.278000+00:00,val
1269,0.0,0.0,2021-01-22 04:38:25.278000+00:00,val
1270,0.0,0.0,2021-01-22 04:38:55.278000+00:00,val
1271,0.0,0.0,2021-01-22 04:39:25.278000+00:00,val
1272,0.0,0.0,2021-01-22 04:39:55.278000+00:00,val
1273,0.0,0.0,2021-01-22 04:40:25.278000+00:00,val
1274,0.0,0.0,2021-01-22 04:40:55.278000+00:00,val
1275,0.0,0.0,2021-01-22 04:41:25.278000+00:00,val
1276,0.0,0.0,2021-01-22 04:41:55.278000+00:00,val
1277,0.0,0.0,2021-01-22 04:42:25.278000+00:00,val
1278,0.0,0.0,2021-01-22 04:42:55.278000+00:00,val
1279,0.0,0.0,2021-01-22 04:43:25.278000+00:00,val
1280,0.0,0.0,2021-01-22 04:43:55.278000+00:00,val
1281,0.0,0.0,2021-01-22 04:44:25.278000+00:00,val
1282,0.0,0.0,2021-01-22 04:44:55.278000+00:00,val
1283,0.0,0.0,2021-01-22 04:45:25.278000+00:00,val
1284,0.0,0.0,2021-01-22 04:45:55.278000+00:00,val
1285,0.0,0.0,2021-01-22 04:46:25.278000+00:00,val
1286,0.0,0.0,2021-01-22 04:46:55.278000+00:00,val
1287,0.0,0.0,2021-01-22 04:47:25.278000+00:00,val
1288,0.0,0.0,2021-01-22 04:47:55.278000+00:00,val
1289,0.0,0.0,2021-01-22 04:48:25.278000+00:00,val
1290,0.0,0.0,2021-01-22 04:48:55.278000+00:00,val
1291,0.0,0.0,2021-01-22 04:49:25.278000+00:00,val
1292,0.0,0.0,2021-01-22 04:49:55.278000+00:00,val
1293,0.0,0.0,2021-01-22 04:50:25.278000+00:00,val
1294,0.0,0.0,2021-01-22 04:50:55.278000+00:00,val
1295,0.0,0.0,2021-01-22 04:51:25.278000+00:00,val
1296,0.0,0.0,2021-01-22 04:51:55.278000+00:00,val
1297,0.0,0.0,2021-01-22 04:52:25.278000+00:00,val
1298,0.0,0.0,2021-01-22 04:52:55.278000+00:00,val
1299,0.0,0.0,2021-01-22 04:53:25.278000+00:00,val
1300,0.0,0.0,2021-01-22 04:53:55.278000+00:00,val
1301,0.0,0.0,2021-01-22 04:54:25.278000+00:00,val
1302,0.0,0.0,2021-01-22 04:54:55.278000+00:00,val
1303,0.0,0.0,2021-01-22 04:55:25.278000+00:00,val
1304,0.0,0.0,2021-01-22 04:55:55.278000+00:00,val
1305,0.0,0.0,2021-01-22 04:56:25.278000+00:00,val
1306,0.0,0.0,2021-01-22 04:56:55.278000+00:00,val
1307,0.0,0.0,2021-01-22 04:57:25.278000+00:00,val
1308,0.0,0.0,2021-01-22 04:57:55.278000+00:00,val
1309,0.0,0.0,2021-01-22 04:58:25.278000+00:00,val
1310,0.0,0.0,2021-01-22 04:58:55.278000+00:00,val
1311,0.0,0.0,2021-01-22 04:59:25.278000+00:00,val
1312,0.0,0.0,2021-01-22 04:59:55.278000+00:00,val
1313,0.0,0.0,2021-01-22 05:00:25.278000+00:00,val
1314,0.0,0.0,2021-01-22 05:00:55.278000+00:00,val
1315,0.0,0.0,2021-01-22 05:01:25.278000+00:00,val
1316,0.0,0.0,2021-01-22 05:01:55.278000+00:00,val
1317,0.0,0.0,2021-01-22 05:02:25.278000+00:00,val
1318,0.0,0.0,2021-01-22 05:02:55.278000+00:00,val
1319,0.0,0.0,2021-01-22 05:03:25.278000+00:00,val
1320,0.0,0.0,2021-01-22 05:03:55.278000+00:00,val
1321,0.0,0.0,2021-01-22 05:04:25.278000+00:00,val
1322,0.0,0.0,2021-01-22 05:04:55.278000+00:00,val
1323,0.0,0.0,2021-01-22 05:05:25.278000+00:00,val
1324,0.0,0.0,2021-01-22 05:05:55.278000+00:00,val
1325,0.0,0.0,2021-01-22 05:06:25.278000+00:00,val
1326,0.0,0.0,2021-01-22 05:06:55.278000+00:00,val
1327,0.0,0.0,2021-01-22 05:07:25.278000+00:00,val
1328,0.0,0.0,2021-01-22 05:07:55.278000+00:00,val
1329,0.0,0.0,2021-01-22 05:08:25.278000+00:00,val
1330,0.0,0.0,2021-01-22 05:08:55.278000+00:00,val
1331,0.0,0.0,2021-01-22 05:09:25.278000+00:00,val
1332,0.0,0.0,2021-01-22 05:09:55.278000+00:00,val
1333,0.0,0.0,2021-01-22 05:10:25.278000+00:00,val
1334,0.0,0.0,2021-01-22 05:10:55.278000+00:00,val
1335,0.0,0.0,2021-01-22 05:11:25.278000+00:00,val
1336,0.0,0.0,2021-01-22 05:11:55.278000+00:00,val
1337,0.0,0.0,2021-01-22 05:12:25.278000+00:00,val
1338,0.0,0.0,2021-01-22 05:12:55.278000+00:00,val
1339,0.0,0.0,2021-01-22 05:13:25.278000+00:00,val
1340,0.0,0.0,2021-01-22 05:13:55.278000+00:00,val
1341,0.0,0.0,2021-01-22 05:14:25.278000+00:00,val
1342,0.0,0.0,2021-01-22 05:14:55.278000+00:00,val
1343,0.0,0.0,2021-01-22 05:15:25.278000+00:00,val
1344,0.0,0.0,2021-01-22 05:15:55.278000+00:00,val
1345,0.0,0.0,2021-01-22 05:16:25.278000+00:00,val
1346,0.0,0.0,2021-01-22 05:16:55.278000+00:00,val
1347,0.0,0.0,2021-01-22 05:17:25.278000+00:00,val
1348,0.0,0.0,2021-01-22 05:17:55.278000+00:00,test
1349,0.0,0.0,2021-01-22 05:18:25.278000+00:00,test
1350,0.0,0.0,2021-01-22 05:18:55.278000+00:00,test
1351,0.0,0.0,2021-01-22 05:19:25.278000+00:00,test
1352,0.0,0.0,2021-01-22 05:19:55.278000+00:00,test
1353,0.0,0.0,2021-01-22 05:20:25.278000+00:00,test
1354,0.0,0.0,2021-01-22 05:20:55.278000+00:00,test
1355,0.0,0.0,2021-01-22 05:21:25.278000+00:00,test
1356,0.0,0.0,2021-01-22 05:21:55.278000+00:00,test
1357,0.0,0.0,2021-01-22 05:22:25.278000+00:00,test
1358,0.0,0.0,2021-01-22 05:22:55.278000+00:00,test
1359,0.0,0.0,2021-01-22 05:23:25.278000+00:00,test
1360,0.0,0.0,2021-01-22 05:23:55.278000+00:00,test
1361,0.0,0.0,2021-01-22 05:24:25.278000+00:00,test
1362,0.0,0.0,2021-01-22 05:24:55.278000+00:00,test
1363,0.0,0.0,2021-01-22 05:25:25.278000+00:00,test
1364,0.0,0.0,2021-01-22 05:25:55.278000+00:00,test
1365,0.0,0.0,2021-01-22 05:26:25.278000+00:00,test
1366,0.0,0.0,2021-01-22 05:26:55.278000+00:00,test
1367,0.0,0.0,2021-01-22 05:27:25.278000+00:00,test
1368,0.0,0.0,2021-01-22 05:27:55.278000+00:00,test
1369,0.0,0.0,2021-01-22 05:28:25.278000+00:00,test
1370,0.0,0.0,2021-01-22 05:28:55.278000+00:00,test
1371,0.0,0.0,2021-01-22 05:29:25.278000+00:00,test
1372,0.0,0.0,2021-01-22 05:29:55.278000+00:00,test
1373,0.0,0.0,2021-01-22 05:30:25.278000+00:00,test
1374,0.0,0.0,2021-01-22 05:30:55.278000+00:00,test
1375,0.0,0.0,2021-01-22 05:31:25.278000+00:00,test
1376,0.0,0.0,2021-01-22 05:31:55.278000+00:00,test
1377,0.0,0.0,2021-01-22 05:32:25.278000+00:00,test
1378,0.0,0.0,2021-01-22 05:32:55.278000+00:00,test
1379,0.0,0.0,2021-01-22 05:33:25.278000+00:00,test
1380,0.0,0.0,2021-01-22 05:33:55.278000+00:00,test
1381,0.0,0.0,2021-01-22 05:34:25.278000+00:00,test
1382,0.0,0.0,2021-01-22 05:34:55.278000+00:00,test
1383,0.0,0.0,2021-01-22 05:35:25.278000+00:00,test
1384,0.0,0.0,2021-01-22 05:35:55.278000+00:00,test
1385,0.0,0.0,2021-01-22 05:36:25.278000+00:00,test
1386,0.0,0.0,2021-01-22 05:36:55.278000+00:00,test
1387,0.0,0.0,2021-01-22 05:37:25.278000+00:00,test
1388,0.0,0.0,2021-01-22 05:37:55.278000+00:00,test
1389,0.0,0.0,2021-01-22 05:38:25.278000+00:00,test
1390,0.0,0.0,2021-01-22 05:38:55.278000+00:00,test
1391,0.0,0.0,2021-01-22 05:39:25.278000+00:00,test
1392,0.0,0.0,2021-01-22 05:39:55.278000+00:00,test
1393,0.0,0.0,2021-01-22 05:40:25.278000+00:00,test
1394,0.0,0.0,2021-01-22 05:40:55.278000+00:00,test
1395,0.0,0.0,2021-01-22 05:41:25.278000+00:00,test
1396,0.0,0.0,2021-01-22 05:41:55.278000+00:00,test
1397,0.0,0.0,2021-01-22 05:42:25.278000+00:00,test
1398,0.0,0.0,2021-01-22 05:42:55.278000+00:00,test
1399,0.0,0.0,2021-01-22 05:43:25.278000+00:00,test
1400,0.0,0.0,2021-01-22 05:43:55.278000+00:00,test
1401,0.0,0.0,2021-01-22 05:44:25.278000+00:00,test
1402,0.0,0.0,2021-01-22 05:44:55.278000+00:00,test
1403,0.0,0.0,2021-01-22 05:45:25.278000+00:00,test
1404,0.0,0.0,2021-01-22 05:45:55.278000+00:00,test
1405,0.0,0.0,2021-01-22 05:46:25.278000+00:00,test
1406,0.0,0.0,2021-01-22 05:46:55.278000+00:00,test
1407,0.0,0.0,2021-01-22 05:47:25.278000+00:00,test
1408,0.0,0.0,2021-01-22 05:47:55.278000+00:00,test
1409,0.0,0.0,2021-01-22 05:48:25.278000+00:00,test
1410,0.0,0.0,2021-01-22 05:48:55.278000+00:00,test
1411,0.0,0.0,2021-01-22 05:49:25.278000+00:00,test
1412,0.0,0.0,2021-01-22 05:49:55.278000+00:00,test
1413,0.0,0.0,2021-01-22 05:50:25.278000+00:00,test
1414,0.0,0.0,2021-01-22 05:50:55.278000+00:00,test
1415,0.0,0.0,2021-01-22 05:51:25.278000+00:00,test
1416,0.0,0.0,2021-01-22 05:51:55.278000+00:00,test
1417,0.0,0.0,2021-01-22 05:52:25.278000+00:00,test
1418,0.0,0.0,2021-01-22 05:52:55.278000+00:00,test
1419,0.0,0.0,2021-01-22 05:53:25.278000+00:00,test
1420,0.0,0.0,2021-01-22 05:53:55.278000+00:00,test
1421,0.0,0.0,2021-01-22 05:54:25.278000+00:00,test
1422,0.0,0.0,2021-01-22 05:54:55.278000+00:00,test
1423,0.0,0.0,2021-01-22 05:55:25.278000+00:00,test
1424,0.0,0.0,2021-01-22 05:55:55.278000+00:00,test
1425,0.0,0.0,2021-01-22 05:56:25.278000+00:00,test
1426,0.0,0.0,2021-01-22 05:56:55.278000+00:00,test
1427,0.0,0.0,2021-01-22 05:57:25.278000+00:00,test
1428,0.0,0.0,2021-01-22 05:57:55.278000+00:00,test
1429,0.0,0.0,2021-01-22 05:58:25.278000+00:00,test
1430,0.0,0.0,2021-01-22 05:58:55.278000+00:00,test
1431,0.0,0.0,2021-01-22 05:59:25.278000+00:00,test
1432,0.0,0.0,2021-01-22 05:59:55.278000+00:00,test
1433,0.0,0.0,2021-01-22 06:00:25.278000+00:00,test
1434,0.0,0.0,2021-01-22 06:00:55.278000+00:00,test
1435,0.0,0.0,2021-01-22 06:01:25.278000+00:00,test
1436,0.0,0.0,2021-01-22 06:01:55.278000+00:00,test
1437,0.0,0.0,2021-01-22 06:02:25.278000+00:00,test
1438,0.0,0.0,2021-01-22 06:02:55.278000+00:00,test
1439,0.0,0.0,2021-01-22 06:03:25.278000+00:00,test
1440,0.0,0.0,2021-01-22 06:03:55.278000+00:00,test
1441,0.0,0.0,2021-01-22 06:04:25.278000+00:00,test
1442,0.0,0.0,2021-01-22 06:04:55.278000+00:00,test
1443,0.0,0.0,2021-01-22 06:05:25.278000+00:00,test
1444,0.0,0.0,2021-01-22 06:05:55.278000+00:00,test
1445,0.0,0.0,2021-01-22 06:06:25.278000+00:00,test
1446,0.0,0.0,2021-01-22 06:06:55.278000+00:00,test
1447,0.0,0.0,2021-01-22 06:07:25.278000+00:00,test
1448,0.0,0.0,2021-01-22 06:07:55.278000+00:00,test
1449,0.0,0.0,2021-01-22 06:08:25.278000+00:00,test
1450,0.0,0.0,2021-01-22 06:08:55.278000+00:00,test
1451,0.0,0.0,2021-01-22 06:09:25.278000+00:00,test
1452,0.0,0.0,2021-01-22 06:09:55.278000+00:00,test
1453,0.0,0.0,2021-01-22 06:10:25.278000+00:00,test
1454,0.0,0.0,2021-01-22 06:10:55.278000+00:00,test
1455,0.0,0.0,2021-01-22 06:11:25.278000+00:00,test
1456,0.0,0.0,2021-01-22 06:11:55.278000+00:00,test
1457,0.0,0.0,2021-01-22 06:12:25.278000+00:00,test
1458,0.0,0.0,2021-01-22 06:12:55.278000+00:00,test
1459,0.0,0.0,2021-01-22 06:13:25.278000+00:00,test
1460,0.0,0.0,2021-01-22 06:13:55.278000+00:00,test
1461,0.0,0.0,2021-01-22 06:14:25.278000+00:00,test
1462,0.0,0.0,2021-01-22 06:14:55.278000+00:00,test
1463,0.0,0.0,2021-01-22 06:15:25.278000+00:00,test
1464,0.0,0.0,2021-01-22 06:15:55.278000+00:00,test
1465,0.0,0.0,2021-01-22 06:16:25.278000+00:00,test
1466,0.0,0.0,2021-01-22 06:16:55.278000+00:00,test
1467,0.0,0.0,2021-01-22 06:17:25.278000+00:00,test
1468,0.0,0.0,2021-01-22 06:17:55.278000+00:00,test
1469,0.0,0.0,2021-01-22 06:18:25.278000+00:00,test
1470,0.0,0.0,2021-01-22 06:18:55.278000+00:00,test
1471,0.0,0.0,2021-01-22 06:19:25.278000+00:00,test
1472,0.0,0.0,2021-01-22 06:19:55.278000+00:00,test
1473,0.0,0.0,2021-01-22 06:20:25.278000+00:00,test
1474,0.0,0.0,2021-01-22 06:20:55.278000+00:00,test
1475,0.0,0.0,2021-01-22 06:21:25.278000+00:00,test
1476,0.0,0.0,2021-01-22 06:21:55.278000+00:00,test
1477,0.0,0.0,2021-01-22 06:22:25.278000+00:00,test
1478,0.0,0.0,2021-01-22 06:22:55.278000+00:00,test
1479,0.0,0.0,2021-01-22 06:23:25.278000+00:00,test
1480,0.0,0.0,2021-01-22 06:23:55.278000+00:00,test
1481,0.0,0.0,2021-01-22 06:24:25.278000+00:00,test
1482,0.0,0.0,2021-01-22 06:24:55.278000+00:00,test
1483,0.0,0.0,2021-01-22 06:25:25.278000+00:00,test
1484,0.0,0.0,2021-01-22 06:25:55.278000+00:00,test
1485,0.0,0.0,2021-01-22 06:26:25.278000+00:00,test
1486,0.0,0.0,2021-01-22 06:26:55.278000+00:00,test
1487,0.0,0.0,2021-01-22 06:27:25.278000+00:00,test
1488,0.0,0.0,2021-01-22 06:27:55.278000+00:00,test
1489,0.0,0.0,2021-01-22 06:28:25.278000+00:00,test
1490,0.0,0.0,2021-01-22 06:28:55.278000+00:00,test
1491,0.0,0.0,2021-01-22 06:29:25.278000+00:00,test
1492,0.0,0.0,2021-01-22 06:29:55.278000+00:00,test
1493,0.0,0.0,2021-01-22 06:30:25.278000+00:00,test
1494,0.0,0.0,2021-01-22 06:30:55.278000+00:00,test
1495,0.0,0.0,2021-01-22 06:31:25.278000+00:00,test
1496,0.0,0.0,2021-01-22 06:31:55.278000+00:00,test
1497,0.0,0.0,2021-01-22 06:32:25.278000+00:00,test
1498,0.0,0.0,2021-01-22 06:32:55.278000+00:00,test
1499,0.0,0.0,2021-01-22 06:33:25.278000+00:00,test
1500,0.0,0.0,2021-01-22 06:33:55.278000+00:00,test
1501,0.0,0.0,2021-01-22 06:34:25.278000+00:00,test
1502,0.0,0.0,2021-01-22 06:34:55.278000+00:00,test
1503,0.0,0.0,2021-01-22 06:35:25.278000+00:00,test
1504,0.0,0.0,2021-01-22 06:35:55.278000+00:00,test
1505,0.0,0.0,2021-01-22 06:36:25.278000+00:00,test
