,prediction,real,time,split
0,-9.354228973388672,-9.0,2021-01-21 17:01:55.278000+00:00,train
1,-9.296414375305176,-9.0,2021-01-21 17:02:25.278000+00:00,train
2,-9.243189811706543,-9.0,2021-01-21 17:02:55.278000+00:00,train
3,-9.19495677947998,-9.0,2021-01-21 17:03:25.278000+00:00,train
4,-9.152046203613281,-9.0,2021-01-21 17:03:55.278000+00:00,train
5,-9.090461730957031,-9.0,2021-01-21 17:04:25.278000+00:00,train
6,-9.032479286193848,-9.0,2021-01-21 17:04:55.278000+00:00,train
7,-8.978151321411133,-9.0,2021-01-21 17:05:25.278000+00:00,train
8,-8.92753791809082,-9.0,2021-01-21 17:05:55.278000+00:00,train
9,-8.880705833435059,-9.0,2021-01-21 17:06:25.278000+00:00,train
10,-8.837743759155273,-8.0,2021-01-21 17:06:55.278000+00:00,train
11,-8.759652137756348,-8.0,2021-01-21 17:07:25.278000+00:00,train
12,-8.685222625732422,-8.0,2021-01-21 17:07:55.278000+00:00,train
13,-8.615215301513672,-8.0,2021-01-21 17:08:25.278000+00:00,train
14,-8.550057411193848,-8.0,2021-01-21 17:08:55.278000+00:00,train
15,-8.490002632141113,-8.0,2021-01-21 17:09:25.278000+00:00,train
16,-8.435247421264648,-8.0,2021-01-21 17:09:55.278000+00:00,train
17,-8.385992050170898,-8.0,2021-01-21 17:10:25.278000+00:00,train
18,-8.318209648132324,-8.0,2021-01-21 17:10:55.278000+00:00,train
19,-8.254178047180176,-8.0,2021-01-21 17:11:25.278000+00:00,train
20,-8.193904876708984,-8.0,2021-01-21 17:11:55.278000+00:00,train
21,-8.137412071228027,-8.0,2021-01-21 17:12:25.278000+00:00,train
22,-8.084737777709961,-8.0,2021-01-21 17:12:55.278000+00:00,train
23,-8.035944938659668,-8.0,2021-01-21 17:13:25.278000+00:00,train
24,-7.991108417510986,-8.0,2021-01-21 17:13:55.278000+00:00,train
25,-7.950329780578613,-8.0,2021-01-21 17:14:25.278000+00:00,train
26,-7.913735866546631,-8.0,2021-01-21 17:14:55.278000+00:00,train
27,-7.881479263305664,-8.0,2021-01-21 17:15:25.278000+00:00,train
28,-7.8537468910217285,-8.0,2021-01-21 17:15:55.278000+00:00,train
29,-7.8082756996154785,-8.0,2021-01-21 17:16:25.278000+00:00,train
30,-7.7654643058776855,-8.0,2021-01-21 17:16:55.278000+00:00,train
31,-7.72533655166626,-8.0,2021-01-21 17:17:25.278000+00:00,train
32,-7.687924861907959,-8.0,2021-01-21 17:17:55.278000+00:00,train
33,-7.653285503387451,-8.0,2021-01-21 17:18:25.278000+00:00,train
34,-7.6214776039123535,-8.0,2021-01-21 17:18:55.278000+00:00,train
35,-7.592578411102295,-8.0,2021-01-21 17:19:25.278000+00:00,train
36,-7.566675186157227,-8.0,2021-01-21 17:19:55.278000+00:00,train
37,-7.543875217437744,-8.0,2021-01-21 17:20:25.278000+00:00,train
38,-7.524309158325195,-8.0,2021-01-21 17:20:55.278000+00:00,train
39,-7.508129119873047,-7.0,2021-01-21 17:21:25.278000+00:00,train
40,-7.458785057067871,-7.0,2021-01-21 17:21:55.278000+00:00,train
41,-7.412782192230225,-7.0,2021-01-21 17:22:25.278000+00:00,train
42,-7.370917797088623,-7.0,2021-01-21 17:22:55.278000+00:00,train
43,-7.333628177642822,-7.0,2021-01-21 17:23:25.278000+00:00,train
44,-7.2771477699279785,-7.0,2021-01-21 17:23:55.278000+00:00,train
45,-7.223573207855225,-7.0,2021-01-21 17:24:25.278000+00:00,train
46,-7.172910213470459,-7.0,2021-01-21 17:24:55.278000+00:00,train
47,-7.125167369842529,-7.0,2021-01-21 17:25:25.278000+00:00,train
48,-7.080363750457764,-7.0,2021-01-21 17:25:55.278000+00:00,train
49,-7.0385308265686035,-7.0,2021-01-21 17:26:25.278000+00:00,train
50,-6.99971342086792,-7.0,2021-01-21 17:26:55.278000+00:00,train
51,-6.963970184326172,-7.0,2021-01-21 17:27:25.278000+00:00,train
52,-6.931378364562988,-7.0,2021-01-21 17:27:55.278000+00:00,train
53,-6.902032375335693,-7.0,2021-01-21 17:28:25.278000+00:00,train
54,-6.876049518585205,-7.0,2021-01-21 17:28:55.278000+00:00,train
55,-6.853570461273193,-7.0,2021-01-21 17:29:25.278000+00:00,train
56,-6.834767818450928,-7.0,2021-01-21 17:29:55.278000+00:00,train
57,-6.819848537445068,-7.0,2021-01-21 17:30:25.278000+00:00,train
58,-6.786185264587402,-7.0,2021-01-21 17:30:55.278000+00:00,train
59,-6.75440788269043,-7.0,2021-01-21 17:31:25.278000+00:00,train
60,-6.724532127380371,-7.0,2021-01-21 17:31:55.278000+00:00,train
61,-6.696585655212402,-7.0,2021-01-21 17:32:25.278000+00:00,train
62,-6.670600414276123,-7.0,2021-01-21 17:32:55.278000+00:00,train
63,-6.646617889404297,-7.0,2021-01-21 17:33:25.278000+00:00,train
64,-6.624685287475586,-7.0,2021-01-21 17:33:55.278000+00:00,train
65,-6.604864120483398,-7.0,2021-01-21 17:34:25.278000+00:00,train
66,-6.587225914001465,-7.0,2021-01-21 17:34:55.278000+00:00,train
67,-6.571852207183838,-7.0,2021-01-21 17:35:25.278000+00:00,train
68,-6.558845043182373,-7.0,2021-01-21 17:35:55.278000+00:00,train
69,-6.548318386077881,-7.0,2021-01-21 17:36:25.278000+00:00,train
70,-6.540411949157715,-7.0,2021-01-21 17:36:55.278000+00:00,train
71,-6.535290241241455,-7.0,2021-01-21 17:37:25.278000+00:00,train
72,-6.533148288726807,-6.0,2021-01-21 17:37:55.278000+00:00,train
73,-6.494862079620361,-6.0,2021-01-21 17:38:25.278000+00:00,train
74,-6.460387706756592,-6.0,2021-01-21 17:38:55.278000+00:00,train
75,-6.430168628692627,-6.0,2021-01-21 17:39:25.278000+00:00,train
76,-6.404428482055664,-6.0,2021-01-21 17:39:55.278000+00:00,train
77,-6.383435249328613,-6.0,2021-01-21 17:40:25.278000+00:00,train
78,-6.367501735687256,-6.0,2021-01-21 17:40:55.278000+00:00,train
79,-6.325815200805664,-6.0,2021-01-21 17:41:25.278000+00:00,train
80,-6.286606788635254,-6.0,2021-01-21 17:41:55.278000+00:00,train
81,-6.2498626708984375,-6.0,2021-01-21 17:42:25.278000+00:00,train
82,-6.215581893920898,-6.0,2021-01-21 17:42:55.278000+00:00,train
83,-6.183780193328857,-6.0,2021-01-21 17:43:25.278000+00:00,train
84,-6.1544880867004395,-6.0,2021-01-21 17:43:55.278000+00:00,train
85,-6.1277546882629395,-6.0,2021-01-21 17:44:25.278000+00:00,train
86,-6.1036458015441895,-6.0,2021-01-21 17:44:55.278000+00:00,train
87,-6.08224630355835,-6.0,2021-01-21 17:45:25.278000+00:00,train
88,-6.063669204711914,-6.0,2021-01-21 17:45:55.278000+00:00,train
89,-6.048049449920654,-6.0,2021-01-21 17:46:25.278000+00:00,train
90,-6.035558700561523,-6.0,2021-01-21 17:46:55.278000+00:00,train
91,-6.004778861999512,-6.0,2021-01-21 17:47:25.278000+00:00,train
92,-5.975231170654297,-6.0,2021-01-21 17:47:55.278000+00:00,train
93,-5.946900367736816,-6.0,2021-01-21 17:48:25.278000+00:00,train
94,-5.919774532318115,-6.0,2021-01-21 17:48:55.278000+00:00,train
95,-5.893844127655029,-6.0,2021-01-21 17:49:25.278000+00:00,train
96,-5.869105339050293,-6.0,2021-01-21 17:49:55.278000+00:00,train
97,-5.84555721282959,-6.0,2021-01-21 17:50:25.278000+00:00,train
98,-5.823202133178711,-6.0,2021-01-21 17:50:55.278000+00:00,train
99,-5.802047252655029,-6.0,2021-01-21 17:51:25.278000+00:00,train
100,-5.782104015350342,-6.0,2021-01-21 17:51:55.278000+00:00,train
101,-5.763388156890869,-6.0,2021-01-21 17:52:25.278000+00:00,train
102,-5.745916843414307,-6.0,2021-01-21 17:52:55.278000+00:00,train
103,-5.729716777801514,-6.0,2021-01-21 17:53:25.278000+00:00,train
104,-5.714815616607666,-5.0,2021-01-21 17:53:55.278000+00:00,train
105,-5.655689716339111,-5.0,2021-01-21 17:54:25.278000+00:00,train
106,-5.600464344024658,-5.0,2021-01-21 17:54:55.278000+00:00,train
107,-5.548718452453613,-5.0,2021-01-21 17:55:25.278000+00:00,train
108,-5.500086307525635,-5.0,2021-01-21 17:55:55.278000+00:00,train
109,-5.454360008239746,-5.0,2021-01-21 17:56:25.278000+00:00,train
110,-5.411403656005859,-5.0,2021-01-21 17:56:55.278000+00:00,train
111,-5.3711371421813965,-5.0,2021-01-21 17:57:25.278000+00:00,train
112,-5.333514213562012,-5.0,2021-01-21 17:57:55.278000+00:00,train
113,-5.298514366149902,-5.0,2021-01-21 17:58:25.278000+00:00,train
114,-5.266143321990967,-5.0,2021-01-21 17:58:55.278000+00:00,train
115,-5.236425876617432,-5.0,2021-01-21 17:59:25.278000+00:00,train
116,-5.209408283233643,-5.0,2021-01-21 17:59:55.278000+00:00,train
117,-5.185157775878906,-5.0,2021-01-21 18:00:25.278000+00:00,train
118,-5.163760662078857,-5.0,2021-01-21 18:00:55.278000+00:00,train
119,-5.145346641540527,-5.0,2021-01-21 18:01:25.278000+00:00,train
120,-5.110265731811523,-5.0,2021-01-21 18:01:55.278000+00:00,train
121,-5.076498985290527,-5.0,2021-01-21 18:02:25.278000+00:00,train
122,-5.044009208679199,-5.0,2021-01-21 18:02:55.278000+00:00,train
123,-5.0127692222595215,-5.0,2021-01-21 18:03:25.278000+00:00,train
124,-4.982757091522217,-5.0,2021-01-21 18:03:55.278000+00:00,train
125,-4.953952312469482,-5.0,2021-01-21 18:04:25.278000+00:00,train
126,-4.926341533660889,-5.0,2021-01-21 18:04:55.278000+00:00,train
127,-4.899913787841797,-5.0,2021-01-21 18:05:25.278000+00:00,train
128,-4.874662399291992,-5.0,2021-01-21 18:05:55.278000+00:00,train
129,-4.850584030151367,-5.0,2021-01-21 18:06:25.278000+00:00,train
130,-4.827681064605713,-5.0,2021-01-21 18:06:55.278000+00:00,train
131,-4.8059563636779785,-5.0,2021-01-21 18:07:25.278000+00:00,train
132,-4.7854180335998535,-5.0,2021-01-21 18:07:55.278000+00:00,train
133,-4.766079902648926,-5.0,2021-01-21 18:08:25.278000+00:00,train
134,-4.747956275939941,-5.0,2021-01-21 18:08:55.278000+00:00,train
135,-4.7310686111450195,-5.0,2021-01-21 18:09:25.278000+00:00,train
136,-4.715444087982178,-5.0,2021-01-21 18:09:55.278000+00:00,train
137,-4.70111083984375,-5.0,2021-01-21 18:10:25.278000+00:00,train
138,-4.688106060028076,-5.0,2021-01-21 18:10:55.278000+00:00,train
139,-4.676474571228027,-5.0,2021-01-21 18:11:25.278000+00:00,train
140,-4.666265964508057,-5.0,2021-01-21 18:11:55.278000+00:00,train
141,-4.657539367675781,-5.0,2021-01-21 18:12:25.278000+00:00,train
142,-4.650366306304932,-5.0,2021-01-21 18:12:55.278000+00:00,train
143,-4.644827842712402,-5.0,2021-01-21 18:13:25.278000+00:00,train
144,-4.641019821166992,-5.0,2021-01-21 18:13:55.278000+00:00,train
145,-4.639059543609619,-5.0,2021-01-21 18:14:25.278000+00:00,train
146,-4.639082908630371,-5.0,2021-01-21 18:14:55.278000+00:00,train
147,-4.6412553787231445,-5.0,2021-01-21 18:15:25.278000+00:00,train
148,-4.645780086517334,-5.0,2021-01-21 18:15:55.278000+00:00,train
149,-4.6529059410095215,-5.0,2021-01-21 18:16:25.278000+00:00,train
150,-4.662949085235596,-5.0,2021-01-21 18:16:55.278000+00:00,train
151,-4.676334857940674,-5.0,2021-01-21 18:17:25.278000+00:00,train
152,-4.693572998046875,-4.0,2021-01-21 18:17:55.278000+00:00,train
153,-4.636322021484375,-4.0,2021-01-21 18:18:25.278000+00:00,train
154,-4.583645820617676,-4.0,2021-01-21 18:18:55.278000+00:00,train
155,-4.534570217132568,-4.0,2021-01-21 18:19:25.278000+00:00,train
156,-4.488402843475342,-4.0,2021-01-21 18:19:55.278000+00:00,train
157,-4.4447126388549805,-4.0,2021-01-21 18:20:25.278000+00:00,train
158,-4.403216361999512,-4.0,2021-01-21 18:20:55.278000+00:00,train
159,-4.363702774047852,-4.0,2021-01-21 18:21:25.278000+00:00,train
160,-4.326052665710449,-4.0,2021-01-21 18:21:55.278000+00:00,train
161,-4.290156841278076,-4.0,2021-01-21 18:22:25.278000+00:00,train
162,-4.25593376159668,-4.0,2021-01-21 18:22:55.278000+00:00,train
163,-4.223315238952637,-4.0,2021-01-21 18:23:25.278000+00:00,train
164,-4.192250728607178,-4.0,2021-01-21 18:23:55.278000+00:00,train
165,-4.162703037261963,-4.0,2021-01-21 18:24:25.278000+00:00,train
166,-4.134639739990234,-4.0,2021-01-21 18:24:55.278000+00:00,train
167,-4.108037948608398,-4.0,2021-01-21 18:25:25.278000+00:00,train
168,-4.082886695861816,-4.0,2021-01-21 18:25:55.278000+00:00,train
169,-4.059175968170166,-4.0,2021-01-21 18:26:25.278000+00:00,train
170,-4.0369062423706055,-4.0,2021-01-21 18:26:55.278000+00:00,train
171,-4.016088008880615,-4.0,2021-01-21 18:27:25.278000+00:00,train
172,-3.9967305660247803,-4.0,2021-01-21 18:27:55.278000+00:00,train
173,-3.9788565635681152,-4.0,2021-01-21 18:28:25.278000+00:00,train
174,-3.962498426437378,-4.0,2021-01-21 18:28:55.278000+00:00,train
175,-3.947690963745117,-4.0,2021-01-21 18:29:25.278000+00:00,train
176,-3.934483528137207,-4.0,2021-01-21 18:29:55.278000+00:00,train
177,-3.9229378700256348,-4.0,2021-01-21 18:30:25.278000+00:00,train
178,-3.9131245613098145,-4.0,2021-01-21 18:30:55.278000+00:00,train
179,-3.9051337242126465,-4.0,2021-01-21 18:31:25.278000+00:00,train
180,-3.899076223373413,-4.0,2021-01-21 18:31:55.278000+00:00,train
181,-3.8950841426849365,-4.0,2021-01-21 18:32:25.278000+00:00,train
182,-3.8933210372924805,-4.0,2021-01-21 18:32:55.278000+00:00,train
183,-3.893993616104126,-4.0,2021-01-21 18:33:25.278000+00:00,train
184,-3.897364616394043,-4.0,2021-01-21 18:33:55.278000+00:00,train
185,-3.8818440437316895,-4.0,2021-01-21 18:34:25.278000+00:00,train
186,-3.8667984008789062,-4.0,2021-01-21 18:34:55.278000+00:00,train
187,-3.8522233963012695,-4.0,2021-01-21 18:35:25.278000+00:00,train
188,-3.83811092376709,-4.0,2021-01-21 18:35:55.278000+00:00,train
189,-3.824455976486206,-4.0,2021-01-21 18:36:25.278000+00:00,train
190,-3.81125807762146,-4.0,2021-01-21 18:36:55.278000+00:00,train
191,-3.7985105514526367,-4.0,2021-01-21 18:37:25.278000+00:00,train
192,-3.786212921142578,-4.0,2021-01-21 18:37:55.278000+00:00,train
193,-3.7743654251098633,-4.0,2021-01-21 18:38:25.278000+00:00,train
194,-3.7629647254943848,-4.0,2021-01-21 18:38:55.278000+00:00,train
195,-3.7520127296447754,-4.0,2021-01-21 18:39:25.278000+00:00,train
196,-3.741511821746826,-4.0,2021-01-21 18:39:55.278000+00:00,train
197,-3.7314624786376953,-4.0,2021-01-21 18:40:25.278000+00:00,train
198,-3.721867084503174,-4.0,2021-01-21 18:40:55.278000+00:00,train
199,-3.712716817855835,-4.0,2021-01-21 18:41:25.278000+00:00,train
200,-3.704036235809326,-4.0,2021-01-21 18:41:55.278000+00:00,train
201,-3.6958277225494385,-4.0,2021-01-21 18:42:25.278000+00:00,train
202,-3.688100576400757,-4.0,2021-01-21 18:42:55.278000+00:00,train
203,-3.6808581352233887,-4.0,2021-01-21 18:43:25.278000+00:00,train
204,-3.674109935760498,-4.0,2021-01-21 18:43:55.278000+00:00,train
205,-3.6678695678710938,-4.0,2021-01-21 18:44:25.278000+00:00,train
206,-3.662144660949707,-4.0,2021-01-21 18:44:55.278000+00:00,train
207,-3.656952381134033,-4.0,2021-01-21 18:45:25.278000+00:00,train
208,-3.652308940887451,-4.0,2021-01-21 18:45:55.278000+00:00,train
209,-3.6482298374176025,-4.0,2021-01-21 18:46:25.278000+00:00,train
210,-3.6447365283966064,-4.0,2021-01-21 18:46:55.278000+00:00,train
211,-3.641852617263794,-4.0,2021-01-21 18:47:25.278000+00:00,train
212,-3.639606237411499,-4.0,2021-01-21 18:47:55.278000+00:00,train
213,-3.6380257606506348,-4.0,2021-01-21 18:48:25.278000+00:00,train
214,-3.637145757675171,-4.0,2021-01-21 18:48:55.278000+00:00,train
215,-3.6370089054107666,-4.0,2021-01-21 18:49:25.278000+00:00,train
216,-3.6376588344573975,-4.0,2021-01-21 18:49:55.278000+00:00,train
217,-3.639151096343994,-4.0,2021-01-21 18:50:25.278000+00:00,train
218,-3.6415505409240723,-4.0,2021-01-21 18:50:55.278000+00:00,train
219,-3.644929885864258,-4.0,2021-01-21 18:51:25.278000+00:00,train
220,-3.6493818759918213,-4.0,2021-01-21 18:51:55.278000+00:00,train
221,-3.6550166606903076,-4.0,2021-01-21 18:52:25.278000+00:00,train
222,-3.6619699001312256,-3.0,2021-01-21 18:52:55.278000+00:00,train
223,-3.620197057723999,-3.0,2021-01-21 18:53:25.278000+00:00,train
224,-3.583833932876587,-3.0,2021-01-21 18:53:55.278000+00:00,train
225,-3.5516231060028076,-3.0,2021-01-21 18:54:25.278000+00:00,train
226,-3.5228209495544434,-3.0,2021-01-21 18:54:55.278000+00:00,train
227,-3.4970357418060303,-3.0,2021-01-21 18:55:25.278000+00:00,train
228,-3.488999843597412,-3.0,2021-01-21 18:55:55.278000+00:00,train
229,-3.4695310592651367,-3.0,2021-01-21 18:56:25.278000+00:00,train
230,-3.4527535438537598,-3.0,2021-01-21 18:56:55.278000+00:00,train
231,-3.4387102127075195,-3.0,2021-01-21 18:57:25.278000+00:00,train
232,-3.427452802658081,-3.0,2021-01-21 18:57:55.278000+00:00,train
233,-3.39812970161438,-3.0,2021-01-21 18:58:25.278000+00:00,train
234,-3.370264768600464,-3.0,2021-01-21 18:58:55.278000+00:00,train
235,-3.343744993209839,-3.0,2021-01-21 18:59:25.278000+00:00,train
236,-3.3184409141540527,-3.0,2021-01-21 18:59:55.278000+00:00,train
237,-3.294252395629883,-3.0,2021-01-21 19:00:25.278000+00:00,train
238,-3.271084785461426,-3.0,2021-01-21 19:00:55.278000+00:00,train
239,-3.2488644123077393,-3.0,2021-01-21 19:01:25.278000+00:00,train
240,-3.2275338172912598,-3.0,2021-01-21 19:01:55.278000+00:00,train
241,-3.207031488418579,-3.0,2021-01-21 19:02:25.278000+00:00,train
242,-3.187310218811035,-3.0,2021-01-21 19:02:55.278000+00:00,train
243,-3.168332815170288,-3.0,2021-01-21 19:03:25.278000+00:00,train
244,-3.1500539779663086,-3.0,2021-01-21 19:03:55.278000+00:00,train
245,-3.132441282272339,-3.0,2021-01-21 19:04:25.278000+00:00,train
246,-3.115468978881836,-3.0,2021-01-21 19:04:55.278000+00:00,train
247,-3.0991015434265137,-3.0,2021-01-21 19:05:25.278000+00:00,train
248,-3.083315372467041,-3.0,2021-01-21 19:05:55.278000+00:00,train
249,-3.068092107772827,-3.0,2021-01-21 19:06:25.278000+00:00,train
250,-3.0534005165100098,-3.0,2021-01-21 19:06:55.278000+00:00,train
251,-3.039220094680786,-3.0,2021-01-21 19:07:25.278000+00:00,train
252,-3.025538444519043,-3.0,2021-01-21 19:07:55.278000+00:00,train
253,-3.012329578399658,-3.0,2021-01-21 19:08:25.278000+00:00,train
254,-2.9995789527893066,-3.0,2021-01-21 19:08:55.278000+00:00,train
255,-2.9872779846191406,-3.0,2021-01-21 19:09:25.278000+00:00,train
256,-2.9754042625427246,-3.0,2021-01-21 19:09:55.278000+00:00,train
257,-2.9639456272125244,-3.0,2021-01-21 19:10:25.278000+00:00,train
258,-2.9528911113739014,-3.0,2021-01-21 19:10:55.278000+00:00,train
259,-2.9422354698181152,-3.0,2021-01-21 19:11:25.278000+00:00,train
260,-2.931959629058838,-3.0,2021-01-21 19:11:55.278000+00:00,train
261,-2.922055244445801,-3.0,2021-01-21 19:12:25.278000+00:00,train
262,-2.912519931793213,-3.0,2021-01-21 19:12:55.278000+00:00,train
263,-2.903337001800537,-3.0,2021-01-21 19:13:25.278000+00:00,train
264,-2.894500970840454,-3.0,2021-01-21 19:13:55.278000+00:00,train
265,-2.886012315750122,-3.0,2021-01-21 19:14:25.278000+00:00,train
266,-2.877854108810425,-3.0,2021-01-21 19:14:55.278000+00:00,train
267,-2.8700220584869385,-3.0,2021-01-21 19:15:25.278000+00:00,train
268,-2.862518787384033,-3.0,2021-01-21 19:15:55.278000+00:00,train
269,-2.855332374572754,-3.0,2021-01-21 19:16:25.278000+00:00,train
270,-2.8484628200531006,-3.0,2021-01-21 19:16:55.278000+00:00,train
271,-2.8419151306152344,-3.0,2021-01-21 19:17:25.278000+00:00,train
272,-2.835679531097412,-3.0,2021-01-21 19:17:55.278000+00:00,train
273,-2.914086103439331,-3.0,2021-01-21 19:18:25.278000+00:00,train
274,-2.905752658843994,-3.0,2021-01-21 19:18:55.278000+00:00,train
275,-2.897730827331543,-3.0,2021-01-21 19:19:25.278000+00:00,train
276,-2.8900294303894043,-3.0,2021-01-21 19:19:55.278000+00:00,train
277,-2.8826637268066406,-3.0,2021-01-21 19:20:25.278000+00:00,train
278,-2.875636339187622,-3.0,2021-01-21 19:20:55.278000+00:00,train
279,-2.868959426879883,-3.0,2021-01-21 19:21:25.278000+00:00,train
280,-2.8626532554626465,-3.0,2021-01-21 19:21:55.278000+00:00,train
281,-2.856724977493286,-3.0,2021-01-21 19:22:25.278000+00:00,train
282,-2.851193428039551,-3.0,2021-01-21 19:22:55.278000+00:00,train
283,-2.846041440963745,-3.0,2021-01-21 19:23:25.278000+00:00,train
284,-2.841353178024292,-3.0,2021-01-21 19:23:55.278000+00:00,train
285,-2.8371386528015137,-3.0,2021-01-21 19:24:25.278000+00:00,train
286,-2.833423376083374,-3.0,2021-01-21 19:24:55.278000+00:00,train
287,-2.830246686935425,-3.0,2021-01-21 19:25:25.278000+00:00,train
288,-2.827641487121582,-3.0,2021-01-21 19:25:55.278000+00:00,train
289,-2.825657606124878,-3.0,2021-01-21 19:26:25.278000+00:00,train
290,-2.8243584632873535,-3.0,2021-01-21 19:26:55.278000+00:00,train
291,-2.823808431625366,-3.0,2021-01-21 19:27:25.278000+00:00,train
292,-2.824097156524658,-3.0,2021-01-21 19:27:55.278000+00:00,train
293,-2.8254261016845703,-3.0,2021-01-21 19:28:25.278000+00:00,train
294,-2.827826738357544,-3.0,2021-01-21 19:28:55.278000+00:00,train
295,-2.831465721130371,-3.0,2021-01-21 19:29:25.278000+00:00,train
296,-2.8366200923919678,-3.0,2021-01-21 19:29:55.278000+00:00,train
297,-2.8436694145202637,-3.0,2021-01-21 19:30:25.278000+00:00,train
298,-2.8531854152679443,-3.0,2021-01-21 19:30:55.278000+00:00,train
299,-2.8661134243011475,-3.0,2021-01-21 19:31:25.278000+00:00,train
300,-2.8842954635620117,-3.0,2021-01-21 19:31:55.278000+00:00,train
301,-2.9124627113342285,-3.0,2021-01-21 19:32:25.278000+00:00,train
302,-3.0,-3.0,2021-01-21 19:32:55.278000+00:00,train
303,-3.0,-3.0,2021-01-21 19:33:25.278000+00:00,train
304,-3.0,-3.0,2021-01-21 19:33:55.278000+00:00,train
305,-3.0,-3.0,2021-01-21 19:34:25.278000+00:00,train
306,-3.0,-3.0,2021-01-21 19:34:55.278000+00:00,train
307,-3.0,-3.0,2021-01-21 19:35:25.278000+00:00,train
308,-3.0,-3.0,2021-01-21 19:35:55.278000+00:00,train
309,-3.0,-3.0,2021-01-21 19:36:25.278000+00:00,train
310,-3.0,-3.0,2021-01-21 19:36:55.278000+00:00,train
311,-3.0,-3.0,2021-01-21 19:37:25.278000+00:00,train
312,-3.0,-3.0,2021-01-21 19:37:55.278000+00:00,train
313,-3.0,-3.0,2021-01-21 19:38:25.278000+00:00,train
314,-3.0,-3.0,2021-01-21 19:38:55.278000+00:00,train
315,-3.0,-3.0,2021-01-21 19:39:25.278000+00:00,train
316,-3.0,-3.0,2021-01-21 19:39:55.278000+00:00,train
317,-3.0,-3.0,2021-01-21 19:40:25.278000+00:00,train
318,-3.0,-3.0,2021-01-21 19:40:55.278000+00:00,train
319,-3.0,-3.0,2021-01-21 19:41:25.278000+00:00,train
320,-3.0,-3.0,2021-01-21 19:41:55.278000+00:00,train
321,-3.0,-3.0,2021-01-21 19:42:25.278000+00:00,train
322,-3.0,-3.0,2021-01-21 19:42:55.278000+00:00,train
323,-3.0,-3.0,2021-01-21 19:43:25.278000+00:00,train
324,-3.0,-3.0,2021-01-21 19:43:55.278000+00:00,train
325,-3.0,-2.0,2021-01-21 19:44:25.278000+00:00,train
326,-2.884139060974121,-2.0,2021-01-21 19:44:55.278000+00:00,train
327,-2.8271377086639404,-2.0,2021-01-21 19:45:25.278000+00:00,train
328,-2.78082537651062,-2.0,2021-01-21 19:45:55.278000+00:00,train
329,-2.740493059158325,-2.0,2021-01-21 19:46:25.278000+00:00,train
330,-2.7041537761688232,-2.0,2021-01-21 19:46:55.278000+00:00,train
331,-2.670720100402832,-2.0,2021-01-21 19:47:25.278000+00:00,train
332,-2.639512062072754,-2.0,2021-01-21 19:47:55.278000+00:00,train
333,-2.610084295272827,-2.0,2021-01-21 19:48:25.278000+00:00,train
334,-2.5827975273132324,-2.0,2021-01-21 19:48:55.278000+00:00,train
335,-2.556110382080078,-2.0,2021-01-21 19:49:25.278000+00:00,train
336,-2.5304982662200928,-2.0,2021-01-21 19:49:55.278000+00:00,train
337,-2.5058376789093018,-2.0,2021-01-21 19:50:25.278000+00:00,train
338,-2.4820191860198975,-2.0,2021-01-21 19:50:55.278000+00:00,train
339,-2.4589626789093018,-2.0,2021-01-21 19:51:25.278000+00:00,train
340,-2.4366018772125244,-2.0,2021-01-21 19:51:55.278000+00:00,train
341,-2.414881706237793,-2.0,2021-01-21 19:52:25.278000+00:00,train
342,-2.3937201499938965,-2.0,2021-01-21 19:52:55.278000+00:00,train
343,-2.3731298446655273,-2.0,2021-01-21 19:53:25.278000+00:00,train
344,-2.353069305419922,-2.0,2021-01-21 19:53:55.278000+00:00,train
345,-2.3335049152374268,-2.0,2021-01-21 19:54:25.278000+00:00,train
346,-2.314408779144287,-2.0,2021-01-21 19:54:55.278000+00:00,train
347,-2.295758008956909,-2.0,2021-01-21 19:55:25.278000+00:00,train
348,-2.2775394916534424,-2.0,2021-01-21 19:55:55.278000+00:00,train
349,-2.2597250938415527,-2.0,2021-01-21 19:56:25.278000+00:00,train
350,-2.2423007488250732,-2.0,2021-01-21 19:56:55.278000+00:00,train
351,-2.225254535675049,-2.0,2021-01-21 19:57:25.278000+00:00,train
352,-2.2085747718811035,-2.0,2021-01-21 19:57:55.278000+00:00,train
353,-2.1922028064727783,-2.0,2021-01-21 19:58:25.278000+00:00,train
354,-2.1762070655822754,-2.0,2021-01-21 19:58:55.278000+00:00,train
355,-2.160557746887207,-2.0,2021-01-21 19:59:25.278000+00:00,train
356,-2.1452436447143555,-2.0,2021-01-21 19:59:55.278000+00:00,train
357,-2.130255937576294,-2.0,2021-01-21 20:00:25.278000+00:00,train
358,-2.115588426589966,-2.0,2021-01-21 20:00:55.278000+00:00,train
359,-2.1012351512908936,-2.0,2021-01-21 20:01:25.278000+00:00,train
360,-2.0871992111206055,-2.0,2021-01-21 20:01:55.278000+00:00,train
361,-2.0734660625457764,-2.0,2021-01-21 20:02:25.278000+00:00,train
362,-2.0600345134735107,-2.0,2021-01-21 20:02:55.278000+00:00,train
363,-2.046902656555176,-2.0,2021-01-21 20:03:25.278000+00:00,train
364,-2.034069776535034,-2.0,2021-01-21 20:03:55.278000+00:00,train
365,-2.0215423107147217,-2.0,2021-01-21 20:04:25.278000+00:00,train
366,-2.0093088150024414,-2.0,2021-01-21 20:04:55.278000+00:00,train
367,-1.9973716735839844,-2.0,2021-01-21 20:05:25.278000+00:00,train
368,-1.9857324361801147,-2.0,2021-01-21 20:05:55.278000+00:00,train
369,-1.974392056465149,-2.0,2021-01-21 20:06:25.278000+00:00,train
370,-1.963353157043457,-2.0,2021-01-21 20:06:55.278000+00:00,train
371,-1.952576994895935,-2.0,2021-01-21 20:07:25.278000+00:00,train
372,-1.94212806224823,-2.0,2021-01-21 20:07:55.278000+00:00,train
373,-1.932003140449524,-2.0,2021-01-21 20:08:25.278000+00:00,train
374,-1.922199010848999,-2.0,2021-01-21 20:08:55.278000+00:00,train
375,-1.9127180576324463,-2.0,2021-01-21 20:09:25.278000+00:00,train
376,-1.903564691543579,-2.0,2021-01-21 20:09:55.278000+00:00,train
377,-1.894752025604248,-2.0,2021-01-21 20:10:25.278000+00:00,train
378,-1.8862775564193726,-2.0,2021-01-21 20:10:55.278000+00:00,train
379,-1.8781510591506958,-2.0,2021-01-21 20:11:25.278000+00:00,train
380,-1.8703835010528564,-2.0,2021-01-21 20:11:55.278000+00:00,train
381,-1.8629868030548096,-2.0,2021-01-21 20:12:25.278000+00:00,train
382,-1.8559807538986206,-2.0,2021-01-21 20:12:55.278000+00:00,train
383,-1.8493696451187134,-2.0,2021-01-21 20:13:25.278000+00:00,train
384,-1.8431718349456787,-2.0,2021-01-21 20:13:55.278000+00:00,train
385,-1.8374066352844238,-2.0,2021-01-21 20:14:25.278000+00:00,train
386,-1.832095980644226,-2.0,2021-01-21 20:14:55.278000+00:00,train
387,-1.8272645473480225,-2.0,2021-01-21 20:15:25.278000+00:00,train
388,-1.8229073286056519,-2.0,2021-01-21 20:15:55.278000+00:00,train
389,-1.8191065788269043,-2.0,2021-01-21 20:16:25.278000+00:00,train
390,-1.8158923387527466,-2.0,2021-01-21 20:16:55.278000+00:00,train
391,-1.8133041858673096,-2.0,2021-01-21 20:17:25.278000+00:00,train
392,-1.8113921880722046,-2.0,2021-01-21 20:17:55.278000+00:00,train
393,-1.8102178573608398,-2.0,2021-01-21 20:18:25.278000+00:00,train
394,-1.8099761009216309,-2.0,2021-01-21 20:18:55.278000+00:00,train
395,-1.810575246810913,-2.0,2021-01-21 20:19:25.278000+00:00,train
396,-1.8121657371520996,-2.0,2021-01-21 20:19:55.278000+00:00,train
397,-1.8149200677871704,-2.0,2021-01-21 20:20:25.278000+00:00,train
398,-1.819039225578308,-2.0,2021-01-21 20:20:55.278000+00:00,train
399,-1.8248010873794556,-2.0,2021-01-21 20:21:25.278000+00:00,train
400,-1.8326003551483154,-2.0,2021-01-21 20:21:55.278000+00:00,train
401,-1.8430373668670654,-2.0,2021-01-21 20:22:25.278000+00:00,train
402,-1.857116460800171,-2.0,2021-01-21 20:22:55.278000+00:00,train
403,-1.876787543296814,-2.0,2021-01-21 20:23:25.278000+00:00,train
404,-1.9070426225662231,-2.0,2021-01-21 20:23:55.278000+00:00,train
405,-2.0,-2.0,2021-01-21 20:24:25.278000+00:00,train
406,-2.0,-2.0,2021-01-21 20:24:55.278000+00:00,train
407,-2.0,-2.0,2021-01-21 20:25:25.278000+00:00,train
408,-2.0,-2.0,2021-01-21 20:25:55.278000+00:00,train
409,-2.0,-2.0,2021-01-21 20:26:25.278000+00:00,train
410,-2.0,-2.0,2021-01-21 20:26:55.278000+00:00,train
411,-2.0,-2.0,2021-01-21 20:27:25.278000+00:00,train
412,-2.0,-2.0,2021-01-21 20:27:55.278000+00:00,train
413,-2.0,-2.0,2021-01-21 20:28:25.278000+00:00,train
414,-2.0,-2.0,2021-01-21 20:28:55.278000+00:00,train
415,-2.0,-2.0,2021-01-21 20:29:25.278000+00:00,train
416,-2.0,-2.0,2021-01-21 20:29:55.278000+00:00,train
417,-2.0,-2.0,2021-01-21 20:30:25.278000+00:00,train
418,-2.0,-2.0,2021-01-21 20:30:55.278000+00:00,train
419,-2.0,-2.0,2021-01-21 20:31:25.278000+00:00,train
420,-2.0,-2.0,2021-01-21 20:31:55.278000+00:00,train
421,-2.0,-2.0,2021-01-21 20:32:25.278000+00:00,train
422,-2.0,-2.0,2021-01-21 20:32:55.278000+00:00,train
423,-2.0,-2.0,2021-01-21 20:33:25.278000+00:00,train
424,-2.0,-2.0,2021-01-21 20:33:55.278000+00:00,train
425,-2.0,-2.0,2021-01-21 20:34:25.278000+00:00,train
426,-2.0,-2.0,2021-01-21 20:34:55.278000+00:00,train
427,-2.0,-2.0,2021-01-21 20:35:25.278000+00:00,train
428,-2.0,-2.0,2021-01-21 20:35:55.278000+00:00,train
429,-2.0,-2.0,2021-01-21 20:36:25.278000+00:00,train
430,-2.0,-2.0,2021-01-21 20:36:55.278000+00:00,train
431,-2.0,-2.0,2021-01-21 20:37:25.278000+00:00,train
432,-2.0,-2.0,2021-01-21 20:37:55.278000+00:00,train
433,-2.0,-2.0,2021-01-21 20:38:25.278000+00:00,train
434,-2.0,-2.0,2021-01-21 20:38:55.278000+00:00,train
435,-2.0,-2.0,2021-01-21 20:39:25.278000+00:00,train
436,-2.0,-2.0,2021-01-21 20:39:55.278000+00:00,train
437,-2.0,-2.0,2021-01-21 20:40:25.278000+00:00,train
438,-2.0,-2.0,2021-01-21 20:40:55.278000+00:00,train
439,-2.0,-2.0,2021-01-21 20:41:25.278000+00:00,train
440,-2.0,-2.0,2021-01-21 20:41:55.278000+00:00,train
441,-2.0,-2.0,2021-01-21 20:42:25.278000+00:00,train
442,-2.0,-2.0,2021-01-21 20:42:55.278000+00:00,train
443,-2.0,-2.0,2021-01-21 20:43:25.278000+00:00,train
444,-2.0,-2.0,2021-01-21 20:43:55.278000+00:00,train
445,-2.0,-2.0,2021-01-21 20:44:25.278000+00:00,train
446,-2.0,-2.0,2021-01-21 20:44:55.278000+00:00,train
447,-2.0,-2.0,2021-01-21 20:45:25.278000+00:00,train
448,-2.0,-2.0,2021-01-21 20:45:55.278000+00:00,train
449,-2.0,-2.0,2021-01-21 20:46:25.278000+00:00,train
450,-2.0,-2.0,2021-01-21 20:46:55.278000+00:00,train
451,-2.0,-2.0,2021-01-21 20:47:25.278000+00:00,train
452,-2.0,-2.0,2021-01-21 20:47:55.278000+00:00,train
453,-2.0,-2.0,2021-01-21 20:48:25.278000+00:00,train
454,-2.0,-2.0,2021-01-21 20:48:55.278000+00:00,train
455,-2.0,-2.0,2021-01-21 20:49:25.278000+00:00,train
456,-2.0,-2.0,2021-01-21 20:49:55.278000+00:00,train
457,-2.0,-2.0,2021-01-21 20:50:25.278000+00:00,train
458,-2.0,-2.0,2021-01-21 20:50:55.278000+00:00,train
459,-2.0,-2.0,2021-01-21 20:51:25.278000+00:00,train
460,-2.0,-2.0,2021-01-21 20:51:55.278000+00:00,train
461,-2.0,-2.0,2021-01-21 20:52:25.278000+00:00,train
462,-2.0,-2.0,2021-01-21 20:52:55.278000+00:00,train
463,-2.0,-2.0,2021-01-21 20:53:25.278000+00:00,train
464,-2.0,-2.0,2021-01-21 20:53:55.278000+00:00,train
465,-2.0,-2.0,2021-01-21 20:54:25.278000+00:00,train
466,-2.0,-2.0,2021-01-21 20:54:55.278000+00:00,train
467,-2.0,-2.0,2021-01-21 20:55:25.278000+00:00,train
468,-2.0,-2.0,2021-01-21 20:55:55.278000+00:00,train
469,-2.0,-2.0,2021-01-21 20:56:25.278000+00:00,train
470,-2.0,-2.0,2021-01-21 20:56:55.278000+00:00,train
471,-2.0,-2.0,2021-01-21 20:57:25.278000+00:00,train
472,-2.0,-2.0,2021-01-21 20:57:55.278000+00:00,train
473,-2.0,-2.0,2021-01-21 20:58:25.278000+00:00,train
474,-2.0,-2.0,2021-01-21 20:58:55.278000+00:00,train
475,-2.0,-2.0,2021-01-21 20:59:25.278000+00:00,train
476,-2.0,-2.0,2021-01-21 20:59:55.278000+00:00,train
477,-2.0,-2.0,2021-01-21 21:00:25.278000+00:00,train
478,-2.0,0.0,2021-01-21 21:00:55.278000+00:00,train
479,-1.8993312120437622,-2.0,2021-01-21 21:01:25.278000+00:00,train
480,-1.90083646774292,-2.0,2021-01-21 21:01:55.278000+00:00,train
481,-1.901563286781311,-2.0,2021-01-21 21:02:25.278000+00:00,train
482,-1.901678204536438,-2.0,2021-01-21 21:02:55.278000+00:00,train
483,-1.901434063911438,-2.0,2021-01-21 21:03:25.278000+00:00,train
484,-1.9009902477264404,-2.0,2021-01-21 21:03:55.278000+00:00,train
485,-1.9004380702972412,-2.0,2021-01-21 21:04:25.278000+00:00,train
486,-1.899825930595398,-2.0,2021-01-21 21:04:55.278000+00:00,train
487,-1.8991795778274536,-2.0,2021-01-21 21:05:25.278000+00:00,train
488,-1.8984897136688232,-2.0,2021-01-21 21:05:55.278000+00:00,train
489,-1.8978016376495361,-2.0,2021-01-21 21:06:25.278000+00:00,train
490,-1.8971091508865356,-2.0,2021-01-21 21:06:55.278000+00:00,train
491,-1.8964124917984009,-2.0,2021-01-21 21:07:25.278000+00:00,train
492,-1.8957120180130005,-2.0,2021-01-21 21:07:55.278000+00:00,train
493,-1.8950083255767822,-2.0,2021-01-21 21:08:25.278000+00:00,train
494,-1.8943051099777222,-2.0,2021-01-21 21:08:55.278000+00:00,train
495,-1.8935973644256592,-2.0,2021-01-21 21:09:25.278000+00:00,train
496,-1.8928860425949097,-2.0,2021-01-21 21:09:55.278000+00:00,train
497,-1.8921719789505005,-2.0,2021-01-21 21:10:25.278000+00:00,train
498,-1.891455054283142,-2.0,2021-01-21 21:10:55.278000+00:00,train
499,-1.8907358646392822,-2.0,2021-01-21 21:11:25.278000+00:00,train
500,-1.8900173902511597,-2.0,2021-01-21 21:11:55.278000+00:00,train
501,-1.8892951011657715,-2.0,2021-01-21 21:12:25.278000+00:00,train
502,-1.888569712638855,-2.0,2021-01-21 21:12:55.278000+00:00,train
503,-1.8878417015075684,-2.0,2021-01-21 21:13:25.278000+00:00,train
504,-1.8871114253997803,-2.0,2021-01-21 21:13:55.278000+00:00,train
505,-1.8863790035247803,-2.0,2021-01-21 21:14:25.278000+00:00,train
506,-1.8856480121612549,-2.0,2021-01-21 21:14:55.278000+00:00,train
507,-1.8849133253097534,-2.0,2021-01-21 21:15:25.278000+00:00,train
508,-1.8841758966445923,-2.0,2021-01-21 21:15:55.278000+00:00,train
509,-1.8834363222122192,-2.0,2021-01-21 21:16:25.278000+00:00,train
510,-1.8826946020126343,-2.0,2021-01-21 21:16:55.278000+00:00,train
511,-1.881961464881897,-2.0,2021-01-21 21:17:25.278000+00:00,train
512,-1.881273865699768,-2.0,2021-01-21 21:17:55.278000+00:00,train
513,-1.8805561065673828,-2.0,2021-01-21 21:18:25.278000+00:00,train
514,-1.879847526550293,-2.0,2021-01-21 21:18:55.278000+00:00,train
515,-1.87912118434906,-2.0,2021-01-21 21:19:25.278000+00:00,train
516,-1.8783817291259766,-2.0,2021-01-21 21:19:55.278000+00:00,train
517,-1.877634882926941,-2.0,2021-01-21 21:20:25.278000+00:00,train
518,-1.8768835067749023,-2.0,2021-01-21 21:20:55.278000+00:00,train
519,-1.8761295080184937,-2.0,2021-01-21 21:21:25.278000+00:00,train
520,-1.87537682056427,-2.0,2021-01-21 21:21:55.278000+00:00,train
521,-1.874620795249939,-2.0,2021-01-21 21:22:25.278000+00:00,train
522,-1.873862385749817,-2.0,2021-01-21 21:22:55.278000+00:00,train
523,-1.8731024265289307,-2.0,2021-01-21 21:23:25.278000+00:00,train
524,-1.872341275215149,-2.0,2021-01-21 21:23:55.278000+00:00,train
525,-1.8715535402297974,-2.0,2021-01-21 21:24:25.278000+00:00,train
526,-1.8707811832427979,-2.0,2021-01-21 21:24:55.278000+00:00,train
527,-1.8700125217437744,-2.0,2021-01-21 21:25:25.278000+00:00,train
528,-1.8692454099655151,-2.0,2021-01-21 21:25:55.278000+00:00,train
529,-1.8684786558151245,-2.0,2021-01-21 21:26:25.278000+00:00,train
530,-1.8677117824554443,-2.0,2021-01-21 21:26:55.278000+00:00,train
531,-1.8669483661651611,-2.0,2021-01-21 21:27:25.278000+00:00,train
532,-1.8661829233169556,-2.0,2021-01-21 21:27:55.278000+00:00,train
533,-1.8654162883758545,-2.0,2021-01-21 21:28:25.278000+00:00,train
534,-1.8646489381790161,-2.0,2021-01-21 21:28:55.278000+00:00,train
535,-1.8638811111450195,-2.0,2021-01-21 21:29:25.278000+00:00,train
536,-1.8631131649017334,-2.0,2021-01-21 21:29:55.278000+00:00,train
537,-1.8623486757278442,-2.0,2021-01-21 21:30:25.278000+00:00,train
538,-1.8615823984146118,-2.0,2021-01-21 21:30:55.278000+00:00,train
539,-1.860815405845642,-2.0,2021-01-21 21:31:25.278000+00:00,train
540,-1.8600480556488037,-2.0,2021-01-21 21:31:55.278000+00:00,train
541,-1.8592808246612549,-2.0,2021-01-21 21:32:25.278000+00:00,train
542,-1.858517050743103,-2.0,2021-01-21 21:32:55.278000+00:00,train
543,-1.8577519655227661,-2.0,2021-01-21 21:33:25.278000+00:00,train
544,-1.8569862842559814,-2.0,2021-01-21 21:33:55.278000+00:00,train
545,-1.8562206029891968,-2.0,2021-01-21 21:34:25.278000+00:00,train
546,-1.8554551601409912,-2.0,2021-01-21 21:34:55.278000+00:00,train
547,-1.8546900749206543,-2.0,2021-01-21 21:35:25.278000+00:00,train
548,-1.8539049625396729,-2.0,2021-01-21 21:35:55.278000+00:00,train
549,-1.8531306982040405,-2.0,2021-01-21 21:36:25.278000+00:00,train
550,-1.8523622751235962,-2.0,2021-01-21 21:36:55.278000+00:00,train
551,-1.8515970706939697,-2.0,2021-01-21 21:37:25.278000+00:00,train
552,-1.8508338928222656,-2.0,2021-01-21 21:37:55.278000+00:00,train
553,-1.8500720262527466,-2.0,2021-01-21 21:38:25.278000+00:00,train
554,-1.8493149280548096,-2.0,2021-01-21 21:38:55.278000+00:00,train
555,-1.8485568761825562,-2.0,2021-01-21 21:39:25.278000+00:00,train
556,-1.8477988243103027,-2.0,2021-01-21 21:39:55.278000+00:00,train
557,-1.8470406532287598,-2.0,2021-01-21 21:40:25.278000+00:00,train
558,-1.8462828397750854,-2.0,2021-01-21 21:40:55.278000+00:00,train
559,-2.0,-2.0,2021-01-21 21:41:25.278000+00:00,train
560,-2.0,-2.0,2021-01-21 21:41:55.278000+00:00,train
561,-2.0,-2.0,2021-01-21 21:42:25.278000+00:00,train
562,-2.0,-2.0,2021-01-21 21:42:55.278000+00:00,train
563,-2.0,-2.0,2021-01-21 21:43:25.278000+00:00,train
564,-2.0,-2.0,2021-01-21 21:43:55.278000+00:00,train
565,-2.0,-2.0,2021-01-21 21:44:25.278000+00:00,train
566,-2.0,-2.0,2021-01-21 21:44:55.278000+00:00,train
567,-2.0,-2.0,2021-01-21 21:45:25.278000+00:00,train
568,-2.0,-2.0,2021-01-21 21:45:55.278000+00:00,train
569,-2.0,-2.0,2021-01-21 21:46:25.278000+00:00,train
570,-2.0,-2.0,2021-01-21 21:46:55.278000+00:00,train
571,-2.0,-2.0,2021-01-21 21:47:25.278000+00:00,train
572,-2.0,-2.0,2021-01-21 21:47:55.278000+00:00,train
573,-2.0,-2.0,2021-01-21 21:48:25.278000+00:00,train
574,-2.0,-2.0,2021-01-21 21:48:55.278000+00:00,train
575,-2.0,-2.0,2021-01-21 21:49:25.278000+00:00,train
576,-2.0,-2.0,2021-01-21 21:49:55.278000+00:00,train
577,-2.0,-2.0,2021-01-21 21:50:25.278000+00:00,train
578,-2.0,-2.0,2021-01-21 21:50:55.278000+00:00,train
579,-2.0,-2.0,2021-01-21 21:51:25.278000+00:00,train
580,-2.0,-2.0,2021-01-21 21:51:55.278000+00:00,train
581,-2.0,-2.0,2021-01-21 21:52:25.278000+00:00,train
582,-2.0,-2.0,2021-01-21 21:52:55.278000+00:00,train
583,-2.0,-2.0,2021-01-21 21:53:25.278000+00:00,train
584,-2.0,-2.0,2021-01-21 21:53:55.278000+00:00,train
585,-2.0,-2.0,2021-01-21 21:54:25.278000+00:00,train
586,-2.0,-2.0,2021-01-21 21:54:55.278000+00:00,train
587,-2.0,-2.0,2021-01-21 21:55:25.278000+00:00,train
588,-2.0,-2.0,2021-01-21 21:55:55.278000+00:00,train
589,-2.0,-1.0,2021-01-21 21:56:25.278000+00:00,train
590,-1.9092332124710083,-2.0,2021-01-21 21:56:55.278000+00:00,train
591,-1.909848928451538,-2.0,2021-01-21 21:57:25.278000+00:00,train
592,-1.9100663661956787,-2.0,2021-01-21 21:57:55.278000+00:00,train
593,-1.9100170135498047,-2.0,2021-01-21 21:58:25.278000+00:00,train
594,-1.9098267555236816,-2.0,2021-01-21 21:58:55.278000+00:00,train
595,-1.9095630645751953,-2.0,2021-01-21 21:59:25.278000+00:00,train
596,-1.909261703491211,-1.0,2021-01-21 21:59:55.278000+00:00,train
597,-1.8616055250167847,-1.0,2021-01-21 22:00:25.278000+00:00,train
598,-1.8221855163574219,0.0,2021-01-21 22:00:55.278000+00:00,train
599,-1.7211164236068726,-1.0,2021-01-21 22:01:25.278000+00:00,train
600,-1.6938062906265259,-1.0,2021-01-21 22:01:55.278000+00:00,train
601,-1.6677254438400269,-1.0,2021-01-21 22:02:25.278000+00:00,train
602,-1.6426496505737305,-1.0,2021-01-21 22:02:55.278000+00:00,train
603,-1.6183507442474365,-1.0,2021-01-21 22:03:25.278000+00:00,train
604,-1.5947270393371582,-1.0,2021-01-21 22:03:55.278000+00:00,train
605,-1.5717064142227173,-1.0,2021-01-21 22:04:25.278000+00:00,train
606,-1.5492322444915771,-1.0,2021-01-21 22:04:55.278000+00:00,train
607,-1.527258276939392,-1.0,2021-01-21 22:05:25.278000+00:00,train
608,-1.505745768547058,-1.0,2021-01-21 22:05:55.278000+00:00,train
609,-1.484666109085083,-1.0,2021-01-21 22:06:25.278000+00:00,train
610,-1.4639869928359985,-1.0,2021-01-21 22:06:55.278000+00:00,train
611,-1.4436858892440796,-1.0,2021-01-21 22:07:25.278000+00:00,train
612,-1.423743724822998,-1.0,2021-01-21 22:07:55.278000+00:00,train
613,-1.4041439294815063,-1.0,2021-01-21 22:08:25.278000+00:00,train
614,-1.3848483562469482,-1.0,2021-01-21 22:08:55.278000+00:00,train
615,-1.3658833503723145,-1.0,2021-01-21 22:09:25.278000+00:00,train
616,-1.3472280502319336,-1.0,2021-01-21 22:09:55.278000+00:00,train
617,-1.3288699388504028,-1.0,2021-01-21 22:10:25.278000+00:00,train
618,-1.3108001947402954,-1.0,2021-01-21 22:10:55.278000+00:00,train
619,-1.2930110692977905,-1.0,2021-01-21 22:11:25.278000+00:00,train
620,-1.2756010293960571,-1.0,2021-01-21 22:11:55.278000+00:00,train
621,-1.2584108114242554,-1.0,2021-01-21 22:12:25.278000+00:00,train
622,-1.2414560317993164,-1.0,2021-01-21 22:12:55.278000+00:00,train
623,-1.2247815132141113,-1.0,2021-01-21 22:13:25.278000+00:00,train
624,-1.208342432975769,-1.0,2021-01-21 22:13:55.278000+00:00,train
625,-1.1921464204788208,-1.0,2021-01-21 22:14:25.278000+00:00,train
626,-1.1761983633041382,-1.0,2021-01-21 22:14:55.278000+00:00,train
627,-1.1604994535446167,-1.0,2021-01-21 22:15:25.278000+00:00,train
628,-1.1450505256652832,-1.0,2021-01-21 22:15:55.278000+00:00,train
629,-1.1298553943634033,-1.0,2021-01-21 22:16:25.278000+00:00,train
630,-1.1149086952209473,-1.0,2021-01-21 22:16:55.278000+00:00,train
631,-1.100211501121521,-1.0,2021-01-21 22:17:25.278000+00:00,train
632,-1.0857652425765991,-1.0,2021-01-21 22:17:55.278000+00:00,train
633,-1.071571946144104,-1.0,2021-01-21 22:18:25.278000+00:00,train
634,-1.057605266571045,-1.0,2021-01-21 22:18:55.278000+00:00,train
635,-1.04391348361969,-1.0,2021-01-21 22:19:25.278000+00:00,train
636,-1.0304864645004272,-1.0,2021-01-21 22:19:55.278000+00:00,train
637,-1.017323613166809,-1.0,2021-01-21 22:20:25.278000+00:00,train
638,-1.0044273138046265,-1.0,2021-01-21 22:20:55.278000+00:00,train
639,-0.9918005466461182,-1.0,2021-01-21 22:21:25.278000+00:00,train
640,-0.9794516563415527,-1.0,2021-01-21 22:21:55.278000+00:00,train
641,-0.9673789143562317,-1.0,2021-01-21 22:22:25.278000+00:00,train
642,-0.9555881023406982,-1.0,2021-01-21 22:22:55.278000+00:00,train
643,-0.944085955619812,-1.0,2021-01-21 22:23:25.278000+00:00,train
644,-0.9328787326812744,-1.0,2021-01-21 22:23:55.278000+00:00,train
645,-0.9219738841056824,-1.0,2021-01-21 22:24:25.278000+00:00,train
646,-0.9113833904266357,-1.0,2021-01-21 22:24:55.278000+00:00,train
647,-0.9011092782020569,-1.0,2021-01-21 22:25:25.278000+00:00,train
648,-0.8911620378494263,-1.0,2021-01-21 22:25:55.278000+00:00,train
649,-0.8815524578094482,-1.0,2021-01-21 22:26:25.278000+00:00,train
650,-0.8722917437553406,-1.0,2021-01-21 22:26:55.278000+00:00,train
651,-0.8633931279182434,-1.0,2021-01-21 22:27:25.278000+00:00,train
652,-0.8548740148544312,-1.0,2021-01-21 22:27:55.278000+00:00,train
653,-0.846744179725647,-1.0,2021-01-21 22:28:25.278000+00:00,train
654,-0.8390213251113892,-1.0,2021-01-21 22:28:55.278000+00:00,train
655,-0.8317251205444336,-1.0,2021-01-21 22:29:25.278000+00:00,train
656,-0.8248772621154785,-1.0,2021-01-21 22:29:55.278000+00:00,train
657,-0.8184849619865417,-1.0,2021-01-21 22:30:25.278000+00:00,train
658,-0.8126011490821838,-1.0,2021-01-21 22:30:55.278000+00:00,train
659,-0.8072526454925537,-1.0,2021-01-21 22:31:25.278000+00:00,train
660,-0.8024721145629883,-1.0,2021-01-21 22:31:55.278000+00:00,train
661,-0.7982998490333557,-1.0,2021-01-21 22:32:25.278000+00:00,train
662,-0.7947824001312256,-1.0,2021-01-21 22:32:55.278000+00:00,train
663,-0.7919789552688599,-1.0,2021-01-21 22:33:25.278000+00:00,train
664,-0.7899518609046936,-1.0,2021-01-21 22:33:55.278000+00:00,train
665,-0.7887823581695557,-1.0,2021-01-21 22:34:25.278000+00:00,train
666,-0.7885705828666687,-1.0,2021-01-21 22:34:55.278000+00:00,train
667,-0.7894405126571655,-1.0,2021-01-21 22:35:25.278000+00:00,train
668,-0.7915515899658203,-1.0,2021-01-21 22:35:55.278000+00:00,train
669,-0.7951154708862305,-1.0,2021-01-21 22:36:25.278000+00:00,train
670,-0.7944570779800415,-1.0,2021-01-21 22:36:55.278000+00:00,train
671,-0.7998058795928955,-1.0,2021-01-21 22:37:25.278000+00:00,train
672,-0.8073078393936157,-1.0,2021-01-21 22:37:55.278000+00:00,train
673,-0.817592978477478,-1.0,2021-01-21 22:38:25.278000+00:00,train
674,-0.8317215442657471,-1.0,2021-01-21 22:38:55.278000+00:00,train
675,-0.8517580032348633,-1.0,2021-01-21 22:39:25.278000+00:00,train
676,-0.8831040859222412,-1.0,2021-01-21 22:39:55.278000+00:00,train
677,-0.8828580975532532,-1.0,2021-01-21 22:40:25.278000+00:00,train
678,-0.8826130032539368,-1.0,2021-01-21 22:40:55.278000+00:00,train
679,-1.0,-1.0,2021-01-21 22:41:25.278000+00:00,train
680,-1.0,-1.0,2021-01-21 22:41:55.278000+00:00,train
681,-1.0,-1.0,2021-01-21 22:42:25.278000+00:00,train
682,-1.0,-1.0,2021-01-21 22:42:55.278000+00:00,train
683,-1.0,-1.0,2021-01-21 22:43:25.278000+00:00,train
684,-1.0,-1.0,2021-01-21 22:43:55.278000+00:00,train
685,-1.0,-1.0,2021-01-21 22:44:25.278000+00:00,train
686,-1.0,-1.0,2021-01-21 22:44:55.278000+00:00,train
687,-1.0,-1.0,2021-01-21 22:45:25.278000+00:00,train
688,-1.0,-1.0,2021-01-21 22:45:55.278000+00:00,train
689,-1.0,-1.0,2021-01-21 22:46:25.278000+00:00,train
690,-1.0,-1.0,2021-01-21 22:46:55.278000+00:00,train
691,-1.0,-1.0,2021-01-21 22:47:25.278000+00:00,train
692,-1.0,-1.0,2021-01-21 22:47:55.278000+00:00,train
693,-1.0,-1.0,2021-01-21 22:48:25.278000+00:00,train
694,-1.0,-1.0,2021-01-21 22:48:55.278000+00:00,train
695,-1.0,-1.0,2021-01-21 22:49:25.278000+00:00,train
696,-1.0,-1.0,2021-01-21 22:49:55.278000+00:00,train
697,-1.0,-1.0,2021-01-21 22:50:25.278000+00:00,train
698,-1.0,-1.0,2021-01-21 22:50:55.278000+00:00,train
699,-1.0,-1.0,2021-01-21 22:51:25.278000+00:00,train
700,-1.0,-1.0,2021-01-21 22:51:55.278000+00:00,train
701,-1.0,-1.0,2021-01-21 22:52:25.278000+00:00,train
702,-1.0,-1.0,2021-01-21 22:52:55.278000+00:00,train
703,-1.0,-1.0,2021-01-21 22:53:25.278000+00:00,train
704,-1.0,-1.0,2021-01-21 22:53:55.278000+00:00,train
705,-1.0,-1.0,2021-01-21 22:54:25.278000+00:00,train
706,-1.0,-1.0,2021-01-21 22:54:55.278000+00:00,train
707,-1.0,-1.0,2021-01-21 22:55:25.278000+00:00,train
708,-1.0,-1.0,2021-01-21 22:55:55.278000+00:00,train
709,-1.0,-1.0,2021-01-21 22:56:25.278000+00:00,train
710,-1.0,-1.0,2021-01-21 22:56:55.278000+00:00,train
711,-1.0,-1.0,2021-01-21 22:57:25.278000+00:00,train
712,-1.0,-1.0,2021-01-21 22:57:55.278000+00:00,train
713,-1.0,-1.0,2021-01-21 22:58:25.278000+00:00,train
714,-1.0,-1.0,2021-01-21 22:58:55.278000+00:00,train
715,-1.0,-1.0,2021-01-21 22:59:25.278000+00:00,train
716,-1.0,-1.0,2021-01-21 22:59:55.278000+00:00,train
717,-1.0,-1.0,2021-01-21 23:00:25.278000+00:00,train
718,-1.0,0.0,2021-01-21 23:00:55.278000+00:00,train
719,-0.8733856678009033,-1.0,2021-01-21 23:01:25.278000+00:00,train
720,-0.873209536075592,-1.0,2021-01-21 23:01:55.278000+00:00,train
721,-0.873090386390686,-1.0,2021-01-21 23:02:25.278000+00:00,train
722,-0.8729406595230103,-1.0,2021-01-21 23:02:55.278000+00:00,train
723,-0.8727717995643616,-1.0,2021-01-21 23:03:25.278000+00:00,train
724,-0.8725923299789429,-1.0,2021-01-21 23:03:55.278000+00:00,train
725,-0.8724076151847839,-1.0,2021-01-21 23:04:25.278000+00:00,train
726,-0.8722366690635681,-1.0,2021-01-21 23:04:55.278000+00:00,train
727,-0.8720574975013733,-1.0,2021-01-21 23:05:25.278000+00:00,train
728,-0.8718739151954651,-1.0,2021-01-21 23:05:55.278000+00:00,train
729,-0.87168949842453,-1.0,2021-01-21 23:06:25.278000+00:00,train
730,-0.871504545211792,-1.0,2021-01-21 23:06:55.278000+00:00,train
731,-0.8713197708129883,-1.0,2021-01-21 23:07:25.278000+00:00,train
732,-0.8711357116699219,-1.0,2021-01-21 23:07:55.278000+00:00,train
733,-0.8709524869918823,-1.0,2021-01-21 23:08:25.278000+00:00,train
734,-0.8707700967788696,-1.0,2021-01-21 23:08:55.278000+00:00,train
735,-0.8705891966819763,-1.0,2021-01-21 23:09:25.278000+00:00,train
736,-0.8704091310501099,-1.0,2021-01-21 23:09:55.278000+00:00,train
737,-0.8702296614646912,-1.0,2021-01-21 23:10:25.278000+00:00,train
738,-0.8700510859489441,-1.0,2021-01-21 23:10:55.278000+00:00,train
739,-0.8698734641075134,-1.0,2021-01-21 23:11:25.278000+00:00,train
740,-0.8696967959403992,-1.0,2021-01-21 23:11:55.278000+00:00,train
741,-0.8695216178894043,-1.0,2021-01-21 23:12:25.278000+00:00,train
742,-0.8693471550941467,-1.0,2021-01-21 23:12:55.278000+00:00,train
743,-0.8691734671592712,-1.0,2021-01-21 23:13:25.278000+00:00,train
744,-0.8690006732940674,-1.0,2021-01-21 23:13:55.278000+00:00,train
745,-0.8688287138938904,-1.0,2021-01-21 23:14:25.278000+00:00,train
746,-0.8686582446098328,-1.0,2021-01-21 23:14:55.278000+00:00,train
747,-0.8684884905815125,-1.0,2021-01-21 23:15:25.278000+00:00,train
748,-0.8683195114135742,-1.0,2021-01-21 23:15:55.278000+00:00,train
749,-0.8681513667106628,-1.0,2021-01-21 23:16:25.278000+00:00,train
750,-0.8679841756820679,-1.0,2021-01-21 23:16:55.278000+00:00,train
751,-0.867817759513855,-1.0,2021-01-21 23:17:25.278000+00:00,train
752,-0.8676495552062988,-1.0,2021-01-21 23:17:55.278000+00:00,train
753,-0.8674834966659546,-1.0,2021-01-21 23:18:25.278000+00:00,train
754,-0.8673192262649536,-1.0,2021-01-21 23:18:55.278000+00:00,train
755,-0.8671562075614929,-1.0,2021-01-21 23:19:25.278000+00:00,train
756,-0.866994321346283,-1.0,2021-01-21 23:19:55.278000+00:00,train
757,-0.8668332695960999,-1.0,2021-01-21 23:20:25.278000+00:00,train
758,-0.8666738271713257,-1.0,2021-01-21 23:20:55.278000+00:00,train
759,-0.866515040397644,-1.0,2021-01-21 23:21:25.278000+00:00,train
760,-0.8663568496704102,-1.0,2021-01-21 23:21:55.278000+00:00,train
761,-0.8661994934082031,-1.0,2021-01-21 23:22:25.278000+00:00,train
762,-0.866042971611023,-1.0,2021-01-21 23:22:55.278000+00:00,train
763,-0.8658878803253174,-1.0,2021-01-21 23:23:25.278000+00:00,train
764,-0.8657333850860596,-1.0,2021-01-21 23:23:55.278000+00:00,train
765,-0.8655795454978943,-1.0,2021-01-21 23:24:25.278000+00:00,train
766,-0.8654265999794006,-1.0,2021-01-21 23:24:55.278000+00:00,train
767,-0.8652743697166443,-1.0,2021-01-21 23:25:25.278000+00:00,train
768,-0.8651229739189148,-1.0,2021-01-21 23:25:55.278000+00:00,train
769,-0.8649730086326599,-1.0,2021-01-21 23:26:25.278000+00:00,train
770,-0.8648236393928528,-1.0,2021-01-21 23:26:55.278000+00:00,train
771,-0.8646748661994934,-1.0,2021-01-21 23:27:25.278000+00:00,train
772,-0.8645270466804504,-1.0,2021-01-21 23:27:55.278000+00:00,train
773,-0.8643800616264343,-1.0,2021-01-21 23:28:25.278000+00:00,train
774,-0.8642308712005615,-1.0,2021-01-21 23:28:55.278000+00:00,train
775,-0.8640844821929932,-1.0,2021-01-21 23:29:25.278000+00:00,train
776,-0.8639395833015442,-1.0,2021-01-21 23:29:55.278000+00:00,train
777,-0.8637959361076355,-1.0,2021-01-21 23:30:25.278000+00:00,train
778,-0.8636531233787537,-1.0,2021-01-21 23:30:55.278000+00:00,train
779,-0.8635112643241882,-1.0,2021-01-21 23:31:25.278000+00:00,train
780,-0.8633702993392944,-1.0,2021-01-21 23:31:55.278000+00:00,train
781,-0.8632307052612305,-1.0,2021-01-21 23:32:25.278000+00:00,train
782,-0.8630917072296143,-1.0,2021-01-21 23:32:55.278000+00:00,train
783,-0.8629533648490906,-1.0,2021-01-21 23:33:25.278000+00:00,train
784,-0.862815797328949,-1.0,2021-01-21 23:33:55.278000+00:00,train
785,-0.8626790046691895,-1.0,2021-01-21 23:34:25.278000+00:00,train
786,-0.8625435829162598,-1.0,2021-01-21 23:34:55.278000+00:00,train
787,-0.8624086976051331,-1.0,2021-01-21 23:35:25.278000+00:00,train
788,-0.8622744679450989,-1.0,2021-01-21 23:35:55.278000+00:00,train
789,-0.862140953540802,-1.0,2021-01-21 23:36:25.278000+00:00,train
790,-0.8620083332061768,-1.0,2021-01-21 23:36:55.278000+00:00,train
791,-0.8618764281272888,-1.0,2021-01-21 23:37:25.278000+00:00,train
792,-0.8617457747459412,-1.0,2021-01-21 23:37:55.278000+00:00,train
793,-0.8616157174110413,-1.0,2021-01-21 23:38:25.278000+00:00,train
794,-0.8614861965179443,-1.0,2021-01-21 23:38:55.278000+00:00,train
795,-0.8613574504852295,-1.0,2021-01-21 23:39:25.278000+00:00,train
796,-0.861229419708252,-1.0,2021-01-21 23:39:55.278000+00:00,train
797,-0.8611020445823669,-1.0,2021-01-21 23:40:25.278000+00:00,train
798,-0.8609758615493774,-1.0,2021-01-21 23:40:55.278000+00:00,train
799,-1.0,-1.0,2021-01-21 23:41:25.278000+00:00,train
800,-1.0,-1.0,2021-01-21 23:41:55.278000+00:00,train
801,-1.0,-1.0,2021-01-21 23:42:25.278000+00:00,train
802,-1.0,-1.0,2021-01-21 23:42:55.278000+00:00,train
803,-1.0,-1.0,2021-01-21 23:43:25.278000+00:00,train
804,-1.0,-1.0,2021-01-21 23:43:55.278000+00:00,train
805,-1.0,-1.0,2021-01-21 23:44:25.278000+00:00,train
806,-1.0,-1.0,2021-01-21 23:44:55.278000+00:00,train
807,-1.0,-1.0,2021-01-21 23:45:25.278000+00:00,train
808,-1.0,-1.0,2021-01-21 23:45:55.278000+00:00,train
809,-1.0,-1.0,2021-01-21 23:46:25.278000+00:00,train
810,-1.0,-1.0,2021-01-21 23:46:55.278000+00:00,train
811,-1.0,-1.0,2021-01-21 23:47:25.278000+00:00,train
812,-1.0,-1.0,2021-01-21 23:47:55.278000+00:00,train
813,-1.0,-1.0,2021-01-21 23:48:25.278000+00:00,train
814,-1.0,-1.0,2021-01-21 23:48:55.278000+00:00,train
815,-1.0,-1.0,2021-01-21 23:49:25.278000+00:00,train
816,-1.0,-1.0,2021-01-21 23:49:55.278000+00:00,train
817,-1.0,-1.0,2021-01-21 23:50:25.278000+00:00,train
818,-1.0,-1.0,2021-01-21 23:50:55.278000+00:00,train
819,-1.0,-1.0,2021-01-21 23:51:25.278000+00:00,train
820,-1.0,-1.0,2021-01-21 23:51:55.278000+00:00,train
821,-1.0,-1.0,2021-01-21 23:52:25.278000+00:00,train
822,-1.0,-1.0,2021-01-21 23:52:55.278000+00:00,train
823,-1.0,-1.0,2021-01-21 23:53:25.278000+00:00,train
824,-1.0,-1.0,2021-01-21 23:53:55.278000+00:00,train
825,-1.0,-1.0,2021-01-21 23:54:25.278000+00:00,train
826,-1.0,-1.0,2021-01-21 23:54:55.278000+00:00,train
827,-1.0,-1.0,2021-01-21 23:55:25.278000+00:00,train
828,-1.0,-1.0,2021-01-21 23:55:55.278000+00:00,train
829,-1.0,-1.0,2021-01-21 23:56:25.278000+00:00,train
830,-1.0,-1.0,2021-01-21 23:56:55.278000+00:00,train
831,-1.0,-1.0,2021-01-21 23:57:25.278000+00:00,train
832,-1.0,-1.0,2021-01-21 23:57:55.278000+00:00,train
833,-1.0,-1.0,2021-01-21 23:58:25.278000+00:00,train
834,-1.0,-1.0,2021-01-21 23:58:55.278000+00:00,train
835,-1.0,-1.0,2021-01-21 23:59:25.278000+00:00,train
836,-1.0,-1.0,2021-01-21 23:59:55.278000+00:00,train
837,-1.0,-1.0,2021-01-22 00:00:25.278000+00:00,train
838,-1.0,-1.0,2021-01-22 00:00:55.278000+00:00,train
839,-1.0,-1.0,2021-01-22 00:01:25.278000+00:00,train
840,-1.0,-1.0,2021-01-22 00:01:55.278000+00:00,train
841,-1.0,-1.0,2021-01-22 00:02:25.278000+00:00,train
842,-1.0,-1.0,2021-01-22 00:02:55.278000+00:00,train
843,-1.0,-1.0,2021-01-22 00:03:25.278000+00:00,train
844,-1.0,-1.0,2021-01-22 00:03:55.278000+00:00,train
845,-1.0,-1.0,2021-01-22 00:04:25.278000+00:00,train
846,-1.0,-1.0,2021-01-22 00:04:55.278000+00:00,train
847,-1.0,-1.0,2021-01-22 00:05:25.278000+00:00,train
848,-1.0,-1.0,2021-01-22 00:05:55.278000+00:00,train
849,-1.0,-1.0,2021-01-22 00:06:25.278000+00:00,train
850,-1.0,-1.0,2021-01-22 00:06:55.278000+00:00,train
851,-1.0,-1.0,2021-01-22 00:07:25.278000+00:00,train
852,-1.0,-1.0,2021-01-22 00:07:55.278000+00:00,train
853,-1.0,-1.0,2021-01-22 00:08:25.278000+00:00,train
854,-1.0,-1.0,2021-01-22 00:08:55.278000+00:00,train
855,-1.0,-1.0,2021-01-22 00:09:25.278000+00:00,train
856,-1.0,-1.0,2021-01-22 00:09:55.278000+00:00,train
857,-1.0,-1.0,2021-01-22 00:10:25.278000+00:00,train
858,-1.0,-1.0,2021-01-22 00:10:55.278000+00:00,train
859,-1.0,-1.0,2021-01-22 00:11:25.278000+00:00,train
860,-1.0,-1.0,2021-01-22 00:11:55.278000+00:00,train
861,-1.0,-1.0,2021-01-22 00:12:25.278000+00:00,train
862,-1.0,-1.0,2021-01-22 00:12:55.278000+00:00,train
863,-1.0,-1.0,2021-01-22 00:13:25.278000+00:00,train
864,-1.0,-1.0,2021-01-22 00:13:55.278000+00:00,train
865,-1.0,-1.0,2021-01-22 00:14:25.278000+00:00,train
866,-1.0,-1.0,2021-01-22 00:14:55.278000+00:00,train
867,-1.0,-1.0,2021-01-22 00:15:25.278000+00:00,train
868,-1.0,-1.0,2021-01-22 00:15:55.278000+00:00,train
869,-1.0,-1.0,2021-01-22 00:16:25.278000+00:00,train
870,-1.0,-1.0,2021-01-22 00:16:55.278000+00:00,train
871,-1.0,-1.0,2021-01-22 00:17:25.278000+00:00,train
872,-1.0,-1.0,2021-01-22 00:17:55.278000+00:00,train
873,-1.0,-1.0,2021-01-22 00:18:25.278000+00:00,train
874,-1.0,-1.0,2021-01-22 00:18:55.278000+00:00,train
875,-1.0,-1.0,2021-01-22 00:19:25.278000+00:00,train
876,-1.0,-1.0,2021-01-22 00:19:55.278000+00:00,train
877,-1.0,-1.0,2021-01-22 00:20:25.278000+00:00,train
878,-1.0,-1.0,2021-01-22 00:20:55.278000+00:00,train
879,-1.0,-1.0,2021-01-22 00:21:25.278000+00:00,train
880,-1.0,-1.0,2021-01-22 00:21:55.278000+00:00,train
881,-1.0,-1.0,2021-01-22 00:22:25.278000+00:00,train
882,-1.0,-1.0,2021-01-22 00:22:55.278000+00:00,train
883,-1.0,-1.0,2021-01-22 00:23:25.278000+00:00,train
884,-1.0,-1.0,2021-01-22 00:23:55.278000+00:00,train
885,-1.0,-1.0,2021-01-22 00:24:25.278000+00:00,train
886,-1.0,-1.0,2021-01-22 00:24:55.278000+00:00,train
887,-1.0,-1.0,2021-01-22 00:25:25.278000+00:00,train
888,-1.0,-1.0,2021-01-22 00:25:55.278000+00:00,train
889,-1.0,-1.0,2021-01-22 00:26:25.278000+00:00,train
890,-1.0,-1.0,2021-01-22 00:26:55.278000+00:00,train
891,-1.0,-1.0,2021-01-22 00:27:25.278000+00:00,train
892,-1.0,-1.0,2021-01-22 00:27:55.278000+00:00,train
893,-1.0,-1.0,2021-01-22 00:28:25.278000+00:00,train
894,-1.0,-1.0,2021-01-22 00:28:55.278000+00:00,train
895,-1.0,-1.0,2021-01-22 00:29:25.278000+00:00,train
896,-1.0,-1.0,2021-01-22 00:29:55.278000+00:00,train
897,-1.0,-1.0,2021-01-22 00:30:25.278000+00:00,train
898,-1.0,-1.0,2021-01-22 00:30:55.278000+00:00,train
899,-1.0,-1.0,2021-01-22 00:31:25.278000+00:00,train
900,-1.0,-1.0,2021-01-22 00:31:55.278000+00:00,train
901,-1.0,-1.0,2021-01-22 00:32:25.278000+00:00,train
902,-1.0,-1.0,2021-01-22 00:32:55.278000+00:00,train
903,-1.0,-1.0,2021-01-22 00:33:25.278000+00:00,train
904,-1.0,-1.0,2021-01-22 00:33:55.278000+00:00,train
905,-1.0,-1.0,2021-01-22 00:34:25.278000+00:00,train
906,-1.0,-1.0,2021-01-22 00:34:55.278000+00:00,train
907,-1.0,-1.0,2021-01-22 00:35:25.278000+00:00,train
908,-1.0,-1.0,2021-01-22 00:35:55.278000+00:00,train
909,-1.0,-1.0,2021-01-22 00:36:25.278000+00:00,train
910,-1.0,-1.0,2021-01-22 00:36:55.278000+00:00,train
911,-1.0,-1.0,2021-01-22 00:37:25.278000+00:00,train
912,-1.0,-1.0,2021-01-22 00:37:55.278000+00:00,train
913,-1.0,-1.0,2021-01-22 00:38:25.278000+00:00,train
914,-1.0,-1.0,2021-01-22 00:38:55.278000+00:00,train
915,-1.0,-1.0,2021-01-22 00:39:25.278000+00:00,train
916,-1.0,-1.0,2021-01-22 00:39:55.278000+00:00,train
917,-1.0,-1.0,2021-01-22 00:40:25.278000+00:00,train
918,-1.0,-1.0,2021-01-22 00:40:55.278000+00:00,train
919,-1.0,-1.0,2021-01-22 00:41:25.278000+00:00,train
920,-1.0,-1.0,2021-01-22 00:41:55.278000+00:00,train
921,-1.0,-1.0,2021-01-22 00:42:25.278000+00:00,train
922,-1.0,-1.0,2021-01-22 00:42:55.278000+00:00,train
923,-1.0,-1.0,2021-01-22 00:43:25.278000+00:00,train
924,-1.0,-1.0,2021-01-22 00:43:55.278000+00:00,train
925,-1.0,-1.0,2021-01-22 00:44:25.278000+00:00,train
926,-1.0,-1.0,2021-01-22 00:44:55.278000+00:00,train
927,-1.0,-1.0,2021-01-22 00:45:25.278000+00:00,train
928,-1.0,-1.0,2021-01-22 00:45:55.278000+00:00,train
929,-1.0,-1.0,2021-01-22 00:46:25.278000+00:00,train
930,-1.0,-1.0,2021-01-22 00:46:55.278000+00:00,train
931,-1.0,-1.0,2021-01-22 00:47:25.278000+00:00,train
932,-1.0,-1.0,2021-01-22 00:47:55.278000+00:00,train
933,-1.0,-1.0,2021-01-22 00:48:25.278000+00:00,train
934,-1.0,-1.0,2021-01-22 00:48:55.278000+00:00,train
935,-1.0,-1.0,2021-01-22 00:49:25.278000+00:00,train
936,-1.0,-1.0,2021-01-22 00:49:55.278000+00:00,train
937,-1.0,-1.0,2021-01-22 00:50:25.278000+00:00,train
938,-1.0,-1.0,2021-01-22 00:50:55.278000+00:00,train
939,-1.0,-1.0,2021-01-22 00:51:25.278000+00:00,train
940,-1.0,-1.0,2021-01-22 00:51:55.278000+00:00,train
941,-1.0,-1.0,2021-01-22 00:52:25.278000+00:00,train
942,-1.0,-1.0,2021-01-22 00:52:55.278000+00:00,train
943,-1.0,-1.0,2021-01-22 00:53:25.278000+00:00,train
944,-1.0,-1.0,2021-01-22 00:53:55.278000+00:00,train
945,-1.0,-1.0,2021-01-22 00:54:25.278000+00:00,train
946,-1.0,-1.0,2021-01-22 00:54:55.278000+00:00,train
947,-1.0,-1.0,2021-01-22 00:55:25.278000+00:00,train
948,-1.0,-1.0,2021-01-22 00:55:55.278000+00:00,train
949,-1.0,-1.0,2021-01-22 00:56:25.278000+00:00,train
950,-1.0,-1.0,2021-01-22 00:56:55.278000+00:00,train
951,-1.0,-1.0,2021-01-22 00:57:25.278000+00:00,train
952,-1.0,-1.0,2021-01-22 00:57:55.278000+00:00,train
953,-1.0,-1.0,2021-01-22 00:58:25.278000+00:00,train
954,-1.0,-1.0,2021-01-22 00:58:55.278000+00:00,train
955,-1.0,-1.0,2021-01-22 00:59:25.278000+00:00,train
956,-1.0,-1.0,2021-01-22 00:59:55.278000+00:00,train
957,-1.0,-1.0,2021-01-22 01:00:25.278000+00:00,train
958,-1.0,-1.0,2021-01-22 01:00:55.278000+00:00,train
959,-1.0,-1.0,2021-01-22 01:01:25.278000+00:00,train
960,-1.0,-1.0,2021-01-22 01:01:55.278000+00:00,train
961,-1.0,-1.0,2021-01-22 01:02:25.278000+00:00,train
962,-1.0,-1.0,2021-01-22 01:02:55.278000+00:00,train
963,-1.0,-1.0,2021-01-22 01:03:25.278000+00:00,train
964,-1.0,-1.0,2021-01-22 01:03:55.278000+00:00,train
965,-1.0,-1.0,2021-01-22 01:04:25.278000+00:00,train
966,-1.0,-1.0,2021-01-22 01:04:55.278000+00:00,train
967,-1.0,-1.0,2021-01-22 01:05:25.278000+00:00,train
968,-1.0,-1.0,2021-01-22 01:05:55.278000+00:00,train
969,-1.0,-1.0,2021-01-22 01:06:25.278000+00:00,train
970,-1.0,-1.0,2021-01-22 01:06:55.278000+00:00,train
971,-1.0,-1.0,2021-01-22 01:07:25.278000+00:00,train
972,-1.0,-1.0,2021-01-22 01:07:55.278000+00:00,train
973,-1.0,-1.0,2021-01-22 01:08:25.278000+00:00,train
974,-1.0,-1.0,2021-01-22 01:08:55.278000+00:00,train
975,-1.0,-1.0,2021-01-22 01:09:25.278000+00:00,train
976,-1.0,-1.0,2021-01-22 01:09:55.278000+00:00,train
977,-1.0,-1.0,2021-01-22 01:10:25.278000+00:00,train
978,-1.0,-1.0,2021-01-22 01:10:55.278000+00:00,train
979,-1.0,-1.0,2021-01-22 01:11:25.278000+00:00,train
980,-1.0,-1.0,2021-01-22 01:11:55.278000+00:00,train
981,-1.0,-1.0,2021-01-22 01:12:25.278000+00:00,train
982,-1.0,-1.0,2021-01-22 01:12:55.278000+00:00,train
983,-1.0,-1.0,2021-01-22 01:13:25.278000+00:00,train
984,-1.0,-1.0,2021-01-22 01:13:55.278000+00:00,train
985,-1.0,-1.0,2021-01-22 01:14:25.278000+00:00,train
986,-1.0,-1.0,2021-01-22 01:14:55.278000+00:00,train
987,-1.0,-1.0,2021-01-22 01:15:25.278000+00:00,train
988,-1.0,-1.0,2021-01-22 01:15:55.278000+00:00,train
989,-1.0,-1.0,2021-01-22 01:16:25.278000+00:00,train
990,-1.0,-1.0,2021-01-22 01:16:55.278000+00:00,train
991,-1.0,-1.0,2021-01-22 01:17:25.278000+00:00,train
992,-1.0,-1.0,2021-01-22 01:17:55.278000+00:00,train
993,-1.0,-1.0,2021-01-22 01:18:25.278000+00:00,train
994,-1.0,-1.0,2021-01-22 01:18:55.278000+00:00,train
995,-1.0,-1.0,2021-01-22 01:19:25.278000+00:00,train
996,-1.0,-1.0,2021-01-22 01:19:55.278000+00:00,train
997,-1.0,-1.0,2021-01-22 01:20:25.278000+00:00,train
998,-1.0,-1.0,2021-01-22 01:20:55.278000+00:00,train
999,-1.0,-1.0,2021-01-22 01:21:25.278000+00:00,train
1000,-1.0,-1.0,2021-01-22 01:21:55.278000+00:00,train
1001,-1.0,-1.0,2021-01-22 01:22:25.278000+00:00,train
1002,-1.0,-1.0,2021-01-22 01:22:55.278000+00:00,train
1003,-1.0,-1.0,2021-01-22 01:23:25.278000+00:00,train
1004,-1.0,-1.0,2021-01-22 01:23:55.278000+00:00,train
1005,-1.0,-1.0,2021-01-22 01:24:25.278000+00:00,train
1006,-1.0,-1.0,2021-01-22 01:24:55.278000+00:00,train
1007,-1.0,-1.0,2021-01-22 01:25:25.278000+00:00,train
1008,-1.0,-1.0,2021-01-22 01:25:55.278000+00:00,train
1009,-1.0,-1.0,2021-01-22 01:26:25.278000+00:00,train
1010,-1.0,-1.0,2021-01-22 01:26:55.278000+00:00,train
1011,-1.0,-1.0,2021-01-22 01:27:25.278000+00:00,train
1012,-1.0,-1.0,2021-01-22 01:27:55.278000+00:00,train
1013,-1.0,-1.0,2021-01-22 01:28:25.278000+00:00,train
1014,-1.0,-1.0,2021-01-22 01:28:55.278000+00:00,train
1015,-1.0,-1.0,2021-01-22 01:29:25.278000+00:00,train
1016,-1.0,-1.0,2021-01-22 01:29:55.278000+00:00,train
1017,-1.0,-1.0,2021-01-22 01:30:25.278000+00:00,train
1018,-1.0,-1.0,2021-01-22 01:30:55.278000+00:00,train
1019,-1.0,-1.0,2021-01-22 01:31:25.278000+00:00,train
1020,-1.0,-1.0,2021-01-22 01:31:55.278000+00:00,train
1021,-1.0,-1.0,2021-01-22 01:32:25.278000+00:00,train
1022,-1.0,0.0,2021-01-22 01:32:55.278000+00:00,train
1023,-0.8453860282897949,0.0,2021-01-22 01:33:25.278000+00:00,train
1024,-0.7747860550880432,0.0,2021-01-22 01:33:55.278000+00:00,train
1025,-0.7185267806053162,0.0,2021-01-22 01:34:25.278000+00:00,train
1026,-0.6698967218399048,0.0,2021-01-22 01:34:55.278000+00:00,train
1027,-0.6262522339820862,0.0,2021-01-22 01:35:25.278000+00:00,train
1028,-0.5862194299697876,0.0,2021-01-22 01:35:55.278000+00:00,train
1029,-0.5489750504493713,0.0,2021-01-22 01:36:25.278000+00:00,train
1030,-0.5139807462692261,0.0,2021-01-22 01:36:55.278000+00:00,train
1031,-0.4808613657951355,0.0,2021-01-22 01:37:25.278000+00:00,train
1032,-0.44934335350990295,-1.0,2021-01-22 01:37:55.278000+00:00,train
1033,-0.45088261365890503,0.0,2021-01-22 01:38:25.278000+00:00,train
1034,-0.4201658070087433,0.0,2021-01-22 01:38:55.278000+00:00,train
1035,-0.3908158242702484,0.0,2021-01-22 01:39:25.278000+00:00,train
1036,-0.3627810776233673,0.0,2021-01-22 01:39:55.278000+00:00,train
1037,-0.33586084842681885,0.0,2021-01-22 01:40:25.278000+00:00,train
1038,-0.3099192976951599,0.0,2021-01-22 01:40:55.278000+00:00,train
1039,-0.2848571240901947,0.0,2021-01-22 01:41:25.278000+00:00,train
1040,-0.2605990767478943,0.0,2021-01-22 01:41:55.278000+00:00,train
1041,-0.23708614706993103,0.0,2021-01-22 01:42:25.278000+00:00,train
1042,-0.21426983177661896,0.0,2021-01-22 01:42:55.278000+00:00,train
1043,-0.19210995733737946,0.0,2021-01-22 01:43:25.278000+00:00,train
1044,-0.170571967959404,0.0,2021-01-22 01:43:55.278000+00:00,train
1045,-0.14962612092494965,0.0,2021-01-22 01:44:25.278000+00:00,train
1046,-0.12924596667289734,0.0,2021-01-22 01:44:55.278000+00:00,train
1047,-0.10940975695848465,0.0,2021-01-22 01:45:25.278000+00:00,train
1048,-0.09009706974029541,0.0,2021-01-22 01:45:55.278000+00:00,train
1049,-0.07129041850566864,0.0,2021-01-22 01:46:25.278000+00:00,train
1050,-0.052974164485931396,0.0,2021-01-22 01:46:55.278000+00:00,train
1051,-0.03513414412736893,0.0,2021-01-22 01:47:25.278000+00:00,train
1052,-0.017758764326572418,0.0,2021-01-22 01:47:55.278000+00:00,train
1053,-0.0008375570178031921,0.0,2021-01-22 01:48:25.278000+00:00,train
1054,0.015639303252100945,0.0,2021-01-22 01:48:55.278000+00:00,train
1055,0.03168025240302086,0.0,2021-01-22 01:49:25.278000+00:00,train
1056,0.04729193076491356,0.0,2021-01-22 01:49:55.278000+00:00,train
1057,0.062481340020895004,0.0,2021-01-22 01:50:25.278000+00:00,train
1058,0.07725264877080917,0.0,2021-01-22 01:50:55.278000+00:00,train
1059,-0.04439089074730873,0.0,2021-01-22 01:51:25.278000+00:00,train
1060,-0.07284090667963028,0.0,2021-01-22 01:51:55.278000+00:00,train
1061,-0.08971422910690308,0.0,2021-01-22 01:52:25.278000+00:00,train
1062,-0.09528051316738129,0.0,2021-01-22 01:52:55.278000+00:00,train
1063,-0.09393396973609924,0.0,2021-01-22 01:53:25.278000+00:00,train
1064,-0.08517544716596603,0.0,2021-01-22 01:53:55.278000+00:00,train
1065,-0.07311329990625381,0.0,2021-01-22 01:54:25.278000+00:00,train
1066,-0.10145647823810577,0.0,2021-01-22 01:54:55.278000+00:00,train
1067,-0.08977685868740082,0.0,2021-01-22 01:55:25.278000+00:00,train
1068,-0.0783250480890274,0.0,2021-01-22 01:55:55.278000+00:00,train
1069,-0.06710490584373474,0.0,2021-01-22 01:56:25.278000+00:00,train
1070,-0.05611894652247429,0.0,2021-01-22 01:56:55.278000+00:00,train
1071,-0.04537034034729004,0.0,2021-01-22 01:57:25.278000+00:00,train
1072,-0.03486240282654762,0.0,2021-01-22 01:57:55.278000+00:00,train
1073,-0.0245983824133873,0.0,2021-01-22 01:58:25.278000+00:00,train
1074,-0.014584274031221867,0.0,2021-01-22 01:58:55.278000+00:00,train
1075,-0.0048248558305203915,0.0,2021-01-22 01:59:25.278000+00:00,train
1076,0.004673883318901062,0.0,2021-01-22 01:59:55.278000+00:00,train
1077,0.013905256055295467,0.0,2021-01-22 02:00:25.278000+00:00,train
1078,0.022861436009407043,0.0,2021-01-22 02:00:55.278000+00:00,train
1079,0.031534552574157715,0.0,2021-01-22 02:01:25.278000+00:00,train
1080,0.039913881570100784,0.0,2021-01-22 02:01:55.278000+00:00,train
1081,0.04798821732401848,0.0,2021-01-22 02:02:25.278000+00:00,train
1082,0.05574534833431244,0.0,2021-01-22 02:02:55.278000+00:00,train
1083,0.06317099928855896,0.0,2021-01-22 02:03:25.278000+00:00,train
1084,0.07024963200092316,0.0,2021-01-22 02:03:55.278000+00:00,train
1085,0.0769616961479187,0.0,2021-01-22 02:04:25.278000+00:00,train
1086,0.08328608423471451,0.0,2021-01-22 02:04:55.278000+00:00,train
1087,0.08919825404882431,0.0,2021-01-22 02:05:25.278000+00:00,train
1088,0.09466950595378876,0.0,2021-01-22 02:05:55.278000+00:00,train
1089,0.09966722875833511,0.0,2021-01-22 02:06:25.278000+00:00,train
1090,0.10416335612535477,0.0,2021-01-22 02:06:55.278000+00:00,train
1091,0.10808946937322617,0.0,2021-01-22 02:07:25.278000+00:00,train
1092,0.11139211058616638,0.0,2021-01-22 02:07:55.278000+00:00,train
1093,0.11400255560874939,0.0,2021-01-22 02:08:25.278000+00:00,train
1094,0.11583124846220016,0.0,2021-01-22 02:08:55.278000+00:00,train
1095,0.11676352471113205,0.0,2021-01-22 02:09:25.278000+00:00,train
1096,0.11664775758981705,0.0,2021-01-22 02:09:55.278000+00:00,train
1097,0.11527600139379501,0.0,2021-01-22 02:10:25.278000+00:00,train
1098,0.11235024034976959,0.0,2021-01-22 02:10:55.278000+00:00,train
1099,0.10741472244262695,0.0,2021-01-22 02:11:25.278000+00:00,train
1100,0.09970547258853912,0.0,2021-01-22 02:11:55.278000+00:00,train
1101,0.08774133771657944,0.0,2021-01-22 02:12:25.278000+00:00,train
1102,0.0677206739783287,0.0,2021-01-22 02:12:55.278000+00:00,train
1103,0.06773010641336441,0.0,2021-01-22 02:13:25.278000+00:00,train
1104,0.06773962825536728,0.0,2021-01-22 02:13:55.278000+00:00,train
1105,0.06774894893169403,0.0,2021-01-22 02:14:25.278000+00:00,train
1106,0.06775819510221481,0.0,2021-01-22 02:14:55.278000+00:00,train
1107,0.06776726990938187,0.0,2021-01-22 02:15:25.278000+00:00,train
1108,0.06777633726596832,0.0,2021-01-22 02:15:55.278000+00:00,train
1109,0.06778531521558762,0.0,2021-01-22 02:16:25.278000+00:00,train
1110,0.06779440492391586,0.0,2021-01-22 02:16:55.278000+00:00,train
1111,0.06780342012643814,0.0,2021-01-22 02:17:25.278000+00:00,train
1112,0.06781282275915146,0.0,2021-01-22 02:17:55.278000+00:00,train
1113,0.0,0.0,2021-01-22 02:18:25.278000+00:00,train
1114,0.0,0.0,2021-01-22 02:18:55.278000+00:00,train
1115,0.0,0.0,2021-01-22 02:19:25.278000+00:00,train
1116,0.0,0.0,2021-01-22 02:19:55.278000+00:00,train
1117,0.0,0.0,2021-01-22 02:20:25.278000+00:00,train
1118,0.0,0.0,2021-01-22 02:20:55.278000+00:00,train
1119,0.0,0.0,2021-01-22 02:21:25.278000+00:00,train
1120,0.0,0.0,2021-01-22 02:21:55.278000+00:00,train
1121,0.0,0.0,2021-01-22 02:22:25.278000+00:00,train
1122,0.0,0.0,2021-01-22 02:22:55.278000+00:00,train
1123,0.0,0.0,2021-01-22 02:23:25.278000+00:00,train
1124,0.0,0.0,2021-01-22 02:23:55.278000+00:00,train
1125,0.0,0.0,2021-01-22 02:24:25.278000+00:00,train
1126,0.0,0.0,2021-01-22 02:24:55.278000+00:00,train
1127,0.0,0.0,2021-01-22 02:25:25.278000+00:00,train
1128,0.0,0.0,2021-01-22 02:25:55.278000+00:00,val
1129,0.0,0.0,2021-01-22 02:26:25.278000+00:00,val
1130,0.0,0.0,2021-01-22 02:26:55.278000+00:00,val
1131,0.0,0.0,2021-01-22 02:27:25.278000+00:00,val
1132,0.0,0.0,2021-01-22 02:27:55.278000+00:00,val
1133,0.0,0.0,2021-01-22 02:28:25.278000+00:00,val
1134,0.0,0.0,2021-01-22 02:28:55.278000+00:00,val
1135,0.0,0.0,2021-01-22 02:29:25.278000+00:00,val
1136,0.0,0.0,2021-01-22 02:29:55.278000+00:00,val
1137,0.0,0.0,2021-01-22 02:30:25.278000+00:00,val
1138,0.0,0.0,2021-01-22 02:30:55.278000+00:00,val
1139,0.0,0.0,2021-01-22 02:31:25.278000+00:00,val
1140,0.0,0.0,2021-01-22 02:31:55.278000+00:00,val
1141,0.0,0.0,2021-01-22 02:32:25.278000+00:00,val
1142,0.0,0.0,2021-01-22 02:32:55.278000+00:00,val
1143,0.0,0.0,2021-01-22 02:33:25.278000+00:00,val
1144,0.0,0.0,2021-01-22 02:33:55.278000+00:00,val
1145,0.0,0.0,2021-01-22 02:34:25.278000+00:00,val
1146,0.0,0.0,2021-01-22 02:34:55.278000+00:00,val
1147,0.0,0.0,2021-01-22 02:35:25.278000+00:00,val
1148,0.0,0.0,2021-01-22 02:35:55.278000+00:00,val
1149,0.0,0.0,2021-01-22 02:36:25.278000+00:00,val
1150,0.0,0.0,2021-01-22 02:36:55.278000+00:00,val
1151,0.0,0.0,2021-01-22 02:37:25.278000+00:00,val
1152,0.0,0.0,2021-01-22 02:37:55.278000+00:00,val
1153,0.0,0.0,2021-01-22 02:38:25.278000+00:00,val
1154,0.0,0.0,2021-01-22 02:38:55.278000+00:00,val
1155,0.0,0.0,2021-01-22 02:39:25.278000+00:00,val
1156,0.0,0.0,2021-01-22 02:39:55.278000+00:00,val
1157,0.0,0.0,2021-01-22 02:40:25.278000+00:00,val
1158,0.0,0.0,2021-01-22 02:40:55.278000+00:00,val
1159,0.0,0.0,2021-01-22 02:41:25.278000+00:00,val
1160,0.0,0.0,2021-01-22 02:41:55.278000+00:00,val
1161,0.0,0.0,2021-01-22 02:42:25.278000+00:00,val
1162,0.0,0.0,2021-01-22 02:42:55.278000+00:00,val
1163,0.0,0.0,2021-01-22 02:43:25.278000+00:00,val
1164,0.0,0.0,2021-01-22 02:43:55.278000+00:00,val
1165,0.0,0.0,2021-01-22 02:44:25.278000+00:00,val
1166,0.0,0.0,2021-01-22 02:44:55.278000+00:00,val
1167,0.0,0.0,2021-01-22 02:45:25.278000+00:00,val
1168,0.0,0.0,2021-01-22 02:45:55.278000+00:00,val
1169,0.0,0.0,2021-01-22 02:46:25.278000+00:00,val
1170,0.0,0.0,2021-01-22 02:46:55.278000+00:00,val
1171,0.0,0.0,2021-01-22 02:47:25.278000+00:00,val
1172,0.0,0.0,2021-01-22 02:47:55.278000+00:00,val
1173,0.0,0.0,2021-01-22 02:48:25.278000+00:00,val
1174,0.0,0.0,2021-01-22 02:48:55.278000+00:00,val
1175,0.0,0.0,2021-01-22 02:49:25.278000+00:00,val
1176,0.0,0.0,2021-01-22 02:49:55.278000+00:00,val
1177,0.0,0.0,2021-01-22 02:50:25.278000+00:00,val
1178,0.0,0.0,2021-01-22 02:50:55.278000+00:00,val
1179,0.0,0.0,2021-01-22 02:51:25.278000+00:00,val
1180,0.0,0.0,2021-01-22 02:51:55.278000+00:00,val
1181,0.0,0.0,2021-01-22 02:52:25.278000+00:00,val
1182,0.0,0.0,2021-01-22 02:52:55.278000+00:00,val
1183,0.0,0.0,2021-01-22 02:53:25.278000+00:00,val
1184,0.0,0.0,2021-01-22 02:53:55.278000+00:00,val
1185,0.0,0.0,2021-01-22 02:54:25.278000+00:00,val
1186,0.0,0.0,2021-01-22 02:54:55.278000+00:00,val
1187,0.0,0.0,2021-01-22 02:55:25.278000+00:00,val
1188,0.0,0.0,2021-01-22 02:55:55.278000+00:00,val
1189,0.0,0.0,2021-01-22 02:56:25.278000+00:00,val
1190,0.0,0.0,2021-01-22 02:56:55.278000+00:00,val
1191,0.0,0.0,2021-01-22 02:57:25.278000+00:00,val
1192,0.0,0.0,2021-01-22 02:57:55.278000+00:00,val
1193,0.0,0.0,2021-01-22 02:58:25.278000+00:00,val
1194,0.0,0.0,2021-01-22 02:58:55.278000+00:00,val
1195,0.0,0.0,2021-01-22 02:59:25.278000+00:00,val
1196,0.0,0.0,2021-01-22 02:59:55.278000+00:00,val
1197,0.0,0.0,2021-01-22 03:00:25.278000+00:00,val
1198,0.0,0.0,2021-01-22 03:00:55.278000+00:00,val
1199,0.0,0.0,2021-01-22 03:01:25.278000+00:00,val
1200,0.0,0.0,2021-01-22 03:01:55.278000+00:00,val
1201,0.0,0.0,2021-01-22 03:02:25.278000+00:00,val
1202,0.0,0.0,2021-01-22 03:02:55.278000+00:00,val
1203,0.0,0.0,2021-01-22 03:03:25.278000+00:00,val
1204,0.0,0.0,2021-01-22 03:03:55.278000+00:00,val
1205,0.0,0.0,2021-01-22 03:04:25.278000+00:00,val
1206,0.0,0.0,2021-01-22 03:04:55.278000+00:00,val
1207,0.0,0.0,2021-01-22 03:05:25.278000+00:00,val
1208,0.0,0.0,2021-01-22 03:05:55.278000+00:00,val
1209,0.0,0.0,2021-01-22 03:06:25.278000+00:00,val
1210,0.0,0.0,2021-01-22 03:06:55.278000+00:00,val
1211,0.0,0.0,2021-01-22 03:07:25.278000+00:00,val
1212,0.0,0.0,2021-01-22 03:07:55.278000+00:00,val
1213,0.0,0.0,2021-01-22 03:08:25.278000+00:00,val
1214,0.0,0.0,2021-01-22 03:08:55.278000+00:00,val
1215,0.0,0.0,2021-01-22 03:09:25.278000+00:00,val
1216,0.0,0.0,2021-01-22 03:09:55.278000+00:00,val
1217,0.0,0.0,2021-01-22 03:10:25.278000+00:00,val
1218,0.0,0.0,2021-01-22 03:10:55.278000+00:00,val
1219,0.0,0.0,2021-01-22 03:11:25.278000+00:00,val
1220,0.0,0.0,2021-01-22 03:11:55.278000+00:00,val
1221,0.0,0.0,2021-01-22 03:12:25.278000+00:00,val
1222,0.0,0.0,2021-01-22 03:12:55.278000+00:00,val
1223,0.0,0.0,2021-01-22 03:13:25.278000+00:00,val
1224,0.0,0.0,2021-01-22 03:13:55.278000+00:00,val
1225,0.0,0.0,2021-01-22 03:14:25.278000+00:00,val
1226,0.0,0.0,2021-01-22 03:14:55.278000+00:00,val
1227,0.0,0.0,2021-01-22 03:15:25.278000+00:00,val
1228,0.0,0.0,2021-01-22 03:15:55.278000+00:00,val
1229,0.0,0.0,2021-01-22 03:16:25.278000+00:00,val
1230,0.0,0.0,2021-01-22 03:16:55.278000+00:00,val
1231,0.0,0.0,2021-01-22 03:17:25.278000+00:00,val
1232,0.0,0.0,2021-01-22 03:17:55.278000+00:00,val
1233,0.0,0.0,2021-01-22 03:18:25.278000+00:00,val
1234,0.0,0.0,2021-01-22 03:18:55.278000+00:00,val
1235,0.0,0.0,2021-01-22 03:19:25.278000+00:00,val
1236,0.0,0.0,2021-01-22 03:19:55.278000+00:00,val
1237,0.0,0.0,2021-01-22 03:20:25.278000+00:00,val
1238,0.0,0.0,2021-01-22 03:20:55.278000+00:00,val
1239,0.0,0.0,2021-01-22 03:21:25.278000+00:00,val
1240,0.0,0.0,2021-01-22 03:21:55.278000+00:00,val
1241,0.0,0.0,2021-01-22 03:22:25.278000+00:00,val
1242,0.0,0.0,2021-01-22 03:22:55.278000+00:00,val
1243,0.0,0.0,2021-01-22 03:23:25.278000+00:00,val
1244,0.0,0.0,2021-01-22 03:23:55.278000+00:00,val
1245,0.0,0.0,2021-01-22 03:24:25.278000+00:00,val
1246,0.0,0.0,2021-01-22 03:24:55.278000+00:00,val
1247,0.0,0.0,2021-01-22 03:25:25.278000+00:00,val
1248,0.0,0.0,2021-01-22 03:25:55.278000+00:00,val
1249,0.0,0.0,2021-01-22 03:26:25.278000+00:00,val
1250,0.0,0.0,2021-01-22 03:26:55.278000+00:00,val
1251,0.0,0.0,2021-01-22 03:27:25.278000+00:00,val
1252,0.0,0.0,2021-01-22 03:27:55.278000+00:00,val
1253,0.0,0.0,2021-01-22 03:28:25.278000+00:00,val
1254,0.0,0.0,2021-01-22 03:28:55.278000+00:00,val
1255,0.0,0.0,2021-01-22 03:29:25.278000+00:00,val
1256,0.0,0.0,2021-01-22 03:29:55.278000+00:00,val
1257,0.0,0.0,2021-01-22 03:30:25.278000+00:00,val
1258,0.0,0.0,2021-01-22 03:30:55.278000+00:00,val
1259,0.0,0.0,2021-01-22 03:31:25.278000+00:00,val
1260,0.0,0.0,2021-01-22 03:31:55.278000+00:00,val
1261,0.0,0.0,2021-01-22 03:32:25.278000+00:00,val
1262,0.0,0.0,2021-01-22 03:32:55.278000+00:00,val
1263,0.0,0.0,2021-01-22 03:33:25.278000+00:00,val
1264,0.0,0.0,2021-01-22 03:33:55.278000+00:00,val
1265,0.0,0.0,2021-01-22 03:34:25.278000+00:00,val
1266,0.0,0.0,2021-01-22 03:34:55.278000+00:00,val
1267,0.0,0.0,2021-01-22 03:35:25.278000+00:00,val
1268,0.0,0.0,2021-01-22 03:35:55.278000+00:00,val
1269,0.0,0.0,2021-01-22 03:36:25.278000+00:00,val
1270,0.0,0.0,2021-01-22 03:36:55.278000+00:00,val
1271,0.0,0.0,2021-01-22 03:37:25.278000+00:00,val
1272,0.0,0.0,2021-01-22 03:37:55.278000+00:00,val
1273,0.0,0.0,2021-01-22 03:38:25.278000+00:00,val
1274,0.0,0.0,2021-01-22 03:38:55.278000+00:00,val
1275,0.0,0.0,2021-01-22 03:39:25.278000+00:00,val
1276,0.0,0.0,2021-01-22 03:39:55.278000+00:00,val
1277,0.0,0.0,2021-01-22 03:40:25.278000+00:00,val
1278,0.0,0.0,2021-01-22 03:40:55.278000+00:00,val
1279,0.0,0.0,2021-01-22 03:41:25.278000+00:00,val
1280,0.0,0.0,2021-01-22 03:41:55.278000+00:00,val
1281,0.0,0.0,2021-01-22 03:42:25.278000+00:00,val
1282,0.0,0.0,2021-01-22 03:42:55.278000+00:00,val
1283,0.0,0.0,2021-01-22 03:43:25.278000+00:00,val
1284,0.0,0.0,2021-01-22 03:43:55.278000+00:00,val
1285,0.0,0.0,2021-01-22 03:44:25.278000+00:00,val
1286,0.0,0.0,2021-01-22 03:44:55.278000+00:00,val
1287,0.0,0.0,2021-01-22 03:45:25.278000+00:00,val
1288,0.0,0.0,2021-01-22 03:45:55.278000+00:00,val
1289,0.0,0.0,2021-01-22 03:46:25.278000+00:00,val
1290,0.0,0.0,2021-01-22 03:46:55.278000+00:00,val
1291,0.0,0.0,2021-01-22 03:47:25.278000+00:00,val
1292,0.0,0.0,2021-01-22 03:47:55.278000+00:00,val
1293,0.0,0.0,2021-01-22 03:48:25.278000+00:00,val
1294,0.0,0.0,2021-01-22 03:48:55.278000+00:00,val
1295,0.0,0.0,2021-01-22 03:49:25.278000+00:00,val
1296,0.0,0.0,2021-01-22 03:49:55.278000+00:00,val
1297,0.0,0.0,2021-01-22 03:50:25.278000+00:00,val
1298,0.0,0.0,2021-01-22 03:50:55.278000+00:00,val
1299,0.0,0.0,2021-01-22 03:51:25.278000+00:00,val
1300,0.0,0.0,2021-01-22 03:51:55.278000+00:00,val
1301,0.0,0.0,2021-01-22 03:52:25.278000+00:00,val
1302,0.0,0.0,2021-01-22 03:52:55.278000+00:00,val
1303,0.0,0.0,2021-01-22 03:53:25.278000+00:00,val
1304,0.0,0.0,2021-01-22 03:53:55.278000+00:00,val
1305,0.0,0.0,2021-01-22 03:54:25.278000+00:00,val
1306,0.0,0.0,2021-01-22 03:54:55.278000+00:00,val
1307,0.0,0.0,2021-01-22 03:55:25.278000+00:00,val
1308,0.0,0.0,2021-01-22 03:55:55.278000+00:00,val
1309,0.0,0.0,2021-01-22 03:56:25.278000+00:00,val
1310,0.0,0.0,2021-01-22 03:56:55.278000+00:00,val
1311,0.0,0.0,2021-01-22 03:57:25.278000+00:00,val
1312,0.0,0.0,2021-01-22 03:57:55.278000+00:00,val
1313,0.0,0.0,2021-01-22 03:58:25.278000+00:00,val
1314,0.0,0.0,2021-01-22 03:58:55.278000+00:00,val
1315,0.0,0.0,2021-01-22 03:59:25.278000+00:00,val
1316,0.0,0.0,2021-01-22 03:59:55.278000+00:00,val
1317,0.0,0.0,2021-01-22 04:00:25.278000+00:00,val
1318,0.0,0.0,2021-01-22 04:00:55.278000+00:00,val
1319,0.0,0.0,2021-01-22 04:01:25.278000+00:00,val
1320,0.0,0.0,2021-01-22 04:01:55.278000+00:00,val
1321,0.0,0.0,2021-01-22 04:02:25.278000+00:00,val
1322,0.0,0.0,2021-01-22 04:02:55.278000+00:00,val
1323,0.0,0.0,2021-01-22 04:03:25.278000+00:00,val
1324,0.0,0.0,2021-01-22 04:03:55.278000+00:00,val
1325,0.0,0.0,2021-01-22 04:04:25.278000+00:00,val
1326,0.0,0.0,2021-01-22 04:04:55.278000+00:00,val
1327,0.0,0.0,2021-01-22 04:05:25.278000+00:00,val
1328,0.0,0.0,2021-01-22 04:05:55.278000+00:00,val
1329,0.0,0.0,2021-01-22 04:06:25.278000+00:00,val
1330,0.0,0.0,2021-01-22 04:06:55.278000+00:00,val
1331,0.0,0.0,2021-01-22 04:07:25.278000+00:00,val
1332,0.0,0.0,2021-01-22 04:07:55.278000+00:00,val
1333,0.0,0.0,2021-01-22 04:08:25.278000+00:00,val
1334,0.0,0.0,2021-01-22 04:08:55.278000+00:00,val
1335,0.0,0.0,2021-01-22 04:09:25.278000+00:00,val
1336,0.0,0.0,2021-01-22 04:09:55.278000+00:00,val
1337,0.0,0.0,2021-01-22 04:10:25.278000+00:00,val
1338,0.0,0.0,2021-01-22 04:10:55.278000+00:00,val
1339,0.0,0.0,2021-01-22 04:11:25.278000+00:00,val
1340,0.0,0.0,2021-01-22 04:11:55.278000+00:00,val
1341,0.0,0.0,2021-01-22 04:12:25.278000+00:00,val
1342,0.0,0.0,2021-01-22 04:12:55.278000+00:00,val
1343,0.0,0.0,2021-01-22 04:13:25.278000+00:00,val
1344,0.0,0.0,2021-01-22 04:13:55.278000+00:00,val
1345,0.0,0.0,2021-01-22 04:14:25.278000+00:00,val
1346,0.0,0.0,2021-01-22 04:14:55.278000+00:00,val
1347,0.0,0.0,2021-01-22 04:15:25.278000+00:00,val
1348,0.0,0.0,2021-01-22 04:15:55.278000+00:00,val
1349,0.0,0.0,2021-01-22 04:16:25.278000+00:00,val
1350,0.0,0.0,2021-01-22 04:16:55.278000+00:00,val
1351,0.0,0.0,2021-01-22 04:17:25.278000+00:00,val
1352,0.0,0.0,2021-01-22 04:17:55.278000+00:00,val
1353,0.0,0.0,2021-01-22 04:18:25.278000+00:00,val
1354,0.0,0.0,2021-01-22 04:18:55.278000+00:00,val
1355,0.0,0.0,2021-01-22 04:19:25.278000+00:00,val
1356,0.0,0.0,2021-01-22 04:19:55.278000+00:00,val
1357,0.0,0.0,2021-01-22 04:20:25.278000+00:00,val
1358,0.0,0.0,2021-01-22 04:20:55.278000+00:00,val
1359,0.0,0.0,2021-01-22 04:21:25.278000+00:00,val
1360,0.0,0.0,2021-01-22 04:21:55.278000+00:00,val
1361,0.0,0.0,2021-01-22 04:22:25.278000+00:00,val
1362,0.0,0.0,2021-01-22 04:22:55.278000+00:00,val
1363,0.0,0.0,2021-01-22 04:23:25.278000+00:00,val
1364,0.0,0.0,2021-01-22 04:23:55.278000+00:00,val
1365,0.0,0.0,2021-01-22 04:24:25.278000+00:00,val
1366,0.0,0.0,2021-01-22 04:24:55.278000+00:00,val
1367,0.0,0.0,2021-01-22 04:25:25.278000+00:00,val
1368,0.0,0.0,2021-01-22 04:25:55.278000+00:00,val
1369,0.0,0.0,2021-01-22 04:26:25.278000+00:00,val
1370,0.0,0.0,2021-01-22 04:26:55.278000+00:00,val
1371,0.0,0.0,2021-01-22 04:27:25.278000+00:00,val
1372,0.0,0.0,2021-01-22 04:27:55.278000+00:00,val
1373,0.0,0.0,2021-01-22 04:28:25.278000+00:00,val
1374,0.0,0.0,2021-01-22 04:28:55.278000+00:00,val
1375,0.0,0.0,2021-01-22 04:29:25.278000+00:00,val
1376,0.0,0.0,2021-01-22 04:29:55.278000+00:00,val
1377,0.0,0.0,2021-01-22 04:30:25.278000+00:00,val
1378,0.0,0.0,2021-01-22 04:30:55.278000+00:00,val
1379,0.0,0.0,2021-01-22 04:31:25.278000+00:00,val
1380,0.0,0.0,2021-01-22 04:31:55.278000+00:00,val
1381,0.0,0.0,2021-01-22 04:32:25.278000+00:00,val
1382,0.0,0.0,2021-01-22 04:32:55.278000+00:00,val
1383,0.0,0.0,2021-01-22 04:33:25.278000+00:00,val
1384,0.0,0.0,2021-01-22 04:33:55.278000+00:00,val
1385,0.0,0.0,2021-01-22 04:34:25.278000+00:00,val
1386,0.0,0.0,2021-01-22 04:34:55.278000+00:00,val
1387,0.0,0.0,2021-01-22 04:35:25.278000+00:00,val
1388,0.0,0.0,2021-01-22 04:35:55.278000+00:00,val
1389,0.0,0.0,2021-01-22 04:36:25.278000+00:00,val
1390,0.0,0.0,2021-01-22 04:36:55.278000+00:00,val
1391,0.0,0.0,2021-01-22 04:37:25.278000+00:00,val
1392,0.0,0.0,2021-01-22 04:37:55.278000+00:00,val
1393,0.0,0.0,2021-01-22 04:38:25.278000+00:00,val
1394,0.0,0.0,2021-01-22 04:38:55.278000+00:00,val
1395,0.0,0.0,2021-01-22 04:39:25.278000+00:00,val
1396,0.0,0.0,2021-01-22 04:39:55.278000+00:00,val
1397,0.0,0.0,2021-01-22 04:40:25.278000+00:00,val
1398,0.0,0.0,2021-01-22 04:40:55.278000+00:00,val
1399,0.0,0.0,2021-01-22 04:41:25.278000+00:00,val
1400,0.0,0.0,2021-01-22 04:41:55.278000+00:00,val
1401,0.0,0.0,2021-01-22 04:42:25.278000+00:00,val
1402,0.0,0.0,2021-01-22 04:42:55.278000+00:00,val
1403,0.0,0.0,2021-01-22 04:43:25.278000+00:00,val
1404,0.0,0.0,2021-01-22 04:43:55.278000+00:00,val
1405,0.0,0.0,2021-01-22 04:44:25.278000+00:00,val
1406,0.0,0.0,2021-01-22 04:44:55.278000+00:00,val
1407,0.0,0.0,2021-01-22 04:45:25.278000+00:00,val
1408,0.0,0.0,2021-01-22 04:45:55.278000+00:00,val
1409,0.0,0.0,2021-01-22 04:46:25.278000+00:00,val
1410,0.0,0.0,2021-01-22 04:46:55.278000+00:00,val
1411,0.0,0.0,2021-01-22 04:47:25.278000+00:00,val
1412,0.0,0.0,2021-01-22 04:47:55.278000+00:00,val
1413,0.0,0.0,2021-01-22 04:48:25.278000+00:00,val
1414,0.0,0.0,2021-01-22 04:48:55.278000+00:00,val
1415,0.0,0.0,2021-01-22 04:49:25.278000+00:00,val
1416,0.0,0.0,2021-01-22 04:49:55.278000+00:00,val
1417,0.0,0.0,2021-01-22 04:50:25.278000+00:00,val
1418,0.0,0.0,2021-01-22 04:50:55.278000+00:00,val
1419,0.0,0.0,2021-01-22 04:51:25.278000+00:00,val
1420,0.0,0.0,2021-01-22 04:51:55.278000+00:00,val
1421,0.0,0.0,2021-01-22 04:52:25.278000+00:00,val
1422,0.0,0.0,2021-01-22 04:52:55.278000+00:00,val
1423,0.0,0.0,2021-01-22 04:53:25.278000+00:00,val
1424,0.0,0.0,2021-01-22 04:53:55.278000+00:00,val
1425,0.0,0.0,2021-01-22 04:54:25.278000+00:00,val
1426,0.0,0.0,2021-01-22 04:54:55.278000+00:00,val
1427,0.0,0.0,2021-01-22 04:55:25.278000+00:00,val
1428,0.0,0.0,2021-01-22 04:55:55.278000+00:00,val
1429,0.0,0.0,2021-01-22 04:56:25.278000+00:00,val
1430,0.0,0.0,2021-01-22 04:56:55.278000+00:00,val
1431,0.0,0.0,2021-01-22 04:57:25.278000+00:00,val
1432,0.0,0.0,2021-01-22 04:57:55.278000+00:00,val
1433,0.0,0.0,2021-01-22 04:58:25.278000+00:00,val
1434,0.0,0.0,2021-01-22 04:58:55.278000+00:00,val
1435,0.0,0.0,2021-01-22 04:59:25.278000+00:00,val
1436,0.0,0.0,2021-01-22 04:59:55.278000+00:00,val
1437,0.0,0.0,2021-01-22 05:00:25.278000+00:00,val
1438,0.0,0.0,2021-01-22 05:00:55.278000+00:00,val
1439,0.0,0.0,2021-01-22 05:01:25.278000+00:00,val
1440,0.0,0.0,2021-01-22 05:01:55.278000+00:00,val
1441,0.0,0.0,2021-01-22 05:02:25.278000+00:00,val
1442,0.0,0.0,2021-01-22 05:02:55.278000+00:00,val
1443,0.0,0.0,2021-01-22 05:03:25.278000+00:00,val
1444,0.0,0.0,2021-01-22 05:03:55.278000+00:00,val
1445,0.0,0.0,2021-01-22 05:04:25.278000+00:00,val
1446,0.0,0.0,2021-01-22 05:04:55.278000+00:00,val
1447,0.0,0.0,2021-01-22 05:05:25.278000+00:00,val
1448,0.0,0.0,2021-01-22 05:05:55.278000+00:00,val
1449,0.0,0.0,2021-01-22 05:06:25.278000+00:00,val
1450,0.0,0.0,2021-01-22 05:06:55.278000+00:00,val
1451,0.0,0.0,2021-01-22 05:07:25.278000+00:00,val
1452,0.0,0.0,2021-01-22 05:07:55.278000+00:00,val
1453,0.0,0.0,2021-01-22 05:08:25.278000+00:00,val
1454,0.0,0.0,2021-01-22 05:08:55.278000+00:00,val
1455,0.0,0.0,2021-01-22 05:09:25.278000+00:00,val
1456,0.0,0.0,2021-01-22 05:09:55.278000+00:00,val
1457,0.0,0.0,2021-01-22 05:10:25.278000+00:00,val
1458,0.0,0.0,2021-01-22 05:10:55.278000+00:00,val
1459,0.0,0.0,2021-01-22 05:11:25.278000+00:00,val
1460,0.0,0.0,2021-01-22 05:11:55.278000+00:00,val
1461,0.0,0.0,2021-01-22 05:12:25.278000+00:00,val
1462,0.0,0.0,2021-01-22 05:12:55.278000+00:00,val
1463,0.0,0.0,2021-01-22 05:13:25.278000+00:00,val
1464,0.0,0.0,2021-01-22 05:13:55.278000+00:00,val
1465,0.0,0.0,2021-01-22 05:14:25.278000+00:00,val
1466,0.0,0.0,2021-01-22 05:14:55.278000+00:00,val
1467,0.0,0.0,2021-01-22 05:15:25.278000+00:00,val
1468,0.0,0.0,2021-01-22 05:15:55.278000+00:00,val
1469,0.0,0.0,2021-01-22 05:16:25.278000+00:00,val
1470,0.0,0.0,2021-01-22 05:16:55.278000+00:00,val
1471,0.0,0.0,2021-01-22 05:17:25.278000+00:00,val
1472,0.0,0.0,2021-01-22 05:17:55.278000+00:00,test
1473,0.0,0.0,2021-01-22 05:18:25.278000+00:00,test
1474,0.0,0.0,2021-01-22 05:18:55.278000+00:00,test
1475,0.0,0.0,2021-01-22 05:19:25.278000+00:00,test
1476,0.0,0.0,2021-01-22 05:19:55.278000+00:00,test
1477,0.0,0.0,2021-01-22 05:20:25.278000+00:00,test
1478,0.0,0.0,2021-01-22 05:20:55.278000+00:00,test
1479,0.0,0.0,2021-01-22 05:21:25.278000+00:00,test
1480,0.0,0.0,2021-01-22 05:21:55.278000+00:00,test
1481,0.0,0.0,2021-01-22 05:22:25.278000+00:00,test
1482,0.0,0.0,2021-01-22 05:22:55.278000+00:00,test
1483,0.0,0.0,2021-01-22 05:23:25.278000+00:00,test
1484,0.0,0.0,2021-01-22 05:23:55.278000+00:00,test
1485,0.0,0.0,2021-01-22 05:24:25.278000+00:00,test
1486,0.0,0.0,2021-01-22 05:24:55.278000+00:00,test
1487,0.0,0.0,2021-01-22 05:25:25.278000+00:00,test
1488,0.0,0.0,2021-01-22 05:25:55.278000+00:00,test
1489,0.0,0.0,2021-01-22 05:26:25.278000+00:00,test
1490,0.0,0.0,2021-01-22 05:26:55.278000+00:00,test
1491,0.0,0.0,2021-01-22 05:27:25.278000+00:00,test
1492,0.0,0.0,2021-01-22 05:27:55.278000+00:00,test
1493,0.0,0.0,2021-01-22 05:28:25.278000+00:00,test
1494,0.0,0.0,2021-01-22 05:28:55.278000+00:00,test
1495,0.0,0.0,2021-01-22 05:29:25.278000+00:00,test
1496,0.0,0.0,2021-01-22 05:29:55.278000+00:00,test
1497,0.0,0.0,2021-01-22 05:30:25.278000+00:00,test
1498,0.0,0.0,2021-01-22 05:30:55.278000+00:00,test
1499,0.0,0.0,2021-01-22 05:31:25.278000+00:00,test
1500,0.0,0.0,2021-01-22 05:31:55.278000+00:00,test
1501,0.0,0.0,2021-01-22 05:32:25.278000+00:00,test
1502,0.0,0.0,2021-01-22 05:32:55.278000+00:00,test
1503,0.0,0.0,2021-01-22 05:33:25.278000+00:00,test
1504,0.0,0.0,2021-01-22 05:33:55.278000+00:00,test
1505,0.0,0.0,2021-01-22 05:34:25.278000+00:00,test
1506,0.0,0.0,2021-01-22 05:34:55.278000+00:00,test
1507,0.0,0.0,2021-01-22 05:35:25.278000+00:00,test
1508,0.0,0.0,2021-01-22 05:35:55.278000+00:00,test
1509,0.0,0.0,2021-01-22 05:36:25.278000+00:00,test
1510,0.0,0.0,2021-01-22 05:36:55.278000+00:00,test
1511,0.0,0.0,2021-01-22 05:37:25.278000+00:00,test
1512,0.0,0.0,2021-01-22 05:37:55.278000+00:00,test
1513,0.0,0.0,2021-01-22 05:38:25.278000+00:00,test
1514,0.0,0.0,2021-01-22 05:38:55.278000+00:00,test
1515,0.0,0.0,2021-01-22 05:39:25.278000+00:00,test
1516,0.0,0.0,2021-01-22 05:39:55.278000+00:00,test
1517,0.0,0.0,2021-01-22 05:40:25.278000+00:00,test
1518,0.0,0.0,2021-01-22 05:40:55.278000+00:00,test
1519,0.0,0.0,2021-01-22 05:41:25.278000+00:00,test
1520,0.0,0.0,2021-01-22 05:41:55.278000+00:00,test
1521,0.0,0.0,2021-01-22 05:42:25.278000+00:00,test
1522,0.0,0.0,2021-01-22 05:42:55.278000+00:00,test
1523,0.0,0.0,2021-01-22 05:43:25.278000+00:00,test
1524,0.0,0.0,2021-01-22 05:43:55.278000+00:00,test
1525,0.0,0.0,2021-01-22 05:44:25.278000+00:00,test
1526,0.0,0.0,2021-01-22 05:44:55.278000+00:00,test
1527,0.0,0.0,2021-01-22 05:45:25.278000+00:00,test
1528,0.0,0.0,2021-01-22 05:45:55.278000+00:00,test
1529,0.0,0.0,2021-01-22 05:46:25.278000+00:00,test
1530,0.0,0.0,2021-01-22 05:46:55.278000+00:00,test
1531,0.0,0.0,2021-01-22 05:47:25.278000+00:00,test
1532,0.0,0.0,2021-01-22 05:47:55.278000+00:00,test
1533,0.0,0.0,2021-01-22 05:48:25.278000+00:00,test
1534,0.0,0.0,2021-01-22 05:48:55.278000+00:00,test
1535,0.0,0.0,2021-01-22 05:49:25.278000+00:00,test
1536,0.0,0.0,2021-01-22 05:49:55.278000+00:00,test
1537,0.0,0.0,2021-01-22 05:50:25.278000+00:00,test
1538,0.0,0.0,2021-01-22 05:50:55.278000+00:00,test
1539,0.0,0.0,2021-01-22 05:51:25.278000+00:00,test
1540,0.0,0.0,2021-01-22 05:51:55.278000+00:00,test
1541,0.0,0.0,2021-01-22 05:52:25.278000+00:00,test
1542,0.0,0.0,2021-01-22 05:52:55.278000+00:00,test
1543,0.0,0.0,2021-01-22 05:53:25.278000+00:00,test
1544,0.0,0.0,2021-01-22 05:53:55.278000+00:00,test
1545,0.0,0.0,2021-01-22 05:54:25.278000+00:00,test
1546,0.0,0.0,2021-01-22 05:54:55.278000+00:00,test
1547,0.0,0.0,2021-01-22 05:55:25.278000+00:00,test
1548,0.0,0.0,2021-01-22 05:55:55.278000+00:00,test
1549,0.0,0.0,2021-01-22 05:56:25.278000+00:00,test
1550,0.0,0.0,2021-01-22 05:56:55.278000+00:00,test
1551,0.0,0.0,2021-01-22 05:57:25.278000+00:00,test
1552,0.0,0.0,2021-01-22 05:57:55.278000+00:00,test
1553,0.0,0.0,2021-01-22 05:58:25.278000+00:00,test
1554,0.0,0.0,2021-01-22 05:58:55.278000+00:00,test
1555,0.0,0.0,2021-01-22 05:59:25.278000+00:00,test
1556,0.0,0.0,2021-01-22 05:59:55.278000+00:00,test
1557,0.0,0.0,2021-01-22 06:00:25.278000+00:00,test
1558,0.0,0.0,2021-01-22 06:00:55.278000+00:00,test
1559,0.0,0.0,2021-01-22 06:01:25.278000+00:00,test
1560,0.0,0.0,2021-01-22 06:01:55.278000+00:00,test
1561,0.0,0.0,2021-01-22 06:02:25.278000+00:00,test
1562,0.0,0.0,2021-01-22 06:02:55.278000+00:00,test
1563,0.0,0.0,2021-01-22 06:03:25.278000+00:00,test
1564,0.0,0.0,2021-01-22 06:03:55.278000+00:00,test
1565,0.0,0.0,2021-01-22 06:04:25.278000+00:00,test
1566,0.0,0.0,2021-01-22 06:04:55.278000+00:00,test
1567,0.0,0.0,2021-01-22 06:05:25.278000+00:00,test
1568,0.0,0.0,2021-01-22 06:05:55.278000+00:00,test
1569,0.0,0.0,2021-01-22 06:06:25.278000+00:00,test
1570,0.0,0.0,2021-01-22 06:06:55.278000+00:00,test
1571,0.0,0.0,2021-01-22 06:07:25.278000+00:00,test
1572,0.0,0.0,2021-01-22 06:07:55.278000+00:00,test
1573,0.0,0.0,2021-01-22 06:08:25.278000+00:00,test
1574,0.0,0.0,2021-01-22 06:08:55.278000+00:00,test
1575,0.0,0.0,2021-01-22 06:09:25.278000+00:00,test
1576,0.0,0.0,2021-01-22 06:09:55.278000+00:00,test
1577,0.0,0.0,2021-01-22 06:10:25.278000+00:00,test
1578,0.0,0.0,2021-01-22 06:10:55.278000+00:00,test
1579,0.0,0.0,2021-01-22 06:11:25.278000+00:00,test
1580,0.0,0.0,2021-01-22 06:11:55.278000+00:00,test
1581,0.0,0.0,2021-01-22 06:12:25.278000+00:00,test
1582,0.0,0.0,2021-01-22 06:12:55.278000+00:00,test
1583,0.0,0.0,2021-01-22 06:13:25.278000+00:00,test
1584,0.0,0.0,2021-01-22 06:13:55.278000+00:00,test
1585,0.0,0.0,2021-01-22 06:14:25.278000+00:00,test
1586,0.0,0.0,2021-01-22 06:14:55.278000+00:00,test
1587,0.0,0.0,2021-01-22 06:15:25.278000+00:00,test
1588,0.0,0.0,2021-01-22 06:15:55.278000+00:00,test
1589,0.0,0.0,2021-01-22 06:16:25.278000+00:00,test
1590,0.0,0.0,2021-01-22 06:16:55.278000+00:00,test
1591,0.0,0.0,2021-01-22 06:17:25.278000+00:00,test
1592,0.0,0.0,2021-01-22 06:17:55.278000+00:00,test
1593,0.0,0.0,2021-01-22 06:18:25.278000+00:00,test
1594,0.0,0.0,2021-01-22 06:18:55.278000+00:00,test
1595,0.0,0.0,2021-01-22 06:19:25.278000+00:00,test
1596,0.0,0.0,2021-01-22 06:19:55.278000+00:00,test
1597,0.0,0.0,2021-01-22 06:20:25.278000+00:00,test
1598,0.0,0.0,2021-01-22 06:20:55.278000+00:00,test
1599,0.0,0.0,2021-01-22 06:21:25.278000+00:00,test
1600,0.0,0.0,2021-01-22 06:21:55.278000+00:00,test
1601,0.0,0.0,2021-01-22 06:22:25.278000+00:00,test
1602,0.0,0.0,2021-01-22 06:22:55.278000+00:00,test
1603,0.0,0.0,2021-01-22 06:23:25.278000+00:00,test
1604,0.0,0.0,2021-01-22 06:23:55.278000+00:00,test
1605,0.0,0.0,2021-01-22 06:24:25.278000+00:00,test
1606,0.0,0.0,2021-01-22 06:24:55.278000+00:00,test
1607,0.0,0.0,2021-01-22 06:25:25.278000+00:00,test
1608,0.0,0.0,2021-01-22 06:25:55.278000+00:00,test
1609,0.0,0.0,2021-01-22 06:26:25.278000+00:00,test
1610,0.0,0.0,2021-01-22 06:26:55.278000+00:00,test
1611,0.0,0.0,2021-01-22 06:27:25.278000+00:00,test
1612,0.0,0.0,2021-01-22 06:27:55.278000+00:00,test
1613,0.0,0.0,2021-01-22 06:28:25.278000+00:00,test
1614,0.0,0.0,2021-01-22 06:28:55.278000+00:00,test
1615,0.0,0.0,2021-01-22 06:29:25.278000+00:00,test
1616,0.0,0.0,2021-01-22 06:29:55.278000+00:00,test
1617,0.0,0.0,2021-01-22 06:30:25.278000+00:00,test
1618,0.0,0.0,2021-01-22 06:30:55.278000+00:00,test
1619,0.0,0.0,2021-01-22 06:31:25.278000+00:00,test
1620,0.0,0.0,2021-01-22 06:31:55.278000+00:00,test
1621,0.0,0.0,2021-01-22 06:32:25.278000+00:00,test
1622,0.0,0.0,2021-01-22 06:32:55.278000+00:00,test
1623,0.0,0.0,2021-01-22 06:33:25.278000+00:00,test
1624,0.0,0.0,2021-01-22 06:33:55.278000+00:00,test
1625,0.0,0.0,2021-01-22 06:34:25.278000+00:00,test
