,prediction,real,time,split
0,-8.193169593811035,-8.0,2021-01-21 17:15:25.278000+00:00,train
1,-8.141512870788574,-8.0,2021-01-21 17:15:55.278000+00:00,train
2,-8.093728065490723,-8.0,2021-01-21 17:16:25.278000+00:00,train
3,-8.049893379211426,-8.0,2021-01-21 17:16:55.278000+00:00,train
4,-8.010151863098145,-8.0,2021-01-21 17:17:25.278000+00:00,train
5,-7.9557929039001465,-8.0,2021-01-21 17:17:55.278000+00:00,train
6,-7.90425443649292,-8.0,2021-01-21 17:18:25.278000+00:00,train
7,-7.855592250823975,-8.0,2021-01-21 17:18:55.278000+00:00,train
8,-7.809835910797119,-8.0,2021-01-21 17:19:25.278000+00:00,train
9,-7.767021179199219,-8.0,2021-01-21 17:19:55.278000+00:00,train
10,-7.727231979370117,-8.0,2021-01-21 17:20:25.278000+00:00,train
11,-7.690532684326172,-8.0,2021-01-21 17:20:55.278000+00:00,train
12,-7.6571455001831055,-7.0,2021-01-21 17:21:25.278000+00:00,train
13,-7.626924991607666,-7.0,2021-01-21 17:21:55.278000+00:00,train
14,-7.600066661834717,-7.0,2021-01-21 17:22:25.278000+00:00,train
15,-7.576698303222656,-7.0,2021-01-21 17:22:55.278000+00:00,train
16,-7.557013511657715,-7.0,2021-01-21 17:23:25.278000+00:00,train
17,-7.541180610656738,-7.0,2021-01-21 17:23:55.278000+00:00,train
18,-7.508650779724121,-7.0,2021-01-21 17:24:25.278000+00:00,train
19,-7.478511333465576,-7.0,2021-01-21 17:24:55.278000+00:00,train
20,-7.418728828430176,-7.0,2021-01-21 17:25:25.278000+00:00,train
21,-7.3621625900268555,-7.0,2021-01-21 17:25:55.278000+00:00,train
22,-7.3088603019714355,-7.0,2021-01-21 17:26:25.278000+00:00,train
23,-7.258845329284668,-7.0,2021-01-21 17:26:55.278000+00:00,train
24,-7.212137222290039,-7.0,2021-01-21 17:27:25.278000+00:00,train
25,-7.168834209442139,-7.0,2021-01-21 17:27:55.278000+00:00,train
26,-7.129000186920166,-7.0,2021-01-21 17:28:25.278000+00:00,train
27,-7.092703819274902,-7.0,2021-01-21 17:28:55.278000+00:00,train
28,-7.060096740722656,-7.0,2021-01-21 17:29:25.278000+00:00,train
29,-7.0119123458862305,-7.0,2021-01-21 17:29:55.278000+00:00,train
30,-6.966088771820068,-7.0,2021-01-21 17:30:25.278000+00:00,train
31,-6.9226837158203125,-7.0,2021-01-21 17:30:55.278000+00:00,train
32,-6.881685256958008,-7.0,2021-01-21 17:31:25.278000+00:00,train
33,-6.843166828155518,-7.0,2021-01-21 17:31:55.278000+00:00,train
34,-6.807156085968018,-7.0,2021-01-21 17:32:25.278000+00:00,train
35,-6.773674011230469,-7.0,2021-01-21 17:32:55.278000+00:00,train
36,-6.742827892303467,-7.0,2021-01-21 17:33:25.278000+00:00,train
37,-6.714674949645996,-7.0,2021-01-21 17:33:55.278000+00:00,train
38,-6.68929386138916,-7.0,2021-01-21 17:34:25.278000+00:00,train
39,-6.666750431060791,-7.0,2021-01-21 17:34:55.278000+00:00,train
40,-6.647211074829102,-7.0,2021-01-21 17:35:25.278000+00:00,train
41,-6.630786418914795,-7.0,2021-01-21 17:35:55.278000+00:00,train
42,-6.617589473724365,-7.0,2021-01-21 17:36:25.278000+00:00,train
43,-6.607850551605225,-7.0,2021-01-21 17:36:55.278000+00:00,train
44,-6.580595016479492,-7.0,2021-01-21 17:37:25.278000+00:00,train
45,-6.5551958084106445,-6.0,2021-01-21 17:37:55.278000+00:00,train
46,-6.53176212310791,-6.0,2021-01-21 17:38:25.278000+00:00,train
47,-6.510313034057617,-6.0,2021-01-21 17:38:55.278000+00:00,train
48,-6.490848064422607,-6.0,2021-01-21 17:39:25.278000+00:00,train
49,-6.473499774932861,-6.0,2021-01-21 17:39:55.278000+00:00,train
50,-6.458305358886719,-6.0,2021-01-21 17:40:25.278000+00:00,train
51,-6.44528341293335,-6.0,2021-01-21 17:40:55.278000+00:00,train
52,-6.434601783752441,-6.0,2021-01-21 17:41:25.278000+00:00,train
53,-6.394353866577148,-6.0,2021-01-21 17:41:55.278000+00:00,train
54,-6.357152938842773,-6.0,2021-01-21 17:42:25.278000+00:00,train
55,-6.323122978210449,-6.0,2021-01-21 17:42:55.278000+00:00,train
56,-6.29231071472168,-6.0,2021-01-21 17:43:25.278000+00:00,train
57,-6.264125823974609,-6.0,2021-01-21 17:43:55.278000+00:00,train
58,-6.218909740447998,-6.0,2021-01-21 17:44:25.278000+00:00,train
59,-6.176007270812988,-6.0,2021-01-21 17:44:55.278000+00:00,train
60,-6.135202407836914,-6.0,2021-01-21 17:45:25.278000+00:00,train
61,-6.09641695022583,-6.0,2021-01-21 17:45:55.278000+00:00,train
62,-6.059596538543701,-6.0,2021-01-21 17:46:25.278000+00:00,train
63,-6.024808406829834,-6.0,2021-01-21 17:46:55.278000+00:00,train
64,-5.992048740386963,-6.0,2021-01-21 17:47:25.278000+00:00,train
65,-5.961302757263184,-6.0,2021-01-21 17:47:55.278000+00:00,train
66,-5.932667255401611,-6.0,2021-01-21 17:48:25.278000+00:00,train
67,-5.906164646148682,-6.0,2021-01-21 17:48:55.278000+00:00,train
68,-5.881807327270508,-6.0,2021-01-21 17:49:25.278000+00:00,train
69,-5.859716415405273,-6.0,2021-01-21 17:49:55.278000+00:00,train
70,-5.83994722366333,-6.0,2021-01-21 17:50:25.278000+00:00,train
71,-5.822542667388916,-6.0,2021-01-21 17:50:55.278000+00:00,train
72,-5.807661533355713,-6.0,2021-01-21 17:51:25.278000+00:00,train
73,-5.795400142669678,-6.0,2021-01-21 17:51:55.278000+00:00,train
74,-5.785853385925293,-6.0,2021-01-21 17:52:25.278000+00:00,train
75,-5.779238224029541,-6.0,2021-01-21 17:52:55.278000+00:00,train
76,-5.775724411010742,-6.0,2021-01-21 17:53:25.278000+00:00,train
77,-5.7754926681518555,-5.0,2021-01-21 17:53:55.278000+00:00,train
78,-5.778870582580566,-5.0,2021-01-21 17:54:25.278000+00:00,train
79,-5.76016092300415,-5.0,2021-01-21 17:54:55.278000+00:00,train
80,-5.742944717407227,-5.0,2021-01-21 17:55:25.278000+00:00,train
81,-5.727322578430176,-5.0,2021-01-21 17:55:55.278000+00:00,train
82,-5.713327407836914,-5.0,2021-01-21 17:56:25.278000+00:00,train
83,-5.700969219207764,-5.0,2021-01-21 17:56:55.278000+00:00,train
84,-5.690375804901123,-5.0,2021-01-21 17:57:25.278000+00:00,train
85,-5.645565986633301,-5.0,2021-01-21 17:57:55.278000+00:00,train
86,-5.603405475616455,-5.0,2021-01-21 17:58:25.278000+00:00,train
87,-5.563937664031982,-5.0,2021-01-21 17:58:55.278000+00:00,train
88,-5.527150630950928,-5.0,2021-01-21 17:59:25.278000+00:00,train
89,-5.493010520935059,-5.0,2021-01-21 17:59:55.278000+00:00,train
90,-5.46162223815918,-5.0,2021-01-21 18:00:25.278000+00:00,train
91,-5.414803504943848,-5.0,2021-01-21 18:00:55.278000+00:00,train
92,-5.369627475738525,-5.0,2021-01-21 18:01:25.278000+00:00,train
93,-5.326117515563965,-5.0,2021-01-21 18:01:55.278000+00:00,train
94,-5.284210681915283,-5.0,2021-01-21 18:02:25.278000+00:00,train
95,-5.243808269500732,-5.0,2021-01-21 18:02:55.278000+00:00,train
96,-5.204962253570557,-5.0,2021-01-21 18:03:25.278000+00:00,train
97,-5.1676249504089355,-5.0,2021-01-21 18:03:55.278000+00:00,train
98,-5.132299423217773,-5.0,2021-01-21 18:04:25.278000+00:00,train
99,-5.098169803619385,-5.0,2021-01-21 18:04:55.278000+00:00,train
100,-5.065386772155762,-5.0,2021-01-21 18:05:25.278000+00:00,train
101,-5.033917427062988,-5.0,2021-01-21 18:05:55.278000+00:00,train
102,-5.0038957595825195,-5.0,2021-01-21 18:06:25.278000+00:00,train
103,-4.975311279296875,-5.0,2021-01-21 18:06:55.278000+00:00,train
104,-4.948081016540527,-5.0,2021-01-21 18:07:25.278000+00:00,train
105,-4.922337532043457,-5.0,2021-01-21 18:07:55.278000+00:00,train
106,-4.89806604385376,-5.0,2021-01-21 18:08:25.278000+00:00,train
107,-4.875186920166016,-5.0,2021-01-21 18:08:55.278000+00:00,train
108,-4.853847503662109,-5.0,2021-01-21 18:09:25.278000+00:00,train
109,-4.834044933319092,-5.0,2021-01-21 18:09:55.278000+00:00,train
110,-4.815704345703125,-5.0,2021-01-21 18:10:25.278000+00:00,train
111,-4.79899787902832,-5.0,2021-01-21 18:10:55.278000+00:00,train
112,-4.783936977386475,-5.0,2021-01-21 18:11:25.278000+00:00,train
113,-4.770458698272705,-5.0,2021-01-21 18:11:55.278000+00:00,train
114,-4.758764266967773,-5.0,2021-01-21 18:12:25.278000+00:00,train
115,-4.7488861083984375,-5.0,2021-01-21 18:12:55.278000+00:00,train
116,-4.740786552429199,-5.0,2021-01-21 18:13:25.278000+00:00,train
117,-4.734700679779053,-5.0,2021-01-21 18:13:55.278000+00:00,train
118,-4.730700969696045,-5.0,2021-01-21 18:14:25.278000+00:00,train
119,-4.728788375854492,-5.0,2021-01-21 18:14:55.278000+00:00,train
120,-4.710476875305176,-5.0,2021-01-21 18:15:25.278000+00:00,train
121,-4.692962169647217,-5.0,2021-01-21 18:15:55.278000+00:00,train
122,-4.676121234893799,-5.0,2021-01-21 18:16:25.278000+00:00,train
123,-4.660120487213135,-5.0,2021-01-21 18:16:55.278000+00:00,train
124,-4.644930839538574,-5.0,2021-01-21 18:17:25.278000+00:00,train
125,-4.6304240226745605,-4.0,2021-01-21 18:17:55.278000+00:00,train
126,-4.616781234741211,-4.0,2021-01-21 18:18:25.278000+00:00,train
127,-4.603976726531982,-4.0,2021-01-21 18:18:55.278000+00:00,train
128,-4.591876029968262,-4.0,2021-01-21 18:19:25.278000+00:00,train
129,-4.580677032470703,-4.0,2021-01-21 18:19:55.278000+00:00,train
130,-4.5703558921813965,-4.0,2021-01-21 18:20:25.278000+00:00,train
131,-4.557717323303223,-4.0,2021-01-21 18:20:55.278000+00:00,train
132,-4.547639846801758,-4.0,2021-01-21 18:21:25.278000+00:00,train
133,-4.505594730377197,-4.0,2021-01-21 18:21:55.278000+00:00,train
134,-4.465866565704346,-4.0,2021-01-21 18:22:25.278000+00:00,train
135,-4.427098274230957,-4.0,2021-01-21 18:22:55.278000+00:00,train
136,-4.390678882598877,-4.0,2021-01-21 18:23:25.278000+00:00,train
137,-4.35637903213501,-4.0,2021-01-21 18:23:55.278000+00:00,train
138,-4.323995590209961,-4.0,2021-01-21 18:24:25.278000+00:00,train
139,-4.294504642486572,-4.0,2021-01-21 18:24:55.278000+00:00,train
140,-4.266262531280518,-4.0,2021-01-21 18:25:25.278000+00:00,train
141,-4.239548206329346,-4.0,2021-01-21 18:25:55.278000+00:00,train
142,-4.214320182800293,-4.0,2021-01-21 18:26:25.278000+00:00,train
143,-4.190859794616699,-4.0,2021-01-21 18:26:55.278000+00:00,train
144,-4.169162750244141,-4.0,2021-01-21 18:27:25.278000+00:00,train
145,-4.149088382720947,-4.0,2021-01-21 18:27:55.278000+00:00,train
146,-4.130910396575928,-4.0,2021-01-21 18:28:25.278000+00:00,train
147,-4.114622116088867,-4.0,2021-01-21 18:28:55.278000+00:00,train
148,-4.100091457366943,-4.0,2021-01-21 18:29:25.278000+00:00,train
149,-4.087629318237305,-4.0,2021-01-21 18:29:55.278000+00:00,train
150,-4.0772600173950195,-4.0,2021-01-21 18:30:25.278000+00:00,train
151,-4.068883419036865,-4.0,2021-01-21 18:30:55.278000+00:00,train
152,-4.062868118286133,-4.0,2021-01-21 18:31:25.278000+00:00,train
153,-4.039676189422607,-4.0,2021-01-21 18:31:55.278000+00:00,train
154,-4.017220973968506,-4.0,2021-01-21 18:32:25.278000+00:00,train
155,-3.9957573413848877,-4.0,2021-01-21 18:32:55.278000+00:00,train
156,-3.9752187728881836,-4.0,2021-01-21 18:33:25.278000+00:00,train
157,-3.955374002456665,-4.0,2021-01-21 18:33:55.278000+00:00,train
158,-3.936506509780884,-4.0,2021-01-21 18:34:25.278000+00:00,train
159,-3.9185502529144287,-4.0,2021-01-21 18:34:55.278000+00:00,train
160,-3.901261329650879,-4.0,2021-01-21 18:35:25.278000+00:00,train
161,-3.8849499225616455,-4.0,2021-01-21 18:35:55.278000+00:00,train
162,-3.8695507049560547,-4.0,2021-01-21 18:36:25.278000+00:00,train
163,-3.855037212371826,-4.0,2021-01-21 18:36:55.278000+00:00,train
164,-3.84116530418396,-4.0,2021-01-21 18:37:25.278000+00:00,train
165,-3.8282880783081055,-4.0,2021-01-21 18:37:55.278000+00:00,train
166,-3.8163440227508545,-4.0,2021-01-21 18:38:25.278000+00:00,train
167,-3.805065870285034,-4.0,2021-01-21 18:38:55.278000+00:00,train
168,-3.7948238849639893,-4.0,2021-01-21 18:39:25.278000+00:00,train
169,-3.785557508468628,-4.0,2021-01-21 18:39:55.278000+00:00,train
170,-3.7769949436187744,-4.0,2021-01-21 18:40:25.278000+00:00,train
171,-3.7695274353027344,-4.0,2021-01-21 18:40:55.278000+00:00,train
172,-3.7631030082702637,-4.0,2021-01-21 18:41:25.278000+00:00,train
173,-3.7574515342712402,-4.0,2021-01-21 18:41:55.278000+00:00,train
174,-3.752987861633301,-4.0,2021-01-21 18:42:25.278000+00:00,train
175,-3.7496721744537354,-4.0,2021-01-21 18:42:55.278000+00:00,train
176,-3.74725079536438,-4.0,2021-01-21 18:43:25.278000+00:00,train
177,-3.7461628913879395,-4.0,2021-01-21 18:43:55.278000+00:00,train
178,-3.746394395828247,-4.0,2021-01-21 18:44:25.278000+00:00,train
179,-3.750108480453491,-4.0,2021-01-21 18:44:55.278000+00:00,train
180,-3.754218578338623,-4.0,2021-01-21 18:45:25.278000+00:00,train
181,-3.7593345642089844,-4.0,2021-01-21 18:45:55.278000+00:00,train
182,-3.765570878982544,-4.0,2021-01-21 18:46:25.278000+00:00,train
183,-3.77364444732666,-4.0,2021-01-21 18:46:55.278000+00:00,train
184,-3.783738613128662,-4.0,2021-01-21 18:47:25.278000+00:00,train
185,-3.776381492614746,-4.0,2021-01-21 18:47:55.278000+00:00,train
186,-3.769536018371582,-4.0,2021-01-21 18:48:25.278000+00:00,train
187,-3.76314640045166,-4.0,2021-01-21 18:48:55.278000+00:00,train
188,-3.7568359375,-4.0,2021-01-21 18:49:25.278000+00:00,train
189,-3.7510645389556885,-4.0,2021-01-21 18:49:55.278000+00:00,train
190,-3.7457621097564697,-4.0,2021-01-21 18:50:25.278000+00:00,train
191,-3.740879774093628,-4.0,2021-01-21 18:50:55.278000+00:00,train
192,-3.7360095977783203,-4.0,2021-01-21 18:51:25.278000+00:00,train
193,-3.7316648960113525,-4.0,2021-01-21 18:51:55.278000+00:00,train
194,-3.727771043777466,-4.0,2021-01-21 18:52:25.278000+00:00,train
195,-3.7238783836364746,-3.0,2021-01-21 18:52:55.278000+00:00,train
196,-3.7205090522766113,-3.0,2021-01-21 18:53:25.278000+00:00,train
197,-3.717578172683716,-3.0,2021-01-21 18:53:55.278000+00:00,train
198,-3.7146317958831787,-3.0,2021-01-21 18:54:25.278000+00:00,train
199,-3.7121870517730713,-3.0,2021-01-21 18:54:55.278000+00:00,train
200,-3.710158348083496,-3.0,2021-01-21 18:55:25.278000+00:00,train
201,-3.7081048488616943,-3.0,2021-01-21 18:55:55.278000+00:00,train
202,-3.7065229415893555,-3.0,2021-01-21 18:56:25.278000+00:00,train
203,-3.672410726547241,-3.0,2021-01-21 18:56:55.278000+00:00,train
204,-3.629296064376831,-3.0,2021-01-21 18:57:25.278000+00:00,train
205,-3.592052698135376,-3.0,2021-01-21 18:57:55.278000+00:00,train
206,-3.558818817138672,-3.0,2021-01-21 18:58:25.278000+00:00,train
207,-3.528757333755493,-3.0,2021-01-21 18:58:55.278000+00:00,train
208,-3.4965481758117676,-3.0,2021-01-21 18:59:25.278000+00:00,train
209,-3.4680674076080322,-3.0,2021-01-21 18:59:55.278000+00:00,train
210,-3.4421355724334717,-3.0,2021-01-21 19:00:25.278000+00:00,train
211,-3.4175939559936523,-3.0,2021-01-21 19:00:55.278000+00:00,train
212,-3.3947412967681885,-3.0,2021-01-21 19:01:25.278000+00:00,train
213,-3.3732855319976807,-3.0,2021-01-21 19:01:55.278000+00:00,train
214,-3.3567581176757812,-3.0,2021-01-21 19:02:25.278000+00:00,train
215,-3.339709520339966,-3.0,2021-01-21 19:02:55.278000+00:00,train
216,-3.322763681411743,-3.0,2021-01-21 19:03:25.278000+00:00,train
217,-3.305840253829956,-3.0,2021-01-21 19:03:55.278000+00:00,train
218,-3.289797782897949,-3.0,2021-01-21 19:04:25.278000+00:00,train
219,-3.2746400833129883,-3.0,2021-01-21 19:04:55.278000+00:00,train
220,-3.2599098682403564,-3.0,2021-01-21 19:05:25.278000+00:00,train
221,-3.246234655380249,-3.0,2021-01-21 19:05:55.278000+00:00,train
222,-3.233529567718506,-3.0,2021-01-21 19:06:25.278000+00:00,train
223,-3.2213358879089355,-3.0,2021-01-21 19:06:55.278000+00:00,train
224,-3.2102153301239014,-3.0,2021-01-21 19:07:25.278000+00:00,train
225,-3.200089693069458,-3.0,2021-01-21 19:07:55.278000+00:00,train
226,-3.1905605792999268,-3.0,2021-01-21 19:08:25.278000+00:00,train
227,-3.182138442993164,-3.0,2021-01-21 19:08:55.278000+00:00,train
228,-3.1747732162475586,-3.0,2021-01-21 19:09:25.278000+00:00,train
229,-3.168149709701538,-3.0,2021-01-21 19:09:55.278000+00:00,train
230,-3.1627352237701416,-3.0,2021-01-21 19:10:25.278000+00:00,train
231,-3.1585233211517334,-3.0,2021-01-21 19:10:55.278000+00:00,train
232,-3.1553051471710205,-3.0,2021-01-21 19:11:25.278000+00:00,train
233,-3.1422483921051025,-3.0,2021-01-21 19:11:55.278000+00:00,train
234,-3.1295323371887207,-3.0,2021-01-21 19:12:25.278000+00:00,train
235,-3.116896390914917,-3.0,2021-01-21 19:12:55.278000+00:00,train
236,-3.1046156883239746,-3.0,2021-01-21 19:13:25.278000+00:00,train
237,-3.0926339626312256,-3.0,2021-01-21 19:13:55.278000+00:00,train
238,-3.0809123516082764,-3.0,2021-01-21 19:14:25.278000+00:00,train
239,-3.069253921508789,-3.0,2021-01-21 19:14:55.278000+00:00,train
240,-3.0578880310058594,-3.0,2021-01-21 19:15:25.278000+00:00,train
241,-3.0467758178710938,-3.0,2021-01-21 19:15:55.278000+00:00,train
242,-3.0357472896575928,-3.0,2021-01-21 19:16:25.278000+00:00,train
243,-3.024991273880005,-3.0,2021-01-21 19:16:55.278000+00:00,train
244,-3.0144729614257812,-3.0,2021-01-21 19:17:25.278000+00:00,train
245,-3.00405216217041,-3.0,2021-01-21 19:17:55.278000+00:00,train
246,-2.9938840866088867,-3.0,2021-01-21 19:18:25.278000+00:00,train
247,-2.983940839767456,-3.0,2021-01-21 19:18:55.278000+00:00,train
248,-2.974107503890991,-3.0,2021-01-21 19:19:25.278000+00:00,train
249,-2.964512825012207,-3.0,2021-01-21 19:19:55.278000+00:00,train
250,-2.9551329612731934,-3.0,2021-01-21 19:20:25.278000+00:00,train
251,-2.9458770751953125,-3.0,2021-01-21 19:20:55.278000+00:00,train
252,-2.9368488788604736,-3.0,2021-01-21 19:21:25.278000+00:00,train
253,-2.928030490875244,-3.0,2021-01-21 19:21:55.278000+00:00,train
254,-2.919349431991577,-3.0,2021-01-21 19:22:25.278000+00:00,train
255,-2.910890579223633,-3.0,2021-01-21 19:22:55.278000+00:00,train
256,-2.9026389122009277,-3.0,2021-01-21 19:23:25.278000+00:00,train
257,-2.894538164138794,-3.0,2021-01-21 19:23:55.278000+00:00,train
258,-2.8866567611694336,-3.0,2021-01-21 19:24:25.278000+00:00,train
259,-2.878983497619629,-3.0,2021-01-21 19:24:55.278000+00:00,train
260,-2.8714754581451416,-3.0,2021-01-21 19:25:25.278000+00:00,train
261,-2.8641881942749023,-3.0,2021-01-21 19:25:55.278000+00:00,train
262,-2.8571133613586426,-3.0,2021-01-21 19:26:25.278000+00:00,train
263,-2.8504674434661865,-3.0,2021-01-21 19:26:55.278000+00:00,train
264,-2.8438796997070312,-3.0,2021-01-21 19:27:25.278000+00:00,train
265,-2.837453603744507,-3.0,2021-01-21 19:27:55.278000+00:00,train
266,-2.8312110900878906,-3.0,2021-01-21 19:28:25.278000+00:00,train
267,-2.825157880783081,-3.0,2021-01-21 19:28:55.278000+00:00,train
268,-2.8193278312683105,-3.0,2021-01-21 19:29:25.278000+00:00,train
269,-2.813725709915161,-3.0,2021-01-21 19:29:55.278000+00:00,train
270,-2.8083529472351074,-3.0,2021-01-21 19:30:25.278000+00:00,train
271,-2.8032312393188477,-3.0,2021-01-21 19:30:55.278000+00:00,train
272,-2.7983651161193848,-3.0,2021-01-21 19:31:25.278000+00:00,train
273,-2.793243646621704,-3.0,2021-01-21 19:31:55.278000+00:00,train
274,-2.788620948791504,-3.0,2021-01-21 19:32:25.278000+00:00,train
275,-2.7844033241271973,-3.0,2021-01-21 19:32:55.278000+00:00,train
276,-2.7805676460266113,-3.0,2021-01-21 19:33:25.278000+00:00,train
277,-2.7771105766296387,-3.0,2021-01-21 19:33:55.278000+00:00,train
278,-2.7740046977996826,-3.0,2021-01-21 19:34:25.278000+00:00,train
279,-2.7712771892547607,-3.0,2021-01-21 19:34:55.278000+00:00,train
280,-2.7689249515533447,-3.0,2021-01-21 19:35:25.278000+00:00,train
281,-2.7669339179992676,-3.0,2021-01-21 19:35:55.278000+00:00,train
282,-2.7653422355651855,-3.0,2021-01-21 19:36:25.278000+00:00,train
283,-2.7641608715057373,-3.0,2021-01-21 19:36:55.278000+00:00,train
284,-2.763395309448242,-3.0,2021-01-21 19:37:25.278000+00:00,train
285,-2.763091564178467,-3.0,2021-01-21 19:37:55.278000+00:00,train
286,-2.763277292251587,-3.0,2021-01-21 19:38:25.278000+00:00,train
287,-2.7639753818511963,-3.0,2021-01-21 19:38:55.278000+00:00,train
288,-2.765246868133545,-3.0,2021-01-21 19:39:25.278000+00:00,train
289,-2.7671396732330322,-3.0,2021-01-21 19:39:55.278000+00:00,train
290,-2.7697057723999023,-3.0,2021-01-21 19:40:25.278000+00:00,train
291,-2.7730343341827393,-3.0,2021-01-21 19:40:55.278000+00:00,train
292,-2.777215003967285,-3.0,2021-01-21 19:41:25.278000+00:00,train
293,-2.7824087142944336,-3.0,2021-01-21 19:41:55.278000+00:00,train
294,-2.78869366645813,-3.0,2021-01-21 19:42:25.278000+00:00,train
295,-2.7962839603424072,-3.0,2021-01-21 19:42:55.278000+00:00,train
296,-2.805452823638916,-3.0,2021-01-21 19:43:25.278000+00:00,train
297,-2.816598892211914,-3.0,2021-01-21 19:43:55.278000+00:00,train
298,-2.830319404602051,-2.0,2021-01-21 19:44:25.278000+00:00,train
299,-2.8476154804229736,-2.0,2021-01-21 19:44:55.278000+00:00,train
300,-2.8704376220703125,-2.0,2021-01-21 19:45:25.278000+00:00,train
301,-2.9037888050079346,-2.0,2021-01-21 19:45:55.278000+00:00,train
302,-3.0,-2.0,2021-01-21 19:46:25.278000+00:00,train
303,-3.0,-2.0,2021-01-21 19:46:55.278000+00:00,train
304,-3.0,-2.0,2021-01-21 19:47:25.278000+00:00,train
305,-3.0,-2.0,2021-01-21 19:47:55.278000+00:00,train
306,-2.8841843605041504,-2.0,2021-01-21 19:48:25.278000+00:00,train
307,-2.8312203884124756,-2.0,2021-01-21 19:48:55.278000+00:00,train
308,-2.788846492767334,-2.0,2021-01-21 19:49:25.278000+00:00,train
309,-2.752054452896118,-2.0,2021-01-21 19:49:55.278000+00:00,train
310,-2.718893051147461,-2.0,2021-01-21 19:50:25.278000+00:00,train
311,-2.688354015350342,-2.0,2021-01-21 19:50:55.278000+00:00,train
312,-2.6598427295684814,-2.0,2021-01-21 19:51:25.278000+00:00,train
313,-2.632965564727783,-2.0,2021-01-21 19:51:55.278000+00:00,train
314,-2.6074507236480713,-2.0,2021-01-21 19:52:25.278000+00:00,train
315,-2.5831005573272705,-2.0,2021-01-21 19:52:55.278000+00:00,train
316,-2.5597689151763916,-2.0,2021-01-21 19:53:25.278000+00:00,train
317,-2.53733491897583,-2.0,2021-01-21 19:53:55.278000+00:00,train
318,-2.515730381011963,-2.0,2021-01-21 19:54:25.278000+00:00,train
319,-2.4948842525482178,-2.0,2021-01-21 19:54:55.278000+00:00,train
320,-2.474748134613037,-2.0,2021-01-21 19:55:25.278000+00:00,train
321,-2.455286741256714,-2.0,2021-01-21 19:55:55.278000+00:00,train
322,-2.4367964267730713,-2.0,2021-01-21 19:56:25.278000+00:00,train
323,-2.4186391830444336,-2.0,2021-01-21 19:56:55.278000+00:00,train
324,-2.400977373123169,-2.0,2021-01-21 19:57:25.278000+00:00,train
325,-2.3837380409240723,-2.0,2021-01-21 19:57:55.278000+00:00,train
326,-2.366840124130249,-2.0,2021-01-21 19:58:25.278000+00:00,train
327,-2.3502230644226074,-2.0,2021-01-21 19:58:55.278000+00:00,train
328,-2.3338468074798584,-2.0,2021-01-21 19:59:25.278000+00:00,train
329,-2.317762613296509,-2.0,2021-01-21 19:59:55.278000+00:00,train
330,-2.3019323348999023,-2.0,2021-01-21 20:00:25.278000+00:00,train
331,-2.286363363265991,-2.0,2021-01-21 20:00:55.278000+00:00,train
332,-2.2710633277893066,-2.0,2021-01-21 20:01:25.278000+00:00,train
333,-2.2557644844055176,-2.0,2021-01-21 20:01:55.278000+00:00,train
334,-2.240967273712158,-2.0,2021-01-21 20:02:25.278000+00:00,train
335,-2.2265331745147705,-2.0,2021-01-21 20:02:55.278000+00:00,train
336,-2.212416172027588,-2.0,2021-01-21 20:03:25.278000+00:00,train
337,-2.198591709136963,-2.0,2021-01-21 20:03:55.278000+00:00,train
338,-2.185044050216675,-2.0,2021-01-21 20:04:25.278000+00:00,train
339,-2.171765089035034,-2.0,2021-01-21 20:04:55.278000+00:00,train
340,-2.158722162246704,-2.0,2021-01-21 20:05:25.278000+00:00,train
341,-2.1459364891052246,-2.0,2021-01-21 20:05:55.278000+00:00,train
342,-2.1334028244018555,-2.0,2021-01-21 20:06:25.278000+00:00,train
343,-2.1211178302764893,-2.0,2021-01-21 20:06:55.278000+00:00,train
344,-2.1090784072875977,-2.0,2021-01-21 20:07:25.278000+00:00,train
345,-2.097238063812256,-2.0,2021-01-21 20:07:55.278000+00:00,train
346,-2.0856399536132812,-2.0,2021-01-21 20:08:25.278000+00:00,train
347,-2.0742809772491455,-2.0,2021-01-21 20:08:55.278000+00:00,train
348,-2.0631580352783203,-2.0,2021-01-21 20:09:25.278000+00:00,train
349,-2.05226731300354,-2.0,2021-01-21 20:09:55.278000+00:00,train
350,-2.0416061878204346,-2.0,2021-01-21 20:10:25.278000+00:00,train
351,-2.0320582389831543,-2.0,2021-01-21 20:10:55.278000+00:00,train
352,-2.022402763366699,-2.0,2021-01-21 20:11:25.278000+00:00,train
353,-2.0128707885742188,-2.0,2021-01-21 20:11:55.278000+00:00,train
354,-2.0035736560821533,-2.0,2021-01-21 20:12:25.278000+00:00,train
355,-1.994578242301941,-2.0,2021-01-21 20:12:55.278000+00:00,train
356,-1.9859172105789185,-2.0,2021-01-21 20:13:25.278000+00:00,train
357,-1.9773379564285278,-2.0,2021-01-21 20:13:55.278000+00:00,train
358,-1.9692002534866333,-2.0,2021-01-21 20:14:25.278000+00:00,train
359,-1.961584210395813,-2.0,2021-01-21 20:14:55.278000+00:00,train
360,-1.9546005725860596,-2.0,2021-01-21 20:15:25.278000+00:00,train
361,-1.9483975172042847,-2.0,2021-01-21 20:15:55.278000+00:00,train
362,-1.9423611164093018,-2.0,2021-01-21 20:16:25.278000+00:00,train
363,-1.9373478889465332,-2.0,2021-01-21 20:16:55.278000+00:00,train
364,-1.9335579872131348,-2.0,2021-01-21 20:17:25.278000+00:00,train
365,-1.931160569190979,-2.0,2021-01-21 20:17:55.278000+00:00,train
366,-1.9302233457565308,-2.0,2021-01-21 20:18:25.278000+00:00,train
367,-1.930678129196167,-2.0,2021-01-21 20:18:55.278000+00:00,train
368,-1.95650315284729,-2.0,2021-01-21 20:19:25.278000+00:00,train
369,-1.9760668277740479,-2.0,2021-01-21 20:19:55.278000+00:00,train
370,-1.9902745485305786,-2.0,2021-01-21 20:20:25.278000+00:00,train
371,-2.000044107437134,-2.0,2021-01-21 20:20:55.278000+00:00,train
372,-2.0063140392303467,-2.0,2021-01-21 20:21:25.278000+00:00,train
373,-2.0100016593933105,-2.0,2021-01-21 20:21:55.278000+00:00,train
374,-2.0016849040985107,-2.0,2021-01-21 20:22:25.278000+00:00,train
375,-1.9934498071670532,-2.0,2021-01-21 20:22:55.278000+00:00,train
376,-1.9853168725967407,-2.0,2021-01-21 20:23:25.278000+00:00,train
377,-1.9773787260055542,-2.0,2021-01-21 20:23:55.278000+00:00,train
378,-1.9695920944213867,-2.0,2021-01-21 20:24:25.278000+00:00,train
379,-1.9620139598846436,-2.0,2021-01-21 20:24:55.278000+00:00,train
380,-1.9547158479690552,-2.0,2021-01-21 20:25:25.278000+00:00,train
381,-1.9477866888046265,-2.0,2021-01-21 20:25:55.278000+00:00,train
382,-1.9413257837295532,-2.0,2021-01-21 20:26:25.278000+00:00,train
383,-1.9352495670318604,-2.0,2021-01-21 20:26:55.278000+00:00,train
384,-1.929768681526184,-2.0,2021-01-21 20:27:25.278000+00:00,train
385,-1.9249725341796875,-2.0,2021-01-21 20:27:55.278000+00:00,train
386,-2.0351855754852295,-2.0,2021-01-21 20:28:25.278000+00:00,train
387,-2.0286595821380615,-2.0,2021-01-21 20:28:55.278000+00:00,train
388,-2.0223238468170166,-2.0,2021-01-21 20:29:25.278000+00:00,train
389,-2.016303300857544,-2.0,2021-01-21 20:29:55.278000+00:00,train
390,-2.0106208324432373,-2.0,2021-01-21 20:30:25.278000+00:00,train
391,-2.005293846130371,-2.0,2021-01-21 20:30:55.278000+00:00,train
392,-2.000336170196533,-2.0,2021-01-21 20:31:25.278000+00:00,train
393,-1.9957551956176758,-2.0,2021-01-21 20:31:55.278000+00:00,train
394,-1.9913275241851807,-2.0,2021-01-21 20:32:25.278000+00:00,train
395,-1.9873114824295044,-2.0,2021-01-21 20:32:55.278000+00:00,train
396,-1.9837228059768677,-2.0,2021-01-21 20:33:25.278000+00:00,train
397,-1.9805818796157837,-2.0,2021-01-21 20:33:55.278000+00:00,train
398,-1.9779175519943237,-2.0,2021-01-21 20:34:25.278000+00:00,train
399,-1.9757744073867798,-2.0,2021-01-21 20:34:55.278000+00:00,train
400,-1.9776407480239868,-2.0,2021-01-21 20:35:25.278000+00:00,train
401,-1.9790339469909668,-2.0,2021-01-21 20:35:55.278000+00:00,train
402,-1.9802607297897339,-2.0,2021-01-21 20:36:25.278000+00:00,train
403,-1.9817614555358887,-2.0,2021-01-21 20:36:55.278000+00:00,train
404,-1.9845715761184692,-2.0,2021-01-21 20:37:25.278000+00:00,train
405,-2.0,-2.0,2021-01-21 20:37:55.278000+00:00,train
406,-2.0,-2.0,2021-01-21 20:38:25.278000+00:00,train
407,-2.0,-2.0,2021-01-21 20:38:55.278000+00:00,train
408,-2.0,-2.0,2021-01-21 20:39:25.278000+00:00,train
409,-2.0,-2.0,2021-01-21 20:39:55.278000+00:00,train
410,-2.0,-2.0,2021-01-21 20:40:25.278000+00:00,train
411,-2.0,-2.0,2021-01-21 20:40:55.278000+00:00,train
412,-2.0,-2.0,2021-01-21 20:41:25.278000+00:00,train
413,-2.0,-2.0,2021-01-21 20:41:55.278000+00:00,train
414,-2.0,-2.0,2021-01-21 20:42:25.278000+00:00,train
415,-2.0,-2.0,2021-01-21 20:42:55.278000+00:00,train
416,-2.0,-2.0,2021-01-21 20:43:25.278000+00:00,train
417,-2.0,-2.0,2021-01-21 20:43:55.278000+00:00,train
418,-2.0,-2.0,2021-01-21 20:44:25.278000+00:00,train
419,-2.0,-2.0,2021-01-21 20:44:55.278000+00:00,train
420,-2.0,-2.0,2021-01-21 20:45:25.278000+00:00,train
421,-2.0,-2.0,2021-01-21 20:45:55.278000+00:00,train
422,-2.0,-2.0,2021-01-21 20:46:25.278000+00:00,train
423,-2.0,-2.0,2021-01-21 20:46:55.278000+00:00,train
424,-2.0,-2.0,2021-01-21 20:47:25.278000+00:00,train
425,-2.0,-2.0,2021-01-21 20:47:55.278000+00:00,train
426,-2.0,-2.0,2021-01-21 20:48:25.278000+00:00,train
427,-2.0,-2.0,2021-01-21 20:48:55.278000+00:00,train
428,-2.0,-2.0,2021-01-21 20:49:25.278000+00:00,train
429,-2.0,-2.0,2021-01-21 20:49:55.278000+00:00,train
430,-2.0,-2.0,2021-01-21 20:50:25.278000+00:00,train
431,-2.0,-2.0,2021-01-21 20:50:55.278000+00:00,train
432,-2.0,-2.0,2021-01-21 20:51:25.278000+00:00,train
433,-2.0,-2.0,2021-01-21 20:51:55.278000+00:00,train
434,-2.0,-2.0,2021-01-21 20:52:25.278000+00:00,train
435,-2.0,-2.0,2021-01-21 20:52:55.278000+00:00,train
436,-2.0,-2.0,2021-01-21 20:53:25.278000+00:00,train
437,-2.0,-2.0,2021-01-21 20:53:55.278000+00:00,train
438,-2.0,-2.0,2021-01-21 20:54:25.278000+00:00,train
439,-2.0,-2.0,2021-01-21 20:54:55.278000+00:00,train
440,-2.0,-2.0,2021-01-21 20:55:25.278000+00:00,train
441,-2.0,-2.0,2021-01-21 20:55:55.278000+00:00,train
442,-2.0,-2.0,2021-01-21 20:56:25.278000+00:00,train
443,-2.0,-2.0,2021-01-21 20:56:55.278000+00:00,train
444,-2.0,-2.0,2021-01-21 20:57:25.278000+00:00,train
445,-2.0,-2.0,2021-01-21 20:57:55.278000+00:00,train
446,-2.0,-2.0,2021-01-21 20:58:25.278000+00:00,train
447,-2.0,-2.0,2021-01-21 20:58:55.278000+00:00,train
448,-2.0,-2.0,2021-01-21 20:59:25.278000+00:00,train
449,-2.0,-2.0,2021-01-21 20:59:55.278000+00:00,train
450,-2.0,-2.0,2021-01-21 21:00:25.278000+00:00,train
451,-2.0,0.0,2021-01-21 21:00:55.278000+00:00,train
452,-2.0,-2.0,2021-01-21 21:01:25.278000+00:00,train
453,-2.0,-2.0,2021-01-21 21:01:55.278000+00:00,train
454,-2.0,-2.0,2021-01-21 21:02:25.278000+00:00,train
455,-2.0,-2.0,2021-01-21 21:02:55.278000+00:00,train
456,-2.0,-2.0,2021-01-21 21:03:25.278000+00:00,train
457,-2.0,-2.0,2021-01-21 21:03:55.278000+00:00,train
458,-2.0,-2.0,2021-01-21 21:04:25.278000+00:00,train
459,-1.9792128801345825,-2.0,2021-01-21 21:04:55.278000+00:00,train
460,-1.9901916980743408,-2.0,2021-01-21 21:05:25.278000+00:00,train
461,-1.993085503578186,-2.0,2021-01-21 21:05:55.278000+00:00,train
462,-1.9941734075546265,-2.0,2021-01-21 21:06:25.278000+00:00,train
463,-1.9947372674942017,-2.0,2021-01-21 21:06:55.278000+00:00,train
464,-1.995116114616394,-2.0,2021-01-21 21:07:25.278000+00:00,train
465,-1.9954156875610352,-2.0,2021-01-21 21:07:55.278000+00:00,train
466,-1.995675802230835,-2.0,2021-01-21 21:08:25.278000+00:00,train
467,-1.9959135055541992,-2.0,2021-01-21 21:08:55.278000+00:00,train
468,-1.99619722366333,-2.0,2021-01-21 21:09:25.278000+00:00,train
469,-1.9964509010314941,-2.0,2021-01-21 21:09:55.278000+00:00,train
470,-1.9966866970062256,-2.0,2021-01-21 21:10:25.278000+00:00,train
471,-1.9969078302383423,-2.0,2021-01-21 21:10:55.278000+00:00,train
472,-1.9971160888671875,-2.0,2021-01-21 21:11:25.278000+00:00,train
473,-1.9973124265670776,-2.0,2021-01-21 21:11:55.278000+00:00,train
474,-1.997493028640747,-2.0,2021-01-21 21:12:25.278000+00:00,train
475,-1.9976640939712524,-2.0,2021-01-21 21:12:55.278000+00:00,train
476,-1.997826099395752,-2.0,2021-01-21 21:13:25.278000+00:00,train
477,-1.9979785680770874,-2.0,2021-01-21 21:13:55.278000+00:00,train
478,-1.998121976852417,-2.0,2021-01-21 21:14:25.278000+00:00,train
479,-1.9982563257217407,-2.0,2021-01-21 21:14:55.278000+00:00,train
480,-1.9983795881271362,-2.0,2021-01-21 21:15:25.278000+00:00,train
481,-1.9984945058822632,-2.0,2021-01-21 21:15:55.278000+00:00,train
482,-1.9986014366149902,-2.0,2021-01-21 21:16:25.278000+00:00,train
483,-1.9986999034881592,-2.0,2021-01-21 21:16:55.278000+00:00,train
484,-1.9987902641296387,-2.0,2021-01-21 21:17:25.278000+00:00,train
485,-1.9988723993301392,-2.0,2021-01-21 21:17:55.278000+00:00,train
486,-1.9989455938339233,-2.0,2021-01-21 21:18:25.278000+00:00,train
487,-1.9990113973617554,-2.0,2021-01-21 21:18:55.278000+00:00,train
488,-1.999070167541504,-2.0,2021-01-21 21:19:25.278000+00:00,train
489,-1.999121904373169,-2.0,2021-01-21 21:19:55.278000+00:00,train
490,-1.99916672706604,-2.0,2021-01-21 21:20:25.278000+00:00,train
491,-1.999203085899353,-2.0,2021-01-21 21:20:55.278000+00:00,train
492,-1.9992204904556274,-2.0,2021-01-21 21:21:25.278000+00:00,train
493,-1.9992406368255615,-2.0,2021-01-21 21:21:55.278000+00:00,train
494,-1.9992551803588867,-2.0,2021-01-21 21:22:25.278000+00:00,train
495,-1.999271273612976,-2.0,2021-01-21 21:22:55.278000+00:00,train
496,-1.999288558959961,-2.0,2021-01-21 21:23:25.278000+00:00,train
497,-1.9993047714233398,-2.0,2021-01-21 21:23:55.278000+00:00,train
498,-1.9993184804916382,-2.0,2021-01-21 21:24:25.278000+00:00,train
499,-1.9993290901184082,-2.0,2021-01-21 21:24:55.278000+00:00,train
500,-1.9993360042572021,-2.0,2021-01-21 21:25:25.278000+00:00,train
501,-1.9993399381637573,-2.0,2021-01-21 21:25:55.278000+00:00,train
502,-1.9993411302566528,-2.0,2021-01-21 21:26:25.278000+00:00,train
503,-1.999338984489441,-2.0,2021-01-21 21:26:55.278000+00:00,train
504,-1.9993338584899902,-2.0,2021-01-21 21:27:25.278000+00:00,train
505,-1.9993276596069336,-2.0,2021-01-21 21:27:55.278000+00:00,train
506,-1.999315619468689,-2.0,2021-01-21 21:28:25.278000+00:00,train
507,-1.9992989301681519,-2.0,2021-01-21 21:28:55.278000+00:00,train
508,-1.9992783069610596,-2.0,2021-01-21 21:29:25.278000+00:00,train
509,-1.9992547035217285,-2.0,2021-01-21 21:29:55.278000+00:00,train
510,-1.999228596687317,-2.0,2021-01-21 21:30:25.278000+00:00,train
511,-1.9991997480392456,-2.0,2021-01-21 21:30:55.278000+00:00,train
512,-1.999168872833252,-2.0,2021-01-21 21:31:25.278000+00:00,train
513,-1.9991358518600464,-2.0,2021-01-21 21:31:55.278000+00:00,train
514,-1.999100685119629,-2.0,2021-01-21 21:32:25.278000+00:00,train
515,-1.9990640878677368,-2.0,2021-01-21 21:32:55.278000+00:00,train
516,-1.9990274906158447,-2.0,2021-01-21 21:33:25.278000+00:00,train
517,-1.9989842176437378,-2.0,2021-01-21 21:33:55.278000+00:00,train
518,-1.9989386796951294,-2.0,2021-01-21 21:34:25.278000+00:00,train
519,-1.9988905191421509,-2.0,2021-01-21 21:34:55.278000+00:00,train
520,-1.9988398551940918,-2.0,2021-01-21 21:35:25.278000+00:00,train
521,-1.998786211013794,-2.0,2021-01-21 21:35:55.278000+00:00,train
522,-1.9987298250198364,-2.0,2021-01-21 21:36:25.278000+00:00,train
523,-1.9986720085144043,-2.0,2021-01-21 21:36:55.278000+00:00,train
524,-1.9986110925674438,-2.0,2021-01-21 21:37:25.278000+00:00,train
525,-1.998546838760376,-2.0,2021-01-21 21:37:55.278000+00:00,train
526,-1.998478889465332,-2.0,2021-01-21 21:38:25.278000+00:00,train
527,-1.9984064102172852,-2.0,2021-01-21 21:38:55.278000+00:00,train
528,-1.9983105659484863,-2.0,2021-01-21 21:39:25.278000+00:00,train
529,-1.9982136487960815,-2.0,2021-01-21 21:39:55.278000+00:00,train
530,-1.9981086254119873,-2.0,2021-01-21 21:40:25.278000+00:00,train
531,-1.997991919517517,-2.0,2021-01-21 21:40:55.278000+00:00,train
532,-1.997860312461853,-2.0,2021-01-21 21:41:25.278000+00:00,train
533,-1.9977103471755981,-2.0,2021-01-21 21:41:55.278000+00:00,train
534,-1.9975130558013916,-2.0,2021-01-21 21:42:25.278000+00:00,train
535,-1.9972724914550781,-2.0,2021-01-21 21:42:55.278000+00:00,train
536,-1.9969663619995117,-2.0,2021-01-21 21:43:25.278000+00:00,train
537,-1.996561884880066,-2.0,2021-01-21 21:43:55.278000+00:00,train
538,-1.9959983825683594,-2.0,2021-01-21 21:44:25.278000+00:00,train
539,-1.9952393770217896,-2.0,2021-01-21 21:44:55.278000+00:00,train
540,-1.9940481185913086,-2.0,2021-01-21 21:45:25.278000+00:00,train
541,-1.9918376207351685,-2.0,2021-01-21 21:45:55.278000+00:00,train
542,-1.9838199615478516,-2.0,2021-01-21 21:46:25.278000+00:00,train
543,-1.926025629043579,-2.0,2021-01-21 21:46:55.278000+00:00,train
544,-1.7811707258224487,-2.0,2021-01-21 21:47:25.278000+00:00,train
545,-1.6828168630599976,-2.0,2021-01-21 21:47:55.278000+00:00,train
546,-1.649781346321106,-2.0,2021-01-21 21:48:25.278000+00:00,train
547,-1.6415008306503296,-2.0,2021-01-21 21:48:55.278000+00:00,train
548,-1.6385315656661987,-2.0,2021-01-21 21:49:25.278000+00:00,train
549,-1.6368998289108276,-2.0,2021-01-21 21:49:55.278000+00:00,train
550,-1.6355493068695068,-2.0,2021-01-21 21:50:25.278000+00:00,train
551,-1.634598970413208,-2.0,2021-01-21 21:50:55.278000+00:00,train
552,-1.6337156295776367,-2.0,2021-01-21 21:51:25.278000+00:00,train
553,-1.6328577995300293,-2.0,2021-01-21 21:51:55.278000+00:00,train
554,-1.6320092678070068,-2.0,2021-01-21 21:52:25.278000+00:00,train
555,-1.6311672925949097,-2.0,2021-01-21 21:52:55.278000+00:00,train
556,-1.6303291320800781,-2.0,2021-01-21 21:53:25.278000+00:00,train
557,-1.6292928457260132,-2.0,2021-01-21 21:53:55.278000+00:00,train
558,-1.6276798248291016,-2.0,2021-01-21 21:54:25.278000+00:00,train
559,-2.0,-2.0,2021-01-21 21:54:55.278000+00:00,train
560,-2.0,-2.0,2021-01-21 21:55:25.278000+00:00,train
561,-2.0,-2.0,2021-01-21 21:55:55.278000+00:00,train
562,-2.0,-1.0,2021-01-21 21:56:25.278000+00:00,train
563,-2.0,-2.0,2021-01-21 21:56:55.278000+00:00,train
564,-2.0,-2.0,2021-01-21 21:57:25.278000+00:00,train
565,-2.0,-2.0,2021-01-21 21:57:55.278000+00:00,train
566,-2.0,-2.0,2021-01-21 21:58:25.278000+00:00,train
567,-2.0,-2.0,2021-01-21 21:58:55.278000+00:00,train
568,-2.0,-2.0,2021-01-21 21:59:25.278000+00:00,train
569,-2.0,-1.0,2021-01-21 21:59:55.278000+00:00,train
570,-1.8103910684585571,-1.0,2021-01-21 22:00:25.278000+00:00,train
571,-1.8102517127990723,0.0,2021-01-21 22:00:55.278000+00:00,train
572,-1.8101863861083984,-1.0,2021-01-21 22:01:25.278000+00:00,train
573,-1.8101284503936768,-1.0,2021-01-21 22:01:55.278000+00:00,train
574,-1.810068964958191,-1.0,2021-01-21 22:02:25.278000+00:00,train
575,-1.8100224733352661,-1.0,2021-01-21 22:02:55.278000+00:00,train
576,-1.8099894523620605,-1.0,2021-01-21 22:03:25.278000+00:00,train
577,-1.7267342805862427,-1.0,2021-01-21 22:03:55.278000+00:00,train
578,-1.661341667175293,-1.0,2021-01-21 22:04:25.278000+00:00,train
579,-1.4432251453399658,-1.0,2021-01-21 22:04:55.278000+00:00,train
580,-1.392343282699585,-1.0,2021-01-21 22:05:25.278000+00:00,train
581,-1.3489099740982056,-1.0,2021-01-21 22:05:55.278000+00:00,train
582,-1.3093576431274414,-1.0,2021-01-21 22:06:25.278000+00:00,train
583,-1.272308588027954,-1.0,2021-01-21 22:06:55.278000+00:00,train
584,-1.237210750579834,-1.0,2021-01-21 22:07:25.278000+00:00,train
585,-1.2037348747253418,-1.0,2021-01-21 22:07:55.278000+00:00,train
586,-1.1716684103012085,-1.0,2021-01-21 22:08:25.278000+00:00,train
587,-1.1408764123916626,-1.0,2021-01-21 22:08:55.278000+00:00,train
588,-1.1112496852874756,-1.0,2021-01-21 22:09:25.278000+00:00,train
589,-1.0826259851455688,-1.0,2021-01-21 22:09:55.278000+00:00,train
590,-1.0550498962402344,-1.0,2021-01-21 22:10:25.278000+00:00,train
591,-1.0284817218780518,-1.0,2021-01-21 22:10:55.278000+00:00,train
592,-1.002650260925293,-1.0,2021-01-21 22:11:25.278000+00:00,train
593,-0.9778989553451538,-1.0,2021-01-21 22:11:55.278000+00:00,train
594,-0.9583206176757812,-1.0,2021-01-21 22:12:25.278000+00:00,train
595,-1.0003960132598877,-1.0,2021-01-21 22:12:55.278000+00:00,train
596,-1.1040396690368652,-1.0,2021-01-21 22:13:25.278000+00:00,train
597,-1.1199747323989868,-1.0,2021-01-21 22:13:55.278000+00:00,train
598,-1.1161472797393799,-1.0,2021-01-21 22:14:25.278000+00:00,train
599,-1.106933355331421,-1.0,2021-01-21 22:14:55.278000+00:00,train
600,-1.0581169128417969,-1.0,2021-01-21 22:15:25.278000+00:00,train
601,-1.030346393585205,-1.0,2021-01-21 22:15:55.278000+00:00,train
602,-1.011157512664795,-1.0,2021-01-21 22:16:25.278000+00:00,train
603,-0.9882844090461731,-1.0,2021-01-21 22:16:55.278000+00:00,train
604,-0.9715337157249451,-1.0,2021-01-21 22:17:25.278000+00:00,train
605,-0.9566540122032166,-1.0,2021-01-21 22:17:55.278000+00:00,train
606,-0.943825364112854,-1.0,2021-01-21 22:18:25.278000+00:00,train
607,-0.9322894215583801,-1.0,2021-01-21 22:18:55.278000+00:00,train
608,-0.9217328429222107,-1.0,2021-01-21 22:19:25.278000+00:00,train
609,-0.9107827544212341,-1.0,2021-01-21 22:19:55.278000+00:00,train
610,-0.9009754061698914,-1.0,2021-01-21 22:20:25.278000+00:00,train
611,-0.8923614025115967,-1.0,2021-01-21 22:20:55.278000+00:00,train
612,-0.8845394849777222,-1.0,2021-01-21 22:21:25.278000+00:00,train
613,-0.8774102926254272,-1.0,2021-01-21 22:21:55.278000+00:00,train
614,-0.8816079497337341,-1.0,2021-01-21 22:22:25.278000+00:00,train
615,-0.8795563578605652,-1.0,2021-01-21 22:22:55.278000+00:00,train
616,-0.87604820728302,-1.0,2021-01-21 22:23:25.278000+00:00,train
617,-0.8726941347122192,-1.0,2021-01-21 22:23:55.278000+00:00,train
618,-0.869606614112854,-1.0,2021-01-21 22:24:25.278000+00:00,train
619,-0.8669675588607788,-1.0,2021-01-21 22:24:55.278000+00:00,train
620,-0.8626283407211304,-1.0,2021-01-21 22:25:25.278000+00:00,train
621,-0.8600776195526123,-1.0,2021-01-21 22:25:55.278000+00:00,train
622,-0.8591896295547485,-1.0,2021-01-21 22:26:25.278000+00:00,train
623,-0.8593717813491821,-1.0,2021-01-21 22:26:55.278000+00:00,train
624,-0.860762357711792,-1.0,2021-01-21 22:27:25.278000+00:00,train
625,-0.8637447357177734,-1.0,2021-01-21 22:27:55.278000+00:00,train
626,-0.8654268980026245,-1.0,2021-01-21 22:28:25.278000+00:00,train
627,-0.8713502287864685,-1.0,2021-01-21 22:28:55.278000+00:00,train
628,-0.8779627680778503,-1.0,2021-01-21 22:29:25.278000+00:00,train
629,-0.8864357471466064,-1.0,2021-01-21 22:29:55.278000+00:00,train
630,-0.8952104449272156,-1.0,2021-01-21 22:30:25.278000+00:00,train
631,-0.9026912450790405,-1.0,2021-01-21 22:30:55.278000+00:00,train
632,-0.9043509364128113,-1.0,2021-01-21 22:31:25.278000+00:00,train
633,-0.9069029688835144,-1.0,2021-01-21 22:31:55.278000+00:00,train
634,-0.9088133573532104,-1.0,2021-01-21 22:32:25.278000+00:00,train
635,-0.9096668362617493,-1.0,2021-01-21 22:32:55.278000+00:00,train
636,-0.9097229242324829,-1.0,2021-01-21 22:33:25.278000+00:00,train
637,-0.9214928150177002,-1.0,2021-01-21 22:33:55.278000+00:00,train
638,-0.9230666756629944,-1.0,2021-01-21 22:34:25.278000+00:00,train
639,-0.922646701335907,-1.0,2021-01-21 22:34:55.278000+00:00,train
640,-0.9216873645782471,-1.0,2021-01-21 22:35:25.278000+00:00,train
641,-0.9206156730651855,-1.0,2021-01-21 22:35:55.278000+00:00,train
642,-0.9195534586906433,-1.0,2021-01-21 22:36:25.278000+00:00,train
643,-0.9168399572372437,-1.0,2021-01-21 22:36:55.278000+00:00,train
644,-0.9157446622848511,-1.0,2021-01-21 22:37:25.278000+00:00,train
645,-0.9163824915885925,-1.0,2021-01-21 22:37:55.278000+00:00,train
646,-0.9185619950294495,-1.0,2021-01-21 22:38:25.278000+00:00,train
647,-0.9232540130615234,-1.0,2021-01-21 22:38:55.278000+00:00,train
648,-0.9333477020263672,-1.0,2021-01-21 22:39:25.278000+00:00,train
649,-0.9573538303375244,-1.0,2021-01-21 22:39:55.278000+00:00,train
650,-0.9632309675216675,-1.0,2021-01-21 22:40:25.278000+00:00,train
651,-0.9696081280708313,-1.0,2021-01-21 22:40:55.278000+00:00,train
652,-0.976148247718811,-1.0,2021-01-21 22:41:25.278000+00:00,train
653,-0.9824316501617432,-1.0,2021-01-21 22:41:55.278000+00:00,train
654,-0.9860899448394775,-1.0,2021-01-21 22:42:25.278000+00:00,train
655,-0.9870048761367798,-1.0,2021-01-21 22:42:55.278000+00:00,train
656,-0.9929621815681458,-1.0,2021-01-21 22:43:25.278000+00:00,train
657,-0.998271644115448,-1.0,2021-01-21 22:43:55.278000+00:00,train
658,-1.0027096271514893,-1.0,2021-01-21 22:44:25.278000+00:00,train
659,-1.0056431293487549,-1.0,2021-01-21 22:44:55.278000+00:00,train
660,-1.0084710121154785,-1.0,2021-01-21 22:45:25.278000+00:00,train
661,-1.011856198310852,-1.0,2021-01-21 22:45:55.278000+00:00,train
662,-1.0139716863632202,-1.0,2021-01-21 22:46:25.278000+00:00,train
663,-1.0151456594467163,-1.0,2021-01-21 22:46:55.278000+00:00,train
664,-1.0154640674591064,-1.0,2021-01-21 22:47:25.278000+00:00,train
665,-1.0148580074310303,-1.0,2021-01-21 22:47:55.278000+00:00,train
666,-1.0120673179626465,-1.0,2021-01-21 22:48:25.278000+00:00,train
667,-1.0106319189071655,-1.0,2021-01-21 22:48:55.278000+00:00,train
668,-1.008484125137329,-1.0,2021-01-21 22:49:25.278000+00:00,train
669,-1.0054526329040527,-1.0,2021-01-21 22:49:55.278000+00:00,train
670,-1.0099879503250122,-1.0,2021-01-21 22:50:25.278000+00:00,train
671,-1.0077143907546997,-1.0,2021-01-21 22:50:55.278000+00:00,train
672,-1.00226628780365,-1.0,2021-01-21 22:51:25.278000+00:00,train
673,-0.9968335032463074,-1.0,2021-01-21 22:51:55.278000+00:00,train
674,-0.9913288354873657,-1.0,2021-01-21 22:52:25.278000+00:00,train
675,-0.9858614206314087,-1.0,2021-01-21 22:52:55.278000+00:00,train
676,-0.9807732105255127,-1.0,2021-01-21 22:53:25.278000+00:00,train
677,-0.9813261032104492,-1.0,2021-01-21 22:53:55.278000+00:00,train
678,-0.9821168780326843,-1.0,2021-01-21 22:54:25.278000+00:00,train
679,-1.0,-1.0,2021-01-21 22:54:55.278000+00:00,train
680,-1.0,-1.0,2021-01-21 22:55:25.278000+00:00,train
681,-1.0,-1.0,2021-01-21 22:55:55.278000+00:00,train
682,-1.0,-1.0,2021-01-21 22:56:25.278000+00:00,train
683,-1.0,-1.0,2021-01-21 22:56:55.278000+00:00,train
684,-1.0,-1.0,2021-01-21 22:57:25.278000+00:00,train
685,-1.0,-1.0,2021-01-21 22:57:55.278000+00:00,train
686,-1.0,-1.0,2021-01-21 22:58:25.278000+00:00,train
687,-1.0,-1.0,2021-01-21 22:58:55.278000+00:00,train
688,-1.0,-1.0,2021-01-21 22:59:25.278000+00:00,train
689,-1.0,-1.0,2021-01-21 22:59:55.278000+00:00,train
690,-1.0,-1.0,2021-01-21 23:00:25.278000+00:00,train
691,-1.0,0.0,2021-01-21 23:00:55.278000+00:00,train
692,-1.0,-1.0,2021-01-21 23:01:25.278000+00:00,train
693,-1.0,-1.0,2021-01-21 23:01:55.278000+00:00,train
694,-1.0,-1.0,2021-01-21 23:02:25.278000+00:00,train
695,-1.0,-1.0,2021-01-21 23:02:55.278000+00:00,train
696,-1.0,-1.0,2021-01-21 23:03:25.278000+00:00,train
697,-1.0,-1.0,2021-01-21 23:03:55.278000+00:00,train
698,-1.0,-1.0,2021-01-21 23:04:25.278000+00:00,train
699,-0.9905532598495483,-1.0,2021-01-21 23:04:55.278000+00:00,train
700,-0.9910153150558472,-1.0,2021-01-21 23:05:25.278000+00:00,train
701,-0.9908670783042908,-1.0,2021-01-21 23:05:55.278000+00:00,train
702,-0.9907514452934265,-1.0,2021-01-21 23:06:25.278000+00:00,train
703,-0.9910497665405273,-1.0,2021-01-21 23:06:55.278000+00:00,train
704,-0.991398274898529,-1.0,2021-01-21 23:07:25.278000+00:00,train
705,-0.9917730093002319,-1.0,2021-01-21 23:07:55.278000+00:00,train
706,-0.9909263253211975,-1.0,2021-01-21 23:08:25.278000+00:00,train
707,-0.9908044338226318,-1.0,2021-01-21 23:08:55.278000+00:00,train
708,-0.9909000992774963,-1.0,2021-01-21 23:09:25.278000+00:00,train
709,-0.9911198616027832,-1.0,2021-01-21 23:09:55.278000+00:00,train
710,-0.991467297077179,-1.0,2021-01-21 23:10:25.278000+00:00,train
711,-0.9918909072875977,-1.0,2021-01-21 23:10:55.278000+00:00,train
712,-0.9923768639564514,-1.0,2021-01-21 23:11:25.278000+00:00,train
713,-0.9929530620574951,-1.0,2021-01-21 23:11:55.278000+00:00,train
714,-0.9932669401168823,-1.0,2021-01-21 23:12:25.278000+00:00,train
715,-0.993552565574646,-1.0,2021-01-21 23:12:55.278000+00:00,train
716,-0.9938638806343079,-1.0,2021-01-21 23:13:25.278000+00:00,train
717,-0.9941751956939697,-1.0,2021-01-21 23:13:55.278000+00:00,train
718,-0.9944794774055481,-1.0,2021-01-21 23:14:25.278000+00:00,train
719,-0.994771420955658,-1.0,2021-01-21 23:14:55.278000+00:00,train
720,-0.9950765371322632,-1.0,2021-01-21 23:15:25.278000+00:00,train
721,-0.9953275322914124,-1.0,2021-01-21 23:15:55.278000+00:00,train
722,-0.9955935478210449,-1.0,2021-01-21 23:16:25.278000+00:00,train
723,-0.9958555698394775,-1.0,2021-01-21 23:16:55.278000+00:00,train
724,-0.9961093068122864,-1.0,2021-01-21 23:17:25.278000+00:00,train
725,-0.9963521957397461,-1.0,2021-01-21 23:17:55.278000+00:00,train
726,-0.9965688586235046,-1.0,2021-01-21 23:18:25.278000+00:00,train
727,-0.9967989921569824,-1.0,2021-01-21 23:18:55.278000+00:00,train
728,-0.9970263838768005,-1.0,2021-01-21 23:19:25.278000+00:00,train
729,-0.9972480535507202,-1.0,2021-01-21 23:19:55.278000+00:00,train
730,-0.9974623322486877,-1.0,2021-01-21 23:20:25.278000+00:00,train
731,-0.9976685047149658,-1.0,2021-01-21 23:20:55.278000+00:00,train
732,-0.9980167746543884,-1.0,2021-01-21 23:21:25.278000+00:00,train
733,-0.9982680678367615,-1.0,2021-01-21 23:21:55.278000+00:00,train
734,-0.9984880685806274,-1.0,2021-01-21 23:22:25.278000+00:00,train
735,-0.9986922144889832,-1.0,2021-01-21 23:22:55.278000+00:00,train
736,-0.9988889694213867,-1.0,2021-01-21 23:23:25.278000+00:00,train
737,-0.9990248084068298,-1.0,2021-01-21 23:23:55.278000+00:00,train
738,-0.999133825302124,-1.0,2021-01-21 23:24:25.278000+00:00,train
739,-0.9992508888244629,-1.0,2021-01-21 23:24:55.278000+00:00,train
740,-0.999366819858551,-1.0,2021-01-21 23:25:25.278000+00:00,train
741,-0.9994796514511108,-1.0,2021-01-21 23:25:55.278000+00:00,train
742,-0.9995889067649841,-1.0,2021-01-21 23:26:25.278000+00:00,train
743,-0.9996839165687561,-1.0,2021-01-21 23:26:55.278000+00:00,train
744,-0.9997875094413757,-1.0,2021-01-21 23:27:25.278000+00:00,train
745,-0.9998911619186401,-1.0,2021-01-21 23:27:55.278000+00:00,train
746,-0.9999933242797852,-1.0,2021-01-21 23:28:25.278000+00:00,train
747,-1.0000934600830078,-1.0,2021-01-21 23:28:55.278000+00:00,train
748,-1.000191330909729,-1.0,2021-01-21 23:29:25.278000+00:00,train
749,-1.0002785921096802,-1.0,2021-01-21 23:29:55.278000+00:00,train
750,-1.0003740787506104,-1.0,2021-01-21 23:30:25.278000+00:00,train
751,-1.0004706382751465,-1.0,2021-01-21 23:30:55.278000+00:00,train
752,-1.0005667209625244,-1.0,2021-01-21 23:31:25.278000+00:00,train
753,-1.000662088394165,-1.0,2021-01-21 23:31:55.278000+00:00,train
754,-1.0008245706558228,-1.0,2021-01-21 23:32:25.278000+00:00,train
755,-1.0009260177612305,-1.0,2021-01-21 23:32:55.278000+00:00,train
756,-1.0010219812393188,-1.0,2021-01-21 23:33:25.278000+00:00,train
757,-1.0011121034622192,-1.0,2021-01-21 23:33:55.278000+00:00,train
758,-1.0011976957321167,-1.0,2021-01-21 23:34:25.278000+00:00,train
759,-1.001276969909668,-1.0,2021-01-21 23:34:55.278000+00:00,train
760,-1.0013333559036255,-1.0,2021-01-21 23:35:25.278000+00:00,train
761,-1.0013771057128906,-1.0,2021-01-21 23:35:55.278000+00:00,train
762,-1.0014222860336304,-1.0,2021-01-21 23:36:25.278000+00:00,train
763,-1.0014632940292358,-1.0,2021-01-21 23:36:55.278000+00:00,train
764,-1.0014986991882324,-1.0,2021-01-21 23:37:25.278000+00:00,train
765,-1.001528024673462,-1.0,2021-01-21 23:37:55.278000+00:00,train
766,-1.0015448331832886,-1.0,2021-01-21 23:38:25.278000+00:00,train
767,-1.0015591382980347,-1.0,2021-01-21 23:38:55.278000+00:00,train
768,-1.0015653371810913,-1.0,2021-01-21 23:39:25.278000+00:00,train
769,-1.0015619993209839,-1.0,2021-01-21 23:39:55.278000+00:00,train
770,-1.0015486478805542,-1.0,2021-01-21 23:40:25.278000+00:00,train
771,-1.0015250444412231,-1.0,2021-01-21 23:40:55.278000+00:00,train
772,-1.001478672027588,-1.0,2021-01-21 23:41:25.278000+00:00,train
773,-1.0014208555221558,-1.0,2021-01-21 23:41:55.278000+00:00,train
774,-1.0013455152511597,-1.0,2021-01-21 23:42:25.278000+00:00,train
775,-1.001251220703125,-1.0,2021-01-21 23:42:55.278000+00:00,train
776,-1.0011351108551025,-1.0,2021-01-21 23:43:25.278000+00:00,train
777,-1.0009746551513672,-1.0,2021-01-21 23:43:55.278000+00:00,train
778,-1.0007758140563965,-1.0,2021-01-21 23:44:25.278000+00:00,train
779,-1.0005457401275635,-1.0,2021-01-21 23:44:55.278000+00:00,train
780,-1.0002784729003906,-1.0,2021-01-21 23:45:25.278000+00:00,train
781,-0.9999583959579468,-1.0,2021-01-21 23:45:55.278000+00:00,train
782,-0.9996331930160522,-1.0,2021-01-21 23:46:25.278000+00:00,train
783,-0.9994988441467285,-1.0,2021-01-21 23:46:55.278000+00:00,train
784,-0.9993638396263123,-1.0,2021-01-21 23:47:25.278000+00:00,train
785,-0.9992477297782898,-1.0,2021-01-21 23:47:55.278000+00:00,train
786,-0.9991530776023865,-1.0,2021-01-21 23:48:25.278000+00:00,train
787,-0.999081552028656,-1.0,2021-01-21 23:48:55.278000+00:00,train
788,-0.9990249276161194,-1.0,2021-01-21 23:49:25.278000+00:00,train
789,-0.9989790916442871,-1.0,2021-01-21 23:49:55.278000+00:00,train
790,-0.9989559650421143,-1.0,2021-01-21 23:50:25.278000+00:00,train
791,-0.9989494681358337,-1.0,2021-01-21 23:50:55.278000+00:00,train
792,-0.9989562034606934,-1.0,2021-01-21 23:51:25.278000+00:00,train
793,-0.9989727139472961,-1.0,2021-01-21 23:51:55.278000+00:00,train
794,-0.9989925622940063,-1.0,2021-01-21 23:52:25.278000+00:00,train
795,-0.999016284942627,-1.0,2021-01-21 23:52:55.278000+00:00,train
796,-0.9990429878234863,-1.0,2021-01-21 23:53:25.278000+00:00,train
797,-0.9990634918212891,-1.0,2021-01-21 23:53:55.278000+00:00,train
798,-0.9990886449813843,-1.0,2021-01-21 23:54:25.278000+00:00,train
799,-1.0,-1.0,2021-01-21 23:54:55.278000+00:00,train
800,-1.0,-1.0,2021-01-21 23:55:25.278000+00:00,train
801,-1.0,-1.0,2021-01-21 23:55:55.278000+00:00,train
802,-1.0,-1.0,2021-01-21 23:56:25.278000+00:00,train
803,-1.0,-1.0,2021-01-21 23:56:55.278000+00:00,train
804,-1.0,-1.0,2021-01-21 23:57:25.278000+00:00,train
805,-1.0,-1.0,2021-01-21 23:57:55.278000+00:00,train
806,-1.0,-1.0,2021-01-21 23:58:25.278000+00:00,train
807,-1.0,-1.0,2021-01-21 23:58:55.278000+00:00,train
808,-1.0,-1.0,2021-01-21 23:59:25.278000+00:00,train
809,-1.0,-1.0,2021-01-21 23:59:55.278000+00:00,train
810,-1.0,-1.0,2021-01-22 00:00:25.278000+00:00,train
811,-1.0,-1.0,2021-01-22 00:00:55.278000+00:00,train
812,-1.0,-1.0,2021-01-22 00:01:25.278000+00:00,train
813,-1.0,-1.0,2021-01-22 00:01:55.278000+00:00,train
814,-1.0,-1.0,2021-01-22 00:02:25.278000+00:00,train
815,-1.0,-1.0,2021-01-22 00:02:55.278000+00:00,train
816,-1.0,-1.0,2021-01-22 00:03:25.278000+00:00,train
817,-1.0,-1.0,2021-01-22 00:03:55.278000+00:00,train
818,-1.0,-1.0,2021-01-22 00:04:25.278000+00:00,train
819,-1.0,-1.0,2021-01-22 00:04:55.278000+00:00,train
820,-1.0,-1.0,2021-01-22 00:05:25.278000+00:00,train
821,-1.0,-1.0,2021-01-22 00:05:55.278000+00:00,train
822,-1.0,-1.0,2021-01-22 00:06:25.278000+00:00,train
823,-1.0,-1.0,2021-01-22 00:06:55.278000+00:00,train
824,-1.0,-1.0,2021-01-22 00:07:25.278000+00:00,train
825,-1.0,-1.0,2021-01-22 00:07:55.278000+00:00,train
826,-1.0,-1.0,2021-01-22 00:08:25.278000+00:00,train
827,-1.0,-1.0,2021-01-22 00:08:55.278000+00:00,train
828,-1.0,-1.0,2021-01-22 00:09:25.278000+00:00,train
829,-1.0,-1.0,2021-01-22 00:09:55.278000+00:00,train
830,-1.0,-1.0,2021-01-22 00:10:25.278000+00:00,train
831,-1.0,-1.0,2021-01-22 00:10:55.278000+00:00,train
832,-1.0,-1.0,2021-01-22 00:11:25.278000+00:00,train
833,-1.0,-1.0,2021-01-22 00:11:55.278000+00:00,train
834,-1.0,-1.0,2021-01-22 00:12:25.278000+00:00,train
835,-1.0,-1.0,2021-01-22 00:12:55.278000+00:00,train
836,-1.0,-1.0,2021-01-22 00:13:25.278000+00:00,train
837,-1.0,-1.0,2021-01-22 00:13:55.278000+00:00,train
838,-1.0,-1.0,2021-01-22 00:14:25.278000+00:00,train
839,-1.0,-1.0,2021-01-22 00:14:55.278000+00:00,train
840,-1.0,-1.0,2021-01-22 00:15:25.278000+00:00,train
841,-1.0,-1.0,2021-01-22 00:15:55.278000+00:00,train
842,-1.0,-1.0,2021-01-22 00:16:25.278000+00:00,train
843,-1.0,-1.0,2021-01-22 00:16:55.278000+00:00,train
844,-1.0,-1.0,2021-01-22 00:17:25.278000+00:00,train
845,-1.0,-1.0,2021-01-22 00:17:55.278000+00:00,train
846,-1.0,-1.0,2021-01-22 00:18:25.278000+00:00,train
847,-1.0,-1.0,2021-01-22 00:18:55.278000+00:00,train
848,-1.0,-1.0,2021-01-22 00:19:25.278000+00:00,train
849,-1.0,-1.0,2021-01-22 00:19:55.278000+00:00,train
850,-1.0,-1.0,2021-01-22 00:20:25.278000+00:00,train
851,-1.0,-1.0,2021-01-22 00:20:55.278000+00:00,train
852,-1.0,-1.0,2021-01-22 00:21:25.278000+00:00,train
853,-1.0,-1.0,2021-01-22 00:21:55.278000+00:00,train
854,-1.0,-1.0,2021-01-22 00:22:25.278000+00:00,train
855,-1.0,-1.0,2021-01-22 00:22:55.278000+00:00,train
856,-1.0,-1.0,2021-01-22 00:23:25.278000+00:00,train
857,-1.0,-1.0,2021-01-22 00:23:55.278000+00:00,train
858,-1.0,-1.0,2021-01-22 00:24:25.278000+00:00,train
859,-1.0,-1.0,2021-01-22 00:24:55.278000+00:00,train
860,-1.0,-1.0,2021-01-22 00:25:25.278000+00:00,train
861,-1.0,-1.0,2021-01-22 00:25:55.278000+00:00,train
862,-1.0,-1.0,2021-01-22 00:26:25.278000+00:00,train
863,-1.0,-1.0,2021-01-22 00:26:55.278000+00:00,train
864,-1.0,-1.0,2021-01-22 00:27:25.278000+00:00,train
865,-1.0,-1.0,2021-01-22 00:27:55.278000+00:00,train
866,-1.0,-1.0,2021-01-22 00:28:25.278000+00:00,train
867,-1.0,-1.0,2021-01-22 00:28:55.278000+00:00,train
868,-1.0,-1.0,2021-01-22 00:29:25.278000+00:00,train
869,-1.0,-1.0,2021-01-22 00:29:55.278000+00:00,train
870,-1.0,-1.0,2021-01-22 00:30:25.278000+00:00,train
871,-1.0,-1.0,2021-01-22 00:30:55.278000+00:00,train
872,-1.0,-1.0,2021-01-22 00:31:25.278000+00:00,train
873,-1.0,-1.0,2021-01-22 00:31:55.278000+00:00,train
874,-1.0,-1.0,2021-01-22 00:32:25.278000+00:00,train
875,-1.0,-1.0,2021-01-22 00:32:55.278000+00:00,train
876,-1.0,-1.0,2021-01-22 00:33:25.278000+00:00,train
877,-1.0,-1.0,2021-01-22 00:33:55.278000+00:00,train
878,-1.0,-1.0,2021-01-22 00:34:25.278000+00:00,train
879,-1.0,-1.0,2021-01-22 00:34:55.278000+00:00,train
880,-1.0,-1.0,2021-01-22 00:35:25.278000+00:00,train
881,-1.0,-1.0,2021-01-22 00:35:55.278000+00:00,train
882,-1.0,-1.0,2021-01-22 00:36:25.278000+00:00,train
883,-1.0,-1.0,2021-01-22 00:36:55.278000+00:00,train
884,-1.0,-1.0,2021-01-22 00:37:25.278000+00:00,train
885,-1.0,-1.0,2021-01-22 00:37:55.278000+00:00,train
886,-1.0,-1.0,2021-01-22 00:38:25.278000+00:00,train
887,-1.0,-1.0,2021-01-22 00:38:55.278000+00:00,train
888,-1.0,-1.0,2021-01-22 00:39:25.278000+00:00,train
889,-1.0,-1.0,2021-01-22 00:39:55.278000+00:00,train
890,-1.0,-1.0,2021-01-22 00:40:25.278000+00:00,train
891,-1.0,-1.0,2021-01-22 00:40:55.278000+00:00,train
892,-1.0,-1.0,2021-01-22 00:41:25.278000+00:00,train
893,-1.0,-1.0,2021-01-22 00:41:55.278000+00:00,train
894,-1.0,-1.0,2021-01-22 00:42:25.278000+00:00,train
895,-1.0,-1.0,2021-01-22 00:42:55.278000+00:00,train
896,-1.0,-1.0,2021-01-22 00:43:25.278000+00:00,train
897,-1.0,-1.0,2021-01-22 00:43:55.278000+00:00,train
898,-1.0,-1.0,2021-01-22 00:44:25.278000+00:00,train
899,-1.0,-1.0,2021-01-22 00:44:55.278000+00:00,train
900,-1.0,-1.0,2021-01-22 00:45:25.278000+00:00,train
901,-1.0,-1.0,2021-01-22 00:45:55.278000+00:00,train
902,-1.0,-1.0,2021-01-22 00:46:25.278000+00:00,train
903,-1.0,-1.0,2021-01-22 00:46:55.278000+00:00,train
904,-1.0,-1.0,2021-01-22 00:47:25.278000+00:00,train
905,-1.0,-1.0,2021-01-22 00:47:55.278000+00:00,train
906,-1.0,-1.0,2021-01-22 00:48:25.278000+00:00,train
907,-1.0,-1.0,2021-01-22 00:48:55.278000+00:00,train
908,-1.0,-1.0,2021-01-22 00:49:25.278000+00:00,train
909,-1.0,-1.0,2021-01-22 00:49:55.278000+00:00,train
910,-1.0,-1.0,2021-01-22 00:50:25.278000+00:00,train
911,-1.0,-1.0,2021-01-22 00:50:55.278000+00:00,train
912,-1.0,-1.0,2021-01-22 00:51:25.278000+00:00,train
913,-1.0,-1.0,2021-01-22 00:51:55.278000+00:00,train
914,-1.0,-1.0,2021-01-22 00:52:25.278000+00:00,train
915,-1.0,-1.0,2021-01-22 00:52:55.278000+00:00,train
916,-1.0,-1.0,2021-01-22 00:53:25.278000+00:00,train
917,-1.0,-1.0,2021-01-22 00:53:55.278000+00:00,train
918,-1.0,-1.0,2021-01-22 00:54:25.278000+00:00,train
919,-1.0,-1.0,2021-01-22 00:54:55.278000+00:00,train
920,-1.0,-1.0,2021-01-22 00:55:25.278000+00:00,train
921,-1.0,-1.0,2021-01-22 00:55:55.278000+00:00,train
922,-1.0,-1.0,2021-01-22 00:56:25.278000+00:00,train
923,-1.0,-1.0,2021-01-22 00:56:55.278000+00:00,train
924,-1.0,-1.0,2021-01-22 00:57:25.278000+00:00,train
925,-1.0,-1.0,2021-01-22 00:57:55.278000+00:00,train
926,-1.0,-1.0,2021-01-22 00:58:25.278000+00:00,train
927,-1.0,-1.0,2021-01-22 00:58:55.278000+00:00,train
928,-1.0,-1.0,2021-01-22 00:59:25.278000+00:00,train
929,-1.0,-1.0,2021-01-22 00:59:55.278000+00:00,train
930,-1.0,-1.0,2021-01-22 01:00:25.278000+00:00,train
931,-1.0,-1.0,2021-01-22 01:00:55.278000+00:00,train
932,-1.0,-1.0,2021-01-22 01:01:25.278000+00:00,train
933,-1.0,-1.0,2021-01-22 01:01:55.278000+00:00,train
934,-1.0,-1.0,2021-01-22 01:02:25.278000+00:00,train
935,-1.0,-1.0,2021-01-22 01:02:55.278000+00:00,train
936,-1.0,-1.0,2021-01-22 01:03:25.278000+00:00,train
937,-1.0,-1.0,2021-01-22 01:03:55.278000+00:00,train
938,-1.0,-1.0,2021-01-22 01:04:25.278000+00:00,train
939,-1.0,-1.0,2021-01-22 01:04:55.278000+00:00,train
940,-1.0,-1.0,2021-01-22 01:05:25.278000+00:00,train
941,-1.0,-1.0,2021-01-22 01:05:55.278000+00:00,train
942,-1.0,-1.0,2021-01-22 01:06:25.278000+00:00,train
943,-1.0,-1.0,2021-01-22 01:06:55.278000+00:00,train
944,-1.0,-1.0,2021-01-22 01:07:25.278000+00:00,train
945,-1.0,-1.0,2021-01-22 01:07:55.278000+00:00,train
946,-1.0,-1.0,2021-01-22 01:08:25.278000+00:00,train
947,-1.0,-1.0,2021-01-22 01:08:55.278000+00:00,train
948,-1.0,-1.0,2021-01-22 01:09:25.278000+00:00,train
949,-1.0,-1.0,2021-01-22 01:09:55.278000+00:00,train
950,-1.0,-1.0,2021-01-22 01:10:25.278000+00:00,train
951,-1.0,-1.0,2021-01-22 01:10:55.278000+00:00,train
952,-1.0,-1.0,2021-01-22 01:11:25.278000+00:00,train
953,-1.0,-1.0,2021-01-22 01:11:55.278000+00:00,train
954,-1.0,-1.0,2021-01-22 01:12:25.278000+00:00,train
955,-1.0,-1.0,2021-01-22 01:12:55.278000+00:00,train
956,-1.0,-1.0,2021-01-22 01:13:25.278000+00:00,train
957,-1.0,-1.0,2021-01-22 01:13:55.278000+00:00,train
958,-1.0,-1.0,2021-01-22 01:14:25.278000+00:00,train
959,-1.0,-1.0,2021-01-22 01:14:55.278000+00:00,train
960,-1.0,-1.0,2021-01-22 01:15:25.278000+00:00,train
961,-1.0,-1.0,2021-01-22 01:15:55.278000+00:00,train
962,-1.0,-1.0,2021-01-22 01:16:25.278000+00:00,train
963,-1.0,-1.0,2021-01-22 01:16:55.278000+00:00,train
964,-1.0,-1.0,2021-01-22 01:17:25.278000+00:00,train
965,-1.0,-1.0,2021-01-22 01:17:55.278000+00:00,train
966,-1.0,-1.0,2021-01-22 01:18:25.278000+00:00,train
967,-1.0,-1.0,2021-01-22 01:18:55.278000+00:00,train
968,-1.0,-1.0,2021-01-22 01:19:25.278000+00:00,train
969,-1.0,-1.0,2021-01-22 01:19:55.278000+00:00,train
970,-1.0,-1.0,2021-01-22 01:20:25.278000+00:00,train
971,-1.0,-1.0,2021-01-22 01:20:55.278000+00:00,train
972,-1.0,-1.0,2021-01-22 01:21:25.278000+00:00,train
973,-1.0,-1.0,2021-01-22 01:21:55.278000+00:00,train
974,-1.0,-1.0,2021-01-22 01:22:25.278000+00:00,train
975,-1.0,-1.0,2021-01-22 01:22:55.278000+00:00,train
976,-1.0,-1.0,2021-01-22 01:23:25.278000+00:00,train
977,-1.0,-1.0,2021-01-22 01:23:55.278000+00:00,train
978,-1.0,-1.0,2021-01-22 01:24:25.278000+00:00,train
979,-1.0,-1.0,2021-01-22 01:24:55.278000+00:00,train
980,-1.0,-1.0,2021-01-22 01:25:25.278000+00:00,train
981,-1.0,-1.0,2021-01-22 01:25:55.278000+00:00,train
982,-1.0,-1.0,2021-01-22 01:26:25.278000+00:00,train
983,-1.0,-1.0,2021-01-22 01:26:55.278000+00:00,train
984,-1.0,-1.0,2021-01-22 01:27:25.278000+00:00,train
985,-1.0,-1.0,2021-01-22 01:27:55.278000+00:00,train
986,-1.0,-1.0,2021-01-22 01:28:25.278000+00:00,train
987,-1.0,-1.0,2021-01-22 01:28:55.278000+00:00,train
988,-1.0,-1.0,2021-01-22 01:29:25.278000+00:00,train
989,-1.0,-1.0,2021-01-22 01:29:55.278000+00:00,train
990,-1.0,-1.0,2021-01-22 01:30:25.278000+00:00,train
991,-1.0,-1.0,2021-01-22 01:30:55.278000+00:00,train
992,-1.0,-1.0,2021-01-22 01:31:25.278000+00:00,train
993,-1.0,-1.0,2021-01-22 01:31:55.278000+00:00,train
994,-1.0,-1.0,2021-01-22 01:32:25.278000+00:00,train
995,-1.0,0.0,2021-01-22 01:32:55.278000+00:00,train
996,-1.0,0.0,2021-01-22 01:33:25.278000+00:00,train
997,-1.0,0.0,2021-01-22 01:33:55.278000+00:00,train
998,-1.0,0.0,2021-01-22 01:34:25.278000+00:00,train
999,-1.0,0.0,2021-01-22 01:34:55.278000+00:00,train
1000,-1.0,0.0,2021-01-22 01:35:25.278000+00:00,train
1001,-1.0,0.0,2021-01-22 01:35:55.278000+00:00,train
1002,-1.0,0.0,2021-01-22 01:36:25.278000+00:00,train
1003,-0.8116998672485352,0.0,2021-01-22 01:36:55.278000+00:00,train
1004,-0.7293252944946289,0.0,2021-01-22 01:37:25.278000+00:00,train
1005,-0.6647325754165649,-1.0,2021-01-22 01:37:55.278000+00:00,train
1006,-0.6096429824829102,0.0,2021-01-22 01:38:25.278000+00:00,train
1007,-0.5608602166175842,0.0,2021-01-22 01:38:55.278000+00:00,train
1008,-0.5168139338493347,0.0,2021-01-22 01:39:25.278000+00:00,train
1009,-0.4766506552696228,0.0,2021-01-22 01:39:55.278000+00:00,train
1010,-0.4399467706680298,0.0,2021-01-22 01:40:25.278000+00:00,train
1011,-0.4065851867198944,0.0,2021-01-22 01:40:55.278000+00:00,train
1012,-0.37672820687294006,0.0,2021-01-22 01:41:25.278000+00:00,train
1013,-0.3769397735595703,0.0,2021-01-22 01:41:55.278000+00:00,train
1014,-0.3511334955692291,0.0,2021-01-22 01:42:25.278000+00:00,train
1015,-0.3300386667251587,0.0,2021-01-22 01:42:55.278000+00:00,train
1016,-0.31466251611709595,0.0,2021-01-22 01:43:25.278000+00:00,train
1017,-0.30607983469963074,0.0,2021-01-22 01:43:55.278000+00:00,train
1018,-0.30657172203063965,0.0,2021-01-22 01:44:25.278000+00:00,train
1019,-0.3213251829147339,0.0,2021-01-22 01:44:55.278000+00:00,train
1020,-0.3356491029262543,0.0,2021-01-22 01:45:25.278000+00:00,train
1021,-0.3282667398452759,0.0,2021-01-22 01:45:55.278000+00:00,train
1022,-0.3116917908191681,0.0,2021-01-22 01:46:25.278000+00:00,train
1023,-0.29425129294395447,0.0,2021-01-22 01:46:55.278000+00:00,train
1024,-0.2772349715232849,0.0,2021-01-22 01:47:25.278000+00:00,train
1025,-0.26038289070129395,0.0,2021-01-22 01:47:55.278000+00:00,train
1026,-0.2433294802904129,0.0,2021-01-22 01:48:25.278000+00:00,train
1027,-0.22629782557487488,0.0,2021-01-22 01:48:55.278000+00:00,train
1028,-0.20949308574199677,0.0,2021-01-22 01:49:25.278000+00:00,train
1029,-0.1929820328950882,0.0,2021-01-22 01:49:55.278000+00:00,train
1030,-0.17675650119781494,0.0,2021-01-22 01:50:25.278000+00:00,train
1031,-0.16080182790756226,0.0,2021-01-22 01:50:55.278000+00:00,train
1032,-0.14511409401893616,0.0,2021-01-22 01:51:25.278000+00:00,train
1033,-0.1296948492527008,0.0,2021-01-22 01:51:55.278000+00:00,train
1034,-0.1145482286810875,0.0,2021-01-22 01:52:25.278000+00:00,train
1035,-0.09967751055955887,0.0,2021-01-22 01:52:55.278000+00:00,train
1036,-0.0850849524140358,0.0,2021-01-22 01:53:25.278000+00:00,train
1037,-0.07077235728502274,0.0,2021-01-22 01:53:55.278000+00:00,train
1038,-0.05673883855342865,0.0,2021-01-22 01:54:25.278000+00:00,train
1039,-0.04298374056816101,0.0,2021-01-22 01:54:55.278000+00:00,train
1040,-0.029505038633942604,0.0,2021-01-22 01:55:25.278000+00:00,train
1041,-0.016300760209560394,0.0,2021-01-22 01:55:55.278000+00:00,train
1042,-0.0033683551009744406,0.0,2021-01-22 01:56:25.278000+00:00,train
1043,0.009295321069657803,0.0,2021-01-22 01:56:55.278000+00:00,train
1044,0.02169288508594036,0.0,2021-01-22 01:57:25.278000+00:00,train
1045,0.03382673114538193,0.0,2021-01-22 01:57:55.278000+00:00,train
1046,0.04569916054606438,0.0,2021-01-22 01:58:25.278000+00:00,train
1047,0.05731566622853279,0.0,2021-01-22 01:58:55.278000+00:00,train
1048,0.06867282837629318,0.0,2021-01-22 01:59:25.278000+00:00,train
1049,0.07977445423603058,0.0,2021-01-22 01:59:55.278000+00:00,train
1050,0.09062349051237106,0.0,2021-01-22 02:00:25.278000+00:00,train
1051,0.10122199356555939,0.0,2021-01-22 02:00:55.278000+00:00,train
1052,0.11157167702913284,0.0,2021-01-22 02:01:25.278000+00:00,train
1053,0.12167400121688843,0.0,2021-01-22 02:01:55.278000+00:00,train
1054,0.13152988255023956,0.0,2021-01-22 02:02:25.278000+00:00,train
1055,0.14113935828208923,0.0,2021-01-22 02:02:55.278000+00:00,train
1056,0.15050183236598969,0.0,2021-01-22 02:03:25.278000+00:00,train
1057,-0.08902526646852493,0.0,2021-01-22 02:03:55.278000+00:00,train
1058,-0.0819806456565857,0.0,2021-01-22 02:04:25.278000+00:00,train
1059,-0.074918732047081,0.0,2021-01-22 02:04:55.278000+00:00,train
1060,-0.06787661463022232,0.0,2021-01-22 02:05:25.278000+00:00,train
1061,-0.060870300978422165,0.0,2021-01-22 02:05:55.278000+00:00,train
1062,-0.05390280857682228,0.0,2021-01-22 02:06:25.278000+00:00,train
1063,-0.04696774482727051,0.0,2021-01-22 02:06:55.278000+00:00,train
1064,-0.04005374014377594,0.0,2021-01-22 02:07:25.278000+00:00,train
1065,-0.033150263130664825,0.0,2021-01-22 02:07:55.278000+00:00,train
1066,-0.026257246732711792,0.0,2021-01-22 02:08:25.278000+00:00,train
1067,-0.019400591030716896,0.0,2021-01-22 02:08:55.278000+00:00,train
1068,-0.012656455859541893,0.0,2021-01-22 02:09:25.278000+00:00,train
1069,-0.006178651005029678,0.0,2021-01-22 02:09:55.278000+00:00,train
1070,-0.0008137876284308732,0.0,2021-01-22 02:10:25.278000+00:00,train
1071,0.0038539122324436903,0.0,2021-01-22 02:10:55.278000+00:00,train
1072,0.006923201028257608,0.0,2021-01-22 02:11:25.278000+00:00,train
1073,0.007561147678643465,0.0,2021-01-22 02:11:55.278000+00:00,train
1074,0.005308986641466618,0.0,2021-01-22 02:12:25.278000+00:00,train
1075,-0.0008039235835894942,0.0,2021-01-22 02:12:55.278000+00:00,train
1076,-0.01465686783194542,0.0,2021-01-22 02:13:25.278000+00:00,train
1077,-0.03242820128798485,0.0,2021-01-22 02:13:55.278000+00:00,train
1078,-0.038745954632759094,0.0,2021-01-22 02:14:25.278000+00:00,train
1079,-0.038434095680713654,0.0,2021-01-22 02:14:55.278000+00:00,train
1080,-0.03612244874238968,0.0,2021-01-22 02:15:25.278000+00:00,train
1081,-0.032970819622278214,0.0,2021-01-22 02:15:55.278000+00:00,train
1082,-0.029428934678435326,0.0,2021-01-22 02:16:25.278000+00:00,train
1083,-0.02567843161523342,0.0,2021-01-22 02:16:55.278000+00:00,train
1084,-0.021658746525645256,0.0,2021-01-22 02:17:25.278000+00:00,train
1085,-0.017317328602075577,0.0,2021-01-22 02:17:55.278000+00:00,train
1086,-0.012681277468800545,0.0,2021-01-22 02:18:25.278000+00:00,train
1087,-0.007825669832527637,0.0,2021-01-22 02:18:55.278000+00:00,train
1088,-0.002834334969520569,0.0,2021-01-22 02:19:25.278000+00:00,train
1089,0.0022215628996491432,0.0,2021-01-22 02:19:55.278000+00:00,train
1090,0.007262657396495342,0.0,2021-01-22 02:20:25.278000+00:00,train
1091,0.012223033234477043,0.0,2021-01-22 02:20:55.278000+00:00,train
1092,0.017039401456713676,0.0,2021-01-22 02:21:25.278000+00:00,train
1093,0.021647561341524124,0.0,2021-01-22 02:21:55.278000+00:00,train
1094,0.025977453216910362,0.0,2021-01-22 02:22:25.278000+00:00,train
1095,0.029949301853775978,0.0,2021-01-22 02:22:55.278000+00:00,train
1096,0.033464591950178146,0.0,2021-01-22 02:23:25.278000+00:00,train
1097,0.036392148584127426,0.0,2021-01-22 02:23:55.278000+00:00,train
1098,0.03863600641489029,0.0,2021-01-22 02:24:25.278000+00:00,train
1099,0.039963044226169586,0.0,2021-01-22 02:24:55.278000+00:00,train
1100,0.0398816280066967,0.0,2021-01-22 02:25:25.278000+00:00,train
1101,0.03761531412601471,0.0,2021-01-22 02:25:55.278000+00:00,val
1102,0.03367747366428375,0.0,2021-01-22 02:26:25.278000+00:00,val
1103,0.033678241074085236,0.0,2021-01-22 02:26:55.278000+00:00,val
1104,0.03367902338504791,0.0,2021-01-22 02:27:25.278000+00:00,val
1105,0.033679813146591187,0.0,2021-01-22 02:27:55.278000+00:00,val
1106,0.03368063271045685,0.0,2021-01-22 02:28:25.278000+00:00,val
1107,0.03368143364787102,0.0,2021-01-22 02:28:55.278000+00:00,val
1108,0.03368230164051056,0.0,2021-01-22 02:29:25.278000+00:00,val
1109,0.033683180809020996,0.0,2021-01-22 02:29:55.278000+00:00,val
1110,0.033683933317661285,0.0,2021-01-22 02:30:25.278000+00:00,val
1111,0.03368382900953293,0.0,2021-01-22 02:30:55.278000+00:00,val
1112,0.033686425536870956,0.0,2021-01-22 02:31:25.278000+00:00,val
1113,0.0,0.0,2021-01-22 02:31:55.278000+00:00,val
1114,0.0,0.0,2021-01-22 02:32:25.278000+00:00,val
1115,0.0,0.0,2021-01-22 02:32:55.278000+00:00,val
1116,0.0,0.0,2021-01-22 02:33:25.278000+00:00,val
1117,0.0,0.0,2021-01-22 02:33:55.278000+00:00,val
1118,0.0,0.0,2021-01-22 02:34:25.278000+00:00,val
1119,0.0,0.0,2021-01-22 02:34:55.278000+00:00,val
1120,0.0,0.0,2021-01-22 02:35:25.278000+00:00,val
1121,0.0,0.0,2021-01-22 02:35:55.278000+00:00,val
1122,0.0,0.0,2021-01-22 02:36:25.278000+00:00,val
1123,0.0,0.0,2021-01-22 02:36:55.278000+00:00,val
1124,0.0,0.0,2021-01-22 02:37:25.278000+00:00,val
1125,0.0,0.0,2021-01-22 02:37:55.278000+00:00,val
1126,0.0,0.0,2021-01-22 02:38:25.278000+00:00,val
1127,0.0,0.0,2021-01-22 02:38:55.278000+00:00,val
1128,0.0,0.0,2021-01-22 02:39:25.278000+00:00,val
1129,0.0,0.0,2021-01-22 02:39:55.278000+00:00,val
1130,0.0,0.0,2021-01-22 02:40:25.278000+00:00,val
1131,0.0,0.0,2021-01-22 02:40:55.278000+00:00,val
1132,0.0,0.0,2021-01-22 02:41:25.278000+00:00,val
1133,0.0,0.0,2021-01-22 02:41:55.278000+00:00,val
1134,0.0,0.0,2021-01-22 02:42:25.278000+00:00,val
1135,0.0,0.0,2021-01-22 02:42:55.278000+00:00,val
1136,0.0,0.0,2021-01-22 02:43:25.278000+00:00,val
1137,0.0,0.0,2021-01-22 02:43:55.278000+00:00,val
1138,0.0,0.0,2021-01-22 02:44:25.278000+00:00,val
1139,0.0,0.0,2021-01-22 02:44:55.278000+00:00,val
1140,0.0,0.0,2021-01-22 02:45:25.278000+00:00,val
1141,0.0,0.0,2021-01-22 02:45:55.278000+00:00,val
1142,0.0,0.0,2021-01-22 02:46:25.278000+00:00,val
1143,0.0,0.0,2021-01-22 02:46:55.278000+00:00,val
1144,0.0,0.0,2021-01-22 02:47:25.278000+00:00,val
1145,0.0,0.0,2021-01-22 02:47:55.278000+00:00,val
1146,0.0,0.0,2021-01-22 02:48:25.278000+00:00,val
1147,0.0,0.0,2021-01-22 02:48:55.278000+00:00,val
1148,0.0,0.0,2021-01-22 02:49:25.278000+00:00,val
1149,0.0,0.0,2021-01-22 02:49:55.278000+00:00,val
1150,0.0,0.0,2021-01-22 02:50:25.278000+00:00,val
1151,0.0,0.0,2021-01-22 02:50:55.278000+00:00,val
1152,0.0,0.0,2021-01-22 02:51:25.278000+00:00,val
1153,0.0,0.0,2021-01-22 02:51:55.278000+00:00,val
1154,0.0,0.0,2021-01-22 02:52:25.278000+00:00,val
1155,0.0,0.0,2021-01-22 02:52:55.278000+00:00,val
1156,0.0,0.0,2021-01-22 02:53:25.278000+00:00,val
1157,0.0,0.0,2021-01-22 02:53:55.278000+00:00,val
1158,0.0,0.0,2021-01-22 02:54:25.278000+00:00,val
1159,0.0,0.0,2021-01-22 02:54:55.278000+00:00,val
1160,0.0,0.0,2021-01-22 02:55:25.278000+00:00,val
1161,0.0,0.0,2021-01-22 02:55:55.278000+00:00,val
1162,0.0,0.0,2021-01-22 02:56:25.278000+00:00,val
1163,0.0,0.0,2021-01-22 02:56:55.278000+00:00,val
1164,0.0,0.0,2021-01-22 02:57:25.278000+00:00,val
1165,0.0,0.0,2021-01-22 02:57:55.278000+00:00,val
1166,0.0,0.0,2021-01-22 02:58:25.278000+00:00,val
1167,0.0,0.0,2021-01-22 02:58:55.278000+00:00,val
1168,0.0,0.0,2021-01-22 02:59:25.278000+00:00,val
1169,0.0,0.0,2021-01-22 02:59:55.278000+00:00,val
1170,0.0,0.0,2021-01-22 03:00:25.278000+00:00,val
1171,0.0,0.0,2021-01-22 03:00:55.278000+00:00,val
1172,0.0,0.0,2021-01-22 03:01:25.278000+00:00,val
1173,0.0,0.0,2021-01-22 03:01:55.278000+00:00,val
1174,0.0,0.0,2021-01-22 03:02:25.278000+00:00,val
1175,0.0,0.0,2021-01-22 03:02:55.278000+00:00,val
1176,0.0,0.0,2021-01-22 03:03:25.278000+00:00,val
1177,0.0,0.0,2021-01-22 03:03:55.278000+00:00,val
1178,0.0,0.0,2021-01-22 03:04:25.278000+00:00,val
1179,0.0,0.0,2021-01-22 03:04:55.278000+00:00,val
1180,0.0,0.0,2021-01-22 03:05:25.278000+00:00,val
1181,0.0,0.0,2021-01-22 03:05:55.278000+00:00,val
1182,0.0,0.0,2021-01-22 03:06:25.278000+00:00,val
1183,0.0,0.0,2021-01-22 03:06:55.278000+00:00,val
1184,0.0,0.0,2021-01-22 03:07:25.278000+00:00,val
1185,0.0,0.0,2021-01-22 03:07:55.278000+00:00,val
1186,0.0,0.0,2021-01-22 03:08:25.278000+00:00,val
1187,0.0,0.0,2021-01-22 03:08:55.278000+00:00,val
1188,0.0,0.0,2021-01-22 03:09:25.278000+00:00,val
1189,0.0,0.0,2021-01-22 03:09:55.278000+00:00,val
1190,0.0,0.0,2021-01-22 03:10:25.278000+00:00,val
1191,0.0,0.0,2021-01-22 03:10:55.278000+00:00,val
1192,0.0,0.0,2021-01-22 03:11:25.278000+00:00,val
1193,0.0,0.0,2021-01-22 03:11:55.278000+00:00,val
1194,0.0,0.0,2021-01-22 03:12:25.278000+00:00,val
1195,0.0,0.0,2021-01-22 03:12:55.278000+00:00,val
1196,0.0,0.0,2021-01-22 03:13:25.278000+00:00,val
1197,0.0,0.0,2021-01-22 03:13:55.278000+00:00,val
1198,0.0,0.0,2021-01-22 03:14:25.278000+00:00,val
1199,0.0,0.0,2021-01-22 03:14:55.278000+00:00,val
1200,0.0,0.0,2021-01-22 03:15:25.278000+00:00,val
1201,0.0,0.0,2021-01-22 03:15:55.278000+00:00,val
1202,0.0,0.0,2021-01-22 03:16:25.278000+00:00,val
1203,0.0,0.0,2021-01-22 03:16:55.278000+00:00,val
1204,0.0,0.0,2021-01-22 03:17:25.278000+00:00,val
1205,0.0,0.0,2021-01-22 03:17:55.278000+00:00,val
1206,0.0,0.0,2021-01-22 03:18:25.278000+00:00,val
1207,0.0,0.0,2021-01-22 03:18:55.278000+00:00,val
1208,0.0,0.0,2021-01-22 03:19:25.278000+00:00,val
1209,0.0,0.0,2021-01-22 03:19:55.278000+00:00,val
1210,0.0,0.0,2021-01-22 03:20:25.278000+00:00,val
1211,0.0,0.0,2021-01-22 03:20:55.278000+00:00,val
1212,0.0,0.0,2021-01-22 03:21:25.278000+00:00,val
1213,0.0,0.0,2021-01-22 03:21:55.278000+00:00,val
1214,0.0,0.0,2021-01-22 03:22:25.278000+00:00,val
1215,0.0,0.0,2021-01-22 03:22:55.278000+00:00,val
1216,0.0,0.0,2021-01-22 03:23:25.278000+00:00,val
1217,0.0,0.0,2021-01-22 03:23:55.278000+00:00,val
1218,0.0,0.0,2021-01-22 03:24:25.278000+00:00,val
1219,0.0,0.0,2021-01-22 03:24:55.278000+00:00,val
1220,0.0,0.0,2021-01-22 03:25:25.278000+00:00,val
1221,0.0,0.0,2021-01-22 03:25:55.278000+00:00,val
1222,0.0,0.0,2021-01-22 03:26:25.278000+00:00,val
1223,0.0,0.0,2021-01-22 03:26:55.278000+00:00,val
1224,0.0,0.0,2021-01-22 03:27:25.278000+00:00,val
1225,0.0,0.0,2021-01-22 03:27:55.278000+00:00,val
1226,0.0,0.0,2021-01-22 03:28:25.278000+00:00,val
1227,0.0,0.0,2021-01-22 03:28:55.278000+00:00,val
1228,0.0,0.0,2021-01-22 03:29:25.278000+00:00,val
1229,0.0,0.0,2021-01-22 03:29:55.278000+00:00,val
1230,0.0,0.0,2021-01-22 03:30:25.278000+00:00,val
1231,0.0,0.0,2021-01-22 03:30:55.278000+00:00,val
1232,0.0,0.0,2021-01-22 03:31:25.278000+00:00,val
1233,0.0,0.0,2021-01-22 03:31:55.278000+00:00,val
1234,0.0,0.0,2021-01-22 03:32:25.278000+00:00,val
1235,0.0,0.0,2021-01-22 03:32:55.278000+00:00,val
1236,0.0,0.0,2021-01-22 03:33:25.278000+00:00,val
1237,0.0,0.0,2021-01-22 03:33:55.278000+00:00,val
1238,0.0,0.0,2021-01-22 03:34:25.278000+00:00,val
1239,0.0,0.0,2021-01-22 03:34:55.278000+00:00,val
1240,0.0,0.0,2021-01-22 03:35:25.278000+00:00,val
1241,0.0,0.0,2021-01-22 03:35:55.278000+00:00,val
1242,0.0,0.0,2021-01-22 03:36:25.278000+00:00,val
1243,0.0,0.0,2021-01-22 03:36:55.278000+00:00,val
1244,0.0,0.0,2021-01-22 03:37:25.278000+00:00,val
1245,0.0,0.0,2021-01-22 03:37:55.278000+00:00,val
1246,0.0,0.0,2021-01-22 03:38:25.278000+00:00,val
1247,0.0,0.0,2021-01-22 03:38:55.278000+00:00,val
1248,0.0,0.0,2021-01-22 03:39:25.278000+00:00,val
1249,0.0,0.0,2021-01-22 03:39:55.278000+00:00,val
1250,0.0,0.0,2021-01-22 03:40:25.278000+00:00,val
1251,0.0,0.0,2021-01-22 03:40:55.278000+00:00,val
1252,0.0,0.0,2021-01-22 03:41:25.278000+00:00,val
1253,0.0,0.0,2021-01-22 03:41:55.278000+00:00,val
1254,0.0,0.0,2021-01-22 03:42:25.278000+00:00,val
1255,0.0,0.0,2021-01-22 03:42:55.278000+00:00,val
1256,0.0,0.0,2021-01-22 03:43:25.278000+00:00,val
1257,0.0,0.0,2021-01-22 03:43:55.278000+00:00,val
1258,0.0,0.0,2021-01-22 03:44:25.278000+00:00,val
1259,0.0,0.0,2021-01-22 03:44:55.278000+00:00,val
1260,0.0,0.0,2021-01-22 03:45:25.278000+00:00,val
1261,0.0,0.0,2021-01-22 03:45:55.278000+00:00,val
1262,0.0,0.0,2021-01-22 03:46:25.278000+00:00,val
1263,0.0,0.0,2021-01-22 03:46:55.278000+00:00,val
1264,0.0,0.0,2021-01-22 03:47:25.278000+00:00,val
1265,0.0,0.0,2021-01-22 03:47:55.278000+00:00,val
1266,0.0,0.0,2021-01-22 03:48:25.278000+00:00,val
1267,0.0,0.0,2021-01-22 03:48:55.278000+00:00,val
1268,0.0,0.0,2021-01-22 03:49:25.278000+00:00,val
1269,0.0,0.0,2021-01-22 03:49:55.278000+00:00,val
1270,0.0,0.0,2021-01-22 03:50:25.278000+00:00,val
1271,0.0,0.0,2021-01-22 03:50:55.278000+00:00,val
1272,0.0,0.0,2021-01-22 03:51:25.278000+00:00,val
1273,0.0,0.0,2021-01-22 03:51:55.278000+00:00,val
1274,0.0,0.0,2021-01-22 03:52:25.278000+00:00,val
1275,0.0,0.0,2021-01-22 03:52:55.278000+00:00,val
1276,0.0,0.0,2021-01-22 03:53:25.278000+00:00,val
1277,0.0,0.0,2021-01-22 03:53:55.278000+00:00,val
1278,0.0,0.0,2021-01-22 03:54:25.278000+00:00,val
1279,0.0,0.0,2021-01-22 03:54:55.278000+00:00,val
1280,0.0,0.0,2021-01-22 03:55:25.278000+00:00,val
1281,0.0,0.0,2021-01-22 03:55:55.278000+00:00,val
1282,0.0,0.0,2021-01-22 03:56:25.278000+00:00,val
1283,0.0,0.0,2021-01-22 03:56:55.278000+00:00,val
1284,0.0,0.0,2021-01-22 03:57:25.278000+00:00,val
1285,0.0,0.0,2021-01-22 03:57:55.278000+00:00,val
1286,0.0,0.0,2021-01-22 03:58:25.278000+00:00,val
1287,0.0,0.0,2021-01-22 03:58:55.278000+00:00,val
1288,0.0,0.0,2021-01-22 03:59:25.278000+00:00,val
1289,0.0,0.0,2021-01-22 03:59:55.278000+00:00,val
1290,0.0,0.0,2021-01-22 04:00:25.278000+00:00,val
1291,0.0,0.0,2021-01-22 04:00:55.278000+00:00,val
1292,0.0,0.0,2021-01-22 04:01:25.278000+00:00,val
1293,0.0,0.0,2021-01-22 04:01:55.278000+00:00,val
1294,0.0,0.0,2021-01-22 04:02:25.278000+00:00,val
1295,0.0,0.0,2021-01-22 04:02:55.278000+00:00,val
1296,0.0,0.0,2021-01-22 04:03:25.278000+00:00,val
1297,0.0,0.0,2021-01-22 04:03:55.278000+00:00,val
1298,0.0,0.0,2021-01-22 04:04:25.278000+00:00,val
1299,0.0,0.0,2021-01-22 04:04:55.278000+00:00,val
1300,0.0,0.0,2021-01-22 04:05:25.278000+00:00,val
1301,0.0,0.0,2021-01-22 04:05:55.278000+00:00,val
1302,0.0,0.0,2021-01-22 04:06:25.278000+00:00,val
1303,0.0,0.0,2021-01-22 04:06:55.278000+00:00,val
1304,0.0,0.0,2021-01-22 04:07:25.278000+00:00,val
1305,0.0,0.0,2021-01-22 04:07:55.278000+00:00,val
1306,0.0,0.0,2021-01-22 04:08:25.278000+00:00,val
1307,0.0,0.0,2021-01-22 04:08:55.278000+00:00,val
1308,0.0,0.0,2021-01-22 04:09:25.278000+00:00,val
1309,0.0,0.0,2021-01-22 04:09:55.278000+00:00,val
1310,0.0,0.0,2021-01-22 04:10:25.278000+00:00,val
1311,0.0,0.0,2021-01-22 04:10:55.278000+00:00,val
1312,0.0,0.0,2021-01-22 04:11:25.278000+00:00,val
1313,0.0,0.0,2021-01-22 04:11:55.278000+00:00,val
1314,0.0,0.0,2021-01-22 04:12:25.278000+00:00,val
1315,0.0,0.0,2021-01-22 04:12:55.278000+00:00,val
1316,0.0,0.0,2021-01-22 04:13:25.278000+00:00,val
1317,0.0,0.0,2021-01-22 04:13:55.278000+00:00,val
1318,0.0,0.0,2021-01-22 04:14:25.278000+00:00,val
1319,0.0,0.0,2021-01-22 04:14:55.278000+00:00,val
1320,0.0,0.0,2021-01-22 04:15:25.278000+00:00,val
1321,0.0,0.0,2021-01-22 04:15:55.278000+00:00,val
1322,0.0,0.0,2021-01-22 04:16:25.278000+00:00,val
1323,0.0,0.0,2021-01-22 04:16:55.278000+00:00,val
1324,0.0,0.0,2021-01-22 04:17:25.278000+00:00,val
1325,0.0,0.0,2021-01-22 04:17:55.278000+00:00,val
1326,0.0,0.0,2021-01-22 04:18:25.278000+00:00,val
1327,0.0,0.0,2021-01-22 04:18:55.278000+00:00,val
1328,0.0,0.0,2021-01-22 04:19:25.278000+00:00,val
1329,0.0,0.0,2021-01-22 04:19:55.278000+00:00,val
1330,0.0,0.0,2021-01-22 04:20:25.278000+00:00,val
1331,0.0,0.0,2021-01-22 04:20:55.278000+00:00,val
1332,0.0,0.0,2021-01-22 04:21:25.278000+00:00,val
1333,0.0,0.0,2021-01-22 04:21:55.278000+00:00,val
1334,0.0,0.0,2021-01-22 04:22:25.278000+00:00,val
1335,0.0,0.0,2021-01-22 04:22:55.278000+00:00,val
1336,0.0,0.0,2021-01-22 04:23:25.278000+00:00,val
1337,0.0,0.0,2021-01-22 04:23:55.278000+00:00,val
1338,0.0,0.0,2021-01-22 04:24:25.278000+00:00,val
1339,0.0,0.0,2021-01-22 04:24:55.278000+00:00,val
1340,0.0,0.0,2021-01-22 04:25:25.278000+00:00,val
1341,0.0,0.0,2021-01-22 04:25:55.278000+00:00,val
1342,0.0,0.0,2021-01-22 04:26:25.278000+00:00,val
1343,0.0,0.0,2021-01-22 04:26:55.278000+00:00,val
1344,0.0,0.0,2021-01-22 04:27:25.278000+00:00,val
1345,0.0,0.0,2021-01-22 04:27:55.278000+00:00,val
1346,0.0,0.0,2021-01-22 04:28:25.278000+00:00,val
1347,0.0,0.0,2021-01-22 04:28:55.278000+00:00,val
1348,0.0,0.0,2021-01-22 04:29:25.278000+00:00,val
1349,0.0,0.0,2021-01-22 04:29:55.278000+00:00,val
1350,0.0,0.0,2021-01-22 04:30:25.278000+00:00,val
1351,0.0,0.0,2021-01-22 04:30:55.278000+00:00,val
1352,0.0,0.0,2021-01-22 04:31:25.278000+00:00,val
1353,0.0,0.0,2021-01-22 04:31:55.278000+00:00,val
1354,0.0,0.0,2021-01-22 04:32:25.278000+00:00,val
1355,0.0,0.0,2021-01-22 04:32:55.278000+00:00,val
1356,0.0,0.0,2021-01-22 04:33:25.278000+00:00,val
1357,0.0,0.0,2021-01-22 04:33:55.278000+00:00,val
1358,0.0,0.0,2021-01-22 04:34:25.278000+00:00,val
1359,0.0,0.0,2021-01-22 04:34:55.278000+00:00,val
1360,0.0,0.0,2021-01-22 04:35:25.278000+00:00,val
1361,0.0,0.0,2021-01-22 04:35:55.278000+00:00,val
1362,0.0,0.0,2021-01-22 04:36:25.278000+00:00,val
1363,0.0,0.0,2021-01-22 04:36:55.278000+00:00,val
1364,0.0,0.0,2021-01-22 04:37:25.278000+00:00,val
1365,0.0,0.0,2021-01-22 04:37:55.278000+00:00,val
1366,0.0,0.0,2021-01-22 04:38:25.278000+00:00,val
1367,0.0,0.0,2021-01-22 04:38:55.278000+00:00,val
1368,0.0,0.0,2021-01-22 04:39:25.278000+00:00,val
1369,0.0,0.0,2021-01-22 04:39:55.278000+00:00,val
1370,0.0,0.0,2021-01-22 04:40:25.278000+00:00,val
1371,0.0,0.0,2021-01-22 04:40:55.278000+00:00,val
1372,0.0,0.0,2021-01-22 04:41:25.278000+00:00,val
1373,0.0,0.0,2021-01-22 04:41:55.278000+00:00,val
1374,0.0,0.0,2021-01-22 04:42:25.278000+00:00,val
1375,0.0,0.0,2021-01-22 04:42:55.278000+00:00,val
1376,0.0,0.0,2021-01-22 04:43:25.278000+00:00,val
1377,0.0,0.0,2021-01-22 04:43:55.278000+00:00,val
1378,0.0,0.0,2021-01-22 04:44:25.278000+00:00,val
1379,0.0,0.0,2021-01-22 04:44:55.278000+00:00,val
1380,0.0,0.0,2021-01-22 04:45:25.278000+00:00,val
1381,0.0,0.0,2021-01-22 04:45:55.278000+00:00,val
1382,0.0,0.0,2021-01-22 04:46:25.278000+00:00,val
1383,0.0,0.0,2021-01-22 04:46:55.278000+00:00,val
1384,0.0,0.0,2021-01-22 04:47:25.278000+00:00,val
1385,0.0,0.0,2021-01-22 04:47:55.278000+00:00,val
1386,0.0,0.0,2021-01-22 04:48:25.278000+00:00,val
1387,0.0,0.0,2021-01-22 04:48:55.278000+00:00,val
1388,0.0,0.0,2021-01-22 04:49:25.278000+00:00,val
1389,0.0,0.0,2021-01-22 04:49:55.278000+00:00,val
1390,0.0,0.0,2021-01-22 04:50:25.278000+00:00,val
1391,0.0,0.0,2021-01-22 04:50:55.278000+00:00,val
1392,0.0,0.0,2021-01-22 04:51:25.278000+00:00,val
1393,0.0,0.0,2021-01-22 04:51:55.278000+00:00,val
1394,0.0,0.0,2021-01-22 04:52:25.278000+00:00,val
1395,0.0,0.0,2021-01-22 04:52:55.278000+00:00,val
1396,0.0,0.0,2021-01-22 04:53:25.278000+00:00,val
1397,0.0,0.0,2021-01-22 04:53:55.278000+00:00,val
1398,0.0,0.0,2021-01-22 04:54:25.278000+00:00,val
1399,0.0,0.0,2021-01-22 04:54:55.278000+00:00,val
1400,0.0,0.0,2021-01-22 04:55:25.278000+00:00,val
1401,0.0,0.0,2021-01-22 04:55:55.278000+00:00,val
1402,0.0,0.0,2021-01-22 04:56:25.278000+00:00,val
1403,0.0,0.0,2021-01-22 04:56:55.278000+00:00,val
1404,0.0,0.0,2021-01-22 04:57:25.278000+00:00,val
1405,0.0,0.0,2021-01-22 04:57:55.278000+00:00,val
1406,0.0,0.0,2021-01-22 04:58:25.278000+00:00,val
1407,0.0,0.0,2021-01-22 04:58:55.278000+00:00,val
1408,0.0,0.0,2021-01-22 04:59:25.278000+00:00,val
1409,0.0,0.0,2021-01-22 04:59:55.278000+00:00,val
1410,0.0,0.0,2021-01-22 05:00:25.278000+00:00,val
1411,0.0,0.0,2021-01-22 05:00:55.278000+00:00,val
1412,0.0,0.0,2021-01-22 05:01:25.278000+00:00,val
1413,0.0,0.0,2021-01-22 05:01:55.278000+00:00,val
1414,0.0,0.0,2021-01-22 05:02:25.278000+00:00,val
1415,0.0,0.0,2021-01-22 05:02:55.278000+00:00,val
1416,0.0,0.0,2021-01-22 05:03:25.278000+00:00,val
1417,0.0,0.0,2021-01-22 05:03:55.278000+00:00,val
1418,0.0,0.0,2021-01-22 05:04:25.278000+00:00,val
1419,0.0,0.0,2021-01-22 05:04:55.278000+00:00,val
1420,0.0,0.0,2021-01-22 05:05:25.278000+00:00,val
1421,0.0,0.0,2021-01-22 05:05:55.278000+00:00,val
1422,0.0,0.0,2021-01-22 05:06:25.278000+00:00,val
1423,0.0,0.0,2021-01-22 05:06:55.278000+00:00,val
1424,0.0,0.0,2021-01-22 05:07:25.278000+00:00,val
1425,0.0,0.0,2021-01-22 05:07:55.278000+00:00,val
1426,0.0,0.0,2021-01-22 05:08:25.278000+00:00,val
1427,0.0,0.0,2021-01-22 05:08:55.278000+00:00,val
1428,0.0,0.0,2021-01-22 05:09:25.278000+00:00,val
1429,0.0,0.0,2021-01-22 05:09:55.278000+00:00,val
1430,0.0,0.0,2021-01-22 05:10:25.278000+00:00,val
1431,0.0,0.0,2021-01-22 05:10:55.278000+00:00,val
1432,0.0,0.0,2021-01-22 05:11:25.278000+00:00,val
1433,0.0,0.0,2021-01-22 05:11:55.278000+00:00,val
1434,0.0,0.0,2021-01-22 05:12:25.278000+00:00,val
1435,0.0,0.0,2021-01-22 05:12:55.278000+00:00,val
1436,0.0,0.0,2021-01-22 05:13:25.278000+00:00,val
1437,0.0,0.0,2021-01-22 05:13:55.278000+00:00,val
1438,0.0,0.0,2021-01-22 05:14:25.278000+00:00,val
1439,0.0,0.0,2021-01-22 05:14:55.278000+00:00,val
1440,0.0,0.0,2021-01-22 05:15:25.278000+00:00,val
1441,0.0,0.0,2021-01-22 05:15:55.278000+00:00,val
1442,0.0,0.0,2021-01-22 05:16:25.278000+00:00,val
1443,0.0,0.0,2021-01-22 05:16:55.278000+00:00,val
1444,0.0,0.0,2021-01-22 05:17:25.278000+00:00,val
1445,0.0,0.0,2021-01-22 05:17:55.278000+00:00,test
1446,0.0,0.0,2021-01-22 05:18:25.278000+00:00,test
1447,0.0,0.0,2021-01-22 05:18:55.278000+00:00,test
1448,0.0,0.0,2021-01-22 05:19:25.278000+00:00,test
1449,0.0,0.0,2021-01-22 05:19:55.278000+00:00,test
1450,0.0,0.0,2021-01-22 05:20:25.278000+00:00,test
1451,0.0,0.0,2021-01-22 05:20:55.278000+00:00,test
1452,0.0,0.0,2021-01-22 05:21:25.278000+00:00,test
1453,0.0,0.0,2021-01-22 05:21:55.278000+00:00,test
1454,0.0,0.0,2021-01-22 05:22:25.278000+00:00,test
1455,0.0,0.0,2021-01-22 05:22:55.278000+00:00,test
1456,0.0,0.0,2021-01-22 05:23:25.278000+00:00,test
1457,0.0,0.0,2021-01-22 05:23:55.278000+00:00,test
1458,0.0,0.0,2021-01-22 05:24:25.278000+00:00,test
1459,0.0,0.0,2021-01-22 05:24:55.278000+00:00,test
1460,0.0,0.0,2021-01-22 05:25:25.278000+00:00,test
1461,0.0,0.0,2021-01-22 05:25:55.278000+00:00,test
1462,0.0,0.0,2021-01-22 05:26:25.278000+00:00,test
1463,0.0,0.0,2021-01-22 05:26:55.278000+00:00,test
1464,0.0,0.0,2021-01-22 05:27:25.278000+00:00,test
1465,0.0,0.0,2021-01-22 05:27:55.278000+00:00,test
1466,0.0,0.0,2021-01-22 05:28:25.278000+00:00,test
1467,0.0,0.0,2021-01-22 05:28:55.278000+00:00,test
1468,0.0,0.0,2021-01-22 05:29:25.278000+00:00,test
1469,0.0,0.0,2021-01-22 05:29:55.278000+00:00,test
1470,0.0,0.0,2021-01-22 05:30:25.278000+00:00,test
1471,0.0,0.0,2021-01-22 05:30:55.278000+00:00,test
1472,0.0,0.0,2021-01-22 05:31:25.278000+00:00,test
1473,0.0,0.0,2021-01-22 05:31:55.278000+00:00,test
1474,0.0,0.0,2021-01-22 05:32:25.278000+00:00,test
1475,0.0,0.0,2021-01-22 05:32:55.278000+00:00,test
1476,0.0,0.0,2021-01-22 05:33:25.278000+00:00,test
1477,0.0,0.0,2021-01-22 05:33:55.278000+00:00,test
1478,0.0,0.0,2021-01-22 05:34:25.278000+00:00,test
1479,0.0,0.0,2021-01-22 05:34:55.278000+00:00,test
1480,0.0,0.0,2021-01-22 05:35:25.278000+00:00,test
1481,0.0,0.0,2021-01-22 05:35:55.278000+00:00,test
1482,0.0,0.0,2021-01-22 05:36:25.278000+00:00,test
1483,0.0,0.0,2021-01-22 05:36:55.278000+00:00,test
1484,0.0,0.0,2021-01-22 05:37:25.278000+00:00,test
1485,0.0,0.0,2021-01-22 05:37:55.278000+00:00,test
1486,0.0,0.0,2021-01-22 05:38:25.278000+00:00,test
1487,0.0,0.0,2021-01-22 05:38:55.278000+00:00,test
1488,0.0,0.0,2021-01-22 05:39:25.278000+00:00,test
1489,0.0,0.0,2021-01-22 05:39:55.278000+00:00,test
1490,0.0,0.0,2021-01-22 05:40:25.278000+00:00,test
1491,0.0,0.0,2021-01-22 05:40:55.278000+00:00,test
1492,0.0,0.0,2021-01-22 05:41:25.278000+00:00,test
1493,0.0,0.0,2021-01-22 05:41:55.278000+00:00,test
1494,0.0,0.0,2021-01-22 05:42:25.278000+00:00,test
1495,0.0,0.0,2021-01-22 05:42:55.278000+00:00,test
1496,0.0,0.0,2021-01-22 05:43:25.278000+00:00,test
1497,0.0,0.0,2021-01-22 05:43:55.278000+00:00,test
1498,0.0,0.0,2021-01-22 05:44:25.278000+00:00,test
1499,0.0,0.0,2021-01-22 05:44:55.278000+00:00,test
1500,0.0,0.0,2021-01-22 05:45:25.278000+00:00,test
1501,0.0,0.0,2021-01-22 05:45:55.278000+00:00,test
1502,0.0,0.0,2021-01-22 05:46:25.278000+00:00,test
1503,0.0,0.0,2021-01-22 05:46:55.278000+00:00,test
1504,0.0,0.0,2021-01-22 05:47:25.278000+00:00,test
1505,0.0,0.0,2021-01-22 05:47:55.278000+00:00,test
1506,0.0,0.0,2021-01-22 05:48:25.278000+00:00,test
1507,0.0,0.0,2021-01-22 05:48:55.278000+00:00,test
1508,0.0,0.0,2021-01-22 05:49:25.278000+00:00,test
1509,0.0,0.0,2021-01-22 05:49:55.278000+00:00,test
1510,0.0,0.0,2021-01-22 05:50:25.278000+00:00,test
1511,0.0,0.0,2021-01-22 05:50:55.278000+00:00,test
1512,0.0,0.0,2021-01-22 05:51:25.278000+00:00,test
1513,0.0,0.0,2021-01-22 05:51:55.278000+00:00,test
1514,0.0,0.0,2021-01-22 05:52:25.278000+00:00,test
1515,0.0,0.0,2021-01-22 05:52:55.278000+00:00,test
1516,0.0,0.0,2021-01-22 05:53:25.278000+00:00,test
1517,0.0,0.0,2021-01-22 05:53:55.278000+00:00,test
1518,0.0,0.0,2021-01-22 05:54:25.278000+00:00,test
1519,0.0,0.0,2021-01-22 05:54:55.278000+00:00,test
1520,0.0,0.0,2021-01-22 05:55:25.278000+00:00,test
1521,0.0,0.0,2021-01-22 05:55:55.278000+00:00,test
1522,0.0,0.0,2021-01-22 05:56:25.278000+00:00,test
1523,0.0,0.0,2021-01-22 05:56:55.278000+00:00,test
1524,0.0,0.0,2021-01-22 05:57:25.278000+00:00,test
1525,0.0,0.0,2021-01-22 05:57:55.278000+00:00,test
1526,0.0,0.0,2021-01-22 05:58:25.278000+00:00,test
1527,0.0,0.0,2021-01-22 05:58:55.278000+00:00,test
1528,0.0,0.0,2021-01-22 05:59:25.278000+00:00,test
1529,0.0,0.0,2021-01-22 05:59:55.278000+00:00,test
1530,0.0,0.0,2021-01-22 06:00:25.278000+00:00,test
1531,0.0,0.0,2021-01-22 06:00:55.278000+00:00,test
1532,0.0,0.0,2021-01-22 06:01:25.278000+00:00,test
1533,0.0,0.0,2021-01-22 06:01:55.278000+00:00,test
1534,0.0,0.0,2021-01-22 06:02:25.278000+00:00,test
1535,0.0,0.0,2021-01-22 06:02:55.278000+00:00,test
1536,0.0,0.0,2021-01-22 06:03:25.278000+00:00,test
1537,0.0,0.0,2021-01-22 06:03:55.278000+00:00,test
1538,0.0,0.0,2021-01-22 06:04:25.278000+00:00,test
1539,0.0,0.0,2021-01-22 06:04:55.278000+00:00,test
1540,0.0,0.0,2021-01-22 06:05:25.278000+00:00,test
1541,0.0,0.0,2021-01-22 06:05:55.278000+00:00,test
1542,0.0,0.0,2021-01-22 06:06:25.278000+00:00,test
1543,0.0,0.0,2021-01-22 06:06:55.278000+00:00,test
1544,0.0,0.0,2021-01-22 06:07:25.278000+00:00,test
1545,0.0,0.0,2021-01-22 06:07:55.278000+00:00,test
1546,0.0,0.0,2021-01-22 06:08:25.278000+00:00,test
1547,0.0,0.0,2021-01-22 06:08:55.278000+00:00,test
1548,0.0,0.0,2021-01-22 06:09:25.278000+00:00,test
1549,0.0,0.0,2021-01-22 06:09:55.278000+00:00,test
1550,0.0,0.0,2021-01-22 06:10:25.278000+00:00,test
1551,0.0,0.0,2021-01-22 06:10:55.278000+00:00,test
1552,0.0,0.0,2021-01-22 06:11:25.278000+00:00,test
1553,0.0,0.0,2021-01-22 06:11:55.278000+00:00,test
1554,0.0,0.0,2021-01-22 06:12:25.278000+00:00,test
1555,0.0,0.0,2021-01-22 06:12:55.278000+00:00,test
1556,0.0,0.0,2021-01-22 06:13:25.278000+00:00,test
1557,0.0,0.0,2021-01-22 06:13:55.278000+00:00,test
1558,0.0,0.0,2021-01-22 06:14:25.278000+00:00,test
1559,0.0,0.0,2021-01-22 06:14:55.278000+00:00,test
1560,0.0,0.0,2021-01-22 06:15:25.278000+00:00,test
1561,0.0,0.0,2021-01-22 06:15:55.278000+00:00,test
1562,0.0,0.0,2021-01-22 06:16:25.278000+00:00,test
1563,0.0,0.0,2021-01-22 06:16:55.278000+00:00,test
1564,0.0,0.0,2021-01-22 06:17:25.278000+00:00,test
1565,0.0,0.0,2021-01-22 06:17:55.278000+00:00,test
1566,0.0,0.0,2021-01-22 06:18:25.278000+00:00,test
1567,0.0,0.0,2021-01-22 06:18:55.278000+00:00,test
1568,0.0,0.0,2021-01-22 06:19:25.278000+00:00,test
1569,0.0,0.0,2021-01-22 06:19:55.278000+00:00,test
1570,0.0,0.0,2021-01-22 06:20:25.278000+00:00,test
1571,0.0,0.0,2021-01-22 06:20:55.278000+00:00,test
1572,0.0,0.0,2021-01-22 06:21:25.278000+00:00,test
1573,0.0,0.0,2021-01-22 06:21:55.278000+00:00,test
1574,0.0,0.0,2021-01-22 06:22:25.278000+00:00,test
1575,0.0,0.0,2021-01-22 06:22:55.278000+00:00,test
1576,0.0,0.0,2021-01-22 06:23:25.278000+00:00,test
1577,0.0,0.0,2021-01-22 06:23:55.278000+00:00,test
1578,0.0,0.0,2021-01-22 06:24:25.278000+00:00,test
1579,0.0,0.0,2021-01-22 06:24:55.278000+00:00,test
1580,0.0,0.0,2021-01-22 06:25:25.278000+00:00,test
1581,0.0,0.0,2021-01-22 06:25:55.278000+00:00,test
1582,0.0,0.0,2021-01-22 06:26:25.278000+00:00,test
1583,0.0,0.0,2021-01-22 06:26:55.278000+00:00,test
1584,0.0,0.0,2021-01-22 06:27:25.278000+00:00,test
1585,0.0,0.0,2021-01-22 06:27:55.278000+00:00,test
1586,0.0,0.0,2021-01-22 06:28:25.278000+00:00,test
1587,0.0,0.0,2021-01-22 06:28:55.278000+00:00,test
1588,0.0,0.0,2021-01-22 06:29:25.278000+00:00,test
1589,0.0,0.0,2021-01-22 06:29:55.278000+00:00,test
1590,0.0,0.0,2021-01-22 06:30:25.278000+00:00,test
1591,0.0,0.0,2021-01-22 06:30:55.278000+00:00,test
1592,0.0,0.0,2021-01-22 06:31:25.278000+00:00,test
1593,0.0,0.0,2021-01-22 06:31:55.278000+00:00,test
1594,0.0,0.0,2021-01-22 06:32:25.278000+00:00,test
1595,0.0,0.0,2021-01-22 06:32:55.278000+00:00,test
1596,0.0,0.0,2021-01-22 06:33:25.278000+00:00,test
1597,0.0,0.0,2021-01-22 06:33:55.278000+00:00,test
1598,0.0,0.0,2021-01-22 06:34:25.278000+00:00,test
1599,0.0,0.0,2021-01-22 06:34:55.278000+00:00,test
1600,0.0,0.0,2021-01-22 06:35:25.278000+00:00,test
1601,0.0,0.0,2021-01-22 06:35:55.278000+00:00,test
1602,0.0,0.0,2021-01-22 06:36:25.278000+00:00,test
1603,0.0,0.0,2021-01-22 06:36:55.278000+00:00,test
1604,0.0,0.0,2021-01-22 06:37:25.278000+00:00,test
1605,0.0,0.0,2021-01-22 06:37:55.278000+00:00,test
