,prediction,real,time,split
0,-8.061152458190918,-8.0,2021-01-21 17:14:55.278000+00:00,train
1,-8.011073112487793,-8.0,2021-01-21 17:15:25.278000+00:00,train
2,-7.965025901794434,-8.0,2021-01-21 17:15:55.278000+00:00,train
3,-7.923105716705322,-8.0,2021-01-21 17:16:25.278000+00:00,train
4,-7.88545560836792,-8.0,2021-01-21 17:16:55.278000+00:00,train
5,-7.8321356773376465,-8.0,2021-01-21 17:17:25.278000+00:00,train
6,-7.78178596496582,-8.0,2021-01-21 17:17:55.278000+00:00,train
7,-7.734445571899414,-8.0,2021-01-21 17:18:25.278000+00:00,train
8,-7.690151214599609,-8.0,2021-01-21 17:18:55.278000+00:00,train
9,-7.648934364318848,-8.0,2021-01-21 17:19:25.278000+00:00,train
10,-7.610867023468018,-8.0,2021-01-21 17:19:55.278000+00:00,train
11,-7.576016426086426,-8.0,2021-01-21 17:20:25.278000+00:00,train
12,-7.5445237159729,-8.0,2021-01-21 17:20:55.278000+00:00,train
13,-7.516401290893555,-7.0,2021-01-21 17:21:25.278000+00:00,train
14,-7.491772174835205,-7.0,2021-01-21 17:21:55.278000+00:00,train
15,-7.470764636993408,-7.0,2021-01-21 17:22:25.278000+00:00,train
16,-7.453554630279541,-7.0,2021-01-21 17:22:55.278000+00:00,train
17,-7.4403204917907715,-7.0,2021-01-21 17:23:25.278000+00:00,train
18,-7.409327507019043,-7.0,2021-01-21 17:23:55.278000+00:00,train
19,-7.380795001983643,-7.0,2021-01-21 17:24:25.278000+00:00,train
20,-7.320525646209717,-7.0,2021-01-21 17:24:55.278000+00:00,train
21,-7.263974666595459,-7.0,2021-01-21 17:25:25.278000+00:00,train
22,-7.211071491241455,-7.0,2021-01-21 17:25:55.278000+00:00,train
23,-7.161776542663574,-7.0,2021-01-21 17:26:25.278000+00:00,train
24,-7.116065502166748,-7.0,2021-01-21 17:26:55.278000+00:00,train
25,-7.073962688446045,-7.0,2021-01-21 17:27:25.278000+00:00,train
26,-7.035506725311279,-7.0,2021-01-21 17:27:55.278000+00:00,train
27,-7.000756740570068,-7.0,2021-01-21 17:28:25.278000+00:00,train
28,-6.969820499420166,-7.0,2021-01-21 17:28:55.278000+00:00,train
29,-6.922338962554932,-7.0,2021-01-21 17:29:25.278000+00:00,train
30,-6.877313613891602,-7.0,2021-01-21 17:29:55.278000+00:00,train
31,-6.8347649574279785,-7.0,2021-01-21 17:30:25.278000+00:00,train
32,-6.79470682144165,-7.0,2021-01-21 17:30:55.278000+00:00,train
33,-6.757176876068115,-7.0,2021-01-21 17:31:25.278000+00:00,train
34,-6.7222137451171875,-7.0,2021-01-21 17:31:55.278000+00:00,train
35,-6.689857006072998,-7.0,2021-01-21 17:32:25.278000+00:00,train
36,-6.660177707672119,-7.0,2021-01-21 17:32:55.278000+00:00,train
37,-6.633244514465332,-7.0,2021-01-21 17:33:25.278000+00:00,train
38,-6.609136581420898,-7.0,2021-01-21 17:33:55.278000+00:00,train
39,-6.587944507598877,-7.0,2021-01-21 17:34:25.278000+00:00,train
40,-6.569791316986084,-7.0,2021-01-21 17:34:55.278000+00:00,train
41,-6.554807662963867,-7.0,2021-01-21 17:35:25.278000+00:00,train
42,-6.543138027191162,-7.0,2021-01-21 17:35:55.278000+00:00,train
43,-6.534965515136719,-7.0,2021-01-21 17:36:25.278000+00:00,train
44,-6.508264541625977,-7.0,2021-01-21 17:36:55.278000+00:00,train
45,-6.48346471786499,-7.0,2021-01-21 17:37:25.278000+00:00,train
46,-6.46061897277832,-6.0,2021-01-21 17:37:55.278000+00:00,train
47,-6.439774036407471,-6.0,2021-01-21 17:38:25.278000+00:00,train
48,-6.420978546142578,-6.0,2021-01-21 17:38:55.278000+00:00,train
49,-6.404306888580322,-6.0,2021-01-21 17:39:25.278000+00:00,train
50,-6.389831066131592,-6.0,2021-01-21 17:39:55.278000+00:00,train
51,-6.377627849578857,-6.0,2021-01-21 17:40:25.278000+00:00,train
52,-6.367805004119873,-6.0,2021-01-21 17:40:55.278000+00:00,train
53,-6.326842784881592,-6.0,2021-01-21 17:41:25.278000+00:00,train
54,-6.289420127868652,-6.0,2021-01-21 17:41:55.278000+00:00,train
55,-6.255473613739014,-6.0,2021-01-21 17:42:25.278000+00:00,train
56,-6.2249979972839355,-6.0,2021-01-21 17:42:55.278000+00:00,train
57,-6.198002338409424,-6.0,2021-01-21 17:43:25.278000+00:00,train
58,-6.1529316902160645,-6.0,2021-01-21 17:43:55.278000+00:00,train
59,-6.109964370727539,-6.0,2021-01-21 17:44:25.278000+00:00,train
60,-6.069081783294678,-6.0,2021-01-21 17:44:55.278000+00:00,train
61,-6.030273914337158,-6.0,2021-01-21 17:45:25.278000+00:00,train
62,-5.993533134460449,-6.0,2021-01-21 17:45:55.278000+00:00,train
63,-5.9588751792907715,-6.0,2021-01-21 17:46:25.278000+00:00,train
64,-5.926316261291504,-6.0,2021-01-21 17:46:55.278000+00:00,train
65,-5.895872116088867,-6.0,2021-01-21 17:47:25.278000+00:00,train
66,-5.867581367492676,-6.0,2021-01-21 17:47:55.278000+00:00,train
67,-5.841477394104004,-6.0,2021-01-21 17:48:25.278000+00:00,train
68,-5.817595958709717,-6.0,2021-01-21 17:48:55.278000+00:00,train
69,-5.795990943908691,-6.0,2021-01-21 17:49:25.278000+00:00,train
70,-5.776707172393799,-6.0,2021-01-21 17:49:55.278000+00:00,train
71,-5.759786128997803,-6.0,2021-01-21 17:50:25.278000+00:00,train
72,-5.745268821716309,-6.0,2021-01-21 17:50:55.278000+00:00,train
73,-5.7331366539001465,-6.0,2021-01-21 17:51:25.278000+00:00,train
74,-5.723249912261963,-6.0,2021-01-21 17:51:55.278000+00:00,train
75,-5.715178489685059,-6.0,2021-01-21 17:52:25.278000+00:00,train
76,-5.708281517028809,-6.0,2021-01-21 17:52:55.278000+00:00,train
77,-5.713205814361572,-6.0,2021-01-21 17:53:25.278000+00:00,train
78,-5.728941440582275,-5.0,2021-01-21 17:53:55.278000+00:00,train
79,-5.711213111877441,-5.0,2021-01-21 17:54:25.278000+00:00,train
80,-5.694995880126953,-5.0,2021-01-21 17:54:55.278000+00:00,train
81,-5.680364608764648,-5.0,2021-01-21 17:55:25.278000+00:00,train
82,-5.667366981506348,-5.0,2021-01-21 17:55:55.278000+00:00,train
83,-5.656062602996826,-5.0,2021-01-21 17:56:25.278000+00:00,train
84,-5.64652156829834,-5.0,2021-01-21 17:56:55.278000+00:00,train
85,-5.60170316696167,-5.0,2021-01-21 17:57:25.278000+00:00,train
86,-5.559760570526123,-5.0,2021-01-21 17:57:55.278000+00:00,train
87,-5.52061128616333,-5.0,2021-01-21 17:58:25.278000+00:00,train
88,-5.4842209815979,-5.0,2021-01-21 17:58:55.278000+00:00,train
89,-5.450592517852783,-5.0,2021-01-21 17:59:25.278000+00:00,train
90,-5.419757843017578,-5.0,2021-01-21 17:59:55.278000+00:00,train
91,-5.372596740722656,-5.0,2021-01-21 18:00:25.278000+00:00,train
92,-5.327160835266113,-5.0,2021-01-21 18:00:55.278000+00:00,train
93,-5.283400058746338,-5.0,2021-01-21 18:01:25.278000+00:00,train
94,-5.241264343261719,-5.0,2021-01-21 18:01:55.278000+00:00,train
95,-5.200711727142334,-5.0,2021-01-21 18:02:25.278000+00:00,train
96,-5.1617112159729,-5.0,2021-01-21 18:02:55.278000+00:00,train
97,-5.124232769012451,-5.0,2021-01-21 18:03:25.278000+00:00,train
98,-5.088254451751709,-5.0,2021-01-21 18:03:55.278000+00:00,train
99,-5.053755283355713,-5.0,2021-01-21 18:04:25.278000+00:00,train
100,-5.020723342895508,-5.0,2021-01-21 18:04:55.278000+00:00,train
101,-4.9891462326049805,-5.0,2021-01-21 18:05:25.278000+00:00,train
102,-4.95902156829834,-5.0,2021-01-21 18:05:55.278000+00:00,train
103,-4.930349349975586,-5.0,2021-01-21 18:06:25.278000+00:00,train
104,-4.9031291007995605,-5.0,2021-01-21 18:06:55.278000+00:00,train
105,-4.877371788024902,-5.0,2021-01-21 18:07:25.278000+00:00,train
106,-4.853086471557617,-5.0,2021-01-21 18:07:55.278000+00:00,train
107,-4.830289840698242,-5.0,2021-01-21 18:08:25.278000+00:00,train
108,-4.809002876281738,-5.0,2021-01-21 18:08:55.278000+00:00,train
109,-4.7892537117004395,-5.0,2021-01-21 18:09:25.278000+00:00,train
110,-4.7710676193237305,-5.0,2021-01-21 18:09:55.278000+00:00,train
111,-4.754487991333008,-5.0,2021-01-21 18:10:25.278000+00:00,train
112,-4.739558219909668,-5.0,2021-01-21 18:10:55.278000+00:00,train
113,-4.726325035095215,-5.0,2021-01-21 18:11:25.278000+00:00,train
114,-4.714853286743164,-5.0,2021-01-21 18:11:55.278000+00:00,train
115,-4.705209255218506,-5.0,2021-01-21 18:12:25.278000+00:00,train
116,-4.697473526000977,-5.0,2021-01-21 18:12:55.278000+00:00,train
117,-4.691741466522217,-5.0,2021-01-21 18:13:25.278000+00:00,train
118,-4.688125133514404,-5.0,2021-01-21 18:13:55.278000+00:00,train
119,-4.686748504638672,-5.0,2021-01-21 18:14:25.278000+00:00,train
120,-4.667970180511475,-5.0,2021-01-21 18:14:55.278000+00:00,train
121,-4.649956703186035,-5.0,2021-01-21 18:15:25.278000+00:00,train
122,-4.632709980010986,-5.0,2021-01-21 18:15:55.278000+00:00,train
123,-4.616237640380859,-5.0,2021-01-21 18:16:25.278000+00:00,train
124,-4.600543975830078,-5.0,2021-01-21 18:16:55.278000+00:00,train
125,-4.585635662078857,-5.0,2021-01-21 18:17:25.278000+00:00,train
126,-4.571524143218994,-4.0,2021-01-21 18:17:55.278000+00:00,train
127,-4.5582194328308105,-4.0,2021-01-21 18:18:25.278000+00:00,train
128,-4.545732498168945,-4.0,2021-01-21 18:18:55.278000+00:00,train
129,-4.5340800285339355,-4.0,2021-01-21 18:19:25.278000+00:00,train
130,-4.523278713226318,-4.0,2021-01-21 18:19:55.278000+00:00,train
131,-4.5133280754089355,-4.0,2021-01-21 18:20:25.278000+00:00,train
132,-4.504278182983398,-4.0,2021-01-21 18:20:55.278000+00:00,train
133,-4.46189546585083,-4.0,2021-01-21 18:21:25.278000+00:00,train
134,-4.421489238739014,-4.0,2021-01-21 18:21:55.278000+00:00,train
135,-4.3829731941223145,-4.0,2021-01-21 18:22:25.278000+00:00,train
136,-4.346292972564697,-4.0,2021-01-21 18:22:55.278000+00:00,train
137,-4.3114142417907715,-4.0,2021-01-21 18:23:25.278000+00:00,train
138,-4.2783122062683105,-4.0,2021-01-21 18:23:55.278000+00:00,train
139,-4.246970176696777,-4.0,2021-01-21 18:24:25.278000+00:00,train
140,-4.217381000518799,-4.0,2021-01-21 18:24:55.278000+00:00,train
141,-4.189546585083008,-4.0,2021-01-21 18:25:25.278000+00:00,train
142,-4.1634721755981445,-4.0,2021-01-21 18:25:55.278000+00:00,train
143,-4.139176368713379,-4.0,2021-01-21 18:26:25.278000+00:00,train
144,-4.116681098937988,-4.0,2021-01-21 18:26:55.278000+00:00,train
145,-4.0960164070129395,-4.0,2021-01-21 18:27:25.278000+00:00,train
146,-4.077225685119629,-4.0,2021-01-21 18:27:55.278000+00:00,train
147,-4.060358047485352,-4.0,2021-01-21 18:28:25.278000+00:00,train
148,-4.045474529266357,-4.0,2021-01-21 18:28:55.278000+00:00,train
149,-4.032652854919434,-4.0,2021-01-21 18:29:25.278000+00:00,train
150,-4.021982192993164,-4.0,2021-01-21 18:29:55.278000+00:00,train
151,-4.013569355010986,-4.0,2021-01-21 18:30:25.278000+00:00,train
152,-4.007546424865723,-4.0,2021-01-21 18:30:55.278000+00:00,train
153,-3.982848882675171,-4.0,2021-01-21 18:31:25.278000+00:00,train
154,-3.959047317504883,-4.0,2021-01-21 18:31:55.278000+00:00,train
155,-3.9361345767974854,-4.0,2021-01-21 18:32:25.278000+00:00,train
156,-3.9141018390655518,-4.0,2021-01-21 18:32:55.278000+00:00,train
157,-3.8929429054260254,-4.0,2021-01-21 18:33:25.278000+00:00,train
158,-3.8726563453674316,-4.0,2021-01-21 18:33:55.278000+00:00,train
159,-3.8532400131225586,-4.0,2021-01-21 18:34:25.278000+00:00,train
160,-3.834693670272827,-4.0,2021-01-21 18:34:55.278000+00:00,train
161,-3.8170218467712402,-4.0,2021-01-21 18:35:25.278000+00:00,train
162,-3.8002285957336426,-4.0,2021-01-21 18:35:55.278000+00:00,train
163,-3.784320592880249,-4.0,2021-01-21 18:36:25.278000+00:00,train
164,-3.76930570602417,-4.0,2021-01-21 18:36:55.278000+00:00,train
165,-3.755197286605835,-4.0,2021-01-21 18:37:25.278000+00:00,train
166,-3.7420082092285156,-4.0,2021-01-21 18:37:55.278000+00:00,train
167,-3.7297534942626953,-4.0,2021-01-21 18:38:25.278000+00:00,train
168,-3.718454599380493,-4.0,2021-01-21 18:38:55.278000+00:00,train
169,-3.708132743835449,-4.0,2021-01-21 18:39:25.278000+00:00,train
170,-3.698812961578369,-4.0,2021-01-21 18:39:55.278000+00:00,train
171,-3.690525770187378,-4.0,2021-01-21 18:40:25.278000+00:00,train
172,-3.683305501937866,-4.0,2021-01-21 18:40:55.278000+00:00,train
173,-3.677189588546753,-4.0,2021-01-21 18:41:25.278000+00:00,train
174,-3.6722235679626465,-4.0,2021-01-21 18:41:55.278000+00:00,train
175,-3.6684587001800537,-4.0,2021-01-21 18:42:25.278000+00:00,train
176,-3.665952444076538,-4.0,2021-01-21 18:42:55.278000+00:00,train
177,-3.6647732257843018,-4.0,2021-01-21 18:43:25.278000+00:00,train
178,-3.6649999618530273,-4.0,2021-01-21 18:43:55.278000+00:00,train
179,-3.66672420501709,-4.0,2021-01-21 18:44:25.278000+00:00,train
180,-3.6700539588928223,-4.0,2021-01-21 18:44:55.278000+00:00,train
181,-3.675116777420044,-4.0,2021-01-21 18:45:25.278000+00:00,train
182,-3.6820666790008545,-4.0,2021-01-21 18:45:55.278000+00:00,train
183,-3.6910908222198486,-4.0,2021-01-21 18:46:25.278000+00:00,train
184,-3.702418327331543,-4.0,2021-01-21 18:46:55.278000+00:00,train
185,-3.6933670043945312,-4.0,2021-01-21 18:47:25.278000+00:00,train
186,-3.6846327781677246,-4.0,2021-01-21 18:47:55.278000+00:00,train
187,-3.676215648651123,-4.0,2021-01-21 18:48:25.278000+00:00,train
188,-3.668116807937622,-4.0,2021-01-21 18:48:55.278000+00:00,train
189,-3.660339117050171,-4.0,2021-01-21 18:49:25.278000+00:00,train
190,-3.6528851985931396,-4.0,2021-01-21 18:49:55.278000+00:00,train
191,-3.645756721496582,-4.0,2021-01-21 18:50:25.278000+00:00,train
192,-3.6389577388763428,-4.0,2021-01-21 18:50:55.278000+00:00,train
193,-3.63249135017395,-4.0,2021-01-21 18:51:25.278000+00:00,train
194,-3.6263628005981445,-4.0,2021-01-21 18:51:55.278000+00:00,train
195,-3.620575189590454,-4.0,2021-01-21 18:52:25.278000+00:00,train
196,-3.615135669708252,-3.0,2021-01-21 18:52:55.278000+00:00,train
197,-3.61004900932312,-3.0,2021-01-21 18:53:25.278000+00:00,train
198,-3.6053216457366943,-3.0,2021-01-21 18:53:55.278000+00:00,train
199,-3.6009609699249268,-3.0,2021-01-21 18:54:25.278000+00:00,train
200,-3.596975564956665,-3.0,2021-01-21 18:54:55.278000+00:00,train
201,-3.5933728218078613,-3.0,2021-01-21 18:55:25.278000+00:00,train
202,-3.5901637077331543,-3.0,2021-01-21 18:55:55.278000+00:00,train
203,-3.5510518550872803,-3.0,2021-01-21 18:56:25.278000+00:00,train
204,-3.513749837875366,-3.0,2021-01-21 18:56:55.278000+00:00,train
205,-3.478132486343384,-3.0,2021-01-21 18:57:25.278000+00:00,train
206,-3.444092035293579,-3.0,2021-01-21 18:57:55.278000+00:00,train
207,-3.41154146194458,-3.0,2021-01-21 18:58:25.278000+00:00,train
208,-3.3804075717926025,-3.0,2021-01-21 18:58:55.278000+00:00,train
209,-3.3506314754486084,-3.0,2021-01-21 18:59:25.278000+00:00,train
210,-3.32216215133667,-3.0,2021-01-21 18:59:55.278000+00:00,train
211,-3.294956684112549,-3.0,2021-01-21 19:00:25.278000+00:00,train
212,-3.2689812183380127,-3.0,2021-01-21 19:00:55.278000+00:00,train
213,-3.2442073822021484,-3.0,2021-01-21 19:01:25.278000+00:00,train
214,-3.220614194869995,-3.0,2021-01-21 19:01:55.278000+00:00,train
215,-3.1981825828552246,-3.0,2021-01-21 19:02:25.278000+00:00,train
216,-3.176900625228882,-3.0,2021-01-21 19:02:55.278000+00:00,train
217,-3.1567604541778564,-3.0,2021-01-21 19:03:25.278000+00:00,train
218,-3.13775897026062,-3.0,2021-01-21 19:03:55.278000+00:00,train
219,-3.1198973655700684,-3.0,2021-01-21 19:04:25.278000+00:00,train
220,-3.103181838989258,-3.0,2021-01-21 19:04:55.278000+00:00,train
221,-3.0876221656799316,-3.0,2021-01-21 19:05:25.278000+00:00,train
222,-3.0732340812683105,-3.0,2021-01-21 19:05:55.278000+00:00,train
223,-3.0600385665893555,-3.0,2021-01-21 19:06:25.278000+00:00,train
224,-3.0480611324310303,-3.0,2021-01-21 19:06:55.278000+00:00,train
225,-3.037334680557251,-3.0,2021-01-21 19:07:25.278000+00:00,train
226,-3.0278983116149902,-3.0,2021-01-21 19:07:55.278000+00:00,train
227,-3.01979923248291,-3.0,2021-01-21 19:08:25.278000+00:00,train
228,-3.013094663619995,-3.0,2021-01-21 19:08:55.278000+00:00,train
229,-3.0078518390655518,-3.0,2021-01-21 19:09:25.278000+00:00,train
230,-3.004152774810791,-3.0,2021-01-21 19:09:55.278000+00:00,train
231,-3.002094030380249,-3.0,2021-01-21 19:10:25.278000+00:00,train
232,-3.0017943382263184,-3.0,2021-01-21 19:10:55.278000+00:00,train
233,-2.9860429763793945,-3.0,2021-01-21 19:11:25.278000+00:00,train
234,-2.970731496810913,-3.0,2021-01-21 19:11:55.278000+00:00,train
235,-2.9558558464050293,-3.0,2021-01-21 19:12:25.278000+00:00,train
236,-2.9414122104644775,-3.0,2021-01-21 19:12:55.278000+00:00,train
237,-2.9273974895477295,-3.0,2021-01-21 19:13:25.278000+00:00,train
238,-2.9138121604919434,-3.0,2021-01-21 19:13:55.278000+00:00,train
239,-2.9006612300872803,-3.0,2021-01-21 19:14:25.278000+00:00,train
240,-2.8879473209381104,-3.0,2021-01-21 19:14:55.278000+00:00,train
241,-2.8756792545318604,-3.0,2021-01-21 19:15:25.278000+00:00,train
242,-2.86387038230896,-3.0,2021-01-21 19:15:55.278000+00:00,train
243,-2.852534532546997,-3.0,2021-01-21 19:16:25.278000+00:00,train
244,-2.841691732406616,-3.0,2021-01-21 19:16:55.278000+00:00,train
245,-2.8313732147216797,-3.0,2021-01-21 19:17:25.278000+00:00,train
246,-2.8216094970703125,-3.0,2021-01-21 19:17:55.278000+00:00,train
247,-2.812445878982544,-3.0,2021-01-21 19:18:25.278000+00:00,train
248,-2.8039393424987793,-3.0,2021-01-21 19:18:55.278000+00:00,train
249,-2.7961368560791016,-3.0,2021-01-21 19:19:25.278000+00:00,train
250,-2.7891225814819336,-3.0,2021-01-21 19:19:55.278000+00:00,train
251,-2.783018112182617,-3.0,2021-01-21 19:20:25.278000+00:00,train
252,-2.7779550552368164,-3.0,2021-01-21 19:20:55.278000+00:00,train
253,-2.7741150856018066,-3.0,2021-01-21 19:21:25.278000+00:00,train
254,-2.771749973297119,-3.0,2021-01-21 19:21:55.278000+00:00,train
255,-2.771129608154297,-3.0,2021-01-21 19:22:25.278000+00:00,train
256,-2.772589683532715,-3.0,2021-01-21 19:22:55.278000+00:00,train
257,-2.7764651775360107,-3.0,2021-01-21 19:23:25.278000+00:00,train
258,-2.782623052597046,-3.0,2021-01-21 19:23:55.278000+00:00,train
259,-2.7908802032470703,-3.0,2021-01-21 19:24:25.278000+00:00,train
260,-2.803447723388672,-3.0,2021-01-21 19:24:55.278000+00:00,train
261,-2.8143770694732666,-3.0,2021-01-21 19:25:25.278000+00:00,train
262,-2.8254661560058594,-3.0,2021-01-21 19:25:55.278000+00:00,train
263,-2.836515188217163,-3.0,2021-01-21 19:26:25.278000+00:00,train
264,-2.846621036529541,-3.0,2021-01-21 19:26:55.278000+00:00,train
265,-2.855581760406494,-3.0,2021-01-21 19:27:25.278000+00:00,train
266,-2.8634591102600098,-3.0,2021-01-21 19:27:55.278000+00:00,train
267,-2.870432138442993,-3.0,2021-01-21 19:28:25.278000+00:00,train
268,-2.8766047954559326,-3.0,2021-01-21 19:28:55.278000+00:00,train
269,-2.8822059631347656,-3.0,2021-01-21 19:29:25.278000+00:00,train
270,-2.887493133544922,-3.0,2021-01-21 19:29:55.278000+00:00,train
271,-2.8925843238830566,-3.0,2021-01-21 19:30:25.278000+00:00,train
272,-2.897608518600464,-3.0,2021-01-21 19:30:55.278000+00:00,train
273,-2.9023101329803467,-3.0,2021-01-21 19:31:25.278000+00:00,train
274,-2.906897783279419,-3.0,2021-01-21 19:31:55.278000+00:00,train
275,-2.911983013153076,-3.0,2021-01-21 19:32:25.278000+00:00,train
276,-2.9173781871795654,-3.0,2021-01-21 19:32:55.278000+00:00,train
277,-2.9229037761688232,-3.0,2021-01-21 19:33:25.278000+00:00,train
278,-2.9284489154815674,-3.0,2021-01-21 19:33:55.278000+00:00,train
279,-2.9338266849517822,-3.0,2021-01-21 19:34:25.278000+00:00,train
280,-2.9388859272003174,-3.0,2021-01-21 19:34:55.278000+00:00,train
281,-2.9435276985168457,-3.0,2021-01-21 19:35:25.278000+00:00,train
282,-2.9476571083068848,-3.0,2021-01-21 19:35:55.278000+00:00,train
283,-2.9512710571289062,-3.0,2021-01-21 19:36:25.278000+00:00,train
284,-2.9544498920440674,-3.0,2021-01-21 19:36:55.278000+00:00,train
285,-2.957315444946289,-3.0,2021-01-21 19:37:25.278000+00:00,train
286,-2.9600672721862793,-3.0,2021-01-21 19:37:55.278000+00:00,train
287,-2.962956190109253,-3.0,2021-01-21 19:38:25.278000+00:00,train
288,-2.9662742614746094,-3.0,2021-01-21 19:38:55.278000+00:00,train
289,-2.970395565032959,-3.0,2021-01-21 19:39:25.278000+00:00,train
290,-2.9757726192474365,-3.0,2021-01-21 19:39:55.278000+00:00,train
291,-2.9827959537506104,-3.0,2021-01-21 19:40:25.278000+00:00,train
292,-2.9917399883270264,-3.0,2021-01-21 19:40:55.278000+00:00,train
293,-3.0033061504364014,-3.0,2021-01-21 19:41:25.278000+00:00,train
294,-3.015371322631836,-3.0,2021-01-21 19:41:55.278000+00:00,train
295,-3.026550531387329,-3.0,2021-01-21 19:42:25.278000+00:00,train
296,-3.0355050563812256,-3.0,2021-01-21 19:42:55.278000+00:00,train
297,-3.040398597717285,-3.0,2021-01-21 19:43:25.278000+00:00,train
298,-3.0380430221557617,-3.0,2021-01-21 19:43:55.278000+00:00,train
299,-3.0249040126800537,-2.0,2021-01-21 19:44:25.278000+00:00,train
300,-2.9999475479125977,-2.0,2021-01-21 19:44:55.278000+00:00,train
301,-2.9709160327911377,-2.0,2021-01-21 19:45:25.278000+00:00,train
302,-3.0,-2.0,2021-01-21 19:45:55.278000+00:00,train
303,-3.0,-2.0,2021-01-21 19:46:25.278000+00:00,train
304,-3.0,-2.0,2021-01-21 19:46:55.278000+00:00,train
305,-3.0,-2.0,2021-01-21 19:47:25.278000+00:00,train
306,-2.8091681003570557,-2.0,2021-01-21 19:47:55.278000+00:00,train
307,-2.7142090797424316,-2.0,2021-01-21 19:48:25.278000+00:00,train
308,-2.636698007583618,-2.0,2021-01-21 19:48:55.278000+00:00,train
309,-2.5692801475524902,-2.0,2021-01-21 19:49:25.278000+00:00,train
310,-2.5088093280792236,-2.0,2021-01-21 19:49:55.278000+00:00,train
311,-2.453507900238037,-2.0,2021-01-21 19:50:25.278000+00:00,train
312,-2.402251720428467,-2.0,2021-01-21 19:50:55.278000+00:00,train
313,-2.354264497756958,-2.0,2021-01-21 19:51:25.278000+00:00,train
314,-2.3089888095855713,-2.0,2021-01-21 19:51:55.278000+00:00,train
315,-2.2660105228424072,-2.0,2021-01-21 19:52:25.278000+00:00,train
316,-2.2250144481658936,-2.0,2021-01-21 19:52:55.278000+00:00,train
317,-2.3662447929382324,-2.0,2021-01-21 19:53:25.278000+00:00,train
318,-2.3384785652160645,-2.0,2021-01-21 19:53:55.278000+00:00,train
319,-2.311770439147949,-2.0,2021-01-21 19:54:25.278000+00:00,train
320,-2.2860267162323,-2.0,2021-01-21 19:54:55.278000+00:00,train
321,-2.2611703872680664,-2.0,2021-01-21 19:55:25.278000+00:00,train
322,-2.2371373176574707,-2.0,2021-01-21 19:55:55.278000+00:00,train
323,-2.213871479034424,-2.0,2021-01-21 19:56:25.278000+00:00,train
324,-2.1913249492645264,-2.0,2021-01-21 19:56:55.278000+00:00,train
325,-2.16945743560791,-2.0,2021-01-21 19:57:25.278000+00:00,train
326,-2.148233413696289,-2.0,2021-01-21 19:57:55.278000+00:00,train
327,-2.127622604370117,-2.0,2021-01-21 19:58:25.278000+00:00,train
328,-2.1075990200042725,-2.0,2021-01-21 19:58:55.278000+00:00,train
329,-2.088141441345215,-2.0,2021-01-21 19:59:25.278000+00:00,train
330,-2.0692310333251953,-2.0,2021-01-21 19:59:55.278000+00:00,train
331,-2.0508525371551514,-2.0,2021-01-21 20:00:25.278000+00:00,train
332,-2.0329935550689697,-2.0,2021-01-21 20:00:55.278000+00:00,train
333,-2.015655279159546,-2.0,2021-01-21 20:01:25.278000+00:00,train
334,-1.9988223314285278,-2.0,2021-01-21 20:01:55.278000+00:00,train
335,-1.9824923276901245,-2.0,2021-01-21 20:02:25.278000+00:00,train
336,-1.9666645526885986,-2.0,2021-01-21 20:02:55.278000+00:00,train
337,-1.9513413906097412,-2.0,2021-01-21 20:03:25.278000+00:00,train
338,-1.9365286827087402,-2.0,2021-01-21 20:03:55.278000+00:00,train
339,-1.9222352504730225,-2.0,2021-01-21 20:04:25.278000+00:00,train
340,-1.9084724187850952,-2.0,2021-01-21 20:04:55.278000+00:00,train
341,-1.8952549695968628,-2.0,2021-01-21 20:05:25.278000+00:00,train
342,-1.882597804069519,-2.0,2021-01-21 20:05:55.278000+00:00,train
343,-1.8705165386199951,-2.0,2021-01-21 20:06:25.278000+00:00,train
344,-1.8590277433395386,-2.0,2021-01-21 20:06:55.278000+00:00,train
345,-1.8481472730636597,-2.0,2021-01-21 20:07:25.278000+00:00,train
346,-1.837886095046997,-2.0,2021-01-21 20:07:55.278000+00:00,train
347,-1.8282502889633179,-2.0,2021-01-21 20:08:25.278000+00:00,train
348,-1.819245457649231,-2.0,2021-01-21 20:08:55.278000+00:00,train
349,-1.810873031616211,-2.0,2021-01-21 20:09:25.278000+00:00,train
350,-1.8031421899795532,-2.0,2021-01-21 20:09:55.278000+00:00,train
351,-1.7961984872817993,-2.0,2021-01-21 20:10:25.278000+00:00,train
352,-1.7899686098098755,-2.0,2021-01-21 20:10:55.278000+00:00,train
353,-1.7845371961593628,-2.0,2021-01-21 20:11:25.278000+00:00,train
354,-1.7800525426864624,-2.0,2021-01-21 20:11:55.278000+00:00,train
355,-1.7767558097839355,-2.0,2021-01-21 20:12:25.278000+00:00,train
356,-1.7750331163406372,-2.0,2021-01-21 20:12:55.278000+00:00,train
357,-1.7754969596862793,-2.0,2021-01-21 20:13:25.278000+00:00,train
358,-1.7789870500564575,-2.0,2021-01-21 20:13:55.278000+00:00,train
359,-1.7865638732910156,-2.0,2021-01-21 20:14:25.278000+00:00,train
360,-1.7993863821029663,-2.0,2021-01-21 20:14:55.278000+00:00,train
361,-1.8181179761886597,-2.0,2021-01-21 20:15:25.278000+00:00,train
362,-1.8421516418457031,-2.0,2021-01-21 20:15:55.278000+00:00,train
363,-1.8680498600006104,-2.0,2021-01-21 20:16:25.278000+00:00,train
364,-1.8924329280853271,-2.0,2021-01-21 20:16:55.278000+00:00,train
365,-1.9135338068008423,-2.0,2021-01-21 20:17:25.278000+00:00,train
366,-1.9308525323867798,-2.0,2021-01-21 20:17:55.278000+00:00,train
367,-1.9446285963058472,-2.0,2021-01-21 20:18:25.278000+00:00,train
368,-1.9560487270355225,-2.0,2021-01-21 20:18:55.278000+00:00,train
369,-1.9648871421813965,-2.0,2021-01-21 20:19:25.278000+00:00,train
370,-1.9716695547103882,-2.0,2021-01-21 20:19:55.278000+00:00,train
371,-1.9769715070724487,-2.0,2021-01-21 20:20:25.278000+00:00,train
372,-1.9812490940093994,-2.0,2021-01-21 20:20:55.278000+00:00,train
373,-1.9848500490188599,-2.0,2021-01-21 20:21:25.278000+00:00,train
374,-1.9872291088104248,-2.0,2021-01-21 20:21:55.278000+00:00,train
375,-1.9895424842834473,-2.0,2021-01-21 20:22:25.278000+00:00,train
376,-1.9918959140777588,-2.0,2021-01-21 20:22:55.278000+00:00,train
377,-1.9943702220916748,-2.0,2021-01-21 20:23:25.278000+00:00,train
378,-1.996992588043213,-2.0,2021-01-21 20:23:55.278000+00:00,train
379,-1.9996403455734253,-2.0,2021-01-21 20:24:25.278000+00:00,train
380,-2.002321720123291,-2.0,2021-01-21 20:24:55.278000+00:00,train
381,-2.0050430297851562,-2.0,2021-01-21 20:25:25.278000+00:00,train
382,-2.0078139305114746,-2.0,2021-01-21 20:25:55.278000+00:00,train
383,-2.010629415512085,-2.0,2021-01-21 20:26:25.278000+00:00,train
384,-2.01350998878479,-2.0,2021-01-21 20:26:55.278000+00:00,train
385,-2.016451358795166,-2.0,2021-01-21 20:27:25.278000+00:00,train
386,-2.0194385051727295,-2.0,2021-01-21 20:27:55.278000+00:00,train
387,-2.02243709564209,-2.0,2021-01-21 20:28:25.278000+00:00,train
388,-2.025371551513672,-2.0,2021-01-21 20:28:55.278000+00:00,train
389,-2.0281760692596436,-2.0,2021-01-21 20:29:25.278000+00:00,train
390,-2.0307400226593018,-2.0,2021-01-21 20:29:55.278000+00:00,train
391,-2.0329232215881348,-2.0,2021-01-21 20:30:25.278000+00:00,train
392,-2.0346179008483887,-2.0,2021-01-21 20:30:55.278000+00:00,train
393,-2.0357415676116943,-2.0,2021-01-21 20:31:25.278000+00:00,train
394,-2.0362212657928467,-2.0,2021-01-21 20:31:55.278000+00:00,train
395,-2.036025047302246,-2.0,2021-01-21 20:32:25.278000+00:00,train
396,-2.035121202468872,-2.0,2021-01-21 20:32:55.278000+00:00,train
397,-2.033503770828247,-2.0,2021-01-21 20:33:25.278000+00:00,train
398,-2.0311827659606934,-2.0,2021-01-21 20:33:55.278000+00:00,train
399,-2.0281782150268555,-2.0,2021-01-21 20:34:25.278000+00:00,train
400,-2.0246143341064453,-2.0,2021-01-21 20:34:55.278000+00:00,train
401,-2.020381212234497,-2.0,2021-01-21 20:35:25.278000+00:00,train
402,-2.0155277252197266,-2.0,2021-01-21 20:35:55.278000+00:00,train
403,-2.0101211071014404,-2.0,2021-01-21 20:36:25.278000+00:00,train
404,-2.0043063163757324,-2.0,2021-01-21 20:36:55.278000+00:00,train
405,-2.0,-2.0,2021-01-21 20:37:25.278000+00:00,train
406,-2.0,-2.0,2021-01-21 20:37:55.278000+00:00,train
407,-2.0,-2.0,2021-01-21 20:38:25.278000+00:00,train
408,-2.0,-2.0,2021-01-21 20:38:55.278000+00:00,train
409,-2.0,-2.0,2021-01-21 20:39:25.278000+00:00,train
410,-2.0,-2.0,2021-01-21 20:39:55.278000+00:00,train
411,-2.0,-2.0,2021-01-21 20:40:25.278000+00:00,train
412,-2.0,-2.0,2021-01-21 20:40:55.278000+00:00,train
413,-2.0,-2.0,2021-01-21 20:41:25.278000+00:00,train
414,-2.0,-2.0,2021-01-21 20:41:55.278000+00:00,train
415,-2.0,-2.0,2021-01-21 20:42:25.278000+00:00,train
416,-2.0,-2.0,2021-01-21 20:42:55.278000+00:00,train
417,-2.0,-2.0,2021-01-21 20:43:25.278000+00:00,train
418,-2.0,-2.0,2021-01-21 20:43:55.278000+00:00,train
419,-2.0,-2.0,2021-01-21 20:44:25.278000+00:00,train
420,-2.0,-2.0,2021-01-21 20:44:55.278000+00:00,train
421,-2.0,-2.0,2021-01-21 20:45:25.278000+00:00,train
422,-2.0,-2.0,2021-01-21 20:45:55.278000+00:00,train
423,-2.0,-2.0,2021-01-21 20:46:25.278000+00:00,train
424,-2.0,-2.0,2021-01-21 20:46:55.278000+00:00,train
425,-2.0,-2.0,2021-01-21 20:47:25.278000+00:00,train
426,-2.0,-2.0,2021-01-21 20:47:55.278000+00:00,train
427,-2.0,-2.0,2021-01-21 20:48:25.278000+00:00,train
428,-2.0,-2.0,2021-01-21 20:48:55.278000+00:00,train
429,-2.0,-2.0,2021-01-21 20:49:25.278000+00:00,train
430,-2.0,-2.0,2021-01-21 20:49:55.278000+00:00,train
431,-2.0,-2.0,2021-01-21 20:50:25.278000+00:00,train
432,-2.0,-2.0,2021-01-21 20:50:55.278000+00:00,train
433,-2.0,-2.0,2021-01-21 20:51:25.278000+00:00,train
434,-2.0,-2.0,2021-01-21 20:51:55.278000+00:00,train
435,-2.0,-2.0,2021-01-21 20:52:25.278000+00:00,train
436,-2.0,-2.0,2021-01-21 20:52:55.278000+00:00,train
437,-2.0,-2.0,2021-01-21 20:53:25.278000+00:00,train
438,-2.0,-2.0,2021-01-21 20:53:55.278000+00:00,train
439,-2.0,-2.0,2021-01-21 20:54:25.278000+00:00,train
440,-2.0,-2.0,2021-01-21 20:54:55.278000+00:00,train
441,-2.0,-2.0,2021-01-21 20:55:25.278000+00:00,train
442,-2.0,-2.0,2021-01-21 20:55:55.278000+00:00,train
443,-2.0,-2.0,2021-01-21 20:56:25.278000+00:00,train
444,-2.0,-2.0,2021-01-21 20:56:55.278000+00:00,train
445,-2.0,-2.0,2021-01-21 20:57:25.278000+00:00,train
446,-2.0,-2.0,2021-01-21 20:57:55.278000+00:00,train
447,-2.0,-2.0,2021-01-21 20:58:25.278000+00:00,train
448,-2.0,-2.0,2021-01-21 20:58:55.278000+00:00,train
449,-2.0,-2.0,2021-01-21 20:59:25.278000+00:00,train
450,-2.0,-2.0,2021-01-21 20:59:55.278000+00:00,train
451,-2.0,-2.0,2021-01-21 21:00:25.278000+00:00,train
452,-2.0,0.0,2021-01-21 21:00:55.278000+00:00,train
453,-2.0,-2.0,2021-01-21 21:01:25.278000+00:00,train
454,-2.0,-2.0,2021-01-21 21:01:55.278000+00:00,train
455,-2.0,-2.0,2021-01-21 21:02:25.278000+00:00,train
456,-2.0,-2.0,2021-01-21 21:02:55.278000+00:00,train
457,-2.0,-2.0,2021-01-21 21:03:25.278000+00:00,train
458,-2.0,-2.0,2021-01-21 21:03:55.278000+00:00,train
459,-2.0086851119995117,-2.0,2021-01-21 21:04:25.278000+00:00,train
460,-2.008737325668335,-2.0,2021-01-21 21:04:55.278000+00:00,train
461,-2.0087203979492188,-2.0,2021-01-21 21:05:25.278000+00:00,train
462,-2.0087778568267822,-2.0,2021-01-21 21:05:55.278000+00:00,train
463,-2.0088281631469727,-2.0,2021-01-21 21:06:25.278000+00:00,train
464,-2.0088727474212646,-2.0,2021-01-21 21:06:55.278000+00:00,train
465,-2.008911371231079,-2.0,2021-01-21 21:07:25.278000+00:00,train
466,-2.0089452266693115,-2.0,2021-01-21 21:07:55.278000+00:00,train
467,-2.0089735984802246,-2.0,2021-01-21 21:08:25.278000+00:00,train
468,-2.0089967250823975,-2.0,2021-01-21 21:08:55.278000+00:00,train
469,-2.0090160369873047,-2.0,2021-01-21 21:09:25.278000+00:00,train
470,-2.009030818939209,-2.0,2021-01-21 21:09:55.278000+00:00,train
471,-2.0090415477752686,-2.0,2021-01-21 21:10:25.278000+00:00,train
472,-2.0090479850769043,-2.0,2021-01-21 21:10:55.278000+00:00,train
473,-2.0090503692626953,-2.0,2021-01-21 21:11:25.278000+00:00,train
474,-2.0090489387512207,-2.0,2021-01-21 21:11:55.278000+00:00,train
475,-2.0090434551239014,-2.0,2021-01-21 21:12:25.278000+00:00,train
476,-2.0090339183807373,-2.0,2021-01-21 21:12:55.278000+00:00,train
477,-2.0090203285217285,-2.0,2021-01-21 21:13:25.278000+00:00,train
478,-2.009002447128296,-2.0,2021-01-21 21:13:55.278000+00:00,train
479,-2.0089802742004395,-2.0,2021-01-21 21:14:25.278000+00:00,train
480,-2.00895357131958,-2.0,2021-01-21 21:14:55.278000+00:00,train
481,-2.0089223384857178,-2.0,2021-01-21 21:15:25.278000+00:00,train
482,-2.008885622024536,-2.0,2021-01-21 21:15:55.278000+00:00,train
483,-2.008843421936035,-2.0,2021-01-21 21:16:25.278000+00:00,train
484,-2.0087952613830566,-2.0,2021-01-21 21:16:55.278000+00:00,train
485,-2.0087404251098633,-2.0,2021-01-21 21:17:25.278000+00:00,train
486,-2.008678674697876,-2.0,2021-01-21 21:17:55.278000+00:00,train
487,-2.0086090564727783,-2.0,2021-01-21 21:18:25.278000+00:00,train
488,-2.008530616760254,-2.0,2021-01-21 21:18:55.278000+00:00,train
489,-2.0084428787231445,-2.0,2021-01-21 21:19:25.278000+00:00,train
490,-2.0083446502685547,-2.0,2021-01-21 21:19:55.278000+00:00,train
491,-2.008235454559326,-2.0,2021-01-21 21:20:25.278000+00:00,train
492,-2.008115530014038,-2.0,2021-01-21 21:20:55.278000+00:00,train
493,-2.0079805850982666,-2.0,2021-01-21 21:21:25.278000+00:00,train
494,-2.0078318119049072,-2.0,2021-01-21 21:21:55.278000+00:00,train
495,-2.0076661109924316,-2.0,2021-01-21 21:22:25.278000+00:00,train
496,-2.0074827671051025,-2.0,2021-01-21 21:22:55.278000+00:00,train
497,-2.0072808265686035,-2.0,2021-01-21 21:23:25.278000+00:00,train
498,-2.007058620452881,-2.0,2021-01-21 21:23:55.278000+00:00,train
499,-2.006814479827881,-2.0,2021-01-21 21:24:25.278000+00:00,train
500,-2.0065460205078125,-2.0,2021-01-21 21:24:55.278000+00:00,train
501,-2.0062527656555176,-2.0,2021-01-21 21:25:25.278000+00:00,train
502,-2.005932569503784,-2.0,2021-01-21 21:25:55.278000+00:00,train
503,-2.005584478378296,-2.0,2021-01-21 21:26:25.278000+00:00,train
504,-2.005207061767578,-2.0,2021-01-21 21:26:55.278000+00:00,train
505,-2.0047974586486816,-2.0,2021-01-21 21:27:25.278000+00:00,train
506,-2.004356861114502,-2.0,2021-01-21 21:27:55.278000+00:00,train
507,-2.0038821697235107,-2.0,2021-01-21 21:28:25.278000+00:00,train
508,-2.0033719539642334,-2.0,2021-01-21 21:28:55.278000+00:00,train
509,-2.002824306488037,-2.0,2021-01-21 21:29:25.278000+00:00,train
510,-2.0022382736206055,-2.0,2021-01-21 21:29:55.278000+00:00,train
511,-2.001612901687622,-2.0,2021-01-21 21:30:25.278000+00:00,train
512,-2.0009469985961914,-2.0,2021-01-21 21:30:55.278000+00:00,train
513,-2.000239372253418,-2.0,2021-01-21 21:31:25.278000+00:00,train
514,-1.999489665031433,-2.0,2021-01-21 21:31:55.278000+00:00,train
515,-1.998697280883789,-2.0,2021-01-21 21:32:25.278000+00:00,train
516,-1.9978628158569336,-2.0,2021-01-21 21:32:55.278000+00:00,train
517,-1.9969877004623413,-2.0,2021-01-21 21:33:25.278000+00:00,train
518,-1.9960711002349854,-2.0,2021-01-21 21:33:55.278000+00:00,train
519,-1.9951149225234985,-2.0,2021-01-21 21:34:25.278000+00:00,train
520,-1.9941205978393555,-2.0,2021-01-21 21:34:55.278000+00:00,train
521,-1.9930893182754517,-2.0,2021-01-21 21:35:25.278000+00:00,train
522,-1.9920238256454468,-2.0,2021-01-21 21:35:55.278000+00:00,train
523,-1.9909253120422363,-2.0,2021-01-21 21:36:25.278000+00:00,train
524,-1.9897968769073486,-2.0,2021-01-21 21:36:55.278000+00:00,train
525,-1.988640546798706,-2.0,2021-01-21 21:37:25.278000+00:00,train
526,-1.9874591827392578,-2.0,2021-01-21 21:37:55.278000+00:00,train
527,-1.986255407333374,-2.0,2021-01-21 21:38:25.278000+00:00,train
528,-1.9850304126739502,-2.0,2021-01-21 21:38:55.278000+00:00,train
529,-1.9837888479232788,-2.0,2021-01-21 21:39:25.278000+00:00,train
530,-1.9825321435928345,-2.0,2021-01-21 21:39:55.278000+00:00,train
531,-1.981263518333435,-2.0,2021-01-21 21:40:25.278000+00:00,train
532,-1.9799842834472656,-2.0,2021-01-21 21:40:55.278000+00:00,train
533,-1.9786968231201172,-2.0,2021-01-21 21:41:25.278000+00:00,train
534,-1.977410078048706,-2.0,2021-01-21 21:41:55.278000+00:00,train
535,-1.9761186838150024,-2.0,2021-01-21 21:42:25.278000+00:00,train
536,-1.97482430934906,-2.0,2021-01-21 21:42:55.278000+00:00,train
537,-1.9735276699066162,-2.0,2021-01-21 21:43:25.278000+00:00,train
538,-1.972230315208435,-2.0,2021-01-21 21:43:55.278000+00:00,train
539,-1.9709333181381226,-2.0,2021-01-21 21:44:25.278000+00:00,train
540,-1.9696378707885742,-2.0,2021-01-21 21:44:55.278000+00:00,train
541,-1.9683476686477661,-2.0,2021-01-21 21:45:25.278000+00:00,train
542,-1.9670675992965698,-2.0,2021-01-21 21:45:55.278000+00:00,train
543,-1.9658021926879883,-2.0,2021-01-21 21:46:25.278000+00:00,train
544,-1.964555025100708,-2.0,2021-01-21 21:46:55.278000+00:00,train
545,-1.963327407836914,-2.0,2021-01-21 21:47:25.278000+00:00,train
546,-1.9621179103851318,-2.0,2021-01-21 21:47:55.278000+00:00,train
547,-1.9609270095825195,-2.0,2021-01-21 21:48:25.278000+00:00,train
548,-1.9597539901733398,-2.0,2021-01-21 21:48:55.278000+00:00,train
549,-1.9585984945297241,-2.0,2021-01-21 21:49:25.278000+00:00,train
550,-1.9574600458145142,-2.0,2021-01-21 21:49:55.278000+00:00,train
551,-1.9563467502593994,-2.0,2021-01-21 21:50:25.278000+00:00,train
552,-1.955250859260559,-2.0,2021-01-21 21:50:55.278000+00:00,train
553,-1.954171895980835,-2.0,2021-01-21 21:51:25.278000+00:00,train
554,-1.9531086683273315,-2.0,2021-01-21 21:51:55.278000+00:00,train
555,-1.9520593881607056,-2.0,2021-01-21 21:52:25.278000+00:00,train
556,-1.9510228633880615,-2.0,2021-01-21 21:52:55.278000+00:00,train
557,-1.9500051736831665,-2.0,2021-01-21 21:53:25.278000+00:00,train
558,-1.9490656852722168,-2.0,2021-01-21 21:53:55.278000+00:00,train
559,-2.0,-2.0,2021-01-21 21:54:25.278000+00:00,train
560,-2.0,-2.0,2021-01-21 21:54:55.278000+00:00,train
561,-2.0,-2.0,2021-01-21 21:55:25.278000+00:00,train
562,-2.0,-2.0,2021-01-21 21:55:55.278000+00:00,train
563,-2.0,-1.0,2021-01-21 21:56:25.278000+00:00,train
564,-2.0,-2.0,2021-01-21 21:56:55.278000+00:00,train
565,-2.0,-2.0,2021-01-21 21:57:25.278000+00:00,train
566,-2.0,-2.0,2021-01-21 21:57:55.278000+00:00,train
567,-2.0,-2.0,2021-01-21 21:58:25.278000+00:00,train
568,-2.0,-2.0,2021-01-21 21:58:55.278000+00:00,train
569,-2.0,-2.0,2021-01-21 21:59:25.278000+00:00,train
570,-1.969407558441162,-1.0,2021-01-21 21:59:55.278000+00:00,train
571,-1.9690394401550293,-1.0,2021-01-21 22:00:25.278000+00:00,train
572,-1.96868097782135,0.0,2021-01-21 22:00:55.278000+00:00,train
573,-1.9683318138122559,-1.0,2021-01-21 22:01:25.278000+00:00,train
574,-1.967991828918457,-1.0,2021-01-21 22:01:55.278000+00:00,train
575,-1.9676610231399536,-1.0,2021-01-21 22:02:25.278000+00:00,train
576,-1.9673391580581665,-1.0,2021-01-21 22:02:55.278000+00:00,train
577,-1.947510838508606,-1.0,2021-01-21 22:03:25.278000+00:00,train
578,-1.9296984672546387,-1.0,2021-01-21 22:03:55.278000+00:00,train
579,-1.8869820833206177,-1.0,2021-01-21 22:04:25.278000+00:00,train
580,-1.871822714805603,-1.0,2021-01-21 22:04:55.278000+00:00,train
581,-1.8568644523620605,-1.0,2021-01-21 22:05:25.278000+00:00,train
582,-1.8420326709747314,-1.0,2021-01-21 22:05:55.278000+00:00,train
583,-1.8273236751556396,-1.0,2021-01-21 22:06:25.278000+00:00,train
584,-1.8127204179763794,-1.0,2021-01-21 22:06:55.278000+00:00,train
585,-1.7982081174850464,-1.0,2021-01-21 22:07:25.278000+00:00,train
586,-1.7837713956832886,-1.0,2021-01-21 22:07:55.278000+00:00,train
587,-1.1828062534332275,-1.0,2021-01-21 22:08:25.278000+00:00,train
588,-1.1620986461639404,-1.0,2021-01-21 22:08:55.278000+00:00,train
589,-1.142037272453308,-1.0,2021-01-21 22:09:25.278000+00:00,train
590,-1.1226463317871094,-1.0,2021-01-21 22:09:55.278000+00:00,train
591,-1.1039164066314697,-1.0,2021-01-21 22:10:25.278000+00:00,train
592,-1.0857514142990112,-1.0,2021-01-21 22:10:55.278000+00:00,train
593,-1.0680468082427979,-1.0,2021-01-21 22:11:25.278000+00:00,train
594,-1.0507179498672485,-1.0,2021-01-21 22:11:55.278000+00:00,train
595,-1.0337259769439697,-1.0,2021-01-21 22:12:25.278000+00:00,train
596,-1.0170655250549316,-1.0,2021-01-21 22:12:55.278000+00:00,train
597,-1.0007444620132446,-1.0,2021-01-21 22:13:25.278000+00:00,train
598,-0.9847988486289978,-1.0,2021-01-21 22:13:55.278000+00:00,train
599,-0.969281792640686,-1.0,2021-01-21 22:14:25.278000+00:00,train
600,-0.9542503952980042,-1.0,2021-01-21 22:14:55.278000+00:00,train
601,-0.9397841095924377,-1.0,2021-01-21 22:15:25.278000+00:00,train
602,-0.9259781837463379,-1.0,2021-01-21 22:15:55.278000+00:00,train
603,-0.9129559993743896,-1.0,2021-01-21 22:16:25.278000+00:00,train
604,-0.9008999466896057,-1.0,2021-01-21 22:16:55.278000+00:00,train
605,-0.8900676369667053,-1.0,2021-01-21 22:17:25.278000+00:00,train
606,-0.8807753920555115,-1.0,2021-01-21 22:17:55.278000+00:00,train
607,-0.8735310435295105,-1.0,2021-01-21 22:18:25.278000+00:00,train
608,-0.8691652417182922,-1.0,2021-01-21 22:18:55.278000+00:00,train
609,-0.8688881993293762,-1.0,2021-01-21 22:19:25.278000+00:00,train
610,-0.8739862442016602,-1.0,2021-01-21 22:19:55.278000+00:00,train
611,-0.8848741054534912,-1.0,2021-01-21 22:20:25.278000+00:00,train
612,-0.8998632431030273,-1.0,2021-01-21 22:20:55.278000+00:00,train
613,-0.9166074395179749,-1.0,2021-01-21 22:21:25.278000+00:00,train
614,-0.9332714080810547,-1.0,2021-01-21 22:21:55.278000+00:00,train
615,-0.9487189054489136,-1.0,2021-01-21 22:22:25.278000+00:00,train
616,-0.9624790549278259,-1.0,2021-01-21 22:22:55.278000+00:00,train
617,-0.9746190309524536,-1.0,2021-01-21 22:23:25.278000+00:00,train
618,-0.984751284122467,-1.0,2021-01-21 22:23:55.278000+00:00,train
619,-0.9932730197906494,-1.0,2021-01-21 22:24:25.278000+00:00,train
620,-1.0010151863098145,-1.0,2021-01-21 22:24:55.278000+00:00,train
621,-1.0086778402328491,-1.0,2021-01-21 22:25:25.278000+00:00,train
622,-1.0166138410568237,-1.0,2021-01-21 22:25:55.278000+00:00,train
623,-1.0249695777893066,-1.0,2021-01-21 22:26:25.278000+00:00,train
624,-1.0333211421966553,-1.0,2021-01-21 22:26:55.278000+00:00,train
625,-1.0413414239883423,-1.0,2021-01-21 22:27:25.278000+00:00,train
626,-1.0487792491912842,-1.0,2021-01-21 22:27:55.278000+00:00,train
627,-1.0554232597351074,-1.0,2021-01-21 22:28:25.278000+00:00,train
628,-1.061340093612671,-1.0,2021-01-21 22:28:55.278000+00:00,train
629,-1.066638469696045,-1.0,2021-01-21 22:29:25.278000+00:00,train
630,-1.0715980529785156,-1.0,2021-01-21 22:29:55.278000+00:00,train
631,-1.0766780376434326,-1.0,2021-01-21 22:30:25.278000+00:00,train
632,-1.0821350812911987,-1.0,2021-01-21 22:30:55.278000+00:00,train
633,-1.0877337455749512,-1.0,2021-01-21 22:31:25.278000+00:00,train
634,-1.0934029817581177,-1.0,2021-01-21 22:31:55.278000+00:00,train
635,-1.0990701913833618,-1.0,2021-01-21 22:32:25.278000+00:00,train
636,-1.1048686504364014,-1.0,2021-01-21 22:32:55.278000+00:00,train
637,-1.111234426498413,-1.0,2021-01-21 22:33:25.278000+00:00,train
638,-1.1186672449111938,-1.0,2021-01-21 22:33:55.278000+00:00,train
639,-1.127359390258789,-1.0,2021-01-21 22:34:25.278000+00:00,train
640,-1.1370035409927368,-1.0,2021-01-21 22:34:55.278000+00:00,train
641,-1.146793246269226,-1.0,2021-01-21 22:35:25.278000+00:00,train
642,-1.155686855316162,-1.0,2021-01-21 22:35:55.278000+00:00,train
643,-1.1628172397613525,-1.0,2021-01-21 22:36:25.278000+00:00,train
644,-1.1677603721618652,-1.0,2021-01-21 22:36:55.278000+00:00,train
645,-1.1705067157745361,-1.0,2021-01-21 22:37:25.278000+00:00,train
646,-1.1712950468063354,-1.0,2021-01-21 22:37:55.278000+00:00,train
647,-1.1704392433166504,-1.0,2021-01-21 22:38:25.278000+00:00,train
648,-1.168260931968689,-1.0,2021-01-21 22:38:55.278000+00:00,train
649,-1.1650360822677612,-1.0,2021-01-21 22:39:25.278000+00:00,train
650,-1.1610032320022583,-1.0,2021-01-21 22:39:55.278000+00:00,train
651,-1.1563118696212769,-1.0,2021-01-21 22:40:25.278000+00:00,train
652,-1.1510944366455078,-1.0,2021-01-21 22:40:55.278000+00:00,train
653,-1.145450234413147,-1.0,2021-01-21 22:41:25.278000+00:00,train
654,-1.1394563913345337,-1.0,2021-01-21 22:41:55.278000+00:00,train
655,-1.1331738233566284,-1.0,2021-01-21 22:42:25.278000+00:00,train
656,-1.1266473531723022,-1.0,2021-01-21 22:42:55.278000+00:00,train
657,-1.1199144124984741,-1.0,2021-01-21 22:43:25.278000+00:00,train
658,-1.1130023002624512,-1.0,2021-01-21 22:43:55.278000+00:00,train
659,-1.1059327125549316,-1.0,2021-01-21 22:44:25.278000+00:00,train
660,-1.0987223386764526,-1.0,2021-01-21 22:44:55.278000+00:00,train
661,-1.0913817882537842,-1.0,2021-01-21 22:45:25.278000+00:00,train
662,-1.0839207172393799,-1.0,2021-01-21 22:45:55.278000+00:00,train
663,-1.076346755027771,-1.0,2021-01-21 22:46:25.278000+00:00,train
664,-1.0686657428741455,-1.0,2021-01-21 22:46:55.278000+00:00,train
665,-1.0608824491500854,-1.0,2021-01-21 22:47:25.278000+00:00,train
666,-1.0530009269714355,-1.0,2021-01-21 22:47:55.278000+00:00,train
667,-1.04502534866333,-1.0,2021-01-21 22:48:25.278000+00:00,train
668,-1.0369617938995361,-1.0,2021-01-21 22:48:55.278000+00:00,train
669,-1.02881920337677,-1.0,2021-01-21 22:49:25.278000+00:00,train
670,-1.0300847291946411,-1.0,2021-01-21 22:49:55.278000+00:00,train
671,-1.0217911005020142,-1.0,2021-01-21 22:50:25.278000+00:00,train
672,-1.0134481191635132,-1.0,2021-01-21 22:50:55.278000+00:00,train
673,-1.00508713722229,-1.0,2021-01-21 22:51:25.278000+00:00,train
674,-0.9967765808105469,-1.0,2021-01-21 22:51:55.278000+00:00,train
675,-0.988673210144043,-1.0,2021-01-21 22:52:25.278000+00:00,train
676,-0.981247067451477,-1.0,2021-01-21 22:52:55.278000+00:00,train
677,-0.9817491769790649,-1.0,2021-01-21 22:53:25.278000+00:00,train
678,-0.9822500348091125,-1.0,2021-01-21 22:53:55.278000+00:00,train
679,-1.0,-1.0,2021-01-21 22:54:25.278000+00:00,train
680,-1.0,-1.0,2021-01-21 22:54:55.278000+00:00,train
681,-1.0,-1.0,2021-01-21 22:55:25.278000+00:00,train
682,-1.0,-1.0,2021-01-21 22:55:55.278000+00:00,train
683,-1.0,-1.0,2021-01-21 22:56:25.278000+00:00,train
684,-1.0,-1.0,2021-01-21 22:56:55.278000+00:00,train
685,-1.0,-1.0,2021-01-21 22:57:25.278000+00:00,train
686,-1.0,-1.0,2021-01-21 22:57:55.278000+00:00,train
687,-1.0,-1.0,2021-01-21 22:58:25.278000+00:00,train
688,-1.0,-1.0,2021-01-21 22:58:55.278000+00:00,train
689,-1.0,-1.0,2021-01-21 22:59:25.278000+00:00,train
690,-1.0,-1.0,2021-01-21 22:59:55.278000+00:00,train
691,-1.0,-1.0,2021-01-21 23:00:25.278000+00:00,train
692,-1.0,0.0,2021-01-21 23:00:55.278000+00:00,train
693,-1.0,-1.0,2021-01-21 23:01:25.278000+00:00,train
694,-1.0,-1.0,2021-01-21 23:01:55.278000+00:00,train
695,-1.0,-1.0,2021-01-21 23:02:25.278000+00:00,train
696,-1.0,-1.0,2021-01-21 23:02:55.278000+00:00,train
697,-1.0,-1.0,2021-01-21 23:03:25.278000+00:00,train
698,-1.0,-1.0,2021-01-21 23:03:55.278000+00:00,train
699,-0.9916703104972839,-1.0,2021-01-21 23:04:25.278000+00:00,train
700,-0.9920610785484314,-1.0,2021-01-21 23:04:55.278000+00:00,train
701,-0.99244225025177,-1.0,2021-01-21 23:05:25.278000+00:00,train
702,-0.9928147196769714,-1.0,2021-01-21 23:05:55.278000+00:00,train
703,-0.9931752681732178,-1.0,2021-01-21 23:06:25.278000+00:00,train
704,-0.993526816368103,-1.0,2021-01-21 23:06:55.278000+00:00,train
705,-0.9938690662384033,-1.0,2021-01-21 23:07:25.278000+00:00,train
706,-0.9942007064819336,-1.0,2021-01-21 23:07:55.278000+00:00,train
707,-0.9945223331451416,-1.0,2021-01-21 23:08:25.278000+00:00,train
708,-0.9948341250419617,-1.0,2021-01-21 23:08:55.278000+00:00,train
709,-0.9951355457305908,-1.0,2021-01-21 23:09:25.278000+00:00,train
710,-0.9954266548156738,-1.0,2021-01-21 23:09:55.278000+00:00,train
711,-0.9957075715065002,-1.0,2021-01-21 23:10:25.278000+00:00,train
712,-0.9959785342216492,-1.0,2021-01-21 23:10:55.278000+00:00,train
713,-0.9962394833564758,-1.0,2021-01-21 23:11:25.278000+00:00,train
714,-0.996492862701416,-1.0,2021-01-21 23:11:55.278000+00:00,train
715,-0.9967367649078369,-1.0,2021-01-21 23:12:25.278000+00:00,train
716,-0.9969719648361206,-1.0,2021-01-21 23:12:55.278000+00:00,train
717,-0.9971988201141357,-1.0,2021-01-21 23:13:25.278000+00:00,train
718,-0.9974178671836853,-1.0,2021-01-21 23:13:55.278000+00:00,train
719,-0.9976294636726379,-1.0,2021-01-21 23:14:25.278000+00:00,train
720,-0.9978342056274414,-1.0,2021-01-21 23:14:55.278000+00:00,train
721,-0.9980327486991882,-1.0,2021-01-21 23:15:25.278000+00:00,train
722,-0.9982256889343262,-1.0,2021-01-21 23:15:55.278000+00:00,train
723,-0.9984136819839478,-1.0,2021-01-21 23:16:25.278000+00:00,train
724,-0.9985974431037903,-1.0,2021-01-21 23:16:55.278000+00:00,train
725,-0.9987775683403015,-1.0,2021-01-21 23:17:25.278000+00:00,train
726,-0.9989545941352844,-1.0,2021-01-21 23:17:55.278000+00:00,train
727,-0.9991293549537659,-1.0,2021-01-21 23:18:25.278000+00:00,train
728,-0.9993027448654175,-1.0,2021-01-21 23:18:55.278000+00:00,train
729,-0.9994752407073975,-1.0,2021-01-21 23:19:25.278000+00:00,train
730,-0.9996482729911804,-1.0,2021-01-21 23:19:55.278000+00:00,train
731,-0.9998226761817932,-1.0,2021-01-21 23:20:25.278000+00:00,train
732,-0.999999463558197,-1.0,2021-01-21 23:20:55.278000+00:00,train
733,-1.0001792907714844,-1.0,2021-01-21 23:21:25.278000+00:00,train
734,-1.0003620386123657,-1.0,2021-01-21 23:21:55.278000+00:00,train
735,-1.000546932220459,-1.0,2021-01-21 23:22:25.278000+00:00,train
736,-1.0007346868515015,-1.0,2021-01-21 23:22:55.278000+00:00,train
737,-1.000927209854126,-1.0,2021-01-21 23:23:25.278000+00:00,train
738,-1.0011240243911743,-1.0,2021-01-21 23:23:55.278000+00:00,train
739,-1.001326084136963,-1.0,2021-01-21 23:24:25.278000+00:00,train
740,-1.0015337467193604,-1.0,2021-01-21 23:24:55.278000+00:00,train
741,-1.001747727394104,-1.0,2021-01-21 23:25:25.278000+00:00,train
742,-1.0019686222076416,-1.0,2021-01-21 23:25:55.278000+00:00,train
743,-1.0021969079971313,-1.0,2021-01-21 23:26:25.278000+00:00,train
744,-1.0024334192276,-1.0,2021-01-21 23:26:55.278000+00:00,train
745,-1.0026791095733643,-1.0,2021-01-21 23:27:25.278000+00:00,train
746,-1.0029343366622925,-1.0,2021-01-21 23:27:55.278000+00:00,train
747,-1.0032002925872803,-1.0,2021-01-21 23:28:25.278000+00:00,train
748,-1.0034775733947754,-1.0,2021-01-21 23:28:55.278000+00:00,train
749,-1.0037667751312256,-1.0,2021-01-21 23:29:25.278000+00:00,train
750,-1.004069447517395,-1.0,2021-01-21 23:29:55.278000+00:00,train
751,-1.0043864250183105,-1.0,2021-01-21 23:30:25.278000+00:00,train
752,-1.0047186613082886,-1.0,2021-01-21 23:30:55.278000+00:00,train
753,-1.0050674676895142,-1.0,2021-01-21 23:31:25.278000+00:00,train
754,-1.0054336786270142,-1.0,2021-01-21 23:31:55.278000+00:00,train
755,-1.005818486213684,-1.0,2021-01-21 23:32:25.278000+00:00,train
756,-1.0062230825424194,-1.0,2021-01-21 23:32:55.278000+00:00,train
757,-1.0066488981246948,-1.0,2021-01-21 23:33:25.278000+00:00,train
758,-1.0070970058441162,-1.0,2021-01-21 23:33:55.278000+00:00,train
759,-1.007568597793579,-1.0,2021-01-21 23:34:25.278000+00:00,train
760,-1.0080686807632446,-1.0,2021-01-21 23:34:55.278000+00:00,train
761,-1.008595585823059,-1.0,2021-01-21 23:35:25.278000+00:00,train
762,-1.0091509819030762,-1.0,2021-01-21 23:35:55.278000+00:00,train
763,-1.0097360610961914,-1.0,2021-01-21 23:36:25.278000+00:00,train
764,-1.0103520154953003,-1.0,2021-01-21 23:36:55.278000+00:00,train
765,-1.0110002756118774,-1.0,2021-01-21 23:37:25.278000+00:00,train
766,-1.0116809606552124,-1.0,2021-01-21 23:37:55.278000+00:00,train
767,-1.0123956203460693,-1.0,2021-01-21 23:38:25.278000+00:00,train
768,-1.0131447315216064,-1.0,2021-01-21 23:38:55.278000+00:00,train
769,-1.0139275789260864,-1.0,2021-01-21 23:39:25.278000+00:00,train
770,-1.0147427320480347,-1.0,2021-01-21 23:39:55.278000+00:00,train
771,-1.0155894756317139,-1.0,2021-01-21 23:40:25.278000+00:00,train
772,-1.016463041305542,-1.0,2021-01-21 23:40:55.278000+00:00,train
773,-1.0173600912094116,-1.0,2021-01-21 23:41:25.278000+00:00,train
774,-1.0182769298553467,-1.0,2021-01-21 23:41:55.278000+00:00,train
775,-1.0192089080810547,-1.0,2021-01-21 23:42:25.278000+00:00,train
776,-1.0201499462127686,-1.0,2021-01-21 23:42:55.278000+00:00,train
777,-1.0210920572280884,-1.0,2021-01-21 23:43:25.278000+00:00,train
778,-1.0220271348953247,-1.0,2021-01-21 23:43:55.278000+00:00,train
779,-1.022944688796997,-1.0,2021-01-21 23:44:25.278000+00:00,train
780,-1.0238324403762817,-1.0,2021-01-21 23:44:55.278000+00:00,train
781,-1.024675726890564,-1.0,2021-01-21 23:45:25.278000+00:00,train
782,-1.0254566669464111,-1.0,2021-01-21 23:45:55.278000+00:00,train
783,-1.0261638164520264,-1.0,2021-01-21 23:46:25.278000+00:00,train
784,-1.0267730951309204,-1.0,2021-01-21 23:46:55.278000+00:00,train
785,-1.0272635221481323,-1.0,2021-01-21 23:47:25.278000+00:00,train
786,-1.0276117324829102,-1.0,2021-01-21 23:47:55.278000+00:00,train
787,-1.027791142463684,-1.0,2021-01-21 23:48:25.278000+00:00,train
788,-1.0277715921401978,-1.0,2021-01-21 23:48:55.278000+00:00,train
789,-1.0275195837020874,-1.0,2021-01-21 23:49:25.278000+00:00,train
790,-1.026996374130249,-1.0,2021-01-21 23:49:55.278000+00:00,train
791,-1.026158332824707,-1.0,2021-01-21 23:50:25.278000+00:00,train
792,-1.0249557495117188,-1.0,2021-01-21 23:50:55.278000+00:00,train
793,-1.0233323574066162,-1.0,2021-01-21 23:51:25.278000+00:00,train
794,-1.0212244987487793,-1.0,2021-01-21 23:51:55.278000+00:00,train
795,-1.0185643434524536,-1.0,2021-01-21 23:52:25.278000+00:00,train
796,-1.0152655839920044,-1.0,2021-01-21 23:52:55.278000+00:00,train
797,-1.011224389076233,-1.0,2021-01-21 23:53:25.278000+00:00,train
798,-1.0063552856445312,-1.0,2021-01-21 23:53:55.278000+00:00,train
799,-1.0,-1.0,2021-01-21 23:54:25.278000+00:00,train
800,-1.0,-1.0,2021-01-21 23:54:55.278000+00:00,train
801,-1.0,-1.0,2021-01-21 23:55:25.278000+00:00,train
802,-1.0,-1.0,2021-01-21 23:55:55.278000+00:00,train
803,-1.0,-1.0,2021-01-21 23:56:25.278000+00:00,train
804,-1.0,-1.0,2021-01-21 23:56:55.278000+00:00,train
805,-1.0,-1.0,2021-01-21 23:57:25.278000+00:00,train
806,-1.0,-1.0,2021-01-21 23:57:55.278000+00:00,train
807,-1.0,-1.0,2021-01-21 23:58:25.278000+00:00,train
808,-1.0,-1.0,2021-01-21 23:58:55.278000+00:00,train
809,-1.0,-1.0,2021-01-21 23:59:25.278000+00:00,train
810,-1.0,-1.0,2021-01-21 23:59:55.278000+00:00,train
811,-1.0,-1.0,2021-01-22 00:00:25.278000+00:00,train
812,-1.0,-1.0,2021-01-22 00:00:55.278000+00:00,train
813,-1.0,-1.0,2021-01-22 00:01:25.278000+00:00,train
814,-1.0,-1.0,2021-01-22 00:01:55.278000+00:00,train
815,-1.0,-1.0,2021-01-22 00:02:25.278000+00:00,train
816,-1.0,-1.0,2021-01-22 00:02:55.278000+00:00,train
817,-1.0,-1.0,2021-01-22 00:03:25.278000+00:00,train
818,-1.0,-1.0,2021-01-22 00:03:55.278000+00:00,train
819,-1.0,-1.0,2021-01-22 00:04:25.278000+00:00,train
820,-1.0,-1.0,2021-01-22 00:04:55.278000+00:00,train
821,-1.0,-1.0,2021-01-22 00:05:25.278000+00:00,train
822,-1.0,-1.0,2021-01-22 00:05:55.278000+00:00,train
823,-1.0,-1.0,2021-01-22 00:06:25.278000+00:00,train
824,-1.0,-1.0,2021-01-22 00:06:55.278000+00:00,train
825,-1.0,-1.0,2021-01-22 00:07:25.278000+00:00,train
826,-1.0,-1.0,2021-01-22 00:07:55.278000+00:00,train
827,-1.0,-1.0,2021-01-22 00:08:25.278000+00:00,train
828,-1.0,-1.0,2021-01-22 00:08:55.278000+00:00,train
829,-1.0,-1.0,2021-01-22 00:09:25.278000+00:00,train
830,-1.0,-1.0,2021-01-22 00:09:55.278000+00:00,train
831,-1.0,-1.0,2021-01-22 00:10:25.278000+00:00,train
832,-1.0,-1.0,2021-01-22 00:10:55.278000+00:00,train
833,-1.0,-1.0,2021-01-22 00:11:25.278000+00:00,train
834,-1.0,-1.0,2021-01-22 00:11:55.278000+00:00,train
835,-1.0,-1.0,2021-01-22 00:12:25.278000+00:00,train
836,-1.0,-1.0,2021-01-22 00:12:55.278000+00:00,train
837,-1.0,-1.0,2021-01-22 00:13:25.278000+00:00,train
838,-1.0,-1.0,2021-01-22 00:13:55.278000+00:00,train
839,-1.0,-1.0,2021-01-22 00:14:25.278000+00:00,train
840,-1.0,-1.0,2021-01-22 00:14:55.278000+00:00,train
841,-1.0,-1.0,2021-01-22 00:15:25.278000+00:00,train
842,-1.0,-1.0,2021-01-22 00:15:55.278000+00:00,train
843,-1.0,-1.0,2021-01-22 00:16:25.278000+00:00,train
844,-1.0,-1.0,2021-01-22 00:16:55.278000+00:00,train
845,-1.0,-1.0,2021-01-22 00:17:25.278000+00:00,train
846,-1.0,-1.0,2021-01-22 00:17:55.278000+00:00,train
847,-1.0,-1.0,2021-01-22 00:18:25.278000+00:00,train
848,-1.0,-1.0,2021-01-22 00:18:55.278000+00:00,train
849,-1.0,-1.0,2021-01-22 00:19:25.278000+00:00,train
850,-1.0,-1.0,2021-01-22 00:19:55.278000+00:00,train
851,-1.0,-1.0,2021-01-22 00:20:25.278000+00:00,train
852,-1.0,-1.0,2021-01-22 00:20:55.278000+00:00,train
853,-1.0,-1.0,2021-01-22 00:21:25.278000+00:00,train
854,-1.0,-1.0,2021-01-22 00:21:55.278000+00:00,train
855,-1.0,-1.0,2021-01-22 00:22:25.278000+00:00,train
856,-1.0,-1.0,2021-01-22 00:22:55.278000+00:00,train
857,-1.0,-1.0,2021-01-22 00:23:25.278000+00:00,train
858,-1.0,-1.0,2021-01-22 00:23:55.278000+00:00,train
859,-1.0,-1.0,2021-01-22 00:24:25.278000+00:00,train
860,-1.0,-1.0,2021-01-22 00:24:55.278000+00:00,train
861,-1.0,-1.0,2021-01-22 00:25:25.278000+00:00,train
862,-1.0,-1.0,2021-01-22 00:25:55.278000+00:00,train
863,-1.0,-1.0,2021-01-22 00:26:25.278000+00:00,train
864,-1.0,-1.0,2021-01-22 00:26:55.278000+00:00,train
865,-1.0,-1.0,2021-01-22 00:27:25.278000+00:00,train
866,-1.0,-1.0,2021-01-22 00:27:55.278000+00:00,train
867,-1.0,-1.0,2021-01-22 00:28:25.278000+00:00,train
868,-1.0,-1.0,2021-01-22 00:28:55.278000+00:00,train
869,-1.0,-1.0,2021-01-22 00:29:25.278000+00:00,train
870,-1.0,-1.0,2021-01-22 00:29:55.278000+00:00,train
871,-1.0,-1.0,2021-01-22 00:30:25.278000+00:00,train
872,-1.0,-1.0,2021-01-22 00:30:55.278000+00:00,train
873,-1.0,-1.0,2021-01-22 00:31:25.278000+00:00,train
874,-1.0,-1.0,2021-01-22 00:31:55.278000+00:00,train
875,-1.0,-1.0,2021-01-22 00:32:25.278000+00:00,train
876,-1.0,-1.0,2021-01-22 00:32:55.278000+00:00,train
877,-1.0,-1.0,2021-01-22 00:33:25.278000+00:00,train
878,-1.0,-1.0,2021-01-22 00:33:55.278000+00:00,train
879,-1.0,-1.0,2021-01-22 00:34:25.278000+00:00,train
880,-1.0,-1.0,2021-01-22 00:34:55.278000+00:00,train
881,-1.0,-1.0,2021-01-22 00:35:25.278000+00:00,train
882,-1.0,-1.0,2021-01-22 00:35:55.278000+00:00,train
883,-1.0,-1.0,2021-01-22 00:36:25.278000+00:00,train
884,-1.0,-1.0,2021-01-22 00:36:55.278000+00:00,train
885,-1.0,-1.0,2021-01-22 00:37:25.278000+00:00,train
886,-1.0,-1.0,2021-01-22 00:37:55.278000+00:00,train
887,-1.0,-1.0,2021-01-22 00:38:25.278000+00:00,train
888,-1.0,-1.0,2021-01-22 00:38:55.278000+00:00,train
889,-1.0,-1.0,2021-01-22 00:39:25.278000+00:00,train
890,-1.0,-1.0,2021-01-22 00:39:55.278000+00:00,train
891,-1.0,-1.0,2021-01-22 00:40:25.278000+00:00,train
892,-1.0,-1.0,2021-01-22 00:40:55.278000+00:00,train
893,-1.0,-1.0,2021-01-22 00:41:25.278000+00:00,train
894,-1.0,-1.0,2021-01-22 00:41:55.278000+00:00,train
895,-1.0,-1.0,2021-01-22 00:42:25.278000+00:00,train
896,-1.0,-1.0,2021-01-22 00:42:55.278000+00:00,train
897,-1.0,-1.0,2021-01-22 00:43:25.278000+00:00,train
898,-1.0,-1.0,2021-01-22 00:43:55.278000+00:00,train
899,-1.0,-1.0,2021-01-22 00:44:25.278000+00:00,train
900,-1.0,-1.0,2021-01-22 00:44:55.278000+00:00,train
901,-1.0,-1.0,2021-01-22 00:45:25.278000+00:00,train
902,-1.0,-1.0,2021-01-22 00:45:55.278000+00:00,train
903,-1.0,-1.0,2021-01-22 00:46:25.278000+00:00,train
904,-1.0,-1.0,2021-01-22 00:46:55.278000+00:00,train
905,-1.0,-1.0,2021-01-22 00:47:25.278000+00:00,train
906,-1.0,-1.0,2021-01-22 00:47:55.278000+00:00,train
907,-1.0,-1.0,2021-01-22 00:48:25.278000+00:00,train
908,-1.0,-1.0,2021-01-22 00:48:55.278000+00:00,train
909,-1.0,-1.0,2021-01-22 00:49:25.278000+00:00,train
910,-1.0,-1.0,2021-01-22 00:49:55.278000+00:00,train
911,-1.0,-1.0,2021-01-22 00:50:25.278000+00:00,train
912,-1.0,-1.0,2021-01-22 00:50:55.278000+00:00,train
913,-1.0,-1.0,2021-01-22 00:51:25.278000+00:00,train
914,-1.0,-1.0,2021-01-22 00:51:55.278000+00:00,train
915,-1.0,-1.0,2021-01-22 00:52:25.278000+00:00,train
916,-1.0,-1.0,2021-01-22 00:52:55.278000+00:00,train
917,-1.0,-1.0,2021-01-22 00:53:25.278000+00:00,train
918,-1.0,-1.0,2021-01-22 00:53:55.278000+00:00,train
919,-1.0,-1.0,2021-01-22 00:54:25.278000+00:00,train
920,-1.0,-1.0,2021-01-22 00:54:55.278000+00:00,train
921,-1.0,-1.0,2021-01-22 00:55:25.278000+00:00,train
922,-1.0,-1.0,2021-01-22 00:55:55.278000+00:00,train
923,-1.0,-1.0,2021-01-22 00:56:25.278000+00:00,train
924,-1.0,-1.0,2021-01-22 00:56:55.278000+00:00,train
925,-1.0,-1.0,2021-01-22 00:57:25.278000+00:00,train
926,-1.0,-1.0,2021-01-22 00:57:55.278000+00:00,train
927,-1.0,-1.0,2021-01-22 00:58:25.278000+00:00,train
928,-1.0,-1.0,2021-01-22 00:58:55.278000+00:00,train
929,-1.0,-1.0,2021-01-22 00:59:25.278000+00:00,train
930,-1.0,-1.0,2021-01-22 00:59:55.278000+00:00,train
931,-1.0,-1.0,2021-01-22 01:00:25.278000+00:00,train
932,-1.0,-1.0,2021-01-22 01:00:55.278000+00:00,train
933,-1.0,-1.0,2021-01-22 01:01:25.278000+00:00,train
934,-1.0,-1.0,2021-01-22 01:01:55.278000+00:00,train
935,-1.0,-1.0,2021-01-22 01:02:25.278000+00:00,train
936,-1.0,-1.0,2021-01-22 01:02:55.278000+00:00,train
937,-1.0,-1.0,2021-01-22 01:03:25.278000+00:00,train
938,-1.0,-1.0,2021-01-22 01:03:55.278000+00:00,train
939,-1.0,-1.0,2021-01-22 01:04:25.278000+00:00,train
940,-1.0,-1.0,2021-01-22 01:04:55.278000+00:00,train
941,-1.0,-1.0,2021-01-22 01:05:25.278000+00:00,train
942,-1.0,-1.0,2021-01-22 01:05:55.278000+00:00,train
943,-1.0,-1.0,2021-01-22 01:06:25.278000+00:00,train
944,-1.0,-1.0,2021-01-22 01:06:55.278000+00:00,train
945,-1.0,-1.0,2021-01-22 01:07:25.278000+00:00,train
946,-1.0,-1.0,2021-01-22 01:07:55.278000+00:00,train
947,-1.0,-1.0,2021-01-22 01:08:25.278000+00:00,train
948,-1.0,-1.0,2021-01-22 01:08:55.278000+00:00,train
949,-1.0,-1.0,2021-01-22 01:09:25.278000+00:00,train
950,-1.0,-1.0,2021-01-22 01:09:55.278000+00:00,train
951,-1.0,-1.0,2021-01-22 01:10:25.278000+00:00,train
952,-1.0,-1.0,2021-01-22 01:10:55.278000+00:00,train
953,-1.0,-1.0,2021-01-22 01:11:25.278000+00:00,train
954,-1.0,-1.0,2021-01-22 01:11:55.278000+00:00,train
955,-1.0,-1.0,2021-01-22 01:12:25.278000+00:00,train
956,-1.0,-1.0,2021-01-22 01:12:55.278000+00:00,train
957,-1.0,-1.0,2021-01-22 01:13:25.278000+00:00,train
958,-1.0,-1.0,2021-01-22 01:13:55.278000+00:00,train
959,-1.0,-1.0,2021-01-22 01:14:25.278000+00:00,train
960,-1.0,-1.0,2021-01-22 01:14:55.278000+00:00,train
961,-1.0,-1.0,2021-01-22 01:15:25.278000+00:00,train
962,-1.0,-1.0,2021-01-22 01:15:55.278000+00:00,train
963,-1.0,-1.0,2021-01-22 01:16:25.278000+00:00,train
964,-1.0,-1.0,2021-01-22 01:16:55.278000+00:00,train
965,-1.0,-1.0,2021-01-22 01:17:25.278000+00:00,train
966,-1.0,-1.0,2021-01-22 01:17:55.278000+00:00,train
967,-1.0,-1.0,2021-01-22 01:18:25.278000+00:00,train
968,-1.0,-1.0,2021-01-22 01:18:55.278000+00:00,train
969,-1.0,-1.0,2021-01-22 01:19:25.278000+00:00,train
970,-1.0,-1.0,2021-01-22 01:19:55.278000+00:00,train
971,-1.0,-1.0,2021-01-22 01:20:25.278000+00:00,train
972,-1.0,-1.0,2021-01-22 01:20:55.278000+00:00,train
973,-1.0,-1.0,2021-01-22 01:21:25.278000+00:00,train
974,-1.0,-1.0,2021-01-22 01:21:55.278000+00:00,train
975,-1.0,-1.0,2021-01-22 01:22:25.278000+00:00,train
976,-1.0,-1.0,2021-01-22 01:22:55.278000+00:00,train
977,-1.0,-1.0,2021-01-22 01:23:25.278000+00:00,train
978,-1.0,-1.0,2021-01-22 01:23:55.278000+00:00,train
979,-1.0,-1.0,2021-01-22 01:24:25.278000+00:00,train
980,-1.0,-1.0,2021-01-22 01:24:55.278000+00:00,train
981,-1.0,-1.0,2021-01-22 01:25:25.278000+00:00,train
982,-1.0,-1.0,2021-01-22 01:25:55.278000+00:00,train
983,-1.0,-1.0,2021-01-22 01:26:25.278000+00:00,train
984,-1.0,-1.0,2021-01-22 01:26:55.278000+00:00,train
985,-1.0,-1.0,2021-01-22 01:27:25.278000+00:00,train
986,-1.0,-1.0,2021-01-22 01:27:55.278000+00:00,train
987,-1.0,-1.0,2021-01-22 01:28:25.278000+00:00,train
988,-1.0,-1.0,2021-01-22 01:28:55.278000+00:00,train
989,-1.0,-1.0,2021-01-22 01:29:25.278000+00:00,train
990,-1.0,-1.0,2021-01-22 01:29:55.278000+00:00,train
991,-1.0,-1.0,2021-01-22 01:30:25.278000+00:00,train
992,-1.0,-1.0,2021-01-22 01:30:55.278000+00:00,train
993,-1.0,-1.0,2021-01-22 01:31:25.278000+00:00,train
994,-1.0,-1.0,2021-01-22 01:31:55.278000+00:00,train
995,-1.0,-1.0,2021-01-22 01:32:25.278000+00:00,train
996,-1.0,0.0,2021-01-22 01:32:55.278000+00:00,train
997,-1.0,0.0,2021-01-22 01:33:25.278000+00:00,train
998,-1.0,0.0,2021-01-22 01:33:55.278000+00:00,train
999,-1.0,0.0,2021-01-22 01:34:25.278000+00:00,train
1000,-1.0,0.0,2021-01-22 01:34:55.278000+00:00,train
1001,-1.0,0.0,2021-01-22 01:35:25.278000+00:00,train
1002,-1.0,0.0,2021-01-22 01:35:55.278000+00:00,train
1003,-0.7426519989967346,0.0,2021-01-22 01:36:25.278000+00:00,train
1004,-0.6317519545555115,0.0,2021-01-22 01:36:55.278000+00:00,train
1005,-0.5455135107040405,0.0,2021-01-22 01:37:25.278000+00:00,train
1006,-0.4722762107849121,-1.0,2021-01-22 01:37:55.278000+00:00,train
1007,-0.40750646591186523,0.0,2021-01-22 01:38:25.278000+00:00,train
1008,-0.3488759696483612,0.0,2021-01-22 01:38:55.278000+00:00,train
1009,-0.29500526189804077,0.0,2021-01-22 01:39:25.278000+00:00,train
1010,-0.24500320851802826,0.0,2021-01-22 01:39:55.278000+00:00,train
1011,-0.19826442003250122,0.0,2021-01-22 01:40:25.278000+00:00,train
1012,-0.1543651968240738,0.0,2021-01-22 01:40:55.278000+00:00,train
1013,-0.15427722036838531,0.0,2021-01-22 01:41:25.278000+00:00,train
1014,-0.11292456835508347,0.0,2021-01-22 01:41:55.278000+00:00,train
1015,-0.07391463965177536,0.0,2021-01-22 01:42:25.278000+00:00,train
1016,-0.03713732585310936,0.0,2021-01-22 01:42:55.278000+00:00,train
1017,-0.002581812208518386,0.0,2021-01-22 01:43:25.278000+00:00,train
1018,0.029627569019794464,0.0,2021-01-22 01:43:55.278000+00:00,train
1019,0.05915382131934166,0.0,2021-01-22 01:44:25.278000+00:00,train
1020,0.08528611063957214,0.0,2021-01-22 01:44:55.278000+00:00,train
1021,0.10658132284879684,0.0,2021-01-22 01:45:25.278000+00:00,train
1022,0.12008779495954514,0.0,2021-01-22 01:45:55.278000+00:00,train
1023,0.12026691436767578,0.0,2021-01-22 01:46:25.278000+00:00,train
1024,0.09923811256885529,0.0,2021-01-22 01:46:55.278000+00:00,train
1025,0.051806170493364334,0.0,2021-01-22 01:47:25.278000+00:00,train
1026,-0.005754570942372084,0.0,2021-01-22 01:47:55.278000+00:00,train
1027,-0.03788984194397926,0.0,2021-01-22 01:48:25.278000+00:00,train
1028,-0.041209906339645386,0.0,2021-01-22 01:48:55.278000+00:00,train
1029,-0.03244485706090927,0.0,2021-01-22 01:49:25.278000+00:00,train
1030,-0.01995445415377617,0.0,2021-01-22 01:49:55.278000+00:00,train
1031,-0.006689086090773344,0.0,2021-01-22 01:50:25.278000+00:00,train
1032,0.006147385574877262,0.0,2021-01-22 01:50:55.278000+00:00,train
1033,0.017940830439329147,0.0,2021-01-22 01:51:25.278000+00:00,train
1034,0.028109539300203323,0.0,2021-01-22 01:51:55.278000+00:00,train
1035,0.036050762981176376,0.0,2021-01-22 01:52:25.278000+00:00,train
1036,0.041101377457380295,0.0,2021-01-22 01:52:55.278000+00:00,train
1037,0.042686350643634796,0.0,2021-01-22 01:53:25.278000+00:00,train
1038,0.040730223059654236,0.0,2021-01-22 01:53:55.278000+00:00,train
1039,0.03651023656129837,0.0,2021-01-22 01:54:25.278000+00:00,train
1040,0.03137943148612976,0.0,2021-01-22 01:54:55.278000+00:00,train
1041,0.02638755738735199,0.0,2021-01-22 01:55:25.278000+00:00,train
1042,0.022794226184487343,0.0,2021-01-22 01:55:55.278000+00:00,train
1043,0.020550943911075592,0.0,2021-01-22 01:56:25.278000+00:00,train
1044,0.019397761672735214,0.0,2021-01-22 01:56:55.278000+00:00,train
1045,0.019081639125943184,0.0,2021-01-22 01:57:25.278000+00:00,train
1046,0.019411686807870865,0.0,2021-01-22 01:57:55.278000+00:00,train
1047,0.020260611549019814,0.0,2021-01-22 01:58:25.278000+00:00,train
1048,0.02157767489552498,0.0,2021-01-22 01:58:55.278000+00:00,train
1049,0.02329704537987709,0.0,2021-01-22 01:59:25.278000+00:00,train
1050,0.02536524459719658,0.0,2021-01-22 01:59:55.278000+00:00,train
1051,0.02774551697075367,0.0,2021-01-22 02:00:25.278000+00:00,train
1052,0.030410831794142723,0.0,2021-01-22 02:00:55.278000+00:00,train
1053,0.03334087133407593,0.0,2021-01-22 02:01:25.278000+00:00,train
1054,0.03652180731296539,0.0,2021-01-22 02:01:55.278000+00:00,train
1055,0.03995224088430405,0.0,2021-01-22 02:02:25.278000+00:00,train
1056,0.043628841638565063,0.0,2021-01-22 02:02:55.278000+00:00,train
1057,-0.14736415445804596,0.0,2021-01-22 02:03:25.278000+00:00,train
1058,-0.13797180354595184,0.0,2021-01-22 02:03:55.278000+00:00,train
1059,-0.13044695556163788,0.0,2021-01-22 02:04:25.278000+00:00,train
1060,-0.12136770039796829,0.0,2021-01-22 02:04:55.278000+00:00,train
1061,-0.11241590231657028,0.0,2021-01-22 02:05:25.278000+00:00,train
1062,-0.10359266400337219,0.0,2021-01-22 02:05:55.278000+00:00,train
1063,-0.09489917755126953,0.0,2021-01-22 02:06:25.278000+00:00,train
1064,-0.08633710443973541,0.0,2021-01-22 02:06:55.278000+00:00,train
1065,-0.07790778577327728,0.0,2021-01-22 02:07:25.278000+00:00,train
1066,-0.06961318105459213,0.0,2021-01-22 02:07:55.278000+00:00,train
1067,-0.0614553764462471,0.0,2021-01-22 02:08:25.278000+00:00,train
1068,-0.05343642830848694,0.0,2021-01-22 02:08:55.278000+00:00,train
1069,-0.04555931314826012,0.0,2021-01-22 02:09:25.278000+00:00,train
1070,-0.037828270345926285,0.0,2021-01-22 02:09:55.278000+00:00,train
1071,-0.030244750902056694,0.0,2021-01-22 02:10:25.278000+00:00,train
1072,-0.022812210023403168,0.0,2021-01-22 02:10:55.278000+00:00,train
1073,-0.015534800477325916,0.0,2021-01-22 02:11:25.278000+00:00,train
1074,-0.008416649885475636,0.0,2021-01-22 02:11:55.278000+00:00,train
1075,-0.001462399959564209,0.0,2021-01-22 02:12:25.278000+00:00,train
1076,0.005322843790054321,0.0,2021-01-22 02:12:55.278000+00:00,train
1077,0.011933065950870514,0.0,2021-01-22 02:13:25.278000+00:00,train
1078,0.006736159324645996,0.0,2021-01-22 02:13:55.278000+00:00,train
1079,0.01435569766908884,0.0,2021-01-22 02:14:25.278000+00:00,train
1080,0.021748285740613937,0.0,2021-01-22 02:14:55.278000+00:00,train
1081,0.028901781886816025,0.0,2021-01-22 02:15:25.278000+00:00,train
1082,0.03580157831311226,0.0,2021-01-22 02:15:55.278000+00:00,train
1083,0.04243221506476402,0.0,2021-01-22 02:16:25.278000+00:00,train
1084,0.04879921302199364,0.0,2021-01-22 02:16:55.278000+00:00,train
1085,0.05487014353275299,0.0,2021-01-22 02:17:25.278000+00:00,train
1086,0.060628414154052734,0.0,2021-01-22 02:17:55.278000+00:00,train
1087,0.06605600565671921,0.0,2021-01-22 02:18:25.278000+00:00,train
1088,0.07113874703645706,0.0,2021-01-22 02:18:55.278000+00:00,train
1089,0.07574836164712906,0.0,2021-01-22 02:19:25.278000+00:00,train
1090,0.07992880046367645,0.0,2021-01-22 02:19:55.278000+00:00,train
1091,0.0836409479379654,0.0,2021-01-22 02:20:25.278000+00:00,train
1092,0.08683363348245621,0.0,2021-01-22 02:20:55.278000+00:00,train
1093,0.0894479975104332,0.0,2021-01-22 02:21:25.278000+00:00,train
1094,0.09140852838754654,0.0,2021-01-22 02:21:55.278000+00:00,train
1095,0.09261886030435562,0.0,2021-01-22 02:22:25.278000+00:00,train
1096,0.09295240789651871,0.0,2021-01-22 02:22:55.278000+00:00,train
1097,0.09223657101392746,0.0,2021-01-22 02:23:25.278000+00:00,train
1098,0.0902230516076088,0.0,2021-01-22 02:23:55.278000+00:00,train
1099,0.08653776347637177,0.0,2021-01-22 02:24:25.278000+00:00,train
1100,0.0805535838007927,0.0,2021-01-22 02:24:55.278000+00:00,train
1101,0.07105837762355804,0.0,2021-01-22 02:25:25.278000+00:00,train
1102,0.05495031550526619,0.0,2021-01-22 02:25:55.278000+00:00,val
1103,0.05517658591270447,0.0,2021-01-22 02:26:25.278000+00:00,val
1104,0.05540144443511963,0.0,2021-01-22 02:26:55.278000+00:00,val
1105,0.055625371634960175,0.0,2021-01-22 02:27:25.278000+00:00,val
1106,0.055848393589258194,0.0,2021-01-22 02:27:55.278000+00:00,val
1107,0.056070584803819656,0.0,2021-01-22 02:28:25.278000+00:00,val
1108,0.056291982531547546,0.0,2021-01-22 02:28:55.278000+00:00,val
1109,0.05651196464896202,0.0,2021-01-22 02:29:25.278000+00:00,val
1110,0.05673081800341606,0.0,2021-01-22 02:29:55.278000+00:00,val
1111,0.05694827809929848,0.0,2021-01-22 02:30:25.278000+00:00,val
1112,0.0571628212928772,0.0,2021-01-22 02:30:55.278000+00:00,val
1113,0.0,0.0,2021-01-22 02:31:25.278000+00:00,val
1114,0.0,0.0,2021-01-22 02:31:55.278000+00:00,val
1115,0.0,0.0,2021-01-22 02:32:25.278000+00:00,val
1116,0.0,0.0,2021-01-22 02:32:55.278000+00:00,val
1117,0.0,0.0,2021-01-22 02:33:25.278000+00:00,val
1118,0.0,0.0,2021-01-22 02:33:55.278000+00:00,val
1119,0.0,0.0,2021-01-22 02:34:25.278000+00:00,val
1120,0.0,0.0,2021-01-22 02:34:55.278000+00:00,val
1121,0.0,0.0,2021-01-22 02:35:25.278000+00:00,val
1122,0.0,0.0,2021-01-22 02:35:55.278000+00:00,val
1123,0.0,0.0,2021-01-22 02:36:25.278000+00:00,val
1124,0.0,0.0,2021-01-22 02:36:55.278000+00:00,val
1125,0.0,0.0,2021-01-22 02:37:25.278000+00:00,val
1126,0.0,0.0,2021-01-22 02:37:55.278000+00:00,val
1127,0.0,0.0,2021-01-22 02:38:25.278000+00:00,val
1128,0.0,0.0,2021-01-22 02:38:55.278000+00:00,val
1129,0.0,0.0,2021-01-22 02:39:25.278000+00:00,val
1130,0.0,0.0,2021-01-22 02:39:55.278000+00:00,val
1131,0.0,0.0,2021-01-22 02:40:25.278000+00:00,val
1132,0.0,0.0,2021-01-22 02:40:55.278000+00:00,val
1133,0.0,0.0,2021-01-22 02:41:25.278000+00:00,val
1134,0.0,0.0,2021-01-22 02:41:55.278000+00:00,val
1135,0.0,0.0,2021-01-22 02:42:25.278000+00:00,val
1136,0.0,0.0,2021-01-22 02:42:55.278000+00:00,val
1137,0.0,0.0,2021-01-22 02:43:25.278000+00:00,val
1138,0.0,0.0,2021-01-22 02:43:55.278000+00:00,val
1139,0.0,0.0,2021-01-22 02:44:25.278000+00:00,val
1140,0.0,0.0,2021-01-22 02:44:55.278000+00:00,val
1141,0.0,0.0,2021-01-22 02:45:25.278000+00:00,val
1142,0.0,0.0,2021-01-22 02:45:55.278000+00:00,val
1143,0.0,0.0,2021-01-22 02:46:25.278000+00:00,val
1144,0.0,0.0,2021-01-22 02:46:55.278000+00:00,val
1145,0.0,0.0,2021-01-22 02:47:25.278000+00:00,val
1146,0.0,0.0,2021-01-22 02:47:55.278000+00:00,val
1147,0.0,0.0,2021-01-22 02:48:25.278000+00:00,val
1148,0.0,0.0,2021-01-22 02:48:55.278000+00:00,val
1149,0.0,0.0,2021-01-22 02:49:25.278000+00:00,val
1150,0.0,0.0,2021-01-22 02:49:55.278000+00:00,val
1151,0.0,0.0,2021-01-22 02:50:25.278000+00:00,val
1152,0.0,0.0,2021-01-22 02:50:55.278000+00:00,val
1153,0.0,0.0,2021-01-22 02:51:25.278000+00:00,val
1154,0.0,0.0,2021-01-22 02:51:55.278000+00:00,val
1155,0.0,0.0,2021-01-22 02:52:25.278000+00:00,val
1156,0.0,0.0,2021-01-22 02:52:55.278000+00:00,val
1157,0.0,0.0,2021-01-22 02:53:25.278000+00:00,val
1158,0.0,0.0,2021-01-22 02:53:55.278000+00:00,val
1159,0.0,0.0,2021-01-22 02:54:25.278000+00:00,val
1160,0.0,0.0,2021-01-22 02:54:55.278000+00:00,val
1161,0.0,0.0,2021-01-22 02:55:25.278000+00:00,val
1162,0.0,0.0,2021-01-22 02:55:55.278000+00:00,val
1163,0.0,0.0,2021-01-22 02:56:25.278000+00:00,val
1164,0.0,0.0,2021-01-22 02:56:55.278000+00:00,val
1165,0.0,0.0,2021-01-22 02:57:25.278000+00:00,val
1166,0.0,0.0,2021-01-22 02:57:55.278000+00:00,val
1167,0.0,0.0,2021-01-22 02:58:25.278000+00:00,val
1168,0.0,0.0,2021-01-22 02:58:55.278000+00:00,val
1169,0.0,0.0,2021-01-22 02:59:25.278000+00:00,val
1170,0.0,0.0,2021-01-22 02:59:55.278000+00:00,val
1171,0.0,0.0,2021-01-22 03:00:25.278000+00:00,val
1172,0.0,0.0,2021-01-22 03:00:55.278000+00:00,val
1173,0.0,0.0,2021-01-22 03:01:25.278000+00:00,val
1174,0.0,0.0,2021-01-22 03:01:55.278000+00:00,val
1175,0.0,0.0,2021-01-22 03:02:25.278000+00:00,val
1176,0.0,0.0,2021-01-22 03:02:55.278000+00:00,val
1177,0.0,0.0,2021-01-22 03:03:25.278000+00:00,val
1178,0.0,0.0,2021-01-22 03:03:55.278000+00:00,val
1179,0.0,0.0,2021-01-22 03:04:25.278000+00:00,val
1180,0.0,0.0,2021-01-22 03:04:55.278000+00:00,val
1181,0.0,0.0,2021-01-22 03:05:25.278000+00:00,val
1182,0.0,0.0,2021-01-22 03:05:55.278000+00:00,val
1183,0.0,0.0,2021-01-22 03:06:25.278000+00:00,val
1184,0.0,0.0,2021-01-22 03:06:55.278000+00:00,val
1185,0.0,0.0,2021-01-22 03:07:25.278000+00:00,val
1186,0.0,0.0,2021-01-22 03:07:55.278000+00:00,val
1187,0.0,0.0,2021-01-22 03:08:25.278000+00:00,val
1188,0.0,0.0,2021-01-22 03:08:55.278000+00:00,val
1189,0.0,0.0,2021-01-22 03:09:25.278000+00:00,val
1190,0.0,0.0,2021-01-22 03:09:55.278000+00:00,val
1191,0.0,0.0,2021-01-22 03:10:25.278000+00:00,val
1192,0.0,0.0,2021-01-22 03:10:55.278000+00:00,val
1193,0.0,0.0,2021-01-22 03:11:25.278000+00:00,val
1194,0.0,0.0,2021-01-22 03:11:55.278000+00:00,val
1195,0.0,0.0,2021-01-22 03:12:25.278000+00:00,val
1196,0.0,0.0,2021-01-22 03:12:55.278000+00:00,val
1197,0.0,0.0,2021-01-22 03:13:25.278000+00:00,val
1198,0.0,0.0,2021-01-22 03:13:55.278000+00:00,val
1199,0.0,0.0,2021-01-22 03:14:25.278000+00:00,val
1200,0.0,0.0,2021-01-22 03:14:55.278000+00:00,val
1201,0.0,0.0,2021-01-22 03:15:25.278000+00:00,val
1202,0.0,0.0,2021-01-22 03:15:55.278000+00:00,val
1203,0.0,0.0,2021-01-22 03:16:25.278000+00:00,val
1204,0.0,0.0,2021-01-22 03:16:55.278000+00:00,val
1205,0.0,0.0,2021-01-22 03:17:25.278000+00:00,val
1206,0.0,0.0,2021-01-22 03:17:55.278000+00:00,val
1207,0.0,0.0,2021-01-22 03:18:25.278000+00:00,val
1208,0.0,0.0,2021-01-22 03:18:55.278000+00:00,val
1209,0.0,0.0,2021-01-22 03:19:25.278000+00:00,val
1210,0.0,0.0,2021-01-22 03:19:55.278000+00:00,val
1211,0.0,0.0,2021-01-22 03:20:25.278000+00:00,val
1212,0.0,0.0,2021-01-22 03:20:55.278000+00:00,val
1213,0.0,0.0,2021-01-22 03:21:25.278000+00:00,val
1214,0.0,0.0,2021-01-22 03:21:55.278000+00:00,val
1215,0.0,0.0,2021-01-22 03:22:25.278000+00:00,val
1216,0.0,0.0,2021-01-22 03:22:55.278000+00:00,val
1217,0.0,0.0,2021-01-22 03:23:25.278000+00:00,val
1218,0.0,0.0,2021-01-22 03:23:55.278000+00:00,val
1219,0.0,0.0,2021-01-22 03:24:25.278000+00:00,val
1220,0.0,0.0,2021-01-22 03:24:55.278000+00:00,val
1221,0.0,0.0,2021-01-22 03:25:25.278000+00:00,val
1222,0.0,0.0,2021-01-22 03:25:55.278000+00:00,val
1223,0.0,0.0,2021-01-22 03:26:25.278000+00:00,val
1224,0.0,0.0,2021-01-22 03:26:55.278000+00:00,val
1225,0.0,0.0,2021-01-22 03:27:25.278000+00:00,val
1226,0.0,0.0,2021-01-22 03:27:55.278000+00:00,val
1227,0.0,0.0,2021-01-22 03:28:25.278000+00:00,val
1228,0.0,0.0,2021-01-22 03:28:55.278000+00:00,val
1229,0.0,0.0,2021-01-22 03:29:25.278000+00:00,val
1230,0.0,0.0,2021-01-22 03:29:55.278000+00:00,val
1231,0.0,0.0,2021-01-22 03:30:25.278000+00:00,val
1232,0.0,0.0,2021-01-22 03:30:55.278000+00:00,val
1233,0.0,0.0,2021-01-22 03:31:25.278000+00:00,val
1234,0.0,0.0,2021-01-22 03:31:55.278000+00:00,val
1235,0.0,0.0,2021-01-22 03:32:25.278000+00:00,val
1236,0.0,0.0,2021-01-22 03:32:55.278000+00:00,val
1237,0.0,0.0,2021-01-22 03:33:25.278000+00:00,val
1238,0.0,0.0,2021-01-22 03:33:55.278000+00:00,val
1239,0.0,0.0,2021-01-22 03:34:25.278000+00:00,val
1240,0.0,0.0,2021-01-22 03:34:55.278000+00:00,val
1241,0.0,0.0,2021-01-22 03:35:25.278000+00:00,val
1242,0.0,0.0,2021-01-22 03:35:55.278000+00:00,val
1243,0.0,0.0,2021-01-22 03:36:25.278000+00:00,val
1244,0.0,0.0,2021-01-22 03:36:55.278000+00:00,val
1245,0.0,0.0,2021-01-22 03:37:25.278000+00:00,val
1246,0.0,0.0,2021-01-22 03:37:55.278000+00:00,val
1247,0.0,0.0,2021-01-22 03:38:25.278000+00:00,val
1248,0.0,0.0,2021-01-22 03:38:55.278000+00:00,val
1249,0.0,0.0,2021-01-22 03:39:25.278000+00:00,val
1250,0.0,0.0,2021-01-22 03:39:55.278000+00:00,val
1251,0.0,0.0,2021-01-22 03:40:25.278000+00:00,val
1252,0.0,0.0,2021-01-22 03:40:55.278000+00:00,val
1253,0.0,0.0,2021-01-22 03:41:25.278000+00:00,val
1254,0.0,0.0,2021-01-22 03:41:55.278000+00:00,val
1255,0.0,0.0,2021-01-22 03:42:25.278000+00:00,val
1256,0.0,0.0,2021-01-22 03:42:55.278000+00:00,val
1257,0.0,0.0,2021-01-22 03:43:25.278000+00:00,val
1258,0.0,0.0,2021-01-22 03:43:55.278000+00:00,val
1259,0.0,0.0,2021-01-22 03:44:25.278000+00:00,val
1260,0.0,0.0,2021-01-22 03:44:55.278000+00:00,val
1261,0.0,0.0,2021-01-22 03:45:25.278000+00:00,val
1262,0.0,0.0,2021-01-22 03:45:55.278000+00:00,val
1263,0.0,0.0,2021-01-22 03:46:25.278000+00:00,val
1264,0.0,0.0,2021-01-22 03:46:55.278000+00:00,val
1265,0.0,0.0,2021-01-22 03:47:25.278000+00:00,val
1266,0.0,0.0,2021-01-22 03:47:55.278000+00:00,val
1267,0.0,0.0,2021-01-22 03:48:25.278000+00:00,val
1268,0.0,0.0,2021-01-22 03:48:55.278000+00:00,val
1269,0.0,0.0,2021-01-22 03:49:25.278000+00:00,val
1270,0.0,0.0,2021-01-22 03:49:55.278000+00:00,val
1271,0.0,0.0,2021-01-22 03:50:25.278000+00:00,val
1272,0.0,0.0,2021-01-22 03:50:55.278000+00:00,val
1273,0.0,0.0,2021-01-22 03:51:25.278000+00:00,val
1274,0.0,0.0,2021-01-22 03:51:55.278000+00:00,val
1275,0.0,0.0,2021-01-22 03:52:25.278000+00:00,val
1276,0.0,0.0,2021-01-22 03:52:55.278000+00:00,val
1277,0.0,0.0,2021-01-22 03:53:25.278000+00:00,val
1278,0.0,0.0,2021-01-22 03:53:55.278000+00:00,val
1279,0.0,0.0,2021-01-22 03:54:25.278000+00:00,val
1280,0.0,0.0,2021-01-22 03:54:55.278000+00:00,val
1281,0.0,0.0,2021-01-22 03:55:25.278000+00:00,val
1282,0.0,0.0,2021-01-22 03:55:55.278000+00:00,val
1283,0.0,0.0,2021-01-22 03:56:25.278000+00:00,val
1284,0.0,0.0,2021-01-22 03:56:55.278000+00:00,val
1285,0.0,0.0,2021-01-22 03:57:25.278000+00:00,val
1286,0.0,0.0,2021-01-22 03:57:55.278000+00:00,val
1287,0.0,0.0,2021-01-22 03:58:25.278000+00:00,val
1288,0.0,0.0,2021-01-22 03:58:55.278000+00:00,val
1289,0.0,0.0,2021-01-22 03:59:25.278000+00:00,val
1290,0.0,0.0,2021-01-22 03:59:55.278000+00:00,val
1291,0.0,0.0,2021-01-22 04:00:25.278000+00:00,val
1292,0.0,0.0,2021-01-22 04:00:55.278000+00:00,val
1293,0.0,0.0,2021-01-22 04:01:25.278000+00:00,val
1294,0.0,0.0,2021-01-22 04:01:55.278000+00:00,val
1295,0.0,0.0,2021-01-22 04:02:25.278000+00:00,val
1296,0.0,0.0,2021-01-22 04:02:55.278000+00:00,val
1297,0.0,0.0,2021-01-22 04:03:25.278000+00:00,val
1298,0.0,0.0,2021-01-22 04:03:55.278000+00:00,val
1299,0.0,0.0,2021-01-22 04:04:25.278000+00:00,val
1300,0.0,0.0,2021-01-22 04:04:55.278000+00:00,val
1301,0.0,0.0,2021-01-22 04:05:25.278000+00:00,val
1302,0.0,0.0,2021-01-22 04:05:55.278000+00:00,val
1303,0.0,0.0,2021-01-22 04:06:25.278000+00:00,val
1304,0.0,0.0,2021-01-22 04:06:55.278000+00:00,val
1305,0.0,0.0,2021-01-22 04:07:25.278000+00:00,val
1306,0.0,0.0,2021-01-22 04:07:55.278000+00:00,val
1307,0.0,0.0,2021-01-22 04:08:25.278000+00:00,val
1308,0.0,0.0,2021-01-22 04:08:55.278000+00:00,val
1309,0.0,0.0,2021-01-22 04:09:25.278000+00:00,val
1310,0.0,0.0,2021-01-22 04:09:55.278000+00:00,val
1311,0.0,0.0,2021-01-22 04:10:25.278000+00:00,val
1312,0.0,0.0,2021-01-22 04:10:55.278000+00:00,val
1313,0.0,0.0,2021-01-22 04:11:25.278000+00:00,val
1314,0.0,0.0,2021-01-22 04:11:55.278000+00:00,val
1315,0.0,0.0,2021-01-22 04:12:25.278000+00:00,val
1316,0.0,0.0,2021-01-22 04:12:55.278000+00:00,val
1317,0.0,0.0,2021-01-22 04:13:25.278000+00:00,val
1318,0.0,0.0,2021-01-22 04:13:55.278000+00:00,val
1319,0.0,0.0,2021-01-22 04:14:25.278000+00:00,val
1320,0.0,0.0,2021-01-22 04:14:55.278000+00:00,val
1321,0.0,0.0,2021-01-22 04:15:25.278000+00:00,val
1322,0.0,0.0,2021-01-22 04:15:55.278000+00:00,val
1323,0.0,0.0,2021-01-22 04:16:25.278000+00:00,val
1324,0.0,0.0,2021-01-22 04:16:55.278000+00:00,val
1325,0.0,0.0,2021-01-22 04:17:25.278000+00:00,val
1326,0.0,0.0,2021-01-22 04:17:55.278000+00:00,val
1327,0.0,0.0,2021-01-22 04:18:25.278000+00:00,val
1328,0.0,0.0,2021-01-22 04:18:55.278000+00:00,val
1329,0.0,0.0,2021-01-22 04:19:25.278000+00:00,val
1330,0.0,0.0,2021-01-22 04:19:55.278000+00:00,val
1331,0.0,0.0,2021-01-22 04:20:25.278000+00:00,val
1332,0.0,0.0,2021-01-22 04:20:55.278000+00:00,val
1333,0.0,0.0,2021-01-22 04:21:25.278000+00:00,val
1334,0.0,0.0,2021-01-22 04:21:55.278000+00:00,val
1335,0.0,0.0,2021-01-22 04:22:25.278000+00:00,val
1336,0.0,0.0,2021-01-22 04:22:55.278000+00:00,val
1337,0.0,0.0,2021-01-22 04:23:25.278000+00:00,val
1338,0.0,0.0,2021-01-22 04:23:55.278000+00:00,val
1339,0.0,0.0,2021-01-22 04:24:25.278000+00:00,val
1340,0.0,0.0,2021-01-22 04:24:55.278000+00:00,val
1341,0.0,0.0,2021-01-22 04:25:25.278000+00:00,val
1342,0.0,0.0,2021-01-22 04:25:55.278000+00:00,val
1343,0.0,0.0,2021-01-22 04:26:25.278000+00:00,val
1344,0.0,0.0,2021-01-22 04:26:55.278000+00:00,val
1345,0.0,0.0,2021-01-22 04:27:25.278000+00:00,val
1346,0.0,0.0,2021-01-22 04:27:55.278000+00:00,val
1347,0.0,0.0,2021-01-22 04:28:25.278000+00:00,val
1348,0.0,0.0,2021-01-22 04:28:55.278000+00:00,val
1349,0.0,0.0,2021-01-22 04:29:25.278000+00:00,val
1350,0.0,0.0,2021-01-22 04:29:55.278000+00:00,val
1351,0.0,0.0,2021-01-22 04:30:25.278000+00:00,val
1352,0.0,0.0,2021-01-22 04:30:55.278000+00:00,val
1353,0.0,0.0,2021-01-22 04:31:25.278000+00:00,val
1354,0.0,0.0,2021-01-22 04:31:55.278000+00:00,val
1355,0.0,0.0,2021-01-22 04:32:25.278000+00:00,val
1356,0.0,0.0,2021-01-22 04:32:55.278000+00:00,val
1357,0.0,0.0,2021-01-22 04:33:25.278000+00:00,val
1358,0.0,0.0,2021-01-22 04:33:55.278000+00:00,val
1359,0.0,0.0,2021-01-22 04:34:25.278000+00:00,val
1360,0.0,0.0,2021-01-22 04:34:55.278000+00:00,val
1361,0.0,0.0,2021-01-22 04:35:25.278000+00:00,val
1362,0.0,0.0,2021-01-22 04:35:55.278000+00:00,val
1363,0.0,0.0,2021-01-22 04:36:25.278000+00:00,val
1364,0.0,0.0,2021-01-22 04:36:55.278000+00:00,val
1365,0.0,0.0,2021-01-22 04:37:25.278000+00:00,val
1366,0.0,0.0,2021-01-22 04:37:55.278000+00:00,val
1367,0.0,0.0,2021-01-22 04:38:25.278000+00:00,val
1368,0.0,0.0,2021-01-22 04:38:55.278000+00:00,val
1369,0.0,0.0,2021-01-22 04:39:25.278000+00:00,val
1370,0.0,0.0,2021-01-22 04:39:55.278000+00:00,val
1371,0.0,0.0,2021-01-22 04:40:25.278000+00:00,val
1372,0.0,0.0,2021-01-22 04:40:55.278000+00:00,val
1373,0.0,0.0,2021-01-22 04:41:25.278000+00:00,val
1374,0.0,0.0,2021-01-22 04:41:55.278000+00:00,val
1375,0.0,0.0,2021-01-22 04:42:25.278000+00:00,val
1376,0.0,0.0,2021-01-22 04:42:55.278000+00:00,val
1377,0.0,0.0,2021-01-22 04:43:25.278000+00:00,val
1378,0.0,0.0,2021-01-22 04:43:55.278000+00:00,val
1379,0.0,0.0,2021-01-22 04:44:25.278000+00:00,val
1380,0.0,0.0,2021-01-22 04:44:55.278000+00:00,val
1381,0.0,0.0,2021-01-22 04:45:25.278000+00:00,val
1382,0.0,0.0,2021-01-22 04:45:55.278000+00:00,val
1383,0.0,0.0,2021-01-22 04:46:25.278000+00:00,val
1384,0.0,0.0,2021-01-22 04:46:55.278000+00:00,val
1385,0.0,0.0,2021-01-22 04:47:25.278000+00:00,val
1386,0.0,0.0,2021-01-22 04:47:55.278000+00:00,val
1387,0.0,0.0,2021-01-22 04:48:25.278000+00:00,val
1388,0.0,0.0,2021-01-22 04:48:55.278000+00:00,val
1389,0.0,0.0,2021-01-22 04:49:25.278000+00:00,val
1390,0.0,0.0,2021-01-22 04:49:55.278000+00:00,val
1391,0.0,0.0,2021-01-22 04:50:25.278000+00:00,val
1392,0.0,0.0,2021-01-22 04:50:55.278000+00:00,val
1393,0.0,0.0,2021-01-22 04:51:25.278000+00:00,val
1394,0.0,0.0,2021-01-22 04:51:55.278000+00:00,val
1395,0.0,0.0,2021-01-22 04:52:25.278000+00:00,val
1396,0.0,0.0,2021-01-22 04:52:55.278000+00:00,val
1397,0.0,0.0,2021-01-22 04:53:25.278000+00:00,val
1398,0.0,0.0,2021-01-22 04:53:55.278000+00:00,val
1399,0.0,0.0,2021-01-22 04:54:25.278000+00:00,val
1400,0.0,0.0,2021-01-22 04:54:55.278000+00:00,val
1401,0.0,0.0,2021-01-22 04:55:25.278000+00:00,val
1402,0.0,0.0,2021-01-22 04:55:55.278000+00:00,val
1403,0.0,0.0,2021-01-22 04:56:25.278000+00:00,val
1404,0.0,0.0,2021-01-22 04:56:55.278000+00:00,val
1405,0.0,0.0,2021-01-22 04:57:25.278000+00:00,val
1406,0.0,0.0,2021-01-22 04:57:55.278000+00:00,val
1407,0.0,0.0,2021-01-22 04:58:25.278000+00:00,val
1408,0.0,0.0,2021-01-22 04:58:55.278000+00:00,val
1409,0.0,0.0,2021-01-22 04:59:25.278000+00:00,val
1410,0.0,0.0,2021-01-22 04:59:55.278000+00:00,val
1411,0.0,0.0,2021-01-22 05:00:25.278000+00:00,val
1412,0.0,0.0,2021-01-22 05:00:55.278000+00:00,val
1413,0.0,0.0,2021-01-22 05:01:25.278000+00:00,val
1414,0.0,0.0,2021-01-22 05:01:55.278000+00:00,val
1415,0.0,0.0,2021-01-22 05:02:25.278000+00:00,val
1416,0.0,0.0,2021-01-22 05:02:55.278000+00:00,val
1417,0.0,0.0,2021-01-22 05:03:25.278000+00:00,val
1418,0.0,0.0,2021-01-22 05:03:55.278000+00:00,val
1419,0.0,0.0,2021-01-22 05:04:25.278000+00:00,val
1420,0.0,0.0,2021-01-22 05:04:55.278000+00:00,val
1421,0.0,0.0,2021-01-22 05:05:25.278000+00:00,val
1422,0.0,0.0,2021-01-22 05:05:55.278000+00:00,val
1423,0.0,0.0,2021-01-22 05:06:25.278000+00:00,val
1424,0.0,0.0,2021-01-22 05:06:55.278000+00:00,val
1425,0.0,0.0,2021-01-22 05:07:25.278000+00:00,val
1426,0.0,0.0,2021-01-22 05:07:55.278000+00:00,val
1427,0.0,0.0,2021-01-22 05:08:25.278000+00:00,val
1428,0.0,0.0,2021-01-22 05:08:55.278000+00:00,val
1429,0.0,0.0,2021-01-22 05:09:25.278000+00:00,val
1430,0.0,0.0,2021-01-22 05:09:55.278000+00:00,val
1431,0.0,0.0,2021-01-22 05:10:25.278000+00:00,val
1432,0.0,0.0,2021-01-22 05:10:55.278000+00:00,val
1433,0.0,0.0,2021-01-22 05:11:25.278000+00:00,val
1434,0.0,0.0,2021-01-22 05:11:55.278000+00:00,val
1435,0.0,0.0,2021-01-22 05:12:25.278000+00:00,val
1436,0.0,0.0,2021-01-22 05:12:55.278000+00:00,val
1437,0.0,0.0,2021-01-22 05:13:25.278000+00:00,val
1438,0.0,0.0,2021-01-22 05:13:55.278000+00:00,val
1439,0.0,0.0,2021-01-22 05:14:25.278000+00:00,val
1440,0.0,0.0,2021-01-22 05:14:55.278000+00:00,val
1441,0.0,0.0,2021-01-22 05:15:25.278000+00:00,val
1442,0.0,0.0,2021-01-22 05:15:55.278000+00:00,val
1443,0.0,0.0,2021-01-22 05:16:25.278000+00:00,val
1444,0.0,0.0,2021-01-22 05:16:55.278000+00:00,val
1445,0.0,0.0,2021-01-22 05:17:25.278000+00:00,val
1446,0.0,0.0,2021-01-22 05:17:55.278000+00:00,test
1447,0.0,0.0,2021-01-22 05:18:25.278000+00:00,test
1448,0.0,0.0,2021-01-22 05:18:55.278000+00:00,test
1449,0.0,0.0,2021-01-22 05:19:25.278000+00:00,test
1450,0.0,0.0,2021-01-22 05:19:55.278000+00:00,test
1451,0.0,0.0,2021-01-22 05:20:25.278000+00:00,test
1452,0.0,0.0,2021-01-22 05:20:55.278000+00:00,test
1453,0.0,0.0,2021-01-22 05:21:25.278000+00:00,test
1454,0.0,0.0,2021-01-22 05:21:55.278000+00:00,test
1455,0.0,0.0,2021-01-22 05:22:25.278000+00:00,test
1456,0.0,0.0,2021-01-22 05:22:55.278000+00:00,test
1457,0.0,0.0,2021-01-22 05:23:25.278000+00:00,test
1458,0.0,0.0,2021-01-22 05:23:55.278000+00:00,test
1459,0.0,0.0,2021-01-22 05:24:25.278000+00:00,test
1460,0.0,0.0,2021-01-22 05:24:55.278000+00:00,test
1461,0.0,0.0,2021-01-22 05:25:25.278000+00:00,test
1462,0.0,0.0,2021-01-22 05:25:55.278000+00:00,test
1463,0.0,0.0,2021-01-22 05:26:25.278000+00:00,test
1464,0.0,0.0,2021-01-22 05:26:55.278000+00:00,test
1465,0.0,0.0,2021-01-22 05:27:25.278000+00:00,test
1466,0.0,0.0,2021-01-22 05:27:55.278000+00:00,test
1467,0.0,0.0,2021-01-22 05:28:25.278000+00:00,test
1468,0.0,0.0,2021-01-22 05:28:55.278000+00:00,test
1469,0.0,0.0,2021-01-22 05:29:25.278000+00:00,test
1470,0.0,0.0,2021-01-22 05:29:55.278000+00:00,test
1471,0.0,0.0,2021-01-22 05:30:25.278000+00:00,test
1472,0.0,0.0,2021-01-22 05:30:55.278000+00:00,test
1473,0.0,0.0,2021-01-22 05:31:25.278000+00:00,test
1474,0.0,0.0,2021-01-22 05:31:55.278000+00:00,test
1475,0.0,0.0,2021-01-22 05:32:25.278000+00:00,test
1476,0.0,0.0,2021-01-22 05:32:55.278000+00:00,test
1477,0.0,0.0,2021-01-22 05:33:25.278000+00:00,test
1478,0.0,0.0,2021-01-22 05:33:55.278000+00:00,test
1479,0.0,0.0,2021-01-22 05:34:25.278000+00:00,test
1480,0.0,0.0,2021-01-22 05:34:55.278000+00:00,test
1481,0.0,0.0,2021-01-22 05:35:25.278000+00:00,test
1482,0.0,0.0,2021-01-22 05:35:55.278000+00:00,test
1483,0.0,0.0,2021-01-22 05:36:25.278000+00:00,test
1484,0.0,0.0,2021-01-22 05:36:55.278000+00:00,test
1485,0.0,0.0,2021-01-22 05:37:25.278000+00:00,test
1486,0.0,0.0,2021-01-22 05:37:55.278000+00:00,test
1487,0.0,0.0,2021-01-22 05:38:25.278000+00:00,test
1488,0.0,0.0,2021-01-22 05:38:55.278000+00:00,test
1489,0.0,0.0,2021-01-22 05:39:25.278000+00:00,test
1490,0.0,0.0,2021-01-22 05:39:55.278000+00:00,test
1491,0.0,0.0,2021-01-22 05:40:25.278000+00:00,test
1492,0.0,0.0,2021-01-22 05:40:55.278000+00:00,test
1493,0.0,0.0,2021-01-22 05:41:25.278000+00:00,test
1494,0.0,0.0,2021-01-22 05:41:55.278000+00:00,test
1495,0.0,0.0,2021-01-22 05:42:25.278000+00:00,test
1496,0.0,0.0,2021-01-22 05:42:55.278000+00:00,test
1497,0.0,0.0,2021-01-22 05:43:25.278000+00:00,test
1498,0.0,0.0,2021-01-22 05:43:55.278000+00:00,test
1499,0.0,0.0,2021-01-22 05:44:25.278000+00:00,test
1500,0.0,0.0,2021-01-22 05:44:55.278000+00:00,test
1501,0.0,0.0,2021-01-22 05:45:25.278000+00:00,test
1502,0.0,0.0,2021-01-22 05:45:55.278000+00:00,test
1503,0.0,0.0,2021-01-22 05:46:25.278000+00:00,test
1504,0.0,0.0,2021-01-22 05:46:55.278000+00:00,test
1505,0.0,0.0,2021-01-22 05:47:25.278000+00:00,test
1506,0.0,0.0,2021-01-22 05:47:55.278000+00:00,test
1507,0.0,0.0,2021-01-22 05:48:25.278000+00:00,test
1508,0.0,0.0,2021-01-22 05:48:55.278000+00:00,test
1509,0.0,0.0,2021-01-22 05:49:25.278000+00:00,test
1510,0.0,0.0,2021-01-22 05:49:55.278000+00:00,test
1511,0.0,0.0,2021-01-22 05:50:25.278000+00:00,test
1512,0.0,0.0,2021-01-22 05:50:55.278000+00:00,test
1513,0.0,0.0,2021-01-22 05:51:25.278000+00:00,test
1514,0.0,0.0,2021-01-22 05:51:55.278000+00:00,test
1515,0.0,0.0,2021-01-22 05:52:25.278000+00:00,test
1516,0.0,0.0,2021-01-22 05:52:55.278000+00:00,test
1517,0.0,0.0,2021-01-22 05:53:25.278000+00:00,test
1518,0.0,0.0,2021-01-22 05:53:55.278000+00:00,test
1519,0.0,0.0,2021-01-22 05:54:25.278000+00:00,test
1520,0.0,0.0,2021-01-22 05:54:55.278000+00:00,test
1521,0.0,0.0,2021-01-22 05:55:25.278000+00:00,test
1522,0.0,0.0,2021-01-22 05:55:55.278000+00:00,test
1523,0.0,0.0,2021-01-22 05:56:25.278000+00:00,test
1524,0.0,0.0,2021-01-22 05:56:55.278000+00:00,test
1525,0.0,0.0,2021-01-22 05:57:25.278000+00:00,test
1526,0.0,0.0,2021-01-22 05:57:55.278000+00:00,test
1527,0.0,0.0,2021-01-22 05:58:25.278000+00:00,test
1528,0.0,0.0,2021-01-22 05:58:55.278000+00:00,test
1529,0.0,0.0,2021-01-22 05:59:25.278000+00:00,test
1530,0.0,0.0,2021-01-22 05:59:55.278000+00:00,test
1531,0.0,0.0,2021-01-22 06:00:25.278000+00:00,test
1532,0.0,0.0,2021-01-22 06:00:55.278000+00:00,test
1533,0.0,0.0,2021-01-22 06:01:25.278000+00:00,test
1534,0.0,0.0,2021-01-22 06:01:55.278000+00:00,test
1535,0.0,0.0,2021-01-22 06:02:25.278000+00:00,test
1536,0.0,0.0,2021-01-22 06:02:55.278000+00:00,test
1537,0.0,0.0,2021-01-22 06:03:25.278000+00:00,test
1538,0.0,0.0,2021-01-22 06:03:55.278000+00:00,test
1539,0.0,0.0,2021-01-22 06:04:25.278000+00:00,test
1540,0.0,0.0,2021-01-22 06:04:55.278000+00:00,test
1541,0.0,0.0,2021-01-22 06:05:25.278000+00:00,test
1542,0.0,0.0,2021-01-22 06:05:55.278000+00:00,test
1543,0.0,0.0,2021-01-22 06:06:25.278000+00:00,test
1544,0.0,0.0,2021-01-22 06:06:55.278000+00:00,test
1545,0.0,0.0,2021-01-22 06:07:25.278000+00:00,test
1546,0.0,0.0,2021-01-22 06:07:55.278000+00:00,test
1547,0.0,0.0,2021-01-22 06:08:25.278000+00:00,test
1548,0.0,0.0,2021-01-22 06:08:55.278000+00:00,test
1549,0.0,0.0,2021-01-22 06:09:25.278000+00:00,test
1550,0.0,0.0,2021-01-22 06:09:55.278000+00:00,test
1551,0.0,0.0,2021-01-22 06:10:25.278000+00:00,test
1552,0.0,0.0,2021-01-22 06:10:55.278000+00:00,test
1553,0.0,0.0,2021-01-22 06:11:25.278000+00:00,test
1554,0.0,0.0,2021-01-22 06:11:55.278000+00:00,test
1555,0.0,0.0,2021-01-22 06:12:25.278000+00:00,test
1556,0.0,0.0,2021-01-22 06:12:55.278000+00:00,test
1557,0.0,0.0,2021-01-22 06:13:25.278000+00:00,test
1558,0.0,0.0,2021-01-22 06:13:55.278000+00:00,test
1559,0.0,0.0,2021-01-22 06:14:25.278000+00:00,test
1560,0.0,0.0,2021-01-22 06:14:55.278000+00:00,test
1561,0.0,0.0,2021-01-22 06:15:25.278000+00:00,test
1562,0.0,0.0,2021-01-22 06:15:55.278000+00:00,test
1563,0.0,0.0,2021-01-22 06:16:25.278000+00:00,test
1564,0.0,0.0,2021-01-22 06:16:55.278000+00:00,test
1565,0.0,0.0,2021-01-22 06:17:25.278000+00:00,test
1566,0.0,0.0,2021-01-22 06:17:55.278000+00:00,test
1567,0.0,0.0,2021-01-22 06:18:25.278000+00:00,test
1568,0.0,0.0,2021-01-22 06:18:55.278000+00:00,test
1569,0.0,0.0,2021-01-22 06:19:25.278000+00:00,test
1570,0.0,0.0,2021-01-22 06:19:55.278000+00:00,test
1571,0.0,0.0,2021-01-22 06:20:25.278000+00:00,test
1572,0.0,0.0,2021-01-22 06:20:55.278000+00:00,test
1573,0.0,0.0,2021-01-22 06:21:25.278000+00:00,test
1574,0.0,0.0,2021-01-22 06:21:55.278000+00:00,test
1575,0.0,0.0,2021-01-22 06:22:25.278000+00:00,test
1576,0.0,0.0,2021-01-22 06:22:55.278000+00:00,test
1577,0.0,0.0,2021-01-22 06:23:25.278000+00:00,test
1578,0.0,0.0,2021-01-22 06:23:55.278000+00:00,test
1579,0.0,0.0,2021-01-22 06:24:25.278000+00:00,test
1580,0.0,0.0,2021-01-22 06:24:55.278000+00:00,test
1581,0.0,0.0,2021-01-22 06:25:25.278000+00:00,test
1582,0.0,0.0,2021-01-22 06:25:55.278000+00:00,test
1583,0.0,0.0,2021-01-22 06:26:25.278000+00:00,test
1584,0.0,0.0,2021-01-22 06:26:55.278000+00:00,test
1585,0.0,0.0,2021-01-22 06:27:25.278000+00:00,test
1586,0.0,0.0,2021-01-22 06:27:55.278000+00:00,test
1587,0.0,0.0,2021-01-22 06:28:25.278000+00:00,test
1588,0.0,0.0,2021-01-22 06:28:55.278000+00:00,test
1589,0.0,0.0,2021-01-22 06:29:25.278000+00:00,test
1590,0.0,0.0,2021-01-22 06:29:55.278000+00:00,test
1591,0.0,0.0,2021-01-22 06:30:25.278000+00:00,test
1592,0.0,0.0,2021-01-22 06:30:55.278000+00:00,test
1593,0.0,0.0,2021-01-22 06:31:25.278000+00:00,test
1594,0.0,0.0,2021-01-22 06:31:55.278000+00:00,test
1595,0.0,0.0,2021-01-22 06:32:25.278000+00:00,test
1596,0.0,0.0,2021-01-22 06:32:55.278000+00:00,test
1597,0.0,0.0,2021-01-22 06:33:25.278000+00:00,test
1598,0.0,0.0,2021-01-22 06:33:55.278000+00:00,test
1599,0.0,0.0,2021-01-22 06:34:25.278000+00:00,test
1600,0.0,0.0,2021-01-22 06:34:55.278000+00:00,test
1601,0.0,0.0,2021-01-22 06:35:25.278000+00:00,test
1602,0.0,0.0,2021-01-22 06:35:55.278000+00:00,test
1603,0.0,0.0,2021-01-22 06:36:25.278000+00:00,test
1604,0.0,0.0,2021-01-22 06:36:55.278000+00:00,test
1605,0.0,0.0,2021-01-22 06:37:25.278000+00:00,test
1606,0.0,0.0,2021-01-22 06:37:55.278000+00:00,test
1607,0.0,0.0,2021-01-22 06:38:25.278000+00:00,test
1608,0.0,0.0,2021-01-22 06:38:55.278000+00:00,test
1609,0.0,0.0,2021-01-22 06:39:25.278000+00:00,test
1610,0.0,0.0,2021-01-22 06:39:55.278000+00:00,test
1611,0.0,0.0,2021-01-22 06:40:25.278000+00:00,test
1612,0.0,0.0,2021-01-22 06:40:55.278000+00:00,test
1613,0.0,0.0,2021-01-22 06:41:25.278000+00:00,test
1614,0.0,0.0,2021-01-22 06:41:55.278000+00:00,test
1615,0.0,0.0,2021-01-22 06:42:25.278000+00:00,test
