,prediction,real,time,split
0,-8.395484924316406,-8.0,2021-01-21 17:07:55.278000+00:00,train
1,-8.383075714111328,-8.0,2021-01-21 17:08:25.278000+00:00,train
2,-8.386529922485352,-8.0,2021-01-21 17:08:55.278000+00:00,train
3,-8.346364974975586,-8.0,2021-01-21 17:09:25.278000+00:00,train
4,-8.618476867675781,-8.0,2021-01-21 17:09:55.278000+00:00,train
5,-8.555794715881348,-8.0,2021-01-21 17:10:25.278000+00:00,train
6,-8.497653007507324,-8.0,2021-01-21 17:10:55.278000+00:00,train
7,-8.444130897521973,-8.0,2021-01-21 17:11:25.278000+00:00,train
8,-8.395276069641113,-8.0,2021-01-21 17:11:55.278000+00:00,train
9,-8.351153373718262,-8.0,2021-01-21 17:12:25.278000+00:00,train
10,-8.31185531616211,-8.0,2021-01-21 17:12:55.278000+00:00,train
11,-8.226048469543457,-8.0,2021-01-21 17:13:25.278000+00:00,train
12,-8.146967887878418,-8.0,2021-01-21 17:13:55.278000+00:00,train
13,-8.074570655822754,-8.0,2021-01-21 17:14:25.278000+00:00,train
14,-8.008894920349121,-8.0,2021-01-21 17:14:55.278000+00:00,train
15,-7.950022220611572,-8.0,2021-01-21 17:15:25.278000+00:00,train
16,-7.898073673248291,-8.0,2021-01-21 17:15:55.278000+00:00,train
17,-7.8532280921936035,-8.0,2021-01-21 17:16:25.278000+00:00,train
18,-7.7827653884887695,-8.0,2021-01-21 17:16:55.278000+00:00,train
19,-7.7171173095703125,-8.0,2021-01-21 17:17:25.278000+00:00,train
20,-7.6562676429748535,-8.0,2021-01-21 17:17:55.278000+00:00,train
21,-7.600223541259766,-8.0,2021-01-21 17:18:25.278000+00:00,train
22,-7.549017906188965,-8.0,2021-01-21 17:18:55.278000+00:00,train
23,-7.502708435058594,-8.0,2021-01-21 17:19:25.278000+00:00,train
24,-7.461380481719971,-8.0,2021-01-21 17:19:55.278000+00:00,train
25,-7.425148963928223,-8.0,2021-01-21 17:20:25.278000+00:00,train
26,-7.394160747528076,-8.0,2021-01-21 17:20:55.278000+00:00,train
27,-7.368602275848389,-7.0,2021-01-21 17:21:25.278000+00:00,train
28,-7.348703384399414,-7.0,2021-01-21 17:21:55.278000+00:00,train
29,-7.303834915161133,-7.0,2021-01-21 17:22:25.278000+00:00,train
30,-7.262287139892578,-7.0,2021-01-21 17:22:55.278000+00:00,train
31,-7.224090576171875,-7.0,2021-01-21 17:23:25.278000+00:00,train
32,-7.189288139343262,-7.0,2021-01-21 17:23:55.278000+00:00,train
33,-7.157942295074463,-7.0,2021-01-21 17:24:25.278000+00:00,train
34,-7.130126476287842,-7.0,2021-01-21 17:24:55.278000+00:00,train
35,-7.105936527252197,-7.0,2021-01-21 17:25:25.278000+00:00,train
36,-7.085482597351074,-7.0,2021-01-21 17:25:55.278000+00:00,train
37,-7.068900108337402,-7.0,2021-01-21 17:26:25.278000+00:00,train
38,-7.056349277496338,-7.0,2021-01-21 17:26:55.278000+00:00,train
39,-7.048020839691162,-7.0,2021-01-21 17:27:25.278000+00:00,train
40,-6.997929573059082,-7.0,2021-01-21 17:27:55.278000+00:00,train
41,-6.9536004066467285,-7.0,2021-01-21 17:28:25.278000+00:00,train
42,-6.915154457092285,-7.0,2021-01-21 17:28:55.278000+00:00,train
43,-6.882798194885254,-7.0,2021-01-21 17:29:25.278000+00:00,train
44,-6.823634624481201,-7.0,2021-01-21 17:29:55.278000+00:00,train
45,-6.76823616027832,-7.0,2021-01-21 17:30:25.278000+00:00,train
46,-6.71658182144165,-7.0,2021-01-21 17:30:55.278000+00:00,train
47,-6.668664455413818,-7.0,2021-01-21 17:31:25.278000+00:00,train
48,-6.624494552612305,-7.0,2021-01-21 17:31:55.278000+00:00,train
49,-6.58410120010376,-7.0,2021-01-21 17:32:25.278000+00:00,train
50,-6.5475311279296875,-7.0,2021-01-21 17:32:55.278000+00:00,train
51,-6.514852046966553,-7.0,2021-01-21 17:33:25.278000+00:00,train
52,-6.486154556274414,-7.0,2021-01-21 17:33:55.278000+00:00,train
53,-6.461552619934082,-7.0,2021-01-21 17:34:25.278000+00:00,train
54,-6.441190719604492,-7.0,2021-01-21 17:34:55.278000+00:00,train
55,-6.425242900848389,-7.0,2021-01-21 17:35:25.278000+00:00,train
56,-6.413923263549805,-7.0,2021-01-21 17:35:55.278000+00:00,train
57,-6.407493591308594,-7.0,2021-01-21 17:36:25.278000+00:00,train
58,-6.3744707107543945,-7.0,2021-01-21 17:36:55.278000+00:00,train
59,-6.34381628036499,-7.0,2021-01-21 17:37:25.278000+00:00,train
60,-6.315552711486816,-6.0,2021-01-21 17:37:55.278000+00:00,train
61,-6.2897138595581055,-6.0,2021-01-21 17:38:25.278000+00:00,train
62,-6.266339302062988,-6.0,2021-01-21 17:38:55.278000+00:00,train
63,-6.245481967926025,-6.0,2021-01-21 17:39:25.278000+00:00,train
64,-6.227203369140625,-6.0,2021-01-21 17:39:55.278000+00:00,train
65,-6.2115797996521,-6.0,2021-01-21 17:40:25.278000+00:00,train
66,-6.198701858520508,-6.0,2021-01-21 17:40:55.278000+00:00,train
67,-6.188674449920654,-6.0,2021-01-21 17:41:25.278000+00:00,train
68,-6.181623935699463,-6.0,2021-01-21 17:41:55.278000+00:00,train
69,-6.17769718170166,-6.0,2021-01-21 17:42:25.278000+00:00,train
70,-6.177070140838623,-6.0,2021-01-21 17:42:55.278000+00:00,train
71,-6.179950714111328,-6.0,2021-01-21 17:43:25.278000+00:00,train
72,-6.186585903167725,-6.0,2021-01-21 17:43:55.278000+00:00,train
73,-6.150752067565918,-6.0,2021-01-21 17:44:25.278000+00:00,train
74,-6.120090484619141,-6.0,2021-01-21 17:44:55.278000+00:00,train
75,-6.094768524169922,-6.0,2021-01-21 17:45:25.278000+00:00,train
76,-6.075038909912109,-6.0,2021-01-21 17:45:55.278000+00:00,train
77,-6.061234474182129,-6.0,2021-01-21 17:46:25.278000+00:00,train
78,-6.053776741027832,-6.0,2021-01-21 17:46:55.278000+00:00,train
79,-6.010761737823486,-6.0,2021-01-21 17:47:25.278000+00:00,train
80,-5.970855712890625,-6.0,2021-01-21 17:47:55.278000+00:00,train
81,-5.934045314788818,-6.0,2021-01-21 17:48:25.278000+00:00,train
82,-5.900332927703857,-6.0,2021-01-21 17:48:55.278000+00:00,train
83,-5.869740962982178,-6.0,2021-01-21 17:49:25.278000+00:00,train
84,-5.842310905456543,-6.0,2021-01-21 17:49:55.278000+00:00,train
85,-5.818103313446045,-6.0,2021-01-21 17:50:25.278000+00:00,train
86,-5.797204494476318,-6.0,2021-01-21 17:50:55.278000+00:00,train
87,-5.77972412109375,-6.0,2021-01-21 17:51:25.278000+00:00,train
88,-5.76580286026001,-6.0,2021-01-21 17:51:55.278000+00:00,train
89,-5.755615234375,-6.0,2021-01-21 17:52:25.278000+00:00,train
90,-5.749380111694336,-6.0,2021-01-21 17:52:55.278000+00:00,train
91,-5.716907024383545,-6.0,2021-01-21 17:53:25.278000+00:00,train
92,-5.685986042022705,-5.0,2021-01-21 17:53:55.278000+00:00,train
93,-5.656597137451172,-5.0,2021-01-21 17:54:25.278000+00:00,train
94,-5.628724575042725,-5.0,2021-01-21 17:54:55.278000+00:00,train
95,-5.602357864379883,-5.0,2021-01-21 17:55:25.278000+00:00,train
96,-5.577493667602539,-5.0,2021-01-21 17:55:55.278000+00:00,train
97,-5.554129600524902,-5.0,2021-01-21 17:56:25.278000+00:00,train
98,-5.532270431518555,-5.0,2021-01-21 17:56:55.278000+00:00,train
99,-5.511926174163818,-5.0,2021-01-21 17:57:25.278000+00:00,train
100,-5.493110656738281,-5.0,2021-01-21 17:57:55.278000+00:00,train
101,-5.475843906402588,-5.0,2021-01-21 17:58:25.278000+00:00,train
102,-5.460150241851807,-5.0,2021-01-21 17:58:55.278000+00:00,train
103,-5.446062088012695,-5.0,2021-01-21 17:59:25.278000+00:00,train
104,-5.433616638183594,-5.0,2021-01-21 17:59:55.278000+00:00,train
105,-5.37155818939209,-5.0,2021-01-21 18:00:25.278000+00:00,train
106,-5.31333589553833,-5.0,2021-01-21 18:00:55.278000+00:00,train
107,-5.258753776550293,-5.0,2021-01-21 18:01:25.278000+00:00,train
108,-5.207678318023682,-5.0,2021-01-21 18:01:55.278000+00:00,train
109,-5.160010814666748,-5.0,2021-01-21 18:02:25.278000+00:00,train
110,-5.115677833557129,-5.0,2021-01-21 18:02:55.278000+00:00,train
111,-5.074632167816162,-5.0,2021-01-21 18:03:25.278000+00:00,train
112,-5.0368475914001465,-5.0,2021-01-21 18:03:55.278000+00:00,train
113,-5.002320289611816,-5.0,2021-01-21 18:04:25.278000+00:00,train
114,-4.9710693359375,-5.0,2021-01-21 18:04:55.278000+00:00,train
115,-4.943134784698486,-5.0,2021-01-21 18:05:25.278000+00:00,train
116,-4.918583393096924,-5.0,2021-01-21 18:05:55.278000+00:00,train
117,-4.897505283355713,-5.0,2021-01-21 18:06:25.278000+00:00,train
118,-4.880020618438721,-5.0,2021-01-21 18:06:55.278000+00:00,train
119,-4.866288661956787,-5.0,2021-01-21 18:07:25.278000+00:00,train
120,-4.828409194946289,-5.0,2021-01-21 18:07:55.278000+00:00,train
121,-4.792171955108643,-5.0,2021-01-21 18:08:25.278000+00:00,train
122,-4.757534980773926,-5.0,2021-01-21 18:08:55.278000+00:00,train
123,-4.724465370178223,-5.0,2021-01-21 18:09:25.278000+00:00,train
124,-4.692933559417725,-5.0,2021-01-21 18:09:55.278000+00:00,train
125,-4.662917613983154,-5.0,2021-01-21 18:10:25.278000+00:00,train
126,-4.634400367736816,-5.0,2021-01-21 18:10:55.278000+00:00,train
127,-4.607369422912598,-5.0,2021-01-21 18:11:25.278000+00:00,train
128,-4.581817626953125,-5.0,2021-01-21 18:11:55.278000+00:00,train
129,-4.557740688323975,-5.0,2021-01-21 18:12:25.278000+00:00,train
130,-4.53514289855957,-5.0,2021-01-21 18:12:55.278000+00:00,train
131,-4.514029026031494,-5.0,2021-01-21 18:13:25.278000+00:00,train
132,-4.494410514831543,-5.0,2021-01-21 18:13:55.278000+00:00,train
133,-4.476303577423096,-5.0,2021-01-21 18:14:25.278000+00:00,train
134,-4.459730625152588,-5.0,2021-01-21 18:14:55.278000+00:00,train
135,-4.4447174072265625,-5.0,2021-01-21 18:15:25.278000+00:00,train
136,-4.431297779083252,-5.0,2021-01-21 18:15:55.278000+00:00,train
137,-4.419511318206787,-5.0,2021-01-21 18:16:25.278000+00:00,train
138,-4.409408092498779,-5.0,2021-01-21 18:16:55.278000+00:00,train
139,-4.401037216186523,-5.0,2021-01-21 18:17:25.278000+00:00,train
140,-4.394468307495117,-4.0,2021-01-21 18:17:55.278000+00:00,train
141,-4.389777183532715,-4.0,2021-01-21 18:18:25.278000+00:00,train
142,-4.3870530128479,-4.0,2021-01-21 18:18:55.278000+00:00,train
143,-4.3864006996154785,-4.0,2021-01-21 18:19:25.278000+00:00,train
144,-4.387945652008057,-4.0,2021-01-21 18:19:55.278000+00:00,train
145,-4.3918328285217285,-4.0,2021-01-21 18:20:25.278000+00:00,train
146,-4.398238658905029,-4.0,2021-01-21 18:20:55.278000+00:00,train
147,-4.40737247467041,-4.0,2021-01-21 18:21:25.278000+00:00,train
148,-4.419493675231934,-4.0,2021-01-21 18:21:55.278000+00:00,train
149,-4.434919834136963,-4.0,2021-01-21 18:22:25.278000+00:00,train
150,-4.4540510177612305,-4.0,2021-01-21 18:22:55.278000+00:00,train
151,-4.477407932281494,-4.0,2021-01-21 18:23:25.278000+00:00,train
152,-4.5056681632995605,-4.0,2021-01-21 18:23:55.278000+00:00,train
153,-4.445943832397461,-4.0,2021-01-21 18:24:25.278000+00:00,train
154,-4.389682292938232,-4.0,2021-01-21 18:24:55.278000+00:00,train
155,-4.336520195007324,-4.0,2021-01-21 18:25:25.278000+00:00,train
156,-4.286187171936035,-4.0,2021-01-21 18:25:55.278000+00:00,train
157,-4.238465309143066,-4.0,2021-01-21 18:26:25.278000+00:00,train
158,-4.193181037902832,-4.0,2021-01-21 18:26:55.278000+00:00,train
159,-4.150192737579346,-4.0,2021-01-21 18:27:25.278000+00:00,train
160,-4.109383583068848,-4.0,2021-01-21 18:27:55.278000+00:00,train
161,-4.070657730102539,-4.0,2021-01-21 18:28:25.278000+00:00,train
162,-4.033936023712158,-4.0,2021-01-21 18:28:55.278000+00:00,train
163,-3.999154806137085,-4.0,2021-01-21 18:29:25.278000+00:00,train
164,-3.9662623405456543,-4.0,2021-01-21 18:29:55.278000+00:00,train
165,-3.935218095779419,-4.0,2021-01-21 18:30:25.278000+00:00,train
166,-3.905992031097412,-4.0,2021-01-21 18:30:55.278000+00:00,train
167,-3.8785622119903564,-4.0,2021-01-21 18:31:25.278000+00:00,train
168,-3.852916955947876,-4.0,2021-01-21 18:31:55.278000+00:00,train
169,-3.829052209854126,-4.0,2021-01-21 18:32:25.278000+00:00,train
170,-3.806971788406372,-4.0,2021-01-21 18:32:55.278000+00:00,train
171,-3.786689519882202,-4.0,2021-01-21 18:33:25.278000+00:00,train
172,-3.76822566986084,-4.0,2021-01-21 18:33:55.278000+00:00,train
173,-3.7516121864318848,-4.0,2021-01-21 18:34:25.278000+00:00,train
174,-3.736889362335205,-4.0,2021-01-21 18:34:55.278000+00:00,train
175,-3.7241098880767822,-4.0,2021-01-21 18:35:25.278000+00:00,train
176,-3.71333909034729,-4.0,2021-01-21 18:35:55.278000+00:00,train
177,-3.7046544551849365,-4.0,2021-01-21 18:36:25.278000+00:00,train
178,-3.6981539726257324,-4.0,2021-01-21 18:36:55.278000+00:00,train
179,-3.6939537525177,-4.0,2021-01-21 18:37:25.278000+00:00,train
180,-3.6921961307525635,-4.0,2021-01-21 18:37:55.278000+00:00,train
181,-3.693053722381592,-4.0,2021-01-21 18:38:25.278000+00:00,train
182,-3.6967382431030273,-4.0,2021-01-21 18:38:55.278000+00:00,train
183,-3.703512668609619,-4.0,2021-01-21 18:39:25.278000+00:00,train
184,-3.7137091159820557,-4.0,2021-01-21 18:39:55.278000+00:00,train
185,-3.6970207691192627,-4.0,2021-01-21 18:40:25.278000+00:00,train
186,-3.6809237003326416,-4.0,2021-01-21 18:40:55.278000+00:00,train
187,-3.6654114723205566,-4.0,2021-01-21 18:41:25.278000+00:00,train
188,-3.6504769325256348,-4.0,2021-01-21 18:41:55.278000+00:00,train
189,-3.636115312576294,-4.0,2021-01-21 18:42:25.278000+00:00,train
190,-3.6223230361938477,-4.0,2021-01-21 18:42:55.278000+00:00,train
191,-3.6090970039367676,-4.0,2021-01-21 18:43:25.278000+00:00,train
192,-3.596436023712158,-4.0,2021-01-21 18:43:55.278000+00:00,train
193,-3.584338903427124,-4.0,2021-01-21 18:44:25.278000+00:00,train
194,-3.572805881500244,-4.0,2021-01-21 18:44:55.278000+00:00,train
195,-3.5618393421173096,-4.0,2021-01-21 18:45:25.278000+00:00,train
196,-3.551440477371216,-4.0,2021-01-21 18:45:55.278000+00:00,train
197,-3.5416150093078613,-4.0,2021-01-21 18:46:25.278000+00:00,train
198,-3.5323665142059326,-4.0,2021-01-21 18:46:55.278000+00:00,train
199,-3.523700714111328,-4.0,2021-01-21 18:47:25.278000+00:00,train
200,-3.5156257152557373,-4.0,2021-01-21 18:47:55.278000+00:00,train
201,-3.5081496238708496,-4.0,2021-01-21 18:48:25.278000+00:00,train
202,-3.5012826919555664,-4.0,2021-01-21 18:48:55.278000+00:00,train
203,-3.4950368404388428,-4.0,2021-01-21 18:49:25.278000+00:00,train
204,-3.489423990249634,-4.0,2021-01-21 18:49:55.278000+00:00,train
205,-3.4844613075256348,-4.0,2021-01-21 18:50:25.278000+00:00,train
206,-3.4801628589630127,-4.0,2021-01-21 18:50:55.278000+00:00,train
207,-3.476550817489624,-4.0,2021-01-21 18:51:25.278000+00:00,train
208,-3.473644971847534,-4.0,2021-01-21 18:51:55.278000+00:00,train
209,-3.4714701175689697,-4.0,2021-01-21 18:52:25.278000+00:00,train
210,-3.4700546264648438,-3.0,2021-01-21 18:52:55.278000+00:00,train
211,-3.4694290161132812,-3.0,2021-01-21 18:53:25.278000+00:00,train
212,-3.4696292877197266,-3.0,2021-01-21 18:53:55.278000+00:00,train
213,-3.470695734024048,-3.0,2021-01-21 18:54:25.278000+00:00,train
214,-3.4726743698120117,-3.0,2021-01-21 18:54:55.278000+00:00,train
215,-3.4756181240081787,-3.0,2021-01-21 18:55:25.278000+00:00,train
216,-3.479588508605957,-3.0,2021-01-21 18:55:55.278000+00:00,train
217,-3.484657049179077,-3.0,2021-01-21 18:56:25.278000+00:00,train
218,-3.4909069538116455,-3.0,2021-01-21 18:56:55.278000+00:00,train
219,-3.498436689376831,-3.0,2021-01-21 18:57:25.278000+00:00,train
220,-3.5073657035827637,-3.0,2021-01-21 18:57:55.278000+00:00,train
221,-3.517836332321167,-3.0,2021-01-21 18:58:25.278000+00:00,train
222,-3.530026435852051,-3.0,2021-01-21 18:58:55.278000+00:00,train
223,-3.4998106956481934,-3.0,2021-01-21 18:59:25.278000+00:00,train
224,-3.4680655002593994,-3.0,2021-01-21 18:59:55.278000+00:00,train
225,-3.4379026889801025,-3.0,2021-01-21 19:00:25.278000+00:00,train
226,-3.4099910259246826,-3.0,2021-01-21 19:00:55.278000+00:00,train
227,-3.3846333026885986,-3.0,2021-01-21 19:01:25.278000+00:00,train
228,-3.3619906902313232,-3.0,2021-01-21 19:01:55.278000+00:00,train
229,-3.342223644256592,-3.0,2021-01-21 19:02:25.278000+00:00,train
230,-3.3254811763763428,-3.0,2021-01-21 19:02:55.278000+00:00,train
231,-3.311944007873535,-3.0,2021-01-21 19:03:25.278000+00:00,train
232,-3.3018338680267334,-3.0,2021-01-21 19:03:55.278000+00:00,train
233,-3.2660067081451416,-3.0,2021-01-21 19:04:25.278000+00:00,train
234,-3.23183274269104,-3.0,2021-01-21 19:04:55.278000+00:00,train
235,-3.1991376876831055,-3.0,2021-01-21 19:05:25.278000+00:00,train
236,-3.1677842140197754,-3.0,2021-01-21 19:05:55.278000+00:00,train
237,-3.1376595497131348,-3.0,2021-01-21 19:06:25.278000+00:00,train
238,-3.108670473098755,-3.0,2021-01-21 19:06:55.278000+00:00,train
239,-3.080738067626953,-3.0,2021-01-21 19:07:25.278000+00:00,train
240,-3.0537941455841064,-3.0,2021-01-21 19:07:55.278000+00:00,train
241,-3.027780771255493,-3.0,2021-01-21 19:08:25.278000+00:00,train
242,-3.002647638320923,-3.0,2021-01-21 19:08:55.278000+00:00,train
243,-2.9783499240875244,-3.0,2021-01-21 19:09:25.278000+00:00,train
244,-2.9548497200012207,-3.0,2021-01-21 19:09:55.278000+00:00,train
245,-2.9321134090423584,-3.0,2021-01-21 19:10:25.278000+00:00,train
246,-2.9101099967956543,-3.0,2021-01-21 19:10:55.278000+00:00,train
247,-2.8888134956359863,-3.0,2021-01-21 19:11:25.278000+00:00,train
248,-2.8682000637054443,-3.0,2021-01-21 19:11:55.278000+00:00,train
249,-2.8482489585876465,-3.0,2021-01-21 19:12:25.278000+00:00,train
250,-2.8289411067962646,-3.0,2021-01-21 19:12:55.278000+00:00,train
251,-2.810260057449341,-3.0,2021-01-21 19:13:25.278000+00:00,train
252,-2.7921903133392334,-3.0,2021-01-21 19:13:55.278000+00:00,train
253,-2.774719476699829,-3.0,2021-01-21 19:14:25.278000+00:00,train
254,-2.7578353881835938,-3.0,2021-01-21 19:14:55.278000+00:00,train
255,-2.741527557373047,-3.0,2021-01-21 19:15:25.278000+00:00,train
256,-2.7257871627807617,-3.0,2021-01-21 19:15:55.278000+00:00,train
257,-2.7106075286865234,-3.0,2021-01-21 19:16:25.278000+00:00,train
258,-2.6959822177886963,-3.0,2021-01-21 19:16:55.278000+00:00,train
259,-2.6819047927856445,-3.0,2021-01-21 19:17:25.278000+00:00,train
260,-2.66837215423584,-3.0,2021-01-21 19:17:55.278000+00:00,train
261,-2.6553797721862793,-3.0,2021-01-21 19:18:25.278000+00:00,train
262,-2.642925262451172,-3.0,2021-01-21 19:18:55.278000+00:00,train
263,-2.631007671356201,-3.0,2021-01-21 19:19:25.278000+00:00,train
264,-2.619626045227051,-3.0,2021-01-21 19:19:55.278000+00:00,train
265,-2.608781576156616,-3.0,2021-01-21 19:20:25.278000+00:00,train
266,-2.598475217819214,-3.0,2021-01-21 19:20:55.278000+00:00,train
267,-2.588710069656372,-3.0,2021-01-21 19:21:25.278000+00:00,train
268,-2.5794894695281982,-3.0,2021-01-21 19:21:55.278000+00:00,train
269,-2.5708186626434326,-3.0,2021-01-21 19:22:25.278000+00:00,train
270,-2.562703847885132,-3.0,2021-01-21 19:22:55.278000+00:00,train
271,-2.55515193939209,-3.0,2021-01-21 19:23:25.278000+00:00,train
272,-2.5481719970703125,-3.0,2021-01-21 19:23:55.278000+00:00,train
273,-2.541774034500122,-3.0,2021-01-21 19:24:25.278000+00:00,train
274,-2.5359702110290527,-3.0,2021-01-21 19:24:55.278000+00:00,train
275,-2.530773878097534,-3.0,2021-01-21 19:25:25.278000+00:00,train
276,-2.52620005607605,-3.0,2021-01-21 19:25:55.278000+00:00,train
277,-2.5222668647766113,-3.0,2021-01-21 19:26:25.278000+00:00,train
278,-2.520305871963501,-3.0,2021-01-21 19:26:55.278000+00:00,train
279,-2.5175602436065674,-3.0,2021-01-21 19:27:25.278000+00:00,train
280,-2.5155279636383057,-3.0,2021-01-21 19:27:55.278000+00:00,train
281,-2.5142385959625244,-3.0,2021-01-21 19:28:25.278000+00:00,train
282,-2.513725757598877,-3.0,2021-01-21 19:28:55.278000+00:00,train
283,-2.514028787612915,-3.0,2021-01-21 19:29:25.278000+00:00,train
284,-2.5151896476745605,-3.0,2021-01-21 19:29:55.278000+00:00,train
285,-2.517258405685425,-3.0,2021-01-21 19:30:25.278000+00:00,train
286,-2.5202925205230713,-3.0,2021-01-21 19:30:55.278000+00:00,train
287,-2.5243594646453857,-3.0,2021-01-21 19:31:25.278000+00:00,train
288,-2.529538154602051,-3.0,2021-01-21 19:31:55.278000+00:00,train
289,-2.5359222888946533,-3.0,2021-01-21 19:32:25.278000+00:00,train
290,-2.543623685836792,-3.0,2021-01-21 19:32:55.278000+00:00,train
291,-2.5527775287628174,-3.0,2021-01-21 19:33:25.278000+00:00,train
292,-2.563552141189575,-3.0,2021-01-21 19:33:55.278000+00:00,train
293,-2.576153516769409,-3.0,2021-01-21 19:34:25.278000+00:00,train
294,-2.5908544063568115,-3.0,2021-01-21 19:34:55.278000+00:00,train
295,-2.608013868331909,-3.0,2021-01-21 19:35:25.278000+00:00,train
296,-2.628119468688965,-3.0,2021-01-21 19:35:55.278000+00:00,train
297,-2.6518714427948,-3.0,2021-01-21 19:36:25.278000+00:00,train
298,-2.680339813232422,-3.0,2021-01-21 19:36:55.278000+00:00,train
299,-2.715317726135254,-3.0,2021-01-21 19:37:25.278000+00:00,train
300,-2.7602829933166504,-3.0,2021-01-21 19:37:55.278000+00:00,train
301,-2.82415771484375,-3.0,2021-01-21 19:38:25.278000+00:00,train
302,-3.0,-3.0,2021-01-21 19:38:55.278000+00:00,train
303,-3.0,-3.0,2021-01-21 19:39:25.278000+00:00,train
304,-3.0,-3.0,2021-01-21 19:39:55.278000+00:00,train
305,-3.0,-3.0,2021-01-21 19:40:25.278000+00:00,train
306,-3.0,-3.0,2021-01-21 19:40:55.278000+00:00,train
307,-3.0,-3.0,2021-01-21 19:41:25.278000+00:00,train
308,-3.0,-3.0,2021-01-21 19:41:55.278000+00:00,train
309,-3.0,-3.0,2021-01-21 19:42:25.278000+00:00,train
310,-3.0,-3.0,2021-01-21 19:42:55.278000+00:00,train
311,-3.0,-3.0,2021-01-21 19:43:25.278000+00:00,train
312,-3.0,-3.0,2021-01-21 19:43:55.278000+00:00,train
313,-3.0,-2.0,2021-01-21 19:44:25.278000+00:00,train
314,-3.0,-2.0,2021-01-21 19:44:55.278000+00:00,train
315,-3.0,-2.0,2021-01-21 19:45:25.278000+00:00,train
316,-3.0,-2.0,2021-01-21 19:45:55.278000+00:00,train
317,-3.0,-2.0,2021-01-21 19:46:25.278000+00:00,train
318,-3.0,-2.0,2021-01-21 19:46:55.278000+00:00,train
319,-3.0,-2.0,2021-01-21 19:47:25.278000+00:00,train
320,-3.0,-2.0,2021-01-21 19:47:55.278000+00:00,train
321,-3.0,-2.0,2021-01-21 19:48:25.278000+00:00,train
322,-3.0,-2.0,2021-01-21 19:48:55.278000+00:00,train
323,-3.0,-2.0,2021-01-21 19:49:25.278000+00:00,train
324,-3.0,-2.0,2021-01-21 19:49:55.278000+00:00,train
325,-3.0,-2.0,2021-01-21 19:50:25.278000+00:00,train
326,-2.8004207611083984,-2.0,2021-01-21 19:50:55.278000+00:00,train
327,-2.71342134475708,-2.0,2021-01-21 19:51:25.278000+00:00,train
328,-2.6461377143859863,-2.0,2021-01-21 19:51:55.278000+00:00,train
329,-2.589644193649292,-2.0,2021-01-21 19:52:25.278000+00:00,train
330,-2.5404419898986816,-2.0,2021-01-21 19:52:55.278000+00:00,train
331,-2.496704339981079,-2.0,2021-01-21 19:53:25.278000+00:00,train
332,-2.4573562145233154,-2.0,2021-01-21 19:53:55.278000+00:00,train
333,-2.4216885566711426,-2.0,2021-01-21 19:54:25.278000+00:00,train
334,-2.3954527378082275,-2.0,2021-01-21 19:54:55.278000+00:00,train
335,-2.3667490482330322,-2.0,2021-01-21 19:55:25.278000+00:00,train
336,-2.340346097946167,-2.0,2021-01-21 19:55:55.278000+00:00,train
337,-2.315948009490967,-2.0,2021-01-21 19:56:25.278000+00:00,train
338,-2.2933027744293213,-2.0,2021-01-21 19:56:55.278000+00:00,train
339,-2.2721915245056152,-2.0,2021-01-21 19:57:25.278000+00:00,train
340,-2.2524261474609375,-2.0,2021-01-21 19:57:55.278000+00:00,train
341,-2.2338457107543945,-2.0,2021-01-21 19:58:25.278000+00:00,train
342,-2.2163071632385254,-2.0,2021-01-21 19:58:55.278000+00:00,train
343,-2.199693202972412,-2.0,2021-01-21 19:59:25.278000+00:00,train
344,-2.1838998794555664,-2.0,2021-01-21 19:59:55.278000+00:00,train
345,-2.1688361167907715,-2.0,2021-01-21 20:00:25.278000+00:00,train
346,-2.1544253826141357,-2.0,2021-01-21 20:00:55.278000+00:00,train
347,-2.1405999660491943,-2.0,2021-01-21 20:01:25.278000+00:00,train
348,-2.127302408218384,-2.0,2021-01-21 20:01:55.278000+00:00,train
349,-2.1144821643829346,-2.0,2021-01-21 20:02:25.278000+00:00,train
350,-2.1020963191986084,-2.0,2021-01-21 20:02:55.278000+00:00,train
351,-2.09010648727417,-2.0,2021-01-21 20:03:25.278000+00:00,train
352,-2.078481912612915,-2.0,2021-01-21 20:03:55.278000+00:00,train
353,-2.0671908855438232,-2.0,2021-01-21 20:04:25.278000+00:00,train
354,-2.0562126636505127,-2.0,2021-01-21 20:04:55.278000+00:00,train
355,-2.045527935028076,-2.0,2021-01-21 20:05:25.278000+00:00,train
356,-2.035118579864502,-2.0,2021-01-21 20:05:55.278000+00:00,train
357,-2.0249688625335693,-2.0,2021-01-21 20:06:25.278000+00:00,train
358,-2.0150668621063232,-2.0,2021-01-21 20:06:55.278000+00:00,train
359,-2.005401611328125,-2.0,2021-01-21 20:07:25.278000+00:00,train
360,-1.9959635734558105,-2.0,2021-01-21 20:07:55.278000+00:00,train
361,-1.9867435693740845,-2.0,2021-01-21 20:08:25.278000+00:00,train
362,-1.9777346849441528,-2.0,2021-01-21 20:08:55.278000+00:00,train
363,-1.9689369201660156,-2.0,2021-01-21 20:09:25.278000+00:00,train
364,-1.9603393077850342,-2.0,2021-01-21 20:09:55.278000+00:00,train
365,-1.951940655708313,-2.0,2021-01-21 20:10:25.278000+00:00,train
366,-1.943738579750061,-2.0,2021-01-21 20:10:55.278000+00:00,train
367,-1.9357320070266724,-2.0,2021-01-21 20:11:25.278000+00:00,train
368,-1.927923560142517,-2.0,2021-01-21 20:11:55.278000+00:00,train
369,-1.9203152656555176,-2.0,2021-01-21 20:12:25.278000+00:00,train
370,-1.9129023551940918,-2.0,2021-01-21 20:12:55.278000+00:00,train
371,-1.9056845903396606,-2.0,2021-01-21 20:13:25.278000+00:00,train
372,-1.8986657857894897,-2.0,2021-01-21 20:13:55.278000+00:00,train
373,-1.8918324708938599,-2.0,2021-01-21 20:14:25.278000+00:00,train
374,-1.8852038383483887,-2.0,2021-01-21 20:14:55.278000+00:00,train
375,-1.8787922859191895,-2.0,2021-01-21 20:15:25.278000+00:00,train
376,-1.872604250907898,-2.0,2021-01-21 20:15:55.278000+00:00,train
377,-1.8666476011276245,-2.0,2021-01-21 20:16:25.278000+00:00,train
378,-1.8609284162521362,-2.0,2021-01-21 20:16:55.278000+00:00,train
379,-1.8554569482803345,-2.0,2021-01-21 20:17:25.278000+00:00,train
380,-1.850243330001831,-2.0,2021-01-21 20:17:55.278000+00:00,train
381,-1.8452982902526855,-2.0,2021-01-21 20:18:25.278000+00:00,train
382,-1.8406355381011963,-2.0,2021-01-21 20:18:55.278000+00:00,train
383,-1.836269736289978,-2.0,2021-01-21 20:19:25.278000+00:00,train
384,-1.8322153091430664,-2.0,2021-01-21 20:19:55.278000+00:00,train
385,-1.8284916877746582,-2.0,2021-01-21 20:20:25.278000+00:00,train
386,-1.8251193761825562,-2.0,2021-01-21 20:20:55.278000+00:00,train
387,-1.8221207857131958,-2.0,2021-01-21 20:21:25.278000+00:00,train
388,-1.8195226192474365,-2.0,2021-01-21 20:21:55.278000+00:00,train
389,-1.8173563480377197,-2.0,2021-01-21 20:22:25.278000+00:00,train
390,-1.8156572580337524,-2.0,2021-01-21 20:22:55.278000+00:00,train
391,-1.8144680261611938,-2.0,2021-01-21 20:23:25.278000+00:00,train
392,-1.813838005065918,-2.0,2021-01-21 20:23:55.278000+00:00,train
393,-1.8138285875320435,-2.0,2021-01-21 20:24:25.278000+00:00,train
394,-1.814511775970459,-2.0,2021-01-21 20:24:55.278000+00:00,train
395,-1.815968632698059,-2.0,2021-01-21 20:25:25.278000+00:00,train
396,-1.8183090686798096,-2.0,2021-01-21 20:25:55.278000+00:00,train
397,-1.8216757774353027,-2.0,2021-01-21 20:26:25.278000+00:00,train
398,-1.826256275177002,-2.0,2021-01-21 20:26:55.278000+00:00,train
399,-1.832305669784546,-2.0,2021-01-21 20:27:25.278000+00:00,train
400,-1.840193510055542,-2.0,2021-01-21 20:27:55.278000+00:00,train
401,-1.8504829406738281,-2.0,2021-01-21 20:28:25.278000+00:00,train
402,-1.8641198873519897,-2.0,2021-01-21 20:28:55.278000+00:00,train
403,-1.882943034172058,-2.0,2021-01-21 20:29:25.278000+00:00,train
404,-1.9116859436035156,-2.0,2021-01-21 20:29:55.278000+00:00,train
405,-2.0,-2.0,2021-01-21 20:30:25.278000+00:00,train
406,-2.0,-2.0,2021-01-21 20:30:55.278000+00:00,train
407,-2.0,-2.0,2021-01-21 20:31:25.278000+00:00,train
408,-2.0,-2.0,2021-01-21 20:31:55.278000+00:00,train
409,-2.0,-2.0,2021-01-21 20:32:25.278000+00:00,train
410,-2.0,-2.0,2021-01-21 20:32:55.278000+00:00,train
411,-2.0,-2.0,2021-01-21 20:33:25.278000+00:00,train
412,-2.0,-2.0,2021-01-21 20:33:55.278000+00:00,train
413,-2.0,-2.0,2021-01-21 20:34:25.278000+00:00,train
414,-2.0,-2.0,2021-01-21 20:34:55.278000+00:00,train
415,-2.0,-2.0,2021-01-21 20:35:25.278000+00:00,train
416,-2.0,-2.0,2021-01-21 20:35:55.278000+00:00,train
417,-2.0,-2.0,2021-01-21 20:36:25.278000+00:00,train
418,-2.0,-2.0,2021-01-21 20:36:55.278000+00:00,train
419,-2.0,-2.0,2021-01-21 20:37:25.278000+00:00,train
420,-2.0,-2.0,2021-01-21 20:37:55.278000+00:00,train
421,-2.0,-2.0,2021-01-21 20:38:25.278000+00:00,train
422,-2.0,-2.0,2021-01-21 20:38:55.278000+00:00,train
423,-2.0,-2.0,2021-01-21 20:39:25.278000+00:00,train
424,-2.0,-2.0,2021-01-21 20:39:55.278000+00:00,train
425,-2.0,-2.0,2021-01-21 20:40:25.278000+00:00,train
426,-2.0,-2.0,2021-01-21 20:40:55.278000+00:00,train
427,-2.0,-2.0,2021-01-21 20:41:25.278000+00:00,train
428,-2.0,-2.0,2021-01-21 20:41:55.278000+00:00,train
429,-2.0,-2.0,2021-01-21 20:42:25.278000+00:00,train
430,-2.0,-2.0,2021-01-21 20:42:55.278000+00:00,train
431,-2.0,-2.0,2021-01-21 20:43:25.278000+00:00,train
432,-2.0,-2.0,2021-01-21 20:43:55.278000+00:00,train
433,-2.0,-2.0,2021-01-21 20:44:25.278000+00:00,train
434,-2.0,-2.0,2021-01-21 20:44:55.278000+00:00,train
435,-2.0,-2.0,2021-01-21 20:45:25.278000+00:00,train
436,-2.0,-2.0,2021-01-21 20:45:55.278000+00:00,train
437,-2.0,-2.0,2021-01-21 20:46:25.278000+00:00,train
438,-2.0,-2.0,2021-01-21 20:46:55.278000+00:00,train
439,-2.0,-2.0,2021-01-21 20:47:25.278000+00:00,train
440,-2.0,-2.0,2021-01-21 20:47:55.278000+00:00,train
441,-2.0,-2.0,2021-01-21 20:48:25.278000+00:00,train
442,-2.0,-2.0,2021-01-21 20:48:55.278000+00:00,train
443,-2.0,-2.0,2021-01-21 20:49:25.278000+00:00,train
444,-2.0,-2.0,2021-01-21 20:49:55.278000+00:00,train
445,-2.0,-2.0,2021-01-21 20:50:25.278000+00:00,train
446,-2.0,-2.0,2021-01-21 20:50:55.278000+00:00,train
447,-2.0,-2.0,2021-01-21 20:51:25.278000+00:00,train
448,-2.0,-2.0,2021-01-21 20:51:55.278000+00:00,train
449,-2.0,-2.0,2021-01-21 20:52:25.278000+00:00,train
450,-2.0,-2.0,2021-01-21 20:52:55.278000+00:00,train
451,-2.0,-2.0,2021-01-21 20:53:25.278000+00:00,train
452,-2.0,-2.0,2021-01-21 20:53:55.278000+00:00,train
453,-2.0,-2.0,2021-01-21 20:54:25.278000+00:00,train
454,-2.0,-2.0,2021-01-21 20:54:55.278000+00:00,train
455,-2.0,-2.0,2021-01-21 20:55:25.278000+00:00,train
456,-2.0,-2.0,2021-01-21 20:55:55.278000+00:00,train
457,-2.0,-2.0,2021-01-21 20:56:25.278000+00:00,train
458,-2.0,-2.0,2021-01-21 20:56:55.278000+00:00,train
459,-2.0,-2.0,2021-01-21 20:57:25.278000+00:00,train
460,-2.0,-2.0,2021-01-21 20:57:55.278000+00:00,train
461,-2.0,-2.0,2021-01-21 20:58:25.278000+00:00,train
462,-2.0,-2.0,2021-01-21 20:58:55.278000+00:00,train
463,-2.0,-2.0,2021-01-21 20:59:25.278000+00:00,train
464,-2.0,-2.0,2021-01-21 20:59:55.278000+00:00,train
465,-2.0,-2.0,2021-01-21 21:00:25.278000+00:00,train
466,-2.0,0.0,2021-01-21 21:00:55.278000+00:00,train
467,-2.0,-2.0,2021-01-21 21:01:25.278000+00:00,train
468,-2.0,-2.0,2021-01-21 21:01:55.278000+00:00,train
469,-2.0,-2.0,2021-01-21 21:02:25.278000+00:00,train
470,-2.0,-2.0,2021-01-21 21:02:55.278000+00:00,train
471,-2.0,-2.0,2021-01-21 21:03:25.278000+00:00,train
472,-2.0,-2.0,2021-01-21 21:03:55.278000+00:00,train
473,-2.0,-2.0,2021-01-21 21:04:25.278000+00:00,train
474,-2.0,-2.0,2021-01-21 21:04:55.278000+00:00,train
475,-2.0,-2.0,2021-01-21 21:05:25.278000+00:00,train
476,-2.0,-2.0,2021-01-21 21:05:55.278000+00:00,train
477,-2.0,-2.0,2021-01-21 21:06:25.278000+00:00,train
478,-2.0,-2.0,2021-01-21 21:06:55.278000+00:00,train
479,-1.7764543294906616,-2.0,2021-01-21 21:07:25.278000+00:00,train
480,-1.777133822441101,-2.0,2021-01-21 21:07:55.278000+00:00,train
481,-1.7775131464004517,-2.0,2021-01-21 21:08:25.278000+00:00,train
482,-1.7777564525604248,-2.0,2021-01-21 21:08:55.278000+00:00,train
483,-1.7779196500778198,-2.0,2021-01-21 21:09:25.278000+00:00,train
484,-1.7780358791351318,-2.0,2021-01-21 21:09:55.278000+00:00,train
485,-1.7781237363815308,-2.0,2021-01-21 21:10:25.278000+00:00,train
486,-1.7781946659088135,-2.0,2021-01-21 21:10:55.278000+00:00,train
487,-1.7782548666000366,-2.0,2021-01-21 21:11:25.278000+00:00,train
488,-1.7783077955245972,-2.0,2021-01-21 21:11:55.278000+00:00,train
489,-1.7783564329147339,-2.0,2021-01-21 21:12:25.278000+00:00,train
490,-1.778402328491211,-2.0,2021-01-21 21:12:55.278000+00:00,train
491,-1.7784463167190552,-2.0,2021-01-21 21:13:25.278000+00:00,train
492,-1.778489112854004,-2.0,2021-01-21 21:13:55.278000+00:00,train
493,-1.7785311937332153,-2.0,2021-01-21 21:14:25.278000+00:00,train
494,-1.778572678565979,-2.0,2021-01-21 21:14:55.278000+00:00,train
495,-1.778613567352295,-2.0,2021-01-21 21:15:25.278000+00:00,train
496,-1.7786540985107422,-2.0,2021-01-21 21:15:55.278000+00:00,train
497,-1.7786942720413208,-2.0,2021-01-21 21:16:25.278000+00:00,train
498,-1.7787340879440308,-2.0,2021-01-21 21:16:55.278000+00:00,train
499,-1.7787736654281616,-2.0,2021-01-21 21:17:25.278000+00:00,train
500,-1.7788138389587402,-2.0,2021-01-21 21:17:55.278000+00:00,train
501,-1.7788536548614502,-2.0,2021-01-21 21:18:25.278000+00:00,train
502,-1.7788931131362915,-2.0,2021-01-21 21:18:55.278000+00:00,train
503,-1.7789320945739746,-2.0,2021-01-21 21:19:25.278000+00:00,train
504,-1.7789709568023682,-2.0,2021-01-21 21:19:55.278000+00:00,train
505,-1.7790093421936035,-2.0,2021-01-21 21:20:25.278000+00:00,train
506,-1.7790477275848389,-2.0,2021-01-21 21:20:55.278000+00:00,train
507,-1.7790858745574951,-2.0,2021-01-21 21:21:25.278000+00:00,train
508,-1.7791235446929932,-2.0,2021-01-21 21:21:55.278000+00:00,train
509,-1.7791608572006226,-2.0,2021-01-21 21:22:25.278000+00:00,train
510,-1.7791979312896729,-2.0,2021-01-21 21:22:55.278000+00:00,train
511,-1.7792351245880127,-2.0,2021-01-21 21:23:25.278000+00:00,train
512,-1.7792742252349854,-2.0,2021-01-21 21:23:55.278000+00:00,train
513,-1.7793128490447998,-2.0,2021-01-21 21:24:25.278000+00:00,train
514,-1.7793519496917725,-2.0,2021-01-21 21:24:55.278000+00:00,train
515,-1.7793909311294556,-2.0,2021-01-21 21:25:25.278000+00:00,train
516,-1.7794297933578491,-2.0,2021-01-21 21:25:55.278000+00:00,train
517,-1.7794687747955322,-2.0,2021-01-21 21:26:25.278000+00:00,train
518,-1.7795073986053467,-2.0,2021-01-21 21:26:55.278000+00:00,train
519,-1.779545783996582,-2.0,2021-01-21 21:27:25.278000+00:00,train
520,-1.7795838117599487,-2.0,2021-01-21 21:27:55.278000+00:00,train
521,-1.7796216011047363,-2.0,2021-01-21 21:28:25.278000+00:00,train
522,-1.7796590328216553,-2.0,2021-01-21 21:28:55.278000+00:00,train
523,-1.7796961069107056,-2.0,2021-01-21 21:29:25.278000+00:00,train
524,-1.7797329425811768,-2.0,2021-01-21 21:29:55.278000+00:00,train
525,-1.779768466949463,-2.0,2021-01-21 21:30:25.278000+00:00,train
526,-1.7798033952713013,-2.0,2021-01-21 21:30:55.278000+00:00,train
527,-1.7798378467559814,-2.0,2021-01-21 21:31:25.278000+00:00,train
528,-1.779871940612793,-2.0,2021-01-21 21:31:55.278000+00:00,train
529,-1.779905915260315,-2.0,2021-01-21 21:32:25.278000+00:00,train
530,-1.7799394130706787,-2.0,2021-01-21 21:32:55.278000+00:00,train
531,-1.7799729108810425,-2.0,2021-01-21 21:33:25.278000+00:00,train
532,-1.7800061702728271,-2.0,2021-01-21 21:33:55.278000+00:00,train
533,-1.7800391912460327,-2.0,2021-01-21 21:34:25.278000+00:00,train
534,-1.7800726890563965,-2.0,2021-01-21 21:34:55.278000+00:00,train
535,-1.7801059484481812,-2.0,2021-01-21 21:35:25.278000+00:00,train
536,-1.7801387310028076,-2.0,2021-01-21 21:35:55.278000+00:00,train
537,-1.780171513557434,-2.0,2021-01-21 21:36:25.278000+00:00,train
538,-1.7802038192749023,-2.0,2021-01-21 21:36:55.278000+00:00,train
539,-1.780236005783081,-2.0,2021-01-21 21:37:25.278000+00:00,train
540,-1.7802679538726807,-2.0,2021-01-21 21:37:55.278000+00:00,train
541,-1.780299425125122,-2.0,2021-01-21 21:38:25.278000+00:00,train
542,-1.7803308963775635,-2.0,2021-01-21 21:38:55.278000+00:00,train
543,-1.7803621292114258,-2.0,2021-01-21 21:39:25.278000+00:00,train
544,-1.7803928852081299,-2.0,2021-01-21 21:39:55.278000+00:00,train
545,-1.780423641204834,-2.0,2021-01-21 21:40:25.278000+00:00,train
546,-1.780454397201538,-2.0,2021-01-21 21:40:55.278000+00:00,train
547,-1.780484914779663,-2.0,2021-01-21 21:41:25.278000+00:00,train
548,-1.7805144786834717,-2.0,2021-01-21 21:41:55.278000+00:00,train
549,-1.7805439233779907,-2.0,2021-01-21 21:42:25.278000+00:00,train
550,-1.7805736064910889,-2.0,2021-01-21 21:42:55.278000+00:00,train
551,-1.7806047201156616,-2.0,2021-01-21 21:43:25.278000+00:00,train
552,-1.7806366682052612,-2.0,2021-01-21 21:43:55.278000+00:00,train
553,-1.7806705236434937,-2.0,2021-01-21 21:44:25.278000+00:00,train
554,-1.7807068824768066,-2.0,2021-01-21 21:44:55.278000+00:00,train
555,-1.7807472944259644,-2.0,2021-01-21 21:45:25.278000+00:00,train
556,-1.780793309211731,-2.0,2021-01-21 21:45:55.278000+00:00,train
557,-1.780845284461975,-2.0,2021-01-21 21:46:25.278000+00:00,train
558,-1.780909538269043,-2.0,2021-01-21 21:46:55.278000+00:00,train
559,-2.0,-2.0,2021-01-21 21:47:25.278000+00:00,train
560,-2.0,-2.0,2021-01-21 21:47:55.278000+00:00,train
561,-2.0,-2.0,2021-01-21 21:48:25.278000+00:00,train
562,-2.0,-2.0,2021-01-21 21:48:55.278000+00:00,train
563,-2.0,-2.0,2021-01-21 21:49:25.278000+00:00,train
564,-2.0,-2.0,2021-01-21 21:49:55.278000+00:00,train
565,-2.0,-2.0,2021-01-21 21:50:25.278000+00:00,train
566,-2.0,-2.0,2021-01-21 21:50:55.278000+00:00,train
567,-2.0,-2.0,2021-01-21 21:51:25.278000+00:00,train
568,-2.0,-2.0,2021-01-21 21:51:55.278000+00:00,train
569,-2.0,-2.0,2021-01-21 21:52:25.278000+00:00,train
570,-2.0,-2.0,2021-01-21 21:52:55.278000+00:00,train
571,-2.0,-2.0,2021-01-21 21:53:25.278000+00:00,train
572,-2.0,-2.0,2021-01-21 21:53:55.278000+00:00,train
573,-2.0,-2.0,2021-01-21 21:54:25.278000+00:00,train
574,-2.0,-2.0,2021-01-21 21:54:55.278000+00:00,train
575,-2.0,-2.0,2021-01-21 21:55:25.278000+00:00,train
576,-2.0,-2.0,2021-01-21 21:55:55.278000+00:00,train
577,-2.0,-1.0,2021-01-21 21:56:25.278000+00:00,train
578,-2.0,-2.0,2021-01-21 21:56:55.278000+00:00,train
579,-2.0,-2.0,2021-01-21 21:57:25.278000+00:00,train
580,-2.0,-2.0,2021-01-21 21:57:55.278000+00:00,train
581,-2.0,-2.0,2021-01-21 21:58:25.278000+00:00,train
582,-2.0,-2.0,2021-01-21 21:58:55.278000+00:00,train
583,-2.0,-2.0,2021-01-21 21:59:25.278000+00:00,train
584,-2.0,-1.0,2021-01-21 21:59:55.278000+00:00,train
585,-2.0,-1.0,2021-01-21 22:00:25.278000+00:00,train
586,-2.0,0.0,2021-01-21 22:00:55.278000+00:00,train
587,-2.0,-1.0,2021-01-21 22:01:25.278000+00:00,train
588,-2.0,-1.0,2021-01-21 22:01:55.278000+00:00,train
589,-2.0,-1.0,2021-01-21 22:02:25.278000+00:00,train
590,-1.8904005289077759,-1.0,2021-01-21 22:02:55.278000+00:00,train
591,-1.8905978202819824,-1.0,2021-01-21 22:03:25.278000+00:00,train
592,-1.8907098770141602,-1.0,2021-01-21 22:03:55.278000+00:00,train
593,-1.890778660774231,-1.0,2021-01-21 22:04:25.278000+00:00,train
594,-1.8908216953277588,-1.0,2021-01-21 22:04:55.278000+00:00,train
595,-1.8908494710922241,-1.0,2021-01-21 22:05:25.278000+00:00,train
596,-1.8908679485321045,-1.0,2021-01-21 22:05:55.278000+00:00,train
597,-1.8387978076934814,-1.0,2021-01-21 22:06:25.278000+00:00,train
598,-1.796566128730774,-1.0,2021-01-21 22:06:55.278000+00:00,train
599,-1.6841211318969727,-1.0,2021-01-21 22:07:25.278000+00:00,train
600,-1.656278133392334,-1.0,2021-01-21 22:07:55.278000+00:00,train
601,-1.6297433376312256,-1.0,2021-01-21 22:08:25.278000+00:00,train
602,-1.6043654680252075,-1.0,2021-01-21 22:08:55.278000+00:00,train
603,-1.5799956321716309,-1.0,2021-01-21 22:09:25.278000+00:00,train
604,-1.5565218925476074,-1.0,2021-01-21 22:09:55.278000+00:00,train
605,-1.5338561534881592,-1.0,2021-01-21 22:10:25.278000+00:00,train
606,-1.5119227170944214,-1.0,2021-01-21 22:10:55.278000+00:00,train
607,-1.4906601905822754,-1.0,2021-01-21 22:11:25.278000+00:00,train
608,-1.4700173139572144,-1.0,2021-01-21 22:11:55.278000+00:00,train
609,-1.449951171875,-1.0,2021-01-21 22:12:25.278000+00:00,train
610,-1.4304234981536865,-1.0,2021-01-21 22:12:55.278000+00:00,train
611,-1.4114025831222534,-1.0,2021-01-21 22:13:25.278000+00:00,train
612,-1.3928602933883667,-1.0,2021-01-21 22:13:55.278000+00:00,train
613,-1.3747724294662476,-1.0,2021-01-21 22:14:25.278000+00:00,train
614,-1.357118844985962,-1.0,2021-01-21 22:14:55.278000+00:00,train
615,-1.3398792743682861,-1.0,2021-01-21 22:15:25.278000+00:00,train
616,-1.3230371475219727,-1.0,2021-01-21 22:15:55.278000+00:00,train
617,-1.3065768480300903,-1.0,2021-01-21 22:16:25.278000+00:00,train
618,-1.2904857397079468,-1.0,2021-01-21 22:16:55.278000+00:00,train
619,-1.274751901626587,-1.0,2021-01-21 22:17:25.278000+00:00,train
620,-1.2593692541122437,-1.0,2021-01-21 22:17:55.278000+00:00,train
621,-1.2443230152130127,-1.0,2021-01-21 22:18:25.278000+00:00,train
622,-1.2296024560928345,-1.0,2021-01-21 22:18:55.278000+00:00,train
623,-1.2151987552642822,-1.0,2021-01-21 22:19:25.278000+00:00,train
624,-1.2011085748672485,-1.0,2021-01-21 22:19:55.278000+00:00,train
625,-1.1873250007629395,-1.0,2021-01-21 22:20:25.278000+00:00,train
626,-1.1738425493240356,-1.0,2021-01-21 22:20:55.278000+00:00,train
627,-1.1606560945510864,-1.0,2021-01-21 22:21:25.278000+00:00,train
628,-1.1477652788162231,-1.0,2021-01-21 22:21:55.278000+00:00,train
629,-1.1351618766784668,-1.0,2021-01-21 22:22:25.278000+00:00,train
630,-1.1228420734405518,-1.0,2021-01-21 22:22:55.278000+00:00,train
631,-1.1108027696609497,-1.0,2021-01-21 22:23:25.278000+00:00,train
632,-1.0990409851074219,-1.0,2021-01-21 22:23:55.278000+00:00,train
633,-1.087554693222046,-1.0,2021-01-21 22:24:25.278000+00:00,train
634,-1.0763444900512695,-1.0,2021-01-21 22:24:55.278000+00:00,train
635,-1.0654053688049316,-1.0,2021-01-21 22:25:25.278000+00:00,train
636,-1.0547361373901367,-1.0,2021-01-21 22:25:55.278000+00:00,train
637,-1.0443360805511475,-1.0,2021-01-21 22:26:25.278000+00:00,train
638,-1.0342048406600952,-1.0,2021-01-21 22:26:55.278000+00:00,train
639,-1.0243419408798218,-1.0,2021-01-21 22:27:25.278000+00:00,train
640,-1.014747977256775,-1.0,2021-01-21 22:27:55.278000+00:00,train
641,-1.0054216384887695,-1.0,2021-01-21 22:28:25.278000+00:00,train
642,-0.9963634014129639,-1.0,2021-01-21 22:28:55.278000+00:00,train
643,-0.9875746965408325,-1.0,2021-01-21 22:29:25.278000+00:00,train
644,-0.9790560603141785,-1.0,2021-01-21 22:29:55.278000+00:00,train
645,-0.9708095788955688,-1.0,2021-01-21 22:30:25.278000+00:00,train
646,-0.962837815284729,-1.0,2021-01-21 22:30:55.278000+00:00,train
647,-0.9551424384117126,-1.0,2021-01-21 22:31:25.278000+00:00,train
648,-0.947726309299469,-1.0,2021-01-21 22:31:55.278000+00:00,train
649,-0.9405927062034607,-1.0,2021-01-21 22:32:25.278000+00:00,train
650,-0.9337497353553772,-1.0,2021-01-21 22:32:55.278000+00:00,train
651,-0.9271969795227051,-1.0,2021-01-21 22:33:25.278000+00:00,train
652,-0.9209396839141846,-1.0,2021-01-21 22:33:55.278000+00:00,train
653,-0.9149829745292664,-1.0,2021-01-21 22:34:25.278000+00:00,train
654,-0.9093329310417175,-1.0,2021-01-21 22:34:55.278000+00:00,train
655,-0.9039972424507141,-1.0,2021-01-21 22:35:25.278000+00:00,train
656,-0.898984432220459,-1.0,2021-01-21 22:35:55.278000+00:00,train
657,-0.8943060040473938,-1.0,2021-01-21 22:36:25.278000+00:00,train
658,-0.8899703025817871,-1.0,2021-01-21 22:36:55.278000+00:00,train
659,-0.8859914541244507,-1.0,2021-01-21 22:37:25.278000+00:00,train
660,-0.8823856115341187,-1.0,2021-01-21 22:37:55.278000+00:00,train
661,-0.8791714310646057,-1.0,2021-01-21 22:38:25.278000+00:00,train
662,-0.8763713240623474,-1.0,2021-01-21 22:38:55.278000+00:00,train
663,-0.8740124106407166,-1.0,2021-01-21 22:39:25.278000+00:00,train
664,-0.8721253871917725,-1.0,2021-01-21 22:39:55.278000+00:00,train
665,-0.8707479238510132,-1.0,2021-01-21 22:40:25.278000+00:00,train
666,-0.8699256181716919,-1.0,2021-01-21 22:40:55.278000+00:00,train
667,-0.8697106838226318,-1.0,2021-01-21 22:41:25.278000+00:00,train
668,-0.8701650500297546,-1.0,2021-01-21 22:41:55.278000+00:00,train
669,-0.8713107109069824,-1.0,2021-01-21 22:42:25.278000+00:00,train
670,-0.8714726567268372,-1.0,2021-01-21 22:42:55.278000+00:00,train
671,-0.8738036155700684,-1.0,2021-01-21 22:43:25.278000+00:00,train
672,-0.8773584961891174,-1.0,2021-01-21 22:43:55.278000+00:00,train
673,-0.8824974894523621,-1.0,2021-01-21 22:44:25.278000+00:00,train
674,-0.8898451924324036,-1.0,2021-01-21 22:44:55.278000+00:00,train
675,-0.9006596207618713,-1.0,2021-01-21 22:45:25.278000+00:00,train
676,-0.9183381795883179,-1.0,2021-01-21 22:45:55.278000+00:00,train
677,-0.9183533191680908,-1.0,2021-01-21 22:46:25.278000+00:00,train
678,-0.9183741807937622,-1.0,2021-01-21 22:46:55.278000+00:00,train
679,-1.0,-1.0,2021-01-21 22:47:25.278000+00:00,train
680,-1.0,-1.0,2021-01-21 22:47:55.278000+00:00,train
681,-1.0,-1.0,2021-01-21 22:48:25.278000+00:00,train
682,-1.0,-1.0,2021-01-21 22:48:55.278000+00:00,train
683,-1.0,-1.0,2021-01-21 22:49:25.278000+00:00,train
684,-1.0,-1.0,2021-01-21 22:49:55.278000+00:00,train
685,-1.0,-1.0,2021-01-21 22:50:25.278000+00:00,train
686,-1.0,-1.0,2021-01-21 22:50:55.278000+00:00,train
687,-1.0,-1.0,2021-01-21 22:51:25.278000+00:00,train
688,-1.0,-1.0,2021-01-21 22:51:55.278000+00:00,train
689,-1.0,-1.0,2021-01-21 22:52:25.278000+00:00,train
690,-1.0,-1.0,2021-01-21 22:52:55.278000+00:00,train
691,-1.0,-1.0,2021-01-21 22:53:25.278000+00:00,train
692,-1.0,-1.0,2021-01-21 22:53:55.278000+00:00,train
693,-1.0,-1.0,2021-01-21 22:54:25.278000+00:00,train
694,-1.0,-1.0,2021-01-21 22:54:55.278000+00:00,train
695,-1.0,-1.0,2021-01-21 22:55:25.278000+00:00,train
696,-1.0,-1.0,2021-01-21 22:55:55.278000+00:00,train
697,-1.0,-1.0,2021-01-21 22:56:25.278000+00:00,train
698,-1.0,-1.0,2021-01-21 22:56:55.278000+00:00,train
699,-1.0,-1.0,2021-01-21 22:57:25.278000+00:00,train
700,-1.0,-1.0,2021-01-21 22:57:55.278000+00:00,train
701,-1.0,-1.0,2021-01-21 22:58:25.278000+00:00,train
702,-1.0,-1.0,2021-01-21 22:58:55.278000+00:00,train
703,-1.0,-1.0,2021-01-21 22:59:25.278000+00:00,train
704,-1.0,-1.0,2021-01-21 22:59:55.278000+00:00,train
705,-1.0,-1.0,2021-01-21 23:00:25.278000+00:00,train
706,-1.0,0.0,2021-01-21 23:00:55.278000+00:00,train
707,-1.0,-1.0,2021-01-21 23:01:25.278000+00:00,train
708,-1.0,-1.0,2021-01-21 23:01:55.278000+00:00,train
709,-1.0,-1.0,2021-01-21 23:02:25.278000+00:00,train
710,-1.0,-1.0,2021-01-21 23:02:55.278000+00:00,train
711,-1.0,-1.0,2021-01-21 23:03:25.278000+00:00,train
712,-1.0,-1.0,2021-01-21 23:03:55.278000+00:00,train
713,-1.0,-1.0,2021-01-21 23:04:25.278000+00:00,train
714,-1.0,-1.0,2021-01-21 23:04:55.278000+00:00,train
715,-1.0,-1.0,2021-01-21 23:05:25.278000+00:00,train
716,-1.0,-1.0,2021-01-21 23:05:55.278000+00:00,train
717,-1.0,-1.0,2021-01-21 23:06:25.278000+00:00,train
718,-1.0,-1.0,2021-01-21 23:06:55.278000+00:00,train
719,-0.918344259262085,-1.0,2021-01-21 23:07:25.278000+00:00,train
720,-0.9184762835502625,-1.0,2021-01-21 23:07:55.278000+00:00,train
721,-0.918541669845581,-1.0,2021-01-21 23:08:25.278000+00:00,train
722,-0.9185769557952881,-1.0,2021-01-21 23:08:55.278000+00:00,train
723,-0.9185965061187744,-1.0,2021-01-21 23:09:25.278000+00:00,train
724,-0.9186077117919922,-1.0,2021-01-21 23:09:55.278000+00:00,train
725,-0.9186143279075623,-1.0,2021-01-21 23:10:25.278000+00:00,train
726,-0.9186242818832397,-1.0,2021-01-21 23:10:55.278000+00:00,train
727,-0.9186318516731262,-1.0,2021-01-21 23:11:25.278000+00:00,train
728,-0.9186371564865112,-1.0,2021-01-21 23:11:55.278000+00:00,train
729,-0.9186415076255798,-1.0,2021-01-21 23:12:25.278000+00:00,train
730,-0.918644905090332,-1.0,2021-01-21 23:12:55.278000+00:00,train
731,-0.9186473488807678,-1.0,2021-01-21 23:13:25.278000+00:00,train
732,-0.9186490178108215,-1.0,2021-01-21 23:13:55.278000+00:00,train
733,-0.9186499118804932,-1.0,2021-01-21 23:14:25.278000+00:00,train
734,-0.918650209903717,-1.0,2021-01-21 23:14:55.278000+00:00,train
735,-0.9186499714851379,-1.0,2021-01-21 23:15:25.278000+00:00,train
736,-0.9186484217643738,-1.0,2021-01-21 23:15:55.278000+00:00,train
737,-0.9186462163925171,-1.0,2021-01-21 23:16:25.278000+00:00,train
738,-0.9186422824859619,-1.0,2021-01-21 23:16:55.278000+00:00,train
739,-0.9186357259750366,-1.0,2021-01-21 23:17:25.278000+00:00,train
740,-0.9186260104179382,-1.0,2021-01-21 23:17:55.278000+00:00,train
741,-0.9186105132102966,-1.0,2021-01-21 23:18:25.278000+00:00,train
742,-0.918587327003479,-1.0,2021-01-21 23:18:55.278000+00:00,train
743,-0.9185466170310974,-1.0,2021-01-21 23:19:25.278000+00:00,train
744,-0.9184764623641968,-1.0,2021-01-21 23:19:55.278000+00:00,train
745,-0.918333113193512,-1.0,2021-01-21 23:20:25.278000+00:00,train
746,-0.9179801940917969,-1.0,2021-01-21 23:20:55.278000+00:00,train
747,-0.9167897701263428,-1.0,2021-01-21 23:21:25.278000+00:00,train
748,-0.9111620783805847,-1.0,2021-01-21 23:21:55.278000+00:00,train
749,-0.9201077818870544,-1.0,2021-01-21 23:22:25.278000+00:00,train
750,-0.9256526231765747,-1.0,2021-01-21 23:22:55.278000+00:00,train
751,-0.926856517791748,-1.0,2021-01-21 23:23:25.278000+00:00,train
752,-0.9272779822349548,-1.0,2021-01-21 23:23:55.278000+00:00,train
753,-0.9274309277534485,-1.0,2021-01-21 23:24:25.278000+00:00,train
754,-0.9275503754615784,-1.0,2021-01-21 23:24:55.278000+00:00,train
755,-0.9276291728019714,-1.0,2021-01-21 23:25:25.278000+00:00,train
756,-0.9276501536369324,-1.0,2021-01-21 23:25:55.278000+00:00,train
757,-0.9276834726333618,-1.0,2021-01-21 23:26:25.278000+00:00,train
758,-0.9277069568634033,-1.0,2021-01-21 23:26:55.278000+00:00,train
759,-0.9277050495147705,-1.0,2021-01-21 23:27:25.278000+00:00,train
760,-0.9277151226997375,-1.0,2021-01-21 23:27:55.278000+00:00,train
761,-0.9277260303497314,-1.0,2021-01-21 23:28:25.278000+00:00,train
762,-0.9277189373970032,-1.0,2021-01-21 23:28:55.278000+00:00,train
763,-0.927718460559845,-1.0,2021-01-21 23:29:25.278000+00:00,train
764,-0.9277229309082031,-1.0,2021-01-21 23:29:55.278000+00:00,train
765,-0.9277132153511047,-1.0,2021-01-21 23:30:25.278000+00:00,train
766,-0.9277065396308899,-1.0,2021-01-21 23:30:55.278000+00:00,train
767,-0.9277061820030212,-1.0,2021-01-21 23:31:25.278000+00:00,train
768,-0.9276946783065796,-1.0,2021-01-21 23:31:55.278000+00:00,train
769,-0.92768394947052,-1.0,2021-01-21 23:32:25.278000+00:00,train
770,-0.9276789426803589,-1.0,2021-01-21 23:32:55.278000+00:00,train
771,-0.9276654720306396,-1.0,2021-01-21 23:33:25.278000+00:00,train
772,-0.927651584148407,-1.0,2021-01-21 23:33:55.278000+00:00,train
773,-0.9276423454284668,-1.0,2021-01-21 23:34:25.278000+00:00,train
774,-0.9276259541511536,-1.0,2021-01-21 23:34:55.278000+00:00,train
775,-0.9276083111763,-1.0,2021-01-21 23:35:25.278000+00:00,train
776,-0.9275943040847778,-1.0,2021-01-21 23:35:55.278000+00:00,train
777,-0.9275758266448975,-1.0,2021-01-21 23:36:25.278000+00:00,train
778,-0.9275556802749634,-1.0,2021-01-21 23:36:55.278000+00:00,train
779,-0.9275383353233337,-1.0,2021-01-21 23:37:25.278000+00:00,train
780,-0.9275176525115967,-1.0,2021-01-21 23:37:55.278000+00:00,train
781,-0.9274949431419373,-1.0,2021-01-21 23:38:25.278000+00:00,train
782,-0.9274742007255554,-1.0,2021-01-21 23:38:55.278000+00:00,train
783,-0.9274515509605408,-1.0,2021-01-21 23:39:25.278000+00:00,train
784,-0.9274271130561829,-1.0,2021-01-21 23:39:55.278000+00:00,train
785,-0.9274039268493652,-1.0,2021-01-21 23:40:25.278000+00:00,train
786,-0.9273784756660461,-1.0,2021-01-21 23:40:55.278000+00:00,train
787,-0.9273506999015808,-1.0,2021-01-21 23:41:25.278000+00:00,train
788,-0.9273218512535095,-1.0,2021-01-21 23:41:55.278000+00:00,train
789,-0.9272921681404114,-1.0,2021-01-21 23:42:25.278000+00:00,train
790,-0.9272616505622864,-1.0,2021-01-21 23:42:55.278000+00:00,train
791,-0.9272302985191345,-1.0,2021-01-21 23:43:25.278000+00:00,train
792,-0.9271979928016663,-1.0,2021-01-21 23:43:55.278000+00:00,train
793,-0.9271650314331055,-1.0,2021-01-21 23:44:25.278000+00:00,train
794,-0.9271315932273865,-1.0,2021-01-21 23:44:55.278000+00:00,train
795,-0.927098274230957,-1.0,2021-01-21 23:45:25.278000+00:00,train
796,-0.9270653128623962,-1.0,2021-01-21 23:45:55.278000+00:00,train
797,-0.927032470703125,-1.0,2021-01-21 23:46:25.278000+00:00,train
798,-0.9270029664039612,-1.0,2021-01-21 23:46:55.278000+00:00,train
799,-1.0,-1.0,2021-01-21 23:47:25.278000+00:00,train
800,-1.0,-1.0,2021-01-21 23:47:55.278000+00:00,train
801,-1.0,-1.0,2021-01-21 23:48:25.278000+00:00,train
802,-1.0,-1.0,2021-01-21 23:48:55.278000+00:00,train
803,-1.0,-1.0,2021-01-21 23:49:25.278000+00:00,train
804,-1.0,-1.0,2021-01-21 23:49:55.278000+00:00,train
805,-1.0,-1.0,2021-01-21 23:50:25.278000+00:00,train
806,-1.0,-1.0,2021-01-21 23:50:55.278000+00:00,train
807,-1.0,-1.0,2021-01-21 23:51:25.278000+00:00,train
808,-1.0,-1.0,2021-01-21 23:51:55.278000+00:00,train
809,-1.0,-1.0,2021-01-21 23:52:25.278000+00:00,train
810,-1.0,-1.0,2021-01-21 23:52:55.278000+00:00,train
811,-1.0,-1.0,2021-01-21 23:53:25.278000+00:00,train
812,-1.0,-1.0,2021-01-21 23:53:55.278000+00:00,train
813,-1.0,-1.0,2021-01-21 23:54:25.278000+00:00,train
814,-1.0,-1.0,2021-01-21 23:54:55.278000+00:00,train
815,-1.0,-1.0,2021-01-21 23:55:25.278000+00:00,train
816,-1.0,-1.0,2021-01-21 23:55:55.278000+00:00,train
817,-1.0,-1.0,2021-01-21 23:56:25.278000+00:00,train
818,-1.0,-1.0,2021-01-21 23:56:55.278000+00:00,train
819,-1.0,-1.0,2021-01-21 23:57:25.278000+00:00,train
820,-1.0,-1.0,2021-01-21 23:57:55.278000+00:00,train
821,-1.0,-1.0,2021-01-21 23:58:25.278000+00:00,train
822,-1.0,-1.0,2021-01-21 23:58:55.278000+00:00,train
823,-1.0,-1.0,2021-01-21 23:59:25.278000+00:00,train
824,-1.0,-1.0,2021-01-21 23:59:55.278000+00:00,train
825,-1.0,-1.0,2021-01-22 00:00:25.278000+00:00,train
826,-1.0,-1.0,2021-01-22 00:00:55.278000+00:00,train
827,-1.0,-1.0,2021-01-22 00:01:25.278000+00:00,train
828,-1.0,-1.0,2021-01-22 00:01:55.278000+00:00,train
829,-1.0,-1.0,2021-01-22 00:02:25.278000+00:00,train
830,-1.0,-1.0,2021-01-22 00:02:55.278000+00:00,train
831,-1.0,-1.0,2021-01-22 00:03:25.278000+00:00,train
832,-1.0,-1.0,2021-01-22 00:03:55.278000+00:00,train
833,-1.0,-1.0,2021-01-22 00:04:25.278000+00:00,train
834,-1.0,-1.0,2021-01-22 00:04:55.278000+00:00,train
835,-1.0,-1.0,2021-01-22 00:05:25.278000+00:00,train
836,-1.0,-1.0,2021-01-22 00:05:55.278000+00:00,train
837,-1.0,-1.0,2021-01-22 00:06:25.278000+00:00,train
838,-1.0,-1.0,2021-01-22 00:06:55.278000+00:00,train
839,-1.0,-1.0,2021-01-22 00:07:25.278000+00:00,train
840,-1.0,-1.0,2021-01-22 00:07:55.278000+00:00,train
841,-1.0,-1.0,2021-01-22 00:08:25.278000+00:00,train
842,-1.0,-1.0,2021-01-22 00:08:55.278000+00:00,train
843,-1.0,-1.0,2021-01-22 00:09:25.278000+00:00,train
844,-1.0,-1.0,2021-01-22 00:09:55.278000+00:00,train
845,-1.0,-1.0,2021-01-22 00:10:25.278000+00:00,train
846,-1.0,-1.0,2021-01-22 00:10:55.278000+00:00,train
847,-1.0,-1.0,2021-01-22 00:11:25.278000+00:00,train
848,-1.0,-1.0,2021-01-22 00:11:55.278000+00:00,train
849,-1.0,-1.0,2021-01-22 00:12:25.278000+00:00,train
850,-1.0,-1.0,2021-01-22 00:12:55.278000+00:00,train
851,-1.0,-1.0,2021-01-22 00:13:25.278000+00:00,train
852,-1.0,-1.0,2021-01-22 00:13:55.278000+00:00,train
853,-1.0,-1.0,2021-01-22 00:14:25.278000+00:00,train
854,-1.0,-1.0,2021-01-22 00:14:55.278000+00:00,train
855,-1.0,-1.0,2021-01-22 00:15:25.278000+00:00,train
856,-1.0,-1.0,2021-01-22 00:15:55.278000+00:00,train
857,-1.0,-1.0,2021-01-22 00:16:25.278000+00:00,train
858,-1.0,-1.0,2021-01-22 00:16:55.278000+00:00,train
859,-1.0,-1.0,2021-01-22 00:17:25.278000+00:00,train
860,-1.0,-1.0,2021-01-22 00:17:55.278000+00:00,train
861,-1.0,-1.0,2021-01-22 00:18:25.278000+00:00,train
862,-1.0,-1.0,2021-01-22 00:18:55.278000+00:00,train
863,-1.0,-1.0,2021-01-22 00:19:25.278000+00:00,train
864,-1.0,-1.0,2021-01-22 00:19:55.278000+00:00,train
865,-1.0,-1.0,2021-01-22 00:20:25.278000+00:00,train
866,-1.0,-1.0,2021-01-22 00:20:55.278000+00:00,train
867,-1.0,-1.0,2021-01-22 00:21:25.278000+00:00,train
868,-1.0,-1.0,2021-01-22 00:21:55.278000+00:00,train
869,-1.0,-1.0,2021-01-22 00:22:25.278000+00:00,train
870,-1.0,-1.0,2021-01-22 00:22:55.278000+00:00,train
871,-1.0,-1.0,2021-01-22 00:23:25.278000+00:00,train
872,-1.0,-1.0,2021-01-22 00:23:55.278000+00:00,train
873,-1.0,-1.0,2021-01-22 00:24:25.278000+00:00,train
874,-1.0,-1.0,2021-01-22 00:24:55.278000+00:00,train
875,-1.0,-1.0,2021-01-22 00:25:25.278000+00:00,train
876,-1.0,-1.0,2021-01-22 00:25:55.278000+00:00,train
877,-1.0,-1.0,2021-01-22 00:26:25.278000+00:00,train
878,-1.0,-1.0,2021-01-22 00:26:55.278000+00:00,train
879,-1.0,-1.0,2021-01-22 00:27:25.278000+00:00,train
880,-1.0,-1.0,2021-01-22 00:27:55.278000+00:00,train
881,-1.0,-1.0,2021-01-22 00:28:25.278000+00:00,train
882,-1.0,-1.0,2021-01-22 00:28:55.278000+00:00,train
883,-1.0,-1.0,2021-01-22 00:29:25.278000+00:00,train
884,-1.0,-1.0,2021-01-22 00:29:55.278000+00:00,train
885,-1.0,-1.0,2021-01-22 00:30:25.278000+00:00,train
886,-1.0,-1.0,2021-01-22 00:30:55.278000+00:00,train
887,-1.0,-1.0,2021-01-22 00:31:25.278000+00:00,train
888,-1.0,-1.0,2021-01-22 00:31:55.278000+00:00,train
889,-1.0,-1.0,2021-01-22 00:32:25.278000+00:00,train
890,-1.0,-1.0,2021-01-22 00:32:55.278000+00:00,train
891,-1.0,-1.0,2021-01-22 00:33:25.278000+00:00,train
892,-1.0,-1.0,2021-01-22 00:33:55.278000+00:00,train
893,-1.0,-1.0,2021-01-22 00:34:25.278000+00:00,train
894,-1.0,-1.0,2021-01-22 00:34:55.278000+00:00,train
895,-1.0,-1.0,2021-01-22 00:35:25.278000+00:00,train
896,-1.0,-1.0,2021-01-22 00:35:55.278000+00:00,train
897,-1.0,-1.0,2021-01-22 00:36:25.278000+00:00,train
898,-1.0,-1.0,2021-01-22 00:36:55.278000+00:00,train
899,-1.0,-1.0,2021-01-22 00:37:25.278000+00:00,train
900,-1.0,-1.0,2021-01-22 00:37:55.278000+00:00,train
901,-1.0,-1.0,2021-01-22 00:38:25.278000+00:00,train
902,-1.0,-1.0,2021-01-22 00:38:55.278000+00:00,train
903,-1.0,-1.0,2021-01-22 00:39:25.278000+00:00,train
904,-1.0,-1.0,2021-01-22 00:39:55.278000+00:00,train
905,-1.0,-1.0,2021-01-22 00:40:25.278000+00:00,train
906,-1.0,-1.0,2021-01-22 00:40:55.278000+00:00,train
907,-1.0,-1.0,2021-01-22 00:41:25.278000+00:00,train
908,-1.0,-1.0,2021-01-22 00:41:55.278000+00:00,train
909,-1.0,-1.0,2021-01-22 00:42:25.278000+00:00,train
910,-1.0,-1.0,2021-01-22 00:42:55.278000+00:00,train
911,-1.0,-1.0,2021-01-22 00:43:25.278000+00:00,train
912,-1.0,-1.0,2021-01-22 00:43:55.278000+00:00,train
913,-1.0,-1.0,2021-01-22 00:44:25.278000+00:00,train
914,-1.0,-1.0,2021-01-22 00:44:55.278000+00:00,train
915,-1.0,-1.0,2021-01-22 00:45:25.278000+00:00,train
916,-1.0,-1.0,2021-01-22 00:45:55.278000+00:00,train
917,-1.0,-1.0,2021-01-22 00:46:25.278000+00:00,train
918,-1.0,-1.0,2021-01-22 00:46:55.278000+00:00,train
919,-1.0,-1.0,2021-01-22 00:47:25.278000+00:00,train
920,-1.0,-1.0,2021-01-22 00:47:55.278000+00:00,train
921,-1.0,-1.0,2021-01-22 00:48:25.278000+00:00,train
922,-1.0,-1.0,2021-01-22 00:48:55.278000+00:00,train
923,-1.0,-1.0,2021-01-22 00:49:25.278000+00:00,train
924,-1.0,-1.0,2021-01-22 00:49:55.278000+00:00,train
925,-1.0,-1.0,2021-01-22 00:50:25.278000+00:00,train
926,-1.0,-1.0,2021-01-22 00:50:55.278000+00:00,train
927,-1.0,-1.0,2021-01-22 00:51:25.278000+00:00,train
928,-1.0,-1.0,2021-01-22 00:51:55.278000+00:00,train
929,-1.0,-1.0,2021-01-22 00:52:25.278000+00:00,train
930,-1.0,-1.0,2021-01-22 00:52:55.278000+00:00,train
931,-1.0,-1.0,2021-01-22 00:53:25.278000+00:00,train
932,-1.0,-1.0,2021-01-22 00:53:55.278000+00:00,train
933,-1.0,-1.0,2021-01-22 00:54:25.278000+00:00,train
934,-1.0,-1.0,2021-01-22 00:54:55.278000+00:00,train
935,-1.0,-1.0,2021-01-22 00:55:25.278000+00:00,train
936,-1.0,-1.0,2021-01-22 00:55:55.278000+00:00,train
937,-1.0,-1.0,2021-01-22 00:56:25.278000+00:00,train
938,-1.0,-1.0,2021-01-22 00:56:55.278000+00:00,train
939,-1.0,-1.0,2021-01-22 00:57:25.278000+00:00,train
940,-1.0,-1.0,2021-01-22 00:57:55.278000+00:00,train
941,-1.0,-1.0,2021-01-22 00:58:25.278000+00:00,train
942,-1.0,-1.0,2021-01-22 00:58:55.278000+00:00,train
943,-1.0,-1.0,2021-01-22 00:59:25.278000+00:00,train
944,-1.0,-1.0,2021-01-22 00:59:55.278000+00:00,train
945,-1.0,-1.0,2021-01-22 01:00:25.278000+00:00,train
946,-1.0,-1.0,2021-01-22 01:00:55.278000+00:00,train
947,-1.0,-1.0,2021-01-22 01:01:25.278000+00:00,train
948,-1.0,-1.0,2021-01-22 01:01:55.278000+00:00,train
949,-1.0,-1.0,2021-01-22 01:02:25.278000+00:00,train
950,-1.0,-1.0,2021-01-22 01:02:55.278000+00:00,train
951,-1.0,-1.0,2021-01-22 01:03:25.278000+00:00,train
952,-1.0,-1.0,2021-01-22 01:03:55.278000+00:00,train
953,-1.0,-1.0,2021-01-22 01:04:25.278000+00:00,train
954,-1.0,-1.0,2021-01-22 01:04:55.278000+00:00,train
955,-1.0,-1.0,2021-01-22 01:05:25.278000+00:00,train
956,-1.0,-1.0,2021-01-22 01:05:55.278000+00:00,train
957,-1.0,-1.0,2021-01-22 01:06:25.278000+00:00,train
958,-1.0,-1.0,2021-01-22 01:06:55.278000+00:00,train
959,-1.0,-1.0,2021-01-22 01:07:25.278000+00:00,train
960,-1.0,-1.0,2021-01-22 01:07:55.278000+00:00,train
961,-1.0,-1.0,2021-01-22 01:08:25.278000+00:00,train
962,-1.0,-1.0,2021-01-22 01:08:55.278000+00:00,train
963,-1.0,-1.0,2021-01-22 01:09:25.278000+00:00,train
964,-1.0,-1.0,2021-01-22 01:09:55.278000+00:00,train
965,-1.0,-1.0,2021-01-22 01:10:25.278000+00:00,train
966,-1.0,-1.0,2021-01-22 01:10:55.278000+00:00,train
967,-1.0,-1.0,2021-01-22 01:11:25.278000+00:00,train
968,-1.0,-1.0,2021-01-22 01:11:55.278000+00:00,train
969,-1.0,-1.0,2021-01-22 01:12:25.278000+00:00,train
970,-1.0,-1.0,2021-01-22 01:12:55.278000+00:00,train
971,-1.0,-1.0,2021-01-22 01:13:25.278000+00:00,train
972,-1.0,-1.0,2021-01-22 01:13:55.278000+00:00,train
973,-1.0,-1.0,2021-01-22 01:14:25.278000+00:00,train
974,-1.0,-1.0,2021-01-22 01:14:55.278000+00:00,train
975,-1.0,-1.0,2021-01-22 01:15:25.278000+00:00,train
976,-1.0,-1.0,2021-01-22 01:15:55.278000+00:00,train
977,-1.0,-1.0,2021-01-22 01:16:25.278000+00:00,train
978,-1.0,-1.0,2021-01-22 01:16:55.278000+00:00,train
979,-1.0,-1.0,2021-01-22 01:17:25.278000+00:00,train
980,-1.0,-1.0,2021-01-22 01:17:55.278000+00:00,train
981,-1.0,-1.0,2021-01-22 01:18:25.278000+00:00,train
982,-1.0,-1.0,2021-01-22 01:18:55.278000+00:00,train
983,-1.0,-1.0,2021-01-22 01:19:25.278000+00:00,train
984,-1.0,-1.0,2021-01-22 01:19:55.278000+00:00,train
985,-1.0,-1.0,2021-01-22 01:20:25.278000+00:00,train
986,-1.0,-1.0,2021-01-22 01:20:55.278000+00:00,train
987,-1.0,-1.0,2021-01-22 01:21:25.278000+00:00,train
988,-1.0,-1.0,2021-01-22 01:21:55.278000+00:00,train
989,-1.0,-1.0,2021-01-22 01:22:25.278000+00:00,train
990,-1.0,-1.0,2021-01-22 01:22:55.278000+00:00,train
991,-1.0,-1.0,2021-01-22 01:23:25.278000+00:00,train
992,-1.0,-1.0,2021-01-22 01:23:55.278000+00:00,train
993,-1.0,-1.0,2021-01-22 01:24:25.278000+00:00,train
994,-1.0,-1.0,2021-01-22 01:24:55.278000+00:00,train
995,-1.0,-1.0,2021-01-22 01:25:25.278000+00:00,train
996,-1.0,-1.0,2021-01-22 01:25:55.278000+00:00,train
997,-1.0,-1.0,2021-01-22 01:26:25.278000+00:00,train
998,-1.0,-1.0,2021-01-22 01:26:55.278000+00:00,train
999,-1.0,-1.0,2021-01-22 01:27:25.278000+00:00,train
1000,-1.0,-1.0,2021-01-22 01:27:55.278000+00:00,train
1001,-1.0,-1.0,2021-01-22 01:28:25.278000+00:00,train
1002,-1.0,-1.0,2021-01-22 01:28:55.278000+00:00,train
1003,-1.0,-1.0,2021-01-22 01:29:25.278000+00:00,train
1004,-1.0,-1.0,2021-01-22 01:29:55.278000+00:00,train
1005,-1.0,-1.0,2021-01-22 01:30:25.278000+00:00,train
1006,-1.0,-1.0,2021-01-22 01:30:55.278000+00:00,train
1007,-1.0,-1.0,2021-01-22 01:31:25.278000+00:00,train
1008,-1.0,-1.0,2021-01-22 01:31:55.278000+00:00,train
1009,-1.0,-1.0,2021-01-22 01:32:25.278000+00:00,train
1010,-1.0,0.0,2021-01-22 01:32:55.278000+00:00,train
1011,-1.0,0.0,2021-01-22 01:33:25.278000+00:00,train
1012,-1.0,0.0,2021-01-22 01:33:55.278000+00:00,train
1013,-1.0,0.0,2021-01-22 01:34:25.278000+00:00,train
1014,-1.0,0.0,2021-01-22 01:34:55.278000+00:00,train
1015,-1.0,0.0,2021-01-22 01:35:25.278000+00:00,train
1016,-1.0,0.0,2021-01-22 01:35:55.278000+00:00,train
1017,-1.0,0.0,2021-01-22 01:36:25.278000+00:00,train
1018,-1.0,0.0,2021-01-22 01:36:55.278000+00:00,train
1019,-1.0,0.0,2021-01-22 01:37:25.278000+00:00,train
1020,-1.0,-1.0,2021-01-22 01:37:55.278000+00:00,train
1021,-1.0,0.0,2021-01-22 01:38:25.278000+00:00,train
1022,-1.0,0.0,2021-01-22 01:38:55.278000+00:00,train
1023,-0.8059480786323547,0.0,2021-01-22 01:39:25.278000+00:00,train
1024,-0.7198768854141235,0.0,2021-01-22 01:39:55.278000+00:00,train
1025,-0.6520482897758484,0.0,2021-01-22 01:40:25.278000+00:00,train
1026,-0.593856155872345,0.0,2021-01-22 01:40:55.278000+00:00,train
1027,-0.5419467687606812,0.0,2021-01-22 01:41:25.278000+00:00,train
1028,-0.4945908188819885,0.0,2021-01-22 01:41:55.278000+00:00,train
1029,-0.45075589418411255,0.0,2021-01-22 01:42:25.278000+00:00,train
1030,-0.40976637601852417,0.0,2021-01-22 01:42:55.278000+00:00,train
1031,-0.3711511194705963,0.0,2021-01-22 01:43:25.278000+00:00,train
1032,-0.33456581830978394,0.0,2021-01-22 01:43:55.278000+00:00,train
1033,-0.3345645070075989,0.0,2021-01-22 01:44:25.278000+00:00,train
1034,-0.2997484803199768,0.0,2021-01-22 01:44:55.278000+00:00,train
1035,-0.26649874448776245,0.0,2021-01-22 01:45:25.278000+00:00,train
1036,-0.2346535176038742,0.0,2021-01-22 01:45:55.278000+00:00,train
1037,-0.2040814310312271,0.0,2021-01-22 01:46:25.278000+00:00,train
1038,-0.1746743619441986,0.0,2021-01-22 01:46:55.278000+00:00,train
1039,-0.14634166657924652,0.0,2021-01-22 01:47:25.278000+00:00,train
1040,-0.11900720000267029,0.0,2021-01-22 01:47:55.278000+00:00,train
1041,-0.09260592609643936,0.0,2021-01-22 01:48:25.278000+00:00,train
1042,-0.06708181649446487,0.0,2021-01-22 01:48:55.278000+00:00,train
1043,-0.042386412620544434,0.0,2021-01-22 01:49:25.278000+00:00,train
1044,-0.018477264791727066,0.0,2021-01-22 01:49:55.278000+00:00,train
1045,0.00468199560418725,0.0,2021-01-22 01:50:25.278000+00:00,train
1046,0.027124254032969475,0.0,2021-01-22 01:50:55.278000+00:00,train
1047,0.048877619206905365,0.0,2021-01-22 01:51:25.278000+00:00,train
1048,0.06996747851371765,0.0,2021-01-22 01:51:55.278000+00:00,train
1049,0.09041689336299896,0.0,2021-01-22 01:52:25.278000+00:00,train
1050,0.11024471372365952,0.0,2021-01-22 01:52:55.278000+00:00,train
1051,0.1294688582420349,0.0,2021-01-22 01:53:25.278000+00:00,train
1052,0.148104727268219,0.0,2021-01-22 01:53:55.278000+00:00,train
1053,0.16616582870483398,0.0,2021-01-22 01:54:25.278000+00:00,train
1054,0.1836642473936081,0.0,2021-01-22 01:54:55.278000+00:00,train
1055,0.2006107121706009,0.0,2021-01-22 01:55:25.278000+00:00,train
1056,0.21701431274414062,0.0,2021-01-22 01:55:55.278000+00:00,train
1057,0.2328825145959854,0.0,2021-01-22 01:56:25.278000+00:00,train
1058,0.2482224851846695,0.0,2021-01-22 01:56:55.278000+00:00,train
1059,0.26303961873054504,0.0,2021-01-22 01:57:25.278000+00:00,train
1060,0.27733784914016724,0.0,2021-01-22 01:57:55.278000+00:00,train
1061,0.29112154245376587,0.0,2021-01-22 01:58:25.278000+00:00,train
1062,0.3043922483921051,0.0,2021-01-22 01:58:55.278000+00:00,train
1063,0.3171517848968506,0.0,2021-01-22 01:59:25.278000+00:00,train
1064,0.32940059900283813,0.0,2021-01-22 01:59:55.278000+00:00,train
1065,0.34113818407058716,0.0,2021-01-22 02:00:25.278000+00:00,train
1066,-0.21760666370391846,0.0,2021-01-22 02:00:55.278000+00:00,train
1067,-0.2056417167186737,0.0,2021-01-22 02:01:25.278000+00:00,train
1068,-0.19383245706558228,0.0,2021-01-22 02:01:55.278000+00:00,train
1069,-0.18218041956424713,0.0,2021-01-22 02:02:25.278000+00:00,train
1070,-0.17068730294704437,0.0,2021-01-22 02:02:55.278000+00:00,train
1071,-0.15935496985912323,0.0,2021-01-22 02:03:25.278000+00:00,train
1072,-0.1481863111257553,0.0,2021-01-22 02:03:55.278000+00:00,train
1073,-0.13718363642692566,0.0,2021-01-22 02:04:25.278000+00:00,train
1074,-0.12635011970996857,0.0,2021-01-22 02:04:55.278000+00:00,train
1075,-0.1156894788146019,0.0,2021-01-22 02:05:25.278000+00:00,train
1076,-0.10520582646131516,0.0,2021-01-22 02:05:55.278000+00:00,train
1077,-0.09490377455949783,0.0,2021-01-22 02:06:25.278000+00:00,train
1078,-0.08478885889053345,0.0,2021-01-22 02:06:55.278000+00:00,train
1079,-0.07486695051193237,0.0,2021-01-22 02:07:25.278000+00:00,train
1080,-0.06514454632997513,0.0,2021-01-22 02:07:55.278000+00:00,train
1081,-0.05562950670719147,0.0,2021-01-22 02:08:25.278000+00:00,train
1082,-0.04633015766739845,0.0,2021-01-22 02:08:55.278000+00:00,train
1083,-0.037256523966789246,0.0,2021-01-22 02:09:25.278000+00:00,train
1084,-0.028419580310583115,0.0,2021-01-22 02:09:55.278000+00:00,train
1085,-0.019831998273730278,0.0,2021-01-22 02:10:25.278000+00:00,train
1086,-0.011508278548717499,0.0,2021-01-22 02:10:55.278000+00:00,train
1087,-0.0034648894798010588,0.0,2021-01-22 02:11:25.278000+00:00,train
1088,0.004279129207134247,0.0,2021-01-22 02:11:55.278000+00:00,train
1089,0.01169629953801632,0.0,2021-01-22 02:12:25.278000+00:00,train
1090,0.018763747066259384,0.0,2021-01-22 02:12:55.278000+00:00,train
1091,0.025448137894272804,0.0,2021-01-22 02:13:25.278000+00:00,train
1092,0.03170987591147423,0.0,2021-01-22 02:13:55.278000+00:00,train
1093,0.03750069439411163,0.0,2021-01-22 02:14:25.278000+00:00,train
1094,0.04275931790471077,0.0,2021-01-22 02:14:55.278000+00:00,train
1095,0.047407664358615875,0.0,2021-01-22 02:15:25.278000+00:00,train
1096,0.05134231597185135,0.0,2021-01-22 02:15:55.278000+00:00,train
1097,0.054422032088041306,0.0,2021-01-22 02:16:25.278000+00:00,train
1098,0.056444503366947174,0.0,2021-01-22 02:16:55.278000+00:00,train
1099,0.05710243061184883,0.0,2021-01-22 02:17:25.278000+00:00,train
1100,0.055885910987854004,0.0,2021-01-22 02:17:55.278000+00:00,train
1101,0.0518355555832386,0.0,2021-01-22 02:18:25.278000+00:00,train
1102,0.04235157370567322,0.0,2021-01-22 02:18:55.278000+00:00,train
1103,0.042358797043561935,0.0,2021-01-22 02:19:25.278000+00:00,train
1104,0.042366016656160355,0.0,2021-01-22 02:19:55.278000+00:00,train
1105,0.04237328842282295,0.0,2021-01-22 02:20:25.278000+00:00,train
1106,0.04238063097000122,0.0,2021-01-22 02:20:55.278000+00:00,train
1107,0.04238805174827576,0.0,2021-01-22 02:21:25.278000+00:00,train
1108,0.0423956923186779,0.0,2021-01-22 02:21:55.278000+00:00,train
1109,0.0424036979675293,0.0,2021-01-22 02:22:25.278000+00:00,train
1110,0.0424126572906971,0.0,2021-01-22 02:22:55.278000+00:00,train
1111,0.04242342710494995,0.0,2021-01-22 02:23:25.278000+00:00,train
1112,0.04243616387248039,0.0,2021-01-22 02:23:55.278000+00:00,train
1113,0.0,0.0,2021-01-22 02:24:25.278000+00:00,train
1114,0.0,0.0,2021-01-22 02:24:55.278000+00:00,train
1115,0.0,0.0,2021-01-22 02:25:25.278000+00:00,train
1116,0.0,0.0,2021-01-22 02:25:55.278000+00:00,val
1117,0.0,0.0,2021-01-22 02:26:25.278000+00:00,val
1118,0.0,0.0,2021-01-22 02:26:55.278000+00:00,val
1119,0.0,0.0,2021-01-22 02:27:25.278000+00:00,val
1120,0.0,0.0,2021-01-22 02:27:55.278000+00:00,val
1121,0.0,0.0,2021-01-22 02:28:25.278000+00:00,val
1122,0.0,0.0,2021-01-22 02:28:55.278000+00:00,val
1123,0.0,0.0,2021-01-22 02:29:25.278000+00:00,val
1124,0.0,0.0,2021-01-22 02:29:55.278000+00:00,val
1125,0.0,0.0,2021-01-22 02:30:25.278000+00:00,val
1126,0.0,0.0,2021-01-22 02:30:55.278000+00:00,val
1127,0.0,0.0,2021-01-22 02:31:25.278000+00:00,val
1128,0.0,0.0,2021-01-22 02:31:55.278000+00:00,val
1129,0.0,0.0,2021-01-22 02:32:25.278000+00:00,val
1130,0.0,0.0,2021-01-22 02:32:55.278000+00:00,val
1131,0.0,0.0,2021-01-22 02:33:25.278000+00:00,val
1132,0.0,0.0,2021-01-22 02:33:55.278000+00:00,val
1133,0.0,0.0,2021-01-22 02:34:25.278000+00:00,val
1134,0.0,0.0,2021-01-22 02:34:55.278000+00:00,val
1135,0.0,0.0,2021-01-22 02:35:25.278000+00:00,val
1136,0.0,0.0,2021-01-22 02:35:55.278000+00:00,val
1137,0.0,0.0,2021-01-22 02:36:25.278000+00:00,val
1138,0.0,0.0,2021-01-22 02:36:55.278000+00:00,val
1139,0.0,0.0,2021-01-22 02:37:25.278000+00:00,val
1140,0.0,0.0,2021-01-22 02:37:55.278000+00:00,val
1141,0.0,0.0,2021-01-22 02:38:25.278000+00:00,val
1142,0.0,0.0,2021-01-22 02:38:55.278000+00:00,val
1143,0.0,0.0,2021-01-22 02:39:25.278000+00:00,val
1144,0.0,0.0,2021-01-22 02:39:55.278000+00:00,val
1145,0.0,0.0,2021-01-22 02:40:25.278000+00:00,val
1146,0.0,0.0,2021-01-22 02:40:55.278000+00:00,val
1147,0.0,0.0,2021-01-22 02:41:25.278000+00:00,val
1148,0.0,0.0,2021-01-22 02:41:55.278000+00:00,val
1149,0.0,0.0,2021-01-22 02:42:25.278000+00:00,val
1150,0.0,0.0,2021-01-22 02:42:55.278000+00:00,val
1151,0.0,0.0,2021-01-22 02:43:25.278000+00:00,val
1152,0.0,0.0,2021-01-22 02:43:55.278000+00:00,val
1153,0.0,0.0,2021-01-22 02:44:25.278000+00:00,val
1154,0.0,0.0,2021-01-22 02:44:55.278000+00:00,val
1155,0.0,0.0,2021-01-22 02:45:25.278000+00:00,val
1156,0.0,0.0,2021-01-22 02:45:55.278000+00:00,val
1157,0.0,0.0,2021-01-22 02:46:25.278000+00:00,val
1158,0.0,0.0,2021-01-22 02:46:55.278000+00:00,val
1159,0.0,0.0,2021-01-22 02:47:25.278000+00:00,val
1160,0.0,0.0,2021-01-22 02:47:55.278000+00:00,val
1161,0.0,0.0,2021-01-22 02:48:25.278000+00:00,val
1162,0.0,0.0,2021-01-22 02:48:55.278000+00:00,val
1163,0.0,0.0,2021-01-22 02:49:25.278000+00:00,val
1164,0.0,0.0,2021-01-22 02:49:55.278000+00:00,val
1165,0.0,0.0,2021-01-22 02:50:25.278000+00:00,val
1166,0.0,0.0,2021-01-22 02:50:55.278000+00:00,val
1167,0.0,0.0,2021-01-22 02:51:25.278000+00:00,val
1168,0.0,0.0,2021-01-22 02:51:55.278000+00:00,val
1169,0.0,0.0,2021-01-22 02:52:25.278000+00:00,val
1170,0.0,0.0,2021-01-22 02:52:55.278000+00:00,val
1171,0.0,0.0,2021-01-22 02:53:25.278000+00:00,val
1172,0.0,0.0,2021-01-22 02:53:55.278000+00:00,val
1173,0.0,0.0,2021-01-22 02:54:25.278000+00:00,val
1174,0.0,0.0,2021-01-22 02:54:55.278000+00:00,val
1175,0.0,0.0,2021-01-22 02:55:25.278000+00:00,val
1176,0.0,0.0,2021-01-22 02:55:55.278000+00:00,val
1177,0.0,0.0,2021-01-22 02:56:25.278000+00:00,val
1178,0.0,0.0,2021-01-22 02:56:55.278000+00:00,val
1179,0.0,0.0,2021-01-22 02:57:25.278000+00:00,val
1180,0.0,0.0,2021-01-22 02:57:55.278000+00:00,val
1181,0.0,0.0,2021-01-22 02:58:25.278000+00:00,val
1182,0.0,0.0,2021-01-22 02:58:55.278000+00:00,val
1183,0.0,0.0,2021-01-22 02:59:25.278000+00:00,val
1184,0.0,0.0,2021-01-22 02:59:55.278000+00:00,val
1185,0.0,0.0,2021-01-22 03:00:25.278000+00:00,val
1186,0.0,0.0,2021-01-22 03:00:55.278000+00:00,val
1187,0.0,0.0,2021-01-22 03:01:25.278000+00:00,val
1188,0.0,0.0,2021-01-22 03:01:55.278000+00:00,val
1189,0.0,0.0,2021-01-22 03:02:25.278000+00:00,val
1190,0.0,0.0,2021-01-22 03:02:55.278000+00:00,val
1191,0.0,0.0,2021-01-22 03:03:25.278000+00:00,val
1192,0.0,0.0,2021-01-22 03:03:55.278000+00:00,val
1193,0.0,0.0,2021-01-22 03:04:25.278000+00:00,val
1194,0.0,0.0,2021-01-22 03:04:55.278000+00:00,val
1195,0.0,0.0,2021-01-22 03:05:25.278000+00:00,val
1196,0.0,0.0,2021-01-22 03:05:55.278000+00:00,val
1197,0.0,0.0,2021-01-22 03:06:25.278000+00:00,val
1198,0.0,0.0,2021-01-22 03:06:55.278000+00:00,val
1199,0.0,0.0,2021-01-22 03:07:25.278000+00:00,val
1200,0.0,0.0,2021-01-22 03:07:55.278000+00:00,val
1201,0.0,0.0,2021-01-22 03:08:25.278000+00:00,val
1202,0.0,0.0,2021-01-22 03:08:55.278000+00:00,val
1203,0.0,0.0,2021-01-22 03:09:25.278000+00:00,val
1204,0.0,0.0,2021-01-22 03:09:55.278000+00:00,val
1205,0.0,0.0,2021-01-22 03:10:25.278000+00:00,val
1206,0.0,0.0,2021-01-22 03:10:55.278000+00:00,val
1207,0.0,0.0,2021-01-22 03:11:25.278000+00:00,val
1208,0.0,0.0,2021-01-22 03:11:55.278000+00:00,val
1209,0.0,0.0,2021-01-22 03:12:25.278000+00:00,val
1210,0.0,0.0,2021-01-22 03:12:55.278000+00:00,val
1211,0.0,0.0,2021-01-22 03:13:25.278000+00:00,val
1212,0.0,0.0,2021-01-22 03:13:55.278000+00:00,val
1213,0.0,0.0,2021-01-22 03:14:25.278000+00:00,val
1214,0.0,0.0,2021-01-22 03:14:55.278000+00:00,val
1215,0.0,0.0,2021-01-22 03:15:25.278000+00:00,val
1216,0.0,0.0,2021-01-22 03:15:55.278000+00:00,val
1217,0.0,0.0,2021-01-22 03:16:25.278000+00:00,val
1218,0.0,0.0,2021-01-22 03:16:55.278000+00:00,val
1219,0.0,0.0,2021-01-22 03:17:25.278000+00:00,val
1220,0.0,0.0,2021-01-22 03:17:55.278000+00:00,val
1221,0.0,0.0,2021-01-22 03:18:25.278000+00:00,val
1222,0.0,0.0,2021-01-22 03:18:55.278000+00:00,val
1223,0.0,0.0,2021-01-22 03:19:25.278000+00:00,val
1224,0.0,0.0,2021-01-22 03:19:55.278000+00:00,val
1225,0.0,0.0,2021-01-22 03:20:25.278000+00:00,val
1226,0.0,0.0,2021-01-22 03:20:55.278000+00:00,val
1227,0.0,0.0,2021-01-22 03:21:25.278000+00:00,val
1228,0.0,0.0,2021-01-22 03:21:55.278000+00:00,val
1229,0.0,0.0,2021-01-22 03:22:25.278000+00:00,val
1230,0.0,0.0,2021-01-22 03:22:55.278000+00:00,val
1231,0.0,0.0,2021-01-22 03:23:25.278000+00:00,val
1232,0.0,0.0,2021-01-22 03:23:55.278000+00:00,val
1233,0.0,0.0,2021-01-22 03:24:25.278000+00:00,val
1234,0.0,0.0,2021-01-22 03:24:55.278000+00:00,val
1235,0.0,0.0,2021-01-22 03:25:25.278000+00:00,val
1236,0.0,0.0,2021-01-22 03:25:55.278000+00:00,val
1237,0.0,0.0,2021-01-22 03:26:25.278000+00:00,val
1238,0.0,0.0,2021-01-22 03:26:55.278000+00:00,val
1239,0.0,0.0,2021-01-22 03:27:25.278000+00:00,val
1240,0.0,0.0,2021-01-22 03:27:55.278000+00:00,val
1241,0.0,0.0,2021-01-22 03:28:25.278000+00:00,val
1242,0.0,0.0,2021-01-22 03:28:55.278000+00:00,val
1243,0.0,0.0,2021-01-22 03:29:25.278000+00:00,val
1244,0.0,0.0,2021-01-22 03:29:55.278000+00:00,val
1245,0.0,0.0,2021-01-22 03:30:25.278000+00:00,val
1246,0.0,0.0,2021-01-22 03:30:55.278000+00:00,val
1247,0.0,0.0,2021-01-22 03:31:25.278000+00:00,val
1248,0.0,0.0,2021-01-22 03:31:55.278000+00:00,val
1249,0.0,0.0,2021-01-22 03:32:25.278000+00:00,val
1250,0.0,0.0,2021-01-22 03:32:55.278000+00:00,val
1251,0.0,0.0,2021-01-22 03:33:25.278000+00:00,val
1252,0.0,0.0,2021-01-22 03:33:55.278000+00:00,val
1253,0.0,0.0,2021-01-22 03:34:25.278000+00:00,val
1254,0.0,0.0,2021-01-22 03:34:55.278000+00:00,val
1255,0.0,0.0,2021-01-22 03:35:25.278000+00:00,val
1256,0.0,0.0,2021-01-22 03:35:55.278000+00:00,val
1257,0.0,0.0,2021-01-22 03:36:25.278000+00:00,val
1258,0.0,0.0,2021-01-22 03:36:55.278000+00:00,val
1259,0.0,0.0,2021-01-22 03:37:25.278000+00:00,val
1260,0.0,0.0,2021-01-22 03:37:55.278000+00:00,val
1261,0.0,0.0,2021-01-22 03:38:25.278000+00:00,val
1262,0.0,0.0,2021-01-22 03:38:55.278000+00:00,val
1263,0.0,0.0,2021-01-22 03:39:25.278000+00:00,val
1264,0.0,0.0,2021-01-22 03:39:55.278000+00:00,val
1265,0.0,0.0,2021-01-22 03:40:25.278000+00:00,val
1266,0.0,0.0,2021-01-22 03:40:55.278000+00:00,val
1267,0.0,0.0,2021-01-22 03:41:25.278000+00:00,val
1268,0.0,0.0,2021-01-22 03:41:55.278000+00:00,val
1269,0.0,0.0,2021-01-22 03:42:25.278000+00:00,val
1270,0.0,0.0,2021-01-22 03:42:55.278000+00:00,val
1271,0.0,0.0,2021-01-22 03:43:25.278000+00:00,val
1272,0.0,0.0,2021-01-22 03:43:55.278000+00:00,val
1273,0.0,0.0,2021-01-22 03:44:25.278000+00:00,val
1274,0.0,0.0,2021-01-22 03:44:55.278000+00:00,val
1275,0.0,0.0,2021-01-22 03:45:25.278000+00:00,val
1276,0.0,0.0,2021-01-22 03:45:55.278000+00:00,val
1277,0.0,0.0,2021-01-22 03:46:25.278000+00:00,val
1278,0.0,0.0,2021-01-22 03:46:55.278000+00:00,val
1279,0.0,0.0,2021-01-22 03:47:25.278000+00:00,val
1280,0.0,0.0,2021-01-22 03:47:55.278000+00:00,val
1281,0.0,0.0,2021-01-22 03:48:25.278000+00:00,val
1282,0.0,0.0,2021-01-22 03:48:55.278000+00:00,val
1283,0.0,0.0,2021-01-22 03:49:25.278000+00:00,val
1284,0.0,0.0,2021-01-22 03:49:55.278000+00:00,val
1285,0.0,0.0,2021-01-22 03:50:25.278000+00:00,val
1286,0.0,0.0,2021-01-22 03:50:55.278000+00:00,val
1287,0.0,0.0,2021-01-22 03:51:25.278000+00:00,val
1288,0.0,0.0,2021-01-22 03:51:55.278000+00:00,val
1289,0.0,0.0,2021-01-22 03:52:25.278000+00:00,val
1290,0.0,0.0,2021-01-22 03:52:55.278000+00:00,val
1291,0.0,0.0,2021-01-22 03:53:25.278000+00:00,val
1292,0.0,0.0,2021-01-22 03:53:55.278000+00:00,val
1293,0.0,0.0,2021-01-22 03:54:25.278000+00:00,val
1294,0.0,0.0,2021-01-22 03:54:55.278000+00:00,val
1295,0.0,0.0,2021-01-22 03:55:25.278000+00:00,val
1296,0.0,0.0,2021-01-22 03:55:55.278000+00:00,val
1297,0.0,0.0,2021-01-22 03:56:25.278000+00:00,val
1298,0.0,0.0,2021-01-22 03:56:55.278000+00:00,val
1299,0.0,0.0,2021-01-22 03:57:25.278000+00:00,val
1300,0.0,0.0,2021-01-22 03:57:55.278000+00:00,val
1301,0.0,0.0,2021-01-22 03:58:25.278000+00:00,val
1302,0.0,0.0,2021-01-22 03:58:55.278000+00:00,val
1303,0.0,0.0,2021-01-22 03:59:25.278000+00:00,val
1304,0.0,0.0,2021-01-22 03:59:55.278000+00:00,val
1305,0.0,0.0,2021-01-22 04:00:25.278000+00:00,val
1306,0.0,0.0,2021-01-22 04:00:55.278000+00:00,val
1307,0.0,0.0,2021-01-22 04:01:25.278000+00:00,val
1308,0.0,0.0,2021-01-22 04:01:55.278000+00:00,val
1309,0.0,0.0,2021-01-22 04:02:25.278000+00:00,val
1310,0.0,0.0,2021-01-22 04:02:55.278000+00:00,val
1311,0.0,0.0,2021-01-22 04:03:25.278000+00:00,val
1312,0.0,0.0,2021-01-22 04:03:55.278000+00:00,val
1313,0.0,0.0,2021-01-22 04:04:25.278000+00:00,val
1314,0.0,0.0,2021-01-22 04:04:55.278000+00:00,val
1315,0.0,0.0,2021-01-22 04:05:25.278000+00:00,val
1316,0.0,0.0,2021-01-22 04:05:55.278000+00:00,val
1317,0.0,0.0,2021-01-22 04:06:25.278000+00:00,val
1318,0.0,0.0,2021-01-22 04:06:55.278000+00:00,val
1319,0.0,0.0,2021-01-22 04:07:25.278000+00:00,val
1320,0.0,0.0,2021-01-22 04:07:55.278000+00:00,val
1321,0.0,0.0,2021-01-22 04:08:25.278000+00:00,val
1322,0.0,0.0,2021-01-22 04:08:55.278000+00:00,val
1323,0.0,0.0,2021-01-22 04:09:25.278000+00:00,val
1324,0.0,0.0,2021-01-22 04:09:55.278000+00:00,val
1325,0.0,0.0,2021-01-22 04:10:25.278000+00:00,val
1326,0.0,0.0,2021-01-22 04:10:55.278000+00:00,val
1327,0.0,0.0,2021-01-22 04:11:25.278000+00:00,val
1328,0.0,0.0,2021-01-22 04:11:55.278000+00:00,val
1329,0.0,0.0,2021-01-22 04:12:25.278000+00:00,val
1330,0.0,0.0,2021-01-22 04:12:55.278000+00:00,val
1331,0.0,0.0,2021-01-22 04:13:25.278000+00:00,val
1332,0.0,0.0,2021-01-22 04:13:55.278000+00:00,val
1333,0.0,0.0,2021-01-22 04:14:25.278000+00:00,val
1334,0.0,0.0,2021-01-22 04:14:55.278000+00:00,val
1335,0.0,0.0,2021-01-22 04:15:25.278000+00:00,val
1336,0.0,0.0,2021-01-22 04:15:55.278000+00:00,val
1337,0.0,0.0,2021-01-22 04:16:25.278000+00:00,val
1338,0.0,0.0,2021-01-22 04:16:55.278000+00:00,val
1339,0.0,0.0,2021-01-22 04:17:25.278000+00:00,val
1340,0.0,0.0,2021-01-22 04:17:55.278000+00:00,val
1341,0.0,0.0,2021-01-22 04:18:25.278000+00:00,val
1342,0.0,0.0,2021-01-22 04:18:55.278000+00:00,val
1343,0.0,0.0,2021-01-22 04:19:25.278000+00:00,val
1344,0.0,0.0,2021-01-22 04:19:55.278000+00:00,val
1345,0.0,0.0,2021-01-22 04:20:25.278000+00:00,val
1346,0.0,0.0,2021-01-22 04:20:55.278000+00:00,val
1347,0.0,0.0,2021-01-22 04:21:25.278000+00:00,val
1348,0.0,0.0,2021-01-22 04:21:55.278000+00:00,val
1349,0.0,0.0,2021-01-22 04:22:25.278000+00:00,val
1350,0.0,0.0,2021-01-22 04:22:55.278000+00:00,val
1351,0.0,0.0,2021-01-22 04:23:25.278000+00:00,val
1352,0.0,0.0,2021-01-22 04:23:55.278000+00:00,val
1353,0.0,0.0,2021-01-22 04:24:25.278000+00:00,val
1354,0.0,0.0,2021-01-22 04:24:55.278000+00:00,val
1355,0.0,0.0,2021-01-22 04:25:25.278000+00:00,val
1356,0.0,0.0,2021-01-22 04:25:55.278000+00:00,val
1357,0.0,0.0,2021-01-22 04:26:25.278000+00:00,val
1358,0.0,0.0,2021-01-22 04:26:55.278000+00:00,val
1359,0.0,0.0,2021-01-22 04:27:25.278000+00:00,val
1360,0.0,0.0,2021-01-22 04:27:55.278000+00:00,val
1361,0.0,0.0,2021-01-22 04:28:25.278000+00:00,val
1362,0.0,0.0,2021-01-22 04:28:55.278000+00:00,val
1363,0.0,0.0,2021-01-22 04:29:25.278000+00:00,val
1364,0.0,0.0,2021-01-22 04:29:55.278000+00:00,val
1365,0.0,0.0,2021-01-22 04:30:25.278000+00:00,val
1366,0.0,0.0,2021-01-22 04:30:55.278000+00:00,val
1367,0.0,0.0,2021-01-22 04:31:25.278000+00:00,val
1368,0.0,0.0,2021-01-22 04:31:55.278000+00:00,val
1369,0.0,0.0,2021-01-22 04:32:25.278000+00:00,val
1370,0.0,0.0,2021-01-22 04:32:55.278000+00:00,val
1371,0.0,0.0,2021-01-22 04:33:25.278000+00:00,val
1372,0.0,0.0,2021-01-22 04:33:55.278000+00:00,val
1373,0.0,0.0,2021-01-22 04:34:25.278000+00:00,val
1374,0.0,0.0,2021-01-22 04:34:55.278000+00:00,val
1375,0.0,0.0,2021-01-22 04:35:25.278000+00:00,val
1376,0.0,0.0,2021-01-22 04:35:55.278000+00:00,val
1377,0.0,0.0,2021-01-22 04:36:25.278000+00:00,val
1378,0.0,0.0,2021-01-22 04:36:55.278000+00:00,val
1379,0.0,0.0,2021-01-22 04:37:25.278000+00:00,val
1380,0.0,0.0,2021-01-22 04:37:55.278000+00:00,val
1381,0.0,0.0,2021-01-22 04:38:25.278000+00:00,val
1382,0.0,0.0,2021-01-22 04:38:55.278000+00:00,val
1383,0.0,0.0,2021-01-22 04:39:25.278000+00:00,val
1384,0.0,0.0,2021-01-22 04:39:55.278000+00:00,val
1385,0.0,0.0,2021-01-22 04:40:25.278000+00:00,val
1386,0.0,0.0,2021-01-22 04:40:55.278000+00:00,val
1387,0.0,0.0,2021-01-22 04:41:25.278000+00:00,val
1388,0.0,0.0,2021-01-22 04:41:55.278000+00:00,val
1389,0.0,0.0,2021-01-22 04:42:25.278000+00:00,val
1390,0.0,0.0,2021-01-22 04:42:55.278000+00:00,val
1391,0.0,0.0,2021-01-22 04:43:25.278000+00:00,val
1392,0.0,0.0,2021-01-22 04:43:55.278000+00:00,val
1393,0.0,0.0,2021-01-22 04:44:25.278000+00:00,val
1394,0.0,0.0,2021-01-22 04:44:55.278000+00:00,val
1395,0.0,0.0,2021-01-22 04:45:25.278000+00:00,val
1396,0.0,0.0,2021-01-22 04:45:55.278000+00:00,val
1397,0.0,0.0,2021-01-22 04:46:25.278000+00:00,val
1398,0.0,0.0,2021-01-22 04:46:55.278000+00:00,val
1399,0.0,0.0,2021-01-22 04:47:25.278000+00:00,val
1400,0.0,0.0,2021-01-22 04:47:55.278000+00:00,val
1401,0.0,0.0,2021-01-22 04:48:25.278000+00:00,val
1402,0.0,0.0,2021-01-22 04:48:55.278000+00:00,val
1403,0.0,0.0,2021-01-22 04:49:25.278000+00:00,val
1404,0.0,0.0,2021-01-22 04:49:55.278000+00:00,val
1405,0.0,0.0,2021-01-22 04:50:25.278000+00:00,val
1406,0.0,0.0,2021-01-22 04:50:55.278000+00:00,val
1407,0.0,0.0,2021-01-22 04:51:25.278000+00:00,val
1408,0.0,0.0,2021-01-22 04:51:55.278000+00:00,val
1409,0.0,0.0,2021-01-22 04:52:25.278000+00:00,val
1410,0.0,0.0,2021-01-22 04:52:55.278000+00:00,val
1411,0.0,0.0,2021-01-22 04:53:25.278000+00:00,val
1412,0.0,0.0,2021-01-22 04:53:55.278000+00:00,val
1413,0.0,0.0,2021-01-22 04:54:25.278000+00:00,val
1414,0.0,0.0,2021-01-22 04:54:55.278000+00:00,val
1415,0.0,0.0,2021-01-22 04:55:25.278000+00:00,val
1416,0.0,0.0,2021-01-22 04:55:55.278000+00:00,val
1417,0.0,0.0,2021-01-22 04:56:25.278000+00:00,val
1418,0.0,0.0,2021-01-22 04:56:55.278000+00:00,val
1419,0.0,0.0,2021-01-22 04:57:25.278000+00:00,val
1420,0.0,0.0,2021-01-22 04:57:55.278000+00:00,val
1421,0.0,0.0,2021-01-22 04:58:25.278000+00:00,val
1422,0.0,0.0,2021-01-22 04:58:55.278000+00:00,val
1423,0.0,0.0,2021-01-22 04:59:25.278000+00:00,val
1424,0.0,0.0,2021-01-22 04:59:55.278000+00:00,val
1425,0.0,0.0,2021-01-22 05:00:25.278000+00:00,val
1426,0.0,0.0,2021-01-22 05:00:55.278000+00:00,val
1427,0.0,0.0,2021-01-22 05:01:25.278000+00:00,val
1428,0.0,0.0,2021-01-22 05:01:55.278000+00:00,val
1429,0.0,0.0,2021-01-22 05:02:25.278000+00:00,val
1430,0.0,0.0,2021-01-22 05:02:55.278000+00:00,val
1431,0.0,0.0,2021-01-22 05:03:25.278000+00:00,val
1432,0.0,0.0,2021-01-22 05:03:55.278000+00:00,val
1433,0.0,0.0,2021-01-22 05:04:25.278000+00:00,val
1434,0.0,0.0,2021-01-22 05:04:55.278000+00:00,val
1435,0.0,0.0,2021-01-22 05:05:25.278000+00:00,val
1436,0.0,0.0,2021-01-22 05:05:55.278000+00:00,val
1437,0.0,0.0,2021-01-22 05:06:25.278000+00:00,val
1438,0.0,0.0,2021-01-22 05:06:55.278000+00:00,val
1439,0.0,0.0,2021-01-22 05:07:25.278000+00:00,val
1440,0.0,0.0,2021-01-22 05:07:55.278000+00:00,val
1441,0.0,0.0,2021-01-22 05:08:25.278000+00:00,val
1442,0.0,0.0,2021-01-22 05:08:55.278000+00:00,val
1443,0.0,0.0,2021-01-22 05:09:25.278000+00:00,val
1444,0.0,0.0,2021-01-22 05:09:55.278000+00:00,val
1445,0.0,0.0,2021-01-22 05:10:25.278000+00:00,val
1446,0.0,0.0,2021-01-22 05:10:55.278000+00:00,val
1447,0.0,0.0,2021-01-22 05:11:25.278000+00:00,val
1448,0.0,0.0,2021-01-22 05:11:55.278000+00:00,val
1449,0.0,0.0,2021-01-22 05:12:25.278000+00:00,val
1450,0.0,0.0,2021-01-22 05:12:55.278000+00:00,val
1451,0.0,0.0,2021-01-22 05:13:25.278000+00:00,val
1452,0.0,0.0,2021-01-22 05:13:55.278000+00:00,val
1453,0.0,0.0,2021-01-22 05:14:25.278000+00:00,val
1454,0.0,0.0,2021-01-22 05:14:55.278000+00:00,val
1455,0.0,0.0,2021-01-22 05:15:25.278000+00:00,val
1456,0.0,0.0,2021-01-22 05:15:55.278000+00:00,val
1457,0.0,0.0,2021-01-22 05:16:25.278000+00:00,val
1458,0.0,0.0,2021-01-22 05:16:55.278000+00:00,val
1459,0.0,0.0,2021-01-22 05:17:25.278000+00:00,val
1460,0.0,0.0,2021-01-22 05:17:55.278000+00:00,test
1461,0.0,0.0,2021-01-22 05:18:25.278000+00:00,test
1462,0.0,0.0,2021-01-22 05:18:55.278000+00:00,test
1463,0.0,0.0,2021-01-22 05:19:25.278000+00:00,test
1464,0.0,0.0,2021-01-22 05:19:55.278000+00:00,test
1465,0.0,0.0,2021-01-22 05:20:25.278000+00:00,test
1466,0.0,0.0,2021-01-22 05:20:55.278000+00:00,test
1467,0.0,0.0,2021-01-22 05:21:25.278000+00:00,test
1468,0.0,0.0,2021-01-22 05:21:55.278000+00:00,test
1469,0.0,0.0,2021-01-22 05:22:25.278000+00:00,test
1470,0.0,0.0,2021-01-22 05:22:55.278000+00:00,test
1471,0.0,0.0,2021-01-22 05:23:25.278000+00:00,test
1472,0.0,0.0,2021-01-22 05:23:55.278000+00:00,test
1473,0.0,0.0,2021-01-22 05:24:25.278000+00:00,test
1474,0.0,0.0,2021-01-22 05:24:55.278000+00:00,test
1475,0.0,0.0,2021-01-22 05:25:25.278000+00:00,test
1476,0.0,0.0,2021-01-22 05:25:55.278000+00:00,test
1477,0.0,0.0,2021-01-22 05:26:25.278000+00:00,test
1478,0.0,0.0,2021-01-22 05:26:55.278000+00:00,test
1479,0.0,0.0,2021-01-22 05:27:25.278000+00:00,test
1480,0.0,0.0,2021-01-22 05:27:55.278000+00:00,test
1481,0.0,0.0,2021-01-22 05:28:25.278000+00:00,test
1482,0.0,0.0,2021-01-22 05:28:55.278000+00:00,test
1483,0.0,0.0,2021-01-22 05:29:25.278000+00:00,test
1484,0.0,0.0,2021-01-22 05:29:55.278000+00:00,test
1485,0.0,0.0,2021-01-22 05:30:25.278000+00:00,test
1486,0.0,0.0,2021-01-22 05:30:55.278000+00:00,test
1487,0.0,0.0,2021-01-22 05:31:25.278000+00:00,test
1488,0.0,0.0,2021-01-22 05:31:55.278000+00:00,test
1489,0.0,0.0,2021-01-22 05:32:25.278000+00:00,test
1490,0.0,0.0,2021-01-22 05:32:55.278000+00:00,test
1491,0.0,0.0,2021-01-22 05:33:25.278000+00:00,test
1492,0.0,0.0,2021-01-22 05:33:55.278000+00:00,test
1493,0.0,0.0,2021-01-22 05:34:25.278000+00:00,test
1494,0.0,0.0,2021-01-22 05:34:55.278000+00:00,test
1495,0.0,0.0,2021-01-22 05:35:25.278000+00:00,test
1496,0.0,0.0,2021-01-22 05:35:55.278000+00:00,test
1497,0.0,0.0,2021-01-22 05:36:25.278000+00:00,test
1498,0.0,0.0,2021-01-22 05:36:55.278000+00:00,test
1499,0.0,0.0,2021-01-22 05:37:25.278000+00:00,test
1500,0.0,0.0,2021-01-22 05:37:55.278000+00:00,test
1501,0.0,0.0,2021-01-22 05:38:25.278000+00:00,test
1502,0.0,0.0,2021-01-22 05:38:55.278000+00:00,test
1503,0.0,0.0,2021-01-22 05:39:25.278000+00:00,test
1504,0.0,0.0,2021-01-22 05:39:55.278000+00:00,test
1505,0.0,0.0,2021-01-22 05:40:25.278000+00:00,test
1506,0.0,0.0,2021-01-22 05:40:55.278000+00:00,test
1507,0.0,0.0,2021-01-22 05:41:25.278000+00:00,test
1508,0.0,0.0,2021-01-22 05:41:55.278000+00:00,test
1509,0.0,0.0,2021-01-22 05:42:25.278000+00:00,test
1510,0.0,0.0,2021-01-22 05:42:55.278000+00:00,test
1511,0.0,0.0,2021-01-22 05:43:25.278000+00:00,test
1512,0.0,0.0,2021-01-22 05:43:55.278000+00:00,test
1513,0.0,0.0,2021-01-22 05:44:25.278000+00:00,test
1514,0.0,0.0,2021-01-22 05:44:55.278000+00:00,test
1515,0.0,0.0,2021-01-22 05:45:25.278000+00:00,test
1516,0.0,0.0,2021-01-22 05:45:55.278000+00:00,test
1517,0.0,0.0,2021-01-22 05:46:25.278000+00:00,test
1518,0.0,0.0,2021-01-22 05:46:55.278000+00:00,test
1519,0.0,0.0,2021-01-22 05:47:25.278000+00:00,test
1520,0.0,0.0,2021-01-22 05:47:55.278000+00:00,test
1521,0.0,0.0,2021-01-22 05:48:25.278000+00:00,test
1522,0.0,0.0,2021-01-22 05:48:55.278000+00:00,test
1523,0.0,0.0,2021-01-22 05:49:25.278000+00:00,test
1524,0.0,0.0,2021-01-22 05:49:55.278000+00:00,test
1525,0.0,0.0,2021-01-22 05:50:25.278000+00:00,test
1526,0.0,0.0,2021-01-22 05:50:55.278000+00:00,test
1527,0.0,0.0,2021-01-22 05:51:25.278000+00:00,test
1528,0.0,0.0,2021-01-22 05:51:55.278000+00:00,test
1529,0.0,0.0,2021-01-22 05:52:25.278000+00:00,test
1530,0.0,0.0,2021-01-22 05:52:55.278000+00:00,test
1531,0.0,0.0,2021-01-22 05:53:25.278000+00:00,test
1532,0.0,0.0,2021-01-22 05:53:55.278000+00:00,test
1533,0.0,0.0,2021-01-22 05:54:25.278000+00:00,test
1534,0.0,0.0,2021-01-22 05:54:55.278000+00:00,test
1535,0.0,0.0,2021-01-22 05:55:25.278000+00:00,test
1536,0.0,0.0,2021-01-22 05:55:55.278000+00:00,test
1537,0.0,0.0,2021-01-22 05:56:25.278000+00:00,test
1538,0.0,0.0,2021-01-22 05:56:55.278000+00:00,test
1539,0.0,0.0,2021-01-22 05:57:25.278000+00:00,test
1540,0.0,0.0,2021-01-22 05:57:55.278000+00:00,test
1541,0.0,0.0,2021-01-22 05:58:25.278000+00:00,test
1542,0.0,0.0,2021-01-22 05:58:55.278000+00:00,test
1543,0.0,0.0,2021-01-22 05:59:25.278000+00:00,test
1544,0.0,0.0,2021-01-22 05:59:55.278000+00:00,test
1545,0.0,0.0,2021-01-22 06:00:25.278000+00:00,test
1546,0.0,0.0,2021-01-22 06:00:55.278000+00:00,test
1547,0.0,0.0,2021-01-22 06:01:25.278000+00:00,test
1548,0.0,0.0,2021-01-22 06:01:55.278000+00:00,test
1549,0.0,0.0,2021-01-22 06:02:25.278000+00:00,test
1550,0.0,0.0,2021-01-22 06:02:55.278000+00:00,test
1551,0.0,0.0,2021-01-22 06:03:25.278000+00:00,test
1552,0.0,0.0,2021-01-22 06:03:55.278000+00:00,test
1553,0.0,0.0,2021-01-22 06:04:25.278000+00:00,test
1554,0.0,0.0,2021-01-22 06:04:55.278000+00:00,test
1555,0.0,0.0,2021-01-22 06:05:25.278000+00:00,test
1556,0.0,0.0,2021-01-22 06:05:55.278000+00:00,test
1557,0.0,0.0,2021-01-22 06:06:25.278000+00:00,test
1558,0.0,0.0,2021-01-22 06:06:55.278000+00:00,test
1559,0.0,0.0,2021-01-22 06:07:25.278000+00:00,test
1560,0.0,0.0,2021-01-22 06:07:55.278000+00:00,test
1561,0.0,0.0,2021-01-22 06:08:25.278000+00:00,test
1562,0.0,0.0,2021-01-22 06:08:55.278000+00:00,test
1563,0.0,0.0,2021-01-22 06:09:25.278000+00:00,test
1564,0.0,0.0,2021-01-22 06:09:55.278000+00:00,test
1565,0.0,0.0,2021-01-22 06:10:25.278000+00:00,test
1566,0.0,0.0,2021-01-22 06:10:55.278000+00:00,test
1567,0.0,0.0,2021-01-22 06:11:25.278000+00:00,test
1568,0.0,0.0,2021-01-22 06:11:55.278000+00:00,test
1569,0.0,0.0,2021-01-22 06:12:25.278000+00:00,test
1570,0.0,0.0,2021-01-22 06:12:55.278000+00:00,test
1571,0.0,0.0,2021-01-22 06:13:25.278000+00:00,test
1572,0.0,0.0,2021-01-22 06:13:55.278000+00:00,test
1573,0.0,0.0,2021-01-22 06:14:25.278000+00:00,test
1574,0.0,0.0,2021-01-22 06:14:55.278000+00:00,test
1575,0.0,0.0,2021-01-22 06:15:25.278000+00:00,test
1576,0.0,0.0,2021-01-22 06:15:55.278000+00:00,test
1577,0.0,0.0,2021-01-22 06:16:25.278000+00:00,test
1578,0.0,0.0,2021-01-22 06:16:55.278000+00:00,test
1579,0.0,0.0,2021-01-22 06:17:25.278000+00:00,test
1580,0.0,0.0,2021-01-22 06:17:55.278000+00:00,test
1581,0.0,0.0,2021-01-22 06:18:25.278000+00:00,test
1582,0.0,0.0,2021-01-22 06:18:55.278000+00:00,test
1583,0.0,0.0,2021-01-22 06:19:25.278000+00:00,test
1584,0.0,0.0,2021-01-22 06:19:55.278000+00:00,test
1585,0.0,0.0,2021-01-22 06:20:25.278000+00:00,test
1586,0.0,0.0,2021-01-22 06:20:55.278000+00:00,test
1587,0.0,0.0,2021-01-22 06:21:25.278000+00:00,test
1588,0.0,0.0,2021-01-22 06:21:55.278000+00:00,test
1589,0.0,0.0,2021-01-22 06:22:25.278000+00:00,test
1590,0.0,0.0,2021-01-22 06:22:55.278000+00:00,test
1591,0.0,0.0,2021-01-22 06:23:25.278000+00:00,test
1592,0.0,0.0,2021-01-22 06:23:55.278000+00:00,test
1593,0.0,0.0,2021-01-22 06:24:25.278000+00:00,test
1594,0.0,0.0,2021-01-22 06:24:55.278000+00:00,test
1595,0.0,0.0,2021-01-22 06:25:25.278000+00:00,test
1596,0.0,0.0,2021-01-22 06:25:55.278000+00:00,test
1597,0.0,0.0,2021-01-22 06:26:25.278000+00:00,test
1598,0.0,0.0,2021-01-22 06:26:55.278000+00:00,test
1599,0.0,0.0,2021-01-22 06:27:25.278000+00:00,test
1600,0.0,0.0,2021-01-22 06:27:55.278000+00:00,test
1601,0.0,0.0,2021-01-22 06:28:25.278000+00:00,test
1602,0.0,0.0,2021-01-22 06:28:55.278000+00:00,test
1603,0.0,0.0,2021-01-22 06:29:25.278000+00:00,test
1604,0.0,0.0,2021-01-22 06:29:55.278000+00:00,test
1605,0.0,0.0,2021-01-22 06:30:25.278000+00:00,test
1606,0.0,0.0,2021-01-22 06:30:55.278000+00:00,test
1607,0.0,0.0,2021-01-22 06:31:25.278000+00:00,test
1608,0.0,0.0,2021-01-22 06:31:55.278000+00:00,test
1609,0.0,0.0,2021-01-22 06:32:25.278000+00:00,test
1610,0.0,0.0,2021-01-22 06:32:55.278000+00:00,test
1611,0.0,0.0,2021-01-22 06:33:25.278000+00:00,test
1612,0.0,0.0,2021-01-22 06:33:55.278000+00:00,test
1613,0.0,0.0,2021-01-22 06:34:25.278000+00:00,test
1614,0.0,0.0,2021-01-22 06:34:55.278000+00:00,test
1615,0.0,0.0,2021-01-22 06:35:25.278000+00:00,test
1616,0.0,0.0,2021-01-22 06:35:55.278000+00:00,test
1617,0.0,0.0,2021-01-22 06:36:25.278000+00:00,test
1618,0.0,0.0,2021-01-22 06:36:55.278000+00:00,test
1619,0.0,0.0,2021-01-22 06:37:25.278000+00:00,test
1620,0.0,0.0,2021-01-22 06:37:55.278000+00:00,test
1621,0.0,0.0,2021-01-22 06:38:25.278000+00:00,test
1622,0.0,0.0,2021-01-22 06:38:55.278000+00:00,test
1623,0.0,0.0,2021-01-22 06:39:25.278000+00:00,test
1624,0.0,0.0,2021-01-22 06:39:55.278000+00:00,test
1625,0.0,0.0,2021-01-22 06:40:25.278000+00:00,test
