,Unnamed: 0,time,prediction,step
23417,23417,2020-10-21 11:48:42.926,15.738831,7
23427,23427,2020-10-21 11:49:12.926,8.437525,7
23437,23437,2020-10-21 11:49:42.926,7.858322,7
23447,23447,2020-10-21 11:50:12.926,7.6095896,7
23457,23457,2020-10-21 11:50:42.926,7.5809812999999995,7
23467,23467,2020-10-21 11:51:12.926,7.7486973,7
23477,23477,2020-10-21 11:51:42.926,9.008453,7
23487,23487,2020-10-21 11:52:12.926,14.179898999999999,7
23497,23497,2020-10-21 11:52:42.926,9.293989,7
23507,23507,2020-10-21 11:53:12.926,8.963064,7
23517,23517,2020-10-21 11:53:42.926,8.499556,7
23527,23527,2020-10-21 11:54:12.926,8.680409,7
23537,23537,2020-10-21 11:54:42.926,9.731795,7
23547,23547,2020-10-21 11:55:12.926,13.166366,7
23557,23557,2020-10-21 11:55:42.926,11.743608,7
23567,23567,2020-10-21 11:56:12.926,11.288983,7
23577,23577,2020-10-21 11:56:42.926,11.257592,7
23587,23587,2020-10-21 11:57:12.926,10.556094,7
23597,23597,2020-10-21 11:57:42.926,10.330998,7
23607,23607,2020-10-21 11:58:12.926,10.255567999999998,7
23617,23617,2020-10-21 11:58:42.926,10.036484,7
23627,23627,2020-10-21 11:59:12.926,9.970361,7
23637,23637,2020-10-21 11:59:42.926,10.747761,7
23647,23647,2020-10-21 12:00:12.926,10.533106,7
23657,23657,2020-10-21 12:00:42.926,10.383803,7
23667,23667,2020-10-21 12:01:12.926,11.159509,7
23677,23677,2020-10-21 12:01:42.926,13.360024,7
23687,23687,2020-10-21 12:02:12.926,13.506426999999999,7
23697,23697,2020-10-21 12:02:42.926,13.616357999999998,7
23707,23707,2020-10-21 12:03:12.926,13.619392999999999,7
23717,23717,2020-10-21 12:03:42.926,13.716575,7
23727,23727,2020-10-21 12:04:12.926,11.563303,7
23737,23737,2020-10-21 12:04:42.926,11.139408999999999,7
23747,23747,2020-10-21 12:05:12.926,10.860094,7
23757,23757,2020-10-21 12:05:42.926,10.385928999999999,7
23767,23767,2020-10-21 12:06:12.926,11.0639305,7
23777,23777,2020-10-21 12:06:42.926,14.233866,7
23787,23787,2020-10-21 12:07:12.926,14.619570999999999,7
23797,23797,2020-10-21 12:07:42.926,14.833287,7
23807,23807,2020-10-21 12:08:12.926,15.004829,7
23817,23817,2020-10-21 12:08:42.926,15.147146,7
23827,23827,2020-10-21 12:09:12.926,15.265015,7
23837,23837,2020-10-21 12:09:42.926,15.562666,7
23847,23847,2020-10-21 12:10:12.926,15.660963,7
23857,23857,2020-10-21 12:10:42.926,15.923529,7
23867,23867,2020-10-21 12:11:12.926,16.047874,7
23877,23877,2020-10-21 12:11:42.926,12.306505,7
23887,23887,2020-10-21 12:12:12.926,16.34967,7
23897,23897,2020-10-21 12:12:42.926,16.805328,7
23907,23907,2020-10-21 12:13:12.926,17.00228,7
23917,23917,2020-10-21 12:13:42.926,17.167279999999998,7
23927,23927,2020-10-21 12:14:12.926,17.446468,7
23937,23937,2020-10-21 12:14:42.926,17.880978,7
23947,23947,2020-10-21 12:15:12.926,18.573044,7
23957,23957,2020-10-21 12:15:42.926,19.0929,7
23967,23967,2020-10-21 12:16:12.926,19.584581,7
23977,23977,2020-10-21 12:16:42.926,20.037405,7
23987,23987,2020-10-21 12:17:12.926,13.928667,7
23997,23997,2020-10-21 12:17:42.926,13.133551,7
24007,24007,2020-10-21 12:18:12.926,12.580824,7
24017,24017,2020-10-21 12:18:42.926,11.919832000000001,7
24027,24027,2020-10-21 12:19:12.926,11.899432000000001,7
24037,24037,2020-10-21 12:19:42.926,12.072716,7
24047,24047,2020-10-21 12:20:12.926,12.481992,7
24057,24057,2020-10-21 12:20:42.926,13.043182,7
24067,24067,2020-10-21 12:21:12.926,13.035494,7
24077,24077,2020-10-21 12:21:42.926,13.498591000000001,7
24087,24087,2020-10-21 12:22:12.926,18.063965,7
24097,24097,2020-10-21 12:22:42.926,14.026983,7
24107,24107,2020-10-21 12:23:12.926,13.434907,7
24117,24117,2020-10-21 12:23:42.926,13.542514,7
24127,24127,2020-10-21 12:24:12.926,13.682166,7
24137,24137,2020-10-21 12:24:42.926,13.729829999999998,7
24147,24147,2020-10-21 12:25:12.926,13.840076000000002,7
24157,24157,2020-10-21 12:25:42.926,13.558679999999999,7
24167,24167,2020-10-21 12:26:12.926,13.558755999999999,7
24177,24177,2020-10-21 12:26:42.926,13.308672,7
24187,24187,2020-10-21 12:27:12.926,12.644745,7
24197,24197,2020-10-21 12:27:42.926,10.745693,7
24207,24207,2020-10-21 12:28:12.926,6.838578,7
24217,24217,2020-10-21 12:28:42.926,4.38689,7
