,Unnamed: 0,time,prediction,step
3590,3590,2021-01-22 12:27:58.227,32.464127000000005,0
3600,3600,2021-01-22 12:28:28.227,30.168526,0
3610,3610,2021-01-22 12:28:58.227,30.29938,0
3620,3620,2021-01-22 12:29:28.227,30.32152,0
3630,3630,2021-01-22 12:29:58.227,30.39002,0
3640,3640,2021-01-22 12:30:28.227,30.619521999999996,0
3650,3650,2021-01-22 12:30:58.227,30.769996999999996,0
3660,3660,2021-01-22 12:31:28.227,31.086205,0
3670,3670,2021-01-22 12:31:58.227,31.33039,0
3680,3680,2021-01-22 12:32:28.227,31.737910999999997,0
3690,3690,2021-01-22 12:32:58.227,32.079445,0
3700,3700,2021-01-22 12:33:28.227,32.4851,0
3710,3710,2021-01-22 12:33:58.227,32.80832,0
3720,3720,2021-01-22 12:34:28.227,33.160515000000004,0
3730,3730,2021-01-22 12:34:58.227,33.722396999999994,0
3740,3740,2021-01-22 12:35:28.227,34.193264,0
3750,3750,2021-01-22 12:35:58.227,34.677956,0
3760,3760,2021-01-22 12:36:28.227,35.22801,0
3770,3770,2021-01-22 12:36:58.227,35.693264,0
3780,3780,2021-01-22 12:37:28.227,36.306213,0
3790,3790,2021-01-22 12:37:58.227,36.839993,0
3800,3800,2021-01-22 12:38:28.227,37.29475,0
3810,3810,2021-01-22 12:38:58.227,38.029509999999995,0
3820,3820,2021-01-22 12:39:28.227,38.677887,0
3830,3830,2021-01-22 12:39:58.227,39.45042,0
3840,3840,2021-01-22 12:40:28.227,40.192177,0
3850,3850,2021-01-22 12:40:58.227,40.87092,0
3860,3860,2021-01-22 12:41:28.227,41.428432,0
3870,3870,2021-01-22 12:41:58.227,43.48856,0
3880,3880,2021-01-22 12:42:28.227,44.151115000000004,0
3890,3890,2021-01-22 12:42:58.227,44.69297,0
3900,3900,2021-01-22 12:43:28.227,45.405083000000005,0
3910,3910,2021-01-22 12:43:58.227,46.103770000000004,0
3920,3920,2021-01-22 12:44:28.227,46.667698,0
3930,3930,2021-01-22 12:44:58.227,47.554558,0
3940,3940,2021-01-22 12:45:28.227,48.40985,0
3950,3950,2021-01-22 12:45:58.227,49.103405,0
3960,3960,2021-01-22 12:46:28.227,50.09475,0
3970,3970,2021-01-22 12:46:58.227,50.914993,0
3980,3980,2021-01-22 12:47:28.227,52.198387,0
3990,3990,2021-01-22 12:47:58.227,53.28914,0
4000,4000,2021-01-22 12:48:28.227,54.32818,0
4010,4010,2021-01-22 12:48:58.227,55.688286,0
4020,4020,2021-01-22 12:49:28.227,56.8322,0
4030,4030,2021-01-22 12:49:58.227,58.039238,0
4040,4040,2021-01-22 12:50:28.227,59.73961,0
4050,4050,2021-01-22 12:50:58.227,61.214380000000006,0
4060,4060,2021-01-22 12:51:28.227,63.290237,0
4070,4070,2021-01-22 12:51:58.227,65.1105,0
4080,4080,2021-01-22 12:52:28.227,66.81676,0
4090,4090,2021-01-22 12:52:58.227,69.14875,0
4100,4100,2021-01-22 12:53:28.227,71.180336,0
4110,4110,2021-01-22 12:53:58.227,73.20531,0
4120,4120,2021-01-22 12:54:28.227,76.01621999999999,0
4130,4130,2021-01-22 12:54:58.227,78.640175,0
4140,4140,2021-01-22 12:55:28.227,80.96181,0
4150,4150,2021-01-22 12:55:58.227,84.19506,0
4160,4160,2021-01-22 12:56:28.227,87.01919000000001,0
4170,4170,2021-01-22 12:56:58.227,89.78295,0
4180,4180,2021-01-22 12:57:28.227,93.79429,0
4190,4190,2021-01-22 12:57:58.227,97.3189,0
4200,4200,2021-01-22 12:58:28.227,100.559425,0
4210,4210,2021-01-22 12:58:58.227,105.57363000000001,0
4220,4220,2021-01-22 12:59:28.227,109.80684,0
4230,4230,2021-01-22 12:59:58.227,114.09025,0
4240,4240,2021-01-22 13:00:28.227,120.55998999999998,0
4250,4250,2021-01-22 13:00:58.227,126.38023000000001,0
4260,4260,2021-01-22 13:01:28.227,135.91328000000001,0
4270,4270,2021-01-22 13:01:58.227,144.71849,0
4280,4280,2021-01-22 13:02:28.227,153.55348,0
4290,4290,2021-01-22 13:02:58.227,167.41722,0
4300,4300,2021-01-22 13:03:28.227,180.57031,0
4310,4310,2021-01-22 13:03:58.227,203.29291,0
4320,4320,2021-01-22 13:04:28.227,226.28456,0
4330,4330,2021-01-22 13:04:58.227,251.6933,0
4340,4340,2021-01-22 13:05:28.227,296.18066,0
4350,4350,2021-01-22 13:05:58.227,379.50262000000004,0
4360,4360,2021-01-22 13:06:28.227,447.74225,0
4370,4370,2021-01-22 13:06:58.227,561.8915400000001,0
4380,4380,2021-01-22 13:07:28.227,641.89844,0
4390,4390,2021-01-22 13:07:58.227,743.50287,0
4400,4400,2021-01-22 13:08:28.227,625.3462,0
4410,4410,2021-01-22 13:08:58.227,674.97925,0
4420,4420,2021-01-22 13:09:28.227,785.75604,0
4430,4430,2021-01-22 13:09:58.227,840.8601,0
4440,4440,2021-01-22 13:10:28.227,793.4098,0
4450,4450,2021-01-22 13:10:58.227,721.6757,0
4460,4460,2021-01-22 13:11:28.227,661.1837,0
4470,4470,2021-01-22 13:11:58.227,600.76245,0
4480,4480,2021-01-22 13:12:28.227,538.1419999999999,0
4490,4490,2021-01-22 13:12:58.227,362.9665,0
4500,4500,2021-01-22 13:13:28.227,289.57802999999996,0
4510,4510,2021-01-22 13:13:58.227,250.55599999999998,0
4520,4520,2021-01-22 13:14:28.227,203.21528999999998,0
4530,4530,2021-01-22 13:14:58.227,189.66826,0
4540,4540,2021-01-22 13:15:28.227,178.59962,0
4550,4550,2021-01-22 13:15:58.227,164.28003,0
4560,4560,2021-01-22 13:16:28.227,148.06197,0
4570,4570,2021-01-22 13:16:58.227,141.92967,0
4580,4580,2021-01-22 13:17:28.227,140.61411999999999,0
4590,4590,2021-01-22 13:17:58.227,138.20808,0
4600,4600,2021-01-22 13:18:28.227,133.70428,0
4610,4610,2021-01-22 13:18:58.227,127.35303,0
4620,4620,2021-01-22 13:19:28.227,121.62714,0
4630,4630,2021-01-22 13:19:58.227,114.45648999999999,0
4640,4640,2021-01-22 13:20:28.227,107.92223999999999,0
4650,4650,2021-01-22 13:20:58.227,100.46096999999999,0
4660,4660,2021-01-22 13:21:28.227,92.59975,0
4670,4670,2021-01-22 13:21:58.227,84.83169000000001,0
4680,4680,2021-01-22 13:22:28.227,77.19325,0
4690,4690,2021-01-22 13:22:58.227,71.34821,0
4700,4700,2021-01-22 13:23:28.227,66.65268,0
4710,4710,2021-01-22 13:23:58.227,62.27984,0
4720,4720,2021-01-22 13:24:28.227,58.857292,0
4730,4730,2021-01-22 13:24:58.227,55.72985,0
4740,4740,2021-01-22 13:25:28.227,53.48566999999999,0
4750,4750,2021-01-22 13:25:58.227,51.663544,0
4760,4760,2021-01-22 13:26:28.227,50.91352,0
4770,4770,2021-01-22 13:26:58.227,51.682407,0
4780,4780,2021-01-22 13:27:28.227,54.99703,0
4790,4790,2021-01-22 13:27:58.227,54.201397,0
4800,4800,2021-01-22 13:28:28.227,53.176840000000006,0
4810,4810,2021-01-22 13:28:58.227,52.82659,0
4820,4820,2021-01-22 13:29:28.227,51.12007,0
4830,4830,2021-01-22 13:29:58.227,49.62579,0
4840,4840,2021-01-22 13:30:28.227,47.88175,0
4850,4850,2021-01-22 13:30:58.227,46.111206,0
4860,4860,2021-01-22 13:31:28.227,44.92107,0
4870,4870,2021-01-22 13:31:58.227,43.591045,0
4880,4880,2021-01-22 13:32:28.227,42.32523,0
4890,4890,2021-01-22 13:32:58.227,41.46201,0
4900,4900,2021-01-22 13:33:28.227,40.17411,0
4910,4910,2021-01-22 13:33:58.227,39.218779999999995,0
4920,4920,2021-01-22 13:34:28.227,38.25215,0
4930,4930,2021-01-22 13:34:58.227,37.216938,0
4940,4940,2021-01-22 13:35:28.227,36.451298,0
4950,4950,2021-01-22 13:35:58.227,35.759575,0
4960,4960,2021-01-22 13:36:28.227,35.013145,0
4970,4970,2021-01-22 13:36:58.227,34.269659999999995,0
4980,4980,2021-01-22 13:37:28.227,33.462134999999996,0
4990,4990,2021-01-22 13:37:58.227,32.84151,0
5000,5000,2021-01-22 13:38:28.227,32.22733,0
5010,5010,2021-01-22 13:38:58.227,31.56356,0
5020,5020,2021-01-22 13:39:28.227,31.097614,0
5030,5030,2021-01-22 13:39:58.227,30.435738,0
5040,5040,2021-01-22 13:40:28.227,29.951086,0
5050,5050,2021-01-22 13:40:58.227,29.205221,0
5060,5060,2021-01-22 13:41:28.227,28.606525,0
5070,5070,2021-01-22 13:41:58.227,28.13522,0
5080,5080,2021-01-22 13:42:28.227,27.688034000000002,0
5090,5090,2021-01-22 13:42:58.227,27.439257,0
5100,5100,2021-01-22 13:43:28.227,27.092373,0
5110,5110,2021-01-22 13:43:58.227,26.691467,0
5120,5120,2021-01-22 13:44:28.227,26.234163,0
5130,5130,2021-01-22 13:44:58.227,25.889654,0
5140,5140,2021-01-22 13:45:28.227,25.614565,0
5150,5150,2021-01-22 13:45:58.227,25.248789000000002,0
5160,5160,2021-01-22 13:46:28.227,24.974613,0
5170,5170,2021-01-22 13:46:58.227,24.568792000000002,0
5180,5180,2021-01-22 13:47:28.227,24.126598,0
5190,5190,2021-01-22 13:47:58.227,23.59692,0
5200,5200,2021-01-22 13:48:28.227,23.084997,0
5210,5210,2021-01-22 13:48:58.227,22.476517,0
5220,5220,2021-01-22 13:49:28.227,21.881520000000002,0
5230,5230,2021-01-22 13:49:58.227,21.420560000000002,0
5240,5240,2021-01-22 13:50:28.227,21.072329999999997,0
5250,5250,2021-01-22 13:50:58.227,20.605698,0
5260,5260,2021-01-22 13:51:28.227,20.243489999999998,0
5270,5270,2021-01-22 13:51:58.227,19.883383,0
5280,5280,2021-01-22 13:52:28.227,19.609886,0
5290,5290,2021-01-22 13:52:58.227,19.411993,0
5300,5300,2021-01-22 13:53:28.227,19.065569,0
5310,5310,2021-01-22 13:53:58.227,18.798775,0
5320,5320,2021-01-22 13:54:28.227,18.610088,0
5330,5330,2021-01-22 13:54:58.227,18.323104999999998,0
5340,5340,2021-01-22 13:55:28.227,18.117247,0
5350,5350,2021-01-22 13:55:58.227,17.876053,0
5360,5360,2021-01-22 13:56:28.227,17.69339,0
5370,5370,2021-01-22 13:56:58.227,17.571972,0
5380,5380,2021-01-22 13:57:28.227,17.457773,0
5390,5390,2021-01-22 13:57:58.227,17.287792,0
5400,5400,2021-01-22 13:58:28.227,17.190732999999998,0
5410,5410,2021-01-22 13:58:58.227,16.902252,0
5420,5420,2021-01-22 13:59:28.227,16.680845,0
5430,5430,2021-01-22 13:59:58.227,16.524017,0
5440,5440,2021-01-22 14:00:28.227,16.225029,0
5450,5450,2021-01-22 14:00:58.227,15.999286999999999,0
5460,5460,2021-01-22 14:01:28.227,15.843848999999999,0
5470,5470,2021-01-22 14:01:58.227,15.630241,0
5480,5480,2021-01-22 14:02:28.227,15.465446,0
5490,5490,2021-01-22 14:02:58.227,15.154048999999999,0
5500,5500,2021-01-22 14:03:28.227,14.90001,0
5510,5510,2021-01-22 14:03:58.227,14.650935999999998,0
5520,5520,2021-01-22 14:04:28.227,14.442412,0
5530,5530,2021-01-22 14:04:58.227,14.272326999999999,0
5540,5540,2021-01-22 14:05:28.227,14.006357000000001,0
5550,5550,2021-01-22 14:05:58.227,13.749678,0
5560,5560,2021-01-22 14:06:28.227,13.534739000000002,0
5570,5570,2021-01-22 14:06:58.227,13.358761,0
5580,5580,2021-01-22 14:07:28.227,13.220682,0
5590,5590,2021-01-22 14:07:58.227,13.120951000000002,0
5600,5600,2021-01-22 14:08:28.227,13.007423,0
5610,5610,2021-01-22 14:08:58.227,12.924513000000001,0
5620,5620,2021-01-22 14:09:28.227,12.87393,0
5630,5630,2021-01-22 14:09:58.227,12.685417999999999,0
5640,5640,2021-01-22 14:10:28.227,12.53553,0
5650,5650,2021-01-22 14:10:58.227,12.2758875,0
5660,5660,2021-01-22 14:11:28.227,12.069235,0
5670,5670,2021-01-22 14:11:58.227,11.9102745,0
5680,5680,2021-01-22 14:12:28.227,11.798413,0
5690,5690,2021-01-22 14:12:58.227,11.668563,0
5700,5700,2021-01-22 14:13:28.227,11.575835000000001,0
5710,5710,2021-01-22 14:13:58.227,11.461225500000001,0
5720,5720,2021-01-22 14:14:28.227,11.374505000000001,0
5730,5730,2021-01-22 14:14:58.227,11.316526,0
5740,5740,2021-01-22 14:15:28.227,11.231619,0
5750,5750,2021-01-22 14:15:58.227,11.038468,0
5760,5760,2021-01-22 14:16:28.227,10.882046,0
5770,5770,2021-01-22 14:16:58.227,10.757548,0
5780,5780,2021-01-22 14:17:28.227,10.664242999999999,0
5790,5790,2021-01-22 14:17:58.227,10.546739,0
5800,5800,2021-01-22 14:18:28.227,10.450445,0
5810,5810,2021-01-22 14:18:58.227,10.375195,0
5820,5820,2021-01-22 14:19:28.227,10.321760000000001,0
5830,5830,2021-01-22 14:19:58.227,10.291838,0
5840,5840,2021-01-22 14:20:28.227,10.229295,0
5850,5850,2021-01-22 14:20:58.227,10.055369,0
5860,5860,2021-01-22 14:21:28.227,9.912927999999999,0
5870,5870,2021-01-22 14:21:58.227,9.796244,0
5880,5880,2021-01-22 14:22:28.227,9.703776,0
5890,5890,2021-01-22 14:22:58.227,9.635333000000001,0
5900,5900,2021-01-22 14:23:28.227,9.438774,0
5910,5910,2021-01-22 14:23:58.227,9.286715,0
5920,5920,2021-01-22 14:24:28.227,9.174432000000001,0
5930,5930,2021-01-22 14:24:58.227,9.032504,0
5940,5940,2021-01-22 14:25:28.227,8.917336,0
5950,5950,2021-01-22 14:25:58.227,8.782985,0
5960,5960,2021-01-22 14:26:28.227,8.66582,0
5970,5970,2021-01-22 14:26:58.227,8.564502000000001,0
5980,5980,2021-01-22 14:27:28.227,8.478138000000001,0
5990,5990,2021-01-22 14:27:58.227,8.406226,0
6000,6000,2021-01-22 14:28:28.227,8.348652000000001,0
6010,6010,2021-01-22 14:28:58.227,8.305635,0
6020,6020,2021-01-22 14:29:28.227,8.277847999999999,0
6030,6030,2021-01-22 14:29:58.227,8.266698,0
6040,6040,2021-01-22 14:30:28.227,8.274719000000001,0
6050,6050,2021-01-22 14:30:58.227,8.117188,0
6060,6060,2021-01-22 14:31:28.227,7.9862910000000005,0
6070,6070,2021-01-22 14:31:58.227,7.875883999999999,0
6080,6080,2021-01-22 14:32:28.227,7.783927,0
6090,6090,2021-01-22 14:32:58.227,7.709465,0
6100,6100,2021-01-22 14:33:28.227,7.652315,0
6110,6110,2021-01-22 14:33:58.227,7.612934,0
6120,6120,2021-01-22 14:34:28.227,7.592657000000001,0
6130,6130,2021-01-22 14:34:58.227,7.594537700000001,0
6140,6140,2021-01-22 14:35:28.227,7.464970599999999,0
6150,6150,2021-01-22 14:35:58.227,7.302581,0
6160,6160,2021-01-22 14:36:28.227,7.167552000000001,0
6170,6170,2021-01-22 14:36:58.227,7.055612599999999,0
6180,6180,2021-01-22 14:37:28.227,6.964311599999999,0
6190,6190,2021-01-22 14:37:58.227,6.892658,0
6200,6200,2021-01-22 14:38:28.227,6.795433,0
6210,6210,2021-01-22 14:38:58.227,6.709189,0
6220,6220,2021-01-22 14:39:28.227,6.633007000000001,0
6230,6230,2021-01-22 14:39:58.227,6.5662413,0
6240,6240,2021-01-22 14:40:28.227,6.5083985,0
6250,6250,2021-01-22 14:40:58.227,6.4592686,0
6260,6260,2021-01-22 14:41:28.227,6.2812730000000006,0
6270,6270,2021-01-22 14:41:58.227,6.133530599999999,0
6280,6280,2021-01-22 14:42:28.227,6.0089692999999995,0
6290,6290,2021-01-22 14:42:58.227,5.9044045999999994,0
6300,6300,2021-01-22 14:43:28.227,5.817969000000001,0
6310,6310,2021-01-22 14:43:58.227,5.7487582999999995,0
6320,6320,2021-01-22 14:44:28.227,5.6965747,0
6330,6330,2021-01-22 14:44:58.227,5.662024,0
6340,6340,2021-01-22 14:45:28.227,5.647019,0
6350,6350,2021-01-22 14:45:58.227,5.5931635,0
6360,6360,2021-01-22 14:46:28.227,5.5484567,0
6370,6370,2021-01-22 14:46:58.227,5.5131063,0
6380,6380,2021-01-22 14:47:28.227,5.487462,0
6390,6390,2021-01-22 14:47:58.227,5.4721150000000005,0
6400,6400,2021-01-22 14:48:28.227,5.4679400000000005,0
6410,6410,2021-01-22 14:48:58.227,5.476396,0
6420,6420,2021-01-22 14:49:28.227,5.5000453,0
6430,6430,2021-01-22 14:49:58.227,5.393983,0
6440,6440,2021-01-22 14:50:28.227,5.255334400000001,0
6450,6450,2021-01-22 14:50:58.227,5.1380419999999996,0
6460,6460,2021-01-22 14:51:28.227,5.0376444000000005,0
6470,6470,2021-01-22 14:51:58.227,4.9514904,0
6480,6480,2021-01-22 14:52:28.227,4.8780565000000005,0
6490,6490,2021-01-22 14:52:58.227,4.816653700000001,0
6500,6500,2021-01-22 14:53:28.227,4.7661076,0
6510,6510,2021-01-22 14:53:58.227,4.7259703,0
6520,6520,2021-01-22 14:54:28.227,4.6969237,0
6530,6530,2021-01-22 14:54:58.227,4.679661,0
6540,6540,2021-01-22 14:55:28.227,4.675301999999999,0
6550,6550,2021-01-22 14:55:58.227,4.6860776,0
6560,6560,2021-01-22 14:56:28.227,4.6515684,0
6570,6570,2021-01-22 14:56:58.227,4.6209016,0
6580,6580,2021-01-22 14:57:28.227,4.594005,0
6590,6590,2021-01-22 14:57:58.227,4.5708660000000005,0
6600,6600,2021-01-22 14:58:28.227,4.5515265,0
6610,6610,2021-01-22 14:58:58.227,4.5360913,0
6620,6620,2021-01-22 14:59:28.227,4.524736,0
6630,6630,2021-01-22 14:59:58.227,4.3709793,0
6640,6640,2021-01-22 15:00:28.227,4.2472258,0
6650,6650,2021-01-22 15:00:58.227,4.1443634,0
6660,6660,2021-01-22 15:01:28.227,4.058312399999999,0
6670,6670,2021-01-22 15:01:58.227,3.9868522000000004,0
6680,6680,2021-01-22 15:02:28.227,3.9289675,0
6690,6690,2021-01-22 15:02:58.227,3.8822927000000003,0
6700,6700,2021-01-22 15:03:28.227,3.8476633999999996,0
6710,6710,2021-01-22 15:03:58.227,3.8258953,0
6720,6720,2021-01-22 15:04:28.227,3.8183217000000003,0
6730,6730,2021-01-22 15:04:58.227,3.7722116000000003,0
6740,6740,2021-01-22 15:05:28.227,3.7305045,0
6750,6750,2021-01-22 15:05:58.227,3.6929178,0
6760,6760,2021-01-22 15:06:28.227,3.659244,0
6770,6770,2021-01-22 15:06:58.227,3.6293472999999996,0
6780,6780,2021-01-22 15:07:28.227,3.6031446000000003,0
6790,6790,2021-01-22 15:07:58.227,3.5806174,0
6800,6800,2021-01-22 15:08:28.227,3.5617937999999993,0
6810,6810,2021-01-22 15:08:58.227,3.546771,0
6820,6820,2021-01-22 15:09:28.227,3.5357099,0
6830,6830,2021-01-22 15:09:58.227,3.528861,0
6840,6840,2021-01-22 15:10:28.227,3.5265812999999993,0
6850,6850,2021-01-22 15:10:58.227,3.5293746,0
6860,6860,2021-01-22 15:11:28.227,3.5379595999999998,0
6870,6870,2021-01-22 15:11:58.227,3.5534,0
6880,6880,2021-01-22 15:12:28.227,3.5773667999999996,0
6890,6890,2021-01-22 15:12:58.227,3.6126795,0
6900,6900,2021-01-22 15:13:28.227,3.4832864000000003,0
6910,6910,2021-01-22 15:13:58.227,3.3943357000000005,0
6920,6920,2021-01-22 15:14:28.227,3.34268,0
6930,6930,2021-01-22 15:14:58.227,3.2282681,0
6940,6940,2021-01-22 15:15:28.227,3.1356306000000003,0
6950,6950,2021-01-22 15:15:58.227,3.0572915000000003,0
6960,6960,2021-01-22 15:16:28.227,2.98883,0
6970,6970,2021-01-22 15:16:58.227,2.927877,0
6980,6980,2021-01-22 15:17:28.227,2.873078,0
6990,6990,2021-01-22 15:17:58.227,2.8235908,0
7000,7000,2021-01-22 15:18:28.227,2.7788548,0
7010,7010,2021-01-22 15:18:58.227,2.7384741000000004,0
7020,7020,2021-01-22 15:19:28.227,2.7021450000000002,0
7030,7030,2021-01-22 15:19:58.227,2.669653,0
7040,7040,2021-01-22 15:20:28.227,2.6408438999999997,0
7050,7050,2021-01-22 15:20:58.227,2.6156275,0
7060,7060,2021-01-22 15:21:28.227,2.5939669999999997,0
7070,7070,2021-01-22 15:21:58.227,2.5758817,0
7080,7080,2021-01-22 15:22:28.227,2.5614512,0
7090,7090,2021-01-22 15:22:58.227,2.5508246,0
7100,7100,2021-01-22 15:23:28.227,2.5442324,0
7110,7110,2021-01-22 15:23:58.227,2.5420125,0
7120,7120,2021-01-22 15:24:28.227,2.5446444,0
7130,7130,2021-01-22 15:24:58.227,2.5528169999999997,0
7140,7140,2021-01-22 15:25:28.227,2.4089885,0
7150,7150,2021-01-22 15:25:58.227,2.2996472999999997,0
7160,7160,2021-01-22 15:26:28.227,2.2142152999999998,0
7170,7170,2021-01-22 15:26:58.227,2.1475053,0
7180,7180,2021-01-22 15:27:28.227,2.0947204,0
7190,7190,2021-01-22 15:27:58.227,2.0558688999999997,0
7200,7200,2021-01-22 15:28:28.227,1.9897096,0
7210,7210,2021-01-22 15:28:58.227,1.931293,0
7220,7220,2021-01-22 15:29:28.227,1.8793478,0
7230,7230,2021-01-22 15:29:58.227,1.8331380000000002,0
7240,7240,2021-01-22 15:30:28.227,1.7921917,0
7250,7250,2021-01-22 15:30:58.227,1.7561288000000002,0
7260,7260,2021-01-22 15:31:28.227,1.7245116000000003,0
7270,7270,2021-01-22 15:31:58.227,1.6967406000000003,0
7280,7280,2021-01-22 15:32:28.227,1.6720560000000002,0
7290,7290,2021-01-22 15:32:58.227,1.6496979999999999,0
7300,7300,2021-01-22 15:33:28.227,1.6292226,0
7310,7310,2021-01-22 15:33:58.227,1.610637,0
7320,7320,2021-01-22 15:34:28.227,1.5944071000000002,0
7330,7330,2021-01-22 15:34:58.227,1.5813215,0
7340,7340,2021-01-22 15:35:28.227,1.5722432,0
7350,7350,2021-01-22 15:35:58.227,1.5678896999999998,0
7360,7360,2021-01-22 15:36:28.227,1.5687852,0
7370,7370,2021-01-22 15:36:58.227,1.5755057,0
7380,7380,2021-01-22 15:37:28.227,1.588841,0
7390,7390,2021-01-22 15:37:58.227,1.6101248,0
7400,7400,2021-01-22 15:38:28.227,1.6418195,0
7410,7410,2021-01-22 15:38:58.227,1.6889019,0
7420,7420,2021-01-22 15:39:28.227,1.7638744999999998,0
7430,7430,2021-01-22 15:39:58.227,1.6299822,0
7440,7440,2021-01-22 15:40:28.227,1.4616957,0
7450,7450,2021-01-22 15:40:58.227,1.3315711000000001,0
7460,7460,2021-01-22 15:41:28.227,1.2778103,0
7470,7470,2021-01-22 15:41:58.227,1.1742845,0
7480,7480,2021-01-22 15:42:28.227,1.0966597,0
7490,7490,2021-01-22 15:42:58.227,1.0329466,0
7500,7500,2021-01-22 15:43:28.227,0.9777578000000001,0
7510,7510,2021-01-22 15:43:58.227,0.9290992,0
7520,7520,2021-01-22 15:44:28.227,0.8858825000000001,0
7530,7530,2021-01-22 15:44:58.227,0.84734774,0
7540,7540,2021-01-22 15:45:28.227,0.81294537,0
7550,7550,2021-01-22 15:45:58.227,0.7822826999999999,0
7560,7560,2021-01-22 15:46:28.227,0.7550547,0
7570,7570,2021-01-22 15:46:58.227,0.73102987,0
7580,7580,2021-01-22 15:47:28.227,0.71005666,0
7590,7590,2021-01-22 15:47:58.227,0.69202745,0
7600,7600,2021-01-22 15:48:28.227,0.67688036,0
7610,7610,2021-01-22 15:48:58.227,0.664606,0
7620,7620,2021-01-22 15:49:28.227,0.65525424,0
7630,7630,2021-01-22 15:49:58.227,0.6489457,0
