,Unnamed: 0,time,preds,step
3593,3593,2021-01-22 12:29:28.227,27.387303999999997,3
3603,3603,2021-01-22 12:29:58.227,26.755634000000004,3
3613,3613,2021-01-22 12:30:28.227,28.110640999999998,3
3623,3623,2021-01-22 12:30:58.227,29.261415000000003,3
3633,3633,2021-01-22 12:31:28.227,30.189220000000002,3
3643,3643,2021-01-22 12:31:58.227,32.340878000000004,3
3653,3653,2021-01-22 12:32:28.227,33.390229999999995,3
3663,3663,2021-01-22 12:32:58.227,34.610718,3
3673,3673,2021-01-22 12:33:28.227,34.428979999999996,3
3683,3683,2021-01-22 12:33:58.227,35.211655,3
3693,3693,2021-01-22 12:34:28.227,35.17698,3
3703,3703,2021-01-22 12:34:58.227,36.13597,3
3713,3713,2021-01-22 12:35:28.227,35.503741999999995,3
3723,3723,2021-01-22 12:35:58.227,34.656490000000005,3
3733,3733,2021-01-22 12:36:28.227,36.23213,3
3743,3743,2021-01-22 12:36:58.227,35.725044,3
3753,3753,2021-01-22 12:37:28.227,34.10944,3
3763,3763,2021-01-22 12:37:58.227,33.747997,3
3773,3773,2021-01-22 12:38:28.227,33.869296999999996,3
3783,3783,2021-01-22 12:38:58.227,36.03079,3
3793,3793,2021-01-22 12:39:28.227,34.987453,3
3803,3803,2021-01-22 12:39:58.227,35.513813,3
3813,3813,2021-01-22 12:40:28.227,38.33916,3
3823,3823,2021-01-22 12:40:58.227,40.477540000000005,3
3833,3833,2021-01-22 12:41:28.227,42.468284999999995,3
3843,3843,2021-01-22 12:41:58.227,44.29104,3
3853,3853,2021-01-22 12:42:28.227,44.71059,3
3863,3863,2021-01-22 12:42:58.227,42.901608,3
3873,3873,2021-01-22 12:43:28.227,45.942177,3
3883,3883,2021-01-22 12:43:58.227,47.52302,3
3893,3893,2021-01-22 12:44:28.227,47.215313,3
3903,3903,2021-01-22 12:44:58.227,50.268097,3
3913,3913,2021-01-22 12:45:28.227,51.06669,3
3923,3923,2021-01-22 12:45:58.227,50.318348,3
3933,3933,2021-01-22 12:46:28.227,54.519146,3
3943,3943,2021-01-22 12:46:58.227,55.817127,3
3953,3953,2021-01-22 12:47:28.227,55.00082,3
3963,3963,2021-01-22 12:47:58.227,56.284133999999995,3
3973,3973,2021-01-22 12:48:28.227,57.35013000000001,3
3983,3983,2021-01-22 12:48:58.227,60.361473,3
3993,3993,2021-01-22 12:49:28.227,61.31574200000001,3
4003,4003,2021-01-22 12:49:58.227,59.98096999999999,3
4013,4013,2021-01-22 12:50:28.227,61.03439,3
4023,4023,2021-01-22 12:50:58.227,61.64155,3
4033,4033,2021-01-22 12:51:28.227,59.150078,3
4043,4043,2021-01-22 12:51:58.227,63.765465,3
4053,4053,2021-01-22 12:52:28.227,68.736595,3
4063,4063,2021-01-22 12:52:58.227,75.552185,3
4073,4073,2021-01-22 12:53:28.227,75.29436,3
4083,4083,2021-01-22 12:53:58.227,75.07592,3
4093,4093,2021-01-22 12:54:28.227,79.48206,3
4103,4103,2021-01-22 12:54:58.227,81.94625,3
4113,4113,2021-01-22 12:55:28.227,78.19324499999999,3
4123,4123,2021-01-22 12:55:58.227,86.36783,3
4133,4133,2021-01-22 12:56:28.227,91.37016,3
4143,4143,2021-01-22 12:56:58.227,88.67171,3
4153,4153,2021-01-22 12:57:28.227,95.414116,3
4163,4163,2021-01-22 12:57:58.227,101.40029,3
4173,4173,2021-01-22 12:58:28.227,99.07776,3
4183,4183,2021-01-22 12:58:58.227,110.16406,3
4193,4193,2021-01-22 12:59:28.227,116.73254399999999,3
4203,4203,2021-01-22 12:59:58.227,110.58546399999999,3
4213,4213,2021-01-22 13:00:28.227,126.44438999999998,3
4223,4223,2021-01-22 13:00:58.227,135.54616000000001,3
4233,4233,2021-01-22 13:01:28.227,126.59853000000001,3
4243,4243,2021-01-22 13:01:58.227,144.84048,3
4253,4253,2021-01-22 13:02:28.227,156.61057,3
4263,4263,2021-01-22 13:02:58.227,176.1406,3
4273,4273,2021-01-22 13:03:28.227,186.03157,3
4283,4283,2021-01-22 13:03:58.227,189.37944,3
4293,4293,2021-01-22 13:04:28.227,203.44863999999998,3
4303,4303,2021-01-22 13:04:58.227,227.82602000000003,3
4313,4313,2021-01-22 13:05:28.227,272.06964,3
4323,4323,2021-01-22 13:05:58.227,275.26912999999996,3
4333,4333,2021-01-22 13:06:28.227,264.38144,3
4343,4343,2021-01-22 13:06:58.227,157.83704,3
4353,4353,2021-01-22 13:07:28.227,250.65533,3
4363,4363,2021-01-22 13:07:58.227,353.7368,3
4373,4373,2021-01-22 13:08:28.227,596.6076,3
4383,4383,2021-01-22 13:08:58.227,680.0504,3
4393,4393,2021-01-22 13:09:28.227,899.91595,3
4403,4403,2021-01-22 13:09:58.227,959.3548599999999,3
4413,4413,2021-01-22 13:10:28.227,932.0831,3
4423,4423,2021-01-22 13:10:58.227,595.691,3
4433,4433,2021-01-22 13:11:28.227,439.69675,3
4443,4443,2021-01-22 13:11:58.227,366.05295,3
4453,4453,2021-01-22 13:12:28.227,325.93582000000004,3
4463,4463,2021-01-22 13:12:58.227,273.93658,3
4473,4473,2021-01-22 13:13:28.227,307.94797,3
4483,4483,2021-01-22 13:13:58.227,297.46176,3
4493,4493,2021-01-22 13:14:28.227,258.64062,3
4503,4503,2021-01-22 13:14:58.227,213.80393999999998,3
4513,4513,2021-01-22 13:15:28.227,214.73937999999998,3
4523,4523,2021-01-22 13:15:58.227,178.97769,3
4533,4533,2021-01-22 13:16:28.227,164.6304,3
4543,4543,2021-01-22 13:16:58.227,140.62506000000002,3
4553,4553,2021-01-22 13:17:28.227,132.78966,3
4563,4563,2021-01-22 13:17:58.227,131.35308999999998,3
4573,4573,2021-01-22 13:18:28.227,118.61644,3
4583,4583,2021-01-22 13:18:58.227,109.89056399999998,3
4593,4593,2021-01-22 13:19:28.227,100.50438,3
4603,4603,2021-01-22 13:19:58.227,87.32619,3
4613,4613,2021-01-22 13:20:28.227,93.45512,3
4623,4623,2021-01-22 13:20:58.227,89.69944,3
4633,4633,2021-01-22 13:21:28.227,91.87808000000001,3
4643,4643,2021-01-22 13:21:58.227,89.759056,3
4653,4653,2021-01-22 13:22:28.227,90.52752,3
4663,4663,2021-01-22 13:22:58.227,86.44143000000001,3
4673,4673,2021-01-22 13:23:28.227,82.38573000000001,3
4683,4683,2021-01-22 13:23:58.227,74.29445,3
4693,4693,2021-01-22 13:24:28.227,73.1134,3
4703,4703,2021-01-22 13:24:58.227,73.433846,3
4713,4713,2021-01-22 13:25:28.227,70.69793,3
4723,4723,2021-01-22 13:25:58.227,68.154945,3
4733,4733,2021-01-22 13:26:28.227,64.14209,3
4743,4743,2021-01-22 13:26:58.227,59.04614,3
4753,4753,2021-01-22 13:27:28.227,56.434074,3
4763,4763,2021-01-22 13:27:58.227,53.676933,3
4773,4773,2021-01-22 13:28:28.227,53.367169999999994,3
4783,4783,2021-01-22 13:28:58.227,57.260635,3
4793,4793,2021-01-22 13:29:28.227,56.310390000000005,3
4803,4803,2021-01-22 13:29:58.227,54.1599,3
4813,4813,2021-01-22 13:30:28.227,54.98325,3
4823,4823,2021-01-22 13:30:58.227,52.00475,3
4833,4833,2021-01-22 13:31:28.227,50.10368,3
4843,4843,2021-01-22 13:31:58.227,50.65085,3
4853,4853,2021-01-22 13:32:28.227,47.629456,3
4863,4863,2021-01-22 13:32:58.227,46.51231,3
4873,4873,2021-01-22 13:33:28.227,46.285923,3
4883,4883,2021-01-22 13:33:58.227,44.345634000000004,3
4893,4893,2021-01-22 13:34:28.227,44.10642,3
4903,4903,2021-01-22 13:34:58.227,41.923846999999995,3
4913,4913,2021-01-22 13:35:28.227,40.840252,3
4923,4923,2021-01-22 13:35:58.227,39.306903999999996,3
4933,4933,2021-01-22 13:36:28.227,38.101974,3
4943,4943,2021-01-22 13:36:58.227,37.832386,3
4953,4953,2021-01-22 13:37:28.227,36.746464,3
4963,4963,2021-01-22 13:37:58.227,36.123207,3
4973,4973,2021-01-22 13:38:28.227,35.197067,3
4983,4983,2021-01-22 13:38:58.227,33.930496000000005,3
4993,4993,2021-01-22 13:39:28.227,33.786823,3
5003,5003,2021-01-22 13:39:58.227,32.702007,3
5013,5013,2021-01-22 13:40:28.227,32.145396999999996,3
5023,5023,2021-01-22 13:40:58.227,31.927242,3
5033,5033,2021-01-22 13:41:28.227,31.71518,3
5043,5043,2021-01-22 13:41:58.227,31.596783000000002,3
5053,5053,2021-01-22 13:42:28.227,30.142735,3
5063,5063,2021-01-22 13:42:58.227,29.70457,3
5073,5073,2021-01-22 13:43:28.227,29.34652,3
5083,5083,2021-01-22 13:43:58.227,28.632265000000004,3
5093,5093,2021-01-22 13:44:28.227,28.679398,3
5103,5103,2021-01-22 13:44:58.227,28.36175,3
5113,5113,2021-01-22 13:45:28.227,27.384306,3
5123,5123,2021-01-22 13:45:58.227,26.899227000000003,3
5133,5133,2021-01-22 13:46:28.227,26.530842,3
5143,5143,2021-01-22 13:46:58.227,26.190495000000002,3
5153,5153,2021-01-22 13:47:28.227,25.492842,3
5163,5163,2021-01-22 13:47:58.227,25.473646,3
5173,5173,2021-01-22 13:48:28.227,24.465357,3
5183,5183,2021-01-22 13:48:58.227,23.860879999999998,3
5193,5193,2021-01-22 13:49:28.227,23.128546,3
5203,5203,2021-01-22 13:49:58.227,22.835299,3
5213,5213,2021-01-22 13:50:28.227,22.06735,3
5223,5223,2021-01-22 13:50:58.227,21.755083,3
5233,5233,2021-01-22 13:51:28.227,21.4524,3
5243,5243,2021-01-22 13:51:58.227,21.437683,3
5253,5253,2021-01-22 13:52:28.227,20.888823000000002,3
5263,5263,2021-01-22 13:52:58.227,20.783358,3
5273,5273,2021-01-22 13:53:28.227,20.447748,3
5283,5283,2021-01-22 13:53:58.227,20.585402,3
5293,5293,2021-01-22 13:54:28.227,20.582092000000003,3
5303,5303,2021-01-22 13:54:58.227,20.056542999999998,3
5313,5313,2021-01-22 13:55:28.227,19.686922,3
5323,5323,2021-01-22 13:55:58.227,19.750608,3
5333,5333,2021-01-22 13:56:28.227,19.032385,3
5343,5343,2021-01-22 13:56:58.227,18.744003,3
5353,5353,2021-01-22 13:57:28.227,18.554102,3
5363,5363,2021-01-22 13:57:58.227,18.681810000000002,3
5373,5373,2021-01-22 13:58:28.227,18.573538,3
5383,5383,2021-01-22 13:58:58.227,18.76655,3
5393,5393,2021-01-22 13:59:28.227,18.263056,3
5403,5403,2021-01-22 13:59:58.227,17.97211,3
5413,5413,2021-01-22 14:00:28.227,17.232111,3
5423,5423,2021-01-22 14:00:58.227,16.973356,3
5433,5433,2021-01-22 14:01:28.227,16.731493,3
5443,5443,2021-01-22 14:01:58.227,16.081081,3
5453,5453,2021-01-22 14:02:28.227,15.787237,3
5463,5463,2021-01-22 14:02:58.227,15.751194,3
5473,5473,2021-01-22 14:03:28.227,15.676829999999999,3
5483,5483,2021-01-22 14:03:58.227,15.695915,3
5493,5493,2021-01-22 14:04:28.227,15.16501,3
5503,5503,2021-01-22 14:04:58.227,14.941498999999999,3
5513,5513,2021-01-22 14:05:28.227,14.706001,3
5523,5523,2021-01-22 14:05:58.227,14.681979,3
5533,5533,2021-01-22 14:06:28.227,14.670568,3
5543,5543,2021-01-22 14:06:58.227,14.270514000000002,3
5553,5553,2021-01-22 14:07:28.227,13.960958999999999,3
5563,5563,2021-01-22 14:07:58.227,13.804046,3
5573,5573,2021-01-22 14:08:28.227,13.741261499999998,3
5583,5583,2021-01-22 14:08:58.227,13.740283999999999,3
5593,5593,2021-01-22 14:09:28.227,13.675486,3
5603,5603,2021-01-22 14:09:58.227,13.723464000000002,3
5613,5613,2021-01-22 14:10:28.227,13.828508,3
5623,5623,2021-01-22 14:10:58.227,13.895682999999998,3
5633,5633,2021-01-22 14:11:28.227,13.417359,3
5643,5643,2021-01-22 14:11:58.227,12.924642,3
5653,5653,2021-01-22 14:12:28.227,12.030114,3
5663,5663,2021-01-22 14:12:58.227,11.84181,3
5673,5673,2021-01-22 14:13:28.227,11.670846000000001,3
5683,5683,2021-01-22 14:13:58.227,11.729776,3
5693,5693,2021-01-22 14:14:28.227,11.670112,3
5703,5703,2021-01-22 14:14:58.227,11.741904,3
5713,5713,2021-01-22 14:15:28.227,11.72531,3
5723,5723,2021-01-22 14:15:58.227,11.789485,3
5733,5733,2021-01-22 14:16:28.227,11.79866,3
5743,5743,2021-01-22 14:16:58.227,11.89315,3
5753,5753,2021-01-22 14:17:28.227,11.231475999999999,3
5763,5763,2021-01-22 14:17:58.227,11.021878,3
5773,5773,2021-01-22 14:18:28.227,10.868269,3
5783,5783,2021-01-22 14:18:58.227,10.872726,3
5793,5793,2021-01-22 14:19:28.227,10.683065,3
5803,5803,2021-01-22 14:19:58.227,10.6771555,3
5813,5813,2021-01-22 14:20:28.227,10.689613,3
5823,5823,2021-01-22 14:20:58.227,10.790625,3
5833,5833,2021-01-22 14:21:28.227,10.860657000000002,3
5843,5843,2021-01-22 14:21:58.227,11.004764999999999,3
5853,5853,2021-01-22 14:22:28.227,10.304177000000001,3
5863,5863,2021-01-22 14:22:58.227,10.097714999999999,3
5873,5873,2021-01-22 14:23:28.227,9.940777,3
5883,5883,2021-01-22 14:23:58.227,9.801535000000001,3
5893,5893,2021-01-22 14:24:28.227,9.776162,3
5903,5903,2021-01-22 14:24:58.227,9.136034,3
5913,5913,2021-01-22 14:25:28.227,8.786575,3
5923,5923,2021-01-22 14:25:58.227,8.836099,3
5933,5933,2021-01-22 14:26:28.227,8.833831,3
5943,5943,2021-01-22 14:26:58.227,8.827894,3
5953,5953,2021-01-22 14:27:28.227,8.737622,3
5963,5963,2021-01-22 14:27:58.227,8.789236,3
5973,5973,2021-01-22 14:28:28.227,8.780461,3
5983,5983,2021-01-22 14:28:58.227,8.779950999999999,3
5993,5993,2021-01-22 14:29:28.227,8.948101,3
6003,6003,2021-01-22 14:29:58.227,9.009439,3
6013,6013,2021-01-22 14:30:28.227,8.82568,3
6023,6023,2021-01-22 14:30:58.227,8.833299,3
6033,6033,2021-01-22 14:31:28.227,8.85114,3
6043,6043,2021-01-22 14:31:58.227,8.823056,3
6053,6053,2021-01-22 14:32:28.227,8.011066,3
6063,6063,2021-01-22 14:32:58.227,7.6439457,3
6073,6073,2021-01-22 14:33:28.227,7.6244307000000004,3
6083,6083,2021-01-22 14:33:58.227,7.685131,3
6093,6093,2021-01-22 14:34:28.227,7.727821400000001,3
6103,6103,2021-01-22 14:34:58.227,7.6822740000000005,3
6113,6113,2021-01-22 14:35:28.227,7.786834,3
6123,6123,2021-01-22 14:35:58.227,7.777067,3
6133,6133,2021-01-22 14:36:28.227,7.9054966,3
6143,6143,2021-01-22 14:36:58.227,7.4395485,3
6153,6153,2021-01-22 14:37:28.227,7.00737,3
6163,6163,2021-01-22 14:37:58.227,6.8556895,3
6173,6173,2021-01-22 14:38:28.227,6.8146762999999995,3
6183,6183,2021-01-22 14:38:58.227,6.7714057,3
6193,6193,2021-01-22 14:39:28.227,6.836253599999999,3
6203,6203,2021-01-22 14:39:58.227,6.830496000000001,3
6213,6213,2021-01-22 14:40:28.227,6.841974700000001,3
6223,6223,2021-01-22 14:40:58.227,6.883488000000001,3
6233,6233,2021-01-22 14:41:28.227,6.93301,3
6243,6243,2021-01-22 14:41:58.227,6.956850500000001,3
6253,6253,2021-01-22 14:42:28.227,6.933742,3
6263,6263,2021-01-22 14:42:58.227,6.3772497,3
6273,6273,2021-01-22 14:43:28.227,6.012014,3
6283,6283,2021-01-22 14:43:58.227,5.7991204000000005,3
6293,6293,2021-01-22 14:44:28.227,5.8886123,3
6303,6303,2021-01-22 14:44:58.227,5.6996082999999995,3
6313,6313,2021-01-22 14:45:28.227,5.74759,3
6323,6323,2021-01-22 14:45:58.227,5.791549,3
6333,6333,2021-01-22 14:46:28.227,5.833318,3
6343,6343,2021-01-22 14:46:58.227,5.881309,3
6353,6353,2021-01-22 14:47:28.227,5.944535,3
6363,6363,2021-01-22 14:47:58.227,5.924466000000001,3
6373,6373,2021-01-22 14:48:28.227,5.984802200000001,3
6383,6383,2021-01-22 14:48:58.227,5.954701,3
6393,6393,2021-01-22 14:49:28.227,5.907844,3
6403,6403,2021-01-22 14:49:58.227,5.8637996,3
6413,6413,2021-01-22 14:50:28.227,5.8197355,3
6423,6423,2021-01-22 14:50:58.227,5.741371,3
6433,6433,2021-01-22 14:51:28.227,5.020107,3
6443,6443,2021-01-22 14:51:58.227,4.6962495,3
6453,6453,2021-01-22 14:52:28.227,4.67615,3
6463,6463,2021-01-22 14:52:58.227,4.763850700000001,3
6473,6473,2021-01-22 14:53:28.227,4.844905000000001,3
6483,6483,2021-01-22 14:53:58.227,4.8762746,3
6493,6493,2021-01-22 14:54:28.227,4.8632193,3
6503,6503,2021-01-22 14:54:58.227,4.8564495999999995,3
6513,6513,2021-01-22 14:55:28.227,4.805733,3
6523,6523,2021-01-22 14:55:58.227,4.777881,3
6533,6533,2021-01-22 14:56:28.227,4.780012999999999,3
6543,6543,2021-01-22 14:56:58.227,4.853515,3
6553,6553,2021-01-22 14:57:28.227,4.885514,3
6563,6563,2021-01-22 14:57:58.227,4.887782,3
6573,6573,2021-01-22 14:58:28.227,4.912016400000001,3
6583,6583,2021-01-22 14:58:58.227,4.89634,3
6593,6593,2021-01-22 14:59:28.227,4.7911477,3
6603,6603,2021-01-22 14:59:58.227,4.808138400000001,3
6613,6613,2021-01-22 15:00:28.227,4.784315,3
6623,6623,2021-01-22 15:00:58.227,4.811281,3
6633,6633,2021-01-22 15:01:28.227,4.027632700000001,3
6643,6643,2021-01-22 15:01:58.227,3.8284488,3
6653,6653,2021-01-22 15:02:28.227,3.8019422999999994,3
6663,6663,2021-01-22 15:02:58.227,3.8353004,3
6673,6673,2021-01-22 15:03:28.227,3.8071122,3
6683,6683,2021-01-22 15:03:58.227,3.7711099999999997,3
6693,6693,2021-01-22 15:04:28.227,3.7437077000000003,3
6703,6703,2021-01-22 15:04:58.227,3.7092428,3
6713,6713,2021-01-22 15:05:28.227,3.7868972000000003,3
6723,6723,2021-01-22 15:05:58.227,3.8477419999999998,3
6733,6733,2021-01-22 15:06:28.227,3.8480392,3
6743,6743,2021-01-22 15:06:58.227,3.883944,3
6753,6753,2021-01-22 15:07:28.227,3.8873572,3
6763,6763,2021-01-22 15:07:58.227,3.8895845000000002,3
6773,6773,2021-01-22 15:08:28.227,3.9133983,3
6783,6783,2021-01-22 15:08:58.227,3.897993,3
6793,6793,2021-01-22 15:09:28.227,3.7948122000000004,3
6803,6803,2021-01-22 15:09:58.227,3.8114547999999995,3
6813,6813,2021-01-22 15:10:28.227,3.7881222,3
6823,6823,2021-01-22 15:10:58.227,3.8145347000000003,3
6833,6833,2021-01-22 15:11:28.227,3.7290597,3
6843,6843,2021-01-22 15:11:58.227,3.7702117,3
6853,6853,2021-01-22 15:12:28.227,3.7263193,3
6863,6863,2021-01-22 15:12:58.227,3.7178092000000005,3
6873,6873,2021-01-22 15:13:28.227,3.7466455,3
6883,6883,2021-01-22 15:13:58.227,3.6736894,3
6893,6893,2021-01-22 15:14:28.227,3.6853662000000003,3
6903,6903,2021-01-22 15:14:58.227,3.0033717,3
6913,6913,2021-01-22 15:15:28.227,2.7732103,3
6923,6923,2021-01-22 15:15:58.227,2.8672404,3
6933,6933,2021-01-22 15:16:28.227,2.894484,3
6943,6943,2021-01-22 15:16:58.227,2.8627667000000003,3
6953,6953,2021-01-22 15:17:28.227,2.8760083,3
6963,6963,2021-01-22 15:17:58.227,2.852401,3
6973,6973,2021-01-22 15:18:28.227,2.8284185,3
6983,6983,2021-01-22 15:18:58.227,2.8167869999999997,3
6993,6993,2021-01-22 15:19:28.227,2.8514345000000003,3
7003,7003,2021-01-22 15:19:58.227,2.8517213,3
7013,7013,2021-01-22 15:20:28.227,2.8866649,3
7023,7023,2021-01-22 15:20:58.227,2.8899894,3
7033,7033,2021-01-22 15:21:28.227,2.8921597,3
7043,7043,2021-01-22 15:21:58.227,2.9153717,3
7053,7053,2021-01-22 15:22:28.227,2.9003506000000003,3
7063,7063,2021-01-22 15:22:58.227,2.800027,3
7073,7073,2021-01-22 15:23:28.227,2.816177,3
7083,7083,2021-01-22 15:23:58.227,2.7935386,3
7093,7093,2021-01-22 15:24:28.227,2.8191669999999998,3
7103,7103,2021-01-22 15:24:58.227,2.736352,3
7113,7113,2021-01-22 15:25:28.227,2.776186,3
7123,7123,2021-01-22 15:25:58.227,2.7337029999999998,3
7133,7133,2021-01-22 15:26:28.227,2.725475,3
7143,7143,2021-01-22 15:26:58.227,2.1419866,3
7153,7153,2021-01-22 15:27:28.227,1.8755074,3
7163,7163,2021-01-22 15:27:58.227,1.7311583,3
7173,7173,2021-01-22 15:28:28.227,1.7759936,3
7183,7183,2021-01-22 15:28:58.227,1.788013,3
7193,7193,2021-01-22 15:29:28.227,1.8806526999999997,3
7203,7203,2021-01-22 15:29:58.227,1.8580523000000002,3
7213,7213,2021-01-22 15:30:28.227,1.8351355,3
7223,7223,2021-01-22 15:30:58.227,1.8240347,3
7233,7233,2021-01-22 15:31:28.227,1.8571281000000002,3
7243,7243,2021-01-22 15:31:58.227,1.8574026000000001,3
7253,7253,2021-01-22 15:32:28.227,1.8908663,3
7263,7263,2021-01-22 15:32:58.227,1.8940546999999999,3
7273,7273,2021-01-22 15:33:28.227,1.8961363000000002,3
7283,7283,2021-01-22 15:33:58.227,1.9184225,3
7293,7293,2021-01-22 15:34:28.227,1.9039970000000002,3
7303,7303,2021-01-22 15:34:58.227,1.8080580000000002,3
7313,7313,2021-01-22 15:35:28.227,1.8234531999999999,3
7323,7323,2021-01-22 15:35:58.227,1.8018787,3
7333,7333,2021-01-22 15:36:28.227,1.8263054,3
7343,7343,2021-01-22 15:36:58.227,1.7475421000000002,3
7353,7353,2021-01-22 15:37:28.227,1.7853622,3
7363,7363,2021-01-22 15:37:58.227,1.7450298999999998,3
7373,7373,2021-01-22 15:38:28.227,1.7372341,3
7383,7383,2021-01-22 15:38:58.227,1.7636813999999998,3
7393,7393,2021-01-22 15:39:28.227,1.6969538,3
7403,7403,2021-01-22 15:39:58.227,1.7075933999999997,3
7413,7413,2021-01-22 15:40:28.227,1.7575988999999999,3
7423,7423,2021-01-22 15:40:58.227,1.8386455000000002,3
7433,7433,2021-01-22 15:41:28.227,1.2186902,3
7443,7443,2021-01-22 15:41:58.227,0.9086069999999999,3
7453,7453,2021-01-22 15:42:28.227,0.8810226999999999,3
7463,7463,2021-01-22 15:42:58.227,0.90517044,3
7473,7473,2021-01-22 15:43:28.227,0.8770708,3
7483,7483,2021-01-22 15:43:58.227,0.8887794,3
7493,7493,2021-01-22 15:44:28.227,0.86792755,3
7503,7503,2021-01-22 15:44:58.227,0.8468523000000001,3
7513,7513,2021-01-22 15:45:28.227,0.8366687,3
7523,7523,2021-01-22 15:45:58.227,0.86707616,3
7533,7533,2021-01-22 15:46:28.227,0.86732936,3
7543,7543,2021-01-22 15:46:58.227,0.89822555,3
7553,7553,2021-01-22 15:47:28.227,0.9011769000000001,3
7563,7563,2021-01-22 15:47:58.227,0.9031044,3
7573,7573,2021-01-22 15:48:28.227,0.9237778,3
7583,7583,2021-01-22 15:48:58.227,0.91038895,3
7593,7593,2021-01-22 15:49:28.227,0.82204103,3
7603,7603,2021-01-22 15:49:58.227,0.83613575,3
7613,7613,2021-01-22 15:50:28.227,0.8163924,3
7623,7623,2021-01-22 15:50:58.227,0.83875096,3
7633,7633,2021-01-22 15:51:28.227,0.7669436,3
