,Unnamed: 0,time,preds,step
64158,64158,2020-11-30 12:34:11.098,872.1493,8
64168,64168,2020-11-30 12:34:41.098,871.9129,8
64178,64178,2020-11-30 12:35:11.098,871.06396,8
64188,64188,2020-11-30 12:35:41.098,870.2976699999999,8
64198,64198,2020-11-30 12:36:11.098,869.8357,8
64208,64208,2020-11-30 12:36:41.098,868.8109,8
64218,64218,2020-11-30 12:37:11.098,868.88635,8
64228,64228,2020-11-30 12:37:41.098,868.0167,8
64238,64238,2020-11-30 12:38:11.098,867.1046,8
64248,64248,2020-11-30 12:38:41.098,867.03534,8
64258,64258,2020-11-30 12:39:11.098,866.1307400000001,8
64268,64268,2020-11-30 12:39:41.098,865.3126,8
64278,64278,2020-11-30 12:40:11.098,865.0337,8
64288,64288,2020-11-30 12:40:41.098,864.26385,8
64298,64298,2020-11-30 12:41:11.098,862.79803,8
64308,64308,2020-11-30 12:41:41.098,861.9228,8
64318,64318,2020-11-30 12:42:11.098,861.2309,8
64328,64328,2020-11-30 12:42:41.098,860.2326699999999,8
64338,64338,2020-11-30 12:43:11.098,859.79114,8
64348,64348,2020-11-30 12:43:41.098,859.41034,8
64358,64358,2020-11-30 12:44:11.098,858.2416,8
64368,64368,2020-11-30 12:44:41.098,857.5532,8
64378,64378,2020-11-30 12:45:11.098,856.96826,8
64388,64388,2020-11-30 12:45:41.098,856.0846,8
64398,64398,2020-11-30 12:46:11.098,855.7878,8
64408,64408,2020-11-30 12:46:41.098,854.83655,8
64418,64418,2020-11-30 12:47:11.098,854.00085,8
64428,64428,2020-11-30 12:47:41.098,853.44354,8
64438,64438,2020-11-30 12:48:11.098,852.4229,8
64448,64448,2020-11-30 12:48:41.098,851.7669999999999,8
64458,64458,2020-11-30 12:49:11.098,851.2434699999999,8
64468,64468,2020-11-30 12:49:41.098,850.4505,8
64478,64478,2020-11-30 12:50:11.098,850.2361,8
64488,64488,2020-11-30 12:50:41.098,849.3473,8
64498,64498,2020-11-30 12:51:11.098,848.5473599999999,8
64508,64508,2020-11-30 12:51:41.098,848.2198,8
64518,64518,2020-11-30 12:52:11.098,847.85284,8
64528,64528,2020-11-30 12:52:41.098,847.20575,8
64538,64538,2020-11-30 12:53:11.098,846.72064,8
64548,64548,2020-11-30 12:53:41.098,846.25726,8
64558,64558,2020-11-30 12:54:11.098,845.7143,8
64568,64568,2020-11-30 12:54:41.098,844.7349,8
64578,64578,2020-11-30 12:55:11.098,844.4599599999999,8
64588,64588,2020-11-30 12:55:41.098,844.1158,8
64598,64598,2020-11-30 12:56:11.098,843.4986,8
64608,64608,2020-11-30 12:56:41.098,842.6943,8
64618,64618,2020-11-30 12:57:11.098,842.16223,8
64628,64628,2020-11-30 12:57:41.098,841.569,8
64638,64638,2020-11-30 12:58:11.098,841.1479,8
64648,64648,2020-11-30 12:58:41.098,840.2955300000001,8
64658,64658,2020-11-30 12:59:11.098,839.6751,8
64668,64668,2020-11-30 12:59:41.098,839.1158,8
64678,64678,2020-11-30 13:00:11.098,838.4986,8
64688,64688,2020-11-30 13:00:41.098,837.69434,8
64698,64698,2020-11-30 13:01:11.098,837.16223,8
64708,64708,2020-11-30 13:01:41.098,836.569,8
64718,64718,2020-11-30 13:02:11.098,835.6487,8
64728,64728,2020-11-30 13:02:41.098,835.0393,8
64738,64738,2020-11-30 13:03:11.098,834.3411,8
64748,64748,2020-11-30 13:03:41.098,834.0474,8
64758,64758,2020-11-30 13:04:11.098,831.3425,8
64768,64768,2020-11-30 13:04:41.098,830.8216,8
64778,64778,2020-11-30 13:05:11.098,829.1968,8
64788,64788,2020-11-30 13:05:41.098,829.2811,8
64798,64798,2020-11-30 13:06:11.098,829.2745,8
64808,64808,2020-11-30 13:06:41.098,828.12085,8
64818,64818,2020-11-30 13:07:11.098,827.7981,8
64828,64828,2020-11-30 13:07:41.098,826.71185,8
64838,64838,2020-11-30 13:08:11.098,825.87555,8
64848,64848,2020-11-30 13:08:41.098,824.9216,8
64858,64858,2020-11-30 13:09:11.098,823.8468,8
64868,64868,2020-11-30 13:09:41.098,823.64557,8
64878,64878,2020-11-30 13:10:11.098,822.27954,8
64888,64888,2020-11-30 13:10:41.098,821.465,8
64898,64898,2020-11-30 13:11:11.098,820.9219,8
64908,64908,2020-11-30 13:11:41.098,819.8841,8
64918,64918,2020-11-30 13:12:11.098,819.14545,8
64928,64928,2020-11-30 13:12:41.098,818.73236,8
64938,64938,2020-11-30 13:13:11.098,818.05286,8
64948,64948,2020-11-30 13:13:41.098,817.2869999999999,8
64958,64958,2020-11-30 13:14:11.098,816.8091400000001,8
64968,64968,2020-11-30 13:14:41.098,816.3575400000001,8
64978,64978,2020-11-30 13:15:11.098,816.2511,8
64988,64988,2020-11-30 13:15:41.098,815.4985,8
64998,64998,2020-11-30 13:16:11.098,814.9221,8
65008,65008,2020-11-30 13:16:41.098,814.405,8
65018,65018,2020-11-30 13:17:11.098,813.357,8
65028,65028,2020-11-30 13:17:41.098,812.66315,8
65038,65038,2020-11-30 13:18:11.098,812.28375,8
65048,65048,2020-11-30 13:18:41.098,812.49854,8
65058,65058,2020-11-30 13:19:11.098,812.0145,8
65068,65068,2020-11-30 13:19:41.098,811.327,8
65078,65078,2020-11-30 13:20:11.098,810.5244,8
65088,65088,2020-11-30 13:20:41.098,809.92737,8
65098,65098,2020-11-30 13:21:11.098,809.4681,8
65108,65108,2020-11-30 13:21:41.098,808.6188400000001,8
65118,65118,2020-11-30 13:22:11.098,808.1256,8
65128,65128,2020-11-30 13:22:41.098,807.5699,8
65138,65138,2020-11-30 13:23:11.098,806.6314,8
65148,65148,2020-11-30 13:23:41.098,806.0825,8
65158,65158,2020-11-30 13:24:11.098,805.4150400000001,8
65168,65168,2020-11-30 13:24:41.098,805.0474,8
65178,65178,2020-11-30 13:25:11.098,804.3661,8
65188,65188,2020-11-30 13:25:41.098,801.182,8
65198,65198,2020-11-30 13:26:11.098,799.7158,8
65208,65208,2020-11-30 13:26:41.098,799.4438,8
65218,65218,2020-11-30 13:27:11.098,799.3886,8
65228,65228,2020-11-30 13:27:41.098,798.82336,8
65238,65238,2020-11-30 13:28:11.098,798.32465,8
65248,65248,2020-11-30 13:28:41.098,797.2841,8
65258,65258,2020-11-30 13:29:11.098,796.45776,8
65268,65268,2020-11-30 13:29:41.098,795.913,8
65278,65278,2020-11-30 13:30:11.098,794.54224,8
65288,65288,2020-11-30 13:30:41.098,793.79156,8
65298,65298,2020-11-30 13:31:11.098,792.5378,8
65308,65308,2020-11-30 13:31:41.098,791.30444,8
65318,65318,2020-11-30 13:32:11.098,790.84705,8
65328,65328,2020-11-30 13:32:41.098,789.5219,8
65338,65338,2020-11-30 13:33:11.098,788.6778,8
65348,65348,2020-11-30 13:33:41.098,788.16095,8
65358,65358,2020-11-30 13:34:11.098,787.443,8
65368,65368,2020-11-30 13:34:41.098,787.047,8
65378,65378,2020-11-30 13:35:11.098,786.34406,8
65388,65388,2020-11-30 13:35:41.098,785.71545,8
65398,65398,2020-11-30 13:36:11.098,785.5472,8
65408,65408,2020-11-30 13:36:41.098,785.31537,8
65418,65418,2020-11-30 13:37:11.098,784.6613,8
65428,65428,2020-11-30 13:37:41.098,784.21643,8
65438,65438,2020-11-30 13:38:11.098,783.3963,8
65448,65448,2020-11-30 13:38:41.098,782.6742,8
65458,65458,2020-11-30 13:39:11.098,781.3528,8
65468,65468,2020-11-30 13:39:41.098,781.6673,8
65478,65478,2020-11-30 13:40:11.098,782.1158,8
65488,65488,2020-11-30 13:40:41.098,781.49866,8
65498,65498,2020-11-30 13:41:11.098,780.6943,8
65508,65508,2020-11-30 13:41:41.098,780.16223,8
65518,65518,2020-11-30 13:42:11.098,779.569,8
65528,65528,2020-11-30 13:42:41.098,778.6486,8
65538,65538,2020-11-30 13:43:11.098,778.0393,8
65548,65548,2020-11-30 13:43:41.098,777.3411,8
65558,65558,2020-11-30 13:44:11.098,777.0475,8
65568,65568,2020-11-30 13:44:41.098,776.3660000000001,8
65578,65578,2020-11-30 13:45:11.098,775.57,8
65588,65588,2020-11-30 13:45:41.098,775.1211,8
65598,65598,2020-11-30 13:46:11.098,774.4880400000001,8
65608,65608,2020-11-30 13:46:41.098,770.27356,8
65618,65618,2020-11-30 13:47:11.098,769.35693,8
65628,65628,2020-11-30 13:47:41.098,769.17255,8
65638,65638,2020-11-30 13:48:11.098,768.8404,8
65648,65648,2020-11-30 13:48:41.098,768.0469,8
65658,65658,2020-11-30 13:49:11.098,767.81116,8
65668,65668,2020-11-30 13:49:41.098,766.5057400000001,8
65678,65678,2020-11-30 13:50:11.098,766.2772,8
65688,65688,2020-11-30 13:50:41.098,765.2123,8
65698,65698,2020-11-30 13:51:11.098,763.9468,8
65708,65708,2020-11-30 13:51:41.098,762.7033,8
65718,65718,2020-11-30 13:52:11.098,761.31476,8
65728,65728,2020-11-30 13:52:41.098,759.8912,8
65738,65738,2020-11-30 13:53:11.098,759.2377299999999,8
65748,65748,2020-11-30 13:53:41.098,758.06775,8
65758,65758,2020-11-30 13:54:11.098,757.6663,8
65768,65768,2020-11-30 13:54:41.098,756.7747,8
65778,65778,2020-11-30 13:55:11.098,756.0041,8
65788,65788,2020-11-30 13:55:41.098,755.71,8
65798,65798,2020-11-30 13:56:11.098,755.062,8
65808,65808,2020-11-30 13:56:41.098,754.5199,8
65818,65818,2020-11-30 13:57:11.098,754.5028,8
65828,65828,2020-11-30 13:57:41.098,754.2179,8
65838,65838,2020-11-30 13:58:11.098,753.3239,8
65848,65848,2020-11-30 13:58:41.098,752.6443,8
65858,65858,2020-11-30 13:59:11.098,751.9359,8
65868,65868,2020-11-30 13:59:41.098,750.9604,8
65878,65878,2020-11-30 14:00:11.098,749.65594,8
65888,65888,2020-11-30 14:00:41.098,750.0338,8
65898,65898,2020-11-30 14:01:11.098,751.12115,8
65908,65908,2020-11-30 14:01:41.098,750.4881,8
65918,65918,2020-11-30 14:02:11.098,749.5978,8
65928,65928,2020-11-30 14:02:41.098,749.18066,8
65938,65938,2020-11-30 14:03:11.098,748.49854,8
65948,65948,2020-11-30 14:03:41.098,748.0144700000001,8
65958,65958,2020-11-30 14:04:11.098,747.327,8
65968,65968,2020-11-30 14:04:41.098,746.5244,8
65978,65978,2020-11-30 14:05:11.098,745.9274,8
65988,65988,2020-11-30 14:05:41.098,745.4680000000001,8
65998,65998,2020-11-30 14:06:11.098,744.6188400000001,8
66008,66008,2020-11-30 14:06:41.098,744.1256,8
66018,66018,2020-11-30 14:07:11.098,739.5606,8
66028,66028,2020-11-30 14:07:41.098,738.60724,8
66038,66038,2020-11-30 14:08:11.098,738.0565,8
66048,66048,2020-11-30 14:08:41.098,737.9915,8
66058,66058,2020-11-30 14:09:11.098,737.067,8
66068,66068,2020-11-30 14:09:41.098,736.1224,8
66078,66078,2020-11-30 14:10:11.098,735.3449,8
66088,66088,2020-11-30 14:10:41.098,734.6571700000001,8
66098,66098,2020-11-30 14:11:11.098,733.6237,8
66108,66108,2020-11-30 14:11:41.098,732.4186,8
66118,66118,2020-11-30 14:12:11.098,730.8061,8
66128,66128,2020-11-30 14:12:41.098,729.5222,8
66138,66138,2020-11-30 14:13:11.098,727.93317,8
66148,66148,2020-11-30 14:13:41.098,726.98395,8
66158,66158,2020-11-30 14:14:11.098,725.5189999999999,8
66168,66168,2020-11-30 14:14:41.098,724.8926,8
66178,66178,2020-11-30 14:15:11.098,724.2391,8
66188,66188,2020-11-30 14:15:41.098,723.7339,8
66198,66198,2020-11-30 14:16:11.098,723.1111,8
66208,66208,2020-11-30 14:16:41.098,722.5385,8
66218,66218,2020-11-30 14:17:11.098,722.2515,8
66228,66228,2020-11-30 14:17:41.098,721.7085599999999,8
66238,66238,2020-11-30 14:18:11.098,721.5182,8
66248,66248,2020-11-30 14:18:41.098,721.1156,8
66258,66258,2020-11-30 14:19:11.098,720.30804,8
66268,66268,2020-11-30 14:19:41.098,719.1444,8
66278,66278,2020-11-30 14:20:11.098,718.3067599999999,8
66288,66288,2020-11-30 14:20:41.098,717.4667400000001,8
66298,66298,2020-11-30 14:21:11.098,716.9749,8
66308,66308,2020-11-30 14:21:41.098,719.0208,8
66318,66318,2020-11-30 14:22:11.098,718.2096,8
66328,66328,2020-11-30 14:22:41.098,717.3929,8
66338,66338,2020-11-30 14:23:11.098,716.9795,8
66348,66348,2020-11-30 14:23:41.098,716.1494,8
66358,66358,2020-11-30 14:24:11.098,715.33154,8
66368,66368,2020-11-30 14:24:41.098,714.8901,8
66378,66378,2020-11-30 14:25:11.098,714.06396,8
66388,66388,2020-11-30 14:25:41.098,707.937,8
66398,66398,2020-11-30 14:26:11.098,707.32574,8
66408,66408,2020-11-30 14:26:41.098,707.0596,8
66418,66418,2020-11-30 14:27:11.098,706.65283,8
66428,66428,2020-11-30 14:27:41.098,705.99805,8
66438,66438,2020-11-30 14:28:11.098,705.3937,8
66448,66448,2020-11-30 14:28:41.098,704.1329,8
66458,66458,2020-11-30 14:29:11.098,703.9392,8
66468,66468,2020-11-30 14:29:41.098,702.877,8
66478,66478,2020-11-30 14:30:11.098,701.3408,8
66488,66488,2020-11-30 14:30:41.098,699.6155,8
66498,66498,2020-11-30 14:31:11.098,698.6091,8
66508,66508,2020-11-30 14:31:41.098,696.9085,8
66518,66518,2020-11-30 14:32:11.098,696.3164,8
66528,66528,2020-11-30 14:32:41.098,695.112,8
66538,66538,2020-11-30 14:33:11.098,694.97614,8
66548,66548,2020-11-30 14:33:41.098,694.1379400000001,8
66558,66558,2020-11-30 14:34:11.098,693.1095,8
66568,66568,2020-11-30 14:34:41.098,692.7512,8
66578,66578,2020-11-30 14:35:11.098,692.3775,8
66588,66588,2020-11-30 14:35:41.098,691.68384,8
66598,66598,2020-11-30 14:36:11.098,691.4638,8
66608,66608,2020-11-30 14:36:41.098,691.4443,8
66618,66618,2020-11-30 14:37:11.098,690.4069,8
66628,66628,2020-11-30 14:37:41.098,689.56616,8
66638,66638,2020-11-30 14:38:11.098,688.7663,8
66648,66648,2020-11-30 14:38:41.098,687.4607,8
66658,66658,2020-11-30 14:39:11.098,686.16754,8
66668,66668,2020-11-30 14:39:41.098,686.8329,8
66678,66678,2020-11-30 14:40:11.098,689.12115,8
66688,66688,2020-11-30 14:40:41.098,688.4880400000001,8
66698,66698,2020-11-30 14:41:11.098,687.5977,8
66708,66708,2020-11-30 14:41:41.098,687.18066,8
66718,66718,2020-11-30 14:42:11.098,686.49854,8
66728,66728,2020-11-30 14:42:41.098,686.0145,8
66738,66738,2020-11-30 14:43:11.098,685.327,8
66748,66748,2020-11-30 14:43:41.098,684.5244,8
66758,66758,2020-11-30 14:44:11.098,680.2562,8
66768,66768,2020-11-30 14:44:41.098,677.67633,8
66778,66778,2020-11-30 14:45:11.098,677.27496,8
66788,66788,2020-11-30 14:45:41.098,676.3386,8
66798,66798,2020-11-30 14:46:11.098,675.8612,8
66808,66808,2020-11-30 14:46:41.098,675.0519,8
66818,66818,2020-11-30 14:47:11.098,673.72253,8
66828,66828,2020-11-30 14:47:41.098,673.2724599999999,8
66838,66838,2020-11-30 14:48:11.098,672.3969,8
66848,66848,2020-11-30 14:48:41.098,671.2710000000001,8
66858,66858,2020-11-30 14:49:11.098,669.38055,8
66868,66868,2020-11-30 14:49:41.098,667.9235,8
66878,66878,2020-11-30 14:50:11.098,666.8436,8
66888,66888,2020-11-30 14:50:41.098,665.6982,8
66898,66898,2020-11-30 14:51:11.098,664.4783,8
66908,66908,2020-11-30 14:51:41.098,664.0272,8
66918,66918,2020-11-30 14:52:11.098,663.23596,8
66928,66928,2020-11-30 14:52:41.098,661.9528,8
66938,66938,2020-11-30 14:53:11.098,661.4372599999999,8
66948,66948,2020-11-30 14:53:41.098,660.8958,8
66958,66958,2020-11-30 14:54:11.098,660.9318,8
66968,66968,2020-11-30 14:54:41.098,660.19965,8
66978,66978,2020-11-30 14:55:11.098,659.9082,8
66988,66988,2020-11-30 14:55:41.098,659.3998,8
66998,66998,2020-11-30 14:56:11.098,658.2919999999999,8
67008,67008,2020-11-30 14:56:41.098,657.2821,8
67018,67018,2020-11-30 14:57:11.098,655.8513,8
67028,67028,2020-11-30 14:57:41.098,655.0119,8
67038,67038,2020-11-30 14:58:11.098,655.34656,8
67048,67048,2020-11-30 14:58:41.098,657.38904,8
67058,67058,2020-11-30 14:59:11.098,657.64813,8
67068,67068,2020-11-30 14:59:41.098,657.1158,8
67078,67078,2020-11-30 15:00:11.098,656.4986,8
67088,67088,2020-11-30 15:00:41.098,655.69434,8
67098,67098,2020-11-30 15:01:11.098,655.1623,8
67108,67108,2020-11-30 15:01:41.098,654.56903,8
67118,67118,2020-11-30 15:02:11.098,646.0027,8
67128,67128,2020-11-30 15:02:41.098,645.9002,8
67138,67138,2020-11-30 15:03:11.098,646.0105,8
67148,67148,2020-11-30 15:03:41.098,645.2864,8
67158,67158,2020-11-30 15:04:11.098,644.4547,8
67168,67168,2020-11-30 15:04:41.098,644.02814,8
67178,67178,2020-11-30 15:05:11.098,642.6914,8
67188,67188,2020-11-30 15:05:41.098,642.2907,8
67198,67198,2020-11-30 15:06:11.098,641.26483,8
67208,67208,2020-11-30 15:06:41.098,639.8519,8
67218,67218,2020-11-30 15:07:11.098,637.8741,8
67228,67228,2020-11-30 15:07:41.098,636.5538,8
67238,67238,2020-11-30 15:08:11.098,635.4693599999999,8
67248,67248,2020-11-30 15:08:41.098,634.469,8
67258,67258,2020-11-30 15:09:11.098,633.5531,8
67268,67268,2020-11-30 15:09:41.098,632.8807,8
67278,67278,2020-11-30 15:10:11.098,631.97,8
67288,67288,2020-11-30 15:10:41.098,630.8508,8
67298,67298,2020-11-30 15:11:11.098,630.4268,8
67308,67308,2020-11-30 15:11:41.098,629.9737,8
67318,67318,2020-11-30 15:12:11.098,629.0421,8
67328,67328,2020-11-30 15:12:41.098,628.4693,8
67338,67338,2020-11-30 15:13:11.098,628.3581,8
67348,67348,2020-11-30 15:13:41.098,627.1103,8
67358,67358,2020-11-30 15:14:11.098,626.3475,8
67368,67368,2020-11-30 15:14:41.098,625.4361,8
67378,67378,2020-11-30 15:15:11.098,624.0459999999999,8
67388,67388,2020-11-30 15:15:41.098,622.83325,8
67398,67398,2020-11-30 15:16:11.098,623.7435,8
67408,67408,2020-11-30 15:16:41.098,626.92737,8
67418,67418,2020-11-30 15:17:11.098,626.4681,8
67428,67428,2020-11-30 15:17:41.098,625.6188400000001,8
67438,67438,2020-11-30 15:18:11.098,625.1256,8
67448,67448,2020-11-30 15:18:41.098,624.5699,8
67458,67458,2020-11-30 15:19:11.098,618.37244,8
67468,67468,2020-11-30 15:19:41.098,614.9394,8
67478,67478,2020-11-30 15:20:11.098,615.51715,8
67488,67488,2020-11-30 15:20:41.098,614.1215,8
67498,67498,2020-11-30 15:21:11.098,613.3955,8
67508,67508,2020-11-30 15:21:41.098,612.9723,8
67518,67518,2020-11-30 15:22:11.098,611.74963,8
67528,67528,2020-11-30 15:22:41.098,611.2262,8
67538,67538,2020-11-30 15:23:11.098,610.41003,8
67548,67548,2020-11-30 15:23:41.098,609.16974,8
67558,67558,2020-11-30 15:24:11.098,607.2364,8
67568,67568,2020-11-30 15:24:41.098,605.2871,8
67578,67578,2020-11-30 15:25:11.098,604.5383,8
67588,67588,2020-11-30 15:25:41.098,603.4591,8
67598,67598,2020-11-30 15:26:11.098,602.6647,8
67608,67608,2020-11-30 15:26:41.098,602.5114,8
67618,67618,2020-11-30 15:27:11.098,601.3761,8
67628,67628,2020-11-30 15:27:41.098,600.259,8
67638,67638,2020-11-30 15:28:11.098,599.63257,8
67648,67648,2020-11-30 15:28:41.098,599.03204,8
67658,67658,2020-11-30 15:29:11.098,598.12866,8
67668,67668,2020-11-30 15:29:41.098,597.2933,8
67678,67678,2020-11-30 15:30:11.098,596.98364,8
67688,67688,2020-11-30 15:30:41.098,596.2335,8
67698,67698,2020-11-30 15:31:11.098,595.04486,8
67708,67708,2020-11-30 15:31:41.098,594.2167400000001,8
67718,67718,2020-11-30 15:32:11.098,592.8426,8
67728,67728,2020-11-30 15:32:41.098,591.2406599999999,8
67738,67738,2020-11-30 15:33:11.098,591.5708599999999,8
67748,67748,2020-11-30 15:33:41.098,595.281,8
67758,67758,2020-11-30 15:34:11.098,595.569,8
67768,67768,2020-11-30 15:34:41.098,594.6486,8
67778,67778,2020-11-30 15:35:11.098,594.0393,8
67788,67788,2020-11-30 15:35:41.098,583.77167,8
67798,67798,2020-11-30 15:36:11.098,583.7169,8
67808,67808,2020-11-30 15:36:41.098,583.7232700000001,8
67818,67818,2020-11-30 15:37:11.098,583.2341,8
67828,67828,2020-11-30 15:37:41.098,582.2897,8
67838,67838,2020-11-30 15:38:11.098,581.352,8
67848,67848,2020-11-30 15:38:41.098,580.2074,8
67858,67858,2020-11-30 15:39:11.098,579.7266,8
67868,67868,2020-11-30 15:39:41.098,578.5107,8
67878,67878,2020-11-30 15:40:11.098,577.2261,8
67888,67888,2020-11-30 15:40:41.098,575.0214,8
67898,67898,2020-11-30 15:41:11.098,573.89417,8
67908,67908,2020-11-30 15:41:41.098,573.35175,8
67918,67918,2020-11-30 15:42:11.098,572.3402,8
67928,67928,2020-11-30 15:42:41.098,571.4010599999999,8
67938,67938,2020-11-30 15:43:11.098,570.8142,8
67948,67948,2020-11-30 15:43:41.098,569.8206,8
67958,67958,2020-11-30 15:44:11.098,568.94965,8
67968,67968,2020-11-30 15:44:41.098,567.6741,8
67978,67978,2020-11-30 15:45:11.098,567.0669,8
67988,67988,2020-11-30 15:45:41.098,566.4647,8
67998,67998,2020-11-30 15:46:11.098,565.0921599999999,8
68008,68008,2020-11-30 15:46:41.098,564.5719,8
68018,68018,2020-11-30 15:47:11.098,563.5849599999999,8
68028,68028,2020-11-30 15:47:41.098,562.6798,8
68038,68038,2020-11-30 15:48:11.098,561.0447,8
68048,68048,2020-11-30 15:48:41.098,559.7198,8
68058,68058,2020-11-30 15:49:11.098,558.798,8
68068,68068,2020-11-30 15:49:41.098,558.9574,8
68078,68078,2020-11-30 15:50:11.098,563.8901400000001,8
68088,68088,2020-11-30 15:50:41.098,552.3939,8
68098,68098,2020-11-30 15:51:11.098,552.5376,8
68108,68108,2020-11-30 15:51:41.098,552.3208,8
68118,68118,2020-11-30 15:52:11.098,551.7936,8
68128,68128,2020-11-30 15:52:41.098,551.0063,8
68138,68138,2020-11-30 15:53:11.098,550.84717,8
68148,68148,2020-11-30 15:53:41.098,549.1773,8
68158,68158,2020-11-30 15:54:11.098,548.49915,8
68168,68168,2020-11-30 15:54:41.098,547.7055,8
68178,68178,2020-11-30 15:55:11.098,546.3176,8
68188,68188,2020-11-30 15:55:41.098,543.5504,8
68198,68198,2020-11-30 15:56:11.098,542.9038,8
68208,68208,2020-11-30 15:56:41.098,542.115,8
68218,68218,2020-11-30 15:57:11.098,540.93896,8
68228,68228,2020-11-30 15:57:41.098,540.3716,8
68238,68238,2020-11-30 15:58:11.098,539.4425,8
68248,68248,2020-11-30 15:58:41.098,538.9657599999999,8
68258,68258,2020-11-30 15:59:11.098,538.2687,8
68268,68268,2020-11-30 15:59:41.098,536.86194,8
68278,68278,2020-11-30 16:00:11.098,536.61523,8
68288,68288,2020-11-30 16:00:41.098,535.6922599999999,8
68298,68298,2020-11-30 16:01:11.098,533.8774400000001,8
68308,68308,2020-11-30 16:01:41.098,533.7821700000001,8
68318,68318,2020-11-30 16:02:11.098,532.3721,8
68328,68328,2020-11-30 16:02:41.098,531.9239,8
68338,68338,2020-11-30 16:03:11.098,530.4917,8
68348,68348,2020-11-30 16:03:41.098,528.7858,8
68358,68358,2020-11-30 16:04:11.098,528.07556,8
68368,68368,2020-11-30 16:04:41.098,528.7117,8
68378,68378,2020-11-30 16:05:11.098,521.84717,8
68388,68388,2020-11-30 16:05:41.098,522.1451,8
68398,68398,2020-11-30 16:06:11.098,522.53015,8
68408,68408,2020-11-30 16:06:41.098,521.71594,8
68418,68418,2020-11-30 16:07:11.098,520.8233,8
68428,68428,2020-11-30 16:07:41.098,520.1961,8
68438,68438,2020-11-30 16:08:11.098,518.58167,8
68448,68448,2020-11-30 16:08:41.098,518.05804,8
68458,68458,2020-11-30 16:09:11.098,517.0437599999999,8
68468,68468,2020-11-30 16:09:41.098,515.9463,8
68478,68478,2020-11-30 16:10:11.098,514.0553,8
68488,68488,2020-11-30 16:10:41.098,512.8091,8
68498,68498,2020-11-30 16:11:11.098,511.9274,8
68508,68508,2020-11-30 16:11:41.098,511.12557999999996,8
68518,68518,2020-11-30 16:12:11.098,510.34997999999996,8
68528,68528,2020-11-30 16:12:41.098,509.40387000000004,8
68538,68538,2020-11-30 16:13:11.098,508.94232,8
68548,68548,2020-11-30 16:13:41.098,507.7866,8
68558,68558,2020-11-30 16:14:11.098,507.10864000000004,8
68568,68568,2020-11-30 16:14:41.098,506.28134000000006,8
68578,68578,2020-11-30 16:15:11.098,505.24492999999995,8
68588,68588,2020-11-30 16:15:41.098,503.2554,8
68598,68598,2020-11-30 16:16:11.098,502.66214,8
68608,68608,2020-11-30 16:16:41.098,500.80026,8
68618,68618,2020-11-30 16:17:11.098,500.3344,8
68628,68628,2020-11-30 16:17:41.098,499.5872,8
68638,68638,2020-11-30 16:18:11.098,497.8193,8
68648,68648,2020-11-30 16:18:41.098,496.50943,8
68658,68658,2020-11-30 16:19:11.098,491.2887,8
68668,68668,2020-11-30 16:19:41.098,490.8425,8
68678,68678,2020-11-30 16:20:11.098,491.73812999999996,8
68688,68688,2020-11-30 16:20:41.098,490.7733,8
68698,68698,2020-11-30 16:21:11.098,490.00647000000004,8
68708,68708,2020-11-30 16:21:41.098,489.12524,8
68718,68718,2020-11-30 16:22:11.098,487.50897000000003,8
68728,68728,2020-11-30 16:22:41.098,487.0189,8
68738,68738,2020-11-30 16:23:11.098,486.1083,8
68748,68748,2020-11-30 16:23:41.098,484.80127000000005,8
68758,68758,2020-11-30 16:24:11.098,482.65442,8
68768,68768,2020-11-30 16:24:41.098,481.3301,8
68778,68778,2020-11-30 16:25:11.098,480.70325,8
68788,68788,2020-11-30 16:25:41.098,480.04544000000004,8
68798,68798,2020-11-30 16:26:11.098,479.17642,8
68808,68808,2020-11-30 16:26:41.098,478.5762,8
68818,68818,2020-11-30 16:27:11.098,478.3107,8
68828,68828,2020-11-30 16:27:41.098,476.97885,8
68838,68838,2020-11-30 16:28:11.098,475.4229,8
68848,68848,2020-11-30 16:28:41.098,474.89142000000004,8
68858,68858,2020-11-30 16:29:11.098,474.23547,8
68868,68868,2020-11-30 16:29:41.098,471.8685,8
68878,68878,2020-11-30 16:30:11.098,471.22556,8
68888,68888,2020-11-30 16:30:41.098,469.43448,8
68898,68898,2020-11-30 16:31:11.098,469.1477,8
68908,68908,2020-11-30 16:31:41.098,468.40625,8
68918,68918,2020-11-30 16:32:11.098,459.85867,8
68928,68928,2020-11-30 16:32:41.098,459.73703,8
68938,68938,2020-11-30 16:33:11.098,461.84854,8
68948,68948,2020-11-30 16:33:41.098,459.88718,8
68958,68958,2020-11-30 16:34:11.098,458.9824,8
68968,68968,2020-11-30 16:34:41.098,458.24185,8
68978,68978,2020-11-30 16:35:11.098,456.541,8
68988,68988,2020-11-30 16:35:41.098,456.54977,8
68998,68998,2020-11-30 16:36:11.098,455.19046,8
69008,69008,2020-11-30 16:36:41.098,454.16805999999997,8
69018,69018,2020-11-30 16:37:11.098,452.29265999999996,8
69028,69028,2020-11-30 16:37:41.098,451.12885,8
69038,69038,2020-11-30 16:38:11.098,450.2937,8
69048,69048,2020-11-30 16:38:41.098,449.36037999999996,8
69058,69058,2020-11-30 16:39:11.098,448.6592,8
69068,69068,2020-11-30 16:39:41.098,447.69095,8
69078,69078,2020-11-30 16:40:11.098,447.35272000000003,8
69088,69088,2020-11-30 16:40:41.098,445.9946,8
69098,69098,2020-11-30 16:41:11.098,445.20815999999996,8
69108,69108,2020-11-30 16:41:41.098,444.3686,8
69118,69118,2020-11-30 16:42:11.098,443.6294,8
69128,69128,2020-11-30 16:42:41.098,440.72775,8
69138,69138,2020-11-30 16:43:11.098,439.9216,8
69148,69148,2020-11-30 16:43:41.098,437.75253,8
69158,69158,2020-11-30 16:44:11.098,437.53287,8
69168,69168,2020-11-30 16:44:41.098,429.56,8
69178,69178,2020-11-30 16:45:11.098,429.38412,8
69188,69188,2020-11-30 16:45:41.098,429.14578,8
69198,69198,2020-11-30 16:46:11.098,429.32312,8
69208,69208,2020-11-30 16:46:41.098,427.74197000000004,8
69218,69218,2020-11-30 16:47:11.098,426.54617,8
69228,69228,2020-11-30 16:47:41.098,425.16385,8
69238,69238,2020-11-30 16:48:11.098,424.93652000000003,8
69248,69248,2020-11-30 16:48:41.098,423.51605,8
69258,69258,2020-11-30 16:49:11.098,422.37497,8
69268,69268,2020-11-30 16:49:41.098,420.33142000000004,8
69278,69278,2020-11-30 16:50:11.098,419.40634,8
69288,69288,2020-11-30 16:50:41.098,418.87198,8
69298,69298,2020-11-30 16:51:11.098,417.67355,8
69308,69308,2020-11-30 16:51:41.098,417.19736,8
69318,69318,2020-11-30 16:52:11.098,417.0948,8
69328,69328,2020-11-30 16:52:41.098,416.31534,8
69338,69338,2020-11-30 16:53:11.098,415.00513,8
69348,69348,2020-11-30 16:53:41.098,413.63034,8
69358,69358,2020-11-30 16:54:11.098,412.85083,8
69368,69368,2020-11-30 16:54:41.098,412.0752,8
69378,69378,2020-11-30 16:55:11.098,408.6987,8
69388,69388,2020-11-30 16:55:41.098,400.51862,8
69398,69398,2020-11-30 16:56:11.098,399.04607999999996,8
69408,69408,2020-11-30 16:56:41.098,398.91247999999996,8
69418,69418,2020-11-30 16:57:11.098,396.87015,8
69428,69428,2020-11-30 16:57:41.098,395.3304,8
69438,69438,2020-11-30 16:58:11.098,395.02936,8
69448,69448,2020-11-30 16:58:41.098,393.89386,8
69458,69458,2020-11-30 16:59:11.098,393.8382,8
69468,69468,2020-11-30 16:59:41.098,392.9163,8
69478,69478,2020-11-30 17:00:11.098,391.9104,8
69488,69488,2020-11-30 17:00:41.098,389.90808,8
69498,69498,2020-11-30 17:01:11.098,389.10535,8
69508,69508,2020-11-30 17:01:41.098,388.1484,8
69518,69518,2020-11-30 17:02:11.098,387.09866,8
69528,69528,2020-11-30 17:02:41.098,386.756,8
69538,69538,2020-11-30 17:03:11.098,386.37067,8
69548,69548,2020-11-30 17:03:41.098,386.02005,8
69558,69558,2020-11-30 17:04:11.098,384.2039,8
69568,69568,2020-11-30 17:04:41.098,383.42203,8
69578,69578,2020-11-30 17:05:11.098,382.7995,8
69588,69588,2020-11-30 17:05:41.098,382.33698,8
69598,69598,2020-11-30 17:06:11.098,378.37564,8
69608,69608,2020-11-30 17:06:41.098,370.2915,8
69618,69618,2020-11-30 17:07:11.098,367.90704,8
69628,69628,2020-11-30 17:07:41.098,367.38422,8
69638,69638,2020-11-30 17:08:11.098,365.81754,8
69648,69648,2020-11-30 17:08:41.098,364.1209,8
69658,69658,2020-11-30 17:09:11.098,363.47263,8
69668,69668,2020-11-30 17:09:41.098,362.63712000000004,8
69678,69678,2020-11-30 17:10:11.098,362.95175,8
69688,69688,2020-11-30 17:10:41.098,362.11905,8
69698,69698,2020-11-30 17:11:11.098,360.7725,8
69708,69708,2020-11-30 17:11:41.098,358.94516,8
69718,69718,2020-11-30 17:12:11.098,358.0713,8
69728,69728,2020-11-30 17:12:41.098,357.11832000000004,8
69738,69738,2020-11-30 17:13:11.098,356.1062,8
69748,69748,2020-11-30 17:13:41.098,355.6679,8
69758,69758,2020-11-30 17:14:11.098,355.4535,8
69768,69768,2020-11-30 17:14:41.098,355.2542,8
69778,69778,2020-11-30 17:15:11.098,353.76093,8
69788,69788,2020-11-30 17:15:41.098,352.33227999999997,8
69798,69798,2020-11-30 17:16:11.098,342.71176,8
69808,69808,2020-11-30 17:16:41.098,337.91742,8
69818,69818,2020-11-30 17:17:11.098,336.5155,8
69828,69828,2020-11-30 17:17:41.098,334.75317,8
69838,69838,2020-11-30 17:18:11.098,333.04785,8
69848,69848,2020-11-30 17:18:41.098,331.84842000000003,8
69858,69858,2020-11-30 17:19:11.098,328.91116,8
69868,69868,2020-11-30 17:19:41.098,327.3805,8
69878,69878,2020-11-30 17:20:11.098,326.31174,8
69888,69888,2020-11-30 17:20:41.098,325.0453,8
69898,69898,2020-11-30 17:21:11.098,328.24902000000003,8
69908,69908,2020-11-30 17:21:41.098,327.05997,8
69918,69918,2020-11-30 17:22:11.098,326.70944,8
69928,69928,2020-11-30 17:22:41.098,325.5793,8
69938,69938,2020-11-30 17:23:11.098,324.90295,8
69948,69948,2020-11-30 17:23:41.098,325.004,8
69958,69958,2020-11-30 17:24:11.098,324.58984,8
69968,69968,2020-11-30 17:24:41.098,322.82425,8
69978,69978,2020-11-30 17:25:11.098,321.46674,8
69988,69988,2020-11-30 17:25:41.098,309.46698,8
69998,69998,2020-11-30 17:26:11.098,305.72305,8
70008,70008,2020-11-30 17:26:41.098,304.01926000000003,8
70018,70018,2020-11-30 17:27:11.098,302.7619,8
70028,70028,2020-11-30 17:27:41.098,300.50513,8
70038,70038,2020-11-30 17:28:11.098,299.6053,8
70048,70048,2020-11-30 17:28:41.098,296.53485,8
70058,70058,2020-11-30 17:29:11.098,294.7035,8
70068,70068,2020-11-30 17:29:41.098,293.83752000000004,8
70078,70078,2020-11-30 17:30:11.098,292.35247999999996,8
70088,70088,2020-11-30 17:30:41.098,295.5489,8
70098,70098,2020-11-30 17:31:11.098,295.74936,8
70108,70108,2020-11-30 17:31:41.098,295.2992,8
70118,70118,2020-11-30 17:32:11.098,294.03207000000003,8
70128,70128,2020-11-30 17:32:41.098,293.7043,8
70138,70138,2020-11-30 17:33:11.098,293.9449,8
70148,70148,2020-11-30 17:33:41.098,277.8693,8
70158,70158,2020-11-30 17:34:11.098,271.35922,8
70168,70168,2020-11-30 17:34:41.098,271.36893,8
70178,70178,2020-11-30 17:35:11.098,269.87546000000003,8
70188,70188,2020-11-30 17:35:41.098,267.3669,8
70198,70198,2020-11-30 17:36:11.098,266.1395,8
70208,70208,2020-11-30 17:36:41.098,262.74268,8
70218,70218,2020-11-30 17:37:11.098,260.78577,8
70228,70228,2020-11-30 17:37:41.098,257.85900000000004,8
70238,70238,2020-11-30 17:38:11.098,253.47429,8
70248,70248,2020-11-30 17:38:41.098,250.4874,8
70258,70258,2020-11-30 17:39:11.098,251.65569,8
70268,70268,2020-11-30 17:39:41.098,256.62653,8
70278,70278,2020-11-30 17:40:11.098,263.33615,8
70288,70288,2020-11-30 17:40:41.098,263.12186,8
70298,70298,2020-11-30 17:41:11.098,246.4036,8
70308,70308,2020-11-30 17:41:41.098,239.76695,8
70318,70318,2020-11-30 17:42:11.098,238.40347000000003,8
70328,70328,2020-11-30 17:42:41.098,236.62871,8
70338,70338,2020-11-30 17:43:11.098,234.60622,8
70348,70348,2020-11-30 17:43:41.098,233.93497000000002,8
70358,70358,2020-11-30 17:44:11.098,230.3869,8
70368,70368,2020-11-30 17:44:41.098,227.0679,8
70378,70378,2020-11-30 17:45:11.098,224.41547999999997,8
70388,70388,2020-11-30 17:45:41.098,220.80531000000002,8
70398,70398,2020-11-30 17:46:11.098,217.08864,8
70408,70408,2020-11-30 17:46:41.098,216.00526000000002,8
70418,70418,2020-11-30 17:47:11.098,217.82571000000002,8
70428,70428,2020-11-30 17:47:41.098,210.46103,8
70438,70438,2020-11-30 17:48:11.098,201.38663,8
70448,70448,2020-11-30 17:48:41.098,201.94072,8
70458,70458,2020-11-30 17:49:11.098,203.68456,8
70468,70468,2020-11-30 17:49:41.098,200.97415,8
70478,70478,2020-11-30 17:50:11.098,199.65833,8
70488,70488,2020-11-30 17:50:41.098,196.78018,8
70498,70498,2020-11-30 17:51:11.098,194.85493,8
70508,70508,2020-11-30 17:51:41.098,191.74875,8
70518,70518,2020-11-30 17:52:11.098,187.72276000000002,8
70528,70528,2020-11-30 17:52:41.098,184.40558000000001,8
70538,70538,2020-11-30 17:53:11.098,183.6583,8
70548,70548,2020-11-30 17:53:41.098,174.85773999999998,8
70558,70558,2020-11-30 17:54:11.098,169.74528999999998,8
70568,70568,2020-11-30 17:54:41.098,166.09532,8
70578,70578,2020-11-30 17:55:11.098,166.41534,8
70588,70588,2020-11-30 17:55:41.098,168.6063,8
70598,70598,2020-11-30 17:56:11.098,167.00546,8
70608,70608,2020-11-30 17:56:41.098,163.04753,8
70618,70618,2020-11-30 17:57:11.098,161.75877,8
70628,70628,2020-11-30 17:57:41.098,159.74193,8
70638,70638,2020-11-30 17:58:11.098,155.05862,8
70648,70648,2020-11-30 17:58:41.098,152.04599,8
70658,70658,2020-11-30 17:59:11.098,142.19843,8
70668,70668,2020-11-30 17:59:41.098,137.92473999999999,8
70678,70678,2020-11-30 18:00:11.098,132.74649,8
70688,70688,2020-11-30 18:00:41.098,131.15913,8
70698,70698,2020-11-30 18:01:11.098,128.42584,8
70708,70708,2020-11-30 18:01:41.098,131.16255,8
70718,70718,2020-11-30 18:02:11.098,129.57281,8
70728,70728,2020-11-30 18:02:41.098,127.82743,8
70738,70738,2020-11-30 18:03:11.098,126.50856,8
70748,70748,2020-11-30 18:03:41.098,108.69223999999998,8
70758,70758,2020-11-30 18:04:11.098,103.35172,8
70768,70768,2020-11-30 18:04:41.098,102.75862,8
70778,70778,2020-11-30 18:05:11.098,99.65677,8
70788,70788,2020-11-30 18:05:41.098,97.18918599999999,8
70798,70798,2020-11-30 18:06:11.098,94.26085,8
70808,70808,2020-11-30 18:06:41.098,73.204636,8
70818,70818,2020-11-30 18:07:11.098,66.49386,8
