,Unnamed: 0,time,preds,step
64155,64155,2020-11-30 12:32:41.098,874.5947,5
64165,64165,2020-11-30 12:33:11.098,874.24835,5
64175,64175,2020-11-30 12:33:41.098,873.4596,5
64185,64185,2020-11-30 12:34:11.098,872.72156,5
64195,64195,2020-11-30 12:34:41.098,872.18604,5
64205,64205,2020-11-30 12:35:11.098,871.29095,5
64215,64215,2020-11-30 12:35:41.098,871.00806,5
64225,64225,2020-11-30 12:36:11.098,870.2759,5
64235,64235,2020-11-30 12:36:41.098,869.5111,5
64245,64245,2020-11-30 12:37:11.098,869.2444,5
64255,64255,2020-11-30 12:37:41.098,868.44434,5
64265,64265,2020-11-30 12:38:11.098,867.7292,5
64275,64275,2020-11-30 12:38:41.098,867.2616,5
64285,64285,2020-11-30 12:39:11.098,866.4459,5
64295,64295,2020-11-30 12:39:41.098,865.2718,5
64305,64305,2020-11-30 12:40:11.098,864.3163,5
64315,64315,2020-11-30 12:40:41.098,863.54565,5
64325,64325,2020-11-30 12:41:11.098,862.4963,5
64335,64335,2020-11-30 12:41:41.098,861.7521,5
64345,64345,2020-11-30 12:42:11.098,861.2228,5
64355,64355,2020-11-30 12:42:41.098,860.24554,5
64365,64365,2020-11-30 12:43:11.098,859.7584,5
64375,64375,2020-11-30 12:43:41.098,859.3139,5
64385,64385,2020-11-30 12:44:11.098,858.5127,5
64395,64395,2020-11-30 12:44:41.098,858.3044,5
64405,64405,2020-11-30 12:45:11.098,857.4055,5
64415,64415,2020-11-30 12:45:41.098,856.6247599999999,5
64425,64425,2020-11-30 12:46:11.098,856.0795,5
64435,64435,2020-11-30 12:46:41.098,855.0744,5
64445,64445,2020-11-30 12:47:11.098,854.3636,5
64455,64455,2020-11-30 12:47:41.098,853.7339999999999,5
64465,64465,2020-11-30 12:48:11.098,852.842,5
64475,64475,2020-11-30 12:48:41.098,852.3922,5
64485,64485,2020-11-30 12:49:11.098,851.5371,5
64495,64495,2020-11-30 12:49:41.098,850.7646,5
64505,64505,2020-11-30 12:50:11.098,850.4298,5
64515,64515,2020-11-30 12:50:41.098,849.9223599999999,5
64525,64525,2020-11-30 12:51:11.098,849.3573,5
64535,64535,2020-11-30 12:51:41.098,848.90234,5
64545,64545,2020-11-30 12:52:11.098,848.2719,5
64555,64555,2020-11-30 12:52:41.098,847.8565699999999,5
64565,64565,2020-11-30 12:53:11.098,847.0732,5
64575,64575,2020-11-30 12:53:41.098,846.65356,5
64585,64585,2020-11-30 12:54:11.098,846.3758,5
64595,64595,2020-11-30 12:54:41.098,845.7261,5
64605,64605,2020-11-30 12:55:11.098,845.0156,5
64615,64615,2020-11-30 12:55:41.098,844.4214,5
64625,64625,2020-11-30 12:56:11.098,843.72906,5
64635,64635,2020-11-30 12:56:41.098,843.193,5
64645,64645,2020-11-30 12:57:11.098,842.47955,5
64655,64655,2020-11-30 12:57:41.098,841.87555,5
64665,64665,2020-11-30 12:58:11.098,841.37585,5
64675,64675,2020-11-30 12:58:41.098,840.7260000000001,5
64685,64685,2020-11-30 12:59:11.098,840.0157,5
64695,64695,2020-11-30 12:59:41.098,839.4213,5
64705,64705,2020-11-30 13:00:11.098,838.72906,5
64715,64715,2020-11-30 13:00:41.098,837.8968,5
64725,64725,2020-11-30 13:01:11.098,837.2637,5
64735,64735,2020-11-30 13:01:41.098,836.5822,5
64745,64745,2020-11-30 13:02:11.098,836.16614,5
64755,64755,2020-11-30 13:02:41.098,833.8439,5
64765,64765,2020-11-30 13:03:11.098,833.2193599999999,5
64775,64775,2020-11-30 13:03:41.098,831.8288,5
64785,64785,2020-11-30 13:04:11.098,831.3986,5
64795,64795,2020-11-30 13:04:41.098,830.99646,5
64805,64805,2020-11-30 13:05:11.098,829.89905,5
64815,64815,2020-11-30 13:05:41.098,829.60297,5
64825,64825,2020-11-30 13:06:11.098,828.9046,5
64835,64835,2020-11-30 13:06:41.098,828.2113,5
64845,64845,2020-11-30 13:07:11.098,827.64624,5
64855,64855,2020-11-30 13:07:41.098,826.696,5
64865,64865,2020-11-30 13:08:11.098,826.2153,5
64875,64875,2020-11-30 13:08:41.098,825.1368,5
64885,64885,2020-11-30 13:09:11.098,824.20135,5
64895,64895,2020-11-30 13:09:41.098,823.607,5
64905,64905,2020-11-30 13:10:11.098,822.5892299999999,5
64915,64915,2020-11-30 13:10:41.098,821.81714,5
64925,64925,2020-11-30 13:11:11.098,821.263,5
64935,64935,2020-11-30 13:11:41.098,820.35284,5
64945,64945,2020-11-30 13:12:11.098,819.48627,5
64955,64955,2020-11-30 13:12:41.098,818.9952400000001,5
64965,64965,2020-11-30 13:13:11.098,818.4034,5
64975,64975,2020-11-30 13:13:41.098,818.2062400000001,5
64985,64985,2020-11-30 13:14:11.098,817.61774,5
64995,64995,2020-11-30 13:14:41.098,817.13257,5
65005,65005,2020-11-30 13:15:11.098,816.8326,5
65015,65015,2020-11-30 13:15:41.098,816.0187400000001,5
65025,65025,2020-11-30 13:16:11.098,815.2541,5
65035,65035,2020-11-30 13:16:41.098,814.75446,5
65045,65045,2020-11-30 13:17:11.098,814.709,5
65055,65055,2020-11-30 13:17:41.098,814.1454,5
65065,65065,2020-11-30 13:18:11.098,813.52454,5
65075,65075,2020-11-30 13:18:41.098,812.7669999999999,5
65085,65085,2020-11-30 13:19:11.098,812.23096,5
65095,65095,2020-11-30 13:19:41.098,811.66187,5
65105,65105,2020-11-30 13:20:11.098,810.90393,5
65115,65115,2020-11-30 13:20:41.098,810.3428299999999,5
65125,65125,2020-11-30 13:21:11.098,809.68915,5
65135,65135,2020-11-30 13:21:41.098,808.85077,5
65145,65145,2020-11-30 13:22:11.098,808.2974,5
65155,65155,2020-11-30 13:22:41.098,807.58215,5
65165,65165,2020-11-30 13:23:11.098,807.16614,5
65175,65175,2020-11-30 13:23:41.098,806.5035,5
65185,65185,2020-11-30 13:24:11.098,803.69165,5
65195,65195,2020-11-30 13:24:41.098,802.3428299999999,5
65205,65205,2020-11-30 13:25:11.098,801.8482,5
65215,65215,2020-11-30 13:25:41.098,801.2893,5
65225,65225,2020-11-30 13:26:11.098,800.40894,5
65235,65235,2020-11-30 13:26:41.098,799.8879,5
65245,65245,2020-11-30 13:27:11.098,799.1475,5
65255,65255,2020-11-30 13:27:41.098,798.5564,5
65265,65265,2020-11-30 13:28:11.098,798.2408,5
65275,65275,2020-11-30 13:28:41.098,797.23395,5
65285,65285,2020-11-30 13:29:11.098,796.8559,5
65295,65295,2020-11-30 13:29:41.098,795.55994,5
65305,65305,2020-11-30 13:30:11.098,794.38446,5
65315,65315,2020-11-30 13:30:41.098,793.7445,5
65325,65325,2020-11-30 13:31:11.098,792.4799,5
65335,65335,2020-11-30 13:31:41.098,791.5147,5
65345,65345,2020-11-30 13:32:11.098,790.8760000000001,5
65355,65355,2020-11-30 13:32:41.098,790.01465,5
65365,65365,2020-11-30 13:33:11.098,789.3076,5
65375,65375,2020-11-30 13:33:41.098,788.54614,5
65385,65385,2020-11-30 13:34:11.098,787.9029,5
65395,65395,2020-11-30 13:34:41.098,787.67444,5
65405,65405,2020-11-30 13:35:11.098,787.3489999999999,5
65415,65415,2020-11-30 13:35:41.098,786.81805,5
65425,65425,2020-11-30 13:36:11.098,786.4661,5
65435,65435,2020-11-30 13:36:41.098,785.7374,5
65445,65445,2020-11-30 13:37:11.098,785.28143,5
65455,65455,2020-11-30 13:37:41.098,784.1562,5
65465,65465,2020-11-30 13:38:11.098,784.1303,5
65475,65475,2020-11-30 13:38:41.098,784.37585,5
65485,65485,2020-11-30 13:39:11.098,783.7261,5
65495,65495,2020-11-30 13:39:41.098,783.0156,5
65505,65505,2020-11-30 13:40:11.098,782.4213,5
65515,65515,2020-11-30 13:40:41.098,781.72906,5
65525,65525,2020-11-30 13:41:11.098,780.8968,5
65535,65535,2020-11-30 13:41:41.098,780.2637,5
65545,65545,2020-11-30 13:42:11.098,779.58215,5
65555,65555,2020-11-30 13:42:41.098,779.1662,5
65565,65565,2020-11-30 13:43:11.098,778.5034,5
65575,65575,2020-11-30 13:43:41.098,777.82385,5
65585,65585,2020-11-30 13:44:11.098,777.3583,5
65595,65595,2020-11-30 13:44:41.098,776.7173,5
65605,65605,2020-11-30 13:45:11.098,772.7304,5
65615,65615,2020-11-30 13:45:41.098,771.63635,5
65625,65625,2020-11-30 13:46:11.098,771.2407,5
65635,65635,2020-11-30 13:46:41.098,770.534,5
65645,65645,2020-11-30 13:47:11.098,769.5596,5
65655,65655,2020-11-30 13:47:41.098,769.27124,5
65665,65665,2020-11-30 13:48:11.098,768.3285,5
65675,65675,2020-11-30 13:48:41.098,768.28076,5
65685,65685,2020-11-30 13:49:11.098,767.62555,5
65695,65695,2020-11-30 13:49:41.098,766.85144,5
65705,65705,2020-11-30 13:50:11.098,766.1741,5
65715,65715,2020-11-30 13:50:41.098,764.70825,5
65725,65725,2020-11-30 13:51:11.098,763.30237,5
65735,65735,2020-11-30 13:51:41.098,762.4003,5
65745,65745,2020-11-30 13:52:11.098,761.0351,5
65755,65755,2020-11-30 13:52:41.098,760.2733,5
65765,65765,2020-11-30 13:53:11.098,759.4665,5
65775,65775,2020-11-30 13:53:41.098,758.6245,5
65785,65785,2020-11-30 13:54:11.098,757.9672,5
65795,65795,2020-11-30 13:54:41.098,757.2281,5
65805,65805,2020-11-30 13:55:11.098,756.69037,5
65815,65815,2020-11-30 13:55:41.098,756.60675,5
65825,65825,2020-11-30 13:56:11.098,756.2743,5
65835,65835,2020-11-30 13:56:41.098,755.59753,5
65845,65845,2020-11-30 13:57:11.098,755.1479,5
65855,65855,2020-11-30 13:57:41.098,754.55115,5
65865,65865,2020-11-30 13:58:11.098,754.0076,5
65875,65875,2020-11-30 13:58:41.098,752.6831,5
65885,65885,2020-11-30 13:59:11.098,752.71075,5
65895,65895,2020-11-30 13:59:41.098,753.3583,5
65905,65905,2020-11-30 14:00:11.098,752.7173,5
65915,65915,2020-11-30 14:00:41.098,751.9585599999999,5
65925,65925,2020-11-30 14:01:11.098,751.4272,5
65935,65935,2020-11-30 14:01:41.098,750.7089,5
65945,65945,2020-11-30 14:02:11.098,750.1454,5
65955,65955,2020-11-30 14:02:41.098,749.5245,5
65965,65965,2020-11-30 14:03:11.098,748.76697,5
65975,65975,2020-11-30 14:03:41.098,748.23096,5
65985,65985,2020-11-30 14:04:11.098,747.6618,5
65995,65995,2020-11-30 14:04:41.098,746.9039,5
66005,66005,2020-11-30 14:05:11.098,746.3429,5
66015,66015,2020-11-30 14:05:41.098,741.8264,5
66025,66025,2020-11-30 14:06:11.098,740.6769400000001,5
66035,66035,2020-11-30 14:06:41.098,739.8431400000001,5
66045,66045,2020-11-30 14:07:11.098,739.4771,5
66055,66055,2020-11-30 14:07:41.098,738.5324,5
66065,66065,2020-11-30 14:08:11.098,737.62195,5
66075,66075,2020-11-30 14:08:41.098,737.1117,5
66085,66085,2020-11-30 14:09:11.098,736.587,5
66095,66095,2020-11-30 14:09:41.098,735.8607,5
66105,66105,2020-11-30 14:10:11.098,735.39905,5
66115,66115,2020-11-30 14:10:41.098,734.3869,5
66125,66125,2020-11-30 14:11:11.098,733.03613,5
66135,66135,2020-11-30 14:11:41.098,731.5367,5
66145,66145,2020-11-30 14:12:11.098,730.3380000000001,5
66155,66155,2020-11-30 14:12:41.098,728.8091400000001,5
66165,66165,2020-11-30 14:13:11.098,727.824,5
66175,66175,2020-11-30 14:13:41.098,726.98737,5
66185,66185,2020-11-30 14:14:11.098,726.3808,5
66195,66195,2020-11-30 14:14:41.098,725.4830000000001,5
66205,66205,2020-11-30 14:15:11.098,724.83673,5
66215,66215,2020-11-30 14:15:41.098,724.58185,5
66225,66225,2020-11-30 14:16:11.098,724.10516,5
66235,66235,2020-11-30 14:16:41.098,723.92584,5
66245,66245,2020-11-30 14:17:11.098,723.64764,5
66255,66255,2020-11-30 14:17:41.098,722.89795,5
66265,66265,2020-11-30 14:18:11.098,722.09296,5
66275,66275,2020-11-30 14:18:41.098,721.4841,5
66285,66285,2020-11-30 14:19:11.098,720.42444,5
66295,66295,2020-11-30 14:19:41.098,719.8739,5
66305,66305,2020-11-30 14:20:11.098,721.14545,5
66315,66315,2020-11-30 14:20:41.098,720.41223,5
66325,66325,2020-11-30 14:21:11.098,719.7013,5
66335,66335,2020-11-30 14:21:41.098,719.18353,5
66345,66345,2020-11-30 14:22:11.098,718.4343,5
66355,66355,2020-11-30 14:22:41.098,717.71,5
66365,66365,2020-11-30 14:23:11.098,717.2012,5
66375,66375,2020-11-30 14:23:41.098,716.4596,5
66385,66385,2020-11-30 14:24:11.098,710.49677,5
66395,66395,2020-11-30 14:24:41.098,709.4644,5
66405,66405,2020-11-30 14:25:11.098,709.2031,5
66415,66415,2020-11-30 14:25:41.098,708.3326400000001,5
66425,66425,2020-11-30 14:26:11.098,707.3971,5
66435,66435,2020-11-30 14:26:41.098,706.9530599999999,5
66445,66445,2020-11-30 14:27:11.098,706.06744,5
66455,66455,2020-11-30 14:27:41.098,706.0484,5
66465,66465,2020-11-30 14:28:11.098,705.3612,5
66475,66475,2020-11-30 14:28:41.098,704.72864,5
66485,66485,2020-11-30 14:29:11.098,703.9398,5
66495,66495,2020-11-30 14:29:41.098,702.5210599999999,5
66505,66505,2020-11-30 14:30:11.098,700.7019,5
66515,66515,2020-11-30 14:30:41.098,699.69836,5
66525,66525,2020-11-30 14:31:11.098,698.11755,5
66535,66535,2020-11-30 14:31:41.098,697.5289,5
66545,66545,2020-11-30 14:32:11.098,696.6811,5
66555,66555,2020-11-30 14:32:41.098,695.6360000000001,5
66565,66565,2020-11-30 14:33:11.098,695.0196,5
66575,66575,2020-11-30 14:33:41.098,694.7186,5
66585,66585,2020-11-30 14:34:11.098,694.13586,5
66595,66595,2020-11-30 14:34:41.098,694.00775,5
66605,66605,2020-11-30 14:35:11.098,693.98303,5
66615,66615,2020-11-30 14:35:41.098,693.1711,5
66625,66625,2020-11-30 14:36:11.098,692.59735,5
66635,66635,2020-11-30 14:36:41.098,691.87695,5
66645,66645,2020-11-30 14:37:11.098,691.0266,5
66655,66655,2020-11-30 14:37:41.098,689.4233,5
66665,66665,2020-11-30 14:38:11.098,689.7086,5
66675,66675,2020-11-30 14:38:41.098,691.3583,5
66685,66685,2020-11-30 14:39:11.098,690.7173,5
66695,66695,2020-11-30 14:39:41.098,689.9585599999999,5
66705,66705,2020-11-30 14:40:11.098,689.4272,5
66715,66715,2020-11-30 14:40:41.098,688.7089,5
66725,66725,2020-11-30 14:41:11.098,688.1454,5
66735,66735,2020-11-30 14:41:41.098,687.5245,5
66745,66745,2020-11-30 14:42:11.098,686.76697,5
66755,66755,2020-11-30 14:42:41.098,682.8091,5
66765,66765,2020-11-30 14:43:11.098,679.74713,5
66775,66775,2020-11-30 14:43:41.098,678.8963,5
66785,66785,2020-11-30 14:44:11.098,677.8398,5
66795,66795,2020-11-30 14:44:41.098,677.2499,5
66805,66805,2020-11-30 14:45:11.098,676.5132,5
66815,66815,2020-11-30 14:45:41.098,675.43677,5
66825,66825,2020-11-30 14:46:11.098,675.20135,5
66835,66835,2020-11-30 14:46:41.098,674.53796,5
66845,66845,2020-11-30 14:47:11.098,674.0303299999999,5
66855,66855,2020-11-30 14:47:41.098,673.29553,5
66865,66865,2020-11-30 14:48:11.098,671.9114400000001,5
66875,66875,2020-11-30 14:48:41.098,670.6636,5
66885,66885,2020-11-30 14:49:11.098,669.2396,5
66895,66895,2020-11-30 14:49:41.098,667.6521,5
66905,66905,2020-11-30 14:50:11.098,666.86194,5
66915,66915,2020-11-30 14:50:41.098,665.84045,5
66925,66925,2020-11-30 14:51:11.098,664.5638,5
66935,66935,2020-11-30 14:51:41.098,663.8471,5
66945,66945,2020-11-30 14:52:11.098,663.26373,5
66955,66955,2020-11-30 14:52:41.098,663.3747599999999,5
66965,66965,2020-11-30 14:53:11.098,662.84454,5
66975,66975,2020-11-30 14:53:41.098,662.612,5
66985,66985,2020-11-30 14:54:11.098,662.3155,5
66995,66995,2020-11-30 14:54:41.098,661.5069,5
67005,67005,2020-11-30 14:55:11.098,660.6532599999999,5
67015,67015,2020-11-30 14:55:41.098,659.51263,5
67025,67025,2020-11-30 14:56:11.098,658.3606599999999,5
67035,67035,2020-11-30 14:56:41.098,658.3633,5
67045,67045,2020-11-30 14:57:11.098,659.8335599999999,5
67055,67055,2020-11-30 14:57:41.098,659.80975,5
67065,67065,2020-11-30 14:58:11.098,659.3758,5
67075,67075,2020-11-30 14:58:41.098,658.7260000000001,5
67085,67085,2020-11-30 14:59:11.098,658.0157,5
67095,67095,2020-11-30 14:59:41.098,657.4214,5
67105,67105,2020-11-30 15:00:11.098,656.72906,5
67115,67115,2020-11-30 15:00:41.098,648.3034,5
67125,67125,2020-11-30 15:01:11.098,647.83875,5
67135,67135,2020-11-30 15:01:41.098,647.6859,5
67145,67145,2020-11-30 15:02:11.098,646.65625,5
67155,67155,2020-11-30 15:02:41.098,645.64044,5
67165,67165,2020-11-30 15:03:11.098,645.31714,5
67175,67175,2020-11-30 15:03:41.098,644.5279,5
67185,67185,2020-11-30 15:04:11.098,644.2897,5
67195,67195,2020-11-30 15:04:41.098,643.55566,5
67205,67205,2020-11-30 15:05:11.098,642.8993,5
67215,67215,2020-11-30 15:05:41.098,642.2655599999999,5
67225,67225,2020-11-30 15:06:11.098,640.6868,5
67235,67235,2020-11-30 15:06:41.098,639.21924,5
67245,67245,2020-11-30 15:07:11.098,637.71234,5
67255,67255,2020-11-30 15:07:41.098,636.3465,5
67265,67265,2020-11-30 15:08:11.098,635.3318,5
67275,67275,2020-11-30 15:08:41.098,634.3195,5
67285,67285,2020-11-30 15:09:11.098,633.22815,5
67295,67295,2020-11-30 15:09:41.098,632.5985,5
67305,67305,2020-11-30 15:10:11.098,632.5233,5
67315,67315,2020-11-30 15:10:41.098,631.97974,5
67325,67325,2020-11-30 15:11:11.098,631.93976,5
67335,67335,2020-11-30 15:11:41.098,631.62067,5
67345,67345,2020-11-30 15:12:11.098,630.60596,5
67355,67355,2020-11-30 15:12:41.098,629.94006,5
67365,67365,2020-11-30 15:13:11.098,628.9357,5
67375,67375,2020-11-30 15:13:41.098,627.765,5
67385,67385,2020-11-30 15:14:11.098,626.13007,5
67395,67395,2020-11-30 15:14:41.098,626.6223,5
67405,67405,2020-11-30 15:15:11.098,629.23096,5
67415,67415,2020-11-30 15:15:41.098,628.66187,5
67425,67425,2020-11-30 15:16:11.098,627.90393,5
67435,67435,2020-11-30 15:16:41.098,627.3428299999999,5
67445,67445,2020-11-30 15:17:11.098,626.68915,5
67455,67455,2020-11-30 15:17:41.098,620.6838,5
67465,67465,2020-11-30 15:18:11.098,616.8389,5
67475,67475,2020-11-30 15:18:41.098,616.98285,5
67485,67485,2020-11-30 15:19:11.098,615.6211,5
67495,67495,2020-11-30 15:19:41.098,614.5926,5
67505,67505,2020-11-30 15:20:11.098,614.22864,5
67515,67515,2020-11-30 15:20:41.098,613.4283,5
67525,67525,2020-11-30 15:21:11.098,613.19305,5
67535,67535,2020-11-30 15:21:41.098,612.5356400000001,5
67545,67545,2020-11-30 15:22:11.098,611.8995,5
67555,67555,2020-11-30 15:22:41.098,611.31165,5
67565,67565,2020-11-30 15:23:11.098,609.8583,5
67575,67575,2020-11-30 15:23:41.098,608.47485,5
67585,67585,2020-11-30 15:24:11.098,606.9569,5
67595,67595,2020-11-30 15:24:41.098,605.5706,5
67605,67605,2020-11-30 15:25:11.098,604.9191,5
67615,67615,2020-11-30 15:25:41.098,603.6005,5
67625,67625,2020-11-30 15:26:11.098,602.4659,5
67635,67635,2020-11-30 15:26:41.098,601.7900400000001,5
67645,67645,2020-11-30 15:27:11.098,601.53076,5
67655,67655,2020-11-30 15:27:41.098,601.1406,5
67665,67665,2020-11-30 15:28:11.098,600.7664,5
67675,67675,2020-11-30 15:28:41.098,600.4806,5
67685,67685,2020-11-30 15:29:11.098,599.7724599999999,5
67695,67695,2020-11-30 15:29:41.098,598.8335,5
67705,67705,2020-11-30 15:30:11.098,597.97296,5
67715,67715,2020-11-30 15:30:41.098,596.80334,5
67725,67725,2020-11-30 15:31:11.098,594.87854,5
67735,67735,2020-11-30 15:31:41.098,594.6732,5
67745,67745,2020-11-30 15:32:11.098,597.77185,5
67755,67755,2020-11-30 15:32:41.098,597.72906,5
67765,67765,2020-11-30 15:33:11.098,596.8968,5
67775,67775,2020-11-30 15:33:41.098,596.2637,5
67785,67785,2020-11-30 15:34:11.098,586.2555,5
67795,67795,2020-11-30 15:34:41.098,585.6366,5
67805,67805,2020-11-30 15:35:11.098,585.1283599999999,5
67815,67815,2020-11-30 15:35:41.098,584.3614,5
67825,67825,2020-11-30 15:36:11.098,583.44275,5
67835,67835,2020-11-30 15:36:41.098,582.6588,5
67845,67845,2020-11-30 15:37:11.098,582.07794,5
67855,67855,2020-11-30 15:37:41.098,581.6928,5
67865,67865,2020-11-30 15:38:11.098,580.75073,5
67875,67875,2020-11-30 15:38:41.098,580.22516,5
67885,67885,2020-11-30 15:39:11.098,579.4753400000001,5
67895,67895,2020-11-30 15:39:41.098,578.2149,5
67905,67905,2020-11-30 15:40:11.098,577.1509,5
67915,67915,2020-11-30 15:40:41.098,575.4333,5
67925,67925,2020-11-30 15:41:11.098,574.1658,5
67935,67935,2020-11-30 15:41:41.098,573.12946,5
67945,67945,2020-11-30 15:42:11.098,571.7841,5
67955,67955,2020-11-30 15:42:41.098,571.05066,5
67965,67965,2020-11-30 15:43:11.098,569.7981599999999,5
67975,67975,2020-11-30 15:43:41.098,569.8409,5
67985,67985,2020-11-30 15:44:11.098,569.9665,5
67995,67995,2020-11-30 15:44:41.098,569.3428,5
68005,68005,2020-11-30 15:45:11.098,568.42126,5
68015,68015,2020-11-30 15:45:41.098,567.5899,5
68025,68025,2020-11-30 15:46:11.098,566.5809,5
68035,68035,2020-11-30 15:46:41.098,565.1787,5
68045,68045,2020-11-30 15:47:11.098,563.8514,5
68055,68055,2020-11-30 15:47:41.098,562.4061,5
68065,68065,2020-11-30 15:48:11.098,562.1075400000001,5
68075,68075,2020-11-30 15:48:41.098,566.2012,5
68085,68085,2020-11-30 15:49:11.098,555.0874,5
68095,68095,2020-11-30 15:49:41.098,554.5686,5
68105,68105,2020-11-30 15:50:11.098,553.8584,5
68115,68115,2020-11-30 15:50:41.098,553.16034,5
68125,68125,2020-11-30 15:51:11.098,552.2155,5
68135,68135,2020-11-30 15:51:41.098,552.0369999999999,5
68145,68145,2020-11-30 15:52:11.098,551.1573,5
68155,68155,2020-11-30 15:52:41.098,550.6118,5
68165,68165,2020-11-30 15:53:11.098,550.1453,5
68175,68175,2020-11-30 15:53:41.098,549.39386,5
68185,68185,2020-11-30 15:54:11.098,548.48425,5
68195,68195,2020-11-30 15:54:41.098,547.2606,5
68205,68205,2020-11-30 15:55:11.098,546.0479,5
68215,68215,2020-11-30 15:55:41.098,544.11035,5
68225,68225,2020-11-30 15:56:11.098,543.09454,5
68235,68235,2020-11-30 15:56:41.098,541.74445,5
68245,68245,2020-11-30 15:57:11.098,540.79785,5
68255,68255,2020-11-30 15:57:41.098,540.2792400000001,5
68265,68265,2020-11-30 15:58:11.098,539.0758,5
68275,68275,2020-11-30 15:58:41.098,539.6174,5
68285,68285,2020-11-30 15:59:11.098,539.7285,5
68295,68295,2020-11-30 15:59:41.098,538.81256,5
68305,68305,2020-11-30 16:00:11.098,537.9598,5
68315,68315,2020-11-30 16:00:41.098,536.5778,5
68325,68325,2020-11-30 16:01:11.098,535.9456,5
68335,68335,2020-11-30 16:01:41.098,534.5551,5
68345,68345,2020-11-30 16:02:11.098,532.7511,5
68355,68355,2020-11-30 16:02:41.098,531.4892,5
68365,68365,2020-11-30 16:03:11.098,531.6853,5
68375,68375,2020-11-30 16:03:41.098,524.198,5
68385,68385,2020-11-30 16:04:11.098,523.9231599999999,5
68395,68395,2020-11-30 16:04:41.098,523.90625,5
68405,68405,2020-11-30 16:05:11.098,522.73193,5
68415,68415,2020-11-30 16:05:41.098,521.669,5
68425,68425,2020-11-30 16:06:11.098,521.2442599999999,5
68435,68435,2020-11-30 16:06:41.098,520.46625,5
68445,68445,2020-11-30 16:07:11.098,520.049,5
68455,68455,2020-11-30 16:07:41.098,519.3176,5
68465,68465,2020-11-30 16:08:11.098,518.6709,5
68475,68475,2020-11-30 16:08:41.098,518.21686,5
68485,68485,2020-11-30 16:09:11.098,516.95105,5
68495,68495,2020-11-30 16:09:41.098,515.62854,5
68505,68505,2020-11-30 16:10:11.098,514.1451,5
68515,68515,2020-11-30 16:10:41.098,512.85693,5
68525,68525,2020-11-30 16:11:11.098,511.37185999999997,5
68535,68535,2020-11-30 16:11:41.098,510.61453,5
68545,68545,2020-11-30 16:12:11.098,509.73834000000005,5
68555,68555,2020-11-30 16:12:41.098,509.34073,5
68565,68565,2020-11-30 16:13:11.098,509.4084,5
68575,68575,2020-11-30 16:13:41.098,509.60555999999997,5
68585,68585,2020-11-30 16:14:11.098,508.9563,5
68595,68595,2020-11-30 16:14:41.098,507.28745,5
68605,68605,2020-11-30 16:15:11.098,505.43222000000003,5
68615,68615,2020-11-30 16:15:41.098,504.6431,5
68625,68625,2020-11-30 16:16:11.098,503.57165999999995,5
68635,68635,2020-11-30 16:16:41.098,501.64874000000003,5
68645,68645,2020-11-30 16:17:11.098,499.84912,5
68655,68655,2020-11-30 16:17:41.098,492.90585,5
68665,68665,2020-11-30 16:18:11.098,492.6923,5
68675,68675,2020-11-30 16:18:41.098,492.9878,5
68685,68685,2020-11-30 16:19:11.098,491.6524,5
68695,68695,2020-11-30 16:19:41.098,490.78888,5
68705,68705,2020-11-30 16:20:11.098,490.21414000000004,5
68715,68715,2020-11-30 16:20:41.098,489.38113,5
68725,68725,2020-11-30 16:21:11.098,489.00357,5
68735,68735,2020-11-30 16:21:41.098,488.30987999999996,5
68745,68745,2020-11-30 16:22:11.098,487.5807,5
68755,68755,2020-11-30 16:22:41.098,486.85605,5
68765,68765,2020-11-30 16:23:11.098,485.6312,5
68775,68775,2020-11-30 16:23:41.098,484.45595999999995,5
68785,68785,2020-11-30 16:24:11.098,483.0153,5
68795,68795,2020-11-30 16:24:41.098,481.6528,5
68805,68805,2020-11-30 16:25:11.098,480.4158,5
68815,68815,2020-11-30 16:25:41.098,479.9291,5
68825,68825,2020-11-30 16:26:11.098,478.9104,5
68835,68835,2020-11-30 16:26:41.098,477.7524,5
68845,68845,2020-11-30 16:27:11.098,478.14142000000004,5
68855,68855,2020-11-30 16:27:41.098,478.68355999999994,5
68865,68865,2020-11-30 16:28:11.098,477.88263,5
68875,68875,2020-11-30 16:28:41.098,476.0674,5
68885,68885,2020-11-30 16:29:11.098,474.18683,5
68895,68895,2020-11-30 16:29:41.098,473.47034,5
68905,68905,2020-11-30 16:30:11.098,472.44003,5
68915,68915,2020-11-30 16:30:41.098,461.8729,5
68925,68925,2020-11-30 16:31:11.098,459.81342,5
68935,68935,2020-11-30 16:31:41.098,462.07837,5
68945,68945,2020-11-30 16:32:11.098,460.74643,5
68955,68955,2020-11-30 16:32:41.098,459.67508,5
68965,68965,2020-11-30 16:33:11.098,459.18082000000004,5
68975,68975,2020-11-30 16:33:41.098,458.41022000000004,5
68985,68985,2020-11-30 16:34:11.098,458.5224,5
68995,68995,2020-11-30 16:34:41.098,457.47857999999997,5
69005,69005,2020-11-30 16:35:11.098,456.8475,5
69015,69015,2020-11-30 16:35:41.098,456.37387,5
69025,69025,2020-11-30 16:36:11.098,455.18854000000005,5
69035,69035,2020-11-30 16:36:41.098,453.8991,5
69045,69045,2020-11-30 16:37:11.098,452.27286,5
69055,69055,2020-11-30 16:37:41.098,450.8899,5
69065,69065,2020-11-30 16:38:11.098,449.39258,5
69075,69075,2020-11-30 16:38:41.098,448.87714000000005,5
69085,69085,2020-11-30 16:39:11.098,448.02435,5
69095,69095,2020-11-30 16:39:41.098,447.8256,5
69105,69105,2020-11-30 16:40:11.098,447.89525999999995,5
69115,69115,2020-11-30 16:40:41.098,448.25235,5
69125,69125,2020-11-30 16:41:11.098,447.20563,5
69135,69135,2020-11-30 16:41:41.098,445.1603,5
69145,69145,2020-11-30 16:42:11.098,442.88965,5
69155,69155,2020-11-30 16:42:41.098,442.06314000000003,5
69165,69165,2020-11-30 16:43:11.098,431.7934,5
69175,69175,2020-11-30 16:43:41.098,429.6831,5
69185,69185,2020-11-30 16:44:11.098,428.8245,5
69195,69195,2020-11-30 16:44:41.098,429.55054,5
69205,69205,2020-11-30 16:45:11.098,428.47952000000004,5
69215,69215,2020-11-30 16:45:41.098,427.56795999999997,5
69225,69225,2020-11-30 16:46:11.098,426.98607999999996,5
69235,69235,2020-11-30 16:46:41.098,426.88595999999995,5
69245,69245,2020-11-30 16:47:11.098,425.80175999999994,5
69255,69255,2020-11-30 16:47:41.098,425.1414,5
69265,69265,2020-11-30 16:48:11.098,424.57257000000004,5
69275,69275,2020-11-30 16:48:41.098,423.60355,5
69285,69285,2020-11-30 16:49:11.098,422.49802,5
69295,69295,2020-11-30 16:49:41.098,420.62417999999997,5
69305,69305,2020-11-30 16:50:11.098,419.37518,5
69315,69315,2020-11-30 16:50:41.098,418.65836,5
69325,69325,2020-11-30 16:51:11.098,417.8065,5
69335,69335,2020-11-30 16:51:41.098,417.02304,5
69345,69345,2020-11-30 16:52:11.098,416.32632,5
69355,69355,2020-11-30 16:52:41.098,416.54974,5
69365,69365,2020-11-30 16:53:11.098,416.72202000000004,5
69375,69375,2020-11-30 16:53:41.098,415.40427,5
69385,69385,2020-11-30 16:54:11.098,403.23624,5
69395,69395,2020-11-30 16:54:41.098,400.00928,5
69405,69405,2020-11-30 16:55:11.098,399.3862,5
69415,69415,2020-11-30 16:55:41.098,397.4732,5
69425,69425,2020-11-30 16:56:11.098,396.0107,5
69435,69435,2020-11-30 16:56:41.098,395.88126,5
69445,69445,2020-11-30 16:57:11.098,395.85947000000004,5
69455,69455,2020-11-30 16:57:41.098,395.95135,5
69465,69465,2020-11-30 16:58:11.098,395.1708,5
69475,69475,2020-11-30 16:58:41.098,394.48782,5
69485,69485,2020-11-30 16:59:11.098,394.07953,5
69495,69495,2020-11-30 16:59:41.098,393.10977,5
69505,69505,2020-11-30 17:00:11.098,391.76193,5
69515,69515,2020-11-30 17:00:41.098,389.9786,5
69525,69525,2020-11-30 17:01:11.098,388.82635,5
69535,69535,2020-11-30 17:01:41.098,387.88416,5
69545,69545,2020-11-30 17:02:11.098,387.43384,5
69555,69555,2020-11-30 17:02:41.098,386.29626,5
69565,69565,2020-11-30 17:03:11.098,386.34702000000004,5
69575,69575,2020-11-30 17:03:41.098,386.50937000000005,5
69585,69585,2020-11-30 17:04:11.098,386.6699,5
69595,69595,2020-11-30 17:04:41.098,385.38608,5
69605,69605,2020-11-30 17:05:11.098,373.21157999999997,5
69615,69615,2020-11-30 17:05:41.098,368.94568,5
69625,69625,2020-11-30 17:06:11.098,367.63715,5
69635,69635,2020-11-30 17:06:41.098,366.29632999999995,5
69645,69645,2020-11-30 17:07:11.098,364.77795,5
69655,69655,2020-11-30 17:07:41.098,364.12772,5
69665,69665,2020-11-30 17:08:11.098,364.46157999999997,5
69675,69675,2020-11-30 17:08:41.098,364.92242000000005,5
69685,69685,2020-11-30 17:09:11.098,364.30823,5
69695,69695,2020-11-30 17:09:41.098,363.34686,5
69705,69705,2020-11-30 17:10:11.098,362.9165,5
69715,69715,2020-11-30 17:10:41.098,361.9897,5
69725,69725,2020-11-30 17:11:11.098,360.68155,5
69735,69735,2020-11-30 17:11:41.098,358.89243,5
69745,69745,2020-11-30 17:12:11.098,357.63507000000004,5
69755,69755,2020-11-30 17:12:41.098,356.83533,5
69765,69765,2020-11-30 17:13:11.098,356.54152999999997,5
69775,69775,2020-11-30 17:13:41.098,355.73135,5
69785,69785,2020-11-30 17:14:11.098,355.34726,5
69795,69795,2020-11-30 17:14:41.098,344.97406,5
69805,69805,2020-11-30 17:15:11.098,339.60898,5
69815,69815,2020-11-30 17:15:41.098,338.43667999999997,5
69825,69825,2020-11-30 17:16:11.098,336.53476,5
69835,69835,2020-11-30 17:16:41.098,334.54677999999996,5
69845,69845,2020-11-30 17:17:11.098,333.51743,5
69855,69855,2020-11-30 17:17:41.098,332.19333,5
69865,69865,2020-11-30 17:18:11.098,332.63,5
69875,69875,2020-11-30 17:18:41.098,332.16013,5
69885,69885,2020-11-30 17:19:11.098,331.49286,5
69895,69895,2020-11-30 17:19:41.098,332.23456,5
69905,69905,2020-11-30 17:20:11.098,331.26892000000004,5
69915,69915,2020-11-30 17:20:41.098,330.3514,5
69925,69925,2020-11-30 17:21:11.098,328.56392999999997,5
69935,69935,2020-11-30 17:21:41.098,327.0209,5
69945,69945,2020-11-30 17:22:11.098,326.53537,5
69955,69955,2020-11-30 17:22:41.098,325.88586000000004,5
69965,69965,2020-11-30 17:23:11.098,324.7937,5
69975,69975,2020-11-30 17:23:41.098,324.36008,5
69985,69985,2020-11-30 17:24:11.098,311.13443,5
69995,69995,2020-11-30 17:24:41.098,307.2367,5
70005,70005,2020-11-30 17:25:11.098,305.91016,5
70015,70015,2020-11-30 17:25:41.098,304.7471,5
70025,70025,2020-11-30 17:26:11.098,302.1368,5
70035,70035,2020-11-30 17:26:41.098,301.36255,5
70045,70045,2020-11-30 17:27:11.098,300.34018,5
70055,70055,2020-11-30 17:27:41.098,300.66098,5
70065,70065,2020-11-30 17:28:11.098,300.4042,5
70075,70075,2020-11-30 17:28:41.098,299.72083,5
70085,70085,2020-11-30 17:29:11.098,300.44427,5
70095,70095,2020-11-30 17:29:41.098,299.81237999999996,5
70105,70105,2020-11-30 17:30:11.098,298.70883,5
70115,70115,2020-11-30 17:30:41.098,296.78384,5
70125,70125,2020-11-30 17:31:11.098,295.47632000000004,5
70135,70135,2020-11-30 17:31:41.098,295.34583,5
70145,70145,2020-11-30 17:32:11.098,278.75256,5
70155,70155,2020-11-30 17:32:41.098,273.25262000000004,5
70165,70165,2020-11-30 17:33:11.098,272.7594,5
70175,70175,2020-11-30 17:33:41.098,271.52716000000004,5
70185,70185,2020-11-30 17:34:11.098,269.79825,5
70195,70195,2020-11-30 17:34:41.098,269.51367,5
70205,70205,2020-11-30 17:35:11.098,267.54416000000003,5
70215,70215,2020-11-30 17:35:41.098,269.0194,5
70225,70225,2020-11-30 17:36:11.098,268.44266,5
70235,70235,2020-11-30 17:36:41.098,266.75604,5
70245,70245,2020-11-30 17:37:11.098,264.28833,5
70255,70255,2020-11-30 17:37:41.098,260.512,5
70265,70265,2020-11-30 17:38:11.098,261.6407,5
70275,70275,2020-11-30 17:38:41.098,266.12915,5
70285,70285,2020-11-30 17:39:11.098,264.8859,5
70295,70295,2020-11-30 17:39:41.098,248.60637000000003,5
70305,70305,2020-11-30 17:40:11.098,242.18896,5
70315,70315,2020-11-30 17:40:41.098,240.55344,5
70325,70325,2020-11-30 17:41:11.098,238.31606000000002,5
70335,70335,2020-11-30 17:41:41.098,237.06807999999998,5
70345,70345,2020-11-30 17:42:11.098,237.5955,5
70355,70355,2020-11-30 17:42:41.098,235.63766,5
70365,70365,2020-11-30 17:43:11.098,235.5801,5
70375,70375,2020-11-30 17:43:41.098,236.1407,5
70385,70385,2020-11-30 17:44:11.098,235.1793,5
70395,70395,2020-11-30 17:44:41.098,232.34068,5
70405,70405,2020-11-30 17:45:11.098,227.84917000000002,5
70415,70415,2020-11-30 17:45:41.098,225.53026,5
70425,70425,2020-11-30 17:46:11.098,216.04282,5
70435,70435,2020-11-30 17:46:41.098,208.98346999999998,5
70445,70445,2020-11-30 17:47:11.098,207.87296,5
70455,70455,2020-11-30 17:47:41.098,206.68277,5
70465,70465,2020-11-30 17:48:11.098,204.03868,5
70475,70475,2020-11-30 17:48:41.098,203.10578999999998,5
70485,70485,2020-11-30 17:49:11.098,202.45226,5
70495,70495,2020-11-30 17:49:41.098,202.08626999999998,5
70505,70505,2020-11-30 17:50:11.098,201.69468999999998,5
70515,70515,2020-11-30 17:50:41.098,201.02151,5
70525,70525,2020-11-30 17:51:11.098,200.28021,5
70535,70535,2020-11-30 17:51:41.098,197.33257,5
70545,70545,2020-11-30 17:52:11.098,184.14285,5
70555,70555,2020-11-30 17:52:41.098,178.65648000000002,5
70565,70565,2020-11-30 17:53:11.098,173.5467,5
70575,70575,2020-11-30 17:53:41.098,171.2439,5
70585,70585,2020-11-30 17:54:11.098,172.36127,5
70595,70595,2020-11-30 17:54:41.098,170.44006000000002,5
70605,70605,2020-11-30 17:55:11.098,168.54976000000002,5
70615,70615,2020-11-30 17:55:41.098,168.54646,5
70625,70625,2020-11-30 17:56:11.098,168.6702,5
70635,70635,2020-11-30 17:56:41.098,167.7918,5
70645,70645,2020-11-30 17:57:11.098,166.46535,5
70655,70655,2020-11-30 17:57:41.098,152.62083,5
70665,70665,2020-11-30 17:58:11.098,147.43599,5
70675,70675,2020-11-30 17:58:41.098,142.6861,5
70685,70685,2020-11-30 17:59:11.098,137.87816999999998,5
70695,70695,2020-11-30 17:59:41.098,132.93184,5
70705,70705,2020-11-30 18:00:11.098,134.52713,5
70715,70715,2020-11-30 18:00:41.098,135.59978,5
70725,70725,2020-11-30 18:01:11.098,134.61043,5
70735,70735,2020-11-30 18:01:41.098,135.3199,5
70745,70745,2020-11-30 18:02:11.098,121.21681000000001,5
70755,70755,2020-11-30 18:02:41.098,116.54743,5
70765,70765,2020-11-30 18:03:11.098,112.53321000000001,5
70775,70775,2020-11-30 18:03:41.098,108.14593,5
70785,70785,2020-11-30 18:04:11.098,103.8786,5
70795,70795,2020-11-30 18:04:41.098,100.16308000000001,5
70805,70805,2020-11-30 18:05:11.098,83.127525,5
70815,70815,2020-11-30 18:05:41.098,77.19306999999999,5
