,Unnamed: 0,time,preds,step
5,5,2021-02-15 08:56:53.360,27.239935,5
15,15,2021-02-15 08:57:23.360,28.856756,5
25,25,2021-02-15 08:57:53.360,30.02757,5
35,35,2021-02-15 08:58:23.360,30.777472999999997,5
45,45,2021-02-15 08:58:53.360,31.362011,5
55,55,2021-02-15 08:59:23.360,30.668922,5
65,65,2021-02-15 08:59:53.360,31.851135,5
75,75,2021-02-15 09:00:23.360,31.977657,5
85,85,2021-02-15 09:00:53.360,32.620490000000004,5
95,95,2021-02-15 09:01:23.360,32.92361,5
105,105,2021-02-15 09:01:53.360,31.281536,5
115,115,2021-02-15 09:02:23.360,32.23594,5
125,125,2021-02-15 09:02:53.360,34.994423,5
135,135,2021-02-15 09:03:23.360,35.364815,5
145,145,2021-02-15 09:03:53.360,31.846003999999997,5
155,155,2021-02-15 09:04:23.360,33.053837,5
165,165,2021-02-15 09:04:53.360,33.95787,5
175,175,2021-02-15 09:05:23.360,34.79835,5
185,185,2021-02-15 09:05:53.360,35.477413,5
195,195,2021-02-15 09:06:23.360,33.077713,5
205,205,2021-02-15 09:06:53.360,35.940290000000005,5
215,215,2021-02-15 09:07:23.360,33.915592,5
225,225,2021-02-15 09:07:53.360,35.097576000000004,5
235,235,2021-02-15 09:08:23.360,32.58847,5
245,245,2021-02-15 09:08:53.360,37.070667,5
255,255,2021-02-15 09:09:23.360,37.56231,5
265,265,2021-02-15 09:09:53.360,38.067820000000005,5
275,275,2021-02-15 09:10:23.360,43.135445000000004,5
285,285,2021-02-15 09:10:53.360,43.95442,5
295,295,2021-02-15 09:11:23.360,45.470009999999995,5
305,305,2021-02-15 09:11:53.360,45.268196,5
315,315,2021-02-15 09:12:23.360,47.994854,5
325,325,2021-02-15 09:12:53.360,48.24584,5
335,335,2021-02-15 09:13:23.360,48.128659999999996,5
345,345,2021-02-15 09:13:53.360,48.958843,5
355,355,2021-02-15 09:14:23.360,49.448235,5
365,365,2021-02-15 09:14:53.360,52.486090000000004,5
375,375,2021-02-15 09:15:23.360,50.03504,5
385,385,2021-02-15 09:15:53.360,53.929294999999996,5
395,395,2021-02-15 09:16:23.360,49.626175,5
405,405,2021-02-15 09:16:53.360,41.035396999999996,5
415,415,2021-02-15 09:17:23.360,50.435534999999994,5
425,425,2021-02-15 09:17:53.360,47.937626,5
435,435,2021-02-15 09:18:23.360,58.589256000000006,5
445,445,2021-02-15 09:18:53.360,57.097843000000005,5
455,455,2021-02-15 09:19:23.360,56.343304,5
465,465,2021-02-15 09:19:53.360,47.478825,5
475,475,2021-02-15 09:20:23.360,46.46099,5
485,485,2021-02-15 09:20:53.360,55.794727,5
495,495,2021-02-15 09:21:23.360,60.55046,5
505,505,2021-02-15 09:21:53.360,73.26700600000001,5
515,515,2021-02-15 09:22:23.360,74.779076,5
525,525,2021-02-15 09:22:53.360,82.773224,5
535,535,2021-02-15 09:23:23.360,82.89263000000001,5
545,545,2021-02-15 09:23:53.360,83.42278,5
555,555,2021-02-15 09:24:23.360,87.42695,5
565,565,2021-02-15 09:24:53.360,89.27367,5
575,575,2021-02-15 09:25:23.360,95.84493,5
585,585,2021-02-15 09:25:53.360,93.51553,5
595,595,2021-02-15 09:26:23.360,91.87489000000001,5
605,605,2021-02-15 09:26:53.360,95.97695999999999,5
615,615,2021-02-15 09:27:23.360,97.70244,5
625,625,2021-02-15 09:27:53.360,114.25775,5
635,635,2021-02-15 09:28:23.360,108.21723,5
645,645,2021-02-15 09:28:53.360,97.0073,5
655,655,2021-02-15 09:29:23.360,118.67966000000001,5
665,665,2021-02-15 09:29:53.360,131.2657,5
675,675,2021-02-15 09:30:23.360,165.66795,5
685,685,2021-02-15 09:30:53.360,170.10416,5
695,695,2021-02-15 09:31:23.360,154.90656,5
705,705,2021-02-15 09:31:53.360,170.04501000000002,5
715,715,2021-02-15 09:32:23.360,188.78685,5
725,725,2021-02-15 09:32:53.360,158.11653,5
735,735,2021-02-15 09:33:23.360,230.46915,5
745,745,2021-02-15 09:33:53.360,255.27517999999998,5
755,755,2021-02-15 09:34:23.360,332.59827,5
765,765,2021-02-15 09:34:53.360,355.13552999999996,5
775,775,2021-02-15 09:35:23.360,338.36877000000004,5
785,785,2021-02-15 09:35:53.360,426.10474000000005,5
795,795,2021-02-15 09:36:23.360,496.2079,5
805,805,2021-02-15 09:36:53.360,628.0289,5
815,815,2021-02-15 09:37:23.360,696.52026,5
825,825,2021-02-15 09:37:53.360,671.2137,5
835,835,2021-02-15 09:38:23.360,1024.4141,5
845,845,2021-02-15 09:38:53.360,1473.3864,5
855,855,2021-02-15 09:39:23.360,865.8057,5
865,865,2021-02-15 09:39:53.360,194.51651,5
875,875,2021-02-15 09:40:23.360,176.54016000000001,5
885,885,2021-02-15 09:40:53.360,183.21158,5
895,895,2021-02-15 09:41:23.360,166.24074,5
905,905,2021-02-15 09:41:53.360,127.37530500000001,5
915,915,2021-02-15 09:42:23.360,120.07146499999999,5
925,925,2021-02-15 09:42:53.360,120.15312,5
935,935,2021-02-15 09:43:23.360,129.45184,5
945,945,2021-02-15 09:43:53.360,114.58703999999999,5
955,955,2021-02-15 09:44:23.360,106.93977,5
965,965,2021-02-15 09:44:53.360,91.33238,5
975,975,2021-02-15 09:45:23.360,88.86539499999999,5
985,985,2021-02-15 09:45:53.360,88.26505,5
995,995,2021-02-15 09:46:23.360,84.2809,5
1005,1005,2021-02-15 09:46:53.360,72.01295999999999,5
1015,1015,2021-02-15 09:47:23.360,69.63154,5
1025,1025,2021-02-15 09:47:53.360,67.28024,5
1035,1035,2021-02-15 09:48:23.360,63.421240000000004,5
1045,1045,2021-02-15 09:48:53.360,66.056076,5
1055,1055,2021-02-15 09:49:23.360,65.602356,5
1065,1065,2021-02-15 09:49:53.360,61.25165,5
1075,1075,2021-02-15 09:50:23.360,59.043938,5
1085,1085,2021-02-15 09:50:53.360,56.60879,5
1095,1095,2021-02-15 09:51:23.360,60.49853,5
1105,1105,2021-02-15 09:51:53.360,54.88366,5
1115,1115,2021-02-15 09:52:23.360,55.51275,5
1125,1125,2021-02-15 09:52:53.360,53.033640000000005,5
1135,1135,2021-02-15 09:53:23.360,50.668636,5
1145,1145,2021-02-15 09:53:53.360,54.002182,5
1155,1155,2021-02-15 09:54:23.360,44.460224,5
1165,1165,2021-02-15 09:54:53.360,44.100204,5
1175,1175,2021-02-15 09:55:23.360,43.244953,5
1185,1185,2021-02-15 09:55:53.360,40.664345000000004,5
1195,1195,2021-02-15 09:56:23.360,42.640409999999996,5
1205,1205,2021-02-15 09:56:53.360,40.294296,5
1215,1215,2021-02-15 09:57:23.360,40.335743,5
1225,1225,2021-02-15 09:57:53.360,41.538990000000005,5
1235,1235,2021-02-15 09:58:23.360,41.49981,5
1245,1245,2021-02-15 09:58:53.360,40.609646000000005,5
1255,1255,2021-02-15 09:59:23.360,38.95367,5
1265,1265,2021-02-15 09:59:53.360,38.504402,5
1275,1275,2021-02-15 10:00:23.360,37.3585,5
1285,1285,2021-02-15 10:00:53.360,36.47578,5
1295,1295,2021-02-15 10:01:23.360,36.340946,5
1305,1305,2021-02-15 10:01:53.360,35.449474,5
1315,1315,2021-02-15 10:02:23.360,33.993645,5
1325,1325,2021-02-15 10:02:53.360,33.211890000000004,5
1335,1335,2021-02-15 10:03:23.360,33.338306,5
1345,1345,2021-02-15 10:03:53.360,32.47228,5
1355,1355,2021-02-15 10:04:23.360,31.938957000000002,5
1365,1365,2021-02-15 10:04:53.360,31.205253999999996,5
1375,1375,2021-02-15 10:05:23.360,30.983105,5
1385,1385,2021-02-15 10:05:53.360,29.794907000000002,5
1395,1395,2021-02-15 10:06:23.360,29.455067,5
1405,1405,2021-02-15 10:06:53.360,27.989712,5
1415,1415,2021-02-15 10:07:23.360,27.270066999999997,5
1425,1425,2021-02-15 10:07:53.360,26.333871999999996,5
1435,1435,2021-02-15 10:08:23.360,26.366907,5
1445,1445,2021-02-15 10:08:53.360,25.410736,5
1455,1455,2021-02-15 10:09:23.360,25.587007999999997,5
1465,1465,2021-02-15 10:09:53.360,25.468173999999998,5
1475,1475,2021-02-15 10:10:23.360,25.07423,5
1485,1485,2021-02-15 10:10:53.360,24.221304,5
1495,1495,2021-02-15 10:11:23.360,24.023854999999998,5
1505,1505,2021-02-15 10:11:53.360,23.173683,5
1515,1515,2021-02-15 10:12:23.360,22.822414000000002,5
1525,1525,2021-02-15 10:12:53.360,22.146383,5
1535,1535,2021-02-15 10:13:23.360,21.924871,5
1545,1545,2021-02-15 10:13:53.360,21.711159,5
1555,1555,2021-02-15 10:14:23.360,22.008425,5
1565,1565,2021-02-15 10:14:53.360,21.353666,5
1575,1575,2021-02-15 10:15:23.360,21.11611,5
1585,1585,2021-02-15 10:15:53.360,21.075089000000002,5
1595,1595,2021-02-15 10:16:23.360,21.422532999999998,5
1605,1605,2021-02-15 10:16:53.360,20.532345,5
1615,1615,2021-02-15 10:17:23.360,19.661827,5
1625,1625,2021-02-15 10:17:53.360,19.205362,5
1635,1635,2021-02-15 10:18:23.360,18.409679999999998,5
1645,1645,2021-02-15 10:18:53.360,17.8898,5
1655,1655,2021-02-15 10:19:23.360,17.974716,5
1665,1665,2021-02-15 10:19:53.360,18.035048,5
1675,1675,2021-02-15 10:20:23.360,18.13317,5
1685,1685,2021-02-15 10:20:53.360,17.719883,5
1695,1695,2021-02-15 10:21:23.360,17.470646,5
1705,1705,2021-02-15 10:21:53.360,17.277964,5
1715,1715,2021-02-15 10:22:23.360,16.882471,5
1725,1725,2021-02-15 10:22:53.360,16.526901000000002,5
1735,1735,2021-02-15 10:23:23.360,16.255924,5
1745,1745,2021-02-15 10:23:53.360,16.266146,5
1755,1755,2021-02-15 10:24:23.360,15.718755999999999,5
1765,1765,2021-02-15 10:24:53.360,15.386733999999999,5
1775,1775,2021-02-15 10:25:23.360,15.364849,5
1785,1785,2021-02-15 10:25:53.360,15.392570499999998,5
1795,1795,2021-02-15 10:26:23.360,15.452082,5
1805,1805,2021-02-15 10:26:53.360,14.906494,5
1815,1815,2021-02-15 10:27:23.360,14.559667000000001,5
1825,1825,2021-02-15 10:27:53.360,13.940773000000002,5
1835,1835,2021-02-15 10:28:23.360,13.560044,5
1845,1845,2021-02-15 10:28:53.360,13.453235000000001,5
1855,1855,2021-02-15 10:29:23.360,13.417682000000001,5
1865,1865,2021-02-15 10:29:53.360,13.328373000000001,5
1875,1875,2021-02-15 10:30:23.360,13.308,5
1885,1885,2021-02-15 10:30:53.360,12.770736,5
1895,1895,2021-02-15 10:31:23.360,12.64522,5
1905,1905,2021-02-15 10:31:53.360,12.516684,5
1915,1915,2021-02-15 10:32:23.360,12.528264,5
1925,1925,2021-02-15 10:32:53.360,12.535453,5
1935,1935,2021-02-15 10:33:23.360,12.523576,5
1945,1945,2021-02-15 10:33:53.360,12.493002,5
1955,1955,2021-02-15 10:34:23.360,11.958872999999999,5
1965,1965,2021-02-15 10:34:53.360,11.477235,5
1975,1975,2021-02-15 10:35:23.360,11.531305,5
1985,1985,2021-02-15 10:35:53.360,11.521674,5
1995,1995,2021-02-15 10:36:23.360,10.849775,5
2005,2005,2021-02-15 10:36:53.360,10.601049,5
2015,2015,2021-02-15 10:37:23.360,10.504119000000001,5
2025,2025,2021-02-15 10:37:53.360,10.5340185,5
2035,2035,2021-02-15 10:38:23.360,10.592868,5
2045,2045,2021-02-15 10:38:53.360,10.678941,5
2055,2055,2021-02-15 10:39:23.360,10.609129,5
2065,2065,2021-02-15 10:39:53.360,10.581660000000001,5
2075,2075,2021-02-15 10:40:23.360,10.728288000000001,5
2085,2085,2021-02-15 10:40:53.360,10.692461999999999,5
2095,2095,2021-02-15 10:41:23.360,10.039958,5
2105,2105,2021-02-15 10:41:53.360,9.778549,5
2115,2115,2021-02-15 10:42:23.360,9.543313000000001,5
2125,2125,2021-02-15 10:42:53.360,9.514909,5
2135,2135,2021-02-15 10:43:23.360,9.429321,5
2145,2145,2021-02-15 10:43:53.360,9.495978,5
2155,2155,2021-02-15 10:44:23.360,9.534841,5
2165,2165,2021-02-15 10:44:53.360,9.751939,5
2175,2175,2021-02-15 10:45:23.360,9.121141,5
2185,2185,2021-02-15 10:45:53.360,8.889967,5
2195,2195,2021-02-15 10:46:23.360,8.707711999999999,5
2205,2205,2021-02-15 10:46:53.360,8.668173,5
2215,2215,2021-02-15 10:47:23.360,8.553332000000001,5
2225,2225,2021-02-15 10:47:53.360,8.000741,5
2235,2235,2021-02-15 10:48:23.360,7.76801,5
2245,2245,2021-02-15 10:48:53.360,7.6765479999999995,5
2255,2255,2021-02-15 10:49:23.360,7.557276,5
2265,2265,2021-02-15 10:49:53.360,7.590826,5
2275,2275,2021-02-15 10:50:23.360,7.541395,5
2285,2285,2021-02-15 10:50:53.360,7.586249400000001,5
2295,2295,2021-02-15 10:51:23.360,7.6134386,5
2305,2305,2021-02-15 10:51:53.360,7.718323700000001,5
2315,2315,2021-02-15 10:52:23.360,7.868349,5
2325,2325,2021-02-15 10:52:53.360,8.0672455,5
2335,2335,2021-02-15 10:53:23.360,7.8319282999999995,5
2345,2345,2021-02-15 10:53:53.360,6.8301167000000005,5
2355,2355,2021-02-15 10:54:23.360,6.3176026,5
2365,2365,2021-02-15 10:54:53.360,6.1848526,5
2375,2375,2021-02-15 10:55:23.360,6.3027690000000005,5
2385,2385,2021-02-15 10:55:53.360,6.517573400000001,5
2395,2395,2021-02-15 10:56:23.360,6.618517,5
2405,2405,2021-02-15 10:56:53.360,6.7156982,5
2415,2415,2021-02-15 10:57:23.360,6.7729807,5
2425,2425,2021-02-15 10:57:53.360,6.793491400000001,5
2435,2435,2021-02-15 10:58:23.360,6.867406,5
2445,2445,2021-02-15 10:58:53.360,6.854225,5
2455,2455,2021-02-15 10:59:23.360,6.8398886,5
2465,2465,2021-02-15 10:59:53.360,6.8192782,5
2475,2475,2021-02-15 11:00:23.360,5.948003,5
2485,2485,2021-02-15 11:00:53.360,5.3829427,5
2495,2495,2021-02-15 11:01:23.360,5.3484206,5
2505,2505,2021-02-15 11:01:53.360,5.400427,5
2515,2515,2021-02-15 11:02:23.360,5.647335,5
2525,2525,2021-02-15 11:02:53.360,5.718862000000001,5
2535,2535,2021-02-15 11:03:23.360,5.749372,5
2545,2545,2021-02-15 11:03:53.360,5.7126303,5
2555,2555,2021-02-15 11:04:23.360,5.8535557,5
2565,2565,2021-02-15 11:04:53.360,5.86297,5
2575,2575,2021-02-15 11:05:23.360,5.9156346,5
2585,2585,2021-02-15 11:05:53.360,5.845316400000001,5
2595,2595,2021-02-15 11:06:23.360,5.720271,5
2605,2605,2021-02-15 11:06:53.360,4.8980083,5
2615,2615,2021-02-15 11:07:23.360,4.4352093,5
2625,2625,2021-02-15 11:07:53.360,4.4045706,5
2635,2635,2021-02-15 11:08:23.360,4.5093646,5
2645,2645,2021-02-15 11:08:53.360,4.6567492,5
2655,2655,2021-02-15 11:09:23.360,4.726084999999999,5
2665,2665,2021-02-15 11:09:53.360,4.753189,5
2675,2675,2021-02-15 11:10:23.360,4.7177715,5
2685,2685,2021-02-15 11:10:53.360,4.854903,5
2695,2695,2021-02-15 11:11:23.360,4.864886299999999,5
2705,2705,2021-02-15 11:11:53.360,4.91527,5
2715,2715,2021-02-15 11:12:23.360,4.847101,5
2725,2725,2021-02-15 11:12:53.360,4.7266755,5
2735,2735,2021-02-15 11:13:23.360,4.637616599999999,5
2745,2745,2021-02-15 11:13:53.360,4.601122,5
2755,2755,2021-02-15 11:14:23.360,4.634837,5
2765,2765,2021-02-15 11:14:53.360,3.5348105000000003,5
2775,2775,2021-02-15 11:15:23.360,4.139515,5
2785,2785,2021-02-15 11:15:53.360,4.481429599999999,5
2795,2795,2021-02-15 11:16:23.360,3.8978410000000006,5
2805,2805,2021-02-15 11:16:53.360,3.608325,5
2815,2815,2021-02-15 11:17:23.360,3.6847644,5
2825,2825,2021-02-15 11:17:53.360,3.7544637,5
2835,2835,2021-02-15 11:18:23.360,3.697764,5
2845,2845,2021-02-15 11:18:53.360,3.7271967000000004,5
2855,2855,2021-02-15 11:19:23.360,3.6677627999999998,5
2865,2865,2021-02-15 11:19:53.360,3.4853578,5
2875,2875,2021-02-15 11:20:23.360,3.6775135999999997,5
2885,2885,2021-02-15 11:20:53.360,3.8109674,5
2895,2895,2021-02-15 11:21:23.360,3.8207579,5
2905,2905,2021-02-15 11:21:53.360,3.8604445,5
2915,2915,2021-02-15 11:22:23.360,3.8193007000000003,5
2925,2925,2021-02-15 11:22:53.360,3.7327932999999995,5
2935,2935,2021-02-15 11:23:23.360,3.7241616,5
2945,2945,2021-02-15 11:23:53.360,3.6771479,5
2955,2955,2021-02-15 11:24:23.360,2.5802047000000004,5
2965,2965,2021-02-15 11:24:53.360,2.2762029999999998,5
2975,2975,2021-02-15 11:25:23.360,2.417183,5
2985,2985,2021-02-15 11:25:53.360,2.6672509,5
2995,2995,2021-02-15 11:26:23.360,2.6212676,5
3005,3005,2021-02-15 11:26:53.360,2.7753227000000003,5
3015,3015,2021-02-15 11:27:23.360,2.679663,5
3025,3025,2021-02-15 11:27:53.360,2.6751192,5
3035,3035,2021-02-15 11:28:23.360,2.799179,5
3045,3045,2021-02-15 11:28:53.360,2.9077122,5
3055,3055,2021-02-15 11:29:23.360,2.6946993,5
3065,3065,2021-02-15 11:29:53.360,2.715853,5
3075,3075,2021-02-15 11:30:23.360,2.755372,5
3085,3085,2021-02-15 11:30:53.360,2.7666137,5
3095,3095,2021-02-15 11:31:23.360,2.7533847999999996,5
3105,3105,2021-02-15 11:31:53.360,2.7142804,5
3115,3115,2021-02-15 11:32:23.360,2.5751068999999998,5
3125,3125,2021-02-15 11:32:53.360,2.5945218,5
3135,3135,2021-02-15 11:33:23.360,2.5392728,5
3145,3145,2021-02-15 11:33:53.360,2.555346,5
3155,3155,2021-02-15 11:34:23.360,2.4498889999999998,5
3165,3165,2021-02-15 11:34:53.360,2.5384817,5
3175,3175,2021-02-15 11:35:23.360,2.547489,5
3185,3185,2021-02-15 11:35:53.360,2.5234215,5
3195,3195,2021-02-15 11:36:23.360,1.9449243999999999,5
3205,3205,2021-02-15 11:36:53.360,1.6125588,5
3215,3215,2021-02-15 11:37:23.360,1.4945966999999998,5
3225,3225,2021-02-15 11:37:53.360,1.6149392,5
3235,3235,2021-02-15 11:38:23.360,1.6580801,5
3245,3245,2021-02-15 11:38:53.360,1.7456181,5
3255,3255,2021-02-15 11:39:23.360,1.7499578000000002,5
3265,3265,2021-02-15 11:39:53.360,1.7447471999999997,5
3275,3275,2021-02-15 11:40:23.360,1.7851484,5
3285,3285,2021-02-15 11:40:53.360,1.8279891,5
3295,3295,2021-02-15 11:41:23.360,1.8068497,5
3305,3305,2021-02-15 11:41:53.360,1.8229064999999998,5
3315,3315,2021-02-15 11:42:23.360,1.7987416,5
3325,3325,2021-02-15 11:42:53.360,1.7762659,5
3335,3335,2021-02-15 11:43:23.360,1.7637017,5
3345,3345,2021-02-15 11:43:53.360,1.7266376,5
3355,3355,2021-02-15 11:44:23.360,1.5956428,5
3365,3365,2021-02-15 11:44:53.360,1.6138301000000002,5
3375,3375,2021-02-15 11:45:23.360,1.562151,5
3385,3385,2021-02-15 11:45:53.360,1.5771611,5
3395,3395,2021-02-15 11:46:23.360,1.4790337,5
3405,3405,2021-02-15 11:46:53.360,1.5614092,5
3415,3415,2021-02-15 11:47:23.360,1.569819,5
3425,3425,2021-02-15 11:47:53.360,1.5473642,5
3435,3435,2021-02-15 11:48:23.360,0.96276855,5
3445,3445,2021-02-15 11:48:53.360,0.6642164,5
3455,3455,2021-02-15 11:49:23.360,0.56158113,5
3465,3465,2021-02-15 11:49:53.360,0.6624981,5
3475,3475,2021-02-15 11:50:23.360,0.69358337,5
3485,3485,2021-02-15 11:50:53.360,0.7651988000000001,5
3495,3495,2021-02-15 11:51:23.360,0.769133,5
3505,3505,2021-02-15 11:51:53.360,0.76441014,5
3515,3515,2021-02-15 11:52:23.360,0.801124,5
3525,3525,2021-02-15 11:52:53.360,0.8402940999999999,5
3535,3535,2021-02-15 11:53:23.360,0.8209361999999999,5
3545,3545,2021-02-15 11:53:53.360,0.83563554,5
3555,3555,2021-02-15 11:54:23.360,0.8135271,5
3565,3565,2021-02-15 11:54:53.360,0.79303443,5
3575,3575,2021-02-15 11:55:23.360,0.781608,5
3585,3585,2021-02-15 11:55:53.360,0.74802506,5
