name,time,countryCode,ipAddress,level,producer,value
AvgResponseTime,2020-10-30T14:29:01.321Z,IE,34.252.99.183,3.0,34.252.99.183,303.3333333333333
AvgResponseTime,2020-10-30T14:30:01.321Z,IE,34.252.99.183,3.0,34.252.99.183,9.5
AvgResponseTime,2020-10-30T14:31:01.321Z,IE,34.252.99.183,3.0,34.252.99.183,17.5
AvgResponseTime,2020-10-30T14:32:01.321Z,IE,34.252.99.183,3.0,34.252.99.183,7.5
AvgResponseTime,2020-10-30T14:33:01.321Z,IE,34.252.99.183,3.0,34.252.99.183,9
AvgResponseTime,2020-10-30T14:34:01.321Z,IE,34.252.99.183,3.0,34.252.99.183,33.33333333333334
AvgResponseTime,2020-10-30T14:35:01.321Z,IE,34.252.99.183,3.0,34.252.99.183,96.3333333333333
AvgResponseTime,2020-10-30T14:36:01.321Z,IE,34.252.99.183,3.0,34.252.99.183,7
AvgResponseTime,2020-10-30T14:37:01.321Z,IE,34.252.99.183,3.0,34.252.99.183,6.5
AvgResponseTime,2020-10-30T14:38:01.321Z,IE,34.252.99.183,3.0,34.252.99.183,104.3333333333333
AvgResponseTime,2020-10-30T14:39:01.321Z,IE,34.252.99.183,3.0,34.252.99.183,0
AvgResponseTime,2020-10-30T14:40:01.321Z,IE,34.252.99.183,3.0,34.252.99.183,7.5
AvgResponseTime,2020-10-30T14:41:01.321Z,IE,34.252.99.183,3.0,34.252.99.183,22.5
AvgResponseTime,2020-10-30T14:42:01.321Z,IE,34.252.99.183,3.0,34.252.99.183,7.5
AvgResponseTime,2020-10-30T14:43:01.321Z,IE,34.252.99.183,3.0,34.252.99.183,7
AvgResponseTime,2020-10-30T14:44:01.321Z,IE,34.252.99.183,3.0,34.252.99.183,9.5
AvgResponseTime,2020-10-30T14:45:01.321Z,IE,34.252.99.183,3.0,34.252.99.183,6
AvgResponseTime,2020-10-30T14:46:01.321Z,IE,34.252.99.183,3.0,34.252.99.183,7
AvgResponseTime,2020-10-30T14:47:01.321Z,IE,34.252.99.183,3.0,34.252.99.183,6
AvgResponseTime,2020-10-30T14:48:01.321Z,IE,34.252.99.183,3.0,34.252.99.183,7
AvgResponseTime,2020-10-30T14:49:01.321Z,IE,34.252.99.183,3.0,34.252.99.183,16
AvgResponseTime,2020-10-30T14:50:01.321Z,IE,34.252.99.183,3.0,34.252.99.183,4
AvgResponseTime,2020-10-30T14:51:01.321Z,IE,34.252.99.183,3.0,34.252.99.183,4.5
AvgResponseTime,2020-10-30T14:52:01.321Z,IE,34.252.99.183,3.0,34.252.99.183,4.5
AvgResponseTime,2020-10-30T14:53:01.321Z,IE,34.252.99.183,3.0,34.252.99.183,7
AvgResponseTime,2020-10-30T14:54:01.321Z,IE,34.252.99.183,3.0,34.252.99.183,7.333333333333333
AvgResponseTime,2020-10-30T14:55:01.321Z,IE,34.252.99.183,3.0,34.252.99.183,10
AvgResponseTime,2020-10-30T14:56:01.321Z,IE,34.252.99.183,3.0,34.252.99.183,146
AvgResponseTime,2020-10-30T14:57:01.321Z,IE,34.252.99.183,3.0,34.252.99.183,4.5
AvgResponseTime,2020-10-30T14:58:01.321Z,IE,34.252.99.183,3.0,34.252.99.183,8.5
AvgResponseTime,2020-10-30T14:59:01.321Z,IE,34.252.99.183,3.0,34.252.99.183,14.5
AvgResponseTime,2020-10-30T15:00:01.321Z,IE,34.252.99.183,3.0,34.252.99.183,6
AvgResponseTime,2020-10-30T15:01:01.321Z,IE,34.252.99.183,3.0,34.252.99.183,7
AvgResponseTime,2020-10-30T15:02:01.321Z,IE,34.252.99.183,3.0,34.252.99.183,10
AvgResponseTime,2020-10-30T15:03:01.321Z,IE,34.252.99.183,3.0,34.252.99.183,6.5
AvgResponseTime,2020-10-30T15:04:01.321Z,IE,34.252.99.183,3.0,34.252.99.183,12
AvgResponseTime,2020-10-30T15:05:01.321Z,IE,34.252.99.183,3.0,34.252.99.183,0
AvgResponseTime,2020-10-30T15:06:01.321Z,IE,34.252.99.183,3.0,34.252.99.183,32.5
AvgResponseTime,2020-10-30T15:07:01.321Z,IE,34.252.99.183,3.0,34.252.99.183,6
AvgResponseTime,2020-10-30T15:08:01.321Z,IE,34.252.99.183,3.0,34.252.99.183,5
AvgResponseTime,2020-10-30T15:09:01.321Z,IE,34.252.99.183,3.0,34.252.99.183,6
AvgResponseTime,2020-10-30T15:10:01.321Z,IE,34.252.99.183,3.0,34.252.99.183,7.5
AvgResponseTime,2020-10-30T15:11:01.321Z,IE,34.252.99.183,3.0,34.252.99.183,6.5
AvgResponseTime,2020-10-30T15:12:01.321Z,IE,34.252.99.183,3.0,34.252.99.183,8
AvgResponseTime,2020-10-30T15:13:01.321Z,IE,34.252.99.183,3.0,34.252.99.183,7
AvgResponseTime,2020-10-30T15:14:01.321Z,IE,34.252.99.183,3.0,34.252.99.183,4.5
AvgResponseTime,2020-10-30T15:15:01.321Z,IE,34.252.99.183,3.0,34.252.99.183,5.5
AvgResponseTime,2020-10-30T15:16:01.321Z,IE,34.252.99.183,3.0,34.252.99.183,7.5
AvgResponseTime,2020-10-30T15:17:01.321Z,IE,34.252.99.183,3.0,34.252.99.183,14
AvgResponseTime,2020-10-30T15:18:01.321Z,IE,34.252.99.183,3.0,34.252.99.183,8
AvgResponseTime,2020-10-30T15:19:01.321Z,IE,34.252.99.183,3.0,34.252.99.183,6
AvgResponseTime,2020-10-30T15:20:01.321Z,IE,34.252.99.183,3.0,34.252.99.183,8.5
AvgResponseTime,2020-10-30T15:21:01.321Z,IE,34.252.99.183,3.0,34.252.99.183,9.5
AvgResponseTime,2020-10-30T15:22:01.321Z,IE,34.252.99.183,3.0,34.252.99.183,7
AvgResponseTime,2020-10-30T15:23:01.321Z,IE,34.252.99.183,3.0,34.252.99.183,18
AvgResponseTime,2020-10-30T15:24:01.321Z,IE,34.252.99.183,3.0,34.252.99.183,7
AvgResponseTime,2020-10-30T15:25:01.321Z,IE,34.252.99.183,3.0,34.252.99.183,5.5
AvgResponseTime,2020-10-30T15:26:01.321Z,IE,34.252.99.183,3.0,34.252.99.183,4
AvgResponseTime,2020-10-30T15:27:01.321Z,IE,34.252.99.183,3.0,34.252.99.183,8.5
AvgResponseTime,2020-10-30T15:28:01.321Z,IE,34.252.99.183,3.0,34.252.99.183,7.5
AvgResponseTime,2020-10-30T15:29:01.321Z,IE,34.252.99.183,3.0,34.252.99.183,6
AvgResponseTime,2020-10-30T15:30:01.321Z,IE,34.252.99.183,3.0,34.252.99.183,6
AvgResponseTime,2020-10-30T15:31:01.321Z,IE,34.252.99.183,3.0,34.252.99.183,4.5
AvgResponseTime,2020-10-30T15:32:01.321Z,IE,34.252.99.183,3.0,34.252.99.183,133
AvgResponseTime,2020-10-30T15:33:01.321Z,IE,34.252.99.183,3.0,34.252.99.183,4.5
AvgResponseTime,2020-10-30T15:34:01.321Z,IE,34.252.99.183,3.0,34.252.99.183,9.5
AvgResponseTime,2020-10-30T15:35:01.321Z,IE,34.252.99.183,3.0,34.252.99.183,13.5
AvgResponseTime,2020-10-30T15:36:01.321Z,IE,34.252.99.183,3.0,34.252.99.183,9.5
AvgResponseTime,2020-10-30T15:37:01.321Z,IE,34.252.99.183,3.0,34.252.99.183,5
AvgResponseTime,2020-10-30T15:38:01.321Z,IE,34.252.99.183,3.0,34.252.99.183,6
AvgResponseTime,2020-10-30T15:39:01.321Z,IE,34.252.99.183,3.0,34.252.99.183,10.5
AvgResponseTime,2020-10-30T15:40:01.321Z,IE,34.252.99.183,3.0,34.252.99.183,8
AvgResponseTime,2020-10-30T15:41:01.321Z,IE,34.252.99.183,3.0,34.252.99.183,6.5
AvgResponseTime,2020-10-30T15:42:01.321Z,IE,34.252.99.183,3.0,34.252.99.183,5
AvgResponseTime,2020-10-30T15:43:01.321Z,IE,34.252.99.183,3.0,34.252.99.183,4
AvgResponseTime,2020-10-30T15:44:01.321Z,IE,34.252.99.183,3.0,34.252.99.183,7.5
AvgResponseTime,2020-10-30T15:45:01.321Z,IE,34.252.99.183,3.0,34.252.99.183,7.5
AvgResponseTime,2020-10-30T15:46:01.321Z,IE,34.252.99.183,3.0,34.252.99.183,0
AvgResponseTime,2020-10-30T15:47:01.321Z,IE,34.252.99.183,3.0,34.252.99.183,101.6666666666667
AvgResponseTime,2020-10-30T15:48:01.321Z,IE,34.252.99.183,3.0,34.252.99.183,6
AvgResponseTime,2020-10-30T15:49:01.321Z,IE,34.252.99.183,3.0,34.252.99.183,5.5
AvgResponseTime,2020-10-30T15:50:01.321Z,IE,34.252.99.183,3.0,34.252.99.183,5
AvgResponseTime,2020-10-30T15:51:01.321Z,IE,34.252.99.183,3.0,34.252.99.183,5
AvgResponseTime,2020-10-30T15:52:01.321Z,IE,34.252.99.183,3.0,34.252.99.183,7.5
AvgResponseTime,2020-10-30T15:53:01.321Z,IE,34.252.99.183,3.0,34.252.99.183,0
AvgResponseTime,2020-10-30T15:54:01.321Z,IE,34.252.99.183,3.0,34.252.99.183,7
AvgResponseTime,2020-10-30T15:55:01.321Z,IE,34.252.99.183,3.0,34.252.99.183,5
AvgResponseTime,2020-10-30T15:56:01.321Z,IE,34.252.99.183,3.0,34.252.99.183,5.5
AvgResponseTime,2020-10-30T15:57:01.321Z,IE,34.252.99.183,3.0,34.252.99.183,0
AvgResponseTime,2020-10-30T15:58:01.321Z,IE,34.252.99.183,3.0,34.252.99.183,8
AvgResponseTime,2020-10-30T15:59:01.321Z,IE,34.252.99.183,3.0,34.252.99.183,54
AvgResponseTime,2020-10-30T16:00:01.321Z,IE,34.252.99.183,3.0,34.252.99.183,4.5
AvgResponseTime,2020-10-30T16:01:01.321Z,IE,34.252.99.183,3.0,34.252.99.183,6
AvgResponseTime,2020-10-30T16:02:01.321Z,IE,34.252.99.183,3.0,34.252.99.183,5
AvgResponseTime,2020-10-30T16:03:01.321Z,IE,34.252.99.183,3.0,34.252.99.183,13
AvgResponseTime,2020-10-30T16:04:01.321Z,IE,34.252.99.183,3.0,34.252.99.183,6
AvgResponseTime,2020-10-30T16:05:01.321Z,IE,34.252.99.183,3.0,34.252.99.183,6
AvgResponseTime,2020-10-30T16:06:01.321Z,IE,34.252.99.183,3.0,34.252.99.183,5
AvgResponseTime,2020-10-30T16:07:01.321Z,IE,34.252.99.183,3.0,34.252.99.183,5
AvgResponseTime,2020-10-30T16:08:01.321Z,IE,34.252.99.183,3.0,34.252.99.183,15
AvgResponseTime,2020-10-30T16:09:01.321Z,IE,34.252.99.183,3.0,34.252.99.183,12
AvgResponseTime,2020-10-30T16:10:01.321Z,IE,34.252.99.183,3.0,34.252.99.183,6
AvgResponseTime,2020-10-30T16:11:01.321Z,IE,34.252.99.183,3.0,34.252.99.183,7.5
AvgResponseTime,2020-10-30T16:12:01.321Z,IE,34.252.99.183,3.0,34.252.99.183,5
AvgResponseTime,2020-10-30T16:13:01.321Z,IE,34.252.99.183,3.0,34.252.99.183,6
AvgResponseTime,2020-10-30T16:14:01.321Z,IE,34.252.99.183,3.0,34.252.99.183,5
AvgResponseTime,2020-10-30T16:15:01.321Z,IE,34.252.99.183,3.0,34.252.99.183,7.5
AvgResponseTime,2020-10-30T16:16:01.321Z,IE,34.252.99.183,3.0,34.252.99.183,7
AvgResponseTime,2020-10-30T16:17:01.321Z,IE,34.252.99.183,3.0,34.252.99.183,7
AvgResponseTime,2020-10-30T16:18:01.321Z,IE,34.252.99.183,3.0,34.252.99.183,6
AvgResponseTime,2020-10-30T16:19:01.321Z,IE,34.252.99.183,3.0,34.252.99.183,6
AvgResponseTime,2020-10-30T16:20:01.321Z,IE,34.252.99.183,3.0,34.252.99.183,4
AvgResponseTime,2020-10-30T16:21:01.321Z,IE,34.252.99.183,3.0,34.252.99.183,7.5
AvgResponseTime,2020-10-30T16:22:01.321Z,IE,34.252.99.183,3.0,34.252.99.183,0
AvgResponseTime,2020-10-30T16:23:01.321Z,IE,34.252.99.183,3.0,34.252.99.183,120
AvgResponseTime,2020-10-30T16:24:01.321Z,IE,34.252.99.183,3.0,34.252.99.183,4.5
AvgResponseTime,2020-10-30T16:25:01.321Z,IE,34.252.99.183,3.0,34.252.99.183,9
AvgResponseTime,2020-10-30T16:26:01.321Z,IE,34.252.99.183,3.0,34.252.99.183,7
AvgResponseTime,2020-10-30T16:27:01.322Z,IE,34.252.99.183,3.0,34.252.99.183,7
AvgResponseTime,2020-10-30T16:28:01.321Z,IE,34.252.99.183,3.0,34.252.99.183,7
AvgResponseTime,2020-10-30T16:29:01.321Z,IE,34.252.99.183,3.0,34.252.99.183,10.5
AvgResponseTime,2020-10-30T16:30:01.321Z,IE,34.252.99.183,3.0,34.252.99.183,4.5
AvgResponseTime,2020-10-30T16:31:01.321Z,IE,34.252.99.183,3.0,34.252.99.183,6
AvgResponseTime,2020-10-30T16:32:01.321Z,IE,34.252.99.183,3.0,34.252.99.183,10
AvgResponseTime,2020-10-30T16:33:01.321Z,IE,34.252.99.183,3.0,34.252.99.183,8
AvgResponseTime,2020-10-30T16:34:01.321Z,IE,34.252.99.183,3.0,34.252.99.183,8
AvgResponseTime,2020-10-30T16:35:01.321Z,IE,34.252.99.183,3.0,34.252.99.183,5
AvgResponseTime,2020-10-30T16:36:01.321Z,IE,34.252.99.183,3.0,34.252.99.183,7
AvgResponseTime,2020-10-30T16:37:01.321Z,IE,34.252.99.183,3.0,34.252.99.183,5
AvgResponseTime,2020-10-30T16:38:01.321Z,IE,34.252.99.183,3.0,34.252.99.183,241
AvgResponseTime,2020-10-30T16:39:01.321Z,IE,34.252.99.183,3.0,34.252.99.183,6
AvgResponseTime,2020-10-30T16:40:01.321Z,IE,34.252.99.183,3.0,34.252.99.183,5
AvgResponseTime,2020-10-30T16:41:01.321Z,IE,34.252.99.183,3.0,34.252.99.183,6
AvgResponseTime,2020-10-30T16:42:01.321Z,IE,34.252.99.183,3.0,34.252.99.183,4.5
AvgResponseTime,2020-10-30T16:43:01.321Z,IE,34.252.99.183,3.0,34.252.99.183,4.5
AvgResponseTime,2020-10-30T16:44:01.321Z,IE,34.252.99.183,3.0,34.252.99.183,5.5
AvgResponseTime,2020-10-30T16:45:01.321Z,IE,34.252.99.183,3.0,34.252.99.183,28.5
AvgResponseTime,2020-10-30T16:46:01.321Z,IE,34.252.99.183,3.0,34.252.99.183,6
AvgResponseTime,2020-10-30T16:47:01.321Z,IE,34.252.99.183,3.0,34.252.99.183,6
AvgResponseTime,2020-10-30T16:48:01.321Z,IE,34.252.99.183,3.0,34.252.99.183,4
AvgResponseTime,2020-10-30T16:49:01.321Z,IE,34.252.99.183,3.0,34.252.99.183,5.5
AvgResponseTime,2020-10-30T16:50:01.321Z,IE,34.252.99.183,3.0,34.252.99.183,8
AvgResponseTime,2020-10-30T16:51:01.321Z,IE,34.252.99.183,3.0,34.252.99.183,7
AvgResponseTime,2020-10-30T16:52:01.321Z,IE,34.252.99.183,3.0,34.252.99.183,9.5
AvgResponseTime,2020-10-30T16:53:01.321Z,IE,34.252.99.183,3.0,34.252.99.183,4.5
AvgResponseTime,2020-10-30T16:54:01.321Z,IE,34.252.99.183,3.0,34.252.99.183,5
AvgResponseTime,2020-10-30T16:55:01.321Z,IE,34.252.99.183,3.0,34.252.99.183,232
AvgResponseTime,2020-10-30T16:56:01.321Z,IE,34.252.99.183,3.0,34.252.99.183,7
AvgResponseTime,2020-10-30T16:57:01.321Z,IE,34.252.99.183,3.0,34.252.99.183,5.5
AvgResponseTime,2020-10-30T16:58:01.321Z,IE,34.252.99.183,3.0,34.252.99.183,9
AvgResponseTime,2020-10-30T16:59:01.321Z,IE,34.252.99.183,3.0,34.252.99.183,5
AvgResponseTime,2020-10-30T17:00:01.321Z,IE,34.252.99.183,3.0,34.252.99.183,48
AvgResponseTime,2020-10-30T17:01:01.321Z,IE,34.252.99.183,3.0,34.252.99.183,4.5
AvgResponseTime,2020-10-30T17:02:01.321Z,IE,34.252.99.183,3.0,34.252.99.183,8.5
AvgResponseTime,2020-10-30T17:03:01.321Z,IE,34.252.99.183,3.0,34.252.99.183,8
AvgResponseTime,2020-10-30T17:04:01.321Z,IE,34.252.99.183,3.0,34.252.99.183,8.5
AvgResponseTime,2020-10-30T17:05:01.321Z,IE,34.252.99.183,3.0,34.252.99.183,4
AvgResponseTime,2020-10-30T17:06:01.321Z,IE,34.252.99.183,3.0,34.252.99.183,5.5
AvgResponseTime,2020-10-30T17:07:01.321Z,IE,34.252.99.183,3.0,34.252.99.183,5
AvgResponseTime,2020-10-30T17:08:01.321Z,IE,34.252.99.183,3.0,34.252.99.183,7
AvgResponseTime,2020-10-30T17:09:01.321Z,IE,34.252.99.183,3.0,34.252.99.183,6
AvgResponseTime,2020-10-30T17:10:01.321Z,IE,34.252.99.183,3.0,34.252.99.183,4.5
AvgResponseTime,2020-10-30T17:11:01.321Z,IE,34.252.99.183,3.0,34.252.99.183,0
AvgResponseTime,2020-10-30T17:12:01.321Z,IE,34.252.99.183,3.0,34.252.99.183,7
AvgResponseTime,2020-10-30T17:13:01.321Z,IE,34.252.99.183,3.0,34.252.99.183,27
AvgResponseTime,2020-10-30T17:14:01.321Z,IE,34.252.99.183,3.0,34.252.99.183,9
AvgResponseTime,2020-10-30T17:15:01.321Z,IE,34.252.99.183,3.0,34.252.99.183,6.5
AvgResponseTime,2020-10-30T17:16:01.321Z,IE,34.252.99.183,3.0,34.252.99.183,8.5
AvgResponseTime,2020-10-30T17:17:01.321Z,IE,34.252.99.183,3.0,34.252.99.183,4
AvgResponseTime,2020-10-30T17:18:01.321Z,IE,34.252.99.183,3.0,34.252.99.183,5
AvgResponseTime,2020-10-30T17:19:01.321Z,IE,34.252.99.183,3.0,34.252.99.183,0
AvgResponseTime,2020-10-30T17:20:01.321Z,IE,34.252.99.183,3.0,34.252.99.183,8.5
AvgResponseTime,2020-10-30T17:21:01.321Z,IE,34.252.99.183,3.0,34.252.99.183,29
AvgResponseTime,2020-10-30T17:22:01.321Z,IE,34.252.99.183,3.0,34.252.99.183,6
AvgResponseTime,2020-10-30T17:23:01.321Z,IE,34.252.99.183,3.0,34.252.99.183,4
AvgResponseTime,2020-10-30T17:24:01.321Z,IE,34.252.99.183,3.0,34.252.99.183,7
AvgResponseTime,2020-10-30T17:25:01.321Z,IE,34.252.99.183,3.0,34.252.99.183,7.5
AvgResponseTime,2020-10-30T17:26:01.321Z,IE,34.252.99.183,3.0,34.252.99.183,6.5
AvgResponseTime,2020-10-30T17:27:01.321Z,IE,34.252.99.183,3.0,34.252.99.183,6.5
AvgResponseTime,2020-10-30T17:28:01.321Z,IE,34.252.99.183,3.0,34.252.99.183,5
AvgResponseTime,2020-10-30T17:29:01.321Z,IE,34.252.99.183,3.0,34.252.99.183,4
AvgResponseTime,2020-10-30T17:30:01.321Z,IE,34.252.99.183,3.0,34.252.99.183,44.5
AvgResponseTime,2020-10-30T17:31:01.321Z,IE,34.252.99.183,3.0,34.252.99.183,6
AvgResponseTime,2020-10-30T17:32:01.321Z,IE,34.252.99.183,3.0,34.252.99.183,5.5
AvgResponseTime,2020-10-30T17:33:01.321Z,IE,34.252.99.183,3.0,34.252.99.183,7.5
AvgResponseTime,2020-10-30T17:34:01.321Z,IE,34.252.99.183,3.0,34.252.99.183,5
AvgResponseTime,2020-10-30T17:35:01.321Z,IE,34.252.99.183,3.0,34.252.99.183,12
AvgResponseTime,2020-10-30T17:36:01.321Z,IE,34.252.99.183,3.0,34.252.99.183,5
AvgResponseTime,2020-10-30T17:37:01.321Z,IE,34.252.99.183,3.0,34.252.99.183,7.5
AvgResponseTime,2020-10-30T17:38:01.321Z,IE,34.252.99.183,3.0,34.252.99.183,7.5
AvgResponseTime,2020-10-30T17:39:01.321Z,IE,34.252.99.183,3.0,34.252.99.183,6
AvgResponseTime,2020-10-30T17:40:01.321Z,IE,34.252.99.183,3.0,34.252.99.183,7.5
AvgResponseTime,2020-10-30T17:41:01.321Z,IE,34.252.99.183,3.0,34.252.99.183,6
AvgResponseTime,2020-10-30T17:42:01.321Z,IE,34.252.99.183,3.0,34.252.99.183,6
AvgResponseTime,2020-10-30T17:43:01.321Z,IE,34.252.99.183,3.0,34.252.99.183,0
AvgResponseTime,2020-10-30T17:44:01.321Z,IE,34.252.99.183,3.0,34.252.99.183,6.5
AvgResponseTime,2020-10-30T17:45:01.321Z,IE,34.252.99.183,3.0,34.252.99.183,18.5
AvgResponseTime,2020-10-30T17:46:01.321Z,IE,34.252.99.183,3.0,34.252.99.183,7
AvgResponseTime,2020-10-30T17:47:01.321Z,IE,34.252.99.183,3.0,34.252.99.183,5.5
AvgResponseTime,2020-10-30T17:48:01.321Z,IE,34.252.99.183,3.0,34.252.99.183,4.5
AvgResponseTime,2020-10-30T17:49:01.321Z,IE,34.252.99.183,3.0,34.252.99.183,8
AvgResponseTime,2020-10-30T17:50:01.321Z,IE,34.252.99.183,3.0,34.252.99.183,6.5
AvgResponseTime,2020-10-30T17:51:01.321Z,IE,34.252.99.183,3.0,34.252.99.183,6
AvgResponseTime,2020-10-30T17:52:01.321Z,IE,34.252.99.183,3.0,34.252.99.183,4
AvgResponseTime,2020-10-30T17:53:01.321Z,IE,34.252.99.183,3.0,34.252.99.183,4.5
AvgResponseTime,2020-10-30T17:54:01.321Z,IE,34.252.99.183,3.0,34.252.99.183,12.5
AvgResponseTime,2020-10-30T17:55:01.321Z,IE,34.252.99.183,3.0,34.252.99.183,7
AvgResponseTime,2020-10-30T17:56:01.321Z,IE,34.252.99.183,3.0,34.252.99.183,8
AvgResponseTime,2020-10-30T17:57:01.321Z,IE,34.252.99.183,3.0,34.252.99.183,30
AvgResponseTime,2020-10-30T17:58:01.321Z,IE,34.252.99.183,3.0,34.252.99.183,4.5
AvgResponseTime,2020-10-30T17:59:01.321Z,IE,34.252.99.183,3.0,34.252.99.183,6
AvgResponseTime,2020-10-30T18:00:01.321Z,IE,34.252.99.183,3.0,34.252.99.183,5
AvgResponseTime,2020-10-30T18:01:01.321Z,IE,34.252.99.183,3.0,34.252.99.183,12
AvgResponseTime,2020-10-30T18:02:01.321Z,IE,34.252.99.183,3.0,34.252.99.183,16
AvgResponseTime,2020-10-30T18:03:01.321Z,IE,34.252.99.183,3.0,34.252.99.183,10
AvgResponseTime,2020-10-30T18:04:01.321Z,IE,34.252.99.183,3.0,34.252.99.183,68
AvgResponseTime,2020-10-30T18:05:01.321Z,IE,34.252.99.183,3.0,34.252.99.183,7.5
AvgResponseTime,2020-10-30T18:06:01.321Z,IE,34.252.99.183,3.0,34.252.99.183,6
AvgResponseTime,2020-10-30T18:07:01.321Z,IE,34.252.99.183,3.0,34.252.99.183,16
AvgResponseTime,2020-10-30T18:08:01.321Z,IE,34.252.99.183,3.0,34.252.99.183,6.666666666666667
AvgResponseTime,2020-10-30T18:09:01.321Z,IE,34.252.99.183,3.0,34.252.99.183,0
AvgResponseTime,2020-10-30T18:10:01.321Z,IE,34.252.99.183,3.0,34.252.99.183,4
AvgResponseTime,2020-10-30T18:11:01.321Z,IE,34.252.99.183,3.0,34.252.99.183,47.5
AvgResponseTime,2020-10-30T18:12:01.321Z,IE,34.252.99.183,3.0,34.252.99.183,7
AvgResponseTime,2020-10-30T18:13:01.321Z,IE,34.252.99.183,3.0,34.252.99.183,8
AvgResponseTime,2020-10-30T18:14:01.321Z,IE,34.252.99.183,3.0,34.252.99.183,6.5
AvgResponseTime,2020-10-30T18:15:01.321Z,IE,34.252.99.183,3.0,34.252.99.183,5
AvgResponseTime,2020-10-30T18:16:01.321Z,IE,34.252.99.183,3.0,34.252.99.183,5
AvgResponseTime,2020-10-30T18:17:01.321Z,IE,34.252.99.183,3.0,34.252.99.183,5
AvgResponseTime,2020-10-30T18:18:01.321Z,IE,34.252.99.183,3.0,34.252.99.183,7.5
AvgResponseTime,2020-10-30T18:19:01.321Z,IE,34.252.99.183,3.0,34.252.99.183,18.5
AvgResponseTime,2020-10-30T18:20:01.321Z,IE,34.252.99.183,3.0,34.252.99.183,8
AvgResponseTime,2020-10-30T18:21:01.321Z,IE,34.252.99.183,3.0,34.252.99.183,20
AvgResponseTime,2020-10-30T18:22:01.321Z,IE,34.252.99.183,3.0,34.252.99.183,5
AvgResponseTime,2020-10-30T18:23:01.322Z,IE,34.252.99.183,3.0,34.252.99.183,5
AvgResponseTime,2020-10-30T18:24:01.321Z,IE,34.252.99.183,3.0,34.252.99.183,10.5
AvgResponseTime,2020-10-30T18:25:01.321Z,IE,34.252.99.183,3.0,34.252.99.183,6
AvgResponseTime,2020-10-30T18:26:01.321Z,IE,34.252.99.183,3.0,34.252.99.183,7
AvgResponseTime,2020-10-30T18:27:01.321Z,IE,34.252.99.183,3.0,34.252.99.183,5
AvgResponseTime,2020-10-30T18:28:01.321Z,IE,34.252.99.183,3.0,34.252.99.183,5
AvgResponseTime,2020-10-30T18:29:01.321Z,IE,34.252.99.183,3.0,34.252.99.183,11.5
AvgResponseTime,2020-10-30T18:30:01.321Z,IE,34.252.99.183,3.0,34.252.99.183,64
AvgResponseTime,2020-10-30T18:31:01.321Z,IE,34.252.99.183,3.0,34.252.99.183,6.5
AvgResponseTime,2020-10-30T18:32:01.321Z,IE,34.252.99.183,3.0,34.252.99.183,7
AvgResponseTime,2020-10-30T18:33:01.321Z,IE,34.252.99.183,3.0,34.252.99.183,6.5
AvgResponseTime,2020-10-30T18:34:01.321Z,IE,34.252.99.183,3.0,34.252.99.183,32
AvgResponseTime,2020-10-30T18:35:01.321Z,IE,34.252.99.183,3.0,34.252.99.183,6
AvgResponseTime,2020-10-30T18:36:01.321Z,IE,34.252.99.183,3.0,34.252.99.183,8
AvgResponseTime,2020-10-30T18:37:01.321Z,IE,34.252.99.183,3.0,34.252.99.183,6
AvgResponseTime,2020-10-30T18:38:01.321Z,IE,34.252.99.183,3.0,34.252.99.183,7
AvgResponseTime,2020-10-30T18:39:01.321Z,IE,34.252.99.183,3.0,34.252.99.183,4.5
AvgResponseTime,2020-10-30T18:40:01.321Z,IE,34.252.99.183,3.0,34.252.99.183,8
AvgResponseTime,2020-10-30T18:41:01.321Z,IE,34.252.99.183,3.0,34.252.99.183,6.5
AvgResponseTime,2020-10-30T18:42:01.321Z,IE,34.252.99.183,3.0,34.252.99.183,16.5
AvgResponseTime,2020-10-30T18:43:01.321Z,IE,34.252.99.183,3.0,34.252.99.183,84.6666666666667
AvgResponseTime,2020-10-30T18:44:01.321Z,IE,34.252.99.183,3.0,34.252.99.183,111.5
AvgResponseTime,2020-10-30T18:45:01.321Z,IE,34.252.99.183,3.0,34.252.99.183,4.5
AvgResponseTime,2020-10-30T18:46:01.321Z,IE,34.252.99.183,3.0,34.252.99.183,5.5
AvgResponseTime,2020-10-30T18:47:01.321Z,IE,34.252.99.183,3.0,34.252.99.183,8
AvgResponseTime,2020-10-30T18:48:01.321Z,IE,34.252.99.183,3.0,34.252.99.183,7.5
AvgResponseTime,2020-10-30T18:49:01.321Z,IE,34.252.99.183,3.0,34.252.99.183,6
AvgResponseTime,2020-10-30T18:50:01.321Z,IE,34.252.99.183,3.0,34.252.99.183,6.5
AvgResponseTime,2020-10-30T18:51:01.321Z,IE,34.252.99.183,3.0,34.252.99.183,7.5
AvgResponseTime,2020-10-30T18:52:01.321Z,IE,34.252.99.183,3.0,34.252.99.183,6
AvgResponseTime,2020-10-30T18:53:01.321Z,IE,34.252.99.183,3.0,34.252.99.183,9.5
AvgResponseTime,2020-10-30T18:54:01.321Z,IE,34.252.99.183,3.0,34.252.99.183,6.5
AvgResponseTime,2020-10-30T18:55:01.321Z,IE,34.252.99.183,3.0,34.252.99.183,7
AvgResponseTime,2020-10-30T18:56:01.321Z,IE,34.252.99.183,3.0,34.252.99.183,7.5
AvgResponseTime,2020-10-30T18:57:01.321Z,IE,34.252.99.183,3.0,34.252.99.183,5
AvgResponseTime,2020-10-30T18:58:01.321Z,IE,34.252.99.183,3.0,34.252.99.183,5
AvgResponseTime,2020-10-30T18:59:01.321Z,IE,34.252.99.183,3.0,34.252.99.183,7
AvgResponseTime,2020-10-30T19:00:01.321Z,IE,34.252.99.183,3.0,34.252.99.183,5.5
AvgResponseTime,2020-10-30T19:01:01.321Z,IE,34.252.99.183,3.0,34.252.99.183,8
AvgResponseTime,2020-10-30T19:02:01.321Z,IE,34.252.99.183,3.0,34.252.99.183,18.5
AvgResponseTime,2020-10-30T19:03:01.321Z,IE,34.252.99.183,3.0,34.252.99.183,5
AvgResponseTime,2020-10-30T19:04:01.321Z,IE,34.252.99.183,3.0,34.252.99.183,4.5
AvgResponseTime,2020-10-30T19:05:01.321Z,IE,34.252.99.183,3.0,34.252.99.183,6.5
AvgResponseTime,2020-10-30T19:06:01.321Z,IE,34.252.99.183,3.0,34.252.99.183,5.5
AvgResponseTime,2020-10-30T19:07:01.321Z,IE,34.252.99.183,3.0,34.252.99.183,12
AvgResponseTime,2020-10-30T19:08:01.322Z,IE,34.252.99.183,3.0,34.252.99.183,0
AvgResponseTime,2020-10-30T19:09:01.321Z,IE,34.252.99.183,3.0,34.252.99.183,5.5
AvgResponseTime,2020-10-30T19:10:01.321Z,IE,34.252.99.183,3.0,34.252.99.183,9.5
AvgResponseTime,2020-10-30T19:11:01.321Z,IE,34.252.99.183,3.0,34.252.99.183,8
AvgResponseTime,2020-10-30T19:12:01.321Z,IE,34.252.99.183,3.0,34.252.99.183,7
AvgResponseTime,2020-10-30T19:13:01.321Z,IE,34.252.99.183,3.0,34.252.99.183,49.5
AvgResponseTime,2020-10-30T19:14:01.321Z,IE,34.252.99.183,3.0,34.252.99.183,5.5
AvgResponseTime,2020-10-30T19:15:01.321Z,IE,34.252.99.183,3.0,34.252.99.183,5
AvgResponseTime,2020-10-30T19:16:01.321Z,IE,34.252.99.183,3.0,34.252.99.183,6
AvgResponseTime,2020-10-30T19:17:01.321Z,IE,34.252.99.183,3.0,34.252.99.183,7
AvgResponseTime,2020-10-30T19:18:01.321Z,IE,34.252.99.183,3.0,34.252.99.183,6
AvgResponseTime,2020-10-30T19:19:01.321Z,IE,34.252.99.183,3.0,34.252.99.183,6
AvgResponseTime,2020-10-30T19:20:01.321Z,IE,34.252.99.183,3.0,34.252.99.183,5
AvgResponseTime,2020-10-30T19:21:01.321Z,IE,34.252.99.183,3.0,34.252.99.183,5
AvgResponseTime,2020-10-30T19:22:01.321Z,IE,34.252.99.183,3.0,34.252.99.183,5.5
AvgResponseTime,2020-10-30T19:23:01.321Z,IE,34.252.99.183,3.0,34.252.99.183,11.5
AvgResponseTime,2020-10-30T19:24:01.321Z,IE,34.252.99.183,3.0,34.252.99.183,6.5
AvgResponseTime,2020-10-30T19:25:01.321Z,IE,34.252.99.183,3.0,34.252.99.183,0
AvgResponseTime,2020-10-30T19:26:01.321Z,IE,34.252.99.183,3.0,34.252.99.183,5
AvgResponseTime,2020-10-30T19:27:01.321Z,IE,34.252.99.183,3.0,34.252.99.183,7.5
AvgResponseTime,2020-10-30T19:28:01.321Z,IE,34.252.99.183,3.0,34.252.99.183,7.5
AvgResponseTime,2020-10-30T19:29:01.321Z,IE,34.252.99.183,3.0,34.252.99.183,0
AvgResponseTime,2020-10-30T19:30:01.321Z,IE,34.252.99.183,3.0,34.252.99.183,18.5
AvgResponseTime,2020-10-30T19:31:01.324Z,IE,34.252.99.183,3.0,34.252.99.183,9
AvgResponseTime,2020-10-30T19:32:01.321Z,IE,34.252.99.183,3.0,34.252.99.183,7.5
AvgResponseTime,2020-10-30T19:33:01.321Z,IE,34.252.99.183,3.0,34.252.99.183,15
AvgResponseTime,2020-10-30T19:34:01.321Z,IE,34.252.99.183,3.0,34.252.99.183,6
AvgResponseTime,2020-10-30T19:35:01.321Z,IE,34.252.99.183,3.0,34.252.99.183,7
AvgResponseTime,2020-10-30T19:36:01.321Z,IE,34.252.99.183,3.0,34.252.99.183,6.5
AvgResponseTime,2020-10-30T19:37:01.321Z,IE,34.252.99.183,3.0,34.252.99.183,79
AvgResponseTime,2020-10-30T19:38:01.321Z,IE,34.252.99.183,3.0,34.252.99.183,35
AvgResponseTime,2020-10-30T19:39:01.321Z,IE,34.252.99.183,3.0,34.252.99.183,28
AvgResponseTime,2020-10-30T19:40:01.321Z,IE,34.252.99.183,3.0,34.252.99.183,6
AvgResponseTime,2020-10-30T19:41:01.321Z,IE,34.252.99.183,3.0,34.252.99.183,6.5
AvgResponseTime,2020-10-30T19:42:01.321Z,IE,34.252.99.183,3.0,34.252.99.183,8
AvgResponseTime,2020-10-30T19:43:01.321Z,IE,34.252.99.183,3.0,34.252.99.183,6
AvgResponseTime,2020-10-30T19:44:01.321Z,IE,34.252.99.183,3.0,34.252.99.183,8
AvgResponseTime,2020-10-30T19:45:01.321Z,IE,34.252.99.183,3.0,34.252.99.183,12.5
AvgResponseTime,2020-10-30T19:46:01.321Z,IE,34.252.99.183,3.0,34.252.99.183,7
AvgResponseTime,2020-10-30T19:47:01.321Z,IE,34.252.99.183,3.0,34.252.99.183,8
AvgResponseTime,2020-10-30T19:48:01.321Z,IE,34.252.99.183,3.0,34.252.99.183,0
AvgResponseTime,2020-10-30T19:49:01.321Z,IE,34.252.99.183,3.0,34.252.99.183,4
AvgResponseTime,2020-10-30T19:50:01.321Z,IE,34.252.99.183,3.0,34.252.99.183,7
AvgResponseTime,2020-10-30T19:51:01.321Z,IE,34.252.99.183,3.0,34.252.99.183,6
AvgResponseTime,2020-10-30T19:52:01.321Z,IE,34.252.99.183,3.0,34.252.99.183,7
AvgResponseTime,2020-10-30T19:53:01.321Z,IE,34.252.99.183,3.0,34.252.99.183,205.5
AvgResponseTime,2020-10-30T19:54:01.321Z,IE,34.252.99.183,3.0,34.252.99.183,6.5
AvgResponseTime,2020-10-30T19:55:01.321Z,IE,34.252.99.183,3.0,34.252.99.183,5
AvgResponseTime,2020-10-30T19:56:01.321Z,IE,34.252.99.183,3.0,34.252.99.183,5
AvgResponseTime,2020-10-30T19:57:01.321Z,IE,34.252.99.183,3.0,34.252.99.183,8.5
AvgResponseTime,2020-10-30T19:58:01.321Z,IE,34.252.99.183,3.0,34.252.99.183,18.5
AvgResponseTime,2020-10-30T19:59:01.321Z,IE,34.252.99.183,3.0,34.252.99.183,5.5
AvgResponseTime,2020-10-30T20:00:01.321Z,IE,34.252.99.183,3.0,34.252.99.183,6
AvgResponseTime,2020-10-30T20:01:01.321Z,IE,34.252.99.183,3.0,34.252.99.183,5
AvgResponseTime,2020-10-30T20:02:01.321Z,IE,34.252.99.183,3.0,34.252.99.183,6
AvgResponseTime,2020-10-30T20:03:01.321Z,IE,34.252.99.183,3.0,34.252.99.183,13
AvgResponseTime,2020-10-30T20:04:01.321Z,IE,34.252.99.183,3.0,34.252.99.183,6.5
AvgResponseTime,2020-10-30T20:05:01.321Z,IE,34.252.99.183,3.0,34.252.99.183,129
AvgResponseTime,2020-10-30T20:06:01.321Z,IE,34.252.99.183,3.0,34.252.99.183,0
AvgResponseTime,2020-10-30T20:07:01.321Z,IE,34.252.99.183,3.0,34.252.99.183,4
AvgResponseTime,2020-10-30T20:08:01.321Z,IE,34.252.99.183,3.0,34.252.99.183,5.5
AvgResponseTime,2020-10-30T20:09:01.321Z,IE,34.252.99.183,3.0,34.252.99.183,6
AvgResponseTime,2020-10-30T20:10:01.321Z,IE,34.252.99.183,3.0,34.252.99.183,6
AvgResponseTime,2020-10-30T20:11:01.321Z,IE,34.252.99.183,3.0,34.252.99.183,6
AvgResponseTime,2020-10-30T20:12:01.321Z,IE,34.252.99.183,3.0,34.252.99.183,0
AvgResponseTime,2020-10-30T20:13:01.321Z,IE,34.252.99.183,3.0,34.252.99.183,86
AvgResponseTime,2020-10-30T20:14:01.321Z,IE,34.252.99.183,3.0,34.252.99.183,5
AvgResponseTime,2020-10-30T20:15:01.321Z,IE,34.252.99.183,3.0,34.252.99.183,6.5
AvgResponseTime,2020-10-30T20:16:01.321Z,IE,34.252.99.183,3.0,34.252.99.183,0
AvgResponseTime,2020-10-30T20:17:01.321Z,IE,34.252.99.183,3.0,34.252.99.183,7.5
AvgResponseTime,2020-10-30T20:18:01.321Z,IE,34.252.99.183,3.0,34.252.99.183,4.5
AvgResponseTime,2020-10-30T20:19:01.321Z,IE,34.252.99.183,3.0,34.252.99.183,7
AvgResponseTime,2020-10-30T20:20:01.321Z,IE,34.252.99.183,3.0,34.252.99.183,7
AvgResponseTime,2020-10-30T20:21:01.321Z,IE,34.252.99.183,3.0,34.252.99.183,9
AvgResponseTime,2020-10-30T20:22:01.321Z,IE,34.252.99.183,3.0,34.252.99.183,8
AvgResponseTime,2020-10-30T20:23:01.321Z,IE,34.252.99.183,3.0,34.252.99.183,5
AvgResponseTime,2020-10-30T20:24:01.321Z,IE,34.252.99.183,3.0,34.252.99.183,0
AvgResponseTime,2020-10-30T20:25:01.321Z,IE,34.252.99.183,3.0,34.252.99.183,118
AvgResponseTime,2020-10-30T20:26:01.321Z,IE,34.252.99.183,3.0,34.252.99.183,303.5
AvgResponseTime,2020-10-30T20:27:01.321Z,IE,34.252.99.183,3.0,34.252.99.183,6
AvgResponseTime,2020-10-30T20:28:01.322Z,IE,34.252.99.183,3.0,34.252.99.183,11
AvgResponseTime,2020-10-30T20:29:01.321Z,IE,34.252.99.183,3.0,34.252.99.183,4
AvgResponseTime,2020-10-30T20:30:01.321Z,IE,34.252.99.183,3.0,34.252.99.183,4.5
AvgResponseTime,2020-10-30T20:31:01.321Z,IE,34.252.99.183,3.0,34.252.99.183,4.5
AvgResponseTime,2020-10-30T20:32:01.321Z,IE,34.252.99.183,3.0,34.252.99.183,8.5
AvgResponseTime,2020-10-30T20:33:01.321Z,IE,34.252.99.183,3.0,34.252.99.183,14.5
AvgResponseTime,2020-10-30T20:34:01.321Z,IE,34.252.99.183,3.0,34.252.99.183,7
AvgResponseTime,2020-10-30T20:35:01.321Z,IE,34.252.99.183,3.0,34.252.99.183,0
AvgResponseTime,2020-10-30T20:36:01.321Z,IE,34.252.99.183,3.0,34.252.99.183,4
AvgResponseTime,2020-10-30T20:37:01.321Z,IE,34.252.99.183,3.0,34.252.99.183,5
AvgResponseTime,2020-10-30T20:38:01.321Z,IE,34.252.99.183,3.0,34.252.99.183,7.5
AvgResponseTime,2020-10-30T20:39:01.321Z,IE,34.252.99.183,3.0,34.252.99.183,10
AvgResponseTime,2020-10-30T20:40:01.321Z,IE,34.252.99.183,3.0,34.252.99.183,6.5
AvgResponseTime,2020-10-30T20:41:01.321Z,IE,34.252.99.183,3.0,34.252.99.183,5.5
AvgResponseTime,2020-10-30T20:42:01.321Z,IE,34.252.99.183,3.0,34.252.99.183,0
AvgResponseTime,2020-10-30T20:43:01.321Z,IE,34.252.99.183,3.0,34.252.99.183,5
AvgResponseTime,2020-10-30T20:44:01.321Z,IE,34.252.99.183,3.0,34.252.99.183,6
AvgResponseTime,2020-10-30T20:45:01.321Z,IE,34.252.99.183,3.0,34.252.99.183,6
AvgResponseTime,2020-10-30T20:46:01.321Z,IE,34.252.99.183,3.0,34.252.99.183,12.5
AvgResponseTime,2020-10-30T20:47:01.321Z,IE,34.252.99.183,3.0,34.252.99.183,121.5
AvgResponseTime,2020-10-30T20:48:01.321Z,IE,34.252.99.183,3.0,34.252.99.183,5
AvgResponseTime,2020-10-30T20:49:01.321Z,IE,34.252.99.183,3.0,34.252.99.183,28.5
AvgResponseTime,2020-10-30T20:50:01.321Z,IE,34.252.99.183,3.0,34.252.99.183,7
AvgResponseTime,2020-10-30T20:51:01.321Z,IE,34.252.99.183,3.0,34.252.99.183,6
AvgResponseTime,2020-10-30T20:52:01.321Z,IE,34.252.99.183,3.0,34.252.99.183,8
AvgResponseTime,2020-10-30T20:53:01.321Z,IE,34.252.99.183,3.0,34.252.99.183,5.5
AvgResponseTime,2020-10-30T20:54:01.321Z,IE,34.252.99.183,3.0,34.252.99.183,7
AvgResponseTime,2020-10-30T20:55:01.321Z,IE,34.252.99.183,3.0,34.252.99.183,8.5
AvgResponseTime,2020-10-30T20:56:01.321Z,IE,34.252.99.183,3.0,34.252.99.183,8.5
AvgResponseTime,2020-10-30T20:57:01.321Z,IE,34.252.99.183,3.0,34.252.99.183,12
AvgResponseTime,2020-10-30T20:58:01.321Z,IE,34.252.99.183,3.0,34.252.99.183,5.5
AvgResponseTime,2020-10-30T20:59:01.321Z,IE,34.252.99.183,3.0,34.252.99.183,4
AvgResponseTime,2020-10-30T21:00:01.321Z,IE,34.252.99.183,3.0,34.252.99.183,6
AvgResponseTime,2020-10-30T21:01:01.321Z,IE,34.252.99.183,3.0,34.252.99.183,11.5
AvgResponseTime,2020-10-30T21:02:01.321Z,IE,34.252.99.183,3.0,34.252.99.183,7
AvgResponseTime,2020-10-30T21:03:01.321Z,IE,34.252.99.183,3.0,34.252.99.183,6.5
AvgResponseTime,2020-10-30T21:04:01.321Z,IE,34.252.99.183,3.0,34.252.99.183,5
AvgResponseTime,2020-10-30T21:05:01.322Z,IE,34.252.99.183,3.0,34.252.99.183,4.5
AvgResponseTime,2020-10-30T21:06:01.321Z,IE,34.252.99.183,3.0,34.252.99.183,5
AvgResponseTime,2020-10-30T21:07:01.321Z,IE,34.252.99.183,3.0,34.252.99.183,7
AvgResponseTime,2020-10-30T21:08:01.321Z,IE,34.252.99.183,3.0,34.252.99.183,6
AvgResponseTime,2020-10-30T21:09:01.321Z,IE,34.252.99.183,3.0,34.252.99.183,19.5
AvgResponseTime,2020-10-30T21:10:01.321Z,IE,34.252.99.183,3.0,34.252.99.183,11.5
AvgResponseTime,2020-10-30T21:11:01.321Z,IE,34.252.99.183,3.0,34.252.99.183,5.5
AvgResponseTime,2020-10-30T21:12:01.321Z,IE,34.252.99.183,3.0,34.252.99.183,0
AvgResponseTime,2020-10-30T21:13:01.321Z,IE,34.252.99.183,3.0,34.252.99.183,10
AvgResponseTime,2020-10-30T21:14:01.321Z,IE,34.252.99.183,3.0,34.252.99.183,6
AvgResponseTime,2020-10-30T21:15:01.321Z,IE,34.252.99.183,3.0,34.252.99.183,30.5
AvgResponseTime,2020-10-30T21:16:01.321Z,IE,34.252.99.183,3.0,34.252.99.183,4
AvgResponseTime,2020-10-30T21:17:01.321Z,IE,34.252.99.183,3.0,34.252.99.183,0
AvgResponseTime,2020-10-30T21:18:01.321Z,IE,34.252.99.183,3.0,34.252.99.183,0
AvgResponseTime,2020-10-30T21:19:01.321Z,IE,34.252.99.183,3.0,34.252.99.183,0
AvgResponseTime,2020-10-30T21:20:01.321Z,IE,34.252.99.183,3.0,34.252.99.183,0
AvgResponseTime,2020-10-30T21:21:01.321Z,IE,34.252.99.183,3.0,34.252.99.183,0
AvgResponseTime,2020-10-30T21:22:01.321Z,IE,34.252.99.183,3.0,34.252.99.183,0
AvgResponseTime,2020-10-30T21:23:01.321Z,IE,34.252.99.183,3.0,34.252.99.183,0
AvgResponseTime,2020-10-30T21:24:01.321Z,IE,34.252.99.183,3.0,34.252.99.183,0
AvgResponseTime,2020-10-30T21:25:01.321Z,IE,34.252.99.183,3.0,34.252.99.183,0
AvgResponseTime,2020-10-30T21:26:01.321Z,IE,34.252.99.183,3.0,34.252.99.183,0
AvgResponseTime,2020-10-30T21:27:01.321Z,IE,34.252.99.183,3.0,34.252.99.183,0
AvgResponseTime,2020-10-30T21:28:01.321Z,IE,34.252.99.183,3.0,34.252.99.183,0
AvgResponseTime,2020-10-30T21:29:01.321Z,IE,34.252.99.183,3.0,34.252.99.183,0
AvgResponseTime,2020-10-30T21:30:01.321Z,IE,34.252.99.183,3.0,34.252.99.183,0
AvgResponseTime,2020-10-30T21:31:01.321Z,IE,34.252.99.183,3.0,34.252.99.183,0
AvgResponseTime,2020-10-30T21:32:01.321Z,IE,34.252.99.183,3.0,34.252.99.183,0
AvgResponseTime,2020-10-30T21:33:01.321Z,IE,34.252.99.183,3.0,34.252.99.183,0
AvgResponseTime,2020-10-30T21:34:01.321Z,IE,34.252.99.183,3.0,34.252.99.183,0
AvgResponseTime,2020-10-30T21:35:01.321Z,IE,34.252.99.183,3.0,34.252.99.183,0
AvgResponseTime,2020-10-30T21:36:01.321Z,IE,34.252.99.183,3.0,34.252.99.183,0
AvgResponseTime,2020-10-30T21:37:01.321Z,IE,34.252.99.183,3.0,34.252.99.183,0
AvgResponseTime,2020-10-30T21:38:01.321Z,IE,34.252.99.183,3.0,34.252.99.183,0
AvgResponseTime,2020-10-30T21:39:01.321Z,IE,34.252.99.183,3.0,34.252.99.183,0
AvgResponseTime,2020-10-30T21:40:01.321Z,IE,34.252.99.183,3.0,34.252.99.183,0
AvgResponseTime,2020-10-30T21:41:01.321Z,IE,34.252.99.183,3.0,34.252.99.183,0
AvgResponseTime,2020-10-30T21:42:01.321Z,IE,34.252.99.183,3.0,34.252.99.183,0
AvgResponseTime,2020-10-30T21:43:01.321Z,IE,34.252.99.183,3.0,34.252.99.183,0
AvgResponseTime,2020-10-30T21:44:01.321Z,IE,34.252.99.183,3.0,34.252.99.183,0
AvgResponseTime,2020-10-30T21:45:01.321Z,IE,34.252.99.183,3.0,34.252.99.183,0
AvgResponseTime,2020-10-30T21:46:01.321Z,IE,34.252.99.183,3.0,34.252.99.183,0
AvgResponseTime,2020-10-30T21:47:01.321Z,IE,34.252.99.183,3.0,34.252.99.183,0
AvgResponseTime,2020-10-30T21:48:01.321Z,IE,34.252.99.183,3.0,34.252.99.183,0
AvgResponseTime,2020-10-30T21:49:01.322Z,IE,34.252.99.183,3.0,34.252.99.183,0
AvgResponseTime,2020-10-30T21:50:01.321Z,IE,34.252.99.183,3.0,34.252.99.183,0
AvgResponseTime,2020-10-30T21:51:01.321Z,IE,34.252.99.183,3.0,34.252.99.183,0
AvgResponseTime,2020-10-30T21:52:01.321Z,IE,34.252.99.183,3.0,34.252.99.183,0
AvgResponseTime,2020-10-30T21:53:01.321Z,IE,34.252.99.183,3.0,34.252.99.183,0
AvgResponseTime,2020-10-30T21:54:01.321Z,IE,34.252.99.183,3.0,34.252.99.183,0
AvgResponseTime,2020-10-30T21:55:01.321Z,IE,34.252.99.183,3.0,34.252.99.183,0
AvgResponseTime,2020-10-30T21:56:01.321Z,IE,34.252.99.183,3.0,34.252.99.183,0
AvgResponseTime,2020-10-30T21:57:01.321Z,IE,34.252.99.183,3.0,34.252.99.183,0
AvgResponseTime,2020-10-30T21:58:01.321Z,IE,34.252.99.183,3.0,34.252.99.183,0
AvgResponseTime,2020-10-30T21:59:01.321Z,IE,34.252.99.183,3.0,34.252.99.183,0
AvgResponseTime,2020-10-30T22:00:01.321Z,IE,34.252.99.183,3.0,34.252.99.183,0
AvgResponseTime,2020-10-30T22:01:01.321Z,IE,34.252.99.183,3.0,34.252.99.183,0
AvgResponseTime,2020-10-30T22:02:01.321Z,IE,34.252.99.183,3.0,34.252.99.183,0
AvgResponseTime,2020-10-30T22:03:01.321Z,IE,34.252.99.183,3.0,34.252.99.183,0
AvgResponseTime,2020-10-30T22:03:31.322Z,IE,34.252.99.183,3.0,34.252.99.183,0
AvgResponseTime,2020-10-30T22:04:01.321Z,IE,34.252.99.183,3.0,34.252.99.183,0
AvgResponseTime,2020-10-30T22:05:01.321Z,IE,34.252.99.183,3.0,34.252.99.183,0
AvgResponseTime,2020-10-30T22:06:01.321Z,IE,34.252.99.183,3.0,34.252.99.183,0
AvgResponseTime,2020-10-30T22:07:01.321Z,IE,34.252.99.183,3.0,34.252.99.183,0
AvgResponseTime,2020-10-30T22:08:01.321Z,IE,34.252.99.183,3.0,34.252.99.183,0
AvgResponseTime,2020-10-30T22:09:01.321Z,IE,34.252.99.183,3.0,34.252.99.183,0
AvgResponseTime,2020-10-30T22:10:01.321Z,IE,34.252.99.183,3.0,34.252.99.183,0
AvgResponseTime,2020-10-30T22:11:01.321Z,IE,34.252.99.183,3.0,34.252.99.183,0
AvgResponseTime,2020-10-30T22:12:01.321Z,IE,34.252.99.183,3.0,34.252.99.183,0
AvgResponseTime,2020-10-30T22:13:01.321Z,IE,34.252.99.183,3.0,34.252.99.183,0
AvgResponseTime,2020-10-30T22:14:01.321Z,IE,34.252.99.183,3.0,34.252.99.183,0
AvgResponseTime,2020-10-30T22:15:01.321Z,IE,34.252.99.183,3.0,34.252.99.183,0
AvgResponseTime,2020-10-30T22:16:01.321Z,IE,34.252.99.183,3.0,34.252.99.183,0
AvgResponseTime,2020-10-30T22:17:01.321Z,IE,34.252.99.183,3.0,34.252.99.183,0
AvgResponseTime,2020-10-30T22:18:01.321Z,IE,34.252.99.183,3.0,34.252.99.183,0
AvgResponseTime,2020-10-30T22:19:01.321Z,IE,34.252.99.183,3.0,34.252.99.183,0
AvgResponseTime,2020-10-30T22:20:01.321Z,IE,34.252.99.183,3.0,34.252.99.183,0
AvgResponseTime,2020-10-30T22:21:01.321Z,IE,34.252.99.183,3.0,34.252.99.183,0
AvgResponseTime,2020-10-30T22:22:01.321Z,IE,34.252.99.183,3.0,34.252.99.183,0
AvgResponseTime,2020-10-30T22:23:01.321Z,IE,34.252.99.183,3.0,34.252.99.183,0
AvgResponseTime,2020-10-30T22:24:01.321Z,IE,34.252.99.183,3.0,34.252.99.183,0
AvgResponseTime,2020-10-30T22:25:01.321Z,IE,34.252.99.183,3.0,34.252.99.183,0
AvgResponseTime,2020-10-30T22:26:01.321Z,IE,34.252.99.183,3.0,34.252.99.183,0
AvgResponseTime,2020-10-30T22:27:01.321Z,IE,34.252.99.183,3.0,34.252.99.183,0
AvgResponseTime,2020-10-30T22:28:01.321Z,IE,34.252.99.183,3.0,34.252.99.183,0
AvgResponseTime,2020-10-30T22:29:01.321Z,IE,34.252.99.183,3.0,34.252.99.183,0
AvgResponseTime,2020-10-30T22:30:01.321Z,IE,34.252.99.183,3.0,34.252.99.183,0
AvgResponseTime,2020-10-30T22:31:01.321Z,IE,34.252.99.183,3.0,34.252.99.183,0
AvgResponseTime,2020-10-30T22:32:01.321Z,IE,34.252.99.183,3.0,34.252.99.183,0
AvgResponseTime,2020-10-30T22:33:01.321Z,IE,34.252.99.183,3.0,34.252.99.183,0
AvgResponseTime,2020-10-30T22:34:01.321Z,IE,34.252.99.183,3.0,34.252.99.183,0
AvgResponseTime,2020-10-30T22:35:01.321Z,IE,34.252.99.183,3.0,34.252.99.183,0
AvgResponseTime,2020-10-30T22:36:01.321Z,IE,34.252.99.183,3.0,34.252.99.183,0
AvgResponseTime,2020-10-30T22:37:01.321Z,IE,34.252.99.183,3.0,34.252.99.183,0
AvgResponseTime,2020-10-30T22:38:01.321Z,IE,34.252.99.183,3.0,34.252.99.183,0
AvgResponseTime,2020-10-30T22:39:01.321Z,IE,34.252.99.183,3.0,34.252.99.183,0
AvgResponseTime,2020-10-30T22:40:01.321Z,IE,34.252.99.183,3.0,34.252.99.183,0
AvgResponseTime,2020-10-30T22:41:01.321Z,IE,34.252.99.183,3.0,34.252.99.183,0
AvgResponseTime,2020-10-30T22:42:01.321Z,IE,34.252.99.183,3.0,34.252.99.183,0
AvgResponseTime,2020-10-30T22:43:01.321Z,IE,34.252.99.183,3.0,34.252.99.183,0
AvgResponseTime,2020-10-30T22:44:01.321Z,IE,34.252.99.183,3.0,34.252.99.183,0
AvgResponseTime,2020-10-30T22:45:01.321Z,IE,34.252.99.183,3.0,34.252.99.183,0
AvgResponseTime,2020-10-30T22:46:01.321Z,IE,34.252.99.183,3.0,34.252.99.183,0
AvgResponseTime,2020-10-30T22:47:01.321Z,IE,34.252.99.183,3.0,34.252.99.183,0
AvgResponseTime,2020-10-30T22:48:01.322Z,IE,34.252.99.183,3.0,34.252.99.183,0
AvgResponseTime,2020-10-30T22:49:01.321Z,IE,34.252.99.183,3.0,34.252.99.183,0
AvgResponseTime,2020-10-30T22:50:01.321Z,IE,34.252.99.183,3.0,34.252.99.183,0
AvgResponseTime,2020-10-30T22:51:01.321Z,IE,34.252.99.183,3.0,34.252.99.183,0
AvgResponseTime,2020-10-30T22:52:01.321Z,IE,34.252.99.183,3.0,34.252.99.183,0
AvgResponseTime,2020-10-30T22:53:01.321Z,IE,34.252.99.183,3.0,34.252.99.183,0
AvgResponseTime,2020-10-30T22:54:01.321Z,IE,34.252.99.183,3.0,34.252.99.183,0
AvgResponseTime,2020-10-30T22:55:01.321Z,IE,34.252.99.183,3.0,34.252.99.183,0
AvgResponseTime,2020-10-30T22:56:01.321Z,IE,34.252.99.183,3.0,34.252.99.183,0
AvgResponseTime,2020-10-30T22:57:01.321Z,IE,34.252.99.183,3.0,34.252.99.183,0
AvgResponseTime,2020-10-30T22:58:01.321Z,IE,34.252.99.183,3.0,34.252.99.183,0
AvgResponseTime,2020-10-30T22:59:01.321Z,IE,34.252.99.183,3.0,34.252.99.183,0
AvgResponseTime,2020-10-30T23:00:01.321Z,IE,34.252.99.183,3.0,34.252.99.183,0
AvgResponseTime,2020-10-30T23:01:01.321Z,IE,34.252.99.183,3.0,34.252.99.183,0
AvgResponseTime,2020-10-30T23:02:01.321Z,IE,34.252.99.183,3.0,34.252.99.183,0
AvgResponseTime,2020-10-30T23:03:01.321Z,IE,34.252.99.183,3.0,34.252.99.183,0
AvgResponseTime,2020-10-30T23:04:01.321Z,IE,34.252.99.183,3.0,34.252.99.183,0
AvgResponseTime,2020-10-30T23:05:01.321Z,IE,34.252.99.183,3.0,34.252.99.183,0
AvgResponseTime,2020-10-30T23:06:01.321Z,IE,34.252.99.183,3.0,34.252.99.183,0
AvgResponseTime,2020-10-30T23:07:01.321Z,IE,34.252.99.183,3.0,34.252.99.183,0
AvgResponseTime,2020-10-30T23:08:01.321Z,IE,34.252.99.183,3.0,34.252.99.183,0
AvgResponseTime,2020-10-30T23:09:01.321Z,IE,34.252.99.183,3.0,34.252.99.183,0
AvgResponseTime,2020-10-30T23:10:01.321Z,IE,34.252.99.183,3.0,34.252.99.183,0
AvgResponseTime,2020-10-30T23:11:01.321Z,IE,34.252.99.183,3.0,34.252.99.183,0
AvgResponseTime,2020-10-30T23:12:01.321Z,IE,34.252.99.183,3.0,34.252.99.183,0
AvgResponseTime,2020-10-30T23:13:01.321Z,IE,34.252.99.183,3.0,34.252.99.183,0
AvgResponseTime,2020-10-30T23:14:01.321Z,IE,34.252.99.183,3.0,34.252.99.183,0
AvgResponseTime,2020-10-30T23:15:01.321Z,IE,34.252.99.183,3.0,34.252.99.183,0
AvgResponseTime,2020-10-30T23:16:01.321Z,IE,34.252.99.183,3.0,34.252.99.183,0
AvgResponseTime,2020-10-30T23:17:01.321Z,IE,34.252.99.183,3.0,34.252.99.183,0
AvgResponseTime,2020-10-30T23:18:01.321Z,IE,34.252.99.183,3.0,34.252.99.183,0
AvgResponseTime,2020-10-30T23:19:01.321Z,IE,34.252.99.183,3.0,34.252.99.183,0
AvgResponseTime,2020-10-30T23:20:01.321Z,IE,34.252.99.183,3.0,34.252.99.183,0
AvgResponseTime,2020-10-30T23:21:01.321Z,IE,34.252.99.183,3.0,34.252.99.183,0
AvgResponseTime,2020-10-30T23:22:01.321Z,IE,34.252.99.183,3.0,34.252.99.183,0
AvgResponseTime,2020-10-30T23:23:01.321Z,IE,34.252.99.183,3.0,34.252.99.183,0
AvgResponseTime,2020-10-30T23:24:01.321Z,IE,34.252.99.183,3.0,34.252.99.183,0
AvgResponseTime,2020-10-30T23:25:01.321Z,IE,34.252.99.183,3.0,34.252.99.183,0
AvgResponseTime,2020-10-30T23:26:01.321Z,IE,34.252.99.183,3.0,34.252.99.183,0
AvgResponseTime,2020-10-30T23:27:01.321Z,IE,34.252.99.183,3.0,34.252.99.183,0
AvgResponseTime,2020-10-30T23:27:31.321Z,IE,34.252.99.183,3.0,34.252.99.183,0
AvgResponseTime,2020-10-30T23:28:01.321Z,IE,34.252.99.183,3.0,34.252.99.183,0
AvgResponseTime,2020-10-30T23:29:01.321Z,IE,34.252.99.183,3.0,34.252.99.183,0
AvgResponseTime,2020-10-30T23:30:01.321Z,IE,34.252.99.183,3.0,34.252.99.183,0
AvgResponseTime,2020-10-30T23:31:01.321Z,IE,34.252.99.183,3.0,34.252.99.183,0
AvgResponseTime,2020-10-30T23:32:01.321Z,IE,34.252.99.183,3.0,34.252.99.183,0
AvgResponseTime,2020-10-30T23:33:01.321Z,IE,34.252.99.183,3.0,34.252.99.183,0
AvgResponseTime,2020-10-30T23:34:01.321Z,IE,34.252.99.183,3.0,34.252.99.183,0
AvgResponseTime,2020-10-30T23:35:01.321Z,IE,34.252.99.183,3.0,34.252.99.183,0
AvgResponseTime,2020-10-30T23:36:01.321Z,IE,34.252.99.183,3.0,34.252.99.183,0
AvgResponseTime,2020-10-30T23:37:01.321Z,IE,34.252.99.183,3.0,34.252.99.183,0
AvgResponseTime,2020-10-30T23:38:01.321Z,IE,34.252.99.183,3.0,34.252.99.183,0
AvgResponseTime,2020-10-30T23:39:01.321Z,IE,34.252.99.183,3.0,34.252.99.183,0
AvgResponseTime,2020-10-30T23:40:01.321Z,IE,34.252.99.183,3.0,34.252.99.183,0
AvgResponseTime,2020-10-30T23:41:01.321Z,IE,34.252.99.183,3.0,34.252.99.183,0
AvgResponseTime,2020-10-30T23:42:01.321Z,IE,34.252.99.183,3.0,34.252.99.183,0
AvgResponseTime,2020-10-30T23:43:01.321Z,IE,34.252.99.183,3.0,34.252.99.183,0
AvgResponseTime,2020-10-30T23:44:01.321Z,IE,34.252.99.183,3.0,34.252.99.183,0
AvgResponseTime,2020-10-30T23:45:01.321Z,IE,34.252.99.183,3.0,34.252.99.183,0
AvgResponseTime,2020-10-30T23:46:01.321Z,IE,34.252.99.183,3.0,34.252.99.183,0
AvgResponseTime,2020-10-30T23:47:01.321Z,IE,34.252.99.183,3.0,34.252.99.183,0
AvgResponseTime,2020-10-30T23:48:01.321Z,IE,34.252.99.183,3.0,34.252.99.183,0
AvgResponseTime,2020-10-30T23:49:01.321Z,IE,34.252.99.183,3.0,34.252.99.183,0
AvgResponseTime,2020-10-30T23:50:01.321Z,IE,34.252.99.183,3.0,34.252.99.183,0
AvgResponseTime,2020-10-30T23:51:01.321Z,IE,34.252.99.183,3.0,34.252.99.183,0
AvgResponseTime,2020-10-30T23:52:01.321Z,IE,34.252.99.183,3.0,34.252.99.183,0
AvgResponseTime,2020-10-30T23:53:01.321Z,IE,34.252.99.183,3.0,34.252.99.183,0
AvgResponseTime,2020-10-30T23:54:01.321Z,IE,34.252.99.183,3.0,34.252.99.183,0
AvgResponseTime,2020-10-30T23:55:01.321Z,IE,34.252.99.183,3.0,34.252.99.183,0
AvgResponseTime,2020-10-30T23:56:01.321Z,IE,34.252.99.183,3.0,34.252.99.183,0
AvgResponseTime,2020-10-30T23:57:01.321Z,IE,34.252.99.183,3.0,34.252.99.183,0
AvgResponseTime,2020-10-30T23:58:01.321Z,IE,34.252.99.183,3.0,34.252.99.183,0
AvgResponseTime,2020-10-30T23:59:01.321Z,IE,34.252.99.183,3.0,34.252.99.183,0
AvgResponseTime,2020-10-31T00:00:01.321Z,IE,34.252.99.183,3.0,34.252.99.183,0
AvgResponseTime,2020-10-31T00:01:01.321Z,IE,34.252.99.183,3.0,34.252.99.183,0
AvgResponseTime,2020-10-31T00:02:01.321Z,IE,34.252.99.183,3.0,34.252.99.183,0
AvgResponseTime,2020-10-31T00:03:01.321Z,IE,34.252.99.183,3.0,34.252.99.183,0
AvgResponseTime,2020-10-31T00:04:01.321Z,IE,34.252.99.183,3.0,34.252.99.183,0
AvgResponseTime,2020-10-31T00:05:01.321Z,IE,34.252.99.183,3.0,34.252.99.183,0
AvgResponseTime,2020-10-31T00:06:01.321Z,IE,34.252.99.183,3.0,34.252.99.183,0
AvgResponseTime,2020-10-31T00:07:01.324Z,IE,34.252.99.183,3.0,34.252.99.183,0
AvgResponseTime,2020-10-31T00:08:01.321Z,IE,34.252.99.183,3.0,34.252.99.183,0
AvgResponseTime,2020-10-31T00:09:01.321Z,IE,34.252.99.183,3.0,34.252.99.183,0
AvgResponseTime,2020-10-31T00:10:01.321Z,IE,34.252.99.183,3.0,34.252.99.183,0
AvgResponseTime,2020-10-31T00:11:01.321Z,IE,34.252.99.183,3.0,34.252.99.183,0
AvgResponseTime,2020-10-31T00:12:01.321Z,IE,34.252.99.183,3.0,34.252.99.183,0
AvgResponseTime,2020-10-31T00:13:01.321Z,IE,34.252.99.183,3.0,34.252.99.183,0
AvgResponseTime,2020-10-31T00:14:01.321Z,IE,34.252.99.183,3.0,34.252.99.183,0
AvgResponseTime,2020-10-31T00:15:01.321Z,IE,34.252.99.183,3.0,34.252.99.183,0
AvgResponseTime,2020-10-31T00:16:01.321Z,IE,34.252.99.183,3.0,34.252.99.183,0
AvgResponseTime,2020-10-31T00:17:01.321Z,IE,34.252.99.183,3.0,34.252.99.183,0
AvgResponseTime,2020-10-31T00:18:01.321Z,IE,34.252.99.183,3.0,34.252.99.183,0
AvgResponseTime,2020-10-31T00:19:01.321Z,IE,34.252.99.183,3.0,34.252.99.183,0
AvgResponseTime,2020-10-31T00:20:01.321Z,IE,34.252.99.183,3.0,34.252.99.183,0
AvgResponseTime,2020-10-31T00:21:01.321Z,IE,34.252.99.183,3.0,34.252.99.183,0
AvgResponseTime,2020-10-31T00:22:01.321Z,IE,34.252.99.183,3.0,34.252.99.183,0
AvgResponseTime,2020-10-31T00:23:01.321Z,IE,34.252.99.183,3.0,34.252.99.183,0
AvgResponseTime,2020-10-31T00:24:01.321Z,IE,34.252.99.183,3.0,34.252.99.183,0
AvgResponseTime,2020-10-31T00:25:01.321Z,IE,34.252.99.183,3.0,34.252.99.183,0
AvgResponseTime,2020-10-31T00:26:01.321Z,IE,34.252.99.183,3.0,34.252.99.183,0
AvgResponseTime,2020-10-31T00:27:01.321Z,IE,34.252.99.183,3.0,34.252.99.183,0
AvgResponseTime,2020-10-31T00:28:01.321Z,IE,34.252.99.183,3.0,34.252.99.183,0
AvgResponseTime,2020-10-31T00:29:01.321Z,IE,34.252.99.183,3.0,34.252.99.183,0
AvgResponseTime,2020-10-31T00:30:01.321Z,IE,34.252.99.183,3.0,34.252.99.183,0
AvgResponseTime,2020-10-31T00:31:01.321Z,IE,34.252.99.183,3.0,34.252.99.183,0
AvgResponseTime,2020-10-31T00:32:01.321Z,IE,34.252.99.183,3.0,34.252.99.183,0
AvgResponseTime,2020-10-31T00:33:01.321Z,IE,34.252.99.183,3.0,34.252.99.183,0
AvgResponseTime,2020-10-31T00:34:01.321Z,IE,34.252.99.183,3.0,34.252.99.183,0
AvgResponseTime,2020-10-31T00:35:01.321Z,IE,34.252.99.183,3.0,34.252.99.183,0
AvgResponseTime,2020-10-31T00:36:01.321Z,IE,34.252.99.183,3.0,34.252.99.183,0
AvgResponseTime,2020-10-31T00:37:01.321Z,IE,34.252.99.183,3.0,34.252.99.183,0
AvgResponseTime,2020-10-31T00:38:01.321Z,IE,34.252.99.183,3.0,34.252.99.183,0
AvgResponseTime,2020-10-31T00:39:01.321Z,IE,34.252.99.183,3.0,34.252.99.183,0
AvgResponseTime,2020-10-31T00:40:01.321Z,IE,34.252.99.183,3.0,34.252.99.183,0
AvgResponseTime,2020-10-31T00:41:01.321Z,IE,34.252.99.183,3.0,34.252.99.183,0
AvgResponseTime,2020-10-31T00:42:01.321Z,IE,34.252.99.183,3.0,34.252.99.183,0
AvgResponseTime,2020-10-31T00:43:01.321Z,IE,34.252.99.183,3.0,34.252.99.183,0
AvgResponseTime,2020-10-31T00:44:01.321Z,IE,34.252.99.183,3.0,34.252.99.183,0
AvgResponseTime,2020-10-31T00:45:01.321Z,IE,34.252.99.183,3.0,34.252.99.183,0
AvgResponseTime,2020-10-31T00:46:01.321Z,IE,34.252.99.183,3.0,34.252.99.183,0
AvgResponseTime,2020-10-31T00:47:01.321Z,IE,34.252.99.183,3.0,34.252.99.183,0
AvgResponseTime,2020-10-31T00:48:01.321Z,IE,34.252.99.183,3.0,34.252.99.183,0
AvgResponseTime,2020-10-31T00:49:01.321Z,IE,34.252.99.183,3.0,34.252.99.183,0
AvgResponseTime,2020-10-31T00:50:01.321Z,IE,34.252.99.183,3.0,34.252.99.183,0
AvgResponseTime,2020-10-31T00:51:01.321Z,IE,34.252.99.183,3.0,34.252.99.183,0
AvgResponseTime,2020-10-31T00:52:01.321Z,IE,34.252.99.183,3.0,34.252.99.183,0
AvgResponseTime,2020-10-31T00:53:01.321Z,IE,34.252.99.183,3.0,34.252.99.183,0
AvgResponseTime,2020-10-31T00:54:01.321Z,IE,34.252.99.183,3.0,34.252.99.183,0
AvgResponseTime,2020-10-31T00:55:01.321Z,IE,34.252.99.183,3.0,34.252.99.183,0
AvgResponseTime,2020-10-31T00:56:01.321Z,IE,34.252.99.183,3.0,34.252.99.183,0
AvgResponseTime,2020-10-31T00:57:01.321Z,IE,34.252.99.183,3.0,34.252.99.183,0
AvgResponseTime,2020-10-31T00:58:01.321Z,IE,34.252.99.183,3.0,34.252.99.183,0
AvgResponseTime,2020-10-31T00:59:01.321Z,IE,34.252.99.183,3.0,34.252.99.183,0
AvgResponseTime,2020-10-31T01:00:01.321Z,IE,34.252.99.183,3.0,34.252.99.183,0
AvgResponseTime,2020-10-31T01:01:01.321Z,IE,34.252.99.183,3.0,34.252.99.183,0
AvgResponseTime,2020-10-31T01:02:01.321Z,IE,34.252.99.183,3.0,34.252.99.183,0
AvgResponseTime,2020-10-31T01:03:01.321Z,IE,34.252.99.183,3.0,34.252.99.183,0
AvgResponseTime,2020-10-31T01:04:01.321Z,IE,34.252.99.183,3.0,34.252.99.183,0
AvgResponseTime,2020-10-31T01:05:01.321Z,IE,34.252.99.183,3.0,34.252.99.183,0
AvgResponseTime,2020-10-31T01:06:01.321Z,IE,34.252.99.183,3.0,34.252.99.183,0
AvgResponseTime,2020-10-31T01:07:01.321Z,IE,34.252.99.183,3.0,34.252.99.183,0
AvgResponseTime,2020-10-31T01:08:01.321Z,IE,34.252.99.183,3.0,34.252.99.183,0
AvgResponseTime,2020-10-31T01:09:01.321Z,IE,34.252.99.183,3.0,34.252.99.183,0
AvgResponseTime,2020-10-31T01:10:01.321Z,IE,34.252.99.183,3.0,34.252.99.183,0
AvgResponseTime,2020-10-31T01:11:01.321Z,IE,34.252.99.183,3.0,34.252.99.183,0
AvgResponseTime,2020-10-31T01:12:01.321Z,IE,34.252.99.183,3.0,34.252.99.183,0
AvgResponseTime,2020-10-31T01:13:01.321Z,IE,34.252.99.183,3.0,34.252.99.183,0
AvgResponseTime,2020-10-31T01:14:01.321Z,IE,34.252.99.183,3.0,34.252.99.183,0
AvgResponseTime,2020-10-31T01:15:01.321Z,IE,34.252.99.183,3.0,34.252.99.183,0
AvgResponseTime,2020-10-31T01:16:01.321Z,IE,34.252.99.183,3.0,34.252.99.183,0
AvgResponseTime,2020-10-31T01:17:01.321Z,IE,34.252.99.183,3.0,34.252.99.183,0
AvgResponseTime,2020-10-31T01:18:01.321Z,IE,34.252.99.183,3.0,34.252.99.183,0
AvgResponseTime,2020-10-31T01:19:01.321Z,IE,34.252.99.183,3.0,34.252.99.183,0
AvgResponseTime,2020-10-31T01:20:01.321Z,IE,34.252.99.183,3.0,34.252.99.183,0
AvgResponseTime,2020-10-31T01:21:01.321Z,IE,34.252.99.183,3.0,34.252.99.183,0
AvgResponseTime,2020-10-31T01:22:01.321Z,IE,34.252.99.183,3.0,34.252.99.183,0
AvgResponseTime,2020-10-31T01:23:01.321Z,IE,34.252.99.183,3.0,34.252.99.183,0
AvgResponseTime,2020-10-31T01:24:01.321Z,IE,34.252.99.183,3.0,34.252.99.183,0
AvgResponseTime,2020-10-31T01:25:01.321Z,IE,34.252.99.183,3.0,34.252.99.183,0
AvgResponseTime,2020-10-31T01:26:01.321Z,IE,34.252.99.183,3.0,34.252.99.183,0
AvgResponseTime,2020-10-31T01:27:01.321Z,IE,34.252.99.183,3.0,34.252.99.183,0
AvgResponseTime,2020-10-31T01:28:01.321Z,IE,34.252.99.183,3.0,34.252.99.183,0
AvgResponseTime,2020-10-31T01:29:01.321Z,IE,34.252.99.183,3.0,34.252.99.183,0
AvgResponseTime,2020-10-31T01:30:01.321Z,IE,34.252.99.183,3.0,34.252.99.183,0
AvgResponseTime,2020-10-31T01:31:01.321Z,IE,34.252.99.183,3.0,34.252.99.183,0
AvgResponseTime,2020-10-31T01:32:01.321Z,IE,34.252.99.183,3.0,34.252.99.183,0
AvgResponseTime,2020-10-31T01:33:01.325Z,IE,34.252.99.183,3.0,34.252.99.183,0
AvgResponseTime,2020-10-31T01:34:01.321Z,IE,34.252.99.183,3.0,34.252.99.183,0
AvgResponseTime,2020-10-31T01:35:01.321Z,IE,34.252.99.183,3.0,34.252.99.183,0
AvgResponseTime,2020-10-31T01:36:01.321Z,IE,34.252.99.183,3.0,34.252.99.183,0
AvgResponseTime,2020-10-31T01:37:01.321Z,IE,34.252.99.183,3.0,34.252.99.183,0
AvgResponseTime,2020-10-31T01:38:01.321Z,IE,34.252.99.183,3.0,34.252.99.183,0
AvgResponseTime,2020-10-31T01:39:01.321Z,IE,34.252.99.183,3.0,34.252.99.183,0
AvgResponseTime,2020-10-31T01:40:01.321Z,IE,34.252.99.183,3.0,34.252.99.183,0
AvgResponseTime,2020-10-31T01:41:01.321Z,IE,34.252.99.183,3.0,34.252.99.183,0
AvgResponseTime,2020-10-31T01:42:01.321Z,IE,34.252.99.183,3.0,34.252.99.183,0
AvgResponseTime,2020-10-31T01:43:01.321Z,IE,34.252.99.183,3.0,34.252.99.183,0
AvgResponseTime,2020-10-31T01:44:01.321Z,IE,34.252.99.183,3.0,34.252.99.183,0
AvgResponseTime,2020-10-31T01:45:01.321Z,IE,34.252.99.183,3.0,34.252.99.183,0
AvgResponseTime,2020-10-31T01:46:01.321Z,IE,34.252.99.183,3.0,34.252.99.183,0
AvgResponseTime,2020-10-31T01:47:01.321Z,IE,34.252.99.183,3.0,34.252.99.183,0
AvgResponseTime,2020-10-31T01:48:01.321Z,IE,34.252.99.183,3.0,34.252.99.183,0
AvgResponseTime,2020-10-31T01:49:01.321Z,IE,34.252.99.183,3.0,34.252.99.183,0
AvgResponseTime,2020-10-31T01:50:01.321Z,IE,34.252.99.183,3.0,34.252.99.183,0
AvgResponseTime,2020-10-31T01:51:01.321Z,IE,34.252.99.183,3.0,34.252.99.183,0
AvgResponseTime,2020-10-31T01:52:01.321Z,IE,34.252.99.183,3.0,34.252.99.183,0
AvgResponseTime,2020-10-31T01:53:01.321Z,IE,34.252.99.183,3.0,34.252.99.183,0
AvgResponseTime,2020-10-31T01:54:01.321Z,IE,34.252.99.183,3.0,34.252.99.183,0
AvgResponseTime,2020-10-31T01:55:01.321Z,IE,34.252.99.183,3.0,34.252.99.183,0
AvgResponseTime,2020-10-31T01:56:01.321Z,IE,34.252.99.183,3.0,34.252.99.183,0
AvgResponseTime,2020-10-31T01:57:01.321Z,IE,34.252.99.183,3.0,34.252.99.183,0
AvgResponseTime,2020-10-31T01:58:01.321Z,IE,34.252.99.183,3.0,34.252.99.183,0
AvgResponseTime,2020-10-31T01:59:01.321Z,IE,34.252.99.183,3.0,34.252.99.183,0
AvgResponseTime,2020-10-31T02:00:01.321Z,IE,34.252.99.183,3.0,34.252.99.183,0
AvgResponseTime,2020-10-31T02:01:01.321Z,IE,34.252.99.183,3.0,34.252.99.183,0
AvgResponseTime,2020-10-31T02:02:01.321Z,IE,34.252.99.183,3.0,34.252.99.183,0
AvgResponseTime,2020-10-31T02:03:01.321Z,IE,34.252.99.183,3.0,34.252.99.183,0
AvgResponseTime,2020-10-31T02:04:01.321Z,IE,34.252.99.183,3.0,34.252.99.183,0
AvgResponseTime,2020-10-31T02:05:01.321Z,IE,34.252.99.183,3.0,34.252.99.183,0
AvgResponseTime,2020-10-31T02:06:01.321Z,IE,34.252.99.183,3.0,34.252.99.183,0
AvgResponseTime,2020-10-31T02:07:01.321Z,IE,34.252.99.183,3.0,34.252.99.183,0
AvgResponseTime,2020-10-31T02:08:01.321Z,IE,34.252.99.183,3.0,34.252.99.183,0
AvgResponseTime,2020-10-31T02:09:01.321Z,IE,34.252.99.183,3.0,34.252.99.183,0
AvgResponseTime,2020-10-31T02:10:01.321Z,IE,34.252.99.183,3.0,34.252.99.183,0
AvgResponseTime,2020-10-31T02:11:01.321Z,IE,34.252.99.183,3.0,34.252.99.183,0
AvgResponseTime,2020-10-31T02:12:01.321Z,IE,34.252.99.183,3.0,34.252.99.183,0
AvgResponseTime,2020-10-31T02:13:01.321Z,IE,34.252.99.183,3.0,34.252.99.183,0
AvgResponseTime,2020-10-31T02:14:01.321Z,IE,34.252.99.183,3.0,34.252.99.183,0
AvgResponseTime,2020-10-31T02:15:01.321Z,IE,34.252.99.183,3.0,34.252.99.183,0
AvgResponseTime,2020-10-31T02:16:01.321Z,IE,34.252.99.183,3.0,34.252.99.183,0
AvgResponseTime,2020-10-31T02:17:01.321Z,IE,34.252.99.183,3.0,34.252.99.183,0
AvgResponseTime,2020-10-31T02:18:01.321Z,IE,34.252.99.183,3.0,34.252.99.183,0
AvgResponseTime,2020-10-31T02:19:01.321Z,IE,34.252.99.183,3.0,34.252.99.183,0
AvgResponseTime,2020-10-31T02:20:01.321Z,IE,34.252.99.183,3.0,34.252.99.183,0
AvgResponseTime,2020-10-31T02:21:01.321Z,IE,34.252.99.183,3.0,34.252.99.183,0
AvgResponseTime,2020-10-31T02:22:01.321Z,IE,34.252.99.183,3.0,34.252.99.183,0
AvgResponseTime,2020-10-31T02:23:01.321Z,IE,34.252.99.183,3.0,34.252.99.183,0
AvgResponseTime,2020-10-31T02:24:01.321Z,IE,34.252.99.183,3.0,34.252.99.183,0
AvgResponseTime,2020-10-31T02:25:01.321Z,IE,34.252.99.183,3.0,34.252.99.183,0
AvgResponseTime,2020-10-31T02:26:01.321Z,IE,34.252.99.183,3.0,34.252.99.183,0
AvgResponseTime,2020-10-31T02:27:01.321Z,IE,34.252.99.183,3.0,34.252.99.183,0
AvgResponseTime,2020-10-31T02:28:01.321Z,IE,34.252.99.183,3.0,34.252.99.183,0
AvgResponseTime,2020-10-31T02:29:01.321Z,IE,34.252.99.183,3.0,34.252.99.183,0
AvgResponseTime,2020-10-31T02:30:01.321Z,IE,34.252.99.183,3.0,34.252.99.183,0
AvgResponseTime,2020-10-31T02:31:01.321Z,IE,34.252.99.183,3.0,34.252.99.183,0
AvgResponseTime,2020-10-31T02:32:01.321Z,IE,34.252.99.183,3.0,34.252.99.183,0
AvgResponseTime,2020-10-31T02:33:01.321Z,IE,34.252.99.183,3.0,34.252.99.183,0
AvgResponseTime,2020-10-31T02:34:01.321Z,IE,34.252.99.183,3.0,34.252.99.183,0
AvgResponseTime,2020-10-31T02:35:01.321Z,IE,34.252.99.183,3.0,34.252.99.183,0
AvgResponseTime,2020-10-31T02:36:01.321Z,IE,34.252.99.183,3.0,34.252.99.183,0
AvgResponseTime,2020-10-31T02:37:01.322Z,IE,34.252.99.183,3.0,34.252.99.183,0
AvgResponseTime,2020-10-31T02:38:01.321Z,IE,34.252.99.183,3.0,34.252.99.183,0
AvgResponseTime,2020-10-31T02:39:01.321Z,IE,34.252.99.183,3.0,34.252.99.183,0
AvgResponseTime,2020-10-31T02:40:01.321Z,IE,34.252.99.183,3.0,34.252.99.183,0
AvgResponseTime,2020-10-31T02:41:01.321Z,IE,34.252.99.183,3.0,34.252.99.183,0
AvgResponseTime,2020-10-31T02:42:01.321Z,IE,34.252.99.183,3.0,34.252.99.183,0
AvgResponseTime,2020-10-31T02:43:01.321Z,IE,34.252.99.183,3.0,34.252.99.183,0
AvgResponseTime,2020-10-31T02:44:01.321Z,IE,34.252.99.183,3.0,34.252.99.183,0
AvgResponseTime,2020-10-31T02:45:01.321Z,IE,34.252.99.183,3.0,34.252.99.183,0
AvgResponseTime,2020-10-31T02:46:01.321Z,IE,34.252.99.183,3.0,34.252.99.183,0
AvgResponseTime,2020-10-31T02:47:01.321Z,IE,34.252.99.183,3.0,34.252.99.183,0
AvgResponseTime,2020-10-31T02:48:01.321Z,IE,34.252.99.183,3.0,34.252.99.183,0
AvgResponseTime,2020-10-31T02:49:01.321Z,IE,34.252.99.183,3.0,34.252.99.183,0
AvgResponseTime,2020-10-31T02:50:01.321Z,IE,34.252.99.183,3.0,34.252.99.183,0
AvgResponseTime,2020-10-31T02:51:01.321Z,IE,34.252.99.183,3.0,34.252.99.183,0
AvgResponseTime,2020-10-31T02:52:01.321Z,IE,34.252.99.183,3.0,34.252.99.183,0
AvgResponseTime,2020-10-31T02:53:01.321Z,IE,34.252.99.183,3.0,34.252.99.183,0
AvgResponseTime,2020-10-31T02:54:01.321Z,IE,34.252.99.183,3.0,34.252.99.183,0
AvgResponseTime,2020-10-31T02:55:01.321Z,IE,34.252.99.183,3.0,34.252.99.183,0
AvgResponseTime,2020-10-31T02:56:01.321Z,IE,34.252.99.183,3.0,34.252.99.183,0
AvgResponseTime,2020-10-31T02:57:01.321Z,IE,34.252.99.183,3.0,34.252.99.183,0
AvgResponseTime,2020-10-31T02:58:01.321Z,IE,34.252.99.183,3.0,34.252.99.183,0
AvgResponseTime,2020-10-31T02:59:01.321Z,IE,34.252.99.183,3.0,34.252.99.183,0
AvgResponseTime,2020-10-31T03:00:01.321Z,IE,34.252.99.183,3.0,34.252.99.183,0
AvgResponseTime,2020-10-31T03:01:01.321Z,IE,34.252.99.183,3.0,34.252.99.183,0
AvgResponseTime,2020-10-31T03:02:01.321Z,IE,34.252.99.183,3.0,34.252.99.183,0
AvgResponseTime,2020-10-31T03:03:01.321Z,IE,34.252.99.183,3.0,34.252.99.183,0
AvgResponseTime,2020-10-31T03:04:01.321Z,IE,34.252.99.183,3.0,34.252.99.183,0
AvgResponseTime,2020-10-31T03:05:01.321Z,IE,34.252.99.183,3.0,34.252.99.183,0
AvgResponseTime,2020-10-31T03:06:01.321Z,IE,34.252.99.183,3.0,34.252.99.183,0
AvgResponseTime,2020-10-31T03:07:01.321Z,IE,34.252.99.183,3.0,34.252.99.183,0
AvgResponseTime,2020-10-31T03:08:01.321Z,IE,34.252.99.183,3.0,34.252.99.183,0
AvgResponseTime,2020-10-31T03:09:01.321Z,IE,34.252.99.183,3.0,34.252.99.183,0
AvgResponseTime,2020-10-31T03:10:01.321Z,IE,34.252.99.183,3.0,34.252.99.183,0
AvgResponseTime,2020-10-31T03:11:01.323Z,IE,34.252.99.183,3.0,34.252.99.183,0
AvgResponseTime,2020-10-31T03:12:01.321Z,IE,34.252.99.183,3.0,34.252.99.183,0
AvgResponseTime,2020-10-31T03:13:01.321Z,IE,34.252.99.183,3.0,34.252.99.183,0
AvgResponseTime,2020-10-31T03:14:01.321Z,IE,34.252.99.183,3.0,34.252.99.183,0
AvgResponseTime,2020-10-31T03:15:01.321Z,IE,34.252.99.183,3.0,34.252.99.183,0
AvgResponseTime,2020-10-31T03:16:01.321Z,IE,34.252.99.183,3.0,34.252.99.183,0
AvgResponseTime,2020-10-31T03:17:01.321Z,IE,34.252.99.183,3.0,34.252.99.183,0
AvgResponseTime,2020-10-31T03:18:01.321Z,IE,34.252.99.183,3.0,34.252.99.183,0
AvgResponseTime,2020-10-31T03:19:01.321Z,IE,34.252.99.183,3.0,34.252.99.183,0
AvgResponseTime,2020-10-31T03:20:01.321Z,IE,34.252.99.183,3.0,34.252.99.183,0
AvgResponseTime,2020-10-31T03:21:01.321Z,IE,34.252.99.183,3.0,34.252.99.183,0
AvgResponseTime,2020-10-31T03:22:01.321Z,IE,34.252.99.183,3.0,34.252.99.183,0
AvgResponseTime,2020-10-31T03:23:01.321Z,IE,34.252.99.183,3.0,34.252.99.183,0
AvgResponseTime,2020-10-31T03:24:01.321Z,IE,34.252.99.183,3.0,34.252.99.183,0
AvgResponseTime,2020-10-31T03:25:01.321Z,IE,34.252.99.183,3.0,34.252.99.183,0
AvgResponseTime,2020-10-31T03:26:01.321Z,IE,34.252.99.183,3.0,34.252.99.183,0
AvgResponseTime,2020-10-31T03:27:01.321Z,IE,34.252.99.183,3.0,34.252.99.183,0
AvgResponseTime,2020-10-31T03:28:01.321Z,IE,34.252.99.183,3.0,34.252.99.183,0
AvgResponseTime,2020-10-31T03:29:01.321Z,IE,34.252.99.183,3.0,34.252.99.183,0
AvgResponseTime,2020-10-31T03:30:01.321Z,IE,34.252.99.183,3.0,34.252.99.183,0
AvgResponseTime,2020-10-31T03:31:01.321Z,IE,34.252.99.183,3.0,34.252.99.183,0
AvgResponseTime,2020-10-31T03:32:01.321Z,IE,34.252.99.183,3.0,34.252.99.183,0
AvgResponseTime,2020-10-31T03:33:01.321Z,IE,34.252.99.183,3.0,34.252.99.183,0
AvgResponseTime,2020-10-31T03:34:01.321Z,IE,34.252.99.183,3.0,34.252.99.183,0
AvgResponseTime,2020-10-31T03:35:01.321Z,IE,34.252.99.183,3.0,34.252.99.183,0
AvgResponseTime,2020-10-31T03:36:01.321Z,IE,34.252.99.183,3.0,34.252.99.183,0
AvgResponseTime,2020-10-31T03:37:01.321Z,IE,34.252.99.183,3.0,34.252.99.183,0
AvgResponseTime,2020-10-31T03:38:01.321Z,IE,34.252.99.183,3.0,34.252.99.183,0
AvgResponseTime,2020-10-31T03:39:01.321Z,IE,34.252.99.183,3.0,34.252.99.183,0
AvgResponseTime,2020-10-31T03:40:01.321Z,IE,34.252.99.183,3.0,34.252.99.183,0
AvgResponseTime,2020-10-31T03:41:01.321Z,IE,34.252.99.183,3.0,34.252.99.183,0
AvgResponseTime,2020-10-31T03:42:01.321Z,IE,34.252.99.183,3.0,34.252.99.183,0
AvgResponseTime,2020-10-31T03:43:01.321Z,IE,34.252.99.183,3.0,34.252.99.183,0
AvgResponseTime,2020-10-31T03:44:01.321Z,IE,34.252.99.183,3.0,34.252.99.183,0
AvgResponseTime,2020-10-31T03:45:01.321Z,IE,34.252.99.183,3.0,34.252.99.183,0
AvgResponseTime,2020-10-31T03:46:01.321Z,IE,34.252.99.183,3.0,34.252.99.183,0
AvgResponseTime,2020-10-31T03:47:01.321Z,IE,34.252.99.183,3.0,34.252.99.183,0
AvgResponseTime,2020-10-31T03:48:01.321Z,IE,34.252.99.183,3.0,34.252.99.183,0
AvgResponseTime,2020-10-31T03:49:01.321Z,IE,34.252.99.183,3.0,34.252.99.183,0
AvgResponseTime,2020-10-31T03:50:01.321Z,IE,34.252.99.183,3.0,34.252.99.183,0
AvgResponseTime,2020-10-31T03:51:01.321Z,IE,34.252.99.183,3.0,34.252.99.183,0
AvgResponseTime,2020-10-31T03:52:01.321Z,IE,34.252.99.183,3.0,34.252.99.183,0
AvgResponseTime,2020-10-31T03:53:01.321Z,IE,34.252.99.183,3.0,34.252.99.183,0
AvgResponseTime,2020-10-31T03:54:01.321Z,IE,34.252.99.183,3.0,34.252.99.183,0
AvgResponseTime,2020-10-31T03:55:01.321Z,IE,34.252.99.183,3.0,34.252.99.183,0
AvgResponseTime,2020-10-31T03:56:01.321Z,IE,34.252.99.183,3.0,34.252.99.183,0
AvgResponseTime,2020-10-31T03:57:01.321Z,IE,34.252.99.183,3.0,34.252.99.183,0
AvgResponseTime,2020-10-31T03:58:01.321Z,IE,34.252.99.183,3.0,34.252.99.183,0
AvgResponseTime,2020-10-31T03:59:01.321Z,IE,34.252.99.183,3.0,34.252.99.183,0
AvgResponseTime,2020-10-31T04:00:01.321Z,IE,34.252.99.183,3.0,34.252.99.183,0
AvgResponseTime,2020-10-31T04:01:01.321Z,IE,34.252.99.183,3.0,34.252.99.183,0
AvgResponseTime,2020-10-31T04:02:01.321Z,IE,34.252.99.183,3.0,34.252.99.183,0
AvgResponseTime,2020-10-31T04:03:01.321Z,IE,34.252.99.183,3.0,34.252.99.183,0
AvgResponseTime,2020-10-31T04:04:01.321Z,IE,34.252.99.183,3.0,34.252.99.183,0
AvgResponseTime,2020-10-31T04:05:01.321Z,IE,34.252.99.183,3.0,34.252.99.183,0
AvgResponseTime,2020-10-31T04:06:01.321Z,IE,34.252.99.183,3.0,34.252.99.183,0
AvgResponseTime,2020-10-31T04:07:01.321Z,IE,34.252.99.183,3.0,34.252.99.183,0
AvgResponseTime,2020-10-31T04:08:01.321Z,IE,34.252.99.183,3.0,34.252.99.183,0
AvgResponseTime,2020-10-31T04:09:01.321Z,IE,34.252.99.183,3.0,34.252.99.183,0
AvgResponseTime,2020-10-31T04:10:01.321Z,IE,34.252.99.183,3.0,34.252.99.183,0
AvgResponseTime,2020-10-31T04:11:01.321Z,IE,34.252.99.183,3.0,34.252.99.183,0
AvgResponseTime,2020-10-31T04:12:01.321Z,IE,34.252.99.183,3.0,34.252.99.183,0
AvgResponseTime,2020-10-31T04:13:01.321Z,IE,34.252.99.183,3.0,34.252.99.183,0
AvgResponseTime,2020-10-31T04:14:01.321Z,IE,34.252.99.183,3.0,34.252.99.183,0
AvgResponseTime,2020-10-31T04:15:01.321Z,IE,34.252.99.183,3.0,34.252.99.183,0
AvgResponseTime,2020-10-31T04:16:01.321Z,IE,34.252.99.183,3.0,34.252.99.183,0
AvgResponseTime,2020-10-31T04:17:01.321Z,IE,34.252.99.183,3.0,34.252.99.183,0
AvgResponseTime,2020-10-31T04:18:01.321Z,IE,34.252.99.183,3.0,34.252.99.183,0
AvgResponseTime,2020-10-31T04:19:01.321Z,IE,34.252.99.183,3.0,34.252.99.183,0
AvgResponseTime,2020-10-31T04:20:01.321Z,IE,34.252.99.183,3.0,34.252.99.183,0
AvgResponseTime,2020-10-31T04:21:01.321Z,IE,34.252.99.183,3.0,34.252.99.183,0
AvgResponseTime,2020-10-31T04:22:01.321Z,IE,34.252.99.183,3.0,34.252.99.183,0
AvgResponseTime,2020-10-31T04:23:01.321Z,IE,34.252.99.183,3.0,34.252.99.183,0
AvgResponseTime,2020-10-31T04:24:01.321Z,IE,34.252.99.183,3.0,34.252.99.183,0
AvgResponseTime,2020-10-31T04:25:01.321Z,IE,34.252.99.183,3.0,34.252.99.183,0
AvgResponseTime,2020-10-31T04:26:01.321Z,IE,34.252.99.183,3.0,34.252.99.183,0
AvgResponseTime,2020-10-31T04:27:01.321Z,IE,34.252.99.183,3.0,34.252.99.183,0
AvgResponseTime,2020-10-31T04:28:01.321Z,IE,34.252.99.183,3.0,34.252.99.183,0
AvgResponseTime,2020-10-31T04:29:01.321Z,IE,34.252.99.183,3.0,34.252.99.183,0
AvgResponseTime,2020-10-31T04:30:01.321Z,IE,34.252.99.183,3.0,34.252.99.183,0
AvgResponseTime,2020-10-31T04:31:01.321Z,IE,34.252.99.183,3.0,34.252.99.183,0
AvgResponseTime,2020-10-31T04:32:01.321Z,IE,34.252.99.183,3.0,34.252.99.183,0
AvgResponseTime,2020-10-31T04:33:01.321Z,IE,34.252.99.183,3.0,34.252.99.183,0
AvgResponseTime,2020-10-31T04:34:01.321Z,IE,34.252.99.183,3.0,34.252.99.183,0
AvgResponseTime,2020-10-31T04:35:01.321Z,IE,34.252.99.183,3.0,34.252.99.183,0
AvgResponseTime,2020-10-31T04:36:01.321Z,IE,34.252.99.183,3.0,34.252.99.183,0
AvgResponseTime,2020-10-31T04:37:01.321Z,IE,34.252.99.183,3.0,34.252.99.183,0
