,Unnamed: 0,time,prediction,step
3,3,2021-02-15 08:54:50.816,6080.696,3
13,13,2021-02-15 08:55:20.816,6050.7734,3
23,23,2021-02-15 08:55:50.816,6020.852,3
33,33,2021-02-15 08:56:20.816,5990.932,3
43,43,2021-02-15 08:56:50.816,5960.916,3
53,53,2021-02-15 08:57:20.816,5930.99,3
63,63,2021-02-15 08:57:50.816,5901.0654,3
73,73,2021-02-15 08:58:20.816,5871.142,3
83,83,2021-02-15 08:58:50.816,5841.219,3
93,93,2021-02-15 08:59:20.816,5811.297,3
103,103,2021-02-15 08:59:50.816,5781.376,3
113,113,2021-02-15 09:00:20.816,5751.455,3
123,123,2021-02-15 09:00:50.816,5721.535,3
133,133,2021-02-15 09:01:20.816,5691.615,3
143,143,2021-02-15 09:01:50.816,5661.6953,3
153,153,2021-02-15 09:02:20.816,5631.776,3
163,163,2021-02-15 09:02:50.816,5601.856,3
173,173,2021-02-15 09:03:20.816,5571.9365,3
183,183,2021-02-15 09:03:50.816,5542.016,3
193,193,2021-02-15 09:04:20.816,5512.095,3
203,203,2021-02-15 09:04:50.816,5482.174,3
213,213,2021-02-15 09:05:20.816,5452.2515,3
223,223,2021-02-15 09:05:50.816,5422.3276,3
233,233,2021-02-15 09:06:20.816,5392.403,3
243,243,2021-02-15 09:06:50.816,5362.476,3
253,253,2021-02-15 09:07:20.816,5332.5474,3
263,263,2021-02-15 09:07:50.816,5302.6167,3
273,273,2021-02-15 09:08:20.816,5272.684,3
283,283,2021-02-15 09:08:50.816,5242.748,3
293,293,2021-02-15 09:09:20.816,5212.809,3
303,303,2021-02-15 09:09:50.816,5182.866,3
313,313,2021-02-15 09:10:20.816,5152.9194,3
323,323,2021-02-15 09:10:50.816,5122.9697,3
333,333,2021-02-15 09:11:20.816,5093.0156,3
343,343,2021-02-15 09:11:50.816,5063.057,3
353,353,2021-02-15 09:12:20.816,5033.0947,3
363,363,2021-02-15 09:12:50.816,5003.127,3
373,373,2021-02-15 09:13:20.816,4973.154,3
383,383,2021-02-15 09:13:50.816,4943.1759999999995,3
393,393,2021-02-15 09:14:20.816,4913.192,3
403,403,2021-02-15 09:14:50.816,4883.2017,3
413,413,2021-02-15 09:15:20.816,4853.206,3
423,423,2021-02-15 09:15:50.816,4823.205,3
433,433,2021-02-15 09:16:20.816,4793.1997,3
443,443,2021-02-15 09:16:50.816,4763.1914,3
453,453,2021-02-15 09:17:20.816,4733.1797,3
463,463,2021-02-15 09:17:50.816,4703.1665,3
473,473,2021-02-15 09:18:20.816,4673.151,3
483,483,2021-02-15 09:18:50.816,4643.1343,3
493,493,2021-02-15 09:19:20.816,4613.117,3
503,503,2021-02-15 09:19:50.816,4583.1006,3
513,513,2021-02-15 09:20:20.816,4553.085,3
523,523,2021-02-15 09:20:50.816,4523.0713,3
533,533,2021-02-15 09:21:20.816,4493.061,3
543,543,2021-02-15 09:21:50.816,4463.0547,3
553,553,2021-02-15 09:22:20.816,4433.0537,3
563,563,2021-02-15 09:22:50.816,4403.0586,3
573,573,2021-02-15 09:23:20.816,4373.072,3
583,583,2021-02-15 09:23:50.816,4343.093,3
593,593,2021-02-15 09:24:20.816,4313.123,3
603,603,2021-02-15 09:24:50.816,4283.163,3
613,613,2021-02-15 09:25:20.816,4253.213,3
623,623,2021-02-15 09:25:50.816,4223.2734,3
633,633,2021-02-15 09:26:20.816,4193.343,3
643,643,2021-02-15 09:26:50.816,4163.420999999999,3
653,653,2021-02-15 09:27:20.816,4133.5083,3
663,663,2021-02-15 09:27:50.816,4103.6035,3
673,673,2021-02-15 09:28:20.816,4073.7058,3
683,683,2021-02-15 09:28:50.816,4043.8137,3
693,693,2021-02-15 09:29:20.816,4013.9263,3
703,703,2021-02-15 09:29:50.816,3984.0425,3
713,713,2021-02-15 09:30:20.816,3954.1624,3
723,723,2021-02-15 09:30:50.816,3924.285,3
733,733,2021-02-15 09:31:20.816,3894.4094,3
743,743,2021-02-15 09:31:50.816,3864.5361,3
753,753,2021-02-15 09:32:20.816,3834.6638,3
763,763,2021-02-15 09:32:50.816,3804.7922,3
773,773,2021-02-15 09:33:20.816,3774.9219,3
783,783,2021-02-15 09:33:50.816,3745.0518,3
793,793,2021-02-15 09:34:20.816,3715.1816,3
803,803,2021-02-15 09:34:50.816,3685.3118,3
813,813,2021-02-15 09:35:20.816,3655.4417,3
823,823,2021-02-15 09:35:50.816,3625.571,3
833,833,2021-02-15 09:36:20.816,3595.6995,3
843,843,2021-02-15 09:36:50.816,3565.8276,3
853,853,2021-02-15 09:37:20.816,3535.9546,3
863,863,2021-02-15 09:37:50.816,3506.0803,3
873,873,2021-02-15 09:38:20.816,3476.2046,3
883,883,2021-02-15 09:38:50.816,3446.3276,3
893,893,2021-02-15 09:39:20.816,3416.449,3
903,903,2021-02-15 09:39:50.816,3386.5686,3
913,913,2021-02-15 09:40:20.816,3356.6865,3
923,923,2021-02-15 09:40:50.816,3326.8027,3
933,933,2021-02-15 09:41:20.816,3296.9167,3
943,943,2021-02-15 09:41:50.816,3267.0286,3
953,953,2021-02-15 09:42:20.816,3237.1384,3
963,963,2021-02-15 09:42:50.816,3207.2456,3
973,973,2021-02-15 09:43:20.816,3177.3506,3
983,983,2021-02-15 09:43:50.816,3147.453,3
993,993,2021-02-15 09:44:20.816,3117.5527,3
1003,1003,2021-02-15 09:44:50.816,3087.65,3
1013,1013,2021-02-15 09:45:20.816,3057.7444,3
1023,1023,2021-02-15 09:45:50.816,3027.836,3
1033,1033,2021-02-15 09:46:20.816,2997.925,3
1043,1043,2021-02-15 09:46:50.816,2968.0115,3
1053,1053,2021-02-15 09:47:20.816,2938.0947,3
1063,1063,2021-02-15 09:47:50.816,2908.1753,3
1073,1073,2021-02-15 09:48:20.816,2878.2532,3
1083,1083,2021-02-15 09:48:50.816,2848.3276,3
1093,1093,2021-02-15 09:49:20.816,2818.3994,3
1103,1103,2021-02-15 09:49:50.816,2788.468,3
1113,1113,2021-02-15 09:50:20.816,2758.5332,3
1123,1123,2021-02-15 09:50:50.816,2728.5957,3
1133,1133,2021-02-15 09:51:20.816,2698.6548,3
1143,1143,2021-02-15 09:51:50.816,2668.7104,3
1153,1153,2021-02-15 09:52:20.816,2638.7632,3
1163,1163,2021-02-15 09:52:50.816,2608.8125,3
1173,1173,2021-02-15 09:53:20.816,2578.8584,3
1183,1183,2021-02-15 09:53:50.816,2548.901,3
1193,1193,2021-02-15 09:54:20.816,2518.94,3
1203,1203,2021-02-15 09:54:50.816,2488.9753,3
1213,1213,2021-02-15 09:55:20.816,2459.0073,3
1223,1223,2021-02-15 09:55:50.816,2429.0361,3
1233,1233,2021-02-15 09:56:20.816,2399.0608,3
1243,1243,2021-02-15 09:56:50.816,2369.0818,3
1253,1253,2021-02-15 09:57:20.816,2339.099,3
1263,1263,2021-02-15 09:57:50.816,2309.1128,3
1273,1273,2021-02-15 09:58:20.816,2279.1223,3
1283,1283,2021-02-15 09:58:50.816,2249.1277,3
1293,1293,2021-02-15 09:59:20.816,2219.1292,3
1303,1303,2021-02-15 09:59:50.816,2189.1267,3
1313,1313,2021-02-15 10:00:20.816,2159.1196,3
1323,1323,2021-02-15 10:00:50.816,2129.1084,3
1333,1333,2021-02-15 10:01:20.816,2099.0923,3
1343,1343,2021-02-15 10:01:50.816,2069.072,3
1353,1353,2021-02-15 10:02:20.816,2039.0466,3
1363,1363,2021-02-15 10:02:50.816,2009.0165,3
1373,1373,2021-02-15 10:03:20.816,1978.9811,3
1383,1383,2021-02-15 10:03:50.816,1948.9404,3
1393,1393,2021-02-15 10:04:20.816,1918.8943,3
1403,1403,2021-02-15 10:04:50.816,1888.8424,3
1413,1413,2021-02-15 10:05:20.816,1858.7844,3
1423,1423,2021-02-15 10:05:50.816,1828.7202,3
1433,1433,2021-02-15 10:06:20.816,1798.6494,3
1443,1443,2021-02-15 10:06:50.816,1768.5714,3
1453,1453,2021-02-15 10:07:20.816,1738.4858,3
1463,1463,2021-02-15 10:07:50.816,1708.3925,3
1473,1473,2021-02-15 10:08:20.816,1678.2908,3
1483,1483,2021-02-15 10:08:50.816,1648.1797,3
1493,1493,2021-02-15 10:09:20.816,1618.0591,3
1503,1503,2021-02-15 10:09:50.816,1587.9279,3
1513,1513,2021-02-15 10:10:20.816,1557.7858,3
1523,1523,2021-02-15 10:10:50.816,1527.6317,3
1533,1533,2021-02-15 10:11:20.816,1497.4651,3
1543,1543,2021-02-15 10:11:50.816,1467.2839999999999,3
1553,1553,2021-02-15 10:12:20.816,1437.0878,3
1563,1563,2021-02-15 10:12:50.816,1406.8745,3
1573,1573,2021-02-15 10:13:20.816,1376.6425,3
1583,1583,2021-02-15 10:13:50.816,1346.3893,3
1593,1593,2021-02-15 10:14:20.816,1316.1132,3
1603,1603,2021-02-15 10:14:50.816,1285.8108,3
1613,1613,2021-02-15 10:15:20.816,1255.4795,3
1623,1623,2021-02-15 10:15:50.816,1225.116,3
1633,1633,2021-02-15 10:16:20.816,1194.7166,3
1643,1643,2021-02-15 10:16:50.816,1164.2761,3
1653,1653,2021-02-15 10:17:20.816,1133.7885,3
1663,1663,2021-02-15 10:17:50.816,1103.2458,3
1673,1673,2021-02-15 10:18:20.816,1072.6394,3
1683,1683,2021-02-15 10:18:50.816,1041.9569999999999,3
1693,1693,2021-02-15 10:19:20.816,1011.1845,3
1703,1703,2021-02-15 10:19:50.816,980.3027,3
1713,1713,2021-02-15 10:20:20.816,949.2866,3
1723,1723,2021-02-15 10:20:50.816,918.1037,3
1733,1733,2021-02-15 10:21:20.816,886.7092,3
1743,1743,2021-02-15 10:21:50.816,855.04083,3
1753,1753,2021-02-15 10:22:20.816,823.008,3
1763,1763,2021-02-15 10:22:50.816,790.4799,3
1773,1773,2021-02-15 10:23:20.816,757.2639999999999,3
1783,1783,2021-02-15 10:23:50.816,723.0618,3
1793,1793,2021-02-15 10:24:20.816,687.40283,3
1803,1803,2021-02-15 10:24:50.816,649.57654,3
1813,1813,2021-02-15 10:25:20.816,608.5619,3
1823,1823,2021-02-15 10:25:50.816,562.8393,3
1833,1833,2021-02-15 10:26:20.816,511.28674,3
1843,1843,2021-02-15 10:26:50.816,472.12155,3
1853,1853,2021-02-15 10:27:20.816,516.8347,3
1863,1863,2021-02-15 10:27:50.816,662.9185,3
1873,1873,2021-02-15 10:28:20.816,774.4481,3
1883,1883,2021-02-15 10:28:50.816,826.3840299999999,3
1893,1893,2021-02-15 10:29:20.816,846.5126,3
1903,1903,2021-02-15 10:29:50.816,849.3877,3
1913,1913,2021-02-15 10:30:20.816,841.6877400000001,3
1923,1923,2021-02-15 10:30:50.816,826.7066,3
1933,1933,2021-02-15 10:31:20.816,806.2202,3
1943,1943,2021-02-15 10:31:50.816,782.0601,3
1953,1953,2021-02-15 10:32:20.816,755.7931,3
1963,1963,2021-02-15 10:32:50.816,728.0992,3
1973,1973,2021-02-15 10:33:20.816,699.555,3
1983,1983,2021-02-15 10:33:50.816,670.5099,3
1993,1993,2021-02-15 10:34:20.816,641.16547,3
2003,2003,2021-02-15 10:34:50.816,611.6115,3
2013,2013,2021-02-15 10:35:20.816,581.9217,3
2023,2023,2021-02-15 10:35:50.816,552.1373,3
2033,2033,2021-02-15 10:36:20.816,522.2803299999999,3
2043,2043,2021-02-15 10:36:50.816,492.36633,3
2053,2053,2021-02-15 10:37:20.816,462.40884000000005,3
2063,2063,2021-02-15 10:37:50.816,432.4153,3
2073,2073,2021-02-15 10:38:20.816,402.39342999999997,3
2083,2083,2021-02-15 10:38:50.816,374.62122,3
2093,2093,2021-02-15 10:39:20.816,349.55615,3
2103,2103,2021-02-15 10:39:50.816,327.16292999999996,3
2113,2113,2021-02-15 10:40:20.816,307.4104,3
2123,2123,2021-02-15 10:40:50.816,290.29495,3
2133,2133,2021-02-15 10:41:20.816,275.84912,3
2143,2143,2021-02-15 10:41:50.816,264.12338,3
2153,2153,2021-02-15 10:42:20.816,255.11893999999998,3
2163,2163,2021-02-15 10:42:50.816,248.68114,3
2173,2173,2021-02-15 10:43:20.816,244.42127999999997,3
2183,2183,2021-02-15 10:43:50.816,241.68837000000002,3
2193,2193,2021-02-15 10:44:20.816,239.72879,3
2203,2203,2021-02-15 10:44:50.816,238.25311000000002,3
2213,2213,2021-02-15 10:45:20.816,237.64754,3
2223,2223,2021-02-15 10:45:50.816,238.47092999999998,3
2233,2233,2021-02-15 10:46:20.816,241.13692000000003,3
2243,2243,2021-02-15 10:46:50.816,245.86699,3
2253,2253,2021-02-15 10:47:20.816,252.74509,3
2263,2263,2021-02-15 10:47:50.816,261.7841,3
2273,2273,2021-02-15 10:48:20.816,272.9639,3
2283,2283,2021-02-15 10:48:50.816,286.2384,3
2293,2293,2021-02-15 10:49:20.816,301.54755,3
2303,2303,2021-02-15 10:49:50.816,318.82962000000003,3
2313,2313,2021-02-15 10:50:20.816,338.02896,3
2323,2323,2021-02-15 10:50:50.816,359.09747000000004,3
2333,2333,2021-02-15 10:51:20.816,381.99292,3
2343,2343,2021-02-15 10:51:50.816,406.6759,3
2353,2353,2021-02-15 10:52:20.816,433.10745,3
2363,2363,2021-02-15 10:52:50.816,461.24365,3
2373,2373,2021-02-15 10:53:20.816,491.0263,3
2383,2383,2021-02-15 10:53:50.816,521.058,3
2393,2393,2021-02-15 10:54:20.816,551.05786,3
2403,2403,2021-02-15 10:54:50.816,581.021,3
2413,2413,2021-02-15 10:55:20.816,610.943,3
2423,2423,2021-02-15 10:55:50.816,640.8226,3
2433,2433,2021-02-15 10:56:20.816,670.6568,3
2443,2443,2021-02-15 10:56:50.816,700.42706,3
2453,2453,2021-02-15 10:57:20.816,730.0884,3
2463,2463,2021-02-15 10:57:50.816,759.5621,3
2473,2473,2021-02-15 10:58:20.816,788.7451,3
2483,2483,2021-02-15 10:58:50.816,817.4399,3
2493,2493,2021-02-15 10:59:20.816,845.3339,3
2503,2503,2021-02-15 10:59:50.816,872.16223,3
2513,2513,2021-02-15 11:00:20.816,897.2492,3
2523,2523,2021-02-15 11:00:50.816,919.5211,3
2533,2533,2021-02-15 11:01:20.816,937.6361,3
2543,2543,2021-02-15 11:01:50.816,950.7501,3
2553,2553,2021-02-15 11:02:20.816,957.27234,3
2563,2563,2021-02-15 11:02:50.816,954.6676,3
2573,2573,2021-02-15 11:03:20.816,938.9288,3
2583,2583,2021-02-15 11:03:50.816,904.4494599999999,3
2593,2593,2021-02-15 11:04:20.816,846.3457,3
2603,2603,2021-02-15 11:04:50.816,771.02185,3
2613,2613,2021-02-15 11:05:20.816,705.8438,3
2623,2623,2021-02-15 11:05:50.816,670.93115,3
2633,2633,2021-02-15 11:06:20.816,666.7838,3
2643,2643,2021-02-15 11:06:50.816,683.3116,3
2653,2653,2021-02-15 11:07:20.816,710.20135,3
2663,2663,2021-02-15 11:07:50.816,741.49603,3
2673,2673,2021-02-15 11:08:20.816,774.3598599999999,3
2683,2683,2021-02-15 11:08:50.816,807.63586,3
2693,2693,2021-02-15 11:09:20.816,840.7576,3
2703,2703,2021-02-15 11:09:50.816,873.3764,3
2713,2713,2021-02-15 11:10:20.816,905.5451,3
2723,2723,2021-02-15 11:10:50.816,937.31775,3
2733,2733,2021-02-15 11:11:20.816,968.765,3
2743,2743,2021-02-15 11:11:50.816,999.952,3
2753,2753,2021-02-15 11:12:20.816,1030.9293,3
2763,2763,2021-02-15 11:12:50.816,1061.7368,3
2773,2773,2021-02-15 11:13:20.816,1092.4076,3
2783,2783,2021-02-15 11:13:50.816,1122.9669,3
2793,2793,2021-02-15 11:14:20.816,1153.4354,3
2803,2803,2021-02-15 11:14:50.816,1183.8295,3
2813,2813,2021-02-15 11:15:20.816,1214.1621,3
2823,2823,2021-02-15 11:15:50.816,1244.4427,3
2833,2833,2021-02-15 11:16:20.816,1274.6805,3
2843,2843,2021-02-15 11:16:50.816,1304.8827,3
2853,2853,2021-02-15 11:17:20.816,1335.0555,3
2863,2863,2021-02-15 11:17:50.816,1365.203,3
2873,2873,2021-02-15 11:18:20.816,1395.3293,3
2883,2883,2021-02-15 11:18:50.816,1425.4375,3
2893,2893,2021-02-15 11:19:20.816,1455.53,3
2903,2903,2021-02-15 11:19:50.816,1485.609,3
2913,2913,2021-02-15 11:20:20.816,1515.6766,3
2923,2923,2021-02-15 11:20:50.816,1545.7339,3
2933,2933,2021-02-15 11:21:20.816,1575.7822,3
2943,2943,2021-02-15 11:21:50.816,1605.8226,3
2953,2953,2021-02-15 11:22:20.816,1635.8561,3
2963,2963,2021-02-15 11:22:50.816,1665.8826,3
2973,2973,2021-02-15 11:23:20.816,1695.9034,3
2983,2983,2021-02-15 11:23:50.816,1725.9193,3
2993,2993,2021-02-15 11:24:20.816,1755.9303,3
3003,3003,2021-02-15 11:24:50.816,1785.9373,3
3013,3013,2021-02-15 11:25:20.816,1815.9404,3
3023,3023,2021-02-15 11:25:50.816,1845.94,3
3033,3033,2021-02-15 11:26:20.816,1875.9366,3
3043,3043,2021-02-15 11:26:50.816,1905.9303,3
3053,3053,2021-02-15 11:27:20.816,1935.9213,3
3063,3063,2021-02-15 11:27:50.816,1965.9097,3
3073,3073,2021-02-15 11:28:20.816,1995.896,3
3083,3083,2021-02-15 11:28:50.816,2025.88,3
3093,3093,2021-02-15 11:29:20.816,2055.862,3
3103,3103,2021-02-15 11:29:50.816,2085.8423,3
3113,3113,2021-02-15 11:30:20.816,2115.8206,3
3123,3123,2021-02-15 11:30:50.816,2145.797,3
3133,3133,2021-02-15 11:31:20.816,2175.772,3
3143,3143,2021-02-15 11:31:50.816,2205.7454,3
3153,3153,2021-02-15 11:32:20.816,2235.7173,3
3163,3163,2021-02-15 11:32:50.816,2265.6873,3
3173,3173,2021-02-15 11:33:20.816,2295.6562,3
3183,3183,2021-02-15 11:33:50.816,2325.6238,3
3193,3193,2021-02-15 11:34:20.816,2355.5898,3
3203,3203,2021-02-15 11:34:50.816,2385.5542,3
3213,3213,2021-02-15 11:35:20.816,2415.5173,3
3223,3223,2021-02-15 11:35:50.816,2445.479,3
3233,3233,2021-02-15 11:36:20.816,2475.4395,3
3243,3243,2021-02-15 11:36:50.816,2505.3984,3
3253,3253,2021-02-15 11:37:20.816,2535.356,3
3263,3263,2021-02-15 11:37:50.816,2565.3123,3
3273,3273,2021-02-15 11:38:20.816,2595.2670000000003,3
3283,3283,2021-02-15 11:38:50.816,2625.2202,3
3293,3293,2021-02-15 11:39:20.816,2655.172,3
3303,3303,2021-02-15 11:39:50.816,2685.1226,3
3313,3313,2021-02-15 11:40:20.816,2715.0715,3
3323,3323,2021-02-15 11:40:50.816,2745.0190000000002,3
3333,3333,2021-02-15 11:41:20.816,2774.965,3
3343,3343,2021-02-15 11:41:50.816,2804.9097,3
3353,3353,2021-02-15 11:42:20.816,2834.8528,3
3363,3363,2021-02-15 11:42:50.816,2864.7942,3
3373,3373,2021-02-15 11:43:20.816,2894.7344,3
3383,3383,2021-02-15 11:43:50.816,2924.673,3
3393,3393,2021-02-15 11:44:20.816,2954.6104,3
3403,3403,2021-02-15 11:44:50.816,2984.5464,3
3413,3413,2021-02-15 11:45:20.816,3014.4809999999998,3
3423,3423,2021-02-15 11:45:50.816,3044.4146,3
3433,3433,2021-02-15 11:46:20.816,3074.3472,3
3443,3443,2021-02-15 11:46:50.816,3104.2786,3
3453,3453,2021-02-15 11:47:20.816,3134.2092,3
3463,3463,2021-02-15 11:47:50.816,3164.1394,3
3473,3473,2021-02-15 11:48:20.816,3194.0688,3
3483,3483,2021-02-15 11:48:50.816,3223.9985,3
3493,3493,2021-02-15 11:49:20.816,3253.9277,3
3503,3503,2021-02-15 11:49:50.816,3283.8579999999997,3
3513,3513,2021-02-15 11:50:20.816,3313.788,3
3523,3523,2021-02-15 11:50:50.816,3343.7195,3
3533,3533,2021-02-15 11:51:20.816,3373.6523,3
3543,3543,2021-02-15 11:51:50.816,3403.5872,3
3553,3553,2021-02-15 11:52:20.816,3433.5242,3
3563,3563,2021-02-15 11:52:50.816,3463.4644,3
3573,3573,2021-02-15 11:53:20.816,3493.4077,3
3583,3583,2021-02-15 11:53:50.816,3523.3557,3
3593,3593,2021-02-15 11:54:20.816,3553.308,3
3603,3603,2021-02-15 11:54:50.816,3583.2659999999996,3
3613,3613,2021-02-15 11:55:20.816,3613.23,3
3623,3623,2021-02-15 11:55:50.816,3643.2007,3
3633,3633,2021-02-15 11:56:20.816,3673.1787,3
3643,3643,2021-02-15 11:56:50.816,3703.1646,3
3653,3653,2021-02-15 11:57:20.816,3733.1584,3
3663,3663,2021-02-15 11:57:50.816,3763.1611,3
3673,3673,2021-02-15 11:58:20.816,3793.1724,3
3683,3683,2021-02-15 11:58:50.816,3823.1929,3
3693,3693,2021-02-15 11:59:20.816,3853.222,3
3703,3703,2021-02-15 11:59:50.816,3883.2598,3
3713,3713,2021-02-15 12:00:20.816,3913.3064,3
3723,3723,2021-02-15 12:00:50.816,3943.3616,3
3733,3733,2021-02-15 12:01:20.816,3973.4253,3
3743,3743,2021-02-15 12:01:50.816,4003.4970000000003,3
3753,3753,2021-02-15 12:02:20.816,4033.5757,3
3763,3763,2021-02-15 12:02:50.816,4063.6602,3
3773,3773,2021-02-15 12:03:20.816,4093.75,3
3783,3783,2021-02-15 12:03:50.816,4123.8457,3
3793,3793,2021-02-15 12:04:20.816,4153.9478,3
3803,3803,2021-02-15 12:04:50.816,4184.0557,3
