,Unnamed: 0,time,prediction,real,step
25711,25711,2021-01-21 14:30:36.178,29.388752,27.0,1
25721,25721,2021-01-21 14:31:06.178,29.860871999999997,27.0,1
25731,25731,2021-01-21 14:31:36.178,29.748709,27.0,1
25741,25741,2021-01-21 14:32:06.178,29.50569,28.0,1
25751,25751,2021-01-21 14:32:36.178,29.048534000000004,28.0,1
25761,25761,2021-01-21 14:33:06.178,29.638443,29.0,1
25771,25771,2021-01-21 14:33:36.178,29.7043,29.0,1
25781,25781,2021-01-21 14:34:06.178,30.521933,30.0,1
25791,25791,2021-01-21 14:34:36.178,30.682034,30.0,1
25801,25801,2021-01-21 14:35:06.178,31.621964000000002,30.0,1
25811,25811,2021-01-21 14:35:36.178,31.756171999999996,31.0,1
25821,25821,2021-01-21 14:36:06.178,31.71593,31.0,1
25831,25831,2021-01-21 14:36:36.178,32.500732,32.0,1
25841,25841,2021-01-21 14:37:06.178,32.60517,32.0,1
25851,25851,2021-01-21 14:37:36.178,33.548737,33.0,1
25861,25861,2021-01-21 14:38:06.178,33.684486,33.0,1
25871,25871,2021-01-21 14:38:36.178,34.618927,33.0,1
25881,25881,2021-01-21 14:39:06.178,34.752274,34.0,1
25891,25891,2021-01-21 14:39:36.178,34.659542,34.0,1
25901,25901,2021-01-21 14:40:06.178,35.461346,36.0,1
25911,25911,2021-01-21 14:40:36.178,35.589306,36.0,1
25921,25921,2021-01-21 14:41:06.178,37.46908,37.0,1
25931,25931,2021-01-21 14:41:36.178,38.080864,37.0,1
25941,25941,2021-01-21 14:42:06.178,38.893467,37.0,1
25951,25951,2021-01-21 14:42:36.178,39.183937,39.0,1
25961,25961,2021-01-21 14:43:06.178,39.21569,39.0,1
25971,25971,2021-01-21 14:43:36.178,40.63541,40.0,1
25981,25981,2021-01-21 14:44:06.178,41.221214,40.0,1
25991,25991,2021-01-21 14:44:36.178,42.05341,42.0,1
26001,26001,2021-01-21 14:45:06.178,42.432365000000004,42.0,1
26011,26011,2021-01-21 14:45:36.178,43.861515000000004,42.0,1
26021,26021,2021-01-21 14:46:06.178,44.531807,44.0,1
26031,26031,2021-01-21 14:46:36.178,44.721447,44.0,1
26041,26041,2021-01-21 14:47:06.178,46.11495,44.0,1
26051,26051,2021-01-21 14:47:36.178,46.679394,47.0,1
26061,26061,2021-01-21 14:48:06.178,46.6246,47.0,1
26071,26071,2021-01-21 14:48:36.178,49.043673999999996,49.0,1
26081,26081,2021-01-21 14:49:06.178,49.929996,49.0,1
26091,26091,2021-01-21 14:49:36.178,51.532897999999996,52.0,1
26101,26101,2021-01-21 14:50:06.178,52.283665,52.0,1
26111,26111,2021-01-21 14:50:36.178,54.529736,52.0,1
26121,26121,2021-01-21 14:51:06.178,55.45312,55.0,1
26131,26131,2021-01-21 14:51:36.178,56.002174,55.0,1
26141,26141,2021-01-21 14:52:06.178,58.013090000000005,55.0,1
26151,26151,2021-01-21 14:52:36.178,58.949757,59.0,1
26161,26161,2021-01-21 14:53:06.178,59.02868,59.0,1
26171,26171,2021-01-21 14:53:36.178,62.13138000000001,63.0,1
26181,26181,2021-01-21 14:54:06.178,63.343819999999994,63.0,1
26191,26191,2021-01-21 14:54:36.178,66.50886,63.0,1
26201,26201,2021-01-21 14:55:06.178,67.77034,67.0,1
26211,26211,2021-01-21 14:55:36.178,68.43568,67.0,1
26221,26221,2021-01-21 14:56:06.178,71.17789499999999,67.0,1
26231,26231,2021-01-21 14:56:36.178,72.41223000000001,73.0,1
26241,26241,2021-01-21 14:57:06.178,72.3318,73.0,1
26251,26251,2021-01-21 14:57:36.178,77.236435,73.0,1
26261,26261,2021-01-21 14:58:06.178,79.02216999999999,79.0,1
26271,26271,2021-01-21 14:58:36.178,79.61296,79.0,1
26281,26281,2021-01-21 14:59:06.178,83.98703,79.0,1
26291,26291,2021-01-21 14:59:36.178,85.8799,87.0,1
26301,26301,2021-01-21 15:00:06.178,86.18883000000001,87.0,1
26311,26311,2021-01-21 15:00:36.178,92.4495,87.0,1
26321,26321,2021-01-21 15:01:06.178,94.89034000000001,97.0,1
26331,26331,2021-01-21 15:01:36.178,95.84738,97.0,1
26341,26341,2021-01-21 15:02:06.178,103.2098,109.0,1
26351,26351,2021-01-21 15:02:36.178,106.00625600000001,109.0,1
26361,26361,2021-01-21 15:03:06.178,115.12584,108.0,1
26371,26371,2021-01-21 15:03:36.178,119.23678600000001,124.0,1
26381,26381,2021-01-21 15:04:06.178,120.67841000000001,124.0,1
26391,26391,2021-01-21 15:04:36.178,131.77261000000001,144.0,1
26401,26401,2021-01-21 15:05:06.178,136.85387,144.0,1
26411,26411,2021-01-21 15:05:36.178,152.47818,144.0,1
26421,26421,2021-01-21 15:06:06.178,159.79897,173.0,1
26431,26431,2021-01-21 15:06:36.178,163.05302,173.0,1
26441,26441,2021-01-21 15:07:06.178,184.4068,173.0,1
26451,26451,2021-01-21 15:07:36.178,195.06396,216.0,1
26461,26461,2021-01-21 15:08:06.178,199.26148999999998,216.0,1
26471,26471,2021-01-21 15:08:36.178,232.27967999999998,287.0,1
26481,26481,2021-01-21 15:09:06.178,248.03973,287.0,1
26491,26491,2021-01-21 15:09:36.178,313.16205,287.0,1
26501,26501,2021-01-21 15:10:06.178,330.57974,430.0,1
26511,26511,2021-01-21 15:10:36.178,349.01865,430.0,1
26521,26521,2021-01-21 15:11:06.178,473.24545,430.0,1
26531,26531,2021-01-21 15:11:36.178,523.7033700000001,859.0,1
26541,26541,2021-01-21 15:12:06.178,541.32196,859.0,1
26551,26551,2021-01-21 15:12:36.178,673.2727,857.0,1
26561,26561,2021-01-21 15:13:06.178,809.83594,857.0,1
26571,26571,2021-01-21 15:13:36.178,794.0449,857.0,1
26581,26581,2021-01-21 15:14:06.178,845.515,857.0,1
26591,26591,2021-01-21 15:14:36.178,762.6151,857.0,1
26601,26601,2021-01-21 15:15:06.178,593.79285,857.0,1
26611,26611,2021-01-21 15:15:36.178,400.13535,428.0,1
26621,26621,2021-01-21 15:16:06.178,378.18475,428.0,1
26631,26631,2021-01-21 15:16:36.178,297.9855,285.0,1
26641,26641,2021-01-21 15:17:06.178,272.4864,285.0,1
26651,26651,2021-01-21 15:17:36.178,234.4909,285.0,1
26661,26661,2021-01-21 15:18:06.178,221.18875,213.0,1
26671,26671,2021-01-21 15:18:36.178,204.26203999999998,213.0,1
26681,26681,2021-01-21 15:19:06.178,170.25713000000002,213.0,1
26691,26691,2021-01-21 15:19:36.178,147.80127,170.0,1
26701,26701,2021-01-21 15:20:06.178,142.41939,170.0,1
26711,26711,2021-01-21 15:20:36.178,137.82745,170.0,1
26721,26721,2021-01-21 15:21:06.178,136.7507,142.0,1
26731,26731,2021-01-21 15:21:36.178,137.64293999999998,142.0,1
26741,26741,2021-01-21 15:22:06.178,134.30704,142.0,1
26751,26751,2021-01-21 15:22:36.178,131.47595,121.0,1
26761,26761,2021-01-21 15:23:06.178,128.84149,121.0,1
26771,26771,2021-01-21 15:23:36.178,121.94927,106.0,1
26781,26781,2021-01-21 15:24:06.178,115.72006999999999,106.0,1
26791,26791,2021-01-21 15:24:36.178,106.76193,106.0,1
26801,26801,2021-01-21 15:25:06.178,98.949524,94.0,1
26811,26811,2021-01-21 15:25:36.178,92.05083,94.0,1
26821,26821,2021-01-21 15:26:06.178,84.13544499999999,94.0,1
26831,26831,2021-01-21 15:26:36.178,77.3904,84.0,1
26841,26841,2021-01-21 15:27:06.178,71.58322,84.0,1
26851,26851,2021-01-21 15:27:36.178,66.952484,84.0,1
26861,26861,2021-01-21 15:28:06.178,63.3808,77.0,1
26871,26871,2021-01-21 15:28:36.178,60.73988000000001,77.0,1
26881,26881,2021-01-21 15:29:06.178,58.51835,70.0,1
26891,26891,2021-01-21 15:29:36.178,57.289726,70.0,1
26901,26901,2021-01-21 15:30:06.178,56.61714,70.0,1
26911,26911,2021-01-21 15:30:36.178,57.296288,65.0,1
26921,26921,2021-01-21 15:31:06.178,62.774628,65.0,1
26931,26931,2021-01-21 15:31:36.178,61.550869999999996,65.0,1
26941,26941,2021-01-21 15:32:06.178,58.51590699999999,60.0,1
26951,26951,2021-01-21 15:32:36.178,56.988490000000006,60.0,1
26961,26961,2021-01-21 15:33:06.178,55.476814000000005,60.0,1
26971,26971,2021-01-21 15:33:36.178,54.84764499999999,56.0,1
26981,26981,2021-01-21 15:34:06.178,53.587074,56.0,1
26991,26991,2021-01-21 15:34:36.178,52.372818,56.0,1
27001,27001,2021-01-21 15:35:06.178,51.814644,52.0,1
27011,27011,2021-01-21 15:35:36.178,50.74217,52.0,1
27021,27021,2021-01-21 15:36:06.178,49.643609999999995,52.0,1
27031,27031,2021-01-21 15:36:36.178,49.110428000000006,49.0,1
27041,27041,2021-01-21 15:37:06.178,48.157906,49.0,1
27051,27051,2021-01-21 15:37:36.178,47.265137,49.0,1
27061,27061,2021-01-21 15:38:06.178,46.849315999999995,46.0,1
27071,27071,2021-01-21 15:38:36.178,46.068622999999995,46.0,1
27081,27081,2021-01-21 15:39:06.178,45.289223,44.0,1
27091,27091,2021-01-21 15:39:36.178,44.333861999999996,44.0,1
27101,27101,2021-01-21 15:40:06.178,43.417603,41.0,1
27111,27111,2021-01-21 15:40:36.178,42.819266999999996,41.0,1
27121,27121,2021-01-21 15:41:06.178,41.707122999999996,39.0,1
27131,27131,2021-01-21 15:41:36.178,40.864777000000004,39.0,1
27141,27141,2021-01-21 15:42:06.178,40.02275,39.0,1
27151,27151,2021-01-21 15:42:36.178,39.079291999999995,38.0,1
27161,27161,2021-01-21 15:43:06.178,38.3656,38.0,1
27171,27171,2021-01-21 15:43:36.178,37.74125,36.0,1
27181,27181,2021-01-21 15:44:06.178,37.071568,36.0,1
27191,27191,2021-01-21 15:44:36.178,36.367336,36.0,1
27201,27201,2021-01-21 15:45:06.178,35.587036,34.0,1
27211,27211,2021-01-21 15:45:36.178,34.959796999999995,34.0,1
27221,27221,2021-01-21 15:46:06.178,34.282536,34.0,1
27231,27231,2021-01-21 15:46:36.178,33.59554,33.0,1
27241,27241,2021-01-21 15:47:06.178,33.058693,33.0,1
27251,27251,2021-01-21 15:47:36.178,32.55615,32.0,1
27261,27261,2021-01-21 15:48:06.178,32.001537,32.0,1
27271,27271,2021-01-21 15:48:36.178,31.464171999999998,32.0,1
27281,27281,2021-01-21 15:49:06.178,31.064137,30.0,1
27291,27291,2021-01-21 15:49:36.178,30.656754,30.0,1
27301,27301,2021-01-21 15:50:06.178,30.096949,30.0,1
27311,27311,2021-01-21 15:50:36.178,29.677929,29.0,1
27321,27321,2021-01-21 15:51:06.178,29.231559999999998,29.0,1
27331,27331,2021-01-21 15:51:36.178,28.772884,29.0,1
27341,27341,2021-01-21 15:52:06.178,28.428853999999998,28.0,1
27351,27351,2021-01-21 15:52:36.178,28.087704,28.0,1
27361,27361,2021-01-21 15:53:06.178,27.75325,28.0,1
27371,27371,2021-01-21 15:53:36.178,27.502813,27.0,1
27381,27381,2021-01-21 15:54:06.178,27.218048,27.0,1
27391,27391,2021-01-21 15:54:36.178,26.935029999999998,27.0,1
27401,27401,2021-01-21 15:55:06.178,26.639412,26.0,1
27411,27411,2021-01-21 15:55:36.178,26.425451000000002,26.0,1
27421,27421,2021-01-21 15:56:06.178,26.058495999999998,26.0,1
27431,27431,2021-01-21 15:56:36.178,25.780466,25.0,1
27441,27441,2021-01-21 15:57:06.178,25.485231,25.0,1
27451,27451,2021-01-21 15:57:36.178,25.130083,25.0,1
27461,27461,2021-01-21 15:58:06.178,24.879091,25.0,1
27471,27471,2021-01-21 15:58:36.178,24.637783,25.0,1
27481,27481,2021-01-21 15:59:06.178,24.44371,24.0,1
27491,27491,2021-01-21 15:59:36.178,24.231588000000002,24.0,1
27501,27501,2021-01-21 16:00:06.178,23.968645000000002,24.0,1
27511,27511,2021-01-21 16:00:36.178,23.778597,23.0,1
27521,27521,2021-01-21 16:01:06.178,23.5482,23.0,1
27531,27531,2021-01-21 16:01:36.178,23.256918,23.0,1
27541,27541,2021-01-21 16:02:06.178,23.029356,22.0,1
27551,27551,2021-01-21 16:02:36.178,22.810285999999998,22.0,1
27561,27561,2021-01-21 16:03:06.178,22.526806,22.0,1
27571,27571,2021-01-21 16:03:36.178,22.253248000000003,22.0,1
27581,27581,2021-01-21 16:04:06.178,22.036715,22.0,1
27591,27591,2021-01-21 16:04:36.178,21.887407,21.0,1
27601,27601,2021-01-21 16:05:06.178,21.67933,21.0,1
27611,27611,2021-01-21 16:05:36.178,21.390444,21.0,1
27621,27621,2021-01-21 16:06:06.178,21.165579,21.0,1
27631,27631,2021-01-21 16:06:36.178,20.930104999999998,21.0,1
27641,27641,2021-01-21 16:07:06.178,20.73341,21.0,1
27651,27651,2021-01-21 16:07:36.178,20.595398,20.0,1
27661,27661,2021-01-21 16:08:06.178,20.471273,20.0,1
27671,27671,2021-01-21 16:08:36.178,20.236547,19.0,1
27681,27681,2021-01-21 16:09:06.178,20.050901,19.0,1
27691,27691,2021-01-21 16:09:36.178,19.741087,19.0,1
27701,27701,2021-01-21 16:10:06.178,19.476707,19.0,1
27711,27711,2021-01-21 16:10:36.178,19.251228,19.0,1
27721,27721,2021-01-21 16:11:06.178,19.031372,19.0,1
27731,27731,2021-01-21 16:11:36.178,18.856617,19.0,1
27741,27741,2021-01-21 16:12:06.178,18.706692,18.0,1
27751,27751,2021-01-21 16:12:36.178,18.54182,18.0,1
27761,27761,2021-01-21 16:13:06.178,18.291701999999997,18.0,1
27771,27771,2021-01-21 16:13:36.178,18.099874,18.0,1
27781,27781,2021-01-21 16:14:06.178,17.952034,18.0,1
27791,27791,2021-01-21 16:14:36.178,17.815739999999998,18.0,1
27801,27801,2021-01-21 16:15:06.178,17.669334,18.0,1
27811,27811,2021-01-21 16:15:36.178,17.56792,18.0,1
27821,27821,2021-01-21 16:16:06.178,17.53244,17.0,1
27831,27831,2021-01-21 16:16:36.178,17.431662,17.0,1
27841,27841,2021-01-21 16:17:06.178,17.24567,17.0,1
27851,27851,2021-01-21 16:17:36.178,17.106047,17.0,1
27861,27861,2021-01-21 16:18:06.178,16.949076,17.0,1
27871,27871,2021-01-21 16:18:36.178,16.815179999999998,17.0,1
27881,27881,2021-01-21 16:19:06.178,16.70253,16.0,1
27891,27891,2021-01-21 16:19:36.178,16.616184,16.0,1
27901,27901,2021-01-21 16:20:06.178,16.434557,16.0,1
27911,27911,2021-01-21 16:20:36.178,16.240564000000003,16.0,1
27921,27921,2021-01-21 16:21:06.178,16.094292000000003,16.0,1
27931,27931,2021-01-21 16:21:36.178,15.983103,15.0,1
27941,27941,2021-01-21 16:22:06.178,15.875476999999998,15.0,1
27951,27951,2021-01-21 16:22:36.178,15.663525,15.0,1
27961,27961,2021-01-21 16:23:06.178,15.491992999999999,15.0,1
27971,27971,2021-01-21 16:23:36.178,15.309731,15.0,1
27981,27981,2021-01-21 16:24:06.178,15.199352,15.0,1
27991,27991,2021-01-21 16:24:36.178,15.034476999999999,14.0,1
28001,28001,2021-01-21 16:25:06.178,14.888001000000001,14.0,1
28011,28011,2021-01-21 16:25:36.178,14.628839000000001,14.0,1
28021,28021,2021-01-21 16:26:06.178,14.407769,14.0,1
28031,28031,2021-01-21 16:26:36.178,14.218434,14.0,1
28041,28041,2021-01-21 16:27:06.178,14.076664000000001,14.0,1
28051,28051,2021-01-21 16:27:36.178,13.963966000000001,14.0,1
28061,28061,2021-01-21 16:28:06.178,13.815123000000002,14.0,1
28071,28071,2021-01-21 16:28:36.178,13.686046,14.0,1
28081,28081,2021-01-21 16:29:06.178,13.577370000000002,14.0,1
28091,28091,2021-01-21 16:29:36.178,13.488329,14.0,1
28101,28101,2021-01-21 16:30:06.178,13.418376,14.0,1
28111,28111,2021-01-21 16:30:36.178,13.384494,14.0,1
28121,28121,2021-01-21 16:31:06.178,13.353839,13.0,1
28131,28131,2021-01-21 16:31:36.178,13.342157,13.0,1
28141,28141,2021-01-21 16:32:06.178,13.193991,13.0,1
28151,28151,2021-01-21 16:32:36.178,13.070089999999999,13.0,1
28161,28161,2021-01-21 16:33:06.178,12.965404,13.0,1
28171,28171,2021-01-21 16:33:36.178,12.887751,13.0,1
28181,28181,2021-01-21 16:34:06.178,12.857678,13.0,1
28191,28191,2021-01-21 16:34:36.178,12.8278265,13.0,1
28201,28201,2021-01-21 16:35:06.178,12.762310000000001,13.0,1
28211,28211,2021-01-21 16:35:36.178,12.715031,13.0,1
28221,28221,2021-01-21 16:36:06.178,12.682808,13.0,1
28231,28231,2021-01-21 16:36:36.178,12.668807000000001,12.0,1
28241,28241,2021-01-21 16:37:06.178,12.676549000000001,12.0,1
28251,28251,2021-01-21 16:37:36.178,12.503883,12.0,1
28261,28261,2021-01-21 16:38:06.178,12.368504,12.0,1
28271,28271,2021-01-21 16:38:36.178,12.273242,12.0,1
28281,28281,2021-01-21 16:39:06.178,12.174593,12.0,1
28291,28291,2021-01-21 16:39:36.178,12.092338999999999,12.0,1
28301,28301,2021-01-21 16:40:06.178,12.032518,12.0,1
28311,28311,2021-01-21 16:40:36.178,11.941684,12.0,1
28321,28321,2021-01-21 16:41:06.178,11.860083,12.0,1
28331,28331,2021-01-21 16:41:36.178,11.786978999999999,12.0,1
28341,28341,2021-01-21 16:42:06.178,11.722002999999999,12.0,1
28351,28351,2021-01-21 16:42:36.178,11.664826,12.0,1
28361,28361,2021-01-21 16:43:06.178,11.615085,12.0,1
28371,28371,2021-01-21 16:43:36.178,11.573677,12.0,1
28381,28381,2021-01-21 16:44:06.178,11.546097,11.0,1
28391,28391,2021-01-21 16:44:36.178,11.550408000000001,11.0,1
28401,28401,2021-01-21 16:45:06.178,11.423945,11.0,1
28411,28411,2021-01-21 16:45:36.178,11.319821000000001,11.0,1
28421,28421,2021-01-21 16:46:06.178,11.239687,11.0,1
28431,28431,2021-01-21 16:46:36.178,11.179541,11.0,1
28441,28441,2021-01-21 16:47:06.178,11.083226,11.0,1
28451,28451,2021-01-21 16:47:36.178,10.997781,11.0,1
28461,28461,2021-01-21 16:48:06.178,10.922321,11.0,1
28471,28471,2021-01-21 16:48:36.178,10.856083,11.0,1
28481,28481,2021-01-21 16:49:06.178,10.798475999999999,11.0,1
28491,28491,2021-01-21 16:49:36.178,10.749416,11.0,1
28501,28501,2021-01-21 16:50:06.178,10.710721000000001,11.0,1
28511,28511,2021-01-21 16:50:36.178,10.691778,11.0,1
28521,28521,2021-01-21 16:51:06.178,10.702792,10.0,1
28531,28531,2021-01-21 16:51:36.178,10.699157000000001,10.0,1
28541,28541,2021-01-21 16:52:06.178,10.579479,10.0,1
28551,28551,2021-01-21 16:52:36.178,10.433545,10.0,1
28561,28561,2021-01-21 16:53:06.178,10.305978,10.0,1
28571,28571,2021-01-21 16:53:36.178,10.1935215,10.0,1
28581,28581,2021-01-21 16:54:06.178,10.093573,10.0,1
28591,28591,2021-01-21 16:54:36.178,10.004578,10.0,1
28601,28601,2021-01-21 16:55:06.178,9.92545,10.0,1
28611,28611,2021-01-21 16:55:36.178,9.855564999999999,10.0,1
28621,28621,2021-01-21 16:56:06.178,9.794286,10.0,1
28631,28631,2021-01-21 16:56:36.178,9.741175,10.0,1
28641,28641,2021-01-21 16:57:06.178,9.696429,10.0,1
28651,28651,2021-01-21 16:57:36.178,9.664409,10.0,1
28661,28661,2021-01-21 16:58:06.178,9.664981,10.0,1
28671,28671,2021-01-21 16:58:36.178,9.662522000000001,10.0,1
28681,28681,2021-01-21 16:59:06.178,9.665288,10.0,1
28691,28691,2021-01-21 16:59:36.178,9.690123,10.0,1
28701,28701,2021-01-21 17:00:06.178,9.663603,10.0,1
28711,28711,2021-01-21 17:00:36.178,9.640487,10.0,1
28721,28721,2021-01-21 17:01:06.178,9.620942999999999,10.0,1
28731,28731,2021-01-21 17:01:36.178,9.605245,9.0,1
28741,28741,2021-01-21 17:02:06.178,9.593532000000002,9.0,1
28751,28751,2021-01-21 17:02:36.178,9.459691000000001,9.0,1
28761,28761,2021-01-21 17:03:06.178,9.34793,9.0,1
28771,28771,2021-01-21 17:03:36.178,9.251766,9.0,1
28781,28781,2021-01-21 17:04:06.178,9.169291000000001,9.0,1
28791,28791,2021-01-21 17:04:36.178,9.098838,9.0,1
28801,28801,2021-01-21 17:05:06.178,9.040305,9.0,1
28811,28811,2021-01-21 17:05:36.178,8.994461,9.0,1
28821,28821,2021-01-21 17:06:06.178,8.964748,9.0,1
28831,28831,2021-01-21 17:06:36.178,8.967768,9.0,1
28841,28841,2021-01-21 17:07:06.178,8.923072,9.0,1
28851,28851,2021-01-21 17:07:36.178,8.875073,8.0,1
28861,28861,2021-01-21 17:08:06.178,8.830221,8.0,1
28871,28871,2021-01-21 17:08:36.178,8.641404,8.0,1
28881,28881,2021-01-21 17:09:06.178,8.483728,8.0,1
28891,28891,2021-01-21 17:09:36.178,8.3477955,8.0,1
28901,28901,2021-01-21 17:10:06.178,8.2284155,8.0,1
28911,28911,2021-01-21 17:10:36.178,8.121595,8.0,1
28921,28921,2021-01-21 17:11:06.178,8.026102999999999,8.0,1
28931,28931,2021-01-21 17:11:36.178,7.9407119999999995,8.0,1
28941,28941,2021-01-21 17:12:06.178,7.864414999999999,8.0,1
28951,28951,2021-01-21 17:12:36.178,7.796527,8.0,1
28961,28961,2021-01-21 17:13:06.178,7.7366410000000005,8.0,1
28971,28971,2021-01-21 17:13:36.178,7.684323299999999,8.0,1
28981,28981,2021-01-21 17:14:06.178,7.6396914,8.0,1
28991,28991,2021-01-21 17:14:36.178,7.606453,8.0,1
29001,29001,2021-01-21 17:15:06.178,7.600853,8.0,1
29011,29011,2021-01-21 17:15:36.178,7.5968800000000005,8.0,1
29021,29021,2021-01-21 17:16:06.178,7.5953919999999995,8.0,1
29031,29031,2021-01-21 17:16:36.178,7.6112766,8.0,1
29041,29041,2021-01-21 17:17:06.178,7.64509,8.0,1
29051,29051,2021-01-21 17:17:36.178,7.62586,8.0,1
29061,29061,2021-01-21 17:18:06.178,7.6104107,8.0,1
29071,29071,2021-01-21 17:18:36.178,7.598901700000001,8.0,1
29081,29081,2021-01-21 17:19:06.178,7.591550999999999,8.0,1
29091,29091,2021-01-21 17:19:36.178,7.5885544000000005,8.0,1
29101,29101,2021-01-21 17:20:06.178,7.5900946,8.0,1
29111,29111,2021-01-21 17:20:36.178,7.598698599999999,8.0,1
29121,29121,2021-01-21 17:21:06.178,7.615261,8.0,1
29131,29131,2021-01-21 17:21:36.178,7.643453599999999,8.0,1
29141,29141,2021-01-21 17:22:06.178,7.687996000000001,7.0,1
29151,29151,2021-01-21 17:22:36.178,7.762844,7.0,1
29161,29161,2021-01-21 17:23:06.178,7.6643105,7.0,1
29171,29171,2021-01-21 17:23:36.178,7.5149755,7.0,1
29181,29181,2021-01-21 17:24:06.178,7.396903,7.0,1
29191,29191,2021-01-21 17:24:36.178,7.29873,7.0,1
29201,29201,2021-01-21 17:25:06.178,7.213603999999999,7.0,1
29211,29211,2021-01-21 17:25:36.178,7.1361227,7.0,1
29221,29221,2021-01-21 17:26:06.178,7.0908880000000005,7.0,1
29231,29231,2021-01-21 17:26:36.178,7.022941599999999,7.0,1
29241,29241,2021-01-21 17:27:06.178,6.968355,7.0,1
29251,29251,2021-01-21 17:27:36.178,6.9239630000000005,7.0,1
29261,29261,2021-01-21 17:28:06.178,6.876661,7.0,1
29271,29271,2021-01-21 17:28:36.178,6.832482300000001,7.0,1
29281,29281,2021-01-21 17:29:06.178,6.792917299999999,7.0,1
29291,29291,2021-01-21 17:29:36.178,6.758159599999999,7.0,1
29301,29301,2021-01-21 17:30:06.178,6.7256584,7.0,1
29311,29311,2021-01-21 17:30:36.178,6.696439999999999,7.0,1
29321,29321,2021-01-21 17:31:06.178,6.6706414,7.0,1
29331,29331,2021-01-21 17:31:36.178,6.648191000000001,7.0,1
29341,29341,2021-01-21 17:32:06.178,6.6291795,7.0,1
29351,29351,2021-01-21 17:32:36.178,6.61389,7.0,1
29361,29361,2021-01-21 17:33:06.178,6.6025205,7.0,1
29371,29371,2021-01-21 17:33:36.178,6.5952845,7.0,1
29381,29381,2021-01-21 17:34:06.178,6.5924435,7.0,1
29391,29391,2021-01-21 17:34:36.178,6.594138,7.0,1
29401,29401,2021-01-21 17:35:06.178,6.6024027,7.0,1
29411,29411,2021-01-21 17:35:36.178,6.6186914,7.0,1
29421,29421,2021-01-21 17:36:06.178,6.6465683,7.0,1
29431,29431,2021-01-21 17:36:36.178,6.690603299999999,7.0,1
29441,29441,2021-01-21 17:37:06.178,6.764732400000001,7.0,1
29451,29451,2021-01-21 17:37:36.178,6.999998,7.0,1
29461,29461,2021-01-21 17:38:06.178,6.999998,7.0,1
29471,29471,2021-01-21 17:38:36.178,6.999998,6.0,1
29481,29481,2021-01-21 17:39:06.178,6.999998,6.0,1
29491,29491,2021-01-21 17:39:36.178,6.662576700000001,6.0,1
29501,29501,2021-01-21 17:40:06.178,6.513006,6.0,1
29511,29511,2021-01-21 17:40:36.178,6.394988,6.0,1
29521,29521,2021-01-21 17:41:06.178,6.2971167999999995,6.0,1
29531,29531,2021-01-21 17:41:36.178,6.212317,6.0,1
29541,29541,2021-01-21 17:42:06.178,6.135276999999999,6.0,1
29551,29551,2021-01-21 17:42:36.178,6.090548,6.0,1
29561,29561,2021-01-21 17:43:06.178,6.0230527,6.0,1
29571,29571,2021-01-21 17:43:36.178,5.9687605,6.0,1
29581,29581,2021-01-21 17:44:06.178,5.9245777,6.0,1
29591,29591,2021-01-21 17:44:36.178,5.8777714,6.0,1
29601,29601,2021-01-21 17:45:06.178,5.83406,6.0,1
29611,29611,2021-01-21 17:45:36.178,5.7948427,6.0,1
29621,29621,2021-01-21 17:46:06.178,5.7605247,6.0,1
29631,29631,2021-01-21 17:46:36.178,5.728471,6.0,1
29641,29641,2021-01-21 17:47:06.178,5.699634,6.0,1
29651,29651,2021-01-21 17:47:36.178,5.67419,6.0,1
29661,29661,2021-01-21 17:48:06.178,5.652074,6.0,1
29671,29671,2021-01-21 17:48:36.178,5.633337,6.0,1
29681,29681,2021-01-21 17:49:06.178,5.618256,6.0,1
29691,29691,2021-01-21 17:49:36.178,5.607049,6.0,1
29701,29701,2021-01-21 17:50:06.178,5.5999419999999995,6.0,1
29711,29711,2021-01-21 17:50:36.178,5.5972433,6.0,1
29721,29721,2021-01-21 17:51:06.178,5.5991516,6.0,1
29731,29731,2021-01-21 17:51:36.178,5.607032299999999,6.0,1
29741,29741,2021-01-21 17:52:06.178,5.623004,6.0,1
29751,29751,2021-01-21 17:52:36.178,5.6504803,6.0,1
29761,29761,2021-01-21 17:53:06.178,5.6938796,6.0,1
29771,29771,2021-01-21 17:53:36.178,5.767106500000001,6.0,1
29781,29781,2021-01-21 17:54:06.178,6.000004,6.0,1
29791,29791,2021-01-21 17:54:36.178,6.000004,5.0,1
29801,29801,2021-01-21 17:55:06.178,6.000004,5.0,1
29811,29811,2021-01-21 17:55:36.178,5.6602883,5.0,1
29821,29821,2021-01-21 17:56:06.178,5.5104156,5.0,1
29831,29831,2021-01-21 17:56:36.178,5.392478,5.0,1
29841,29841,2021-01-21 17:57:06.178,5.294987,5.0,1
29851,29851,2021-01-21 17:57:36.178,5.210608000000001,5.0,1
29861,29861,2021-01-21 17:58:06.178,5.1341324,5.0,1
29871,29871,2021-01-21 17:58:36.178,5.089964,5.0,1
29881,29881,2021-01-21 17:59:06.178,5.023061,5.0,1
29891,29891,2021-01-21 17:59:36.178,4.9692154,5.0,1
29901,29901,2021-01-21 18:00:06.178,4.925364,5.0,1
29911,29911,2021-01-21 18:00:36.178,4.879185,5.0,1
29921,29921,2021-01-21 18:01:06.178,4.836079,5.0,1
29931,29931,2021-01-21 18:01:36.178,4.7973623,5.0,1
29941,29941,2021-01-21 18:02:06.178,4.763583000000001,5.0,1
29951,29951,2021-01-21 18:02:36.178,4.732094,5.0,1
29961,29961,2021-01-21 18:03:06.178,4.703747,5.0,1
29971,29971,2021-01-21 18:03:36.178,4.678757,5.0,1
29981,29981,2021-01-21 18:04:06.178,4.657061,5.0,1
29991,29991,2021-01-21 18:04:36.178,4.6386824,5.0,1
30001,30001,2021-01-21 18:05:06.178,4.623873000000001,5.0,1
30011,30011,2021-01-21 18:05:36.178,4.612879799999999,5.0,1
30021,30021,2021-01-21 18:06:06.178,4.605924,5.0,1
30031,30031,2021-01-21 18:06:36.178,4.603341599999999,5.0,1
30041,30041,2021-01-21 18:07:06.178,4.6054387000000006,5.0,1
30051,30051,2021-01-21 18:07:36.178,4.6129093,5.0,1
30061,30061,2021-01-21 18:08:06.178,4.6285663,5.0,1
30071,30071,2021-01-21 18:08:36.178,4.6555214000000005,5.0,1
30081,30081,2021-01-21 18:09:06.178,4.6981077,5.0,1
30091,30091,2021-01-21 18:09:36.178,4.770168,5.0,1
30101,30101,2021-01-21 18:10:06.178,5.0,5.0,1
30111,30111,2021-01-21 18:10:36.178,5.0,5.0,1
30121,30121,2021-01-21 18:11:06.178,5.0,5.0,1
30131,30131,2021-01-21 18:11:36.178,5.0,5.0,1
30141,30141,2021-01-21 18:12:06.178,5.0,5.0,1
30151,30151,2021-01-21 18:12:36.178,5.0,5.0,1
30161,30161,2021-01-21 18:13:06.178,5.0,5.0,1
30171,30171,2021-01-21 18:13:36.178,5.0,5.0,1
30181,30181,2021-01-21 18:14:06.178,5.0,5.0,1
30191,30191,2021-01-21 18:14:36.178,5.0,5.0,1
30201,30201,2021-01-21 18:15:06.178,5.0,5.0,1
30211,30211,2021-01-21 18:15:36.178,5.0,5.0,1
30221,30221,2021-01-21 18:16:06.178,5.0,5.0,1
30231,30231,2021-01-21 18:16:36.178,5.0,5.0,1
30241,30241,2021-01-21 18:17:06.178,5.0,5.0,1
30251,30251,2021-01-21 18:17:36.178,5.0,5.0,1
30261,30261,2021-01-21 18:18:06.178,5.0,5.0,1
30271,30271,2021-01-21 18:18:36.178,5.0,4.0,1
30281,30281,2021-01-21 18:19:06.178,5.0,4.0,1
30291,30291,2021-01-21 18:19:36.178,4.6571517,4.0,1
30301,30301,2021-01-21 18:20:06.178,4.5068645,4.0,1
30311,30311,2021-01-21 18:20:36.178,4.389041000000001,4.0,1
30321,30321,2021-01-21 18:21:06.178,4.2920794,4.0,1
30331,30331,2021-01-21 18:21:36.178,4.2082834,4.0,1
30341,30341,2021-01-21 18:22:06.178,4.1325665,4.0,1
30351,30351,2021-01-21 18:22:36.178,4.0891684999999995,4.0,1
30361,30361,2021-01-21 18:23:06.178,4.0230474,4.0,1
30371,30371,2021-01-21 18:23:36.178,3.96981,4.0,1
30381,30381,2021-01-21 18:24:06.178,3.9264045,4.0,1
30391,30391,2021-01-21 18:24:36.178,3.8810867999999994,4.0,1
30401,30401,2021-01-21 18:25:06.178,3.838799,4.0,1
30411,30411,2021-01-21 18:25:36.178,3.8007788999999996,4.0,1
30421,30421,2021-01-21 18:26:06.178,3.7676983,4.0,1
30431,30431,2021-01-21 18:26:36.178,3.7369766,4.0,1
30441,30441,2021-01-21 18:27:06.178,3.7092881,4.0,1
30451,30451,2021-01-21 18:27:36.178,3.6849065000000003,4.0,1
30461,30461,2021-01-21 18:28:06.178,3.6637678,4.0,1
30471,30471,2021-01-21 18:28:36.178,3.645875,4.0,1
30481,30481,2021-01-21 18:29:06.178,3.6314349999999997,4.0,1
30491,30491,2021-01-21 18:29:36.178,3.6207203999999997,4.0,1
30501,30501,2021-01-21 18:30:06.178,3.6139612000000003,4.0,1
30511,30511,2021-01-21 18:30:36.178,3.611506,4.0,1
30521,30521,2021-01-21 18:31:06.178,3.6137943,4.0,1
30531,30531,2021-01-21 18:31:36.178,3.6209507000000003,4.0,1
30541,30541,2021-01-21 18:32:06.178,3.6361003,4.0,1
30551,30551,2021-01-21 18:32:36.178,3.6623349999999997,4.0,1
30561,30561,2021-01-21 18:33:06.178,3.7038163999999996,4.0,1
30571,30571,2021-01-21 18:33:36.178,3.7743301,4.0,1
30581,30581,2021-01-21 18:34:06.178,3.9999971,4.0,1
30591,30591,2021-01-21 18:34:36.178,3.9999971,4.0,1
30601,30601,2021-01-21 18:35:06.178,3.9999971,4.0,1
30611,30611,2021-01-21 18:35:36.178,3.9999971,4.0,1
30621,30621,2021-01-21 18:36:06.178,3.9999971,4.0,1
30631,30631,2021-01-21 18:36:36.178,3.9999971,4.0,1
30641,30641,2021-01-21 18:37:06.178,3.9999971,4.0,1
30651,30651,2021-01-21 18:37:36.178,3.9999971,4.0,1
30661,30661,2021-01-21 18:38:06.178,3.9999971,4.0,1
30671,30671,2021-01-21 18:38:36.178,3.9999971,4.0,1
30681,30681,2021-01-21 18:39:06.178,3.9999971,4.0,1
30691,30691,2021-01-21 18:39:36.178,3.9999971,4.0,1
30701,30701,2021-01-21 18:40:06.178,3.9999971,4.0,1
30711,30711,2021-01-21 18:40:36.178,3.9999971,4.0,1
30721,30721,2021-01-21 18:41:06.178,3.9999971,4.0,1
30731,30731,2021-01-21 18:41:36.178,3.9999971,4.0,1
30741,30741,2021-01-21 18:42:06.178,3.9999971,4.0,1
30751,30751,2021-01-21 18:42:36.178,3.9999971,4.0,1
30761,30761,2021-01-21 18:43:06.178,3.9999971,4.0,1
30771,30771,2021-01-21 18:43:36.178,3.9999971,4.0,1
30781,30781,2021-01-21 18:44:06.178,3.9999971,4.0,1
30791,30791,2021-01-21 18:44:36.178,3.9999971,4.0,1
30801,30801,2021-01-21 18:45:06.178,3.9999971,4.0,1
30811,30811,2021-01-21 18:45:36.178,3.9999971,4.0,1
30821,30821,2021-01-21 18:46:06.178,3.9999971,4.0,1
30831,30831,2021-01-21 18:46:36.178,3.9999971,4.0,1
30841,30841,2021-01-21 18:47:06.178,3.9999971,4.0,1
30851,30851,2021-01-21 18:47:36.178,3.9999971,4.0,1
30861,30861,2021-01-21 18:48:06.178,3.9999971,4.0,1
30871,30871,2021-01-21 18:48:36.178,3.9999971,4.0,1
30881,30881,2021-01-21 18:49:06.178,3.9999971,4.0,1
30891,30891,2021-01-21 18:49:36.178,3.9999971,4.0,1
30901,30901,2021-01-21 18:50:06.178,3.9999971,4.0,1
30911,30911,2021-01-21 18:50:36.178,3.9999971,4.0,1
30921,30921,2021-01-21 18:51:06.178,3.9999971,4.0,1
30931,30931,2021-01-21 18:51:36.178,3.9999971,4.0,1
30941,30941,2021-01-21 18:52:06.178,3.9999971,4.0,1
30951,30951,2021-01-21 18:52:36.178,3.9999971,4.0,1
30961,30961,2021-01-21 18:53:06.178,3.9999971,4.0,1
30971,30971,2021-01-21 18:53:36.178,3.9999971,3.0,1
30981,30981,2021-01-21 18:54:06.178,3.9999971,3.0,1
30991,30991,2021-01-21 18:54:36.178,3.6526332000000004,3.0,1
31001,31001,2021-01-21 18:55:06.178,3.5017443,3.0,1
31011,31011,2021-01-21 18:55:36.178,3.3840913999999995,3.0,1
31021,31021,2021-01-21 18:56:06.178,3.2879089999999995,3.0,1
31031,31031,2021-01-21 18:56:36.178,3.2049775,3.0,1
31041,31041,2021-01-21 18:57:06.178,3.1303077,3.0,1
31051,31051,2021-01-21 18:57:36.178,3.0880132000000002,3.0,1
31061,31061,2021-01-21 18:58:06.178,3.022993,3.0,1
31071,31071,2021-01-21 18:58:36.178,2.9706478,3.0,1
31081,31081,2021-01-21 18:59:06.178,2.927891,3.0,1
31091,31091,2021-01-21 18:59:36.178,2.8838115,3.0,1
31101,31101,2021-01-21 19:00:06.178,2.8426957,3.0,1
31111,31111,2021-01-21 19:00:36.178,2.8057144,3.0,1
31121,31121,2021-01-21 19:01:06.178,2.7735736,3.0,1
31131,31131,2021-01-21 19:01:36.178,2.7439473,3.0,1
31141,31141,2021-01-21 19:02:06.178,2.717191,3.0,1
31151,31151,2021-01-21 19:02:36.178,2.6936636000000003,3.0,1
31161,31161,2021-01-21 19:03:06.178,2.6733036,3.0,1
31171,31171,2021-01-21 19:03:36.178,2.6560965,3.0,1
31181,31181,2021-01-21 19:04:06.178,2.6421869,3.0,1
31191,31191,2021-01-21 19:04:36.178,2.6318639999999998,3.0,1
31201,31201,2021-01-21 19:05:06.178,2.625369,3.0,1
31211,31211,2021-01-21 19:05:36.178,2.6230474,3.0,1
31221,31221,2021-01-21 19:06:06.178,2.625418,3.0,1
31231,31231,2021-01-21 19:06:36.178,2.632964,3.0,1
31241,31241,2021-01-21 19:07:06.178,2.6469686,3.0,1
31251,31251,2021-01-21 19:07:36.178,2.6720843,3.0,1
31261,31261,2021-01-21 19:08:06.178,2.7119767999999995,3.0,1
31271,31271,2021-01-21 19:08:36.178,2.7803697999999994,3.0,1
31281,31281,2021-01-21 19:09:06.178,3.0000023999999996,3.0,1
31291,31291,2021-01-21 19:09:36.178,3.0000023999999996,3.0,1
31301,31301,2021-01-21 19:10:06.178,3.0000023999999996,3.0,1
31311,31311,2021-01-21 19:10:36.178,3.0000023999999996,3.0,1
31321,31321,2021-01-21 19:11:06.178,3.0000023999999996,3.0,1
31331,31331,2021-01-21 19:11:36.178,3.0000023999999996,3.0,1
31341,31341,2021-01-21 19:12:06.178,3.0000023999999996,3.0,1
31351,31351,2021-01-21 19:12:36.178,3.0000023999999996,3.0,1
31361,31361,2021-01-21 19:13:06.178,3.0000023999999996,3.0,1
31371,31371,2021-01-21 19:13:36.178,3.0000023999999996,3.0,1
31381,31381,2021-01-21 19:14:06.178,3.0000023999999996,3.0,1
31391,31391,2021-01-21 19:14:36.178,3.0000023999999996,3.0,1
31401,31401,2021-01-21 19:15:06.178,3.0000023999999996,3.0,1
31411,31411,2021-01-21 19:15:36.178,3.0000023999999996,3.0,1
31421,31421,2021-01-21 19:16:06.178,3.0000023999999996,3.0,1
31431,31431,2021-01-21 19:16:36.178,3.0000023999999996,3.0,1
31441,31441,2021-01-21 19:17:06.178,3.0000023999999996,3.0,1
31451,31451,2021-01-21 19:17:36.178,3.0000023999999996,3.0,1
31461,31461,2021-01-21 19:18:06.178,3.0000023999999996,3.0,1
31471,31471,2021-01-21 19:18:36.178,3.0000023999999996,3.0,1
31481,31481,2021-01-21 19:19:06.178,3.0000023999999996,3.0,1
31491,31491,2021-01-21 19:19:36.178,3.0000023999999996,3.0,1
31501,31501,2021-01-21 19:20:06.178,3.0000023999999996,3.0,1
31511,31511,2021-01-21 19:20:36.178,3.0000023999999996,3.0,1
31521,31521,2021-01-21 19:21:06.178,3.0000023999999996,3.0,1
31531,31531,2021-01-21 19:21:36.178,3.0000023999999996,3.0,1
31541,31541,2021-01-21 19:22:06.178,3.0000023999999996,3.0,1
31551,31551,2021-01-21 19:22:36.178,3.0000023999999996,3.0,1
31561,31561,2021-01-21 19:23:06.178,3.0000023999999996,3.0,1
31571,31571,2021-01-21 19:23:36.178,3.0000023999999996,3.0,1
31581,31581,2021-01-21 19:24:06.178,3.0000023999999996,3.0,1
31591,31591,2021-01-21 19:24:36.178,3.0000023999999996,3.0,1
31601,31601,2021-01-21 19:25:06.178,3.0000023999999996,3.0,1
31611,31611,2021-01-21 19:25:36.178,3.0000023999999996,3.0,1
31621,31621,2021-01-21 19:26:06.178,3.0000023999999996,3.0,1
31631,31631,2021-01-21 19:26:36.178,3.0000023999999996,3.0,1
31641,31641,2021-01-21 19:27:06.178,3.0000023999999996,3.0,1
31651,31651,2021-01-21 19:27:36.178,3.0000023999999996,3.0,1
31661,31661,2021-01-21 19:28:06.178,3.0000023999999996,3.0,1
31671,31671,2021-01-21 19:28:36.178,3.0000023999999996,3.0,1
31681,31681,2021-01-21 19:29:06.178,3.0000023999999996,3.0,1
31691,31691,2021-01-21 19:29:36.178,3.0000023999999996,3.0,1
31701,31701,2021-01-21 19:30:06.178,3.0000023999999996,3.0,1
31711,31711,2021-01-21 19:30:36.178,3.0000023999999996,3.0,1
31721,31721,2021-01-21 19:31:06.178,3.0000023999999996,3.0,1
31731,31731,2021-01-21 19:31:36.178,3.0000023999999996,3.0,1
31741,31741,2021-01-21 19:32:06.178,3.0000023999999996,3.0,1
31751,31751,2021-01-21 19:32:36.178,3.0000023999999996,3.0,1
31761,31761,2021-01-21 19:33:06.178,3.0000023999999996,3.0,1
31771,31771,2021-01-21 19:33:36.178,3.0000023999999996,3.0,1
31781,31781,2021-01-21 19:34:06.178,3.0000023999999996,3.0,1
31791,31791,2021-01-21 19:34:36.178,3.0000023999999996,3.0,1
31801,31801,2021-01-21 19:35:06.178,3.0000023999999996,3.0,1
31811,31811,2021-01-21 19:35:36.178,3.0000023999999996,3.0,1
31821,31821,2021-01-21 19:36:06.178,3.0000023999999996,3.0,1
31831,31831,2021-01-21 19:36:36.178,3.0000023999999996,3.0,1
31841,31841,2021-01-21 19:37:06.178,3.0000023999999996,3.0,1
31851,31851,2021-01-21 19:37:36.178,3.0000023999999996,3.0,1
31861,31861,2021-01-21 19:38:06.178,3.0000023999999996,3.0,1
31871,31871,2021-01-21 19:38:36.178,3.0000023999999996,3.0,1
31881,31881,2021-01-21 19:39:06.178,3.0000023999999996,3.0,1
31891,31891,2021-01-21 19:39:36.178,3.0000023999999996,3.0,1
31901,31901,2021-01-21 19:40:06.178,3.0000023999999996,3.0,1
31911,31911,2021-01-21 19:40:36.178,3.0000023999999996,3.0,1
31921,31921,2021-01-21 19:41:06.178,3.0000023999999996,3.0,1
31931,31931,2021-01-21 19:41:36.178,3.0000023999999996,3.0,1
31941,31941,2021-01-21 19:42:06.178,3.0000023999999996,3.0,1
31951,31951,2021-01-21 19:42:36.178,3.0000023999999996,3.0,1
31961,31961,2021-01-21 19:43:06.178,3.0000023999999996,3.0,1
31971,31971,2021-01-21 19:43:36.178,3.0000023999999996,3.0,1
31981,31981,2021-01-21 19:44:06.178,3.0000023999999996,3.0,1
31991,31991,2021-01-21 19:44:36.178,3.0000023999999996,3.0,1
32001,32001,2021-01-21 19:45:06.178,3.0000023999999996,2.0,1
32011,32011,2021-01-21 19:45:36.178,3.0000023999999996,2.0,1
32021,32021,2021-01-21 19:46:06.178,2.6456664,2.0,1
32031,32031,2021-01-21 19:46:36.178,2.493799,2.0,1
32041,32041,2021-01-21 19:47:06.178,2.3764236,2.0,1
32051,32051,2021-01-21 19:47:36.178,2.2814674,2.0,1
32061,32061,2021-01-21 19:48:06.178,2.1999798,2.0,1
32071,32071,2021-01-21 19:48:36.178,2.1268722999999996,2.0,1
32081,32081,2021-01-21 19:49:06.178,2.0864959,2.0,1
32091,32091,2021-01-21 19:49:36.178,2.0232080000000003,2.0,1
32101,32101,2021-01-21 19:50:06.178,1.9722266,2.0,1
32111,32111,2021-01-21 19:50:36.178,1.9303517,2.0,1
32121,32121,2021-01-21 19:51:06.178,1.8881896,2.0,1
32131,32131,2021-01-21 19:51:36.178,1.84887,2.0,1
32141,32141,2021-01-21 19:52:06.178,1.8135481,2.0,1
32151,32151,2021-01-21 19:52:36.178,1.7827334,2.0,1
32161,32161,2021-01-21 19:53:06.178,1.7548263,2.0,1
32171,32171,2021-01-21 19:53:36.178,1.7294922,2.0,1
32181,32181,2021-01-21 19:54:06.178,1.7072568,2.0,1
32191,32191,2021-01-21 19:54:36.178,1.6880631000000001,2.0,1
32201,32201,2021-01-21 19:55:06.178,1.6718872,2.0,1
32211,32211,2021-01-21 19:55:36.178,1.6587975,2.0,1
32221,32221,2021-01-21 19:56:06.178,1.6490601999999999,2.0,1
32231,32231,2021-01-21 19:56:36.178,1.6429479,2.0,1
32241,32241,2021-01-21 19:57:06.178,1.6407828000000002,2.0,1
32251,32251,2021-01-21 19:57:36.178,1.6430794999999998,2.0,1
32261,32261,2021-01-21 19:58:06.178,1.6505783,2.0,1
32271,32271,2021-01-21 19:58:36.178,1.6638055,2.0,1
32281,32281,2021-01-21 19:59:06.178,1.6872482,2.0,1
32291,32291,2021-01-21 19:59:36.178,1.7246819,2.0,1
32301,32301,2021-01-21 20:00:06.178,1.7900112000000001,2.0,1
32311,32311,2021-01-21 20:00:36.178,1.999999,2.0,1
32321,32321,2021-01-21 20:01:06.178,1.999999,2.0,1
32331,32331,2021-01-21 20:01:36.178,1.999999,2.0,1
32341,32341,2021-01-21 20:02:06.178,1.999999,2.0,1
32351,32351,2021-01-21 20:02:36.178,1.999999,2.0,1
32361,32361,2021-01-21 20:03:06.178,1.999999,2.0,1
32371,32371,2021-01-21 20:03:36.178,1.999999,2.0,1
32381,32381,2021-01-21 20:04:06.178,1.999999,2.0,1
32391,32391,2021-01-21 20:04:36.178,1.999999,2.0,1
32401,32401,2021-01-21 20:05:06.178,1.999999,2.0,1
32411,32411,2021-01-21 20:05:36.178,1.999999,2.0,1
32421,32421,2021-01-21 20:06:06.178,1.999999,2.0,1
32431,32431,2021-01-21 20:06:36.178,1.999999,2.0,1
32441,32441,2021-01-21 20:07:06.178,1.999999,2.0,1
32451,32451,2021-01-21 20:07:36.178,1.999999,2.0,1
32461,32461,2021-01-21 20:08:06.178,1.999999,2.0,1
32471,32471,2021-01-21 20:08:36.178,1.999999,2.0,1
32481,32481,2021-01-21 20:09:06.178,1.999999,2.0,1
32491,32491,2021-01-21 20:09:36.178,1.999999,2.0,1
32501,32501,2021-01-21 20:10:06.178,1.999999,2.0,1
32511,32511,2021-01-21 20:10:36.178,1.999999,2.0,1
32521,32521,2021-01-21 20:11:06.178,1.999999,2.0,1
32531,32531,2021-01-21 20:11:36.178,1.999999,2.0,1
32541,32541,2021-01-21 20:12:06.178,1.999999,2.0,1
32551,32551,2021-01-21 20:12:36.178,1.999999,2.0,1
32561,32561,2021-01-21 20:13:06.178,1.999999,2.0,1
32571,32571,2021-01-21 20:13:36.178,1.999999,2.0,1
32581,32581,2021-01-21 20:14:06.178,1.999999,2.0,1
32591,32591,2021-01-21 20:14:36.178,1.999999,2.0,1
32601,32601,2021-01-21 20:15:06.178,1.999999,2.0,1
32611,32611,2021-01-21 20:15:36.178,1.999999,2.0,1
32621,32621,2021-01-21 20:16:06.178,1.999999,2.0,1
32631,32631,2021-01-21 20:16:36.178,1.999999,2.0,1
32641,32641,2021-01-21 20:17:06.178,1.999999,2.0,1
32651,32651,2021-01-21 20:17:36.178,1.999999,2.0,1
32661,32661,2021-01-21 20:18:06.178,1.999999,2.0,1
32671,32671,2021-01-21 20:18:36.178,1.999999,2.0,1
32681,32681,2021-01-21 20:19:06.178,1.999999,2.0,1
32691,32691,2021-01-21 20:19:36.178,1.999999,2.0,1
32701,32701,2021-01-21 20:20:06.178,1.999999,2.0,1
32711,32711,2021-01-21 20:20:36.178,1.999999,2.0,1
32721,32721,2021-01-21 20:21:06.178,1.999999,2.0,1
32731,32731,2021-01-21 20:21:36.178,1.999999,2.0,1
32741,32741,2021-01-21 20:22:06.178,1.999999,2.0,1
32751,32751,2021-01-21 20:22:36.178,1.999999,2.0,1
32761,32761,2021-01-21 20:23:06.178,1.999999,2.0,1
32771,32771,2021-01-21 20:23:36.178,1.999999,2.0,1
32781,32781,2021-01-21 20:24:06.178,1.999999,2.0,1
32791,32791,2021-01-21 20:24:36.178,1.999999,2.0,1
32801,32801,2021-01-21 20:25:06.178,1.999999,2.0,1
32811,32811,2021-01-21 20:25:36.178,1.999999,2.0,1
32821,32821,2021-01-21 20:26:06.178,1.999999,2.0,1
32831,32831,2021-01-21 20:26:36.178,1.999999,2.0,1
32841,32841,2021-01-21 20:27:06.178,1.999999,2.0,1
32851,32851,2021-01-21 20:27:36.178,1.999999,2.0,1
32861,32861,2021-01-21 20:28:06.178,1.999999,2.0,1
32871,32871,2021-01-21 20:28:36.178,1.999999,2.0,1
32881,32881,2021-01-21 20:29:06.178,1.999999,2.0,1
32891,32891,2021-01-21 20:29:36.178,1.999999,2.0,1
32901,32901,2021-01-21 20:30:06.178,1.999999,2.0,1
32911,32911,2021-01-21 20:30:36.178,1.999999,2.0,1
32921,32921,2021-01-21 20:31:06.178,1.999999,2.0,1
32931,32931,2021-01-21 20:31:36.178,1.999999,2.0,1
32941,32941,2021-01-21 20:32:06.178,1.999999,2.0,1
32951,32951,2021-01-21 20:32:36.178,1.999999,2.0,1
32961,32961,2021-01-21 20:33:06.178,1.999999,2.0,1
32971,32971,2021-01-21 20:33:36.178,1.999999,2.0,1
32981,32981,2021-01-21 20:34:06.178,1.999999,2.0,1
32991,32991,2021-01-21 20:34:36.178,1.999999,2.0,1
33001,33001,2021-01-21 20:35:06.178,1.999999,2.0,1
33011,33011,2021-01-21 20:35:36.178,1.999999,2.0,1
33021,33021,2021-01-21 20:36:06.178,1.999999,2.0,1
33031,33031,2021-01-21 20:36:36.178,1.999999,2.0,1
33041,33041,2021-01-21 20:37:06.178,1.999999,2.0,1
33051,33051,2021-01-21 20:37:36.178,1.999999,2.0,1
33061,33061,2021-01-21 20:38:06.178,1.999999,2.0,1
33071,33071,2021-01-21 20:38:36.178,1.999999,2.0,1
33081,33081,2021-01-21 20:39:06.178,1.999999,2.0,1
33091,33091,2021-01-21 20:39:36.178,1.999999,2.0,1
33101,33101,2021-01-21 20:40:06.178,1.999999,2.0,1
33111,33111,2021-01-21 20:40:36.178,1.999999,2.0,1
33121,33121,2021-01-21 20:41:06.178,1.999999,2.0,1
33131,33131,2021-01-21 20:41:36.178,1.999999,2.0,1
33141,33141,2021-01-21 20:42:06.178,1.999999,2.0,1
33151,33151,2021-01-21 20:42:36.178,1.999999,2.0,1
33161,33161,2021-01-21 20:43:06.178,1.999999,2.0,1
33171,33171,2021-01-21 20:43:36.178,1.999999,2.0,1
33181,33181,2021-01-21 20:44:06.178,1.999999,2.0,1
33191,33191,2021-01-21 20:44:36.178,1.999999,2.0,1
33201,33201,2021-01-21 20:45:06.178,1.999999,2.0,1
33211,33211,2021-01-21 20:45:36.178,1.999999,2.0,1
33221,33221,2021-01-21 20:46:06.178,1.999999,2.0,1
33231,33231,2021-01-21 20:46:36.178,1.999999,2.0,1
33241,33241,2021-01-21 20:47:06.178,1.999999,2.0,1
33251,33251,2021-01-21 20:47:36.178,1.999999,2.0,1
33261,33261,2021-01-21 20:48:06.178,1.999999,2.0,1
33271,33271,2021-01-21 20:48:36.178,1.999999,2.0,1
33281,33281,2021-01-21 20:49:06.178,1.999999,2.0,1
33291,33291,2021-01-21 20:49:36.178,1.999999,2.0,1
33301,33301,2021-01-21 20:50:06.178,1.999999,2.0,1
33311,33311,2021-01-21 20:50:36.178,1.999999,2.0,1
33321,33321,2021-01-21 20:51:06.178,1.999999,2.0,1
33331,33331,2021-01-21 20:51:36.178,1.999999,2.0,1
33341,33341,2021-01-21 20:52:06.178,1.999999,2.0,1
33351,33351,2021-01-21 20:52:36.178,1.999999,2.0,1
33361,33361,2021-01-21 20:53:06.178,1.999999,2.0,1
33371,33371,2021-01-21 20:53:36.178,1.999999,2.0,1
33381,33381,2021-01-21 20:54:06.178,1.999999,2.0,1
33391,33391,2021-01-21 20:54:36.178,1.999999,2.0,1
33401,33401,2021-01-21 20:55:06.178,1.999999,2.0,1
33411,33411,2021-01-21 20:55:36.178,1.999999,2.0,1
33421,33421,2021-01-21 20:56:06.178,1.999999,2.0,1
33431,33431,2021-01-21 20:56:36.178,1.999999,2.0,1
33441,33441,2021-01-21 20:57:06.178,1.999999,2.0,1
33451,33451,2021-01-21 20:57:36.178,1.999999,2.0,1
33461,33461,2021-01-21 20:58:06.178,1.999999,2.0,1
33471,33471,2021-01-21 20:58:36.178,1.999999,2.0,1
33481,33481,2021-01-21 20:59:06.178,1.999999,2.0,1
33491,33491,2021-01-21 20:59:36.178,1.999999,2.0,1
33501,33501,2021-01-21 21:00:06.178,1.999999,2.0,1
33511,33511,2021-01-21 21:00:36.178,1.999999,2.0,1
33521,33521,2021-01-21 21:01:06.178,1.999999,2.0,1
33531,33531,2021-01-21 21:01:36.178,1.999999,2.0,1
33541,33541,2021-01-21 21:02:06.178,1.999999,2.0,1
33551,33551,2021-01-21 21:02:36.178,1.999999,2.0,1
33561,33561,2021-01-21 21:03:06.178,1.999999,2.0,1
33571,33571,2021-01-21 21:03:36.178,1.999999,2.0,1
33581,33581,2021-01-21 21:04:06.178,1.999999,2.0,1
33591,33591,2021-01-21 21:04:36.178,1.999999,2.0,1
33601,33601,2021-01-21 21:05:06.178,1.999999,2.0,1
33611,33611,2021-01-21 21:05:36.178,1.999999,2.0,1
33621,33621,2021-01-21 21:06:06.178,1.999999,2.0,1
33631,33631,2021-01-21 21:06:36.178,1.999999,2.0,1
33641,33641,2021-01-21 21:07:06.178,1.999999,2.0,1
33651,33651,2021-01-21 21:07:36.178,1.999999,2.0,1
33661,33661,2021-01-21 21:08:06.178,1.999999,2.0,1
33671,33671,2021-01-21 21:08:36.178,1.999999,2.0,1
33681,33681,2021-01-21 21:09:06.178,1.999999,2.0,1
33691,33691,2021-01-21 21:09:36.178,1.999999,2.0,1
33701,33701,2021-01-21 21:10:06.178,1.999999,2.0,1
33711,33711,2021-01-21 21:10:36.178,1.999999,2.0,1
33721,33721,2021-01-21 21:11:06.178,1.999999,2.0,1
33731,33731,2021-01-21 21:11:36.178,1.999999,2.0,1
33741,33741,2021-01-21 21:12:06.178,1.999999,2.0,1
33751,33751,2021-01-21 21:12:36.178,1.999999,2.0,1
33761,33761,2021-01-21 21:13:06.178,1.999999,2.0,1
33771,33771,2021-01-21 21:13:36.178,1.999999,2.0,1
33781,33781,2021-01-21 21:14:06.178,1.999999,2.0,1
33791,33791,2021-01-21 21:14:36.178,1.999999,2.0,1
33801,33801,2021-01-21 21:15:06.178,1.999999,2.0,1
33811,33811,2021-01-21 21:15:36.178,1.999999,2.0,1
33821,33821,2021-01-21 21:16:06.178,1.999999,2.0,1
33831,33831,2021-01-21 21:16:36.178,1.999999,2.0,1
33841,33841,2021-01-21 21:17:06.178,1.999999,2.0,1
33851,33851,2021-01-21 21:17:36.178,1.999999,2.0,1
33861,33861,2021-01-21 21:18:06.178,1.999999,2.0,1
33871,33871,2021-01-21 21:18:36.178,1.999999,2.0,1
33881,33881,2021-01-21 21:19:06.178,1.999999,2.0,1
33891,33891,2021-01-21 21:19:36.178,1.999999,2.0,1
33901,33901,2021-01-21 21:20:06.178,1.999999,2.0,1
33911,33911,2021-01-21 21:20:36.178,1.999999,2.0,1
33921,33921,2021-01-21 21:21:06.178,1.999999,2.0,1
33931,33931,2021-01-21 21:21:36.178,1.999999,2.0,1
33941,33941,2021-01-21 21:22:06.178,1.999999,2.0,1
33951,33951,2021-01-21 21:22:36.178,1.999999,2.0,1
33961,33961,2021-01-21 21:23:06.178,1.999999,2.0,1
33971,33971,2021-01-21 21:23:36.178,1.999999,2.0,1
33981,33981,2021-01-21 21:24:06.178,1.999999,2.0,1
33991,33991,2021-01-21 21:24:36.178,1.999999,2.0,1
34001,34001,2021-01-21 21:25:06.178,1.999999,2.0,1
34011,34011,2021-01-21 21:25:36.178,1.999999,2.0,1
34021,34021,2021-01-21 21:26:06.178,1.999999,2.0,1
34031,34031,2021-01-21 21:26:36.178,1.999999,2.0,1
34041,34041,2021-01-21 21:27:06.178,1.999999,2.0,1
34051,34051,2021-01-21 21:27:36.178,1.999999,2.0,1
34061,34061,2021-01-21 21:28:06.178,1.999999,2.0,1
34071,34071,2021-01-21 21:28:36.178,1.999999,2.0,1
34081,34081,2021-01-21 21:29:06.178,1.999999,2.0,1
34091,34091,2021-01-21 21:29:36.178,1.999999,2.0,1
34101,34101,2021-01-21 21:30:06.178,1.999999,2.0,1
34111,34111,2021-01-21 21:30:36.178,1.999999,2.0,1
34121,34121,2021-01-21 21:31:06.178,1.999999,2.0,1
34131,34131,2021-01-21 21:31:36.178,1.999999,2.0,1
34141,34141,2021-01-21 21:32:06.178,1.999999,2.0,1
34151,34151,2021-01-21 21:32:36.178,1.999999,2.0,1
34161,34161,2021-01-21 21:33:06.178,1.999999,2.0,1
34171,34171,2021-01-21 21:33:36.178,1.999999,2.0,1
34181,34181,2021-01-21 21:34:06.178,1.999999,2.0,1
34191,34191,2021-01-21 21:34:36.178,1.999999,2.0,1
34201,34201,2021-01-21 21:35:06.178,1.999999,2.0,1
34211,34211,2021-01-21 21:35:36.178,1.999999,2.0,1
34221,34221,2021-01-21 21:36:06.178,1.999999,2.0,1
34231,34231,2021-01-21 21:36:36.178,1.999999,2.0,1
34241,34241,2021-01-21 21:37:06.178,1.999999,2.0,1
34251,34251,2021-01-21 21:37:36.178,1.999999,2.0,1
34261,34261,2021-01-21 21:38:06.178,1.999999,2.0,1
34271,34271,2021-01-21 21:38:36.178,1.999999,2.0,1
34281,34281,2021-01-21 21:39:06.178,1.999999,2.0,1
34291,34291,2021-01-21 21:39:36.178,1.999999,2.0,1
34301,34301,2021-01-21 21:40:06.178,1.999999,2.0,1
34311,34311,2021-01-21 21:40:36.178,1.999999,2.0,1
34321,34321,2021-01-21 21:41:06.178,1.999999,2.0,1
34331,34331,2021-01-21 21:41:36.178,1.999999,2.0,1
34341,34341,2021-01-21 21:42:06.178,1.999999,2.0,1
34351,34351,2021-01-21 21:42:36.178,1.999999,2.0,1
34361,34361,2021-01-21 21:43:06.178,1.999999,2.0,1
34371,34371,2021-01-21 21:43:36.178,1.999999,2.0,1
34381,34381,2021-01-21 21:44:06.178,1.999999,2.0,1
34391,34391,2021-01-21 21:44:36.178,1.999999,2.0,1
34401,34401,2021-01-21 21:45:06.178,1.999999,2.0,1
34411,34411,2021-01-21 21:45:36.178,1.999999,2.0,1
34421,34421,2021-01-21 21:46:06.178,1.999999,2.0,1
34431,34431,2021-01-21 21:46:36.178,1.999999,2.0,1
34441,34441,2021-01-21 21:47:06.178,1.999999,2.0,1
34451,34451,2021-01-21 21:47:36.178,1.999999,2.0,1
34461,34461,2021-01-21 21:48:06.178,1.999999,2.0,1
34471,34471,2021-01-21 21:48:36.178,1.999999,2.0,1
34481,34481,2021-01-21 21:49:06.178,1.999999,2.0,1
34491,34491,2021-01-21 21:49:36.178,1.999999,2.0,1
34501,34501,2021-01-21 21:50:06.178,1.999999,2.0,1
34511,34511,2021-01-21 21:50:36.178,1.999999,2.0,1
34521,34521,2021-01-21 21:51:06.178,1.999999,2.0,1
34531,34531,2021-01-21 21:51:36.178,1.999999,2.0,1
34541,34541,2021-01-21 21:52:06.178,1.999999,2.0,1
34551,34551,2021-01-21 21:52:36.178,1.999999,2.0,1
34561,34561,2021-01-21 21:53:06.178,1.999999,2.0,1
34571,34571,2021-01-21 21:53:36.178,1.999999,2.0,1
34581,34581,2021-01-21 21:54:06.178,1.999999,2.0,1
34591,34591,2021-01-21 21:54:36.178,1.999999,2.0,1
34601,34601,2021-01-21 21:55:06.178,1.999999,2.0,1
34611,34611,2021-01-21 21:55:36.178,1.999999,2.0,1
34621,34621,2021-01-21 21:56:06.178,1.999999,2.0,1
34631,34631,2021-01-21 21:56:36.178,1.999999,2.0,1
34641,34641,2021-01-21 21:57:06.178,1.999999,1.0,1
34651,34651,2021-01-21 21:57:36.178,1.999999,2.0,1
34661,34661,2021-01-21 21:58:06.178,1.6327624,2.0,1
34671,34671,2021-01-21 21:58:36.178,1.6394939999999998,2.0,1
34681,34681,2021-01-21 21:59:06.178,1.6396813000000001,2.0,1
34691,34691,2021-01-21 21:59:36.178,1.6404028000000002,2.0,1
34701,34701,2021-01-21 22:00:06.178,1.6406946,2.0,1
34711,34711,2021-01-21 22:00:36.178,1.6408787,1.0,1
34721,34721,2021-01-21 22:01:06.178,1.640981,1.0,1
34731,34731,2021-01-21 22:01:36.178,1.4805896,1.0,1
34741,34741,2021-01-21 22:02:06.178,1.3642552,1.0,1
34751,34751,2021-01-21 22:02:36.178,1.2703508999999997,1.0,1
34761,34761,2021-01-21 22:03:06.178,1.1919176999999999,1.0,1
34771,34771,2021-01-21 22:03:36.178,1.1230173,1.0,1
34781,34781,2021-01-21 22:04:06.178,1.0848947,1.0,1
34791,34791,2021-01-21 22:04:36.178,1.0297190999999999,1.0,1
34801,34801,2021-01-21 22:05:06.178,0.9796418,1.0,1
34811,34811,2021-01-21 22:05:36.178,0.9383271000000001,1.0,1
34821,34821,2021-01-21 22:06:06.178,0.8991245999999999,1.0,1
34831,34831,2021-01-21 22:06:36.178,0.8621992,1.0,1
34841,34841,2021-01-21 22:07:06.178,0.8293451999999999,1.0,1
34851,34851,2021-01-21 22:07:36.178,0.80010116,1.0,1
34861,34861,2021-01-21 22:08:06.178,0.7748076,1.0,1
34871,34871,2021-01-21 22:08:36.178,0.7520529,1.0,1
34881,34881,2021-01-21 22:09:06.178,0.73187125,1.0,1
34891,34891,2021-01-21 22:09:36.178,0.7145302,1.0,1
34901,34901,2021-01-21 22:10:06.178,0.6999885,1.0,1
34911,34911,2021-01-21 22:10:36.178,0.6882448,1.0,1
34921,34921,2021-01-21 22:11:06.178,0.67946434,1.0,1
34931,34931,2021-01-21 22:11:36.178,0.67398214,1.0,1
34941,34941,2021-01-21 22:12:06.178,0.6719310000000001,1.0,1
34951,34951,2021-01-21 22:12:36.178,0.67372155,1.0,1
34961,34961,2021-01-21 22:13:06.178,0.6737002,1.0,1
34971,34971,2021-01-21 22:13:36.178,0.6803836999999999,1.0,1
34981,34981,2021-01-21 22:14:06.178,0.69249463,1.0,1
34991,34991,2021-01-21 22:14:36.178,0.7131494,1.0,1
35001,35001,2021-01-21 22:15:06.178,0.7470139,1.0,1
35011,35011,2021-01-21 22:15:36.178,0.8063307,1.0,1
35021,35021,2021-01-21 22:16:06.178,1.0000007,1.0,1
35031,35031,2021-01-21 22:16:36.178,1.0000007,1.0,1
35041,35041,2021-01-21 22:17:06.178,1.0000007,1.0,1
35051,35051,2021-01-21 22:17:36.178,1.0000007,1.0,1
35061,35061,2021-01-21 22:18:06.178,1.0000007,1.0,1
35071,35071,2021-01-21 22:18:36.178,1.0000007,1.0,1
35081,35081,2021-01-21 22:19:06.178,1.0000007,1.0,1
35091,35091,2021-01-21 22:19:36.178,1.0000007,1.0,1
35101,35101,2021-01-21 22:20:06.178,1.0000007,1.0,1
35111,35111,2021-01-21 22:20:36.178,1.0000007,1.0,1
35121,35121,2021-01-21 22:21:06.178,1.0000007,1.0,1
35131,35131,2021-01-21 22:21:36.178,1.0000007,1.0,1
35141,35141,2021-01-21 22:22:06.178,1.0000007,1.0,1
35151,35151,2021-01-21 22:22:36.178,1.0000007,1.0,1
35161,35161,2021-01-21 22:23:06.178,1.0000007,1.0,1
35171,35171,2021-01-21 22:23:36.178,1.0000007,1.0,1
35181,35181,2021-01-21 22:24:06.178,1.0000007,1.0,1
35191,35191,2021-01-21 22:24:36.178,1.0000007,1.0,1
35201,35201,2021-01-21 22:25:06.178,1.0000007,1.0,1
35211,35211,2021-01-21 22:25:36.178,1.0000007,1.0,1
35221,35221,2021-01-21 22:26:06.178,1.0000007,1.0,1
35231,35231,2021-01-21 22:26:36.178,1.0000007,1.0,1
35241,35241,2021-01-21 22:27:06.178,1.0000007,1.0,1
35251,35251,2021-01-21 22:27:36.178,1.0000007,1.0,1
35261,35261,2021-01-21 22:28:06.178,1.0000007,1.0,1
35271,35271,2021-01-21 22:28:36.178,1.0000007,1.0,1
35281,35281,2021-01-21 22:29:06.178,1.0000007,1.0,1
35291,35291,2021-01-21 22:29:36.178,1.0000007,1.0,1
35301,35301,2021-01-21 22:30:06.178,1.0000007,1.0,1
35311,35311,2021-01-21 22:30:36.178,1.0000007,1.0,1
35321,35321,2021-01-21 22:31:06.178,1.0000007,1.0,1
35331,35331,2021-01-21 22:31:36.178,1.0000007,1.0,1
35341,35341,2021-01-21 22:32:06.178,1.0000007,1.0,1
35351,35351,2021-01-21 22:32:36.178,1.0000007,1.0,1
35361,35361,2021-01-21 22:33:06.178,1.0000007,1.0,1
35371,35371,2021-01-21 22:33:36.178,1.0000007,1.0,1
35381,35381,2021-01-21 22:34:06.178,1.0000007,1.0,1
35391,35391,2021-01-21 22:34:36.178,1.0000007,1.0,1
35401,35401,2021-01-21 22:35:06.178,1.0000007,1.0,1
35411,35411,2021-01-21 22:35:36.178,1.0000007,1.0,1
35421,35421,2021-01-21 22:36:06.178,1.0000007,1.0,1
35431,35431,2021-01-21 22:36:36.178,1.0000007,1.0,1
35441,35441,2021-01-21 22:37:06.178,1.0000007,1.0,1
35451,35451,2021-01-21 22:37:36.178,1.0000007,1.0,1
35461,35461,2021-01-21 22:38:06.178,1.0000007,1.0,1
35471,35471,2021-01-21 22:38:36.178,1.0000007,1.0,1
35481,35481,2021-01-21 22:39:06.178,1.0000007,1.0,1
35491,35491,2021-01-21 22:39:36.178,1.0000007,1.0,1
35501,35501,2021-01-21 22:40:06.178,1.0000007,1.0,1
35511,35511,2021-01-21 22:40:36.178,1.0000007,1.0,1
35521,35521,2021-01-21 22:41:06.178,1.0000007,1.0,1
35531,35531,2021-01-21 22:41:36.178,1.0000007,1.0,1
35541,35541,2021-01-21 22:42:06.178,1.0000007,1.0,1
35551,35551,2021-01-21 22:42:36.178,1.0000007,1.0,1
35561,35561,2021-01-21 22:43:06.178,1.0000007,1.0,1
35571,35571,2021-01-21 22:43:36.178,1.0000007,1.0,1
35581,35581,2021-01-21 22:44:06.178,1.0000007,1.0,1
35591,35591,2021-01-21 22:44:36.178,1.0000007,1.0,1
35601,35601,2021-01-21 22:45:06.178,1.0000007,1.0,1
35611,35611,2021-01-21 22:45:36.178,1.0000007,1.0,1
35621,35621,2021-01-21 22:46:06.178,1.0000007,1.0,1
35631,35631,2021-01-21 22:46:36.178,1.0000007,1.0,1
35641,35641,2021-01-21 22:47:06.178,1.0000007,1.0,1
35651,35651,2021-01-21 22:47:36.178,1.0000007,1.0,1
35661,35661,2021-01-21 22:48:06.178,1.0000007,1.0,1
35671,35671,2021-01-21 22:48:36.178,1.0000007,1.0,1
35681,35681,2021-01-21 22:49:06.178,1.0000007,1.0,1
35691,35691,2021-01-21 22:49:36.178,1.0000007,1.0,1
35701,35701,2021-01-21 22:50:06.178,1.0000007,1.0,1
35711,35711,2021-01-21 22:50:36.178,1.0000007,1.0,1
35721,35721,2021-01-21 22:51:06.178,1.0000007,1.0,1
35731,35731,2021-01-21 22:51:36.178,1.0000007,1.0,1
35741,35741,2021-01-21 22:52:06.178,1.0000007,1.0,1
35751,35751,2021-01-21 22:52:36.178,1.0000007,1.0,1
35761,35761,2021-01-21 22:53:06.178,1.0000007,1.0,1
35771,35771,2021-01-21 22:53:36.178,1.0000007,1.0,1
35781,35781,2021-01-21 22:54:06.178,1.0000007,1.0,1
35791,35791,2021-01-21 22:54:36.178,1.0000007,1.0,1
35801,35801,2021-01-21 22:55:06.178,1.0000007,1.0,1
35811,35811,2021-01-21 22:55:36.178,1.0000007,1.0,1
35821,35821,2021-01-21 22:56:06.178,1.0000007,1.0,1
35831,35831,2021-01-21 22:56:36.178,1.0000007,1.0,1
35841,35841,2021-01-21 22:57:06.178,1.0000007,1.0,1
35851,35851,2021-01-21 22:57:36.178,1.0000007,1.0,1
35861,35861,2021-01-21 22:58:06.178,1.0000007,1.0,1
35871,35871,2021-01-21 22:58:36.178,1.0000007,1.0,1
35881,35881,2021-01-21 22:59:06.178,1.0000007,1.0,1
35891,35891,2021-01-21 22:59:36.178,1.0000007,1.0,1
35901,35901,2021-01-21 23:00:06.178,1.0000007,1.0,1
35911,35911,2021-01-21 23:00:36.178,1.0000007,1.0,1
35921,35921,2021-01-21 23:01:06.178,1.0000007,1.0,1
35931,35931,2021-01-21 23:01:36.178,1.0000007,1.0,1
35941,35941,2021-01-21 23:02:06.178,1.0000007,1.0,1
35951,35951,2021-01-21 23:02:36.178,1.0000007,1.0,1
35961,35961,2021-01-21 23:03:06.178,1.0000007,1.0,1
35971,35971,2021-01-21 23:03:36.178,1.0000007,1.0,1
35981,35981,2021-01-21 23:04:06.178,1.0000007,1.0,1
35991,35991,2021-01-21 23:04:36.178,1.0000007,1.0,1
36001,36001,2021-01-21 23:05:06.178,1.0000007,1.0,1
36011,36011,2021-01-21 23:05:36.178,1.0000007,1.0,1
36021,36021,2021-01-21 23:06:06.178,1.0000007,1.0,1
36031,36031,2021-01-21 23:06:36.178,1.0000007,1.0,1
36041,36041,2021-01-21 23:07:06.178,1.0000007,1.0,1
36051,36051,2021-01-21 23:07:36.178,1.0000007,1.0,1
36061,36061,2021-01-21 23:08:06.178,1.0000007,1.0,1
36071,36071,2021-01-21 23:08:36.178,1.0000007,1.0,1
36081,36081,2021-01-21 23:09:06.178,1.0000007,1.0,1
36091,36091,2021-01-21 23:09:36.178,1.0000007,1.0,1
36101,36101,2021-01-21 23:10:06.178,1.0000007,1.0,1
36111,36111,2021-01-21 23:10:36.178,1.0000007,1.0,1
36121,36121,2021-01-21 23:11:06.178,1.0000007,1.0,1
36131,36131,2021-01-21 23:11:36.178,1.0000007,1.0,1
36141,36141,2021-01-21 23:12:06.178,1.0000007,1.0,1
36151,36151,2021-01-21 23:12:36.178,1.0000007,1.0,1
36161,36161,2021-01-21 23:13:06.178,1.0000007,1.0,1
36171,36171,2021-01-21 23:13:36.178,1.0000007,1.0,1
36181,36181,2021-01-21 23:14:06.178,1.0000007,1.0,1
36191,36191,2021-01-21 23:14:36.178,1.0000007,1.0,1
36201,36201,2021-01-21 23:15:06.178,1.0000007,1.0,1
36211,36211,2021-01-21 23:15:36.178,1.0000007,1.0,1
36221,36221,2021-01-21 23:16:06.178,1.0000007,1.0,1
36231,36231,2021-01-21 23:16:36.178,1.0000007,1.0,1
36241,36241,2021-01-21 23:17:06.178,1.0000007,1.0,1
36251,36251,2021-01-21 23:17:36.178,1.0000007,1.0,1
36261,36261,2021-01-21 23:18:06.178,1.0000007,1.0,1
36271,36271,2021-01-21 23:18:36.178,1.0000007,1.0,1
36281,36281,2021-01-21 23:19:06.178,1.0000007,1.0,1
36291,36291,2021-01-21 23:19:36.178,1.0000007,1.0,1
36301,36301,2021-01-21 23:20:06.178,1.0000007,1.0,1
36311,36311,2021-01-21 23:20:36.178,1.0000007,1.0,1
36321,36321,2021-01-21 23:21:06.178,1.0000007,1.0,1
36331,36331,2021-01-21 23:21:36.178,1.0000007,1.0,1
36341,36341,2021-01-21 23:22:06.178,1.0000007,1.0,1
36351,36351,2021-01-21 23:22:36.178,1.0000007,1.0,1
36361,36361,2021-01-21 23:23:06.178,1.0000007,1.0,1
36371,36371,2021-01-21 23:23:36.178,1.0000007,1.0,1
36381,36381,2021-01-21 23:24:06.178,1.0000007,1.0,1
36391,36391,2021-01-21 23:24:36.178,1.0000007,1.0,1
36401,36401,2021-01-21 23:25:06.178,1.0000007,1.0,1
36411,36411,2021-01-21 23:25:36.178,1.0000007,1.0,1
36421,36421,2021-01-21 23:26:06.178,1.0000007,1.0,1
36431,36431,2021-01-21 23:26:36.178,1.0000007,1.0,1
36441,36441,2021-01-21 23:27:06.178,1.0000007,1.0,1
36451,36451,2021-01-21 23:27:36.178,1.0000007,1.0,1
36461,36461,2021-01-21 23:28:06.178,1.0000007,1.0,1
36471,36471,2021-01-21 23:28:36.178,1.0000007,1.0,1
36481,36481,2021-01-21 23:29:06.178,1.0000007,1.0,1
36491,36491,2021-01-21 23:29:36.178,1.0000007,1.0,1
36501,36501,2021-01-21 23:30:06.178,1.0000007,1.0,1
36511,36511,2021-01-21 23:30:36.178,1.0000007,1.0,1
36521,36521,2021-01-21 23:31:06.178,1.0000007,1.0,1
36531,36531,2021-01-21 23:31:36.178,1.0000007,1.0,1
36541,36541,2021-01-21 23:32:06.178,1.0000007,1.0,1
36551,36551,2021-01-21 23:32:36.178,1.0000007,1.0,1
36561,36561,2021-01-21 23:33:06.178,1.0000007,1.0,1
36571,36571,2021-01-21 23:33:36.178,1.0000007,1.0,1
36581,36581,2021-01-21 23:34:06.178,1.0000007,1.0,1
36591,36591,2021-01-21 23:34:36.178,1.0000007,1.0,1
36601,36601,2021-01-21 23:35:06.178,1.0000007,1.0,1
36611,36611,2021-01-21 23:35:36.178,1.0000007,1.0,1
36621,36621,2021-01-21 23:36:06.178,1.0000007,1.0,1
36631,36631,2021-01-21 23:36:36.178,1.0000007,1.0,1
36641,36641,2021-01-21 23:37:06.178,1.0000007,1.0,1
36651,36651,2021-01-21 23:37:36.178,1.0000007,1.0,1
36661,36661,2021-01-21 23:38:06.178,1.0000007,1.0,1
36671,36671,2021-01-21 23:38:36.178,1.0000007,1.0,1
36681,36681,2021-01-21 23:39:06.178,1.0000007,1.0,1
36691,36691,2021-01-21 23:39:36.178,1.0000007,1.0,1
36701,36701,2021-01-21 23:40:06.178,1.0000007,1.0,1
36711,36711,2021-01-21 23:40:36.178,1.0000007,1.0,1
36721,36721,2021-01-21 23:41:06.178,1.0000007,1.0,1
36731,36731,2021-01-21 23:41:36.178,1.0000007,1.0,1
36741,36741,2021-01-21 23:42:06.178,1.0000007,1.0,1
36751,36751,2021-01-21 23:42:36.178,1.0000007,1.0,1
36761,36761,2021-01-21 23:43:06.178,1.0000007,1.0,1
36771,36771,2021-01-21 23:43:36.178,1.0000007,1.0,1
36781,36781,2021-01-21 23:44:06.178,1.0000007,1.0,1
36791,36791,2021-01-21 23:44:36.178,1.0000007,1.0,1
36801,36801,2021-01-21 23:45:06.178,1.0000007,1.0,1
36811,36811,2021-01-21 23:45:36.178,1.0000007,1.0,1
36821,36821,2021-01-21 23:46:06.178,1.0000007,1.0,1
36831,36831,2021-01-21 23:46:36.178,1.0000007,1.0,1
36841,36841,2021-01-21 23:47:06.178,1.0000007,1.0,1
36851,36851,2021-01-21 23:47:36.178,1.0000007,1.0,1
36861,36861,2021-01-21 23:48:06.178,1.0000007,1.0,1
36871,36871,2021-01-21 23:48:36.178,1.0000007,1.0,1
36881,36881,2021-01-21 23:49:06.178,1.0000007,1.0,1
36891,36891,2021-01-21 23:49:36.178,1.0000007,1.0,1
36901,36901,2021-01-21 23:50:06.178,1.0000007,1.0,1
36911,36911,2021-01-21 23:50:36.178,1.0000007,1.0,1
36921,36921,2021-01-21 23:51:06.178,1.0000007,1.0,1
36931,36931,2021-01-21 23:51:36.178,1.0000007,1.0,1
36941,36941,2021-01-21 23:52:06.178,1.0000007,1.0,1
36951,36951,2021-01-21 23:52:36.178,1.0000007,1.0,1
36961,36961,2021-01-21 23:53:06.178,1.0000007,1.0,1
36971,36971,2021-01-21 23:53:36.178,1.0000007,1.0,1
36981,36981,2021-01-21 23:54:06.178,1.0000007,1.0,1
36991,36991,2021-01-21 23:54:36.178,1.0000007,1.0,1
37001,37001,2021-01-21 23:55:06.178,1.0000007,1.0,1
37011,37011,2021-01-21 23:55:36.178,1.0000007,1.0,1
37021,37021,2021-01-21 23:56:06.178,1.0000007,1.0,1
37031,37031,2021-01-21 23:56:36.178,1.0000007,1.0,1
37041,37041,2021-01-21 23:57:06.178,1.0000007,1.0,1
37051,37051,2021-01-21 23:57:36.178,1.0000007,1.0,1
37061,37061,2021-01-21 23:58:06.178,1.0000007,1.0,1
37071,37071,2021-01-21 23:58:36.178,1.0000007,1.0,1
37081,37081,2021-01-21 23:59:06.178,1.0000007,1.0,1
37091,37091,2021-01-21 23:59:36.178,1.0000007,1.0,1
37101,37101,2021-01-22 00:00:06.178,1.0000007,1.0,1
37111,37111,2021-01-22 00:00:36.178,1.0000007,1.0,1
37121,37121,2021-01-22 00:01:06.178,1.0000007,1.0,1
37131,37131,2021-01-22 00:01:36.178,1.0000007,1.0,1
37141,37141,2021-01-22 00:02:06.178,1.0000007,1.0,1
37151,37151,2021-01-22 00:02:36.178,1.0000007,1.0,1
37161,37161,2021-01-22 00:03:06.178,1.0000007,1.0,1
37171,37171,2021-01-22 00:03:36.178,1.0000007,1.0,1
37181,37181,2021-01-22 00:04:06.178,1.0000007,1.0,1
37191,37191,2021-01-22 00:04:36.178,1.0000007,1.0,1
37201,37201,2021-01-22 00:05:06.178,1.0000007,1.0,1
37211,37211,2021-01-22 00:05:36.178,1.0000007,1.0,1
37221,37221,2021-01-22 00:06:06.178,1.0000007,1.0,1
37231,37231,2021-01-22 00:06:36.178,1.0000007,1.0,1
37241,37241,2021-01-22 00:07:06.178,1.0000007,1.0,1
37251,37251,2021-01-22 00:07:36.178,1.0000007,1.0,1
37261,37261,2021-01-22 00:08:06.178,1.0000007,1.0,1
37271,37271,2021-01-22 00:08:36.178,1.0000007,1.0,1
37281,37281,2021-01-22 00:09:06.178,1.0000007,1.0,1
37291,37291,2021-01-22 00:09:36.178,1.0000007,1.0,1
37301,37301,2021-01-22 00:10:06.178,1.0000007,1.0,1
37311,37311,2021-01-22 00:10:36.178,1.0000007,1.0,1
37321,37321,2021-01-22 00:11:06.178,1.0000007,1.0,1
37331,37331,2021-01-22 00:11:36.178,1.0000007,1.0,1
37341,37341,2021-01-22 00:12:06.178,1.0000007,1.0,1
37351,37351,2021-01-22 00:12:36.178,1.0000007,1.0,1
37361,37361,2021-01-22 00:13:06.178,1.0000007,1.0,1
37371,37371,2021-01-22 00:13:36.178,1.0000007,1.0,1
37381,37381,2021-01-22 00:14:06.178,1.0000007,1.0,1
37391,37391,2021-01-22 00:14:36.178,1.0000007,1.0,1
37401,37401,2021-01-22 00:15:06.178,1.0000007,1.0,1
37411,37411,2021-01-22 00:15:36.178,1.0000007,1.0,1
37421,37421,2021-01-22 00:16:06.178,1.0000007,1.0,1
37431,37431,2021-01-22 00:16:36.178,1.0000007,1.0,1
37441,37441,2021-01-22 00:17:06.178,1.0000007,1.0,1
37451,37451,2021-01-22 00:17:36.178,1.0000007,1.0,1
37461,37461,2021-01-22 00:18:06.178,1.0000007,1.0,1
37471,37471,2021-01-22 00:18:36.178,1.0000007,1.0,1
37481,37481,2021-01-22 00:19:06.178,1.0000007,1.0,1
37491,37491,2021-01-22 00:19:36.178,1.0000007,1.0,1
37501,37501,2021-01-22 00:20:06.178,1.0000007,1.0,1
37511,37511,2021-01-22 00:20:36.178,1.0000007,1.0,1
37521,37521,2021-01-22 00:21:06.178,1.0000007,1.0,1
37531,37531,2021-01-22 00:21:36.178,1.0000007,1.0,1
37541,37541,2021-01-22 00:22:06.178,1.0000007,1.0,1
37551,37551,2021-01-22 00:22:36.178,1.0000007,1.0,1
37561,37561,2021-01-22 00:23:06.178,1.0000007,1.0,1
37571,37571,2021-01-22 00:23:36.178,1.0000007,1.0,1
37581,37581,2021-01-22 00:24:06.178,1.0000007,1.0,1
37591,37591,2021-01-22 00:24:36.178,1.0000007,1.0,1
37601,37601,2021-01-22 00:25:06.178,1.0000007,1.0,1
37611,37611,2021-01-22 00:25:36.178,1.0000007,1.0,1
37621,37621,2021-01-22 00:26:06.178,1.0000007,1.0,1
37631,37631,2021-01-22 00:26:36.178,1.0000007,1.0,1
37641,37641,2021-01-22 00:27:06.178,1.0000007,1.0,1
37651,37651,2021-01-22 00:27:36.178,1.0000007,1.0,1
37661,37661,2021-01-22 00:28:06.178,1.0000007,1.0,1
37671,37671,2021-01-22 00:28:36.178,1.0000007,1.0,1
37681,37681,2021-01-22 00:29:06.178,1.0000007,1.0,1
37691,37691,2021-01-22 00:29:36.178,1.0000007,1.0,1
37701,37701,2021-01-22 00:30:06.178,1.0000007,1.0,1
37711,37711,2021-01-22 00:30:36.178,1.0000007,1.0,1
37721,37721,2021-01-22 00:31:06.178,1.0000007,1.0,1
37731,37731,2021-01-22 00:31:36.178,1.0000007,1.0,1
37741,37741,2021-01-22 00:32:06.178,1.0000007,1.0,1
37751,37751,2021-01-22 00:32:36.178,1.0000007,1.0,1
37761,37761,2021-01-22 00:33:06.178,1.0000007,1.0,1
37771,37771,2021-01-22 00:33:36.178,1.0000007,1.0,1
37781,37781,2021-01-22 00:34:06.178,1.0000007,1.0,1
37791,37791,2021-01-22 00:34:36.178,1.0000007,1.0,1
37801,37801,2021-01-22 00:35:06.178,1.0000007,1.0,1
37811,37811,2021-01-22 00:35:36.178,1.0000007,1.0,1
37821,37821,2021-01-22 00:36:06.178,1.0000007,1.0,1
37831,37831,2021-01-22 00:36:36.178,1.0000007,1.0,1
37841,37841,2021-01-22 00:37:06.178,1.0000007,1.0,1
37851,37851,2021-01-22 00:37:36.178,1.0000007,1.0,1
37861,37861,2021-01-22 00:38:06.178,1.0000007,1.0,1
37871,37871,2021-01-22 00:38:36.178,1.0000007,1.0,1
37881,37881,2021-01-22 00:39:06.178,1.0000007,1.0,1
37891,37891,2021-01-22 00:39:36.178,1.0000007,1.0,1
37901,37901,2021-01-22 00:40:06.178,1.0000007,1.0,1
37911,37911,2021-01-22 00:40:36.178,1.0000007,1.0,1
37921,37921,2021-01-22 00:41:06.178,1.0000007,1.0,1
37931,37931,2021-01-22 00:41:36.178,1.0000007,1.0,1
37941,37941,2021-01-22 00:42:06.178,1.0000007,1.0,1
37951,37951,2021-01-22 00:42:36.178,1.0000007,1.0,1
37961,37961,2021-01-22 00:43:06.178,1.0000007,1.0,1
37971,37971,2021-01-22 00:43:36.178,1.0000007,1.0,1
37981,37981,2021-01-22 00:44:06.178,1.0000007,1.0,1
37991,37991,2021-01-22 00:44:36.178,1.0000007,1.0,1
38001,38001,2021-01-22 00:45:06.178,1.0000007,1.0,1
38011,38011,2021-01-22 00:45:36.178,1.0000007,1.0,1
38021,38021,2021-01-22 00:46:06.178,1.0000007,1.0,1
38031,38031,2021-01-22 00:46:36.178,1.0000007,1.0,1
38041,38041,2021-01-22 00:47:06.178,1.0000007,1.0,1
38051,38051,2021-01-22 00:47:36.178,1.0000007,1.0,1
38061,38061,2021-01-22 00:48:06.178,1.0000007,1.0,1
38071,38071,2021-01-22 00:48:36.178,1.0000007,1.0,1
38081,38081,2021-01-22 00:49:06.178,1.0000007,1.0,1
38091,38091,2021-01-22 00:49:36.178,1.0000007,1.0,1
38101,38101,2021-01-22 00:50:06.178,1.0000007,1.0,1
38111,38111,2021-01-22 00:50:36.178,1.0000007,1.0,1
38121,38121,2021-01-22 00:51:06.178,1.0000007,1.0,1
38131,38131,2021-01-22 00:51:36.178,1.0000007,1.0,1
38141,38141,2021-01-22 00:52:06.178,1.0000007,1.0,1
38151,38151,2021-01-22 00:52:36.178,1.0000007,1.0,1
38161,38161,2021-01-22 00:53:06.178,1.0000007,1.0,1
38171,38171,2021-01-22 00:53:36.178,1.0000007,1.0,1
38181,38181,2021-01-22 00:54:06.178,1.0000007,1.0,1
38191,38191,2021-01-22 00:54:36.178,1.0000007,1.0,1
38201,38201,2021-01-22 00:55:06.178,1.0000007,1.0,1
38211,38211,2021-01-22 00:55:36.178,1.0000007,1.0,1
38221,38221,2021-01-22 00:56:06.178,1.0000007,1.0,1
38231,38231,2021-01-22 00:56:36.178,1.0000007,1.0,1
38241,38241,2021-01-22 00:57:06.178,1.0000007,1.0,1
38251,38251,2021-01-22 00:57:36.178,1.0000007,1.0,1
38261,38261,2021-01-22 00:58:06.178,1.0000007,1.0,1
38271,38271,2021-01-22 00:58:36.178,1.0000007,1.0,1
38281,38281,2021-01-22 00:59:06.178,1.0000007,1.0,1
38291,38291,2021-01-22 00:59:36.178,1.0000007,1.0,1
38301,38301,2021-01-22 01:00:06.178,1.0000007,1.0,1
38311,38311,2021-01-22 01:00:36.178,1.0000007,1.0,1
38321,38321,2021-01-22 01:01:06.178,1.0000007,1.0,1
38331,38331,2021-01-22 01:01:36.178,1.0000007,1.0,1
38341,38341,2021-01-22 01:02:06.178,1.0000007,1.0,1
38351,38351,2021-01-22 01:02:36.178,1.0000007,1.0,1
38361,38361,2021-01-22 01:03:06.178,1.0000007,1.0,1
38371,38371,2021-01-22 01:03:36.178,1.0000007,1.0,1
38381,38381,2021-01-22 01:04:06.178,1.0000007,1.0,1
38391,38391,2021-01-22 01:04:36.178,1.0000007,1.0,1
38401,38401,2021-01-22 01:05:06.178,1.0000007,1.0,1
38411,38411,2021-01-22 01:05:36.178,1.0000007,1.0,1
38421,38421,2021-01-22 01:06:06.178,1.0000007,1.0,1
38431,38431,2021-01-22 01:06:36.178,1.0000007,1.0,1
38441,38441,2021-01-22 01:07:06.178,1.0000007,1.0,1
38451,38451,2021-01-22 01:07:36.178,1.0000007,1.0,1
38461,38461,2021-01-22 01:08:06.178,1.0000007,1.0,1
38471,38471,2021-01-22 01:08:36.178,1.0000007,1.0,1
38481,38481,2021-01-22 01:09:06.178,1.0000007,1.0,1
38491,38491,2021-01-22 01:09:36.178,1.0000007,1.0,1
38501,38501,2021-01-22 01:10:06.178,1.0000007,1.0,1
38511,38511,2021-01-22 01:10:36.178,1.0000007,1.0,1
38521,38521,2021-01-22 01:11:06.178,1.0000007,1.0,1
38531,38531,2021-01-22 01:11:36.178,1.0000007,1.0,1
38541,38541,2021-01-22 01:12:06.178,1.0000007,1.0,1
38551,38551,2021-01-22 01:12:36.178,1.0000007,1.0,1
38561,38561,2021-01-22 01:13:06.178,1.0000007,1.0,1
38571,38571,2021-01-22 01:13:36.178,1.0000007,1.0,1
38581,38581,2021-01-22 01:14:06.178,1.0000007,1.0,1
38591,38591,2021-01-22 01:14:36.178,1.0000007,1.0,1
38601,38601,2021-01-22 01:15:06.178,1.0000007,1.0,1
38611,38611,2021-01-22 01:15:36.178,1.0000007,1.0,1
38621,38621,2021-01-22 01:16:06.178,1.0000007,1.0,1
38631,38631,2021-01-22 01:16:36.178,1.0000007,1.0,1
38641,38641,2021-01-22 01:17:06.178,1.0000007,1.0,1
38651,38651,2021-01-22 01:17:36.178,1.0000007,1.0,1
38661,38661,2021-01-22 01:18:06.178,1.0000007,1.0,1
38671,38671,2021-01-22 01:18:36.178,1.0000007,1.0,1
38681,38681,2021-01-22 01:19:06.178,1.0000007,1.0,1
38691,38691,2021-01-22 01:19:36.178,1.0000007,1.0,1
38701,38701,2021-01-22 01:20:06.178,1.0000007,1.0,1
38711,38711,2021-01-22 01:20:36.178,1.0000007,1.0,1
38721,38721,2021-01-22 01:21:06.178,1.0000007,1.0,1
38731,38731,2021-01-22 01:21:36.178,1.0000007,1.0,1
38741,38741,2021-01-22 01:22:06.178,1.0000007,1.0,1
38751,38751,2021-01-22 01:22:36.178,1.0000007,1.0,1
38761,38761,2021-01-22 01:23:06.178,1.0000007,1.0,1
38771,38771,2021-01-22 01:23:36.178,1.0000007,1.0,1
38781,38781,2021-01-22 01:24:06.178,1.0000007,1.0,1
38791,38791,2021-01-22 01:24:36.178,1.0000007,1.0,1
38801,38801,2021-01-22 01:25:06.178,1.0000007,1.0,1
38811,38811,2021-01-22 01:25:36.178,1.0000007,1.0,1
38821,38821,2021-01-22 01:26:06.178,1.0000007,1.0,1
38831,38831,2021-01-22 01:26:36.178,1.0000007,1.0,1
38841,38841,2021-01-22 01:27:06.178,1.0000007,1.0,1
38851,38851,2021-01-22 01:27:36.178,1.0000007,1.0,1
38861,38861,2021-01-22 01:28:06.178,1.0000007,1.0,1
38871,38871,2021-01-22 01:28:36.178,1.0000007,1.0,1
38881,38881,2021-01-22 01:29:06.178,1.0000007,1.0,1
38891,38891,2021-01-22 01:29:36.178,1.0000007,1.0,1
38901,38901,2021-01-22 01:30:06.178,1.0000007,1.0,1
38911,38911,2021-01-22 01:30:36.178,1.0000007,1.0,1
38921,38921,2021-01-22 01:31:06.178,1.0000007,1.0,1
38931,38931,2021-01-22 01:31:36.178,1.0000007,1.0,1
38941,38941,2021-01-22 01:32:06.178,1.0000007,1.0,1
38951,38951,2021-01-22 01:32:36.178,1.0000007,1.0,1
38961,38961,2021-01-22 01:33:06.178,1.0000007,1.0,1
38971,38971,2021-01-22 01:33:36.178,1.0000007,0.0,1
