,Unnamed: 0,time,preds,step
27532,27532,2021-01-21 14:31:06.178,29.069190000000003,2
27542,27542,2021-01-21 14:31:36.178,30.878147,2
27552,27552,2021-01-21 14:32:06.178,30.745834000000002,2
27562,27562,2021-01-21 14:32:36.178,29.065655,2
27572,27572,2021-01-21 14:33:06.178,29.162696999999998,2
27582,27582,2021-01-21 14:33:36.178,30.284809999999997,2
27592,27592,2021-01-21 14:34:06.178,28.7871,2
27602,27602,2021-01-21 14:34:36.178,32.121933,2
27612,27612,2021-01-21 14:35:06.178,33.076828000000006,2
27622,27622,2021-01-21 14:35:36.178,34.695473,2
27632,27632,2021-01-21 14:36:06.178,34.90874,2
27642,27642,2021-01-21 14:36:36.178,34.703594,2
27652,27652,2021-01-21 14:37:06.178,34.964397,2
27662,27662,2021-01-21 14:37:36.178,35.412533,2
27672,27672,2021-01-21 14:38:06.178,36.5177,2
27682,27682,2021-01-21 14:38:36.178,35.893673,2
27692,27692,2021-01-21 14:39:06.178,37.816223,2
27702,27702,2021-01-21 14:39:36.178,37.745148,2
27712,27712,2021-01-21 14:40:06.178,36.29886,2
27722,27722,2021-01-21 14:40:36.178,37.54465,2
27732,27732,2021-01-21 14:41:06.178,37.35553,2
27742,27742,2021-01-21 14:41:36.178,40.91754,2
27752,27752,2021-01-21 14:42:06.178,41.114563000000004,2
27762,27762,2021-01-21 14:42:36.178,42.6406,2
27772,27772,2021-01-21 14:43:06.178,42.23385,2
27782,27782,2021-01-21 14:43:36.178,42.1366,2
27792,27792,2021-01-21 14:44:06.178,43.975429999999996,2
27802,27802,2021-01-21 14:44:36.178,43.935320000000004,2
27812,27812,2021-01-21 14:45:06.178,45.269993,2
27822,27822,2021-01-21 14:45:36.178,43.530125,2
27832,27832,2021-01-21 14:46:06.178,47.427395000000004,2
27842,27842,2021-01-21 14:46:36.178,47.704097999999995,2
27852,27852,2021-01-21 14:47:06.178,47.021637,2
27862,27862,2021-01-21 14:47:36.178,48.671673,2
27872,27872,2021-01-21 14:48:06.178,49.702420000000004,2
27882,27882,2021-01-21 14:48:36.178,47.72224,2
27892,27892,2021-01-21 14:49:06.178,52.173573,2
27902,27902,2021-01-21 14:49:36.178,54.733253000000005,2
27912,27912,2021-01-21 14:50:06.178,57.40778,2
27922,27922,2021-01-21 14:50:36.178,57.78386,2
27932,27932,2021-01-21 14:51:06.178,61.201446999999995,2
27942,27942,2021-01-21 14:51:36.178,61.55415,2
27952,27952,2021-01-21 14:52:06.178,60.64827,2
27962,27962,2021-01-21 14:52:36.178,62.926678,2
27972,27972,2021-01-21 14:53:06.178,62.984592000000006,2
27982,27982,2021-01-21 14:53:36.178,59.9917,2
27992,27992,2021-01-21 14:54:06.178,66.61455500000001,2
28002,28002,2021-01-21 14:54:36.178,67.62509,2
28012,28012,2021-01-21 14:55:06.178,74.89041,2
28022,28022,2021-01-21 14:55:36.178,74.4264,2
28032,28032,2021-01-21 14:56:06.178,74.01088,2
28042,28042,2021-01-21 14:56:36.178,78.00066,2
28052,28052,2021-01-21 14:57:06.178,80.17985,2
28062,28062,2021-01-21 14:57:36.178,76.83145,2
28072,28072,2021-01-21 14:58:06.178,84.4711,2
28082,28082,2021-01-21 14:58:36.178,88.78804000000001,2
28092,28092,2021-01-21 14:59:06.178,87.0181,2
28102,28102,2021-01-21 14:59:36.178,92.93603,2
28112,28112,2021-01-21 15:00:06.178,96.58533,2
28122,28122,2021-01-21 15:00:36.178,94.43965,2
28132,28132,2021-01-21 15:01:06.178,105.09418000000001,2
28142,28142,2021-01-21 15:01:36.178,109.66775,2
28152,28152,2021-01-21 15:02:06.178,107.901054,2
28162,28162,2021-01-21 15:02:36.178,120.43253,2
28172,28172,2021-01-21 15:03:06.178,125.65113999999998,2
28182,28182,2021-01-21 15:03:36.178,137.91235,2
28192,28192,2021-01-21 15:04:06.178,141.18601999999998,2
28202,28202,2021-01-21 15:04:36.178,140.83308,2
28212,28212,2021-01-21 15:05:06.178,149.25658,2
28222,28222,2021-01-21 15:05:36.178,158.7303,2
28232,28232,2021-01-21 15:06:06.178,187.95898,2
28242,28242,2021-01-21 15:06:36.178,187.477,2
28252,28252,2021-01-21 15:07:06.178,184.23023999999998,2
28262,28262,2021-01-21 15:07:36.178,210.47462000000002,2
28272,28272,2021-01-21 15:08:06.178,222.56534,2
28282,28282,2021-01-21 15:08:36.178,200.27357,2
28292,28292,2021-01-21 15:09:06.178,258.22893999999997,2
28302,28302,2021-01-21 15:09:36.178,299.5993,2
28312,28312,2021-01-21 15:10:06.178,398.61093,2
28322,28322,2021-01-21 15:10:36.178,440.70447,2
28332,28332,2021-01-21 15:11:06.178,438.41843,2
28342,28342,2021-01-21 15:11:36.178,593.566,2
28352,28352,2021-01-21 15:12:06.178,709.78467,2
28362,28362,2021-01-21 15:12:36.178,605.2543,2
28372,28372,2021-01-21 15:13:06.178,1084.4696,2
28382,28382,2021-01-21 15:13:36.178,1496.4296,2
28392,28392,2021-01-21 15:14:06.178,1163.5472,2
28402,28402,2021-01-21 15:14:36.178,768.6542,2
28412,28412,2021-01-21 15:15:06.178,673.7964,2
28422,28422,2021-01-21 15:15:36.178,543.1247599999999,2
28432,28432,2021-01-21 15:16:06.178,441.05865,2
28442,28442,2021-01-21 15:16:36.178,407.28082,2
28452,28452,2021-01-21 15:17:06.178,295.69626,2
28462,28462,2021-01-21 15:17:36.178,241.28326,2
28472,28472,2021-01-21 15:18:06.178,199.76373,2
28482,28482,2021-01-21 15:18:36.178,186.38034,2
28492,28492,2021-01-21 15:19:06.178,193.40057,2
28502,28502,2021-01-21 15:19:36.178,172.10416,2
28512,28512,2021-01-21 15:20:06.178,158.8129,2
28522,28522,2021-01-21 15:20:36.178,151.03261,2
28532,28532,2021-01-21 15:21:06.178,140.58192,2
28542,28542,2021-01-21 15:21:36.178,129.58303999999998,2
28552,28552,2021-01-21 15:22:06.178,120.99498,2
28562,28562,2021-01-21 15:22:36.178,113.98383000000001,2
28572,28572,2021-01-21 15:23:06.178,111.10005,2
28582,28582,2021-01-21 15:23:36.178,106.93874,2
28592,28592,2021-01-21 15:24:06.178,105.177025,2
28602,28602,2021-01-21 15:24:36.178,104.87383,2
28612,28612,2021-01-21 15:25:06.178,97.86967,2
28622,28622,2021-01-21 15:25:36.178,100.14708,2
28632,28632,2021-01-21 15:26:06.178,98.40455,2
28642,28642,2021-01-21 15:26:36.178,94.04359000000001,2
28652,28652,2021-01-21 15:27:06.178,90.53734,2
28662,28662,2021-01-21 15:27:36.178,90.74338,2
28672,28672,2021-01-21 15:28:06.178,85.30131,2
28682,28682,2021-01-21 15:28:36.178,85.93004,2
28692,28692,2021-01-21 15:29:06.178,79.227684,2
28702,28702,2021-01-21 15:29:36.178,73.59615,2
28712,28712,2021-01-21 15:30:06.178,71.791214,2
28722,28722,2021-01-21 15:30:36.178,63.707375,2
28732,28732,2021-01-21 15:31:06.178,63.51654,2
28742,28742,2021-01-21 15:31:36.178,67.09439,2
28752,28752,2021-01-21 15:32:06.178,63.913254,2
28762,28762,2021-01-21 15:32:36.178,63.429869999999994,2
28772,28772,2021-01-21 15:33:06.178,62.670925,2
28782,28782,2021-01-21 15:33:36.178,60.56584,2
28792,28792,2021-01-21 15:34:06.178,59.4737,2
28802,28802,2021-01-21 15:34:36.178,58.48921,2
28812,28812,2021-01-21 15:35:06.178,56.680973,2
28822,28822,2021-01-21 15:35:36.178,55.631280000000004,2
28832,28832,2021-01-21 15:36:06.178,54.860240000000005,2
28842,28842,2021-01-21 15:36:36.178,52.62519,2
28852,28852,2021-01-21 15:37:06.178,51.7977,2
28862,28862,2021-01-21 15:37:36.178,50.656513000000004,2
28872,28872,2021-01-21 15:38:06.178,49.033120000000004,2
28882,28882,2021-01-21 15:38:36.178,48.50933,2
28892,28892,2021-01-21 15:39:06.178,48.074844,2
28902,28902,2021-01-21 15:39:36.178,46.776756,2
28912,28912,2021-01-21 15:40:06.178,45.6247,2
28922,28922,2021-01-21 15:40:36.178,43.98418,2
28932,28932,2021-01-21 15:41:06.178,44.071999999999996,2
28942,28942,2021-01-21 15:41:36.178,41.551426,2
28952,28952,2021-01-21 15:42:06.178,40.593815,2
28962,28962,2021-01-21 15:42:36.178,39.51988,2
28972,28972,2021-01-21 15:43:06.178,38.4673,2
28982,28982,2021-01-21 15:43:36.178,37.880493,2
28992,28992,2021-01-21 15:44:06.178,38.007957,2
29002,29002,2021-01-21 15:44:36.178,37.254288,2
29012,29012,2021-01-21 15:45:06.178,36.28549,2
29022,29022,2021-01-21 15:45:36.178,35.838615000000004,2
29032,29032,2021-01-21 15:46:06.178,35.531086,2
29042,29042,2021-01-21 15:46:36.178,34.264843,2
29052,29052,2021-01-21 15:47:06.178,33.967690000000005,2
29062,29062,2021-01-21 15:47:36.178,33.411640000000006,2
29072,29072,2021-01-21 15:48:06.178,32.940437,2
29082,29082,2021-01-21 15:48:36.178,32.764957,2
29092,29092,2021-01-21 15:49:06.178,31.964287,2
29102,29102,2021-01-21 15:49:36.178,31.73756,2
29112,29112,2021-01-21 15:50:06.178,31.741673,2
29122,29122,2021-01-21 15:50:36.178,30.492584,2
29132,29132,2021-01-21 15:51:06.178,30.172915999999997,2
29142,29142,2021-01-21 15:51:36.178,29.679990000000004,2
29152,29152,2021-01-21 15:52:06.178,29.28701,2
29162,29162,2021-01-21 15:52:36.178,28.901515999999997,2
29172,29172,2021-01-21 15:53:06.178,28.526587,2
29182,29182,2021-01-21 15:53:36.178,28.227865,2
29192,29192,2021-01-21 15:54:06.178,27.786303999999998,2
29202,29202,2021-01-21 15:54:36.178,27.598484000000003,2
29212,29212,2021-01-21 15:55:06.178,27.19673,2
29222,29222,2021-01-21 15:55:36.178,26.771290000000004,2
29232,29232,2021-01-21 15:56:06.178,26.775759000000004,2
29242,29242,2021-01-21 15:56:36.178,26.273228000000003,2
29252,29252,2021-01-21 15:57:06.178,25.984517999999998,2
29262,29262,2021-01-21 15:57:36.178,25.79895,2
29272,29272,2021-01-21 15:58:06.178,25.216291000000002,2
29282,29282,2021-01-21 15:58:36.178,24.878270999999998,2
29292,29292,2021-01-21 15:59:06.178,24.726072,2
29302,29302,2021-01-21 15:59:36.178,24.865866,2
29312,29312,2021-01-21 16:00:06.178,24.711679999999998,2
29322,29322,2021-01-21 16:00:36.178,24.1701,2
29332,29332,2021-01-21 16:01:06.178,24.134094,2
29342,29342,2021-01-21 16:01:36.178,23.8373,2
29352,29352,2021-01-21 16:02:06.178,23.278817999999998,2
29362,29362,2021-01-21 16:02:36.178,23.068,2
29372,29372,2021-01-21 16:03:06.178,22.728996,2
29382,29382,2021-01-21 16:03:36.178,22.200756,2
29392,29392,2021-01-21 16:04:06.178,21.92691,2
29402,29402,2021-01-21 16:04:36.178,21.727587,2
29412,29412,2021-01-21 16:05:06.178,21.873632,2
29422,29422,2021-01-21 16:05:36.178,21.807170000000003,2
29432,29432,2021-01-21 16:06:06.178,21.27435,2
29442,29442,2021-01-21 16:06:36.178,21.009182,2
29452,29452,2021-01-21 16:07:06.178,20.846565,2
29462,29462,2021-01-21 16:07:36.178,20.849577,2
29472,29472,2021-01-21 16:08:06.178,20.816872,2
29482,29482,2021-01-21 16:08:36.178,20.738588,2
29492,29492,2021-01-21 16:09:06.178,20.303986,2
29502,29502,2021-01-21 16:09:36.178,20.028835,2
29512,29512,2021-01-21 16:10:06.178,19.175710000000002,2
29522,29522,2021-01-21 16:10:36.178,18.984243,2
29532,29532,2021-01-21 16:11:06.178,18.778332000000002,2
29542,29542,2021-01-21 16:11:36.178,18.823294,2
29552,29552,2021-01-21 16:12:06.178,18.771317,2
29562,29562,2021-01-21 16:12:36.178,18.880075,2
29572,29572,2021-01-21 16:13:06.178,18.860628,2
29582,29582,2021-01-21 16:13:36.178,18.348516,2
29592,29592,2021-01-21 16:14:06.178,18.015997,2
29602,29602,2021-01-21 16:14:36.178,17.958279,2
29612,29612,2021-01-21 16:15:06.178,17.834988,2
29622,29622,2021-01-21 16:15:36.178,17.78651,2
29632,29632,2021-01-21 16:16:06.178,17.761114000000003,2
29642,29642,2021-01-21 16:16:36.178,17.828661,2
29652,29652,2021-01-21 16:17:06.178,17.879694,2
29662,29662,2021-01-21 16:17:36.178,17.248667,2
29672,29672,2021-01-21 16:18:06.178,17.090882999999998,2
29682,29682,2021-01-21 16:18:36.178,16.870798,2
29692,29692,2021-01-21 16:19:06.178,16.882946,2
29702,29702,2021-01-21 16:19:36.178,16.817585,2
29712,29712,2021-01-21 16:20:06.178,16.804726000000002,2
29722,29722,2021-01-21 16:20:36.178,16.382856,2
29732,29732,2021-01-21 16:21:06.178,16.134757999999998,2
29742,29742,2021-01-21 16:21:36.178,15.875632999999999,2
29752,29752,2021-01-21 16:22:06.178,15.944244,2
29762,29762,2021-01-21 16:22:36.178,15.719760999999998,2
29772,29772,2021-01-21 16:23:06.178,15.181278,2
29782,29782,2021-01-21 16:23:36.178,14.953578,2
29792,29792,2021-01-21 16:24:06.178,14.870556,2
29802,29802,2021-01-21 16:24:36.178,14.966812,2
29812,29812,2021-01-21 16:25:06.178,14.938781,2
29822,29822,2021-01-21 16:25:36.178,14.799435999999998,2
29832,29832,2021-01-21 16:26:06.178,14.333260999999998,2
29842,29842,2021-01-21 16:26:36.178,14.0001545,2
29852,29852,2021-01-21 16:27:06.178,13.839510999999998,2
29862,29862,2021-01-21 16:27:36.178,13.888973000000002,2
29872,29872,2021-01-21 16:28:06.178,13.855167000000002,2
29882,29882,2021-01-21 16:28:36.178,13.862565,2
29892,29892,2021-01-21 16:29:06.178,13.888295000000001,2
29902,29902,2021-01-21 16:29:36.178,13.878298999999998,2
29912,29912,2021-01-21 16:30:06.178,13.980004000000001,2
29922,29922,2021-01-21 16:30:36.178,14.058723,2
29932,29932,2021-01-21 16:31:06.178,14.042898000000001,2
29942,29942,2021-01-21 16:31:36.178,14.082744,2
29952,29952,2021-01-21 16:32:06.178,14.051128,2
29962,29962,2021-01-21 16:32:36.178,13.399616,2
29972,29972,2021-01-21 16:33:06.178,12.8610525,2
29982,29982,2021-01-21 16:33:36.178,12.651649,2
29992,29992,2021-01-21 16:34:06.178,12.641898,2
30002,30002,2021-01-21 16:34:36.178,12.756756,2
30012,30012,2021-01-21 16:35:06.178,12.858686,2
30022,30022,2021-01-21 16:35:36.178,12.844209,2
30032,30032,2021-01-21 16:36:06.178,12.803735000000001,2
30042,30042,2021-01-21 16:36:36.178,12.917888,2
30052,30052,2021-01-21 16:37:06.178,12.9635725,2
30062,30062,2021-01-21 16:37:36.178,12.990098,2
30072,30072,2021-01-21 16:38:06.178,12.423117999999999,2
30082,30082,2021-01-21 16:38:36.178,12.1102495,2
30092,30092,2021-01-21 16:39:06.178,11.84238,2
30102,30102,2021-01-21 16:39:36.178,11.801578,2
30112,30112,2021-01-21 16:40:06.178,11.76271,2
30122,30122,2021-01-21 16:40:36.178,11.839813000000001,2
30132,30132,2021-01-21 16:41:06.178,11.893857,2
30142,30142,2021-01-21 16:41:36.178,11.896007,2
30152,30152,2021-01-21 16:42:06.178,11.915825,2
30162,30162,2021-01-21 16:42:36.178,11.939302,2
30172,30172,2021-01-21 16:43:06.178,11.952874000000001,2
30182,30182,2021-01-21 16:43:36.178,11.998567,2
30192,30192,2021-01-21 16:44:06.178,11.998963,2
30202,30202,2021-01-21 16:44:36.178,12.0314,2
30212,30212,2021-01-21 16:45:06.178,11.996807,2
30222,30222,2021-01-21 16:45:36.178,11.138008000000001,2
30232,30232,2021-01-21 16:46:06.178,10.620391,2
30242,30242,2021-01-21 16:46:36.178,10.6318865,2
30252,30252,2021-01-21 16:47:06.178,10.755139999999999,2
30262,30262,2021-01-21 16:47:36.178,10.812149,2
30272,30272,2021-01-21 16:48:06.178,10.842429,2
30282,30282,2021-01-21 16:48:36.178,10.9396305,2
30292,30292,2021-01-21 16:49:06.178,10.929859,2
30302,30302,2021-01-21 16:49:36.178,10.952997,2
30312,30312,2021-01-21 16:50:06.178,10.944255,2
30322,30322,2021-01-21 16:50:36.178,10.915314,2
30332,30332,2021-01-21 16:51:06.178,10.870391999999999,2
30342,30342,2021-01-21 16:51:36.178,10.870296000000002,2
30352,30352,2021-01-21 16:52:06.178,10.898939,2
30362,30362,2021-01-21 16:52:36.178,10.277818,2
30372,30372,2021-01-21 16:53:06.178,9.867361,2
30382,30382,2021-01-21 16:53:36.178,9.714478,2
30392,30392,2021-01-21 16:54:06.178,9.816436,2
30402,30402,2021-01-21 16:54:36.178,9.823689,2
30412,30412,2021-01-21 16:55:06.178,9.8734,2
30422,30422,2021-01-21 16:55:36.178,9.867607000000001,2
30432,30432,2021-01-21 16:56:06.178,9.949117,2
30442,30442,2021-01-21 16:56:36.178,9.920864,2
30452,30452,2021-01-21 16:57:06.178,9.98391,2
30462,30462,2021-01-21 16:57:36.178,9.917603999999999,2
30472,30472,2021-01-21 16:58:06.178,9.943383,2
30482,30482,2021-01-21 16:58:36.178,9.890907,2
30492,30492,2021-01-21 16:59:06.178,9.895512,2
30502,30502,2021-01-21 16:59:36.178,9.936244,2
30512,30512,2021-01-21 17:00:06.178,9.970972999999999,2
30522,30522,2021-01-21 17:00:36.178,9.884981,2
30532,30532,2021-01-21 17:01:06.178,9.914239,2
30542,30542,2021-01-21 17:01:36.178,9.897758999999999,2
30552,30552,2021-01-21 17:02:06.178,9.926192,2
30562,30562,2021-01-21 17:02:36.178,9.849764,2
30572,30572,2021-01-21 17:03:06.178,9.180602,2
30582,30582,2021-01-21 17:03:36.178,8.882029,2
30592,30592,2021-01-21 17:04:06.178,8.8263035,2
30602,30602,2021-01-21 17:04:36.178,8.866748,2
30612,30612,2021-01-21 17:05:06.178,8.75605,2
30622,30622,2021-01-21 17:05:36.178,8.749316,2
30632,30632,2021-01-21 17:06:06.178,8.754559,2
30642,30642,2021-01-21 17:06:36.178,8.796908,2
30652,30652,2021-01-21 17:07:06.178,8.840494,2
30662,30662,2021-01-21 17:07:36.178,8.872625,2
30672,30672,2021-01-21 17:08:06.178,8.875799,2
30682,30682,2021-01-21 17:08:36.178,8.909628999999999,2
30692,30692,2021-01-21 17:09:06.178,8.379107000000001,2
30702,30702,2021-01-21 17:09:36.178,8.021905,2
30712,30712,2021-01-21 17:10:06.178,7.8578663,2
30722,30722,2021-01-21 17:10:36.178,7.891290700000001,2
30732,30732,2021-01-21 17:11:06.178,7.814669599999999,2
30742,30742,2021-01-21 17:11:36.178,7.867708,2
30752,30752,2021-01-21 17:12:06.178,7.896551,2
30762,30762,2021-01-21 17:12:36.178,7.899721,2
30772,30772,2021-01-21 17:13:06.178,7.9163933,2
30782,30782,2021-01-21 17:13:36.178,7.981022,2
30792,30792,2021-01-21 17:14:06.178,7.9538565000000006,2
30802,30802,2021-01-21 17:14:36.178,8.017761,2
30812,30812,2021-01-21 17:15:06.178,8.016119,2
30822,30822,2021-01-21 17:15:36.178,7.990283,2
30832,30832,2021-01-21 17:16:06.178,7.935005,2
30842,30842,2021-01-21 17:16:36.178,7.896775999999999,2
30852,30852,2021-01-21 17:17:06.178,7.826002000000001,2
30862,30862,2021-01-21 17:17:36.178,7.915107000000001,2
30872,30872,2021-01-21 17:18:06.178,7.8988085,2
30882,30882,2021-01-21 17:18:36.178,7.926930400000001,2
30892,30892,2021-01-21 17:19:06.178,7.851369999999999,2
30902,30902,2021-01-21 17:19:36.178,7.87175,2
30912,30912,2021-01-21 17:20:06.178,7.8033056,2
30922,30922,2021-01-21 17:20:36.178,7.799327000000001,2
30932,30932,2021-01-21 17:21:06.178,7.814905,2
30942,30942,2021-01-21 17:21:36.178,7.753889999999999,2
30952,30952,2021-01-21 17:22:06.178,7.7786303,2
30962,30962,2021-01-21 17:22:36.178,7.773631,2
30972,30972,2021-01-21 17:23:06.178,7.836939,2
30982,30982,2021-01-21 17:23:36.178,7.223722500000001,2
30992,30992,2021-01-21 17:24:06.178,6.8747997000000005,2
31002,31002,2021-01-21 17:24:36.178,6.837141,2
31012,31012,2021-01-21 17:25:06.178,6.894431,2
31022,31022,2021-01-21 17:25:36.178,6.8763190000000005,2
31032,31032,2021-01-21 17:26:06.178,6.889701,2
31042,31042,2021-01-21 17:26:36.178,6.8969854999999995,2
31052,31052,2021-01-21 17:27:06.178,6.8732157,2
31062,31062,2021-01-21 17:27:36.178,6.8426065000000005,2
31072,31072,2021-01-21 17:28:06.178,6.874261,2
31082,31082,2021-01-21 17:28:36.178,6.8773913,2
31092,31092,2021-01-21 17:29:06.178,6.910751299999999,2
31102,31102,2021-01-21 17:29:36.178,6.927396300000001,2
31112,31112,2021-01-21 17:30:06.178,6.9294834000000005,2
31122,31122,2021-01-21 17:30:36.178,6.970175299999999,2
31132,31132,2021-01-21 17:31:06.178,6.971437,2
31142,31142,2021-01-21 17:31:36.178,6.886978999999999,2
31152,31152,2021-01-21 17:32:06.178,6.915690400000001,2
31162,31162,2021-01-21 17:32:36.178,6.8995147,2
31172,31172,2021-01-21 17:33:06.178,6.927427000000001,2
31182,31182,2021-01-21 17:33:36.178,6.852452,2
31192,31192,2021-01-21 17:34:06.178,6.8726673,2
31202,31202,2021-01-21 17:34:36.178,6.804798599999999,2
31212,31212,2021-01-21 17:35:06.178,6.8008565999999995,2
31222,31222,2021-01-21 17:35:36.178,6.816297500000001,2
31232,31232,2021-01-21 17:36:06.178,6.755837,2
31242,31242,2021-01-21 17:36:36.178,6.780349,2
31252,31252,2021-01-21 17:37:06.178,6.775394,2
31262,31262,2021-01-21 17:37:36.178,6.838139,2
31272,31272,2021-01-21 17:38:06.178,6.999998,2
31282,31282,2021-01-21 17:38:36.178,6.999998,2
31292,31292,2021-01-21 17:39:06.178,6.999998,2
31302,31302,2021-01-21 17:39:36.178,6.999998,2
31312,31312,2021-01-21 17:40:06.178,6.222342,2
31322,31322,2021-01-21 17:40:36.178,5.8759294,2
31332,31332,2021-01-21 17:41:06.178,5.838664,2
31342,31342,2021-01-21 17:41:36.178,5.89537,2
31352,31352,2021-01-21 17:42:06.178,5.877436,2
31362,31362,2021-01-21 17:42:36.178,5.890686,2
31372,31372,2021-01-21 17:43:06.178,5.8979006,2
31382,31382,2021-01-21 17:43:36.178,5.8743669999999995,2
31392,31392,2021-01-21 17:44:06.178,5.844075,2
31402,31402,2021-01-21 17:44:36.178,5.875401999999999,2
31412,31412,2021-01-21 17:45:06.178,5.8784985999999995,2
31422,31422,2021-01-21 17:45:36.178,5.911533400000001,2
31432,31432,2021-01-21 17:46:06.178,5.928021,2
31442,31442,2021-01-21 17:46:36.178,5.930093299999999,2
31452,31452,2021-01-21 17:47:06.178,5.9704223,2
31462,31462,2021-01-21 17:47:36.178,5.971672,2
31472,31472,2021-01-21 17:48:06.178,5.887989,2
31482,31482,2021-01-21 17:48:36.178,5.916423,2
31492,31492,2021-01-21 17:49:06.178,5.900402,2
31502,31502,2021-01-21 17:49:36.178,5.9280496,2
31512,31512,2021-01-21 17:50:06.178,5.8538175,2
31522,31522,2021-01-21 17:50:36.178,5.873828,2
31532,31532,2021-01-21 17:51:06.178,5.806684,2
31542,31542,2021-01-21 17:51:36.178,5.8027864000000005,2
31552,31552,2021-01-21 17:52:06.178,5.8180559999999995,2
31562,31562,2021-01-21 17:52:36.178,5.758296,2
31572,31572,2021-01-21 17:53:06.178,5.782516,2
31582,31582,2021-01-21 17:53:36.178,5.7776175,2
31592,31592,2021-01-21 17:54:06.178,5.839653,2
31602,31602,2021-01-21 17:54:36.178,6.000004,2
31612,31612,2021-01-21 17:55:06.178,6.000004,2
31622,31622,2021-01-21 17:55:36.178,6.000004,2
31632,31632,2021-01-21 17:56:06.178,5.2205395999999995,2
31642,31642,2021-01-21 17:56:36.178,4.877393700000001,2
31652,31652,2021-01-21 17:57:06.178,4.840642,2
31662,31662,2021-01-21 17:57:36.178,4.8965874000000005,2
31672,31672,2021-01-21 17:58:06.178,4.878888,2
31682,31682,2021-01-21 17:58:36.178,4.8919644,2
31692,31692,2021-01-21 17:59:06.178,4.8990860000000005,2
31702,31702,2021-01-21 17:59:36.178,4.8758593,2
31712,31712,2021-01-21 18:00:06.178,4.8459783,2
31722,31722,2021-01-21 18:00:36.178,4.87688,2
31732,31732,2021-01-21 18:01:06.178,4.879936,2
31742,31742,2021-01-21 18:01:36.178,4.912547,2
31752,31752,2021-01-21 18:02:06.178,4.928833,2
31762,31762,2021-01-21 18:02:36.178,4.930879,2
31772,31772,2021-01-21 18:03:06.178,4.9707417000000005,2
31782,31782,2021-01-21 18:03:36.178,4.9719777,2
31792,31792,2021-01-21 18:04:06.178,4.889303,2
31802,31802,2021-01-21 18:04:36.178,4.917377,2
31812,31812,2021-01-21 18:05:06.178,4.901557,2
31822,31822,2021-01-21 18:05:36.178,4.928861599999999,2
31832,31832,2021-01-21 18:06:06.178,4.8555856,2
31842,31842,2021-01-21 18:06:36.178,4.875325,2
31852,31852,2021-01-21 18:07:06.178,4.8091235,2
31862,31862,2021-01-21 18:07:36.178,4.8052839999999994,2
31872,31872,2021-01-21 18:08:06.178,4.8203278,2
31882,31882,2021-01-21 18:08:36.178,4.7614765,2
31892,31892,2021-01-21 18:09:06.178,4.7853184,2
31902,31902,2021-01-21 18:09:36.178,4.7804956,2
31912,31912,2021-01-21 18:10:06.178,4.841619000000001,2
31922,31922,2021-01-21 18:10:36.178,5.0,2
31932,31932,2021-01-21 18:11:06.178,5.0,2
31942,31942,2021-01-21 18:11:36.178,5.0,2
31952,31952,2021-01-21 18:12:06.178,5.0,2
31962,31962,2021-01-21 18:12:36.178,5.0,2
31972,31972,2021-01-21 18:13:06.178,5.0,2
31982,31982,2021-01-21 18:13:36.178,5.0,2
31992,31992,2021-01-21 18:14:06.178,5.0,2
32002,32002,2021-01-21 18:14:36.178,5.0,2
32012,32012,2021-01-21 18:15:06.178,5.0,2
32022,32022,2021-01-21 18:15:36.178,5.0,2
32032,32032,2021-01-21 18:16:06.178,5.0,2
32042,32042,2021-01-21 18:16:36.178,5.0,2
32052,32052,2021-01-21 18:17:06.178,5.0,2
32062,32062,2021-01-21 18:17:36.178,5.0,2
32072,32072,2021-01-21 18:18:06.178,5.0,2
32082,32082,2021-01-21 18:18:36.178,5.0,2
32092,32092,2021-01-21 18:19:06.178,5.0,2
32102,32102,2021-01-21 18:19:36.178,5.0,2
32112,32112,2021-01-21 18:20:06.178,4.218092400000001,2
32122,32122,2021-01-21 18:20:36.178,3.8793888,2
32132,32132,2021-01-21 18:21:06.178,3.843319,2
32142,32142,2021-01-21 18:21:36.178,3.8982362999999998,2
32152,32152,2021-01-21 18:22:06.178,3.8808508,2
32162,32162,2021-01-21 18:22:36.178,3.893693,2
32172,32172,2021-01-21 18:23:06.178,3.9006906000000003,2
32182,32182,2021-01-21 18:23:36.178,3.8778758,2
32192,32192,2021-01-21 18:24:06.178,3.8485503,2
32202,32202,2021-01-21 18:24:36.178,3.8788775999999996,2
32212,32212,2021-01-21 18:25:06.178,3.8818797999999997,2
32222,32222,2021-01-21 18:25:36.178,3.9139190000000004,2
32232,32232,2021-01-21 18:26:06.178,3.9299315999999997,2
32242,32242,2021-01-21 18:26:36.178,3.9319443999999995,2
32252,32252,2021-01-21 18:27:06.178,3.9711752000000002,2
32262,32262,2021-01-21 18:27:36.178,3.972393,2
32272,32272,2021-01-21 18:28:06.178,3.8910809,2
32282,32282,2021-01-21 18:28:36.178,3.9186682999999998,2
32292,32292,2021-01-21 18:29:06.178,3.9031190000000002,2
32302,32302,2021-01-21 18:29:36.178,3.9299626000000005,2
32312,32312,2021-01-21 18:30:06.178,3.8579745,2
32322,32322,2021-01-21 18:30:36.178,3.8773480000000005,2
32332,32332,2021-01-21 18:31:06.178,3.8124160000000002,2
32342,32342,2021-01-21 18:31:36.178,3.8086557,2
32352,32352,2021-01-21 18:32:06.178,3.8233953,2
32362,32362,2021-01-21 18:32:36.178,3.765767,2
32372,32372,2021-01-21 18:33:06.178,3.7891006000000003,2
32382,32382,2021-01-21 18:33:36.178,3.7843814,2
32392,32392,2021-01-21 18:34:06.178,3.8442754999999997,2
32402,32402,2021-01-21 18:34:36.178,3.9999971,2
32412,32412,2021-01-21 18:35:06.178,3.9999971,2
32422,32422,2021-01-21 18:35:36.178,3.9999971,2
32432,32432,2021-01-21 18:36:06.178,3.9999971,2
32442,32442,2021-01-21 18:36:36.178,3.9999971,2
32452,32452,2021-01-21 18:37:06.178,3.9999971,2
32462,32462,2021-01-21 18:37:36.178,3.9999971,2
32472,32472,2021-01-21 18:38:06.178,3.9999971,2
32482,32482,2021-01-21 18:38:36.178,3.9999971,2
32492,32492,2021-01-21 18:39:06.178,3.9999971,2
32502,32502,2021-01-21 18:39:36.178,3.9999971,2
32512,32512,2021-01-21 18:40:06.178,3.9999971,2
32522,32522,2021-01-21 18:40:36.178,3.9999971,2
32532,32532,2021-01-21 18:41:06.178,3.9999971,2
32542,32542,2021-01-21 18:41:36.178,3.9999971,2
32552,32552,2021-01-21 18:42:06.178,3.9999971,2
32562,32562,2021-01-21 18:42:36.178,3.9999971,2
32572,32572,2021-01-21 18:43:06.178,3.9999971,2
32582,32582,2021-01-21 18:43:36.178,3.9999971,2
32592,32592,2021-01-21 18:44:06.178,3.9999971,2
32602,32602,2021-01-21 18:44:36.178,3.9999971,2
32612,32612,2021-01-21 18:45:06.178,3.9999971,2
32622,32622,2021-01-21 18:45:36.178,3.9999971,2
32632,32632,2021-01-21 18:46:06.178,3.9999971,2
32642,32642,2021-01-21 18:46:36.178,3.9999971,2
32652,32652,2021-01-21 18:47:06.178,3.9999971,2
32662,32662,2021-01-21 18:47:36.178,3.9999971,2
32672,32672,2021-01-21 18:48:06.178,3.9999971,2
32682,32682,2021-01-21 18:48:36.178,3.9999971,2
32692,32692,2021-01-21 18:49:06.178,3.9999971,2
32702,32702,2021-01-21 18:49:36.178,3.9999971,2
32712,32712,2021-01-21 18:50:06.178,3.9999971,2
32722,32722,2021-01-21 18:50:36.178,3.9999971,2
32732,32732,2021-01-21 18:51:06.178,3.9999971,2
32742,32742,2021-01-21 18:51:36.178,3.9999971,2
32752,32752,2021-01-21 18:52:06.178,3.9999971,2
32762,32762,2021-01-21 18:52:36.178,3.9999971,2
32772,32772,2021-01-21 18:53:06.178,3.9999971,2
32782,32782,2021-01-21 18:53:36.178,3.9999971,2
32792,32792,2021-01-21 18:54:06.178,3.9999971,2
32802,32802,2021-01-21 18:54:36.178,3.9999971,2
32812,32812,2021-01-21 18:55:06.178,3.2145715,2
32822,32822,2021-01-21 18:55:36.178,2.8822297999999997,2
32832,32832,2021-01-21 18:56:06.178,2.8471324,2
32842,32842,2021-01-21 18:56:36.178,2.9005888,2
32852,32852,2021-01-21 18:57:06.178,2.8836508,2
32862,32862,2021-01-21 18:57:36.178,2.8961618,2
32872,32872,2021-01-21 18:58:06.178,2.9029813,2
32882,32882,2021-01-21 18:58:36.178,2.8807547000000002,2
32892,32892,2021-01-21 18:59:06.178,2.85222,2
32902,32902,2021-01-21 18:59:36.178,2.8817303,2
32912,32912,2021-01-21 19:00:06.178,2.8846529,2
32922,32922,2021-01-21 19:00:36.178,2.91588,2
32932,32932,2021-01-21 19:01:06.178,2.9315027999999996,2
32942,32942,2021-01-21 19:01:36.178,2.933468,2
32952,32952,2021-01-21 19:02:06.178,2.9717952999999997,2
32962,32962,2021-01-21 19:02:36.178,2.9729853,2
32972,32972,2021-01-21 19:03:06.178,2.8936145,2
32982,32982,2021-01-21 19:03:36.178,2.920511,2
32992,32992,2021-01-21 19:04:06.178,2.905347,2
33002,33002,2021-01-21 19:04:36.178,2.931531,2
33012,33012,2021-01-21 19:05:06.178,2.8613882,2
33022,33022,2021-01-21 19:05:36.178,2.8802462,2
33032,33032,2021-01-21 19:06:06.178,2.8171155,2
33042,33042,2021-01-21 19:06:36.178,2.8134634,2
33052,33052,2021-01-21 19:07:06.178,2.8277793,2
33062,33062,2021-01-21 19:07:36.178,2.7718785,2
33072,33072,2021-01-21 19:08:06.178,2.794494,2
33082,33082,2021-01-21 19:08:36.178,2.7899141,2
33092,33092,2021-01-21 19:09:06.178,2.8480613,2
33102,33102,2021-01-21 19:09:36.178,3.0000023999999996,2
33112,33112,2021-01-21 19:10:06.178,3.0000023999999996,2
33122,33122,2021-01-21 19:10:36.178,3.0000023999999996,2
33132,33132,2021-01-21 19:11:06.178,3.0000023999999996,2
33142,33142,2021-01-21 19:11:36.178,3.0000023999999996,2
33152,33152,2021-01-21 19:12:06.178,3.0000023999999996,2
33162,33162,2021-01-21 19:12:36.178,3.0000023999999996,2
33172,33172,2021-01-21 19:13:06.178,3.0000023999999996,2
33182,33182,2021-01-21 19:13:36.178,3.0000023999999996,2
33192,33192,2021-01-21 19:14:06.178,3.0000023999999996,2
33202,33202,2021-01-21 19:14:36.178,3.0000023999999996,2
33212,33212,2021-01-21 19:15:06.178,3.0000023999999996,2
33222,33222,2021-01-21 19:15:36.178,3.0000023999999996,2
33232,33232,2021-01-21 19:16:06.178,3.0000023999999996,2
33242,33242,2021-01-21 19:16:36.178,3.0000023999999996,2
33252,33252,2021-01-21 19:17:06.178,3.0000023999999996,2
33262,33262,2021-01-21 19:17:36.178,3.0000023999999996,2
33272,33272,2021-01-21 19:18:06.178,3.0000023999999996,2
33282,33282,2021-01-21 19:18:36.178,3.0000023999999996,2
33292,33292,2021-01-21 19:19:06.178,3.0000023999999996,2
33302,33302,2021-01-21 19:19:36.178,3.0000023999999996,2
33312,33312,2021-01-21 19:20:06.178,3.0000023999999996,2
33322,33322,2021-01-21 19:20:36.178,3.0000023999999996,2
33332,33332,2021-01-21 19:21:06.178,3.0000023999999996,2
33342,33342,2021-01-21 19:21:36.178,3.0000023999999996,2
33352,33352,2021-01-21 19:22:06.178,3.0000023999999996,2
33362,33362,2021-01-21 19:22:36.178,3.0000023999999996,2
33372,33372,2021-01-21 19:23:06.178,3.0000023999999996,2
33382,33382,2021-01-21 19:23:36.178,3.0000023999999996,2
33392,33392,2021-01-21 19:24:06.178,3.0000023999999996,2
33402,33402,2021-01-21 19:24:36.178,3.0000023999999996,2
33412,33412,2021-01-21 19:25:06.178,3.0000023999999996,2
33422,33422,2021-01-21 19:25:36.178,3.0000023999999996,2
33432,33432,2021-01-21 19:26:06.178,3.0000023999999996,2
33442,33442,2021-01-21 19:26:36.178,3.0000023999999996,2
33452,33452,2021-01-21 19:27:06.178,3.0000023999999996,2
33462,33462,2021-01-21 19:27:36.178,3.0000023999999996,2
33472,33472,2021-01-21 19:28:06.178,3.0000023999999996,2
33482,33482,2021-01-21 19:28:36.178,3.0000023999999996,2
33492,33492,2021-01-21 19:29:06.178,3.0000023999999996,2
33502,33502,2021-01-21 19:29:36.178,3.0000023999999996,2
33512,33512,2021-01-21 19:30:06.178,3.0000023999999996,2
33522,33522,2021-01-21 19:30:36.178,3.0000023999999996,2
33532,33532,2021-01-21 19:31:06.178,3.0000023999999996,2
33542,33542,2021-01-21 19:31:36.178,3.0000023999999996,2
33552,33552,2021-01-21 19:32:06.178,3.0000023999999996,2
33562,33562,2021-01-21 19:32:36.178,3.0000023999999996,2
33572,33572,2021-01-21 19:33:06.178,3.0000023999999996,2
33582,33582,2021-01-21 19:33:36.178,3.0000023999999996,2
33592,33592,2021-01-21 19:34:06.178,3.0000023999999996,2
33602,33602,2021-01-21 19:34:36.178,3.0000023999999996,2
33612,33612,2021-01-21 19:35:06.178,3.0000023999999996,2
33622,33622,2021-01-21 19:35:36.178,3.0000023999999996,2
33632,33632,2021-01-21 19:36:06.178,3.0000023999999996,2
33642,33642,2021-01-21 19:36:36.178,3.0000023999999996,2
33652,33652,2021-01-21 19:37:06.178,3.0000023999999996,2
33662,33662,2021-01-21 19:37:36.178,3.0000023999999996,2
33672,33672,2021-01-21 19:38:06.178,3.0000023999999996,2
33682,33682,2021-01-21 19:38:36.178,3.0000023999999996,2
33692,33692,2021-01-21 19:39:06.178,3.0000023999999996,2
33702,33702,2021-01-21 19:39:36.178,3.0000023999999996,2
33712,33712,2021-01-21 19:40:06.178,3.0000023999999996,2
33722,33722,2021-01-21 19:40:36.178,3.0000023999999996,2
33732,33732,2021-01-21 19:41:06.178,3.0000023999999996,2
33742,33742,2021-01-21 19:41:36.178,3.0000023999999996,2
33752,33752,2021-01-21 19:42:06.178,3.0000023999999996,2
33762,33762,2021-01-21 19:42:36.178,3.0000023999999996,2
33772,33772,2021-01-21 19:43:06.178,3.0000023999999996,2
33782,33782,2021-01-21 19:43:36.178,3.0000023999999996,2
33792,33792,2021-01-21 19:44:06.178,3.0000023999999996,2
33802,33802,2021-01-21 19:44:36.178,3.0000023999999996,2
33812,33812,2021-01-21 19:45:06.178,3.0000023999999996,2
33822,33822,2021-01-21 19:45:36.178,3.0000023999999996,2
33832,33832,2021-01-21 19:46:06.178,3.0000023999999996,2
33842,33842,2021-01-21 19:46:36.178,2.209061,2
33852,33852,2021-01-21 19:47:06.178,1.8866078999999998,2
33862,33862,2021-01-21 19:47:36.178,1.8530123,2
33872,33872,2021-01-21 19:48:06.178,1.9042241999999998,2
33882,33882,2021-01-21 19:48:36.178,1.8879766,2
33892,33892,2021-01-21 19:49:06.178,1.8999765,2
33902,33902,2021-01-21 19:49:36.178,1.9065218000000002,2
33912,33912,2021-01-21 19:50:06.178,1.8852011999999998,2
33922,33922,2021-01-21 19:50:36.178,1.8578799,2
33932,33932,2021-01-21 19:51:06.178,1.8861358,2
33942,33942,2021-01-21 19:51:36.178,1.8889375,2
33952,33952,2021-01-21 19:52:06.178,1.9189115,2
33962,33962,2021-01-21 19:52:36.178,1.9339336999999999,2
33972,33972,2021-01-21 19:53:06.178,1.9358238999999997,2
33982,33982,2021-01-21 19:53:36.178,1.9727558999999997,2
33992,33992,2021-01-21 19:54:06.178,1.9739044,2
34002,34002,2021-01-21 19:54:36.178,1.8975327000000002,2
34012,34012,2021-01-21 19:55:06.178,1.9233631999999998,2
34022,34022,2021-01-21 19:55:36.178,1.9087938999999998,2
34032,34032,2021-01-21 19:56:06.178,1.9339612000000002,2
34042,34042,2021-01-21 19:56:36.178,1.8666496,2
34052,34052,2021-01-21 19:57:06.178,1.8847098000000002,2
34062,34062,2021-01-21 19:57:36.178,1.8243458,2
34072,34072,2021-01-21 19:58:06.178,1.8208631999999998,2
34082,34082,2021-01-21 19:58:36.178,1.8345213,2
34092,34092,2021-01-21 19:59:06.178,1.7812675999999998,2
34102,34102,2021-01-21 19:59:36.178,1.8027848999999998,2
34112,34112,2021-01-21 20:00:06.178,1.7984263999999999,2
34122,34122,2021-01-21 20:00:36.178,1.8539029999999999,2
34132,34132,2021-01-21 20:01:06.178,1.999999,2
34142,34142,2021-01-21 20:01:36.178,1.999999,2
34152,34152,2021-01-21 20:02:06.178,1.999999,2
34162,34162,2021-01-21 20:02:36.178,1.999999,2
34172,34172,2021-01-21 20:03:06.178,1.999999,2
34182,34182,2021-01-21 20:03:36.178,1.999999,2
34192,34192,2021-01-21 20:04:06.178,1.999999,2
34202,34202,2021-01-21 20:04:36.178,1.999999,2
34212,34212,2021-01-21 20:05:06.178,1.999999,2
34222,34222,2021-01-21 20:05:36.178,1.999999,2
34232,34232,2021-01-21 20:06:06.178,1.999999,2
34242,34242,2021-01-21 20:06:36.178,1.999999,2
34252,34252,2021-01-21 20:07:06.178,1.999999,2
34262,34262,2021-01-21 20:07:36.178,1.999999,2
34272,34272,2021-01-21 20:08:06.178,1.999999,2
34282,34282,2021-01-21 20:08:36.178,1.999999,2
34292,34292,2021-01-21 20:09:06.178,1.999999,2
34302,34302,2021-01-21 20:09:36.178,1.999999,2
34312,34312,2021-01-21 20:10:06.178,1.999999,2
34322,34322,2021-01-21 20:10:36.178,1.999999,2
34332,34332,2021-01-21 20:11:06.178,1.999999,2
34342,34342,2021-01-21 20:11:36.178,1.999999,2
34352,34352,2021-01-21 20:12:06.178,1.999999,2
34362,34362,2021-01-21 20:12:36.178,1.999999,2
34372,34372,2021-01-21 20:13:06.178,1.999999,2
34382,34382,2021-01-21 20:13:36.178,1.999999,2
34392,34392,2021-01-21 20:14:06.178,1.999999,2
34402,34402,2021-01-21 20:14:36.178,1.999999,2
34412,34412,2021-01-21 20:15:06.178,1.999999,2
34422,34422,2021-01-21 20:15:36.178,1.999999,2
34432,34432,2021-01-21 20:16:06.178,1.999999,2
34442,34442,2021-01-21 20:16:36.178,1.999999,2
34452,34452,2021-01-21 20:17:06.178,1.999999,2
34462,34462,2021-01-21 20:17:36.178,1.999999,2
34472,34472,2021-01-21 20:18:06.178,1.999999,2
34482,34482,2021-01-21 20:18:36.178,1.999999,2
34492,34492,2021-01-21 20:19:06.178,1.999999,2
34502,34502,2021-01-21 20:19:36.178,1.999999,2
34512,34512,2021-01-21 20:20:06.178,1.999999,2
34522,34522,2021-01-21 20:20:36.178,1.999999,2
34532,34532,2021-01-21 20:21:06.178,1.999999,2
34542,34542,2021-01-21 20:21:36.178,1.999999,2
34552,34552,2021-01-21 20:22:06.178,1.999999,2
34562,34562,2021-01-21 20:22:36.178,1.999999,2
34572,34572,2021-01-21 20:23:06.178,1.999999,2
34582,34582,2021-01-21 20:23:36.178,1.999999,2
34592,34592,2021-01-21 20:24:06.178,1.999999,2
34602,34602,2021-01-21 20:24:36.178,1.999999,2
34612,34612,2021-01-21 20:25:06.178,1.999999,2
34622,34622,2021-01-21 20:25:36.178,1.999999,2
34632,34632,2021-01-21 20:26:06.178,1.999999,2
34642,34642,2021-01-21 20:26:36.178,1.999999,2
34652,34652,2021-01-21 20:27:06.178,1.999999,2
34662,34662,2021-01-21 20:27:36.178,1.999999,2
34672,34672,2021-01-21 20:28:06.178,1.999999,2
34682,34682,2021-01-21 20:28:36.178,1.999999,2
34692,34692,2021-01-21 20:29:06.178,1.999999,2
34702,34702,2021-01-21 20:29:36.178,1.999999,2
34712,34712,2021-01-21 20:30:06.178,1.999999,2
34722,34722,2021-01-21 20:30:36.178,1.999999,2
34732,34732,2021-01-21 20:31:06.178,1.999999,2
34742,34742,2021-01-21 20:31:36.178,1.999999,2
34752,34752,2021-01-21 20:32:06.178,1.999999,2
34762,34762,2021-01-21 20:32:36.178,1.999999,2
34772,34772,2021-01-21 20:33:06.178,1.999999,2
34782,34782,2021-01-21 20:33:36.178,1.999999,2
34792,34792,2021-01-21 20:34:06.178,1.999999,2
34802,34802,2021-01-21 20:34:36.178,1.999999,2
34812,34812,2021-01-21 20:35:06.178,1.999999,2
34822,34822,2021-01-21 20:35:36.178,1.999999,2
34832,34832,2021-01-21 20:36:06.178,1.999999,2
34842,34842,2021-01-21 20:36:36.178,1.999999,2
34852,34852,2021-01-21 20:37:06.178,1.999999,2
34862,34862,2021-01-21 20:37:36.178,1.999999,2
34872,34872,2021-01-21 20:38:06.178,1.999999,2
34882,34882,2021-01-21 20:38:36.178,1.999999,2
34892,34892,2021-01-21 20:39:06.178,1.999999,2
34902,34902,2021-01-21 20:39:36.178,1.999999,2
34912,34912,2021-01-21 20:40:06.178,1.999999,2
34922,34922,2021-01-21 20:40:36.178,1.999999,2
34932,34932,2021-01-21 20:41:06.178,1.999999,2
34942,34942,2021-01-21 20:41:36.178,1.999999,2
34952,34952,2021-01-21 20:42:06.178,1.999999,2
34962,34962,2021-01-21 20:42:36.178,1.999999,2
34972,34972,2021-01-21 20:43:06.178,1.999999,2
34982,34982,2021-01-21 20:43:36.178,1.999999,2
34992,34992,2021-01-21 20:44:06.178,1.999999,2
35002,35002,2021-01-21 20:44:36.178,1.999999,2
35012,35012,2021-01-21 20:45:06.178,1.999999,2
35022,35022,2021-01-21 20:45:36.178,1.999999,2
35032,35032,2021-01-21 20:46:06.178,1.999999,2
35042,35042,2021-01-21 20:46:36.178,1.999999,2
35052,35052,2021-01-21 20:47:06.178,1.999999,2
35062,35062,2021-01-21 20:47:36.178,1.999999,2
35072,35072,2021-01-21 20:48:06.178,1.999999,2
35082,35082,2021-01-21 20:48:36.178,1.999999,2
35092,35092,2021-01-21 20:49:06.178,1.999999,2
35102,35102,2021-01-21 20:49:36.178,1.999999,2
35112,35112,2021-01-21 20:50:06.178,1.999999,2
35122,35122,2021-01-21 20:50:36.178,1.999999,2
35132,35132,2021-01-21 20:51:06.178,1.999999,2
35142,35142,2021-01-21 20:51:36.178,1.999999,2
35152,35152,2021-01-21 20:52:06.178,1.999999,2
35162,35162,2021-01-21 20:52:36.178,1.999999,2
35172,35172,2021-01-21 20:53:06.178,1.999999,2
35182,35182,2021-01-21 20:53:36.178,1.999999,2
35192,35192,2021-01-21 20:54:06.178,1.999999,2
35202,35202,2021-01-21 20:54:36.178,1.999999,2
35212,35212,2021-01-21 20:55:06.178,1.999999,2
35222,35222,2021-01-21 20:55:36.178,1.999999,2
35232,35232,2021-01-21 20:56:06.178,1.999999,2
35242,35242,2021-01-21 20:56:36.178,1.999999,2
35252,35252,2021-01-21 20:57:06.178,1.999999,2
35262,35262,2021-01-21 20:57:36.178,1.999999,2
35272,35272,2021-01-21 20:58:06.178,1.999999,2
35282,35282,2021-01-21 20:58:36.178,1.999999,2
35292,35292,2021-01-21 20:59:06.178,1.999999,2
35302,35302,2021-01-21 20:59:36.178,1.999999,2
35312,35312,2021-01-21 21:00:06.178,1.999999,2
35322,35322,2021-01-21 21:00:36.178,1.999999,2
35332,35332,2021-01-21 21:01:06.178,1.999999,2
35342,35342,2021-01-21 21:01:36.178,1.999999,2
35352,35352,2021-01-21 21:02:06.178,1.999999,2
35362,35362,2021-01-21 21:02:36.178,1.999999,2
35372,35372,2021-01-21 21:03:06.178,1.999999,2
35382,35382,2021-01-21 21:03:36.178,1.999999,2
35392,35392,2021-01-21 21:04:06.178,1.999999,2
35402,35402,2021-01-21 21:04:36.178,1.999999,2
35412,35412,2021-01-21 21:05:06.178,1.999999,2
35422,35422,2021-01-21 21:05:36.178,1.999999,2
35432,35432,2021-01-21 21:06:06.178,1.999999,2
35442,35442,2021-01-21 21:06:36.178,1.999999,2
35452,35452,2021-01-21 21:07:06.178,1.999999,2
35462,35462,2021-01-21 21:07:36.178,1.999999,2
35472,35472,2021-01-21 21:08:06.178,1.999999,2
35482,35482,2021-01-21 21:08:36.178,1.999999,2
35492,35492,2021-01-21 21:09:06.178,1.999999,2
35502,35502,2021-01-21 21:09:36.178,1.999999,2
35512,35512,2021-01-21 21:10:06.178,1.999999,2
35522,35522,2021-01-21 21:10:36.178,1.999999,2
35532,35532,2021-01-21 21:11:06.178,1.999999,2
35542,35542,2021-01-21 21:11:36.178,1.999999,2
35552,35552,2021-01-21 21:12:06.178,1.999999,2
35562,35562,2021-01-21 21:12:36.178,1.999999,2
35572,35572,2021-01-21 21:13:06.178,1.999999,2
35582,35582,2021-01-21 21:13:36.178,1.999999,2
35592,35592,2021-01-21 21:14:06.178,1.999999,2
35602,35602,2021-01-21 21:14:36.178,1.999999,2
35612,35612,2021-01-21 21:15:06.178,1.999999,2
35622,35622,2021-01-21 21:15:36.178,1.999999,2
35632,35632,2021-01-21 21:16:06.178,1.999999,2
35642,35642,2021-01-21 21:16:36.178,1.999999,2
35652,35652,2021-01-21 21:17:06.178,1.999999,2
35662,35662,2021-01-21 21:17:36.178,1.999999,2
35672,35672,2021-01-21 21:18:06.178,1.999999,2
35682,35682,2021-01-21 21:18:36.178,1.999999,2
35692,35692,2021-01-21 21:19:06.178,1.999999,2
35702,35702,2021-01-21 21:19:36.178,1.999999,2
35712,35712,2021-01-21 21:20:06.178,1.999999,2
35722,35722,2021-01-21 21:20:36.178,1.999999,2
35732,35732,2021-01-21 21:21:06.178,1.999999,2
35742,35742,2021-01-21 21:21:36.178,1.999999,2
35752,35752,2021-01-21 21:22:06.178,1.999999,2
35762,35762,2021-01-21 21:22:36.178,1.999999,2
35772,35772,2021-01-21 21:23:06.178,1.999999,2
35782,35782,2021-01-21 21:23:36.178,1.999999,2
35792,35792,2021-01-21 21:24:06.178,1.999999,2
35802,35802,2021-01-21 21:24:36.178,1.999999,2
35812,35812,2021-01-21 21:25:06.178,1.999999,2
35822,35822,2021-01-21 21:25:36.178,1.999999,2
35832,35832,2021-01-21 21:26:06.178,1.999999,2
35842,35842,2021-01-21 21:26:36.178,1.999999,2
35852,35852,2021-01-21 21:27:06.178,1.999999,2
35862,35862,2021-01-21 21:27:36.178,1.999999,2
35872,35872,2021-01-21 21:28:06.178,1.999999,2
35882,35882,2021-01-21 21:28:36.178,1.999999,2
35892,35892,2021-01-21 21:29:06.178,1.999999,2
35902,35902,2021-01-21 21:29:36.178,1.999999,2
35912,35912,2021-01-21 21:30:06.178,1.999999,2
35922,35922,2021-01-21 21:30:36.178,1.999999,2
35932,35932,2021-01-21 21:31:06.178,1.999999,2
35942,35942,2021-01-21 21:31:36.178,1.999999,2
35952,35952,2021-01-21 21:32:06.178,1.999999,2
35962,35962,2021-01-21 21:32:36.178,1.999999,2
35972,35972,2021-01-21 21:33:06.178,1.999999,2
35982,35982,2021-01-21 21:33:36.178,1.999999,2
35992,35992,2021-01-21 21:34:06.178,1.999999,2
36002,36002,2021-01-21 21:34:36.178,1.999999,2
36012,36012,2021-01-21 21:35:06.178,1.999999,2
36022,36022,2021-01-21 21:35:36.178,1.999999,2
36032,36032,2021-01-21 21:36:06.178,1.999999,2
36042,36042,2021-01-21 21:36:36.178,1.999999,2
36052,36052,2021-01-21 21:37:06.178,1.999999,2
36062,36062,2021-01-21 21:37:36.178,1.999999,2
36072,36072,2021-01-21 21:38:06.178,1.999999,2
36082,36082,2021-01-21 21:38:36.178,1.999999,2
36092,36092,2021-01-21 21:39:06.178,1.999999,2
36102,36102,2021-01-21 21:39:36.178,1.999999,2
36112,36112,2021-01-21 21:40:06.178,1.999999,2
36122,36122,2021-01-21 21:40:36.178,1.999999,2
36132,36132,2021-01-21 21:41:06.178,1.999999,2
36142,36142,2021-01-21 21:41:36.178,1.999999,2
36152,36152,2021-01-21 21:42:06.178,1.999999,2
36162,36162,2021-01-21 21:42:36.178,1.999999,2
36172,36172,2021-01-21 21:43:06.178,1.999999,2
36182,36182,2021-01-21 21:43:36.178,1.999999,2
36192,36192,2021-01-21 21:44:06.178,1.999999,2
36202,36202,2021-01-21 21:44:36.178,1.999999,2
36212,36212,2021-01-21 21:45:06.178,1.999999,2
36222,36222,2021-01-21 21:45:36.178,1.999999,2
36232,36232,2021-01-21 21:46:06.178,1.999999,2
36242,36242,2021-01-21 21:46:36.178,1.999999,2
36252,36252,2021-01-21 21:47:06.178,1.999999,2
36262,36262,2021-01-21 21:47:36.178,1.999999,2
36272,36272,2021-01-21 21:48:06.178,1.999999,2
36282,36282,2021-01-21 21:48:36.178,1.999999,2
36292,36292,2021-01-21 21:49:06.178,1.999999,2
36302,36302,2021-01-21 21:49:36.178,1.999999,2
36312,36312,2021-01-21 21:50:06.178,1.999999,2
36322,36322,2021-01-21 21:50:36.178,1.999999,2
36332,36332,2021-01-21 21:51:06.178,1.999999,2
36342,36342,2021-01-21 21:51:36.178,1.999999,2
36352,36352,2021-01-21 21:52:06.178,1.999999,2
36362,36362,2021-01-21 21:52:36.178,1.999999,2
36372,36372,2021-01-21 21:53:06.178,1.999999,2
36382,36382,2021-01-21 21:53:36.178,1.999999,2
36392,36392,2021-01-21 21:54:06.178,1.999999,2
36402,36402,2021-01-21 21:54:36.178,1.999999,2
36412,36412,2021-01-21 21:55:06.178,1.999999,2
36422,36422,2021-01-21 21:55:36.178,1.999999,2
36432,36432,2021-01-21 21:56:06.178,1.999999,2
36442,36442,2021-01-21 21:56:36.178,1.999999,2
36452,36452,2021-01-21 21:57:06.178,1.999999,2
36462,36462,2021-01-21 21:57:36.178,1.999999,2
36472,36472,2021-01-21 21:58:06.178,1.999999,2
36482,36482,2021-01-21 21:58:36.178,1.1992021000000002,2
36492,36492,2021-01-21 21:59:06.178,1.5087979,2
36502,36502,2021-01-21 21:59:36.178,1.6979491999999998,2
36512,36512,2021-01-21 22:00:06.178,1.9537485,2
36522,36522,2021-01-21 22:00:36.178,1.8992379000000001,2
36532,36532,2021-01-21 22:01:06.178,1.9160473000000002,2
36542,36542,2021-01-21 22:01:36.178,1.9197148999999998,2
36552,36552,2021-01-21 22:02:06.178,1.3538449,2
36562,36562,2021-01-21 22:02:36.178,0.86578727,2
36572,36572,2021-01-21 22:03:06.178,0.9777911,2
36582,36582,2021-01-21 22:03:36.178,0.8069991,2
36592,36592,2021-01-21 22:04:06.178,0.9061712,2
36602,36602,2021-01-21 22:04:36.178,0.89970434,2
36612,36612,2021-01-21 22:05:06.178,0.91805696,2
36622,36622,2021-01-21 22:05:36.178,0.9199215000000001,2
36632,36632,2021-01-21 22:06:06.178,0.9247155,2
36642,36642,2021-01-21 22:06:36.178,0.9014251,2
36652,36652,2021-01-21 22:07:06.178,0.9063828000000002,2
36662,36662,2021-01-21 22:07:36.178,0.9150604999999999,2
36672,36672,2021-01-21 22:08:06.178,0.93727994,2
36682,36682,2021-01-21 22:08:36.178,0.92633986,2
36692,36692,2021-01-21 22:09:06.178,1.0189946,2
36702,36702,2021-01-21 22:09:36.178,0.99449885,2
36712,36712,2021-01-21 22:10:06.178,0.89271235,2
36722,36722,2021-01-21 22:10:36.178,0.9265553,2
36732,36732,2021-01-21 22:11:06.178,0.8807193000000001,2
36742,36742,2021-01-21 22:11:36.178,0.85294616,2
36752,36752,2021-01-21 22:12:06.178,0.8609021000000001,2
36762,36762,2021-01-21 22:12:36.178,0.9437336,2
36772,36772,2021-01-21 22:13:06.178,0.8789176,2
36782,36782,2021-01-21 22:13:36.178,0.8337635,2
36792,36792,2021-01-21 22:14:06.178,0.84629035,2
36802,36802,2021-01-21 22:14:36.178,0.79758954,2
36812,36812,2021-01-21 22:15:06.178,0.8172219000000001,2
36822,36822,2021-01-21 22:15:36.178,0.8132391999999999,2
36832,36832,2021-01-21 22:16:06.178,0.8641068000000001,2
36842,36842,2021-01-21 22:16:36.178,1.0000007,2
36852,36852,2021-01-21 22:17:06.178,1.0000007,2
36862,36862,2021-01-21 22:17:36.178,1.0000007,2
36872,36872,2021-01-21 22:18:06.178,1.0000007,2
36882,36882,2021-01-21 22:18:36.178,1.0000007,2
36892,36892,2021-01-21 22:19:06.178,1.0000007,2
36902,36902,2021-01-21 22:19:36.178,1.0000007,2
36912,36912,2021-01-21 22:20:06.178,1.0000007,2
36922,36922,2021-01-21 22:20:36.178,1.0000007,2
36932,36932,2021-01-21 22:21:06.178,1.0000007,2
36942,36942,2021-01-21 22:21:36.178,1.0000007,2
36952,36952,2021-01-21 22:22:06.178,1.0000007,2
36962,36962,2021-01-21 22:22:36.178,1.0000007,2
36972,36972,2021-01-21 22:23:06.178,1.0000007,2
36982,36982,2021-01-21 22:23:36.178,1.0000007,2
36992,36992,2021-01-21 22:24:06.178,1.0000007,2
37002,37002,2021-01-21 22:24:36.178,1.0000007,2
37012,37012,2021-01-21 22:25:06.178,1.0000007,2
37022,37022,2021-01-21 22:25:36.178,1.0000007,2
37032,37032,2021-01-21 22:26:06.178,1.0000007,2
37042,37042,2021-01-21 22:26:36.178,1.0000007,2
37052,37052,2021-01-21 22:27:06.178,1.0000007,2
37062,37062,2021-01-21 22:27:36.178,1.0000007,2
37072,37072,2021-01-21 22:28:06.178,1.0000007,2
37082,37082,2021-01-21 22:28:36.178,1.0000007,2
37092,37092,2021-01-21 22:29:06.178,1.0000007,2
37102,37102,2021-01-21 22:29:36.178,1.0000007,2
37112,37112,2021-01-21 22:30:06.178,1.0000007,2
37122,37122,2021-01-21 22:30:36.178,1.0000007,2
37132,37132,2021-01-21 22:31:06.178,1.0000007,2
37142,37142,2021-01-21 22:31:36.178,1.0000007,2
37152,37152,2021-01-21 22:32:06.178,1.0000007,2
37162,37162,2021-01-21 22:32:36.178,1.0000007,2
37172,37172,2021-01-21 22:33:06.178,1.0000007,2
37182,37182,2021-01-21 22:33:36.178,1.0000007,2
37192,37192,2021-01-21 22:34:06.178,1.0000007,2
37202,37202,2021-01-21 22:34:36.178,1.0000007,2
37212,37212,2021-01-21 22:35:06.178,1.0000007,2
37222,37222,2021-01-21 22:35:36.178,1.0000007,2
37232,37232,2021-01-21 22:36:06.178,1.0000007,2
37242,37242,2021-01-21 22:36:36.178,1.0000007,2
37252,37252,2021-01-21 22:37:06.178,1.0000007,2
37262,37262,2021-01-21 22:37:36.178,1.0000007,2
37272,37272,2021-01-21 22:38:06.178,1.0000007,2
37282,37282,2021-01-21 22:38:36.178,1.0000007,2
37292,37292,2021-01-21 22:39:06.178,1.0000007,2
37302,37302,2021-01-21 22:39:36.178,1.0000007,2
37312,37312,2021-01-21 22:40:06.178,1.0000007,2
37322,37322,2021-01-21 22:40:36.178,1.0000007,2
37332,37332,2021-01-21 22:41:06.178,1.0000007,2
37342,37342,2021-01-21 22:41:36.178,1.0000007,2
37352,37352,2021-01-21 22:42:06.178,1.0000007,2
37362,37362,2021-01-21 22:42:36.178,1.0000007,2
37372,37372,2021-01-21 22:43:06.178,1.0000007,2
37382,37382,2021-01-21 22:43:36.178,1.0000007,2
37392,37392,2021-01-21 22:44:06.178,1.0000007,2
37402,37402,2021-01-21 22:44:36.178,1.0000007,2
37412,37412,2021-01-21 22:45:06.178,1.0000007,2
37422,37422,2021-01-21 22:45:36.178,1.0000007,2
37432,37432,2021-01-21 22:46:06.178,1.0000007,2
37442,37442,2021-01-21 22:46:36.178,1.0000007,2
37452,37452,2021-01-21 22:47:06.178,1.0000007,2
37462,37462,2021-01-21 22:47:36.178,1.0000007,2
37472,37472,2021-01-21 22:48:06.178,1.0000007,2
37482,37482,2021-01-21 22:48:36.178,1.0000007,2
37492,37492,2021-01-21 22:49:06.178,1.0000007,2
37502,37502,2021-01-21 22:49:36.178,1.0000007,2
37512,37512,2021-01-21 22:50:06.178,1.0000007,2
37522,37522,2021-01-21 22:50:36.178,1.0000007,2
37532,37532,2021-01-21 22:51:06.178,1.0000007,2
37542,37542,2021-01-21 22:51:36.178,1.0000007,2
37552,37552,2021-01-21 22:52:06.178,1.0000007,2
37562,37562,2021-01-21 22:52:36.178,1.0000007,2
37572,37572,2021-01-21 22:53:06.178,1.0000007,2
37582,37582,2021-01-21 22:53:36.178,1.0000007,2
37592,37592,2021-01-21 22:54:06.178,1.0000007,2
37602,37602,2021-01-21 22:54:36.178,1.0000007,2
37612,37612,2021-01-21 22:55:06.178,1.0000007,2
37622,37622,2021-01-21 22:55:36.178,1.0000007,2
37632,37632,2021-01-21 22:56:06.178,1.0000007,2
37642,37642,2021-01-21 22:56:36.178,1.0000007,2
37652,37652,2021-01-21 22:57:06.178,1.0000007,2
37662,37662,2021-01-21 22:57:36.178,1.0000007,2
37672,37672,2021-01-21 22:58:06.178,1.0000007,2
37682,37682,2021-01-21 22:58:36.178,1.0000007,2
37692,37692,2021-01-21 22:59:06.178,1.0000007,2
37702,37702,2021-01-21 22:59:36.178,1.0000007,2
37712,37712,2021-01-21 23:00:06.178,1.0000007,2
37722,37722,2021-01-21 23:00:36.178,1.0000007,2
37732,37732,2021-01-21 23:01:06.178,1.0000007,2
37742,37742,2021-01-21 23:01:36.178,1.0000007,2
37752,37752,2021-01-21 23:02:06.178,1.0000007,2
37762,37762,2021-01-21 23:02:36.178,1.0000007,2
37772,37772,2021-01-21 23:03:06.178,1.0000007,2
37782,37782,2021-01-21 23:03:36.178,1.0000007,2
37792,37792,2021-01-21 23:04:06.178,1.0000007,2
37802,37802,2021-01-21 23:04:36.178,1.0000007,2
37812,37812,2021-01-21 23:05:06.178,1.0000007,2
37822,37822,2021-01-21 23:05:36.178,1.0000007,2
37832,37832,2021-01-21 23:06:06.178,1.0000007,2
37842,37842,2021-01-21 23:06:36.178,1.0000007,2
37852,37852,2021-01-21 23:07:06.178,1.0000007,2
37862,37862,2021-01-21 23:07:36.178,1.0000007,2
37872,37872,2021-01-21 23:08:06.178,1.0000007,2
37882,37882,2021-01-21 23:08:36.178,1.0000007,2
37892,37892,2021-01-21 23:09:06.178,1.0000007,2
37902,37902,2021-01-21 23:09:36.178,1.0000007,2
37912,37912,2021-01-21 23:10:06.178,1.0000007,2
37922,37922,2021-01-21 23:10:36.178,1.0000007,2
37932,37932,2021-01-21 23:11:06.178,1.0000007,2
37942,37942,2021-01-21 23:11:36.178,1.0000007,2
37952,37952,2021-01-21 23:12:06.178,1.0000007,2
37962,37962,2021-01-21 23:12:36.178,1.0000007,2
37972,37972,2021-01-21 23:13:06.178,1.0000007,2
37982,37982,2021-01-21 23:13:36.178,1.0000007,2
37992,37992,2021-01-21 23:14:06.178,1.0000007,2
38002,38002,2021-01-21 23:14:36.178,1.0000007,2
38012,38012,2021-01-21 23:15:06.178,1.0000007,2
38022,38022,2021-01-21 23:15:36.178,1.0000007,2
38032,38032,2021-01-21 23:16:06.178,1.0000007,2
38042,38042,2021-01-21 23:16:36.178,1.0000007,2
38052,38052,2021-01-21 23:17:06.178,1.0000007,2
38062,38062,2021-01-21 23:17:36.178,1.0000007,2
38072,38072,2021-01-21 23:18:06.178,1.0000007,2
38082,38082,2021-01-21 23:18:36.178,1.0000007,2
38092,38092,2021-01-21 23:19:06.178,1.0000007,2
38102,38102,2021-01-21 23:19:36.178,1.0000007,2
38112,38112,2021-01-21 23:20:06.178,1.0000007,2
38122,38122,2021-01-21 23:20:36.178,1.0000007,2
38132,38132,2021-01-21 23:21:06.178,1.0000007,2
38142,38142,2021-01-21 23:21:36.178,1.0000007,2
38152,38152,2021-01-21 23:22:06.178,1.0000007,2
38162,38162,2021-01-21 23:22:36.178,1.0000007,2
38172,38172,2021-01-21 23:23:06.178,1.0000007,2
38182,38182,2021-01-21 23:23:36.178,1.0000007,2
38192,38192,2021-01-21 23:24:06.178,1.0000007,2
38202,38202,2021-01-21 23:24:36.178,1.0000007,2
38212,38212,2021-01-21 23:25:06.178,1.0000007,2
38222,38222,2021-01-21 23:25:36.178,1.0000007,2
38232,38232,2021-01-21 23:26:06.178,1.0000007,2
38242,38242,2021-01-21 23:26:36.178,1.0000007,2
38252,38252,2021-01-21 23:27:06.178,1.0000007,2
38262,38262,2021-01-21 23:27:36.178,1.0000007,2
38272,38272,2021-01-21 23:28:06.178,1.0000007,2
38282,38282,2021-01-21 23:28:36.178,1.0000007,2
38292,38292,2021-01-21 23:29:06.178,1.0000007,2
38302,38302,2021-01-21 23:29:36.178,1.0000007,2
38312,38312,2021-01-21 23:30:06.178,1.0000007,2
38322,38322,2021-01-21 23:30:36.178,1.0000007,2
38332,38332,2021-01-21 23:31:06.178,1.0000007,2
38342,38342,2021-01-21 23:31:36.178,1.0000007,2
38352,38352,2021-01-21 23:32:06.178,1.0000007,2
38362,38362,2021-01-21 23:32:36.178,1.0000007,2
38372,38372,2021-01-21 23:33:06.178,1.0000007,2
38382,38382,2021-01-21 23:33:36.178,1.0000007,2
38392,38392,2021-01-21 23:34:06.178,1.0000007,2
38402,38402,2021-01-21 23:34:36.178,1.0000007,2
38412,38412,2021-01-21 23:35:06.178,1.0000007,2
38422,38422,2021-01-21 23:35:36.178,1.0000007,2
38432,38432,2021-01-21 23:36:06.178,1.0000007,2
38442,38442,2021-01-21 23:36:36.178,1.0000007,2
38452,38452,2021-01-21 23:37:06.178,1.0000007,2
38462,38462,2021-01-21 23:37:36.178,1.0000007,2
38472,38472,2021-01-21 23:38:06.178,1.0000007,2
38482,38482,2021-01-21 23:38:36.178,1.0000007,2
38492,38492,2021-01-21 23:39:06.178,1.0000007,2
38502,38502,2021-01-21 23:39:36.178,1.0000007,2
38512,38512,2021-01-21 23:40:06.178,1.0000007,2
38522,38522,2021-01-21 23:40:36.178,1.0000007,2
38532,38532,2021-01-21 23:41:06.178,1.0000007,2
38542,38542,2021-01-21 23:41:36.178,1.0000007,2
38552,38552,2021-01-21 23:42:06.178,1.0000007,2
38562,38562,2021-01-21 23:42:36.178,1.0000007,2
38572,38572,2021-01-21 23:43:06.178,1.0000007,2
38582,38582,2021-01-21 23:43:36.178,1.0000007,2
38592,38592,2021-01-21 23:44:06.178,1.0000007,2
38602,38602,2021-01-21 23:44:36.178,1.0000007,2
38612,38612,2021-01-21 23:45:06.178,1.0000007,2
38622,38622,2021-01-21 23:45:36.178,1.0000007,2
38632,38632,2021-01-21 23:46:06.178,1.0000007,2
38642,38642,2021-01-21 23:46:36.178,1.0000007,2
38652,38652,2021-01-21 23:47:06.178,1.0000007,2
38662,38662,2021-01-21 23:47:36.178,1.0000007,2
38672,38672,2021-01-21 23:48:06.178,1.0000007,2
38682,38682,2021-01-21 23:48:36.178,1.0000007,2
38692,38692,2021-01-21 23:49:06.178,1.0000007,2
38702,38702,2021-01-21 23:49:36.178,1.0000007,2
38712,38712,2021-01-21 23:50:06.178,1.0000007,2
38722,38722,2021-01-21 23:50:36.178,1.0000007,2
38732,38732,2021-01-21 23:51:06.178,1.0000007,2
38742,38742,2021-01-21 23:51:36.178,1.0000007,2
38752,38752,2021-01-21 23:52:06.178,1.0000007,2
38762,38762,2021-01-21 23:52:36.178,1.0000007,2
38772,38772,2021-01-21 23:53:06.178,1.0000007,2
38782,38782,2021-01-21 23:53:36.178,1.0000007,2
38792,38792,2021-01-21 23:54:06.178,1.0000007,2
38802,38802,2021-01-21 23:54:36.178,1.0000007,2
38812,38812,2021-01-21 23:55:06.178,1.0000007,2
38822,38822,2021-01-21 23:55:36.178,1.0000007,2
38832,38832,2021-01-21 23:56:06.178,1.0000007,2
38842,38842,2021-01-21 23:56:36.178,1.0000007,2
38852,38852,2021-01-21 23:57:06.178,1.0000007,2
38862,38862,2021-01-21 23:57:36.178,1.0000007,2
38872,38872,2021-01-21 23:58:06.178,1.0000007,2
38882,38882,2021-01-21 23:58:36.178,1.0000007,2
38892,38892,2021-01-21 23:59:06.178,1.0000007,2
38902,38902,2021-01-21 23:59:36.178,1.0000007,2
38912,38912,2021-01-22 00:00:06.178,1.0000007,2
38922,38922,2021-01-22 00:00:36.178,1.0000007,2
38932,38932,2021-01-22 00:01:06.178,1.0000007,2
38942,38942,2021-01-22 00:01:36.178,1.0000007,2
38952,38952,2021-01-22 00:02:06.178,1.0000007,2
38962,38962,2021-01-22 00:02:36.178,1.0000007,2
38972,38972,2021-01-22 00:03:06.178,1.0000007,2
38982,38982,2021-01-22 00:03:36.178,1.0000007,2
38992,38992,2021-01-22 00:04:06.178,1.0000007,2
39002,39002,2021-01-22 00:04:36.178,1.0000007,2
39012,39012,2021-01-22 00:05:06.178,1.0000007,2
39022,39022,2021-01-22 00:05:36.178,1.0000007,2
39032,39032,2021-01-22 00:06:06.178,1.0000007,2
39042,39042,2021-01-22 00:06:36.178,1.0000007,2
39052,39052,2021-01-22 00:07:06.178,1.0000007,2
39062,39062,2021-01-22 00:07:36.178,1.0000007,2
39072,39072,2021-01-22 00:08:06.178,1.0000007,2
39082,39082,2021-01-22 00:08:36.178,1.0000007,2
39092,39092,2021-01-22 00:09:06.178,1.0000007,2
39102,39102,2021-01-22 00:09:36.178,1.0000007,2
39112,39112,2021-01-22 00:10:06.178,1.0000007,2
39122,39122,2021-01-22 00:10:36.178,1.0000007,2
39132,39132,2021-01-22 00:11:06.178,1.0000007,2
39142,39142,2021-01-22 00:11:36.178,1.0000007,2
39152,39152,2021-01-22 00:12:06.178,1.0000007,2
39162,39162,2021-01-22 00:12:36.178,1.0000007,2
39172,39172,2021-01-22 00:13:06.178,1.0000007,2
39182,39182,2021-01-22 00:13:36.178,1.0000007,2
39192,39192,2021-01-22 00:14:06.178,1.0000007,2
39202,39202,2021-01-22 00:14:36.178,1.0000007,2
39212,39212,2021-01-22 00:15:06.178,1.0000007,2
39222,39222,2021-01-22 00:15:36.178,1.0000007,2
39232,39232,2021-01-22 00:16:06.178,1.0000007,2
39242,39242,2021-01-22 00:16:36.178,1.0000007,2
39252,39252,2021-01-22 00:17:06.178,1.0000007,2
39262,39262,2021-01-22 00:17:36.178,1.0000007,2
39272,39272,2021-01-22 00:18:06.178,1.0000007,2
39282,39282,2021-01-22 00:18:36.178,1.0000007,2
39292,39292,2021-01-22 00:19:06.178,1.0000007,2
39302,39302,2021-01-22 00:19:36.178,1.0000007,2
39312,39312,2021-01-22 00:20:06.178,1.0000007,2
39322,39322,2021-01-22 00:20:36.178,1.0000007,2
39332,39332,2021-01-22 00:21:06.178,1.0000007,2
39342,39342,2021-01-22 00:21:36.178,1.0000007,2
39352,39352,2021-01-22 00:22:06.178,1.0000007,2
39362,39362,2021-01-22 00:22:36.178,1.0000007,2
39372,39372,2021-01-22 00:23:06.178,1.0000007,2
39382,39382,2021-01-22 00:23:36.178,1.0000007,2
39392,39392,2021-01-22 00:24:06.178,1.0000007,2
39402,39402,2021-01-22 00:24:36.178,1.0000007,2
39412,39412,2021-01-22 00:25:06.178,1.0000007,2
39422,39422,2021-01-22 00:25:36.178,1.0000007,2
39432,39432,2021-01-22 00:26:06.178,1.0000007,2
39442,39442,2021-01-22 00:26:36.178,1.0000007,2
39452,39452,2021-01-22 00:27:06.178,1.0000007,2
39462,39462,2021-01-22 00:27:36.178,1.0000007,2
39472,39472,2021-01-22 00:28:06.178,1.0000007,2
39482,39482,2021-01-22 00:28:36.178,1.0000007,2
39492,39492,2021-01-22 00:29:06.178,1.0000007,2
39502,39502,2021-01-22 00:29:36.178,1.0000007,2
39512,39512,2021-01-22 00:30:06.178,1.0000007,2
39522,39522,2021-01-22 00:30:36.178,1.0000007,2
39532,39532,2021-01-22 00:31:06.178,1.0000007,2
39542,39542,2021-01-22 00:31:36.178,1.0000007,2
39552,39552,2021-01-22 00:32:06.178,1.0000007,2
39562,39562,2021-01-22 00:32:36.178,1.0000007,2
39572,39572,2021-01-22 00:33:06.178,1.0000007,2
39582,39582,2021-01-22 00:33:36.178,1.0000007,2
39592,39592,2021-01-22 00:34:06.178,1.0000007,2
39602,39602,2021-01-22 00:34:36.178,1.0000007,2
39612,39612,2021-01-22 00:35:06.178,1.0000007,2
39622,39622,2021-01-22 00:35:36.178,1.0000007,2
39632,39632,2021-01-22 00:36:06.178,1.0000007,2
39642,39642,2021-01-22 00:36:36.178,1.0000007,2
39652,39652,2021-01-22 00:37:06.178,1.0000007,2
39662,39662,2021-01-22 00:37:36.178,1.0000007,2
39672,39672,2021-01-22 00:38:06.178,1.0000007,2
39682,39682,2021-01-22 00:38:36.178,1.0000007,2
39692,39692,2021-01-22 00:39:06.178,1.0000007,2
39702,39702,2021-01-22 00:39:36.178,1.0000007,2
39712,39712,2021-01-22 00:40:06.178,1.0000007,2
39722,39722,2021-01-22 00:40:36.178,1.0000007,2
39732,39732,2021-01-22 00:41:06.178,1.0000007,2
39742,39742,2021-01-22 00:41:36.178,1.0000007,2
39752,39752,2021-01-22 00:42:06.178,1.0000007,2
39762,39762,2021-01-22 00:42:36.178,1.0000007,2
39772,39772,2021-01-22 00:43:06.178,1.0000007,2
39782,39782,2021-01-22 00:43:36.178,1.0000007,2
39792,39792,2021-01-22 00:44:06.178,1.0000007,2
39802,39802,2021-01-22 00:44:36.178,1.0000007,2
39812,39812,2021-01-22 00:45:06.178,1.0000007,2
39822,39822,2021-01-22 00:45:36.178,1.0000007,2
39832,39832,2021-01-22 00:46:06.178,1.0000007,2
39842,39842,2021-01-22 00:46:36.178,1.0000007,2
39852,39852,2021-01-22 00:47:06.178,1.0000007,2
39862,39862,2021-01-22 00:47:36.178,1.0000007,2
39872,39872,2021-01-22 00:48:06.178,1.0000007,2
39882,39882,2021-01-22 00:48:36.178,1.0000007,2
39892,39892,2021-01-22 00:49:06.178,1.0000007,2
39902,39902,2021-01-22 00:49:36.178,1.0000007,2
39912,39912,2021-01-22 00:50:06.178,1.0000007,2
39922,39922,2021-01-22 00:50:36.178,1.0000007,2
39932,39932,2021-01-22 00:51:06.178,1.0000007,2
39942,39942,2021-01-22 00:51:36.178,1.0000007,2
39952,39952,2021-01-22 00:52:06.178,1.0000007,2
39962,39962,2021-01-22 00:52:36.178,1.0000007,2
39972,39972,2021-01-22 00:53:06.178,1.0000007,2
39982,39982,2021-01-22 00:53:36.178,1.0000007,2
39992,39992,2021-01-22 00:54:06.178,1.0000007,2
40002,40002,2021-01-22 00:54:36.178,1.0000007,2
40012,40012,2021-01-22 00:55:06.178,1.0000007,2
40022,40022,2021-01-22 00:55:36.178,1.0000007,2
40032,40032,2021-01-22 00:56:06.178,1.0000007,2
40042,40042,2021-01-22 00:56:36.178,1.0000007,2
40052,40052,2021-01-22 00:57:06.178,1.0000007,2
40062,40062,2021-01-22 00:57:36.178,1.0000007,2
40072,40072,2021-01-22 00:58:06.178,1.0000007,2
40082,40082,2021-01-22 00:58:36.178,1.0000007,2
40092,40092,2021-01-22 00:59:06.178,1.0000007,2
40102,40102,2021-01-22 00:59:36.178,1.0000007,2
40112,40112,2021-01-22 01:00:06.178,1.0000007,2
40122,40122,2021-01-22 01:00:36.178,1.0000007,2
40132,40132,2021-01-22 01:01:06.178,1.0000007,2
40142,40142,2021-01-22 01:01:36.178,1.0000007,2
40152,40152,2021-01-22 01:02:06.178,1.0000007,2
40162,40162,2021-01-22 01:02:36.178,1.0000007,2
40172,40172,2021-01-22 01:03:06.178,1.0000007,2
40182,40182,2021-01-22 01:03:36.178,1.0000007,2
40192,40192,2021-01-22 01:04:06.178,1.0000007,2
40202,40202,2021-01-22 01:04:36.178,1.0000007,2
40212,40212,2021-01-22 01:05:06.178,1.0000007,2
40222,40222,2021-01-22 01:05:36.178,1.0000007,2
40232,40232,2021-01-22 01:06:06.178,1.0000007,2
40242,40242,2021-01-22 01:06:36.178,1.0000007,2
40252,40252,2021-01-22 01:07:06.178,1.0000007,2
40262,40262,2021-01-22 01:07:36.178,1.0000007,2
40272,40272,2021-01-22 01:08:06.178,1.0000007,2
40282,40282,2021-01-22 01:08:36.178,1.0000007,2
40292,40292,2021-01-22 01:09:06.178,1.0000007,2
40302,40302,2021-01-22 01:09:36.178,1.0000007,2
40312,40312,2021-01-22 01:10:06.178,1.0000007,2
40322,40322,2021-01-22 01:10:36.178,1.0000007,2
40332,40332,2021-01-22 01:11:06.178,1.0000007,2
40342,40342,2021-01-22 01:11:36.178,1.0000007,2
40352,40352,2021-01-22 01:12:06.178,1.0000007,2
40362,40362,2021-01-22 01:12:36.178,1.0000007,2
40372,40372,2021-01-22 01:13:06.178,1.0000007,2
40382,40382,2021-01-22 01:13:36.178,1.0000007,2
40392,40392,2021-01-22 01:14:06.178,1.0000007,2
40402,40402,2021-01-22 01:14:36.178,1.0000007,2
40412,40412,2021-01-22 01:15:06.178,1.0000007,2
40422,40422,2021-01-22 01:15:36.178,1.0000007,2
40432,40432,2021-01-22 01:16:06.178,1.0000007,2
40442,40442,2021-01-22 01:16:36.178,1.0000007,2
40452,40452,2021-01-22 01:17:06.178,1.0000007,2
40462,40462,2021-01-22 01:17:36.178,1.0000007,2
40472,40472,2021-01-22 01:18:06.178,1.0000007,2
40482,40482,2021-01-22 01:18:36.178,1.0000007,2
40492,40492,2021-01-22 01:19:06.178,1.0000007,2
40502,40502,2021-01-22 01:19:36.178,1.0000007,2
40512,40512,2021-01-22 01:20:06.178,1.0000007,2
40522,40522,2021-01-22 01:20:36.178,1.0000007,2
40532,40532,2021-01-22 01:21:06.178,1.0000007,2
40542,40542,2021-01-22 01:21:36.178,1.0000007,2
40552,40552,2021-01-22 01:22:06.178,1.0000007,2
40562,40562,2021-01-22 01:22:36.178,1.0000007,2
40572,40572,2021-01-22 01:23:06.178,1.0000007,2
40582,40582,2021-01-22 01:23:36.178,1.0000007,2
40592,40592,2021-01-22 01:24:06.178,1.0000007,2
40602,40602,2021-01-22 01:24:36.178,1.0000007,2
40612,40612,2021-01-22 01:25:06.178,1.0000007,2
40622,40622,2021-01-22 01:25:36.178,1.0000007,2
40632,40632,2021-01-22 01:26:06.178,1.0000007,2
40642,40642,2021-01-22 01:26:36.178,1.0000007,2
40652,40652,2021-01-22 01:27:06.178,1.0000007,2
40662,40662,2021-01-22 01:27:36.178,1.0000007,2
40672,40672,2021-01-22 01:28:06.178,1.0000007,2
40682,40682,2021-01-22 01:28:36.178,1.0000007,2
40692,40692,2021-01-22 01:29:06.178,1.0000007,2
40702,40702,2021-01-22 01:29:36.178,1.0000007,2
40712,40712,2021-01-22 01:30:06.178,1.0000007,2
40722,40722,2021-01-22 01:30:36.178,1.0000007,2
40732,40732,2021-01-22 01:31:06.178,1.0000007,2
40742,40742,2021-01-22 01:31:36.178,1.0000007,2
40752,40752,2021-01-22 01:32:06.178,1.0000007,2
40762,40762,2021-01-22 01:32:36.178,1.0000007,2
40772,40772,2021-01-22 01:33:06.178,1.0000007,2
40782,40782,2021-01-22 01:33:36.178,1.0000007,2
40792,40792,2021-01-22 01:34:06.178,1.0000007,2
