,Unnamed: 0,time,prediction,real,step
25716,25716,2021-01-21 14:33:06.178,31.5696,29.0,6
25726,25726,2021-01-21 14:33:36.178,31.925106,29.0,6
25736,25736,2021-01-21 14:34:06.178,31.712215000000004,30.0,6
25746,25746,2021-01-21 14:34:36.178,31.291428000000003,30.0,6
25756,25756,2021-01-21 14:35:06.178,30.574337,30.0,6
25766,25766,2021-01-21 14:35:36.178,31.121498,31.0,6
25776,25776,2021-01-21 14:36:06.178,31.120129,31.0,6
25786,25786,2021-01-21 14:36:36.178,32.026016,32.0,6
25796,25796,2021-01-21 14:37:06.178,32.12822,32.0,6
25806,25806,2021-01-21 14:37:36.178,33.228172,33.0,6
25816,25816,2021-01-21 14:38:06.178,33.275856,33.0,6
25826,25826,2021-01-21 14:38:36.178,33.108124,33.0,6
25836,25836,2021-01-21 14:39:06.178,33.947773,34.0,6
25846,25846,2021-01-21 14:39:36.178,34.008133,34.0,6
25856,25856,2021-01-21 14:40:06.178,35.16008,36.0,6
25866,25866,2021-01-21 14:40:36.178,35.191093,36.0,6
25876,25876,2021-01-21 14:41:06.178,36.447807,37.0,6
25886,25886,2021-01-21 14:41:36.178,36.38766,37.0,6
25896,25896,2021-01-21 14:42:06.178,36.054306,37.0,6
25906,25906,2021-01-21 14:42:36.178,36.967903,39.0,6
25916,25916,2021-01-21 14:43:06.178,37.008922999999996,39.0,6
25926,25926,2021-01-21 14:43:36.178,40.488859999999995,40.0,6
25936,25936,2021-01-21 14:44:06.178,41.682426,40.0,6
25946,25946,2021-01-21 14:44:36.178,43.495125,42.0,6
25956,25956,2021-01-21 14:45:06.178,43.164665,42.0,6
25966,25966,2021-01-21 14:45:36.178,41.947533,42.0,6
25976,25976,2021-01-21 14:46:06.178,44.506237,44.0,6
25986,25986,2021-01-21 14:46:36.178,45.216266999999995,44.0,6
25996,25996,2021-01-21 14:47:06.178,46.71325,44.0,6
26006,26006,2021-01-21 14:47:36.178,46.11667,47.0,6
26016,26016,2021-01-21 14:48:06.178,48.857773,47.0,6
26026,26026,2021-01-21 14:48:36.178,49.318287,49.0,6
26036,26036,2021-01-21 14:49:06.178,48.23404,49.0,6
26046,26046,2021-01-21 14:49:36.178,50.39011,52.0,6
26056,26056,2021-01-21 14:50:06.178,50.783833,52.0,6
26066,26066,2021-01-21 14:50:36.178,49.413765000000005,52.0,6
26076,26076,2021-01-21 14:51:06.178,54.39774,55.0,6
26086,26086,2021-01-21 14:51:36.178,55.674285999999995,55.0,6
26096,26096,2021-01-21 14:52:06.178,59.75264,55.0,6
26106,26106,2021-01-21 14:52:36.178,58.890896,59.0,6
26116,26116,2021-01-21 14:53:06.178,64.91232,59.0,6
26126,26126,2021-01-21 14:53:36.178,64.816,63.0,6
26136,26136,2021-01-21 14:54:06.178,63.059174,63.0,6
26146,26146,2021-01-21 14:54:36.178,66.40098,63.0,6
26156,26156,2021-01-21 14:55:06.178,66.12239,67.0,6
26166,26166,2021-01-21 14:55:36.178,63.88450600000001,67.0,6
26176,26176,2021-01-21 14:56:06.178,69.701324,67.0,6
26186,26186,2021-01-21 14:56:36.178,71.06505600000001,73.0,6
26196,26196,2021-01-21 14:57:06.178,80.35244,73.0,6
26206,26206,2021-01-21 14:57:36.178,79.84477,73.0,6
26216,26216,2021-01-21 14:58:06.178,77.912415,79.0,6
26226,26226,2021-01-21 14:58:36.178,81.68669,79.0,6
26236,26236,2021-01-21 14:59:06.178,81.61689,79.0,6
26246,26246,2021-01-21 14:59:36.178,78.26601,87.0,6
26256,26256,2021-01-21 15:00:06.178,87.95809,87.0,6
26266,26266,2021-01-21 15:00:36.178,90.57222,87.0,6
26276,26276,2021-01-21 15:01:06.178,88.33927,97.0,6
26286,26286,2021-01-21 15:01:36.178,96.11402,97.0,6
26296,26296,2021-01-21 15:02:06.178,97.889656,109.0,6
26306,26306,2021-01-21 15:02:36.178,94.95804,109.0,6
26316,26316,2021-01-21 15:03:06.178,107.6397,108.0,6
26326,26326,2021-01-21 15:03:36.178,111.12191999999999,124.0,6
26336,26336,2021-01-21 15:04:06.178,108.90343500000002,124.0,6
26346,26346,2021-01-21 15:04:36.178,126.28581000000001,144.0,6
26356,26356,2021-01-21 15:05:06.178,130.07811,144.0,6
26366,26366,2021-01-21 15:05:36.178,168.92934,144.0,6
26376,26376,2021-01-21 15:06:06.178,174.81087,173.0,6
26386,26386,2021-01-21 15:06:36.178,157.45356999999998,173.0,6
26396,26396,2021-01-21 15:07:06.178,198.74469,173.0,6
26406,26406,2021-01-21 15:07:36.178,202.42921,216.0,6
26416,26416,2021-01-21 15:08:06.178,237.54645,216.0,6
26426,26426,2021-01-21 15:08:36.178,261.39636,287.0,6
26436,26436,2021-01-21 15:09:06.178,248.54697000000002,287.0,6
26446,26446,2021-01-21 15:09:36.178,309.78177,287.0,6
26456,26456,2021-01-21 15:10:06.178,338.95914,430.0,6
26466,26466,2021-01-21 15:10:36.178,305.92328,430.0,6
26476,26476,2021-01-21 15:11:06.178,415.99426,430.0,6
26486,26486,2021-01-21 15:11:36.178,465.1291,859.0,6
26496,26496,2021-01-21 15:12:06.178,505.42776,859.0,6
26506,26506,2021-01-21 15:12:36.178,646.98645,857.0,6
26516,26516,2021-01-21 15:13:06.178,758.8710000000001,857.0,6
26526,26526,2021-01-21 15:13:36.178,819.4564,857.0,6
26536,26536,2021-01-21 15:14:06.178,1081.6064,857.0,6
26546,26546,2021-01-21 15:14:36.178,1414.1254,857.0,6
26556,26556,2021-01-21 15:15:06.178,519.17145,857.0,6
26566,26566,2021-01-21 15:15:36.178,567.01715,428.0,6
26576,26576,2021-01-21 15:16:06.178,374.8984,428.0,6
26586,26586,2021-01-21 15:16:36.178,328.37515,285.0,6
26596,26596,2021-01-21 15:17:06.178,260.41437,285.0,6
26606,26606,2021-01-21 15:17:36.178,219.5562,285.0,6
26616,26616,2021-01-21 15:18:06.178,201.1449,213.0,6
26626,26626,2021-01-21 15:18:36.178,209.15805,213.0,6
26636,26636,2021-01-21 15:19:06.178,182.87143,213.0,6
26646,26646,2021-01-21 15:19:36.178,172.90833,170.0,6
26656,26656,2021-01-21 15:20:06.178,152.57613,170.0,6
26666,26666,2021-01-21 15:20:36.178,141.03687,170.0,6
26676,26676,2021-01-21 15:21:06.178,130.98856,142.0,6
26686,26686,2021-01-21 15:21:36.178,120.33541000000001,142.0,6
26696,26696,2021-01-21 15:22:06.178,117.62583000000001,142.0,6
26706,26706,2021-01-21 15:22:36.178,115.18028000000001,121.0,6
26716,26716,2021-01-21 15:23:06.178,110.62746000000001,121.0,6
26726,26726,2021-01-21 15:23:36.178,111.68927,106.0,6
26736,26736,2021-01-21 15:24:06.178,113.54838600000001,106.0,6
26746,26746,2021-01-21 15:24:36.178,110.90555,106.0,6
26756,26756,2021-01-21 15:25:06.178,108.42381999999999,94.0,6
26766,26766,2021-01-21 15:25:36.178,106.050964,94.0,6
26776,26776,2021-01-21 15:26:06.178,99.74972,94.0,6
26786,26786,2021-01-21 15:26:36.178,94.04635,84.0,6
26796,26796,2021-01-21 15:27:06.178,85.98273499999999,84.0,6
26806,26806,2021-01-21 15:27:36.178,79.00439,84.0,6
26816,26816,2021-01-21 15:28:06.178,72.916466,77.0,6
26826,26826,2021-01-21 15:28:36.178,66.13209,77.0,6
26836,26836,2021-01-21 15:29:06.178,60.415337,70.0,6
26846,26846,2021-01-21 15:29:36.178,55.565754000000005,70.0,6
26856,26856,2021-01-21 15:30:06.178,52.078526000000004,70.0,6
26866,26866,2021-01-21 15:30:36.178,49.504208,65.0,6
26876,26876,2021-01-21 15:31:06.178,47.757763,65.0,6
26886,26886,2021-01-21 15:31:36.178,46.400692,65.0,6
26896,26896,2021-01-21 15:32:06.178,45.955486,60.0,6
26906,26906,2021-01-21 15:32:36.178,46.069072999999996,60.0,6
26916,26916,2021-01-21 15:33:06.178,47.49471,60.0,6
26926,26926,2021-01-21 15:33:36.178,53.230396,56.0,6
26936,26936,2021-01-21 15:34:06.178,52.232009999999995,56.0,6
26946,26946,2021-01-21 15:34:36.178,50.597088,56.0,6
26956,26956,2021-01-21 15:35:06.178,49.566715,52.0,6
26966,26966,2021-01-21 15:35:36.178,48.58226,52.0,6
26976,26976,2021-01-21 15:36:06.178,48.446983,52.0,6
26986,26986,2021-01-21 15:36:36.178,47.520016,49.0,6
26996,26996,2021-01-21 15:37:06.178,46.673744,49.0,6
27006,27006,2021-01-21 15:37:36.178,46.477534999999996,49.0,6
27016,27016,2021-01-21 15:38:06.178,45.66894,46.0,6
27026,27026,2021-01-21 15:38:36.178,44.85239,46.0,6
27036,27036,2021-01-21 15:39:06.178,44.6004,44.0,6
27046,27046,2021-01-21 15:39:36.178,43.866882000000004,44.0,6
27056,27056,2021-01-21 15:40:06.178,43.205254,41.0,6
27066,27066,2021-01-21 15:40:36.178,43.02926,41.0,6
27076,27076,2021-01-21 15:41:06.178,42.42426,39.0,6
27086,27086,2021-01-21 15:41:36.178,41.837143,39.0,6
27096,27096,2021-01-21 15:42:06.178,41.016000000000005,39.0,6
27106,27106,2021-01-21 15:42:36.178,40.24265,38.0,6
27116,27116,2021-01-21 15:43:06.178,39.801643,38.0,6
27126,27126,2021-01-21 15:43:36.178,38.78873,36.0,6
27136,27136,2021-01-21 15:44:06.178,38.051945,36.0,6
27146,27146,2021-01-21 15:44:36.178,37.333324,36.0,6
27156,27156,2021-01-21 15:45:06.178,36.46557,34.0,6
27166,27166,2021-01-21 15:45:36.178,35.845573,34.0,6
27176,27176,2021-01-21 15:46:06.178,35.333667999999996,34.0,6
27186,27186,2021-01-21 15:46:36.178,34.740856,33.0,6
27196,27196,2021-01-21 15:47:06.178,34.118790000000004,33.0,6
27206,27206,2021-01-21 15:47:36.178,33.393703,32.0,6
27216,27216,2021-01-21 15:48:06.178,32.834765999999995,32.0,6
27226,27226,2021-01-21 15:48:36.178,32.2268,32.0,6
27236,27236,2021-01-21 15:49:06.178,31.589298,30.0,6
27246,27246,2021-01-21 15:49:36.178,31.110259999999997,30.0,6
27256,27256,2021-01-21 15:50:06.178,30.678114,30.0,6
27266,27266,2021-01-21 15:50:36.178,30.170465000000004,29.0,6
27276,27276,2021-01-21 15:51:06.178,29.688602000000003,29.0,6
27286,27286,2021-01-21 15:51:36.178,29.357069,29.0,6
27296,27296,2021-01-21 15:52:06.178,28.992157000000002,28.0,6
27306,27306,2021-01-21 15:52:36.178,28.487457,28.0,6
27316,27316,2021-01-21 15:53:06.178,28.12981,28.0,6
27326,27326,2021-01-21 15:53:36.178,27.725341999999998,27.0,6
27336,27336,2021-01-21 15:54:06.178,27.315538,27.0,6
27346,27346,2021-01-21 15:54:36.178,27.031576,27.0,6
27356,27356,2021-01-21 15:55:06.178,26.734156,26.0,6
27366,27366,2021-01-21 15:55:36.178,26.443825,26.0,6
27376,27376,2021-01-21 15:56:06.178,26.253332,26.0,6
27386,27386,2021-01-21 15:56:36.178,26.013517,25.0,6
27396,27396,2021-01-21 15:57:06.178,25.776648,25.0,6
27406,27406,2021-01-21 15:57:36.178,25.521578,25.0,6
27416,27416,2021-01-21 15:58:06.178,25.360785999999997,25.0,6
27426,27426,2021-01-21 15:58:36.178,25.016727,25.0,6
27436,27436,2021-01-21 15:59:06.178,24.768729999999998,24.0,6
27446,27446,2021-01-21 15:59:36.178,24.491770000000002,24.0,6
27456,27456,2021-01-21 16:00:06.178,24.158976000000003,24.0,6
27466,27466,2021-01-21 16:00:36.178,23.930973,23.0,6
27476,27476,2021-01-21 16:01:06.178,23.715519,23.0,6
27486,27486,2021-01-21 16:01:36.178,23.560979999999997,23.0,6
27496,27496,2021-01-21 16:02:06.178,23.37397,22.0,6
27506,27506,2021-01-21 16:02:36.178,23.135162,22.0,6
27516,27516,2021-01-21 16:03:06.178,22.975695,22.0,6
27526,27526,2021-01-21 16:03:36.178,22.762665,22.0,6
27536,27536,2021-01-21 16:04:06.178,22.483793,22.0,6
27546,27546,2021-01-21 16:04:36.178,22.277420000000003,21.0,6
27556,27556,2021-01-21 16:05:06.178,22.075035,21.0,6
27566,27566,2021-01-21 16:05:36.178,21.804956,21.0,6
27576,27576,2021-01-21 16:06:06.178,21.542141,21.0,6
27586,27586,2021-01-21 16:06:36.178,21.34303,21.0,6
27596,27596,2021-01-21 16:07:06.178,21.218870000000003,21.0,6
27606,27606,2021-01-21 16:07:36.178,21.02155,20.0,6
27616,27616,2021-01-21 16:08:06.178,20.73837,20.0,6
27626,27626,2021-01-21 16:08:36.178,20.523405,19.0,6
27636,27636,2021-01-21 16:09:06.178,20.296255,19.0,6
27646,27646,2021-01-21 16:09:36.178,20.113688,19.0,6
27656,27656,2021-01-21 16:10:06.178,19.99533,19.0,6
27666,27666,2021-01-21 16:10:36.178,19.878489000000002,19.0,6
27676,27676,2021-01-21 16:11:06.178,19.65269,19.0,6
27686,27686,2021-01-21 16:11:36.178,19.480942000000002,19.0,6
27696,27696,2021-01-21 16:12:06.178,19.16422,18.0,6
27706,27706,2021-01-21 16:12:36.178,18.900423,18.0,6
27716,27716,2021-01-21 16:13:06.178,18.683912,18.0,6
27726,27726,2021-01-21 16:13:36.178,18.467226,18.0,6
27736,27736,2021-01-21 16:14:06.178,18.299225,18.0,6
27746,27746,2021-01-21 16:14:36.178,18.163898,18.0,6
27756,27756,2021-01-21 16:15:06.178,18.007248,18.0,6
27766,27766,2021-01-21 16:15:36.178,17.760482999999997,18.0,6
27776,27776,2021-01-21 16:16:06.178,17.573809,17.0,6
27786,27786,2021-01-21 16:16:36.178,17.433987,17.0,6
27796,27796,2021-01-21 16:17:06.178,17.315645,17.0,6
27806,27806,2021-01-21 16:17:36.178,17.18122,17.0,6
27816,27816,2021-01-21 16:18:06.178,17.096056,17.0,6
27826,27826,2021-01-21 16:18:36.178,17.072526999999997,17.0,6
27836,27836,2021-01-21 16:19:06.178,16.984167000000003,16.0,6
27846,27846,2021-01-21 16:19:36.178,16.804882,16.0,6
27856,27856,2021-01-21 16:20:06.178,16.673801,16.0,6
27866,27866,2021-01-21 16:20:36.178,16.518269,16.0,6
27876,27876,2021-01-21 16:21:06.178,16.390257000000002,16.0,6
27886,27886,2021-01-21 16:21:36.178,16.288104999999998,15.0,6
27896,27896,2021-01-21 16:22:06.178,16.216260000000002,15.0,6
27906,27906,2021-01-21 16:22:36.178,16.042720000000003,15.0,6
27916,27916,2021-01-21 16:23:06.178,15.84697,15.0,6
27926,27926,2021-01-21 16:23:36.178,15.703683999999999,15.0,6
27936,27936,2021-01-21 16:24:06.178,15.594733999999999,15.0,6
27946,27946,2021-01-21 16:24:36.178,15.496977,14.0,6
27956,27956,2021-01-21 16:25:06.178,15.287554,14.0,6
27966,27966,2021-01-21 16:25:36.178,15.123964,14.0,6
27976,27976,2021-01-21 16:26:06.178,14.941510000000001,14.0,6
27986,27986,2021-01-21 16:26:36.178,14.829089999999999,14.0,6
27996,27996,2021-01-21 16:27:06.178,14.659703,14.0,6
28006,28006,2021-01-21 16:27:36.178,14.512179999999999,14.0,6
28016,28016,2021-01-21 16:28:06.178,14.242973999999998,14.0,6
28026,28026,2021-01-21 16:28:36.178,14.015756,14.0,6
28036,28036,2021-01-21 16:29:06.178,13.825775,14.0,6
28046,28046,2021-01-21 16:29:36.178,13.684834,14.0,6
28056,28056,2021-01-21 16:30:06.178,13.573460999999998,14.0,6
28066,28066,2021-01-21 16:30:36.178,13.424094,14.0,6
28076,28076,2021-01-21 16:31:06.178,13.297535,13.0,6
28086,28086,2021-01-21 16:31:36.178,13.194007999999998,13.0,6
28096,28096,2021-01-21 16:32:06.178,13.113004,13.0,6
28106,28106,2021-01-21 16:32:36.178,13.053787,13.0,6
28116,28116,2021-01-21 16:33:06.178,13.029863,13.0,6
28126,28126,2021-01-21 16:33:36.178,13.014959,13.0,6
28136,28136,2021-01-21 16:34:06.178,13.024204,13.0,6
28146,28146,2021-01-21 16:34:36.178,12.877123,13.0,6
28156,28156,2021-01-21 16:35:06.178,12.755837,13.0,6
28166,28166,2021-01-21 16:35:36.178,12.658206,13.0,6
28176,28176,2021-01-21 16:36:06.178,12.590836,13.0,6
28186,28186,2021-01-21 16:36:36.178,12.570946000000001,12.0,6
28196,28196,2021-01-21 16:37:06.178,12.5587435,12.0,6
28206,28206,2021-01-21 16:37:36.178,12.499611,12.0,6
28216,28216,2021-01-21 16:38:06.178,12.460963000000001,12.0,6
28226,28226,2021-01-21 16:38:36.178,12.440719,12.0,6
28236,28236,2021-01-21 16:39:06.178,12.442109,12.0,6
28246,28246,2021-01-21 16:39:36.178,12.468835,12.0,6
28256,28256,2021-01-21 16:40:06.178,12.284189,12.0,6
28266,28266,2021-01-21 16:40:36.178,12.149712,12.0,6
28276,28276,2021-01-21 16:41:06.178,12.045942,12.0,6
28286,28286,2021-01-21 16:41:36.178,11.9464,12.0,6
28296,28296,2021-01-21 16:42:06.178,11.868226,12.0,6
28306,28306,2021-01-21 16:42:36.178,11.814717,12.0,6
28316,28316,2021-01-21 16:43:06.178,11.720314,12.0,6
28326,28326,2021-01-21 16:43:36.178,11.636758,12.0,6
28336,28336,2021-01-21 16:44:06.178,11.563203999999999,11.0,6
28346,28346,2021-01-21 16:44:36.178,11.499184,11.0,6
28356,28356,2021-01-21 16:45:06.178,11.444303,11.0,6
28366,28366,2021-01-21 16:45:36.178,11.397998,11.0,6
28376,28376,2021-01-21 16:46:06.178,11.360202000000001,11.0,6
28386,28386,2021-01-21 16:46:36.178,11.339741,11.0,6
28396,28396,2021-01-21 16:47:06.178,11.352095,11.0,6
28406,28406,2021-01-21 16:47:36.178,11.222663,11.0,6
28416,28416,2021-01-21 16:48:06.178,11.118492999999999,11.0,6
28426,28426,2021-01-21 16:48:36.178,11.041623,11.0,6
28436,28436,2021-01-21 16:49:06.178,10.988699,11.0,6
28446,28446,2021-01-21 16:49:36.178,10.887827,11.0,6
28456,28456,2021-01-21 16:50:06.178,10.799694,11.0,6
28466,28466,2021-01-21 16:50:36.178,10.723253,11.0,6
28476,28476,2021-01-21 16:51:06.178,10.657634,10.0,6
28486,28486,2021-01-21 16:51:36.178,10.602072999999999,10.0,6
28496,28496,2021-01-21 16:52:06.178,10.555785,10.0,6
28506,28506,2021-01-21 16:52:36.178,10.518604,10.0,6
28516,28516,2021-01-21 16:53:06.178,10.51574,10.0,6
28526,28526,2021-01-21 16:53:36.178,10.527802000000001,10.0,6
28536,28536,2021-01-21 16:54:06.178,10.537643,10.0,6
28546,28546,2021-01-21 16:54:36.178,10.416319,10.0,6
28556,28556,2021-01-21 16:55:06.178,10.257119,10.0,6
28566,28566,2021-01-21 16:55:36.178,10.119825,10.0,6
28576,28576,2021-01-21 16:56:06.178,10.000048,10.0,6
28586,28586,2021-01-21 16:56:36.178,9.89499,10.0,6
28596,28596,2021-01-21 16:57:06.178,9.802761,10.0,6
28606,28606,2021-01-21 16:57:36.178,9.722111,10.0,6
28616,28616,2021-01-21 16:58:06.178,9.652251,10.0,6
28626,28626,2021-01-21 16:58:36.178,9.59245,10.0,6
28636,28636,2021-01-21 16:59:06.178,9.541984,10.0,6
28646,28646,2021-01-21 16:59:36.178,9.500024,10.0,6
28656,28656,2021-01-21 17:00:06.178,9.470841,10.0,6
28666,28666,2021-01-21 17:00:36.178,9.483344,10.0,6
28676,28676,2021-01-21 17:01:06.178,9.488384,10.0,6
28686,28686,2021-01-21 17:01:36.178,9.504750999999999,9.0,6
28696,28696,2021-01-21 17:02:06.178,9.545,9.0,6
28706,28706,2021-01-21 17:02:36.178,9.519932,9.0,6
28716,28716,2021-01-21 17:03:06.178,9.498844,9.0,6
28726,28726,2021-01-21 17:03:36.178,9.4819145,9.0,6
28736,28736,2021-01-21 17:04:06.178,9.469424,9.0,6
28746,28746,2021-01-21 17:04:36.178,9.461601,9.0,6
28756,28756,2021-01-21 17:05:06.178,9.319034,9.0,6
28766,28766,2021-01-21 17:05:36.178,9.199829,9.0,6
28776,28776,2021-01-21 17:06:06.178,9.099329,9.0,6
28786,28786,2021-01-21 17:06:36.178,9.014717,9.0,6
28796,28796,2021-01-21 17:07:06.178,8.944324,9.0,6
28806,28806,2021-01-21 17:07:36.178,8.887205999999999,8.0,6
28816,28816,2021-01-21 17:08:06.178,8.841402,8.0,6
28826,28826,2021-01-21 17:08:36.178,8.812638,8.0,6
28836,28836,2021-01-21 17:09:06.178,8.833053,8.0,6
28846,28846,2021-01-21 17:09:36.178,8.78191,8.0,6
28856,28856,2021-01-21 17:10:06.178,8.732047,8.0,6
28866,28866,2021-01-21 17:10:36.178,8.686297999999999,8.0,6
28876,28876,2021-01-21 17:11:06.178,8.479174,8.0,6
28886,28886,2021-01-21 17:11:36.178,8.306742999999999,8.0,6
28896,28896,2021-01-21 17:12:06.178,8.159597,8.0,6
28906,28906,2021-01-21 17:12:36.178,8.031637,8.0,6
28916,28916,2021-01-21 17:13:06.178,7.9187975,8.0,6
28926,28926,2021-01-21 17:13:36.178,7.8191996,8.0,6
28936,28936,2021-01-21 17:14:06.178,7.731373,8.0,6
28946,28946,2021-01-21 17:14:36.178,7.6541595000000004,8.0,6
28956,28956,2021-01-21 17:15:06.178,7.586761500000001,8.0,6
28966,28966,2021-01-21 17:15:36.178,7.528653,8.0,6
28976,28976,2021-01-21 17:16:06.178,7.479233,8.0,6
28986,28986,2021-01-21 17:16:36.178,7.4378185,8.0,6
28996,28996,2021-01-21 17:17:06.178,7.4078693,8.0,6
29006,29006,2021-01-21 17:17:36.178,7.414439999999999,8.0,6
29016,29016,2021-01-21 17:18:06.178,7.415660000000001,8.0,6
29026,29026,2021-01-21 17:18:36.178,7.425313,8.0,6
29036,29036,2021-01-21 17:19:06.178,7.4546576,8.0,6
29046,29046,2021-01-21 17:19:36.178,7.5058527,8.0,6
29056,29056,2021-01-21 17:20:06.178,7.4892416,8.0,6
29066,29066,2021-01-21 17:20:36.178,7.476986999999999,8.0,6
29076,29076,2021-01-21 17:21:06.178,7.4693203,8.0,6
29086,29086,2021-01-21 17:21:36.178,7.4665585000000005,8.0,6
29096,29096,2021-01-21 17:22:06.178,7.4690504,7.0,6
29106,29106,2021-01-21 17:22:36.178,7.4771852,7.0,6
29116,29116,2021-01-21 17:23:06.178,7.49337,7.0,6
29126,29126,2021-01-21 17:23:36.178,7.518874,7.0,6
29136,29136,2021-01-21 17:24:06.178,7.5578823,7.0,6
29146,29146,2021-01-21 17:24:36.178,7.615906,7.0,6
29156,29156,2021-01-21 17:25:06.178,7.708069999999999,7.0,6
29166,29166,2021-01-21 17:25:36.178,7.605403,7.0,6
29176,29176,2021-01-21 17:26:06.178,7.434622999999999,7.0,6
29186,29186,2021-01-21 17:26:36.178,7.302225,7.0,6
29196,29196,2021-01-21 17:27:06.178,7.1892147,7.0,6
29206,29206,2021-01-21 17:27:36.178,7.0911837,7.0,6
29216,29216,2021-01-21 17:28:06.178,7.012260400000001,7.0,6
29226,29226,2021-01-21 17:28:36.178,6.9478674,7.0,6
29236,29236,2021-01-21 17:29:06.178,6.884728999999999,7.0,6
29246,29246,2021-01-21 17:29:36.178,6.8352413,7.0,6
29256,29256,2021-01-21 17:30:06.178,6.784839,7.0,6
29266,29266,2021-01-21 17:30:36.178,6.735844,7.0,6
29276,29276,2021-01-21 17:31:06.178,6.690932000000001,7.0,6
29286,29286,2021-01-21 17:31:36.178,6.6507697,7.0,6
29296,29296,2021-01-21 17:32:06.178,6.6154660000000005,7.0,6
29306,29306,2021-01-21 17:32:36.178,6.583417999999999,7.0,6
29316,29316,2021-01-21 17:33:06.178,6.555217999999999,7.0,6
29326,29326,2021-01-21 17:33:36.178,6.5309324,7.0,6
29336,29336,2021-01-21 17:34:06.178,6.5105414,7.0,6
29346,29346,2021-01-21 17:34:36.178,6.494152,7.0,6
29356,29356,2021-01-21 17:35:06.178,6.482049,7.0,6
29366,29366,2021-01-21 17:35:36.178,6.474488,7.0,6
29376,29376,2021-01-21 17:36:06.178,6.471784599999999,7.0,6
29386,29386,2021-01-21 17:36:36.178,6.474336,7.0,6
29396,29396,2021-01-21 17:37:06.178,6.482506,7.0,6
29406,29406,2021-01-21 17:37:36.178,6.4983015,7.0,6
29416,29416,2021-01-21 17:38:06.178,6.523406,7.0,6
29426,29426,2021-01-21 17:38:36.178,6.561933,6.0,6
29436,29436,2021-01-21 17:39:06.178,6.6192636,6.0,6
29446,29446,2021-01-21 17:39:36.178,6.71045,6.0,6
29456,29456,2021-01-21 17:40:06.178,6.999998,6.0,6
29466,29466,2021-01-21 17:40:36.178,6.999998,6.0,6
29476,29476,2021-01-21 17:41:06.178,6.999998,6.0,6
29486,29486,2021-01-21 17:41:36.178,6.999998,6.0,6
29496,29496,2021-01-21 17:42:06.178,6.603501,6.0,6
29506,29506,2021-01-21 17:42:36.178,6.4326344,6.0,6
29516,29516,2021-01-21 17:43:06.178,6.300457,6.0,6
29526,29526,2021-01-21 17:43:36.178,6.187858599999999,6.0,6
29536,29536,2021-01-21 17:44:06.178,6.090516,6.0,6
29546,29546,2021-01-21 17:44:36.178,6.012103,6.0,6
29556,29556,2021-01-21 17:45:06.178,5.948141000000001,6.0,6
29566,29566,2021-01-21 17:45:36.178,5.8857017,6.0,6
29576,29576,2021-01-21 17:46:06.178,5.836733000000001,6.0,6
29586,29586,2021-01-21 17:46:36.178,5.786861,6.0,6
29596,29596,2021-01-21 17:47:06.178,5.7384763,6.0,6
29606,29606,2021-01-21 17:47:36.178,5.69414,6.0,6
29616,29616,2021-01-21 17:48:06.178,5.6544647,6.0,6
29626,29626,2021-01-21 17:48:36.178,5.6196804,6.0,6
29636,29636,2021-01-21 17:49:06.178,5.5881305,6.0,6
29646,29646,2021-01-21 17:49:36.178,5.5603622999999995,6.0,6
29656,29656,2021-01-21 17:50:06.178,5.5364685,6.0,6
29666,29666,2021-01-21 17:50:36.178,5.5164256,6.0,6
29676,29676,2021-01-21 17:51:06.178,5.50031,6.0,6
29686,29686,2021-01-21 17:51:36.178,5.4884010000000005,6.0,6
29696,29696,2021-01-21 17:52:06.178,5.4809675,6.0,6
29706,29706,2021-01-21 17:52:36.178,5.4783263,6.0,6
29716,29716,2021-01-21 17:53:06.178,5.4809127,6.0,6
29726,29726,2021-01-21 17:53:36.178,5.489138,6.0,6
29736,29736,2021-01-21 17:54:06.178,5.504479,6.0,6
29746,29746,2021-01-21 17:54:36.178,5.529107,5.0,6
29756,29756,2021-01-21 17:55:06.178,5.5670247,5.0,6
29766,29766,2021-01-21 17:55:36.178,5.6234827,5.0,6
29776,29776,2021-01-21 17:56:06.178,5.713444,5.0,6
29786,29786,2021-01-21 17:56:36.178,6.000004,5.0,6
29796,29796,2021-01-21 17:57:06.178,6.000004,5.0,6
29806,29806,2021-01-21 17:57:36.178,6.000004,5.0,6
29816,29816,2021-01-21 17:58:06.178,5.601011,5.0,6
29826,29826,2021-01-21 17:58:36.178,5.430036,5.0,6
29836,29836,2021-01-21 17:59:06.178,5.2981620000000005,5.0,6
29846,29846,2021-01-21 17:59:36.178,5.186119000000001,5.0,6
29856,29856,2021-01-21 18:00:06.178,5.0896263,5.0,6
29866,29866,2021-01-21 18:00:36.178,5.011915,5.0,6
29876,29876,2021-01-21 18:01:06.178,4.9485339999999995,5.0,6
29886,29886,2021-01-21 18:01:36.178,4.8869734000000005,5.0,6
29896,29896,2021-01-21 18:02:06.178,4.838662,5.0,6
29906,29906,2021-01-21 18:02:36.178,4.78949,5.0,6
29916,29916,2021-01-21 18:03:06.178,4.741885,5.0,6
29926,29926,2021-01-21 18:03:36.178,4.698295,5.0,6
29936,29936,2021-01-21 18:04:06.178,4.659278,5.0,6
29946,29946,2021-01-21 18:04:36.178,4.6251473,5.0,6
29956,29956,2021-01-21 18:05:06.178,4.5942335,5.0,6
29966,29966,2021-01-21 18:05:36.178,4.5670223,5.0,6
29976,29976,2021-01-21 18:06:06.178,4.5436273,5.0,6
29986,29986,2021-01-21 18:06:36.178,4.5240225999999994,5.0,6
29996,29996,2021-01-21 18:07:06.178,4.508265,5.0,6
30006,30006,2021-01-21 18:07:36.178,4.496608,5.0,6
30016,30016,2021-01-21 18:08:06.178,4.489339,5.0,6
30026,30026,2021-01-21 18:08:36.178,4.4867669999999995,5.0,6
30036,30036,2021-01-21 18:09:06.178,4.489344,5.0,6
30046,30046,2021-01-21 18:09:36.178,4.497571499999999,5.0,6
30056,30056,2021-01-21 18:10:06.178,4.51239,5.0,6
30066,30066,2021-01-21 18:10:36.178,4.5364804,5.0,6
30076,30076,2021-01-21 18:11:06.178,4.573611,5.0,6
30086,30086,2021-01-21 18:11:36.178,4.6289454,5.0,6
30096,30096,2021-01-21 18:12:06.178,4.7173195,5.0,6
30106,30106,2021-01-21 18:12:36.178,5.0,5.0,6
30116,30116,2021-01-21 18:13:06.178,5.0,5.0,6
30126,30126,2021-01-21 18:13:36.178,5.0,5.0,6
30136,30136,2021-01-21 18:14:06.178,5.0,5.0,6
30146,30146,2021-01-21 18:14:36.178,5.0,5.0,6
30156,30156,2021-01-21 18:15:06.178,5.0,5.0,6
30166,30166,2021-01-21 18:15:36.178,5.0,5.0,6
30176,30176,2021-01-21 18:16:06.178,5.0,5.0,6
30186,30186,2021-01-21 18:16:36.178,5.0,5.0,6
30196,30196,2021-01-21 18:17:06.178,5.0,5.0,6
30206,30206,2021-01-21 18:17:36.178,5.0,5.0,6
30216,30216,2021-01-21 18:18:06.178,5.0,5.0,6
30226,30226,2021-01-21 18:18:36.178,5.0,4.0,6
30236,30236,2021-01-21 18:19:06.178,5.0,4.0,6
30246,30246,2021-01-21 18:19:36.178,5.0,4.0,6
30256,30256,2021-01-21 18:20:06.178,5.0,4.0,6
30266,30266,2021-01-21 18:20:36.178,5.0,4.0,6
30276,30276,2021-01-21 18:21:06.178,5.0,4.0,6
30286,30286,2021-01-21 18:21:36.178,5.0,4.0,6
30296,30296,2021-01-21 18:22:06.178,4.5975814,4.0,6
30306,30306,2021-01-21 18:22:36.178,4.426464,4.0,6
30316,30316,2021-01-21 18:23:06.178,4.2950087,4.0,6
30326,30326,2021-01-21 18:23:36.178,4.1837306000000005,4.0,6
30336,30336,2021-01-21 18:24:06.178,4.088411,4.0,6
30346,30346,2021-01-21 18:24:36.178,4.0116544,4.0,6
30356,30356,2021-01-21 18:25:06.178,3.949058,4.0,6
30366,30366,2021-01-21 18:25:36.178,3.8886852,4.0,6
30376,30376,2021-01-21 18:26:06.178,3.8412294,4.0,6
30386,30386,2021-01-21 18:26:36.178,3.7930197999999997,4.0,6
30396,30396,2021-01-21 18:27:06.178,3.7464690000000003,4.0,6
30406,30406,2021-01-21 18:27:36.178,3.7038812999999995,4.0,6
30416,30416,2021-01-21 18:28:06.178,3.6657605,4.0,6
30426,30426,2021-01-21 18:28:36.178,3.6324878,4.0,6
30436,30436,2021-01-21 18:29:06.178,3.6024312999999997,4.0,6
30446,30446,2021-01-21 18:29:36.178,3.5759663999999995,4.0,6
30456,30456,2021-01-21 18:30:06.178,3.5532373999999995,4.0,6
30466,30466,2021-01-21 18:30:36.178,3.534215,4.0,6
30476,30476,2021-01-21 18:31:06.178,3.5189376000000006,4.0,6
30486,30486,2021-01-21 18:31:36.178,3.5076203,4.0,6
30496,30496,2021-01-21 18:32:06.178,3.5005655,4.0,6
30506,30506,2021-01-21 18:32:36.178,3.4980826,4.0,6
30516,30516,2021-01-21 18:33:06.178,3.5006285000000004,4.0,6
30526,30526,2021-01-21 18:33:36.178,3.5088038,4.0,6
30536,30536,2021-01-21 18:34:06.178,3.523078,4.0,6
30546,30546,2021-01-21 18:34:36.178,3.5464244,4.0,6
30556,30556,2021-01-21 18:35:06.178,3.5824837999999994,4.0,6
30566,30566,2021-01-21 18:35:36.178,3.6362991,4.0,6
30576,30576,2021-01-21 18:36:06.178,3.7225428,4.0,6
30586,30586,2021-01-21 18:36:36.178,3.9999971,4.0,6
30596,30596,2021-01-21 18:37:06.178,3.9999971,4.0,6
30606,30606,2021-01-21 18:37:36.178,3.9999971,4.0,6
30616,30616,2021-01-21 18:38:06.178,3.9999971,4.0,6
30626,30626,2021-01-21 18:38:36.178,3.9999971,4.0,6
30636,30636,2021-01-21 18:39:06.178,3.9999971,4.0,6
30646,30646,2021-01-21 18:39:36.178,3.9999971,4.0,6
30656,30656,2021-01-21 18:40:06.178,3.9999971,4.0,6
30666,30666,2021-01-21 18:40:36.178,3.9999971,4.0,6
30676,30676,2021-01-21 18:41:06.178,3.9999971,4.0,6
30686,30686,2021-01-21 18:41:36.178,3.9999971,4.0,6
30696,30696,2021-01-21 18:42:06.178,3.9999971,4.0,6
30706,30706,2021-01-21 18:42:36.178,3.9999971,4.0,6
30716,30716,2021-01-21 18:43:06.178,3.9999971,4.0,6
30726,30726,2021-01-21 18:43:36.178,3.9999971,4.0,6
30736,30736,2021-01-21 18:44:06.178,3.9999971,4.0,6
30746,30746,2021-01-21 18:44:36.178,3.9999971,4.0,6
30756,30756,2021-01-21 18:45:06.178,3.9999971,4.0,6
30766,30766,2021-01-21 18:45:36.178,3.9999971,4.0,6
30776,30776,2021-01-21 18:46:06.178,3.9999971,4.0,6
30786,30786,2021-01-21 18:46:36.178,3.9999971,4.0,6
30796,30796,2021-01-21 18:47:06.178,3.9999971,4.0,6
30806,30806,2021-01-21 18:47:36.178,3.9999971,4.0,6
30816,30816,2021-01-21 18:48:06.178,3.9999971,4.0,6
30826,30826,2021-01-21 18:48:36.178,3.9999971,4.0,6
30836,30836,2021-01-21 18:49:06.178,3.9999971,4.0,6
30846,30846,2021-01-21 18:49:36.178,3.9999971,4.0,6
30856,30856,2021-01-21 18:50:06.178,3.9999971,4.0,6
30866,30866,2021-01-21 18:50:36.178,3.9999971,4.0,6
30876,30876,2021-01-21 18:51:06.178,3.9999971,4.0,6
30886,30886,2021-01-21 18:51:36.178,3.9999971,4.0,6
30896,30896,2021-01-21 18:52:06.178,3.9999971,4.0,6
30906,30906,2021-01-21 18:52:36.178,3.9999971,4.0,6
30916,30916,2021-01-21 18:53:06.178,3.9999971,4.0,6
30926,30926,2021-01-21 18:53:36.178,3.9999971,3.0,6
30936,30936,2021-01-21 18:54:06.178,3.9999971,3.0,6
30946,30946,2021-01-21 18:54:36.178,3.9999971,3.0,6
30956,30956,2021-01-21 18:55:06.178,3.9999971,3.0,6
30966,30966,2021-01-21 18:55:36.178,3.9999971,3.0,6
30976,30976,2021-01-21 18:56:06.178,3.9999971,3.0,6
30986,30986,2021-01-21 18:56:36.178,3.9999971,3.0,6
30996,30996,2021-01-21 18:57:06.178,3.5926032,3.0,6
31006,31006,2021-01-21 18:57:36.178,3.4212985000000002,3.0,6
31016,31016,2021-01-21 18:58:06.178,3.2904557999999997,3.0,6
31026,31026,2021-01-21 18:58:36.178,3.180314,3.0,6
31036,31036,2021-01-21 18:59:06.178,3.0866822999999997,3.0,6
31046,31046,2021-01-21 18:59:36.178,3.0113091,3.0,6
31056,31056,2021-01-21 19:00:06.178,2.9498549,3.0,6
31066,31066,2021-01-21 19:00:36.178,2.8911762000000003,3.0,6
31076,31076,2021-01-21 19:01:06.178,2.8448873,3.0,6
31086,31086,2021-01-21 19:01:36.178,2.7980560000000003,3.0,6
31096,31096,2021-01-21 19:02:06.178,2.7530046,3.0,6
31106,31106,2021-01-21 19:02:36.178,2.7118406000000004,3.0,6
31116,31116,2021-01-21 19:03:06.178,2.6750145,3.0,6
31126,31126,2021-01-21 19:03:36.178,2.6429195,3.0,6
31136,31136,2021-01-21 19:04:06.178,2.6140776000000003,3.0,6
31146,31146,2021-01-21 19:04:36.178,2.5886621,3.0,6
31156,31156,2021-01-21 19:05:06.178,2.566865,3.0,6
31166,31166,2021-01-21 19:05:36.178,2.5486534,3.0,6
31176,31176,2021-01-21 19:06:06.178,2.53405,3.0,6
31186,31186,2021-01-21 19:06:36.178,2.5232174,3.0,6
31196,31196,2021-01-21 19:07:06.178,2.5164611,3.0,6
31206,31206,2021-01-21 19:07:36.178,2.5140944,3.0,6
31216,31216,2021-01-21 19:08:06.178,2.5165599999999997,3.0,6
31226,31226,2021-01-21 19:08:36.178,2.5245142000000005,3.0,6
31236,31236,2021-01-21 19:09:06.178,2.5386994,3.0,6
31246,31246,2021-01-21 19:09:36.178,2.5606582,3.0,6
31256,31256,2021-01-21 19:10:06.178,2.59512,3.0,6
31266,31266,2021-01-21 19:10:36.178,2.64677,3.0,6
31276,31276,2021-01-21 19:11:06.178,2.7299947999999996,3.0,6
31286,31286,2021-01-21 19:11:36.178,3.0000023999999996,3.0,6
31296,31296,2021-01-21 19:12:06.178,3.0000023999999996,3.0,6
31306,31306,2021-01-21 19:12:36.178,3.0000023999999996,3.0,6
31316,31316,2021-01-21 19:13:06.178,3.0000023999999996,3.0,6
31326,31326,2021-01-21 19:13:36.178,3.0000023999999996,3.0,6
31336,31336,2021-01-21 19:14:06.178,3.0000023999999996,3.0,6
31346,31346,2021-01-21 19:14:36.178,3.0000023999999996,3.0,6
31356,31356,2021-01-21 19:15:06.178,3.0000023999999996,3.0,6
31366,31366,2021-01-21 19:15:36.178,3.0000023999999996,3.0,6
31376,31376,2021-01-21 19:16:06.178,3.0000023999999996,3.0,6
31386,31386,2021-01-21 19:16:36.178,3.0000023999999996,3.0,6
31396,31396,2021-01-21 19:17:06.178,3.0000023999999996,3.0,6
31406,31406,2021-01-21 19:17:36.178,3.0000023999999996,3.0,6
31416,31416,2021-01-21 19:18:06.178,3.0000023999999996,3.0,6
31426,31426,2021-01-21 19:18:36.178,3.0000023999999996,3.0,6
31436,31436,2021-01-21 19:19:06.178,3.0000023999999996,3.0,6
31446,31446,2021-01-21 19:19:36.178,3.0000023999999996,3.0,6
31456,31456,2021-01-21 19:20:06.178,3.0000023999999996,3.0,6
31466,31466,2021-01-21 19:20:36.178,3.0000023999999996,3.0,6
31476,31476,2021-01-21 19:21:06.178,3.0000023999999996,3.0,6
31486,31486,2021-01-21 19:21:36.178,3.0000023999999996,3.0,6
31496,31496,2021-01-21 19:22:06.178,3.0000023999999996,3.0,6
31506,31506,2021-01-21 19:22:36.178,3.0000023999999996,3.0,6
31516,31516,2021-01-21 19:23:06.178,3.0000023999999996,3.0,6
31526,31526,2021-01-21 19:23:36.178,3.0000023999999996,3.0,6
31536,31536,2021-01-21 19:24:06.178,3.0000023999999996,3.0,6
31546,31546,2021-01-21 19:24:36.178,3.0000023999999996,3.0,6
31556,31556,2021-01-21 19:25:06.178,3.0000023999999996,3.0,6
31566,31566,2021-01-21 19:25:36.178,3.0000023999999996,3.0,6
31576,31576,2021-01-21 19:26:06.178,3.0000023999999996,3.0,6
31586,31586,2021-01-21 19:26:36.178,3.0000023999999996,3.0,6
31596,31596,2021-01-21 19:27:06.178,3.0000023999999996,3.0,6
31606,31606,2021-01-21 19:27:36.178,3.0000023999999996,3.0,6
31616,31616,2021-01-21 19:28:06.178,3.0000023999999996,3.0,6
31626,31626,2021-01-21 19:28:36.178,3.0000023999999996,3.0,6
31636,31636,2021-01-21 19:29:06.178,3.0000023999999996,3.0,6
31646,31646,2021-01-21 19:29:36.178,3.0000023999999996,3.0,6
31656,31656,2021-01-21 19:30:06.178,3.0000023999999996,3.0,6
31666,31666,2021-01-21 19:30:36.178,3.0000023999999996,3.0,6
31676,31676,2021-01-21 19:31:06.178,3.0000023999999996,3.0,6
31686,31686,2021-01-21 19:31:36.178,3.0000023999999996,3.0,6
31696,31696,2021-01-21 19:32:06.178,3.0000023999999996,3.0,6
31706,31706,2021-01-21 19:32:36.178,3.0000023999999996,3.0,6
31716,31716,2021-01-21 19:33:06.178,3.0000023999999996,3.0,6
31726,31726,2021-01-21 19:33:36.178,3.0000023999999996,3.0,6
31736,31736,2021-01-21 19:34:06.178,3.0000023999999996,3.0,6
31746,31746,2021-01-21 19:34:36.178,3.0000023999999996,3.0,6
31756,31756,2021-01-21 19:35:06.178,3.0000023999999996,3.0,6
31766,31766,2021-01-21 19:35:36.178,3.0000023999999996,3.0,6
31776,31776,2021-01-21 19:36:06.178,3.0000023999999996,3.0,6
31786,31786,2021-01-21 19:36:36.178,3.0000023999999996,3.0,6
31796,31796,2021-01-21 19:37:06.178,3.0000023999999996,3.0,6
31806,31806,2021-01-21 19:37:36.178,3.0000023999999996,3.0,6
31816,31816,2021-01-21 19:38:06.178,3.0000023999999996,3.0,6
31826,31826,2021-01-21 19:38:36.178,3.0000023999999996,3.0,6
31836,31836,2021-01-21 19:39:06.178,3.0000023999999996,3.0,6
31846,31846,2021-01-21 19:39:36.178,3.0000023999999996,3.0,6
31856,31856,2021-01-21 19:40:06.178,3.0000023999999996,3.0,6
31866,31866,2021-01-21 19:40:36.178,3.0000023999999996,3.0,6
31876,31876,2021-01-21 19:41:06.178,3.0000023999999996,3.0,6
31886,31886,2021-01-21 19:41:36.178,3.0000023999999996,3.0,6
31896,31896,2021-01-21 19:42:06.178,3.0000023999999996,3.0,6
31906,31906,2021-01-21 19:42:36.178,3.0000023999999996,3.0,6
31916,31916,2021-01-21 19:43:06.178,3.0000023999999996,3.0,6
31926,31926,2021-01-21 19:43:36.178,3.0000023999999996,3.0,6
31936,31936,2021-01-21 19:44:06.178,3.0000023999999996,3.0,6
31946,31946,2021-01-21 19:44:36.178,3.0000023999999996,3.0,6
31956,31956,2021-01-21 19:45:06.178,3.0000023999999996,2.0,6
31966,31966,2021-01-21 19:45:36.178,3.0000023999999996,2.0,6
31976,31976,2021-01-21 19:46:06.178,3.0000023999999996,2.0,6
31986,31986,2021-01-21 19:46:36.178,3.0000023999999996,2.0,6
31996,31996,2021-01-21 19:47:06.178,3.0000023999999996,2.0,6
32006,32006,2021-01-21 19:47:36.178,3.0000023999999996,2.0,6
32016,32016,2021-01-21 19:48:06.178,3.0000023999999996,2.0,6
32026,32026,2021-01-21 19:48:36.178,2.5847892999999997,2.0,6
32036,32036,2021-01-21 19:49:06.178,2.4132452,2.0,6
32046,32046,2021-01-21 19:49:36.178,2.2834027000000003,2.0,6
32056,32056,2021-01-21 19:50:06.178,2.1751318,2.0,6
32066,32066,2021-01-21 19:50:36.178,2.0841582,2.0,6
32076,32076,2021-01-21 19:51:06.178,2.0108542000000003,2.0,6
32086,32086,2021-01-21 19:51:36.178,1.9512792,2.0,6
32096,32096,2021-01-21 19:52:06.178,1.8952848999999998,2.0,6
32106,32106,2021-01-21 19:52:36.178,1.8507256999999997,2.0,6
32116,32116,2021-01-21 19:53:06.178,1.8059394,2.0,6
32126,32126,2021-01-21 19:53:36.178,1.7631756999999997,2.0,6
32136,32136,2021-01-21 19:54:06.178,1.7241745,2.0,6
32146,32146,2021-01-21 19:54:36.178,1.689357,2.0,6
32156,32156,2021-01-21 19:55:06.178,1.6589770000000001,2.0,6
32166,32166,2021-01-21 19:55:36.178,1.6320045,2.0,6
32176,32176,2021-01-21 19:56:06.178,1.6081762,2.0,6
32186,32186,2021-01-21 19:56:36.178,1.5877776000000001,2.0,6
32196,32196,2021-01-21 19:57:06.178,1.570775,2.0,6
32206,32206,2021-01-21 19:57:36.178,1.5571768,2.0,6
32216,32216,2021-01-21 19:58:06.178,1.5470822,2.0,6
32226,32226,2021-01-21 19:58:36.178,1.5407693,2.0,6
32236,32236,2021-01-21 19:59:06.178,1.538562,2.0,6
32246,32246,2021-01-21 19:59:36.178,1.540875,2.0,6
32256,32256,2021-01-21 20:00:06.178,1.5483453,2.0,6
32266,32266,2021-01-21 20:00:36.178,1.5619009,2.0,6
32276,32276,2021-01-21 20:01:06.178,1.582494,2.0,6
32286,32286,2021-01-21 20:01:36.178,1.6145883,2.0,6
32296,32296,2021-01-21 20:02:06.178,1.6629331000000003,2.0,6
32306,32306,2021-01-21 20:02:36.178,1.7415223000000002,2.0,6
32316,32316,2021-01-21 20:03:06.178,1.999999,2.0,6
32326,32326,2021-01-21 20:03:36.178,1.999999,2.0,6
32336,32336,2021-01-21 20:04:06.178,1.999999,2.0,6
32346,32346,2021-01-21 20:04:36.178,1.999999,2.0,6
32356,32356,2021-01-21 20:05:06.178,1.999999,2.0,6
32366,32366,2021-01-21 20:05:36.178,1.999999,2.0,6
32376,32376,2021-01-21 20:06:06.178,1.999999,2.0,6
32386,32386,2021-01-21 20:06:36.178,1.999999,2.0,6
32396,32396,2021-01-21 20:07:06.178,1.999999,2.0,6
32406,32406,2021-01-21 20:07:36.178,1.999999,2.0,6
32416,32416,2021-01-21 20:08:06.178,1.999999,2.0,6
32426,32426,2021-01-21 20:08:36.178,1.999999,2.0,6
32436,32436,2021-01-21 20:09:06.178,1.999999,2.0,6
32446,32446,2021-01-21 20:09:36.178,1.999999,2.0,6
32456,32456,2021-01-21 20:10:06.178,1.999999,2.0,6
32466,32466,2021-01-21 20:10:36.178,1.999999,2.0,6
32476,32476,2021-01-21 20:11:06.178,1.999999,2.0,6
32486,32486,2021-01-21 20:11:36.178,1.999999,2.0,6
32496,32496,2021-01-21 20:12:06.178,1.999999,2.0,6
32506,32506,2021-01-21 20:12:36.178,1.999999,2.0,6
32516,32516,2021-01-21 20:13:06.178,1.999999,2.0,6
32526,32526,2021-01-21 20:13:36.178,1.999999,2.0,6
32536,32536,2021-01-21 20:14:06.178,1.999999,2.0,6
32546,32546,2021-01-21 20:14:36.178,1.999999,2.0,6
32556,32556,2021-01-21 20:15:06.178,1.999999,2.0,6
32566,32566,2021-01-21 20:15:36.178,1.999999,2.0,6
32576,32576,2021-01-21 20:16:06.178,1.999999,2.0,6
32586,32586,2021-01-21 20:16:36.178,1.999999,2.0,6
32596,32596,2021-01-21 20:17:06.178,1.999999,2.0,6
32606,32606,2021-01-21 20:17:36.178,1.999999,2.0,6
32616,32616,2021-01-21 20:18:06.178,1.999999,2.0,6
32626,32626,2021-01-21 20:18:36.178,1.999999,2.0,6
32636,32636,2021-01-21 20:19:06.178,1.999999,2.0,6
32646,32646,2021-01-21 20:19:36.178,1.999999,2.0,6
32656,32656,2021-01-21 20:20:06.178,1.999999,2.0,6
32666,32666,2021-01-21 20:20:36.178,1.999999,2.0,6
32676,32676,2021-01-21 20:21:06.178,1.999999,2.0,6
32686,32686,2021-01-21 20:21:36.178,1.999999,2.0,6
32696,32696,2021-01-21 20:22:06.178,1.999999,2.0,6
32706,32706,2021-01-21 20:22:36.178,1.999999,2.0,6
32716,32716,2021-01-21 20:23:06.178,1.999999,2.0,6
32726,32726,2021-01-21 20:23:36.178,1.999999,2.0,6
32736,32736,2021-01-21 20:24:06.178,1.999999,2.0,6
32746,32746,2021-01-21 20:24:36.178,1.999999,2.0,6
32756,32756,2021-01-21 20:25:06.178,1.999999,2.0,6
32766,32766,2021-01-21 20:25:36.178,1.999999,2.0,6
32776,32776,2021-01-21 20:26:06.178,1.999999,2.0,6
32786,32786,2021-01-21 20:26:36.178,1.999999,2.0,6
32796,32796,2021-01-21 20:27:06.178,1.999999,2.0,6
32806,32806,2021-01-21 20:27:36.178,1.999999,2.0,6
32816,32816,2021-01-21 20:28:06.178,1.999999,2.0,6
32826,32826,2021-01-21 20:28:36.178,1.999999,2.0,6
32836,32836,2021-01-21 20:29:06.178,1.999999,2.0,6
32846,32846,2021-01-21 20:29:36.178,1.999999,2.0,6
32856,32856,2021-01-21 20:30:06.178,1.999999,2.0,6
32866,32866,2021-01-21 20:30:36.178,1.999999,2.0,6
32876,32876,2021-01-21 20:31:06.178,1.999999,2.0,6
32886,32886,2021-01-21 20:31:36.178,1.999999,2.0,6
32896,32896,2021-01-21 20:32:06.178,1.999999,2.0,6
32906,32906,2021-01-21 20:32:36.178,1.999999,2.0,6
32916,32916,2021-01-21 20:33:06.178,1.999999,2.0,6
32926,32926,2021-01-21 20:33:36.178,1.999999,2.0,6
32936,32936,2021-01-21 20:34:06.178,1.999999,2.0,6
32946,32946,2021-01-21 20:34:36.178,1.999999,2.0,6
32956,32956,2021-01-21 20:35:06.178,1.999999,2.0,6
32966,32966,2021-01-21 20:35:36.178,1.999999,2.0,6
32976,32976,2021-01-21 20:36:06.178,1.999999,2.0,6
32986,32986,2021-01-21 20:36:36.178,1.999999,2.0,6
32996,32996,2021-01-21 20:37:06.178,1.999999,2.0,6
33006,33006,2021-01-21 20:37:36.178,1.999999,2.0,6
33016,33016,2021-01-21 20:38:06.178,1.999999,2.0,6
33026,33026,2021-01-21 20:38:36.178,1.999999,2.0,6
33036,33036,2021-01-21 20:39:06.178,1.999999,2.0,6
33046,33046,2021-01-21 20:39:36.178,1.999999,2.0,6
33056,33056,2021-01-21 20:40:06.178,1.999999,2.0,6
33066,33066,2021-01-21 20:40:36.178,1.999999,2.0,6
33076,33076,2021-01-21 20:41:06.178,1.999999,2.0,6
33086,33086,2021-01-21 20:41:36.178,1.999999,2.0,6
33096,33096,2021-01-21 20:42:06.178,1.999999,2.0,6
33106,33106,2021-01-21 20:42:36.178,1.999999,2.0,6
33116,33116,2021-01-21 20:43:06.178,1.999999,2.0,6
33126,33126,2021-01-21 20:43:36.178,1.999999,2.0,6
33136,33136,2021-01-21 20:44:06.178,1.999999,2.0,6
33146,33146,2021-01-21 20:44:36.178,1.999999,2.0,6
33156,33156,2021-01-21 20:45:06.178,1.999999,2.0,6
33166,33166,2021-01-21 20:45:36.178,1.999999,2.0,6
33176,33176,2021-01-21 20:46:06.178,1.999999,2.0,6
33186,33186,2021-01-21 20:46:36.178,1.999999,2.0,6
33196,33196,2021-01-21 20:47:06.178,1.999999,2.0,6
33206,33206,2021-01-21 20:47:36.178,1.999999,2.0,6
33216,33216,2021-01-21 20:48:06.178,1.999999,2.0,6
33226,33226,2021-01-21 20:48:36.178,1.999999,2.0,6
33236,33236,2021-01-21 20:49:06.178,1.999999,2.0,6
33246,33246,2021-01-21 20:49:36.178,1.999999,2.0,6
33256,33256,2021-01-21 20:50:06.178,1.999999,2.0,6
33266,33266,2021-01-21 20:50:36.178,1.999999,2.0,6
33276,33276,2021-01-21 20:51:06.178,1.999999,2.0,6
33286,33286,2021-01-21 20:51:36.178,1.999999,2.0,6
33296,33296,2021-01-21 20:52:06.178,1.999999,2.0,6
33306,33306,2021-01-21 20:52:36.178,1.999999,2.0,6
33316,33316,2021-01-21 20:53:06.178,1.999999,2.0,6
33326,33326,2021-01-21 20:53:36.178,1.999999,2.0,6
33336,33336,2021-01-21 20:54:06.178,1.999999,2.0,6
33346,33346,2021-01-21 20:54:36.178,1.999999,2.0,6
33356,33356,2021-01-21 20:55:06.178,1.999999,2.0,6
33366,33366,2021-01-21 20:55:36.178,1.999999,2.0,6
33376,33376,2021-01-21 20:56:06.178,1.999999,2.0,6
33386,33386,2021-01-21 20:56:36.178,1.999999,2.0,6
33396,33396,2021-01-21 20:57:06.178,1.999999,2.0,6
33406,33406,2021-01-21 20:57:36.178,1.999999,2.0,6
33416,33416,2021-01-21 20:58:06.178,1.999999,2.0,6
33426,33426,2021-01-21 20:58:36.178,1.999999,2.0,6
33436,33436,2021-01-21 20:59:06.178,1.999999,2.0,6
33446,33446,2021-01-21 20:59:36.178,1.999999,2.0,6
33456,33456,2021-01-21 21:00:06.178,1.999999,2.0,6
33466,33466,2021-01-21 21:00:36.178,1.999999,2.0,6
33476,33476,2021-01-21 21:01:06.178,1.999999,2.0,6
33486,33486,2021-01-21 21:01:36.178,1.999999,2.0,6
33496,33496,2021-01-21 21:02:06.178,1.999999,2.0,6
33506,33506,2021-01-21 21:02:36.178,1.999999,2.0,6
33516,33516,2021-01-21 21:03:06.178,1.999999,2.0,6
33526,33526,2021-01-21 21:03:36.178,1.999999,2.0,6
33536,33536,2021-01-21 21:04:06.178,1.999999,2.0,6
33546,33546,2021-01-21 21:04:36.178,1.999999,2.0,6
33556,33556,2021-01-21 21:05:06.178,1.999999,2.0,6
33566,33566,2021-01-21 21:05:36.178,1.999999,2.0,6
33576,33576,2021-01-21 21:06:06.178,1.999999,2.0,6
33586,33586,2021-01-21 21:06:36.178,1.999999,2.0,6
33596,33596,2021-01-21 21:07:06.178,1.999999,2.0,6
33606,33606,2021-01-21 21:07:36.178,1.999999,2.0,6
33616,33616,2021-01-21 21:08:06.178,1.999999,2.0,6
33626,33626,2021-01-21 21:08:36.178,1.999999,2.0,6
33636,33636,2021-01-21 21:09:06.178,1.999999,2.0,6
33646,33646,2021-01-21 21:09:36.178,1.999999,2.0,6
33656,33656,2021-01-21 21:10:06.178,1.999999,2.0,6
33666,33666,2021-01-21 21:10:36.178,1.999999,2.0,6
33676,33676,2021-01-21 21:11:06.178,1.999999,2.0,6
33686,33686,2021-01-21 21:11:36.178,1.999999,2.0,6
33696,33696,2021-01-21 21:12:06.178,1.999999,2.0,6
33706,33706,2021-01-21 21:12:36.178,1.999999,2.0,6
33716,33716,2021-01-21 21:13:06.178,1.999999,2.0,6
33726,33726,2021-01-21 21:13:36.178,1.999999,2.0,6
33736,33736,2021-01-21 21:14:06.178,1.999999,2.0,6
33746,33746,2021-01-21 21:14:36.178,1.999999,2.0,6
33756,33756,2021-01-21 21:15:06.178,1.999999,2.0,6
33766,33766,2021-01-21 21:15:36.178,1.999999,2.0,6
33776,33776,2021-01-21 21:16:06.178,1.999999,2.0,6
33786,33786,2021-01-21 21:16:36.178,1.999999,2.0,6
33796,33796,2021-01-21 21:17:06.178,1.999999,2.0,6
33806,33806,2021-01-21 21:17:36.178,1.999999,2.0,6
33816,33816,2021-01-21 21:18:06.178,1.999999,2.0,6
33826,33826,2021-01-21 21:18:36.178,1.999999,2.0,6
33836,33836,2021-01-21 21:19:06.178,1.999999,2.0,6
33846,33846,2021-01-21 21:19:36.178,1.999999,2.0,6
33856,33856,2021-01-21 21:20:06.178,1.999999,2.0,6
33866,33866,2021-01-21 21:20:36.178,1.999999,2.0,6
33876,33876,2021-01-21 21:21:06.178,1.999999,2.0,6
33886,33886,2021-01-21 21:21:36.178,1.999999,2.0,6
33896,33896,2021-01-21 21:22:06.178,1.999999,2.0,6
33906,33906,2021-01-21 21:22:36.178,1.999999,2.0,6
33916,33916,2021-01-21 21:23:06.178,1.999999,2.0,6
33926,33926,2021-01-21 21:23:36.178,1.999999,2.0,6
33936,33936,2021-01-21 21:24:06.178,1.999999,2.0,6
33946,33946,2021-01-21 21:24:36.178,1.999999,2.0,6
33956,33956,2021-01-21 21:25:06.178,1.999999,2.0,6
33966,33966,2021-01-21 21:25:36.178,1.999999,2.0,6
33976,33976,2021-01-21 21:26:06.178,1.999999,2.0,6
33986,33986,2021-01-21 21:26:36.178,1.999999,2.0,6
33996,33996,2021-01-21 21:27:06.178,1.999999,2.0,6
34006,34006,2021-01-21 21:27:36.178,1.999999,2.0,6
34016,34016,2021-01-21 21:28:06.178,1.999999,2.0,6
34026,34026,2021-01-21 21:28:36.178,1.999999,2.0,6
34036,34036,2021-01-21 21:29:06.178,1.999999,2.0,6
34046,34046,2021-01-21 21:29:36.178,1.999999,2.0,6
34056,34056,2021-01-21 21:30:06.178,1.999999,2.0,6
34066,34066,2021-01-21 21:30:36.178,1.999999,2.0,6
34076,34076,2021-01-21 21:31:06.178,1.999999,2.0,6
34086,34086,2021-01-21 21:31:36.178,1.999999,2.0,6
34096,34096,2021-01-21 21:32:06.178,1.999999,2.0,6
34106,34106,2021-01-21 21:32:36.178,1.999999,2.0,6
34116,34116,2021-01-21 21:33:06.178,1.999999,2.0,6
34126,34126,2021-01-21 21:33:36.178,1.999999,2.0,6
34136,34136,2021-01-21 21:34:06.178,1.999999,2.0,6
34146,34146,2021-01-21 21:34:36.178,1.999999,2.0,6
34156,34156,2021-01-21 21:35:06.178,1.999999,2.0,6
34166,34166,2021-01-21 21:35:36.178,1.999999,2.0,6
34176,34176,2021-01-21 21:36:06.178,1.999999,2.0,6
34186,34186,2021-01-21 21:36:36.178,1.999999,2.0,6
34196,34196,2021-01-21 21:37:06.178,1.999999,2.0,6
34206,34206,2021-01-21 21:37:36.178,1.999999,2.0,6
34216,34216,2021-01-21 21:38:06.178,1.999999,2.0,6
34226,34226,2021-01-21 21:38:36.178,1.999999,2.0,6
34236,34236,2021-01-21 21:39:06.178,1.999999,2.0,6
34246,34246,2021-01-21 21:39:36.178,1.999999,2.0,6
34256,34256,2021-01-21 21:40:06.178,1.999999,2.0,6
34266,34266,2021-01-21 21:40:36.178,1.999999,2.0,6
34276,34276,2021-01-21 21:41:06.178,1.999999,2.0,6
34286,34286,2021-01-21 21:41:36.178,1.999999,2.0,6
34296,34296,2021-01-21 21:42:06.178,1.999999,2.0,6
34306,34306,2021-01-21 21:42:36.178,1.999999,2.0,6
34316,34316,2021-01-21 21:43:06.178,1.999999,2.0,6
34326,34326,2021-01-21 21:43:36.178,1.999999,2.0,6
34336,34336,2021-01-21 21:44:06.178,1.999999,2.0,6
34346,34346,2021-01-21 21:44:36.178,1.999999,2.0,6
34356,34356,2021-01-21 21:45:06.178,1.999999,2.0,6
34366,34366,2021-01-21 21:45:36.178,1.999999,2.0,6
34376,34376,2021-01-21 21:46:06.178,1.999999,2.0,6
34386,34386,2021-01-21 21:46:36.178,1.999999,2.0,6
34396,34396,2021-01-21 21:47:06.178,1.999999,2.0,6
34406,34406,2021-01-21 21:47:36.178,1.999999,2.0,6
34416,34416,2021-01-21 21:48:06.178,1.999999,2.0,6
34426,34426,2021-01-21 21:48:36.178,1.999999,2.0,6
34436,34436,2021-01-21 21:49:06.178,1.999999,2.0,6
34446,34446,2021-01-21 21:49:36.178,1.999999,2.0,6
34456,34456,2021-01-21 21:50:06.178,1.999999,2.0,6
34466,34466,2021-01-21 21:50:36.178,1.999999,2.0,6
34476,34476,2021-01-21 21:51:06.178,1.999999,2.0,6
34486,34486,2021-01-21 21:51:36.178,1.999999,2.0,6
34496,34496,2021-01-21 21:52:06.178,1.999999,2.0,6
34506,34506,2021-01-21 21:52:36.178,1.999999,2.0,6
34516,34516,2021-01-21 21:53:06.178,1.999999,2.0,6
34526,34526,2021-01-21 21:53:36.178,1.999999,2.0,6
34536,34536,2021-01-21 21:54:06.178,1.999999,2.0,6
34546,34546,2021-01-21 21:54:36.178,1.999999,2.0,6
34556,34556,2021-01-21 21:55:06.178,1.999999,2.0,6
34566,34566,2021-01-21 21:55:36.178,1.999999,2.0,6
34576,34576,2021-01-21 21:56:06.178,1.999999,2.0,6
34586,34586,2021-01-21 21:56:36.178,1.999999,2.0,6
34596,34596,2021-01-21 21:57:06.178,1.999999,1.0,6
34606,34606,2021-01-21 21:57:36.178,1.999999,2.0,6
34616,34616,2021-01-21 21:58:06.178,1.999999,2.0,6
34626,34626,2021-01-21 21:58:36.178,1.999999,2.0,6
34636,34636,2021-01-21 21:59:06.178,1.999999,2.0,6
34646,34646,2021-01-21 21:59:36.178,1.999999,2.0,6
34656,34656,2021-01-21 22:00:06.178,1.999999,2.0,6
34666,34666,2021-01-21 22:00:36.178,1.5707035,1.0,6
34676,34676,2021-01-21 22:01:06.178,1.5707221000000002,1.0,6
34686,34686,2021-01-21 22:01:36.178,1.5707748,1.0,6
34696,34696,2021-01-21 22:02:06.178,1.5708215,1.0,6
34706,34706,2021-01-21 22:02:36.178,1.5708559,1.0,6
34716,34716,2021-01-21 22:03:06.178,1.5708778,1.0,6
34726,34726,2021-01-21 22:03:36.178,1.5708916000000002,1.0,6
34736,34736,2021-01-21 22:04:06.178,1.3991854,1.0,6
34746,34746,2021-01-21 22:04:36.178,1.2715123,1.0,6
34756,34756,2021-01-21 22:05:06.178,1.1671798,1.0,6
34766,34766,2021-01-21 22:05:36.178,1.0805688,1.0,6
34776,34776,2021-01-21 22:06:06.178,1.0093212,1.0,6
34786,34786,2021-01-21 22:06:36.178,0.9561354999999999,1.0,6
34796,34796,2021-01-21 22:07:06.178,0.9019921000000001,1.0,6
34806,34806,2021-01-21 22:07:36.178,0.8632575000000001,1.0,6
34816,34816,2021-01-21 22:08:06.178,0.8211596,1.0,6
34826,34826,2021-01-21 22:08:36.178,0.7822906999999999,1.0,6
34836,34836,2021-01-21 22:09:06.178,0.74675775,1.0,6
34846,34846,2021-01-21 22:09:36.178,0.7152364,1.0,6
34856,34856,2021-01-21 22:10:06.178,0.6873895000000001,1.0,6
34866,34866,2021-01-21 22:10:36.178,0.6633563,1.0,6
34876,34876,2021-01-21 22:11:06.178,0.64232695,1.0,6
34886,34886,2021-01-21 22:11:36.178,0.62422967,1.0,6
34896,34896,2021-01-21 22:12:06.178,0.60919535,1.0,6
34906,34906,2021-01-21 22:12:36.178,0.597221,1.0,6
34916,34916,2021-01-21 22:13:06.178,0.58834934,1.0,6
34926,34926,2021-01-21 22:13:36.178,0.5827677,1.0,6
34936,34936,2021-01-21 22:14:06.178,0.5808269,1.0,6
34946,34946,2021-01-21 22:14:36.178,0.5828539,1.0,6
34956,34956,2021-01-21 22:15:06.178,0.5892153,1.0,6
34966,34966,2021-01-21 22:15:36.178,0.589195,1.0,6
34976,34976,2021-01-21 22:16:06.178,0.6011312,1.0,6
34986,34986,2021-01-21 22:16:36.178,0.61954474,1.0,6
34996,34996,2021-01-21 22:17:06.178,0.64771163,1.0,6
35006,35006,2021-01-21 22:17:36.178,0.6909219,1.0,6
35016,35016,2021-01-21 22:18:06.178,0.76160395,1.0,6
35026,35026,2021-01-21 22:18:36.178,1.0000007,1.0,6
35036,35036,2021-01-21 22:19:06.178,1.0000007,1.0,6
35046,35046,2021-01-21 22:19:36.178,1.0000007,1.0,6
35056,35056,2021-01-21 22:20:06.178,1.0000007,1.0,6
35066,35066,2021-01-21 22:20:36.178,1.0000007,1.0,6
35076,35076,2021-01-21 22:21:06.178,1.0000007,1.0,6
35086,35086,2021-01-21 22:21:36.178,1.0000007,1.0,6
35096,35096,2021-01-21 22:22:06.178,1.0000007,1.0,6
35106,35106,2021-01-21 22:22:36.178,1.0000007,1.0,6
35116,35116,2021-01-21 22:23:06.178,1.0000007,1.0,6
35126,35126,2021-01-21 22:23:36.178,1.0000007,1.0,6
35136,35136,2021-01-21 22:24:06.178,1.0000007,1.0,6
35146,35146,2021-01-21 22:24:36.178,1.0000007,1.0,6
35156,35156,2021-01-21 22:25:06.178,1.0000007,1.0,6
35166,35166,2021-01-21 22:25:36.178,1.0000007,1.0,6
35176,35176,2021-01-21 22:26:06.178,1.0000007,1.0,6
35186,35186,2021-01-21 22:26:36.178,1.0000007,1.0,6
35196,35196,2021-01-21 22:27:06.178,1.0000007,1.0,6
35206,35206,2021-01-21 22:27:36.178,1.0000007,1.0,6
35216,35216,2021-01-21 22:28:06.178,1.0000007,1.0,6
35226,35226,2021-01-21 22:28:36.178,1.0000007,1.0,6
35236,35236,2021-01-21 22:29:06.178,1.0000007,1.0,6
35246,35246,2021-01-21 22:29:36.178,1.0000007,1.0,6
35256,35256,2021-01-21 22:30:06.178,1.0000007,1.0,6
35266,35266,2021-01-21 22:30:36.178,1.0000007,1.0,6
35276,35276,2021-01-21 22:31:06.178,1.0000007,1.0,6
35286,35286,2021-01-21 22:31:36.178,1.0000007,1.0,6
35296,35296,2021-01-21 22:32:06.178,1.0000007,1.0,6
35306,35306,2021-01-21 22:32:36.178,1.0000007,1.0,6
35316,35316,2021-01-21 22:33:06.178,1.0000007,1.0,6
35326,35326,2021-01-21 22:33:36.178,1.0000007,1.0,6
35336,35336,2021-01-21 22:34:06.178,1.0000007,1.0,6
35346,35346,2021-01-21 22:34:36.178,1.0000007,1.0,6
35356,35356,2021-01-21 22:35:06.178,1.0000007,1.0,6
35366,35366,2021-01-21 22:35:36.178,1.0000007,1.0,6
35376,35376,2021-01-21 22:36:06.178,1.0000007,1.0,6
35386,35386,2021-01-21 22:36:36.178,1.0000007,1.0,6
35396,35396,2021-01-21 22:37:06.178,1.0000007,1.0,6
35406,35406,2021-01-21 22:37:36.178,1.0000007,1.0,6
35416,35416,2021-01-21 22:38:06.178,1.0000007,1.0,6
35426,35426,2021-01-21 22:38:36.178,1.0000007,1.0,6
35436,35436,2021-01-21 22:39:06.178,1.0000007,1.0,6
35446,35446,2021-01-21 22:39:36.178,1.0000007,1.0,6
35456,35456,2021-01-21 22:40:06.178,1.0000007,1.0,6
35466,35466,2021-01-21 22:40:36.178,1.0000007,1.0,6
35476,35476,2021-01-21 22:41:06.178,1.0000007,1.0,6
35486,35486,2021-01-21 22:41:36.178,1.0000007,1.0,6
35496,35496,2021-01-21 22:42:06.178,1.0000007,1.0,6
35506,35506,2021-01-21 22:42:36.178,1.0000007,1.0,6
35516,35516,2021-01-21 22:43:06.178,1.0000007,1.0,6
35526,35526,2021-01-21 22:43:36.178,1.0000007,1.0,6
35536,35536,2021-01-21 22:44:06.178,1.0000007,1.0,6
35546,35546,2021-01-21 22:44:36.178,1.0000007,1.0,6
35556,35556,2021-01-21 22:45:06.178,1.0000007,1.0,6
35566,35566,2021-01-21 22:45:36.178,1.0000007,1.0,6
35576,35576,2021-01-21 22:46:06.178,1.0000007,1.0,6
35586,35586,2021-01-21 22:46:36.178,1.0000007,1.0,6
35596,35596,2021-01-21 22:47:06.178,1.0000007,1.0,6
35606,35606,2021-01-21 22:47:36.178,1.0000007,1.0,6
35616,35616,2021-01-21 22:48:06.178,1.0000007,1.0,6
35626,35626,2021-01-21 22:48:36.178,1.0000007,1.0,6
35636,35636,2021-01-21 22:49:06.178,1.0000007,1.0,6
35646,35646,2021-01-21 22:49:36.178,1.0000007,1.0,6
35656,35656,2021-01-21 22:50:06.178,1.0000007,1.0,6
35666,35666,2021-01-21 22:50:36.178,1.0000007,1.0,6
35676,35676,2021-01-21 22:51:06.178,1.0000007,1.0,6
35686,35686,2021-01-21 22:51:36.178,1.0000007,1.0,6
35696,35696,2021-01-21 22:52:06.178,1.0000007,1.0,6
35706,35706,2021-01-21 22:52:36.178,1.0000007,1.0,6
35716,35716,2021-01-21 22:53:06.178,1.0000007,1.0,6
35726,35726,2021-01-21 22:53:36.178,1.0000007,1.0,6
35736,35736,2021-01-21 22:54:06.178,1.0000007,1.0,6
35746,35746,2021-01-21 22:54:36.178,1.0000007,1.0,6
35756,35756,2021-01-21 22:55:06.178,1.0000007,1.0,6
35766,35766,2021-01-21 22:55:36.178,1.0000007,1.0,6
35776,35776,2021-01-21 22:56:06.178,1.0000007,1.0,6
35786,35786,2021-01-21 22:56:36.178,1.0000007,1.0,6
35796,35796,2021-01-21 22:57:06.178,1.0000007,1.0,6
35806,35806,2021-01-21 22:57:36.178,1.0000007,1.0,6
35816,35816,2021-01-21 22:58:06.178,1.0000007,1.0,6
35826,35826,2021-01-21 22:58:36.178,1.0000007,1.0,6
35836,35836,2021-01-21 22:59:06.178,1.0000007,1.0,6
35846,35846,2021-01-21 22:59:36.178,1.0000007,1.0,6
35856,35856,2021-01-21 23:00:06.178,1.0000007,1.0,6
35866,35866,2021-01-21 23:00:36.178,1.0000007,1.0,6
35876,35876,2021-01-21 23:01:06.178,1.0000007,1.0,6
35886,35886,2021-01-21 23:01:36.178,1.0000007,1.0,6
35896,35896,2021-01-21 23:02:06.178,1.0000007,1.0,6
35906,35906,2021-01-21 23:02:36.178,1.0000007,1.0,6
35916,35916,2021-01-21 23:03:06.178,1.0000007,1.0,6
35926,35926,2021-01-21 23:03:36.178,1.0000007,1.0,6
35936,35936,2021-01-21 23:04:06.178,1.0000007,1.0,6
35946,35946,2021-01-21 23:04:36.178,1.0000007,1.0,6
35956,35956,2021-01-21 23:05:06.178,1.0000007,1.0,6
35966,35966,2021-01-21 23:05:36.178,1.0000007,1.0,6
35976,35976,2021-01-21 23:06:06.178,1.0000007,1.0,6
35986,35986,2021-01-21 23:06:36.178,1.0000007,1.0,6
35996,35996,2021-01-21 23:07:06.178,1.0000007,1.0,6
36006,36006,2021-01-21 23:07:36.178,1.0000007,1.0,6
36016,36016,2021-01-21 23:08:06.178,1.0000007,1.0,6
36026,36026,2021-01-21 23:08:36.178,1.0000007,1.0,6
36036,36036,2021-01-21 23:09:06.178,1.0000007,1.0,6
36046,36046,2021-01-21 23:09:36.178,1.0000007,1.0,6
36056,36056,2021-01-21 23:10:06.178,1.0000007,1.0,6
36066,36066,2021-01-21 23:10:36.178,1.0000007,1.0,6
36076,36076,2021-01-21 23:11:06.178,1.0000007,1.0,6
36086,36086,2021-01-21 23:11:36.178,1.0000007,1.0,6
36096,36096,2021-01-21 23:12:06.178,1.0000007,1.0,6
36106,36106,2021-01-21 23:12:36.178,1.0000007,1.0,6
36116,36116,2021-01-21 23:13:06.178,1.0000007,1.0,6
36126,36126,2021-01-21 23:13:36.178,1.0000007,1.0,6
36136,36136,2021-01-21 23:14:06.178,1.0000007,1.0,6
36146,36146,2021-01-21 23:14:36.178,1.0000007,1.0,6
36156,36156,2021-01-21 23:15:06.178,1.0000007,1.0,6
36166,36166,2021-01-21 23:15:36.178,1.0000007,1.0,6
36176,36176,2021-01-21 23:16:06.178,1.0000007,1.0,6
36186,36186,2021-01-21 23:16:36.178,1.0000007,1.0,6
36196,36196,2021-01-21 23:17:06.178,1.0000007,1.0,6
36206,36206,2021-01-21 23:17:36.178,1.0000007,1.0,6
36216,36216,2021-01-21 23:18:06.178,1.0000007,1.0,6
36226,36226,2021-01-21 23:18:36.178,1.0000007,1.0,6
36236,36236,2021-01-21 23:19:06.178,1.0000007,1.0,6
36246,36246,2021-01-21 23:19:36.178,1.0000007,1.0,6
36256,36256,2021-01-21 23:20:06.178,1.0000007,1.0,6
36266,36266,2021-01-21 23:20:36.178,1.0000007,1.0,6
36276,36276,2021-01-21 23:21:06.178,1.0000007,1.0,6
36286,36286,2021-01-21 23:21:36.178,1.0000007,1.0,6
36296,36296,2021-01-21 23:22:06.178,1.0000007,1.0,6
36306,36306,2021-01-21 23:22:36.178,1.0000007,1.0,6
36316,36316,2021-01-21 23:23:06.178,1.0000007,1.0,6
36326,36326,2021-01-21 23:23:36.178,1.0000007,1.0,6
36336,36336,2021-01-21 23:24:06.178,1.0000007,1.0,6
36346,36346,2021-01-21 23:24:36.178,1.0000007,1.0,6
36356,36356,2021-01-21 23:25:06.178,1.0000007,1.0,6
36366,36366,2021-01-21 23:25:36.178,1.0000007,1.0,6
36376,36376,2021-01-21 23:26:06.178,1.0000007,1.0,6
36386,36386,2021-01-21 23:26:36.178,1.0000007,1.0,6
36396,36396,2021-01-21 23:27:06.178,1.0000007,1.0,6
36406,36406,2021-01-21 23:27:36.178,1.0000007,1.0,6
36416,36416,2021-01-21 23:28:06.178,1.0000007,1.0,6
36426,36426,2021-01-21 23:28:36.178,1.0000007,1.0,6
36436,36436,2021-01-21 23:29:06.178,1.0000007,1.0,6
36446,36446,2021-01-21 23:29:36.178,1.0000007,1.0,6
36456,36456,2021-01-21 23:30:06.178,1.0000007,1.0,6
36466,36466,2021-01-21 23:30:36.178,1.0000007,1.0,6
36476,36476,2021-01-21 23:31:06.178,1.0000007,1.0,6
36486,36486,2021-01-21 23:31:36.178,1.0000007,1.0,6
36496,36496,2021-01-21 23:32:06.178,1.0000007,1.0,6
36506,36506,2021-01-21 23:32:36.178,1.0000007,1.0,6
36516,36516,2021-01-21 23:33:06.178,1.0000007,1.0,6
36526,36526,2021-01-21 23:33:36.178,1.0000007,1.0,6
36536,36536,2021-01-21 23:34:06.178,1.0000007,1.0,6
36546,36546,2021-01-21 23:34:36.178,1.0000007,1.0,6
36556,36556,2021-01-21 23:35:06.178,1.0000007,1.0,6
36566,36566,2021-01-21 23:35:36.178,1.0000007,1.0,6
36576,36576,2021-01-21 23:36:06.178,1.0000007,1.0,6
36586,36586,2021-01-21 23:36:36.178,1.0000007,1.0,6
36596,36596,2021-01-21 23:37:06.178,1.0000007,1.0,6
36606,36606,2021-01-21 23:37:36.178,1.0000007,1.0,6
36616,36616,2021-01-21 23:38:06.178,1.0000007,1.0,6
36626,36626,2021-01-21 23:38:36.178,1.0000007,1.0,6
36636,36636,2021-01-21 23:39:06.178,1.0000007,1.0,6
36646,36646,2021-01-21 23:39:36.178,1.0000007,1.0,6
36656,36656,2021-01-21 23:40:06.178,1.0000007,1.0,6
36666,36666,2021-01-21 23:40:36.178,1.0000007,1.0,6
36676,36676,2021-01-21 23:41:06.178,1.0000007,1.0,6
36686,36686,2021-01-21 23:41:36.178,1.0000007,1.0,6
36696,36696,2021-01-21 23:42:06.178,1.0000007,1.0,6
36706,36706,2021-01-21 23:42:36.178,1.0000007,1.0,6
36716,36716,2021-01-21 23:43:06.178,1.0000007,1.0,6
36726,36726,2021-01-21 23:43:36.178,1.0000007,1.0,6
36736,36736,2021-01-21 23:44:06.178,1.0000007,1.0,6
36746,36746,2021-01-21 23:44:36.178,1.0000007,1.0,6
36756,36756,2021-01-21 23:45:06.178,1.0000007,1.0,6
36766,36766,2021-01-21 23:45:36.178,1.0000007,1.0,6
36776,36776,2021-01-21 23:46:06.178,1.0000007,1.0,6
36786,36786,2021-01-21 23:46:36.178,1.0000007,1.0,6
36796,36796,2021-01-21 23:47:06.178,1.0000007,1.0,6
36806,36806,2021-01-21 23:47:36.178,1.0000007,1.0,6
36816,36816,2021-01-21 23:48:06.178,1.0000007,1.0,6
36826,36826,2021-01-21 23:48:36.178,1.0000007,1.0,6
36836,36836,2021-01-21 23:49:06.178,1.0000007,1.0,6
36846,36846,2021-01-21 23:49:36.178,1.0000007,1.0,6
36856,36856,2021-01-21 23:50:06.178,1.0000007,1.0,6
36866,36866,2021-01-21 23:50:36.178,1.0000007,1.0,6
36876,36876,2021-01-21 23:51:06.178,1.0000007,1.0,6
36886,36886,2021-01-21 23:51:36.178,1.0000007,1.0,6
36896,36896,2021-01-21 23:52:06.178,1.0000007,1.0,6
36906,36906,2021-01-21 23:52:36.178,1.0000007,1.0,6
36916,36916,2021-01-21 23:53:06.178,1.0000007,1.0,6
36926,36926,2021-01-21 23:53:36.178,1.0000007,1.0,6
36936,36936,2021-01-21 23:54:06.178,1.0000007,1.0,6
36946,36946,2021-01-21 23:54:36.178,1.0000007,1.0,6
36956,36956,2021-01-21 23:55:06.178,1.0000007,1.0,6
36966,36966,2021-01-21 23:55:36.178,1.0000007,1.0,6
36976,36976,2021-01-21 23:56:06.178,1.0000007,1.0,6
36986,36986,2021-01-21 23:56:36.178,1.0000007,1.0,6
36996,36996,2021-01-21 23:57:06.178,1.0000007,1.0,6
37006,37006,2021-01-21 23:57:36.178,1.0000007,1.0,6
37016,37016,2021-01-21 23:58:06.178,1.0000007,1.0,6
37026,37026,2021-01-21 23:58:36.178,1.0000007,1.0,6
37036,37036,2021-01-21 23:59:06.178,1.0000007,1.0,6
37046,37046,2021-01-21 23:59:36.178,1.0000007,1.0,6
37056,37056,2021-01-22 00:00:06.178,1.0000007,1.0,6
37066,37066,2021-01-22 00:00:36.178,1.0000007,1.0,6
37076,37076,2021-01-22 00:01:06.178,1.0000007,1.0,6
37086,37086,2021-01-22 00:01:36.178,1.0000007,1.0,6
37096,37096,2021-01-22 00:02:06.178,1.0000007,1.0,6
37106,37106,2021-01-22 00:02:36.178,1.0000007,1.0,6
37116,37116,2021-01-22 00:03:06.178,1.0000007,1.0,6
37126,37126,2021-01-22 00:03:36.178,1.0000007,1.0,6
37136,37136,2021-01-22 00:04:06.178,1.0000007,1.0,6
37146,37146,2021-01-22 00:04:36.178,1.0000007,1.0,6
37156,37156,2021-01-22 00:05:06.178,1.0000007,1.0,6
37166,37166,2021-01-22 00:05:36.178,1.0000007,1.0,6
37176,37176,2021-01-22 00:06:06.178,1.0000007,1.0,6
37186,37186,2021-01-22 00:06:36.178,1.0000007,1.0,6
37196,37196,2021-01-22 00:07:06.178,1.0000007,1.0,6
37206,37206,2021-01-22 00:07:36.178,1.0000007,1.0,6
37216,37216,2021-01-22 00:08:06.178,1.0000007,1.0,6
37226,37226,2021-01-22 00:08:36.178,1.0000007,1.0,6
37236,37236,2021-01-22 00:09:06.178,1.0000007,1.0,6
37246,37246,2021-01-22 00:09:36.178,1.0000007,1.0,6
37256,37256,2021-01-22 00:10:06.178,1.0000007,1.0,6
37266,37266,2021-01-22 00:10:36.178,1.0000007,1.0,6
37276,37276,2021-01-22 00:11:06.178,1.0000007,1.0,6
37286,37286,2021-01-22 00:11:36.178,1.0000007,1.0,6
37296,37296,2021-01-22 00:12:06.178,1.0000007,1.0,6
37306,37306,2021-01-22 00:12:36.178,1.0000007,1.0,6
37316,37316,2021-01-22 00:13:06.178,1.0000007,1.0,6
37326,37326,2021-01-22 00:13:36.178,1.0000007,1.0,6
37336,37336,2021-01-22 00:14:06.178,1.0000007,1.0,6
37346,37346,2021-01-22 00:14:36.178,1.0000007,1.0,6
37356,37356,2021-01-22 00:15:06.178,1.0000007,1.0,6
37366,37366,2021-01-22 00:15:36.178,1.0000007,1.0,6
37376,37376,2021-01-22 00:16:06.178,1.0000007,1.0,6
37386,37386,2021-01-22 00:16:36.178,1.0000007,1.0,6
37396,37396,2021-01-22 00:17:06.178,1.0000007,1.0,6
37406,37406,2021-01-22 00:17:36.178,1.0000007,1.0,6
37416,37416,2021-01-22 00:18:06.178,1.0000007,1.0,6
37426,37426,2021-01-22 00:18:36.178,1.0000007,1.0,6
37436,37436,2021-01-22 00:19:06.178,1.0000007,1.0,6
37446,37446,2021-01-22 00:19:36.178,1.0000007,1.0,6
37456,37456,2021-01-22 00:20:06.178,1.0000007,1.0,6
37466,37466,2021-01-22 00:20:36.178,1.0000007,1.0,6
37476,37476,2021-01-22 00:21:06.178,1.0000007,1.0,6
37486,37486,2021-01-22 00:21:36.178,1.0000007,1.0,6
37496,37496,2021-01-22 00:22:06.178,1.0000007,1.0,6
37506,37506,2021-01-22 00:22:36.178,1.0000007,1.0,6
37516,37516,2021-01-22 00:23:06.178,1.0000007,1.0,6
37526,37526,2021-01-22 00:23:36.178,1.0000007,1.0,6
37536,37536,2021-01-22 00:24:06.178,1.0000007,1.0,6
37546,37546,2021-01-22 00:24:36.178,1.0000007,1.0,6
37556,37556,2021-01-22 00:25:06.178,1.0000007,1.0,6
37566,37566,2021-01-22 00:25:36.178,1.0000007,1.0,6
37576,37576,2021-01-22 00:26:06.178,1.0000007,1.0,6
37586,37586,2021-01-22 00:26:36.178,1.0000007,1.0,6
37596,37596,2021-01-22 00:27:06.178,1.0000007,1.0,6
37606,37606,2021-01-22 00:27:36.178,1.0000007,1.0,6
37616,37616,2021-01-22 00:28:06.178,1.0000007,1.0,6
37626,37626,2021-01-22 00:28:36.178,1.0000007,1.0,6
37636,37636,2021-01-22 00:29:06.178,1.0000007,1.0,6
37646,37646,2021-01-22 00:29:36.178,1.0000007,1.0,6
37656,37656,2021-01-22 00:30:06.178,1.0000007,1.0,6
37666,37666,2021-01-22 00:30:36.178,1.0000007,1.0,6
37676,37676,2021-01-22 00:31:06.178,1.0000007,1.0,6
37686,37686,2021-01-22 00:31:36.178,1.0000007,1.0,6
37696,37696,2021-01-22 00:32:06.178,1.0000007,1.0,6
37706,37706,2021-01-22 00:32:36.178,1.0000007,1.0,6
37716,37716,2021-01-22 00:33:06.178,1.0000007,1.0,6
37726,37726,2021-01-22 00:33:36.178,1.0000007,1.0,6
37736,37736,2021-01-22 00:34:06.178,1.0000007,1.0,6
37746,37746,2021-01-22 00:34:36.178,1.0000007,1.0,6
37756,37756,2021-01-22 00:35:06.178,1.0000007,1.0,6
37766,37766,2021-01-22 00:35:36.178,1.0000007,1.0,6
37776,37776,2021-01-22 00:36:06.178,1.0000007,1.0,6
37786,37786,2021-01-22 00:36:36.178,1.0000007,1.0,6
37796,37796,2021-01-22 00:37:06.178,1.0000007,1.0,6
37806,37806,2021-01-22 00:37:36.178,1.0000007,1.0,6
37816,37816,2021-01-22 00:38:06.178,1.0000007,1.0,6
37826,37826,2021-01-22 00:38:36.178,1.0000007,1.0,6
37836,37836,2021-01-22 00:39:06.178,1.0000007,1.0,6
37846,37846,2021-01-22 00:39:36.178,1.0000007,1.0,6
37856,37856,2021-01-22 00:40:06.178,1.0000007,1.0,6
37866,37866,2021-01-22 00:40:36.178,1.0000007,1.0,6
37876,37876,2021-01-22 00:41:06.178,1.0000007,1.0,6
37886,37886,2021-01-22 00:41:36.178,1.0000007,1.0,6
37896,37896,2021-01-22 00:42:06.178,1.0000007,1.0,6
37906,37906,2021-01-22 00:42:36.178,1.0000007,1.0,6
37916,37916,2021-01-22 00:43:06.178,1.0000007,1.0,6
37926,37926,2021-01-22 00:43:36.178,1.0000007,1.0,6
37936,37936,2021-01-22 00:44:06.178,1.0000007,1.0,6
37946,37946,2021-01-22 00:44:36.178,1.0000007,1.0,6
37956,37956,2021-01-22 00:45:06.178,1.0000007,1.0,6
37966,37966,2021-01-22 00:45:36.178,1.0000007,1.0,6
37976,37976,2021-01-22 00:46:06.178,1.0000007,1.0,6
37986,37986,2021-01-22 00:46:36.178,1.0000007,1.0,6
37996,37996,2021-01-22 00:47:06.178,1.0000007,1.0,6
38006,38006,2021-01-22 00:47:36.178,1.0000007,1.0,6
38016,38016,2021-01-22 00:48:06.178,1.0000007,1.0,6
38026,38026,2021-01-22 00:48:36.178,1.0000007,1.0,6
38036,38036,2021-01-22 00:49:06.178,1.0000007,1.0,6
38046,38046,2021-01-22 00:49:36.178,1.0000007,1.0,6
38056,38056,2021-01-22 00:50:06.178,1.0000007,1.0,6
38066,38066,2021-01-22 00:50:36.178,1.0000007,1.0,6
38076,38076,2021-01-22 00:51:06.178,1.0000007,1.0,6
38086,38086,2021-01-22 00:51:36.178,1.0000007,1.0,6
38096,38096,2021-01-22 00:52:06.178,1.0000007,1.0,6
38106,38106,2021-01-22 00:52:36.178,1.0000007,1.0,6
38116,38116,2021-01-22 00:53:06.178,1.0000007,1.0,6
38126,38126,2021-01-22 00:53:36.178,1.0000007,1.0,6
38136,38136,2021-01-22 00:54:06.178,1.0000007,1.0,6
38146,38146,2021-01-22 00:54:36.178,1.0000007,1.0,6
38156,38156,2021-01-22 00:55:06.178,1.0000007,1.0,6
38166,38166,2021-01-22 00:55:36.178,1.0000007,1.0,6
38176,38176,2021-01-22 00:56:06.178,1.0000007,1.0,6
38186,38186,2021-01-22 00:56:36.178,1.0000007,1.0,6
38196,38196,2021-01-22 00:57:06.178,1.0000007,1.0,6
38206,38206,2021-01-22 00:57:36.178,1.0000007,1.0,6
38216,38216,2021-01-22 00:58:06.178,1.0000007,1.0,6
38226,38226,2021-01-22 00:58:36.178,1.0000007,1.0,6
38236,38236,2021-01-22 00:59:06.178,1.0000007,1.0,6
38246,38246,2021-01-22 00:59:36.178,1.0000007,1.0,6
38256,38256,2021-01-22 01:00:06.178,1.0000007,1.0,6
38266,38266,2021-01-22 01:00:36.178,1.0000007,1.0,6
38276,38276,2021-01-22 01:01:06.178,1.0000007,1.0,6
38286,38286,2021-01-22 01:01:36.178,1.0000007,1.0,6
38296,38296,2021-01-22 01:02:06.178,1.0000007,1.0,6
38306,38306,2021-01-22 01:02:36.178,1.0000007,1.0,6
38316,38316,2021-01-22 01:03:06.178,1.0000007,1.0,6
38326,38326,2021-01-22 01:03:36.178,1.0000007,1.0,6
38336,38336,2021-01-22 01:04:06.178,1.0000007,1.0,6
38346,38346,2021-01-22 01:04:36.178,1.0000007,1.0,6
38356,38356,2021-01-22 01:05:06.178,1.0000007,1.0,6
38366,38366,2021-01-22 01:05:36.178,1.0000007,1.0,6
38376,38376,2021-01-22 01:06:06.178,1.0000007,1.0,6
38386,38386,2021-01-22 01:06:36.178,1.0000007,1.0,6
38396,38396,2021-01-22 01:07:06.178,1.0000007,1.0,6
38406,38406,2021-01-22 01:07:36.178,1.0000007,1.0,6
38416,38416,2021-01-22 01:08:06.178,1.0000007,1.0,6
38426,38426,2021-01-22 01:08:36.178,1.0000007,1.0,6
38436,38436,2021-01-22 01:09:06.178,1.0000007,1.0,6
38446,38446,2021-01-22 01:09:36.178,1.0000007,1.0,6
38456,38456,2021-01-22 01:10:06.178,1.0000007,1.0,6
38466,38466,2021-01-22 01:10:36.178,1.0000007,1.0,6
38476,38476,2021-01-22 01:11:06.178,1.0000007,1.0,6
38486,38486,2021-01-22 01:11:36.178,1.0000007,1.0,6
38496,38496,2021-01-22 01:12:06.178,1.0000007,1.0,6
38506,38506,2021-01-22 01:12:36.178,1.0000007,1.0,6
38516,38516,2021-01-22 01:13:06.178,1.0000007,1.0,6
38526,38526,2021-01-22 01:13:36.178,1.0000007,1.0,6
38536,38536,2021-01-22 01:14:06.178,1.0000007,1.0,6
38546,38546,2021-01-22 01:14:36.178,1.0000007,1.0,6
38556,38556,2021-01-22 01:15:06.178,1.0000007,1.0,6
38566,38566,2021-01-22 01:15:36.178,1.0000007,1.0,6
38576,38576,2021-01-22 01:16:06.178,1.0000007,1.0,6
38586,38586,2021-01-22 01:16:36.178,1.0000007,1.0,6
38596,38596,2021-01-22 01:17:06.178,1.0000007,1.0,6
38606,38606,2021-01-22 01:17:36.178,1.0000007,1.0,6
38616,38616,2021-01-22 01:18:06.178,1.0000007,1.0,6
38626,38626,2021-01-22 01:18:36.178,1.0000007,1.0,6
38636,38636,2021-01-22 01:19:06.178,1.0000007,1.0,6
38646,38646,2021-01-22 01:19:36.178,1.0000007,1.0,6
38656,38656,2021-01-22 01:20:06.178,1.0000007,1.0,6
38666,38666,2021-01-22 01:20:36.178,1.0000007,1.0,6
38676,38676,2021-01-22 01:21:06.178,1.0000007,1.0,6
38686,38686,2021-01-22 01:21:36.178,1.0000007,1.0,6
38696,38696,2021-01-22 01:22:06.178,1.0000007,1.0,6
38706,38706,2021-01-22 01:22:36.178,1.0000007,1.0,6
38716,38716,2021-01-22 01:23:06.178,1.0000007,1.0,6
38726,38726,2021-01-22 01:23:36.178,1.0000007,1.0,6
38736,38736,2021-01-22 01:24:06.178,1.0000007,1.0,6
38746,38746,2021-01-22 01:24:36.178,1.0000007,1.0,6
38756,38756,2021-01-22 01:25:06.178,1.0000007,1.0,6
38766,38766,2021-01-22 01:25:36.178,1.0000007,1.0,6
38776,38776,2021-01-22 01:26:06.178,1.0000007,1.0,6
38786,38786,2021-01-22 01:26:36.178,1.0000007,1.0,6
38796,38796,2021-01-22 01:27:06.178,1.0000007,1.0,6
38806,38806,2021-01-22 01:27:36.178,1.0000007,1.0,6
38816,38816,2021-01-22 01:28:06.178,1.0000007,1.0,6
38826,38826,2021-01-22 01:28:36.178,1.0000007,1.0,6
38836,38836,2021-01-22 01:29:06.178,1.0000007,1.0,6
38846,38846,2021-01-22 01:29:36.178,1.0000007,1.0,6
38856,38856,2021-01-22 01:30:06.178,1.0000007,1.0,6
38866,38866,2021-01-22 01:30:36.178,1.0000007,1.0,6
38876,38876,2021-01-22 01:31:06.178,1.0000007,1.0,6
38886,38886,2021-01-22 01:31:36.178,1.0000007,1.0,6
38896,38896,2021-01-22 01:32:06.178,1.0000007,1.0,6
38906,38906,2021-01-22 01:32:36.178,1.0000007,1.0,6
38916,38916,2021-01-22 01:33:06.178,1.0000007,1.0,6
38926,38926,2021-01-22 01:33:36.178,1.0000007,0.0,6
38936,38936,2021-01-22 01:34:06.178,1.0000007,0.0,6
38946,38946,2021-01-22 01:34:36.178,1.0000007,0.0,6
38956,38956,2021-01-22 01:35:06.178,1.0000007,0.0,6
38966,38966,2021-01-22 01:35:36.178,1.0000007,0.0,6
38976,38976,2021-01-22 01:36:06.178,1.0000007,0.0,6
