,Unnamed: 0,time,prediction,real,step
25717,25717,2021-01-21 14:33:36.178,32.22225,29.0,7
25727,25727,2021-01-21 14:34:06.178,32.526943,30.0,7
25737,25737,2021-01-21 14:34:36.178,32.300647999999995,30.0,7
25747,25747,2021-01-21 14:35:06.178,31.835701,30.0,7
25757,25757,2021-01-21 14:35:36.178,31.039192,31.0,7
25767,25767,2021-01-21 14:36:06.178,31.55412,31.0,7
25777,25777,2021-01-21 14:36:36.178,31.532814000000002,32.0,7
25787,25787,2021-01-21 14:37:06.178,32.46127,32.0,7
25797,25797,2021-01-21 14:37:36.178,32.530556,33.0,7
25807,25807,2021-01-21 14:38:06.178,33.69097,33.0,7
25817,25817,2021-01-21 14:38:36.178,33.69721,33.0,7
25827,25827,2021-01-21 14:39:06.178,33.500996,34.0,7
25837,25837,2021-01-21 14:39:36.178,34.364124,34.0,7
25847,25847,2021-01-21 14:40:06.178,34.399242,36.0,7
25857,25857,2021-01-21 14:40:36.178,35.622646,36.0,7
25867,25867,2021-01-21 14:41:06.178,35.61098,37.0,7
25877,25877,2021-01-21 14:41:36.178,36.96048,37.0,7
25887,25887,2021-01-21 14:42:06.178,36.842213,37.0,7
25897,25897,2021-01-21 14:42:36.178,36.43647,39.0,7
25907,25907,2021-01-21 14:43:06.178,37.404156,39.0,7
25917,25917,2021-01-21 14:43:36.178,37.406044,40.0,7
25927,25927,2021-01-21 14:44:06.178,41.336420000000004,40.0,7
25937,25937,2021-01-21 14:44:36.178,42.707134,42.0,7
25947,25947,2021-01-21 14:45:06.178,44.786514000000004,42.0,7
25957,25957,2021-01-21 14:45:36.178,44.29488,42.0,7
25967,25967,2021-01-21 14:46:06.178,42.681694,44.0,7
25977,25977,2021-01-21 14:46:36.178,45.577812,44.0,7
25987,25987,2021-01-21 14:47:06.178,46.36286,44.0,7
25997,25997,2021-01-21 14:47:36.178,48.044106,47.0,7
26007,26007,2021-01-21 14:48:06.178,47.154090000000004,47.0,7
26017,26017,2021-01-21 14:48:36.178,50.236828,49.0,7
26027,26027,2021-01-21 14:49:06.178,50.682373,49.0,7
26037,26037,2021-01-21 14:49:36.178,49.19255,52.0,7
26047,26047,2021-01-21 14:50:06.178,51.58745,52.0,7
26057,26057,2021-01-21 14:50:36.178,51.94792,52.0,7
26067,26067,2021-01-21 14:51:06.178,50.160903999999995,55.0,7
26077,26077,2021-01-21 14:51:36.178,55.88159,55.0,7
26087,26087,2021-01-21 14:52:06.178,57.32200600000001,55.0,7
26097,26097,2021-01-21 14:52:36.178,62.13288000000001,59.0,7
26107,26107,2021-01-21 14:53:06.178,60.79195,59.0,7
26117,26117,2021-01-21 14:53:36.178,67.91020999999999,63.0,7
26127,26127,2021-01-21 14:54:06.178,67.6425,63.0,7
26137,26137,2021-01-21 14:54:36.178,65.10813,63.0,7
26147,26147,2021-01-21 14:55:06.178,68.81681999999999,67.0,7
26157,26157,2021-01-21 14:55:36.178,68.215614,67.0,7
26167,26167,2021-01-21 14:56:06.178,65.202866,67.0,7
26177,26177,2021-01-21 14:56:36.178,71.85264000000001,73.0,7
26187,26187,2021-01-21 14:57:06.178,73.314224,73.0,7
26197,26197,2021-01-21 14:57:36.178,84.411575,73.0,7
26207,26207,2021-01-21 14:58:06.178,83.39235,79.0,7
26217,26217,2021-01-21 14:58:36.178,80.67412,79.0,7
26227,26227,2021-01-21 14:59:06.178,84.69028,79.0,7
26237,26237,2021-01-21 14:59:36.178,84.29607,87.0,7
26247,26247,2021-01-21 15:00:06.178,79.884796,87.0,7
26257,26257,2021-01-21 15:00:36.178,91.058495,87.0,7
26267,26267,2021-01-21 15:01:06.178,93.98623,97.0,7
26277,26277,2021-01-21 15:01:36.178,90.76814,97.0,7
26287,26287,2021-01-21 15:02:06.178,99.61395,109.0,7
26297,26297,2021-01-21 15:02:36.178,101.4208,109.0,7
26307,26307,2021-01-21 15:03:06.178,97.36889000000001,108.0,7
26317,26317,2021-01-21 15:03:36.178,112.02058999999998,124.0,7
26327,26327,2021-01-21 15:04:06.178,115.97285500000001,124.0,7
26337,26337,2021-01-21 15:04:36.178,112.66471000000001,144.0,7
26347,26347,2021-01-21 15:05:06.178,132.94675,144.0,7
26357,26357,2021-01-21 15:05:36.178,137.40213,144.0,7
26367,26367,2021-01-21 15:06:06.178,177.16076999999999,173.0,7
26377,26377,2021-01-21 15:06:36.178,186.16914,173.0,7
26387,26387,2021-01-21 15:07:06.178,169.98842,173.0,7
26397,26397,2021-01-21 15:07:36.178,211.19775,216.0,7
26407,26407,2021-01-21 15:08:06.178,219.40596000000002,216.0,7
26417,26417,2021-01-21 15:08:36.178,248.36912999999998,287.0,7
26427,26427,2021-01-21 15:09:06.178,275.33054,287.0,7
26437,26437,2021-01-21 15:09:36.178,275.39972,287.0,7
26447,26447,2021-01-21 15:10:06.178,327.4595,430.0,7
26457,26457,2021-01-21 15:10:36.178,362.7779,430.0,7
26467,26467,2021-01-21 15:11:06.178,344.48697000000004,430.0,7
26477,26477,2021-01-21 15:11:36.178,443.06317,859.0,7
26487,26487,2021-01-21 15:12:06.178,501.71582,859.0,7
26497,26497,2021-01-21 15:12:36.178,518.5606700000001,857.0,7
26507,26507,2021-01-21 15:13:06.178,678.6969,857.0,7
26517,26517,2021-01-21 15:13:36.178,821.3811599999999,857.0,7
26527,26527,2021-01-21 15:14:06.178,839.2182,857.0,7
26537,26537,2021-01-21 15:14:36.178,1122.8329,857.0,7
26547,26547,2021-01-21 15:15:06.178,1528.7251,857.0,7
26557,26557,2021-01-21 15:15:36.178,414.2064,428.0,7
26567,26567,2021-01-21 15:16:06.178,433.616,428.0,7
26577,26577,2021-01-21 15:16:36.178,287.02707000000004,285.0,7
26587,26587,2021-01-21 15:17:06.178,277.21008,285.0,7
26597,26597,2021-01-21 15:17:36.178,233.1341,285.0,7
26607,26607,2021-01-21 15:18:06.178,201.20775,213.0,7
26617,26617,2021-01-21 15:18:36.178,187.37736999999998,213.0,7
26627,26627,2021-01-21 15:19:06.178,195.8595,213.0,7
26637,26637,2021-01-21 15:19:36.178,169.32587,170.0,7
26647,26647,2021-01-21 15:20:06.178,159.32375,170.0,7
26657,26657,2021-01-21 15:20:36.178,144.20522,170.0,7
26667,26667,2021-01-21 15:21:06.178,138.00246,142.0,7
26677,26677,2021-01-21 15:21:36.178,128.06293,142.0,7
26687,26687,2021-01-21 15:22:06.178,114.08113999999999,142.0,7
26697,26697,2021-01-21 15:22:36.178,110.04422,121.0,7
26707,26707,2021-01-21 15:23:06.178,106.878845,121.0,7
26717,26717,2021-01-21 15:23:36.178,106.727974,106.0,7
26727,26727,2021-01-21 15:24:06.178,108.280426,106.0,7
26737,26737,2021-01-21 15:24:36.178,110.19391,106.0,7
26747,26747,2021-01-21 15:25:06.178,107.59888500000001,94.0,7
26757,26757,2021-01-21 15:25:36.178,105.15140500000001,94.0,7
26767,26767,2021-01-21 15:26:06.178,102.80922,94.0,7
26777,26777,2021-01-21 15:26:36.178,96.59360500000001,84.0,7
26787,26787,2021-01-21 15:27:06.178,90.97522,84.0,7
26797,26797,2021-01-21 15:27:36.178,83.04999000000001,84.0,7
26807,26807,2021-01-21 15:28:06.178,76.20477,77.0,7
26817,26817,2021-01-21 15:28:36.178,70.24399,77.0,7
26827,26827,2021-01-21 15:29:06.178,63.627388,70.0,7
26837,26837,2021-01-21 15:29:36.178,58.064354,70.0,7
26847,26847,2021-01-21 15:30:06.178,53.355373,70.0,7
26857,26857,2021-01-21 15:30:36.178,50.02233,65.0,7
26867,26867,2021-01-21 15:31:06.178,47.582558,65.0,7
26877,26877,2021-01-21 15:31:36.178,45.954075,65.0,7
26887,26887,2021-01-21 15:32:06.178,44.708942,60.0,7
26897,26897,2021-01-21 15:32:36.178,44.363594,60.0,7
26907,26907,2021-01-21 15:33:06.178,44.573727000000005,60.0,7
26917,26917,2021-01-21 15:33:36.178,46.08849,56.0,7
26927,26927,2021-01-21 15:34:06.178,52.07622,56.0,7
26937,26937,2021-01-21 15:34:36.178,51.10828,56.0,7
26947,26947,2021-01-21 15:35:06.178,49.582367,52.0,7
26957,26957,2021-01-21 15:35:36.178,48.612922999999995,52.0,7
26967,26967,2021-01-21 15:36:06.178,47.684723,52.0,7
26977,26977,2021-01-21 15:36:36.178,47.606167,49.0,7
26987,26987,2021-01-21 15:37:06.178,46.720177,49.0,7
26997,26997,2021-01-21 15:37:36.178,45.91615,49.0,7
27007,27007,2021-01-21 15:38:06.178,45.765976,46.0,7
27017,27017,2021-01-21 15:38:36.178,44.990593,46.0,7
27027,27027,2021-01-21 15:39:06.178,44.207882,44.0,7
27037,27037,2021-01-21 15:39:36.178,43.99422,44.0,7
27047,27047,2021-01-21 15:40:06.178,43.287884000000005,41.0,7
27057,27057,2021-01-21 15:40:36.178,42.65498,41.0,7
27067,27067,2021-01-21 15:41:06.178,42.512465999999996,39.0,7
27077,27077,2021-01-21 15:41:36.178,41.93022,39.0,7
27087,27087,2021-01-21 15:42:06.178,41.367459999999994,39.0,7
27097,27097,2021-01-21 15:42:36.178,40.563145,38.0,7
27107,27107,2021-01-21 15:43:06.178,39.807705,38.0,7
27117,27117,2021-01-21 15:43:36.178,39.388275,36.0,7
27127,27127,2021-01-21 15:44:06.178,38.38772,36.0,7
27137,27137,2021-01-21 15:44:36.178,37.665805999999996,36.0,7
27147,27147,2021-01-21 15:45:06.178,36.96355,34.0,7
27157,27157,2021-01-21 15:45:36.178,36.105953,34.0,7
27167,27167,2021-01-21 15:46:06.178,35.498955,34.0,7
27177,27177,2021-01-21 15:46:36.178,35.002113,33.0,7
27187,27187,2021-01-21 15:47:06.178,34.419994,33.0,7
27197,27197,2021-01-21 15:47:36.178,33.809334,32.0,7
27207,27207,2021-01-21 15:48:06.178,33.091488,32.0,7
27217,27217,2021-01-21 15:48:36.178,32.541509999999995,32.0,7
27227,27227,2021-01-21 15:49:06.178,31.942954999999998,30.0,7
27237,27237,2021-01-21 15:49:36.178,31.312359000000004,30.0,7
27247,27247,2021-01-21 15:50:06.178,30.841915000000004,30.0,7
27257,27257,2021-01-21 15:50:36.178,30.419634000000002,29.0,7
27267,27267,2021-01-21 15:51:06.178,29.918488,29.0,7
27277,27277,2021-01-21 15:51:36.178,29.443893,29.0,7
27287,27287,2021-01-21 15:52:06.178,29.121727000000003,28.0,7
27297,27297,2021-01-21 15:52:36.178,28.763679999999997,28.0,7
27307,27307,2021-01-21 15:53:06.178,28.265163,28.0,7
27317,27317,2021-01-21 15:53:36.178,27.915546000000003,27.0,7
27327,27327,2021-01-21 15:54:06.178,27.516571000000003,27.0,7
27337,27337,2021-01-21 15:54:36.178,27.112773999999998,27.0,7
27347,27347,2021-01-21 15:55:06.178,26.836624,26.0,7
27357,27357,2021-01-21 15:55:36.178,26.545340000000003,26.0,7
27367,27367,2021-01-21 15:56:06.178,26.261799,26.0,7
27377,27377,2021-01-21 15:56:36.178,26.079645000000003,25.0,7
27387,27387,2021-01-21 15:57:06.178,25.845786999999998,25.0,7
27397,27397,2021-01-21 15:57:36.178,25.61551,25.0,7
27407,27407,2021-01-21 15:58:06.178,25.365915,25.0,7
27417,27417,2021-01-21 15:58:36.178,25.211916,25.0,7
27427,27427,2021-01-21 15:59:06.178,24.870758,24.0,7
27437,27437,2021-01-21 15:59:36.178,24.627229999999997,24.0,7
27447,27447,2021-01-21 16:00:06.178,24.353144,24.0,7
27457,27457,2021-01-21 16:00:36.178,24.022919,23.0,7
27467,27467,2021-01-21 16:01:06.178,23.799034,23.0,7
27477,27477,2021-01-21 16:01:36.178,23.587475,23.0,7
27487,27487,2021-01-21 16:02:06.178,23.437855,22.0,7
27497,27497,2021-01-21 16:02:36.178,23.25405,22.0,7
27507,27507,2021-01-21 16:03:06.178,23.018187,22.0,7
27517,27517,2021-01-21 16:03:36.178,22.863052,22.0,7
27527,27527,2021-01-21 16:04:06.178,22.65232,22.0,7
27537,27537,2021-01-21 16:04:36.178,22.37513,21.0,7
27547,27547,2021-01-21 16:05:06.178,22.171778,21.0,7
27557,27557,2021-01-21 16:05:36.178,21.971804000000002,21.0,7
27567,27567,2021-01-21 16:06:06.178,21.703579,21.0,7
27577,27577,2021-01-21 16:06:36.178,21.442242,21.0,7
27587,27587,2021-01-21 16:07:06.178,21.245594,21.0,7
27597,27597,2021-01-21 16:07:36.178,21.12525,20.0,7
27607,27607,2021-01-21 16:08:06.178,20.929337,20.0,7
27617,27617,2021-01-21 16:08:36.178,20.646553,19.0,7
27627,27627,2021-01-21 16:09:06.178,20.433195,19.0,7
27637,27637,2021-01-21 16:09:36.178,20.206979999999998,19.0,7
27647,27647,2021-01-21 16:10:06.178,20.026052,19.0,7
27657,27657,2021-01-21 16:10:36.178,19.91048,19.0,7
27667,27667,2021-01-21 16:11:06.178,19.795748,19.0,7
27677,27677,2021-01-21 16:11:36.178,19.570870000000003,19.0,7
27687,27687,2021-01-21 16:12:06.178,19.400894,18.0,7
27697,27697,2021-01-21 16:12:36.178,19.083323999999998,18.0,7
27707,27707,2021-01-21 16:13:06.178,18.819738,18.0,7
27717,27717,2021-01-21 16:13:36.178,18.604218,18.0,7
27727,27727,2021-01-21 16:14:06.178,18.38791,18.0,7
27737,27737,2021-01-21 16:14:36.178,18.221128,18.0,7
27747,27747,2021-01-21 16:15:06.178,18.087729,18.0,7
27757,27757,2021-01-21 16:15:36.178,17.931932,18.0,7
27767,27767,2021-01-21 16:16:06.178,17.685062,17.0,7
27777,27777,2021-01-21 16:16:36.178,17.499326999999997,17.0,7
27787,27787,2021-01-21 16:17:06.178,17.361256,17.0,7
27797,27797,2021-01-21 16:17:36.178,17.24514,17.0,7
27807,27807,2021-01-21 16:18:06.178,17.112036,17.0,7
27817,27817,2021-01-21 16:18:36.178,17.029099,17.0,7
27827,27827,2021-01-21 16:19:06.178,17.008753,16.0,7
27837,27837,2021-01-21 16:19:36.178,16.921991000000002,16.0,7
27847,27847,2021-01-21 16:20:06.178,16.743097,16.0,7
27857,27857,2021-01-21 16:20:36.178,16.613325,16.0,7
27867,27867,2021-01-21 16:21:06.178,16.458012,16.0,7
27877,27877,2021-01-21 16:21:36.178,16.33077,15.0,7
27887,27887,2021-01-21 16:22:06.178,16.229864000000003,15.0,7
27897,27897,2021-01-21 16:22:36.178,16.159843,15.0,7
27907,27907,2021-01-21 16:23:06.178,15.986885000000001,15.0,7
27917,27917,2021-01-21 16:23:36.178,15.790688000000001,15.0,7
27927,27927,2021-01-21 16:24:06.178,15.647938,15.0,7
27937,27937,2021-01-21 16:24:36.178,15.540080999999999,14.0,7
27947,27947,2021-01-21 16:25:06.178,15.443663,14.0,7
27957,27957,2021-01-21 16:25:36.178,15.234101999999998,14.0,7
27967,27967,2021-01-21 16:26:06.178,15.071325,14.0,7
27977,27977,2021-01-21 16:26:36.178,14.888717999999999,14.0,7
27987,27987,2021-01-21 16:27:06.178,14.777295,14.0,7
27997,27997,2021-01-21 16:27:36.178,14.607323999999998,14.0,7
28007,28007,2021-01-21 16:28:06.178,14.459517000000002,14.0,7
28017,28017,2021-01-21 16:28:36.178,14.188445999999999,14.0,7
28027,28027,2021-01-21 16:29:06.178,13.960203,14.0,7
28037,28037,2021-01-21 16:29:36.178,13.769912,14.0,7
28047,28047,2021-01-21 16:30:06.178,13.629491,14.0,7
28057,28057,2021-01-21 16:30:36.178,13.519126000000002,14.0,7
28067,28067,2021-01-21 16:31:06.178,13.369535,13.0,7
28077,28077,2021-01-21 16:31:36.178,13.243112,13.0,7
28087,28087,2021-01-21 16:32:06.178,13.140173999999998,13.0,7
28097,28097,2021-01-21 16:32:36.178,13.060191,13.0,7
28107,28107,2021-01-21 16:33:06.178,13.002384,13.0,7
28117,28117,2021-01-21 16:33:36.178,12.980445,13.0,7
28127,28127,2021-01-21 16:34:06.178,12.967848,13.0,7
28137,28137,2021-01-21 16:34:36.178,12.979781,13.0,7
28147,28147,2021-01-21 16:35:06.178,12.832459,13.0,7
28157,28157,2021-01-21 16:35:36.178,12.711441,13.0,7
28167,28167,2021-01-21 16:36:06.178,12.614543,13.0,7
28177,28177,2021-01-21 16:36:36.178,12.548496,12.0,7
28187,28187,2021-01-21 16:37:06.178,12.530754,12.0,7
28197,28197,2021-01-21 16:37:36.178,12.520951,12.0,7
28207,28207,2021-01-21 16:38:06.178,12.462613000000001,12.0,7
28217,28217,2021-01-21 16:38:36.178,12.425179,12.0,7
28227,28227,2021-01-21 16:39:06.178,12.406506,12.0,7
28237,28237,2021-01-21 16:39:36.178,12.40992,12.0,7
28247,28247,2021-01-21 16:40:06.178,12.439212,12.0,7
28257,28257,2021-01-21 16:40:36.178,12.252922,12.0,7
28267,28267,2021-01-21 16:41:06.178,12.118022,12.0,7
28277,28277,2021-01-21 16:41:36.178,12.014161999999999,12.0,7
28287,28287,2021-01-21 16:42:06.178,11.914544,12.0,7
28297,28297,2021-01-21 16:42:36.178,11.836783,12.0,7
28307,28307,2021-01-21 16:43:06.178,11.784198,12.0,7
28317,28317,2021-01-21 16:43:36.178,11.689233,12.0,7
28327,28327,2021-01-21 16:44:06.178,11.605331,11.0,7
28337,28337,2021-01-21 16:44:36.178,11.531637,11.0,7
28347,28347,2021-01-21 16:45:06.178,11.467669,11.0,7
28357,28357,2021-01-21 16:45:36.178,11.413022999999999,11.0,7
28367,28367,2021-01-21 16:46:06.178,11.367132000000002,11.0,7
28377,28377,2021-01-21 16:46:36.178,11.32995,11.0,7
28387,28387,2021-01-21 16:47:06.178,11.310526,11.0,7
28397,28397,2021-01-21 16:47:36.178,11.324496,11.0,7
28407,28407,2021-01-21 16:48:06.178,11.194455,11.0,7
28417,28417,2021-01-21 16:48:36.178,11.090171,11.0,7
28427,28427,2021-01-21 16:49:06.178,11.013767,11.0,7
28437,28437,2021-01-21 16:49:36.178,10.961781,11.0,7
28447,28447,2021-01-21 16:50:06.178,10.860213,11.0,7
28457,28457,2021-01-21 16:50:36.178,10.771646,11.0,7
28467,28467,2021-01-21 16:51:06.178,10.695007,10.0,7
28477,28477,2021-01-21 16:51:36.178,10.629407,10.0,7
28487,28487,2021-01-21 16:52:06.178,10.574063,10.0,7
28497,28497,2021-01-21 16:52:36.178,10.528193,10.0,7
28507,28507,2021-01-21 16:53:06.178,10.491663,10.0,7
28517,28517,2021-01-21 16:53:36.178,10.490386,10.0,7
28527,28527,2021-01-21 16:54:06.178,10.503924000000001,10.0,7
28537,28537,2021-01-21 16:54:36.178,10.515283,10.0,7
28547,28547,2021-01-21 16:55:06.178,10.393508,10.0,7
28557,28557,2021-01-21 16:55:36.178,10.232422,10.0,7
28567,28567,2021-01-21 16:56:06.178,10.093703999999999,10.0,7
28577,28577,2021-01-21 16:56:36.178,9.972861,10.0,7
28587,28587,2021-01-21 16:57:06.178,9.867037,10.0,7
28597,28597,2021-01-21 16:57:36.178,9.7743,10.0,7
28607,28607,2021-01-21 16:58:06.178,9.693372,10.0,7
28617,28617,2021-01-21 16:58:36.178,9.623452,10.0,7
28627,28627,2021-01-21 16:59:06.178,9.563787,10.0,7
28637,28637,2021-01-21 16:59:36.178,9.513639999999999,10.0,7
28647,28647,2021-01-21 17:00:06.178,9.47219,10.0,7
28657,28657,2021-01-21 17:00:36.178,9.443871000000001,10.0,7
28667,28667,2021-01-21 17:01:06.178,9.45813,10.0,7
28677,28677,2021-01-21 17:01:36.178,9.464485,9.0,7
28687,28687,2021-01-21 17:02:06.178,9.482496000000001,9.0,7
28697,28697,2021-01-21 17:02:36.178,9.524921,9.0,7
28707,28707,2021-01-21 17:03:06.178,9.500009,9.0,7
28717,28717,2021-01-21 17:03:36.178,9.47916,9.0,7
28727,28727,2021-01-21 17:04:06.178,9.462562,9.0,7
28737,28737,2021-01-21 17:04:36.178,9.450496000000001,9.0,7
28747,28747,2021-01-21 17:05:06.178,9.4431925,9.0,7
28757,28757,2021-01-21 17:05:36.178,9.299053,9.0,7
28767,28767,2021-01-21 17:06:06.178,9.17877,9.0,7
28777,28777,2021-01-21 17:06:36.178,9.077575999999999,9.0,7
28787,28787,2021-01-21 17:07:06.178,8.9926,9.0,7
28797,28797,2021-01-21 17:07:36.178,8.922125,8.0,7
28807,28807,2021-01-21 17:08:06.178,8.865192,8.0,7
28817,28817,2021-01-21 17:08:36.178,8.819806,8.0,7
28827,28827,2021-01-21 17:09:06.178,8.791941,8.0,7
28837,28837,2021-01-21 17:09:36.178,8.812844,8.0,7
28847,28847,2021-01-21 17:10:06.178,8.762658,8.0,7
28857,28857,2021-01-21 17:10:36.178,8.712542,8.0,7
28867,28867,2021-01-21 17:11:06.178,8.666541,8.0,7
28877,28877,2021-01-21 17:11:36.178,8.456589,8.0,7
28887,28887,2021-01-21 17:12:06.178,8.2820635,8.0,7
28897,28897,2021-01-21 17:12:36.178,8.133348,8.0,7
28907,28907,2021-01-21 17:13:06.178,8.0042095,8.0,7
28917,28917,2021-01-21 17:13:36.178,7.8904914999999995,8.0,7
28927,28927,2021-01-21 17:14:06.178,7.7902727,8.0,7
28937,28937,2021-01-21 17:14:36.178,7.702050999999999,8.0,7
28947,28947,2021-01-21 17:15:06.178,7.624647,8.0,7
28957,28957,2021-01-21 17:15:36.178,7.5572433000000006,8.0,7
28967,28967,2021-01-21 17:16:06.178,7.4993086,8.0,7
28977,28977,2021-01-21 17:16:36.178,7.450224,8.0,7
28987,28987,2021-01-21 17:17:06.178,7.409314,8.0,7
28997,28997,2021-01-21 17:17:36.178,7.3801527,8.0,7
29007,29007,2021-01-21 17:18:06.178,7.388239,8.0,7
29017,29017,2021-01-21 17:18:36.178,7.390727,8.0,7
29027,29027,2021-01-21 17:19:06.178,7.401805,8.0,7
29037,29037,2021-01-21 17:19:36.178,7.433026299999999,8.0,7
29047,29047,2021-01-21 17:20:06.178,7.486556,8.0,7
29057,29057,2021-01-21 17:20:36.178,7.470275999999999,8.0,7
29067,29067,2021-01-21 17:21:06.178,7.4584399999999995,8.0,7
29077,29077,2021-01-21 17:21:36.178,7.451285400000001,8.0,7
29087,29087,2021-01-21 17:22:06.178,7.4491404999999995,7.0,7
29097,29097,2021-01-21 17:22:36.178,7.4523600000000005,7.0,7
29107,29107,2021-01-21 17:23:06.178,7.4613485,7.0,7
29117,29117,2021-01-21 17:23:36.178,7.478566000000001,7.0,7
29127,29127,2021-01-21 17:24:06.178,7.505298599999999,7.0,7
29137,29137,2021-01-21 17:24:36.178,7.5458317,7.0,7
29147,29147,2021-01-21 17:25:06.178,7.605811,7.0,7
29157,29157,2021-01-21 17:25:36.178,7.700713,7.0,7
29167,29167,2021-01-21 17:26:06.178,7.5972100000000005,7.0,7
29177,29177,2021-01-21 17:26:36.178,7.4233828,7.0,7
29187,29187,2021-01-21 17:27:06.178,7.2888565000000005,7.0,7
29197,29197,2021-01-21 17:27:36.178,7.1741734,7.0,7
29207,29207,2021-01-21 17:28:06.178,7.0747375,7.0,7
29217,29217,2021-01-21 17:28:36.178,6.9951034,7.0,7
29227,29227,2021-01-21 17:29:06.178,6.930581599999999,7.0,7
29237,29237,2021-01-21 17:29:36.178,6.865862400000001,7.0,7
29247,29247,2021-01-21 17:30:06.178,6.8153977,7.0,7
29257,29257,2021-01-21 17:30:36.178,6.7659210000000005,7.0,7
29267,29267,2021-01-21 17:31:06.178,6.716697,7.0,7
29277,29277,2021-01-21 17:31:36.178,6.671559299999999,7.0,7
29287,29287,2021-01-21 17:32:06.178,6.631253200000001,7.0,7
29297,29297,2021-01-21 17:32:36.178,6.595897999999999,7.0,7
29307,29307,2021-01-21 17:33:06.178,6.563871400000001,7.0,7
29317,29317,2021-01-21 17:33:36.178,6.535764,7.0,7
29327,29327,2021-01-21 17:34:06.178,6.511648,7.0,7
29337,29337,2021-01-21 17:34:36.178,6.491505999999999,7.0,7
29347,29347,2021-01-21 17:35:06.178,6.475445,7.0,7
29357,29357,2021-01-21 17:35:36.178,6.4637566,7.0,7
29367,29367,2021-01-21 17:36:06.178,6.456706,7.0,7
29377,29377,2021-01-21 17:36:36.178,6.4546123,7.0,7
29387,29387,2021-01-21 17:37:06.178,6.4578834,7.0,7
29397,29397,2021-01-21 17:37:36.178,6.466892700000001,7.0,7
29407,29407,2021-01-21 17:38:06.178,6.483701,7.0,7
29417,29417,2021-01-21 17:38:36.178,6.5100117,6.0,7
29427,29427,2021-01-21 17:39:06.178,6.550036,6.0,7
29437,29437,2021-01-21 17:39:36.178,6.609287700000001,6.0,7
29447,29447,2021-01-21 17:40:06.178,6.7031717,6.0,7
29457,29457,2021-01-21 17:40:36.178,6.999998,6.0,7
29467,29467,2021-01-21 17:41:06.178,6.999998,6.0,7
29477,29477,2021-01-21 17:41:36.178,6.999998,6.0,7
29487,29487,2021-01-21 17:42:06.178,6.999998,6.0,7
29497,29497,2021-01-21 17:42:36.178,6.595299000000001,6.0,7
29507,29507,2021-01-21 17:43:06.178,6.4214096,6.0,7
29517,29517,2021-01-21 17:43:36.178,6.2871375,6.0,7
29527,29527,2021-01-21 17:44:06.178,6.1728997,6.0,7
29537,29537,2021-01-21 17:44:36.178,6.074192,6.0,7
29547,29547,2021-01-21 17:45:06.178,5.9951096,6.0,7
29557,29557,2021-01-21 17:45:36.178,5.9310384,6.0,7
29567,29567,2021-01-21 17:46:06.178,5.867126,6.0,7
29577,29577,2021-01-21 17:46:36.178,5.8171587,6.0,7
29587,29587,2021-01-21 17:47:06.178,5.768178,6.0,7
29597,29597,2021-01-21 17:47:36.178,5.7195773,6.0,7
29607,29607,2021-01-21 17:48:06.178,5.675033999999999,6.0,7
29617,29617,2021-01-21 17:48:36.178,5.635229,6.0,7
29627,29627,2021-01-21 17:49:06.178,5.600407,6.0,7
29637,29637,2021-01-21 17:49:36.178,5.5688889999999995,6.0,7
29647,29647,2021-01-21 17:50:06.178,5.541222599999999,6.0,7
29657,29657,2021-01-21 17:50:36.178,5.5175047,6.0,7
29667,29667,2021-01-21 17:51:06.178,5.4977117,6.0,7
29677,29677,2021-01-21 17:51:36.178,5.4819260000000005,6.0,7
29687,29687,2021-01-21 17:52:06.178,5.47043,6.0,7
29697,29697,2021-01-21 17:52:36.178,5.463497599999999,6.0,7
29707,29707,2021-01-21 17:53:06.178,5.461457299999999,6.0,7
29717,29717,2021-01-21 17:53:36.178,5.464749299999999,6.0,7
29727,29727,2021-01-21 17:54:06.178,5.473803,6.0,7
29737,29737,2021-01-21 17:54:36.178,5.490130000000001,5.0,7
29747,29747,2021-01-21 17:55:06.178,5.515935400000001,5.0,7
29757,29757,2021-01-21 17:55:36.178,5.55532,5.0,7
29767,29767,2021-01-21 17:56:06.178,5.6136565,5.0,7
29777,29777,2021-01-21 17:56:36.178,5.7062626,5.0,7
29787,29787,2021-01-21 17:57:06.178,6.000004,5.0,7
29797,29797,2021-01-21 17:57:36.178,6.000004,5.0,7
29807,29807,2021-01-21 17:58:06.178,6.000004,5.0,7
29817,29817,2021-01-21 17:58:36.178,5.592792,5.0,7
29827,29827,2021-01-21 17:59:06.178,5.418826999999999,5.0,7
29837,29837,2021-01-21 17:59:36.178,5.2849026,5.0,7
29847,29847,2021-01-21 18:00:06.178,5.171264,5.0,7
29857,29857,2021-01-21 18:00:36.178,5.073457,5.0,7
29867,29867,2021-01-21 18:01:06.178,4.995123400000001,5.0,7
29877,29877,2021-01-21 18:01:36.178,4.931657,5.0,7
29887,29887,2021-01-21 18:02:06.178,4.868733,5.0,7
29897,29897,2021-01-21 18:02:36.178,4.8194230000000005,5.0,7
29907,29907,2021-01-21 18:03:06.178,4.7711053,5.0,7
29917,29917,2021-01-21 18:03:36.178,4.7233057,5.0,7
29927,29927,2021-01-21 18:04:06.178,4.679530000000001,5.0,7
29937,29937,2021-01-21 18:04:36.178,4.640402,5.0,7
29947,29947,2021-01-21 18:05:06.178,4.606249,5.0,7
29957,29957,2021-01-21 18:05:36.178,4.5753818,5.0,7
29967,29967,2021-01-21 18:06:06.178,4.548282599999999,5.0,7
29977,29977,2021-01-21 18:06:36.178,4.5250699999999995,5.0,7
29987,29987,2021-01-21 18:07:06.178,4.505719999999999,5.0,7
29997,29997,2021-01-21 18:07:36.178,4.4902916,5.0,7
30007,30007,2021-01-21 18:08:06.178,4.479043,5.0,7
30017,30017,2021-01-21 18:08:36.178,4.4722669999999995,5.0,7
30027,30027,2021-01-21 18:09:06.178,4.470283,5.0,7
30037,30037,2021-01-21 18:09:36.178,4.4735518,5.0,7
30047,30047,2021-01-21 18:10:06.178,4.4825864,5.0,7
30057,30057,2021-01-21 18:10:36.178,4.49836,5.0,7
30067,30067,2021-01-21 18:11:06.178,4.5235934,5.0,7
30077,30077,2021-01-21 18:11:36.178,4.562149,5.0,7
30087,30087,2021-01-21 18:12:06.178,4.619308999999999,5.0,7
30097,30097,2021-01-21 18:12:36.178,4.7102623,5.0,7
30107,30107,2021-01-21 18:13:06.178,5.0,5.0,7
30117,30117,2021-01-21 18:13:36.178,5.0,5.0,7
30127,30127,2021-01-21 18:14:06.178,5.0,5.0,7
30137,30137,2021-01-21 18:14:36.178,5.0,5.0,7
30147,30147,2021-01-21 18:15:06.178,5.0,5.0,7
30157,30157,2021-01-21 18:15:36.178,5.0,5.0,7
30167,30167,2021-01-21 18:16:06.178,5.0,5.0,7
30177,30177,2021-01-21 18:16:36.178,5.0,5.0,7
30187,30187,2021-01-21 18:17:06.178,5.0,5.0,7
30197,30197,2021-01-21 18:17:36.178,5.0,5.0,7
30207,30207,2021-01-21 18:18:06.178,5.0,5.0,7
30217,30217,2021-01-21 18:18:36.178,5.0,4.0,7
30227,30227,2021-01-21 18:19:06.178,5.0,4.0,7
30237,30237,2021-01-21 18:19:36.178,5.0,4.0,7
30247,30247,2021-01-21 18:20:06.178,5.0,4.0,7
30257,30257,2021-01-21 18:20:36.178,5.0,4.0,7
30267,30267,2021-01-21 18:21:06.178,5.0,4.0,7
30277,30277,2021-01-21 18:21:36.178,5.0,4.0,7
30287,30287,2021-01-21 18:22:06.178,5.0,4.0,7
30297,30297,2021-01-21 18:22:36.178,4.589342,4.0,7
30307,30307,2021-01-21 18:23:06.178,4.415281299999999,4.0,7
30317,30317,2021-01-21 18:23:36.178,4.281832,4.0,7
30327,30327,2021-01-21 18:24:06.178,4.169018,4.0,7
30337,30337,2021-01-21 18:24:36.178,4.072449,4.0,7
30347,30347,2021-01-21 18:25:06.178,3.9951377,4.0,7
30357,30357,2021-01-21 18:25:36.178,3.9324894,4.0,7
30367,30367,2021-01-21 18:26:06.178,3.8708977999999994,4.0,7
30377,30377,2021-01-21 18:26:36.178,3.8224611000000004,4.0,7
30387,30387,2021-01-21 18:27:06.178,3.7750354,4.0,7
30397,30397,2021-01-21 18:27:36.178,3.7283163,4.0,7
30407,30407,2021-01-21 18:28:06.178,3.685573,4.0,7
30417,30417,2021-01-21 18:28:36.178,3.647367,4.0,7
30427,30427,2021-01-21 18:29:06.178,3.6140919,4.0,7
30437,30437,2021-01-21 18:29:36.178,3.5841002,4.0,7
30447,30447,2021-01-21 18:30:06.178,3.5577612000000003,4.0,7
30457,30457,2021-01-21 18:30:36.178,3.535224,4.0,7
30467,30467,2021-01-21 18:31:06.178,3.51646,4.0,7
30477,30477,2021-01-21 18:31:36.178,3.5015106,4.0,7
30487,30487,2021-01-21 18:32:06.178,3.4905958,4.0,7
30497,30497,2021-01-21 18:32:36.178,3.4840245000000003,4.0,7
30507,30507,2021-01-21 18:33:06.178,3.4821123999999997,4.0,7
30517,30517,2021-01-21 18:33:36.178,3.4853267999999997,4.0,7
30527,30527,2021-01-21 18:34:06.178,3.4942842000000005,4.0,7
30537,30537,2021-01-21 18:34:36.178,3.509472,4.0,7
30547,30547,2021-01-21 18:35:06.178,3.5339184,4.0,7
30557,30557,2021-01-21 18:35:36.178,3.5713468,4.0,7
30567,30567,2021-01-21 18:36:06.178,3.6269174,4.0,7
30577,30577,2021-01-21 18:36:36.178,3.7156519999999995,4.0,7
30587,30587,2021-01-21 18:37:06.178,3.9999971,4.0,7
30597,30597,2021-01-21 18:37:36.178,3.9999971,4.0,7
30607,30607,2021-01-21 18:38:06.178,3.9999971,4.0,7
30617,30617,2021-01-21 18:38:36.178,3.9999971,4.0,7
30627,30627,2021-01-21 18:39:06.178,3.9999971,4.0,7
30637,30637,2021-01-21 18:39:36.178,3.9999971,4.0,7
30647,30647,2021-01-21 18:40:06.178,3.9999971,4.0,7
30657,30657,2021-01-21 18:40:36.178,3.9999971,4.0,7
30667,30667,2021-01-21 18:41:06.178,3.9999971,4.0,7
30677,30677,2021-01-21 18:41:36.178,3.9999971,4.0,7
30687,30687,2021-01-21 18:42:06.178,3.9999971,4.0,7
30697,30697,2021-01-21 18:42:36.178,3.9999971,4.0,7
30707,30707,2021-01-21 18:43:06.178,3.9999971,4.0,7
30717,30717,2021-01-21 18:43:36.178,3.9999971,4.0,7
30727,30727,2021-01-21 18:44:06.178,3.9999971,4.0,7
30737,30737,2021-01-21 18:44:36.178,3.9999971,4.0,7
30747,30747,2021-01-21 18:45:06.178,3.9999971,4.0,7
30757,30757,2021-01-21 18:45:36.178,3.9999971,4.0,7
30767,30767,2021-01-21 18:46:06.178,3.9999971,4.0,7
30777,30777,2021-01-21 18:46:36.178,3.9999971,4.0,7
30787,30787,2021-01-21 18:47:06.178,3.9999971,4.0,7
30797,30797,2021-01-21 18:47:36.178,3.9999971,4.0,7
30807,30807,2021-01-21 18:48:06.178,3.9999971,4.0,7
30817,30817,2021-01-21 18:48:36.178,3.9999971,4.0,7
30827,30827,2021-01-21 18:49:06.178,3.9999971,4.0,7
30837,30837,2021-01-21 18:49:36.178,3.9999971,4.0,7
30847,30847,2021-01-21 18:50:06.178,3.9999971,4.0,7
30857,30857,2021-01-21 18:50:36.178,3.9999971,4.0,7
30867,30867,2021-01-21 18:51:06.178,3.9999971,4.0,7
30877,30877,2021-01-21 18:51:36.178,3.9999971,4.0,7
30887,30887,2021-01-21 18:52:06.178,3.9999971,4.0,7
30897,30897,2021-01-21 18:52:36.178,3.9999971,4.0,7
30907,30907,2021-01-21 18:53:06.178,3.9999971,4.0,7
30917,30917,2021-01-21 18:53:36.178,3.9999971,3.0,7
30927,30927,2021-01-21 18:54:06.178,3.9999971,3.0,7
30937,30937,2021-01-21 18:54:36.178,3.9999971,3.0,7
30947,30947,2021-01-21 18:55:06.178,3.9999971,3.0,7
30957,30957,2021-01-21 18:55:36.178,3.9999971,3.0,7
30967,30967,2021-01-21 18:56:06.178,3.9999971,3.0,7
30977,30977,2021-01-21 18:56:36.178,3.9999971,3.0,7
30987,30987,2021-01-21 18:57:06.178,3.9999971,3.0,7
30997,30997,2021-01-21 18:57:36.178,3.5843287000000004,3.0,7
31007,31007,2021-01-21 18:58:06.178,3.4101505,3.0,7
31017,31017,2021-01-21 18:58:36.178,3.2773980000000003,3.0,7
31027,31027,2021-01-21 18:59:06.178,3.1658053,3.0,7
31037,31037,2021-01-21 18:59:36.178,3.071022,3.0,7
31047,31047,2021-01-21 19:00:06.178,2.9951806,3.0,7
31057,31057,2021-01-21 19:00:36.178,2.9337223,3.0,7
31067,31067,2021-01-21 19:01:06.178,2.8740182,3.0,7
31077,31077,2021-01-21 19:01:36.178,2.8267992000000004,3.0,7
31087,31087,2021-01-21 19:02:06.178,2.7806387000000004,3.0,7
31097,31097,2021-01-21 19:02:36.178,2.7354524,3.0,7
31107,31107,2021-01-21 19:03:06.178,2.694173,3.0,7
31117,31117,2021-01-21 19:03:36.178,2.6572964,3.0,7
31127,31127,2021-01-21 19:04:06.178,2.6252275000000003,3.0,7
31137,31137,2021-01-21 19:04:36.178,2.5964737,3.0,7
31147,31147,2021-01-21 19:05:06.178,2.5712029999999997,3.0,7
31157,31157,2021-01-21 19:05:36.178,2.5496082,3.0,7
31167,31167,2021-01-21 19:06:06.178,2.5316612999999997,3.0,7
31177,31177,2021-01-21 19:06:36.178,2.5173843,3.0,7
31187,31187,2021-01-21 19:07:06.178,2.5069456000000003,3.0,7
31197,31197,2021-01-21 19:07:36.178,2.5006566,3.0,7
31207,31207,2021-01-21 19:08:06.178,2.4988368,3.0,7
31217,31217,2021-01-21 19:08:36.178,2.5019405,3.0,7
31227,31227,2021-01-21 19:09:06.178,2.5106394,3.0,7
31237,31237,2021-01-21 19:09:36.178,2.5256933999999998,3.0,7
31247,31247,2021-01-21 19:10:06.178,2.5486855999999998,3.0,7
31257,31257,2021-01-21 19:10:36.178,2.5844367000000004,3.0,7
31267,31267,2021-01-21 19:11:06.178,2.6377453999999996,3.0,7
31277,31277,2021-01-21 19:11:36.178,2.7233381000000003,3.0,7
31287,31287,2021-01-21 19:12:06.178,3.0000023999999996,3.0,7
31297,31297,2021-01-21 19:12:36.178,3.0000023999999996,3.0,7
31307,31307,2021-01-21 19:13:06.178,3.0000023999999996,3.0,7
31317,31317,2021-01-21 19:13:36.178,3.0000023999999996,3.0,7
31327,31327,2021-01-21 19:14:06.178,3.0000023999999996,3.0,7
31337,31337,2021-01-21 19:14:36.178,3.0000023999999996,3.0,7
31347,31347,2021-01-21 19:15:06.178,3.0000023999999996,3.0,7
31357,31357,2021-01-21 19:15:36.178,3.0000023999999996,3.0,7
31367,31367,2021-01-21 19:16:06.178,3.0000023999999996,3.0,7
31377,31377,2021-01-21 19:16:36.178,3.0000023999999996,3.0,7
31387,31387,2021-01-21 19:17:06.178,3.0000023999999996,3.0,7
31397,31397,2021-01-21 19:17:36.178,3.0000023999999996,3.0,7
31407,31407,2021-01-21 19:18:06.178,3.0000023999999996,3.0,7
31417,31417,2021-01-21 19:18:36.178,3.0000023999999996,3.0,7
31427,31427,2021-01-21 19:19:06.178,3.0000023999999996,3.0,7
31437,31437,2021-01-21 19:19:36.178,3.0000023999999996,3.0,7
31447,31447,2021-01-21 19:20:06.178,3.0000023999999996,3.0,7
31457,31457,2021-01-21 19:20:36.178,3.0000023999999996,3.0,7
31467,31467,2021-01-21 19:21:06.178,3.0000023999999996,3.0,7
31477,31477,2021-01-21 19:21:36.178,3.0000023999999996,3.0,7
31487,31487,2021-01-21 19:22:06.178,3.0000023999999996,3.0,7
31497,31497,2021-01-21 19:22:36.178,3.0000023999999996,3.0,7
31507,31507,2021-01-21 19:23:06.178,3.0000023999999996,3.0,7
31517,31517,2021-01-21 19:23:36.178,3.0000023999999996,3.0,7
31527,31527,2021-01-21 19:24:06.178,3.0000023999999996,3.0,7
31537,31537,2021-01-21 19:24:36.178,3.0000023999999996,3.0,7
31547,31547,2021-01-21 19:25:06.178,3.0000023999999996,3.0,7
31557,31557,2021-01-21 19:25:36.178,3.0000023999999996,3.0,7
31567,31567,2021-01-21 19:26:06.178,3.0000023999999996,3.0,7
31577,31577,2021-01-21 19:26:36.178,3.0000023999999996,3.0,7
31587,31587,2021-01-21 19:27:06.178,3.0000023999999996,3.0,7
31597,31597,2021-01-21 19:27:36.178,3.0000023999999996,3.0,7
31607,31607,2021-01-21 19:28:06.178,3.0000023999999996,3.0,7
31617,31617,2021-01-21 19:28:36.178,3.0000023999999996,3.0,7
31627,31627,2021-01-21 19:29:06.178,3.0000023999999996,3.0,7
31637,31637,2021-01-21 19:29:36.178,3.0000023999999996,3.0,7
31647,31647,2021-01-21 19:30:06.178,3.0000023999999996,3.0,7
31657,31657,2021-01-21 19:30:36.178,3.0000023999999996,3.0,7
31667,31667,2021-01-21 19:31:06.178,3.0000023999999996,3.0,7
31677,31677,2021-01-21 19:31:36.178,3.0000023999999996,3.0,7
31687,31687,2021-01-21 19:32:06.178,3.0000023999999996,3.0,7
31697,31697,2021-01-21 19:32:36.178,3.0000023999999996,3.0,7
31707,31707,2021-01-21 19:33:06.178,3.0000023999999996,3.0,7
31717,31717,2021-01-21 19:33:36.178,3.0000023999999996,3.0,7
31727,31727,2021-01-21 19:34:06.178,3.0000023999999996,3.0,7
31737,31737,2021-01-21 19:34:36.178,3.0000023999999996,3.0,7
31747,31747,2021-01-21 19:35:06.178,3.0000023999999996,3.0,7
31757,31757,2021-01-21 19:35:36.178,3.0000023999999996,3.0,7
31767,31767,2021-01-21 19:36:06.178,3.0000023999999996,3.0,7
31777,31777,2021-01-21 19:36:36.178,3.0000023999999996,3.0,7
31787,31787,2021-01-21 19:37:06.178,3.0000023999999996,3.0,7
31797,31797,2021-01-21 19:37:36.178,3.0000023999999996,3.0,7
31807,31807,2021-01-21 19:38:06.178,3.0000023999999996,3.0,7
31817,31817,2021-01-21 19:38:36.178,3.0000023999999996,3.0,7
31827,31827,2021-01-21 19:39:06.178,3.0000023999999996,3.0,7
31837,31837,2021-01-21 19:39:36.178,3.0000023999999996,3.0,7
31847,31847,2021-01-21 19:40:06.178,3.0000023999999996,3.0,7
31857,31857,2021-01-21 19:40:36.178,3.0000023999999996,3.0,7
31867,31867,2021-01-21 19:41:06.178,3.0000023999999996,3.0,7
31877,31877,2021-01-21 19:41:36.178,3.0000023999999996,3.0,7
31887,31887,2021-01-21 19:42:06.178,3.0000023999999996,3.0,7
31897,31897,2021-01-21 19:42:36.178,3.0000023999999996,3.0,7
31907,31907,2021-01-21 19:43:06.178,3.0000023999999996,3.0,7
31917,31917,2021-01-21 19:43:36.178,3.0000023999999996,3.0,7
31927,31927,2021-01-21 19:44:06.178,3.0000023999999996,3.0,7
31937,31937,2021-01-21 19:44:36.178,3.0000023999999996,3.0,7
31947,31947,2021-01-21 19:45:06.178,3.0000023999999996,2.0,7
31957,31957,2021-01-21 19:45:36.178,3.0000023999999996,2.0,7
31967,31967,2021-01-21 19:46:06.178,3.0000023999999996,2.0,7
31977,31977,2021-01-21 19:46:36.178,3.0000023999999996,2.0,7
31987,31987,2021-01-21 19:47:06.178,3.0000023999999996,2.0,7
31997,31997,2021-01-21 19:47:36.178,3.0000023999999996,2.0,7
32007,32007,2021-01-21 19:48:06.178,3.0000023999999996,2.0,7
32017,32017,2021-01-21 19:48:36.178,3.0000023999999996,2.0,7
32027,32027,2021-01-21 19:49:06.178,2.5764572999999995,2.0,7
32037,32037,2021-01-21 19:49:36.178,2.4021547,2.0,7
32047,32047,2021-01-21 19:50:06.178,2.2705362,2.0,7
32057,32057,2021-01-21 19:50:36.178,2.160945,2.0,7
32067,32067,2021-01-21 19:51:06.178,2.068975,2.0,7
32077,32077,2021-01-21 19:51:36.178,1.9953174999999999,2.0,7
32087,32087,2021-01-21 19:52:06.178,1.9358151000000001,2.0,7
32097,32097,2021-01-21 19:52:36.178,1.8790723999999999,2.0,7
32107,32107,2021-01-21 19:53:06.178,1.8336859,2.0,7
32117,32117,2021-01-21 19:53:36.178,1.7893839,2.0,7
32127,32127,2021-01-21 19:54:06.178,1.7465334,2.0,7
32137,32137,2021-01-21 19:54:36.178,1.7074747,2.0,7
32147,32147,2021-01-21 19:55:06.178,1.6726573,2.0,7
32157,32157,2021-01-21 19:55:36.178,1.6423425999999999,2.0,7
32167,32167,2021-01-21 19:56:06.178,1.6154923,2.0,7
32177,32177,2021-01-21 19:56:36.178,1.5918333999999998,2.0,7
32187,32187,2021-01-21 19:57:06.178,1.5716534,2.0,7
32197,32197,2021-01-21 19:57:36.178,1.5549214,2.0,7
32207,32207,2021-01-21 19:58:06.178,1.5416466999999998,2.0,7
32217,32217,2021-01-21 19:58:36.178,1.5319326000000002,2.0,7
32227,32227,2021-01-21 19:59:06.178,1.5260623,2.0,7
32237,32237,2021-01-21 19:59:36.178,1.5243669,2.0,7
32247,32247,2021-01-21 20:00:06.178,1.5272703,2.0,7
32257,32257,2021-01-21 20:00:36.178,1.5354257,2.0,7
32267,32267,2021-01-21 20:01:06.178,1.5497818,2.0,7
32277,32277,2021-01-21 20:01:36.178,1.5713193,2.0,7
32287,32287,2021-01-21 20:02:06.178,1.6045858999999998,2.0,7
32297,32297,2021-01-21 20:02:36.178,1.6544461,2.0,7
32307,32307,2021-01-21 20:03:06.178,1.7352197,2.0,7
32317,32317,2021-01-21 20:03:36.178,1.999999,2.0,7
32327,32327,2021-01-21 20:04:06.178,1.999999,2.0,7
32337,32337,2021-01-21 20:04:36.178,1.999999,2.0,7
32347,32347,2021-01-21 20:05:06.178,1.999999,2.0,7
32357,32357,2021-01-21 20:05:36.178,1.999999,2.0,7
32367,32367,2021-01-21 20:06:06.178,1.999999,2.0,7
32377,32377,2021-01-21 20:06:36.178,1.999999,2.0,7
32387,32387,2021-01-21 20:07:06.178,1.999999,2.0,7
32397,32397,2021-01-21 20:07:36.178,1.999999,2.0,7
32407,32407,2021-01-21 20:08:06.178,1.999999,2.0,7
32417,32417,2021-01-21 20:08:36.178,1.999999,2.0,7
32427,32427,2021-01-21 20:09:06.178,1.999999,2.0,7
32437,32437,2021-01-21 20:09:36.178,1.999999,2.0,7
32447,32447,2021-01-21 20:10:06.178,1.999999,2.0,7
32457,32457,2021-01-21 20:10:36.178,1.999999,2.0,7
32467,32467,2021-01-21 20:11:06.178,1.999999,2.0,7
32477,32477,2021-01-21 20:11:36.178,1.999999,2.0,7
32487,32487,2021-01-21 20:12:06.178,1.999999,2.0,7
32497,32497,2021-01-21 20:12:36.178,1.999999,2.0,7
32507,32507,2021-01-21 20:13:06.178,1.999999,2.0,7
32517,32517,2021-01-21 20:13:36.178,1.999999,2.0,7
32527,32527,2021-01-21 20:14:06.178,1.999999,2.0,7
32537,32537,2021-01-21 20:14:36.178,1.999999,2.0,7
32547,32547,2021-01-21 20:15:06.178,1.999999,2.0,7
32557,32557,2021-01-21 20:15:36.178,1.999999,2.0,7
32567,32567,2021-01-21 20:16:06.178,1.999999,2.0,7
32577,32577,2021-01-21 20:16:36.178,1.999999,2.0,7
32587,32587,2021-01-21 20:17:06.178,1.999999,2.0,7
32597,32597,2021-01-21 20:17:36.178,1.999999,2.0,7
32607,32607,2021-01-21 20:18:06.178,1.999999,2.0,7
32617,32617,2021-01-21 20:18:36.178,1.999999,2.0,7
32627,32627,2021-01-21 20:19:06.178,1.999999,2.0,7
32637,32637,2021-01-21 20:19:36.178,1.999999,2.0,7
32647,32647,2021-01-21 20:20:06.178,1.999999,2.0,7
32657,32657,2021-01-21 20:20:36.178,1.999999,2.0,7
32667,32667,2021-01-21 20:21:06.178,1.999999,2.0,7
32677,32677,2021-01-21 20:21:36.178,1.999999,2.0,7
32687,32687,2021-01-21 20:22:06.178,1.999999,2.0,7
32697,32697,2021-01-21 20:22:36.178,1.999999,2.0,7
32707,32707,2021-01-21 20:23:06.178,1.999999,2.0,7
32717,32717,2021-01-21 20:23:36.178,1.999999,2.0,7
32727,32727,2021-01-21 20:24:06.178,1.999999,2.0,7
32737,32737,2021-01-21 20:24:36.178,1.999999,2.0,7
32747,32747,2021-01-21 20:25:06.178,1.999999,2.0,7
32757,32757,2021-01-21 20:25:36.178,1.999999,2.0,7
32767,32767,2021-01-21 20:26:06.178,1.999999,2.0,7
32777,32777,2021-01-21 20:26:36.178,1.999999,2.0,7
32787,32787,2021-01-21 20:27:06.178,1.999999,2.0,7
32797,32797,2021-01-21 20:27:36.178,1.999999,2.0,7
32807,32807,2021-01-21 20:28:06.178,1.999999,2.0,7
32817,32817,2021-01-21 20:28:36.178,1.999999,2.0,7
32827,32827,2021-01-21 20:29:06.178,1.999999,2.0,7
32837,32837,2021-01-21 20:29:36.178,1.999999,2.0,7
32847,32847,2021-01-21 20:30:06.178,1.999999,2.0,7
32857,32857,2021-01-21 20:30:36.178,1.999999,2.0,7
32867,32867,2021-01-21 20:31:06.178,1.999999,2.0,7
32877,32877,2021-01-21 20:31:36.178,1.999999,2.0,7
32887,32887,2021-01-21 20:32:06.178,1.999999,2.0,7
32897,32897,2021-01-21 20:32:36.178,1.999999,2.0,7
32907,32907,2021-01-21 20:33:06.178,1.999999,2.0,7
32917,32917,2021-01-21 20:33:36.178,1.999999,2.0,7
32927,32927,2021-01-21 20:34:06.178,1.999999,2.0,7
32937,32937,2021-01-21 20:34:36.178,1.999999,2.0,7
32947,32947,2021-01-21 20:35:06.178,1.999999,2.0,7
32957,32957,2021-01-21 20:35:36.178,1.999999,2.0,7
32967,32967,2021-01-21 20:36:06.178,1.999999,2.0,7
32977,32977,2021-01-21 20:36:36.178,1.999999,2.0,7
32987,32987,2021-01-21 20:37:06.178,1.999999,2.0,7
32997,32997,2021-01-21 20:37:36.178,1.999999,2.0,7
33007,33007,2021-01-21 20:38:06.178,1.999999,2.0,7
33017,33017,2021-01-21 20:38:36.178,1.999999,2.0,7
33027,33027,2021-01-21 20:39:06.178,1.999999,2.0,7
33037,33037,2021-01-21 20:39:36.178,1.999999,2.0,7
33047,33047,2021-01-21 20:40:06.178,1.999999,2.0,7
33057,33057,2021-01-21 20:40:36.178,1.999999,2.0,7
33067,33067,2021-01-21 20:41:06.178,1.999999,2.0,7
33077,33077,2021-01-21 20:41:36.178,1.999999,2.0,7
33087,33087,2021-01-21 20:42:06.178,1.999999,2.0,7
33097,33097,2021-01-21 20:42:36.178,1.999999,2.0,7
33107,33107,2021-01-21 20:43:06.178,1.999999,2.0,7
33117,33117,2021-01-21 20:43:36.178,1.999999,2.0,7
33127,33127,2021-01-21 20:44:06.178,1.999999,2.0,7
33137,33137,2021-01-21 20:44:36.178,1.999999,2.0,7
33147,33147,2021-01-21 20:45:06.178,1.999999,2.0,7
33157,33157,2021-01-21 20:45:36.178,1.999999,2.0,7
33167,33167,2021-01-21 20:46:06.178,1.999999,2.0,7
33177,33177,2021-01-21 20:46:36.178,1.999999,2.0,7
33187,33187,2021-01-21 20:47:06.178,1.999999,2.0,7
33197,33197,2021-01-21 20:47:36.178,1.999999,2.0,7
33207,33207,2021-01-21 20:48:06.178,1.999999,2.0,7
33217,33217,2021-01-21 20:48:36.178,1.999999,2.0,7
33227,33227,2021-01-21 20:49:06.178,1.999999,2.0,7
33237,33237,2021-01-21 20:49:36.178,1.999999,2.0,7
33247,33247,2021-01-21 20:50:06.178,1.999999,2.0,7
33257,33257,2021-01-21 20:50:36.178,1.999999,2.0,7
33267,33267,2021-01-21 20:51:06.178,1.999999,2.0,7
33277,33277,2021-01-21 20:51:36.178,1.999999,2.0,7
33287,33287,2021-01-21 20:52:06.178,1.999999,2.0,7
33297,33297,2021-01-21 20:52:36.178,1.999999,2.0,7
33307,33307,2021-01-21 20:53:06.178,1.999999,2.0,7
33317,33317,2021-01-21 20:53:36.178,1.999999,2.0,7
33327,33327,2021-01-21 20:54:06.178,1.999999,2.0,7
33337,33337,2021-01-21 20:54:36.178,1.999999,2.0,7
33347,33347,2021-01-21 20:55:06.178,1.999999,2.0,7
33357,33357,2021-01-21 20:55:36.178,1.999999,2.0,7
33367,33367,2021-01-21 20:56:06.178,1.999999,2.0,7
33377,33377,2021-01-21 20:56:36.178,1.999999,2.0,7
33387,33387,2021-01-21 20:57:06.178,1.999999,2.0,7
33397,33397,2021-01-21 20:57:36.178,1.999999,2.0,7
33407,33407,2021-01-21 20:58:06.178,1.999999,2.0,7
33417,33417,2021-01-21 20:58:36.178,1.999999,2.0,7
33427,33427,2021-01-21 20:59:06.178,1.999999,2.0,7
33437,33437,2021-01-21 20:59:36.178,1.999999,2.0,7
33447,33447,2021-01-21 21:00:06.178,1.999999,2.0,7
33457,33457,2021-01-21 21:00:36.178,1.999999,2.0,7
33467,33467,2021-01-21 21:01:06.178,1.999999,2.0,7
33477,33477,2021-01-21 21:01:36.178,1.999999,2.0,7
33487,33487,2021-01-21 21:02:06.178,1.999999,2.0,7
33497,33497,2021-01-21 21:02:36.178,1.999999,2.0,7
33507,33507,2021-01-21 21:03:06.178,1.999999,2.0,7
33517,33517,2021-01-21 21:03:36.178,1.999999,2.0,7
33527,33527,2021-01-21 21:04:06.178,1.999999,2.0,7
33537,33537,2021-01-21 21:04:36.178,1.999999,2.0,7
33547,33547,2021-01-21 21:05:06.178,1.999999,2.0,7
33557,33557,2021-01-21 21:05:36.178,1.999999,2.0,7
33567,33567,2021-01-21 21:06:06.178,1.999999,2.0,7
33577,33577,2021-01-21 21:06:36.178,1.999999,2.0,7
33587,33587,2021-01-21 21:07:06.178,1.999999,2.0,7
33597,33597,2021-01-21 21:07:36.178,1.999999,2.0,7
33607,33607,2021-01-21 21:08:06.178,1.999999,2.0,7
33617,33617,2021-01-21 21:08:36.178,1.999999,2.0,7
33627,33627,2021-01-21 21:09:06.178,1.999999,2.0,7
33637,33637,2021-01-21 21:09:36.178,1.999999,2.0,7
33647,33647,2021-01-21 21:10:06.178,1.999999,2.0,7
33657,33657,2021-01-21 21:10:36.178,1.999999,2.0,7
33667,33667,2021-01-21 21:11:06.178,1.999999,2.0,7
33677,33677,2021-01-21 21:11:36.178,1.999999,2.0,7
33687,33687,2021-01-21 21:12:06.178,1.999999,2.0,7
33697,33697,2021-01-21 21:12:36.178,1.999999,2.0,7
33707,33707,2021-01-21 21:13:06.178,1.999999,2.0,7
33717,33717,2021-01-21 21:13:36.178,1.999999,2.0,7
33727,33727,2021-01-21 21:14:06.178,1.999999,2.0,7
33737,33737,2021-01-21 21:14:36.178,1.999999,2.0,7
33747,33747,2021-01-21 21:15:06.178,1.999999,2.0,7
33757,33757,2021-01-21 21:15:36.178,1.999999,2.0,7
33767,33767,2021-01-21 21:16:06.178,1.999999,2.0,7
33777,33777,2021-01-21 21:16:36.178,1.999999,2.0,7
33787,33787,2021-01-21 21:17:06.178,1.999999,2.0,7
33797,33797,2021-01-21 21:17:36.178,1.999999,2.0,7
33807,33807,2021-01-21 21:18:06.178,1.999999,2.0,7
33817,33817,2021-01-21 21:18:36.178,1.999999,2.0,7
33827,33827,2021-01-21 21:19:06.178,1.999999,2.0,7
33837,33837,2021-01-21 21:19:36.178,1.999999,2.0,7
33847,33847,2021-01-21 21:20:06.178,1.999999,2.0,7
33857,33857,2021-01-21 21:20:36.178,1.999999,2.0,7
33867,33867,2021-01-21 21:21:06.178,1.999999,2.0,7
33877,33877,2021-01-21 21:21:36.178,1.999999,2.0,7
33887,33887,2021-01-21 21:22:06.178,1.999999,2.0,7
33897,33897,2021-01-21 21:22:36.178,1.999999,2.0,7
33907,33907,2021-01-21 21:23:06.178,1.999999,2.0,7
33917,33917,2021-01-21 21:23:36.178,1.999999,2.0,7
33927,33927,2021-01-21 21:24:06.178,1.999999,2.0,7
33937,33937,2021-01-21 21:24:36.178,1.999999,2.0,7
33947,33947,2021-01-21 21:25:06.178,1.999999,2.0,7
33957,33957,2021-01-21 21:25:36.178,1.999999,2.0,7
33967,33967,2021-01-21 21:26:06.178,1.999999,2.0,7
33977,33977,2021-01-21 21:26:36.178,1.999999,2.0,7
33987,33987,2021-01-21 21:27:06.178,1.999999,2.0,7
33997,33997,2021-01-21 21:27:36.178,1.999999,2.0,7
34007,34007,2021-01-21 21:28:06.178,1.999999,2.0,7
34017,34017,2021-01-21 21:28:36.178,1.999999,2.0,7
34027,34027,2021-01-21 21:29:06.178,1.999999,2.0,7
34037,34037,2021-01-21 21:29:36.178,1.999999,2.0,7
34047,34047,2021-01-21 21:30:06.178,1.999999,2.0,7
34057,34057,2021-01-21 21:30:36.178,1.999999,2.0,7
34067,34067,2021-01-21 21:31:06.178,1.999999,2.0,7
34077,34077,2021-01-21 21:31:36.178,1.999999,2.0,7
34087,34087,2021-01-21 21:32:06.178,1.999999,2.0,7
34097,34097,2021-01-21 21:32:36.178,1.999999,2.0,7
34107,34107,2021-01-21 21:33:06.178,1.999999,2.0,7
34117,34117,2021-01-21 21:33:36.178,1.999999,2.0,7
34127,34127,2021-01-21 21:34:06.178,1.999999,2.0,7
34137,34137,2021-01-21 21:34:36.178,1.999999,2.0,7
34147,34147,2021-01-21 21:35:06.178,1.999999,2.0,7
34157,34157,2021-01-21 21:35:36.178,1.999999,2.0,7
34167,34167,2021-01-21 21:36:06.178,1.999999,2.0,7
34177,34177,2021-01-21 21:36:36.178,1.999999,2.0,7
34187,34187,2021-01-21 21:37:06.178,1.999999,2.0,7
34197,34197,2021-01-21 21:37:36.178,1.999999,2.0,7
34207,34207,2021-01-21 21:38:06.178,1.999999,2.0,7
34217,34217,2021-01-21 21:38:36.178,1.999999,2.0,7
34227,34227,2021-01-21 21:39:06.178,1.999999,2.0,7
34237,34237,2021-01-21 21:39:36.178,1.999999,2.0,7
34247,34247,2021-01-21 21:40:06.178,1.999999,2.0,7
34257,34257,2021-01-21 21:40:36.178,1.999999,2.0,7
34267,34267,2021-01-21 21:41:06.178,1.999999,2.0,7
34277,34277,2021-01-21 21:41:36.178,1.999999,2.0,7
34287,34287,2021-01-21 21:42:06.178,1.999999,2.0,7
34297,34297,2021-01-21 21:42:36.178,1.999999,2.0,7
34307,34307,2021-01-21 21:43:06.178,1.999999,2.0,7
34317,34317,2021-01-21 21:43:36.178,1.999999,2.0,7
34327,34327,2021-01-21 21:44:06.178,1.999999,2.0,7
34337,34337,2021-01-21 21:44:36.178,1.999999,2.0,7
34347,34347,2021-01-21 21:45:06.178,1.999999,2.0,7
34357,34357,2021-01-21 21:45:36.178,1.999999,2.0,7
34367,34367,2021-01-21 21:46:06.178,1.999999,2.0,7
34377,34377,2021-01-21 21:46:36.178,1.999999,2.0,7
34387,34387,2021-01-21 21:47:06.178,1.999999,2.0,7
34397,34397,2021-01-21 21:47:36.178,1.999999,2.0,7
34407,34407,2021-01-21 21:48:06.178,1.999999,2.0,7
34417,34417,2021-01-21 21:48:36.178,1.999999,2.0,7
34427,34427,2021-01-21 21:49:06.178,1.999999,2.0,7
34437,34437,2021-01-21 21:49:36.178,1.999999,2.0,7
34447,34447,2021-01-21 21:50:06.178,1.999999,2.0,7
34457,34457,2021-01-21 21:50:36.178,1.999999,2.0,7
34467,34467,2021-01-21 21:51:06.178,1.999999,2.0,7
34477,34477,2021-01-21 21:51:36.178,1.999999,2.0,7
34487,34487,2021-01-21 21:52:06.178,1.999999,2.0,7
34497,34497,2021-01-21 21:52:36.178,1.999999,2.0,7
34507,34507,2021-01-21 21:53:06.178,1.999999,2.0,7
34517,34517,2021-01-21 21:53:36.178,1.999999,2.0,7
34527,34527,2021-01-21 21:54:06.178,1.999999,2.0,7
34537,34537,2021-01-21 21:54:36.178,1.999999,2.0,7
34547,34547,2021-01-21 21:55:06.178,1.999999,2.0,7
34557,34557,2021-01-21 21:55:36.178,1.999999,2.0,7
34567,34567,2021-01-21 21:56:06.178,1.999999,2.0,7
34577,34577,2021-01-21 21:56:36.178,1.999999,2.0,7
34587,34587,2021-01-21 21:57:06.178,1.999999,1.0,7
34597,34597,2021-01-21 21:57:36.178,1.999999,2.0,7
34607,34607,2021-01-21 21:58:06.178,1.999999,2.0,7
34617,34617,2021-01-21 21:58:36.178,1.999999,2.0,7
34627,34627,2021-01-21 21:59:06.178,1.999999,2.0,7
34637,34637,2021-01-21 21:59:36.178,1.999999,2.0,7
34647,34647,2021-01-21 22:00:06.178,1.999999,2.0,7
34657,34657,2021-01-21 22:00:36.178,1.999999,1.0,7
34667,34667,2021-01-21 22:01:06.178,1.5622698999999998,1.0,7
34677,34677,2021-01-21 22:01:36.178,1.5622802,1.0,7
34687,34687,2021-01-21 22:02:06.178,1.5622958999999998,1.0,7
34697,34697,2021-01-21 22:02:36.178,1.5623112,1.0,7
34707,34707,2021-01-21 22:03:06.178,1.5623236,1.0,7
34717,34717,2021-01-21 22:03:36.178,1.5623323999999998,1.0,7
34727,34727,2021-01-21 22:04:06.178,1.5623391000000002,1.0,7
34737,34737,2021-01-21 22:04:36.178,1.3881166,1.0,7
34747,34747,2021-01-21 22:05:06.178,1.258925,1.0,7
34757,34757,2021-01-21 22:05:36.178,1.1535461,1.0,7
34767,34767,2021-01-21 22:06:06.178,1.0661952,1.0,7
34777,34777,2021-01-21 22:06:36.178,0.99463356,1.0,7
34787,34787,2021-01-21 22:07:06.178,0.9411689000000001,1.0,7
34797,34797,2021-01-21 22:07:36.178,0.88660145,1.0,7
34807,34807,2021-01-21 22:08:06.178,0.8465767,1.0,7
34817,34817,2021-01-21 22:08:36.178,0.8058976999999999,1.0,7
34827,34827,2021-01-21 22:09:06.178,0.76716864,1.0,7
34837,34837,2021-01-21 22:09:36.178,0.731694,1.0,7
34847,34847,2021-01-21 22:10:06.178,0.7002578,1.0,7
34857,34857,2021-01-21 22:10:36.178,0.67253613,1.0,7
34867,34867,2021-01-21 22:11:06.178,0.64867556,1.0,7
34877,34877,2021-01-21 22:11:36.178,0.6278566,1.0,7
34887,34887,2021-01-21 22:12:06.178,0.61,1.0,7
34897,34897,2021-01-21 22:12:36.178,0.5952419,1.0,7
34907,34907,2021-01-21 22:13:06.178,0.5835819,1.0,7
34917,34917,2021-01-21 22:13:36.178,0.57506466,1.0,7
34927,34927,2021-01-21 22:14:06.178,0.569883,1.0,7
34937,34937,2021-01-21 22:14:36.178,0.56839335,1.0,7
34947,34947,2021-01-21 22:15:06.178,0.57092667,1.0,7
34957,34957,2021-01-21 22:15:36.178,0.5778744,1.0,7
34967,34967,2021-01-21 22:16:06.178,0.5778536999999999,1.0,7
34977,34977,2021-01-21 22:16:36.178,0.5904689999999999,1.0,7
34987,34987,2021-01-21 22:17:06.178,0.60968256,1.0,7
34997,34997,2021-01-21 22:17:36.178,0.63883543,1.0,7
35007,35007,2021-01-21 22:18:06.178,0.6833348000000001,1.0,7
35017,35017,2021-01-21 22:18:36.178,0.7559011999999999,1.0,7
35027,35027,2021-01-21 22:19:06.178,1.0000007,1.0,7
35037,35037,2021-01-21 22:19:36.178,1.0000007,1.0,7
35047,35047,2021-01-21 22:20:06.178,1.0000007,1.0,7
35057,35057,2021-01-21 22:20:36.178,1.0000007,1.0,7
35067,35067,2021-01-21 22:21:06.178,1.0000007,1.0,7
35077,35077,2021-01-21 22:21:36.178,1.0000007,1.0,7
35087,35087,2021-01-21 22:22:06.178,1.0000007,1.0,7
35097,35097,2021-01-21 22:22:36.178,1.0000007,1.0,7
35107,35107,2021-01-21 22:23:06.178,1.0000007,1.0,7
35117,35117,2021-01-21 22:23:36.178,1.0000007,1.0,7
35127,35127,2021-01-21 22:24:06.178,1.0000007,1.0,7
35137,35137,2021-01-21 22:24:36.178,1.0000007,1.0,7
35147,35147,2021-01-21 22:25:06.178,1.0000007,1.0,7
35157,35157,2021-01-21 22:25:36.178,1.0000007,1.0,7
35167,35167,2021-01-21 22:26:06.178,1.0000007,1.0,7
35177,35177,2021-01-21 22:26:36.178,1.0000007,1.0,7
35187,35187,2021-01-21 22:27:06.178,1.0000007,1.0,7
35197,35197,2021-01-21 22:27:36.178,1.0000007,1.0,7
35207,35207,2021-01-21 22:28:06.178,1.0000007,1.0,7
35217,35217,2021-01-21 22:28:36.178,1.0000007,1.0,7
35227,35227,2021-01-21 22:29:06.178,1.0000007,1.0,7
35237,35237,2021-01-21 22:29:36.178,1.0000007,1.0,7
35247,35247,2021-01-21 22:30:06.178,1.0000007,1.0,7
35257,35257,2021-01-21 22:30:36.178,1.0000007,1.0,7
35267,35267,2021-01-21 22:31:06.178,1.0000007,1.0,7
35277,35277,2021-01-21 22:31:36.178,1.0000007,1.0,7
35287,35287,2021-01-21 22:32:06.178,1.0000007,1.0,7
35297,35297,2021-01-21 22:32:36.178,1.0000007,1.0,7
35307,35307,2021-01-21 22:33:06.178,1.0000007,1.0,7
35317,35317,2021-01-21 22:33:36.178,1.0000007,1.0,7
35327,35327,2021-01-21 22:34:06.178,1.0000007,1.0,7
35337,35337,2021-01-21 22:34:36.178,1.0000007,1.0,7
35347,35347,2021-01-21 22:35:06.178,1.0000007,1.0,7
35357,35357,2021-01-21 22:35:36.178,1.0000007,1.0,7
35367,35367,2021-01-21 22:36:06.178,1.0000007,1.0,7
35377,35377,2021-01-21 22:36:36.178,1.0000007,1.0,7
35387,35387,2021-01-21 22:37:06.178,1.0000007,1.0,7
35397,35397,2021-01-21 22:37:36.178,1.0000007,1.0,7
35407,35407,2021-01-21 22:38:06.178,1.0000007,1.0,7
35417,35417,2021-01-21 22:38:36.178,1.0000007,1.0,7
35427,35427,2021-01-21 22:39:06.178,1.0000007,1.0,7
35437,35437,2021-01-21 22:39:36.178,1.0000007,1.0,7
35447,35447,2021-01-21 22:40:06.178,1.0000007,1.0,7
35457,35457,2021-01-21 22:40:36.178,1.0000007,1.0,7
35467,35467,2021-01-21 22:41:06.178,1.0000007,1.0,7
35477,35477,2021-01-21 22:41:36.178,1.0000007,1.0,7
35487,35487,2021-01-21 22:42:06.178,1.0000007,1.0,7
35497,35497,2021-01-21 22:42:36.178,1.0000007,1.0,7
35507,35507,2021-01-21 22:43:06.178,1.0000007,1.0,7
35517,35517,2021-01-21 22:43:36.178,1.0000007,1.0,7
35527,35527,2021-01-21 22:44:06.178,1.0000007,1.0,7
35537,35537,2021-01-21 22:44:36.178,1.0000007,1.0,7
35547,35547,2021-01-21 22:45:06.178,1.0000007,1.0,7
35557,35557,2021-01-21 22:45:36.178,1.0000007,1.0,7
35567,35567,2021-01-21 22:46:06.178,1.0000007,1.0,7
35577,35577,2021-01-21 22:46:36.178,1.0000007,1.0,7
35587,35587,2021-01-21 22:47:06.178,1.0000007,1.0,7
35597,35597,2021-01-21 22:47:36.178,1.0000007,1.0,7
35607,35607,2021-01-21 22:48:06.178,1.0000007,1.0,7
35617,35617,2021-01-21 22:48:36.178,1.0000007,1.0,7
35627,35627,2021-01-21 22:49:06.178,1.0000007,1.0,7
35637,35637,2021-01-21 22:49:36.178,1.0000007,1.0,7
35647,35647,2021-01-21 22:50:06.178,1.0000007,1.0,7
35657,35657,2021-01-21 22:50:36.178,1.0000007,1.0,7
35667,35667,2021-01-21 22:51:06.178,1.0000007,1.0,7
35677,35677,2021-01-21 22:51:36.178,1.0000007,1.0,7
35687,35687,2021-01-21 22:52:06.178,1.0000007,1.0,7
35697,35697,2021-01-21 22:52:36.178,1.0000007,1.0,7
35707,35707,2021-01-21 22:53:06.178,1.0000007,1.0,7
35717,35717,2021-01-21 22:53:36.178,1.0000007,1.0,7
35727,35727,2021-01-21 22:54:06.178,1.0000007,1.0,7
35737,35737,2021-01-21 22:54:36.178,1.0000007,1.0,7
35747,35747,2021-01-21 22:55:06.178,1.0000007,1.0,7
35757,35757,2021-01-21 22:55:36.178,1.0000007,1.0,7
35767,35767,2021-01-21 22:56:06.178,1.0000007,1.0,7
35777,35777,2021-01-21 22:56:36.178,1.0000007,1.0,7
35787,35787,2021-01-21 22:57:06.178,1.0000007,1.0,7
35797,35797,2021-01-21 22:57:36.178,1.0000007,1.0,7
35807,35807,2021-01-21 22:58:06.178,1.0000007,1.0,7
35817,35817,2021-01-21 22:58:36.178,1.0000007,1.0,7
35827,35827,2021-01-21 22:59:06.178,1.0000007,1.0,7
35837,35837,2021-01-21 22:59:36.178,1.0000007,1.0,7
35847,35847,2021-01-21 23:00:06.178,1.0000007,1.0,7
35857,35857,2021-01-21 23:00:36.178,1.0000007,1.0,7
35867,35867,2021-01-21 23:01:06.178,1.0000007,1.0,7
35877,35877,2021-01-21 23:01:36.178,1.0000007,1.0,7
35887,35887,2021-01-21 23:02:06.178,1.0000007,1.0,7
35897,35897,2021-01-21 23:02:36.178,1.0000007,1.0,7
35907,35907,2021-01-21 23:03:06.178,1.0000007,1.0,7
35917,35917,2021-01-21 23:03:36.178,1.0000007,1.0,7
35927,35927,2021-01-21 23:04:06.178,1.0000007,1.0,7
35937,35937,2021-01-21 23:04:36.178,1.0000007,1.0,7
35947,35947,2021-01-21 23:05:06.178,1.0000007,1.0,7
35957,35957,2021-01-21 23:05:36.178,1.0000007,1.0,7
35967,35967,2021-01-21 23:06:06.178,1.0000007,1.0,7
35977,35977,2021-01-21 23:06:36.178,1.0000007,1.0,7
35987,35987,2021-01-21 23:07:06.178,1.0000007,1.0,7
35997,35997,2021-01-21 23:07:36.178,1.0000007,1.0,7
36007,36007,2021-01-21 23:08:06.178,1.0000007,1.0,7
36017,36017,2021-01-21 23:08:36.178,1.0000007,1.0,7
36027,36027,2021-01-21 23:09:06.178,1.0000007,1.0,7
36037,36037,2021-01-21 23:09:36.178,1.0000007,1.0,7
36047,36047,2021-01-21 23:10:06.178,1.0000007,1.0,7
36057,36057,2021-01-21 23:10:36.178,1.0000007,1.0,7
36067,36067,2021-01-21 23:11:06.178,1.0000007,1.0,7
36077,36077,2021-01-21 23:11:36.178,1.0000007,1.0,7
36087,36087,2021-01-21 23:12:06.178,1.0000007,1.0,7
36097,36097,2021-01-21 23:12:36.178,1.0000007,1.0,7
36107,36107,2021-01-21 23:13:06.178,1.0000007,1.0,7
36117,36117,2021-01-21 23:13:36.178,1.0000007,1.0,7
36127,36127,2021-01-21 23:14:06.178,1.0000007,1.0,7
36137,36137,2021-01-21 23:14:36.178,1.0000007,1.0,7
36147,36147,2021-01-21 23:15:06.178,1.0000007,1.0,7
36157,36157,2021-01-21 23:15:36.178,1.0000007,1.0,7
36167,36167,2021-01-21 23:16:06.178,1.0000007,1.0,7
36177,36177,2021-01-21 23:16:36.178,1.0000007,1.0,7
36187,36187,2021-01-21 23:17:06.178,1.0000007,1.0,7
36197,36197,2021-01-21 23:17:36.178,1.0000007,1.0,7
36207,36207,2021-01-21 23:18:06.178,1.0000007,1.0,7
36217,36217,2021-01-21 23:18:36.178,1.0000007,1.0,7
36227,36227,2021-01-21 23:19:06.178,1.0000007,1.0,7
36237,36237,2021-01-21 23:19:36.178,1.0000007,1.0,7
36247,36247,2021-01-21 23:20:06.178,1.0000007,1.0,7
36257,36257,2021-01-21 23:20:36.178,1.0000007,1.0,7
36267,36267,2021-01-21 23:21:06.178,1.0000007,1.0,7
36277,36277,2021-01-21 23:21:36.178,1.0000007,1.0,7
36287,36287,2021-01-21 23:22:06.178,1.0000007,1.0,7
36297,36297,2021-01-21 23:22:36.178,1.0000007,1.0,7
36307,36307,2021-01-21 23:23:06.178,1.0000007,1.0,7
36317,36317,2021-01-21 23:23:36.178,1.0000007,1.0,7
36327,36327,2021-01-21 23:24:06.178,1.0000007,1.0,7
36337,36337,2021-01-21 23:24:36.178,1.0000007,1.0,7
36347,36347,2021-01-21 23:25:06.178,1.0000007,1.0,7
36357,36357,2021-01-21 23:25:36.178,1.0000007,1.0,7
36367,36367,2021-01-21 23:26:06.178,1.0000007,1.0,7
36377,36377,2021-01-21 23:26:36.178,1.0000007,1.0,7
36387,36387,2021-01-21 23:27:06.178,1.0000007,1.0,7
36397,36397,2021-01-21 23:27:36.178,1.0000007,1.0,7
36407,36407,2021-01-21 23:28:06.178,1.0000007,1.0,7
36417,36417,2021-01-21 23:28:36.178,1.0000007,1.0,7
36427,36427,2021-01-21 23:29:06.178,1.0000007,1.0,7
36437,36437,2021-01-21 23:29:36.178,1.0000007,1.0,7
36447,36447,2021-01-21 23:30:06.178,1.0000007,1.0,7
36457,36457,2021-01-21 23:30:36.178,1.0000007,1.0,7
36467,36467,2021-01-21 23:31:06.178,1.0000007,1.0,7
36477,36477,2021-01-21 23:31:36.178,1.0000007,1.0,7
36487,36487,2021-01-21 23:32:06.178,1.0000007,1.0,7
36497,36497,2021-01-21 23:32:36.178,1.0000007,1.0,7
36507,36507,2021-01-21 23:33:06.178,1.0000007,1.0,7
36517,36517,2021-01-21 23:33:36.178,1.0000007,1.0,7
36527,36527,2021-01-21 23:34:06.178,1.0000007,1.0,7
36537,36537,2021-01-21 23:34:36.178,1.0000007,1.0,7
36547,36547,2021-01-21 23:35:06.178,1.0000007,1.0,7
36557,36557,2021-01-21 23:35:36.178,1.0000007,1.0,7
36567,36567,2021-01-21 23:36:06.178,1.0000007,1.0,7
36577,36577,2021-01-21 23:36:36.178,1.0000007,1.0,7
36587,36587,2021-01-21 23:37:06.178,1.0000007,1.0,7
36597,36597,2021-01-21 23:37:36.178,1.0000007,1.0,7
36607,36607,2021-01-21 23:38:06.178,1.0000007,1.0,7
36617,36617,2021-01-21 23:38:36.178,1.0000007,1.0,7
36627,36627,2021-01-21 23:39:06.178,1.0000007,1.0,7
36637,36637,2021-01-21 23:39:36.178,1.0000007,1.0,7
36647,36647,2021-01-21 23:40:06.178,1.0000007,1.0,7
36657,36657,2021-01-21 23:40:36.178,1.0000007,1.0,7
36667,36667,2021-01-21 23:41:06.178,1.0000007,1.0,7
36677,36677,2021-01-21 23:41:36.178,1.0000007,1.0,7
36687,36687,2021-01-21 23:42:06.178,1.0000007,1.0,7
36697,36697,2021-01-21 23:42:36.178,1.0000007,1.0,7
36707,36707,2021-01-21 23:43:06.178,1.0000007,1.0,7
36717,36717,2021-01-21 23:43:36.178,1.0000007,1.0,7
36727,36727,2021-01-21 23:44:06.178,1.0000007,1.0,7
36737,36737,2021-01-21 23:44:36.178,1.0000007,1.0,7
36747,36747,2021-01-21 23:45:06.178,1.0000007,1.0,7
36757,36757,2021-01-21 23:45:36.178,1.0000007,1.0,7
36767,36767,2021-01-21 23:46:06.178,1.0000007,1.0,7
36777,36777,2021-01-21 23:46:36.178,1.0000007,1.0,7
36787,36787,2021-01-21 23:47:06.178,1.0000007,1.0,7
36797,36797,2021-01-21 23:47:36.178,1.0000007,1.0,7
36807,36807,2021-01-21 23:48:06.178,1.0000007,1.0,7
36817,36817,2021-01-21 23:48:36.178,1.0000007,1.0,7
36827,36827,2021-01-21 23:49:06.178,1.0000007,1.0,7
36837,36837,2021-01-21 23:49:36.178,1.0000007,1.0,7
36847,36847,2021-01-21 23:50:06.178,1.0000007,1.0,7
36857,36857,2021-01-21 23:50:36.178,1.0000007,1.0,7
36867,36867,2021-01-21 23:51:06.178,1.0000007,1.0,7
36877,36877,2021-01-21 23:51:36.178,1.0000007,1.0,7
36887,36887,2021-01-21 23:52:06.178,1.0000007,1.0,7
36897,36897,2021-01-21 23:52:36.178,1.0000007,1.0,7
36907,36907,2021-01-21 23:53:06.178,1.0000007,1.0,7
36917,36917,2021-01-21 23:53:36.178,1.0000007,1.0,7
36927,36927,2021-01-21 23:54:06.178,1.0000007,1.0,7
36937,36937,2021-01-21 23:54:36.178,1.0000007,1.0,7
36947,36947,2021-01-21 23:55:06.178,1.0000007,1.0,7
36957,36957,2021-01-21 23:55:36.178,1.0000007,1.0,7
36967,36967,2021-01-21 23:56:06.178,1.0000007,1.0,7
36977,36977,2021-01-21 23:56:36.178,1.0000007,1.0,7
36987,36987,2021-01-21 23:57:06.178,1.0000007,1.0,7
36997,36997,2021-01-21 23:57:36.178,1.0000007,1.0,7
37007,37007,2021-01-21 23:58:06.178,1.0000007,1.0,7
37017,37017,2021-01-21 23:58:36.178,1.0000007,1.0,7
37027,37027,2021-01-21 23:59:06.178,1.0000007,1.0,7
37037,37037,2021-01-21 23:59:36.178,1.0000007,1.0,7
37047,37047,2021-01-22 00:00:06.178,1.0000007,1.0,7
37057,37057,2021-01-22 00:00:36.178,1.0000007,1.0,7
37067,37067,2021-01-22 00:01:06.178,1.0000007,1.0,7
37077,37077,2021-01-22 00:01:36.178,1.0000007,1.0,7
37087,37087,2021-01-22 00:02:06.178,1.0000007,1.0,7
37097,37097,2021-01-22 00:02:36.178,1.0000007,1.0,7
37107,37107,2021-01-22 00:03:06.178,1.0000007,1.0,7
37117,37117,2021-01-22 00:03:36.178,1.0000007,1.0,7
37127,37127,2021-01-22 00:04:06.178,1.0000007,1.0,7
37137,37137,2021-01-22 00:04:36.178,1.0000007,1.0,7
37147,37147,2021-01-22 00:05:06.178,1.0000007,1.0,7
37157,37157,2021-01-22 00:05:36.178,1.0000007,1.0,7
37167,37167,2021-01-22 00:06:06.178,1.0000007,1.0,7
37177,37177,2021-01-22 00:06:36.178,1.0000007,1.0,7
37187,37187,2021-01-22 00:07:06.178,1.0000007,1.0,7
37197,37197,2021-01-22 00:07:36.178,1.0000007,1.0,7
37207,37207,2021-01-22 00:08:06.178,1.0000007,1.0,7
37217,37217,2021-01-22 00:08:36.178,1.0000007,1.0,7
37227,37227,2021-01-22 00:09:06.178,1.0000007,1.0,7
37237,37237,2021-01-22 00:09:36.178,1.0000007,1.0,7
37247,37247,2021-01-22 00:10:06.178,1.0000007,1.0,7
37257,37257,2021-01-22 00:10:36.178,1.0000007,1.0,7
37267,37267,2021-01-22 00:11:06.178,1.0000007,1.0,7
37277,37277,2021-01-22 00:11:36.178,1.0000007,1.0,7
37287,37287,2021-01-22 00:12:06.178,1.0000007,1.0,7
37297,37297,2021-01-22 00:12:36.178,1.0000007,1.0,7
37307,37307,2021-01-22 00:13:06.178,1.0000007,1.0,7
37317,37317,2021-01-22 00:13:36.178,1.0000007,1.0,7
37327,37327,2021-01-22 00:14:06.178,1.0000007,1.0,7
37337,37337,2021-01-22 00:14:36.178,1.0000007,1.0,7
37347,37347,2021-01-22 00:15:06.178,1.0000007,1.0,7
37357,37357,2021-01-22 00:15:36.178,1.0000007,1.0,7
37367,37367,2021-01-22 00:16:06.178,1.0000007,1.0,7
37377,37377,2021-01-22 00:16:36.178,1.0000007,1.0,7
37387,37387,2021-01-22 00:17:06.178,1.0000007,1.0,7
37397,37397,2021-01-22 00:17:36.178,1.0000007,1.0,7
37407,37407,2021-01-22 00:18:06.178,1.0000007,1.0,7
37417,37417,2021-01-22 00:18:36.178,1.0000007,1.0,7
37427,37427,2021-01-22 00:19:06.178,1.0000007,1.0,7
37437,37437,2021-01-22 00:19:36.178,1.0000007,1.0,7
37447,37447,2021-01-22 00:20:06.178,1.0000007,1.0,7
37457,37457,2021-01-22 00:20:36.178,1.0000007,1.0,7
37467,37467,2021-01-22 00:21:06.178,1.0000007,1.0,7
37477,37477,2021-01-22 00:21:36.178,1.0000007,1.0,7
37487,37487,2021-01-22 00:22:06.178,1.0000007,1.0,7
37497,37497,2021-01-22 00:22:36.178,1.0000007,1.0,7
37507,37507,2021-01-22 00:23:06.178,1.0000007,1.0,7
37517,37517,2021-01-22 00:23:36.178,1.0000007,1.0,7
37527,37527,2021-01-22 00:24:06.178,1.0000007,1.0,7
37537,37537,2021-01-22 00:24:36.178,1.0000007,1.0,7
37547,37547,2021-01-22 00:25:06.178,1.0000007,1.0,7
37557,37557,2021-01-22 00:25:36.178,1.0000007,1.0,7
37567,37567,2021-01-22 00:26:06.178,1.0000007,1.0,7
37577,37577,2021-01-22 00:26:36.178,1.0000007,1.0,7
37587,37587,2021-01-22 00:27:06.178,1.0000007,1.0,7
37597,37597,2021-01-22 00:27:36.178,1.0000007,1.0,7
37607,37607,2021-01-22 00:28:06.178,1.0000007,1.0,7
37617,37617,2021-01-22 00:28:36.178,1.0000007,1.0,7
37627,37627,2021-01-22 00:29:06.178,1.0000007,1.0,7
37637,37637,2021-01-22 00:29:36.178,1.0000007,1.0,7
37647,37647,2021-01-22 00:30:06.178,1.0000007,1.0,7
37657,37657,2021-01-22 00:30:36.178,1.0000007,1.0,7
37667,37667,2021-01-22 00:31:06.178,1.0000007,1.0,7
37677,37677,2021-01-22 00:31:36.178,1.0000007,1.0,7
37687,37687,2021-01-22 00:32:06.178,1.0000007,1.0,7
37697,37697,2021-01-22 00:32:36.178,1.0000007,1.0,7
37707,37707,2021-01-22 00:33:06.178,1.0000007,1.0,7
37717,37717,2021-01-22 00:33:36.178,1.0000007,1.0,7
37727,37727,2021-01-22 00:34:06.178,1.0000007,1.0,7
37737,37737,2021-01-22 00:34:36.178,1.0000007,1.0,7
37747,37747,2021-01-22 00:35:06.178,1.0000007,1.0,7
37757,37757,2021-01-22 00:35:36.178,1.0000007,1.0,7
37767,37767,2021-01-22 00:36:06.178,1.0000007,1.0,7
37777,37777,2021-01-22 00:36:36.178,1.0000007,1.0,7
37787,37787,2021-01-22 00:37:06.178,1.0000007,1.0,7
37797,37797,2021-01-22 00:37:36.178,1.0000007,1.0,7
37807,37807,2021-01-22 00:38:06.178,1.0000007,1.0,7
37817,37817,2021-01-22 00:38:36.178,1.0000007,1.0,7
37827,37827,2021-01-22 00:39:06.178,1.0000007,1.0,7
37837,37837,2021-01-22 00:39:36.178,1.0000007,1.0,7
37847,37847,2021-01-22 00:40:06.178,1.0000007,1.0,7
37857,37857,2021-01-22 00:40:36.178,1.0000007,1.0,7
37867,37867,2021-01-22 00:41:06.178,1.0000007,1.0,7
37877,37877,2021-01-22 00:41:36.178,1.0000007,1.0,7
37887,37887,2021-01-22 00:42:06.178,1.0000007,1.0,7
37897,37897,2021-01-22 00:42:36.178,1.0000007,1.0,7
37907,37907,2021-01-22 00:43:06.178,1.0000007,1.0,7
37917,37917,2021-01-22 00:43:36.178,1.0000007,1.0,7
37927,37927,2021-01-22 00:44:06.178,1.0000007,1.0,7
37937,37937,2021-01-22 00:44:36.178,1.0000007,1.0,7
37947,37947,2021-01-22 00:45:06.178,1.0000007,1.0,7
37957,37957,2021-01-22 00:45:36.178,1.0000007,1.0,7
37967,37967,2021-01-22 00:46:06.178,1.0000007,1.0,7
37977,37977,2021-01-22 00:46:36.178,1.0000007,1.0,7
37987,37987,2021-01-22 00:47:06.178,1.0000007,1.0,7
37997,37997,2021-01-22 00:47:36.178,1.0000007,1.0,7
38007,38007,2021-01-22 00:48:06.178,1.0000007,1.0,7
38017,38017,2021-01-22 00:48:36.178,1.0000007,1.0,7
38027,38027,2021-01-22 00:49:06.178,1.0000007,1.0,7
38037,38037,2021-01-22 00:49:36.178,1.0000007,1.0,7
38047,38047,2021-01-22 00:50:06.178,1.0000007,1.0,7
38057,38057,2021-01-22 00:50:36.178,1.0000007,1.0,7
38067,38067,2021-01-22 00:51:06.178,1.0000007,1.0,7
38077,38077,2021-01-22 00:51:36.178,1.0000007,1.0,7
38087,38087,2021-01-22 00:52:06.178,1.0000007,1.0,7
38097,38097,2021-01-22 00:52:36.178,1.0000007,1.0,7
38107,38107,2021-01-22 00:53:06.178,1.0000007,1.0,7
38117,38117,2021-01-22 00:53:36.178,1.0000007,1.0,7
38127,38127,2021-01-22 00:54:06.178,1.0000007,1.0,7
38137,38137,2021-01-22 00:54:36.178,1.0000007,1.0,7
38147,38147,2021-01-22 00:55:06.178,1.0000007,1.0,7
38157,38157,2021-01-22 00:55:36.178,1.0000007,1.0,7
38167,38167,2021-01-22 00:56:06.178,1.0000007,1.0,7
38177,38177,2021-01-22 00:56:36.178,1.0000007,1.0,7
38187,38187,2021-01-22 00:57:06.178,1.0000007,1.0,7
38197,38197,2021-01-22 00:57:36.178,1.0000007,1.0,7
38207,38207,2021-01-22 00:58:06.178,1.0000007,1.0,7
38217,38217,2021-01-22 00:58:36.178,1.0000007,1.0,7
38227,38227,2021-01-22 00:59:06.178,1.0000007,1.0,7
38237,38237,2021-01-22 00:59:36.178,1.0000007,1.0,7
38247,38247,2021-01-22 01:00:06.178,1.0000007,1.0,7
38257,38257,2021-01-22 01:00:36.178,1.0000007,1.0,7
38267,38267,2021-01-22 01:01:06.178,1.0000007,1.0,7
38277,38277,2021-01-22 01:01:36.178,1.0000007,1.0,7
38287,38287,2021-01-22 01:02:06.178,1.0000007,1.0,7
38297,38297,2021-01-22 01:02:36.178,1.0000007,1.0,7
38307,38307,2021-01-22 01:03:06.178,1.0000007,1.0,7
38317,38317,2021-01-22 01:03:36.178,1.0000007,1.0,7
38327,38327,2021-01-22 01:04:06.178,1.0000007,1.0,7
38337,38337,2021-01-22 01:04:36.178,1.0000007,1.0,7
38347,38347,2021-01-22 01:05:06.178,1.0000007,1.0,7
38357,38357,2021-01-22 01:05:36.178,1.0000007,1.0,7
38367,38367,2021-01-22 01:06:06.178,1.0000007,1.0,7
38377,38377,2021-01-22 01:06:36.178,1.0000007,1.0,7
38387,38387,2021-01-22 01:07:06.178,1.0000007,1.0,7
38397,38397,2021-01-22 01:07:36.178,1.0000007,1.0,7
38407,38407,2021-01-22 01:08:06.178,1.0000007,1.0,7
38417,38417,2021-01-22 01:08:36.178,1.0000007,1.0,7
38427,38427,2021-01-22 01:09:06.178,1.0000007,1.0,7
38437,38437,2021-01-22 01:09:36.178,1.0000007,1.0,7
38447,38447,2021-01-22 01:10:06.178,1.0000007,1.0,7
38457,38457,2021-01-22 01:10:36.178,1.0000007,1.0,7
38467,38467,2021-01-22 01:11:06.178,1.0000007,1.0,7
38477,38477,2021-01-22 01:11:36.178,1.0000007,1.0,7
38487,38487,2021-01-22 01:12:06.178,1.0000007,1.0,7
38497,38497,2021-01-22 01:12:36.178,1.0000007,1.0,7
38507,38507,2021-01-22 01:13:06.178,1.0000007,1.0,7
38517,38517,2021-01-22 01:13:36.178,1.0000007,1.0,7
38527,38527,2021-01-22 01:14:06.178,1.0000007,1.0,7
38537,38537,2021-01-22 01:14:36.178,1.0000007,1.0,7
38547,38547,2021-01-22 01:15:06.178,1.0000007,1.0,7
38557,38557,2021-01-22 01:15:36.178,1.0000007,1.0,7
38567,38567,2021-01-22 01:16:06.178,1.0000007,1.0,7
38577,38577,2021-01-22 01:16:36.178,1.0000007,1.0,7
38587,38587,2021-01-22 01:17:06.178,1.0000007,1.0,7
38597,38597,2021-01-22 01:17:36.178,1.0000007,1.0,7
38607,38607,2021-01-22 01:18:06.178,1.0000007,1.0,7
38617,38617,2021-01-22 01:18:36.178,1.0000007,1.0,7
38627,38627,2021-01-22 01:19:06.178,1.0000007,1.0,7
38637,38637,2021-01-22 01:19:36.178,1.0000007,1.0,7
38647,38647,2021-01-22 01:20:06.178,1.0000007,1.0,7
38657,38657,2021-01-22 01:20:36.178,1.0000007,1.0,7
38667,38667,2021-01-22 01:21:06.178,1.0000007,1.0,7
38677,38677,2021-01-22 01:21:36.178,1.0000007,1.0,7
38687,38687,2021-01-22 01:22:06.178,1.0000007,1.0,7
38697,38697,2021-01-22 01:22:36.178,1.0000007,1.0,7
38707,38707,2021-01-22 01:23:06.178,1.0000007,1.0,7
38717,38717,2021-01-22 01:23:36.178,1.0000007,1.0,7
38727,38727,2021-01-22 01:24:06.178,1.0000007,1.0,7
38737,38737,2021-01-22 01:24:36.178,1.0000007,1.0,7
38747,38747,2021-01-22 01:25:06.178,1.0000007,1.0,7
38757,38757,2021-01-22 01:25:36.178,1.0000007,1.0,7
38767,38767,2021-01-22 01:26:06.178,1.0000007,1.0,7
38777,38777,2021-01-22 01:26:36.178,1.0000007,1.0,7
38787,38787,2021-01-22 01:27:06.178,1.0000007,1.0,7
38797,38797,2021-01-22 01:27:36.178,1.0000007,1.0,7
38807,38807,2021-01-22 01:28:06.178,1.0000007,1.0,7
38817,38817,2021-01-22 01:28:36.178,1.0000007,1.0,7
38827,38827,2021-01-22 01:29:06.178,1.0000007,1.0,7
38837,38837,2021-01-22 01:29:36.178,1.0000007,1.0,7
38847,38847,2021-01-22 01:30:06.178,1.0000007,1.0,7
38857,38857,2021-01-22 01:30:36.178,1.0000007,1.0,7
38867,38867,2021-01-22 01:31:06.178,1.0000007,1.0,7
38877,38877,2021-01-22 01:31:36.178,1.0000007,1.0,7
38887,38887,2021-01-22 01:32:06.178,1.0000007,1.0,7
38897,38897,2021-01-22 01:32:36.178,1.0000007,1.0,7
38907,38907,2021-01-22 01:33:06.178,1.0000007,1.0,7
38917,38917,2021-01-22 01:33:36.178,1.0000007,0.0,7
38927,38927,2021-01-22 01:34:06.178,1.0000007,0.0,7
38937,38937,2021-01-22 01:34:36.178,1.0000007,0.0,7
38947,38947,2021-01-22 01:35:06.178,1.0000007,0.0,7
38957,38957,2021-01-22 01:35:36.178,1.0000007,0.0,7
38967,38967,2021-01-22 01:36:06.178,1.0000007,0.0,7
38977,38977,2021-01-22 01:36:36.178,1.0000007,0.0,7
