,Unnamed: 0,prediction,real,time,split
2169,2169,576.1209106445312,5.5,2021-02-04 10:39:19.026,train
2170,2170,319.74749755859375,0.0,2021-02-04 10:40:19.026,train
2171,2171,250.5242156982422,14511.0,2021-02-04 10:41:19.026,train
2172,2172,7.714306831359862,32.0,2021-02-04 10:42:19.026,train
2173,2173,2.944291591644287,6.5,2021-02-04 10:43:19.026,train
2174,2174,3.417698860168457,0.0,2021-02-04 10:44:19.026,train
2175,2175,2.575162649154663,6.0,2021-02-04 10:45:19.026,train
2176,2176,2.0076885223388667,8.0,2021-02-04 10:46:19.026,train
2177,2177,2.2560255527496342,0.0,2021-02-04 10:47:19.026,train
2178,2178,8.053236961364746,4.0,2021-02-04 10:48:19.026,train
2179,2179,8.468060493469237,7.0,2021-02-04 10:49:19.026,train
2180,2180,22.406326293945312,0.0,2021-02-04 10:50:19.026,train
2181,2181,134.53363037109378,23.0,2021-02-04 10:51:19.026,train
2182,2182,132.69590759277344,18.0,2021-02-04 10:52:19.026,train
2183,2183,1205.935791015625,1646.5,2021-02-04 10:53:19.026,train
2184,2184,3413.23193359375,2418.0,2021-02-04 10:54:19.026,train
2185,2185,154.59365844726562,893.0,2021-02-04 10:55:19.026,train
2186,2186,180.9883728027344,365.0,2021-02-04 10:56:19.026,train
2187,2187,50.76488494873047,5.5,2021-02-04 10:57:19.026,train
2188,2188,47.02116775512695,15.0,2021-02-04 10:58:19.026,train
2189,2189,17.191387176513672,8.0,2021-02-04 10:59:19.026,train
2190,2190,8.727328300476074,0.0,2021-02-04 11:00:19.026,train
2191,2191,2.9189956188201904,7.0,2021-02-04 11:01:19.026,train
2192,2192,2.1718900203704834,10.0,2021-02-04 11:02:19.026,train
2193,2193,2.060763120651245,6.0,2021-02-04 11:03:19.026,train
2194,2194,3.571591854095459,5.0,2021-02-04 11:04:19.026,train
2195,2195,6.296491622924805,7.0,2021-02-04 11:05:19.026,train
2196,2196,7.0251054763793945,0.0,2021-02-04 11:06:19.026,train
2197,2197,11.006966590881348,6.0,2021-02-04 11:07:19.026,train
2198,2198,8.825087547302246,5.0,2021-02-04 11:08:19.026,train
2199,2199,87.281005859375,6.0,2021-02-04 11:09:19.026,train
2200,2200,311.6240539550781,693.0,2021-02-04 11:10:19.026,train
2201,2201,827.9110107421875,1002.5,2021-02-04 11:11:19.026,train
2202,2202,2222.1826171875,19407.5,2021-02-04 11:12:19.026,train
2203,2203,1902.4014892578125,7626.0,2021-02-04 11:13:19.026,train
2204,2204,1831.3660888671875,0.0,2021-02-04 11:14:19.026,train
2205,2205,111.64547729492188,4.0,2021-02-04 11:15:19.026,train
2206,2206,70.80498504638672,349.0,2021-02-04 11:16:19.026,train
2207,2207,18.2171688079834,2235.5,2021-02-04 11:17:19.026,train
2208,2208,10.154104232788086,0.0,2021-02-04 11:18:19.026,train
2209,2209,6.081403255462647,6.5,2021-02-04 11:19:19.026,train
2210,2210,2.997420310974121,6.0,2021-02-04 11:20:19.026,train
2211,2211,2.1502447128295903,6.0,2021-02-04 11:21:19.026,train
2212,2212,1.7910959720611572,4.0,2021-02-04 11:22:19.026,train
2213,2213,3.0684399604797363,5.0,2021-02-04 11:23:19.026,train
2214,2214,9.027754783630373,4.0,2021-02-04 11:24:19.026,train
2215,2215,8.204026222229004,7.0,2021-02-04 11:25:19.026,train
2216,2216,17.622522354125977,5.0,2021-02-04 11:26:19.026,train
2217,2217,172.9468994140625,22.0,2021-02-04 11:27:19.026,train
2218,2218,200.4070281982422,1956.0,2021-02-04 11:28:19.026,train
2219,2219,2478.7138671875,5635.5,2021-02-04 11:29:19.026,train
2220,2220,6440.38720703125,2174.0,2021-02-04 11:30:19.026,train
2221,2221,5760.4150390625,1129.0,2021-02-04 11:31:19.026,train
2222,2222,3683.802734375,4188.0,2021-02-04 11:32:19.026,train
2223,2223,1117.16796875,9534.0,2021-02-04 11:33:19.026,train
2224,2224,446.0709838867188,0.0,2021-02-04 11:34:19.026,train
2225,2225,400.0592346191406,21196.0,2021-02-04 11:35:19.026,train
2226,2226,11.449156761169435,4.5,2021-02-04 11:36:19.026,train
2227,2227,4.303929328918457,7.0,2021-02-04 11:37:19.026,train
2228,2228,4.599541187286377,6.0,2021-02-04 11:38:19.026,train
2229,2229,4.2768030166625985,4.0,2021-02-04 11:39:19.026,train
2230,2230,2.8242006301879883,8.0,2021-02-04 11:40:19.026,train
2231,2231,3.923945903778076,0.0,2021-02-04 11:41:19.026,train
2232,2232,6.336240768432617,4.0,2021-02-04 11:42:19.026,train
2233,2233,10.028865814208984,6.0,2021-02-04 11:43:19.026,train
2234,2234,11.938061714172365,0.0,2021-02-04 11:44:19.026,train
2235,2235,50.85791397094727,684.0,2021-02-04 11:45:19.026,train
2236,2236,99.27853393554688,842.0,2021-02-04 11:46:19.026,train
2237,2237,4025.80615234375,23.0,2021-02-04 11:47:19.026,train
2238,2238,10062.890625,714.0,2021-02-04 11:48:19.026,train
2239,2239,8386.8798828125,9692.5,2021-02-04 11:49:19.026,train
2240,2240,5518.1923828125,1509.5,2021-02-04 11:50:19.026,train
2241,2241,4018.178955078125,20.0,2021-02-04 11:51:19.026,train
2242,2242,1358.2939453125,3285.5,2021-02-04 11:52:19.026,train
2243,2243,71.46664428710938,15819.0,2021-02-04 11:53:19.026,train
2244,2244,35.078811645507805,170.0,2021-02-04 11:54:19.026,train
2245,2245,8.576013565063478,7.0,2021-02-04 11:55:19.026,train
2246,2246,6.241518020629883,7.0,2021-02-04 11:56:19.026,train
2247,2247,5.2908902168273935,7.0,2021-02-04 11:57:19.026,train
2248,2248,9.895610809326172,18.0,2021-02-04 11:58:19.026,train
2249,2249,13.31399154663086,5.0,2021-02-04 11:59:19.026,train
2250,2250,15.87788200378418,9.0,2021-02-04 12:00:19.026,train
2251,2251,14.66083526611328,6.0,2021-02-04 12:01:19.026,train
2252,2252,23.61081123352051,6.0,2021-02-04 12:02:19.026,train
2253,2253,49.20311737060547,6.0,2021-02-04 12:03:19.026,train
2254,2254,651.7632446289062,5.0,2021-02-04 12:04:19.026,train
2255,2255,10944.72265625,110.0,2021-02-04 12:05:19.026,train
2256,2256,11305.658203125,22.5,2021-02-04 12:06:19.026,train
2257,2257,8372.1494140625,77.0,2021-02-04 12:07:19.026,train
2258,2258,6098.96142578125,255.0,2021-02-04 12:08:19.026,train
2259,2259,314.2085266113281,466.0,2021-02-04 12:09:19.026,train
2260,2260,235.33966064453125,4.5,2021-02-04 12:10:19.026,train
2261,2261,84.72869873046875,7929.0,2021-02-04 12:11:19.026,train
2262,2262,16.33231544494629,10.0,2021-02-04 12:12:19.026,train
2263,2263,15.08751106262207,4817.0,2021-02-04 12:13:19.026,train
2264,2264,9.397769927978516,9.0,2021-02-04 12:14:19.026,train
2265,2265,8.125798225402832,5.0,2021-02-04 12:15:19.026,train
2266,2266,6.964649200439452,4.0,2021-02-04 12:16:19.026,train
2267,2267,10.12338924407959,5.0,2021-02-04 12:17:19.026,train
2268,2268,11.335495948791506,6.0,2021-02-04 12:18:19.026,train
2269,2269,9.856649398803713,6.0,2021-02-04 12:19:19.026,train
2270,2270,12.276941299438475,0.0,2021-02-04 12:20:19.026,train
2271,2271,123.40947723388672,5.0,2021-02-04 12:21:19.026,train
2272,2272,137.84024047851562,85.5,2021-02-04 12:22:19.026,train
2273,2273,1968.3958740234373,0.0,2021-02-04 12:23:19.026,train
2274,2274,2372.677734375,2920.5,2021-02-04 12:24:19.026,train
2275,2275,2001.84228515625,179.0,2021-02-04 12:25:19.026,train
2276,2276,1638.9515380859375,1364.0,2021-02-04 12:26:19.026,train
2277,2277,1133.6077880859375,598.0,2021-02-04 12:27:19.026,train
2278,2278,551.468994140625,10.0,2021-02-04 12:28:19.026,train
2279,2279,535.7083129882811,8.5,2021-02-04 12:29:19.026,train
2280,2280,27.07647705078125,5.5,2021-02-04 12:30:19.026,train
2281,2281,37.115333557128906,576.0,2021-02-04 12:31:19.026,train
2282,2282,13.114322662353516,7.0,2021-02-04 12:32:19.026,train
2283,2283,4.794609546661377,4.0,2021-02-04 12:33:19.026,train
2284,2284,4.424405574798584,4.0,2021-02-04 12:34:19.026,train
2285,2285,4.229711055755615,5.0,2021-02-04 12:35:19.026,train
2286,2286,5.494593143463135,5.0,2021-02-04 12:36:19.026,train
2287,2287,5.5630388259887695,151.0,2021-02-04 12:37:19.026,train
2288,2288,9.768213272094727,13.0,2021-02-04 12:38:19.026,train
2289,2289,29.7934684753418,7.0,2021-02-04 12:39:19.026,train
2290,2290,78.4026107788086,838.0,2021-02-04 12:40:19.026,train
2291,2291,146.2726593017578,340.5,2021-02-04 12:41:19.026,train
2292,2292,151.4339599609375,844.0,2021-02-04 12:42:19.026,train
2293,2293,144.9153289794922,99.0,2021-02-04 12:43:19.026,train
2294,2294,206.76788330078125,4.0,2021-02-04 12:44:19.026,train
2295,2295,305.8720397949219,101.0,2021-02-04 12:45:19.026,train
2296,2296,222.05007934570312,14366.0,2021-02-04 12:46:19.026,train
2297,2297,122.84352111816406,163.0,2021-02-04 12:47:19.026,train
2298,2298,43.81948852539063,5.0,2021-02-04 12:48:19.026,train
2299,2299,79.92279815673828,0.0,2021-02-04 12:49:19.026,train
2300,2300,14.357139587402346,70.0,2021-02-04 12:50:19.026,train
2301,2301,4.877638339996338,4.0,2021-02-04 12:51:19.026,train
2302,2302,5.006088733673097,4.0,2021-02-04 12:52:19.026,train
2303,2303,4.370497703552246,5.0,2021-02-04 12:53:19.026,train
2304,2304,3.9696683883666988,6.0,2021-02-04 12:54:19.026,train
2305,2305,4.42138671875,416.0,2021-02-04 12:55:19.026,train
2306,2306,16.888809204101562,6.0,2021-02-04 12:56:19.026,train
2307,2307,42.26329803466797,18.5,2021-02-04 12:57:19.026,train
2308,2308,50.77984619140625,9921.0,2021-02-04 12:58:19.026,train
2309,2309,49.74749374389648,1826.0,2021-02-04 12:59:19.026,train
2310,2310,53.69610214233398,7206.0,2021-02-04 13:00:19.026,train
2311,2311,57.43090057373047,5.0,2021-02-04 13:01:19.026,train
2312,2312,62.820228576660156,4.0,2021-02-04 13:02:19.026,train
2313,2313,44.25821304321289,20.5,2021-02-04 13:03:19.026,train
2314,2314,46.69891738891602,5.0,2021-02-04 13:04:19.026,train
2315,2315,27.498151779174805,6.0,2021-02-04 13:05:19.026,train
2316,2316,28.75477600097656,0.0,2021-02-04 13:06:19.026,train
2317,2317,5.45820426940918,6.0,2021-02-04 13:07:19.026,train
2318,2318,3.328749656677246,10.0,2021-02-04 13:08:19.026,train
2319,2319,3.13149356842041,6.0,2021-02-04 13:09:19.026,train
2320,2320,2.7860703468322754,5.0,2021-02-04 13:10:19.026,train
2321,2321,2.530045747756958,7.0,2021-02-04 13:11:19.026,train
2322,2322,2.82875394821167,5.0,2021-02-04 13:12:19.026,train
2323,2323,17.28927993774414,47.0,2021-02-04 13:13:19.026,train
2324,2324,44.41533279418945,1864.0,2021-02-04 13:14:19.026,train
2325,2325,46.89031982421875,1380.0,2021-02-04 13:15:19.026,train
2326,2326,61.99650573730469,5844.0,2021-02-04 13:16:19.026,train
2327,2327,77.17073059082031,0.0,2021-02-04 13:17:19.026,train
2328,2328,113.5156707763672,1691.0,2021-02-04 13:18:19.026,train
2329,2329,187.5798492431641,5.0,2021-02-04 13:19:19.026,train
2330,2330,405.5896301269531,631.0,2021-02-04 13:20:19.026,train
2331,2331,516.42578125,8.0,2021-02-04 13:21:19.026,train
2332,2332,670.19482421875,43.0,2021-02-04 13:22:19.026,train
2333,2333,0.3702361583709717,23.0,2021-02-04 13:23:19.026,train
2334,2334,0.2889869213104248,6.0,2021-02-04 13:24:19.026,train
2335,2335,0.8034656047821045,5.0,2021-02-04 13:25:19.026,train
2336,2336,0.8536388874053955,5.0,2021-02-04 13:26:19.026,train
2337,2337,0.5298248529434204,4.0,2021-02-04 13:27:19.026,train
2338,2338,1.0972766876220703,25.0,2021-02-04 13:28:19.026,train
2339,2339,1.2049903869628906,35.0,2021-02-04 13:29:19.026,train
2340,2340,27.08461761474609,7.0,2021-02-04 13:30:19.026,train
2341,2341,304.86724853515625,7026.0,2021-02-04 13:31:19.026,train
2342,2342,743.5880737304688,10.5,2021-02-04 13:32:19.026,train
2343,2343,3789.237060546875,678.0,2021-02-04 13:33:19.026,train
2344,2344,3657.750244140625,12892.0,2021-02-04 13:34:19.026,train
2345,2345,2909.722900390625,305.0,2021-02-04 13:35:19.026,train
2346,2346,8.88646125793457,9.0,2021-02-04 13:36:19.026,train
2347,2347,8.001504898071289,1251.0,2021-02-04 13:37:19.026,train
2348,2348,9.275331497192383,4.5,2021-02-04 13:38:19.026,train
2349,2349,0.4585332870483398,7.0,2021-02-04 13:39:19.026,train
2350,2350,0.21894586086273196,16.0,2021-02-04 13:40:19.026,train
2351,2351,0.1813582181930542,102.0,2021-02-04 13:41:19.026,train
2352,2352,0.17814981937408447,6.0,2021-02-04 13:42:19.026,train
2353,2353,0.09441137313842772,0.0,2021-02-04 13:43:19.026,train
2354,2354,0.06987130641937256,7.0,2021-02-04 13:44:19.026,train
2355,2355,0.24265170097351074,8.0,2021-02-04 13:45:19.026,train
2356,2356,0.4651299715042114,6.0,2021-02-04 13:46:19.026,train
2357,2357,16.96981430053711,11.0,2021-02-04 13:47:19.026,train
2358,2358,16.465667724609375,566.5,2021-02-04 13:48:19.026,train
2359,2359,808.3209838867188,0.0,2021-02-04 13:49:19.026,train
2360,2360,1998.6978759765625,10709.0,2021-02-04 13:50:19.026,train
2361,2361,1016.93115234375,1252.5,2021-02-04 13:51:19.026,train
2362,2362,433.1673583984375,3632.0,2021-02-04 13:52:19.026,train
2363,2363,93.51783752441406,8.0,2021-02-04 13:53:19.026,train
2364,2364,3.8580341339111333,2378.0,2021-02-04 13:54:19.026,train
2365,2365,8.199707984924316,0.0,2021-02-04 13:55:19.026,train
2366,2366,5.816134929656982,8.0,2021-02-04 13:56:19.026,train
2367,2367,0.0,45.5,2021-02-04 13:57:19.026,train
2368,2368,0.0,0.0,2021-02-04 13:58:19.026,train
2369,2369,0.0,5.0,2021-02-04 13:59:19.026,train
2370,2370,0.0,4.0,2021-02-04 14:00:19.026,train
2371,2371,0.0,6.0,2021-02-04 14:01:19.026,train
2372,2372,0.0,4.0,2021-02-04 14:02:19.026,train
2373,2373,0.0,5.0,2021-02-04 14:03:19.026,train
2374,2374,0.7770081758499146,5.0,2021-02-04 14:04:19.026,train
2375,2375,10.191389083862305,6.0,2021-02-04 14:05:19.026,train
2376,2376,168.1615447998047,414.5,2021-02-04 14:06:19.026,train
2377,2377,617.46337890625,470.5,2021-02-04 14:07:19.026,train
2378,2378,1324.740966796875,50.5,2021-02-04 14:08:19.026,train
2379,2379,1169.453369140625,4657.0,2021-02-04 14:09:19.026,train
2380,2380,513.4322509765625,549.5,2021-02-04 14:10:19.026,train
2381,2381,93.42886352539062,1036.5,2021-02-04 14:11:19.026,train
2382,2382,52.84280014038086,2354.5,2021-02-04 14:12:19.026,train
2383,2383,0.8295701742172241,69.5,2021-02-04 14:13:19.026,train
2384,2384,0.5795778036117554,0.0,2021-02-04 14:14:19.026,train
2385,2385,0.0,4.0,2021-02-04 14:15:19.026,train
2386,2386,0.0,6.0,2021-02-04 14:16:19.026,train
2387,2387,0.0,0.0,2021-02-04 14:17:19.026,train
2388,2388,0.0,6.0,2021-02-04 14:18:19.026,train
2389,2389,0.0,7.0,2021-02-04 14:19:19.026,train
2390,2390,0.015328764915466309,0.0,2021-02-04 14:20:19.026,train
2391,2391,8.069026947021483,9.0,2021-02-04 14:21:19.026,train
2392,2392,4.428706169128418,196.5,2021-02-04 14:22:19.026,train
2393,2393,190.16549682617188,0.0,2021-02-04 14:23:19.026,train
2394,2394,970.9796752929688,14525.0,2021-02-04 14:24:19.026,train
2395,2395,1004.8982543945312,12.0,2021-02-04 14:25:19.026,train
2396,2396,568.1979370117188,6615.0,2021-02-04 14:26:19.026,train
2397,2397,69.26773071289061,0.0,2021-02-04 14:27:19.026,train
2398,2398,0.5268241167068481,32.5,2021-02-04 14:28:19.026,train
2399,2399,0.15094423294067386,33.0,2021-02-04 14:29:19.026,train
2400,2400,0.8530483245849609,10.5,2021-02-04 14:30:19.026,train
2401,2401,0.0,15.5,2021-02-04 14:31:19.026,train
2402,2402,0.0,6.0,2021-02-04 14:32:19.026,train
2403,2403,0.0,5.0,2021-02-04 14:33:19.026,train
2404,2404,0.0,4.0,2021-02-04 14:34:19.026,train
2405,2405,0.0,5.0,2021-02-04 14:35:19.026,train
2406,2406,0.0,6.0,2021-02-04 14:36:19.026,train
2407,2407,0.0,11.0,2021-02-04 14:37:19.026,train
2408,2408,0.0,8.0,2021-02-04 14:38:19.026,train
2409,2409,0.9317930936813354,0.0,2021-02-04 14:39:19.026,train
2410,2410,6.678144931793213,55.0,2021-02-04 14:40:19.026,train
2411,2411,86.14302825927734,7970.5,2021-02-04 14:41:19.026,train
2412,2412,591.473388671875,8.5,2021-02-04 14:42:19.026,train
2413,2413,712.3906860351562,8376.5,2021-02-04 14:43:19.026,train
2414,2414,280.66287231445307,1104.0,2021-02-04 14:44:19.026,train
2415,2415,52.125282287597656,10.0,2021-02-04 14:45:19.026,train
2416,2416,30.272518157958984,5.0,2021-02-04 14:46:19.026,train
2417,2417,23.53257179260254,3500.0,2021-02-04 14:47:19.026,train
2418,2418,0.0,7.5,2021-02-04 14:48:19.026,train
2419,2419,0.0,6.0,2021-02-04 14:49:19.026,train
2420,2420,0.0,5.0,2021-02-04 14:50:19.026,train
2421,2421,0.0,7.0,2021-02-04 14:51:19.026,train
2422,2422,0.0,6.0,2021-02-04 14:52:19.026,train
2423,2423,0.0,7.0,2021-02-04 14:53:19.026,train
2424,2424,0.0,7.0,2021-02-04 14:54:19.026,train
2425,2425,0.0,0.0,2021-02-04 14:55:19.026,train
2426,2426,3.5623507499694824,17.0,2021-02-04 14:56:19.026,train
2427,2427,3.2131319046020512,253.5,2021-02-04 14:57:19.026,train
2428,2428,125.95073699951172,0.0,2021-02-04 14:58:19.026,train
2429,2429,552.20263671875,4480.0,2021-02-04 14:59:19.026,train
2430,2430,445.9296875,24.0,2021-02-04 15:00:19.026,train
2431,2431,208.3910369873047,667.0,2021-02-04 15:01:19.026,train
2432,2432,33.201034545898445,0.0,2021-02-04 15:02:19.026,train
2433,2433,0.0,7.0,2021-02-04 15:03:19.026,train
2434,2434,0.0,0.0,2021-02-04 15:04:19.026,train
2435,2435,0.30584704875946045,5.0,2021-02-04 15:05:19.026,train
2436,2436,0.8873875141143799,861.5,2021-02-04 15:06:19.026,train
2437,2437,139.63400268554688,0.0,2021-02-04 15:07:19.026,train
2438,2438,735.621826171875,15.0,2021-02-04 15:08:19.026,train
2439,2439,631.3845825195312,12215.0,2021-02-04 15:09:19.026,train
2440,2440,289.73504638671875,102.0,2021-02-04 15:10:19.026,train
2441,2441,6.842552661895753,9.0,2021-02-04 15:11:19.026,train
2442,2442,6.2430572509765625,8.0,2021-02-04 15:12:19.026,train
2443,2443,1.4945383071899414,7.5,2021-02-04 15:13:19.026,train
2444,2444,0.0,0.0,2021-02-04 15:14:19.026,train
2445,2445,0.0,6.0,2021-02-04 15:15:19.026,train
2446,2446,0.0,4.0,2021-02-04 15:16:19.026,train
2447,2447,0.0,89.0,2021-02-04 15:17:19.026,train
2448,2448,0.0,6.0,2021-02-04 15:18:19.026,train
2449,2449,0.0,7.0,2021-02-04 15:19:19.026,val
2450,2450,0.0,5.0,2021-02-04 15:20:19.026,val
2451,2451,0.0,9.0,2021-02-04 15:21:19.026,val
2452,2452,0.0,7.0,2021-02-04 15:22:19.026,val
2453,2453,3.154003620147705,11.0,2021-02-04 15:23:19.026,val
2454,2454,2.0051517486572266,727.0,2021-02-04 15:24:19.026,val
2455,2455,203.7878875732422,0.0,2021-02-04 15:25:19.026,val
2456,2456,401.2800598144531,4037.5,2021-02-04 15:26:19.026,val
2457,2457,278.13571166992193,4490.0,2021-02-04 15:27:19.026,val
2458,2458,96.13453674316406,4898.0,2021-02-04 15:28:19.026,val
2459,2459,34.691261291503906,186.5,2021-02-04 15:29:19.026,val
2460,2460,21.84971046447754,0.0,2021-02-04 15:30:19.026,val
2461,2461,17.9794979095459,98.0,2021-02-04 15:31:19.026,val
2462,2462,0.0,17.0,2021-02-04 15:32:19.026,val
2463,2463,0.0,7.0,2021-02-04 15:33:19.026,val
2464,2464,0.0,5.0,2021-02-04 15:34:19.026,val
2465,2465,0.0,7.0,2021-02-04 15:35:19.026,val
2466,2466,0.0,6.0,2021-02-04 15:36:19.026,val
2467,2467,0.0,5.0,2021-02-04 15:37:19.026,val
2468,2468,0.0,137.0,2021-02-04 15:38:19.026,val
2469,2469,0.0,6.0,2021-02-04 15:39:19.026,val
2470,2470,3.4384174346923833,20.0,2021-02-04 15:40:19.026,val
2471,2471,3.369112491607666,25.0,2021-02-04 15:41:19.026,val
2472,2472,277.56451416015625,354.5,2021-02-04 15:42:19.026,val
2473,2473,525.064453125,5736.0,2021-02-04 15:43:19.026,val
2474,2474,215.1797180175781,6380.0,2021-02-04 15:44:19.026,val
2475,2475,70.84896087646484,699.0,2021-02-04 15:45:19.026,val
2476,2476,4.141687870025635,4.0,2021-02-04 15:46:19.026,val
2477,2477,6.817958354949951,4.0,2021-02-04 15:47:19.026,val
2478,2478,1.878110647201538,11.0,2021-02-04 15:48:19.026,val
2479,2479,0.03700852394104004,4466.5,2021-02-04 15:49:19.026,val
2480,2480,0.0,9.0,2021-02-04 15:50:19.026,val
2481,2481,0.0,5.0,2021-02-04 15:51:19.026,val
2482,2482,0.0,5.0,2021-02-04 15:52:19.026,val
2483,2483,0.0,4.0,2021-02-04 15:53:19.026,val
2484,2484,0.0,5.0,2021-02-04 15:54:19.026,val
2485,2485,0.0,6.0,2021-02-04 15:55:19.026,val
2486,2486,0.0,6.0,2021-02-04 15:56:19.026,val
2487,2487,0.9121993780136108,6.0,2021-02-04 15:57:19.026,val
2488,2488,4.981032371520996,10.0,2021-02-04 15:58:19.026,val
2489,2489,213.52757263183597,27.5,2021-02-04 15:59:19.026,val
2490,2490,465.56048583984375,416.5,2021-02-04 16:00:19.026,val
2491,2491,474.86761474609375,7787.0,2021-02-04 16:01:19.026,val
2492,2492,416.2218017578125,9.0,2021-02-04 16:02:19.026,val
2493,2493,287.0120849609375,1838.0,2021-02-04 16:03:19.026,val
2494,2494,64.08467864990234,122.0,2021-02-04 16:04:19.026,val
2495,2495,27.297176361083984,16.0,2021-02-04 16:05:19.026,val
2496,2496,0.0,6.5,2021-02-04 16:06:19.026,val
2497,2497,0.0,18.0,2021-02-04 16:07:19.026,val
2498,2498,0.0,6.0,2021-02-04 16:08:19.026,val
2499,2499,0.0,4.0,2021-02-04 16:09:19.026,val
2500,2500,0.0,0.0,2021-02-04 16:10:19.026,val
2501,2501,0.0,38.0,2021-02-04 16:11:19.026,val
2502,2502,0.0,6.0,2021-02-04 16:12:19.026,val
2503,2503,3.750195026397705,0.0,2021-02-04 16:13:19.026,val
2504,2504,76.37422943115234,1032.0,2021-02-04 16:14:19.026,val
2505,2505,101.83563995361328,77.0,2021-02-04 16:15:19.026,val
2506,2506,482.78662109375,9929.5,2021-02-04 16:16:19.026,val
2507,2507,566.7090454101562,12.0,2021-02-04 16:17:19.026,val
2508,2508,496.9735412597656,1159.0,2021-02-04 16:18:19.026,val
2509,2509,13.393022537231445,611.0,2021-02-04 16:19:19.026,val
2510,2510,19.453176498413086,6.0,2021-02-04 16:20:19.026,val
2511,2511,18.59761047363281,0.0,2021-02-04 16:21:19.026,val
2512,2512,0.328554630279541,14909.0,2021-02-04 16:22:19.026,val
2513,2513,0.0,5.0,2021-02-04 16:23:19.026,val
2514,2514,0.0,6.0,2021-02-04 16:24:19.026,val
2515,2515,0.0,5.0,2021-02-04 16:25:19.026,val
2516,2516,0.0,4.0,2021-02-04 16:26:19.026,val
2517,2517,0.0,7.0,2021-02-04 16:27:19.026,val
2518,2518,0.0,0.0,2021-02-04 16:28:19.026,val
2519,2519,0.0,6.0,2021-02-04 16:29:19.026,val
2520,2520,0.0,417.0,2021-02-04 16:30:19.026,val
2521,2521,3.6777310371398926,29.0,2021-02-04 16:31:19.026,val
2522,2522,285.8577880859375,5.5,2021-02-04 16:32:19.026,val
2523,2523,523.8612670898439,5073.5,2021-02-04 16:33:19.026,val
2524,2524,534.9172973632811,252.0,2021-02-04 16:34:19.026,val
2525,2525,553.5419311523439,634.5,2021-02-04 16:35:19.026,val
2526,2526,269.95559692382807,4.5,2021-02-04 16:36:19.026,val
2527,2527,77.91268157958984,8.5,2021-02-04 16:37:19.026,val
2528,2528,33.126861572265625,163.5,2021-02-04 16:38:19.026,val
2529,2529,0.16096508502960205,693.0,2021-02-04 16:39:19.026,val
2530,2530,0.053722023963928216,8.0,2021-02-04 16:40:19.026,val
2531,2531,0.0,6.0,2021-02-04 16:41:19.026,val
2532,2532,0.0,5.0,2021-02-04 16:42:19.026,val
2533,2533,0.0,6.0,2021-02-04 16:43:19.026,val
2534,2534,0.0,5.0,2021-02-04 16:44:19.026,val
2535,2535,0.0,6.0,2021-02-04 16:45:19.026,val
2536,2536,0.0,86.0,2021-02-04 16:46:19.026,val
2537,2537,0.0,9.0,2021-02-04 16:47:19.026,val
2538,2538,3.826804637908936,14.0,2021-02-04 16:48:19.026,val
2539,2539,128.42955017089844,790.5,2021-02-04 16:49:19.026,val
2540,2540,179.40249633789062,5581.0,2021-02-04 16:50:19.026,val
2541,2541,423.468994140625,1717.0,2021-02-04 16:51:19.026,val
2542,2542,458.6697998046875,213.0,2021-02-04 16:52:19.026,val
2543,2543,425.338623046875,5.0,2021-02-04 16:53:19.026,val
2544,2544,117.25021362304688,5745.5,2021-02-04 16:54:19.026,val
2545,2545,10.826044082641602,2845.0,2021-02-04 16:55:19.026,val
2546,2546,17.313470840454098,5.0,2021-02-04 16:56:19.026,val
2547,2547,15.690832138061525,5.5,2021-02-04 16:57:19.026,test
2548,2548,0.0,6.0,2021-02-04 16:58:19.026,test
2549,2549,0.0,5.0,2021-02-04 16:59:19.026,test
2550,2550,0.0,5.0,2021-02-04 17:00:19.026,test
2551,2551,0.0,5.0,2021-02-04 17:01:19.026,test
2552,2552,0.0,0.0,2021-02-04 17:02:19.026,test
2553,2553,0.0,6.0,2021-02-04 17:03:19.026,test
2554,2554,0.0,13.0,2021-02-04 17:04:19.026,test
2555,2555,0.9206551313400269,441.0,2021-02-04 17:05:19.026,test
2556,2556,11.78037929534912,22.5,2021-02-04 17:06:19.026,test
2557,2557,108.32440948486328,31.0,2021-02-04 17:07:19.026,test
2558,2558,524.45654296875,73.0,2021-02-04 17:08:19.026,test
2559,2559,540.816650390625,5995.0,2021-02-04 17:09:19.026,test
2560,2560,250.23976135253903,570.0,2021-02-04 17:10:19.026,test
2561,2561,14.859026908874512,12897.3330078125,2021-02-04 17:11:19.026,test
2562,2562,15.576602935791016,14.0,2021-02-04 17:12:19.026,test
2563,2563,17.430078506469727,9.0,2021-02-04 17:13:19.026,test
2564,2564,17.251701354980472,10.0,2021-02-04 17:14:19.026,test
2565,2565,2.656426429748535,6.0,2021-02-04 17:15:19.026,test
2566,2566,0.0,6.0,2021-02-04 17:16:19.026,test
2567,2567,0.0,0.0,2021-02-04 17:17:19.026,test
2568,2568,0.0,4.0,2021-02-04 17:18:19.026,test
2569,2569,0.0,6.0,2021-02-04 17:19:19.026,test
2570,2570,0.0,13.0,2021-02-04 17:20:19.026,test
2571,2571,0.0,6.0,2021-02-04 17:21:19.026,test
2572,2572,0.0,6.0,2021-02-04 17:22:19.026,test
2573,2573,4.401672840118408,815.0,2021-02-04 17:23:19.026,test
2574,2574,3.5560927391052246,1717.0,2021-02-04 17:24:19.026,test
2575,2575,312.54412841796875,2237.0,2021-02-04 17:25:19.026,test
2576,2576,624.9682006835938,283.0,2021-02-04 17:26:19.026,test
2577,2577,618.9742431640625,1820.0,2021-02-04 17:27:19.026,test
2578,2578,346.1202697753906,0.0,2021-02-04 17:28:19.026,test
2579,2579,92.2233657836914,4.5,2021-02-04 17:29:19.026,test
2580,2580,11.696057319641113,6.0,2021-02-04 17:30:19.026,test
2581,2581,1.8226566314697263,1795.5,2021-02-04 17:31:19.026,test
2582,2582,0.0,10.0,2021-02-04 17:32:19.026,test
2583,2583,0.0,9.0,2021-02-04 17:33:19.026,test
2584,2584,0.0,15.0,2021-02-04 17:34:19.026,test
2585,2585,0.0,4.0,2021-02-04 17:35:19.026,test
2586,2586,0.0,6.0,2021-02-04 17:36:19.026,test
2587,2587,0.0,5.0,2021-02-04 17:37:19.026,test
2588,2588,0.0,7.0,2021-02-04 17:38:19.026,test
2589,2589,0.6717526912689209,5.0,2021-02-04 17:39:19.026,test
2590,2590,5.280067443847656,13178.0,2021-02-04 17:40:19.026,test
2591,2591,3.557544231414795,157.0,2021-02-04 17:41:19.026,test
2592,2592,416.8682861328125,3395.0,2021-02-04 17:42:19.026,test
