name,time,countryCode,ipAddress,level,producer,value
SimulationLeftNumber,2021-01-22T12:10:55.48Z,IE,52.18.32.186,0,52.18.32.186,900
SimulationLeftNumber,2021-01-22T12:11:25.32Z,IE,52.18.32.186,0,52.18.32.186,900
SimulationLeftNumber,2021-01-22T12:11:55.315Z,IE,52.18.32.186,0,52.18.32.186,899
SimulationLeftNumber,2021-01-22T12:12:25.342Z,IE,52.18.32.186,0,52.18.32.186,897
SimulationLeftNumber,2021-01-22T12:12:55.286Z,IE,52.18.32.186,0,52.18.32.186,896
SimulationLeftNumber,2021-01-22T12:13:25.298Z,IE,52.18.32.186,0,52.18.32.186,896
SimulationLeftNumber,2021-01-22T12:13:55.4Z,IE,52.18.32.186,0,52.18.32.186,894
SimulationLeftNumber,2021-01-22T12:14:25.313Z,IE,52.18.32.186,0,52.18.32.186,893
SimulationLeftNumber,2021-01-22T12:14:55.32Z,IE,52.18.32.186,0,52.18.32.186,893
SimulationLeftNumber,2021-01-22T12:15:25.279Z,IE,52.18.32.186,0,52.18.32.186,891
SimulationLeftNumber,2021-01-22T12:15:55.279Z,IE,52.18.32.186,0,52.18.32.186,890
SimulationLeftNumber,2021-01-22T12:16:25.298Z,IE,52.18.32.186,0,52.18.32.186,890
SimulationLeftNumber,2021-01-22T12:16:55.275Z,IE,52.18.32.186,0,52.18.32.186,888
SimulationLeftNumber,2021-01-22T12:17:25.308Z,IE,52.18.32.186,0,52.18.32.186,887
SimulationLeftNumber,2021-01-22T12:17:55.316Z,IE,52.18.32.186,0,52.18.32.186,887
SimulationLeftNumber,2021-01-22T12:18:25.275Z,IE,52.18.32.186,0,52.18.32.186,885
SimulationLeftNumber,2021-01-22T12:18:55.363Z,IE,52.18.32.186,0,52.18.32.186,884
SimulationLeftNumber,2021-01-22T12:19:25.27Z,IE,52.18.32.186,0,52.18.32.186,884
SimulationLeftNumber,2021-01-22T12:19:55.265Z,IE,52.18.32.186,0,52.18.32.186,883
SimulationLeftNumber,2021-01-22T12:20:25.285Z,IE,52.18.32.186,0,52.18.32.186,881
SimulationLeftNumber,2021-01-22T12:20:55.286Z,IE,52.18.32.186,0,52.18.32.186,881
SimulationLeftNumber,2021-01-22T12:21:25.266Z,IE,52.18.32.186,0,52.18.32.186,881
SimulationLeftNumber,2021-01-22T12:21:55.267Z,IE,52.18.32.186,0,52.18.32.186,878
SimulationLeftNumber,2021-01-22T12:22:25.276Z,IE,52.18.32.186,0,52.18.32.186,878
SimulationLeftNumber,2021-01-22T12:22:55.355Z,IE,52.18.32.186,0,52.18.32.186,878
SimulationLeftNumber,2021-01-22T12:23:25.294Z,IE,52.18.32.186,0,52.18.32.186,875
SimulationLeftNumber,2021-01-22T12:23:55.279Z,IE,52.18.32.186,0,52.18.32.186,875
SimulationLeftNumber,2021-01-22T12:24:25.265Z,IE,52.18.32.186,0,52.18.32.186,874
SimulationLeftNumber,2021-01-22T12:24:55.259Z,IE,52.18.32.186,0,52.18.32.186,871
SimulationLeftNumber,2021-01-22T12:25:25.254Z,IE,52.18.32.186,0,52.18.32.186,871
SimulationLeftNumber,2021-01-22T12:25:55.265Z,IE,52.18.32.186,0,52.18.32.186,869
SimulationLeftNumber,2021-01-22T12:26:25.262Z,IE,52.18.32.186,0,52.18.32.186,868
SimulationLeftNumber,2021-01-22T12:26:55.283Z,IE,52.18.32.186,0,52.18.32.186,868
SimulationLeftNumber,2021-01-22T12:27:25.248Z,IE,52.18.32.186,0,52.18.32.186,866
SimulationLeftNumber,2021-01-22T12:27:55.328Z,IE,52.18.32.186,0,52.18.32.186,865
SimulationLeftNumber,2021-01-22T12:28:25.262Z,IE,52.18.32.186,0,52.18.32.186,865
SimulationLeftNumber,2021-01-22T12:28:55.264Z,IE,52.18.32.186,0,52.18.32.186,863
SimulationLeftNumber,2021-01-22T12:29:25.26Z,IE,52.18.32.186,0,52.18.32.186,862
SimulationLeftNumber,2021-01-22T12:29:55.268Z,IE,52.18.32.186,0,52.18.32.186,862
SimulationLeftNumber,2021-01-22T12:30:25.256Z,IE,52.18.32.186,0,52.18.32.186,860
SimulationLeftNumber,2021-01-22T12:30:55.259Z,IE,52.18.32.186,0,52.18.32.186,859
SimulationLeftNumber,2021-01-22T12:31:25.273Z,IE,52.18.32.186,0,52.18.32.186,859
SimulationLeftNumber,2021-01-22T12:31:55.272Z,IE,52.18.32.186,0,52.18.32.186,857
SimulationLeftNumber,2021-01-22T12:32:25.245Z,IE,52.18.32.186,0,52.18.32.186,856
SimulationLeftNumber,2021-01-22T12:32:55.347Z,IE,52.18.32.186,0,52.18.32.186,856
SimulationLeftNumber,2021-01-22T12:33:25.263Z,IE,52.18.32.186,0,52.18.32.186,854
SimulationLeftNumber,2021-01-22T12:33:55.281Z,IE,52.18.32.186,0,52.18.32.186,854
SimulationLeftNumber,2021-01-22T12:34:25.256Z,IE,52.18.32.186,0,52.18.32.186,853
SimulationLeftNumber,2021-01-22T12:34:55.275Z,IE,52.18.32.186,0,52.18.32.186,852
SimulationLeftNumber,2021-01-22T12:35:25.246Z,IE,52.18.32.186,0,52.18.32.186,851
SimulationLeftNumber,2021-01-22T12:35:55.246Z,IE,52.18.32.186,0,52.18.32.186,850
SimulationLeftNumber,2021-01-22T12:36:25.253Z,IE,52.18.32.186,0,52.18.32.186,849
SimulationLeftNumber,2021-01-22T12:36:55.259Z,IE,52.18.32.186,0,52.18.32.186,848
SimulationLeftNumber,2021-01-22T12:37:25.256Z,IE,52.18.32.186,0,52.18.32.186,847
SimulationLeftNumber,2021-01-22T12:37:55.25Z,IE,52.18.32.186,0,52.18.32.186,846
SimulationLeftNumber,2021-01-22T12:38:25.251Z,IE,52.18.32.186,0,52.18.32.186,845
SimulationLeftNumber,2021-01-22T12:38:55.253Z,IE,52.18.32.186,0,52.18.32.186,844
SimulationLeftNumber,2021-01-22T12:39:25.25Z,IE,52.18.32.186,0,52.18.32.186,843
SimulationLeftNumber,2021-01-22T12:39:55.278Z,IE,52.18.32.186,0,52.18.32.186,840
SimulationLeftNumber,2021-01-22T12:40:25.269Z,IE,52.18.32.186,0,52.18.32.186,840
SimulationLeftNumber,2021-01-22T12:40:55.249Z,IE,52.18.32.186,0,52.18.32.186,837
SimulationLeftNumber,2021-01-22T12:41:25.246Z,IE,52.18.32.186,0,52.18.32.186,837
SimulationLeftNumber,2021-01-22T12:41:55.262Z,IE,52.18.32.186,0,52.18.32.186,837
SimulationLeftNumber,2021-01-22T12:42:25.247Z,IE,52.18.32.186,0,52.18.32.186,834
SimulationLeftNumber,2021-01-22T12:42:55.247Z,IE,52.18.32.186,0,52.18.32.186,834
SimulationLeftNumber,2021-01-22T12:43:25.252Z,IE,52.18.32.186,0,52.18.32.186,834
SimulationLeftNumber,2021-01-22T12:43:55.25Z,IE,52.18.32.186,0,52.18.32.186,832
SimulationLeftNumber,2021-01-22T12:44:25.29Z,IE,52.18.32.186,0,52.18.32.186,831
SimulationLeftNumber,2021-01-22T12:44:55.267Z,IE,52.18.32.186,0,52.18.32.186,831
SimulationLeftNumber,2021-01-22T12:45:25.269Z,IE,52.18.32.186,0,52.18.32.186,829
SimulationLeftNumber,2021-01-22T12:45:55.251Z,IE,52.18.32.186,0,52.18.32.186,828
SimulationLeftNumber,2021-01-22T12:46:25.269Z,IE,52.18.32.186,0,52.18.32.186,828
SimulationLeftNumber,2021-01-22T12:46:55.288Z,IE,52.18.32.186,0,52.18.32.186,826
SimulationLeftNumber,2021-01-22T12:47:25.248Z,IE,52.18.32.186,0,52.18.32.186,825
SimulationLeftNumber,2021-01-22T12:47:55.27Z,IE,52.18.32.186,0,52.18.32.186,825
SimulationLeftNumber,2021-01-22T12:48:25.273Z,IE,52.18.32.186,0,52.18.32.186,823
SimulationLeftNumber,2021-01-22T12:48:55.253Z,IE,52.18.32.186,0,52.18.32.186,822
SimulationLeftNumber,2021-01-22T12:49:25.253Z,IE,52.18.32.186,0,52.18.32.186,822
SimulationLeftNumber,2021-01-22T12:49:55.267Z,IE,52.18.32.186,0,52.18.32.186,821
SimulationLeftNumber,2021-01-22T12:50:25.282Z,IE,52.18.32.186,0,52.18.32.186,820
SimulationLeftNumber,2021-01-22T12:50:55.257Z,IE,52.18.32.186,0,52.18.32.186,819
SimulationLeftNumber,2021-01-22T12:51:25.252Z,IE,52.18.32.186,0,52.18.32.186,818
SimulationLeftNumber,2021-01-22T12:51:55.251Z,IE,52.18.32.186,0,52.18.32.186,817
SimulationLeftNumber,2021-01-22T12:52:25.266Z,IE,52.18.32.186,0,52.18.32.186,815
SimulationLeftNumber,2021-01-22T12:52:55.281Z,IE,52.18.32.186,0,52.18.32.186,815
SimulationLeftNumber,2021-01-22T12:53:25.256Z,IE,52.18.32.186,0,52.18.32.186,814
SimulationLeftNumber,2021-01-22T12:53:55.278Z,IE,52.18.32.186,0,52.18.32.186,809
SimulationLeftNumber,2021-01-22T12:54:25.267Z,IE,52.18.32.186,0,52.18.32.186,809
SimulationLeftNumber,2021-01-22T12:54:55.25Z,IE,52.18.32.186,0,52.18.32.186,807
SimulationLeftNumber,2021-01-22T12:55:25.269Z,IE,52.18.32.186,0,52.18.32.186,806
SimulationLeftNumber,2021-01-22T12:55:55.278Z,IE,52.18.32.186,0,52.18.32.186,806
SimulationLeftNumber,2021-01-22T12:56:25.285Z,IE,52.18.32.186,0,52.18.32.186,804
SimulationLeftNumber,2021-01-22T12:56:55.29Z,IE,52.18.32.186,0,52.18.32.186,803
SimulationLeftNumber,2021-01-22T12:57:25.332Z,IE,52.18.32.186,0,52.18.32.186,803
SimulationLeftNumber,2021-01-22T12:57:55.289Z,IE,52.18.32.186,0,52.18.32.186,801
SimulationLeftNumber,2021-01-22T12:58:25.281Z,IE,52.18.32.186,0,52.18.32.186,801
SimulationLeftNumber,2021-01-22T12:58:55.25Z,IE,52.18.32.186,0,52.18.32.186,800
SimulationLeftNumber,2021-01-22T12:59:25.247Z,IE,52.18.32.186,0,52.18.32.186,799
SimulationLeftNumber,2021-01-22T12:59:55.276Z,IE,52.18.32.186,0,52.18.32.186,798
SimulationLeftNumber,2021-01-22T13:00:25.251Z,IE,52.18.32.186,0,52.18.32.186,797
SimulationLeftNumber,2021-01-22T13:00:55.255Z,IE,52.18.32.186,0,52.18.32.186,796
SimulationLeftNumber,2021-01-22T13:01:25.257Z,IE,52.18.32.186,0,52.18.32.186,795
SimulationLeftNumber,2021-01-22T13:01:55.254Z,IE,52.18.32.186,0,52.18.32.186,794
SimulationLeftNumber,2021-01-22T13:02:25.359Z,IE,52.18.32.186,0,52.18.32.186,793
SimulationLeftNumber,2021-01-22T13:02:55.248Z,IE,52.18.32.186,0,52.18.32.186,792
SimulationLeftNumber,2021-01-22T13:03:25.252Z,IE,52.18.32.186,0,52.18.32.186,792
SimulationLeftNumber,2021-01-22T13:03:55.252Z,IE,52.18.32.186,0,52.18.32.186,790
SimulationLeftNumber,2021-01-22T13:04:25.26Z,IE,52.18.32.186,0,52.18.32.186,790
SimulationLeftNumber,2021-01-22T13:04:55.246Z,IE,52.18.32.186,0,52.18.32.186,789
SimulationLeftNumber,2021-01-22T13:05:25.245Z,IE,52.18.32.186,0,52.18.32.186,787
SimulationLeftNumber,2021-01-22T13:05:55.25Z,IE,52.18.32.186,0,52.18.32.186,787
SimulationLeftNumber,2021-01-22T13:06:25.247Z,IE,52.18.32.186,0,52.18.32.186,786
SimulationLeftNumber,2021-01-22T13:06:55.248Z,IE,52.18.32.186,0,52.18.32.186,785
SimulationLeftNumber,2021-01-22T13:07:25.338Z,IE,52.18.32.186,0,52.18.32.186,784
SimulationLeftNumber,2021-01-22T13:07:55.254Z,IE,52.18.32.186,0,52.18.32.186,783
SimulationLeftNumber,2021-01-22T13:08:25.248Z,IE,52.18.32.186,0,52.18.32.186,778
SimulationLeftNumber,2021-01-22T13:08:55.286Z,IE,52.18.32.186,0,52.18.32.186,776
SimulationLeftNumber,2021-01-22T13:09:25.274Z,IE,52.18.32.186,0,52.18.32.186,775
SimulationLeftNumber,2021-01-22T13:09:55.281Z,IE,52.18.32.186,0,52.18.32.186,775
SimulationLeftNumber,2021-01-22T13:10:25.259Z,IE,52.18.32.186,0,52.18.32.186,773
SimulationLeftNumber,2021-01-22T13:10:55.245Z,IE,52.18.32.186,0,52.18.32.186,773
SimulationLeftNumber,2021-01-22T13:11:25.259Z,IE,52.18.32.186,0,52.18.32.186,772
SimulationLeftNumber,2021-01-22T13:11:55.339Z,IE,52.18.32.186,0,52.18.32.186,770
SimulationLeftNumber,2021-01-22T13:12:25.265Z,IE,52.18.32.186,0,52.18.32.186,770
SimulationLeftNumber,2021-01-22T13:12:55.292Z,IE,52.18.32.186,0,52.18.32.186,769
SimulationLeftNumber,2021-01-22T13:13:25.249Z,IE,52.18.32.186,0,52.18.32.186,767
SimulationLeftNumber,2021-01-22T13:13:55.259Z,IE,52.18.32.186,0,52.18.32.186,767
SimulationLeftNumber,2021-01-22T13:14:25.255Z,IE,52.18.32.186,0,52.18.32.186,766
SimulationLeftNumber,2021-01-22T13:14:55.252Z,IE,52.18.32.186,0,52.18.32.186,764
SimulationLeftNumber,2021-01-22T13:15:25.249Z,IE,52.18.32.186,0,52.18.32.186,764
SimulationLeftNumber,2021-01-22T13:15:55.26Z,IE,52.18.32.186,0,52.18.32.186,763
SimulationLeftNumber,2021-01-22T13:16:25.248Z,IE,52.18.32.186,0,52.18.32.186,762
SimulationLeftNumber,2021-01-22T13:16:55.244Z,IE,52.18.32.186,0,52.18.32.186,761
SimulationLeftNumber,2021-01-22T13:17:25.332Z,IE,52.18.32.186,0,52.18.32.186,760
SimulationLeftNumber,2021-01-22T13:17:55.269Z,IE,52.18.32.186,0,52.18.32.186,759
SimulationLeftNumber,2021-01-22T13:18:25.268Z,IE,52.18.32.186,0,52.18.32.186,758
SimulationLeftNumber,2021-01-22T13:18:55.274Z,IE,52.18.32.186,0,52.18.32.186,757
SimulationLeftNumber,2021-01-22T13:19:25.259Z,IE,52.18.32.186,0,52.18.32.186,756
SimulationLeftNumber,2021-01-22T13:19:55.28Z,IE,52.18.32.186,0,52.18.32.186,755
SimulationLeftNumber,2021-01-22T13:20:25.248Z,IE,52.18.32.186,0,52.18.32.186,754
SimulationLeftNumber,2021-01-22T13:20:55.252Z,IE,52.18.32.186,0,52.18.32.186,753
SimulationLeftNumber,2021-01-22T13:21:25.26Z,IE,52.18.32.186,0,52.18.32.186,753
SimulationLeftNumber,2021-01-22T13:21:55.246Z,IE,52.18.32.186,0,52.18.32.186,747
SimulationLeftNumber,2021-01-22T13:22:25.271Z,IE,52.18.32.186,0,52.18.32.186,744
SimulationLeftNumber,2021-01-22T13:22:55.256Z,IE,52.18.32.186,0,52.18.32.186,744
SimulationLeftNumber,2021-01-22T13:23:25.251Z,IE,52.18.32.186,0,52.18.32.186,744
SimulationLeftNumber,2021-01-22T13:23:55.245Z,IE,52.18.32.186,0,52.18.32.186,741
SimulationLeftNumber,2021-01-22T13:24:25.276Z,IE,52.18.32.186,0,52.18.32.186,741
SimulationLeftNumber,2021-01-22T13:24:55.254Z,IE,52.18.32.186,0,52.18.32.186,741
SimulationLeftNumber,2021-01-22T13:25:25.268Z,IE,52.18.32.186,0,52.18.32.186,739
SimulationLeftNumber,2021-01-22T13:25:55.247Z,IE,52.18.32.186,0,52.18.32.186,738
SimulationLeftNumber,2021-01-22T13:26:25.245Z,IE,52.18.32.186,0,52.18.32.186,738
SimulationLeftNumber,2021-01-22T13:26:55.243Z,IE,52.18.32.186,0,52.18.32.186,737
SimulationLeftNumber,2021-01-22T13:27:25.329Z,IE,52.18.32.186,0,52.18.32.186,735
SimulationLeftNumber,2021-01-22T13:27:55.27Z,IE,52.18.32.186,0,52.18.32.186,734
SimulationLeftNumber,2021-01-22T13:28:25.25Z,IE,52.18.32.186,0,52.18.32.186,734
SimulationLeftNumber,2021-01-22T13:28:55.243Z,IE,52.18.32.186,0,52.18.32.186,732
SimulationLeftNumber,2021-01-22T13:29:25.288Z,IE,52.18.32.186,0,52.18.32.186,731
SimulationLeftNumber,2021-01-22T13:29:55.251Z,IE,52.18.32.186,0,52.18.32.186,731
SimulationLeftNumber,2021-01-22T13:30:25.245Z,IE,52.18.32.186,0,52.18.32.186,729
SimulationLeftNumber,2021-01-22T13:30:55.244Z,IE,52.18.32.186,0,52.18.32.186,728
SimulationLeftNumber,2021-01-22T13:31:25.27Z,IE,52.18.32.186,0,52.18.32.186,728
SimulationLeftNumber,2021-01-22T13:31:55.246Z,IE,52.18.32.186,0,52.18.32.186,727
SimulationLeftNumber,2021-01-22T13:32:25.242Z,IE,52.18.32.186,0,52.18.32.186,725
SimulationLeftNumber,2021-01-22T13:32:55.244Z,IE,52.18.32.186,0,52.18.32.186,725
SimulationLeftNumber,2021-01-22T13:33:25.262Z,IE,52.18.32.186,0,52.18.32.186,724
SimulationLeftNumber,2021-01-22T13:33:55.263Z,IE,52.18.32.186,0,52.18.32.186,716
SimulationLeftNumber,2021-01-22T13:34:25.25Z,IE,52.18.32.186,0,52.18.32.186,716
SimulationLeftNumber,2021-01-22T13:34:55.249Z,IE,52.18.32.186,0,52.18.32.186,714
SimulationLeftNumber,2021-01-22T13:35:25.269Z,IE,52.18.32.186,0,52.18.32.186,713
SimulationLeftNumber,2021-01-22T13:35:55.269Z,IE,52.18.32.186,0,52.18.32.186,713
SimulationLeftNumber,2021-01-22T13:36:25.256Z,IE,52.18.32.186,0,52.18.32.186,712
SimulationLeftNumber,2021-01-22T13:36:55.25Z,IE,52.18.32.186,0,52.18.32.186,710
SimulationLeftNumber,2021-01-22T13:37:25.246Z,IE,52.18.32.186,0,52.18.32.186,710
SimulationLeftNumber,2021-01-22T13:37:55.242Z,IE,52.18.32.186,0,52.18.32.186,710
SimulationLeftNumber,2021-01-22T13:38:25.251Z,IE,52.18.32.186,0,52.18.32.186,707
SimulationLeftNumber,2021-01-22T13:38:55.277Z,IE,52.18.32.186,0,52.18.32.186,707
SimulationLeftNumber,2021-01-22T13:39:25.245Z,IE,52.18.32.186,0,52.18.32.186,707
SimulationLeftNumber,2021-01-22T13:39:55.251Z,IE,52.18.32.186,0,52.18.32.186,704
SimulationLeftNumber,2021-01-22T13:40:25.25Z,IE,52.18.32.186,0,52.18.32.186,704
SimulationLeftNumber,2021-01-22T13:40:55.251Z,IE,52.18.32.186,0,52.18.32.186,704
SimulationLeftNumber,2021-01-22T13:41:25.262Z,IE,52.18.32.186,0,52.18.32.186,701
SimulationLeftNumber,2021-01-22T13:41:55.283Z,IE,52.18.32.186,0,52.18.32.186,701
SimulationLeftNumber,2021-01-22T13:42:25.245Z,IE,52.18.32.186,0,52.18.32.186,701
SimulationLeftNumber,2021-01-22T13:42:55.262Z,IE,52.18.32.186,0,52.18.32.186,698
SimulationLeftNumber,2021-01-22T13:43:25.253Z,IE,52.18.32.186,0,52.18.32.186,698
SimulationLeftNumber,2021-01-22T13:43:55.279Z,IE,52.18.32.186,0,52.18.32.186,698
SimulationLeftNumber,2021-01-22T13:44:25.246Z,IE,52.18.32.186,0,52.18.32.186,696
SimulationLeftNumber,2021-01-22T13:44:55.246Z,IE,52.18.32.186,0,52.18.32.186,695
SimulationLeftNumber,2021-01-22T13:45:25.247Z,IE,52.18.32.186,0,52.18.32.186,695
SimulationLeftNumber,2021-01-22T13:45:55.249Z,IE,52.18.32.186,0,52.18.32.186,694
SimulationLeftNumber,2021-01-22T13:46:25.25Z,IE,52.18.32.186,0,52.18.32.186,685
SimulationLeftNumber,2021-01-22T13:46:55.248Z,IE,52.18.32.186,0,52.18.32.186,684
SimulationLeftNumber,2021-01-22T13:47:25.243Z,IE,52.18.32.186,0,52.18.32.186,683
SimulationLeftNumber,2021-01-22T13:47:55.242Z,IE,52.18.32.186,0,52.18.32.186,682
SimulationLeftNumber,2021-01-22T13:48:25.281Z,IE,52.18.32.186,0,52.18.32.186,681
SimulationLeftNumber,2021-01-22T13:48:55.283Z,IE,52.18.32.186,0,52.18.32.186,680
SimulationLeftNumber,2021-01-22T13:49:25.247Z,IE,52.18.32.186,0,52.18.32.186,679
SimulationLeftNumber,2021-01-22T13:49:55.272Z,IE,52.18.32.186,0,52.18.32.186,679
SimulationLeftNumber,2021-01-22T13:50:25.247Z,IE,52.18.32.186,0,52.18.32.186,677
SimulationLeftNumber,2021-01-22T13:50:55.268Z,IE,52.18.32.186,0,52.18.32.186,676
SimulationLeftNumber,2021-01-22T13:51:25.252Z,IE,52.18.32.186,0,52.18.32.186,676
SimulationLeftNumber,2021-01-22T13:51:55.273Z,IE,52.18.32.186,0,52.18.32.186,674
SimulationLeftNumber,2021-01-22T13:52:25.248Z,IE,52.18.32.186,0,52.18.32.186,674
SimulationLeftNumber,2021-01-22T13:52:55.249Z,IE,52.18.32.186,0,52.18.32.186,672
SimulationLeftNumber,2021-01-22T13:53:25.245Z,IE,52.18.32.186,0,52.18.32.186,671
SimulationLeftNumber,2021-01-22T13:53:55.251Z,IE,52.18.32.186,0,52.18.32.186,671
SimulationLeftNumber,2021-01-22T13:54:25.249Z,IE,52.18.32.186,0,52.18.32.186,669
SimulationLeftNumber,2021-01-22T13:54:55.269Z,IE,52.18.32.186,0,52.18.32.186,669
SimulationLeftNumber,2021-01-22T13:55:25.264Z,IE,52.18.32.186,0,52.18.32.186,668
SimulationLeftNumber,2021-01-22T13:55:55.26Z,IE,52.18.32.186,0,52.18.32.186,666
SimulationLeftNumber,2021-01-22T13:56:25.259Z,IE,52.18.32.186,0,52.18.32.186,666
SimulationLeftNumber,2021-01-22T13:56:55.249Z,IE,52.18.32.186,0,52.18.32.186,665
SimulationLeftNumber,2021-01-22T13:57:25.274Z,IE,52.18.32.186,0,52.18.32.186,664
SimulationLeftNumber,2021-01-22T13:57:55.247Z,IE,52.18.32.186,0,52.18.32.186,663
SimulationLeftNumber,2021-01-22T13:58:25.271Z,IE,52.18.32.186,0,52.18.32.186,654
SimulationLeftNumber,2021-01-22T13:58:55.254Z,IE,52.18.32.186,0,52.18.32.186,653
SimulationLeftNumber,2021-01-22T13:59:25.272Z,IE,52.18.32.186,0,52.18.32.186,651
SimulationLeftNumber,2021-01-22T13:59:55.25Z,IE,52.18.32.186,0,52.18.32.186,651
SimulationLeftNumber,2021-01-22T14:00:25.252Z,IE,52.18.32.186,0,52.18.32.186,650
SimulationLeftNumber,2021-01-22T14:00:55.251Z,IE,52.18.32.186,0,52.18.32.186,648
SimulationLeftNumber,2021-01-22T14:01:25.245Z,IE,52.18.32.186,0,52.18.32.186,648
SimulationLeftNumber,2021-01-22T14:01:55.255Z,IE,52.18.32.186,0,52.18.32.186,647
SimulationLeftNumber,2021-01-22T14:02:25.25Z,IE,52.18.32.186,0,52.18.32.186,645
SimulationLeftNumber,2021-01-22T14:02:55.26Z,IE,52.18.32.186,0,52.18.32.186,645
SimulationLeftNumber,2021-01-22T14:03:25.265Z,IE,52.18.32.186,0,52.18.32.186,644
SimulationLeftNumber,2021-01-22T14:03:55.267Z,IE,52.18.32.186,0,52.18.32.186,644
SimulationLeftNumber,2021-01-22T14:04:25.248Z,IE,52.18.32.186,0,52.18.32.186,642
SimulationLeftNumber,2021-01-22T14:04:55.252Z,IE,52.18.32.186,0,52.18.32.186,641
SimulationLeftNumber,2021-01-22T14:05:25.254Z,IE,52.18.32.186,0,52.18.32.186,641
SimulationLeftNumber,2021-01-22T14:05:55.284Z,IE,52.18.32.186,0,52.18.32.186,639
SimulationLeftNumber,2021-01-22T14:06:25.251Z,IE,52.18.32.186,0,52.18.32.186,638
SimulationLeftNumber,2021-01-22T14:06:55.253Z,IE,52.18.32.186,0,52.18.32.186,638
SimulationLeftNumber,2021-01-22T14:07:25.261Z,IE,52.18.32.186,0,52.18.32.186,636
SimulationLeftNumber,2021-01-22T14:07:55.256Z,IE,52.18.32.186,0,52.18.32.186,635
SimulationLeftNumber,2021-01-22T14:08:25.274Z,IE,52.18.32.186,0,52.18.32.186,635
SimulationLeftNumber,2021-01-22T14:08:55.251Z,IE,52.18.32.186,0,52.18.32.186,634
SimulationLeftNumber,2021-01-22T14:09:25.252Z,IE,52.18.32.186,0,52.18.32.186,623
SimulationLeftNumber,2021-01-22T14:09:55.252Z,IE,52.18.32.186,0,52.18.32.186,623
SimulationLeftNumber,2021-01-22T14:10:25.261Z,IE,52.18.32.186,0,52.18.32.186,622
SimulationLeftNumber,2021-01-22T14:10:55.249Z,IE,52.18.32.186,0,52.18.32.186,620
SimulationLeftNumber,2021-01-22T14:11:25.254Z,IE,52.18.32.186,0,52.18.32.186,619
SimulationLeftNumber,2021-01-22T14:11:55.249Z,IE,52.18.32.186,0,52.18.32.186,619
SimulationLeftNumber,2021-01-22T14:12:25.253Z,IE,52.18.32.186,0,52.18.32.186,617
SimulationLeftNumber,2021-01-22T14:12:55.294Z,IE,52.18.32.186,0,52.18.32.186,616
SimulationLeftNumber,2021-01-22T14:13:25.272Z,IE,52.18.32.186,0,52.18.32.186,616
SimulationLeftNumber,2021-01-22T14:13:55.284Z,IE,52.18.32.186,0,52.18.32.186,615
SimulationLeftNumber,2021-01-22T14:14:25.246Z,IE,52.18.32.186,0,52.18.32.186,613
SimulationLeftNumber,2021-01-22T14:14:55.248Z,IE,52.18.32.186,0,52.18.32.186,613
SimulationLeftNumber,2021-01-22T14:15:25.249Z,IE,52.18.32.186,0,52.18.32.186,613
SimulationLeftNumber,2021-01-22T14:15:55.25Z,IE,52.18.32.186,0,52.18.32.186,610
SimulationLeftNumber,2021-01-22T14:16:25.286Z,IE,52.18.32.186,0,52.18.32.186,610
SimulationLeftNumber,2021-01-22T14:16:55.26Z,IE,52.18.32.186,0,52.18.32.186,610
SimulationLeftNumber,2021-01-22T14:17:25.284Z,IE,52.18.32.186,0,52.18.32.186,607
SimulationLeftNumber,2021-01-22T14:17:55.271Z,IE,52.18.32.186,0,52.18.32.186,607
SimulationLeftNumber,2021-01-22T14:18:25.251Z,IE,52.18.32.186,0,52.18.32.186,607
SimulationLeftNumber,2021-01-22T14:18:55.247Z,IE,52.18.32.186,0,52.18.32.186,604
SimulationLeftNumber,2021-01-22T14:19:25.276Z,IE,52.18.32.186,0,52.18.32.186,604
SimulationLeftNumber,2021-01-22T14:19:55.251Z,IE,52.18.32.186,0,52.18.32.186,604
SimulationLeftNumber,2021-01-22T14:20:25.254Z,IE,52.18.32.186,0,52.18.32.186,591
SimulationLeftNumber,2021-01-22T14:20:55.251Z,IE,52.18.32.186,0,52.18.32.186,591
SimulationLeftNumber,2021-01-22T14:21:25.273Z,IE,52.18.32.186,0,52.18.32.186,590
SimulationLeftNumber,2021-01-22T14:21:55.288Z,IE,52.18.32.186,0,52.18.32.186,589
SimulationLeftNumber,2021-01-22T14:22:25.267Z,IE,52.18.32.186,0,52.18.32.186,588
SimulationLeftNumber,2021-01-22T14:22:55.274Z,IE,52.18.32.186,0,52.18.32.186,587
SimulationLeftNumber,2021-01-22T14:23:25.249Z,IE,52.18.32.186,0,52.18.32.186,586
SimulationLeftNumber,2021-01-22T14:23:55.256Z,IE,52.18.32.186,0,52.18.32.186,584
SimulationLeftNumber,2021-01-22T14:24:25.276Z,IE,52.18.32.186,0,52.18.32.186,584
SimulationLeftNumber,2021-01-22T14:24:55.284Z,IE,52.18.32.186,0,52.18.32.186,584
SimulationLeftNumber,2021-01-22T14:25:25.28Z,IE,52.18.32.186,0,52.18.32.186,581
SimulationLeftNumber,2021-01-22T14:25:55.264Z,IE,52.18.32.186,0,52.18.32.186,581
SimulationLeftNumber,2021-01-22T14:26:25.273Z,IE,52.18.32.186,0,52.18.32.186,581
SimulationLeftNumber,2021-01-22T14:26:55.287Z,IE,52.18.32.186,0,52.18.32.186,579
SimulationLeftNumber,2021-01-22T14:27:25.254Z,IE,52.18.32.186,0,52.18.32.186,578
SimulationLeftNumber,2021-01-22T14:27:55.27Z,IE,52.18.32.186,0,52.18.32.186,578
SimulationLeftNumber,2021-01-22T14:28:25.255Z,IE,52.18.32.186,0,52.18.32.186,576
SimulationLeftNumber,2021-01-22T14:28:55.252Z,IE,52.18.32.186,0,52.18.32.186,575
SimulationLeftNumber,2021-01-22T14:29:25.249Z,IE,52.18.32.186,0,52.18.32.186,575
SimulationLeftNumber,2021-01-22T14:29:55.268Z,IE,52.18.32.186,0,52.18.32.186,573
SimulationLeftNumber,2021-01-22T14:30:25.265Z,IE,52.18.32.186,0,52.18.32.186,561
SimulationLeftNumber,2021-01-22T14:30:55.252Z,IE,52.18.32.186,0,52.18.32.186,561
SimulationLeftNumber,2021-01-22T14:31:25.255Z,IE,52.18.32.186,0,52.18.32.186,558
SimulationLeftNumber,2021-01-22T14:31:55.28Z,IE,52.18.32.186,0,52.18.32.186,558
SimulationLeftNumber,2021-01-22T14:32:25.253Z,IE,52.18.32.186,0,52.18.32.186,558
SimulationLeftNumber,2021-01-22T14:32:55.249Z,IE,52.18.32.186,0,52.18.32.186,556
SimulationLeftNumber,2021-01-22T14:33:25.25Z,IE,52.18.32.186,0,52.18.32.186,555
SimulationLeftNumber,2021-01-22T14:33:55.252Z,IE,52.18.32.186,0,52.18.32.186,555
SimulationLeftNumber,2021-01-22T14:34:25.248Z,IE,52.18.32.186,0,52.18.32.186,553
SimulationLeftNumber,2021-01-22T14:34:55.249Z,IE,52.18.32.186,0,52.18.32.186,552
SimulationLeftNumber,2021-01-22T14:35:25.252Z,IE,52.18.32.186,0,52.18.32.186,552
SimulationLeftNumber,2021-01-22T14:35:55.275Z,IE,52.18.32.186,0,52.18.32.186,551
SimulationLeftNumber,2021-01-22T14:36:25.249Z,IE,52.18.32.186,0,52.18.32.186,549
SimulationLeftNumber,2021-01-22T14:36:55.251Z,IE,52.18.32.186,0,52.18.32.186,549
SimulationLeftNumber,2021-01-22T14:37:25.278Z,IE,52.18.32.186,0,52.18.32.186,548
SimulationLeftNumber,2021-01-22T14:37:55.272Z,IE,52.18.32.186,0,52.18.32.186,546
SimulationLeftNumber,2021-01-22T14:38:25.265Z,IE,52.18.32.186,0,52.18.32.186,546
SimulationLeftNumber,2021-01-22T14:38:55.276Z,IE,52.18.32.186,0,52.18.32.186,545
SimulationLeftNumber,2021-01-22T14:39:25.288Z,IE,52.18.32.186,0,52.18.32.186,544
SimulationLeftNumber,2021-01-22T14:39:55.29Z,IE,52.18.32.186,0,52.18.32.186,531
SimulationLeftNumber,2021-01-22T14:40:25.291Z,IE,52.18.32.186,0,52.18.32.186,530
SimulationLeftNumber,2021-01-22T14:40:55.258Z,IE,52.18.32.186,0,52.18.32.186,528
SimulationLeftNumber,2021-01-22T14:41:25.258Z,IE,52.18.32.186,0,52.18.32.186,527
SimulationLeftNumber,2021-01-22T14:41:55.262Z,IE,52.18.32.186,0,52.18.32.186,527
SimulationLeftNumber,2021-01-22T14:42:25.256Z,IE,52.18.32.186,0,52.18.32.186,526
SimulationLeftNumber,2021-01-22T14:42:55.266Z,IE,52.18.32.186,0,52.18.32.186,524
SimulationLeftNumber,2021-01-22T14:43:25.254Z,IE,52.18.32.186,0,52.18.32.186,524
SimulationLeftNumber,2021-01-22T14:43:55.268Z,IE,52.18.32.186,0,52.18.32.186,523
SimulationLeftNumber,2021-01-22T14:44:25.258Z,IE,52.18.32.186,0,52.18.32.186,522
SimulationLeftNumber,2021-01-22T14:44:55.251Z,IE,52.18.32.186,0,52.18.32.186,521
SimulationLeftNumber,2021-01-22T14:45:25.255Z,IE,52.18.32.186,0,52.18.32.186,520
SimulationLeftNumber,2021-01-22T14:45:55.26Z,IE,52.18.32.186,0,52.18.32.186,519
SimulationLeftNumber,2021-01-22T14:46:25.26Z,IE,52.18.32.186,0,52.18.32.186,518
SimulationLeftNumber,2021-01-22T14:46:55.257Z,IE,52.18.32.186,0,52.18.32.186,517
SimulationLeftNumber,2021-01-22T14:47:25.266Z,IE,52.18.32.186,0,52.18.32.186,517
SimulationLeftNumber,2021-01-22T14:47:55.251Z,IE,52.18.32.186,0,52.18.32.186,515
SimulationLeftNumber,2021-01-22T14:48:25.256Z,IE,52.18.32.186,0,52.18.32.186,514
SimulationLeftNumber,2021-01-22T14:48:55.251Z,IE,52.18.32.186,0,52.18.32.186,514
SimulationLeftNumber,2021-01-22T14:49:25.292Z,IE,52.18.32.186,0,52.18.32.186,499
SimulationLeftNumber,2021-01-22T14:49:55.254Z,IE,52.18.32.186,0,52.18.32.186,498
SimulationLeftNumber,2021-01-22T14:50:25.276Z,IE,52.18.32.186,0,52.18.32.186,497
SimulationLeftNumber,2021-01-22T14:50:55.254Z,IE,52.18.32.186,0,52.18.32.186,496
SimulationLeftNumber,2021-01-22T14:51:25.256Z,IE,52.18.32.186,0,52.18.32.186,495
SimulationLeftNumber,2021-01-22T14:51:55.252Z,IE,52.18.32.186,0,52.18.32.186,494
SimulationLeftNumber,2021-01-22T14:52:25.255Z,IE,52.18.32.186,0,52.18.32.186,494
SimulationLeftNumber,2021-01-22T14:52:55.255Z,IE,52.18.32.186,0,52.18.32.186,492
SimulationLeftNumber,2021-01-22T14:53:25.296Z,IE,52.18.32.186,0,52.18.32.186,492
SimulationLeftNumber,2021-01-22T14:53:55.254Z,IE,52.18.32.186,0,52.18.32.186,491
SimulationLeftNumber,2021-01-22T14:54:25.253Z,IE,52.18.32.186,0,52.18.32.186,489
SimulationLeftNumber,2021-01-22T14:54:55.252Z,IE,52.18.32.186,0,52.18.32.186,489
SimulationLeftNumber,2021-01-22T14:55:25.261Z,IE,52.18.32.186,0,52.18.32.186,488
SimulationLeftNumber,2021-01-22T14:55:55.279Z,IE,52.18.32.186,0,52.18.32.186,487
SimulationLeftNumber,2021-01-22T14:56:25.271Z,IE,52.18.32.186,0,52.18.32.186,486
SimulationLeftNumber,2021-01-22T14:56:55.26Z,IE,52.18.32.186,0,52.18.32.186,486
SimulationLeftNumber,2021-01-22T14:57:25.255Z,IE,52.18.32.186,0,52.18.32.186,484
SimulationLeftNumber,2021-01-22T14:57:55.255Z,IE,52.18.32.186,0,52.18.32.186,483
SimulationLeftNumber,2021-01-22T14:58:25.254Z,IE,52.18.32.186,0,52.18.32.186,483
SimulationLeftNumber,2021-01-22T14:58:55.258Z,IE,52.18.32.186,0,52.18.32.186,467
SimulationLeftNumber,2021-01-22T14:59:25.259Z,IE,52.18.32.186,0,52.18.32.186,465
SimulationLeftNumber,2021-01-22T14:59:55.256Z,IE,52.18.32.186,0,52.18.32.186,465
SimulationLeftNumber,2021-01-22T15:00:25.266Z,IE,52.18.32.186,0,52.18.32.186,464
SimulationLeftNumber,2021-01-22T15:00:55.278Z,IE,52.18.32.186,0,52.18.32.186,464
SimulationLeftNumber,2021-01-22T15:01:25.287Z,IE,52.18.32.186,0,52.18.32.186,462
SimulationLeftNumber,2021-01-22T15:01:55.254Z,IE,52.18.32.186,0,52.18.32.186,461
SimulationLeftNumber,2021-01-22T15:02:25.255Z,IE,52.18.32.186,0,52.18.32.186,461
SimulationLeftNumber,2021-01-22T15:02:55.255Z,IE,52.18.32.186,0,52.18.32.186,459
SimulationLeftNumber,2021-01-22T15:03:25.267Z,IE,52.18.32.186,0,52.18.32.186,458
SimulationLeftNumber,2021-01-22T15:03:55.281Z,IE,52.18.32.186,0,52.18.32.186,458
SimulationLeftNumber,2021-01-22T15:04:25.253Z,IE,52.18.32.186,0,52.18.32.186,456
SimulationLeftNumber,2021-01-22T15:04:55.256Z,IE,52.18.32.186,0,52.18.32.186,455
SimulationLeftNumber,2021-01-22T15:05:25.258Z,IE,52.18.32.186,0,52.18.32.186,455
SimulationLeftNumber,2021-01-22T15:05:55.258Z,IE,52.18.32.186,0,52.18.32.186,438
SimulationLeftNumber,2021-01-22T15:06:25.258Z,IE,52.18.32.186,0,52.18.32.186,437
SimulationLeftNumber,2021-01-22T15:06:55.256Z,IE,52.18.32.186,0,52.18.32.186,436
SimulationLeftNumber,2021-01-22T15:07:25.26Z,IE,52.18.32.186,0,52.18.32.186,435
SimulationLeftNumber,2021-01-22T15:07:55.261Z,IE,52.18.32.186,0,52.18.32.186,434
SimulationLeftNumber,2021-01-22T15:08:25.304Z,IE,52.18.32.186,0,52.18.32.186,433
SimulationLeftNumber,2021-01-22T15:08:55.266Z,IE,52.18.32.186,0,52.18.32.186,433
SimulationLeftNumber,2021-01-22T15:09:25.299Z,IE,52.18.32.186,0,52.18.32.186,431
SimulationLeftNumber,2021-01-22T15:09:55.262Z,IE,52.18.32.186,0,52.18.32.186,430
SimulationLeftNumber,2021-01-22T15:10:25.284Z,IE,52.18.32.186,0,52.18.32.186,430
SimulationLeftNumber,2021-01-22T15:10:55.259Z,IE,52.18.32.186,0,52.18.32.186,428
SimulationLeftNumber,2021-01-22T15:11:25.259Z,IE,52.18.32.186,0,52.18.32.186,427
SimulationLeftNumber,2021-01-22T15:11:55.259Z,IE,52.18.32.186,0,52.18.32.186,427
SimulationLeftNumber,2021-01-22T15:12:25.262Z,IE,52.18.32.186,0,52.18.32.186,424
SimulationLeftNumber,2021-01-22T15:12:55.261Z,IE,52.18.32.186,0,52.18.32.186,424
SimulationLeftNumber,2021-01-22T15:13:25.284Z,IE,52.18.32.186,0,52.18.32.186,424
SimulationLeftNumber,2021-01-22T15:13:55.275Z,IE,52.18.32.186,0,52.18.32.186,406
SimulationLeftNumber,2021-01-22T15:14:25.257Z,IE,52.18.32.186,0,52.18.32.186,405
SimulationLeftNumber,2021-01-22T15:14:55.256Z,IE,52.18.32.186,0,52.18.32.186,404
SimulationLeftNumber,2021-01-22T15:15:25.262Z,IE,52.18.32.186,0,52.18.32.186,403
SimulationLeftNumber,2021-01-22T15:15:55.28Z,IE,52.18.32.186,0,52.18.32.186,402
SimulationLeftNumber,2021-01-22T15:16:25.298Z,IE,52.18.32.186,0,52.18.32.186,401
SimulationLeftNumber,2021-01-22T15:16:55.3Z,IE,52.18.32.186,0,52.18.32.186,400
SimulationLeftNumber,2021-01-22T15:17:25.298Z,IE,52.18.32.186,0,52.18.32.186,399
SimulationLeftNumber,2021-01-22T15:17:55.26Z,IE,52.18.32.186,0,52.18.32.186,398
SimulationLeftNumber,2021-01-22T15:18:25.269Z,IE,52.18.32.186,0,52.18.32.186,398
SimulationLeftNumber,2021-01-22T15:18:55.297Z,IE,52.18.32.186,0,52.18.32.186,396
SimulationLeftNumber,2021-01-22T15:19:25.258Z,IE,52.18.32.186,0,52.18.32.186,395
SimulationLeftNumber,2021-01-22T15:19:55.262Z,IE,52.18.32.186,0,52.18.32.186,395
SimulationLeftNumber,2021-01-22T15:20:25.259Z,IE,52.18.32.186,0,52.18.32.186,394
SimulationLeftNumber,2021-01-22T15:20:55.263Z,IE,52.18.32.186,0,52.18.32.186,375
SimulationLeftNumber,2021-01-22T15:21:25.258Z,IE,52.18.32.186,0,52.18.32.186,375
SimulationLeftNumber,2021-01-22T15:21:55.27Z,IE,52.18.32.186,0,52.18.32.186,373
SimulationLeftNumber,2021-01-22T15:22:25.257Z,IE,52.18.32.186,0,52.18.32.186,372
SimulationLeftNumber,2021-01-22T15:22:55.263Z,IE,52.18.32.186,0,52.18.32.186,372
SimulationLeftNumber,2021-01-22T15:23:25.288Z,IE,52.18.32.186,0,52.18.32.186,370
SimulationLeftNumber,2021-01-22T15:23:55.259Z,IE,52.18.32.186,0,52.18.32.186,369
SimulationLeftNumber,2021-01-22T15:24:25.259Z,IE,52.18.32.186,0,52.18.32.186,369
SimulationLeftNumber,2021-01-22T15:24:55.272Z,IE,52.18.32.186,0,52.18.32.186,368
SimulationLeftNumber,2021-01-22T15:25:25.271Z,IE,52.18.32.186,0,52.18.32.186,366
SimulationLeftNumber,2021-01-22T15:25:55.26Z,IE,52.18.32.186,0,52.18.32.186,366
SimulationLeftNumber,2021-01-22T15:26:25.299Z,IE,52.18.32.186,0,52.18.32.186,365
SimulationLeftNumber,2021-01-22T15:26:55.26Z,IE,52.18.32.186,0,52.18.32.186,363
SimulationLeftNumber,2021-01-22T15:27:25.258Z,IE,52.18.32.186,0,52.18.32.186,363
SimulationLeftNumber,2021-01-22T15:27:55.261Z,IE,52.18.32.186,0,52.18.32.186,344
SimulationLeftNumber,2021-01-22T15:28:25.302Z,IE,52.18.32.186,0,52.18.32.186,342
SimulationLeftNumber,2021-01-22T15:28:55.259Z,IE,52.18.32.186,0,52.18.32.186,341
SimulationLeftNumber,2021-01-22T15:29:25.268Z,IE,52.18.32.186,0,52.18.32.186,341
SimulationLeftNumber,2021-01-22T15:29:55.265Z,IE,52.18.32.186,0,52.18.32.186,339
SimulationLeftNumber,2021-01-22T15:30:25.258Z,IE,52.18.32.186,0,52.18.32.186,338
SimulationLeftNumber,2021-01-22T15:30:55.275Z,IE,52.18.32.186,0,52.18.32.186,338
SimulationLeftNumber,2021-01-22T15:31:25.28Z,IE,52.18.32.186,0,52.18.32.186,338
SimulationLeftNumber,2021-01-22T15:31:55.259Z,IE,52.18.32.186,0,52.18.32.186,335
SimulationLeftNumber,2021-01-22T15:32:25.257Z,IE,52.18.32.186,0,52.18.32.186,335
SimulationLeftNumber,2021-01-22T15:32:55.258Z,IE,52.18.32.186,0,52.18.32.186,335
SimulationLeftNumber,2021-01-22T15:33:25.261Z,IE,52.18.32.186,0,52.18.32.186,313
SimulationLeftNumber,2021-01-22T15:33:55.258Z,IE,52.18.32.186,0,52.18.32.186,313
SimulationLeftNumber,2021-01-22T15:34:25.259Z,IE,52.18.32.186,0,52.18.32.186,312
SimulationLeftNumber,2021-01-22T15:34:55.266Z,IE,52.18.32.186,0,52.18.32.186,310
SimulationLeftNumber,2021-01-22T15:35:25.256Z,IE,52.18.32.186,0,52.18.32.186,310
SimulationLeftNumber,2021-01-22T15:35:55.26Z,IE,52.18.32.186,0,52.18.32.186,309
SimulationLeftNumber,2021-01-22T15:36:25.266Z,IE,52.18.32.186,0,52.18.32.186,307
SimulationLeftNumber,2021-01-22T15:36:55.299Z,IE,52.18.32.186,0,52.18.32.186,307
SimulationLeftNumber,2021-01-22T15:37:25.261Z,IE,52.18.32.186,0,52.18.32.186,306
SimulationLeftNumber,2021-01-22T15:37:55.265Z,IE,52.18.32.186,0,52.18.32.186,304
SimulationLeftNumber,2021-01-22T15:38:25.271Z,IE,52.18.32.186,0,52.18.32.186,304
SimulationLeftNumber,2021-01-22T15:38:55.257Z,IE,52.18.32.186,0,52.18.32.186,303
SimulationLeftNumber,2021-01-22T15:39:25.283Z,IE,52.18.32.186,0,52.18.32.186,282
SimulationLeftNumber,2021-01-22T15:39:55.294Z,IE,52.18.32.186,0,52.18.32.186,280
SimulationLeftNumber,2021-01-22T15:40:25.259Z,IE,52.18.32.186,0,52.18.32.186,279
SimulationLeftNumber,2021-01-22T15:40:55.26Z,IE,52.18.32.186,0,52.18.32.186,279
SimulationLeftNumber,2021-01-22T15:41:25.304Z,IE,52.18.32.186,0,52.18.32.186,277
SimulationLeftNumber,2021-01-22T15:41:55.303Z,IE,52.18.32.186,0,52.18.32.186,277
SimulationLeftNumber,2021-01-22T15:42:25.305Z,IE,52.18.32.186,0,52.18.32.186,276
SimulationLeftNumber,2021-01-22T15:42:55.262Z,IE,52.18.32.186,0,52.18.32.186,274
SimulationLeftNumber,2021-01-22T15:43:25.305Z,IE,52.18.32.186,0,52.18.32.186,274
SimulationLeftNumber,2021-01-22T15:43:55.261Z,IE,52.18.32.186,0,52.18.32.186,273
SimulationLeftNumber,2021-01-22T15:44:25.307Z,IE,52.18.32.186,0,52.18.32.186,251
SimulationLeftNumber,2021-01-22T15:44:55.279Z,IE,52.18.32.186,0,52.18.32.186,249
SimulationLeftNumber,2021-01-22T15:45:25.262Z,IE,52.18.32.186,0,52.18.32.186,248
SimulationLeftNumber,2021-01-22T15:45:55.304Z,IE,52.18.32.186,0,52.18.32.186,248
SimulationLeftNumber,2021-01-22T15:46:25.273Z,IE,52.18.32.186,0,52.18.32.186,246
SimulationLeftNumber,2021-01-22T15:46:55.266Z,IE,52.18.32.186,0,52.18.32.186,245
SimulationLeftNumber,2021-01-22T15:47:25.27Z,IE,52.18.32.186,0,52.18.32.186,245
SimulationLeftNumber,2021-01-22T15:47:55.289Z,IE,52.18.32.186,0,52.18.32.186,243
SimulationLeftNumber,2021-01-22T15:48:25.309Z,IE,52.18.32.186,0,52.18.32.186,220
SimulationLeftNumber,2021-01-22T15:48:55.262Z,IE,52.18.32.186,0,52.18.32.186,220
SimulationLeftNumber,2021-01-22T15:49:25.27Z,IE,52.18.32.186,0,52.18.32.186,217
SimulationLeftNumber,2021-01-22T15:49:55.258Z,IE,52.18.32.186,0,52.18.32.186,217
SimulationLeftNumber,2021-01-22T15:50:25.26Z,IE,52.18.32.186,0,52.18.32.186,217
SimulationLeftNumber,2021-01-22T15:50:55.27Z,IE,52.18.32.186,0,52.18.32.186,215
SimulationLeftNumber,2021-01-22T15:51:25.316Z,IE,52.18.32.186,0,52.18.32.186,214
SimulationLeftNumber,2021-01-22T15:51:55.263Z,IE,52.18.32.186,0,52.18.32.186,214
SimulationLeftNumber,2021-01-22T15:52:25.328Z,IE,52.18.32.186,0,52.18.32.186,195
SimulationLeftNumber,2021-01-22T15:52:55.267Z,IE,52.18.32.186,0,52.18.32.186,188
SimulationLeftNumber,2021-01-22T15:53:25.262Z,IE,52.18.32.186,0,52.18.32.186,187
SimulationLeftNumber,2021-01-22T15:53:55.266Z,IE,52.18.32.186,0,52.18.32.186,186
SimulationLeftNumber,2021-01-22T15:54:25.312Z,IE,52.18.32.186,0,52.18.32.186,185
SimulationLeftNumber,2021-01-22T15:54:55.262Z,IE,52.18.32.186,0,52.18.32.186,184
SimulationLeftNumber,2021-01-22T15:55:25.269Z,IE,52.18.32.186,0,52.18.32.186,183
SimulationLeftNumber,2021-01-22T15:55:55.266Z,IE,52.18.32.186,0,52.18.32.186,159
SimulationLeftNumber,2021-01-22T15:56:25.27Z,IE,52.18.32.186,0,52.18.32.186,158
SimulationLeftNumber,2021-01-22T15:56:55.266Z,IE,52.18.32.186,0,52.18.32.186,155
SimulationLeftNumber,2021-01-22T15:57:25.266Z,IE,52.18.32.186,0,52.18.32.186,155
SimulationLeftNumber,2021-01-22T15:57:55.274Z,IE,52.18.32.186,0,52.18.32.186,155
SimulationLeftNumber,2021-01-22T15:58:25.292Z,IE,52.18.32.186,0,52.18.32.186,138
SimulationLeftNumber,2021-01-22T15:58:55.265Z,IE,52.18.32.186,0,52.18.32.186,127
SimulationLeftNumber,2021-01-22T15:59:25.268Z,IE,52.18.32.186,0,52.18.32.186,126
SimulationLeftNumber,2021-01-22T15:59:55.264Z,IE,52.18.32.186,0,52.18.32.186,124
SimulationLeftNumber,2021-01-22T16:00:25.265Z,IE,52.18.32.186,0,52.18.32.186,124
SimulationLeftNumber,2021-01-22T16:00:55.266Z,IE,52.18.32.186,0,52.18.32.186,124
SimulationLeftNumber,2021-01-22T16:01:25.282Z,IE,52.18.32.186,0,52.18.32.186,95
SimulationLeftNumber,2021-01-22T16:01:55.267Z,IE,52.18.32.186,0,52.18.32.186,95
SimulationLeftNumber,2021-01-22T16:02:25.269Z,IE,52.18.32.186,0,52.18.32.186,94
SimulationLeftNumber,2021-01-22T16:02:55.27Z,IE,52.18.32.186,0,52.18.32.186,66
SimulationLeftNumber,2021-01-22T16:03:25.277Z,IE,52.18.32.186,0,52.18.32.186,65
SimulationLeftNumber,2021-01-22T16:03:55.267Z,IE,52.18.32.186,0,52.18.32.186,63
SimulationLeftNumber,2021-01-22T16:04:25.318Z,IE,52.18.32.186,0,52.18.32.186,34
SimulationLeftNumber,2021-01-22T16:04:55.266Z,IE,52.18.32.186,0,52.18.32.186,34
SimulationLeftNumber,2021-01-22T16:05:25.277Z,IE,52.18.32.186,0,52.18.32.186,3
SimulationLeftNumber,2021-01-22T16:05:55.268Z,IE,52.18.32.186,0,52.18.32.186,1
SimulationLeftNumber,2021-01-22T16:06:25.308Z,IE,52.18.32.186,0,52.18.32.186,0
