name,time,countryCode,ipAddress,level,producer,value
TotalCores,2021-01-22T12:10:55.48Z,IE,52.18.32.186,0,52.18.32.186,3
TotalCores,2021-01-22T12:11:25.32Z,IE,52.18.32.186,0,52.18.32.186,3
TotalCores,2021-01-22T12:11:55.315Z,IE,52.18.32.186,0,52.18.32.186,3
TotalCores,2021-01-22T12:12:25.342Z,IE,52.18.32.186,0,52.18.32.186,3
TotalCores,2021-01-22T12:12:55.286Z,IE,52.18.32.186,0,52.18.32.186,3
TotalCores,2021-01-22T12:13:25.298Z,IE,52.18.32.186,0,52.18.32.186,3
TotalCores,2021-01-22T12:13:55.4Z,IE,52.18.32.186,0,52.18.32.186,3
TotalCores,2021-01-22T12:14:25.313Z,IE,52.18.32.186,0,52.18.32.186,3
TotalCores,2021-01-22T12:14:55.32Z,IE,52.18.32.186,0,52.18.32.186,3
TotalCores,2021-01-22T12:15:25.279Z,IE,52.18.32.186,0,52.18.32.186,3
TotalCores,2021-01-22T12:15:55.279Z,IE,52.18.32.186,0,52.18.32.186,3
TotalCores,2021-01-22T12:16:25.298Z,IE,52.18.32.186,0,52.18.32.186,3
TotalCores,2021-01-22T12:16:55.275Z,IE,52.18.32.186,0,52.18.32.186,3
TotalCores,2021-01-22T12:17:25.308Z,IE,52.18.32.186,0,52.18.32.186,3
TotalCores,2021-01-22T12:17:55.316Z,IE,52.18.32.186,0,52.18.32.186,3
TotalCores,2021-01-22T12:18:25.275Z,IE,52.18.32.186,0,52.18.32.186,3
TotalCores,2021-01-22T12:18:55.363Z,IE,52.18.32.186,0,52.18.32.186,3
TotalCores,2021-01-22T12:19:25.27Z,IE,52.18.32.186,0,52.18.32.186,3
TotalCores,2021-01-22T12:19:55.265Z,IE,52.18.32.186,0,52.18.32.186,3
TotalCores,2021-01-22T12:20:25.285Z,IE,52.18.32.186,0,52.18.32.186,3
TotalCores,2021-01-22T12:20:55.286Z,IE,52.18.32.186,0,52.18.32.186,3
TotalCores,2021-01-22T12:21:25.266Z,IE,52.18.32.186,0,52.18.32.186,3
TotalCores,2021-01-22T12:21:55.267Z,IE,52.18.32.186,0,52.18.32.186,3
TotalCores,2021-01-22T12:22:25.276Z,IE,52.18.32.186,0,52.18.32.186,3
TotalCores,2021-01-22T12:22:55.355Z,IE,52.18.32.186,0,52.18.32.186,3
TotalCores,2021-01-22T12:23:25.294Z,IE,52.18.32.186,0,52.18.32.186,3
TotalCores,2021-01-22T12:23:55.279Z,IE,52.18.32.186,0,52.18.32.186,3
TotalCores,2021-01-22T12:24:25.265Z,IE,52.18.32.186,0,52.18.32.186,3
TotalCores,2021-01-22T12:24:55.259Z,IE,52.18.32.186,0,52.18.32.186,3
TotalCores,2021-01-22T12:25:25.254Z,IE,52.18.32.186,0,52.18.32.186,3
TotalCores,2021-01-22T12:25:55.265Z,IE,52.18.32.186,0,52.18.32.186,3
TotalCores,2021-01-22T12:26:25.262Z,IE,52.18.32.186,0,52.18.32.186,3
TotalCores,2021-01-22T12:26:55.283Z,IE,52.18.32.186,0,52.18.32.186,3
TotalCores,2021-01-22T12:27:25.248Z,IE,52.18.32.186,0,52.18.32.186,3
TotalCores,2021-01-22T12:27:55.328Z,IE,52.18.32.186,0,52.18.32.186,3
TotalCores,2021-01-22T12:28:25.262Z,IE,52.18.32.186,0,52.18.32.186,3
TotalCores,2021-01-22T12:28:55.264Z,IE,52.18.32.186,0,52.18.32.186,3
TotalCores,2021-01-22T12:29:25.26Z,IE,52.18.32.186,0,52.18.32.186,3
TotalCores,2021-01-22T12:29:55.268Z,IE,52.18.32.186,0,52.18.32.186,3
TotalCores,2021-01-22T12:30:25.256Z,IE,52.18.32.186,0,52.18.32.186,3
TotalCores,2021-01-22T12:30:55.259Z,IE,52.18.32.186,0,52.18.32.186,3
TotalCores,2021-01-22T12:31:25.273Z,IE,52.18.32.186,0,52.18.32.186,3
TotalCores,2021-01-22T12:31:55.272Z,IE,52.18.32.186,0,52.18.32.186,3
TotalCores,2021-01-22T12:32:25.245Z,IE,52.18.32.186,0,52.18.32.186,3
TotalCores,2021-01-22T12:32:55.347Z,IE,52.18.32.186,0,52.18.32.186,3
TotalCores,2021-01-22T12:33:25.263Z,IE,52.18.32.186,0,52.18.32.186,3
TotalCores,2021-01-22T12:33:55.281Z,IE,52.18.32.186,0,52.18.32.186,3
TotalCores,2021-01-22T12:34:25.256Z,IE,52.18.32.186,0,52.18.32.186,3
TotalCores,2021-01-22T12:34:55.275Z,IE,52.18.32.186,0,52.18.32.186,3
TotalCores,2021-01-22T12:35:25.246Z,IE,52.18.32.186,0,52.18.32.186,3
TotalCores,2021-01-22T12:35:55.246Z,IE,52.18.32.186,0,52.18.32.186,3
TotalCores,2021-01-22T12:36:25.253Z,IE,52.18.32.186,0,52.18.32.186,3
TotalCores,2021-01-22T12:36:55.259Z,IE,52.18.32.186,0,52.18.32.186,3
TotalCores,2021-01-22T12:37:25.256Z,IE,52.18.32.186,0,52.18.32.186,3
TotalCores,2021-01-22T12:37:55.25Z,IE,52.18.32.186,0,52.18.32.186,3
TotalCores,2021-01-22T12:38:25.251Z,IE,52.18.32.186,0,52.18.32.186,3
TotalCores,2021-01-22T12:38:55.253Z,IE,52.18.32.186,0,52.18.32.186,3
TotalCores,2021-01-22T12:39:25.25Z,IE,52.18.32.186,0,52.18.32.186,3
TotalCores,2021-01-22T12:39:55.278Z,IE,52.18.32.186,0,52.18.32.186,3
TotalCores,2021-01-22T12:40:25.269Z,IE,52.18.32.186,0,52.18.32.186,3
TotalCores,2021-01-22T12:40:55.249Z,IE,52.18.32.186,0,52.18.32.186,3
TotalCores,2021-01-22T12:41:25.246Z,IE,52.18.32.186,0,52.18.32.186,3
TotalCores,2021-01-22T12:41:55.262Z,IE,52.18.32.186,0,52.18.32.186,3
TotalCores,2021-01-22T12:42:25.247Z,IE,52.18.32.186,0,52.18.32.186,3
TotalCores,2021-01-22T12:42:55.247Z,IE,52.18.32.186,0,52.18.32.186,3
TotalCores,2021-01-22T12:43:25.252Z,IE,52.18.32.186,0,52.18.32.186,3
TotalCores,2021-01-22T12:43:55.25Z,IE,52.18.32.186,0,52.18.32.186,3
TotalCores,2021-01-22T12:44:25.29Z,IE,52.18.32.186,0,52.18.32.186,3
TotalCores,2021-01-22T12:44:55.267Z,IE,52.18.32.186,0,52.18.32.186,3
TotalCores,2021-01-22T12:45:25.269Z,IE,52.18.32.186,0,52.18.32.186,3
TotalCores,2021-01-22T12:45:55.251Z,IE,52.18.32.186,0,52.18.32.186,3
TotalCores,2021-01-22T12:46:25.269Z,IE,52.18.32.186,0,52.18.32.186,3
TotalCores,2021-01-22T12:46:55.288Z,IE,52.18.32.186,0,52.18.32.186,3
TotalCores,2021-01-22T12:47:25.248Z,IE,52.18.32.186,0,52.18.32.186,3
TotalCores,2021-01-22T12:47:55.27Z,IE,52.18.32.186,0,52.18.32.186,3
TotalCores,2021-01-22T12:48:25.273Z,IE,52.18.32.186,0,52.18.32.186,3
TotalCores,2021-01-22T12:48:55.253Z,IE,52.18.32.186,0,52.18.32.186,3
TotalCores,2021-01-22T12:49:25.253Z,IE,52.18.32.186,0,52.18.32.186,3
TotalCores,2021-01-22T12:49:55.267Z,IE,52.18.32.186,0,52.18.32.186,3
TotalCores,2021-01-22T12:50:25.282Z,IE,52.18.32.186,0,52.18.32.186,3
TotalCores,2021-01-22T12:50:55.257Z,IE,52.18.32.186,0,52.18.32.186,3
TotalCores,2021-01-22T12:51:25.252Z,IE,52.18.32.186,0,52.18.32.186,3
TotalCores,2021-01-22T12:51:55.251Z,IE,52.18.32.186,0,52.18.32.186,3
TotalCores,2021-01-22T12:52:25.266Z,IE,52.18.32.186,0,52.18.32.186,3
TotalCores,2021-01-22T12:52:55.281Z,IE,52.18.32.186,0,52.18.32.186,3
TotalCores,2021-01-22T12:53:25.256Z,IE,52.18.32.186,0,52.18.32.186,3
TotalCores,2021-01-22T12:53:55.278Z,IE,52.18.32.186,0,52.18.32.186,3
TotalCores,2021-01-22T12:54:25.267Z,IE,52.18.32.186,0,52.18.32.186,3
TotalCores,2021-01-22T12:54:55.25Z,IE,52.18.32.186,0,52.18.32.186,3
TotalCores,2021-01-22T12:55:25.269Z,IE,52.18.32.186,0,52.18.32.186,3
TotalCores,2021-01-22T12:55:55.278Z,IE,52.18.32.186,0,52.18.32.186,3
TotalCores,2021-01-22T12:56:25.285Z,IE,52.18.32.186,0,52.18.32.186,3
TotalCores,2021-01-22T12:56:55.29Z,IE,52.18.32.186,0,52.18.32.186,3
TotalCores,2021-01-22T12:57:25.332Z,IE,52.18.32.186,0,52.18.32.186,3
TotalCores,2021-01-22T12:57:55.289Z,IE,52.18.32.186,0,52.18.32.186,3
TotalCores,2021-01-22T12:58:25.281Z,IE,52.18.32.186,0,52.18.32.186,3
TotalCores,2021-01-22T12:58:55.25Z,IE,52.18.32.186,0,52.18.32.186,3
TotalCores,2021-01-22T12:59:25.247Z,IE,52.18.32.186,0,52.18.32.186,3
TotalCores,2021-01-22T12:59:55.276Z,IE,52.18.32.186,0,52.18.32.186,3
TotalCores,2021-01-22T13:00:25.251Z,IE,52.18.32.186,0,52.18.32.186,3
TotalCores,2021-01-22T13:00:55.255Z,IE,52.18.32.186,0,52.18.32.186,3
TotalCores,2021-01-22T13:01:25.257Z,IE,52.18.32.186,0,52.18.32.186,3
TotalCores,2021-01-22T13:01:55.254Z,IE,52.18.32.186,0,52.18.32.186,3
TotalCores,2021-01-22T13:02:25.359Z,IE,52.18.32.186,0,52.18.32.186,3
TotalCores,2021-01-22T13:02:55.248Z,IE,52.18.32.186,0,52.18.32.186,3
TotalCores,2021-01-22T13:03:25.252Z,IE,52.18.32.186,0,52.18.32.186,3
TotalCores,2021-01-22T13:03:55.252Z,IE,52.18.32.186,0,52.18.32.186,3
TotalCores,2021-01-22T13:04:25.26Z,IE,52.18.32.186,0,52.18.32.186,3
TotalCores,2021-01-22T13:04:55.246Z,IE,52.18.32.186,0,52.18.32.186,3
TotalCores,2021-01-22T13:05:25.245Z,IE,52.18.32.186,0,52.18.32.186,3
TotalCores,2021-01-22T13:05:55.25Z,IE,52.18.32.186,0,52.18.32.186,3
TotalCores,2021-01-22T13:06:25.247Z,IE,52.18.32.186,0,52.18.32.186,3
TotalCores,2021-01-22T13:06:55.248Z,IE,52.18.32.186,0,52.18.32.186,3
TotalCores,2021-01-22T13:07:25.338Z,IE,52.18.32.186,0,52.18.32.186,3
TotalCores,2021-01-22T13:07:55.254Z,IE,52.18.32.186,0,52.18.32.186,3
TotalCores,2021-01-22T13:08:25.248Z,IE,52.18.32.186,0,52.18.32.186,3
TotalCores,2021-01-22T13:08:55.286Z,IE,52.18.32.186,0,52.18.32.186,3
TotalCores,2021-01-22T13:09:25.274Z,IE,52.18.32.186,0,52.18.32.186,3
TotalCores,2021-01-22T13:09:55.281Z,IE,52.18.32.186,0,52.18.32.186,3
TotalCores,2021-01-22T13:10:25.259Z,IE,52.18.32.186,0,52.18.32.186,3
TotalCores,2021-01-22T13:10:55.245Z,IE,52.18.32.186,0,52.18.32.186,3
TotalCores,2021-01-22T13:11:25.259Z,IE,52.18.32.186,0,52.18.32.186,3
TotalCores,2021-01-22T13:11:55.339Z,IE,52.18.32.186,0,52.18.32.186,3
TotalCores,2021-01-22T13:12:25.265Z,IE,52.18.32.186,0,52.18.32.186,3
TotalCores,2021-01-22T13:12:55.292Z,IE,52.18.32.186,0,52.18.32.186,3
TotalCores,2021-01-22T13:13:25.249Z,IE,52.18.32.186,0,52.18.32.186,3
TotalCores,2021-01-22T13:13:55.259Z,IE,52.18.32.186,0,52.18.32.186,3
TotalCores,2021-01-22T13:14:25.255Z,IE,52.18.32.186,0,52.18.32.186,3
TotalCores,2021-01-22T13:14:55.252Z,IE,52.18.32.186,0,52.18.32.186,3
TotalCores,2021-01-22T13:15:25.249Z,IE,52.18.32.186,0,52.18.32.186,3
TotalCores,2021-01-22T13:15:55.26Z,IE,52.18.32.186,0,52.18.32.186,3
TotalCores,2021-01-22T13:16:25.248Z,IE,52.18.32.186,0,52.18.32.186,3
TotalCores,2021-01-22T13:16:55.244Z,IE,52.18.32.186,0,52.18.32.186,3
TotalCores,2021-01-22T13:17:25.332Z,IE,52.18.32.186,0,52.18.32.186,3
TotalCores,2021-01-22T13:17:55.269Z,IE,52.18.32.186,0,52.18.32.186,3
TotalCores,2021-01-22T13:18:25.268Z,IE,52.18.32.186,0,52.18.32.186,3
TotalCores,2021-01-22T13:18:55.274Z,IE,52.18.32.186,0,52.18.32.186,3
TotalCores,2021-01-22T13:19:25.259Z,IE,52.18.32.186,0,52.18.32.186,3
TotalCores,2021-01-22T13:19:55.28Z,IE,52.18.32.186,0,52.18.32.186,3
TotalCores,2021-01-22T13:20:25.248Z,IE,52.18.32.186,0,52.18.32.186,3
TotalCores,2021-01-22T13:20:55.252Z,IE,52.18.32.186,0,52.18.32.186,3
TotalCores,2021-01-22T13:21:25.26Z,IE,52.18.32.186,0,52.18.32.186,3
TotalCores,2021-01-22T13:21:55.246Z,IE,52.18.32.186,0,52.18.32.186,3
TotalCores,2021-01-22T13:22:25.271Z,IE,52.18.32.186,0,52.18.32.186,3
TotalCores,2021-01-22T13:22:55.256Z,IE,52.18.32.186,0,52.18.32.186,3
TotalCores,2021-01-22T13:23:25.251Z,IE,52.18.32.186,0,52.18.32.186,3
TotalCores,2021-01-22T13:23:55.245Z,IE,52.18.32.186,0,52.18.32.186,3
TotalCores,2021-01-22T13:24:25.276Z,IE,52.18.32.186,0,52.18.32.186,3
TotalCores,2021-01-22T13:24:55.254Z,IE,52.18.32.186,0,52.18.32.186,3
TotalCores,2021-01-22T13:25:25.268Z,IE,52.18.32.186,0,52.18.32.186,3
TotalCores,2021-01-22T13:25:55.247Z,IE,52.18.32.186,0,52.18.32.186,3
TotalCores,2021-01-22T13:26:25.245Z,IE,52.18.32.186,0,52.18.32.186,3
TotalCores,2021-01-22T13:26:55.243Z,IE,52.18.32.186,0,52.18.32.186,3
TotalCores,2021-01-22T13:27:25.329Z,IE,52.18.32.186,0,52.18.32.186,3
TotalCores,2021-01-22T13:27:55.27Z,IE,52.18.32.186,0,52.18.32.186,3
TotalCores,2021-01-22T13:28:25.25Z,IE,52.18.32.186,0,52.18.32.186,3
TotalCores,2021-01-22T13:28:55.243Z,IE,52.18.32.186,0,52.18.32.186,3
TotalCores,2021-01-22T13:29:25.288Z,IE,52.18.32.186,0,52.18.32.186,3
TotalCores,2021-01-22T13:29:55.251Z,IE,52.18.32.186,0,52.18.32.186,3
TotalCores,2021-01-22T13:30:25.245Z,IE,52.18.32.186,0,52.18.32.186,3
TotalCores,2021-01-22T13:30:55.244Z,IE,52.18.32.186,0,52.18.32.186,3
TotalCores,2021-01-22T13:31:25.27Z,IE,52.18.32.186,0,52.18.32.186,3
TotalCores,2021-01-22T13:31:55.246Z,IE,52.18.32.186,0,52.18.32.186,3
TotalCores,2021-01-22T13:32:25.242Z,IE,52.18.32.186,0,52.18.32.186,3
TotalCores,2021-01-22T13:32:55.244Z,IE,52.18.32.186,0,52.18.32.186,3
TotalCores,2021-01-22T13:33:25.262Z,IE,52.18.32.186,0,52.18.32.186,3
TotalCores,2021-01-22T13:33:55.263Z,IE,52.18.32.186,0,52.18.32.186,3
TotalCores,2021-01-22T13:34:25.25Z,IE,52.18.32.186,0,52.18.32.186,3
TotalCores,2021-01-22T13:34:55.249Z,IE,52.18.32.186,0,52.18.32.186,3
TotalCores,2021-01-22T13:35:25.269Z,IE,52.18.32.186,0,52.18.32.186,3
TotalCores,2021-01-22T13:35:55.269Z,IE,52.18.32.186,0,52.18.32.186,3
TotalCores,2021-01-22T13:36:25.256Z,IE,52.18.32.186,0,52.18.32.186,3
TotalCores,2021-01-22T13:36:55.25Z,IE,52.18.32.186,0,52.18.32.186,3
TotalCores,2021-01-22T13:37:25.246Z,IE,52.18.32.186,0,52.18.32.186,3
TotalCores,2021-01-22T13:37:55.242Z,IE,52.18.32.186,0,52.18.32.186,3
TotalCores,2021-01-22T13:38:25.251Z,IE,52.18.32.186,0,52.18.32.186,3
TotalCores,2021-01-22T13:38:55.277Z,IE,52.18.32.186,0,52.18.32.186,3
TotalCores,2021-01-22T13:39:25.245Z,IE,52.18.32.186,0,52.18.32.186,3
TotalCores,2021-01-22T13:39:55.251Z,IE,52.18.32.186,0,52.18.32.186,3
TotalCores,2021-01-22T13:40:25.25Z,IE,52.18.32.186,0,52.18.32.186,3
TotalCores,2021-01-22T13:40:55.251Z,IE,52.18.32.186,0,52.18.32.186,3
TotalCores,2021-01-22T13:41:25.262Z,IE,52.18.32.186,0,52.18.32.186,3
TotalCores,2021-01-22T13:41:55.283Z,IE,52.18.32.186,0,52.18.32.186,3
TotalCores,2021-01-22T13:42:25.245Z,IE,52.18.32.186,0,52.18.32.186,3
TotalCores,2021-01-22T13:42:55.262Z,IE,52.18.32.186,0,52.18.32.186,3
TotalCores,2021-01-22T13:43:25.253Z,IE,52.18.32.186,0,52.18.32.186,3
TotalCores,2021-01-22T13:43:55.279Z,IE,52.18.32.186,0,52.18.32.186,3
TotalCores,2021-01-22T13:44:25.246Z,IE,52.18.32.186,0,52.18.32.186,3
TotalCores,2021-01-22T13:44:55.246Z,IE,52.18.32.186,0,52.18.32.186,3
TotalCores,2021-01-22T13:45:25.247Z,IE,52.18.32.186,0,52.18.32.186,3
TotalCores,2021-01-22T13:45:55.249Z,IE,52.18.32.186,0,52.18.32.186,3
TotalCores,2021-01-22T13:46:25.25Z,IE,52.18.32.186,0,52.18.32.186,3
TotalCores,2021-01-22T13:46:55.248Z,IE,52.18.32.186,0,52.18.32.186,3
TotalCores,2021-01-22T13:47:25.243Z,IE,52.18.32.186,0,52.18.32.186,3
TotalCores,2021-01-22T13:47:55.242Z,IE,52.18.32.186,0,52.18.32.186,3
TotalCores,2021-01-22T13:48:25.281Z,IE,52.18.32.186,0,52.18.32.186,3
TotalCores,2021-01-22T13:48:55.283Z,IE,52.18.32.186,0,52.18.32.186,3
TotalCores,2021-01-22T13:49:25.247Z,IE,52.18.32.186,0,52.18.32.186,3
TotalCores,2021-01-22T13:49:55.272Z,IE,52.18.32.186,0,52.18.32.186,3
TotalCores,2021-01-22T13:50:25.247Z,IE,52.18.32.186,0,52.18.32.186,3
TotalCores,2021-01-22T13:50:55.268Z,IE,52.18.32.186,0,52.18.32.186,3
TotalCores,2021-01-22T13:51:25.252Z,IE,52.18.32.186,0,52.18.32.186,3
TotalCores,2021-01-22T13:51:55.273Z,IE,52.18.32.186,0,52.18.32.186,3
TotalCores,2021-01-22T13:52:25.248Z,IE,52.18.32.186,0,52.18.32.186,3
TotalCores,2021-01-22T13:52:55.249Z,IE,52.18.32.186,0,52.18.32.186,3
TotalCores,2021-01-22T13:53:25.245Z,IE,52.18.32.186,0,52.18.32.186,3
TotalCores,2021-01-22T13:53:55.251Z,IE,52.18.32.186,0,52.18.32.186,3
TotalCores,2021-01-22T13:54:25.249Z,IE,52.18.32.186,0,52.18.32.186,3
TotalCores,2021-01-22T13:54:55.269Z,IE,52.18.32.186,0,52.18.32.186,3
TotalCores,2021-01-22T13:55:25.264Z,IE,52.18.32.186,0,52.18.32.186,3
TotalCores,2021-01-22T13:55:55.26Z,IE,52.18.32.186,0,52.18.32.186,3
TotalCores,2021-01-22T13:56:25.259Z,IE,52.18.32.186,0,52.18.32.186,3
TotalCores,2021-01-22T13:56:55.249Z,IE,52.18.32.186,0,52.18.32.186,3
TotalCores,2021-01-22T13:57:25.274Z,IE,52.18.32.186,0,52.18.32.186,3
TotalCores,2021-01-22T13:57:55.247Z,IE,52.18.32.186,0,52.18.32.186,3
TotalCores,2021-01-22T13:58:25.271Z,IE,52.18.32.186,0,52.18.32.186,3
TotalCores,2021-01-22T13:58:55.254Z,IE,52.18.32.186,0,52.18.32.186,3
TotalCores,2021-01-22T13:59:25.272Z,IE,52.18.32.186,0,52.18.32.186,3
TotalCores,2021-01-22T13:59:55.25Z,IE,52.18.32.186,0,52.18.32.186,3
TotalCores,2021-01-22T14:00:25.252Z,IE,52.18.32.186,0,52.18.32.186,3
TotalCores,2021-01-22T14:00:55.251Z,IE,52.18.32.186,0,52.18.32.186,3
TotalCores,2021-01-22T14:01:25.245Z,IE,52.18.32.186,0,52.18.32.186,3
TotalCores,2021-01-22T14:01:55.255Z,IE,52.18.32.186,0,52.18.32.186,3
TotalCores,2021-01-22T14:02:25.25Z,IE,52.18.32.186,0,52.18.32.186,3
TotalCores,2021-01-22T14:02:55.26Z,IE,52.18.32.186,0,52.18.32.186,3
TotalCores,2021-01-22T14:03:25.265Z,IE,52.18.32.186,0,52.18.32.186,3
TotalCores,2021-01-22T14:03:55.267Z,IE,52.18.32.186,0,52.18.32.186,3
TotalCores,2021-01-22T14:04:25.248Z,IE,52.18.32.186,0,52.18.32.186,3
TotalCores,2021-01-22T14:04:55.252Z,IE,52.18.32.186,0,52.18.32.186,3
TotalCores,2021-01-22T14:05:25.254Z,IE,52.18.32.186,0,52.18.32.186,3
TotalCores,2021-01-22T14:05:55.284Z,IE,52.18.32.186,0,52.18.32.186,3
TotalCores,2021-01-22T14:06:25.251Z,IE,52.18.32.186,0,52.18.32.186,3
TotalCores,2021-01-22T14:06:55.253Z,IE,52.18.32.186,0,52.18.32.186,3
TotalCores,2021-01-22T14:07:25.261Z,IE,52.18.32.186,0,52.18.32.186,3
TotalCores,2021-01-22T14:07:55.256Z,IE,52.18.32.186,0,52.18.32.186,3
TotalCores,2021-01-22T14:08:25.274Z,IE,52.18.32.186,0,52.18.32.186,3
TotalCores,2021-01-22T14:08:55.251Z,IE,52.18.32.186,0,52.18.32.186,3
TotalCores,2021-01-22T14:09:25.252Z,IE,52.18.32.186,0,52.18.32.186,3
TotalCores,2021-01-22T14:09:55.252Z,IE,52.18.32.186,0,52.18.32.186,3
TotalCores,2021-01-22T14:10:25.261Z,IE,52.18.32.186,0,52.18.32.186,3
TotalCores,2021-01-22T14:10:55.249Z,IE,52.18.32.186,0,52.18.32.186,3
TotalCores,2021-01-22T14:11:25.254Z,IE,52.18.32.186,0,52.18.32.186,3
TotalCores,2021-01-22T14:11:55.249Z,IE,52.18.32.186,0,52.18.32.186,3
TotalCores,2021-01-22T14:12:25.253Z,IE,52.18.32.186,0,52.18.32.186,3
TotalCores,2021-01-22T14:12:55.294Z,IE,52.18.32.186,0,52.18.32.186,3
TotalCores,2021-01-22T14:13:25.272Z,IE,52.18.32.186,0,52.18.32.186,3
TotalCores,2021-01-22T14:13:55.284Z,IE,52.18.32.186,0,52.18.32.186,3
TotalCores,2021-01-22T14:14:25.246Z,IE,52.18.32.186,0,52.18.32.186,3
TotalCores,2021-01-22T14:14:55.248Z,IE,52.18.32.186,0,52.18.32.186,3
TotalCores,2021-01-22T14:15:25.249Z,IE,52.18.32.186,0,52.18.32.186,3
TotalCores,2021-01-22T14:15:55.25Z,IE,52.18.32.186,0,52.18.32.186,3
TotalCores,2021-01-22T14:16:25.286Z,IE,52.18.32.186,0,52.18.32.186,3
TotalCores,2021-01-22T14:16:55.26Z,IE,52.18.32.186,0,52.18.32.186,3
TotalCores,2021-01-22T14:17:25.284Z,IE,52.18.32.186,0,52.18.32.186,3
TotalCores,2021-01-22T14:17:55.271Z,IE,52.18.32.186,0,52.18.32.186,3
TotalCores,2021-01-22T14:18:25.251Z,IE,52.18.32.186,0,52.18.32.186,3
TotalCores,2021-01-22T14:18:55.247Z,IE,52.18.32.186,0,52.18.32.186,3
TotalCores,2021-01-22T14:19:25.276Z,IE,52.18.32.186,0,52.18.32.186,3
TotalCores,2021-01-22T14:19:55.251Z,IE,52.18.32.186,0,52.18.32.186,3
TotalCores,2021-01-22T14:20:25.254Z,IE,52.18.32.186,0,52.18.32.186,3
TotalCores,2021-01-22T14:20:55.251Z,IE,52.18.32.186,0,52.18.32.186,3
TotalCores,2021-01-22T14:21:25.273Z,IE,52.18.32.186,0,52.18.32.186,3
TotalCores,2021-01-22T14:21:55.288Z,IE,52.18.32.186,0,52.18.32.186,3
TotalCores,2021-01-22T14:22:25.267Z,IE,52.18.32.186,0,52.18.32.186,3
TotalCores,2021-01-22T14:22:55.274Z,IE,52.18.32.186,0,52.18.32.186,3
TotalCores,2021-01-22T14:23:25.249Z,IE,52.18.32.186,0,52.18.32.186,3
TotalCores,2021-01-22T14:23:55.256Z,IE,52.18.32.186,0,52.18.32.186,3
TotalCores,2021-01-22T14:24:25.276Z,IE,52.18.32.186,0,52.18.32.186,3
TotalCores,2021-01-22T14:24:55.284Z,IE,52.18.32.186,0,52.18.32.186,3
TotalCores,2021-01-22T14:25:25.28Z,IE,52.18.32.186,0,52.18.32.186,3
TotalCores,2021-01-22T14:25:55.264Z,IE,52.18.32.186,0,52.18.32.186,3
TotalCores,2021-01-22T14:26:25.273Z,IE,52.18.32.186,0,52.18.32.186,3
TotalCores,2021-01-22T14:26:55.287Z,IE,52.18.32.186,0,52.18.32.186,3
TotalCores,2021-01-22T14:27:25.254Z,IE,52.18.32.186,0,52.18.32.186,3
TotalCores,2021-01-22T14:27:55.27Z,IE,52.18.32.186,0,52.18.32.186,3
TotalCores,2021-01-22T14:28:25.255Z,IE,52.18.32.186,0,52.18.32.186,3
TotalCores,2021-01-22T14:28:55.252Z,IE,52.18.32.186,0,52.18.32.186,3
TotalCores,2021-01-22T14:29:25.249Z,IE,52.18.32.186,0,52.18.32.186,3
TotalCores,2021-01-22T14:29:55.268Z,IE,52.18.32.186,0,52.18.32.186,3
TotalCores,2021-01-22T14:30:25.265Z,IE,52.18.32.186,0,52.18.32.186,3
TotalCores,2021-01-22T14:30:55.252Z,IE,52.18.32.186,0,52.18.32.186,3
TotalCores,2021-01-22T14:31:25.255Z,IE,52.18.32.186,0,52.18.32.186,3
TotalCores,2021-01-22T14:31:55.28Z,IE,52.18.32.186,0,52.18.32.186,3
TotalCores,2021-01-22T14:32:25.253Z,IE,52.18.32.186,0,52.18.32.186,3
TotalCores,2021-01-22T14:32:55.249Z,IE,52.18.32.186,0,52.18.32.186,3
TotalCores,2021-01-22T14:33:25.25Z,IE,52.18.32.186,0,52.18.32.186,3
TotalCores,2021-01-22T14:33:55.252Z,IE,52.18.32.186,0,52.18.32.186,3
TotalCores,2021-01-22T14:34:25.248Z,IE,52.18.32.186,0,52.18.32.186,3
TotalCores,2021-01-22T14:34:55.249Z,IE,52.18.32.186,0,52.18.32.186,3
TotalCores,2021-01-22T14:35:25.252Z,IE,52.18.32.186,0,52.18.32.186,3
TotalCores,2021-01-22T14:35:55.275Z,IE,52.18.32.186,0,52.18.32.186,3
TotalCores,2021-01-22T14:36:25.249Z,IE,52.18.32.186,0,52.18.32.186,3
TotalCores,2021-01-22T14:36:55.251Z,IE,52.18.32.186,0,52.18.32.186,3
TotalCores,2021-01-22T14:37:25.278Z,IE,52.18.32.186,0,52.18.32.186,3
TotalCores,2021-01-22T14:37:55.272Z,IE,52.18.32.186,0,52.18.32.186,3
TotalCores,2021-01-22T14:38:25.265Z,IE,52.18.32.186,0,52.18.32.186,3
TotalCores,2021-01-22T14:38:55.276Z,IE,52.18.32.186,0,52.18.32.186,3
TotalCores,2021-01-22T14:39:25.288Z,IE,52.18.32.186,0,52.18.32.186,3
TotalCores,2021-01-22T14:39:55.29Z,IE,52.18.32.186,0,52.18.32.186,3
TotalCores,2021-01-22T14:40:25.291Z,IE,52.18.32.186,0,52.18.32.186,3
TotalCores,2021-01-22T14:40:55.258Z,IE,52.18.32.186,0,52.18.32.186,3
TotalCores,2021-01-22T14:41:25.258Z,IE,52.18.32.186,0,52.18.32.186,3
TotalCores,2021-01-22T14:41:55.262Z,IE,52.18.32.186,0,52.18.32.186,3
TotalCores,2021-01-22T14:42:25.256Z,IE,52.18.32.186,0,52.18.32.186,3
TotalCores,2021-01-22T14:42:55.266Z,IE,52.18.32.186,0,52.18.32.186,3
TotalCores,2021-01-22T14:43:25.254Z,IE,52.18.32.186,0,52.18.32.186,3
TotalCores,2021-01-22T14:43:55.268Z,IE,52.18.32.186,0,52.18.32.186,3
TotalCores,2021-01-22T14:44:25.258Z,IE,52.18.32.186,0,52.18.32.186,3
TotalCores,2021-01-22T14:44:55.251Z,IE,52.18.32.186,0,52.18.32.186,3
TotalCores,2021-01-22T14:45:25.255Z,IE,52.18.32.186,0,52.18.32.186,3
TotalCores,2021-01-22T14:45:55.26Z,IE,52.18.32.186,0,52.18.32.186,3
TotalCores,2021-01-22T14:46:25.26Z,IE,52.18.32.186,0,52.18.32.186,3
TotalCores,2021-01-22T14:46:55.257Z,IE,52.18.32.186,0,52.18.32.186,3
TotalCores,2021-01-22T14:47:25.266Z,IE,52.18.32.186,0,52.18.32.186,3
TotalCores,2021-01-22T14:47:55.251Z,IE,52.18.32.186,0,52.18.32.186,3
TotalCores,2021-01-22T14:48:25.256Z,IE,52.18.32.186,0,52.18.32.186,3
TotalCores,2021-01-22T14:48:55.251Z,IE,52.18.32.186,0,52.18.32.186,3
TotalCores,2021-01-22T14:49:25.292Z,IE,52.18.32.186,0,52.18.32.186,3
TotalCores,2021-01-22T14:49:55.254Z,IE,52.18.32.186,0,52.18.32.186,3
TotalCores,2021-01-22T14:50:25.276Z,IE,52.18.32.186,0,52.18.32.186,3
TotalCores,2021-01-22T14:50:55.254Z,IE,52.18.32.186,0,52.18.32.186,3
TotalCores,2021-01-22T14:51:25.256Z,IE,52.18.32.186,0,52.18.32.186,3
TotalCores,2021-01-22T14:51:55.252Z,IE,52.18.32.186,0,52.18.32.186,3
TotalCores,2021-01-22T14:52:25.255Z,IE,52.18.32.186,0,52.18.32.186,3
TotalCores,2021-01-22T14:52:55.255Z,IE,52.18.32.186,0,52.18.32.186,3
TotalCores,2021-01-22T14:53:25.296Z,IE,52.18.32.186,0,52.18.32.186,3
TotalCores,2021-01-22T14:53:55.254Z,IE,52.18.32.186,0,52.18.32.186,3
TotalCores,2021-01-22T14:54:25.253Z,IE,52.18.32.186,0,52.18.32.186,3
TotalCores,2021-01-22T14:54:55.252Z,IE,52.18.32.186,0,52.18.32.186,3
TotalCores,2021-01-22T14:55:25.261Z,IE,52.18.32.186,0,52.18.32.186,3
TotalCores,2021-01-22T14:55:55.279Z,IE,52.18.32.186,0,52.18.32.186,3
TotalCores,2021-01-22T14:56:25.271Z,IE,52.18.32.186,0,52.18.32.186,3
TotalCores,2021-01-22T14:56:55.26Z,IE,52.18.32.186,0,52.18.32.186,3
TotalCores,2021-01-22T14:57:25.255Z,IE,52.18.32.186,0,52.18.32.186,3
TotalCores,2021-01-22T14:57:55.255Z,IE,52.18.32.186,0,52.18.32.186,3
TotalCores,2021-01-22T14:58:25.254Z,IE,52.18.32.186,0,52.18.32.186,3
TotalCores,2021-01-22T14:58:55.258Z,IE,52.18.32.186,0,52.18.32.186,3
TotalCores,2021-01-22T14:59:25.259Z,IE,52.18.32.186,0,52.18.32.186,3
TotalCores,2021-01-22T14:59:55.256Z,IE,52.18.32.186,0,52.18.32.186,3
TotalCores,2021-01-22T15:00:25.266Z,IE,52.18.32.186,0,52.18.32.186,3
TotalCores,2021-01-22T15:00:55.278Z,IE,52.18.32.186,0,52.18.32.186,3
TotalCores,2021-01-22T15:01:25.287Z,IE,52.18.32.186,0,52.18.32.186,3
TotalCores,2021-01-22T15:01:55.254Z,IE,52.18.32.186,0,52.18.32.186,3
TotalCores,2021-01-22T15:02:25.255Z,IE,52.18.32.186,0,52.18.32.186,3
TotalCores,2021-01-22T15:02:55.255Z,IE,52.18.32.186,0,52.18.32.186,3
TotalCores,2021-01-22T15:03:25.267Z,IE,52.18.32.186,0,52.18.32.186,3
TotalCores,2021-01-22T15:03:55.281Z,IE,52.18.32.186,0,52.18.32.186,3
TotalCores,2021-01-22T15:04:25.253Z,IE,52.18.32.186,0,52.18.32.186,3
TotalCores,2021-01-22T15:04:55.256Z,IE,52.18.32.186,0,52.18.32.186,3
TotalCores,2021-01-22T15:05:25.258Z,IE,52.18.32.186,0,52.18.32.186,3
TotalCores,2021-01-22T15:05:55.258Z,IE,52.18.32.186,0,52.18.32.186,3
TotalCores,2021-01-22T15:06:25.258Z,IE,52.18.32.186,0,52.18.32.186,3
TotalCores,2021-01-22T15:06:55.256Z,IE,52.18.32.186,0,52.18.32.186,3
TotalCores,2021-01-22T15:07:25.26Z,IE,52.18.32.186,0,52.18.32.186,3
TotalCores,2021-01-22T15:07:55.261Z,IE,52.18.32.186,0,52.18.32.186,3
TotalCores,2021-01-22T15:08:25.304Z,IE,52.18.32.186,0,52.18.32.186,3
TotalCores,2021-01-22T15:08:55.266Z,IE,52.18.32.186,0,52.18.32.186,3
TotalCores,2021-01-22T15:09:25.299Z,IE,52.18.32.186,0,52.18.32.186,3
TotalCores,2021-01-22T15:09:55.262Z,IE,52.18.32.186,0,52.18.32.186,3
TotalCores,2021-01-22T15:10:25.284Z,IE,52.18.32.186,0,52.18.32.186,3
TotalCores,2021-01-22T15:10:55.259Z,IE,52.18.32.186,0,52.18.32.186,3
TotalCores,2021-01-22T15:11:25.259Z,IE,52.18.32.186,0,52.18.32.186,3
TotalCores,2021-01-22T15:11:55.259Z,IE,52.18.32.186,0,52.18.32.186,3
TotalCores,2021-01-22T15:12:25.262Z,IE,52.18.32.186,0,52.18.32.186,3
TotalCores,2021-01-22T15:12:55.261Z,IE,52.18.32.186,0,52.18.32.186,3
TotalCores,2021-01-22T15:13:25.284Z,IE,52.18.32.186,0,52.18.32.186,3
TotalCores,2021-01-22T15:13:55.275Z,IE,52.18.32.186,0,52.18.32.186,3
TotalCores,2021-01-22T15:14:25.257Z,IE,52.18.32.186,0,52.18.32.186,3
TotalCores,2021-01-22T15:14:55.256Z,IE,52.18.32.186,0,52.18.32.186,3
TotalCores,2021-01-22T15:15:25.262Z,IE,52.18.32.186,0,52.18.32.186,3
TotalCores,2021-01-22T15:15:55.28Z,IE,52.18.32.186,0,52.18.32.186,3
TotalCores,2021-01-22T15:16:25.298Z,IE,52.18.32.186,0,52.18.32.186,3
TotalCores,2021-01-22T15:16:55.3Z,IE,52.18.32.186,0,52.18.32.186,3
TotalCores,2021-01-22T15:17:25.298Z,IE,52.18.32.186,0,52.18.32.186,3
TotalCores,2021-01-22T15:17:55.26Z,IE,52.18.32.186,0,52.18.32.186,3
TotalCores,2021-01-22T15:18:25.269Z,IE,52.18.32.186,0,52.18.32.186,3
TotalCores,2021-01-22T15:18:55.297Z,IE,52.18.32.186,0,52.18.32.186,3
TotalCores,2021-01-22T15:19:25.258Z,IE,52.18.32.186,0,52.18.32.186,3
TotalCores,2021-01-22T15:19:55.262Z,IE,52.18.32.186,0,52.18.32.186,3
TotalCores,2021-01-22T15:20:25.259Z,IE,52.18.32.186,0,52.18.32.186,3
TotalCores,2021-01-22T15:20:55.263Z,IE,52.18.32.186,0,52.18.32.186,3
TotalCores,2021-01-22T15:21:25.258Z,IE,52.18.32.186,0,52.18.32.186,3
TotalCores,2021-01-22T15:21:55.27Z,IE,52.18.32.186,0,52.18.32.186,3
TotalCores,2021-01-22T15:22:25.257Z,IE,52.18.32.186,0,52.18.32.186,3
TotalCores,2021-01-22T15:22:55.263Z,IE,52.18.32.186,0,52.18.32.186,3
TotalCores,2021-01-22T15:23:25.288Z,IE,52.18.32.186,0,52.18.32.186,3
TotalCores,2021-01-22T15:23:55.259Z,IE,52.18.32.186,0,52.18.32.186,3
TotalCores,2021-01-22T15:24:25.259Z,IE,52.18.32.186,0,52.18.32.186,3
TotalCores,2021-01-22T15:24:55.272Z,IE,52.18.32.186,0,52.18.32.186,3
TotalCores,2021-01-22T15:25:25.271Z,IE,52.18.32.186,0,52.18.32.186,3
TotalCores,2021-01-22T15:25:55.26Z,IE,52.18.32.186,0,52.18.32.186,3
TotalCores,2021-01-22T15:26:25.299Z,IE,52.18.32.186,0,52.18.32.186,3
TotalCores,2021-01-22T15:26:55.26Z,IE,52.18.32.186,0,52.18.32.186,3
TotalCores,2021-01-22T15:27:25.258Z,IE,52.18.32.186,0,52.18.32.186,3
TotalCores,2021-01-22T15:27:55.261Z,IE,52.18.32.186,0,52.18.32.186,3
TotalCores,2021-01-22T15:28:25.302Z,IE,52.18.32.186,0,52.18.32.186,3
TotalCores,2021-01-22T15:28:55.259Z,IE,52.18.32.186,0,52.18.32.186,3
TotalCores,2021-01-22T15:29:25.268Z,IE,52.18.32.186,0,52.18.32.186,3
TotalCores,2021-01-22T15:29:55.265Z,IE,52.18.32.186,0,52.18.32.186,3
TotalCores,2021-01-22T15:30:25.258Z,IE,52.18.32.186,0,52.18.32.186,3
TotalCores,2021-01-22T15:30:55.275Z,IE,52.18.32.186,0,52.18.32.186,3
TotalCores,2021-01-22T15:31:25.28Z,IE,52.18.32.186,0,52.18.32.186,3
TotalCores,2021-01-22T15:31:55.259Z,IE,52.18.32.186,0,52.18.32.186,3
TotalCores,2021-01-22T15:32:25.257Z,IE,52.18.32.186,0,52.18.32.186,3
TotalCores,2021-01-22T15:32:55.258Z,IE,52.18.32.186,0,52.18.32.186,3
TotalCores,2021-01-22T15:33:25.261Z,IE,52.18.32.186,0,52.18.32.186,3
TotalCores,2021-01-22T15:33:55.258Z,IE,52.18.32.186,0,52.18.32.186,3
TotalCores,2021-01-22T15:34:25.259Z,IE,52.18.32.186,0,52.18.32.186,3
TotalCores,2021-01-22T15:34:55.266Z,IE,52.18.32.186,0,52.18.32.186,3
TotalCores,2021-01-22T15:35:25.256Z,IE,52.18.32.186,0,52.18.32.186,3
TotalCores,2021-01-22T15:35:55.26Z,IE,52.18.32.186,0,52.18.32.186,3
TotalCores,2021-01-22T15:36:25.266Z,IE,52.18.32.186,0,52.18.32.186,3
TotalCores,2021-01-22T15:36:55.299Z,IE,52.18.32.186,0,52.18.32.186,3
TotalCores,2021-01-22T15:37:25.261Z,IE,52.18.32.186,0,52.18.32.186,3
TotalCores,2021-01-22T15:37:55.265Z,IE,52.18.32.186,0,52.18.32.186,3
TotalCores,2021-01-22T15:38:25.271Z,IE,52.18.32.186,0,52.18.32.186,3
TotalCores,2021-01-22T15:38:55.257Z,IE,52.18.32.186,0,52.18.32.186,3
TotalCores,2021-01-22T15:39:25.283Z,IE,52.18.32.186,0,52.18.32.186,3
TotalCores,2021-01-22T15:39:55.294Z,IE,52.18.32.186,0,52.18.32.186,3
TotalCores,2021-01-22T15:40:25.259Z,IE,52.18.32.186,0,52.18.32.186,3
TotalCores,2021-01-22T15:40:55.26Z,IE,52.18.32.186,0,52.18.32.186,3
TotalCores,2021-01-22T15:41:25.304Z,IE,52.18.32.186,0,52.18.32.186,3
TotalCores,2021-01-22T15:41:55.303Z,IE,52.18.32.186,0,52.18.32.186,3
TotalCores,2021-01-22T15:42:25.305Z,IE,52.18.32.186,0,52.18.32.186,3
TotalCores,2021-01-22T15:42:55.262Z,IE,52.18.32.186,0,52.18.32.186,3
TotalCores,2021-01-22T15:43:25.305Z,IE,52.18.32.186,0,52.18.32.186,3
TotalCores,2021-01-22T15:43:55.261Z,IE,52.18.32.186,0,52.18.32.186,3
TotalCores,2021-01-22T15:44:25.307Z,IE,52.18.32.186,0,52.18.32.186,3
TotalCores,2021-01-22T15:44:55.279Z,IE,52.18.32.186,0,52.18.32.186,3
TotalCores,2021-01-22T15:45:25.262Z,IE,52.18.32.186,0,52.18.32.186,3
TotalCores,2021-01-22T15:45:55.304Z,IE,52.18.32.186,0,52.18.32.186,3
TotalCores,2021-01-22T15:46:25.273Z,IE,52.18.32.186,0,52.18.32.186,3
TotalCores,2021-01-22T15:46:55.266Z,IE,52.18.32.186,0,52.18.32.186,3
TotalCores,2021-01-22T15:47:25.27Z,IE,52.18.32.186,0,52.18.32.186,3
TotalCores,2021-01-22T15:47:55.289Z,IE,52.18.32.186,0,52.18.32.186,3
TotalCores,2021-01-22T15:48:25.309Z,IE,52.18.32.186,0,52.18.32.186,3
TotalCores,2021-01-22T15:48:55.262Z,IE,52.18.32.186,0,52.18.32.186,3
TotalCores,2021-01-22T15:49:25.27Z,IE,52.18.32.186,0,52.18.32.186,3
TotalCores,2021-01-22T15:49:55.258Z,IE,52.18.32.186,0,52.18.32.186,3
TotalCores,2021-01-22T15:50:25.26Z,IE,52.18.32.186,0,52.18.32.186,3
TotalCores,2021-01-22T15:50:55.27Z,IE,52.18.32.186,0,52.18.32.186,3
TotalCores,2021-01-22T15:51:25.316Z,IE,52.18.32.186,0,52.18.32.186,3
TotalCores,2021-01-22T15:51:55.263Z,IE,52.18.32.186,0,52.18.32.186,3
TotalCores,2021-01-22T15:52:25.328Z,IE,52.18.32.186,0,52.18.32.186,3
TotalCores,2021-01-22T15:52:55.267Z,IE,52.18.32.186,0,52.18.32.186,3
TotalCores,2021-01-22T15:53:25.262Z,IE,52.18.32.186,0,52.18.32.186,3
TotalCores,2021-01-22T15:53:55.266Z,IE,52.18.32.186,0,52.18.32.186,3
TotalCores,2021-01-22T15:54:25.312Z,IE,52.18.32.186,0,52.18.32.186,3
TotalCores,2021-01-22T15:54:55.262Z,IE,52.18.32.186,0,52.18.32.186,3
TotalCores,2021-01-22T15:55:25.269Z,IE,52.18.32.186,0,52.18.32.186,3
TotalCores,2021-01-22T15:55:55.266Z,IE,52.18.32.186,0,52.18.32.186,3
TotalCores,2021-01-22T15:56:25.27Z,IE,52.18.32.186,0,52.18.32.186,3
TotalCores,2021-01-22T15:56:55.266Z,IE,52.18.32.186,0,52.18.32.186,3
TotalCores,2021-01-22T15:57:25.266Z,IE,52.18.32.186,0,52.18.32.186,3
TotalCores,2021-01-22T15:57:55.274Z,IE,52.18.32.186,0,52.18.32.186,3
TotalCores,2021-01-22T15:58:25.292Z,IE,52.18.32.186,0,52.18.32.186,3
TotalCores,2021-01-22T15:58:55.265Z,IE,52.18.32.186,0,52.18.32.186,3
TotalCores,2021-01-22T15:59:25.268Z,IE,52.18.32.186,0,52.18.32.186,3
TotalCores,2021-01-22T15:59:55.264Z,IE,52.18.32.186,0,52.18.32.186,3
TotalCores,2021-01-22T16:00:25.265Z,IE,52.18.32.186,0,52.18.32.186,3
TotalCores,2021-01-22T16:00:55.266Z,IE,52.18.32.186,0,52.18.32.186,3
TotalCores,2021-01-22T16:01:25.282Z,IE,52.18.32.186,0,52.18.32.186,3
TotalCores,2021-01-22T16:01:55.267Z,IE,52.18.32.186,0,52.18.32.186,3
TotalCores,2021-01-22T16:02:25.269Z,IE,52.18.32.186,0,52.18.32.186,3
TotalCores,2021-01-22T16:02:55.27Z,IE,52.18.32.186,0,52.18.32.186,3
TotalCores,2021-01-22T16:03:25.277Z,IE,52.18.32.186,0,52.18.32.186,3
TotalCores,2021-01-22T16:03:55.267Z,IE,52.18.32.186,0,52.18.32.186,3
TotalCores,2021-01-22T16:04:25.318Z,IE,52.18.32.186,0,52.18.32.186,3
TotalCores,2021-01-22T16:04:55.266Z,IE,52.18.32.186,0,52.18.32.186,3
TotalCores,2021-01-22T16:05:25.277Z,IE,52.18.32.186,0,52.18.32.186,3
TotalCores,2021-01-22T16:05:55.268Z,IE,52.18.32.186,0,52.18.32.186,3
TotalCores,2021-01-22T16:06:25.308Z,IE,52.18.32.186,0,52.18.32.186,3
