,Unnamed: 0,time,prediction,step
8,8,2021-02-15 08:58:42.460,1926.0247,8
18,18,2021-02-15 08:59:12.460,1955.7191,8
28,28,2021-02-15 08:59:42.460,1992.7904,8
38,38,2021-02-15 09:00:12.460,1991.6671,8
48,48,2021-02-15 09:00:42.460,1971.894,8
58,58,2021-02-15 09:01:12.460,1933.7979999999998,8
68,68,2021-02-15 09:01:42.460,1921.6511,8
78,78,2021-02-15 09:02:12.460,1927.7108,8
88,88,2021-02-15 09:02:42.460,1937.2509,8
98,98,2021-02-15 09:03:12.460,1949.5945,8
108,108,2021-02-15 09:03:42.460,1965.2574,8
118,118,2021-02-15 09:04:12.460,1985.5768,8
128,128,2021-02-15 09:04:42.460,2004.4243,8
138,138,2021-02-15 09:05:12.460,2036.7849,8
148,148,2021-02-15 09:05:42.460,2073.015,8
158,158,2021-02-15 09:06:12.460,2109.1284,8
168,168,2021-02-15 09:06:42.460,2142.969,8
178,178,2021-02-15 09:07:12.460,2180.5085,8
188,188,2021-02-15 09:07:42.460,2218.4119,8
198,198,2021-02-15 09:08:12.460,2254.6177,8
208,208,2021-02-15 09:08:42.460,2289.605,8
218,218,2021-02-15 09:09:12.460,2326.5806,8
228,228,2021-02-15 09:09:42.460,2363.183,8
238,238,2021-02-15 09:10:12.460,2384.044,8
248,248,2021-02-15 09:10:42.460,2405.2634,8
258,258,2021-02-15 09:11:12.460,2416.5107,8
268,268,2021-02-15 09:11:42.460,2427.7844,8
278,278,2021-02-15 09:12:12.460,2438.8904,8
288,288,2021-02-15 09:12:42.460,2455.4927,8
298,298,2021-02-15 09:13:12.460,2471.732,8
308,308,2021-02-15 09:13:42.460,2486.824,8
318,318,2021-02-15 09:14:12.460,2499.9458,8
328,328,2021-02-15 09:14:42.460,2512.5244,8
338,338,2021-02-15 09:15:12.460,2530.9895,8
348,348,2021-02-15 09:15:42.460,2547.5613,8
358,358,2021-02-15 09:16:12.460,2564.1836,8
368,368,2021-02-15 09:16:42.460,2580.2615,8
378,378,2021-02-15 09:17:12.460,2611.1677,8
388,388,2021-02-15 09:17:42.460,2643.095,8
398,398,2021-02-15 09:18:12.460,2673.7329999999997,8
408,408,2021-02-15 09:18:42.460,2703.5393,8
418,418,2021-02-15 09:19:12.460,2733.0452,8
428,428,2021-02-15 09:19:42.460,2762.8005,8
438,438,2021-02-15 09:20:12.460,2797.2039,8
448,448,2021-02-15 09:20:42.460,2831.6290000000004,8
458,458,2021-02-15 09:21:12.460,2865.6533,8
468,468,2021-02-15 09:21:42.460,2900.1863,8
478,478,2021-02-15 09:22:12.460,2916.6809999999996,8
488,488,2021-02-15 09:22:42.460,2928.3145,8
498,498,2021-02-15 09:23:12.460,2940.9333,8
508,508,2021-02-15 09:23:42.460,2954.8477,8
518,518,2021-02-15 09:24:12.460,2968.664,8
528,528,2021-02-15 09:24:42.460,2984.3716,8
538,538,2021-02-15 09:25:12.460,2997.1157,8
548,548,2021-02-15 09:25:42.460,3008.9214,8
558,558,2021-02-15 09:26:12.460,3020.6846,8
568,568,2021-02-15 09:26:42.460,3032.8582,8
578,578,2021-02-15 09:27:12.460,3044.0593,8
588,588,2021-02-15 09:27:42.460,3062.4302,8
598,598,2021-02-15 09:28:12.460,3081.9963,8
608,608,2021-02-15 09:28:42.460,3101.4043,8
618,618,2021-02-15 09:29:12.460,3120.9236,8
628,628,2021-02-15 09:29:42.460,3141.7441,8
638,638,2021-02-15 09:30:12.460,3163.3374,8
648,648,2021-02-15 09:30:42.460,3185.1233,8
658,658,2021-02-15 09:31:12.460,3207.6679999999997,8
668,668,2021-02-15 09:31:42.460,3240.3994,8
678,678,2021-02-15 09:32:12.460,3278.6587,8
688,688,2021-02-15 09:32:42.460,3317.5208,8
698,698,2021-02-15 09:33:12.460,3356.1626,8
708,708,2021-02-15 09:33:42.460,3394.9795,8
718,718,2021-02-15 09:34:12.460,3414.5332,8
728,728,2021-02-15 09:34:42.460,3435.5994,8
738,738,2021-02-15 09:35:12.460,3458.0947,8
748,748,2021-02-15 09:35:42.460,3481.965,8
758,758,2021-02-15 09:36:12.460,3506.8481,8
768,768,2021-02-15 09:36:42.460,3533.2864,8
778,778,2021-02-15 09:37:12.460,3551.3694,8
788,788,2021-02-15 09:37:42.460,3564.2446,8
798,798,2021-02-15 09:38:12.460,3576.3657,8
808,808,2021-02-15 09:38:42.460,3589.2129999999997,8
818,818,2021-02-15 09:39:12.460,3601.3755,8
828,828,2021-02-15 09:39:42.460,3613.3083,8
838,838,2021-02-15 09:40:12.460,3631.9072,8
848,848,2021-02-15 09:40:42.460,3650.6577,8
858,858,2021-02-15 09:41:12.460,3670.6833,8
868,868,2021-02-15 09:41:42.460,3691.47,8
878,878,2021-02-15 09:42:12.460,3712.4583,8
888,888,2021-02-15 09:42:42.460,3734.7632,8
898,898,2021-02-15 09:43:12.460,3757.8652,8
908,908,2021-02-15 09:43:42.460,3790.0215,8
918,918,2021-02-15 09:44:12.460,3822.3,8
928,928,2021-02-15 09:44:42.460,3854.7156,8
938,938,2021-02-15 09:45:12.460,3886.3877,8
948,948,2021-02-15 09:45:42.460,3919.1545,8
958,958,2021-02-15 09:46:12.460,3952.0557,8
968,968,2021-02-15 09:46:42.460,3970.0103,8
978,978,2021-02-15 09:47:12.460,3988.8645,8
988,988,2021-02-15 09:47:42.460,4009.8979999999997,8
998,998,2021-02-15 09:48:12.460,4032.375,8
1008,1008,2021-02-15 09:48:42.460,4055.5793,8
1018,1018,2021-02-15 09:49:12.460,4069.9917,8
1028,1028,2021-02-15 09:49:42.460,4084.9768,8
1038,1038,2021-02-15 09:50:12.460,4099.847,8
1048,1048,2021-02-15 09:50:42.460,4115.3706,8
1058,1058,2021-02-15 09:51:12.460,4131.571,8
1068,1068,2021-02-15 09:51:42.460,4148.473,8
1078,1078,2021-02-15 09:52:12.460,4166.1,8
1088,1088,2021-02-15 09:52:42.460,4184.472,8
1098,1098,2021-02-15 09:53:12.460,4203.028,8
1108,1108,2021-02-15 09:53:42.460,4222.891,8
1118,1118,2021-02-15 09:54:12.460,4242.7554,8
1128,1128,2021-02-15 09:54:42.460,4262.8975,8
1138,1138,2021-02-15 09:55:12.460,4283.861,8
1148,1148,2021-02-15 09:55:42.460,4314.05,8
1158,1158,2021-02-15 09:56:12.460,4344.515,8
1168,1168,2021-02-15 09:56:42.460,4375.2627,8
1178,1178,2021-02-15 09:57:12.460,4406.2915,8
1188,1188,2021-02-15 09:57:42.460,4418.147,8
1198,1198,2021-02-15 09:58:12.460,4424.4736,8
1208,1208,2021-02-15 09:58:42.460,4437.0723,8
1218,1218,2021-02-15 09:59:12.460,4452.1846,8
1228,1228,2021-02-15 09:59:42.460,4467.904,8
1238,1238,2021-02-15 10:00:12.460,4485.815,8
1248,1248,2021-02-15 10:00:42.460,4505.9526,8
1258,1258,2021-02-15 10:01:12.460,4527.251,8
1268,1268,2021-02-15 10:01:42.460,4539.543,8
1278,1278,2021-02-15 10:02:12.460,4552.31,8
1288,1288,2021-02-15 10:02:42.460,4565.9956,8
1298,1298,2021-02-15 10:03:12.460,4581.6177,8
1308,1308,2021-02-15 10:03:42.460,4605.7124,8
1318,1318,2021-02-15 10:04:12.460,4630.334,8
1328,1328,2021-02-15 10:04:42.460,4656.7007,8
1338,1338,2021-02-15 10:05:12.460,4682.495,8
1348,1348,2021-02-15 10:05:42.460,4709.13,8
1358,1358,2021-02-15 10:06:12.460,4736.5874,8
1368,1368,2021-02-15 10:06:42.460,4764.842000000001,8
1378,1378,2021-02-15 10:07:12.460,4793.8623,8
1388,1388,2021-02-15 10:07:42.460,4823.6143,8
1398,1398,2021-02-15 10:08:12.460,4835.2695,8
1408,1408,2021-02-15 10:08:42.460,4848.569,8
1418,1418,2021-02-15 10:09:12.460,4862.4106,8
1428,1428,2021-02-15 10:09:42.460,4877.917,8
1438,1438,2021-02-15 10:10:12.460,4895.786,8
1448,1448,2021-02-15 10:10:42.460,4918.401,8
1458,1458,2021-02-15 10:11:12.460,4942.794,8
1468,1468,2021-02-15 10:11:42.460,4968.875,8
1478,1478,2021-02-15 10:12:12.460,4995.851,8
1488,1488,2021-02-15 10:12:42.460,5016.0776,8
1498,1498,2021-02-15 10:13:12.460,5039.045999999999,8
1508,1508,2021-02-15 10:13:42.460,5061.585,8
1518,1518,2021-02-15 10:14:12.460,5085.895,8
1528,1528,2021-02-15 10:14:42.460,5109.538,8
1538,1538,2021-02-15 10:15:12.460,5133.2764,8
1548,1548,2021-02-15 10:15:42.460,5158.2637,8
1558,1558,2021-02-15 10:16:12.460,5182.3027,8
1568,1568,2021-02-15 10:16:42.460,5207.2925,8
1578,1578,2021-02-15 10:17:12.460,5232.732,8
1588,1588,2021-02-15 10:17:42.460,5258.089,8
1598,1598,2021-02-15 10:18:12.460,5284.3745,8
1608,1608,2021-02-15 10:18:42.460,5315.651,8
1618,1618,2021-02-15 10:19:12.460,5333.951999999999,8
1628,1628,2021-02-15 10:19:42.460,5354.7183,8
1638,1638,2021-02-15 10:20:12.460,5375.7480000000005,8
1648,1648,2021-02-15 10:20:42.460,5398.1064,8
1658,1658,2021-02-15 10:21:12.460,5421.7656,8
1668,1668,2021-02-15 10:21:42.460,5446.6943,8
1678,1678,2021-02-15 10:22:12.460,5472.849,8
1688,1688,2021-02-15 10:22:42.460,5500.1816,8
1698,1698,2021-02-15 10:23:12.460,5517.681,8
1708,1708,2021-02-15 10:23:42.460,5535.548000000001,8
1718,1718,2021-02-15 10:24:12.460,5552.5347,8
1728,1728,2021-02-15 10:24:42.460,5570.6157,8
1738,1738,2021-02-15 10:25:12.460,5589.5977,8
1748,1748,2021-02-15 10:25:42.460,5607.691,8
1758,1758,2021-02-15 10:26:12.460,5626.1924,8
1768,1768,2021-02-15 10:26:42.460,5645.8853,8
1778,1778,2021-02-15 10:27:12.460,5664.6323,8
1788,1788,2021-02-15 10:27:42.460,5684.366999999999,8
1798,1798,2021-02-15 10:28:12.460,5710.4580000000005,8
1808,1808,2021-02-15 10:28:42.460,5736.0645,8
1818,1818,2021-02-15 10:29:12.460,5744.7036,8
1828,1828,2021-02-15 10:29:42.460,5754.9146,8
1838,1838,2021-02-15 10:30:12.460,5765.64,8
1848,1848,2021-02-15 10:30:42.460,5779.1216,8
1858,1858,2021-02-15 10:31:12.460,5793.206999999999,8
1868,1868,2021-02-15 10:31:42.460,5809.0444,8
1878,1878,2021-02-15 10:32:12.460,5827.3447,8
1888,1888,2021-02-15 10:32:42.460,5852.375,8
1898,1898,2021-02-15 10:33:12.460,5879.618,8
1908,1908,2021-02-15 10:33:42.460,5908.963000000001,8
1918,1918,2021-02-15 10:34:12.460,5929.6990000000005,8
1928,1928,2021-02-15 10:34:42.460,5952.6367,8
1938,1938,2021-02-15 10:35:12.460,5975.9434,8
1948,1948,2021-02-15 10:35:42.460,5999.3257,8
1958,1958,2021-02-15 10:36:12.460,6024.3853,8
1968,1968,2021-02-15 10:36:42.460,6050.2876,8
1978,1978,2021-02-15 10:37:12.460,6076.238,8
1988,1988,2021-02-15 10:37:42.460,6103.8325,8
1998,1998,2021-02-15 10:38:12.460,6131.4297,8
2008,2008,2021-02-15 10:38:42.460,6141.494000000001,8
2018,2018,2021-02-15 10:39:12.460,6152.715,8
2028,2028,2021-02-15 10:39:42.460,6165.4023,8
2038,2038,2021-02-15 10:40:12.460,6180.4194,8
2048,2048,2021-02-15 10:40:42.460,6196.7256,8
2058,2058,2021-02-15 10:41:12.460,6214.1025,8
2068,2068,2021-02-15 10:41:42.460,6234.305,8
2078,2078,2021-02-15 10:42:12.460,6261.1597,8
2088,2088,2021-02-15 10:42:42.460,6289.353,8
2098,2098,2021-02-15 10:43:12.460,6319.9,8
2108,2108,2021-02-15 10:43:42.460,6349.794,8
2118,2118,2021-02-15 10:44:12.460,6370.279,8
2128,2128,2021-02-15 10:44:42.460,6391.276999999999,8
2138,2138,2021-02-15 10:45:12.460,6411.5166,8
2148,2148,2021-02-15 10:45:42.460,6433.5757,8
2158,2158,2021-02-15 10:46:12.460,6454.8945,8
2168,2168,2021-02-15 10:46:42.460,6476.7744,8
2178,2178,2021-02-15 10:47:12.460,6500.531,8
2188,2188,2021-02-15 10:47:42.460,6504.684,8
2198,2198,2021-02-15 10:48:12.460,6510.423000000001,8
2208,2208,2021-02-15 10:48:42.460,6518.9155,8
2218,2218,2021-02-15 10:49:12.460,6527.7803,8
2228,2228,2021-02-15 10:49:42.460,6534.954000000001,8
2238,2238,2021-02-15 10:50:12.460,6556.6562,8
2248,2248,2021-02-15 10:50:42.460,6575.375,8
2258,2258,2021-02-15 10:51:12.460,6592.338000000001,8
2268,2268,2021-02-15 10:51:42.460,6612.022,8
2278,2278,2021-02-15 10:52:12.460,6632.6763,8
2288,2288,2021-02-15 10:52:42.460,6655.6533,8
2298,2298,2021-02-15 10:53:12.460,6680.19,8
2308,2308,2021-02-15 10:53:42.460,6694.745,8
2318,2318,2021-02-15 10:54:12.460,6710.476,8
2328,2328,2021-02-15 10:54:42.460,6733.045999999999,8
2338,2338,2021-02-15 10:55:12.460,6757.111999999999,8
2348,2348,2021-02-15 10:55:42.460,6782.1665,8
2358,2358,2021-02-15 10:56:12.460,6788.2974,8
2368,2368,2021-02-15 10:56:42.460,6795.959,8
2378,2378,2021-02-15 10:57:12.460,6809.196,8
2388,2388,2021-02-15 10:57:42.460,6824.5796,8
2398,2398,2021-02-15 10:58:12.460,6842.5786,8
2408,2408,2021-02-15 10:58:42.460,6856.771,8
2418,2418,2021-02-15 10:59:12.460,6873.6990000000005,8
2428,2428,2021-02-15 10:59:42.460,6892.951999999999,8
2438,2438,2021-02-15 11:00:12.460,6919.601,8
2448,2448,2021-02-15 11:00:42.460,6948.398,8
2458,2458,2021-02-15 11:01:12.460,6978.5703,8
2468,2468,2021-02-15 11:01:42.460,7010.267,8
2478,2478,2021-02-15 11:02:12.460,7043.5684,8
2488,2488,2021-02-15 11:02:42.460,7064.4224,8
2498,2498,2021-02-15 11:03:12.460,7086.3975,8
2508,2508,2021-02-15 11:03:42.460,7108.9927,8
2518,2518,2021-02-15 11:04:12.460,7132.0273,8
2528,2528,2021-02-15 11:04:42.460,7141.007,8
2538,2538,2021-02-15 11:05:12.460,7157.888000000001,8
2548,2548,2021-02-15 11:05:42.460,7173.5073,8
2558,2558,2021-02-15 11:06:12.460,7188.7026,8
2568,2568,2021-02-15 11:06:42.460,7205.923000000001,8
2578,2578,2021-02-15 11:07:12.460,7223.661999999999,8
2588,2588,2021-02-15 11:07:42.460,7243.6997,8
2598,2598,2021-02-15 11:08:12.460,7265.34,8
2608,2608,2021-02-15 11:08:42.460,7287.882,8
2618,2618,2021-02-15 11:09:12.460,7312.687,8
2628,2628,2021-02-15 11:09:42.460,7341.8716,8
2638,2638,2021-02-15 11:10:12.460,7371.797,8
2648,2648,2021-02-15 11:10:42.460,7403.0747,8
2658,2658,2021-02-15 11:11:12.460,7425.6465,8
2668,2668,2021-02-15 11:11:42.460,7448.6577,8
2678,2678,2021-02-15 11:12:12.460,7472.5347,8
2688,2688,2021-02-15 11:12:42.460,7483.8859999999995,8
2698,2698,2021-02-15 11:13:12.460,7492.5493,8
2708,2708,2021-02-15 11:13:42.460,7498.2827,8
2718,2718,2021-02-15 11:14:12.460,7505.2007,8
2728,2728,2021-02-15 11:14:42.460,7513.4077,8
2738,2738,2021-02-15 11:15:12.460,7527.1006,8
2748,2748,2021-02-15 11:15:42.460,7542.67,8
2758,2758,2021-02-15 11:16:12.460,7560.1606,8
2768,2768,2021-02-15 11:16:42.460,7579.588000000001,8
2778,2778,2021-02-15 11:17:12.460,7600.9355,8
2788,2788,2021-02-15 11:17:42.460,7628.1133,8
2798,2798,2021-02-15 11:18:12.460,7657.895,8
2808,2808,2021-02-15 11:18:42.460,7688.6759999999995,8
2818,2818,2021-02-15 11:19:12.460,7719.9985,8
2828,2828,2021-02-15 11:19:42.460,7746.9434,8
2838,2838,2021-02-15 11:20:12.460,7755.041,8
2848,2848,2021-02-15 11:20:42.460,7763.1636,8
2858,2858,2021-02-15 11:21:12.460,7773.9395,8
2868,2868,2021-02-15 11:21:42.460,7786.469,8
2878,2878,2021-02-15 11:22:12.460,7804.1104,8
2888,2888,2021-02-15 11:22:42.460,7824.59,8
2898,2898,2021-02-15 11:23:12.460,7846.1284,8
2908,2908,2021-02-15 11:23:42.460,7868.979,8
2918,2918,2021-02-15 11:24:12.460,7894.5757,8
2928,2928,2021-02-15 11:24:42.460,7921.059,8
2938,2938,2021-02-15 11:25:12.460,7948.7080000000005,8
2948,2948,2021-02-15 11:25:42.460,7978.4595,8
2958,2958,2021-02-15 11:26:12.460,8008.816,8
2968,2968,2021-02-15 11:26:42.460,8026.762,8
2978,2978,2021-02-15 11:27:12.460,8046.1196,8
2988,2988,2021-02-15 11:27:42.460,8060.0786,8
2998,2998,2021-02-15 11:28:12.460,8072.9043,8
3008,3008,2021-02-15 11:28:42.460,8085.4033,8
3018,3018,2021-02-15 11:29:12.460,8099.8643,8
3028,3028,2021-02-15 11:29:42.460,8116.351,8
3038,3038,2021-02-15 11:30:12.460,8133.001,8
3048,3048,2021-02-15 11:30:42.460,8151.7983,8
3058,3058,2021-02-15 11:31:12.460,8172.755,8
3068,3068,2021-02-15 11:31:42.460,8193.86,8
3078,3078,2021-02-15 11:32:12.460,8217.151,8
3088,3088,2021-02-15 11:32:42.460,8245.024,8
3098,3098,2021-02-15 11:33:12.460,8259.505,8
3108,3108,2021-02-15 11:33:42.460,8276.107,8
3118,3118,2021-02-15 11:34:12.460,8294.504,8
3128,3128,2021-02-15 11:34:42.460,8311.885,8
3138,3138,2021-02-15 11:35:12.460,8320.311,8
3148,3148,2021-02-15 11:35:42.460,8329.207,8
3158,3158,2021-02-15 11:36:12.460,8340.071,8
3168,3168,2021-02-15 11:36:42.460,8352.558,8
3178,3178,2021-02-15 11:37:12.460,8373.609,8
3188,3188,2021-02-15 11:37:42.460,8396.88,8
3198,3198,2021-02-15 11:38:12.460,8421.487,8
3208,3208,2021-02-15 11:38:42.460,8430.226999999999,8
3218,3218,2021-02-15 11:39:12.460,8441.655,8
3228,3228,2021-02-15 11:39:42.460,8454.033000000001,8
3238,3238,2021-02-15 11:40:12.460,8469.384,8
3248,3248,2021-02-15 11:40:42.460,8488.079,8
3258,3258,2021-02-15 11:41:12.460,8507.6875,8
3268,3268,2021-02-15 11:41:42.460,8521.471,8
3278,3278,2021-02-15 11:42:12.460,8536.773000000001,8
3288,3288,2021-02-15 11:42:42.460,8553.466999999999,8
3298,3298,2021-02-15 11:43:12.460,8573.314,8
3308,3308,2021-02-15 11:43:42.460,8594.341999999999,8
3318,3318,2021-02-15 11:44:12.460,8600.257,8
3328,3328,2021-02-15 11:44:42.460,8609.039,8
3338,3338,2021-02-15 11:45:12.460,8619.091999999999,8
3348,3348,2021-02-15 11:45:42.460,8632.7295,8
3358,3358,2021-02-15 11:46:12.460,8646.479,8
3368,3368,2021-02-15 11:46:42.460,8661.805,8
3378,3378,2021-02-15 11:47:12.460,8680.776,8
3388,3388,2021-02-15 11:47:42.460,8705.892,8
3398,3398,2021-02-15 11:48:12.460,8723.976,8
3408,3408,2021-02-15 11:48:42.460,8744.925,8
3418,3418,2021-02-15 11:49:12.460,8753.86,8
3428,3428,2021-02-15 11:49:42.460,8762.205,8
3438,3438,2021-02-15 11:50:12.460,8772.543,8
3448,3448,2021-02-15 11:50:42.460,8786.085,8
3458,3458,2021-02-15 11:51:12.460,8802.346,8
3468,3468,2021-02-15 11:51:42.460,8820.746,8
3478,3478,2021-02-15 11:52:12.460,8844.491,8
3488,3488,2021-02-15 11:52:42.460,8870.095,8
3498,3498,2021-02-15 11:53:12.460,8897.971,8
3508,3508,2021-02-15 11:53:42.460,8902.775,8
3518,3518,2021-02-15 11:54:12.460,8909.498,8
3528,3528,2021-02-15 11:54:42.460,8917.417,8
3538,3538,2021-02-15 11:55:12.460,8928.904,8
3548,3548,2021-02-15 11:55:42.460,8945.548,8
3558,3558,2021-02-15 11:56:12.460,8964.195,8
3568,3568,2021-02-15 11:56:42.460,8986.475,8
3578,3578,2021-02-15 11:57:12.460,9010.681,8
3588,3588,2021-02-15 11:57:42.460,9023.064,8
3598,3598,2021-02-15 11:58:12.460,9038.56,8
3608,3608,2021-02-15 11:58:42.460,9056.319,8
3618,3618,2021-02-15 11:59:12.460,9067.219000000001,8
3628,3628,2021-02-15 11:59:42.460,9080.05,8
3638,3638,2021-02-15 12:00:12.460,9095.042,8
3648,3648,2021-02-15 12:00:42.460,9113.599,8
3658,3658,2021-02-15 12:01:12.460,9117.952,8
3668,3668,2021-02-15 12:01:42.460,9125.088,8
3678,3678,2021-02-15 12:02:12.460,9135.5,8
3688,3688,2021-02-15 12:02:42.460,9150.345,8
3698,3698,2021-02-15 12:03:12.460,9168.469000000001,8
3708,3708,2021-02-15 12:03:42.460,9189.789,8
3718,3718,2021-02-15 12:04:12.460,9190.683,8
3728,3728,2021-02-15 12:04:42.460,9193.879,8
3738,3738,2021-02-15 12:05:12.460,9199.61,8
3748,3748,2021-02-15 12:05:42.460,9208.928,8
3758,3758,2021-02-15 12:06:12.460,9221.607,8
3768,3768,2021-02-15 12:06:42.460,9223.921999999999,8
3778,3778,2021-02-15 12:07:12.460,9229.884,8
3788,3788,2021-02-15 12:07:42.460,9238.201,8
