,Unnamed: 0,time,preds,step
3795,3795,2021-01-22 12:29:25.480,860.7167,5
3805,3805,2021-01-22 12:29:55.480,858.70984,5
3815,3815,2021-01-22 12:30:25.480,858.5408,5
3825,3825,2021-01-22 12:30:55.480,857.8964,5
3835,3835,2021-01-22 12:31:25.480,856.071,5
3845,3845,2021-01-22 12:31:55.480,855.5768,5
3855,3855,2021-01-22 12:32:25.480,854.98505,5
3865,3865,2021-01-22 12:32:55.480,853.3570599999999,5
3875,3875,2021-01-22 12:33:25.480,852.1582,5
3885,3885,2021-01-22 12:33:55.480,851.5196,5
3895,3895,2021-01-22 12:34:25.480,849.9138,5
3905,3905,2021-01-22 12:34:55.480,848.6719400000001,5
3915,3915,2021-01-22 12:35:25.480,847.9383,5
3925,3925,2021-01-22 12:35:55.480,846.4652,5
3935,3935,2021-01-22 12:36:25.480,845.7008699999999,5
3945,3945,2021-01-22 12:36:55.480,844.7381,5
3955,3955,2021-01-22 12:37:25.480,843.75366,5
3965,3965,2021-01-22 12:37:55.480,843.0738,5
3975,3975,2021-01-22 12:38:25.480,842.17285,5
3985,3985,2021-01-22 12:38:55.480,841.5551,5
3995,3995,2021-01-22 12:39:25.480,840.8127,5
4005,4005,2021-01-22 12:39:55.480,839.6112,5
4015,4015,2021-01-22 12:40:25.480,839.00494,5
4025,4025,2021-01-22 12:40:55.480,837.9622,5
4035,4035,2021-01-22 12:41:25.480,836.8672,5
4045,4045,2021-01-22 12:41:55.480,836.1282,5
4055,4055,2021-01-22 12:42:25.480,834.6183,5
4065,4065,2021-01-22 12:42:55.480,833.42377,5
4075,4075,2021-01-22 12:43:25.480,831.18884,5
4085,4085,2021-01-22 12:43:55.480,830.64764,5
4095,4095,2021-01-22 12:44:25.480,829.53503,5
4105,4105,2021-01-22 12:44:55.480,827.1075,5
4115,4115,2021-01-22 12:45:25.480,827.4296,5
4125,4125,2021-01-22 12:45:55.480,826.2853,5
4135,4135,2021-01-22 12:46:25.480,825.5260000000001,5
4145,4145,2021-01-22 12:46:55.480,824.7387,5
4155,4155,2021-01-22 12:47:25.480,823.81396,5
4165,4165,2021-01-22 12:47:55.480,822.6169,5
4175,4175,2021-01-22 12:48:25.480,821.2806400000001,5
4185,4185,2021-01-22 12:48:55.480,820.43195,5
4195,4195,2021-01-22 12:49:25.480,818.9844,5
4205,4205,2021-01-22 12:49:55.480,817.6379,5
4215,4215,2021-01-22 12:50:25.480,816.81744,5
4225,4225,2021-01-22 12:50:55.480,815.41406,5
4235,4235,2021-01-22 12:51:25.480,814.3436,5
4245,4245,2021-01-22 12:51:55.480,813.3118,5
4255,4255,2021-01-22 12:52:25.480,812.4859,5
4265,4265,2021-01-22 12:52:55.480,811.6957,5
4275,4275,2021-01-22 12:53:25.480,810.9703,5
4285,4285,2021-01-22 12:53:55.480,810.3479,5
4295,4295,2021-01-22 12:54:25.480,809.7959,5
4305,4305,2021-01-22 12:54:55.480,808.5445,5
4315,4315,2021-01-22 12:55:25.480,807.8677,5
4325,4325,2021-01-22 12:55:55.480,806.9173599999999,5
4335,4335,2021-01-22 12:56:25.480,803.8885,5
4345,4345,2021-01-22 12:56:55.480,802.9771,5
4355,4355,2021-01-22 12:57:25.480,801.39526,5
4365,4365,2021-01-22 12:57:55.480,799.8716,5
4375,4375,2021-01-22 12:58:25.480,799.3374,5
4385,4385,2021-01-22 12:58:55.480,798.47687,5
4395,4395,2021-01-22 12:59:25.480,797.1973,5
4405,4405,2021-01-22 12:59:55.480,796.8279,5
4415,4415,2021-01-22 13:00:25.480,795.4152,5
4425,4425,2021-01-22 13:00:55.480,794.8284,5
4435,4435,2021-01-22 13:01:25.480,793.41406,5
4445,4445,2021-01-22 13:01:55.480,792.125,5
4455,4455,2021-01-22 13:02:25.480,790.9545,5
4465,4465,2021-01-22 13:02:55.480,789.7599,5
4475,4475,2021-01-22 13:03:25.480,788.16797,5
4485,4485,2021-01-22 13:03:55.480,786.931,5
4495,4495,2021-01-22 13:04:25.480,785.8312,5
4505,4505,2021-01-22 13:04:55.480,784.5916,5
4515,4515,2021-01-22 13:05:25.480,783.51184,5
4525,4525,2021-01-22 13:05:55.480,782.571,5
4535,4535,2021-01-22 13:06:25.480,781.29193,5
4545,4545,2021-01-22 13:06:55.480,780.84766,5
4555,4555,2021-01-22 13:07:25.480,780.30896,5
4565,4565,2021-01-22 13:07:55.480,779.4169,5
4575,4575,2021-01-22 13:08:25.480,779.20447,5
4585,4585,2021-01-22 13:08:55.480,778.2821700000001,5
4595,4595,2021-01-22 13:09:25.480,777.5364400000001,5
4605,4605,2021-01-22 13:09:55.480,776.30164,5
4615,4615,2021-01-22 13:10:25.480,775.7651400000001,5
4625,4625,2021-01-22 13:10:55.480,773.2196700000001,5
4635,4635,2021-01-22 13:11:25.480,771.0011,5
4645,4645,2021-01-22 13:11:55.480,769.6098,5
4655,4655,2021-01-22 13:12:25.480,769.34766,5
4665,4665,2021-01-22 13:12:55.480,767.8819599999999,5
4675,4675,2021-01-22 13:13:25.480,767.27893,5
4685,4685,2021-01-22 13:13:55.480,766.1568599999999,5
4695,4695,2021-01-22 13:14:25.480,765.4394,5
4705,4705,2021-01-22 13:14:55.480,764.7953,5
4715,4715,2021-01-22 13:15:25.480,763.5682,5
4725,4725,2021-01-22 13:15:55.480,761.9661,5
4735,4735,2021-01-22 13:16:25.480,760.567,5
4745,4745,2021-01-22 13:16:55.480,758.79095,5
4755,4755,2021-01-22 13:17:25.480,757.1012599999999,5
4765,4765,2021-01-22 13:17:55.480,755.6205,5
4775,4775,2021-01-22 13:18:25.480,754.21844,5
4785,4785,2021-01-22 13:18:55.480,753.1517,5
4795,4795,2021-01-22 13:19:25.480,751.9458599999999,5
4805,4805,2021-01-22 13:19:55.480,750.8864,5
4815,4815,2021-01-22 13:20:25.480,749.5594,5
4825,4825,2021-01-22 13:20:55.480,748.6355599999999,5
4835,4835,2021-01-22 13:21:25.480,747.89276,5
4845,4845,2021-01-22 13:21:55.480,747.513,5
4855,4855,2021-01-22 13:22:25.480,746.8658,5
4865,4865,2021-01-22 13:22:55.480,745.8623,5
4875,4875,2021-01-22 13:23:25.480,745.1864,5
4885,4885,2021-01-22 13:23:55.480,744.3595,5
4895,4895,2021-01-22 13:24:25.480,741.0346,5
4905,4905,2021-01-22 13:24:55.480,738.9068599999999,5
4915,4915,2021-01-22 13:25:25.480,738.2829,5
4925,4925,2021-01-22 13:25:55.480,737.4666,5
4935,4935,2021-01-22 13:26:25.480,735.6340299999999,5
4945,4945,2021-01-22 13:26:55.480,735.54724,5
4955,4955,2021-01-22 13:27:25.480,734.4934,5
4965,4965,2021-01-22 13:27:55.480,733.7693,5
4975,4975,2021-01-22 13:28:25.480,732.9494599999999,5
4985,4985,2021-01-22 13:28:55.480,731.99475,5
4995,4995,2021-01-22 13:29:25.480,730.8165,5
5005,5005,2021-01-22 13:29:55.480,729.0003,5
5015,5015,2021-01-22 13:30:25.480,727.26245,5
5025,5025,2021-01-22 13:30:55.480,725.8236,5
5035,5035,2021-01-22 13:31:25.480,723.9541,5
5045,5045,2021-01-22 13:31:55.480,722.4942599999999,5
5055,5055,2021-01-22 13:32:25.480,721.4297,5
5065,5065,2021-01-22 13:32:55.480,719.941,5
5075,5075,2021-01-22 13:33:25.480,718.6252,5
5085,5085,2021-01-22 13:33:55.480,717.74036,5
5095,5095,2021-01-22 13:34:25.480,716.8182400000001,5
5105,5105,2021-01-22 13:34:55.480,715.8777,5
5115,5115,2021-01-22 13:35:25.480,715.8855599999999,5
5125,5125,2021-01-22 13:35:55.480,715.3705,5
5135,5135,2021-01-22 13:36:25.480,711.054,5
5145,5145,2021-01-22 13:36:55.480,710.5009,5
5155,5155,2021-01-22 13:37:25.480,709.0282,5
5165,5165,2021-01-22 13:37:55.480,707.49896,5
5175,5175,2021-01-22 13:38:25.480,706.9221,5
5185,5185,2021-01-22 13:38:55.480,706.2555,5
5195,5195,2021-01-22 13:39:25.480,704.7831,5
5205,5205,2021-01-22 13:39:55.480,704.4729,5
5215,5215,2021-01-22 13:40:25.480,703.87244,5
5225,5225,2021-01-22 13:40:55.480,702.4717400000001,5
5235,5235,2021-01-22 13:41:25.480,701.2876,5
5245,5245,2021-01-22 13:41:55.480,699.47687,5
5255,5255,2021-01-22 13:42:25.480,697.3533,5
5265,5265,2021-01-22 13:42:55.480,696.0537,5
5275,5275,2021-01-22 13:43:25.480,694.1723,5
5285,5285,2021-01-22 13:43:55.480,692.41125,5
5295,5295,2021-01-22 13:44:25.480,691.41797,5
5305,5305,2021-01-22 13:44:55.480,690.493,5
5315,5315,2021-01-22 13:45:25.480,688.7013,5
5325,5325,2021-01-22 13:45:55.480,687.80536,5
5335,5335,2021-01-22 13:46:25.480,687.3294,5
5345,5345,2021-01-22 13:46:55.480,686.633,5
5355,5355,2021-01-22 13:47:25.480,686.4094,5
5365,5365,2021-01-22 13:47:55.480,685.6803,5
5375,5375,2021-01-22 13:48:25.480,685.21985,5
5385,5385,2021-01-22 13:48:55.480,679.9923,5
5395,5395,2021-01-22 13:49:25.480,678.7178299999999,5
5405,5405,2021-01-22 13:49:55.480,677.5932,5
5415,5415,2021-01-22 13:50:25.480,676.94354,5
5425,5425,2021-01-22 13:50:55.480,675.4196,5
5435,5435,2021-01-22 13:51:25.480,674.4933,5
5445,5445,2021-01-22 13:51:55.480,673.4565,5
5455,5455,2021-01-22 13:52:25.480,673.1805400000001,5
5465,5465,2021-01-22 13:52:55.480,671.9621,5
5475,5475,2021-01-22 13:53:25.480,671.21533,5
5485,5485,2021-01-22 13:53:55.480,670.09644,5
5495,5495,2021-01-22 13:54:25.480,667.7486,5
5505,5505,2021-01-22 13:54:55.480,665.71204,5
5515,5515,2021-01-22 13:55:25.480,664.2355,5
5525,5525,2021-01-22 13:55:55.480,661.9818,5
5535,5535,2021-01-22 13:56:25.480,660.6382,5
5545,5545,2021-01-22 13:56:55.480,659.294,5
5555,5555,2021-01-22 13:57:25.480,658.23,5
5565,5565,2021-01-22 13:57:55.480,656.9533,5
5575,5575,2021-01-22 13:58:25.480,655.6803,5
5585,5585,2021-01-22 13:58:55.480,655.2453,5
5595,5595,2021-01-22 13:59:25.480,654.91583,5
5605,5605,2021-01-22 13:59:55.480,655.0342400000001,5
5615,5615,2021-01-22 14:00:25.480,653.88306,5
5625,5625,2021-01-22 14:00:55.480,648.6986,5
5635,5635,2021-01-22 14:01:25.480,647.6853,5
5645,5645,2021-01-22 14:01:55.480,646.13245,5
5655,5655,2021-01-22 14:02:25.480,645.0663,5
5665,5665,2021-01-22 14:02:55.480,644.5677,5
5675,5675,2021-01-22 14:03:25.480,642.9643,5
5685,5685,2021-01-22 14:03:55.480,642.1315,5
5695,5695,2021-01-22 14:04:25.480,641.4943,5
5705,5705,2021-01-22 14:04:55.480,640.3244,5
5715,5715,2021-01-22 14:05:25.480,639.6782,5
5725,5725,2021-01-22 14:05:55.480,638.2397,5
5735,5735,2021-01-22 14:06:25.480,636.75494,5
5745,5745,2021-01-22 14:06:55.480,634.28156,5
5755,5755,2021-01-22 14:07:25.480,632.6107,5
5765,5765,2021-01-22 14:07:55.480,630.98303,5
5775,5775,2021-01-22 14:08:25.480,629.0643,5
5785,5785,2021-01-22 14:08:55.480,627.9314,5
5795,5795,2021-01-22 14:09:25.480,626.97876,5
5805,5805,2021-01-22 14:09:55.480,625.25397,5
5815,5815,2021-01-22 14:10:25.480,624.47516,5
5825,5825,2021-01-22 14:10:55.480,624.05664,5
5835,5835,2021-01-22 14:11:25.480,623.6702,5
5845,5845,2021-01-22 14:11:55.480,617.55334,5
5855,5855,2021-01-22 14:12:25.480,617.82416,5
5865,5865,2021-01-22 14:12:55.480,616.8914,5
5875,5875,2021-01-22 14:13:25.480,614.62036,5
5885,5885,2021-01-22 14:13:55.480,613.654,5
5895,5895,2021-01-22 14:14:25.480,613.3695700000001,5
5905,5905,2021-01-22 14:14:55.480,612.1769,5
5915,5915,2021-01-22 14:15:25.480,610.9422599999999,5
5925,5925,2021-01-22 14:15:55.480,610.1378,5
5935,5935,2021-01-22 14:16:25.480,609.6593,5
5945,5945,2021-01-22 14:16:55.480,608.07745,5
5955,5955,2021-01-22 14:17:25.480,606.1228,5
5965,5965,2021-01-22 14:17:55.480,604.3133,5
5975,5975,2021-01-22 14:18:25.480,602.0205,5
5985,5985,2021-01-22 14:18:55.480,599.9071,5
5995,5995,2021-01-22 14:19:25.480,599.1478,5
6005,6005,2021-01-22 14:19:55.480,596.97675,5
6015,6015,2021-01-22 14:20:25.480,595.8373,5
6025,6025,2021-01-22 14:20:55.480,594.8576,5
6035,6035,2021-01-22 14:21:25.480,593.62244,5
6045,6045,2021-01-22 14:21:55.480,593.0721,5
6055,6055,2021-01-22 14:22:25.480,593.0804400000001,5
6065,6065,2021-01-22 14:22:55.480,586.1322,5
6075,6075,2021-01-22 14:23:25.480,585.7202,5
6085,6085,2021-01-22 14:23:55.480,584.8290000000001,5
6095,6095,2021-01-22 14:24:25.480,583.49194,5
6105,6105,2021-01-22 14:24:55.480,582.32587,5
6115,6115,2021-01-22 14:25:25.480,581.52734,5
6125,6125,2021-01-22 14:25:55.480,580.7335,5
6135,6135,2021-01-22 14:26:25.480,579.5268599999999,5
6145,6145,2021-01-22 14:26:55.480,578.5833,5
6155,6155,2021-01-22 14:27:25.480,577.8697,5
6165,6165,2021-01-22 14:27:55.480,576.3681,5
6175,6175,2021-01-22 14:28:25.480,574.36237,5
6185,6185,2021-01-22 14:28:55.480,571.8949,5
6195,6195,2021-01-22 14:29:25.480,570.27814,5
6205,6205,2021-01-22 14:29:55.480,567.73834,5
6215,6215,2021-01-22 14:30:25.480,566.5353,5
6225,6225,2021-01-22 14:30:55.480,565.3919999999999,5
6235,6235,2021-01-22 14:31:25.480,563.7626,5
6245,6245,2021-01-22 14:31:55.480,562.5622599999999,5
6255,6255,2021-01-22 14:32:25.480,562.122,5
6265,6265,2021-01-22 14:32:55.480,555.2919,5
6275,6275,2021-01-22 14:33:25.480,555.41693,5
6285,6285,2021-01-22 14:33:55.480,553.7755,5
6295,6295,2021-01-22 14:34:25.480,552.8351,5
6305,6305,2021-01-22 14:34:55.480,551.38965,5
6315,6315,2021-01-22 14:35:25.480,550.3711,5
6325,6325,2021-01-22 14:35:55.480,549.5085,5
6335,6335,2021-01-22 14:36:25.480,549.04114,5
6345,6345,2021-01-22 14:36:55.480,547.9629,5
6355,6355,2021-01-22 14:37:25.480,547.30334,5
6365,6365,2021-01-22 14:37:55.480,546.0061,5
6375,6375,2021-01-22 14:38:25.480,543.8153,5
6385,6385,2021-01-22 14:38:55.480,541.3719,5
6395,6395,2021-01-22 14:39:25.480,539.6896,5
6405,6405,2021-01-22 14:39:55.480,537.2679,5
6415,6415,2021-01-22 14:40:25.480,536.15356,5
6425,6425,2021-01-22 14:40:55.480,534.7751,5
6435,6435,2021-01-22 14:41:25.480,532.9913,5
6445,6445,2021-01-22 14:41:55.480,531.9711,5
6455,6455,2021-01-22 14:42:25.480,524.70685,5
6465,6465,2021-01-22 14:42:55.480,524.1663,5
6475,6475,2021-01-22 14:43:25.480,523.3646,5
6485,6485,2021-01-22 14:43:55.480,522.0557,5
6495,6495,2021-01-22 14:44:25.480,520.74713,5
6505,6505,2021-01-22 14:44:55.480,519.7796599999999,5
6515,6515,2021-01-22 14:45:25.480,518.3728,5
6525,6525,2021-01-22 14:45:55.480,517.9262,5
6535,6535,2021-01-22 14:46:25.480,517.1945,5
6545,6545,2021-01-22 14:46:55.480,516.30695,5
6555,6555,2021-01-22 14:47:25.480,515.6496,5
6565,6565,2021-01-22 14:47:55.480,513.1539,5
6575,6575,2021-01-22 14:48:25.480,511.45374000000004,5
6585,6585,2021-01-22 14:48:55.480,509.04974000000004,5
6595,6595,2021-01-22 14:49:25.480,506.8847,5
6605,6605,2021-01-22 14:49:55.480,506.05037999999996,5
6615,6615,2021-01-22 14:50:25.480,503.95554000000004,5
6625,6625,2021-01-22 14:50:55.480,502.43805,5
6635,6635,2021-01-22 14:51:25.480,501.7799,5
6645,6645,2021-01-22 14:51:55.480,493.02814000000006,5
6655,6655,2021-01-22 14:52:25.480,492.28958,5
6665,6665,2021-01-22 14:52:55.480,492.1596,5
6675,6675,2021-01-22 14:53:25.480,490.8616,5
6685,6685,2021-01-22 14:53:55.480,489.02797999999996,5
6695,6695,2021-01-22 14:54:25.480,487.96133,5
6705,6705,2021-01-22 14:54:55.480,487.09365999999994,5
6715,6715,2021-01-22 14:55:25.480,486.34952000000004,5
6725,6725,2021-01-22 14:55:55.480,485.9301,5
6735,6735,2021-01-22 14:56:25.480,484.87935999999996,5
6745,6745,2021-01-22 14:56:55.480,484.3246,5
6755,6755,2021-01-22 14:57:25.480,482.23925999999994,5
6765,6765,2021-01-22 14:57:55.480,480.73508,5
6775,6775,2021-01-22 14:58:25.480,478.38507000000004,5
6785,6785,2021-01-22 14:58:55.480,476.22902999999997,5
6795,6795,2021-01-22 14:59:25.480,475.2893,5
6805,6805,2021-01-22 14:59:55.480,473.57187000000005,5
6815,6815,2021-01-22 15:00:25.480,472.03632000000005,5
6825,6825,2021-01-22 15:00:55.480,470.98663,5
6835,6835,2021-01-22 15:01:25.480,461.74033,5
6845,6845,2021-01-22 15:01:55.480,460.01315,5
6855,6855,2021-01-22 15:02:25.480,460.20505,5
6865,6865,2021-01-22 15:02:55.480,458.8832,5
6875,6875,2021-01-22 15:03:25.480,457.54434000000003,5
6885,6885,2021-01-22 15:03:55.480,456.10794000000004,5
6895,6895,2021-01-22 15:04:25.480,454.74866,5
6905,6905,2021-01-22 15:04:55.480,454.71146,5
6915,6915,2021-01-22 15:05:25.480,453.85254000000003,5
6925,6925,2021-01-22 15:05:55.480,452.43245999999994,5
6935,6935,2021-01-22 15:06:25.480,452.4788,5
6945,6945,2021-01-22 15:06:55.480,450.2485,5
6955,6955,2021-01-22 15:07:25.480,448.24484,5
6965,6965,2021-01-22 15:07:55.480,446.28036,5
6975,6975,2021-01-22 15:08:25.480,431.74384000000003,5
6985,6985,2021-01-22 15:08:55.480,429.14572000000004,5
6995,6995,2021-01-22 15:09:25.480,427.66617,5
7005,7005,2021-01-22 15:09:55.480,425.52094000000005,5
7015,7015,2021-01-22 15:10:25.480,423.57684000000006,5
7025,7025,2021-01-22 15:10:55.480,423.7073,5
7035,7035,2021-01-22 15:11:25.480,422.73935,5
7045,7045,2021-01-22 15:11:55.480,421.94952,5
7055,7055,2021-01-22 15:12:25.480,421.0434,5
7065,7065,2021-01-22 15:12:55.480,420.36742999999996,5
7075,7075,2021-01-22 15:13:25.480,418.23007,5
7085,7085,2021-01-22 15:13:55.480,414.56177,5
7095,7095,2021-01-22 15:14:25.480,411.39187999999996,5
7105,7105,2021-01-22 15:14:55.480,409.05814,5
7115,7115,2021-01-22 15:15:25.480,409.60544,5
7125,7125,2021-01-22 15:15:55.480,412.39832,5
7135,7135,2021-01-22 15:16:25.480,399.5751,5
7145,7145,2021-01-22 15:16:55.480,396.74942000000004,5
7155,7155,2021-01-22 15:17:25.480,396.00235,5
7165,7165,2021-01-22 15:17:55.480,395.2933,5
7175,7175,2021-01-22 15:18:25.480,393.7877,5
7185,7185,2021-01-22 15:18:55.480,393.19347999999997,5
7195,7195,2021-01-22 15:19:25.480,391.33554,5
7205,7205,2021-01-22 15:19:55.480,391.61062999999996,5
7215,7215,2021-01-22 15:20:25.480,390.7689,5
7225,7225,2021-01-22 15:20:55.480,388.98532,5
7235,7235,2021-01-22 15:21:25.480,385.59517999999997,5
7245,7245,2021-01-22 15:21:55.480,380.88766,5
7255,7255,2021-01-22 15:22:25.480,380.12023999999997,5
7265,7265,2021-01-22 15:22:55.480,384.86435,5
7275,7275,2021-01-22 15:23:25.480,369.16967999999997,5
7285,7285,2021-01-22 15:23:55.480,367.0867,5
7295,7295,2021-01-22 15:24:25.480,364.54352,5
7305,7305,2021-01-22 15:24:55.480,362.0703,5
7315,7315,2021-01-22 15:25:25.480,360.34726,5
7325,7325,2021-01-22 15:25:55.480,360.298,5
7335,7335,2021-01-22 15:26:25.480,358.90637000000004,5
7345,7345,2021-01-22 15:26:55.480,358.5993,5
7355,7355,2021-01-22 15:27:25.480,357.67352,5
7365,7365,2021-01-22 15:27:55.480,356.9566,5
7375,7375,2021-01-22 15:28:25.480,355.13928,5
7385,7385,2021-01-22 15:28:55.480,351.34274,5
7395,7395,2021-01-22 15:29:25.480,347.69208,5
7405,7405,2021-01-22 15:29:55.480,345.86734,5
7415,7415,2021-01-22 15:30:25.480,336.4753,5
7425,7425,2021-01-22 15:30:55.480,334.45892000000003,5
7435,7435,2021-01-22 15:31:25.480,332.22495,5
7445,7445,2021-01-22 15:31:55.480,330.34528,5
7455,7455,2021-01-22 15:32:25.480,327.8144,5
7465,7465,2021-01-22 15:32:55.480,328.019,5
7475,7475,2021-01-22 15:33:25.480,326.81802000000005,5
7485,7485,2021-01-22 15:33:55.480,326.74133,5
7495,7495,2021-01-22 15:34:25.480,325.51153999999997,5
7505,7505,2021-01-22 15:34:55.480,325.0949,5
7515,7515,2021-01-22 15:35:25.480,323.0877,5
7525,7525,2021-01-22 15:35:55.480,308.79965,5
7535,7535,2021-01-22 15:36:25.480,304.6394,5
7545,7545,2021-01-22 15:36:55.480,300.2596,5
7555,7555,2021-01-22 15:37:25.480,295.68155,5
7565,7565,2021-01-22 15:37:55.480,295.27066,5
7575,7575,2021-01-22 15:38:25.480,294.18762000000004,5
7585,7585,2021-01-22 15:38:55.480,291.91278,5
7595,7595,2021-01-22 15:39:25.480,290.67938,5
7605,7605,2021-01-22 15:39:55.480,291.00018,5
7615,7615,2021-01-22 15:40:25.480,289.27407999999997,5
7625,7625,2021-01-22 15:40:55.480,287.69653,5
7635,7635,2021-01-22 15:41:25.480,286.2396,5
7645,7645,2021-01-22 15:41:55.480,274.973,5
7655,7655,2021-01-22 15:42:25.480,271.09406,5
7665,7665,2021-01-22 15:42:55.480,265.97662,5
7675,7675,2021-01-22 15:43:25.480,262.43362,5
7685,7685,2021-01-22 15:43:55.480,258.05707,5
7695,7695,2021-01-22 15:44:25.480,259.9965,5
7705,7705,2021-01-22 15:44:55.480,260.11127,5
7715,7715,2021-01-22 15:45:25.480,259.7857,5
7725,7725,2021-01-22 15:45:55.480,259.4557,5
7735,7735,2021-01-22 15:46:25.480,258.03027000000003,5
7745,7745,2021-01-22 15:46:55.480,246.85384,5
7755,7755,2021-01-22 15:47:25.480,241.93036,5
7765,7765,2021-01-22 15:47:55.480,236.55652,5
7775,7775,2021-01-22 15:48:25.480,232.01927,5
7785,7785,2021-01-22 15:48:55.480,227.55011000000002,5
7795,7795,2021-01-22 15:49:25.480,222.90987,5
7805,7805,2021-01-22 15:49:55.480,224.80548,5
7815,7815,2021-01-22 15:50:25.480,225.47374,5
7825,7825,2021-01-22 15:50:55.480,209.45842,5
7835,7835,2021-01-22 15:51:25.480,207.06166000000002,5
7845,7845,2021-01-22 15:51:55.480,202.9211,5
7855,7855,2021-01-22 15:52:25.480,199.97534,5
7865,7865,2021-01-22 15:52:55.480,195.90134,5
7875,7875,2021-01-22 15:53:25.480,192.09583,5
7885,7885,2021-01-22 15:53:55.480,190.36845,5
7895,7895,2021-01-22 15:54:25.480,188.87227,5
7905,7905,2021-01-22 15:54:55.480,181.64876999999998,5
7915,7915,2021-01-22 15:55:25.480,173.35995,5
7925,7925,2021-01-22 15:55:55.480,168.79233,5
7935,7935,2021-01-22 15:56:25.480,166.55896,5
7945,7945,2021-01-22 15:56:55.480,161.75404,5
7955,7955,2021-01-22 15:57:25.480,158.04008000000002,5
7965,7965,2021-01-22 15:57:55.480,154.78644,5
7975,7975,2021-01-22 15:58:25.480,141.12546,5
7985,7985,2021-01-22 15:58:55.480,139.52423000000002,5
7995,7995,2021-01-22 15:59:25.480,132.7865,5
8005,8005,2021-01-22 15:59:55.480,129.58646000000002,5
8015,8015,2021-01-22 16:00:25.480,123.88184,5
8025,8025,2021-01-22 16:00:55.480,114.02917,5
8035,8035,2021-01-22 16:01:25.480,98.03563,5
8045,8045,2021-01-22 16:01:55.480,89.23680999999999,5
8055,8055,2021-01-22 16:02:25.480,91.02960999999999,5
8065,8065,2021-01-22 16:02:55.480,93.991066,5
8075,8075,2021-01-22 16:03:25.480,92.69274,5
