,Unnamed: 0,time,prediction,step
24522,24522,2021-02-18 11:47:42.752,2604.2288,2
24532,24532,2021-02-18 11:48:12.752,1970.7653,2
24542,24542,2021-02-18 11:48:42.752,1908.6101,2
24552,24552,2021-02-18 11:49:12.752,1856.0525,2
24562,24562,2021-02-18 11:49:42.752,1897.7369,2
24572,24572,2021-02-18 11:50:12.752,1953.9814,2
24582,24582,2021-02-18 11:50:42.752,1987.3989,2
24592,24592,2021-02-18 11:51:12.752,2080.7107,2
24602,24602,2021-02-18 11:51:42.752,2077.4348,2
24612,24612,2021-02-18 11:52:12.752,2059.0474,2
24622,24622,2021-02-18 11:52:42.752,2005.0109,2
24632,24632,2021-02-18 11:53:12.752,1979.6779999999999,2
24642,24642,2021-02-18 11:53:42.752,1960.8766,2
24652,24652,2021-02-18 11:54:12.752,1936.9556,2
24662,24662,2021-02-18 11:54:42.752,1930.7253,2
24672,24672,2021-02-18 11:55:12.752,1942.5955,2
24682,24682,2021-02-18 11:55:42.752,1960.0286,2
24692,24692,2021-02-18 11:56:12.752,1991.2719,2
24702,24702,2021-02-18 11:56:42.752,1979.3188,2
24712,24712,2021-02-18 11:57:12.752,1945.1464,2
24722,24722,2021-02-18 11:57:42.752,1935.3938,2
24732,24732,2021-02-18 11:58:12.752,1898.3546,2
24742,24742,2021-02-18 11:58:42.752,1881.7583,2
24752,24752,2021-02-18 11:59:12.752,1875.3867,2
24762,24762,2021-02-18 11:59:42.752,1866.7401,2
24772,24772,2021-02-18 12:00:12.752,1866.0496,2
24782,24782,2021-02-18 12:00:42.752,1865.7758,2
24792,24792,2021-02-18 12:01:12.752,1860.7352,2
24802,24802,2021-02-18 12:01:42.752,1862.5681,2
24812,24812,2021-02-18 12:02:12.752,1511.496,2
24822,24822,2021-02-18 12:02:42.752,1504.3556,2
24832,24832,2021-02-18 12:03:12.752,1465.455,2
24842,24842,2021-02-18 12:03:42.752,1464.0125,2
24852,24852,2021-02-18 12:04:12.752,1459.2749,2
24862,24862,2021-02-18 12:04:42.752,1435.8641,2
24872,24872,2021-02-18 12:05:12.752,1432.1177,2
24882,24882,2021-02-18 12:05:42.752,1426.2947,2
24892,24892,2021-02-18 12:06:12.752,1421.4974,2
24902,24902,2021-02-18 12:06:42.752,1335.7153,2
24912,24912,2021-02-18 12:07:12.752,1319.7635,2
24922,24922,2021-02-18 12:07:42.752,1319.6666,2
24932,24932,2021-02-18 12:08:12.752,1298.5225,2
24942,24942,2021-02-18 12:08:42.752,1310.4589999999998,2
24952,24952,2021-02-18 12:09:12.752,1311.6251,2
24962,24962,2021-02-18 12:09:42.752,1306.8232,2
24972,24972,2021-02-18 12:10:12.752,1275.0607,2
24982,24982,2021-02-18 12:10:42.752,1266.5715,2
24992,24992,2021-02-18 12:11:12.752,1255.1871,2
25002,25002,2021-02-18 12:11:42.752,1246.2235,2
25012,25012,2021-02-18 12:12:12.752,1235.0188,2
25022,25022,2021-02-18 12:12:42.752,971.9458,2
25032,25032,2021-02-18 12:13:12.752,972.4342,2
25042,25042,2021-02-18 12:13:42.752,922.6588,2
25052,25052,2021-02-18 12:14:12.752,930.0433,2
25062,25062,2021-02-18 12:14:42.752,929.3705,2
25072,25072,2021-02-18 12:15:12.752,929.2286,2
25082,25082,2021-02-18 12:15:42.752,931.7769,2
25092,25092,2021-02-18 12:16:12.752,982.43744,2
25102,25102,2021-02-18 12:16:42.752,961.93365,2
25112,25112,2021-02-18 12:17:12.752,965.4432,2
25122,25122,2021-02-18 12:17:42.752,948.425,2
25132,25132,2021-02-18 12:18:12.752,943.6544,2
25142,25142,2021-02-18 12:18:42.752,801.2489,2
25152,25152,2021-02-18 12:19:12.752,757.37115,2
25162,25162,2021-02-18 12:19:42.752,760.6532,2
25172,25172,2021-02-18 12:20:12.752,765.6333599999999,2
25182,25182,2021-02-18 12:20:42.752,688.3172,2
25192,25192,2021-02-18 12:21:12.752,680.9856599999999,2
25202,25202,2021-02-18 12:21:42.752,655.2201,2
25212,25212,2021-02-18 12:22:12.752,702.3554,2
25222,25222,2021-02-18 12:22:42.752,710.3195,2
25232,25232,2021-02-18 12:23:12.752,708.7994,2
25242,25242,2021-02-18 12:23:42.752,591.9081,2
25252,25252,2021-02-18 12:24:12.752,587.2524400000001,2
25262,25262,2021-02-18 12:24:42.752,579.77423,2
25272,25272,2021-02-18 12:25:12.752,577.0064,2
25282,25282,2021-02-18 12:25:42.752,555.1345,2
25292,25292,2021-02-18 12:26:12.752,542.7847,2
25302,25302,2021-02-18 12:26:42.752,540.07465,2
25312,25312,2021-02-18 12:27:12.752,544.7712,2
25322,25322,2021-02-18 12:27:42.752,537.0155599999999,2
25332,25332,2021-02-18 12:28:12.752,537.2361,2
25342,25342,2021-02-18 12:28:42.752,505.17102,2
25352,25352,2021-02-18 12:29:12.752,491.09655999999995,2
25362,25362,2021-02-18 12:29:42.752,494.79467999999997,2
25372,25372,2021-02-18 12:30:12.752,450.60007,2
25382,25382,2021-02-18 12:30:42.752,436.26767,2
25392,25392,2021-02-18 12:31:12.752,433.38812,2
25402,25402,2021-02-18 12:31:42.752,385.35742,2
25412,25412,2021-02-18 12:32:12.752,376.53738,2
25422,25422,2021-02-18 12:32:42.752,342.0279,2
25432,25432,2021-02-18 12:33:12.752,334.6223,2
25442,25442,2021-02-18 12:33:42.752,311.84454,2
25452,25452,2021-02-18 12:34:12.752,309.6474,2
25462,25462,2021-02-18 12:34:42.752,299.65176,2
25472,25472,2021-02-18 12:35:12.752,267.4473,2
25482,25482,2021-02-18 12:35:42.752,265.34,2
25492,25492,2021-02-18 12:36:12.752,234.84047999999999,2
25502,25502,2021-02-18 12:36:42.752,230.39359,2
