,Unnamed: 0,time,prediction,step
6890,6890,2021-02-18 11:46:50.850,5.6125364,0
6900,6900,2021-02-18 11:47:20.850,5.86876,0
6910,6910,2021-02-18 11:47:50.850,6.0930919999999995,0
6920,6920,2021-02-18 11:48:20.850,6.2868705,0
6930,6930,2021-02-18 11:48:50.850,6.4500704,0
6940,6940,2021-02-18 11:49:20.850,6.581236,0
6950,6950,2021-02-18 11:49:50.850,6.677095,0
6960,6960,2021-02-18 11:50:20.850,6.83188,0
6970,6970,2021-02-18 11:50:50.850,6.971841,0
6980,6980,2021-02-18 11:51:20.850,7.097136999999999,0
6990,6990,2021-02-18 11:51:50.850,7.2076080000000005,0
7000,7000,2021-02-18 11:52:20.850,7.302777000000001,0
7010,7010,2021-02-18 11:52:50.850,7.3817639999999995,0
7020,7020,2021-02-18 11:53:20.850,7.443287,0
7030,7030,2021-02-18 11:53:50.850,7.485017299999999,0
7040,7040,2021-02-18 11:54:20.850,7.503581,0
7050,7050,2021-02-18 11:54:50.850,7.493479,0
7060,7060,2021-02-18 11:55:20.850,7.4448214,0
7070,7070,2021-02-18 11:55:50.850,7.492248,0
7080,7080,2021-02-18 11:56:20.850,7.5334406000000005,0
7090,7090,2021-02-18 11:56:50.850,7.5679240000000005,0
7100,7100,2021-02-18 11:57:20.850,7.595041,0
7110,7110,2021-02-18 11:57:50.850,7.613889,0
7120,7120,2021-02-18 11:58:20.850,7.6227465,0
7130,7130,2021-02-18 11:58:50.850,7.620492,0
7140,7140,2021-02-18 11:59:20.850,7.6043425000000004,0
7150,7150,2021-02-18 11:59:50.850,7.5695424,0
7160,7160,2021-02-18 12:00:20.850,7.5071735,0
7170,7170,2021-02-18 12:00:50.850,7.3946576,0
7180,7180,2021-02-18 12:01:20.850,7.526824,0
7190,7190,2021-02-18 12:01:50.850,7.7688026,0
7200,7200,2021-02-18 12:02:20.850,7.9606905,0
7210,7210,2021-02-18 12:02:50.850,8.125752,0
7220,7220,2021-02-18 12:03:20.850,8.272984,0
7230,7230,2021-02-18 12:03:50.850,8.406907,0
7240,7240,2021-02-18 12:04:20.850,8.530151,0
7250,7250,2021-02-18 12:04:50.850,8.644389,0
7260,7260,2021-02-18 12:05:20.850,8.7507515,0
7270,7270,2021-02-18 12:05:50.850,8.850036,0
7280,7280,2021-02-18 12:06:20.850,8.94282,0
7290,7290,2021-02-18 12:06:50.850,9.029517,0
7300,7300,2021-02-18 12:07:20.850,9.110425,0
7310,7310,2021-02-18 12:07:50.850,9.18574,0
7320,7320,2021-02-18 12:08:20.850,9.255574000000001,0
7330,7330,2021-02-18 12:08:50.850,9.31995,0
7340,7340,2021-02-18 12:09:20.850,9.378274000000001,0
7350,7350,2021-02-18 12:09:50.850,9.431027,0
7360,7360,2021-02-18 12:10:20.850,9.478036,0
7370,7370,2021-02-18 12:10:50.850,9.51897,0
7380,7380,2021-02-18 12:11:20.850,9.553291,0
7390,7390,2021-02-18 12:11:50.850,9.783402,0
7400,7400,2021-02-18 12:12:20.850,9.9817295,0
7410,7410,2021-02-18 12:12:50.850,10.154672,0
7420,7420,2021-02-18 12:13:20.850,10.305844,0
7430,7430,2021-02-18 12:13:50.850,10.436755999999999,0
7440,7440,2021-02-18 12:14:20.850,10.547597,0
7450,7450,2021-02-18 12:14:50.850,10.63745,0
7460,7460,2021-02-18 12:15:20.850,10.704419,0
7470,7470,2021-02-18 12:15:50.850,10.744002,0
7480,7480,2021-02-18 12:16:20.850,10.843548,0
7490,7490,2021-02-18 12:16:50.850,10.936513,0
7500,7500,2021-02-18 12:17:20.850,11.023304,0
7510,7510,2021-02-18 12:17:50.850,11.336406,0
7520,7520,2021-02-18 12:18:20.850,11.610762,0
7530,7530,2021-02-18 12:18:50.850,11.856305,0
7540,7540,2021-02-18 12:19:20.850,12.078591000000001,0
7550,7550,2021-02-18 12:19:50.850,12.281193,0
7560,7560,2021-02-18 12:20:20.850,12.466688000000001,0
7570,7570,2021-02-18 12:20:50.850,12.636242999999999,0
7580,7580,2021-02-18 12:21:20.850,12.790823,0
7590,7590,2021-02-18 12:21:50.850,12.930978999999999,0
7600,7600,2021-02-18 12:22:20.850,13.056878999999999,0
7610,7610,2021-02-18 12:22:50.850,13.376418,0
7620,7620,2021-02-18 12:23:20.850,13.660123,0
7630,7630,2021-02-18 12:23:50.850,13.912445000000002,0
7640,7640,2021-02-18 12:24:20.850,14.135741000000001,0
7650,7650,2021-02-18 12:24:50.850,14.330915,0
7660,7660,2021-02-18 12:25:20.850,14.497770999999998,0
7670,7670,2021-02-18 12:25:50.850,14.634955999999999,0
7680,7680,2021-02-18 12:26:20.850,14.739641,0
7690,7690,2021-02-18 12:26:50.850,14.893885000000001,0
7700,7700,2021-02-18 12:27:20.850,15.034451,0
7710,7710,2021-02-18 12:27:50.850,15.161466,0
7720,7720,2021-02-18 12:28:20.850,15.274787,0
7730,7730,2021-02-18 12:28:50.850,15.373973000000001,0
7740,7740,2021-02-18 12:29:20.850,15.458245999999999,0
7750,7750,2021-02-18 12:29:50.850,15.52639,0
7760,7760,2021-02-18 12:30:20.850,15.576620000000002,0
7770,7770,2021-02-18 12:30:50.850,15.606212,0
7780,7780,2021-02-18 12:31:20.850,15.610967,0
7790,7790,2021-02-18 12:31:50.850,15.583919,0
7800,7800,2021-02-18 12:32:20.850,15.512069,0
7810,7810,2021-02-18 12:32:50.850,15.546311,0
7820,7820,2021-02-18 12:33:20.850,15.573293,0
7830,7830,2021-02-18 12:33:50.850,15.5921755,0
7840,7840,2021-02-18 12:34:20.850,15.601780999999999,0
7850,7850,2021-02-18 12:34:50.850,15.600385999999999,0
