,Unnamed: 0,time,prediction,step
7,7,2021-02-15 08:57:53.360,17.276634,7
17,17,2021-02-15 08:58:23.360,29.693635999999998,7
27,27,2021-02-15 08:58:53.360,30.053584999999998,7
37,37,2021-02-15 08:59:23.360,29.532095,7
47,47,2021-02-15 08:59:53.360,29.379993,7
57,57,2021-02-15 09:00:23.360,29.309744,7
67,67,2021-02-15 09:00:53.360,29.490790000000004,7
77,77,2021-02-15 09:01:23.360,29.550663,7
87,87,2021-02-15 09:01:53.360,29.858953000000003,7
97,97,2021-02-15 09:02:23.360,30.053125,7
107,107,2021-02-15 09:02:53.360,30.333471000000003,7
117,117,2021-02-15 09:03:23.360,30.694643,7
127,127,2021-02-15 09:03:53.360,31.283012,7
137,137,2021-02-15 09:04:23.360,31.782806,7
147,147,2021-02-15 09:04:53.360,32.185543,7
157,157,2021-02-15 09:05:23.360,32.79735,7
167,167,2021-02-15 09:05:53.360,33.33021,7
177,177,2021-02-15 09:06:23.360,33.94762,7
187,187,2021-02-15 09:06:53.360,34.466995000000004,7
197,197,2021-02-15 09:07:23.360,35.001434,7
207,207,2021-02-15 09:07:53.360,35.628242,7
217,217,2021-02-15 09:08:23.360,36.16335,7
227,227,2021-02-15 09:08:53.360,36.607273,7
237,237,2021-02-15 09:09:23.360,37.074627,7
247,247,2021-02-15 09:09:53.360,37.491764,7
257,257,2021-02-15 09:10:23.360,37.940709999999996,7
267,267,2021-02-15 09:10:53.360,38.29931,7
277,277,2021-02-15 09:11:23.360,38.864136,7
287,287,2021-02-15 09:11:53.360,39.331203,7
297,297,2021-02-15 09:12:23.360,39.801429999999996,7
307,307,2021-02-15 09:12:53.360,40.333378,7
317,317,2021-02-15 09:13:23.360,41.08449,7
327,327,2021-02-15 09:13:53.360,41.820988,7
337,337,2021-02-15 09:14:23.360,42.4228,7
347,347,2021-02-15 09:14:53.360,43.240437,7
357,357,2021-02-15 09:15:23.360,43.892094,7
367,367,2021-02-15 09:15:53.360,44.90728,7
377,377,2021-02-15 09:16:23.360,45.737965,7
387,387,2021-02-15 09:16:53.360,46.91202,7
397,397,2021-02-15 09:17:23.360,47.91791,7
407,407,2021-02-15 09:17:53.360,48.73469,7
417,417,2021-02-15 09:18:23.360,50.068709999999996,7
427,427,2021-02-15 09:18:53.360,51.15337,7
437,437,2021-02-15 09:19:23.360,52.608074,7
447,447,2021-02-15 09:19:53.360,53.855323999999996,7
457,457,2021-02-15 09:20:23.360,55.03791999999999,7
467,467,2021-02-15 09:20:53.360,56.058464,7
477,477,2021-02-15 09:21:23.360,57.01651,7
487,487,2021-02-15 09:21:53.360,58.309493999999994,7
497,497,2021-02-15 09:22:23.360,59.39301700000001,7
507,507,2021-02-15 09:22:53.360,61.03903199999999,7
517,517,2021-02-15 09:23:23.360,62.522633,7
527,527,2021-02-15 09:23:53.360,64.48036,7
537,537,2021-02-15 09:24:23.360,66.087166,7
547,547,2021-02-15 09:24:53.360,67.63065,7
557,557,2021-02-15 09:25:23.360,69.73694,7
567,567,2021-02-15 09:25:53.360,71.46419,7
577,577,2021-02-15 09:26:23.360,74.32368000000001,7
587,587,2021-02-15 09:26:53.360,76.737465,7
597,597,2021-02-15 09:27:23.360,79.00343000000001,7
607,607,2021-02-15 09:27:53.360,82.15401,7
617,617,2021-02-15 09:28:23.360,85.16951999999999,7
627,627,2021-02-15 09:28:53.360,89.29851,7
637,637,2021-02-15 09:29:23.360,92.84268,7
647,647,2021-02-15 09:29:53.360,96.28139,7
657,657,2021-02-15 09:30:23.360,101.29278000000001,7
667,667,2021-02-15 09:30:53.360,106.008095,7
677,677,2021-02-15 09:31:23.360,112.87526000000001,7
687,687,2021-02-15 09:31:53.360,119.25996,7
697,697,2021-02-15 09:32:23.360,124.99049,7
707,707,2021-02-15 09:32:53.360,133.37703,7
717,717,2021-02-15 09:33:23.360,141.4534,7
727,727,2021-02-15 09:33:53.360,148.64182,7
737,737,2021-02-15 09:34:23.360,160.1738,7
747,747,2021-02-15 09:34:53.360,170.91429,7
757,757,2021-02-15 09:35:23.360,188.13991000000001,7
767,767,2021-02-15 09:35:53.360,203.64351000000002,7
777,777,2021-02-15 09:36:23.360,218.26608,7
787,787,2021-02-15 09:36:53.360,244.37053999999998,7
797,797,2021-02-15 09:37:23.360,269.14902,7
807,807,2021-02-15 09:37:53.360,317.84882000000005,7
817,817,2021-02-15 09:38:23.360,365.08112,7
827,827,2021-02-15 09:38:53.360,413.82187000000005,7
837,837,2021-02-15 09:39:23.360,529.6715,7
847,847,2021-02-15 09:39:53.360,653.80176,7
857,857,2021-02-15 09:40:23.360,783.53827,7
867,867,2021-02-15 09:40:53.360,913.0632,7
877,877,2021-02-15 09:41:23.360,1052.5236,7
887,887,2021-02-15 09:41:53.360,1189.0616,7
897,897,2021-02-15 09:42:23.360,1319.3042,7
907,907,2021-02-15 09:42:53.360,152.74985,7
917,917,2021-02-15 09:43:23.360,134.28304,7
927,927,2021-02-15 09:43:53.360,127.57673999999999,7
937,937,2021-02-15 09:44:23.360,99.2814,7
947,947,2021-02-15 09:44:53.360,76.27651999999999,7
957,957,2021-02-15 09:45:23.360,76.87595999999999,7
967,967,2021-02-15 09:45:53.360,78.77658000000001,7
977,977,2021-02-15 09:46:23.360,81.782715,7
987,987,2021-02-15 09:46:53.360,84.07931500000001,7
997,997,2021-02-15 09:47:23.360,86.79739000000001,7
1007,1007,2021-02-15 09:47:53.360,86.19253,7
1017,1017,2021-02-15 09:48:23.360,85.613716,7
1027,1027,2021-02-15 09:48:53.360,83.3261,7
1037,1037,2021-02-15 09:49:23.360,79.678986,7
1047,1047,2021-02-15 09:49:53.360,76.287315,7
1057,1057,2021-02-15 09:50:23.360,70.52484,7
1067,1067,2021-02-15 09:50:53.360,65.458145,7
1077,1077,2021-02-15 09:51:23.360,60.03688399999999,7
1087,1087,2021-02-15 09:51:53.360,54.597137,7
1097,1097,2021-02-15 09:52:23.360,49.92026,7
1107,1107,2021-02-15 09:52:53.360,45.051697,7
1117,1117,2021-02-15 09:53:23.360,40.994106,7
1127,1127,2021-02-15 09:53:53.360,37.21382,7
1137,1137,2021-02-15 09:54:23.360,35.151546,7
1147,1147,2021-02-15 09:54:53.360,33.68181,7
1157,1157,2021-02-15 09:55:23.360,32.54055,7
1167,1167,2021-02-15 09:55:53.360,32.072914000000004,7
1177,1177,2021-02-15 09:56:23.360,32.03886,7
1187,1187,2021-02-15 09:56:53.360,32.853462,7
1197,1197,2021-02-15 09:57:23.360,34.61743,7
1207,1207,2021-02-15 09:57:53.360,34.15099,7
1217,1217,2021-02-15 09:58:23.360,34.103848,7
1227,1227,2021-02-15 09:58:53.360,34.874454,7
1237,1237,2021-02-15 09:59:23.360,34.55533,7
1247,1247,2021-02-15 09:59:53.360,34.53882,7
1257,1257,2021-02-15 10:00:23.360,33.87533,7
1267,1267,2021-02-15 10:00:53.360,33.347297999999995,7
1277,1277,2021-02-15 10:01:23.360,33.314762,7
1287,1287,2021-02-15 10:01:53.360,32.647316,7
1297,1297,2021-02-15 10:02:23.360,32.377518,7
1307,1307,2021-02-15 10:02:53.360,31.726032,7
1317,1317,2021-02-15 10:03:23.360,31.179165,7
1327,1327,2021-02-15 10:03:53.360,30.455941999999997,7
1337,1337,2021-02-15 10:04:23.360,29.996244,7
1347,1347,2021-02-15 10:04:53.360,29.603742999999998,7
1357,1357,2021-02-15 10:05:23.360,29.05203,7
1367,1367,2021-02-15 10:05:53.360,28.629864,7
1377,1377,2021-02-15 10:06:23.360,28.116415000000003,7
1387,1387,2021-02-15 10:06:53.360,27.585793,7
1397,1397,2021-02-15 10:07:23.360,27.285486,7
1407,1407,2021-02-15 10:07:53.360,26.63839,7
1417,1417,2021-02-15 10:08:23.360,26.197737,7
1427,1427,2021-02-15 10:08:53.360,25.610092,7
1437,1437,2021-02-15 10:09:23.360,25.205560000000002,7
1447,1447,2021-02-15 10:09:53.360,24.827162,7
1457,1457,2021-02-15 10:10:23.360,24.428123,7
1467,1467,2021-02-15 10:10:53.360,24.195375,7
1477,1477,2021-02-15 10:11:23.360,23.790693,7
1487,1487,2021-02-15 10:11:53.360,23.367102,7
1497,1497,2021-02-15 10:12:23.360,22.923002,7
1507,1507,2021-02-15 10:12:53.360,22.481638,7
1517,1517,2021-02-15 10:13:23.360,22.049301,7
1527,1527,2021-02-15 10:13:53.360,21.609432,7
1537,1537,2021-02-15 10:14:23.360,21.29885,7
1547,1547,2021-02-15 10:14:53.360,20.976536,7
1557,1557,2021-02-15 10:15:23.360,20.762348,7
1567,1567,2021-02-15 10:15:53.360,20.400532000000002,7
1577,1577,2021-02-15 10:16:23.360,20.138664000000002,7
1587,1587,2021-02-15 10:16:53.360,19.88193,7
1597,1597,2021-02-15 10:17:23.360,19.711660000000002,7
1607,1607,2021-02-15 10:17:53.360,19.468723,7
1617,1617,2021-02-15 10:18:23.360,19.094858,7
1627,1627,2021-02-15 10:18:53.360,18.81232,7
1637,1637,2021-02-15 10:19:23.360,18.488277,7
1647,1647,2021-02-15 10:19:53.360,18.163172,7
1657,1657,2021-02-15 10:20:23.360,17.925342999999998,7
1667,1667,2021-02-15 10:20:53.360,17.72036,7
1677,1677,2021-02-15 10:21:23.360,17.597227,7
1687,1687,2021-02-15 10:21:53.360,17.31737,7
1697,1697,2021-02-15 10:22:23.360,17.1166,7
1707,1707,2021-02-15 10:22:53.360,16.884172,7
1717,1717,2021-02-15 10:23:23.360,16.582314,7
1727,1727,2021-02-15 10:23:53.360,16.30346,7
1737,1737,2021-02-15 10:24:23.360,16.08906,7
1747,1747,2021-02-15 10:24:53.360,15.885607,7
1757,1757,2021-02-15 10:25:23.360,15.608154,7
1767,1767,2021-02-15 10:25:53.360,15.400060999999999,7
1777,1777,2021-02-15 10:26:23.360,15.202585000000001,7
1787,1787,2021-02-15 10:26:53.360,15.010292000000002,7
1797,1797,2021-02-15 10:27:23.360,14.867915,7
1807,1807,2021-02-15 10:27:53.360,14.596851999999998,7
1817,1817,2021-02-15 10:28:23.360,14.381266,7
1827,1827,2021-02-15 10:28:53.360,14.027107999999998,7
1837,1837,2021-02-15 10:29:23.360,13.735620999999998,7
1847,1847,2021-02-15 10:29:53.360,13.50085,7
1857,1857,2021-02-15 10:30:23.360,13.319982999999999,7
1867,1867,2021-02-15 10:30:53.360,13.139351999999999,7
1877,1877,2021-02-15 10:31:23.360,13.002702000000001,7
1887,1887,2021-02-15 10:31:53.360,12.781630499999999,7
1897,1897,2021-02-15 10:32:23.360,12.619906,7
1907,1907,2021-02-15 10:32:53.360,12.455474,7
1917,1917,2021-02-15 10:33:23.360,12.285214999999999,7
1927,1927,2021-02-15 10:33:53.360,12.154148,7
1937,1937,2021-02-15 10:34:23.360,12.012006,7
1947,1947,2021-02-15 10:34:53.360,11.900111,7
1957,1957,2021-02-15 10:35:23.360,11.697171,7
1967,1967,2021-02-15 10:35:53.360,11.538341,7
1977,1977,2021-02-15 10:36:23.360,11.422905,7
1987,1987,2021-02-15 10:36:53.360,11.292055,7
1997,1997,2021-02-15 10:37:23.360,11.056747999999999,7
2007,2007,2021-02-15 10:37:53.360,10.871275,7
2017,2017,2021-02-15 10:38:23.360,10.67796,7
2027,2027,2021-02-15 10:38:53.360,10.52139,7
2037,2037,2021-02-15 10:39:23.360,10.40023,7
2047,2047,2021-02-15 10:39:53.360,10.314741999999999,7
2057,2057,2021-02-15 10:40:23.360,10.207939,7
2067,2067,2021-02-15 10:40:53.360,10.127858,7
2077,2077,2021-02-15 10:41:23.360,10.075617999999999,7
2087,2087,2021-02-15 10:41:53.360,10.053672,7
2097,2097,2021-02-15 10:42:23.360,9.940177,7
2107,2107,2021-02-15 10:42:53.360,9.800811999999999,7
2117,2117,2021-02-15 10:43:23.360,9.694999000000001,7
2127,2127,2021-02-15 10:43:53.360,9.564423,7
2137,2137,2021-02-15 10:44:23.360,9.456744,7
2147,2147,2021-02-15 10:44:53.360,9.371394,7
2157,2157,2021-02-15 10:45:23.360,9.308627,7
2167,2167,2021-02-15 10:45:53.360,9.269608,7
2177,2177,2021-02-15 10:46:23.360,9.12014,7
2187,2187,2021-02-15 10:46:53.360,8.9482,7
2197,2197,2021-02-15 10:47:23.360,8.804624,7
2207,2207,2021-02-15 10:47:53.360,8.687028999999999,7
2217,2217,2021-02-15 10:48:23.360,8.5942955,7
2227,2227,2021-02-15 10:48:53.360,8.368226,7
2237,2237,2021-02-15 10:49:23.360,8.187078,7
2247,2247,2021-02-15 10:49:53.360,8.045785,7
2257,2257,2021-02-15 10:50:23.360,7.883402,7
2267,2267,2021-02-15 10:50:53.360,7.7480839999999995,7
2277,2277,2021-02-15 10:51:23.360,7.6377524999999995,7
2287,2287,2021-02-15 10:51:53.360,7.551457400000001,7
2297,2297,2021-02-15 10:52:23.360,7.442740400000001,7
2307,2307,2021-02-15 10:52:53.360,7.3490324000000005,7
2317,2317,2021-02-15 10:53:23.360,7.2696323000000005,7
2327,2327,2021-02-15 10:53:53.360,7.204174000000001,7
2337,2337,2021-02-15 10:54:23.360,7.152684,7
2347,2347,2021-02-15 10:54:53.360,6.9902444,7
2357,2357,2021-02-15 10:55:23.360,6.8569016000000005,7
2367,2367,2021-02-15 10:55:53.360,6.750175,7
2377,2377,2021-02-15 10:56:23.360,6.6690083,7
2387,2387,2021-02-15 10:56:53.360,6.613658,7
2397,2397,2021-02-15 10:57:23.360,6.5259356,7
2407,2407,2021-02-15 10:57:53.360,6.4541892999999995,7
2417,2417,2021-02-15 10:58:23.360,6.398233,7
2427,2427,2021-02-15 10:58:53.360,6.358423,7
2437,2437,2021-02-15 10:59:23.360,6.3357425,7
2447,2447,2021-02-15 10:59:53.360,6.3320513,7
2457,2457,2021-02-15 11:00:23.360,6.350554499999999,7
2467,2467,2021-02-15 11:00:53.360,6.396838,7
2477,2477,2021-02-15 11:01:23.360,6.240787,7
2487,2487,2021-02-15 11:01:53.360,6.1135297,7
2497,2497,2021-02-15 11:02:23.360,6.0111957,7
2507,2507,2021-02-15 11:02:53.360,5.931797,7
2517,2517,2021-02-15 11:03:23.360,5.8747983,7
2527,2527,2021-02-15 11:03:53.360,5.781381,7
2537,2537,2021-02-15 11:04:23.360,5.700162000000001,7
2547,2547,2021-02-15 11:04:53.360,5.6301120000000004,7
2557,2557,2021-02-15 11:05:23.360,5.570574,7
2567,2567,2021-02-15 11:05:53.360,5.5211782,7
2577,2577,2021-02-15 11:06:23.360,5.4818487000000005,7
2587,2587,2021-02-15 11:06:53.360,5.452795,7
2597,2597,2021-02-15 11:07:23.360,5.434563,7
2607,2607,2021-02-15 11:07:53.360,5.280599,7
2617,2617,2021-02-15 11:08:23.360,5.156776,7
2627,2627,2021-02-15 11:08:53.360,5.058849299999999,7
2637,2637,2021-02-15 11:09:23.360,4.984746,7
2647,2647,2021-02-15 11:09:53.360,4.8789815999999995,7
2657,2657,2021-02-15 11:10:23.360,4.786994,7
2667,2667,2021-02-15 11:10:53.360,4.7071760000000005,7
2677,2677,2021-02-15 11:11:23.360,4.6384305999999995,7
2687,2687,2021-02-15 11:11:53.360,4.5800514,7
2697,2697,2021-02-15 11:12:23.360,4.5316224,7
2707,2707,2021-02-15 11:12:53.360,4.4930167,7
2717,2717,2021-02-15 11:13:23.360,4.464394,7
2727,2727,2021-02-15 11:13:53.360,4.44624,7
2737,2737,2021-02-15 11:14:23.360,4.4394602999999995,7
2747,2747,2021-02-15 11:14:53.360,4.445574,7
2757,2757,2021-02-15 11:15:23.360,4.467089700000001,7
2767,2767,2021-02-15 11:15:53.360,4.351099,7
2777,2777,2021-02-15 11:16:23.360,4.3355107,7
2787,2787,2021-02-15 11:16:53.360,4.3233175,7
2797,2797,2021-02-15 11:17:23.360,4.186408999999999,7
2807,2807,2021-02-15 11:17:53.360,4.0714809999999995,7
2817,2817,2021-02-15 11:18:23.360,3.9742187999999996,7
2827,2827,2021-02-15 11:18:53.360,3.8919392,7
2837,2837,2021-02-15 11:19:23.360,3.8229537000000002,7
2847,2847,2021-02-15 11:19:53.360,3.7662454,7
2857,2857,2021-02-15 11:20:23.360,3.7213101,7
2867,2867,2021-02-15 11:20:53.360,3.6881127,7
2877,2877,2021-02-15 11:21:23.360,3.6671169999999997,7
2887,2887,2021-02-15 11:21:53.360,3.6594281000000004,7
2897,2897,2021-02-15 11:22:23.360,3.6671242999999993,7
2907,2907,2021-02-15 11:22:53.360,3.629292,7
2917,2917,2021-02-15 11:23:23.360,3.5955906000000004,7
2927,2927,2021-02-15 11:23:53.360,3.5658574,7
2937,2937,2021-02-15 11:24:23.360,3.5399928,7
2947,2947,2021-02-15 11:24:53.360,3.5179605000000005,7
2957,2957,2021-02-15 11:25:23.360,3.3435125,7
2967,2967,2021-02-15 11:25:53.360,3.2014055,7
2977,2977,2021-02-15 11:26:23.360,3.0826845,7
2987,2987,2021-02-15 11:26:53.360,2.9822889999999997,7
2997,2997,2021-02-15 11:27:23.360,2.8970884999999997,7
3007,3007,2021-02-15 11:27:53.360,2.8250610000000003,7
3017,3017,2021-02-15 11:28:23.360,2.7648878,7
3027,3027,2021-02-15 11:28:53.360,2.715778,7
3037,3037,2021-02-15 11:29:23.360,2.6773708,7
3047,3047,2021-02-15 11:29:53.360,2.6497095,7
3057,3057,2021-02-15 11:30:23.360,2.6332984,7
3067,3067,2021-02-15 11:30:53.360,2.5901718,7
3077,3077,2021-02-15 11:31:23.360,2.5913155,7
3087,3087,2021-02-15 11:31:53.360,2.6072368999999997,7
3097,3097,2021-02-15 11:32:23.360,2.5787256000000003,7
3107,3107,2021-02-15 11:32:53.360,2.5539656,7
3117,3117,2021-02-15 11:33:23.360,2.5329017999999994,7
3127,3127,2021-02-15 11:33:53.360,2.5155432,7
3137,3137,2021-02-15 11:34:23.360,2.5019605,7
3147,3147,2021-02-15 11:34:53.360,2.4923024,7
3157,3157,2021-02-15 11:35:23.360,2.4867907000000002,7
3167,3167,2021-02-15 11:35:53.360,2.4857774,7
3177,3177,2021-02-15 11:36:23.360,2.4897737999999996,7
3187,3187,2021-02-15 11:36:53.360,2.4995246,7
3197,3197,2021-02-15 11:37:23.360,2.3574748,7
3207,3207,2021-02-15 11:37:53.360,2.2466218,7
3217,3217,2021-02-15 11:38:23.360,2.1588159,7
3227,3227,2021-02-15 11:38:53.360,2.0898159,7
3237,3237,2021-02-15 11:39:23.360,2.0374267,7
3247,3247,2021-02-15 11:39:53.360,2.0008310000000002,7
3257,3257,2021-02-15 11:40:23.360,1.9332697,7
3267,3267,2021-02-15 11:40:53.360,1.8733122,7
3277,3277,2021-02-15 11:41:23.360,1.8197985,7
3287,3287,2021-02-15 11:41:53.360,1.7718883,7
3297,3297,2021-02-15 11:42:23.360,1.7289564999999998,7
3307,3307,2021-02-15 11:42:53.360,1.6905322,7
3317,3317,2021-02-15 11:43:23.360,1.6562583,7
3327,3327,2021-02-15 11:43:53.360,1.6258681000000001,7
3337,3337,2021-02-15 11:44:23.360,1.5991688,7
3347,3347,2021-02-15 11:44:53.360,1.5760322,7
3357,3357,2021-02-15 11:45:23.360,1.5563889,7
3367,3367,2021-02-15 11:45:53.360,1.5402277,7
3377,3377,2021-02-15 11:46:23.360,1.5275998,7
3387,3387,2021-02-15 11:46:53.360,1.5186309999999998,7
3397,3397,2021-02-15 11:47:23.360,1.5135216999999999,7
3407,3407,2021-02-15 11:47:53.360,1.5125892,7
3417,3417,2021-02-15 11:48:23.360,1.5163093,7
3427,3427,2021-02-15 11:48:53.360,1.5253775,7
3437,3437,2021-02-15 11:49:23.360,1.3737965,7
3447,3447,2021-02-15 11:49:53.360,1.2584186000000002,7
3457,3457,2021-02-15 11:50:23.360,1.1679971000000002,7
3467,3467,2021-02-15 11:50:53.360,1.0968142,7
3477,3477,2021-02-15 11:51:23.360,1.0417366,7
3487,3487,2021-02-15 11:51:53.360,1.001158,7
3497,3497,2021-02-15 11:52:23.360,0.9379841999999998,7
3507,3507,2021-02-15 11:52:53.360,0.88241625,7
3517,3517,2021-02-15 11:53:23.360,0.8332181000000001,7
3527,3527,2021-02-15 11:53:53.360,0.7894933000000001,7
3537,3537,2021-02-15 11:54:23.360,0.7505729,7
3547,3547,2021-02-15 11:54:53.360,0.7159493,7
3557,3557,2021-02-15 11:55:23.360,0.685235,7
3567,3567,2021-02-15 11:55:53.360,0.6581354,7
3577,3577,2021-02-15 11:56:23.360,0.63443184,7
3587,3587,2021-02-15 11:56:53.360,0.6139703000000001,7
