name,time,countryCode,ipAddress,level,producer,value
MinimumCoresContext,2020-11-30T12:14:53.705Z,IN,3.7.249.118,3,3.7.249.118,1
MinimumCoresContext,2020-11-30T12:15:18.705Z,IN,3.7.249.118,3,3.7.249.118,1
MinimumCoresContext,2020-11-30T12:15:48.705Z,IN,3.7.249.118,3,3.7.249.118,1
MinimumCoresContext,2020-11-30T12:16:18.705Z,IN,3.7.249.118,3,3.7.249.118,1
MinimumCoresContext,2020-11-30T12:16:48.705Z,IN,3.7.249.118,3,3.7.249.118,1
MinimumCoresContext,2020-11-30T12:17:18.705Z,IN,3.7.249.118,3,3.7.249.118,1
MinimumCoresContext,2020-11-30T12:17:48.705Z,IN,3.7.249.118,3,3.7.249.118,1
MinimumCoresContext,2020-11-30T12:18:18.705Z,IN,3.7.249.118,3,3.7.249.118,1
MinimumCoresContext,2020-11-30T12:18:48.705Z,IN,3.7.249.118,3,3.7.249.118,1
MinimumCoresContext,2020-11-30T12:19:18.705Z,IN,3.7.249.118,3,3.7.249.118,1
MinimumCoresContext,2020-11-30T12:19:48.705Z,IN,3.7.249.118,3,3.7.249.118,1
MinimumCoresContext,2020-11-30T12:20:18.705Z,IN,3.7.249.118,3,3.7.249.118,1
MinimumCoresContext,2020-11-30T12:20:48.705Z,IN,3.7.249.118,3,3.7.249.118,1
MinimumCoresContext,2020-11-30T12:21:18.705Z,IN,3.7.249.118,3,3.7.249.118,1
MinimumCoresContext,2020-11-30T12:21:48.705Z,IN,3.7.249.118,3,3.7.249.118,1
MinimumCoresContext,2020-11-30T12:22:18.705Z,IN,3.7.249.118,3,3.7.249.118,1
MinimumCoresContext,2020-11-30T12:22:48.705Z,IN,3.7.249.118,3,3.7.249.118,1
MinimumCoresContext,2020-11-30T12:23:18.705Z,IN,3.7.249.118,3,3.7.249.118,1
MinimumCoresContext,2020-11-30T12:23:48.705Z,IN,3.7.249.118,3,3.7.249.118,1
MinimumCoresContext,2020-11-30T12:24:18.705Z,IN,3.7.249.118,3,3.7.249.118,1
MinimumCoresContext,2020-11-30T12:24:48.705Z,IN,3.7.249.118,3,3.7.249.118,1
MinimumCoresContext,2020-11-30T12:25:18.705Z,IN,3.7.249.118,3,3.7.249.118,1
MinimumCoresContext,2020-11-30T12:25:48.705Z,IN,3.7.249.118,3,3.7.249.118,1
MinimumCoresContext,2020-11-30T12:26:18.705Z,IN,3.7.249.118,3,3.7.249.118,1
MinimumCoresContext,2020-11-30T12:26:48.705Z,IN,3.7.249.118,3,3.7.249.118,1
MinimumCoresContext,2020-11-30T12:27:18.705Z,IN,3.7.249.118,3,3.7.249.118,1
MinimumCoresContext,2020-11-30T12:27:48.705Z,IN,3.7.249.118,3,3.7.249.118,1
MinimumCoresContext,2020-11-30T12:28:18.705Z,IN,3.7.249.118,3,3.7.249.118,1
MinimumCoresContext,2020-11-30T12:28:48.705Z,IN,3.7.249.118,3,3.7.249.118,1
MinimumCoresContext,2020-11-30T12:29:18.705Z,IN,3.7.249.118,3,3.7.249.118,1
MinimumCoresContext,2020-11-30T12:29:48.705Z,IN,3.7.249.118,3,3.7.249.118,1
MinimumCoresContext,2020-11-30T12:30:18.705Z,IN,3.7.249.118,3,3.7.249.118,1
MinimumCoresContext,2020-11-30T12:30:48.705Z,IN,3.7.249.118,3,3.7.249.118,1
MinimumCoresContext,2020-11-30T12:31:18.705Z,IN,3.7.249.118,3,3.7.249.118,1
MinimumCoresContext,2020-11-30T12:31:48.705Z,IN,3.7.249.118,3,3.7.249.118,1
MinimumCoresContext,2020-11-30T12:32:18.705Z,IN,3.7.249.118,3,3.7.249.118,1
MinimumCoresContext,2020-11-30T12:32:48.705Z,IN,3.7.249.118,3,3.7.249.118,1
MinimumCoresContext,2020-11-30T12:33:18.705Z,IN,3.7.249.118,3,3.7.249.118,1
MinimumCoresContext,2020-11-30T12:33:48.705Z,IN,3.7.249.118,3,3.7.249.118,1
MinimumCoresContext,2020-11-30T12:34:18.705Z,IN,3.7.249.118,3,3.7.249.118,1
MinimumCoresContext,2020-11-30T12:34:48.705Z,IN,3.7.249.118,3,3.7.249.118,1
MinimumCoresContext,2020-11-30T12:35:18.705Z,IN,3.7.249.118,3,3.7.249.118,1
MinimumCoresContext,2020-11-30T12:35:48.705Z,IN,3.7.249.118,3,3.7.249.118,1
MinimumCoresContext,2020-11-30T12:36:18.705Z,IN,3.7.249.118,3,3.7.249.118,1
MinimumCoresContext,2020-11-30T12:36:48.705Z,IN,3.7.249.118,3,3.7.249.118,1
MinimumCoresContext,2020-11-30T12:37:18.705Z,IN,3.7.249.118,3,3.7.249.118,1
MinimumCoresContext,2020-11-30T12:37:48.705Z,IN,3.7.249.118,3,3.7.249.118,1
MinimumCoresContext,2020-11-30T12:38:18.705Z,IN,3.7.249.118,3,3.7.249.118,1
MinimumCoresContext,2020-11-30T12:38:48.705Z,IN,3.7.249.118,3,3.7.249.118,1
MinimumCoresContext,2020-11-30T12:39:18.705Z,IN,3.7.249.118,3,3.7.249.118,1
MinimumCoresContext,2020-11-30T12:39:48.705Z,IN,3.7.249.118,3,3.7.249.118,1
MinimumCoresContext,2020-11-30T12:40:18.705Z,IN,3.7.249.118,3,3.7.249.118,1
MinimumCoresContext,2020-11-30T12:40:48.705Z,IN,3.7.249.118,3,3.7.249.118,1
MinimumCoresContext,2020-11-30T12:41:18.705Z,IN,3.7.249.118,3,3.7.249.118,1
MinimumCoresContext,2020-11-30T12:41:48.705Z,IN,3.7.249.118,3,3.7.249.118,1
MinimumCoresContext,2020-11-30T12:42:18.705Z,IN,3.7.249.118,3,3.7.249.118,1
MinimumCoresContext,2020-11-30T12:42:48.705Z,IN,3.7.249.118,3,3.7.249.118,1
MinimumCoresContext,2020-11-30T12:43:18.705Z,IN,3.7.249.118,3,3.7.249.118,1
MinimumCoresContext,2020-11-30T12:43:48.705Z,IN,3.7.249.118,3,3.7.249.118,1
MinimumCoresContext,2020-11-30T12:44:18.705Z,IN,3.7.249.118,3,3.7.249.118,1
MinimumCoresContext,2020-11-30T12:44:48.705Z,IN,3.7.249.118,3,3.7.249.118,1
MinimumCoresContext,2020-11-30T12:45:18.705Z,IN,3.7.249.118,3,3.7.249.118,1
MinimumCoresContext,2020-11-30T12:45:48.705Z,IN,3.7.249.118,3,3.7.249.118,1
MinimumCoresContext,2020-11-30T12:46:18.705Z,IN,3.7.249.118,3,3.7.249.118,1
MinimumCoresContext,2020-11-30T12:46:48.705Z,IN,3.7.249.118,3,3.7.249.118,1
MinimumCoresContext,2020-11-30T12:47:18.705Z,IN,3.7.249.118,3,3.7.249.118,1
MinimumCoresContext,2020-11-30T12:47:48.705Z,IN,3.7.249.118,3,3.7.249.118,1
MinimumCoresContext,2020-11-30T12:48:18.705Z,IN,3.7.249.118,3,3.7.249.118,1
MinimumCoresContext,2020-11-30T12:48:48.705Z,IN,3.7.249.118,3,3.7.249.118,1
MinimumCoresContext,2020-11-30T12:49:18.705Z,IN,3.7.249.118,3,3.7.249.118,1
MinimumCoresContext,2020-11-30T12:49:48.705Z,IN,3.7.249.118,3,3.7.249.118,1
MinimumCoresContext,2020-11-30T12:50:18.705Z,IN,3.7.249.118,3,3.7.249.118,1
MinimumCoresContext,2020-11-30T12:50:48.705Z,IN,3.7.249.118,3,3.7.249.118,1
MinimumCoresContext,2020-11-30T12:51:18.705Z,IN,3.7.249.118,3,3.7.249.118,1
MinimumCoresContext,2020-11-30T12:51:48.705Z,IN,3.7.249.118,3,3.7.249.118,1
MinimumCoresContext,2020-11-30T12:52:18.705Z,IN,3.7.249.118,3,3.7.249.118,1
MinimumCoresContext,2020-11-30T12:52:48.705Z,IN,3.7.249.118,3,3.7.249.118,1
MinimumCoresContext,2020-11-30T12:53:18.705Z,IN,3.7.249.118,3,3.7.249.118,1
MinimumCoresContext,2020-11-30T12:53:48.705Z,IN,3.7.249.118,3,3.7.249.118,1
MinimumCoresContext,2020-11-30T12:54:18.705Z,IN,3.7.249.118,3,3.7.249.118,1
MinimumCoresContext,2020-11-30T12:54:48.705Z,IN,3.7.249.118,3,3.7.249.118,1
MinimumCoresContext,2020-11-30T12:55:18.705Z,IN,3.7.249.118,3,3.7.249.118,1
MinimumCoresContext,2020-11-30T12:55:48.705Z,IN,3.7.249.118,3,3.7.249.118,1
MinimumCoresContext,2020-11-30T12:56:18.705Z,IN,3.7.249.118,3,3.7.249.118,1
MinimumCoresContext,2020-11-30T12:56:48.705Z,IN,3.7.249.118,3,3.7.249.118,1
MinimumCoresContext,2020-11-30T12:57:18.705Z,IN,3.7.249.118,3,3.7.249.118,1
MinimumCoresContext,2020-11-30T12:57:48.705Z,IN,3.7.249.118,3,3.7.249.118,1
MinimumCoresContext,2020-11-30T12:58:18.705Z,IN,3.7.249.118,3,3.7.249.118,1
MinimumCoresContext,2020-11-30T12:58:48.705Z,IN,3.7.249.118,3,3.7.249.118,1
MinimumCoresContext,2020-11-30T12:59:18.705Z,IN,3.7.249.118,3,3.7.249.118,1
MinimumCoresContext,2020-11-30T12:59:48.705Z,IN,3.7.249.118,3,3.7.249.118,1
MinimumCoresContext,2020-11-30T13:00:18.705Z,IN,3.7.249.118,3,3.7.249.118,1
MinimumCoresContext,2020-11-30T13:00:48.705Z,IN,3.7.249.118,3,3.7.249.118,1
MinimumCoresContext,2020-11-30T13:01:18.705Z,IN,3.7.249.118,3,3.7.249.118,1
MinimumCoresContext,2020-11-30T13:01:48.705Z,IN,3.7.249.118,3,3.7.249.118,1
MinimumCoresContext,2020-11-30T13:02:18.705Z,IN,3.7.249.118,3,3.7.249.118,1
MinimumCoresContext,2020-11-30T13:02:48.705Z,IN,3.7.249.118,3,3.7.249.118,1
MinimumCoresContext,2020-11-30T13:03:18.705Z,IN,3.7.249.118,3,3.7.249.118,1
MinimumCoresContext,2020-11-30T13:03:48.705Z,IN,3.7.249.118,3,3.7.249.118,1
MinimumCoresContext,2020-11-30T13:04:18.705Z,IN,3.7.249.118,3,3.7.249.118,1
MinimumCoresContext,2020-11-30T13:04:48.705Z,IN,3.7.249.118,3,3.7.249.118,1
MinimumCoresContext,2020-11-30T13:05:18.705Z,IN,3.7.249.118,3,3.7.249.118,1
MinimumCoresContext,2020-11-30T13:05:48.705Z,IN,3.7.249.118,3,3.7.249.118,1
MinimumCoresContext,2020-11-30T13:06:18.705Z,IN,3.7.249.118,3,3.7.249.118,1
MinimumCoresContext,2020-11-30T13:06:48.705Z,IN,3.7.249.118,3,3.7.249.118,1
MinimumCoresContext,2020-11-30T13:07:18.705Z,IN,3.7.249.118,3,3.7.249.118,1
MinimumCoresContext,2020-11-30T13:07:48.705Z,IN,3.7.249.118,3,3.7.249.118,1
MinimumCoresContext,2020-11-30T13:08:18.705Z,IN,3.7.249.118,3,3.7.249.118,1
MinimumCoresContext,2020-11-30T13:08:48.705Z,IN,3.7.249.118,3,3.7.249.118,1
MinimumCoresContext,2020-11-30T13:09:18.705Z,IN,3.7.249.118,3,3.7.249.118,1
MinimumCoresContext,2020-11-30T13:09:48.705Z,IN,3.7.249.118,3,3.7.249.118,1
MinimumCoresContext,2020-11-30T13:10:18.705Z,IN,3.7.249.118,3,3.7.249.118,1
MinimumCoresContext,2020-11-30T13:10:48.705Z,IN,3.7.249.118,3,3.7.249.118,1
MinimumCoresContext,2020-11-30T13:11:18.705Z,IN,3.7.249.118,3,3.7.249.118,1
MinimumCoresContext,2020-11-30T13:11:48.705Z,IN,3.7.249.118,3,3.7.249.118,1
MinimumCoresContext,2020-11-30T13:12:18.705Z,IN,3.7.249.118,3,3.7.249.118,1
MinimumCoresContext,2020-11-30T13:12:48.705Z,IN,3.7.249.118,3,3.7.249.118,1
MinimumCoresContext,2020-11-30T13:13:18.705Z,IN,3.7.249.118,3,3.7.249.118,1
MinimumCoresContext,2020-11-30T13:13:48.705Z,IN,3.7.249.118,3,3.7.249.118,1
MinimumCoresContext,2020-11-30T13:14:18.705Z,IN,3.7.249.118,3,3.7.249.118,1
MinimumCoresContext,2020-11-30T13:14:48.705Z,IN,3.7.249.118,3,3.7.249.118,1
MinimumCoresContext,2020-11-30T13:15:18.705Z,IN,3.7.249.118,3,3.7.249.118,1
MinimumCoresContext,2020-11-30T13:15:48.705Z,IN,3.7.249.118,3,3.7.249.118,1
MinimumCoresContext,2020-11-30T13:16:18.705Z,IN,3.7.249.118,3,3.7.249.118,1
MinimumCoresContext,2020-11-30T13:16:48.705Z,IN,3.7.249.118,3,3.7.249.118,1
MinimumCoresContext,2020-11-30T13:17:18.705Z,IN,3.7.249.118,3,3.7.249.118,1
MinimumCoresContext,2020-11-30T13:17:48.705Z,IN,3.7.249.118,3,3.7.249.118,1
MinimumCoresContext,2020-11-30T13:18:18.705Z,IN,3.7.249.118,3,3.7.249.118,1
MinimumCoresContext,2020-11-30T13:18:48.705Z,IN,3.7.249.118,3,3.7.249.118,1
MinimumCoresContext,2020-11-30T13:19:18.705Z,IN,3.7.249.118,3,3.7.249.118,1
MinimumCoresContext,2020-11-30T13:19:48.705Z,IN,3.7.249.118,3,3.7.249.118,1
MinimumCoresContext,2020-11-30T13:20:18.705Z,IN,3.7.249.118,3,3.7.249.118,1
MinimumCoresContext,2020-11-30T13:20:48.705Z,IN,3.7.249.118,3,3.7.249.118,1
MinimumCoresContext,2020-11-30T13:21:18.705Z,IN,3.7.249.118,3,3.7.249.118,1
MinimumCoresContext,2020-11-30T13:21:48.705Z,IN,3.7.249.118,3,3.7.249.118,1
MinimumCoresContext,2020-11-30T13:22:18.705Z,IN,3.7.249.118,3,3.7.249.118,1
MinimumCoresContext,2020-11-30T13:22:48.705Z,IN,3.7.249.118,3,3.7.249.118,1
MinimumCoresContext,2020-11-30T13:23:18.705Z,IN,3.7.249.118,3,3.7.249.118,1
MinimumCoresContext,2020-11-30T13:23:48.705Z,IN,3.7.249.118,3,3.7.249.118,1
MinimumCoresContext,2020-11-30T13:24:18.705Z,IN,3.7.249.118,3,3.7.249.118,1
MinimumCoresContext,2020-11-30T13:24:48.705Z,IN,3.7.249.118,3,3.7.249.118,1
MinimumCoresContext,2020-11-30T13:25:18.705Z,IN,3.7.249.118,3,3.7.249.118,1
MinimumCoresContext,2020-11-30T13:25:48.705Z,IN,3.7.249.118,3,3.7.249.118,1
MinimumCoresContext,2020-11-30T13:26:18.705Z,IN,3.7.249.118,3,3.7.249.118,1
MinimumCoresContext,2020-11-30T13:26:48.705Z,IN,3.7.249.118,3,3.7.249.118,1
MinimumCoresContext,2020-11-30T13:27:18.705Z,IN,3.7.249.118,3,3.7.249.118,1
MinimumCoresContext,2020-11-30T13:27:48.705Z,IN,3.7.249.118,3,3.7.249.118,1
MinimumCoresContext,2020-11-30T13:28:18.705Z,IN,3.7.249.118,3,3.7.249.118,1
MinimumCoresContext,2020-11-30T13:28:48.705Z,IN,3.7.249.118,3,3.7.249.118,1
MinimumCoresContext,2020-11-30T13:29:18.705Z,IN,3.7.249.118,3,3.7.249.118,1
MinimumCoresContext,2020-11-30T13:29:48.705Z,IN,3.7.249.118,3,3.7.249.118,1
MinimumCoresContext,2020-11-30T13:30:18.705Z,IN,3.7.249.118,3,3.7.249.118,1
MinimumCoresContext,2020-11-30T13:30:48.705Z,IN,3.7.249.118,3,3.7.249.118,1
MinimumCoresContext,2020-11-30T13:31:18.705Z,IN,3.7.249.118,3,3.7.249.118,1
MinimumCoresContext,2020-11-30T13:31:48.705Z,IN,3.7.249.118,3,3.7.249.118,1
MinimumCoresContext,2020-11-30T13:32:18.705Z,IN,3.7.249.118,3,3.7.249.118,1
MinimumCoresContext,2020-11-30T13:32:48.705Z,IN,3.7.249.118,3,3.7.249.118,1
MinimumCoresContext,2020-11-30T13:33:18.705Z,IN,3.7.249.118,3,3.7.249.118,1
MinimumCoresContext,2020-11-30T13:33:48.705Z,IN,3.7.249.118,3,3.7.249.118,1
MinimumCoresContext,2020-11-30T13:34:18.705Z,IN,3.7.249.118,3,3.7.249.118,1
MinimumCoresContext,2020-11-30T13:34:48.705Z,IN,3.7.249.118,3,3.7.249.118,1
MinimumCoresContext,2020-11-30T13:35:18.705Z,IN,3.7.249.118,3,3.7.249.118,1
MinimumCoresContext,2020-11-30T13:35:48.705Z,IN,3.7.249.118,3,3.7.249.118,1
MinimumCoresContext,2020-11-30T13:36:18.705Z,IN,3.7.249.118,3,3.7.249.118,1
MinimumCoresContext,2020-11-30T13:36:48.705Z,IN,3.7.249.118,3,3.7.249.118,1
MinimumCoresContext,2020-11-30T13:37:18.705Z,IN,3.7.249.118,3,3.7.249.118,1
MinimumCoresContext,2020-11-30T13:37:48.705Z,IN,3.7.249.118,3,3.7.249.118,1
MinimumCoresContext,2020-11-30T13:38:18.705Z,IN,3.7.249.118,3,3.7.249.118,1
MinimumCoresContext,2020-11-30T13:38:48.705Z,IN,3.7.249.118,3,3.7.249.118,1
MinimumCoresContext,2020-11-30T13:39:18.705Z,IN,3.7.249.118,3,3.7.249.118,1
MinimumCoresContext,2020-11-30T13:39:48.705Z,IN,3.7.249.118,3,3.7.249.118,1
MinimumCoresContext,2020-11-30T13:40:18.705Z,IN,3.7.249.118,3,3.7.249.118,1
MinimumCoresContext,2020-11-30T13:40:48.705Z,IN,3.7.249.118,3,3.7.249.118,1
MinimumCoresContext,2020-11-30T13:41:18.705Z,IN,3.7.249.118,3,3.7.249.118,1
MinimumCoresContext,2020-11-30T13:41:48.705Z,IN,3.7.249.118,3,3.7.249.118,1
MinimumCoresContext,2020-11-30T13:42:18.705Z,IN,3.7.249.118,3,3.7.249.118,1
MinimumCoresContext,2020-11-30T13:42:48.705Z,IN,3.7.249.118,3,3.7.249.118,1
MinimumCoresContext,2020-11-30T13:43:18.705Z,IN,3.7.249.118,3,3.7.249.118,1
MinimumCoresContext,2020-11-30T13:43:48.705Z,IN,3.7.249.118,3,3.7.249.118,1
MinimumCoresContext,2020-11-30T13:44:18.705Z,IN,3.7.249.118,3,3.7.249.118,1
MinimumCoresContext,2020-11-30T13:44:48.705Z,IN,3.7.249.118,3,3.7.249.118,1
MinimumCoresContext,2020-11-30T13:45:18.705Z,IN,3.7.249.118,3,3.7.249.118,1
MinimumCoresContext,2020-11-30T13:45:48.705Z,IN,3.7.249.118,3,3.7.249.118,1
MinimumCoresContext,2020-11-30T13:46:18.705Z,IN,3.7.249.118,3,3.7.249.118,1
MinimumCoresContext,2020-11-30T13:46:48.705Z,IN,3.7.249.118,3,3.7.249.118,1
MinimumCoresContext,2020-11-30T13:47:18.705Z,IN,3.7.249.118,3,3.7.249.118,1
MinimumCoresContext,2020-11-30T13:47:48.705Z,IN,3.7.249.118,3,3.7.249.118,1
MinimumCoresContext,2020-11-30T13:48:18.705Z,IN,3.7.249.118,3,3.7.249.118,1
MinimumCoresContext,2020-11-30T13:48:48.705Z,IN,3.7.249.118,3,3.7.249.118,1
MinimumCoresContext,2020-11-30T13:49:18.705Z,IN,3.7.249.118,3,3.7.249.118,1
MinimumCoresContext,2020-11-30T13:49:48.705Z,IN,3.7.249.118,3,3.7.249.118,1
MinimumCoresContext,2020-11-30T13:50:18.705Z,IN,3.7.249.118,3,3.7.249.118,1
MinimumCoresContext,2020-11-30T13:50:48.705Z,IN,3.7.249.118,3,3.7.249.118,1
MinimumCoresContext,2020-11-30T13:51:18.705Z,IN,3.7.249.118,3,3.7.249.118,1
MinimumCoresContext,2020-11-30T13:51:48.705Z,IN,3.7.249.118,3,3.7.249.118,1
MinimumCoresContext,2020-11-30T13:52:18.705Z,IN,3.7.249.118,3,3.7.249.118,1
MinimumCoresContext,2020-11-30T13:52:48.705Z,IN,3.7.249.118,3,3.7.249.118,1
MinimumCoresContext,2020-11-30T13:53:18.705Z,IN,3.7.249.118,3,3.7.249.118,1
MinimumCoresContext,2020-11-30T13:53:48.705Z,IN,3.7.249.118,3,3.7.249.118,1
MinimumCoresContext,2020-11-30T13:54:18.705Z,IN,3.7.249.118,3,3.7.249.118,1
MinimumCoresContext,2020-11-30T13:54:48.705Z,IN,3.7.249.118,3,3.7.249.118,1
MinimumCoresContext,2020-11-30T13:55:18.705Z,IN,3.7.249.118,3,3.7.249.118,1
MinimumCoresContext,2020-11-30T13:55:48.705Z,IN,3.7.249.118,3,3.7.249.118,1
MinimumCoresContext,2020-11-30T13:56:18.705Z,IN,3.7.249.118,3,3.7.249.118,1
MinimumCoresContext,2020-11-30T13:56:48.705Z,IN,3.7.249.118,3,3.7.249.118,1
MinimumCoresContext,2020-11-30T13:57:18.705Z,IN,3.7.249.118,3,3.7.249.118,1
MinimumCoresContext,2020-11-30T13:57:48.705Z,IN,3.7.249.118,3,3.7.249.118,1
MinimumCoresContext,2020-11-30T13:58:18.705Z,IN,3.7.249.118,3,3.7.249.118,1
MinimumCoresContext,2020-11-30T13:58:48.705Z,IN,3.7.249.118,3,3.7.249.118,1
MinimumCoresContext,2020-11-30T13:59:18.705Z,IN,3.7.249.118,3,3.7.249.118,1
MinimumCoresContext,2020-11-30T13:59:48.705Z,IN,3.7.249.118,3,3.7.249.118,1
MinimumCoresContext,2020-11-30T14:00:18.705Z,IN,3.7.249.118,3,3.7.249.118,1
MinimumCoresContext,2020-11-30T14:00:48.705Z,IN,3.7.249.118,3,3.7.249.118,1
MinimumCoresContext,2020-11-30T14:01:18.705Z,IN,3.7.249.118,3,3.7.249.118,1
MinimumCoresContext,2020-11-30T14:01:48.705Z,IN,3.7.249.118,3,3.7.249.118,1
MinimumCoresContext,2020-11-30T14:02:18.705Z,IN,3.7.249.118,3,3.7.249.118,1
MinimumCoresContext,2020-11-30T14:02:48.705Z,IN,3.7.249.118,3,3.7.249.118,1
MinimumCoresContext,2020-11-30T14:03:18.705Z,IN,3.7.249.118,3,3.7.249.118,1
MinimumCoresContext,2020-11-30T14:03:48.705Z,IN,3.7.249.118,3,3.7.249.118,1
MinimumCoresContext,2020-11-30T14:04:18.705Z,IN,3.7.249.118,3,3.7.249.118,1
MinimumCoresContext,2020-11-30T14:04:48.705Z,IN,3.7.249.118,3,3.7.249.118,1
MinimumCoresContext,2020-11-30T14:05:18.705Z,IN,3.7.249.118,3,3.7.249.118,1
MinimumCoresContext,2020-11-30T14:05:48.705Z,IN,3.7.249.118,3,3.7.249.118,1
MinimumCoresContext,2020-11-30T14:06:18.705Z,IN,3.7.249.118,3,3.7.249.118,1
MinimumCoresContext,2020-11-30T14:06:48.705Z,IN,3.7.249.118,3,3.7.249.118,1
MinimumCoresContext,2020-11-30T14:07:18.705Z,IN,3.7.249.118,3,3.7.249.118,1
MinimumCoresContext,2020-11-30T14:07:48.705Z,IN,3.7.249.118,3,3.7.249.118,1
MinimumCoresContext,2020-11-30T14:08:18.705Z,IN,3.7.249.118,3,3.7.249.118,1
MinimumCoresContext,2020-11-30T14:08:48.705Z,IN,3.7.249.118,3,3.7.249.118,1
MinimumCoresContext,2020-11-30T14:09:18.705Z,IN,3.7.249.118,3,3.7.249.118,1
MinimumCoresContext,2020-11-30T14:09:48.705Z,IN,3.7.249.118,3,3.7.249.118,1
MinimumCoresContext,2020-11-30T14:10:18.705Z,IN,3.7.249.118,3,3.7.249.118,1
MinimumCoresContext,2020-11-30T14:10:48.705Z,IN,3.7.249.118,3,3.7.249.118,1
MinimumCoresContext,2020-11-30T14:11:18.705Z,IN,3.7.249.118,3,3.7.249.118,1
MinimumCoresContext,2020-11-30T14:11:48.705Z,IN,3.7.249.118,3,3.7.249.118,1
MinimumCoresContext,2020-11-30T14:12:18.705Z,IN,3.7.249.118,3,3.7.249.118,1
MinimumCoresContext,2020-11-30T14:12:48.705Z,IN,3.7.249.118,3,3.7.249.118,1
MinimumCoresContext,2020-11-30T14:13:18.705Z,IN,3.7.249.118,3,3.7.249.118,1
MinimumCoresContext,2020-11-30T14:13:48.705Z,IN,3.7.249.118,3,3.7.249.118,1
MinimumCoresContext,2020-11-30T14:14:18.705Z,IN,3.7.249.118,3,3.7.249.118,1
MinimumCoresContext,2020-11-30T14:14:48.705Z,IN,3.7.249.118,3,3.7.249.118,1
MinimumCoresContext,2020-11-30T14:15:18.705Z,IN,3.7.249.118,3,3.7.249.118,1
MinimumCoresContext,2020-11-30T14:15:48.705Z,IN,3.7.249.118,3,3.7.249.118,1
MinimumCoresContext,2020-11-30T14:16:18.705Z,IN,3.7.249.118,3,3.7.249.118,1
MinimumCoresContext,2020-11-30T14:16:48.705Z,IN,3.7.249.118,3,3.7.249.118,1
MinimumCoresContext,2020-11-30T14:17:18.705Z,IN,3.7.249.118,3,3.7.249.118,1
MinimumCoresContext,2020-11-30T14:17:48.705Z,IN,3.7.249.118,3,3.7.249.118,1
MinimumCoresContext,2020-11-30T14:18:18.705Z,IN,3.7.249.118,3,3.7.249.118,1
MinimumCoresContext,2020-11-30T14:18:48.705Z,IN,3.7.249.118,3,3.7.249.118,1
MinimumCoresContext,2020-11-30T14:19:18.705Z,IN,3.7.249.118,3,3.7.249.118,1
MinimumCoresContext,2020-11-30T14:19:48.705Z,IN,3.7.249.118,3,3.7.249.118,1
MinimumCoresContext,2020-11-30T14:20:18.705Z,IN,3.7.249.118,3,3.7.249.118,1
MinimumCoresContext,2020-11-30T14:20:48.705Z,IN,3.7.249.118,3,3.7.249.118,1
MinimumCoresContext,2020-11-30T14:21:18.705Z,IN,3.7.249.118,3,3.7.249.118,1
MinimumCoresContext,2020-11-30T14:21:48.705Z,IN,3.7.249.118,3,3.7.249.118,1
MinimumCoresContext,2020-11-30T14:22:18.705Z,IN,3.7.249.118,3,3.7.249.118,1
MinimumCoresContext,2020-11-30T14:22:48.705Z,IN,3.7.249.118,3,3.7.249.118,1
MinimumCoresContext,2020-11-30T14:23:18.705Z,IN,3.7.249.118,3,3.7.249.118,1
MinimumCoresContext,2020-11-30T14:23:48.705Z,IN,3.7.249.118,3,3.7.249.118,1
MinimumCoresContext,2020-11-30T14:24:18.705Z,IN,3.7.249.118,3,3.7.249.118,1
MinimumCoresContext,2020-11-30T14:24:48.705Z,IN,3.7.249.118,3,3.7.249.118,1
MinimumCoresContext,2020-11-30T14:25:18.705Z,IN,3.7.249.118,3,3.7.249.118,1
MinimumCoresContext,2020-11-30T14:25:48.705Z,IN,3.7.249.118,3,3.7.249.118,1
MinimumCoresContext,2020-11-30T14:26:18.705Z,IN,3.7.249.118,3,3.7.249.118,1
MinimumCoresContext,2020-11-30T14:26:48.705Z,IN,3.7.249.118,3,3.7.249.118,1
MinimumCoresContext,2020-11-30T14:27:18.705Z,IN,3.7.249.118,3,3.7.249.118,1
MinimumCoresContext,2020-11-30T14:27:48.705Z,IN,3.7.249.118,3,3.7.249.118,1
MinimumCoresContext,2020-11-30T14:28:18.705Z,IN,3.7.249.118,3,3.7.249.118,1
MinimumCoresContext,2020-11-30T14:28:48.705Z,IN,3.7.249.118,3,3.7.249.118,1
MinimumCoresContext,2020-11-30T14:29:18.705Z,IN,3.7.249.118,3,3.7.249.118,1
MinimumCoresContext,2020-11-30T14:29:48.705Z,IN,3.7.249.118,3,3.7.249.118,1
MinimumCoresContext,2020-11-30T14:30:18.705Z,IN,3.7.249.118,3,3.7.249.118,1
MinimumCoresContext,2020-11-30T14:30:48.705Z,IN,3.7.249.118,3,3.7.249.118,1
MinimumCoresContext,2020-11-30T14:31:18.705Z,IN,3.7.249.118,3,3.7.249.118,1
MinimumCoresContext,2020-11-30T14:31:48.705Z,IN,3.7.249.118,3,3.7.249.118,1
MinimumCoresContext,2020-11-30T14:32:18.705Z,IN,3.7.249.118,3,3.7.249.118,1
MinimumCoresContext,2020-11-30T14:32:48.705Z,IN,3.7.249.118,3,3.7.249.118,1
MinimumCoresContext,2020-11-30T14:33:18.705Z,IN,3.7.249.118,3,3.7.249.118,1
MinimumCoresContext,2020-11-30T14:33:48.705Z,IN,3.7.249.118,3,3.7.249.118,1
MinimumCoresContext,2020-11-30T14:34:18.705Z,IN,3.7.249.118,3,3.7.249.118,1
MinimumCoresContext,2020-11-30T14:34:48.705Z,IN,3.7.249.118,3,3.7.249.118,1
MinimumCoresContext,2020-11-30T14:35:18.705Z,IN,3.7.249.118,3,3.7.249.118,1
MinimumCoresContext,2020-11-30T14:35:48.705Z,IN,3.7.249.118,3,3.7.249.118,1
MinimumCoresContext,2020-11-30T14:36:18.705Z,IN,3.7.249.118,3,3.7.249.118,1
MinimumCoresContext,2020-11-30T14:36:48.705Z,IN,3.7.249.118,3,3.7.249.118,1
MinimumCoresContext,2020-11-30T14:37:18.705Z,IN,3.7.249.118,3,3.7.249.118,1
MinimumCoresContext,2020-11-30T14:37:48.705Z,IN,3.7.249.118,3,3.7.249.118,1
MinimumCoresContext,2020-11-30T14:38:18.705Z,IN,3.7.249.118,3,3.7.249.118,1
MinimumCoresContext,2020-11-30T14:38:48.705Z,IN,3.7.249.118,3,3.7.249.118,1
MinimumCoresContext,2020-11-30T14:39:18.705Z,IN,3.7.249.118,3,3.7.249.118,1
MinimumCoresContext,2020-11-30T14:39:48.705Z,IN,3.7.249.118,3,3.7.249.118,1
MinimumCoresContext,2020-11-30T14:40:18.705Z,IN,3.7.249.118,3,3.7.249.118,1
MinimumCoresContext,2020-11-30T14:40:48.705Z,IN,3.7.249.118,3,3.7.249.118,1
MinimumCoresContext,2020-11-30T14:41:18.705Z,IN,3.7.249.118,3,3.7.249.118,1
MinimumCoresContext,2020-11-30T14:41:48.705Z,IN,3.7.249.118,3,3.7.249.118,1
MinimumCoresContext,2020-11-30T14:42:18.705Z,IN,3.7.249.118,3,3.7.249.118,1
MinimumCoresContext,2020-11-30T14:42:48.708Z,IN,3.7.249.118,3,3.7.249.118,1
MinimumCoresContext,2020-11-30T14:43:18.705Z,IN,3.7.249.118,3,3.7.249.118,1
MinimumCoresContext,2020-11-30T14:43:48.705Z,IN,3.7.249.118,3,3.7.249.118,1
MinimumCoresContext,2020-11-30T14:44:18.705Z,IN,3.7.249.118,3,3.7.249.118,1
MinimumCoresContext,2020-11-30T14:44:48.705Z,IN,3.7.249.118,3,3.7.249.118,1
MinimumCoresContext,2020-11-30T14:45:18.705Z,IN,3.7.249.118,3,3.7.249.118,1
MinimumCoresContext,2020-11-30T14:45:48.705Z,IN,3.7.249.118,3,3.7.249.118,1
MinimumCoresContext,2020-11-30T14:46:18.705Z,IN,3.7.249.118,3,3.7.249.118,1
MinimumCoresContext,2020-11-30T14:46:48.705Z,IN,3.7.249.118,3,3.7.249.118,1
MinimumCoresContext,2020-11-30T14:47:18.705Z,IN,3.7.249.118,3,3.7.249.118,1
MinimumCoresContext,2020-11-30T14:47:48.705Z,IN,3.7.249.118,3,3.7.249.118,1
MinimumCoresContext,2020-11-30T14:48:18.705Z,IN,3.7.249.118,3,3.7.249.118,1
MinimumCoresContext,2020-11-30T14:48:48.705Z,IN,3.7.249.118,3,3.7.249.118,1
MinimumCoresContext,2020-11-30T14:49:18.705Z,IN,3.7.249.118,3,3.7.249.118,1
MinimumCoresContext,2020-11-30T14:49:48.705Z,IN,3.7.249.118,3,3.7.249.118,1
MinimumCoresContext,2020-11-30T14:50:18.706Z,IN,3.7.249.118,3,3.7.249.118,1
MinimumCoresContext,2020-11-30T14:50:48.705Z,IN,3.7.249.118,3,3.7.249.118,1
MinimumCoresContext,2020-11-30T14:51:18.705Z,IN,3.7.249.118,3,3.7.249.118,1
MinimumCoresContext,2020-11-30T14:51:48.705Z,IN,3.7.249.118,3,3.7.249.118,1
MinimumCoresContext,2020-11-30T14:52:18.705Z,IN,3.7.249.118,3,3.7.249.118,1
MinimumCoresContext,2020-11-30T14:52:48.705Z,IN,3.7.249.118,3,3.7.249.118,1
MinimumCoresContext,2020-11-30T14:53:18.705Z,IN,3.7.249.118,3,3.7.249.118,1
MinimumCoresContext,2020-11-30T14:53:48.705Z,IN,3.7.249.118,3,3.7.249.118,1
MinimumCoresContext,2020-11-30T14:54:18.705Z,IN,3.7.249.118,3,3.7.249.118,1
MinimumCoresContext,2020-11-30T14:54:48.705Z,IN,3.7.249.118,3,3.7.249.118,1
MinimumCoresContext,2020-11-30T14:55:18.705Z,IN,3.7.249.118,3,3.7.249.118,1
MinimumCoresContext,2020-11-30T14:55:48.705Z,IN,3.7.249.118,3,3.7.249.118,1
MinimumCoresContext,2020-11-30T14:56:18.705Z,IN,3.7.249.118,3,3.7.249.118,1
MinimumCoresContext,2020-11-30T14:56:48.705Z,IN,3.7.249.118,3,3.7.249.118,1
MinimumCoresContext,2020-11-30T14:57:18.705Z,IN,3.7.249.118,3,3.7.249.118,1
MinimumCoresContext,2020-11-30T14:57:48.705Z,IN,3.7.249.118,3,3.7.249.118,1
MinimumCoresContext,2020-11-30T14:58:18.705Z,IN,3.7.249.118,3,3.7.249.118,1
MinimumCoresContext,2020-11-30T14:58:48.705Z,IN,3.7.249.118,3,3.7.249.118,1
MinimumCoresContext,2020-11-30T14:59:18.705Z,IN,3.7.249.118,3,3.7.249.118,1
MinimumCoresContext,2020-11-30T14:59:48.705Z,IN,3.7.249.118,3,3.7.249.118,1
MinimumCoresContext,2020-11-30T15:00:18.705Z,IN,3.7.249.118,3,3.7.249.118,1
MinimumCoresContext,2020-11-30T15:00:48.705Z,IN,3.7.249.118,3,3.7.249.118,1
MinimumCoresContext,2020-11-30T15:01:18.705Z,IN,3.7.249.118,3,3.7.249.118,1
MinimumCoresContext,2020-11-30T15:01:48.705Z,IN,3.7.249.118,3,3.7.249.118,1
MinimumCoresContext,2020-11-30T15:02:18.705Z,IN,3.7.249.118,3,3.7.249.118,1
MinimumCoresContext,2020-11-30T15:02:48.705Z,IN,3.7.249.118,3,3.7.249.118,1
MinimumCoresContext,2020-11-30T15:03:18.705Z,IN,3.7.249.118,3,3.7.249.118,1
MinimumCoresContext,2020-11-30T15:03:48.705Z,IN,3.7.249.118,3,3.7.249.118,1
MinimumCoresContext,2020-11-30T15:04:18.705Z,IN,3.7.249.118,3,3.7.249.118,1
MinimumCoresContext,2020-11-30T15:04:48.705Z,IN,3.7.249.118,3,3.7.249.118,1
MinimumCoresContext,2020-11-30T15:05:18.705Z,IN,3.7.249.118,3,3.7.249.118,1
MinimumCoresContext,2020-11-30T15:05:48.705Z,IN,3.7.249.118,3,3.7.249.118,1
MinimumCoresContext,2020-11-30T15:06:18.705Z,IN,3.7.249.118,3,3.7.249.118,1
MinimumCoresContext,2020-11-30T15:06:48.705Z,IN,3.7.249.118,3,3.7.249.118,1
MinimumCoresContext,2020-11-30T15:07:18.705Z,IN,3.7.249.118,3,3.7.249.118,1
MinimumCoresContext,2020-11-30T15:07:48.705Z,IN,3.7.249.118,3,3.7.249.118,1
MinimumCoresContext,2020-11-30T15:08:18.705Z,IN,3.7.249.118,3,3.7.249.118,1
MinimumCoresContext,2020-11-30T15:08:48.705Z,IN,3.7.249.118,3,3.7.249.118,1
MinimumCoresContext,2020-11-30T15:09:18.705Z,IN,3.7.249.118,3,3.7.249.118,1
MinimumCoresContext,2020-11-30T15:09:48.705Z,IN,3.7.249.118,3,3.7.249.118,1
MinimumCoresContext,2020-11-30T15:10:18.705Z,IN,3.7.249.118,3,3.7.249.118,1
MinimumCoresContext,2020-11-30T15:10:48.705Z,IN,3.7.249.118,3,3.7.249.118,1
MinimumCoresContext,2020-11-30T15:11:18.705Z,IN,3.7.249.118,3,3.7.249.118,1
MinimumCoresContext,2020-11-30T15:11:48.705Z,IN,3.7.249.118,3,3.7.249.118,1
MinimumCoresContext,2020-11-30T15:12:18.705Z,IN,3.7.249.118,3,3.7.249.118,1
MinimumCoresContext,2020-11-30T15:12:48.705Z,IN,3.7.249.118,3,3.7.249.118,1
MinimumCoresContext,2020-11-30T15:13:18.705Z,IN,3.7.249.118,3,3.7.249.118,1
MinimumCoresContext,2020-11-30T15:13:48.705Z,IN,3.7.249.118,3,3.7.249.118,1
MinimumCoresContext,2020-11-30T15:14:18.705Z,IN,3.7.249.118,3,3.7.249.118,1
MinimumCoresContext,2020-11-30T15:14:48.705Z,IN,3.7.249.118,3,3.7.249.118,1
MinimumCoresContext,2020-11-30T15:15:18.705Z,IN,3.7.249.118,3,3.7.249.118,1
MinimumCoresContext,2020-11-30T15:15:48.705Z,IN,3.7.249.118,3,3.7.249.118,1
MinimumCoresContext,2020-11-30T15:16:18.705Z,IN,3.7.249.118,3,3.7.249.118,1
MinimumCoresContext,2020-11-30T15:16:48.705Z,IN,3.7.249.118,3,3.7.249.118,1
MinimumCoresContext,2020-11-30T15:17:18.705Z,IN,3.7.249.118,3,3.7.249.118,1
MinimumCoresContext,2020-11-30T15:17:48.705Z,IN,3.7.249.118,3,3.7.249.118,1
MinimumCoresContext,2020-11-30T15:18:18.705Z,IN,3.7.249.118,3,3.7.249.118,1
MinimumCoresContext,2020-11-30T15:18:48.705Z,IN,3.7.249.118,3,3.7.249.118,1
MinimumCoresContext,2020-11-30T15:19:18.705Z,IN,3.7.249.118,3,3.7.249.118,1
MinimumCoresContext,2020-11-30T15:19:48.705Z,IN,3.7.249.118,3,3.7.249.118,1
MinimumCoresContext,2020-11-30T15:20:18.705Z,IN,3.7.249.118,3,3.7.249.118,1
MinimumCoresContext,2020-11-30T15:20:48.705Z,IN,3.7.249.118,3,3.7.249.118,1
MinimumCoresContext,2020-11-30T15:21:18.705Z,IN,3.7.249.118,3,3.7.249.118,1
MinimumCoresContext,2020-11-30T15:21:48.705Z,IN,3.7.249.118,3,3.7.249.118,1
MinimumCoresContext,2020-11-30T15:22:18.705Z,IN,3.7.249.118,3,3.7.249.118,1
MinimumCoresContext,2020-11-30T15:22:48.705Z,IN,3.7.249.118,3,3.7.249.118,1
MinimumCoresContext,2020-11-30T15:23:18.705Z,IN,3.7.249.118,3,3.7.249.118,1
MinimumCoresContext,2020-11-30T15:23:48.705Z,IN,3.7.249.118,3,3.7.249.118,1
MinimumCoresContext,2020-11-30T15:24:18.705Z,IN,3.7.249.118,3,3.7.249.118,1
MinimumCoresContext,2020-11-30T15:24:48.705Z,IN,3.7.249.118,3,3.7.249.118,1
MinimumCoresContext,2020-11-30T15:25:18.705Z,IN,3.7.249.118,3,3.7.249.118,1
MinimumCoresContext,2020-11-30T15:25:48.705Z,IN,3.7.249.118,3,3.7.249.118,1
MinimumCoresContext,2020-11-30T15:26:18.705Z,IN,3.7.249.118,3,3.7.249.118,1
MinimumCoresContext,2020-11-30T15:26:48.705Z,IN,3.7.249.118,3,3.7.249.118,1
MinimumCoresContext,2020-11-30T15:27:18.705Z,IN,3.7.249.118,3,3.7.249.118,1
MinimumCoresContext,2020-11-30T15:27:48.705Z,IN,3.7.249.118,3,3.7.249.118,1
MinimumCoresContext,2020-11-30T15:28:18.705Z,IN,3.7.249.118,3,3.7.249.118,1
MinimumCoresContext,2020-11-30T15:28:48.705Z,IN,3.7.249.118,3,3.7.249.118,1
MinimumCoresContext,2020-11-30T15:29:18.705Z,IN,3.7.249.118,3,3.7.249.118,1
MinimumCoresContext,2020-11-30T15:29:48.705Z,IN,3.7.249.118,3,3.7.249.118,1
MinimumCoresContext,2020-11-30T15:30:18.705Z,IN,3.7.249.118,3,3.7.249.118,1
MinimumCoresContext,2020-11-30T15:30:48.705Z,IN,3.7.249.118,3,3.7.249.118,1
MinimumCoresContext,2020-11-30T15:31:18.705Z,IN,3.7.249.118,3,3.7.249.118,1
MinimumCoresContext,2020-11-30T15:31:48.705Z,IN,3.7.249.118,3,3.7.249.118,1
MinimumCoresContext,2020-11-30T15:32:18.705Z,IN,3.7.249.118,3,3.7.249.118,1
MinimumCoresContext,2020-11-30T15:32:48.705Z,IN,3.7.249.118,3,3.7.249.118,1
MinimumCoresContext,2020-11-30T15:33:18.705Z,IN,3.7.249.118,3,3.7.249.118,1
MinimumCoresContext,2020-11-30T15:33:48.705Z,IN,3.7.249.118,3,3.7.249.118,1
MinimumCoresContext,2020-11-30T15:34:18.705Z,IN,3.7.249.118,3,3.7.249.118,1
MinimumCoresContext,2020-11-30T15:34:48.705Z,IN,3.7.249.118,3,3.7.249.118,1
MinimumCoresContext,2020-11-30T15:35:18.705Z,IN,3.7.249.118,3,3.7.249.118,1
MinimumCoresContext,2020-11-30T15:35:48.705Z,IN,3.7.249.118,3,3.7.249.118,1
MinimumCoresContext,2020-11-30T15:36:18.705Z,IN,3.7.249.118,3,3.7.249.118,1
MinimumCoresContext,2020-11-30T15:36:48.705Z,IN,3.7.249.118,3,3.7.249.118,1
MinimumCoresContext,2020-11-30T15:37:18.705Z,IN,3.7.249.118,3,3.7.249.118,1
MinimumCoresContext,2020-11-30T15:37:48.705Z,IN,3.7.249.118,3,3.7.249.118,1
MinimumCoresContext,2020-11-30T15:38:18.705Z,IN,3.7.249.118,3,3.7.249.118,1
MinimumCoresContext,2020-11-30T15:38:48.705Z,IN,3.7.249.118,3,3.7.249.118,1
MinimumCoresContext,2020-11-30T15:39:18.705Z,IN,3.7.249.118,3,3.7.249.118,1
MinimumCoresContext,2020-11-30T15:39:48.705Z,IN,3.7.249.118,3,3.7.249.118,1
MinimumCoresContext,2020-11-30T15:40:18.705Z,IN,3.7.249.118,3,3.7.249.118,1
MinimumCoresContext,2020-11-30T15:40:48.705Z,IN,3.7.249.118,3,3.7.249.118,1
MinimumCoresContext,2020-11-30T15:41:18.705Z,IN,3.7.249.118,3,3.7.249.118,1
MinimumCoresContext,2020-11-30T15:41:48.705Z,IN,3.7.249.118,3,3.7.249.118,1
MinimumCoresContext,2020-11-30T15:42:18.705Z,IN,3.7.249.118,3,3.7.249.118,1
MinimumCoresContext,2020-11-30T15:42:48.705Z,IN,3.7.249.118,3,3.7.249.118,1
MinimumCoresContext,2020-11-30T15:43:18.705Z,IN,3.7.249.118,3,3.7.249.118,1
MinimumCoresContext,2020-11-30T15:43:48.705Z,IN,3.7.249.118,3,3.7.249.118,1
MinimumCoresContext,2020-11-30T15:44:18.705Z,IN,3.7.249.118,3,3.7.249.118,1
MinimumCoresContext,2020-11-30T15:44:48.705Z,IN,3.7.249.118,3,3.7.249.118,1
MinimumCoresContext,2020-11-30T15:45:18.705Z,IN,3.7.249.118,3,3.7.249.118,1
MinimumCoresContext,2020-11-30T15:45:48.705Z,IN,3.7.249.118,3,3.7.249.118,1
MinimumCoresContext,2020-11-30T15:46:18.705Z,IN,3.7.249.118,3,3.7.249.118,1
MinimumCoresContext,2020-11-30T15:46:48.705Z,IN,3.7.249.118,3,3.7.249.118,1
MinimumCoresContext,2020-11-30T15:47:18.705Z,IN,3.7.249.118,3,3.7.249.118,1
MinimumCoresContext,2020-11-30T15:47:48.705Z,IN,3.7.249.118,3,3.7.249.118,1
MinimumCoresContext,2020-11-30T15:48:18.705Z,IN,3.7.249.118,3,3.7.249.118,1
MinimumCoresContext,2020-11-30T15:48:48.705Z,IN,3.7.249.118,3,3.7.249.118,1
MinimumCoresContext,2020-11-30T15:49:18.705Z,IN,3.7.249.118,3,3.7.249.118,1
MinimumCoresContext,2020-11-30T15:49:48.705Z,IN,3.7.249.118,3,3.7.249.118,1
MinimumCoresContext,2020-11-30T15:50:18.705Z,IN,3.7.249.118,3,3.7.249.118,1
MinimumCoresContext,2020-11-30T15:50:48.705Z,IN,3.7.249.118,3,3.7.249.118,1
MinimumCoresContext,2020-11-30T15:51:18.705Z,IN,3.7.249.118,3,3.7.249.118,1
MinimumCoresContext,2020-11-30T15:51:48.705Z,IN,3.7.249.118,3,3.7.249.118,1
MinimumCoresContext,2020-11-30T15:52:18.705Z,IN,3.7.249.118,3,3.7.249.118,1
MinimumCoresContext,2020-11-30T15:52:48.705Z,IN,3.7.249.118,3,3.7.249.118,1
MinimumCoresContext,2020-11-30T15:53:18.705Z,IN,3.7.249.118,3,3.7.249.118,1
MinimumCoresContext,2020-11-30T15:53:48.705Z,IN,3.7.249.118,3,3.7.249.118,1
MinimumCoresContext,2020-11-30T15:54:18.705Z,IN,3.7.249.118,3,3.7.249.118,1
MinimumCoresContext,2020-11-30T15:54:48.705Z,IN,3.7.249.118,3,3.7.249.118,1
MinimumCoresContext,2020-11-30T15:55:18.705Z,IN,3.7.249.118,3,3.7.249.118,1
MinimumCoresContext,2020-11-30T15:55:48.705Z,IN,3.7.249.118,3,3.7.249.118,1
MinimumCoresContext,2020-11-30T15:56:18.705Z,IN,3.7.249.118,3,3.7.249.118,1
MinimumCoresContext,2020-11-30T15:56:48.705Z,IN,3.7.249.118,3,3.7.249.118,1
MinimumCoresContext,2020-11-30T15:57:18.705Z,IN,3.7.249.118,3,3.7.249.118,1
MinimumCoresContext,2020-11-30T15:57:48.705Z,IN,3.7.249.118,3,3.7.249.118,1
MinimumCoresContext,2020-11-30T15:58:18.705Z,IN,3.7.249.118,3,3.7.249.118,1
MinimumCoresContext,2020-11-30T15:58:48.705Z,IN,3.7.249.118,3,3.7.249.118,1
MinimumCoresContext,2020-11-30T15:59:18.705Z,IN,3.7.249.118,3,3.7.249.118,1
MinimumCoresContext,2020-11-30T15:59:48.705Z,IN,3.7.249.118,3,3.7.249.118,1
MinimumCoresContext,2020-11-30T16:00:18.705Z,IN,3.7.249.118,3,3.7.249.118,1
MinimumCoresContext,2020-11-30T16:00:48.705Z,IN,3.7.249.118,3,3.7.249.118,1
MinimumCoresContext,2020-11-30T16:01:18.705Z,IN,3.7.249.118,3,3.7.249.118,1
MinimumCoresContext,2020-11-30T16:01:48.705Z,IN,3.7.249.118,3,3.7.249.118,1
MinimumCoresContext,2020-11-30T16:02:18.705Z,IN,3.7.249.118,3,3.7.249.118,1
MinimumCoresContext,2020-11-30T16:02:48.705Z,IN,3.7.249.118,3,3.7.249.118,1
MinimumCoresContext,2020-11-30T16:03:18.705Z,IN,3.7.249.118,3,3.7.249.118,1
MinimumCoresContext,2020-11-30T16:03:48.705Z,IN,3.7.249.118,3,3.7.249.118,1
MinimumCoresContext,2020-11-30T16:04:18.705Z,IN,3.7.249.118,3,3.7.249.118,1
MinimumCoresContext,2020-11-30T16:04:48.705Z,IN,3.7.249.118,3,3.7.249.118,1
MinimumCoresContext,2020-11-30T16:05:18.705Z,IN,3.7.249.118,3,3.7.249.118,1
MinimumCoresContext,2020-11-30T16:05:48.705Z,IN,3.7.249.118,3,3.7.249.118,1
MinimumCoresContext,2020-11-30T16:06:18.705Z,IN,3.7.249.118,3,3.7.249.118,1
MinimumCoresContext,2020-11-30T16:06:48.705Z,IN,3.7.249.118,3,3.7.249.118,1
MinimumCoresContext,2020-11-30T16:07:18.705Z,IN,3.7.249.118,3,3.7.249.118,1
MinimumCoresContext,2020-11-30T16:07:48.705Z,IN,3.7.249.118,3,3.7.249.118,1
MinimumCoresContext,2020-11-30T16:08:18.705Z,IN,3.7.249.118,3,3.7.249.118,1
MinimumCoresContext,2020-11-30T16:08:48.705Z,IN,3.7.249.118,3,3.7.249.118,1
MinimumCoresContext,2020-11-30T16:09:18.705Z,IN,3.7.249.118,3,3.7.249.118,1
MinimumCoresContext,2020-11-30T16:09:48.705Z,IN,3.7.249.118,3,3.7.249.118,1
MinimumCoresContext,2020-11-30T16:10:18.705Z,IN,3.7.249.118,3,3.7.249.118,1
MinimumCoresContext,2020-11-30T16:10:48.705Z,IN,3.7.249.118,3,3.7.249.118,1
MinimumCoresContext,2020-11-30T16:11:18.705Z,IN,3.7.249.118,3,3.7.249.118,1
MinimumCoresContext,2020-11-30T16:11:48.705Z,IN,3.7.249.118,3,3.7.249.118,1
MinimumCoresContext,2020-11-30T16:12:18.705Z,IN,3.7.249.118,3,3.7.249.118,1
MinimumCoresContext,2020-11-30T16:12:48.705Z,IN,3.7.249.118,3,3.7.249.118,1
MinimumCoresContext,2020-11-30T16:13:18.705Z,IN,3.7.249.118,3,3.7.249.118,1
MinimumCoresContext,2020-11-30T16:13:48.705Z,IN,3.7.249.118,3,3.7.249.118,1
MinimumCoresContext,2020-11-30T16:14:18.705Z,IN,3.7.249.118,3,3.7.249.118,1
MinimumCoresContext,2020-11-30T16:14:48.705Z,IN,3.7.249.118,3,3.7.249.118,1
MinimumCoresContext,2020-11-30T16:15:18.705Z,IN,3.7.249.118,3,3.7.249.118,1
MinimumCoresContext,2020-11-30T16:15:48.705Z,IN,3.7.249.118,3,3.7.249.118,1
MinimumCoresContext,2020-11-30T16:16:18.705Z,IN,3.7.249.118,3,3.7.249.118,1
MinimumCoresContext,2020-11-30T16:16:48.705Z,IN,3.7.249.118,3,3.7.249.118,1
MinimumCoresContext,2020-11-30T16:17:18.705Z,IN,3.7.249.118,3,3.7.249.118,1
MinimumCoresContext,2020-11-30T16:17:48.705Z,IN,3.7.249.118,3,3.7.249.118,1
MinimumCoresContext,2020-11-30T16:18:18.705Z,IN,3.7.249.118,3,3.7.249.118,1
MinimumCoresContext,2020-11-30T16:18:48.705Z,IN,3.7.249.118,3,3.7.249.118,1
MinimumCoresContext,2020-11-30T16:19:18.705Z,IN,3.7.249.118,3,3.7.249.118,1
MinimumCoresContext,2020-11-30T16:19:48.705Z,IN,3.7.249.118,3,3.7.249.118,1
MinimumCoresContext,2020-11-30T16:20:18.705Z,IN,3.7.249.118,3,3.7.249.118,1
MinimumCoresContext,2020-11-30T16:20:48.705Z,IN,3.7.249.118,3,3.7.249.118,1
MinimumCoresContext,2020-11-30T16:21:18.705Z,IN,3.7.249.118,3,3.7.249.118,1
MinimumCoresContext,2020-11-30T16:21:48.705Z,IN,3.7.249.118,3,3.7.249.118,1
MinimumCoresContext,2020-11-30T16:22:18.705Z,IN,3.7.249.118,3,3.7.249.118,1
MinimumCoresContext,2020-11-30T16:22:48.705Z,IN,3.7.249.118,3,3.7.249.118,1
MinimumCoresContext,2020-11-30T16:23:18.705Z,IN,3.7.249.118,3,3.7.249.118,1
MinimumCoresContext,2020-11-30T16:23:48.705Z,IN,3.7.249.118,3,3.7.249.118,1
MinimumCoresContext,2020-11-30T16:24:18.705Z,IN,3.7.249.118,3,3.7.249.118,1
MinimumCoresContext,2020-11-30T16:24:48.705Z,IN,3.7.249.118,3,3.7.249.118,1
MinimumCoresContext,2020-11-30T16:25:18.705Z,IN,3.7.249.118,3,3.7.249.118,1
MinimumCoresContext,2020-11-30T16:25:48.705Z,IN,3.7.249.118,3,3.7.249.118,1
MinimumCoresContext,2020-11-30T16:26:18.705Z,IN,3.7.249.118,3,3.7.249.118,1
MinimumCoresContext,2020-11-30T16:26:48.705Z,IN,3.7.249.118,3,3.7.249.118,1
MinimumCoresContext,2020-11-30T16:27:18.705Z,IN,3.7.249.118,3,3.7.249.118,1
MinimumCoresContext,2020-11-30T16:27:48.705Z,IN,3.7.249.118,3,3.7.249.118,1
MinimumCoresContext,2020-11-30T16:28:18.705Z,IN,3.7.249.118,3,3.7.249.118,1
MinimumCoresContext,2020-11-30T16:28:48.705Z,IN,3.7.249.118,3,3.7.249.118,1
MinimumCoresContext,2020-11-30T16:29:18.705Z,IN,3.7.249.118,3,3.7.249.118,1
MinimumCoresContext,2020-11-30T16:29:48.705Z,IN,3.7.249.118,3,3.7.249.118,1
MinimumCoresContext,2020-11-30T16:30:18.705Z,IN,3.7.249.118,3,3.7.249.118,1
MinimumCoresContext,2020-11-30T16:30:48.705Z,IN,3.7.249.118,3,3.7.249.118,1
MinimumCoresContext,2020-11-30T16:31:18.705Z,IN,3.7.249.118,3,3.7.249.118,1
MinimumCoresContext,2020-11-30T16:31:48.705Z,IN,3.7.249.118,3,3.7.249.118,1
MinimumCoresContext,2020-11-30T16:32:18.705Z,IN,3.7.249.118,3,3.7.249.118,1
MinimumCoresContext,2020-11-30T16:32:48.705Z,IN,3.7.249.118,3,3.7.249.118,1
MinimumCoresContext,2020-11-30T16:33:18.705Z,IN,3.7.249.118,3,3.7.249.118,1
MinimumCoresContext,2020-11-30T16:33:48.705Z,IN,3.7.249.118,3,3.7.249.118,1
MinimumCoresContext,2020-11-30T16:34:18.705Z,IN,3.7.249.118,3,3.7.249.118,1
MinimumCoresContext,2020-11-30T16:34:48.705Z,IN,3.7.249.118,3,3.7.249.118,1
MinimumCoresContext,2020-11-30T16:35:18.705Z,IN,3.7.249.118,3,3.7.249.118,1
MinimumCoresContext,2020-11-30T16:35:48.705Z,IN,3.7.249.118,3,3.7.249.118,1
MinimumCoresContext,2020-11-30T16:36:18.705Z,IN,3.7.249.118,3,3.7.249.118,1
MinimumCoresContext,2020-11-30T16:36:48.705Z,IN,3.7.249.118,3,3.7.249.118,1
MinimumCoresContext,2020-11-30T16:37:18.705Z,IN,3.7.249.118,3,3.7.249.118,1
MinimumCoresContext,2020-11-30T16:37:48.705Z,IN,3.7.249.118,3,3.7.249.118,1
MinimumCoresContext,2020-11-30T16:38:18.705Z,IN,3.7.249.118,3,3.7.249.118,1
MinimumCoresContext,2020-11-30T16:38:48.705Z,IN,3.7.249.118,3,3.7.249.118,1
MinimumCoresContext,2020-11-30T16:39:18.705Z,IN,3.7.249.118,3,3.7.249.118,1
MinimumCoresContext,2020-11-30T16:39:48.705Z,IN,3.7.249.118,3,3.7.249.118,1
MinimumCoresContext,2020-11-30T16:40:18.705Z,IN,3.7.249.118,3,3.7.249.118,1
MinimumCoresContext,2020-11-30T16:40:48.705Z,IN,3.7.249.118,3,3.7.249.118,1
MinimumCoresContext,2020-11-30T16:41:18.705Z,IN,3.7.249.118,3,3.7.249.118,1
MinimumCoresContext,2020-11-30T16:41:48.705Z,IN,3.7.249.118,3,3.7.249.118,1
MinimumCoresContext,2020-11-30T16:42:18.705Z,IN,3.7.249.118,3,3.7.249.118,1
MinimumCoresContext,2020-11-30T16:42:48.705Z,IN,3.7.249.118,3,3.7.249.118,1
MinimumCoresContext,2020-11-30T16:43:18.705Z,IN,3.7.249.118,3,3.7.249.118,1
MinimumCoresContext,2020-11-30T16:43:48.705Z,IN,3.7.249.118,3,3.7.249.118,1
MinimumCoresContext,2020-11-30T16:44:18.705Z,IN,3.7.249.118,3,3.7.249.118,1
MinimumCoresContext,2020-11-30T16:44:48.705Z,IN,3.7.249.118,3,3.7.249.118,1
MinimumCoresContext,2020-11-30T16:45:18.705Z,IN,3.7.249.118,3,3.7.249.118,1
MinimumCoresContext,2020-11-30T16:45:48.705Z,IN,3.7.249.118,3,3.7.249.118,1
MinimumCoresContext,2020-11-30T16:46:18.705Z,IN,3.7.249.118,3,3.7.249.118,1
MinimumCoresContext,2020-11-30T16:46:48.705Z,IN,3.7.249.118,3,3.7.249.118,1
MinimumCoresContext,2020-11-30T16:47:18.705Z,IN,3.7.249.118,3,3.7.249.118,1
MinimumCoresContext,2020-11-30T16:47:48.705Z,IN,3.7.249.118,3,3.7.249.118,1
MinimumCoresContext,2020-11-30T16:48:18.705Z,IN,3.7.249.118,3,3.7.249.118,1
MinimumCoresContext,2020-11-30T16:48:48.705Z,IN,3.7.249.118,3,3.7.249.118,1
MinimumCoresContext,2020-11-30T16:49:18.705Z,IN,3.7.249.118,3,3.7.249.118,1
MinimumCoresContext,2020-11-30T16:49:48.705Z,IN,3.7.249.118,3,3.7.249.118,1
MinimumCoresContext,2020-11-30T16:50:18.705Z,IN,3.7.249.118,3,3.7.249.118,1
MinimumCoresContext,2020-11-30T16:50:48.705Z,IN,3.7.249.118,3,3.7.249.118,1
MinimumCoresContext,2020-11-30T16:51:18.705Z,IN,3.7.249.118,3,3.7.249.118,1
MinimumCoresContext,2020-11-30T16:51:48.705Z,IN,3.7.249.118,3,3.7.249.118,1
MinimumCoresContext,2020-11-30T16:52:18.705Z,IN,3.7.249.118,3,3.7.249.118,1
MinimumCoresContext,2020-11-30T16:52:48.705Z,IN,3.7.249.118,3,3.7.249.118,1
MinimumCoresContext,2020-11-30T16:53:18.705Z,IN,3.7.249.118,3,3.7.249.118,1
MinimumCoresContext,2020-11-30T16:53:48.705Z,IN,3.7.249.118,3,3.7.249.118,1
MinimumCoresContext,2020-11-30T16:54:18.705Z,IN,3.7.249.118,3,3.7.249.118,1
MinimumCoresContext,2020-11-30T16:54:48.705Z,IN,3.7.249.118,3,3.7.249.118,1
MinimumCoresContext,2020-11-30T16:55:18.705Z,IN,3.7.249.118,3,3.7.249.118,1
MinimumCoresContext,2020-11-30T16:55:48.705Z,IN,3.7.249.118,3,3.7.249.118,1
MinimumCoresContext,2020-11-30T16:56:18.706Z,IN,3.7.249.118,3,3.7.249.118,1
MinimumCoresContext,2020-11-30T16:56:48.705Z,IN,3.7.249.118,3,3.7.249.118,1
MinimumCoresContext,2020-11-30T16:57:18.705Z,IN,3.7.249.118,3,3.7.249.118,1
MinimumCoresContext,2020-11-30T16:57:48.705Z,IN,3.7.249.118,3,3.7.249.118,1
MinimumCoresContext,2020-11-30T16:58:18.705Z,IN,3.7.249.118,3,3.7.249.118,1
MinimumCoresContext,2020-11-30T16:58:48.705Z,IN,3.7.249.118,3,3.7.249.118,1
MinimumCoresContext,2020-11-30T16:59:18.705Z,IN,3.7.249.118,3,3.7.249.118,1
MinimumCoresContext,2020-11-30T16:59:48.705Z,IN,3.7.249.118,3,3.7.249.118,1
MinimumCoresContext,2020-11-30T17:00:18.705Z,IN,3.7.249.118,3,3.7.249.118,1
MinimumCoresContext,2020-11-30T17:00:48.705Z,IN,3.7.249.118,3,3.7.249.118,1
MinimumCoresContext,2020-11-30T17:01:18.705Z,IN,3.7.249.118,3,3.7.249.118,1
MinimumCoresContext,2020-11-30T17:01:48.705Z,IN,3.7.249.118,3,3.7.249.118,1
MinimumCoresContext,2020-11-30T17:02:18.705Z,IN,3.7.249.118,3,3.7.249.118,1
MinimumCoresContext,2020-11-30T17:02:48.705Z,IN,3.7.249.118,3,3.7.249.118,1
MinimumCoresContext,2020-11-30T17:03:18.705Z,IN,3.7.249.118,3,3.7.249.118,1
MinimumCoresContext,2020-11-30T17:03:48.705Z,IN,3.7.249.118,3,3.7.249.118,1
MinimumCoresContext,2020-11-30T17:04:18.705Z,IN,3.7.249.118,3,3.7.249.118,1
MinimumCoresContext,2020-11-30T17:04:48.705Z,IN,3.7.249.118,3,3.7.249.118,1
MinimumCoresContext,2020-11-30T17:05:18.705Z,IN,3.7.249.118,3,3.7.249.118,1
MinimumCoresContext,2020-11-30T17:05:48.705Z,IN,3.7.249.118,3,3.7.249.118,1
MinimumCoresContext,2020-11-30T17:06:18.705Z,IN,3.7.249.118,3,3.7.249.118,1
MinimumCoresContext,2020-11-30T17:06:48.705Z,IN,3.7.249.118,3,3.7.249.118,1
MinimumCoresContext,2020-11-30T17:07:18.705Z,IN,3.7.249.118,3,3.7.249.118,1
MinimumCoresContext,2020-11-30T17:07:48.705Z,IN,3.7.249.118,3,3.7.249.118,1
MinimumCoresContext,2020-11-30T17:08:18.705Z,IN,3.7.249.118,3,3.7.249.118,1
MinimumCoresContext,2020-11-30T17:08:48.705Z,IN,3.7.249.118,3,3.7.249.118,1
MinimumCoresContext,2020-11-30T17:09:18.705Z,IN,3.7.249.118,3,3.7.249.118,1
MinimumCoresContext,2020-11-30T17:09:48.705Z,IN,3.7.249.118,3,3.7.249.118,1
MinimumCoresContext,2020-11-30T17:10:18.705Z,IN,3.7.249.118,3,3.7.249.118,1
MinimumCoresContext,2020-11-30T17:10:48.705Z,IN,3.7.249.118,3,3.7.249.118,1
MinimumCoresContext,2020-11-30T17:11:18.705Z,IN,3.7.249.118,3,3.7.249.118,1
MinimumCoresContext,2020-11-30T17:11:48.705Z,IN,3.7.249.118,3,3.7.249.118,1
MinimumCoresContext,2020-11-30T17:12:18.705Z,IN,3.7.249.118,3,3.7.249.118,1
MinimumCoresContext,2020-11-30T17:12:48.705Z,IN,3.7.249.118,3,3.7.249.118,1
MinimumCoresContext,2020-11-30T17:13:18.705Z,IN,3.7.249.118,3,3.7.249.118,1
MinimumCoresContext,2020-11-30T17:13:48.705Z,IN,3.7.249.118,3,3.7.249.118,1
MinimumCoresContext,2020-11-30T17:14:18.705Z,IN,3.7.249.118,3,3.7.249.118,1
MinimumCoresContext,2020-11-30T17:14:48.705Z,IN,3.7.249.118,3,3.7.249.118,1
MinimumCoresContext,2020-11-30T17:15:18.71Z,IN,3.7.249.118,3,3.7.249.118,1
MinimumCoresContext,2020-11-30T17:15:48.705Z,IN,3.7.249.118,3,3.7.249.118,1
MinimumCoresContext,2020-11-30T17:16:18.705Z,IN,3.7.249.118,3,3.7.249.118,1
MinimumCoresContext,2020-11-30T17:16:48.705Z,IN,3.7.249.118,3,3.7.249.118,1
MinimumCoresContext,2020-11-30T17:17:18.705Z,IN,3.7.249.118,3,3.7.249.118,1
MinimumCoresContext,2020-11-30T17:17:48.705Z,IN,3.7.249.118,3,3.7.249.118,1
MinimumCoresContext,2020-11-30T17:18:18.705Z,IN,3.7.249.118,3,3.7.249.118,1
MinimumCoresContext,2020-11-30T17:18:48.705Z,IN,3.7.249.118,3,3.7.249.118,1
MinimumCoresContext,2020-11-30T17:19:18.705Z,IN,3.7.249.118,3,3.7.249.118,1
MinimumCoresContext,2020-11-30T17:19:48.705Z,IN,3.7.249.118,3,3.7.249.118,1
MinimumCoresContext,2020-11-30T17:20:18.705Z,IN,3.7.249.118,3,3.7.249.118,1
MinimumCoresContext,2020-11-30T17:20:48.705Z,IN,3.7.249.118,3,3.7.249.118,1
MinimumCoresContext,2020-11-30T17:21:18.705Z,IN,3.7.249.118,3,3.7.249.118,1
MinimumCoresContext,2020-11-30T17:21:48.705Z,IN,3.7.249.118,3,3.7.249.118,1
MinimumCoresContext,2020-11-30T17:22:18.705Z,IN,3.7.249.118,3,3.7.249.118,1
MinimumCoresContext,2020-11-30T17:22:48.705Z,IN,3.7.249.118,3,3.7.249.118,1
MinimumCoresContext,2020-11-30T17:23:18.705Z,IN,3.7.249.118,3,3.7.249.118,1
MinimumCoresContext,2020-11-30T17:23:48.705Z,IN,3.7.249.118,3,3.7.249.118,1
MinimumCoresContext,2020-11-30T17:24:18.705Z,IN,3.7.249.118,3,3.7.249.118,1
MinimumCoresContext,2020-11-30T17:24:48.705Z,IN,3.7.249.118,3,3.7.249.118,1
MinimumCoresContext,2020-11-30T17:25:18.705Z,IN,3.7.249.118,3,3.7.249.118,1
MinimumCoresContext,2020-11-30T17:25:48.705Z,IN,3.7.249.118,3,3.7.249.118,1
MinimumCoresContext,2020-11-30T17:26:18.705Z,IN,3.7.249.118,3,3.7.249.118,1
MinimumCoresContext,2020-11-30T17:26:48.705Z,IN,3.7.249.118,3,3.7.249.118,1
MinimumCoresContext,2020-11-30T17:27:18.705Z,IN,3.7.249.118,3,3.7.249.118,1
MinimumCoresContext,2020-11-30T17:27:48.705Z,IN,3.7.249.118,3,3.7.249.118,1
MinimumCoresContext,2020-11-30T17:28:18.705Z,IN,3.7.249.118,3,3.7.249.118,1
MinimumCoresContext,2020-11-30T17:28:48.705Z,IN,3.7.249.118,3,3.7.249.118,1
MinimumCoresContext,2020-11-30T17:29:18.705Z,IN,3.7.249.118,3,3.7.249.118,1
MinimumCoresContext,2020-11-30T17:29:48.705Z,IN,3.7.249.118,3,3.7.249.118,1
MinimumCoresContext,2020-11-30T17:30:18.705Z,IN,3.7.249.118,3,3.7.249.118,1
MinimumCoresContext,2020-11-30T17:30:48.705Z,IN,3.7.249.118,3,3.7.249.118,1
MinimumCoresContext,2020-11-30T17:31:18.705Z,IN,3.7.249.118,3,3.7.249.118,1
MinimumCoresContext,2020-11-30T17:31:48.705Z,IN,3.7.249.118,3,3.7.249.118,1
MinimumCoresContext,2020-11-30T17:32:18.705Z,IN,3.7.249.118,3,3.7.249.118,1
MinimumCoresContext,2020-11-30T17:32:48.705Z,IN,3.7.249.118,3,3.7.249.118,1
MinimumCoresContext,2020-11-30T17:33:18.705Z,IN,3.7.249.118,3,3.7.249.118,1
MinimumCoresContext,2020-11-30T17:33:48.705Z,IN,3.7.249.118,3,3.7.249.118,1
MinimumCoresContext,2020-11-30T17:34:18.705Z,IN,3.7.249.118,3,3.7.249.118,1
MinimumCoresContext,2020-11-30T17:34:48.705Z,IN,3.7.249.118,3,3.7.249.118,1
MinimumCoresContext,2020-11-30T17:35:18.705Z,IN,3.7.249.118,3,3.7.249.118,1
MinimumCoresContext,2020-11-30T17:35:48.705Z,IN,3.7.249.118,3,3.7.249.118,1
MinimumCoresContext,2020-11-30T17:36:18.705Z,IN,3.7.249.118,3,3.7.249.118,1
MinimumCoresContext,2020-11-30T17:36:48.705Z,IN,3.7.249.118,3,3.7.249.118,1
MinimumCoresContext,2020-11-30T17:37:18.705Z,IN,3.7.249.118,3,3.7.249.118,1
MinimumCoresContext,2020-11-30T17:37:48.705Z,IN,3.7.249.118,3,3.7.249.118,1
MinimumCoresContext,2020-11-30T17:38:18.705Z,IN,3.7.249.118,3,3.7.249.118,1
MinimumCoresContext,2020-11-30T17:38:48.705Z,IN,3.7.249.118,3,3.7.249.118,1
MinimumCoresContext,2020-11-30T17:39:18.705Z,IN,3.7.249.118,3,3.7.249.118,1
MinimumCoresContext,2020-11-30T17:39:48.705Z,IN,3.7.249.118,3,3.7.249.118,1
MinimumCoresContext,2020-11-30T17:40:18.705Z,IN,3.7.249.118,3,3.7.249.118,1
MinimumCoresContext,2020-11-30T17:40:48.705Z,IN,3.7.249.118,3,3.7.249.118,1
MinimumCoresContext,2020-11-30T17:41:18.705Z,IN,3.7.249.118,3,3.7.249.118,1
MinimumCoresContext,2020-11-30T17:41:48.705Z,IN,3.7.249.118,3,3.7.249.118,1
MinimumCoresContext,2020-11-30T17:42:18.705Z,IN,3.7.249.118,3,3.7.249.118,1
MinimumCoresContext,2020-11-30T17:42:48.705Z,IN,3.7.249.118,3,3.7.249.118,1
MinimumCoresContext,2020-11-30T17:43:18.705Z,IN,3.7.249.118,3,3.7.249.118,1
MinimumCoresContext,2020-11-30T17:43:48.705Z,IN,3.7.249.118,3,3.7.249.118,1
MinimumCoresContext,2020-11-30T17:44:18.705Z,IN,3.7.249.118,3,3.7.249.118,1
MinimumCoresContext,2020-11-30T17:44:48.705Z,IN,3.7.249.118,3,3.7.249.118,1
MinimumCoresContext,2020-11-30T17:45:18.705Z,IN,3.7.249.118,3,3.7.249.118,1
MinimumCoresContext,2020-11-30T17:45:48.705Z,IN,3.7.249.118,3,3.7.249.118,1
MinimumCoresContext,2020-11-30T17:46:18.705Z,IN,3.7.249.118,3,3.7.249.118,1
MinimumCoresContext,2020-11-30T17:46:48.705Z,IN,3.7.249.118,3,3.7.249.118,1
MinimumCoresContext,2020-11-30T17:47:18.705Z,IN,3.7.249.118,3,3.7.249.118,1
MinimumCoresContext,2020-11-30T17:47:48.705Z,IN,3.7.249.118,3,3.7.249.118,1
MinimumCoresContext,2020-11-30T17:48:18.705Z,IN,3.7.249.118,3,3.7.249.118,1
MinimumCoresContext,2020-11-30T17:48:48.705Z,IN,3.7.249.118,3,3.7.249.118,1
MinimumCoresContext,2020-11-30T17:49:18.705Z,IN,3.7.249.118,3,3.7.249.118,1
MinimumCoresContext,2020-11-30T17:49:48.705Z,IN,3.7.249.118,3,3.7.249.118,1
MinimumCoresContext,2020-11-30T17:50:18.706Z,IN,3.7.249.118,3,3.7.249.118,1
MinimumCoresContext,2020-11-30T17:50:48.705Z,IN,3.7.249.118,3,3.7.249.118,1
MinimumCoresContext,2020-11-30T17:51:18.705Z,IN,3.7.249.118,3,3.7.249.118,1
MinimumCoresContext,2020-11-30T17:51:48.705Z,IN,3.7.249.118,3,3.7.249.118,1
MinimumCoresContext,2020-11-30T17:52:18.705Z,IN,3.7.249.118,3,3.7.249.118,1
MinimumCoresContext,2020-11-30T17:52:48.705Z,IN,3.7.249.118,3,3.7.249.118,1
MinimumCoresContext,2020-11-30T17:53:18.705Z,IN,3.7.249.118,3,3.7.249.118,1
MinimumCoresContext,2020-11-30T17:53:48.705Z,IN,3.7.249.118,3,3.7.249.118,1
MinimumCoresContext,2020-11-30T17:54:18.705Z,IN,3.7.249.118,3,3.7.249.118,1
MinimumCoresContext,2020-11-30T17:54:48.705Z,IN,3.7.249.118,3,3.7.249.118,1
MinimumCoresContext,2020-11-30T17:55:18.705Z,IN,3.7.249.118,3,3.7.249.118,1
MinimumCoresContext,2020-11-30T17:55:48.705Z,IN,3.7.249.118,3,3.7.249.118,1
MinimumCoresContext,2020-11-30T17:56:18.705Z,IN,3.7.249.118,3,3.7.249.118,1
MinimumCoresContext,2020-11-30T17:56:48.705Z,IN,3.7.249.118,3,3.7.249.118,1
MinimumCoresContext,2020-11-30T17:57:18.705Z,IN,3.7.249.118,3,3.7.249.118,1
MinimumCoresContext,2020-11-30T17:57:48.705Z,IN,3.7.249.118,3,3.7.249.118,1
MinimumCoresContext,2020-11-30T17:58:18.705Z,IN,3.7.249.118,3,3.7.249.118,1
MinimumCoresContext,2020-11-30T17:58:48.705Z,IN,3.7.249.118,3,3.7.249.118,1
MinimumCoresContext,2020-11-30T17:59:18.705Z,IN,3.7.249.118,3,3.7.249.118,1
MinimumCoresContext,2020-11-30T17:59:48.705Z,IN,3.7.249.118,3,3.7.249.118,1
MinimumCoresContext,2020-11-30T18:00:18.705Z,IN,3.7.249.118,3,3.7.249.118,1
MinimumCoresContext,2020-11-30T18:00:48.705Z,IN,3.7.249.118,3,3.7.249.118,1
MinimumCoresContext,2020-11-30T18:01:18.705Z,IN,3.7.249.118,3,3.7.249.118,1
MinimumCoresContext,2020-11-30T18:01:48.705Z,IN,3.7.249.118,3,3.7.249.118,1
MinimumCoresContext,2020-11-30T18:02:18.705Z,IN,3.7.249.118,3,3.7.249.118,1
MinimumCoresContext,2020-11-30T18:02:48.705Z,IN,3.7.249.118,3,3.7.249.118,1
MinimumCoresContext,2020-11-30T18:03:18.705Z,IN,3.7.249.118,3,3.7.249.118,1
MinimumCoresContext,2020-11-30T18:03:48.705Z,IN,3.7.249.118,3,3.7.249.118,1
MinimumCoresContext,2020-11-30T18:04:18.705Z,IN,3.7.249.118,3,3.7.249.118,1
MinimumCoresContext,2020-11-30T18:04:48.705Z,IN,3.7.249.118,3,3.7.249.118,1
MinimumCoresContext,2020-11-30T18:05:18.705Z,IN,3.7.249.118,3,3.7.249.118,1
MinimumCoresContext,2020-11-30T18:05:48.705Z,IN,3.7.249.118,3,3.7.249.118,1
MinimumCoresContext,2020-11-30T18:06:18.705Z,IN,3.7.249.118,3,3.7.249.118,1
MinimumCoresContext,2020-11-30T18:06:48.705Z,IN,3.7.249.118,3,3.7.249.118,1
MinimumCoresContext,2020-11-30T18:07:18.705Z,IN,3.7.249.118,3,3.7.249.118,1
MinimumCoresContext,2020-11-30T18:07:48.705Z,IN,3.7.249.118,3,3.7.249.118,1
MinimumCoresContext,2020-11-30T18:08:18.705Z,IN,3.7.249.118,3,3.7.249.118,1
MinimumCoresContext,2020-11-30T18:08:48.705Z,IN,3.7.249.118,3,3.7.249.118,1
MinimumCoresContext,2020-11-30T18:09:18.705Z,IN,3.7.249.118,3,3.7.249.118,0
