,Unnamed: 0,prediction,real,time,split
2593,2593,3.121070384979248,0.8999999761581421,2021-01-18 16:16:55.785,train
2594,2594,2.078346967697144,0.8999999761581421,2021-01-18 16:17:55.785,train
2595,2595,3.214210033416748,2.0,2021-01-18 16:18:55.785,train
2596,2596,2.5026330947875977,0.6000000238418579,2021-01-18 16:19:55.785,train
2597,2597,2.444641590118408,0.699999988079071,2021-01-18 16:20:55.785,train
2598,2598,2.2422146797180176,0.5,2021-01-18 16:21:55.785,train
2599,2599,2.1447293758392334,0.6000000238418579,2021-01-18 16:22:55.785,train
2600,2600,2.0451717376708984,0.6000000238418579,2021-01-18 16:23:55.785,train
2601,2601,2.0421497821807857,0.6000000238418579,2021-01-18 16:24:55.785,train
2602,2602,1.8548929691314695,0.5,2021-01-18 16:25:55.785,train
2603,2603,1.8320159912109373,10.899999618530273,2021-01-18 16:26:55.785,train
2604,2604,1.8574931621551516,0.30000001192092896,2021-01-18 16:27:55.785,train
2605,2605,1.8622422218322756,0.5,2021-01-18 16:28:55.785,train
2606,2606,1.7836809158325195,0.5,2021-01-18 16:29:55.785,train
2607,2607,2.111419439315796,0.699999988079071,2021-01-18 16:30:55.785,train
2608,2608,2.0556478500366206,2.799999952316284,2021-01-18 16:31:55.785,train
2609,2609,2.12392258644104,11.199999809265137,2021-01-18 16:32:55.785,train
2610,2610,2.636202812194824,0.4000000059604645,2021-01-18 16:33:55.785,train
2611,2611,2.0107283592224117,0.5,2021-01-18 16:34:55.785,train
2612,2612,2.1405155658721924,6.4000000953674325,2021-01-18 16:35:55.785,train
2613,2613,2.399965763092041,0.5,2021-01-18 16:36:55.785,train
2614,2614,1.9655876159667969,1.100000023841858,2021-01-18 16:37:55.785,train
2615,2615,1.982231855392456,0.6000000238418579,2021-01-18 16:38:55.785,train
2616,2616,1.9326672554016116,0.5,2021-01-18 16:39:55.785,train
2617,2617,1.8891513347625728,0.5,2021-01-18 16:40:55.785,train
2618,2618,2.069937229156494,0.0,2021-01-18 16:41:55.785,train
2619,2619,1.9151504039764404,5.0,2021-01-18 16:42:55.785,train
2620,2620,1.895230054855347,0.699999988079071,2021-01-18 16:43:55.785,train
2621,2621,1.913031816482544,0.4000000059604645,2021-01-18 16:44:55.785,train
2622,2622,1.8946452140808103,0.5,2021-01-18 16:45:55.785,train
2623,2623,1.9735860824584959,0.4000000059604645,2021-01-18 16:46:55.785,train
2624,2624,2.05014967918396,0.5,2021-01-18 16:47:55.785,train
2625,2625,2.2637736797332764,0.5,2021-01-18 16:48:55.785,train
2626,2626,2.082813501358032,0.6000000238418579,2021-01-18 16:49:55.785,train
2627,2627,2.5956833362579346,0.4000000059604645,2021-01-18 16:50:55.785,train
2628,2628,2.758237361907959,0.4000000059604645,2021-01-18 16:51:55.785,train
2629,2629,2.002368927001953,0.5,2021-01-18 16:52:55.785,train
2630,2630,2.1585805416107178,0.6000000238418579,2021-01-18 16:53:55.785,train
2631,2631,1.97291111946106,0.0,2021-01-18 16:54:55.785,train
2632,2632,1.6551508903503418,0.699999988079071,2021-01-18 16:55:55.785,train
2633,2633,1.6458539962768557,0.4000000059604645,2021-01-18 16:56:55.785,train
2634,2634,1.5049574375152588,1.6000000238418581,2021-01-18 16:57:55.785,train
2635,2635,1.2382323741912842,0.0,2021-01-18 16:58:55.785,train
2636,2636,1.2864346504211426,0.6000000238418579,2021-01-18 16:59:55.785,train
2637,2637,1.2636442184448242,0.4000000059604645,2021-01-18 17:00:55.785,train
2638,2638,1.3116440773010254,0.5,2021-01-18 17:01:55.785,train
2639,2639,1.2815546989440918,0.4000000059604645,2021-01-18 17:02:55.785,train
2640,2640,1.355424880981445,0.4000000059604645,2021-01-18 17:03:55.785,train
2641,2641,1.3963747024536133,0.6000000238418579,2021-01-18 17:04:55.785,train
2642,2642,1.5046432018280032,0.6000000238418579,2021-01-18 17:05:55.785,train
2643,2643,1.4147508144378662,0.5,2021-01-18 17:06:55.785,train
2644,2644,1.7506361007690432,0.5,2021-01-18 17:07:55.785,train
2645,2645,1.9314489364624023,0.4000000059604645,2021-01-18 17:08:55.785,train
2646,2646,1.5162484645843506,8.800000190734863,2021-01-18 17:09:55.785,train
2647,2647,1.7211482524871826,0.6000000238418579,2021-01-18 17:10:55.785,train
2648,2648,1.553778886795044,0.5,2021-01-18 17:11:55.785,train
2649,2649,1.2434144020080566,0.4000000059604645,2021-01-18 17:12:55.785,train
2650,2650,1.4365553855895996,0.6000000238418579,2021-01-18 17:13:55.785,train
2651,2651,1.4202737808227541,0.5,2021-01-18 17:14:55.785,train
2652,2652,1.3634846210479736,0.0,2021-01-18 17:15:55.785,train
2653,2653,1.2470767498016355,0.699999988079071,2021-01-18 17:16:55.785,train
2654,2654,1.271378755569458,0.6000000238418579,2021-01-18 17:17:55.785,train
2655,2655,1.1326494216918943,0.699999988079071,2021-01-18 17:18:55.785,train
2656,2656,1.0928001403808594,7.800000190734862,2021-01-18 17:19:55.785,train
2657,2657,1.2039508819580078,0.4000000059604645,2021-01-18 17:20:55.785,train
2658,2658,1.2032437324523926,0.4000000059604645,2021-01-18 17:21:55.785,train
2659,2659,1.3040313720703125,26.79999923706055,2021-01-18 17:22:55.785,train
2660,2660,1.605968713760376,0.5,2021-01-18 17:23:55.785,train
2661,2661,1.539578914642334,0.0,2021-01-18 17:24:55.785,train
2662,2662,1.7014808654785156,0.4000000059604645,2021-01-18 17:25:55.785,train
2663,2663,2.5258796215057373,0.5,2021-01-18 17:26:55.785,train
2664,2664,2.267106294631958,4.5,2021-01-18 17:27:55.785,train
2665,2665,1.854633092880249,0.6000000238418579,2021-01-18 17:28:55.785,train
2666,2666,1.5823493003845217,0.6000000238418579,2021-01-18 17:29:55.785,train
2667,2667,1.5089378356933594,0.8000000119209291,2021-01-18 17:30:55.785,train
2668,2668,1.3711099624633791,0.4000000059604645,2021-01-18 17:31:55.785,train
2669,2669,1.324411153793335,0.5,2021-01-18 17:32:55.785,train
2670,2670,1.3273687362670898,0.4000000059604645,2021-01-18 17:33:55.785,train
2671,2671,1.3892135620117188,0.699999988079071,2021-01-18 17:34:55.785,train
2672,2672,1.2306187152862549,0.699999988079071,2021-01-18 17:35:55.785,train
2673,2673,1.143228530883789,0.6000000238418579,2021-01-18 17:36:55.785,train
2674,2674,1.131385326385498,0.4000000059604645,2021-01-18 17:37:55.785,train
2675,2675,1.2321023941040041,0.5,2021-01-18 17:38:55.785,train
2676,2676,1.1830058097839355,0.4000000059604645,2021-01-18 17:39:55.785,train
2677,2677,1.1570711135864258,4.5,2021-01-18 17:40:55.785,train
2678,2678,1.2161412239074707,0.5,2021-01-18 17:41:55.785,train
2679,2679,1.3275341987609863,17.700000762939453,2021-01-18 17:42:55.785,train
2680,2680,1.08672833442688,0.4000000059604645,2021-01-18 17:43:55.785,train
2681,2681,2.0311388969421387,0.4000000059604645,2021-01-18 17:44:55.785,train
2682,2682,1.6127405166625977,0.0,2021-01-18 17:45:55.785,train
2683,2683,2.309924602508545,1.5,2021-01-18 17:46:55.785,train
2684,2684,1.411242961883545,0.5,2021-01-18 17:47:55.785,train
2685,2685,1.275198459625244,0.5,2021-01-18 17:48:55.785,train
2686,2686,1.0807921886444092,0.4000000059604645,2021-01-18 17:49:55.785,train
2687,2687,1.022923231124878,0.6000000238418579,2021-01-18 17:50:55.785,train
2688,2688,1.017853021621704,0.6000000238418579,2021-01-18 17:51:55.785,train
2689,2689,1.0635225772857666,0.5,2021-01-18 17:52:55.785,train
2690,2690,1.0720193386077879,0.0,2021-01-18 17:53:55.785,train
2691,2691,1.19557523727417,11.100000381469727,2021-01-18 17:54:55.785,train
2692,2692,1.2902917861938477,0.5,2021-01-18 17:55:55.785,train
2693,2693,1.3256173133850098,0.30000001192092896,2021-01-18 17:56:55.785,train
2694,2694,1.3559372425079346,0.6000000238418579,2021-01-18 17:57:55.785,train
2695,2695,1.9737133979797363,0.6000000238418579,2021-01-18 17:58:55.785,train
2696,2696,1.8285610675811768,0.5,2021-01-18 17:59:55.785,train
2697,2697,1.5771114826202393,0.5,2021-01-18 18:00:55.785,train
2698,2698,1.584388256072998,0.4000000059604645,2021-01-18 18:01:55.785,train
2699,2699,1.3920977115631104,0.4000000059604645,2021-01-18 18:02:55.785,train
2700,2700,1.1144404411315918,0.6000000238418579,2021-01-18 18:03:55.785,train
2701,2701,1.1233673095703125,0.5,2021-01-18 18:04:55.785,train
2702,2702,1.0547120571136477,0.699999988079071,2021-01-18 18:05:55.785,train
2703,2703,1.0705912113189695,0.5,2021-01-18 18:06:55.785,train
2704,2704,1.1422898769378662,0.5,2021-01-18 18:07:55.785,train
2705,2705,1.2413294315338137,2.0999999046325684,2021-01-18 18:08:55.785,train
2706,2706,1.3172173500061035,0.699999988079071,2021-01-18 18:09:55.785,train
2707,2707,1.3682336807250977,0.0,2021-01-18 18:10:55.785,train
2708,2708,1.3819074630737305,0.5,2021-01-18 18:11:55.785,train
2709,2709,1.4526023864746094,0.4000000059604645,2021-01-18 18:12:55.785,train
2710,2710,1.3318243026733398,0.4000000059604645,2021-01-18 18:13:55.785,train
2711,2711,1.284581422805786,0.5,2021-01-18 18:14:55.785,train
2712,2712,1.248246431350708,0.6000000238418579,2021-01-18 18:15:55.785,train
2713,2713,1.1989941596984863,0.6000000238418579,2021-01-18 18:16:55.785,train
2714,2714,1.118957757949829,1.100000023841858,2021-01-18 18:17:55.785,train
2715,2715,1.0867693424224854,0.4000000059604645,2021-01-18 18:18:55.785,train
2716,2716,0.9256296157836914,1.8999999761581419,2021-01-18 18:19:55.785,train
2717,2717,0.8871495723724365,0.699999988079071,2021-01-18 18:20:55.785,train
2718,2718,0.9669605493545532,1.6000000238418581,2021-01-18 18:21:55.785,train
2719,2719,0.917289137840271,0.5,2021-01-18 18:22:55.785,train
2720,2720,0.8886309862136841,0.6000000238418579,2021-01-18 18:23:55.785,train
2721,2721,0.8667203187942505,0.0,2021-01-18 18:24:55.785,train
2722,2722,0.8772757053375244,0.5,2021-01-18 18:25:55.785,train
2723,2723,0.7621282339096069,0.699999988079071,2021-01-18 18:26:55.785,train
2724,2724,0.7372106313705444,0.6000000238418579,2021-01-18 18:27:55.785,train
2725,2725,0.715078592300415,0.0,2021-01-18 18:28:55.785,train
2726,2726,0.6932293176651001,11.199999809265137,2021-01-18 18:29:55.785,train
2727,2727,0.6783671379089355,0.5,2021-01-18 18:30:55.785,train
2728,2728,0.62871253490448,0.4000000059604645,2021-01-18 18:31:55.785,train
2729,2729,0.5963919162750244,0.6000000238418579,2021-01-18 18:32:55.785,train
2730,2730,0.6530719995498657,0.5,2021-01-18 18:33:55.785,train
2731,2731,0.6060988903045654,0.6000000238418579,2021-01-18 18:34:55.785,train
2732,2732,0.5516000986099243,0.4000000059604645,2021-01-18 18:35:55.785,train
2733,2733,0.5448294878005981,0.6000000238418579,2021-01-18 18:36:55.785,train
2734,2734,0.5034198760986328,0.4000000059604645,2021-01-18 18:37:55.785,train
2735,2735,0.4749958515167236,0.8000000119209291,2021-01-18 18:38:55.785,train
2736,2736,0.4788559675216675,1.100000023841858,2021-01-18 18:39:55.785,train
2737,2737,0.4641975164413452,0.699999988079071,2021-01-18 18:40:55.785,train
2738,2738,0.4596047401428223,0.4000000059604645,2021-01-18 18:41:55.785,train
2739,2739,0.4774463176727295,0.4000000059604645,2021-01-18 18:42:55.785,train
2740,2740,0.4950898885726929,0.5,2021-01-18 18:43:55.785,train
2741,2741,0.4791074991226196,0.8000000119209291,2021-01-18 18:44:55.785,train
2742,2742,0.4740300178527832,0.4000000059604645,2021-01-18 18:45:55.785,train
2743,2743,0.4657120704650879,0.0,2021-01-18 18:46:55.785,train
2744,2744,0.465680718421936,0.4000000059604645,2021-01-18 18:47:55.785,train
2745,2745,0.4781086444854736,0.5,2021-01-18 18:48:55.785,train
2746,2746,0.4810681343078613,0.4000000059604645,2021-01-18 18:49:55.785,train
2747,2747,0.4596667289733887,0.6000000238418579,2021-01-18 18:50:55.785,train
2748,2748,0.450551986694336,0.5,2021-01-18 18:51:55.785,train
2749,2749,0.41482245922088623,0.699999988079071,2021-01-18 18:52:55.785,train
2750,2750,0.40453386306762695,0.4000000059604645,2021-01-18 18:53:55.785,train
2751,2751,0.37494897842407227,0.4000000059604645,2021-01-18 18:54:55.785,train
2752,2752,0.35687482357025146,0.5,2021-01-18 18:55:55.785,train
2753,2753,0.3650608062744141,0.6000000238418579,2021-01-18 18:56:55.785,train
2754,2754,0.3743323087692261,0.4000000059604645,2021-01-18 18:57:55.785,train
2755,2755,0.4176003932952881,0.0,2021-01-18 18:58:55.785,train
2756,2756,0.42610931396484375,0.5,2021-01-18 18:59:55.785,train
2757,2757,0.4569555521011353,0.5,2021-01-18 19:00:55.785,train
2758,2758,0.44443094730377203,0.6000000238418579,2021-01-18 19:01:55.785,train
2759,2759,0.4179972410202025,0.0,2021-01-18 19:02:55.785,train
2760,2760,0.4236856698989868,1.100000023841858,2021-01-18 19:03:55.785,train
2761,2761,0.4192180633544922,0.5,2021-01-18 19:04:55.785,train
2762,2762,0.4237675666809082,0.5,2021-01-18 19:05:55.785,train
2763,2763,0.3889729976654053,0.5,2021-01-18 19:06:55.785,train
2764,2764,0.4099218845367432,0.5,2021-01-18 19:07:55.785,train
2765,2765,0.43950009346008295,30.899999618530273,2021-01-18 19:08:55.785,train
2766,2766,0.5053935050964355,0.0,2021-01-18 19:09:55.785,train
2767,2767,0.4340453147888184,0.5,2021-01-18 19:10:55.785,train
2768,2768,0.6564896106719971,8.5,2021-01-18 19:11:55.785,train
2769,2769,2.441953420639038,0.5,2021-01-18 19:12:55.785,train
2770,2770,0.3885164260864258,0.6000000238418579,2021-01-18 19:13:55.785,train
2771,2771,0.5189064741134644,1.100000023841858,2021-01-18 19:14:55.785,train
2772,2772,1.1520426273345947,0.699999988079071,2021-01-18 19:15:55.785,train
2773,2773,0.4951502084732056,0.0,2021-01-18 19:16:55.785,train
2774,2774,0.4701442718505859,0.4000000059604645,2021-01-18 19:17:55.785,train
2775,2775,0.4185562133789063,0.4000000059604645,2021-01-18 19:18:55.785,train
2776,2776,0.42762291431427,0.5,2021-01-18 19:19:55.785,train
2777,2777,0.3412197828292847,0.0,2021-01-18 19:20:55.785,train
2778,2778,0.3498795032501221,0.699999988079071,2021-01-18 19:21:55.785,train
2779,2779,0.3573296070098877,4.900000095367432,2021-01-18 19:22:55.785,train
2780,2780,0.3770648241043091,0.4000000059604645,2021-01-18 19:23:55.785,train
2781,2781,0.34784865379333496,0.5,2021-01-18 19:24:55.785,train
2782,2782,0.3990103006362915,0.6000000238418579,2021-01-18 19:25:55.785,train
2783,2783,0.6086238622665405,0.4000000059604645,2021-01-18 19:26:55.785,train
2784,2784,0.6695846319198608,0.6000000238418579,2021-01-18 19:27:55.785,train
2785,2785,0.4946767091751098,15.399999618530273,2021-01-18 19:28:55.785,train
2786,2786,1.2594149112701416,0.4000000059604645,2021-01-18 19:29:55.785,train
2787,2787,0.8275191783905029,0.4000000059604645,2021-01-18 19:30:55.785,train
2788,2788,0.5425759553909302,0.6000000238418579,2021-01-18 19:31:55.785,train
2789,2789,1.5452778339385986,0.6000000238418579,2021-01-18 19:32:55.785,train
2790,2790,0.6402523517608643,0.0,2021-01-18 19:33:55.785,train
2791,2791,0.4968559741973877,0.4000000059604645,2021-01-18 19:34:55.785,train
2792,2792,0.5428164005279541,0.5,2021-01-18 19:35:55.785,train
2793,2793,0.5013363361358643,0.6000000238418579,2021-01-18 19:36:55.785,train
2794,2794,0.3803144693374634,0.0,2021-01-18 19:37:55.785,train
2795,2795,0.3778111934661865,0.5,2021-01-18 19:38:55.785,train
2796,2796,0.3985707759857178,0.5,2021-01-18 19:39:55.785,train
2797,2797,0.4753673076629639,0.4000000059604645,2021-01-18 19:40:55.785,train
2798,2798,0.3821539878845215,0.6000000238418579,2021-01-18 19:41:55.785,train
2799,2799,0.41831135749816895,31.79999923706055,2021-01-18 19:42:55.785,train
2800,2800,0.5079847574234009,0.0,2021-01-18 19:43:55.785,train
2801,2801,0.5084160566329956,0.5,2021-01-18 19:44:55.785,train
2802,2802,0.5231910943984985,0.5,2021-01-18 19:45:55.785,train
2803,2803,2.0488357543945312,0.0,2021-01-18 19:46:55.785,train
2804,2804,0.8232201337814331,0.4000000059604645,2021-01-18 19:47:55.785,train
2805,2805,1.105929613113403,0.5,2021-01-18 19:48:55.785,train
2806,2806,0.9088106155395508,0.6000000238418579,2021-01-18 19:49:55.785,train
2807,2807,0.5821022987365723,0.0,2021-01-18 19:50:55.785,train
2808,2808,0.4185276031494141,0.8999999761581421,2021-01-18 19:51:55.785,train
2809,2809,0.4192284345626831,0.30000001192092896,2021-01-18 19:52:55.785,train
2810,2810,0.42973053455352783,0.5,2021-01-18 19:53:55.785,train
2811,2811,0.332918643951416,0.699999988079071,2021-01-18 19:54:55.785,train
2812,2812,0.4145984649658203,0.5,2021-01-18 19:55:55.785,train
2813,2813,0.3632845878601074,0.699999988079071,2021-01-18 19:56:55.785,train
2814,2814,0.3997435569763184,0.4000000059604645,2021-01-18 19:57:55.785,train
2815,2815,0.4928979873657226,0.0,2021-01-18 19:58:55.785,train
2816,2816,0.4203870296478272,0.4000000059604645,2021-01-18 19:59:55.785,train
2817,2817,0.5465203523635864,0.6000000238418579,2021-01-18 20:00:55.785,train
2818,2818,0.551577091217041,0.5,2021-01-18 20:01:55.785,train
2819,2819,0.4267861843109131,0.5,2021-01-18 20:02:55.785,train
2820,2820,0.6164227724075317,0.0,2021-01-18 20:03:55.785,train
2821,2821,0.7597751617431641,0.4000000059604645,2021-01-18 20:04:55.785,train
2822,2822,0.5908011198043823,0.4000000059604645,2021-01-18 20:05:55.785,train
2823,2823,0.6800146102905273,0.5,2021-01-18 20:06:55.785,train
2824,2824,0.4006392955780029,0.5,2021-01-18 20:07:55.785,train
2825,2825,0.273514986038208,0.699999988079071,2021-01-18 20:08:55.785,train
2826,2826,0.2587392330169678,0.4000000059604645,2021-01-18 20:09:55.785,train
2827,2827,0.25420987606048584,0.6000000238418579,2021-01-18 20:10:55.785,train
2828,2828,0.2592289447784424,0.0,2021-01-18 20:11:55.785,train
2829,2829,0.35738039016723633,0.699999988079071,2021-01-18 20:12:55.785,train
2830,2830,0.3326375484466553,6.699999809265138,2021-01-18 20:13:55.785,train
2831,2831,0.4199289083480835,0.4000000059604645,2021-01-18 20:14:55.785,train
2832,2832,0.3419426679611206,0.30000001192092896,2021-01-18 20:15:55.785,train
2833,2833,0.4030352830886841,9.600000381469727,2021-01-18 20:16:55.785,train
2834,2834,0.543103814125061,0.5,2021-01-18 20:17:55.785,train
2835,2835,0.4597023725509644,0.5,2021-01-18 20:18:55.785,train
2836,2836,0.39473080635070795,1.5,2021-01-18 20:19:55.785,train
2837,2837,0.990586757659912,25.20000076293945,2021-01-18 20:20:55.785,train
2838,2838,1.1120781898498535,0.4000000059604645,2021-01-18 20:21:55.785,train
2839,2839,0.7030438184738159,0.5,2021-01-18 20:22:55.785,train
2840,2840,0.7915588617324829,1.6000000238418581,2021-01-18 20:23:55.785,train
2841,2841,1.586536884307861,0.5,2021-01-18 20:24:55.785,train
2842,2842,0.8138350248336792,0.5,2021-01-18 20:25:55.785,train
2843,2843,0.7513526678085327,0.6000000238418579,2021-01-18 20:26:55.785,train
2844,2844,0.6469831466674805,0.4000000059604645,2021-01-18 20:27:55.785,train
2845,2845,0.5216484069824219,1.6000000238418581,2021-01-18 20:28:55.785,train
2846,2846,0.4834181070327759,0.0,2021-01-18 20:29:55.785,train
2847,2847,0.5033242702484131,0.6000000238418579,2021-01-18 20:30:55.785,train
2848,2848,0.4562313556671143,0.699999988079071,2021-01-18 20:31:55.785,train
2849,2849,0.5125398635864258,0.4000000059604645,2021-01-18 20:32:55.785,train
2850,2850,0.4464157819747925,0.4000000059604645,2021-01-18 20:33:55.785,train
2851,2851,0.5208084583282471,0.4000000059604645,2021-01-18 20:34:55.785,train
2852,2852,0.5532914400100708,0.6000000238418579,2021-01-18 20:35:55.785,train
2853,2853,0.5542113780975342,0.699999988079071,2021-01-18 20:36:55.785,train
2854,2854,0.4616473913192749,28.0,2021-01-18 20:37:55.785,train
2855,2855,0.7551670074462891,0.4000000059604645,2021-01-18 20:38:55.785,train
2856,2856,0.5827385187149048,0.4000000059604645,2021-01-18 20:39:55.785,train
2857,2857,0.8621528148651123,0.5,2021-01-18 20:40:55.785,train
2858,2858,1.679269313812256,0.5,2021-01-18 20:41:55.785,train
2859,2859,0.9816311597824096,0.4000000059604645,2021-01-18 20:42:55.785,train
2860,2860,0.7387017011642456,0.699999988079071,2021-01-18 20:43:55.785,train
2861,2861,0.6231677532196045,0.5,2021-01-18 20:44:55.785,train
2862,2862,0.5199414491653442,0.6000000238418579,2021-01-18 20:45:55.785,train
2863,2863,0.5004622936248779,0.0,2021-01-18 20:46:55.785,train
2864,2864,0.5603824853897095,1.7999999523162842,2021-01-18 20:47:55.785,train
2865,2865,0.4937750101089478,0.5,2021-01-18 20:48:55.785,train
2866,2866,0.5203361511230469,2.5999999046325684,2021-01-18 20:49:55.785,train
2867,2867,0.4691390991210938,0.4000000059604645,2021-01-18 20:50:55.785,train
2868,2868,0.5420125722885132,0.4000000059604645,2021-01-18 20:51:55.785,train
2869,2869,0.516505241394043,0.699999988079071,2021-01-18 20:52:55.785,train
2870,2870,0.6131972074508667,0.5,2021-01-18 20:53:55.785,train
2871,2871,0.603514552116394,0.4000000059604645,2021-01-18 20:54:55.785,train
2872,2872,0.5115760564804077,0.5,2021-01-18 20:55:55.785,train
2873,2873,1.0233478546142578,0.4000000059604645,2021-01-18 20:56:55.785,train
2874,2874,0.6048935651779175,0.4000000059604645,2021-01-18 20:57:55.785,train
2875,2875,0.7756239175796509,0.6000000238418579,2021-01-18 20:58:55.785,train
2876,2876,0.6849492788314819,0.0,2021-01-18 20:59:55.785,train
2877,2877,0.41702091693878174,1.2000000476837158,2021-01-18 21:00:55.785,train
2878,2878,0.3846113681793213,0.6000000238418579,2021-01-18 21:01:55.785,train
2879,2879,0.3834295272827149,8.100000381469728,2021-01-18 21:02:55.785,train
2880,2880,0.3367562294006348,0.5,2021-01-18 21:03:55.785,train
2881,2881,0.4169551134109497,0.5,2021-01-18 21:04:55.785,train
2882,2882,0.42468607425689703,0.5,2021-01-18 21:05:55.785,train
2883,2883,0.511039137840271,0.6000000238418579,2021-01-18 21:06:55.785,train
2884,2884,0.4846162796020508,0.4000000059604645,2021-01-18 21:07:55.785,train
2885,2885,0.4906003475189209,0.4000000059604645,2021-01-18 21:08:55.785,train
2886,2886,0.4995778799057007,0.5,2021-01-18 21:09:55.785,train
2887,2887,0.5234246253967285,0.6000000238418579,2021-01-18 21:10:55.785,train
2888,2888,0.5277444124221802,0.6000000238418579,2021-01-18 21:11:55.785,train
2889,2889,0.4482148885726929,0.6000000238418579,2021-01-18 21:12:55.785,train
2890,2890,0.6984453201293945,12.399999618530273,2021-01-18 21:13:55.785,train
2891,2891,0.9857693910598756,0.4000000059604645,2021-01-18 21:14:55.785,train
2892,2892,0.5475963354110718,0.4000000059604645,2021-01-18 21:15:55.785,train
2893,2893,0.6204962730407715,0.5,2021-01-18 21:16:55.785,train
2894,2894,0.9969123601913452,0.5,2021-01-18 21:17:55.785,train
2895,2895,0.6122422218322754,0.0,2021-01-18 21:18:55.785,train
2896,2896,0.4851639270782471,0.4000000059604645,2021-01-18 21:19:55.785,train
2897,2897,0.4585328102111816,0.4000000059604645,2021-01-18 21:20:55.785,train
2898,2898,0.4384256601333618,0.699999988079071,2021-01-18 21:21:55.785,train
2899,2899,0.41406095027923584,0.0,2021-01-18 21:22:55.785,train
2900,2900,0.4166965484619141,0.5,2021-01-18 21:23:55.785,train
2901,2901,0.4404540061950684,0.5,2021-01-18 21:24:55.785,train
2902,2902,0.5073859691619873,14.0,2021-01-18 21:25:55.785,train
2903,2903,0.4473228454589844,0.4000000059604645,2021-01-18 21:26:55.785,train
2904,2904,0.4502691030502319,0.5,2021-01-18 21:27:55.785,train
2905,2905,0.4710708856582642,0.5,2021-01-18 21:28:55.785,train
2906,2906,1.0446188449859621,0.0,2021-01-18 21:29:55.785,train
2907,2907,0.6038095951080322,0.4000000059604645,2021-01-18 21:30:55.785,train
2908,2908,0.9656822681427002,0.4000000059604645,2021-01-18 21:31:55.785,train
2909,2909,0.919831156730652,0.4000000059604645,2021-01-18 21:32:55.785,train
2910,2910,0.5516211986541748,2.5999999046325684,2021-01-18 21:33:55.785,train
2911,2911,0.5630587339401245,0.6000000238418579,2021-01-18 21:34:55.785,train
2912,2912,0.4427491426467896,0.5,2021-01-18 21:35:55.785,train
2913,2913,0.35465145111083984,0.0,2021-01-18 21:36:55.785,train
2914,2914,0.4012472629547119,0.5,2021-01-18 21:37:55.785,train
2915,2915,0.39759707450866705,0.8000000119209291,2021-01-18 21:38:55.785,train
2916,2916,0.3849492073059082,0.699999988079071,2021-01-18 21:39:55.785,train
2917,2917,0.3635127544403076,0.0,2021-01-18 21:40:55.785,train
2918,2918,0.4054604768753052,0.6000000238418579,2021-01-18 21:41:55.785,train
2919,2919,0.4478659629821777,0.4000000059604645,2021-01-18 21:42:55.785,train
2920,2920,0.4733525514602661,0.4000000059604645,2021-01-18 21:43:55.785,train
2921,2921,0.42958223819732666,25.70000076293945,2021-01-18 21:44:55.785,train
2922,2922,0.4763027429580689,0.6000000238418579,2021-01-18 21:45:55.785,train
2923,2923,0.475947380065918,0.0,2021-01-18 21:46:55.785,train
2924,2924,0.5249966382980347,0.5,2021-01-18 21:47:55.785,train
2925,2925,1.309694766998291,0.4000000059604645,2021-01-18 21:48:55.785,train
2926,2926,1.1037530899047852,0.5,2021-01-18 21:49:55.785,train
2927,2927,0.7960027456283569,0.4000000059604645,2021-01-18 21:50:55.785,train
2928,2928,0.7401332855224609,0.8000000119209291,2021-01-18 21:51:55.785,train
2929,2929,0.6254771947860718,0.5,2021-01-18 21:52:55.785,train
2930,2930,0.5145612955093384,0.4000000059604645,2021-01-18 21:53:55.785,train
2931,2931,0.4042717218399048,0.5,2021-01-18 21:54:55.785,train
2932,2932,0.4430737495422363,0.5,2021-01-18 21:55:55.785,train
2933,2933,0.4067690372467041,0.699999988079071,2021-01-18 21:56:55.785,train
2934,2934,0.3960920572280884,0.6000000238418579,2021-01-18 21:57:55.785,train
2935,2935,0.4085254669189453,0.5,2021-01-18 21:58:55.785,train
2936,2936,0.41243839263916016,1.100000023841858,2021-01-18 21:59:55.785,train
2937,2937,0.4681897163391113,0.5,2021-01-18 22:00:55.785,train
2938,2938,0.4699246883392334,13.699999809265135,2021-01-18 22:01:55.785,train
2939,2939,0.43436014652252203,0.6000000238418579,2021-01-18 22:02:55.785,train
2940,2940,0.5056842565536499,0.5,2021-01-18 22:03:55.785,train
2941,2941,0.5282425880432129,0.0,2021-01-18 22:04:55.785,train
2942,2942,0.8574020862579346,1.2000000476837158,2021-01-18 22:05:55.785,train
2943,2943,0.9873176813125609,0.4000000059604645,2021-01-18 22:06:55.785,train
2944,2944,0.9853571653366088,0.4000000059604645,2021-01-18 22:07:55.785,train
2945,2945,0.6510405540466309,0.5,2021-01-18 22:08:55.785,train
2946,2946,0.5344475507736206,0.699999988079071,2021-01-18 22:09:55.785,train
2947,2947,0.4599461555480957,0.6000000238418579,2021-01-18 22:10:55.785,train
2948,2948,0.3941632509231568,0.0,2021-01-18 22:11:55.785,train
2949,2949,0.3614778518676758,0.4000000059604645,2021-01-18 22:12:55.785,train
2950,2950,0.4271125793457031,0.5,2021-01-18 22:13:55.785,train
2951,2951,0.4188617467880249,2.0,2021-01-18 22:14:55.785,train
2952,2952,0.3772798776626587,0.0,2021-01-18 22:15:55.785,train
2953,2953,0.38610124588012695,0.6000000238418579,2021-01-18 22:16:55.785,train
2954,2954,0.4046076536178589,0.4000000059604645,2021-01-18 22:17:55.785,train
2955,2955,0.4524794816970825,0.5,2021-01-18 22:18:55.785,train
2956,2956,0.41070127487182617,0.4000000059604645,2021-01-18 22:19:55.785,train
2957,2957,0.4575775861740112,0.6000000238418579,2021-01-18 22:20:55.785,train
2958,2958,0.4477272033691406,0.699999988079071,2021-01-18 22:21:55.785,train
2959,2959,0.4570438861846924,0.6000000238418579,2021-01-18 22:22:55.785,train
2960,2960,0.42601048946380615,0.4000000059604645,2021-01-18 22:23:55.785,train
2961,2961,0.8045012950897217,0.4000000059604645,2021-01-18 22:24:55.785,train
2962,2962,0.4927999973297119,4.699999809265137,2021-01-18 22:25:55.785,train
2963,2963,0.6105854511260986,2.900000095367432,2021-01-18 22:26:55.785,train
2964,2964,0.4607820510864258,0.4000000059604645,2021-01-18 22:27:55.785,train
2965,2965,0.3290303945541382,0.699999988079071,2021-01-18 22:28:55.785,train
2966,2966,0.40904343128204346,0.4000000059604645,2021-01-18 22:29:55.785,train
2967,2967,0.4314543008804321,0.5,2021-01-18 22:30:55.785,train
2968,2968,0.3910690546035767,0.6000000238418579,2021-01-18 22:31:55.785,train
2969,2969,0.4452140331268311,0.699999988079071,2021-01-18 22:32:55.785,train
2970,2970,0.4213423728942871,0.5,2021-01-18 22:33:55.785,train
2971,2971,0.4323875904083252,0.4000000059604645,2021-01-18 22:34:55.785,train
2972,2972,0.4614856243133545,0.4000000059604645,2021-01-18 22:35:55.785,train
2973,2973,0.4874647855758667,0.5,2021-01-18 22:36:55.785,train
2974,2974,0.4461737871170044,0.5,2021-01-18 22:37:55.785,train
2975,2975,0.4490219354629517,0.5,2021-01-18 22:38:55.785,train
2976,2976,0.4795280694961548,0.5,2021-01-18 22:39:55.785,train
2977,2977,0.41411447525024414,19.299999237060547,2021-01-18 22:40:55.785,train
2978,2978,0.7131155729293823,0.5,2021-01-18 22:41:55.785,train
2979,2979,0.7429118156433105,0.0,2021-01-18 22:42:55.785,train
2980,2980,0.4625080823898315,1.7000000476837158,2021-01-18 22:43:55.785,train
2981,2981,1.3067777156829834,0.5,2021-01-18 22:44:55.785,train
2982,2982,0.8140442371368408,0.6000000238418579,2021-01-18 22:45:55.785,train
2983,2983,0.6892349720001221,0.5,2021-01-18 22:46:55.785,train
2984,2984,0.6134226322174072,0.5,2021-01-18 22:47:55.785,train
2985,2985,0.5683978796005249,0.4000000059604645,2021-01-18 22:48:55.785,train
2986,2986,0.5544369220733643,0.699999988079071,2021-01-18 22:49:55.785,train
2987,2987,0.5103657245635986,0.4000000059604645,2021-01-18 22:50:55.785,train
2988,2988,0.4934719800949097,0.6000000238418579,2021-01-18 22:51:55.785,train
2989,2989,0.4830547571182251,12.0,2021-01-18 22:52:55.785,train
2990,2990,0.5305027961730957,0.4000000059604645,2021-01-18 22:53:55.785,train
2991,2991,0.494322419166565,1.399999976158142,2021-01-18 22:54:55.785,train
2992,2992,0.5025794506072998,0.6000000238418579,2021-01-18 22:55:55.785,train
2993,2993,0.955378532409668,0.5,2021-01-18 22:56:55.785,train
2994,2994,0.7205256223678589,0.5,2021-01-18 22:57:55.785,train
2995,2995,0.8999288082122803,0.30000001192092896,2021-01-18 22:58:55.785,train
2996,2996,0.6625392436981201,2.700000047683716,2021-01-18 22:59:55.785,train
2997,2997,0.7870659828186035,0.4000000059604645,2021-01-18 23:00:55.785,train
2998,2998,0.5459804534912109,15.399999618530273,2021-01-18 23:01:55.785,train
2999,2999,0.5319786071777344,0.6000000238418579,2021-01-18 23:02:55.785,train
3000,3000,0.5340172052383423,0.4000000059604645,2021-01-18 23:03:55.785,train
3001,3001,0.4564968347549439,0.5,2021-01-18 23:04:55.785,train
3002,3002,1.005909442901611,0.5,2021-01-18 23:05:55.785,train
3003,3003,0.6603842973709106,0.5,2021-01-18 23:06:55.785,train
3004,3004,0.5801029205322266,1.2999999523162842,2021-01-18 23:07:55.785,train
3005,3005,0.5638595819473267,0.699999988079071,2021-01-18 23:08:55.785,train
3006,3006,0.5406910181045532,6.300000190734862,2021-01-18 23:09:55.785,train
3007,3007,0.5384665727615356,0.4000000059604645,2021-01-18 23:10:55.785,train
3008,3008,0.5854434967041016,0.0,2021-01-18 23:11:55.785,train
3009,3009,0.608135461807251,22.60000038146973,2021-01-18 23:12:55.785,train
3010,3010,0.640985369682312,34.59999847412109,2021-01-18 23:13:55.785,train
3011,3011,0.6416866779327393,0.0,2021-01-18 23:14:55.785,train
3012,3012,0.5536841154098511,0.5,2021-01-18 23:15:55.785,train
3013,3013,1.6287705898284912,0.4000000059604645,2021-01-18 23:16:55.785,train
3014,3014,2.059527635574341,0.4000000059604645,2021-01-18 23:17:55.785,train
3015,3015,1.1425409317016602,0.6000000238418579,2021-01-18 23:18:55.785,train
3016,3016,1.1523993015289309,0.699999988079071,2021-01-18 23:19:55.785,train
3017,3017,0.937827467918396,0.0,2021-01-18 23:20:55.785,train
3018,3018,0.7330014705657959,0.5,2021-01-18 23:21:55.785,train
3019,3019,0.6827884912490845,0.5,2021-01-18 23:22:55.785,train
3020,3020,0.6448040008544922,0.4000000059604645,2021-01-18 23:23:55.785,train
3021,3021,0.5947093963623047,0.0,2021-01-18 23:24:55.785,train
3022,3022,0.5961225032806396,0.6000000238418579,2021-01-18 23:25:55.785,train
3023,3023,0.6020703315734863,0.6000000238418579,2021-01-18 23:26:55.785,train
3024,3024,0.6063284873962402,0.4000000059604645,2021-01-18 23:27:55.785,train
3025,3025,0.5940892696380615,0.4000000059604645,2021-01-18 23:28:55.785,train
3026,3026,0.5745712518692017,0.4000000059604645,2021-01-18 23:29:55.785,train
3027,3027,0.5740275382995605,0.6000000238418579,2021-01-18 23:30:55.785,train
3028,3028,0.6069833040237427,0.5,2021-01-18 23:31:55.785,train
3029,3029,0.5092499256134033,0.5,2021-01-18 23:32:55.785,train
3030,3030,0.7619178295135498,1.5,2021-01-18 23:33:55.785,train
3031,3031,0.6532614231109619,0.5,2021-01-18 23:34:55.785,train
3032,3032,0.5768958330154419,0.4000000059604645,2021-01-18 23:35:55.785,train
3033,3033,0.6092796325683594,0.6000000238418579,2021-01-18 23:36:55.785,train
3034,3034,0.4447075128555298,0.6000000238418579,2021-01-18 23:37:55.785,train
3035,3035,0.4402954578399658,0.6000000238418579,2021-01-18 23:38:55.785,train
3036,3036,0.41267287731170654,0.4000000059604645,2021-01-18 23:39:55.785,train
3037,3037,0.4078819751739502,0.6000000238418579,2021-01-18 23:40:55.785,train
3038,3038,0.4197598695755005,0.699999988079071,2021-01-18 23:41:55.785,train
3039,3039,0.4454153776168823,0.6000000238418579,2021-01-18 23:42:55.785,train
3040,3040,0.4541726112365722,1.2999999523162842,2021-01-18 23:43:55.785,train
3041,3041,0.4559015035629273,0.699999988079071,2021-01-18 23:44:55.785,train
3042,3042,0.4954179525375366,0.0,2021-01-18 23:45:55.785,train
3043,3043,0.4908246994018554,0.5,2021-01-18 23:46:55.785,train
3044,3044,0.5365262031555176,0.5,2021-01-18 23:47:55.785,train
3045,3045,0.5717328786849976,0.0,2021-01-18 23:48:55.785,train
3046,3046,0.4720535278320313,0.699999988079071,2021-01-18 23:49:55.785,train
3047,3047,0.6233083009719849,0.5,2021-01-18 23:50:55.785,train
3048,3048,0.9473059177398682,18.5,2021-01-18 23:51:55.785,train
3049,3049,0.5143197774887085,6.5,2021-01-18 23:52:55.785,train
3050,3050,0.7122699022293091,0.5,2021-01-18 23:53:55.785,train
3051,3051,0.5816998481750488,0.6000000238418579,2021-01-18 23:54:55.785,train
3052,3052,0.5999802350997925,0.5,2021-01-18 23:55:55.785,train
3053,3053,0.5846432447433472,0.6000000238418579,2021-01-18 23:56:55.785,train
3054,3054,0.4777126312255859,0.4000000059604645,2021-01-18 23:57:55.785,train
3055,3055,0.4412652254104614,0.6000000238418579,2021-01-18 23:58:55.785,train
3056,3056,0.4267053604125977,0.0,2021-01-18 23:59:55.785,train
3057,3057,0.4429781436920166,0.5,2021-01-19 00:00:55.785,train
3058,3058,0.4414937496185303,0.5,2021-01-19 00:01:55.785,train
3059,3059,0.4649845361709595,0.4000000059604645,2021-01-19 00:02:55.785,train
3060,3060,0.4308445453643799,0.5,2021-01-19 00:03:55.785,train
3061,3061,0.4411278963088989,0.4000000059604645,2021-01-19 00:04:55.785,train
3062,3062,0.4507701396942138,0.5,2021-01-19 00:05:55.785,train
3063,3063,0.4666265249252319,0.6000000238418579,2021-01-19 00:06:55.785,train
3064,3064,0.40139877796173096,0.6000000238418579,2021-01-19 00:07:55.785,train
3065,3065,0.6438922882080078,0.4000000059604645,2021-01-19 00:08:55.785,train
3066,3066,0.8809876441955566,0.4000000059604645,2021-01-19 00:09:55.785,train
3067,3067,0.5281977653503418,0.5,2021-01-19 00:10:55.785,train
3068,3068,0.6250395774841309,1.100000023841858,2021-01-19 00:11:55.785,train
3069,3069,0.453094482421875,0.5,2021-01-19 00:12:55.785,train
3070,3070,0.2710144519805908,0.6000000238418579,2021-01-19 00:13:55.785,train
3071,3071,0.2634273767471313,0.30000001192092896,2021-01-19 00:14:55.785,train
3072,3072,0.29833972454071045,0.4000000059604645,2021-01-19 00:15:55.785,train
3073,3073,0.3192654848098755,0.6000000238418579,2021-01-19 00:16:55.785,train
3074,3074,0.4028719663619995,0.6000000238418579,2021-01-19 00:17:55.785,train
3075,3075,0.3880659341812134,0.5,2021-01-19 00:18:55.785,train
3076,3076,0.3924605846405029,3.900000095367432,2021-01-19 00:19:55.785,train
3077,3077,0.4316086769104004,15.5,2021-01-19 00:20:55.785,train
3078,3078,0.44391024112701416,27.899999618530273,2021-01-19 00:21:55.785,train
3079,3079,0.4305863380432129,0.6000000238418579,2021-01-19 00:22:55.785,train
3080,3080,0.4949944019317627,0.0,2021-01-19 00:23:55.785,train
3081,3081,1.1485495567321775,0.5,2021-01-19 00:24:55.785,train
3082,3082,1.411430597305298,0.4000000059604645,2021-01-19 00:25:55.785,train
3083,3083,1.0986380577087402,0.0,2021-01-19 00:26:55.785,train
3084,3084,0.8481262922286987,0.5,2021-01-19 00:27:55.785,train
3085,3085,0.915646195411682,0.699999988079071,2021-01-19 00:28:55.785,train
3086,3086,0.7771506309509277,0.6000000238418579,2021-01-19 00:29:55.785,train
3087,3087,0.60539710521698,0.4000000059604645,2021-01-19 00:30:55.785,train
3088,3088,0.4815689325332642,0.6000000238418579,2021-01-19 00:31:55.785,train
3089,3089,0.5239906311035156,0.5,2021-01-19 00:32:55.785,train
3090,3090,0.4696266651153565,0.4000000059604645,2021-01-19 00:33:55.785,train
3091,3091,0.4392131567001343,0.699999988079071,2021-01-19 00:34:55.785,train
3092,3092,0.4585456848144531,0.699999988079071,2021-01-19 00:35:55.785,train
3093,3093,0.4534366130828858,9.0,2021-01-19 00:36:55.785,train
3094,3094,0.44398617744445795,0.4000000059604645,2021-01-19 00:37:55.785,train
3095,3095,0.5028499364852905,2.0999999046325684,2021-01-19 00:38:55.785,train
3096,3096,0.5186015367507935,0.5,2021-01-19 00:39:55.785,train
3097,3097,0.5804444551467896,0.5,2021-01-19 00:40:55.785,train
3098,3098,0.5488240718841553,0.5,2021-01-19 00:41:55.785,train
3099,3099,0.5344010591506958,37.099998474121094,2021-01-19 00:42:55.785,train
3100,3100,0.7190049886703491,0.4000000059604645,2021-01-19 00:43:55.785,train
3101,3101,0.9159499406814576,0.0,2021-01-19 00:44:55.785,train
3102,3102,0.5497434139251709,0.30000001192092896,2021-01-19 00:45:55.785,train
3103,3103,1.6947281360626218,7.0999999046325675,2021-01-19 00:46:55.785,train
3104,3104,0.9803421497344972,0.4000000059604645,2021-01-19 00:47:55.785,train
3105,3105,0.7989739179611206,0.6000000238418579,2021-01-19 00:48:55.785,train
3106,3106,0.616576075553894,0.4000000059604645,2021-01-19 00:49:55.785,train
3107,3107,0.6610255241394043,0.5,2021-01-19 00:50:55.785,train
3108,3108,0.5607113838195801,0.699999988079071,2021-01-19 00:51:55.785,train
3109,3109,0.5657310485839844,0.0,2021-01-19 00:52:55.785,train
3110,3110,0.5486646890640259,0.5,2021-01-19 00:53:55.785,train
3111,3111,0.5523684024810791,0.4000000059604645,2021-01-19 00:54:55.785,train
3112,3112,0.551782488822937,0.5,2021-01-19 00:55:55.785,train
3113,3113,0.4856125116348266,0.4000000059604645,2021-01-19 00:56:55.785,train
3114,3114,0.4870055913925171,0.5,2021-01-19 00:57:55.785,train
3115,3115,0.5200902223587036,0.6000000238418579,2021-01-19 00:58:55.785,train
3116,3116,0.5522434711456299,0.8999999761581421,2021-01-19 00:59:55.785,train
3117,3117,0.4318062067031861,0.5,2021-01-19 01:00:55.785,train
3118,3118,0.7724287509918213,0.4000000059604645,2021-01-19 01:01:55.785,train
3119,3119,0.4821819067001343,0.6000000238418579,2021-01-19 01:02:55.785,train
3120,3120,0.6363233327865601,0.6000000238418579,2021-01-19 01:03:55.785,train
3121,3121,0.5330256223678589,0.0,2021-01-19 01:04:55.785,train
3122,3122,0.35786354541778564,0.6000000238418579,2021-01-19 01:05:55.785,train
3123,3123,0.3737061023712158,0.699999988079071,2021-01-19 01:06:55.785,train
3124,3124,0.3558635711669922,0.6000000238418579,2021-01-19 01:07:55.785,train
3125,3125,0.3235769271850586,0.0,2021-01-19 01:08:55.785,train
3126,3126,0.3612992763519287,0.6000000238418579,2021-01-19 01:09:55.785,train
3127,3127,0.4124516248703003,0.5,2021-01-19 01:10:55.785,train
3128,3128,0.40822792053222656,0.6000000238418579,2021-01-19 01:11:55.785,train
3129,3129,0.3957620859146118,14.0,2021-01-19 01:12:55.785,train
3130,3130,0.4271055459976196,8.199999809265138,2021-01-19 01:13:55.785,train
3131,3131,0.426609992980957,0.699999988079071,2021-01-19 01:14:55.785,train
3132,3132,0.4478486776351929,3.2999999523162837,2021-01-19 01:15:55.785,train
3133,3133,0.540194034576416,24.5,2021-01-19 01:16:55.785,train
3134,3134,0.6514354944229126,0.6000000238418579,2021-01-19 01:17:55.785,train
3135,3135,0.8643081188201904,11.899999618530273,2021-01-19 01:18:55.785,train
3136,3136,1.166259765625,0.0,2021-01-19 01:19:55.785,train
3137,3137,0.8422470092773438,0.5,2021-01-19 01:20:55.785,train
3138,3138,0.8370555639266968,0.699999988079071,2021-01-19 01:21:55.785,train
3139,3139,0.813176155090332,0.4000000059604645,2021-01-19 01:22:55.785,train
3140,3140,0.5264817476272583,0.6000000238418579,2021-01-19 01:23:55.785,train
3141,3141,0.5053657293319702,0.4000000059604645,2021-01-19 01:24:55.785,train
3142,3142,0.502202033996582,0.5,2021-01-19 01:25:55.785,train
3143,3143,0.4681247472763062,0.5,2021-01-19 01:26:55.785,train
3144,3144,0.4926497936248779,0.0,2021-01-19 01:27:55.785,train
3145,3145,0.4981549978256226,2.0,2021-01-19 01:28:55.785,train
3146,3146,0.5119190216064453,0.4000000059604645,2021-01-19 01:29:55.785,train
3147,3147,0.5348814725875854,0.4000000059604645,2021-01-19 01:30:55.785,train
3148,3148,0.5215489864349365,0.4000000059604645,2021-01-19 01:31:55.785,train
3149,3149,0.58643639087677,0.5,2021-01-19 01:32:55.785,train
3150,3150,0.585984468460083,0.0,2021-01-19 01:33:55.785,train
3151,3151,0.6246728897094727,26.10000038146973,2021-01-19 01:34:55.785,train
3152,3152,0.5059653520584106,0.4000000059604645,2021-01-19 01:35:55.785,train
3153,3153,0.846572995185852,0.4000000059604645,2021-01-19 01:36:55.785,train
3154,3154,0.9065220355987548,7.5,2021-01-19 01:37:55.785,train
3155,3155,0.7178260087966919,0.6000000238418579,2021-01-19 01:38:55.785,val
3156,3156,0.6122523546218872,0.6000000238418579,2021-01-19 01:39:55.785,val
3157,3157,0.5051546096801758,0.8000000119209291,2021-01-19 01:40:55.785,val
3158,3158,0.5250885486602783,0.0,2021-01-19 01:41:55.785,val
3159,3159,0.4322512149810791,0.5,2021-01-19 01:42:55.785,val
3160,3160,0.44567060470581055,0.30000001192092896,2021-01-19 01:43:55.785,val
3161,3161,0.485711932182312,0.8000000119209291,2021-01-19 01:44:55.785,val
3162,3162,0.4464110136032105,0.0,2021-01-19 01:45:55.785,val
3163,3163,0.4853501319885254,0.8000000119209291,2021-01-19 01:46:55.785,val
3164,3164,0.4876525402069092,0.4000000059604645,2021-01-19 01:47:55.785,val
3165,3165,0.5656633377075195,0.4000000059604645,2021-01-19 01:48:55.785,val
3166,3166,0.5086196660995483,1.2999999523162842,2021-01-19 01:49:55.785,val
3167,3167,0.5444865226745605,0.5,2021-01-19 01:50:55.785,val
3168,3168,0.5348101854324341,22.899999618530273,2021-01-19 01:51:55.785,val
3169,3169,0.6522345542907715,0.6000000238418579,2021-01-19 01:52:55.785,val
3170,3170,0.5076700448989868,0.4000000059604645,2021-01-19 01:53:55.785,val
3171,3171,0.8695411682128906,0.4000000059604645,2021-01-19 01:54:55.785,val
3172,3172,1.190603494644165,0.0,2021-01-19 01:55:55.785,val
3173,3173,0.6936643123626709,0.5,2021-01-19 01:56:55.785,val
3174,3174,0.6456416845321655,0.4000000059604645,2021-01-19 01:57:55.785,val
3175,3175,0.5139672756195068,0.6000000238418579,2021-01-19 01:58:55.785,val
3176,3176,0.4208666086196899,0.5,2021-01-19 01:59:55.785,val
3177,3177,0.4229153394699097,1.0,2021-01-19 02:00:55.785,val
3178,3178,0.4276570081710816,0.5,2021-01-19 02:01:55.785,val
3179,3179,0.4455335140228272,0.4000000059604645,2021-01-19 02:02:55.785,val
3180,3180,0.4513462781906128,0.5,2021-01-19 02:03:55.785,val
3181,3181,0.5394775867462158,0.5,2021-01-19 02:04:55.785,val
3182,3182,0.5108754634857178,0.4000000059604645,2021-01-19 02:05:55.785,val
3183,3183,0.5118751525878906,0.4000000059604645,2021-01-19 02:06:55.785,val
3184,3184,0.5046728849411011,0.6000000238418579,2021-01-19 02:07:55.785,val
3185,3185,0.5459088087081909,0.699999988079071,2021-01-19 02:08:55.785,val
3186,3186,0.6086797714233398,35.79999923706055,2021-01-19 02:09:55.785,val
3187,3187,0.4650108814239502,0.5,2021-01-19 02:10:55.785,val
3188,3188,0.7659716606140137,0.4000000059604645,2021-01-19 02:11:55.785,val
3189,3189,1.0146248340606692,0.5,2021-01-19 02:12:55.785,val
3190,3190,0.8718655109405518,0.6000000238418579,2021-01-19 02:13:55.785,val
3191,3191,0.687973141670227,0.6000000238418579,2021-01-19 02:14:55.785,val
3192,3192,0.5391091108322144,0.6000000238418579,2021-01-19 02:15:55.785,val
3193,3193,0.4640918970108032,0.0,2021-01-19 02:16:55.785,val
3194,3194,0.4614982604980469,0.5,2021-01-19 02:17:55.785,val
3195,3195,0.42955338954925537,0.5,2021-01-19 02:18:55.785,val
3196,3196,0.4126051664352417,1.6000000238418581,2021-01-19 02:19:55.785,val
3197,3197,0.4025824069976807,0.0,2021-01-19 02:20:55.785,val
3198,3198,0.4141578674316406,0.6000000238418579,2021-01-19 02:21:55.785,val
3199,3199,0.4134186506271362,12.199999809265135,2021-01-19 02:22:55.785,val
3200,3200,0.4702091217041016,0.4000000059604645,2021-01-19 02:23:55.785,val
3201,3201,0.4303625822067261,0.4000000059604645,2021-01-19 02:24:55.785,val
3202,3202,0.4651716947555542,44.20000076293945,2021-01-19 02:25:55.785,val
3203,3203,0.5899715423583984,17.5,2021-01-19 02:26:55.785,val
3204,3204,0.5684095621109009,2.200000047683716,2021-01-19 02:27:55.785,val
3205,3205,0.4508205652236938,1.100000023841858,2021-01-19 02:28:55.785,val
3206,3206,1.8040318489074707,0.5,2021-01-19 02:29:55.785,val
3207,3207,1.1782970428466797,0.6000000238418579,2021-01-19 02:30:55.785,val
3208,3208,0.9804567098617554,0.0,2021-01-19 02:31:55.785,val
3209,3209,0.7458475828170776,0.5,2021-01-19 02:32:55.785,val
3210,3210,0.6528319120407104,0.6000000238418579,2021-01-19 02:33:55.785,val
3211,3211,0.590245246887207,0.5,2021-01-19 02:34:55.785,val
3212,3212,0.5274671316146851,0.0,2021-01-19 02:35:55.785,val
3213,3213,0.5296162366867065,0.6000000238418579,2021-01-19 02:36:55.785,val
3214,3214,0.5560826063156128,0.699999988079071,2021-01-19 02:37:55.785,val
3215,3215,0.5329990386962891,1.8999999761581419,2021-01-19 02:38:55.785,val
3216,3216,0.5186235904693604,1.6000000238418581,2021-01-19 02:39:55.785,val
3217,3217,0.5408272743225098,15.399999618530273,2021-01-19 02:40:55.785,val
3218,3218,0.5380183458328247,0.4000000059604645,2021-01-19 02:41:55.785,val
3219,3219,0.5773342847824097,0.6000000238418579,2021-01-19 02:42:55.785,val
3220,3220,0.6294867992401123,0.5,2021-01-19 02:43:55.785,val
3221,3221,0.6779557466506958,0.6000000238418579,2021-01-19 02:44:55.785,val
3222,3222,0.8886570930480957,0.5,2021-01-19 02:45:55.785,val
3223,3223,0.6201813220977783,0.4000000059604645,2021-01-19 02:46:55.785,val
3224,3224,0.9022245407104492,2.799999952316284,2021-01-19 02:47:55.785,val
3225,3225,0.7966052293777466,0.6000000238418579,2021-01-19 02:48:55.785,val
3226,3226,0.5055431127548218,0.6000000238418579,2021-01-19 02:49:55.785,val
3227,3227,0.4898030757904053,0.699999988079071,2021-01-19 02:50:55.785,val
3228,3228,0.5088576078414917,0.4000000059604645,2021-01-19 02:51:55.785,val
3229,3229,0.4679641723632813,0.4000000059604645,2021-01-19 02:52:55.785,val
3230,3230,0.4711464643478394,0.4000000059604645,2021-01-19 02:53:55.785,val
3231,3231,0.5017194747924805,0.5,2021-01-19 02:54:55.785,val
3232,3232,0.4727110862731934,0.5,2021-01-19 02:55:55.785,val
3233,3233,0.4804137945175171,0.5,2021-01-19 02:56:55.785,val
3234,3234,0.4930208921432495,18.700000762939453,2021-01-19 02:57:55.785,val
3235,3235,0.5081043243408203,0.4000000059604645,2021-01-19 02:58:55.785,val
3236,3236,0.524350643157959,0.5,2021-01-19 02:59:55.785,val
3237,3237,0.5480840206146239,1.7999999523162842,2021-01-19 03:00:55.785,val
3238,3238,0.6568126678466797,0.5,2021-01-19 03:01:55.785,val
3239,3239,0.7114956378936768,0.0,2021-01-19 03:02:55.785,val
3240,3240,1.023043870925903,0.4000000059604645,2021-01-19 03:03:55.785,val
3241,3241,0.618520975112915,0.4000000059604645,2021-01-19 03:04:55.785,val
3242,3242,0.7563531398773193,0.5,2021-01-19 03:05:55.785,val
3243,3243,0.4978500604629517,0.5,2021-01-19 03:06:55.785,val
3244,3244,0.4295778274536133,0.5,2021-01-19 03:07:55.785,val
3245,3245,0.4001141786575317,0.5,2021-01-19 03:08:55.785,val
3246,3246,0.3737456798553467,0.5,2021-01-19 03:09:55.785,val
3247,3247,0.3796775341033936,0.5,2021-01-19 03:10:55.785,val
3248,3248,0.4151133298873901,0.699999988079071,2021-01-19 03:11:55.785,val
3249,3249,0.43896484375,1.399999976158142,2021-01-19 03:12:55.785,val
3250,3250,0.4342789649963379,0.699999988079071,2021-01-19 03:13:55.785,val
3251,3251,0.4514044523239136,0.4000000059604645,2021-01-19 03:14:55.785,val
3252,3252,0.4857929944992066,0.4000000059604645,2021-01-19 03:15:55.785,val
3253,3253,0.5461940765380859,0.4000000059604645,2021-01-19 03:16:55.785,val
3254,3254,0.5414758920669556,28.60000038146973,2021-01-19 03:17:55.785,val
3255,3255,0.5031591653823853,0.5,2021-01-19 03:18:55.785,val
3256,3256,0.5744820833206177,0.699999988079071,2021-01-19 03:19:55.785,val
3257,3257,0.7185767889022827,0.4000000059604645,2021-01-19 03:20:55.785,val
3258,3258,0.9442059993743896,0.4000000059604645,2021-01-19 03:21:55.785,val
3259,3259,0.7212411165237427,6.4000000953674325,2021-01-19 03:22:55.785,val
3260,3260,0.7512331008911133,0.699999988079071,2021-01-19 03:23:55.785,val
3261,3261,0.5588468313217163,0.4000000059604645,2021-01-19 03:24:55.785,val
3262,3262,0.4424495697021485,0.699999988079071,2021-01-19 03:25:55.785,val
3263,3263,0.5769230127334595,0.5,2021-01-19 03:26:55.785,val
3264,3264,0.5235636234283447,0.5,2021-01-19 03:27:55.785,val
3265,3265,0.5077047348022461,0.0,2021-01-19 03:28:55.785,val
3266,3266,0.5394176244735718,0.5,2021-01-19 03:29:55.785,val
3267,3267,0.5193121433258057,0.5,2021-01-19 03:30:55.785,val
3268,3268,0.505501389503479,5.099999904632568,2021-01-19 03:31:55.785,val
3269,3269,0.4849128723144531,0.0,2021-01-19 03:32:55.785,val
3270,3270,0.4921835660934448,0.4000000059604645,2021-01-19 03:33:55.785,val
3271,3271,0.4974687099456787,0.5,2021-01-19 03:34:55.785,val
3272,3272,0.6188362836837769,0.5,2021-01-19 03:35:55.785,val
3273,3273,0.5108205080032349,0.5,2021-01-19 03:36:55.785,val
3274,3274,0.5908558368682861,0.4000000059604645,2021-01-19 03:37:55.785,val
3275,3275,0.7763069868087769,0.4000000059604645,2021-01-19 03:38:55.785,val
3276,3276,0.520532488822937,0.5,2021-01-19 03:39:55.785,val
3277,3277,0.6224054098129272,0.5,2021-01-19 03:40:55.785,val
3278,3278,0.5202083587646484,0.6000000238418579,2021-01-19 03:41:55.785,val
3279,3279,0.3595387935638428,0.5,2021-01-19 03:42:55.785,val
3280,3280,0.3590917587280273,0.6000000238418579,2021-01-19 03:43:55.785,val
3281,3281,0.34624993801116943,0.5,2021-01-19 03:44:55.785,val
3282,3282,0.35711324214935297,0.0,2021-01-19 03:45:55.785,val
3283,3283,0.3561508655548096,0.6000000238418579,2021-01-19 03:46:55.785,val
3284,3284,0.3904389142990112,0.6000000238418579,2021-01-19 03:47:55.785,val
3285,3285,0.3907827138900757,0.5,2021-01-19 03:48:55.785,val
3286,3286,0.3836699724197388,0.0,2021-01-19 03:49:55.785,val
3287,3287,0.42096471786499023,0.4000000059604645,2021-01-19 03:50:55.785,val
3288,3288,0.4263724088668823,0.4000000059604645,2021-01-19 03:51:55.785,val
3289,3289,0.4099929332733154,0.0,2021-01-19 03:52:55.785,val
3290,3290,0.3760939836502075,0.6000000238418579,2021-01-19 03:53:55.785,val
3291,3291,0.4094233512878418,3.5999999046325684,2021-01-19 03:54:55.785,val
3292,3292,0.5558598041534424,0.4000000059604645,2021-01-19 03:55:55.785,val
3293,3293,0.35756969451904297,0.4000000059604645,2021-01-19 03:56:55.785,val
3294,3294,0.6561160087585449,0.4000000059604645,2021-01-19 03:57:55.785,val
3295,3295,0.5657092332839966,0.0,2021-01-19 03:58:55.785,val
3296,3296,0.3462768793106079,0.6000000238418579,2021-01-19 03:59:55.785,val
3297,3297,0.3479808568954468,0.6000000238418579,2021-01-19 04:00:55.785,val
3298,3298,0.32619547843933105,0.5,2021-01-19 04:01:55.785,val
3299,3299,0.29602766036987305,0.6000000238418579,2021-01-19 04:02:55.785,val
3300,3300,0.3543531894683838,0.4000000059604645,2021-01-19 04:03:55.785,val
3301,3301,0.37614941596984863,0.699999988079071,2021-01-19 04:04:55.785,val
3302,3302,0.3688923120498657,0.5,2021-01-19 04:05:55.785,val
3303,3303,0.4086391925811768,0.6000000238418579,2021-01-19 04:06:55.785,val
3304,3304,0.3830012083053589,0.30000001192092896,2021-01-19 04:07:55.785,val
3305,3305,0.4209105968475342,0.4000000059604645,2021-01-19 04:08:55.785,val
3306,3306,0.41360485553741455,1.100000023841858,2021-01-19 04:09:55.785,val
3307,3307,0.43572378158569336,0.5,2021-01-19 04:10:55.785,val
3308,3308,0.42561233043670654,0.4000000059604645,2021-01-19 04:11:55.785,val
3309,3309,0.4850209951400757,16.299999237060547,2021-01-19 04:12:55.785,val
3310,3310,0.4018439054489136,0.8999999761581421,2021-01-19 04:13:55.785,val
3311,3311,0.6494655609130859,0.4000000059604645,2021-01-19 04:14:55.785,val
3312,3312,0.5889240503311157,0.4000000059604645,2021-01-19 04:15:55.785,val
3313,3313,1.0495123863220217,0.5,2021-01-19 04:16:55.785,val
3314,3314,0.7174674272537231,0.5,2021-01-19 04:17:55.785,val
3315,3315,0.5951497554779053,0.5,2021-01-19 04:18:55.785,val
3316,3316,0.4766018390655518,0.4000000059604645,2021-01-19 04:19:55.785,val
3317,3317,0.4379754066467285,0.5,2021-01-19 04:20:55.785,val
3318,3318,0.4727381467819214,0.6000000238418579,2021-01-19 04:21:55.785,val
3319,3319,0.4460866451263428,0.5,2021-01-19 04:22:55.785,val
3320,3320,0.41860389709472656,0.5,2021-01-19 04:23:55.785,val
3321,3321,0.425249457359314,0.5,2021-01-19 04:24:55.785,val
3322,3322,0.4503453969955444,0.5,2021-01-19 04:25:55.785,val
3323,3323,0.4296820163726807,0.0,2021-01-19 04:26:55.785,val
3324,3324,0.42315924167633057,0.5,2021-01-19 04:27:55.785,val
3325,3325,0.4395780563354492,0.5,2021-01-19 04:28:55.785,val
3326,3326,0.4821755886077881,20.5,2021-01-19 04:29:55.785,val
3327,3327,0.381644606590271,0.0,2021-01-19 04:30:55.785,val
3328,3328,0.6146647930145264,13.600000381469727,2021-01-19 04:31:55.785,val
3329,3329,0.6400983333587646,6.9000000953674325,2021-01-19 04:32:55.785,val
3330,3330,1.3125874996185305,0.6000000238418579,2021-01-19 04:33:55.785,val
3331,3331,0.6765818595886229,0.6000000238418579,2021-01-19 04:34:55.785,val
3332,3332,1.0773401260375977,0.6000000238418579,2021-01-19 04:35:55.785,val
3333,3333,0.7688601016998291,0.4000000059604645,2021-01-19 04:36:55.785,val
3334,3334,0.6576186418533325,0.5,2021-01-19 04:37:55.785,test
3335,3335,0.5798337459564209,0.0,2021-01-19 04:38:55.785,test
3336,3336,0.533955454826355,0.699999988079071,2021-01-19 04:39:55.785,test
3337,3337,0.4731758832931519,0.4000000059604645,2021-01-19 04:40:55.785,test
3338,3338,0.4623690843582153,0.4000000059604645,2021-01-19 04:41:55.785,test
3339,3339,0.4369925260543823,0.4000000059604645,2021-01-19 04:42:55.785,test
3340,3340,0.4851031303405762,0.5,2021-01-19 04:43:55.785,test
3341,3341,0.4534118175506592,0.6000000238418579,2021-01-19 04:44:55.785,test
3342,3342,0.4669514894485474,0.6000000238418579,2021-01-19 04:45:55.785,test
3343,3343,0.4185769557952881,19.399999618530273,2021-01-19 04:46:55.785,test
3344,3344,0.5335010290145874,0.5,2021-01-19 04:47:55.785,test
3345,3345,0.8094892501831055,0.0,2021-01-19 04:48:55.785,test
3346,3346,0.5592578649520874,5.099999904632568,2021-01-19 04:49:55.785,test
3347,3347,1.2437663078308103,0.5,2021-01-19 04:50:55.785,test
3348,3348,0.8051788806915283,0.5,2021-01-19 04:51:55.785,test
3349,3349,0.6406276226043701,0.6000000238418579,2021-01-19 04:52:55.785,test
3350,3350,0.5751984119415283,0.6000000238418579,2021-01-19 04:53:55.785,test
3351,3351,0.5006785392761229,0.4000000059604645,2021-01-19 04:54:55.785,test
3352,3352,0.4711689949035645,0.4000000059604645,2021-01-19 04:55:55.785,test
3353,3353,0.4775056838989258,0.6000000238418579,2021-01-19 04:56:55.785,test
3354,3354,0.4790353775024414,6.699999809265138,2021-01-19 04:57:55.785,test
3355,3355,0.4535747766494751,0.699999988079071,2021-01-19 04:58:55.785,test
3356,3356,0.4572206735610962,1.2999999523162842,2021-01-19 04:59:55.785,test
3357,3357,0.4759774208068848,14.199999809265135,2021-01-19 05:00:55.785,test
3358,3358,0.5804218053817749,0.5,2021-01-19 05:01:55.785,test
3359,3359,0.5800795555114746,0.5,2021-01-19 05:02:55.785,test
3360,3360,0.6256387233734131,0.5,2021-01-19 05:03:55.785,test
3361,3361,0.6350114345550537,22.60000038146973,2021-01-19 05:04:55.785,test
3362,3362,0.7790220975875854,0.4000000059604645,2021-01-19 05:05:55.785,test
3363,3363,0.9612808227539062,0.5,2021-01-19 05:06:55.785,test
3364,3364,0.5746603012084961,9.199999809265137,2021-01-19 05:07:55.785,test
3365,3365,0.8282322883605957,0.6000000238418579,2021-01-19 05:08:55.785,test
3366,3366,0.6190191507339478,2.5,2021-01-19 05:09:55.785,test
3367,3367,0.5006107091903687,0.5,2021-01-19 05:10:55.785,test
3368,3368,0.5932033061981201,0.0,2021-01-19 05:11:55.785,test
3369,3369,0.5467193126678467,0.6000000238418579,2021-01-19 05:12:55.785,test
3370,3370,0.6221966743469238,0.5,2021-01-19 05:13:55.785,test
3371,3371,0.5951364040374756,0.8999999761581421,2021-01-19 05:14:55.785,test
3372,3372,0.5845909118652344,0.0,2021-01-19 05:15:55.785,test
3373,3373,0.5678761005401611,0.4000000059604645,2021-01-19 05:16:55.785,test
3374,3374,0.5664957761764526,22.79999923706055,2021-01-19 05:17:55.785,test
3375,3375,0.6303757429122925,0.5,2021-01-19 05:18:55.785,test
3376,3376,0.5640640258789062,0.4000000059604645,2021-01-19 05:19:55.785,test
3377,3377,0.5885055065155029,0.5,2021-01-19 05:20:55.785,test
3378,3378,0.8084090948104858,25.10000038146973,2021-01-19 05:21:55.785,test
3379,3379,0.6958236694335938,0.4000000059604645,2021-01-19 05:22:55.785,test
3380,3380,0.6860758066177368,0.5,2021-01-19 05:23:55.785,test
3381,3381,0.8707274198532104,0.5,2021-01-19 05:24:55.785,test
3382,3382,0.9110956192016602,0.0,2021-01-19 05:25:55.785,test
3383,3383,0.5546579360961914,0.6000000238418579,2021-01-19 05:26:55.785,test
3384,3384,0.5497615337371826,0.699999988079071,2021-01-19 05:27:55.785,test
3385,3385,0.5090736150741577,0.4000000059604645,2021-01-19 05:28:55.785,test
3386,3386,0.463279128074646,0.5,2021-01-19 05:29:55.785,test
3387,3387,0.5126047134399414,1.399999976158142,2021-01-19 05:30:55.785,test
3388,3388,0.5437605381011963,0.699999988079071,2021-01-19 05:31:55.785,test
3389,3389,0.5573819875717163,0.0,2021-01-19 05:32:55.785,test
3390,3390,0.5442134141921997,0.5,2021-01-19 05:33:55.785,test
3391,3391,0.6584552526473999,0.30000001192092896,2021-01-19 05:34:55.785,test
3392,3392,0.6061328649520874,0.4000000059604645,2021-01-19 05:35:55.785,test
3393,3393,0.5578134059906006,0.4000000059604645,2021-01-19 05:36:55.785,test
3394,3394,0.5452848672866821,0.5,2021-01-19 05:37:55.785,test
3395,3395,0.5862867832183838,0.0,2021-01-19 05:38:55.785,test
3396,3396,0.6657627820968628,0.6000000238418579,2021-01-19 05:39:55.785,test
3397,3397,0.4895401000976562,0.5,2021-01-19 05:40:55.785,test
3398,3398,0.8860718011856079,1.5,2021-01-19 05:41:55.785,test
3399,3399,0.8133471012115479,0.699999988079071,2021-01-19 05:42:55.785,test
3400,3400,0.45178568363189703,0.5,2021-01-19 05:43:55.785,test
3401,3401,0.4458808898925781,1.100000023841858,2021-01-19 05:44:55.785,test
3402,3402,0.4288166761398315,0.5,2021-01-19 05:45:55.785,test
3403,3403,0.3788151741027832,0.4000000059604645,2021-01-19 05:46:55.785,test
3404,3404,0.396791934967041,0.5,2021-01-19 05:47:55.785,test
3405,3405,0.4937094449996948,0.6000000238418579,2021-01-19 05:48:55.785,test
3406,3406,0.4699269533157349,0.5,2021-01-19 05:49:55.785,test
3407,3407,0.4667143821716309,0.4000000059604645,2021-01-19 05:50:55.785,test
3408,3408,0.4827187061309815,0.5,2021-01-19 05:51:55.785,test
3409,3409,0.5111641883850098,0.4000000059604645,2021-01-19 05:52:55.785,test
3410,3410,0.492098331451416,0.4000000059604645,2021-01-19 05:53:55.785,test
3411,3411,0.4823082685470581,0.5,2021-01-19 05:54:55.785,test
3412,3412,0.5051766633987427,28.79999923706055,2021-01-19 05:55:55.785,test
3413,3413,0.5398390293121338,0.6000000238418579,2021-01-19 05:56:55.785,test
3414,3414,0.4435501098632813,0.4000000059604645,2021-01-19 05:57:55.785,test
3415,3415,0.7361882925033569,0.5,2021-01-19 05:58:55.785,test
3416,3416,1.4660582542419434,1.6000000238418581,2021-01-19 05:59:55.785,test
3417,3417,0.9717384576797484,0.5,2021-01-19 06:00:55.785,test
3418,3418,0.6889034509658813,0.6000000238418579,2021-01-19 06:01:55.785,test
3419,3419,0.6040415763854979,0.6000000238418579,2021-01-19 06:02:55.785,test
3420,3420,0.5586018562316895,0.5,2021-01-19 06:03:55.785,test
3421,3421,0.4880152940750122,0.5,2021-01-19 06:04:55.785,test
3422,3422,0.4747779369354248,0.5,2021-01-19 06:05:55.785,test
