name,time,countryCode,ipAddress,level,producer,value
ETPercentile,2021-02-15T08:37:20.816Z,IE,3.249.232.237,0,3.249.232.237,41
ETPercentile,2021-02-15T08:37:50.705Z,IE,3.249.232.237,0,3.249.232.237,41
ETPercentile,2021-02-15T08:38:20.723Z,IE,3.249.232.237,0,3.249.232.237,41
ETPercentile,2021-02-15T08:38:50.703Z,IE,3.249.232.237,0,3.249.232.237,41
ETPercentile,2021-02-15T08:39:20.708Z,IE,3.249.232.237,0,3.249.232.237,43
ETPercentile,2021-02-15T08:39:50.685Z,IE,3.249.232.237,0,3.249.232.237,57
ETPercentile,2021-02-15T08:40:20.809Z,IE,3.249.232.237,0,3.249.232.237,57
ETPercentile,2021-02-15T08:40:50.682Z,IE,3.249.232.237,0,3.249.232.237,63
ETPercentile,2021-02-15T08:41:20.675Z,IE,3.249.232.237,0,3.249.232.237,67
ETPercentile,2021-02-15T08:41:50.694Z,IE,3.249.232.237,0,3.249.232.237,69
ETPercentile,2021-02-15T08:42:20.679Z,IE,3.249.232.237,0,3.249.232.237,70
ETPercentile,2021-02-15T08:42:50.674Z,IE,3.249.232.237,0,3.249.232.237,71
ETPercentile,2021-02-15T08:43:20.67Z,IE,3.249.232.237,0,3.249.232.237,72
ETPercentile,2021-02-15T08:43:50.685Z,IE,3.249.232.237,0,3.249.232.237,73
ETPercentile,2021-02-15T08:44:20.667Z,IE,3.249.232.237,0,3.249.232.237,73
ETPercentile,2021-02-15T08:44:50.674Z,IE,3.249.232.237,0,3.249.232.237,74
ETPercentile,2021-02-15T08:45:20.74Z,IE,3.249.232.237,0,3.249.232.237,75
ETPercentile,2021-02-15T08:45:50.666Z,IE,3.249.232.237,0,3.249.232.237,75
ETPercentile,2021-02-15T08:46:20.666Z,IE,3.249.232.237,0,3.249.232.237,75
ETPercentile,2021-02-15T08:46:50.666Z,IE,3.249.232.237,0,3.249.232.237,76
ETPercentile,2021-02-15T08:47:20.677Z,IE,3.249.232.237,0,3.249.232.237,76
ETPercentile,2021-02-15T08:47:50.672Z,IE,3.249.232.237,0,3.249.232.237,76
ETPercentile,2021-02-15T08:48:20.667Z,IE,3.249.232.237,0,3.249.232.237,76
ETPercentile,2021-02-15T08:48:50.678Z,IE,3.249.232.237,0,3.249.232.237,77
ETPercentile,2021-02-15T08:49:20.687Z,IE,3.249.232.237,0,3.249.232.237,77
ETPercentile,2021-02-15T08:49:50.663Z,IE,3.249.232.237,0,3.249.232.237,77
ETPercentile,2021-02-15T08:50:20.761Z,IE,3.249.232.237,0,3.249.232.237,77
ETPercentile,2021-02-15T08:50:50.67Z,IE,3.249.232.237,0,3.249.232.237,75
ETPercentile,2021-02-15T08:51:20.663Z,IE,3.249.232.237,0,3.249.232.237,75
ETPercentile,2021-02-15T08:51:50.669Z,IE,3.249.232.237,0,3.249.232.237,75
ETPercentile,2021-02-15T08:52:20.667Z,IE,3.249.232.237,0,3.249.232.237,75
ETPercentile,2021-02-15T08:52:50.663Z,IE,3.249.232.237,0,3.249.232.237,75
ETPercentile,2021-02-15T08:53:20.661Z,IE,3.249.232.237,0,3.249.232.237,75
ETPercentile,2021-02-15T08:53:50.668Z,IE,3.249.232.237,0,3.249.232.237,75
ETPercentile,2021-02-15T08:54:20.664Z,IE,3.249.232.237,0,3.249.232.237,75
ETPercentile,2021-02-15T08:54:50.667Z,IE,3.249.232.237,0,3.249.232.237,76
ETPercentile,2021-02-15T08:55:20.763Z,IE,3.249.232.237,0,3.249.232.237,76
ETPercentile,2021-02-15T08:55:50.67Z,IE,3.249.232.237,0,3.249.232.237,76
ETPercentile,2021-02-15T08:56:20.662Z,IE,3.249.232.237,0,3.249.232.237,76
ETPercentile,2021-02-15T08:56:50.667Z,IE,3.249.232.237,0,3.249.232.237,77
ETPercentile,2021-02-15T08:57:20.663Z,IE,3.249.232.237,0,3.249.232.237,77
ETPercentile,2021-02-15T08:57:50.667Z,IE,3.249.232.237,0,3.249.232.237,77
ETPercentile,2021-02-15T08:58:20.669Z,IE,3.249.232.237,0,3.249.232.237,77
ETPercentile,2021-02-15T08:58:50.662Z,IE,3.249.232.237,0,3.249.232.237,77
ETPercentile,2021-02-15T08:59:20.662Z,IE,3.249.232.237,0,3.249.232.237,77
ETPercentile,2021-02-15T08:59:50.664Z,IE,3.249.232.237,0,3.249.232.237,78
ETPercentile,2021-02-15T09:00:20.66Z,IE,3.249.232.237,0,3.249.232.237,78
ETPercentile,2021-02-15T09:00:50.663Z,IE,3.249.232.237,0,3.249.232.237,78
ETPercentile,2021-02-15T09:01:20.666Z,IE,3.249.232.237,0,3.249.232.237,78
ETPercentile,2021-02-15T09:01:50.666Z,IE,3.249.232.237,0,3.249.232.237,78
ETPercentile,2021-02-15T09:02:20.673Z,IE,3.249.232.237,0,3.249.232.237,78
ETPercentile,2021-02-15T09:02:50.667Z,IE,3.249.232.237,0,3.249.232.237,78
ETPercentile,2021-02-15T09:03:20.664Z,IE,3.249.232.237,0,3.249.232.237,78
ETPercentile,2021-02-15T09:03:50.661Z,IE,3.249.232.237,0,3.249.232.237,78
ETPercentile,2021-02-15T09:04:20.667Z,IE,3.249.232.237,0,3.249.232.237,78
ETPercentile,2021-02-15T09:04:50.662Z,IE,3.249.232.237,0,3.249.232.237,76
ETPercentile,2021-02-15T09:05:20.667Z,IE,3.249.232.237,0,3.249.232.237,76
ETPercentile,2021-02-15T09:05:50.738Z,IE,3.249.232.237,0,3.249.232.237,76
ETPercentile,2021-02-15T09:06:20.664Z,IE,3.249.232.237,0,3.249.232.237,76
ETPercentile,2021-02-15T09:06:50.668Z,IE,3.249.232.237,0,3.249.232.237,76
ETPercentile,2021-02-15T09:07:20.663Z,IE,3.249.232.237,0,3.249.232.237,77
ETPercentile,2021-02-15T09:07:50.662Z,IE,3.249.232.237,0,3.249.232.237,77
ETPercentile,2021-02-15T09:08:20.68Z,IE,3.249.232.237,0,3.249.232.237,77
ETPercentile,2021-02-15T09:08:50.662Z,IE,3.249.232.237,0,3.249.232.237,77
ETPercentile,2021-02-15T09:09:20.67Z,IE,3.249.232.237,0,3.249.232.237,77
ETPercentile,2021-02-15T09:09:50.67Z,IE,3.249.232.237,0,3.249.232.237,77
ETPercentile,2021-02-15T09:10:20.665Z,IE,3.249.232.237,0,3.249.232.237,77
ETPercentile,2021-02-15T09:10:50.736Z,IE,3.249.232.237,0,3.249.232.237,77
ETPercentile,2021-02-15T09:11:20.659Z,IE,3.249.232.237,0,3.249.232.237,77
ETPercentile,2021-02-15T09:11:50.666Z,IE,3.249.232.237,0,3.249.232.237,78
ETPercentile,2021-02-15T09:12:20.661Z,IE,3.249.232.237,0,3.249.232.237,78
ETPercentile,2021-02-15T09:12:50.662Z,IE,3.249.232.237,0,3.249.232.237,78
ETPercentile,2021-02-15T09:13:20.666Z,IE,3.249.232.237,0,3.249.232.237,78
ETPercentile,2021-02-15T09:13:50.66Z,IE,3.249.232.237,0,3.249.232.237,78
ETPercentile,2021-02-15T09:14:20.664Z,IE,3.249.232.237,0,3.249.232.237,78
ETPercentile,2021-02-15T09:14:50.662Z,IE,3.249.232.237,0,3.249.232.237,78
ETPercentile,2021-02-15T09:15:20.676Z,IE,3.249.232.237,0,3.249.232.237,78
ETPercentile,2021-02-15T09:15:50.698Z,IE,3.249.232.237,0,3.249.232.237,78
ETPercentile,2021-02-15T09:16:20.661Z,IE,3.249.232.237,0,3.249.232.237,78
ETPercentile,2021-02-15T09:16:50.666Z,IE,3.249.232.237,0,3.249.232.237,76
ETPercentile,2021-02-15T09:17:20.664Z,IE,3.249.232.237,0,3.249.232.237,75
ETPercentile,2021-02-15T09:17:50.666Z,IE,3.249.232.237,0,3.249.232.237,75
ETPercentile,2021-02-15T09:18:20.663Z,IE,3.249.232.237,0,3.249.232.237,75
ETPercentile,2021-02-15T09:18:50.668Z,IE,3.249.232.237,0,3.249.232.237,75
ETPercentile,2021-02-15T09:19:20.675Z,IE,3.249.232.237,0,3.249.232.237,75
ETPercentile,2021-02-15T09:19:50.662Z,IE,3.249.232.237,0,3.249.232.237,76
ETPercentile,2021-02-15T09:20:20.67Z,IE,3.249.232.237,0,3.249.232.237,76
ETPercentile,2021-02-15T09:20:50.667Z,IE,3.249.232.237,0,3.249.232.237,76
ETPercentile,2021-02-15T09:21:20.659Z,IE,3.249.232.237,0,3.249.232.237,76
ETPercentile,2021-02-15T09:21:50.678Z,IE,3.249.232.237,0,3.249.232.237,76
ETPercentile,2021-02-15T09:22:20.672Z,IE,3.249.232.237,0,3.249.232.237,76
ETPercentile,2021-02-15T09:22:50.671Z,IE,3.249.232.237,0,3.249.232.237,76
ETPercentile,2021-02-15T09:23:20.657Z,IE,3.249.232.237,0,3.249.232.237,76
ETPercentile,2021-02-15T09:23:50.657Z,IE,3.249.232.237,0,3.249.232.237,76
ETPercentile,2021-02-15T09:24:20.663Z,IE,3.249.232.237,0,3.249.232.237,76
ETPercentile,2021-02-15T09:24:50.66Z,IE,3.249.232.237,0,3.249.232.237,76
ETPercentile,2021-02-15T09:25:20.662Z,IE,3.249.232.237,0,3.249.232.237,76
ETPercentile,2021-02-15T09:25:50.659Z,IE,3.249.232.237,0,3.249.232.237,76
ETPercentile,2021-02-15T09:26:20.66Z,IE,3.249.232.237,0,3.249.232.237,77
ETPercentile,2021-02-15T09:26:50.732Z,IE,3.249.232.237,0,3.249.232.237,77
ETPercentile,2021-02-15T09:27:20.658Z,IE,3.249.232.237,0,3.249.232.237,77
ETPercentile,2021-02-15T09:27:50.66Z,IE,3.249.232.237,0,3.249.232.237,77
ETPercentile,2021-02-15T09:28:20.658Z,IE,3.249.232.237,0,3.249.232.237,77
ETPercentile,2021-02-15T09:28:50.663Z,IE,3.249.232.237,0,3.249.232.237,75
ETPercentile,2021-02-15T09:29:20.659Z,IE,3.249.232.237,0,3.249.232.237,75
ETPercentile,2021-02-15T09:29:50.661Z,IE,3.249.232.237,0,3.249.232.237,75
ETPercentile,2021-02-15T09:30:20.659Z,IE,3.249.232.237,0,3.249.232.237,75
ETPercentile,2021-02-15T09:30:50.662Z,IE,3.249.232.237,0,3.249.232.237,75
ETPercentile,2021-02-15T09:31:20.661Z,IE,3.249.232.237,0,3.249.232.237,75
ETPercentile,2021-02-15T09:31:50.659Z,IE,3.249.232.237,0,3.249.232.237,75
ETPercentile,2021-02-15T09:32:20.662Z,IE,3.249.232.237,0,3.249.232.237,75
ETPercentile,2021-02-15T09:32:50.657Z,IE,3.249.232.237,0,3.249.232.237,75
ETPercentile,2021-02-15T09:33:20.661Z,IE,3.249.232.237,0,3.249.232.237,75
ETPercentile,2021-02-15T09:33:50.657Z,IE,3.249.232.237,0,3.249.232.237,75
ETPercentile,2021-02-15T09:34:20.662Z,IE,3.249.232.237,0,3.249.232.237,75
ETPercentile,2021-02-15T09:34:50.696Z,IE,3.249.232.237,0,3.249.232.237,75
ETPercentile,2021-02-15T09:35:20.66Z,IE,3.249.232.237,0,3.249.232.237,75
ETPercentile,2021-02-15T09:35:50.664Z,IE,3.249.232.237,0,3.249.232.237,75
ETPercentile,2021-02-15T09:36:20.658Z,IE,3.249.232.237,0,3.249.232.237,75
ETPercentile,2021-02-15T09:36:50.661Z,IE,3.249.232.237,0,3.249.232.237,75
ETPercentile,2021-02-15T09:37:20.658Z,IE,3.249.232.237,0,3.249.232.237,75
ETPercentile,2021-02-15T09:37:50.662Z,IE,3.249.232.237,0,3.249.232.237,75
ETPercentile,2021-02-15T09:38:20.68Z,IE,3.249.232.237,0,3.249.232.237,76
ETPercentile,2021-02-15T09:38:50.659Z,IE,3.249.232.237,0,3.249.232.237,76
ETPercentile,2021-02-15T09:39:20.662Z,IE,3.249.232.237,0,3.249.232.237,76
ETPercentile,2021-02-15T09:39:50.658Z,IE,3.249.232.237,0,3.249.232.237,76
ETPercentile,2021-02-15T09:40:20.659Z,IE,3.249.232.237,0,3.249.232.237,76
ETPercentile,2021-02-15T09:40:50.665Z,IE,3.249.232.237,0,3.249.232.237,76
ETPercentile,2021-02-15T09:41:20.663Z,IE,3.249.232.237,0,3.249.232.237,74
ETPercentile,2021-02-15T09:41:50.659Z,IE,3.249.232.237,0,3.249.232.237,74
ETPercentile,2021-02-15T09:42:20.662Z,IE,3.249.232.237,0,3.249.232.237,74
ETPercentile,2021-02-15T09:42:50.674Z,IE,3.249.232.237,0,3.249.232.237,74
ETPercentile,2021-02-15T09:43:20.662Z,IE,3.249.232.237,0,3.249.232.237,74
ETPercentile,2021-02-15T09:43:50.663Z,IE,3.249.232.237,0,3.249.232.237,74
ETPercentile,2021-02-15T09:44:20.657Z,IE,3.249.232.237,0,3.249.232.237,74
ETPercentile,2021-02-15T09:44:50.661Z,IE,3.249.232.237,0,3.249.232.237,74
ETPercentile,2021-02-15T09:45:20.666Z,IE,3.249.232.237,0,3.249.232.237,74
ETPercentile,2021-02-15T09:45:50.658Z,IE,3.249.232.237,0,3.249.232.237,74
ETPercentile,2021-02-15T09:46:20.66Z,IE,3.249.232.237,0,3.249.232.237,74
ETPercentile,2021-02-15T09:46:50.662Z,IE,3.249.232.237,0,3.249.232.237,74
ETPercentile,2021-02-15T09:47:20.689Z,IE,3.249.232.237,0,3.249.232.237,74
ETPercentile,2021-02-15T09:47:50.66Z,IE,3.249.232.237,0,3.249.232.237,74
ETPercentile,2021-02-15T09:48:20.661Z,IE,3.249.232.237,0,3.249.232.237,74
ETPercentile,2021-02-15T09:48:50.668Z,IE,3.249.232.237,0,3.249.232.237,74
ETPercentile,2021-02-15T09:49:20.658Z,IE,3.249.232.237,0,3.249.232.237,74
ETPercentile,2021-02-15T09:49:50.661Z,IE,3.249.232.237,0,3.249.232.237,74
ETPercentile,2021-02-15T09:50:20.661Z,IE,3.249.232.237,0,3.249.232.237,75
ETPercentile,2021-02-15T09:50:50.659Z,IE,3.249.232.237,0,3.249.232.237,75
ETPercentile,2021-02-15T09:51:20.661Z,IE,3.249.232.237,0,3.249.232.237,75
ETPercentile,2021-02-15T09:51:50.66Z,IE,3.249.232.237,0,3.249.232.237,75
ETPercentile,2021-02-15T09:52:20.661Z,IE,3.249.232.237,0,3.249.232.237,73
ETPercentile,2021-02-15T09:52:50.696Z,IE,3.249.232.237,0,3.249.232.237,72
ETPercentile,2021-02-15T09:53:20.66Z,IE,3.249.232.237,0,3.249.232.237,72
ETPercentile,2021-02-15T09:53:50.66Z,IE,3.249.232.237,0,3.249.232.237,72
ETPercentile,2021-02-15T09:54:20.663Z,IE,3.249.232.237,0,3.249.232.237,72
ETPercentile,2021-02-15T09:54:50.659Z,IE,3.249.232.237,0,3.249.232.237,72
ETPercentile,2021-02-15T09:55:20.662Z,IE,3.249.232.237,0,3.249.232.237,72
ETPercentile,2021-02-15T09:55:50.662Z,IE,3.249.232.237,0,3.249.232.237,72
ETPercentile,2021-02-15T09:56:20.665Z,IE,3.249.232.237,0,3.249.232.237,72
ETPercentile,2021-02-15T09:56:50.662Z,IE,3.249.232.237,0,3.249.232.237,72
ETPercentile,2021-02-15T09:57:20.662Z,IE,3.249.232.237,0,3.249.232.237,72
ETPercentile,2021-02-15T09:57:50.658Z,IE,3.249.232.237,0,3.249.232.237,72
ETPercentile,2021-02-15T09:58:20.658Z,IE,3.249.232.237,0,3.249.232.237,73
ETPercentile,2021-02-15T09:58:50.661Z,IE,3.249.232.237,0,3.249.232.237,73
ETPercentile,2021-02-15T09:59:20.662Z,IE,3.249.232.237,0,3.249.232.237,73
ETPercentile,2021-02-15T09:59:50.662Z,IE,3.249.232.237,0,3.249.232.237,73
ETPercentile,2021-02-15T10:00:20.664Z,IE,3.249.232.237,0,3.249.232.237,73
ETPercentile,2021-02-15T10:00:50.661Z,IE,3.249.232.237,0,3.249.232.237,73
ETPercentile,2021-02-15T10:01:20.663Z,IE,3.249.232.237,0,3.249.232.237,73
ETPercentile,2021-02-15T10:01:50.67Z,IE,3.249.232.237,0,3.249.232.237,73
ETPercentile,2021-02-15T10:02:20.658Z,IE,3.249.232.237,0,3.249.232.237,73
ETPercentile,2021-02-15T10:02:50.659Z,IE,3.249.232.237,0,3.249.232.237,71
ETPercentile,2021-02-15T10:03:20.661Z,IE,3.249.232.237,0,3.249.232.237,71
ETPercentile,2021-02-15T10:03:50.664Z,IE,3.249.232.237,0,3.249.232.237,71
ETPercentile,2021-02-15T10:04:20.662Z,IE,3.249.232.237,0,3.249.232.237,71
ETPercentile,2021-02-15T10:04:50.663Z,IE,3.249.232.237,0,3.249.232.237,71
ETPercentile,2021-02-15T10:05:20.663Z,IE,3.249.232.237,0,3.249.232.237,71
ETPercentile,2021-02-15T10:05:50.661Z,IE,3.249.232.237,0,3.249.232.237,71
ETPercentile,2021-02-15T10:06:20.661Z,IE,3.249.232.237,0,3.249.232.237,71
ETPercentile,2021-02-15T10:06:50.662Z,IE,3.249.232.237,0,3.249.232.237,71
ETPercentile,2021-02-15T10:07:20.664Z,IE,3.249.232.237,0,3.249.232.237,71
ETPercentile,2021-02-15T10:07:50.659Z,IE,3.249.232.237,0,3.249.232.237,72
ETPercentile,2021-02-15T10:08:20.662Z,IE,3.249.232.237,0,3.249.232.237,72
ETPercentile,2021-02-15T10:08:50.661Z,IE,3.249.232.237,0,3.249.232.237,72
ETPercentile,2021-02-15T10:09:20.662Z,IE,3.249.232.237,0,3.249.232.237,72
ETPercentile,2021-02-15T10:09:50.661Z,IE,3.249.232.237,0,3.249.232.237,72
ETPercentile,2021-02-15T10:10:20.663Z,IE,3.249.232.237,0,3.249.232.237,72
ETPercentile,2021-02-15T10:10:50.664Z,IE,3.249.232.237,0,3.249.232.237,72
ETPercentile,2021-02-15T10:11:20.663Z,IE,3.249.232.237,0,3.249.232.237,72
ETPercentile,2021-02-15T10:11:50.701Z,IE,3.249.232.237,0,3.249.232.237,72
ETPercentile,2021-02-15T10:12:20.666Z,IE,3.249.232.237,0,3.249.232.237,72
ETPercentile,2021-02-15T10:12:50.703Z,IE,3.249.232.237,0,3.249.232.237,72
ETPercentile,2021-02-15T10:13:20.664Z,IE,3.249.232.237,0,3.249.232.237,72
ETPercentile,2021-02-15T10:13:50.663Z,IE,3.249.232.237,0,3.249.232.237,71
ETPercentile,2021-02-15T10:14:20.664Z,IE,3.249.232.237,0,3.249.232.237,71
ETPercentile,2021-02-15T10:14:50.664Z,IE,3.249.232.237,0,3.249.232.237,71
ETPercentile,2021-02-15T10:15:20.665Z,IE,3.249.232.237,0,3.249.232.237,71
ETPercentile,2021-02-15T10:15:50.66Z,IE,3.249.232.237,0,3.249.232.237,71
ETPercentile,2021-02-15T10:16:20.66Z,IE,3.249.232.237,0,3.249.232.237,71
ETPercentile,2021-02-15T10:16:50.663Z,IE,3.249.232.237,0,3.249.232.237,71
ETPercentile,2021-02-15T10:17:20.662Z,IE,3.249.232.237,0,3.249.232.237,71
ETPercentile,2021-02-15T10:17:50.662Z,IE,3.249.232.237,0,3.249.232.237,71
ETPercentile,2021-02-15T10:18:20.674Z,IE,3.249.232.237,0,3.249.232.237,71
ETPercentile,2021-02-15T10:18:50.661Z,IE,3.249.232.237,0,3.249.232.237,71
ETPercentile,2021-02-15T10:19:20.663Z,IE,3.249.232.237,0,3.249.232.237,71
ETPercentile,2021-02-15T10:19:50.665Z,IE,3.249.232.237,0,3.249.232.237,71
ETPercentile,2021-02-15T10:20:20.662Z,IE,3.249.232.237,0,3.249.232.237,71
ETPercentile,2021-02-15T10:20:50.66Z,IE,3.249.232.237,0,3.249.232.237,71
ETPercentile,2021-02-15T10:21:20.663Z,IE,3.249.232.237,0,3.249.232.237,71
ETPercentile,2021-02-15T10:21:50.663Z,IE,3.249.232.237,0,3.249.232.237,71
ETPercentile,2021-02-15T10:22:20.667Z,IE,3.249.232.237,0,3.249.232.237,71
ETPercentile,2021-02-15T10:22:50.664Z,IE,3.249.232.237,0,3.249.232.237,71
ETPercentile,2021-02-15T10:23:20.663Z,IE,3.249.232.237,0,3.249.232.237,71
ETPercentile,2021-02-15T10:23:50.668Z,IE,3.249.232.237,0,3.249.232.237,69
ETPercentile,2021-02-15T10:24:20.666Z,IE,3.249.232.237,0,3.249.232.237,69
ETPercentile,2021-02-15T10:24:50.664Z,IE,3.249.232.237,0,3.249.232.237,69
ETPercentile,2021-02-15T10:25:20.664Z,IE,3.249.232.237,0,3.249.232.237,69
ETPercentile,2021-02-15T10:25:50.664Z,IE,3.249.232.237,0,3.249.232.237,69
ETPercentile,2021-02-15T10:26:20.662Z,IE,3.249.232.237,0,3.249.232.237,69
ETPercentile,2021-02-15T10:26:50.665Z,IE,3.249.232.237,0,3.249.232.237,69
ETPercentile,2021-02-15T10:27:20.671Z,IE,3.249.232.237,0,3.249.232.237,70
ETPercentile,2021-02-15T10:27:50.672Z,IE,3.249.232.237,0,3.249.232.237,70
ETPercentile,2021-02-15T10:28:20.666Z,IE,3.249.232.237,0,3.249.232.237,70
ETPercentile,2021-02-15T10:28:50.662Z,IE,3.249.232.237,0,3.249.232.237,70
ETPercentile,2021-02-15T10:29:20.659Z,IE,3.249.232.237,0,3.249.232.237,70
ETPercentile,2021-02-15T10:29:50.663Z,IE,3.249.232.237,0,3.249.232.237,70
ETPercentile,2021-02-15T10:30:20.661Z,IE,3.249.232.237,0,3.249.232.237,70
ETPercentile,2021-02-15T10:30:50.66Z,IE,3.249.232.237,0,3.249.232.237,70
ETPercentile,2021-02-15T10:31:20.663Z,IE,3.249.232.237,0,3.249.232.237,70
ETPercentile,2021-02-15T10:31:50.664Z,IE,3.249.232.237,0,3.249.232.237,70
ETPercentile,2021-02-15T10:32:20.663Z,IE,3.249.232.237,0,3.249.232.237,70
ETPercentile,2021-02-15T10:32:50.662Z,IE,3.249.232.237,0,3.249.232.237,70
ETPercentile,2021-02-15T10:33:20.665Z,IE,3.249.232.237,0,3.249.232.237,68
ETPercentile,2021-02-15T10:33:50.664Z,IE,3.249.232.237,0,3.249.232.237,68
ETPercentile,2021-02-15T10:34:20.664Z,IE,3.249.232.237,0,3.249.232.237,68
ETPercentile,2021-02-15T10:34:50.666Z,IE,3.249.232.237,0,3.249.232.237,68
ETPercentile,2021-02-15T10:35:20.665Z,IE,3.249.232.237,0,3.249.232.237,68
ETPercentile,2021-02-15T10:35:50.665Z,IE,3.249.232.237,0,3.249.232.237,68
ETPercentile,2021-02-15T10:36:20.664Z,IE,3.249.232.237,0,3.249.232.237,68
ETPercentile,2021-02-15T10:36:50.666Z,IE,3.249.232.237,0,3.249.232.237,69
ETPercentile,2021-02-15T10:37:20.664Z,IE,3.249.232.237,0,3.249.232.237,69
ETPercentile,2021-02-15T10:37:50.665Z,IE,3.249.232.237,0,3.249.232.237,69
ETPercentile,2021-02-15T10:38:20.665Z,IE,3.249.232.237,0,3.249.232.237,69
ETPercentile,2021-02-15T10:38:50.664Z,IE,3.249.232.237,0,3.249.232.237,69
ETPercentile,2021-02-15T10:39:20.678Z,IE,3.249.232.237,0,3.249.232.237,69
ETPercentile,2021-02-15T10:39:50.666Z,IE,3.249.232.237,0,3.249.232.237,69
ETPercentile,2021-02-15T10:40:20.663Z,IE,3.249.232.237,0,3.249.232.237,69
ETPercentile,2021-02-15T10:40:50.664Z,IE,3.249.232.237,0,3.249.232.237,69
ETPercentile,2021-02-15T10:41:20.664Z,IE,3.249.232.237,0,3.249.232.237,69
ETPercentile,2021-02-15T10:41:50.664Z,IE,3.249.232.237,0,3.249.232.237,69
ETPercentile,2021-02-15T10:42:20.667Z,IE,3.249.232.237,0,3.249.232.237,66
ETPercentile,2021-02-15T10:42:50.664Z,IE,3.249.232.237,0,3.249.232.237,66
ETPercentile,2021-02-15T10:43:20.666Z,IE,3.249.232.237,0,3.249.232.237,66
ETPercentile,2021-02-15T10:43:50.666Z,IE,3.249.232.237,0,3.249.232.237,66
ETPercentile,2021-02-15T10:44:20.672Z,IE,3.249.232.237,0,3.249.232.237,66
ETPercentile,2021-02-15T10:44:50.666Z,IE,3.249.232.237,0,3.249.232.237,66
ETPercentile,2021-02-15T10:45:20.667Z,IE,3.249.232.237,0,3.249.232.237,66
ETPercentile,2021-02-15T10:45:50.668Z,IE,3.249.232.237,0,3.249.232.237,66
ETPercentile,2021-02-15T10:46:20.664Z,IE,3.249.232.237,0,3.249.232.237,66
ETPercentile,2021-02-15T10:46:50.664Z,IE,3.249.232.237,0,3.249.232.237,66
ETPercentile,2021-02-15T10:47:20.663Z,IE,3.249.232.237,0,3.249.232.237,66
ETPercentile,2021-02-15T10:47:50.706Z,IE,3.249.232.237,0,3.249.232.237,66
ETPercentile,2021-02-15T10:48:20.665Z,IE,3.249.232.237,0,3.249.232.237,66
ETPercentile,2021-02-15T10:48:50.665Z,IE,3.249.232.237,0,3.249.232.237,66
ETPercentile,2021-02-15T10:49:20.664Z,IE,3.249.232.237,0,3.249.232.237,67
ETPercentile,2021-02-15T10:49:50.666Z,IE,3.249.232.237,0,3.249.232.237,67
ETPercentile,2021-02-15T10:50:20.665Z,IE,3.249.232.237,0,3.249.232.237,67
ETPercentile,2021-02-15T10:50:50.665Z,IE,3.249.232.237,0,3.249.232.237,65
ETPercentile,2021-02-15T10:51:20.665Z,IE,3.249.232.237,0,3.249.232.237,65
ETPercentile,2021-02-15T10:51:50.666Z,IE,3.249.232.237,0,3.249.232.237,65
ETPercentile,2021-02-15T10:52:20.665Z,IE,3.249.232.237,0,3.249.232.237,65
ETPercentile,2021-02-15T10:52:50.665Z,IE,3.249.232.237,0,3.249.232.237,65
ETPercentile,2021-02-15T10:53:20.669Z,IE,3.249.232.237,0,3.249.232.237,64
ETPercentile,2021-02-15T10:53:50.666Z,IE,3.249.232.237,0,3.249.232.237,64
ETPercentile,2021-02-15T10:54:20.669Z,IE,3.249.232.237,0,3.249.232.237,64
ETPercentile,2021-02-15T10:54:50.671Z,IE,3.249.232.237,0,3.249.232.237,65
ETPercentile,2021-02-15T10:55:20.67Z,IE,3.249.232.237,0,3.249.232.237,65
ETPercentile,2021-02-15T10:55:50.668Z,IE,3.249.232.237,0,3.249.232.237,65
ETPercentile,2021-02-15T10:56:20.667Z,IE,3.249.232.237,0,3.249.232.237,65
ETPercentile,2021-02-15T10:56:50.667Z,IE,3.249.232.237,0,3.249.232.237,65
ETPercentile,2021-02-15T10:57:20.666Z,IE,3.249.232.237,0,3.249.232.237,65
ETPercentile,2021-02-15T10:57:50.679Z,IE,3.249.232.237,0,3.249.232.237,65
ETPercentile,2021-02-15T10:58:20.671Z,IE,3.249.232.237,0,3.249.232.237,65
ETPercentile,2021-02-15T10:58:50.687Z,IE,3.249.232.237,0,3.249.232.237,65
ETPercentile,2021-02-15T10:59:20.677Z,IE,3.249.232.237,0,3.249.232.237,64
ETPercentile,2021-02-15T10:59:50.667Z,IE,3.249.232.237,0,3.249.232.237,64
ETPercentile,2021-02-15T11:00:20.67Z,IE,3.249.232.237,0,3.249.232.237,64
ETPercentile,2021-02-15T11:00:50.668Z,IE,3.249.232.237,0,3.249.232.237,64
ETPercentile,2021-02-15T11:01:20.67Z,IE,3.249.232.237,0,3.249.232.237,64
ETPercentile,2021-02-15T11:01:50.668Z,IE,3.249.232.237,0,3.249.232.237,64
ETPercentile,2021-02-15T11:02:20.672Z,IE,3.249.232.237,0,3.249.232.237,64
ETPercentile,2021-02-15T11:02:50.669Z,IE,3.249.232.237,0,3.249.232.237,64
ETPercentile,2021-02-15T11:03:20.665Z,IE,3.249.232.237,0,3.249.232.237,64
ETPercentile,2021-02-15T11:03:50.669Z,IE,3.249.232.237,0,3.249.232.237,64
ETPercentile,2021-02-15T11:04:20.677Z,IE,3.249.232.237,0,3.249.232.237,64
ETPercentile,2021-02-15T11:04:50.67Z,IE,3.249.232.237,0,3.249.232.237,64
ETPercentile,2021-02-15T11:05:20.669Z,IE,3.249.232.237,0,3.249.232.237,64
ETPercentile,2021-02-15T11:05:50.672Z,IE,3.249.232.237,0,3.249.232.237,64
ETPercentile,2021-02-15T11:06:20.67Z,IE,3.249.232.237,0,3.249.232.237,64
ETPercentile,2021-02-15T11:06:50.666Z,IE,3.249.232.237,0,3.249.232.237,64
ETPercentile,2021-02-15T11:07:20.665Z,IE,3.249.232.237,0,3.249.232.237,63
ETPercentile,2021-02-15T11:07:50.669Z,IE,3.249.232.237,0,3.249.232.237,62
ETPercentile,2021-02-15T11:08:20.671Z,IE,3.249.232.237,0,3.249.232.237,62
ETPercentile,2021-02-15T11:08:50.677Z,IE,3.249.232.237,0,3.249.232.237,62
ETPercentile,2021-02-15T11:09:20.669Z,IE,3.249.232.237,0,3.249.232.237,62
ETPercentile,2021-02-15T11:09:50.668Z,IE,3.249.232.237,0,3.249.232.237,62
ETPercentile,2021-02-15T11:10:20.672Z,IE,3.249.232.237,0,3.249.232.237,62
ETPercentile,2021-02-15T11:10:50.669Z,IE,3.249.232.237,0,3.249.232.237,62
ETPercentile,2021-02-15T11:11:20.666Z,IE,3.249.232.237,0,3.249.232.237,62
ETPercentile,2021-02-15T11:11:50.668Z,IE,3.249.232.237,0,3.249.232.237,62
ETPercentile,2021-02-15T11:12:20.672Z,IE,3.249.232.237,0,3.249.232.237,63
ETPercentile,2021-02-15T11:12:50.668Z,IE,3.249.232.237,0,3.249.232.237,63
ETPercentile,2021-02-15T11:13:20.669Z,IE,3.249.232.237,0,3.249.232.237,63
ETPercentile,2021-02-15T11:13:50.666Z,IE,3.249.232.237,0,3.249.232.237,63
ETPercentile,2021-02-15T11:14:20.669Z,IE,3.249.232.237,0,3.249.232.237,63
ETPercentile,2021-02-15T11:14:50.672Z,IE,3.249.232.237,0,3.249.232.237,61
ETPercentile,2021-02-15T11:15:20.666Z,IE,3.249.232.237,0,3.249.232.237,61
ETPercentile,2021-02-15T11:15:50.669Z,IE,3.249.232.237,0,3.249.232.237,61
ETPercentile,2021-02-15T11:16:20.668Z,IE,3.249.232.237,0,3.249.232.237,61
ETPercentile,2021-02-15T11:16:50.675Z,IE,3.249.232.237,0,3.249.232.237,62
ETPercentile,2021-02-15T11:17:20.713Z,IE,3.249.232.237,0,3.249.232.237,62
ETPercentile,2021-02-15T11:17:50.669Z,IE,3.249.232.237,0,3.249.232.237,62
ETPercentile,2021-02-15T11:18:20.671Z,IE,3.249.232.237,0,3.249.232.237,62
ETPercentile,2021-02-15T11:18:50.669Z,IE,3.249.232.237,0,3.249.232.237,62
ETPercentile,2021-02-15T11:19:20.669Z,IE,3.249.232.237,0,3.249.232.237,62
ETPercentile,2021-02-15T11:19:50.672Z,IE,3.249.232.237,0,3.249.232.237,62
ETPercentile,2021-02-15T11:20:20.668Z,IE,3.249.232.237,0,3.249.232.237,62
ETPercentile,2021-02-15T11:20:50.669Z,IE,3.249.232.237,0,3.249.232.237,62
ETPercentile,2021-02-15T11:21:20.67Z,IE,3.249.232.237,0,3.249.232.237,61
ETPercentile,2021-02-15T11:21:50.671Z,IE,3.249.232.237,0,3.249.232.237,61
ETPercentile,2021-02-15T11:22:20.67Z,IE,3.249.232.237,0,3.249.232.237,61
ETPercentile,2021-02-15T11:22:50.67Z,IE,3.249.232.237,0,3.249.232.237,61
ETPercentile,2021-02-15T11:23:20.673Z,IE,3.249.232.237,0,3.249.232.237,61
ETPercentile,2021-02-15T11:23:50.669Z,IE,3.249.232.237,0,3.249.232.237,61
ETPercentile,2021-02-15T11:24:20.669Z,IE,3.249.232.237,0,3.249.232.237,61
ETPercentile,2021-02-15T11:24:50.67Z,IE,3.249.232.237,0,3.249.232.237,61
ETPercentile,2021-02-15T11:25:20.67Z,IE,3.249.232.237,0,3.249.232.237,61
ETPercentile,2021-02-15T11:25:50.668Z,IE,3.249.232.237,0,3.249.232.237,61
ETPercentile,2021-02-15T11:26:20.673Z,IE,3.249.232.237,0,3.249.232.237,61
ETPercentile,2021-02-15T11:26:50.674Z,IE,3.249.232.237,0,3.249.232.237,61
ETPercentile,2021-02-15T11:27:20.671Z,IE,3.249.232.237,0,3.249.232.237,61
ETPercentile,2021-02-15T11:27:50.67Z,IE,3.249.232.237,0,3.249.232.237,60
ETPercentile,2021-02-15T11:28:20.67Z,IE,3.249.232.237,0,3.249.232.237,60
ETPercentile,2021-02-15T11:28:50.669Z,IE,3.249.232.237,0,3.249.232.237,60
ETPercentile,2021-02-15T11:29:20.679Z,IE,3.249.232.237,0,3.249.232.237,59
ETPercentile,2021-02-15T11:29:50.674Z,IE,3.249.232.237,0,3.249.232.237,59
ETPercentile,2021-02-15T11:30:20.671Z,IE,3.249.232.237,0,3.249.232.237,59
ETPercentile,2021-02-15T11:30:50.67Z,IE,3.249.232.237,0,3.249.232.237,59
ETPercentile,2021-02-15T11:31:20.671Z,IE,3.249.232.237,0,3.249.232.237,59
ETPercentile,2021-02-15T11:31:50.707Z,IE,3.249.232.237,0,3.249.232.237,60
ETPercentile,2021-02-15T11:32:20.68Z,IE,3.249.232.237,0,3.249.232.237,60
ETPercentile,2021-02-15T11:32:50.675Z,IE,3.249.232.237,0,3.249.232.237,60
ETPercentile,2021-02-15T11:33:20.671Z,IE,3.249.232.237,0,3.249.232.237,58
ETPercentile,2021-02-15T11:33:50.677Z,IE,3.249.232.237,0,3.249.232.237,58
ETPercentile,2021-02-15T11:34:20.671Z,IE,3.249.232.237,0,3.249.232.237,58
ETPercentile,2021-02-15T11:34:50.672Z,IE,3.249.232.237,0,3.249.232.237,58
ETPercentile,2021-02-15T11:35:20.672Z,IE,3.249.232.237,0,3.249.232.237,58
ETPercentile,2021-02-15T11:35:50.677Z,IE,3.249.232.237,0,3.249.232.237,58
ETPercentile,2021-02-15T11:36:20.669Z,IE,3.249.232.237,0,3.249.232.237,58
ETPercentile,2021-02-15T11:36:50.669Z,IE,3.249.232.237,0,3.249.232.237,58
ETPercentile,2021-02-15T11:37:20.67Z,IE,3.249.232.237,0,3.249.232.237,58
ETPercentile,2021-02-15T11:37:50.672Z,IE,3.249.232.237,0,3.249.232.237,58
ETPercentile,2021-02-15T11:38:20.716Z,IE,3.249.232.237,0,3.249.232.237,58
ETPercentile,2021-02-15T11:38:50.672Z,IE,3.249.232.237,0,3.249.232.237,56
ETPercentile,2021-02-15T11:39:20.671Z,IE,3.249.232.237,0,3.249.232.237,56
ETPercentile,2021-02-15T11:39:50.685Z,IE,3.249.232.237,0,3.249.232.237,56
ETPercentile,2021-02-15T11:40:20.672Z,IE,3.249.232.237,0,3.249.232.237,56
ETPercentile,2021-02-15T11:40:50.67Z,IE,3.249.232.237,0,3.249.232.237,55
ETPercentile,2021-02-15T11:41:20.67Z,IE,3.249.232.237,0,3.249.232.237,55
ETPercentile,2021-02-15T11:41:50.676Z,IE,3.249.232.237,0,3.249.232.237,55
ETPercentile,2021-02-15T11:42:20.673Z,IE,3.249.232.237,0,3.249.232.237,56
ETPercentile,2021-02-15T11:42:50.693Z,IE,3.249.232.237,0,3.249.232.237,56
ETPercentile,2021-02-15T11:43:20.671Z,IE,3.249.232.237,0,3.249.232.237,56
ETPercentile,2021-02-15T11:43:50.682Z,IE,3.249.232.237,0,3.249.232.237,55
ETPercentile,2021-02-15T11:44:20.671Z,IE,3.249.232.237,0,3.249.232.237,55
ETPercentile,2021-02-15T11:44:50.674Z,IE,3.249.232.237,0,3.249.232.237,55
ETPercentile,2021-02-15T11:45:20.674Z,IE,3.249.232.237,0,3.249.232.237,55
ETPercentile,2021-02-15T11:45:50.678Z,IE,3.249.232.237,0,3.249.232.237,55
ETPercentile,2021-02-15T11:46:20.693Z,IE,3.249.232.237,0,3.249.232.237,55
ETPercentile,2021-02-15T11:46:50.693Z,IE,3.249.232.237,0,3.249.232.237,55
ETPercentile,2021-02-15T11:47:20.674Z,IE,3.249.232.237,0,3.249.232.237,55
ETPercentile,2021-02-15T11:47:50.672Z,IE,3.249.232.237,0,3.249.232.237,55
ETPercentile,2021-02-15T11:48:20.674Z,IE,3.249.232.237,0,3.249.232.237,53
ETPercentile,2021-02-15T11:48:50.677Z,IE,3.249.232.237,0,3.249.232.237,53
ETPercentile,2021-02-15T11:49:20.676Z,IE,3.249.232.237,0,3.249.232.237,53
ETPercentile,2021-02-15T11:49:50.676Z,IE,3.249.232.237,0,3.249.232.237,53
ETPercentile,2021-02-15T11:50:20.678Z,IE,3.249.232.237,0,3.249.232.237,54
ETPercentile,2021-02-15T11:50:50.676Z,IE,3.249.232.237,0,3.249.232.237,54
ETPercentile,2021-02-15T11:51:20.671Z,IE,3.249.232.237,0,3.249.232.237,54
ETPercentile,2021-02-15T11:51:50.673Z,IE,3.249.232.237,0,3.249.232.237,54
ETPercentile,2021-02-15T11:52:20.674Z,IE,3.249.232.237,0,3.249.232.237,53
ETPercentile,2021-02-15T11:52:50.673Z,IE,3.249.232.237,0,3.249.232.237,53
ETPercentile,2021-02-15T11:53:20.697Z,IE,3.249.232.237,0,3.249.232.237,53
ETPercentile,2021-02-15T11:53:50.689Z,IE,3.249.232.237,0,3.249.232.237,53
ETPercentile,2021-02-15T11:54:20.674Z,IE,3.249.232.237,0,3.249.232.237,53
ETPercentile,2021-02-15T11:54:50.722Z,IE,3.249.232.237,0,3.249.232.237,53
ETPercentile,2021-02-15T11:55:20.671Z,IE,3.249.232.237,0,3.249.232.237,53
ETPercentile,2021-02-15T11:55:50.674Z,IE,3.249.232.237,0,3.249.232.237,52
ETPercentile,2021-02-15T11:56:20.675Z,IE,3.249.232.237,0,3.249.232.237,52
ETPercentile,2021-02-15T11:56:50.676Z,IE,3.249.232.237,0,3.249.232.237,52
ETPercentile,2021-02-15T11:57:20.675Z,IE,3.249.232.237,0,3.249.232.237,52
ETPercentile,2021-02-15T11:57:50.676Z,IE,3.249.232.237,0,3.249.232.237,52
ETPercentile,2021-02-15T11:58:20.675Z,IE,3.249.232.237,0,3.249.232.237,52
ETPercentile,2021-02-15T11:58:50.679Z,IE,3.249.232.237,0,3.249.232.237,50
ETPercentile,2021-02-15T11:59:20.679Z,IE,3.249.232.237,0,3.249.232.237,50
ETPercentile,2021-02-15T11:59:50.679Z,IE,3.249.232.237,0,3.249.232.237,50
ETPercentile,2021-02-15T12:00:20.726Z,IE,3.249.232.237,0,3.249.232.237,50
ETPercentile,2021-02-15T12:00:50.682Z,IE,3.249.232.237,0,3.249.232.237,50
ETPercentile,2021-02-15T12:01:20.677Z,IE,3.249.232.237,0,3.249.232.237,48
ETPercentile,2021-02-15T12:01:50.673Z,IE,3.249.232.237,0,3.249.232.237,48
ETPercentile,2021-02-15T12:02:20.681Z,IE,3.249.232.237,0,3.249.232.237,48
ETPercentile,2021-02-15T12:02:50.678Z,IE,3.249.232.237,0,3.249.232.237,48
ETPercentile,2021-02-15T12:03:20.679Z,IE,3.249.232.237,0,3.249.232.237,48
ETPercentile,2021-02-15T12:03:50.683Z,IE,3.249.232.237,0,3.249.232.237,47
ETPercentile,2021-02-15T12:04:20.679Z,IE,3.249.232.237,0,3.249.232.237,47
ETPercentile,2021-02-15T12:04:50.676Z,IE,3.249.232.237,0,3.249.232.237,47
ETPercentile,2021-02-15T12:05:20.685Z,IE,3.249.232.237,0,3.249.232.237,46
ETPercentile,2021-02-15T12:05:50.68Z,IE,3.249.232.237,0,3.249.232.237,46
ETPercentile,2021-02-15T12:06:20.717Z,IE,3.249.232.237,0,3.249.232.237,43
ETPercentile,2021-02-15T12:06:50.686Z,IE,3.249.232.237,0,3.249.232.237,43
ETPercentile,2021-02-15T12:07:20.681Z,IE,3.249.232.237,0,3.249.232.237,42
ETPercentile,2021-02-15T12:07:50.681Z,IE,3.249.232.237,0,3.249.232.237,42
ETPercentile,2021-02-15T12:08:20.705Z,IE,3.249.232.237,0,3.249.232.237,32
