name,time,countryCode,ipAddress,level,producer,value
MinimumCores,2021-02-15T08:38:23.36Z,IN,13.234.14.113,3.0,13.234.14.113,11
MinimumCores,2021-02-15T08:38:53.36Z,IN,13.234.14.113,3.0,13.234.14.113,11
MinimumCores,2021-02-15T08:39:23.36Z,IN,13.234.14.113,3.0,13.234.14.113,12
MinimumCores,2021-02-15T08:39:53.36Z,IN,13.234.14.113,3.0,13.234.14.113,15
MinimumCores,2021-02-15T08:40:23.36Z,IN,13.234.14.113,3.0,13.234.14.113,15
MinimumCores,2021-02-15T08:40:53.36Z,IN,13.234.14.113,3.0,13.234.14.113,17
MinimumCores,2021-02-15T08:41:23.36Z,IN,13.234.14.113,3.0,13.234.14.113,18
MinimumCores,2021-02-15T08:41:53.36Z,IN,13.234.14.113,3.0,13.234.14.113,19
MinimumCores,2021-02-15T08:42:23.36Z,IN,13.234.14.113,3.0,13.234.14.113,19
MinimumCores,2021-02-15T08:42:53.36Z,IN,13.234.14.113,3.0,13.234.14.113,20
MinimumCores,2021-02-15T08:43:23.36Z,IN,13.234.14.113,3.0,13.234.14.113,20
MinimumCores,2021-02-15T08:43:53.36Z,IN,13.234.14.113,3.0,13.234.14.113,21
MinimumCores,2021-02-15T08:44:23.36Z,IN,13.234.14.113,3.0,13.234.14.113,21
MinimumCores,2021-02-15T08:44:53.36Z,IN,13.234.14.113,3.0,13.234.14.113,22
MinimumCores,2021-02-15T08:45:23.36Z,IN,13.234.14.113,3.0,13.234.14.113,22
MinimumCores,2021-02-15T08:45:53.36Z,IN,13.234.14.113,3.0,13.234.14.113,22
MinimumCores,2021-02-15T08:46:23.36Z,IN,13.234.14.113,3.0,13.234.14.113,23
MinimumCores,2021-02-15T08:46:53.36Z,IN,13.234.14.113,3.0,13.234.14.113,23
MinimumCores,2021-02-15T08:47:23.36Z,IN,13.234.14.113,3.0,13.234.14.113,23
MinimumCores,2021-02-15T08:47:53.36Z,IN,13.234.14.113,3.0,13.234.14.113,23
MinimumCores,2021-02-15T08:48:23.36Z,IN,13.234.14.113,3.0,13.234.14.113,24
MinimumCores,2021-02-15T08:48:53.36Z,IN,13.234.14.113,3.0,13.234.14.113,24
MinimumCores,2021-02-15T08:49:23.36Z,IN,13.234.14.113,3.0,13.234.14.113,24
MinimumCores,2021-02-15T08:49:53.36Z,IN,13.234.14.113,3.0,13.234.14.113,24
MinimumCores,2021-02-15T08:50:23.36Z,IN,13.234.14.113,3.0,13.234.14.113,25
MinimumCores,2021-02-15T08:50:53.36Z,IN,13.234.14.113,3.0,13.234.14.113,24
MinimumCores,2021-02-15T08:51:23.36Z,IN,13.234.14.113,3.0,13.234.14.113,25
MinimumCores,2021-02-15T08:51:53.36Z,IN,13.234.14.113,3.0,13.234.14.113,25
MinimumCores,2021-02-15T08:52:23.36Z,IN,13.234.14.113,3.0,13.234.14.113,25
MinimumCores,2021-02-15T08:52:53.36Z,IN,13.234.14.113,3.0,13.234.14.113,25
MinimumCores,2021-02-15T08:53:23.36Z,IN,13.234.14.113,3.0,13.234.14.113,25
MinimumCores,2021-02-15T08:53:53.36Z,IN,13.234.14.113,3.0,13.234.14.113,26
MinimumCores,2021-02-15T08:54:23.36Z,IN,13.234.14.113,3.0,13.234.14.113,26
MinimumCores,2021-02-15T08:54:53.36Z,IN,13.234.14.113,3.0,13.234.14.113,27
MinimumCores,2021-02-15T08:55:23.36Z,IN,13.234.14.113,3.0,13.234.14.113,27
MinimumCores,2021-02-15T08:55:53.36Z,IN,13.234.14.113,3.0,13.234.14.113,27
MinimumCores,2021-02-15T08:56:23.36Z,IN,13.234.14.113,3.0,13.234.14.113,27
MinimumCores,2021-02-15T08:56:53.36Z,IN,13.234.14.113,3.0,13.234.14.113,28
MinimumCores,2021-02-15T08:57:23.36Z,IN,13.234.14.113,3.0,13.234.14.113,28
MinimumCores,2021-02-15T08:57:53.36Z,IN,13.234.14.113,3.0,13.234.14.113,29
MinimumCores,2021-02-15T08:58:23.36Z,IN,13.234.14.113,3.0,13.234.14.113,29
MinimumCores,2021-02-15T08:58:53.36Z,IN,13.234.14.113,3.0,13.234.14.113,29
MinimumCores,2021-02-15T08:59:23.361Z,IN,13.234.14.113,3.0,13.234.14.113,30
MinimumCores,2021-02-15T08:59:53.36Z,IN,13.234.14.113,3.0,13.234.14.113,31
MinimumCores,2021-02-15T09:00:23.36Z,IN,13.234.14.113,3.0,13.234.14.113,31
MinimumCores,2021-02-15T09:00:53.36Z,IN,13.234.14.113,3.0,13.234.14.113,31
MinimumCores,2021-02-15T09:01:23.36Z,IN,13.234.14.113,3.0,13.234.14.113,32
MinimumCores,2021-02-15T09:01:53.36Z,IN,13.234.14.113,3.0,13.234.14.113,32
MinimumCores,2021-02-15T09:02:23.36Z,IN,13.234.14.113,3.0,13.234.14.113,33
MinimumCores,2021-02-15T09:02:53.36Z,IN,13.234.14.113,3.0,13.234.14.113,33
MinimumCores,2021-02-15T09:03:23.36Z,IN,13.234.14.113,3.0,13.234.14.113,33
MinimumCores,2021-02-15T09:03:53.36Z,IN,13.234.14.113,3.0,13.234.14.113,34
MinimumCores,2021-02-15T09:04:23.36Z,IN,13.234.14.113,3.0,13.234.14.113,34
MinimumCores,2021-02-15T09:04:53.36Z,IN,13.234.14.113,3.0,13.234.14.113,34
MinimumCores,2021-02-15T09:05:23.36Z,IN,13.234.14.113,3.0,13.234.14.113,34
MinimumCores,2021-02-15T09:05:53.36Z,IN,13.234.14.113,3.0,13.234.14.113,35
MinimumCores,2021-02-15T09:06:23.36Z,IN,13.234.14.113,3.0,13.234.14.113,35
MinimumCores,2021-02-15T09:06:53.36Z,IN,13.234.14.113,3.0,13.234.14.113,35
MinimumCores,2021-02-15T09:07:23.36Z,IN,13.234.14.113,3.0,13.234.14.113,37
MinimumCores,2021-02-15T09:07:53.36Z,IN,13.234.14.113,3.0,13.234.14.113,37
MinimumCores,2021-02-15T09:08:23.36Z,IN,13.234.14.113,3.0,13.234.14.113,38
MinimumCores,2021-02-15T09:08:53.36Z,IN,13.234.14.113,3.0,13.234.14.113,38
MinimumCores,2021-02-15T09:09:23.36Z,IN,13.234.14.113,3.0,13.234.14.113,40
MinimumCores,2021-02-15T09:09:53.36Z,IN,13.234.14.113,3.0,13.234.14.113,40
MinimumCores,2021-02-15T09:10:23.36Z,IN,13.234.14.113,3.0,13.234.14.113,40
MinimumCores,2021-02-15T09:10:53.36Z,IN,13.234.14.113,3.0,13.234.14.113,42
MinimumCores,2021-02-15T09:11:23.36Z,IN,13.234.14.113,3.0,13.234.14.113,42
MinimumCores,2021-02-15T09:11:53.36Z,IN,13.234.14.113,3.0,13.234.14.113,44
MinimumCores,2021-02-15T09:12:23.36Z,IN,13.234.14.113,3.0,13.234.14.113,44
MinimumCores,2021-02-15T09:12:53.36Z,IN,13.234.14.113,3.0,13.234.14.113,46
MinimumCores,2021-02-15T09:13:23.362Z,IN,13.234.14.113,3.0,13.234.14.113,46
MinimumCores,2021-02-15T09:13:53.36Z,IN,13.234.14.113,3.0,13.234.14.113,46
MinimumCores,2021-02-15T09:14:23.36Z,IN,13.234.14.113,3.0,13.234.14.113,49
MinimumCores,2021-02-15T09:14:53.36Z,IN,13.234.14.113,3.0,13.234.14.113,48
MinimumCores,2021-02-15T09:15:23.36Z,IN,13.234.14.113,3.0,13.234.14.113,51
MinimumCores,2021-02-15T09:15:53.36Z,IN,13.234.14.113,3.0,13.234.14.113,51
MinimumCores,2021-02-15T09:16:23.36Z,IN,13.234.14.113,3.0,13.234.14.113,51
MinimumCores,2021-02-15T09:16:53.36Z,IN,13.234.14.113,3.0,13.234.14.113,51
MinimumCores,2021-02-15T09:17:23.36Z,IN,13.234.14.113,3.0,13.234.14.113,51
MinimumCores,2021-02-15T09:17:53.36Z,IN,13.234.14.113,3.0,13.234.14.113,54
MinimumCores,2021-02-15T09:18:23.36Z,IN,13.234.14.113,3.0,13.234.14.113,54
MinimumCores,2021-02-15T09:18:53.36Z,IN,13.234.14.113,3.0,13.234.14.113,58
MinimumCores,2021-02-15T09:19:23.36Z,IN,13.234.14.113,3.0,13.234.14.113,58
MinimumCores,2021-02-15T09:19:53.36Z,IN,13.234.14.113,3.0,13.234.14.113,62
MinimumCores,2021-02-15T09:20:23.36Z,IN,13.234.14.113,3.0,13.234.14.113,62
MinimumCores,2021-02-15T09:20:53.36Z,IN,13.234.14.113,3.0,13.234.14.113,62
MinimumCores,2021-02-15T09:21:23.36Z,IN,13.234.14.113,3.0,13.234.14.113,67
MinimumCores,2021-02-15T09:21:53.36Z,IN,13.234.14.113,3.0,13.234.14.113,67
MinimumCores,2021-02-15T09:22:23.36Z,IN,13.234.14.113,3.0,13.234.14.113,73
MinimumCores,2021-02-15T09:22:53.36Z,IN,13.234.14.113,3.0,13.234.14.113,73
MinimumCores,2021-02-15T09:23:23.36Z,IN,13.234.14.113,3.0,13.234.14.113,73
MinimumCores,2021-02-15T09:23:53.36Z,IN,13.234.14.113,3.0,13.234.14.113,80
MinimumCores,2021-02-15T09:24:23.36Z,IN,13.234.14.113,3.0,13.234.14.113,80
MinimumCores,2021-02-15T09:24:53.36Z,IN,13.234.14.113,3.0,13.234.14.113,88
MinimumCores,2021-02-15T09:25:23.36Z,IN,13.234.14.113,3.0,13.234.14.113,88
MinimumCores,2021-02-15T09:25:53.36Z,IN,13.234.14.113,3.0,13.234.14.113,88
MinimumCores,2021-02-15T09:26:23.36Z,IN,13.234.14.113,3.0,13.234.14.113,99
MinimumCores,2021-02-15T09:26:53.36Z,IN,13.234.14.113,3.0,13.234.14.113,99
MinimumCores,2021-02-15T09:27:23.36Z,IN,13.234.14.113,3.0,13.234.14.113,113
MinimumCores,2021-02-15T09:27:53.36Z,IN,13.234.14.113,3.0,13.234.14.113,113
MinimumCores,2021-02-15T09:28:23.36Z,IN,13.234.14.113,3.0,13.234.14.113,112
MinimumCores,2021-02-15T09:28:53.36Z,IN,13.234.14.113,3.0,13.234.14.113,130
MinimumCores,2021-02-15T09:29:23.36Z,IN,13.234.14.113,3.0,13.234.14.113,130
MinimumCores,2021-02-15T09:29:53.36Z,IN,13.234.14.113,3.0,13.234.14.113,130
MinimumCores,2021-02-15T09:30:23.36Z,IN,13.234.14.113,3.0,13.234.14.113,155
MinimumCores,2021-02-15T09:30:53.36Z,IN,13.234.14.113,3.0,13.234.14.113,155
MinimumCores,2021-02-15T09:31:23.36Z,IN,13.234.14.113,3.0,13.234.14.113,194
MinimumCores,2021-02-15T09:31:53.36Z,IN,13.234.14.113,3.0,13.234.14.113,193
MinimumCores,2021-02-15T09:32:23.36Z,IN,13.234.14.113,3.0,13.234.14.113,193
MinimumCores,2021-02-15T09:32:53.36Z,IN,13.234.14.113,3.0,13.234.14.113,257
MinimumCores,2021-02-15T09:33:23.36Z,IN,13.234.14.113,3.0,13.234.14.113,257
MinimumCores,2021-02-15T09:33:53.36Z,IN,13.234.14.113,3.0,13.234.14.113,384
MinimumCores,2021-02-15T09:34:23.36Z,IN,13.234.14.113,3.0,13.234.14.113,383
MinimumCores,2021-02-15T09:34:53.36Z,IN,13.234.14.113,3.0,13.234.14.113,383
MinimumCores,2021-02-15T09:35:23.36Z,IN,13.234.14.113,3.0,13.234.14.113,764
MinimumCores,2021-02-15T09:35:53.36Z,IN,13.234.14.113,3.0,13.234.14.113,763
MinimumCores,2021-02-15T09:37:53.36Z,IN,13.234.14.113,3.0,13.234.14.113,-759
MinimumCores,2021-02-15T09:38:23.36Z,IN,13.234.14.113,3.0,13.234.14.113,-758
MinimumCores,2021-02-15T09:38:53.36Z,IN,13.234.14.113,3.0,13.234.14.113,-378
MinimumCores,2021-02-15T09:39:23.36Z,IN,13.234.14.113,3.0,13.234.14.113,-378
MinimumCores,2021-02-15T09:39:53.36Z,IN,13.234.14.113,3.0,13.234.14.113,-377
MinimumCores,2021-02-15T09:40:23.36Z,IN,13.234.14.113,3.0,13.234.14.113,-251
MinimumCores,2021-02-15T09:40:53.36Z,IN,13.234.14.113,3.0,13.234.14.113,-251
MinimumCores,2021-02-15T09:41:23.36Z,IN,13.234.14.113,3.0,13.234.14.113,-186
MinimumCores,2021-02-15T09:41:53.36Z,IN,13.234.14.113,3.0,13.234.14.113,-186
MinimumCores,2021-02-15T09:42:23.36Z,IN,13.234.14.113,3.0,13.234.14.113,-186
MinimumCores,2021-02-15T09:42:53.362Z,IN,13.234.14.113,3.0,13.234.14.113,-148
MinimumCores,2021-02-15T09:43:23.36Z,IN,13.234.14.113,3.0,13.234.14.113,-148
MinimumCores,2021-02-15T09:43:53.36Z,IN,13.234.14.113,3.0,13.234.14.113,-123
MinimumCores,2021-02-15T09:44:23.36Z,IN,13.234.14.113,3.0,13.234.14.113,-123
MinimumCores,2021-02-15T09:44:53.36Z,IN,13.234.14.113,3.0,13.234.14.113,-105
MinimumCores,2021-02-15T09:45:23.36Z,IN,13.234.14.113,3.0,13.234.14.113,-105
MinimumCores,2021-02-15T09:45:53.36Z,IN,13.234.14.113,3.0,13.234.14.113,-105
MinimumCores,2021-02-15T09:46:23.36Z,IN,13.234.14.113,3.0,13.234.14.113,-91
MinimumCores,2021-02-15T09:46:53.36Z,IN,13.234.14.113,3.0,13.234.14.113,-91
MinimumCores,2021-02-15T09:47:23.36Z,IN,13.234.14.113,3.0,13.234.14.113,-81
MinimumCores,2021-02-15T09:47:53.36Z,IN,13.234.14.113,3.0,13.234.14.113,-81
MinimumCores,2021-02-15T09:48:23.36Z,IN,13.234.14.113,3.0,13.234.14.113,-81
MinimumCores,2021-02-15T09:48:53.362Z,IN,13.234.14.113,3.0,13.234.14.113,-72
MinimumCores,2021-02-15T09:49:23.36Z,IN,13.234.14.113,3.0,13.234.14.113,-72
MinimumCores,2021-02-15T09:49:53.36Z,IN,13.234.14.113,3.0,13.234.14.113,-66
MinimumCores,2021-02-15T09:50:23.36Z,IN,13.234.14.113,3.0,13.234.14.113,-66
MinimumCores,2021-02-15T09:50:53.36Z,IN,13.234.14.113,3.0,13.234.14.113,-65
MinimumCores,2021-02-15T09:51:23.36Z,IN,13.234.14.113,3.0,13.234.14.113,-60
MinimumCores,2021-02-15T09:51:53.36Z,IN,13.234.14.113,3.0,13.234.14.113,-60
MinimumCores,2021-02-15T09:52:23.36Z,IN,13.234.14.113,3.0,13.234.14.113,-55
MinimumCores,2021-02-15T09:52:53.36Z,IN,13.234.14.113,3.0,13.234.14.113,-54
MinimumCores,2021-02-15T09:53:23.36Z,IN,13.234.14.113,3.0,13.234.14.113,-50
MinimumCores,2021-02-15T09:53:53.36Z,IN,13.234.14.113,3.0,13.234.14.113,-50
MinimumCores,2021-02-15T09:54:23.36Z,IN,13.234.14.113,3.0,13.234.14.113,-47
MinimumCores,2021-02-15T09:54:53.36Z,IN,13.234.14.113,3.0,13.234.14.113,-47
MinimumCores,2021-02-15T09:55:23.36Z,IN,13.234.14.113,3.0,13.234.14.113,-47
MinimumCores,2021-02-15T09:55:53.36Z,IN,13.234.14.113,3.0,13.234.14.113,-44
MinimumCores,2021-02-15T09:56:23.36Z,IN,13.234.14.113,3.0,13.234.14.113,-44
MinimumCores,2021-02-15T09:56:53.36Z,IN,13.234.14.113,3.0,13.234.14.113,-41
MinimumCores,2021-02-15T09:57:23.36Z,IN,13.234.14.113,3.0,13.234.14.113,-41
MinimumCores,2021-02-15T09:57:53.36Z,IN,13.234.14.113,3.0,13.234.14.113,-39
MinimumCores,2021-02-15T09:58:23.36Z,IN,13.234.14.113,3.0,13.234.14.113,-39
MinimumCores,2021-02-15T09:58:53.36Z,IN,13.234.14.113,3.0,13.234.14.113,-38
MinimumCores,2021-02-15T09:59:23.36Z,IN,13.234.14.113,3.0,13.234.14.113,-36
MinimumCores,2021-02-15T09:59:53.36Z,IN,13.234.14.113,3.0,13.234.14.113,-36
MinimumCores,2021-02-15T10:00:23.36Z,IN,13.234.14.113,3.0,13.234.14.113,-36
MinimumCores,2021-02-15T10:00:53.36Z,IN,13.234.14.113,3.0,13.234.14.113,-34
MinimumCores,2021-02-15T10:01:23.36Z,IN,13.234.14.113,3.0,13.234.14.113,-34
MinimumCores,2021-02-15T10:01:53.36Z,IN,13.234.14.113,3.0,13.234.14.113,-33
MinimumCores,2021-02-15T10:02:23.36Z,IN,13.234.14.113,3.0,13.234.14.113,-33
MinimumCores,2021-02-15T10:02:53.36Z,IN,13.234.14.113,3.0,13.234.14.113,-31
MinimumCores,2021-02-15T10:03:23.36Z,IN,13.234.14.113,3.0,13.234.14.113,-31
MinimumCores,2021-02-15T10:03:53.36Z,IN,13.234.14.113,3.0,13.234.14.113,-29
MinimumCores,2021-02-15T10:04:23.36Z,IN,13.234.14.113,3.0,13.234.14.113,-29
MinimumCores,2021-02-15T10:04:53.36Z,IN,13.234.14.113,3.0,13.234.14.113,-28
MinimumCores,2021-02-15T10:05:23.36Z,IN,13.234.14.113,3.0,13.234.14.113,-28
MinimumCores,2021-02-15T10:05:53.36Z,IN,13.234.14.113,3.0,13.234.14.113,-27
MinimumCores,2021-02-15T10:06:23.36Z,IN,13.234.14.113,3.0,13.234.14.113,-27
MinimumCores,2021-02-15T10:06:53.36Z,IN,13.234.14.113,3.0,13.234.14.113,-27
MinimumCores,2021-02-15T10:07:23.36Z,IN,13.234.14.113,3.0,13.234.14.113,-26
MinimumCores,2021-02-15T10:07:53.36Z,IN,13.234.14.113,3.0,13.234.14.113,-25
MinimumCores,2021-02-15T10:08:23.36Z,IN,13.234.14.113,3.0,13.234.14.113,-25
MinimumCores,2021-02-15T10:08:53.36Z,IN,13.234.14.113,3.0,13.234.14.113,-24
MinimumCores,2021-02-15T10:09:23.36Z,IN,13.234.14.113,3.0,13.234.14.113,-24
MinimumCores,2021-02-15T10:09:53.36Z,IN,13.234.14.113,3.0,13.234.14.113,-23
MinimumCores,2021-02-15T10:10:23.36Z,IN,13.234.14.113,3.0,13.234.14.113,-23
MinimumCores,2021-02-15T10:10:53.36Z,IN,13.234.14.113,3.0,13.234.14.113,-23
MinimumCores,2021-02-15T10:11:23.36Z,IN,13.234.14.113,3.0,13.234.14.113,-23
MinimumCores,2021-02-15T10:11:53.36Z,IN,13.234.14.113,3.0,13.234.14.113,-22
MinimumCores,2021-02-15T10:12:23.36Z,IN,13.234.14.113,3.0,13.234.14.113,-22
MinimumCores,2021-02-15T10:12:53.36Z,IN,13.234.14.113,3.0,13.234.14.113,-22
MinimumCores,2021-02-15T10:13:23.36Z,IN,13.234.14.113,3.0,13.234.14.113,-22
MinimumCores,2021-02-15T10:13:53.36Z,IN,13.234.14.113,3.0,13.234.14.113,-21
MinimumCores,2021-02-15T10:14:23.36Z,IN,13.234.14.113,3.0,13.234.14.113,-20
MinimumCores,2021-02-15T10:14:53.36Z,IN,13.234.14.113,3.0,13.234.14.113,-20
MinimumCores,2021-02-15T10:15:23.36Z,IN,13.234.14.113,3.0,13.234.14.113,-19
MinimumCores,2021-02-15T10:15:53.36Z,IN,13.234.14.113,3.0,13.234.14.113,-19
MinimumCores,2021-02-15T10:16:23.36Z,IN,13.234.14.113,3.0,13.234.14.113,-19
MinimumCores,2021-02-15T10:16:53.36Z,IN,13.234.14.113,3.0,13.234.14.113,-19
MinimumCores,2021-02-15T10:17:23.36Z,IN,13.234.14.113,3.0,13.234.14.113,-19
MinimumCores,2021-02-15T10:17:53.36Z,IN,13.234.14.113,3.0,13.234.14.113,-18
MinimumCores,2021-02-15T10:18:23.36Z,IN,13.234.14.113,3.0,13.234.14.113,-18
MinimumCores,2021-02-15T10:18:53.36Z,IN,13.234.14.113,3.0,13.234.14.113,-18
MinimumCores,2021-02-15T10:19:23.36Z,IN,13.234.14.113,3.0,13.234.14.113,-17
MinimumCores,2021-02-15T10:19:53.36Z,IN,13.234.14.113,3.0,13.234.14.113,-17
MinimumCores,2021-02-15T10:20:23.36Z,IN,13.234.14.113,3.0,13.234.14.113,-17
MinimumCores,2021-02-15T10:20:53.36Z,IN,13.234.14.113,3.0,13.234.14.113,-17
MinimumCores,2021-02-15T10:21:23.36Z,IN,13.234.14.113,3.0,13.234.14.113,-16
MinimumCores,2021-02-15T10:21:53.36Z,IN,13.234.14.113,3.0,13.234.14.113,-16
MinimumCores,2021-02-15T10:22:23.36Z,IN,13.234.14.113,3.0,13.234.14.113,-16
MinimumCores,2021-02-15T10:22:53.36Z,IN,13.234.14.113,3.0,13.234.14.113,-16
MinimumCores,2021-02-15T10:23:23.36Z,IN,13.234.14.113,3.0,13.234.14.113,-16
MinimumCores,2021-02-15T10:23:53.36Z,IN,13.234.14.113,3.0,13.234.14.113,-15
MinimumCores,2021-02-15T10:24:23.36Z,IN,13.234.14.113,3.0,13.234.14.113,-15
MinimumCores,2021-02-15T10:24:53.36Z,IN,13.234.14.113,3.0,13.234.14.113,-14
MinimumCores,2021-02-15T10:25:23.36Z,IN,13.234.14.113,3.0,13.234.14.113,-14
MinimumCores,2021-02-15T10:25:53.36Z,IN,13.234.14.113,3.0,13.234.14.113,-14
MinimumCores,2021-02-15T10:26:23.36Z,IN,13.234.14.113,3.0,13.234.14.113,-14
MinimumCores,2021-02-15T10:26:53.36Z,IN,13.234.14.113,3.0,13.234.14.113,-14
MinimumCores,2021-02-15T10:27:23.36Z,IN,13.234.14.113,3.0,13.234.14.113,-14
MinimumCores,2021-02-15T10:27:53.36Z,IN,13.234.14.113,3.0,13.234.14.113,-13
MinimumCores,2021-02-15T10:28:23.36Z,IN,13.234.14.113,3.0,13.234.14.113,-13
MinimumCores,2021-02-15T10:28:53.36Z,IN,13.234.14.113,3.0,13.234.14.113,-13
MinimumCores,2021-02-15T10:29:23.36Z,IN,13.234.14.113,3.0,13.234.14.113,-13
MinimumCores,2021-02-15T10:29:53.36Z,IN,13.234.14.113,3.0,13.234.14.113,-13
MinimumCores,2021-02-15T10:30:23.36Z,IN,13.234.14.113,3.0,13.234.14.113,-13
MinimumCores,2021-02-15T10:30:53.36Z,IN,13.234.14.113,3.0,13.234.14.113,-13
MinimumCores,2021-02-15T10:31:23.36Z,IN,13.234.14.113,3.0,13.234.14.113,-12
MinimumCores,2021-02-15T10:31:53.36Z,IN,13.234.14.113,3.0,13.234.14.113,-12
MinimumCores,2021-02-15T10:32:23.36Z,IN,13.234.14.113,3.0,13.234.14.113,-12
MinimumCores,2021-02-15T10:32:53.36Z,IN,13.234.14.113,3.0,13.234.14.113,-12
MinimumCores,2021-02-15T10:33:23.36Z,IN,13.234.14.113,3.0,13.234.14.113,-11
MinimumCores,2021-02-15T10:33:53.36Z,IN,13.234.14.113,3.0,13.234.14.113,-11
MinimumCores,2021-02-15T10:34:23.36Z,IN,13.234.14.113,3.0,13.234.14.113,-11
MinimumCores,2021-02-15T10:34:53.36Z,IN,13.234.14.113,3.0,13.234.14.113,-11
MinimumCores,2021-02-15T10:35:23.36Z,IN,13.234.14.113,3.0,13.234.14.113,-11
MinimumCores,2021-02-15T10:35:53.361Z,IN,13.234.14.113,3.0,13.234.14.113,-11
MinimumCores,2021-02-15T10:36:23.36Z,IN,13.234.14.113,3.0,13.234.14.113,-11
MinimumCores,2021-02-15T10:36:53.36Z,IN,13.234.14.113,3.0,13.234.14.113,-11
MinimumCores,2021-02-15T10:37:23.36Z,IN,13.234.14.113,3.0,13.234.14.113,-11
MinimumCores,2021-02-15T10:37:53.36Z,IN,13.234.14.113,3.0,13.234.14.113,-11
MinimumCores,2021-02-15T10:38:23.36Z,IN,13.234.14.113,3.0,13.234.14.113,-10
MinimumCores,2021-02-15T10:38:53.36Z,IN,13.234.14.113,3.0,13.234.14.113,-10
MinimumCores,2021-02-15T10:39:23.36Z,IN,13.234.14.113,3.0,13.234.14.113,-10
MinimumCores,2021-02-15T10:39:53.362Z,IN,13.234.14.113,3.0,13.234.14.113,-10
MinimumCores,2021-02-15T10:40:23.36Z,IN,13.234.14.113,3.0,13.234.14.113,-10
MinimumCores,2021-02-15T10:40:53.36Z,IN,13.234.14.113,3.0,13.234.14.113,-10
MinimumCores,2021-02-15T10:41:23.36Z,IN,13.234.14.113,3.0,13.234.14.113,-10
MinimumCores,2021-02-15T10:41:53.36Z,IN,13.234.14.113,3.0,13.234.14.113,-10
MinimumCores,2021-02-15T10:42:23.36Z,IN,13.234.14.113,3.0,13.234.14.113,-9
MinimumCores,2021-02-15T10:42:53.36Z,IN,13.234.14.113,3.0,13.234.14.113,-9
MinimumCores,2021-02-15T10:43:23.36Z,IN,13.234.14.113,3.0,13.234.14.113,-9
MinimumCores,2021-02-15T10:43:53.36Z,IN,13.234.14.113,3.0,13.234.14.113,-9
MinimumCores,2021-02-15T10:44:23.36Z,IN,13.234.14.113,3.0,13.234.14.113,-9
MinimumCores,2021-02-15T10:44:53.36Z,IN,13.234.14.113,3.0,13.234.14.113,-8
MinimumCores,2021-02-15T10:45:53.36Z,IN,13.234.14.113,3.0,13.234.14.113,-8
MinimumCores,2021-02-15T10:46:23.36Z,IN,13.234.14.113,3.0,13.234.14.113,-8
MinimumCores,2021-02-15T10:46:53.36Z,IN,13.234.14.113,3.0,13.234.14.113,-8
MinimumCores,2021-02-15T10:47:23.36Z,IN,13.234.14.113,3.0,13.234.14.113,-8
MinimumCores,2021-02-15T10:47:53.36Z,IN,13.234.14.113,3.0,13.234.14.113,-8
MinimumCores,2021-02-15T10:48:23.36Z,IN,13.234.14.113,3.0,13.234.14.113,-8
MinimumCores,2021-02-15T10:48:53.36Z,IN,13.234.14.113,3.0,13.234.14.113,-8
MinimumCores,2021-02-15T10:49:23.36Z,IN,13.234.14.113,3.0,13.234.14.113,-8
MinimumCores,2021-02-15T10:49:53.36Z,IN,13.234.14.113,3.0,13.234.14.113,-8
MinimumCores,2021-02-15T10:50:23.36Z,IN,13.234.14.113,3.0,13.234.14.113,-8
MinimumCores,2021-02-15T10:50:53.36Z,IN,13.234.14.113,3.0,13.234.14.113,-7
MinimumCores,2021-02-15T10:51:23.36Z,IN,13.234.14.113,3.0,13.234.14.113,-7
MinimumCores,2021-02-15T10:51:53.36Z,IN,13.234.14.113,3.0,13.234.14.113,-7
MinimumCores,2021-02-15T10:52:23.36Z,IN,13.234.14.113,3.0,13.234.14.113,-7
MinimumCores,2021-02-15T10:52:53.36Z,IN,13.234.14.113,3.0,13.234.14.113,-7
MinimumCores,2021-02-15T10:53:23.36Z,IN,13.234.14.113,3.0,13.234.14.113,-7
MinimumCores,2021-02-15T10:53:53.36Z,IN,13.234.14.113,3.0,13.234.14.113,-7
MinimumCores,2021-02-15T10:54:23.36Z,IN,13.234.14.113,3.0,13.234.14.113,-7
MinimumCores,2021-02-15T10:54:53.36Z,IN,13.234.14.113,3.0,13.234.14.113,-7
MinimumCores,2021-02-15T10:55:23.36Z,IN,13.234.14.113,3.0,13.234.14.113,-7
MinimumCores,2021-02-15T10:55:53.36Z,IN,13.234.14.113,3.0,13.234.14.113,-7
MinimumCores,2021-02-15T10:56:23.36Z,IN,13.234.14.113,3.0,13.234.14.113,-7
MinimumCores,2021-02-15T10:56:53.36Z,IN,13.234.14.113,3.0,13.234.14.113,-7
MinimumCores,2021-02-15T10:57:23.36Z,IN,13.234.14.113,3.0,13.234.14.113,-6
MinimumCores,2021-02-15T10:57:53.36Z,IN,13.234.14.113,3.0,13.234.14.113,-6
MinimumCores,2021-02-15T10:58:23.36Z,IN,13.234.14.113,3.0,13.234.14.113,-6
MinimumCores,2021-02-15T10:58:53.36Z,IN,13.234.14.113,3.0,13.234.14.113,-6
MinimumCores,2021-02-15T10:59:23.36Z,IN,13.234.14.113,3.0,13.234.14.113,-6
MinimumCores,2021-02-15T10:59:53.36Z,IN,13.234.14.113,3.0,13.234.14.113,-6
MinimumCores,2021-02-15T11:00:23.36Z,IN,13.234.14.113,3.0,13.234.14.113,-6
MinimumCores,2021-02-15T11:00:53.36Z,IN,13.234.14.113,3.0,13.234.14.113,-6
MinimumCores,2021-02-15T11:01:23.36Z,IN,13.234.14.113,3.0,13.234.14.113,-6
MinimumCores,2021-02-15T11:01:53.36Z,IN,13.234.14.113,3.0,13.234.14.113,-6
MinimumCores,2021-02-15T11:02:23.36Z,IN,13.234.14.113,3.0,13.234.14.113,-6
MinimumCores,2021-02-15T11:02:53.36Z,IN,13.234.14.113,3.0,13.234.14.113,-6
MinimumCores,2021-02-15T11:03:23.36Z,IN,13.234.14.113,3.0,13.234.14.113,-6
MinimumCores,2021-02-15T11:03:53.36Z,IN,13.234.14.113,3.0,13.234.14.113,-5
MinimumCores,2021-02-15T11:04:23.36Z,IN,13.234.14.113,3.0,13.234.14.113,-5
MinimumCores,2021-02-15T11:04:53.36Z,IN,13.234.14.113,3.0,13.234.14.113,-5
MinimumCores,2021-02-15T11:05:23.36Z,IN,13.234.14.113,3.0,13.234.14.113,-5
MinimumCores,2021-02-15T11:05:53.36Z,IN,13.234.14.113,3.0,13.234.14.113,-5
MinimumCores,2021-02-15T11:06:23.36Z,IN,13.234.14.113,3.0,13.234.14.113,-5
MinimumCores,2021-02-15T11:06:53.36Z,IN,13.234.14.113,3.0,13.234.14.113,-5
MinimumCores,2021-02-15T11:07:23.36Z,IN,13.234.14.113,3.0,13.234.14.113,-5
MinimumCores,2021-02-15T11:07:53.36Z,IN,13.234.14.113,3.0,13.234.14.113,-5
MinimumCores,2021-02-15T11:08:23.36Z,IN,13.234.14.113,3.0,13.234.14.113,-5
MinimumCores,2021-02-15T11:08:53.36Z,IN,13.234.14.113,3.0,13.234.14.113,-5
MinimumCores,2021-02-15T11:09:23.36Z,IN,13.234.14.113,3.0,13.234.14.113,-5
MinimumCores,2021-02-15T11:09:53.36Z,IN,13.234.14.113,3.0,13.234.14.113,-5
MinimumCores,2021-02-15T11:10:23.36Z,IN,13.234.14.113,3.0,13.234.14.113,-5
MinimumCores,2021-02-15T11:10:53.36Z,IN,13.234.14.113,3.0,13.234.14.113,-5
MinimumCores,2021-02-15T11:11:23.36Z,IN,13.234.14.113,3.0,13.234.14.113,-5
MinimumCores,2021-02-15T11:11:53.36Z,IN,13.234.14.113,3.0,13.234.14.113,-4
MinimumCores,2021-02-15T11:12:23.36Z,IN,13.234.14.113,3.0,13.234.14.113,-5
MinimumCores,2021-02-15T11:12:53.36Z,IN,13.234.14.113,3.0,13.234.14.113,-5
MinimumCores,2021-02-15T11:13:23.36Z,IN,13.234.14.113,3.0,13.234.14.113,-4
MinimumCores,2021-02-15T11:13:53.36Z,IN,13.234.14.113,3.0,13.234.14.113,-4
MinimumCores,2021-02-15T11:14:23.36Z,IN,13.234.14.113,3.0,13.234.14.113,-4
MinimumCores,2021-02-15T11:14:53.36Z,IN,13.234.14.113,3.0,13.234.14.113,-4
MinimumCores,2021-02-15T11:15:23.36Z,IN,13.234.14.113,3.0,13.234.14.113,-4
MinimumCores,2021-02-15T11:15:53.36Z,IN,13.234.14.113,3.0,13.234.14.113,-4
MinimumCores,2021-02-15T11:16:23.36Z,IN,13.234.14.113,3.0,13.234.14.113,-4
MinimumCores,2021-02-15T11:16:53.36Z,IN,13.234.14.113,3.0,13.234.14.113,-4
MinimumCores,2021-02-15T11:17:23.36Z,IN,13.234.14.113,3.0,13.234.14.113,-4
MinimumCores,2021-02-15T11:17:53.36Z,IN,13.234.14.113,3.0,13.234.14.113,-4
MinimumCores,2021-02-15T11:18:23.36Z,IN,13.234.14.113,3.0,13.234.14.113,-4
MinimumCores,2021-02-15T11:18:53.36Z,IN,13.234.14.113,3.0,13.234.14.113,-4
MinimumCores,2021-02-15T11:19:23.36Z,IN,13.234.14.113,3.0,13.234.14.113,-4
MinimumCores,2021-02-15T11:19:53.36Z,IN,13.234.14.113,3.0,13.234.14.113,-4
MinimumCores,2021-02-15T11:20:23.36Z,IN,13.234.14.113,3.0,13.234.14.113,-4
MinimumCores,2021-02-15T11:20:53.36Z,IN,13.234.14.113,3.0,13.234.14.113,-4
MinimumCores,2021-02-15T11:21:23.36Z,IN,13.234.14.113,3.0,13.234.14.113,-3
MinimumCores,2021-02-15T11:21:53.36Z,IN,13.234.14.113,3.0,13.234.14.113,-3
MinimumCores,2021-02-15T11:22:23.36Z,IN,13.234.14.113,3.0,13.234.14.113,-3
MinimumCores,2021-02-15T11:22:53.36Z,IN,13.234.14.113,3.0,13.234.14.113,-3
MinimumCores,2021-02-15T11:23:23.36Z,IN,13.234.14.113,3.0,13.234.14.113,-3
MinimumCores,2021-02-15T11:23:53.36Z,IN,13.234.14.113,3.0,13.234.14.113,-3
MinimumCores,2021-02-15T11:24:23.36Z,IN,13.234.14.113,3.0,13.234.14.113,-3
MinimumCores,2021-02-15T11:24:53.36Z,IN,13.234.14.113,3.0,13.234.14.113,-3
MinimumCores,2021-02-15T11:25:23.36Z,IN,13.234.14.113,3.0,13.234.14.113,-3
MinimumCores,2021-02-15T11:25:53.36Z,IN,13.234.14.113,3.0,13.234.14.113,-3
MinimumCores,2021-02-15T11:26:23.36Z,IN,13.234.14.113,3.0,13.234.14.113,-3
MinimumCores,2021-02-15T11:26:53.36Z,IN,13.234.14.113,3.0,13.234.14.113,-3
MinimumCores,2021-02-15T11:27:23.36Z,IN,13.234.14.113,3.0,13.234.14.113,-3
MinimumCores,2021-02-15T11:27:53.36Z,IN,13.234.14.113,3.0,13.234.14.113,-3
MinimumCores,2021-02-15T11:28:23.36Z,IN,13.234.14.113,3.0,13.234.14.113,-3
MinimumCores,2021-02-15T11:28:53.36Z,IN,13.234.14.113,3.0,13.234.14.113,-3
MinimumCores,2021-02-15T11:29:23.36Z,IN,13.234.14.113,3.0,13.234.14.113,-3
MinimumCores,2021-02-15T11:29:53.36Z,IN,13.234.14.113,3.0,13.234.14.113,-3
MinimumCores,2021-02-15T11:30:23.36Z,IN,13.234.14.113,3.0,13.234.14.113,-3
MinimumCores,2021-02-15T11:30:53.36Z,IN,13.234.14.113,3.0,13.234.14.113,-3
MinimumCores,2021-02-15T11:31:23.36Z,IN,13.234.14.113,3.0,13.234.14.113,-3
MinimumCores,2021-02-15T11:31:53.36Z,IN,13.234.14.113,3.0,13.234.14.113,-3
MinimumCores,2021-02-15T11:32:23.36Z,IN,13.234.14.113,3.0,13.234.14.113,-3
MinimumCores,2021-02-15T11:32:53.36Z,IN,13.234.14.113,3.0,13.234.14.113,-3
MinimumCores,2021-02-15T11:33:23.36Z,IN,13.234.14.113,3.0,13.234.14.113,-2
MinimumCores,2021-02-15T11:33:53.36Z,IN,13.234.14.113,3.0,13.234.14.113,-2
MinimumCores,2021-02-15T11:34:23.36Z,IN,13.234.14.113,3.0,13.234.14.113,-2
MinimumCores,2021-02-15T11:34:53.36Z,IN,13.234.14.113,3.0,13.234.14.113,-2
MinimumCores,2021-02-15T11:35:23.36Z,IN,13.234.14.113,3.0,13.234.14.113,-2
MinimumCores,2021-02-15T11:35:53.36Z,IN,13.234.14.113,3.0,13.234.14.113,-2
MinimumCores,2021-02-15T11:36:23.36Z,IN,13.234.14.113,3.0,13.234.14.113,-2
MinimumCores,2021-02-15T11:36:53.36Z,IN,13.234.14.113,3.0,13.234.14.113,-2
MinimumCores,2021-02-15T11:37:23.36Z,IN,13.234.14.113,3.0,13.234.14.113,-2
MinimumCores,2021-02-15T11:37:53.36Z,IN,13.234.14.113,3.0,13.234.14.113,-2
MinimumCores,2021-02-15T11:38:23.36Z,IN,13.234.14.113,3.0,13.234.14.113,-2
MinimumCores,2021-02-15T11:38:53.36Z,IN,13.234.14.113,3.0,13.234.14.113,-2
MinimumCores,2021-02-15T11:39:23.36Z,IN,13.234.14.113,3.0,13.234.14.113,-2
MinimumCores,2021-02-15T11:39:53.36Z,IN,13.234.14.113,3.0,13.234.14.113,-2
MinimumCores,2021-02-15T11:40:23.36Z,IN,13.234.14.113,3.0,13.234.14.113,-2
MinimumCores,2021-02-15T11:40:53.36Z,IN,13.234.14.113,3.0,13.234.14.113,-2
MinimumCores,2021-02-15T11:41:23.36Z,IN,13.234.14.113,3.0,13.234.14.113,-2
MinimumCores,2021-02-15T11:41:53.36Z,IN,13.234.14.113,3.0,13.234.14.113,-2
MinimumCores,2021-02-15T11:42:23.36Z,IN,13.234.14.113,3.0,13.234.14.113,-2
MinimumCores,2021-02-15T11:42:53.36Z,IN,13.234.14.113,3.0,13.234.14.113,-2
MinimumCores,2021-02-15T11:43:23.36Z,IN,13.234.14.113,3.0,13.234.14.113,-2
MinimumCores,2021-02-15T11:43:53.36Z,IN,13.234.14.113,3.0,13.234.14.113,-2
MinimumCores,2021-02-15T11:44:23.36Z,IN,13.234.14.113,3.0,13.234.14.113,-2
MinimumCores,2021-02-15T11:44:53.36Z,IN,13.234.14.113,3.0,13.234.14.113,-2
MinimumCores,2021-02-15T11:45:23.36Z,IN,13.234.14.113,3.0,13.234.14.113,-1
MinimumCores,2021-02-15T11:45:53.36Z,IN,13.234.14.113,3.0,13.234.14.113,-1
MinimumCores,2021-02-15T11:46:23.36Z,IN,13.234.14.113,3.0,13.234.14.113,-1
MinimumCores,2021-02-15T11:46:53.36Z,IN,13.234.14.113,3.0,13.234.14.113,-1
MinimumCores,2021-02-15T11:47:23.36Z,IN,13.234.14.113,3.0,13.234.14.113,-1
MinimumCores,2021-02-15T11:47:53.36Z,IN,13.234.14.113,3.0,13.234.14.113,-1
MinimumCores,2021-02-15T11:48:23.36Z,IN,13.234.14.113,3.0,13.234.14.113,-1
MinimumCores,2021-02-15T11:48:53.36Z,IN,13.234.14.113,3.0,13.234.14.113,-1
MinimumCores,2021-02-15T11:49:23.36Z,IN,13.234.14.113,3.0,13.234.14.113,-1
MinimumCores,2021-02-15T11:49:53.36Z,IN,13.234.14.113,3.0,13.234.14.113,-1
MinimumCores,2021-02-15T11:50:23.36Z,IN,13.234.14.113,3.0,13.234.14.113,-1
MinimumCores,2021-02-15T11:50:53.36Z,IN,13.234.14.113,3.0,13.234.14.113,-1
MinimumCores,2021-02-15T11:51:23.36Z,IN,13.234.14.113,3.0,13.234.14.113,-1
MinimumCores,2021-02-15T11:51:53.36Z,IN,13.234.14.113,3.0,13.234.14.113,-1
MinimumCores,2021-02-15T11:52:23.36Z,IN,13.234.14.113,3.0,13.234.14.113,-1
MinimumCores,2021-02-15T11:52:53.36Z,IN,13.234.14.113,3.0,13.234.14.113,-1
MinimumCores,2021-02-15T11:53:23.36Z,IN,13.234.14.113,3.0,13.234.14.113,-1
MinimumCores,2021-02-15T11:53:53.36Z,IN,13.234.14.113,3.0,13.234.14.113,-1
MinimumCores,2021-02-15T11:54:23.36Z,IN,13.234.14.113,3.0,13.234.14.113,-1
MinimumCores,2021-02-15T11:54:53.36Z,IN,13.234.14.113,3.0,13.234.14.113,-1
MinimumCores,2021-02-15T11:55:23.36Z,IN,13.234.14.113,3.0,13.234.14.113,-1
MinimumCores,2021-02-15T11:55:53.36Z,IN,13.234.14.113,3.0,13.234.14.113,-1
MinimumCores,2021-02-15T11:56:23.362Z,IN,13.234.14.113,3.0,13.234.14.113,-1
MinimumCores,2021-02-15T11:56:53.36Z,IN,13.234.14.113,3.0,13.234.14.113,-1
MinimumCores,2021-02-15T11:57:23.36Z,IN,13.234.14.113,3.0,13.234.14.113,-1
MinimumCores,2021-02-15T11:57:53.36Z,IN,13.234.14.113,3.0,13.234.14.113,-1
MinimumCores,2021-02-15T11:58:23.36Z,IN,13.234.14.113,3.0,13.234.14.113,-1
MinimumCores,2021-02-15T11:58:53.36Z,IN,13.234.14.113,3.0,13.234.14.113,0
MinimumCores,2021-02-15T11:59:23.36Z,IN,13.234.14.113,3.0,13.234.14.113,0
MinimumCores,2021-02-15T11:59:53.36Z,IN,13.234.14.113,3.0,13.234.14.113,0
MinimumCores,2021-02-15T12:00:23.36Z,IN,13.234.14.113,3.0,13.234.14.113,0
MinimumCores,2021-02-15T12:00:53.36Z,IN,13.234.14.113,3.0,13.234.14.113,0
MinimumCores,2021-02-15T12:01:23.36Z,IN,13.234.14.113,3.0,13.234.14.113,0
MinimumCores,2021-02-15T12:01:53.36Z,IN,13.234.14.113,3.0,13.234.14.113,0
MinimumCores,2021-02-15T12:02:23.36Z,IN,13.234.14.113,3.0,13.234.14.113,0
MinimumCores,2021-02-15T12:02:53.36Z,IN,13.234.14.113,3.0,13.234.14.113,0
MinimumCores,2021-02-15T12:03:23.36Z,IN,13.234.14.113,3.0,13.234.14.113,0
MinimumCores,2021-02-15T12:03:53.36Z,IN,13.234.14.113,3.0,13.234.14.113,0
MinimumCores,2021-02-15T12:04:23.36Z,IN,13.234.14.113,3.0,13.234.14.113,0
MinimumCores,2021-02-15T12:04:53.36Z,IN,13.234.14.113,3.0,13.234.14.113,0
MinimumCores,2021-02-15T12:05:23.36Z,IN,13.234.14.113,3.0,13.234.14.113,0
MinimumCores,2021-02-15T12:05:53.36Z,IN,13.234.14.113,3.0,13.234.14.113,0
MinimumCores,2021-02-15T12:06:23.36Z,IN,13.234.14.113,3.0,13.234.14.113,0
MinimumCores,2021-02-15T12:06:53.36Z,IN,13.234.14.113,3.0,13.234.14.113,0
MinimumCores,2021-02-15T12:07:23.36Z,IN,13.234.14.113,3.0,13.234.14.113,0
MinimumCores,2021-02-15T12:07:53.36Z,IN,13.234.14.113,3.0,13.234.14.113,0
MinimumCores,2021-02-15T12:08:23.36Z,IN,13.234.14.113,3.0,13.234.14.113,0
MinimumCores,2021-02-15T12:08:53.36Z,IN,13.234.14.113,3.0,13.234.14.113,0
