name,time,countryCode,ipAddress,level,producer,value
SimulationElapsedTime,2021-02-15T08:37:20.816Z,IE,3.249.232.237,0,3.249.232.237,25
SimulationElapsedTime,2021-02-15T08:37:50.705Z,IE,3.249.232.237,0,3.249.232.237,55
SimulationElapsedTime,2021-02-15T08:38:20.723Z,IE,3.249.232.237,0,3.249.232.237,85
SimulationElapsedTime,2021-02-15T08:38:50.703Z,IE,3.249.232.237,0,3.249.232.237,115
SimulationElapsedTime,2021-02-15T08:39:20.708Z,IE,3.249.232.237,0,3.249.232.237,145
SimulationElapsedTime,2021-02-15T08:39:50.685Z,IE,3.249.232.237,0,3.249.232.237,175
SimulationElapsedTime,2021-02-15T08:40:20.809Z,IE,3.249.232.237,0,3.249.232.237,206
SimulationElapsedTime,2021-02-15T08:40:50.682Z,IE,3.249.232.237,0,3.249.232.237,235
SimulationElapsedTime,2021-02-15T08:41:20.675Z,IE,3.249.232.237,0,3.249.232.237,265
SimulationElapsedTime,2021-02-15T08:41:50.694Z,IE,3.249.232.237,0,3.249.232.237,295
SimulationElapsedTime,2021-02-15T08:42:20.679Z,IE,3.249.232.237,0,3.249.232.237,325
SimulationElapsedTime,2021-02-15T08:42:50.674Z,IE,3.249.232.237,0,3.249.232.237,355
SimulationElapsedTime,2021-02-15T08:43:20.67Z,IE,3.249.232.237,0,3.249.232.237,385
SimulationElapsedTime,2021-02-15T08:43:50.685Z,IE,3.249.232.237,0,3.249.232.237,415
SimulationElapsedTime,2021-02-15T08:44:20.667Z,IE,3.249.232.237,0,3.249.232.237,445
SimulationElapsedTime,2021-02-15T08:44:50.674Z,IE,3.249.232.237,0,3.249.232.237,475
SimulationElapsedTime,2021-02-15T08:45:20.74Z,IE,3.249.232.237,0,3.249.232.237,505
SimulationElapsedTime,2021-02-15T08:45:50.666Z,IE,3.249.232.237,0,3.249.232.237,535
SimulationElapsedTime,2021-02-15T08:46:20.666Z,IE,3.249.232.237,0,3.249.232.237,565
SimulationElapsedTime,2021-02-15T08:46:50.666Z,IE,3.249.232.237,0,3.249.232.237,595
SimulationElapsedTime,2021-02-15T08:47:20.677Z,IE,3.249.232.237,0,3.249.232.237,625
SimulationElapsedTime,2021-02-15T08:47:50.672Z,IE,3.249.232.237,0,3.249.232.237,655
SimulationElapsedTime,2021-02-15T08:48:20.667Z,IE,3.249.232.237,0,3.249.232.237,685
SimulationElapsedTime,2021-02-15T08:48:50.678Z,IE,3.249.232.237,0,3.249.232.237,715
SimulationElapsedTime,2021-02-15T08:49:20.687Z,IE,3.249.232.237,0,3.249.232.237,745
SimulationElapsedTime,2021-02-15T08:49:50.663Z,IE,3.249.232.237,0,3.249.232.237,775
SimulationElapsedTime,2021-02-15T08:50:20.761Z,IE,3.249.232.237,0,3.249.232.237,805
SimulationElapsedTime,2021-02-15T08:50:50.67Z,IE,3.249.232.237,0,3.249.232.237,835
SimulationElapsedTime,2021-02-15T08:51:20.663Z,IE,3.249.232.237,0,3.249.232.237,865
SimulationElapsedTime,2021-02-15T08:51:50.669Z,IE,3.249.232.237,0,3.249.232.237,895
SimulationElapsedTime,2021-02-15T08:52:20.667Z,IE,3.249.232.237,0,3.249.232.237,925
SimulationElapsedTime,2021-02-15T08:52:50.663Z,IE,3.249.232.237,0,3.249.232.237,955
SimulationElapsedTime,2021-02-15T08:53:20.661Z,IE,3.249.232.237,0,3.249.232.237,985
SimulationElapsedTime,2021-02-15T08:53:50.668Z,IE,3.249.232.237,0,3.249.232.237,1015
SimulationElapsedTime,2021-02-15T08:54:20.664Z,IE,3.249.232.237,0,3.249.232.237,1045
SimulationElapsedTime,2021-02-15T08:54:50.667Z,IE,3.249.232.237,0,3.249.232.237,1075
SimulationElapsedTime,2021-02-15T08:55:20.763Z,IE,3.249.232.237,0,3.249.232.237,1105
SimulationElapsedTime,2021-02-15T08:55:50.67Z,IE,3.249.232.237,0,3.249.232.237,1135
SimulationElapsedTime,2021-02-15T08:56:20.662Z,IE,3.249.232.237,0,3.249.232.237,1165
SimulationElapsedTime,2021-02-15T08:56:50.667Z,IE,3.249.232.237,0,3.249.232.237,1195
SimulationElapsedTime,2021-02-15T08:57:20.663Z,IE,3.249.232.237,0,3.249.232.237,1225
SimulationElapsedTime,2021-02-15T08:57:50.667Z,IE,3.249.232.237,0,3.249.232.237,1255
SimulationElapsedTime,2021-02-15T08:58:20.669Z,IE,3.249.232.237,0,3.249.232.237,1285
SimulationElapsedTime,2021-02-15T08:58:50.662Z,IE,3.249.232.237,0,3.249.232.237,1315
SimulationElapsedTime,2021-02-15T08:59:20.662Z,IE,3.249.232.237,0,3.249.232.237,1345
SimulationElapsedTime,2021-02-15T08:59:50.664Z,IE,3.249.232.237,0,3.249.232.237,1375
SimulationElapsedTime,2021-02-15T09:00:20.66Z,IE,3.249.232.237,0,3.249.232.237,1405
SimulationElapsedTime,2021-02-15T09:00:50.663Z,IE,3.249.232.237,0,3.249.232.237,1435
SimulationElapsedTime,2021-02-15T09:01:20.666Z,IE,3.249.232.237,0,3.249.232.237,1465
SimulationElapsedTime,2021-02-15T09:01:50.666Z,IE,3.249.232.237,0,3.249.232.237,1495
SimulationElapsedTime,2021-02-15T09:02:20.673Z,IE,3.249.232.237,0,3.249.232.237,1525
SimulationElapsedTime,2021-02-15T09:02:50.667Z,IE,3.249.232.237,0,3.249.232.237,1555
SimulationElapsedTime,2021-02-15T09:03:20.664Z,IE,3.249.232.237,0,3.249.232.237,1585
SimulationElapsedTime,2021-02-15T09:03:50.661Z,IE,3.249.232.237,0,3.249.232.237,1615
SimulationElapsedTime,2021-02-15T09:04:20.667Z,IE,3.249.232.237,0,3.249.232.237,1645
SimulationElapsedTime,2021-02-15T09:04:50.662Z,IE,3.249.232.237,0,3.249.232.237,1675
SimulationElapsedTime,2021-02-15T09:05:20.667Z,IE,3.249.232.237,0,3.249.232.237,1705
SimulationElapsedTime,2021-02-15T09:05:50.738Z,IE,3.249.232.237,0,3.249.232.237,1735
SimulationElapsedTime,2021-02-15T09:06:20.664Z,IE,3.249.232.237,0,3.249.232.237,1765
SimulationElapsedTime,2021-02-15T09:06:50.668Z,IE,3.249.232.237,0,3.249.232.237,1795
SimulationElapsedTime,2021-02-15T09:07:20.663Z,IE,3.249.232.237,0,3.249.232.237,1825
SimulationElapsedTime,2021-02-15T09:07:50.662Z,IE,3.249.232.237,0,3.249.232.237,1855
SimulationElapsedTime,2021-02-15T09:08:20.68Z,IE,3.249.232.237,0,3.249.232.237,1885
SimulationElapsedTime,2021-02-15T09:08:50.662Z,IE,3.249.232.237,0,3.249.232.237,1915
SimulationElapsedTime,2021-02-15T09:09:20.67Z,IE,3.249.232.237,0,3.249.232.237,1945
SimulationElapsedTime,2021-02-15T09:09:50.67Z,IE,3.249.232.237,0,3.249.232.237,1975
SimulationElapsedTime,2021-02-15T09:10:20.665Z,IE,3.249.232.237,0,3.249.232.237,2005
SimulationElapsedTime,2021-02-15T09:10:50.736Z,IE,3.249.232.237,0,3.249.232.237,2035
SimulationElapsedTime,2021-02-15T09:11:20.659Z,IE,3.249.232.237,0,3.249.232.237,2065
SimulationElapsedTime,2021-02-15T09:11:50.666Z,IE,3.249.232.237,0,3.249.232.237,2095
SimulationElapsedTime,2021-02-15T09:12:20.661Z,IE,3.249.232.237,0,3.249.232.237,2125
SimulationElapsedTime,2021-02-15T09:12:50.662Z,IE,3.249.232.237,0,3.249.232.237,2155
SimulationElapsedTime,2021-02-15T09:13:20.666Z,IE,3.249.232.237,0,3.249.232.237,2185
SimulationElapsedTime,2021-02-15T09:13:50.66Z,IE,3.249.232.237,0,3.249.232.237,2215
SimulationElapsedTime,2021-02-15T09:14:20.664Z,IE,3.249.232.237,0,3.249.232.237,2245
SimulationElapsedTime,2021-02-15T09:14:50.662Z,IE,3.249.232.237,0,3.249.232.237,2275
SimulationElapsedTime,2021-02-15T09:15:20.676Z,IE,3.249.232.237,0,3.249.232.237,2305
SimulationElapsedTime,2021-02-15T09:15:50.698Z,IE,3.249.232.237,0,3.249.232.237,2335
SimulationElapsedTime,2021-02-15T09:16:20.661Z,IE,3.249.232.237,0,3.249.232.237,2365
SimulationElapsedTime,2021-02-15T09:16:50.666Z,IE,3.249.232.237,0,3.249.232.237,2395
SimulationElapsedTime,2021-02-15T09:17:20.664Z,IE,3.249.232.237,0,3.249.232.237,2425
SimulationElapsedTime,2021-02-15T09:17:50.666Z,IE,3.249.232.237,0,3.249.232.237,2455
SimulationElapsedTime,2021-02-15T09:18:20.663Z,IE,3.249.232.237,0,3.249.232.237,2485
SimulationElapsedTime,2021-02-15T09:18:50.668Z,IE,3.249.232.237,0,3.249.232.237,2515
SimulationElapsedTime,2021-02-15T09:19:20.675Z,IE,3.249.232.237,0,3.249.232.237,2545
SimulationElapsedTime,2021-02-15T09:19:50.662Z,IE,3.249.232.237,0,3.249.232.237,2575
SimulationElapsedTime,2021-02-15T09:20:20.67Z,IE,3.249.232.237,0,3.249.232.237,2605
SimulationElapsedTime,2021-02-15T09:20:50.667Z,IE,3.249.232.237,0,3.249.232.237,2635
SimulationElapsedTime,2021-02-15T09:21:20.659Z,IE,3.249.232.237,0,3.249.232.237,2665
SimulationElapsedTime,2021-02-15T09:21:50.678Z,IE,3.249.232.237,0,3.249.232.237,2695
SimulationElapsedTime,2021-02-15T09:22:20.672Z,IE,3.249.232.237,0,3.249.232.237,2725
SimulationElapsedTime,2021-02-15T09:22:50.671Z,IE,3.249.232.237,0,3.249.232.237,2755
SimulationElapsedTime,2021-02-15T09:23:20.657Z,IE,3.249.232.237,0,3.249.232.237,2785
SimulationElapsedTime,2021-02-15T09:23:50.657Z,IE,3.249.232.237,0,3.249.232.237,2815
SimulationElapsedTime,2021-02-15T09:24:20.663Z,IE,3.249.232.237,0,3.249.232.237,2845
SimulationElapsedTime,2021-02-15T09:24:50.66Z,IE,3.249.232.237,0,3.249.232.237,2875
SimulationElapsedTime,2021-02-15T09:25:20.662Z,IE,3.249.232.237,0,3.249.232.237,2905
SimulationElapsedTime,2021-02-15T09:25:50.659Z,IE,3.249.232.237,0,3.249.232.237,2935
SimulationElapsedTime,2021-02-15T09:26:20.66Z,IE,3.249.232.237,0,3.249.232.237,2965
SimulationElapsedTime,2021-02-15T09:26:50.732Z,IE,3.249.232.237,0,3.249.232.237,2995
SimulationElapsedTime,2021-02-15T09:27:20.658Z,IE,3.249.232.237,0,3.249.232.237,3025
SimulationElapsedTime,2021-02-15T09:27:50.66Z,IE,3.249.232.237,0,3.249.232.237,3055
SimulationElapsedTime,2021-02-15T09:28:20.658Z,IE,3.249.232.237,0,3.249.232.237,3085
SimulationElapsedTime,2021-02-15T09:28:50.663Z,IE,3.249.232.237,0,3.249.232.237,3115
SimulationElapsedTime,2021-02-15T09:29:20.659Z,IE,3.249.232.237,0,3.249.232.237,3145
SimulationElapsedTime,2021-02-15T09:29:50.661Z,IE,3.249.232.237,0,3.249.232.237,3175
SimulationElapsedTime,2021-02-15T09:30:20.659Z,IE,3.249.232.237,0,3.249.232.237,3205
SimulationElapsedTime,2021-02-15T09:30:50.662Z,IE,3.249.232.237,0,3.249.232.237,3235
SimulationElapsedTime,2021-02-15T09:31:20.661Z,IE,3.249.232.237,0,3.249.232.237,3265
SimulationElapsedTime,2021-02-15T09:31:50.659Z,IE,3.249.232.237,0,3.249.232.237,3295
SimulationElapsedTime,2021-02-15T09:32:20.662Z,IE,3.249.232.237,0,3.249.232.237,3325
SimulationElapsedTime,2021-02-15T09:32:50.657Z,IE,3.249.232.237,0,3.249.232.237,3355
SimulationElapsedTime,2021-02-15T09:33:20.661Z,IE,3.249.232.237,0,3.249.232.237,3385
SimulationElapsedTime,2021-02-15T09:33:50.657Z,IE,3.249.232.237,0,3.249.232.237,3415
SimulationElapsedTime,2021-02-15T09:34:20.662Z,IE,3.249.232.237,0,3.249.232.237,3445
SimulationElapsedTime,2021-02-15T09:34:50.696Z,IE,3.249.232.237,0,3.249.232.237,3475
SimulationElapsedTime,2021-02-15T09:35:20.66Z,IE,3.249.232.237,0,3.249.232.237,3505
SimulationElapsedTime,2021-02-15T09:35:50.664Z,IE,3.249.232.237,0,3.249.232.237,3535
SimulationElapsedTime,2021-02-15T09:36:20.658Z,IE,3.249.232.237,0,3.249.232.237,3565
SimulationElapsedTime,2021-02-15T09:36:50.661Z,IE,3.249.232.237,0,3.249.232.237,3595
SimulationElapsedTime,2021-02-15T09:37:20.658Z,IE,3.249.232.237,0,3.249.232.237,3625
SimulationElapsedTime,2021-02-15T09:37:50.662Z,IE,3.249.232.237,0,3.249.232.237,3655
SimulationElapsedTime,2021-02-15T09:38:20.68Z,IE,3.249.232.237,0,3.249.232.237,3685
SimulationElapsedTime,2021-02-15T09:38:50.659Z,IE,3.249.232.237,0,3.249.232.237,3715
SimulationElapsedTime,2021-02-15T09:39:20.662Z,IE,3.249.232.237,0,3.249.232.237,3745
SimulationElapsedTime,2021-02-15T09:39:50.658Z,IE,3.249.232.237,0,3.249.232.237,3775
SimulationElapsedTime,2021-02-15T09:40:20.659Z,IE,3.249.232.237,0,3.249.232.237,3805
SimulationElapsedTime,2021-02-15T09:40:50.665Z,IE,3.249.232.237,0,3.249.232.237,3835
SimulationElapsedTime,2021-02-15T09:41:20.663Z,IE,3.249.232.237,0,3.249.232.237,3865
SimulationElapsedTime,2021-02-15T09:41:50.659Z,IE,3.249.232.237,0,3.249.232.237,3895
SimulationElapsedTime,2021-02-15T09:42:20.662Z,IE,3.249.232.237,0,3.249.232.237,3925
SimulationElapsedTime,2021-02-15T09:42:50.674Z,IE,3.249.232.237,0,3.249.232.237,3955
SimulationElapsedTime,2021-02-15T09:43:20.662Z,IE,3.249.232.237,0,3.249.232.237,3985
SimulationElapsedTime,2021-02-15T09:43:50.663Z,IE,3.249.232.237,0,3.249.232.237,4015
SimulationElapsedTime,2021-02-15T09:44:20.657Z,IE,3.249.232.237,0,3.249.232.237,4045
SimulationElapsedTime,2021-02-15T09:44:50.661Z,IE,3.249.232.237,0,3.249.232.237,4075
SimulationElapsedTime,2021-02-15T09:45:20.666Z,IE,3.249.232.237,0,3.249.232.237,4105
SimulationElapsedTime,2021-02-15T09:45:50.658Z,IE,3.249.232.237,0,3.249.232.237,4135
SimulationElapsedTime,2021-02-15T09:46:20.66Z,IE,3.249.232.237,0,3.249.232.237,4165
SimulationElapsedTime,2021-02-15T09:46:50.662Z,IE,3.249.232.237,0,3.249.232.237,4195
SimulationElapsedTime,2021-02-15T09:47:20.689Z,IE,3.249.232.237,0,3.249.232.237,4225
SimulationElapsedTime,2021-02-15T09:47:50.66Z,IE,3.249.232.237,0,3.249.232.237,4255
SimulationElapsedTime,2021-02-15T09:48:20.661Z,IE,3.249.232.237,0,3.249.232.237,4285
SimulationElapsedTime,2021-02-15T09:48:50.668Z,IE,3.249.232.237,0,3.249.232.237,4315
SimulationElapsedTime,2021-02-15T09:49:20.658Z,IE,3.249.232.237,0,3.249.232.237,4345
SimulationElapsedTime,2021-02-15T09:49:50.661Z,IE,3.249.232.237,0,3.249.232.237,4375
SimulationElapsedTime,2021-02-15T09:50:20.661Z,IE,3.249.232.237,0,3.249.232.237,4405
SimulationElapsedTime,2021-02-15T09:50:50.659Z,IE,3.249.232.237,0,3.249.232.237,4435
SimulationElapsedTime,2021-02-15T09:51:20.661Z,IE,3.249.232.237,0,3.249.232.237,4465
SimulationElapsedTime,2021-02-15T09:51:50.66Z,IE,3.249.232.237,0,3.249.232.237,4495
SimulationElapsedTime,2021-02-15T09:52:20.661Z,IE,3.249.232.237,0,3.249.232.237,4525
SimulationElapsedTime,2021-02-15T09:52:50.696Z,IE,3.249.232.237,0,3.249.232.237,4555
SimulationElapsedTime,2021-02-15T09:53:20.66Z,IE,3.249.232.237,0,3.249.232.237,4585
SimulationElapsedTime,2021-02-15T09:53:50.66Z,IE,3.249.232.237,0,3.249.232.237,4615
SimulationElapsedTime,2021-02-15T09:54:20.663Z,IE,3.249.232.237,0,3.249.232.237,4645
SimulationElapsedTime,2021-02-15T09:54:50.659Z,IE,3.249.232.237,0,3.249.232.237,4675
SimulationElapsedTime,2021-02-15T09:55:20.662Z,IE,3.249.232.237,0,3.249.232.237,4705
SimulationElapsedTime,2021-02-15T09:55:50.662Z,IE,3.249.232.237,0,3.249.232.237,4735
SimulationElapsedTime,2021-02-15T09:56:20.665Z,IE,3.249.232.237,0,3.249.232.237,4765
SimulationElapsedTime,2021-02-15T09:56:50.662Z,IE,3.249.232.237,0,3.249.232.237,4795
SimulationElapsedTime,2021-02-15T09:57:20.662Z,IE,3.249.232.237,0,3.249.232.237,4825
SimulationElapsedTime,2021-02-15T09:57:50.658Z,IE,3.249.232.237,0,3.249.232.237,4855
SimulationElapsedTime,2021-02-15T09:58:20.658Z,IE,3.249.232.237,0,3.249.232.237,4885
SimulationElapsedTime,2021-02-15T09:58:50.661Z,IE,3.249.232.237,0,3.249.232.237,4915
SimulationElapsedTime,2021-02-15T09:59:20.662Z,IE,3.249.232.237,0,3.249.232.237,4945
SimulationElapsedTime,2021-02-15T09:59:50.662Z,IE,3.249.232.237,0,3.249.232.237,4975
SimulationElapsedTime,2021-02-15T10:00:20.664Z,IE,3.249.232.237,0,3.249.232.237,5005
SimulationElapsedTime,2021-02-15T10:00:50.661Z,IE,3.249.232.237,0,3.249.232.237,5035
SimulationElapsedTime,2021-02-15T10:01:20.663Z,IE,3.249.232.237,0,3.249.232.237,5065
SimulationElapsedTime,2021-02-15T10:01:50.67Z,IE,3.249.232.237,0,3.249.232.237,5095
SimulationElapsedTime,2021-02-15T10:02:20.658Z,IE,3.249.232.237,0,3.249.232.237,5125
SimulationElapsedTime,2021-02-15T10:02:50.659Z,IE,3.249.232.237,0,3.249.232.237,5155
SimulationElapsedTime,2021-02-15T10:03:20.661Z,IE,3.249.232.237,0,3.249.232.237,5185
SimulationElapsedTime,2021-02-15T10:03:50.664Z,IE,3.249.232.237,0,3.249.232.237,5215
SimulationElapsedTime,2021-02-15T10:04:20.662Z,IE,3.249.232.237,0,3.249.232.237,5245
SimulationElapsedTime,2021-02-15T10:04:50.663Z,IE,3.249.232.237,0,3.249.232.237,5275
SimulationElapsedTime,2021-02-15T10:05:20.663Z,IE,3.249.232.237,0,3.249.232.237,5305
SimulationElapsedTime,2021-02-15T10:05:50.661Z,IE,3.249.232.237,0,3.249.232.237,5335
SimulationElapsedTime,2021-02-15T10:06:20.661Z,IE,3.249.232.237,0,3.249.232.237,5365
SimulationElapsedTime,2021-02-15T10:06:50.662Z,IE,3.249.232.237,0,3.249.232.237,5395
SimulationElapsedTime,2021-02-15T10:07:20.664Z,IE,3.249.232.237,0,3.249.232.237,5425
SimulationElapsedTime,2021-02-15T10:07:50.659Z,IE,3.249.232.237,0,3.249.232.237,5455
SimulationElapsedTime,2021-02-15T10:08:20.662Z,IE,3.249.232.237,0,3.249.232.237,5485
SimulationElapsedTime,2021-02-15T10:08:50.661Z,IE,3.249.232.237,0,3.249.232.237,5515
SimulationElapsedTime,2021-02-15T10:09:20.662Z,IE,3.249.232.237,0,3.249.232.237,5545
SimulationElapsedTime,2021-02-15T10:09:50.661Z,IE,3.249.232.237,0,3.249.232.237,5575
SimulationElapsedTime,2021-02-15T10:10:20.663Z,IE,3.249.232.237,0,3.249.232.237,5605
SimulationElapsedTime,2021-02-15T10:10:50.664Z,IE,3.249.232.237,0,3.249.232.237,5635
SimulationElapsedTime,2021-02-15T10:11:20.663Z,IE,3.249.232.237,0,3.249.232.237,5665
SimulationElapsedTime,2021-02-15T10:11:50.701Z,IE,3.249.232.237,0,3.249.232.237,5695
SimulationElapsedTime,2021-02-15T10:12:20.666Z,IE,3.249.232.237,0,3.249.232.237,5725
SimulationElapsedTime,2021-02-15T10:12:50.703Z,IE,3.249.232.237,0,3.249.232.237,5755
SimulationElapsedTime,2021-02-15T10:13:20.664Z,IE,3.249.232.237,0,3.249.232.237,5785
SimulationElapsedTime,2021-02-15T10:13:50.663Z,IE,3.249.232.237,0,3.249.232.237,5815
SimulationElapsedTime,2021-02-15T10:14:20.664Z,IE,3.249.232.237,0,3.249.232.237,5845
SimulationElapsedTime,2021-02-15T10:14:50.664Z,IE,3.249.232.237,0,3.249.232.237,5875
SimulationElapsedTime,2021-02-15T10:15:20.665Z,IE,3.249.232.237,0,3.249.232.237,5905
SimulationElapsedTime,2021-02-15T10:15:50.66Z,IE,3.249.232.237,0,3.249.232.237,5935
SimulationElapsedTime,2021-02-15T10:16:20.66Z,IE,3.249.232.237,0,3.249.232.237,5965
SimulationElapsedTime,2021-02-15T10:16:50.663Z,IE,3.249.232.237,0,3.249.232.237,5995
SimulationElapsedTime,2021-02-15T10:17:20.662Z,IE,3.249.232.237,0,3.249.232.237,6025
SimulationElapsedTime,2021-02-15T10:17:50.662Z,IE,3.249.232.237,0,3.249.232.237,6055
SimulationElapsedTime,2021-02-15T10:18:20.674Z,IE,3.249.232.237,0,3.249.232.237,6085
SimulationElapsedTime,2021-02-15T10:18:50.661Z,IE,3.249.232.237,0,3.249.232.237,6115
SimulationElapsedTime,2021-02-15T10:19:20.663Z,IE,3.249.232.237,0,3.249.232.237,6145
SimulationElapsedTime,2021-02-15T10:19:50.665Z,IE,3.249.232.237,0,3.249.232.237,6175
SimulationElapsedTime,2021-02-15T10:20:20.662Z,IE,3.249.232.237,0,3.249.232.237,6205
SimulationElapsedTime,2021-02-15T10:20:50.66Z,IE,3.249.232.237,0,3.249.232.237,6235
SimulationElapsedTime,2021-02-15T10:21:20.663Z,IE,3.249.232.237,0,3.249.232.237,6265
SimulationElapsedTime,2021-02-15T10:21:50.663Z,IE,3.249.232.237,0,3.249.232.237,6295
SimulationElapsedTime,2021-02-15T10:22:20.667Z,IE,3.249.232.237,0,3.249.232.237,6325
SimulationElapsedTime,2021-02-15T10:22:50.664Z,IE,3.249.232.237,0,3.249.232.237,6355
SimulationElapsedTime,2021-02-15T10:23:20.663Z,IE,3.249.232.237,0,3.249.232.237,6385
SimulationElapsedTime,2021-02-15T10:23:50.668Z,IE,3.249.232.237,0,3.249.232.237,6415
SimulationElapsedTime,2021-02-15T10:24:20.666Z,IE,3.249.232.237,0,3.249.232.237,6445
SimulationElapsedTime,2021-02-15T10:24:50.664Z,IE,3.249.232.237,0,3.249.232.237,6475
SimulationElapsedTime,2021-02-15T10:25:20.664Z,IE,3.249.232.237,0,3.249.232.237,6505
SimulationElapsedTime,2021-02-15T10:25:50.664Z,IE,3.249.232.237,0,3.249.232.237,6535
SimulationElapsedTime,2021-02-15T10:26:20.662Z,IE,3.249.232.237,0,3.249.232.237,6565
SimulationElapsedTime,2021-02-15T10:26:50.665Z,IE,3.249.232.237,0,3.249.232.237,6595
SimulationElapsedTime,2021-02-15T10:27:20.671Z,IE,3.249.232.237,0,3.249.232.237,6625
SimulationElapsedTime,2021-02-15T10:27:50.672Z,IE,3.249.232.237,0,3.249.232.237,6655
SimulationElapsedTime,2021-02-15T10:28:20.666Z,IE,3.249.232.237,0,3.249.232.237,6685
SimulationElapsedTime,2021-02-15T10:28:50.662Z,IE,3.249.232.237,0,3.249.232.237,6715
SimulationElapsedTime,2021-02-15T10:29:20.659Z,IE,3.249.232.237,0,3.249.232.237,6745
SimulationElapsedTime,2021-02-15T10:29:50.663Z,IE,3.249.232.237,0,3.249.232.237,6775
SimulationElapsedTime,2021-02-15T10:30:20.661Z,IE,3.249.232.237,0,3.249.232.237,6805
SimulationElapsedTime,2021-02-15T10:30:50.66Z,IE,3.249.232.237,0,3.249.232.237,6835
SimulationElapsedTime,2021-02-15T10:31:20.663Z,IE,3.249.232.237,0,3.249.232.237,6865
SimulationElapsedTime,2021-02-15T10:31:50.664Z,IE,3.249.232.237,0,3.249.232.237,6895
SimulationElapsedTime,2021-02-15T10:32:20.663Z,IE,3.249.232.237,0,3.249.232.237,6925
SimulationElapsedTime,2021-02-15T10:32:50.662Z,IE,3.249.232.237,0,3.249.232.237,6955
SimulationElapsedTime,2021-02-15T10:33:20.665Z,IE,3.249.232.237,0,3.249.232.237,6985
SimulationElapsedTime,2021-02-15T10:33:50.664Z,IE,3.249.232.237,0,3.249.232.237,7015
SimulationElapsedTime,2021-02-15T10:34:20.664Z,IE,3.249.232.237,0,3.249.232.237,7045
SimulationElapsedTime,2021-02-15T10:34:50.666Z,IE,3.249.232.237,0,3.249.232.237,7075
SimulationElapsedTime,2021-02-15T10:35:20.665Z,IE,3.249.232.237,0,3.249.232.237,7105
SimulationElapsedTime,2021-02-15T10:35:50.665Z,IE,3.249.232.237,0,3.249.232.237,7135
SimulationElapsedTime,2021-02-15T10:36:20.664Z,IE,3.249.232.237,0,3.249.232.237,7165
SimulationElapsedTime,2021-02-15T10:36:50.666Z,IE,3.249.232.237,0,3.249.232.237,7195
SimulationElapsedTime,2021-02-15T10:37:20.664Z,IE,3.249.232.237,0,3.249.232.237,7225
SimulationElapsedTime,2021-02-15T10:37:50.665Z,IE,3.249.232.237,0,3.249.232.237,7255
SimulationElapsedTime,2021-02-15T10:38:20.665Z,IE,3.249.232.237,0,3.249.232.237,7285
SimulationElapsedTime,2021-02-15T10:38:50.664Z,IE,3.249.232.237,0,3.249.232.237,7315
SimulationElapsedTime,2021-02-15T10:39:20.678Z,IE,3.249.232.237,0,3.249.232.237,7345
SimulationElapsedTime,2021-02-15T10:39:50.666Z,IE,3.249.232.237,0,3.249.232.237,7375
SimulationElapsedTime,2021-02-15T10:40:20.663Z,IE,3.249.232.237,0,3.249.232.237,7405
SimulationElapsedTime,2021-02-15T10:40:50.664Z,IE,3.249.232.237,0,3.249.232.237,7435
SimulationElapsedTime,2021-02-15T10:41:20.664Z,IE,3.249.232.237,0,3.249.232.237,7465
SimulationElapsedTime,2021-02-15T10:41:50.664Z,IE,3.249.232.237,0,3.249.232.237,7495
SimulationElapsedTime,2021-02-15T10:42:20.667Z,IE,3.249.232.237,0,3.249.232.237,7525
SimulationElapsedTime,2021-02-15T10:42:50.664Z,IE,3.249.232.237,0,3.249.232.237,7555
SimulationElapsedTime,2021-02-15T10:43:20.666Z,IE,3.249.232.237,0,3.249.232.237,7585
SimulationElapsedTime,2021-02-15T10:43:50.666Z,IE,3.249.232.237,0,3.249.232.237,7615
SimulationElapsedTime,2021-02-15T10:44:20.672Z,IE,3.249.232.237,0,3.249.232.237,7645
SimulationElapsedTime,2021-02-15T10:44:50.666Z,IE,3.249.232.237,0,3.249.232.237,7675
SimulationElapsedTime,2021-02-15T10:45:20.667Z,IE,3.249.232.237,0,3.249.232.237,7705
SimulationElapsedTime,2021-02-15T10:45:50.668Z,IE,3.249.232.237,0,3.249.232.237,7735
SimulationElapsedTime,2021-02-15T10:46:20.664Z,IE,3.249.232.237,0,3.249.232.237,7765
SimulationElapsedTime,2021-02-15T10:46:50.664Z,IE,3.249.232.237,0,3.249.232.237,7795
SimulationElapsedTime,2021-02-15T10:47:20.663Z,IE,3.249.232.237,0,3.249.232.237,7825
SimulationElapsedTime,2021-02-15T10:47:50.706Z,IE,3.249.232.237,0,3.249.232.237,7855
SimulationElapsedTime,2021-02-15T10:48:20.665Z,IE,3.249.232.237,0,3.249.232.237,7885
SimulationElapsedTime,2021-02-15T10:48:50.665Z,IE,3.249.232.237,0,3.249.232.237,7915
SimulationElapsedTime,2021-02-15T10:49:20.664Z,IE,3.249.232.237,0,3.249.232.237,7945
SimulationElapsedTime,2021-02-15T10:49:50.666Z,IE,3.249.232.237,0,3.249.232.237,7975
SimulationElapsedTime,2021-02-15T10:50:20.665Z,IE,3.249.232.237,0,3.249.232.237,8005
SimulationElapsedTime,2021-02-15T10:50:50.665Z,IE,3.249.232.237,0,3.249.232.237,8035
SimulationElapsedTime,2021-02-15T10:51:20.665Z,IE,3.249.232.237,0,3.249.232.237,8065
SimulationElapsedTime,2021-02-15T10:51:50.666Z,IE,3.249.232.237,0,3.249.232.237,8095
SimulationElapsedTime,2021-02-15T10:52:20.665Z,IE,3.249.232.237,0,3.249.232.237,8125
SimulationElapsedTime,2021-02-15T10:52:50.665Z,IE,3.249.232.237,0,3.249.232.237,8155
SimulationElapsedTime,2021-02-15T10:53:20.669Z,IE,3.249.232.237,0,3.249.232.237,8185
SimulationElapsedTime,2021-02-15T10:53:50.666Z,IE,3.249.232.237,0,3.249.232.237,8215
SimulationElapsedTime,2021-02-15T10:54:20.669Z,IE,3.249.232.237,0,3.249.232.237,8245
SimulationElapsedTime,2021-02-15T10:54:50.671Z,IE,3.249.232.237,0,3.249.232.237,8275
SimulationElapsedTime,2021-02-15T10:55:20.67Z,IE,3.249.232.237,0,3.249.232.237,8305
SimulationElapsedTime,2021-02-15T10:55:50.668Z,IE,3.249.232.237,0,3.249.232.237,8335
SimulationElapsedTime,2021-02-15T10:56:20.667Z,IE,3.249.232.237,0,3.249.232.237,8365
SimulationElapsedTime,2021-02-15T10:56:50.667Z,IE,3.249.232.237,0,3.249.232.237,8395
SimulationElapsedTime,2021-02-15T10:57:20.666Z,IE,3.249.232.237,0,3.249.232.237,8425
SimulationElapsedTime,2021-02-15T10:57:50.679Z,IE,3.249.232.237,0,3.249.232.237,8455
SimulationElapsedTime,2021-02-15T10:58:20.671Z,IE,3.249.232.237,0,3.249.232.237,8485
SimulationElapsedTime,2021-02-15T10:58:50.687Z,IE,3.249.232.237,0,3.249.232.237,8515
SimulationElapsedTime,2021-02-15T10:59:20.677Z,IE,3.249.232.237,0,3.249.232.237,8545
SimulationElapsedTime,2021-02-15T10:59:50.667Z,IE,3.249.232.237,0,3.249.232.237,8575
SimulationElapsedTime,2021-02-15T11:00:20.67Z,IE,3.249.232.237,0,3.249.232.237,8605
SimulationElapsedTime,2021-02-15T11:00:50.668Z,IE,3.249.232.237,0,3.249.232.237,8635
SimulationElapsedTime,2021-02-15T11:01:20.67Z,IE,3.249.232.237,0,3.249.232.237,8665
SimulationElapsedTime,2021-02-15T11:01:50.668Z,IE,3.249.232.237,0,3.249.232.237,8695
SimulationElapsedTime,2021-02-15T11:02:20.672Z,IE,3.249.232.237,0,3.249.232.237,8725
SimulationElapsedTime,2021-02-15T11:02:50.669Z,IE,3.249.232.237,0,3.249.232.237,8755
SimulationElapsedTime,2021-02-15T11:03:20.665Z,IE,3.249.232.237,0,3.249.232.237,8785
SimulationElapsedTime,2021-02-15T11:03:50.669Z,IE,3.249.232.237,0,3.249.232.237,8815
SimulationElapsedTime,2021-02-15T11:04:20.677Z,IE,3.249.232.237,0,3.249.232.237,8845
SimulationElapsedTime,2021-02-15T11:04:50.67Z,IE,3.249.232.237,0,3.249.232.237,8875
SimulationElapsedTime,2021-02-15T11:05:20.669Z,IE,3.249.232.237,0,3.249.232.237,8905
SimulationElapsedTime,2021-02-15T11:05:50.672Z,IE,3.249.232.237,0,3.249.232.237,8935
SimulationElapsedTime,2021-02-15T11:06:20.67Z,IE,3.249.232.237,0,3.249.232.237,8965
SimulationElapsedTime,2021-02-15T11:06:50.666Z,IE,3.249.232.237,0,3.249.232.237,8995
SimulationElapsedTime,2021-02-15T11:07:20.665Z,IE,3.249.232.237,0,3.249.232.237,9025
SimulationElapsedTime,2021-02-15T11:07:50.669Z,IE,3.249.232.237,0,3.249.232.237,9055
SimulationElapsedTime,2021-02-15T11:08:20.671Z,IE,3.249.232.237,0,3.249.232.237,9085
SimulationElapsedTime,2021-02-15T11:08:50.677Z,IE,3.249.232.237,0,3.249.232.237,9115
SimulationElapsedTime,2021-02-15T11:09:20.669Z,IE,3.249.232.237,0,3.249.232.237,9145
SimulationElapsedTime,2021-02-15T11:09:50.668Z,IE,3.249.232.237,0,3.249.232.237,9175
SimulationElapsedTime,2021-02-15T11:10:20.672Z,IE,3.249.232.237,0,3.249.232.237,9205
SimulationElapsedTime,2021-02-15T11:10:50.669Z,IE,3.249.232.237,0,3.249.232.237,9235
SimulationElapsedTime,2021-02-15T11:11:20.666Z,IE,3.249.232.237,0,3.249.232.237,9265
SimulationElapsedTime,2021-02-15T11:11:50.668Z,IE,3.249.232.237,0,3.249.232.237,9295
SimulationElapsedTime,2021-02-15T11:12:20.672Z,IE,3.249.232.237,0,3.249.232.237,9325
SimulationElapsedTime,2021-02-15T11:12:50.668Z,IE,3.249.232.237,0,3.249.232.237,9355
SimulationElapsedTime,2021-02-15T11:13:20.669Z,IE,3.249.232.237,0,3.249.232.237,9385
SimulationElapsedTime,2021-02-15T11:13:50.666Z,IE,3.249.232.237,0,3.249.232.237,9415
SimulationElapsedTime,2021-02-15T11:14:20.669Z,IE,3.249.232.237,0,3.249.232.237,9445
SimulationElapsedTime,2021-02-15T11:14:50.672Z,IE,3.249.232.237,0,3.249.232.237,9475
SimulationElapsedTime,2021-02-15T11:15:20.666Z,IE,3.249.232.237,0,3.249.232.237,9505
SimulationElapsedTime,2021-02-15T11:15:50.669Z,IE,3.249.232.237,0,3.249.232.237,9535
SimulationElapsedTime,2021-02-15T11:16:20.668Z,IE,3.249.232.237,0,3.249.232.237,9565
SimulationElapsedTime,2021-02-15T11:16:50.675Z,IE,3.249.232.237,0,3.249.232.237,9595
SimulationElapsedTime,2021-02-15T11:17:20.713Z,IE,3.249.232.237,0,3.249.232.237,9625
SimulationElapsedTime,2021-02-15T11:17:50.669Z,IE,3.249.232.237,0,3.249.232.237,9655
SimulationElapsedTime,2021-02-15T11:18:20.671Z,IE,3.249.232.237,0,3.249.232.237,9685
SimulationElapsedTime,2021-02-15T11:18:50.669Z,IE,3.249.232.237,0,3.249.232.237,9715
SimulationElapsedTime,2021-02-15T11:19:20.669Z,IE,3.249.232.237,0,3.249.232.237,9745
SimulationElapsedTime,2021-02-15T11:19:50.672Z,IE,3.249.232.237,0,3.249.232.237,9775
SimulationElapsedTime,2021-02-15T11:20:20.668Z,IE,3.249.232.237,0,3.249.232.237,9805
SimulationElapsedTime,2021-02-15T11:20:50.669Z,IE,3.249.232.237,0,3.249.232.237,9835
SimulationElapsedTime,2021-02-15T11:21:20.67Z,IE,3.249.232.237,0,3.249.232.237,9865
SimulationElapsedTime,2021-02-15T11:21:50.671Z,IE,3.249.232.237,0,3.249.232.237,9895
SimulationElapsedTime,2021-02-15T11:22:20.67Z,IE,3.249.232.237,0,3.249.232.237,9925
SimulationElapsedTime,2021-02-15T11:22:50.67Z,IE,3.249.232.237,0,3.249.232.237,9955
SimulationElapsedTime,2021-02-15T11:23:20.673Z,IE,3.249.232.237,0,3.249.232.237,9985
SimulationElapsedTime,2021-02-15T11:23:50.669Z,IE,3.249.232.237,0,3.249.232.237,10015
SimulationElapsedTime,2021-02-15T11:24:20.669Z,IE,3.249.232.237,0,3.249.232.237,10045
SimulationElapsedTime,2021-02-15T11:24:50.67Z,IE,3.249.232.237,0,3.249.232.237,10075
SimulationElapsedTime,2021-02-15T11:25:20.67Z,IE,3.249.232.237,0,3.249.232.237,10105
SimulationElapsedTime,2021-02-15T11:25:50.668Z,IE,3.249.232.237,0,3.249.232.237,10135
SimulationElapsedTime,2021-02-15T11:26:20.673Z,IE,3.249.232.237,0,3.249.232.237,10165
SimulationElapsedTime,2021-02-15T11:26:50.674Z,IE,3.249.232.237,0,3.249.232.237,10195
SimulationElapsedTime,2021-02-15T11:27:20.671Z,IE,3.249.232.237,0,3.249.232.237,10225
SimulationElapsedTime,2021-02-15T11:27:50.67Z,IE,3.249.232.237,0,3.249.232.237,10255
SimulationElapsedTime,2021-02-15T11:28:20.67Z,IE,3.249.232.237,0,3.249.232.237,10285
SimulationElapsedTime,2021-02-15T11:28:50.669Z,IE,3.249.232.237,0,3.249.232.237,10315
SimulationElapsedTime,2021-02-15T11:29:20.679Z,IE,3.249.232.237,0,3.249.232.237,10345
SimulationElapsedTime,2021-02-15T11:29:50.674Z,IE,3.249.232.237,0,3.249.232.237,10375
SimulationElapsedTime,2021-02-15T11:30:20.671Z,IE,3.249.232.237,0,3.249.232.237,10405
SimulationElapsedTime,2021-02-15T11:30:50.67Z,IE,3.249.232.237,0,3.249.232.237,10435
SimulationElapsedTime,2021-02-15T11:31:20.671Z,IE,3.249.232.237,0,3.249.232.237,10465
SimulationElapsedTime,2021-02-15T11:31:50.707Z,IE,3.249.232.237,0,3.249.232.237,10495
SimulationElapsedTime,2021-02-15T11:32:20.68Z,IE,3.249.232.237,0,3.249.232.237,10525
SimulationElapsedTime,2021-02-15T11:32:50.675Z,IE,3.249.232.237,0,3.249.232.237,10555
SimulationElapsedTime,2021-02-15T11:33:20.671Z,IE,3.249.232.237,0,3.249.232.237,10585
SimulationElapsedTime,2021-02-15T11:33:50.677Z,IE,3.249.232.237,0,3.249.232.237,10615
SimulationElapsedTime,2021-02-15T11:34:20.671Z,IE,3.249.232.237,0,3.249.232.237,10645
SimulationElapsedTime,2021-02-15T11:34:50.672Z,IE,3.249.232.237,0,3.249.232.237,10675
SimulationElapsedTime,2021-02-15T11:35:20.672Z,IE,3.249.232.237,0,3.249.232.237,10705
SimulationElapsedTime,2021-02-15T11:35:50.677Z,IE,3.249.232.237,0,3.249.232.237,10735
SimulationElapsedTime,2021-02-15T11:36:20.669Z,IE,3.249.232.237,0,3.249.232.237,10765
SimulationElapsedTime,2021-02-15T11:36:50.669Z,IE,3.249.232.237,0,3.249.232.237,10795
SimulationElapsedTime,2021-02-15T11:37:20.67Z,IE,3.249.232.237,0,3.249.232.237,10825
SimulationElapsedTime,2021-02-15T11:37:50.672Z,IE,3.249.232.237,0,3.249.232.237,10855
SimulationElapsedTime,2021-02-15T11:38:20.716Z,IE,3.249.232.237,0,3.249.232.237,10885
SimulationElapsedTime,2021-02-15T11:38:50.672Z,IE,3.249.232.237,0,3.249.232.237,10915
SimulationElapsedTime,2021-02-15T11:39:20.671Z,IE,3.249.232.237,0,3.249.232.237,10945
SimulationElapsedTime,2021-02-15T11:39:50.685Z,IE,3.249.232.237,0,3.249.232.237,10975
SimulationElapsedTime,2021-02-15T11:40:20.672Z,IE,3.249.232.237,0,3.249.232.237,11005
SimulationElapsedTime,2021-02-15T11:40:50.67Z,IE,3.249.232.237,0,3.249.232.237,11035
SimulationElapsedTime,2021-02-15T11:41:20.67Z,IE,3.249.232.237,0,3.249.232.237,11065
SimulationElapsedTime,2021-02-15T11:41:50.676Z,IE,3.249.232.237,0,3.249.232.237,11095
SimulationElapsedTime,2021-02-15T11:42:20.673Z,IE,3.249.232.237,0,3.249.232.237,11125
SimulationElapsedTime,2021-02-15T11:42:50.693Z,IE,3.249.232.237,0,3.249.232.237,11155
SimulationElapsedTime,2021-02-15T11:43:20.671Z,IE,3.249.232.237,0,3.249.232.237,11185
SimulationElapsedTime,2021-02-15T11:43:50.682Z,IE,3.249.232.237,0,3.249.232.237,11215
SimulationElapsedTime,2021-02-15T11:44:20.671Z,IE,3.249.232.237,0,3.249.232.237,11245
SimulationElapsedTime,2021-02-15T11:44:50.674Z,IE,3.249.232.237,0,3.249.232.237,11275
SimulationElapsedTime,2021-02-15T11:45:20.674Z,IE,3.249.232.237,0,3.249.232.237,11305
SimulationElapsedTime,2021-02-15T11:45:50.678Z,IE,3.249.232.237,0,3.249.232.237,11335
SimulationElapsedTime,2021-02-15T11:46:20.693Z,IE,3.249.232.237,0,3.249.232.237,11365
SimulationElapsedTime,2021-02-15T11:46:50.693Z,IE,3.249.232.237,0,3.249.232.237,11395
SimulationElapsedTime,2021-02-15T11:47:20.674Z,IE,3.249.232.237,0,3.249.232.237,11425
SimulationElapsedTime,2021-02-15T11:47:50.672Z,IE,3.249.232.237,0,3.249.232.237,11455
SimulationElapsedTime,2021-02-15T11:48:20.674Z,IE,3.249.232.237,0,3.249.232.237,11485
SimulationElapsedTime,2021-02-15T11:48:50.677Z,IE,3.249.232.237,0,3.249.232.237,11515
SimulationElapsedTime,2021-02-15T11:49:20.676Z,IE,3.249.232.237,0,3.249.232.237,11545
SimulationElapsedTime,2021-02-15T11:49:50.676Z,IE,3.249.232.237,0,3.249.232.237,11575
SimulationElapsedTime,2021-02-15T11:50:20.678Z,IE,3.249.232.237,0,3.249.232.237,11605
SimulationElapsedTime,2021-02-15T11:50:50.676Z,IE,3.249.232.237,0,3.249.232.237,11635
SimulationElapsedTime,2021-02-15T11:51:20.671Z,IE,3.249.232.237,0,3.249.232.237,11665
SimulationElapsedTime,2021-02-15T11:51:50.673Z,IE,3.249.232.237,0,3.249.232.237,11695
SimulationElapsedTime,2021-02-15T11:52:20.674Z,IE,3.249.232.237,0,3.249.232.237,11725
SimulationElapsedTime,2021-02-15T11:52:50.673Z,IE,3.249.232.237,0,3.249.232.237,11755
SimulationElapsedTime,2021-02-15T11:53:20.697Z,IE,3.249.232.237,0,3.249.232.237,11785
SimulationElapsedTime,2021-02-15T11:53:50.689Z,IE,3.249.232.237,0,3.249.232.237,11815
SimulationElapsedTime,2021-02-15T11:54:20.674Z,IE,3.249.232.237,0,3.249.232.237,11845
SimulationElapsedTime,2021-02-15T11:54:50.722Z,IE,3.249.232.237,0,3.249.232.237,11875
SimulationElapsedTime,2021-02-15T11:55:20.671Z,IE,3.249.232.237,0,3.249.232.237,11905
SimulationElapsedTime,2021-02-15T11:55:50.674Z,IE,3.249.232.237,0,3.249.232.237,11935
SimulationElapsedTime,2021-02-15T11:56:20.675Z,IE,3.249.232.237,0,3.249.232.237,11965
SimulationElapsedTime,2021-02-15T11:56:50.676Z,IE,3.249.232.237,0,3.249.232.237,11995
SimulationElapsedTime,2021-02-15T11:57:20.675Z,IE,3.249.232.237,0,3.249.232.237,12025
SimulationElapsedTime,2021-02-15T11:57:50.676Z,IE,3.249.232.237,0,3.249.232.237,12055
SimulationElapsedTime,2021-02-15T11:58:20.675Z,IE,3.249.232.237,0,3.249.232.237,12085
SimulationElapsedTime,2021-02-15T11:58:50.679Z,IE,3.249.232.237,0,3.249.232.237,12115
SimulationElapsedTime,2021-02-15T11:59:20.679Z,IE,3.249.232.237,0,3.249.232.237,12145
SimulationElapsedTime,2021-02-15T11:59:50.679Z,IE,3.249.232.237,0,3.249.232.237,12175
SimulationElapsedTime,2021-02-15T12:00:20.726Z,IE,3.249.232.237,0,3.249.232.237,12205
SimulationElapsedTime,2021-02-15T12:00:50.682Z,IE,3.249.232.237,0,3.249.232.237,12235
SimulationElapsedTime,2021-02-15T12:01:20.677Z,IE,3.249.232.237,0,3.249.232.237,12265
SimulationElapsedTime,2021-02-15T12:01:50.673Z,IE,3.249.232.237,0,3.249.232.237,12295
SimulationElapsedTime,2021-02-15T12:02:20.681Z,IE,3.249.232.237,0,3.249.232.237,12325
SimulationElapsedTime,2021-02-15T12:02:50.678Z,IE,3.249.232.237,0,3.249.232.237,12355
SimulationElapsedTime,2021-02-15T12:03:20.679Z,IE,3.249.232.237,0,3.249.232.237,12385
SimulationElapsedTime,2021-02-15T12:03:50.683Z,IE,3.249.232.237,0,3.249.232.237,12415
SimulationElapsedTime,2021-02-15T12:04:20.679Z,IE,3.249.232.237,0,3.249.232.237,12445
SimulationElapsedTime,2021-02-15T12:04:50.676Z,IE,3.249.232.237,0,3.249.232.237,12475
SimulationElapsedTime,2021-02-15T12:05:20.685Z,IE,3.249.232.237,0,3.249.232.237,12505
SimulationElapsedTime,2021-02-15T12:05:50.68Z,IE,3.249.232.237,0,3.249.232.237,12535
SimulationElapsedTime,2021-02-15T12:06:20.717Z,IE,3.249.232.237,0,3.249.232.237,12565
SimulationElapsedTime,2021-02-15T12:06:50.686Z,IE,3.249.232.237,0,3.249.232.237,12595
SimulationElapsedTime,2021-02-15T12:07:20.681Z,IE,3.249.232.237,0,3.249.232.237,12625
SimulationElapsedTime,2021-02-15T12:07:50.681Z,IE,3.249.232.237,0,3.249.232.237,12655
SimulationElapsedTime,2021-02-15T12:08:20.705Z,IE,3.249.232.237,0,3.249.232.237,12685
