name,time,countryCode,ipAddress,level,producer,value
TotalCores,2021-02-18T13:59:17.715Z,IE,3.249.17.24,0,3.249.17.24,7
TotalCores,2021-02-18T13:59:47.57Z,IE,3.249.17.24,0,3.249.17.24,7
TotalCores,2021-02-18T14:00:17.551Z,IE,3.249.17.24,0,3.249.17.24,7
TotalCores,2021-02-18T14:00:47.525Z,IE,3.249.17.24,0,3.249.17.24,7
TotalCores,2021-02-18T14:01:17.522Z,IE,3.249.17.24,0,3.249.17.24,7
TotalCores,2021-02-18T14:01:47.523Z,IE,3.249.17.24,0,3.249.17.24,7
TotalCores,2021-02-18T14:02:17.525Z,IE,3.249.17.24,0,3.249.17.24,7
TotalCores,2021-02-18T14:02:47.538Z,IE,3.249.17.24,0,3.249.17.24,7
TotalCores,2021-02-18T14:03:17.516Z,IE,3.249.17.24,0,3.249.17.24,7
TotalCores,2021-02-18T14:03:47.528Z,IE,3.249.17.24,0,3.249.17.24,7
TotalCores,2021-02-18T14:04:17.562Z,IE,3.249.17.24,0,3.249.17.24,7
TotalCores,2021-02-18T14:04:47.515Z,IE,3.249.17.24,0,3.249.17.24,7
TotalCores,2021-02-18T14:05:17.512Z,IE,3.249.17.24,0,3.249.17.24,7
TotalCores,2021-02-18T14:05:47.522Z,IE,3.249.17.24,0,3.249.17.24,7
TotalCores,2021-02-18T14:06:17.511Z,IE,3.249.17.24,0,3.249.17.24,7
TotalCores,2021-02-18T14:06:47.518Z,IE,3.249.17.24,0,3.249.17.24,7
TotalCores,2021-02-18T14:07:17.516Z,IE,3.249.17.24,0,3.249.17.24,7
TotalCores,2021-02-18T14:07:47.503Z,IE,3.249.17.24,0,3.249.17.24,7
TotalCores,2021-02-18T14:08:17.501Z,IE,3.249.17.24,0,3.249.17.24,7
TotalCores,2021-02-18T14:08:47.504Z,IE,3.249.17.24,0,3.249.17.24,7
TotalCores,2021-02-18T14:09:17.524Z,IE,3.249.17.24,0,3.249.17.24,7
TotalCores,2021-02-18T14:09:47.506Z,IE,3.249.17.24,0,3.249.17.24,7
TotalCores,2021-02-18T14:10:17.502Z,IE,3.249.17.24,0,3.249.17.24,7
TotalCores,2021-02-18T14:10:47.514Z,IE,3.249.17.24,0,3.249.17.24,7
TotalCores,2021-02-18T14:11:17.502Z,IE,3.249.17.24,0,3.249.17.24,7
TotalCores,2021-02-18T14:11:47.502Z,IE,3.249.17.24,0,3.249.17.24,7
TotalCores,2021-02-18T14:12:17.515Z,IE,3.249.17.24,0,3.249.17.24,7
TotalCores,2021-02-18T14:12:47.503Z,IE,3.249.17.24,0,3.249.17.24,7
TotalCores,2021-02-18T14:13:17.499Z,IE,3.249.17.24,0,3.249.17.24,7
TotalCores,2021-02-18T14:13:47.506Z,IE,3.249.17.24,0,3.249.17.24,7
TotalCores,2021-02-18T14:14:17.505Z,IE,3.249.17.24,0,3.249.17.24,7
TotalCores,2021-02-18T14:14:47.499Z,IE,3.249.17.24,0,3.249.17.24,7
TotalCores,2021-02-18T14:15:17.502Z,IE,3.249.17.24,0,3.249.17.24,7
TotalCores,2021-02-18T14:15:47.504Z,IE,3.249.17.24,0,3.249.17.24,7
TotalCores,2021-02-18T14:16:17.499Z,IE,3.249.17.24,0,3.249.17.24,7
TotalCores,2021-02-18T14:16:47.504Z,IE,3.249.17.24,0,3.249.17.24,7
TotalCores,2021-02-18T14:17:17.502Z,IE,3.249.17.24,0,3.249.17.24,7
TotalCores,2021-02-18T14:17:47.5Z,IE,3.249.17.24,0,3.249.17.24,7
TotalCores,2021-02-18T14:18:17.507Z,IE,3.249.17.24,0,3.249.17.24,7
TotalCores,2021-02-18T14:18:47.504Z,IE,3.249.17.24,0,3.249.17.24,7
TotalCores,2021-02-18T14:19:17.502Z,IE,3.249.17.24,0,3.249.17.24,7
TotalCores,2021-02-18T14:19:47.512Z,IE,3.249.17.24,0,3.249.17.24,7
TotalCores,2021-02-18T14:20:17.516Z,IE,3.249.17.24,0,3.249.17.24,7
TotalCores,2021-02-18T14:20:47.5Z,IE,3.249.17.24,0,3.249.17.24,7
TotalCores,2021-02-18T14:21:17.507Z,IE,3.249.17.24,0,3.249.17.24,7
TotalCores,2021-02-18T14:21:47.507Z,IE,3.249.17.24,0,3.249.17.24,7
TotalCores,2021-02-18T14:22:17.499Z,IE,3.249.17.24,0,3.249.17.24,7
TotalCores,2021-02-18T14:22:47.504Z,IE,3.249.17.24,0,3.249.17.24,7
TotalCores,2021-02-18T14:23:17.498Z,IE,3.249.17.24,0,3.249.17.24,7
TotalCores,2021-02-18T14:23:47.506Z,IE,3.249.17.24,0,3.249.17.24,7
TotalCores,2021-02-18T14:24:17.498Z,IE,3.249.17.24,0,3.249.17.24,7
TotalCores,2021-02-18T14:24:47.5Z,IE,3.249.17.24,0,3.249.17.24,7
TotalCores,2021-02-18T14:25:17.506Z,IE,3.249.17.24,0,3.249.17.24,7
TotalCores,2021-02-18T14:25:47.498Z,IE,3.249.17.24,0,3.249.17.24,7
TotalCores,2021-02-18T14:26:17.5Z,IE,3.249.17.24,0,3.249.17.24,7
TotalCores,2021-02-18T14:26:47.501Z,IE,3.249.17.24,0,3.249.17.24,7
TotalCores,2021-02-18T14:27:17.498Z,IE,3.249.17.24,0,3.249.17.24,7
TotalCores,2021-02-18T14:27:47.512Z,IE,3.249.17.24,0,3.249.17.24,7
TotalCores,2021-02-18T14:28:17.501Z,IE,3.249.17.24,0,3.249.17.24,7
TotalCores,2021-02-18T14:28:47.5Z,IE,3.249.17.24,0,3.249.17.24,7
TotalCores,2021-02-18T14:29:17.538Z,IE,3.249.17.24,0,3.249.17.24,7
TotalCores,2021-02-18T14:29:47.504Z,IE,3.249.17.24,0,3.249.17.24,7
TotalCores,2021-02-18T14:30:17.544Z,IE,3.249.17.24,0,3.249.17.24,7
TotalCores,2021-02-18T14:30:47.508Z,IE,3.249.17.24,0,3.249.17.24,7
TotalCores,2021-02-18T14:31:17.502Z,IE,3.249.17.24,0,3.249.17.24,7
TotalCores,2021-02-18T14:31:47.497Z,IE,3.249.17.24,0,3.249.17.24,7
TotalCores,2021-02-18T14:32:17.499Z,IE,3.249.17.24,0,3.249.17.24,7
TotalCores,2021-02-18T14:32:47.504Z,IE,3.249.17.24,0,3.249.17.24,7
TotalCores,2021-02-18T14:33:17.512Z,IE,3.249.17.24,0,3.249.17.24,7
TotalCores,2021-02-18T14:33:47.504Z,IE,3.249.17.24,0,3.249.17.24,7
TotalCores,2021-02-18T14:34:17.499Z,IE,3.249.17.24,0,3.249.17.24,7
TotalCores,2021-02-18T14:34:47.5Z,IE,3.249.17.24,0,3.249.17.24,7
TotalCores,2021-02-18T14:35:17.5Z,IE,3.249.17.24,0,3.249.17.24,7
TotalCores,2021-02-18T14:35:47.502Z,IE,3.249.17.24,0,3.249.17.24,7
TotalCores,2021-02-18T14:36:17.5Z,IE,3.249.17.24,0,3.249.17.24,7
TotalCores,2021-02-18T14:36:47.502Z,IE,3.249.17.24,0,3.249.17.24,7
TotalCores,2021-02-18T14:37:17.498Z,IE,3.249.17.24,0,3.249.17.24,7
TotalCores,2021-02-18T14:37:47.588Z,IE,3.249.17.24,0,3.249.17.24,7
TotalCores,2021-02-18T14:38:17.503Z,IE,3.249.17.24,0,3.249.17.24,7
TotalCores,2021-02-18T14:38:47.5Z,IE,3.249.17.24,0,3.249.17.24,7
TotalCores,2021-02-18T14:39:17.498Z,IE,3.249.17.24,0,3.249.17.24,7
TotalCores,2021-02-18T14:39:47.505Z,IE,3.249.17.24,0,3.249.17.24,7
TotalCores,2021-02-18T14:40:17.52Z,IE,3.249.17.24,0,3.249.17.24,7
TotalCores,2021-02-18T14:40:47.504Z,IE,3.249.17.24,0,3.249.17.24,7
TotalCores,2021-02-18T14:41:17.499Z,IE,3.249.17.24,0,3.249.17.24,7
TotalCores,2021-02-18T14:41:47.502Z,IE,3.249.17.24,0,3.249.17.24,7
TotalCores,2021-02-18T14:42:17.508Z,IE,3.249.17.24,0,3.249.17.24,7
TotalCores,2021-02-18T14:42:47.499Z,IE,3.249.17.24,0,3.249.17.24,7
TotalCores,2021-02-18T14:43:17.497Z,IE,3.249.17.24,0,3.249.17.24,7
TotalCores,2021-02-18T14:43:47.496Z,IE,3.249.17.24,0,3.249.17.24,7
TotalCores,2021-02-18T14:44:17.511Z,IE,3.249.17.24,0,3.249.17.24,7
TotalCores,2021-02-18T14:44:47.498Z,IE,3.249.17.24,0,3.249.17.24,7
TotalCores,2021-02-18T14:45:17.501Z,IE,3.249.17.24,0,3.249.17.24,7
TotalCores,2021-02-18T14:45:47.498Z,IE,3.249.17.24,0,3.249.17.24,7
TotalCores,2021-02-18T14:46:17.503Z,IE,3.249.17.24,0,3.249.17.24,7
TotalCores,2021-02-18T14:46:47.503Z,IE,3.249.17.24,0,3.249.17.24,7
TotalCores,2021-02-18T14:47:17.509Z,IE,3.249.17.24,0,3.249.17.24,7
TotalCores,2021-02-18T14:47:47.504Z,IE,3.249.17.24,0,3.249.17.24,7
TotalCores,2021-02-18T14:48:17.498Z,IE,3.249.17.24,0,3.249.17.24,7
TotalCores,2021-02-18T14:48:47.504Z,IE,3.249.17.24,0,3.249.17.24,7
TotalCores,2021-02-18T14:49:17.507Z,IE,3.249.17.24,0,3.249.17.24,7
TotalCores,2021-02-18T14:49:47.504Z,IE,3.249.17.24,0,3.249.17.24,7
TotalCores,2021-02-18T14:50:17.505Z,IE,3.249.17.24,0,3.249.17.24,7
TotalCores,2021-02-18T14:50:47.5Z,IE,3.249.17.24,0,3.249.17.24,7
TotalCores,2021-02-18T14:51:17.504Z,IE,3.249.17.24,0,3.249.17.24,7
TotalCores,2021-02-18T14:51:47.505Z,IE,3.249.17.24,0,3.249.17.24,7
TotalCores,2021-02-18T14:52:17.503Z,IE,3.249.17.24,0,3.249.17.24,7
TotalCores,2021-02-18T14:52:47.508Z,IE,3.249.17.24,0,3.249.17.24,7
TotalCores,2021-02-18T14:53:17.608Z,IE,3.249.17.24,0,3.249.17.24,7
TotalCores,2021-02-18T14:53:47.503Z,IE,3.249.17.24,0,3.249.17.24,7
TotalCores,2021-02-18T14:54:17.509Z,IE,3.249.17.24,0,3.249.17.24,7
TotalCores,2021-02-18T14:54:47.506Z,IE,3.249.17.24,0,3.249.17.24,7
TotalCores,2021-02-18T14:55:17.501Z,IE,3.249.17.24,0,3.249.17.24,7
TotalCores,2021-02-18T14:55:47.504Z,IE,3.249.17.24,0,3.249.17.24,7
TotalCores,2021-02-18T14:56:17.507Z,IE,3.249.17.24,0,3.249.17.24,7
TotalCores,2021-02-18T14:56:47.505Z,IE,3.249.17.24,0,3.249.17.24,7
TotalCores,2021-02-18T14:57:17.503Z,IE,3.249.17.24,0,3.249.17.24,7
TotalCores,2021-02-18T14:57:47.507Z,IE,3.249.17.24,0,3.249.17.24,7
TotalCores,2021-02-18T14:58:17.57Z,IE,3.249.17.24,0,3.249.17.24,7
TotalCores,2021-02-18T14:58:47.504Z,IE,3.249.17.24,0,3.249.17.24,7
TotalCores,2021-02-18T14:59:17.513Z,IE,3.249.17.24,0,3.249.17.24,7
TotalCores,2021-02-18T14:59:47.508Z,IE,3.249.17.24,0,3.249.17.24,7
TotalCores,2021-02-18T15:00:17.506Z,IE,3.249.17.24,0,3.249.17.24,7
TotalCores,2021-02-18T15:00:47.543Z,IE,3.249.17.24,0,3.249.17.24,7
TotalCores,2021-02-18T15:01:17.503Z,IE,3.249.17.24,0,3.249.17.24,7
TotalCores,2021-02-18T15:01:47.508Z,IE,3.249.17.24,0,3.249.17.24,7
TotalCores,2021-02-18T15:02:17.512Z,IE,3.249.17.24,0,3.249.17.24,7
TotalCores,2021-02-18T15:02:47.511Z,IE,3.249.17.24,0,3.249.17.24,7
TotalCores,2021-02-18T15:03:17.584Z,IE,3.249.17.24,0,3.249.17.24,7
TotalCores,2021-02-18T15:03:47.503Z,IE,3.249.17.24,0,3.249.17.24,7
TotalCores,2021-02-18T15:04:17.513Z,IE,3.249.17.24,0,3.249.17.24,7
TotalCores,2021-02-18T15:04:47.507Z,IE,3.249.17.24,0,3.249.17.24,7
TotalCores,2021-02-18T15:05:17.503Z,IE,3.249.17.24,0,3.249.17.24,7
TotalCores,2021-02-18T15:05:47.507Z,IE,3.249.17.24,0,3.249.17.24,7
TotalCores,2021-02-18T15:06:17.528Z,IE,3.249.17.24,0,3.249.17.24,7
TotalCores,2021-02-18T15:06:47.509Z,IE,3.249.17.24,0,3.249.17.24,7
TotalCores,2021-02-18T15:07:17.509Z,IE,3.249.17.24,0,3.249.17.24,7
TotalCores,2021-02-18T15:07:47.53Z,IE,3.249.17.24,0,3.249.17.24,7
TotalCores,2021-02-18T15:08:17.503Z,IE,3.249.17.24,0,3.249.17.24,7
TotalCores,2021-02-18T15:08:47.509Z,IE,3.249.17.24,0,3.249.17.24,7
TotalCores,2021-02-18T15:09:17.508Z,IE,3.249.17.24,0,3.249.17.24,7
TotalCores,2021-02-18T15:09:47.511Z,IE,3.249.17.24,0,3.249.17.24,7
TotalCores,2021-02-18T15:10:17.507Z,IE,3.249.17.24,0,3.249.17.24,7
TotalCores,2021-02-18T15:10:47.509Z,IE,3.249.17.24,0,3.249.17.24,7
TotalCores,2021-02-18T15:11:17.511Z,IE,3.249.17.24,0,3.249.17.24,7
TotalCores,2021-02-18T15:11:47.511Z,IE,3.249.17.24,0,3.249.17.24,7
TotalCores,2021-02-18T15:12:17.603Z,IE,3.249.17.24,0,3.249.17.24,7
TotalCores,2021-02-18T15:12:47.528Z,IE,3.249.17.24,0,3.249.17.24,7
TotalCores,2021-02-18T15:13:17.51Z,IE,3.249.17.24,0,3.249.17.24,7
TotalCores,2021-02-18T15:13:47.514Z,IE,3.249.17.24,0,3.249.17.24,7
TotalCores,2021-02-18T15:14:17.51Z,IE,3.249.17.24,0,3.249.17.24,7
TotalCores,2021-02-18T15:14:47.514Z,IE,3.249.17.24,0,3.249.17.24,7
TotalCores,2021-02-18T15:15:17.512Z,IE,3.249.17.24,0,3.249.17.24,7
TotalCores,2021-02-18T15:15:47.509Z,IE,3.249.17.24,0,3.249.17.24,7
TotalCores,2021-02-18T15:16:17.578Z,IE,3.249.17.24,0,3.249.17.24,7
TotalCores,2021-02-18T15:16:47.508Z,IE,3.249.17.24,0,3.249.17.24,7
TotalCores,2021-02-18T15:17:17.51Z,IE,3.249.17.24,0,3.249.17.24,7
TotalCores,2021-02-18T15:17:47.509Z,IE,3.249.17.24,0,3.249.17.24,7
TotalCores,2021-02-18T15:18:17.511Z,IE,3.249.17.24,0,3.249.17.24,7
TotalCores,2021-02-18T15:18:47.511Z,IE,3.249.17.24,0,3.249.17.24,7
TotalCores,2021-02-18T15:19:17.508Z,IE,3.249.17.24,0,3.249.17.24,7
TotalCores,2021-02-18T15:19:47.582Z,IE,3.249.17.24,0,3.249.17.24,7
TotalCores,2021-02-18T15:20:17.514Z,IE,3.249.17.24,0,3.249.17.24,7
TotalCores,2021-02-18T15:20:47.514Z,IE,3.249.17.24,0,3.249.17.24,7
TotalCores,2021-02-18T15:21:17.511Z,IE,3.249.17.24,0,3.249.17.24,7
TotalCores,2021-02-18T15:21:47.52Z,IE,3.249.17.24,0,3.249.17.24,7
TotalCores,2021-02-18T15:22:17.584Z,IE,3.249.17.24,0,3.249.17.24,7
TotalCores,2021-02-18T15:22:47.532Z,IE,3.249.17.24,0,3.249.17.24,7
TotalCores,2021-02-18T15:23:17.509Z,IE,3.249.17.24,0,3.249.17.24,7
TotalCores,2021-02-18T15:23:47.514Z,IE,3.249.17.24,0,3.249.17.24,7
TotalCores,2021-02-18T15:24:17.511Z,IE,3.249.17.24,0,3.249.17.24,7
TotalCores,2021-02-18T15:24:47.516Z,IE,3.249.17.24,0,3.249.17.24,7
TotalCores,2021-02-18T15:25:17.513Z,IE,3.249.17.24,0,3.249.17.24,7
TotalCores,2021-02-18T15:25:47.514Z,IE,3.249.17.24,0,3.249.17.24,7
TotalCores,2021-02-18T15:26:17.604Z,IE,3.249.17.24,0,3.249.17.24,7
TotalCores,2021-02-18T15:26:47.513Z,IE,3.249.17.24,0,3.249.17.24,7
TotalCores,2021-02-18T15:27:17.521Z,IE,3.249.17.24,0,3.249.17.24,7
TotalCores,2021-02-18T15:27:47.527Z,IE,3.249.17.24,0,3.249.17.24,7
TotalCores,2021-02-18T15:28:17.515Z,IE,3.249.17.24,0,3.249.17.24,7
TotalCores,2021-02-18T15:28:47.516Z,IE,3.249.17.24,0,3.249.17.24,7
TotalCores,2021-02-18T15:29:17.519Z,IE,3.249.17.24,0,3.249.17.24,7
TotalCores,2021-02-18T15:29:47.545Z,IE,3.249.17.24,0,3.249.17.24,7
TotalCores,2021-02-18T15:30:17.518Z,IE,3.249.17.24,0,3.249.17.24,7
TotalCores,2021-02-18T15:30:47.525Z,IE,3.249.17.24,0,3.249.17.24,7
TotalCores,2021-02-18T15:31:17.529Z,IE,3.249.17.24,0,3.249.17.24,7
TotalCores,2021-02-18T15:31:47.519Z,IE,3.249.17.24,0,3.249.17.24,7
TotalCores,2021-02-18T15:32:17.564Z,IE,3.249.17.24,0,3.249.17.24,7
