,Unnamed: 0,prediction,real,time,split
0,0,100.22809600830078,63.0,2021-02-05 10:42:19.026,train
1,1,49.4186019897461,29.0,2021-02-05 10:43:19.026,train
2,2,20.86479377746582,34.0,2021-02-05 10:44:19.026,train
3,3,39.99055862426758,51.0,2021-02-05 10:45:19.026,train
4,4,109.74007415771484,118.0,2021-02-05 10:46:19.026,train
5,5,168.41073608398438,271.0,2021-02-05 10:47:19.026,train
6,6,257.44683837890625,197.0,2021-02-05 10:48:19.026,train
7,7,538.4354248046875,516.0,2021-02-05 10:49:19.026,train
8,8,537.0912475585939,638.0,2021-02-05 10:50:19.026,train
9,9,337.3403015136719,317.0,2021-02-05 10:51:19.026,train
10,10,599.6594848632812,565.0,2021-02-05 10:52:19.026,train
11,11,403.98626708984375,446.0,2021-02-05 10:53:19.026,train
12,12,272.558837890625,182.0,2021-02-05 10:54:19.026,train
13,13,278.16632080078125,322.0,2021-02-05 10:55:19.026,train
14,14,178.16957092285156,200.0,2021-02-05 10:56:19.026,train
15,15,110.28803253173828,55.0,2021-02-05 10:57:19.026,train
16,16,71.50547790527344,73.0,2021-02-05 10:58:19.026,train
17,17,35.802059173583984,19.0,2021-02-05 10:59:19.026,train
18,18,26.18717956542969,21.0,2021-02-05 11:00:19.026,train
19,19,93.24100494384766,97.0,2021-02-05 11:01:19.026,train
20,20,158.32093811035156,182.0,2021-02-05 11:02:19.026,train
21,21,218.64761352539062,163.0,2021-02-05 11:03:19.026,train
22,22,485.52911376953125,436.0,2021-02-05 11:04:19.026,train
23,23,547.8187866210939,574.0,2021-02-05 11:05:19.026,train
24,24,299.2779846191406,334.0,2021-02-05 11:06:19.026,train
25,25,615.4735107421875,603.0,2021-02-05 11:07:19.026,train
26,26,463.3815307617188,521.0,2021-02-05 11:08:19.026,train
27,27,297.8891296386719,208.0,2021-02-05 11:09:19.026,train
28,28,306.3296203613281,346.0,2021-02-05 11:10:19.026,train
29,29,196.39801025390625,240.0,2021-02-05 11:11:19.026,train
30,30,124.68233489990234,75.0,2021-02-05 11:12:19.026,train
31,31,81.53096008300781,113.0,2021-02-05 11:13:19.026,train
32,32,54.978965759277344,50.0,2021-02-05 11:14:19.026,train
33,33,23.48249244689941,4.0,2021-02-05 11:15:19.026,train
34,34,38.993690490722656,53.0,2021-02-05 11:16:19.026,train
35,35,115.41859436035156,146.0,2021-02-05 11:17:19.026,train
36,36,172.41773986816406,108.0,2021-02-05 11:18:19.026,train
37,37,293.1981506347656,322.0,2021-02-05 11:19:19.026,train
38,38,505.791748046875,531.0,2021-02-05 11:20:19.026,train
39,39,310.8299865722656,301.0,2021-02-05 11:21:19.026,train
40,40,614.3583374023438,637.0,2021-02-05 11:22:19.026,train
41,41,481.3480224609375,557.0,2021-02-05 11:23:19.026,train
42,42,315.5765075683594,383.0,2021-02-05 11:24:19.026,train
43,43,311.5105285644531,272.0,2021-02-05 11:25:19.026,train
44,44,267.32705688476557,305.0,2021-02-05 11:26:19.026,train
45,45,173.48648071289062,173.0,2021-02-05 11:27:19.026,train
46,46,112.1927719116211,56.0,2021-02-05 11:28:19.026,train
47,47,74.60089111328125,74.0,2021-02-05 11:29:19.026,train
48,48,33.78815460205078,18.0,2021-02-05 11:30:19.026,train
49,49,23.22892189025879,15.0,2021-02-05 11:31:19.026,train
50,50,89.84062194824219,87.0,2021-02-05 11:32:19.026,train
51,51,152.07843017578125,171.0,2021-02-05 11:33:19.026,train
52,52,217.23944091796875,142.0,2021-02-05 11:34:19.026,train
53,53,473.890869140625,477.0,2021-02-05 11:35:19.026,train
54,54,527.8695068359375,554.0,2021-02-05 11:36:19.026,train
55,55,280.92059326171875,342.0,2021-02-05 11:37:19.026,train
56,56,611.4276733398438,611.0,2021-02-05 11:38:19.026,train
57,57,453.015869140625,503.0,2021-02-05 11:39:19.026,train
58,58,295.6409912109375,228.0,2021-02-05 11:40:19.026,train
59,59,307.9035339355469,361.0,2021-02-05 11:41:19.026,train
60,60,198.1945343017578,226.0,2021-02-05 11:42:19.026,train
61,61,125.82488250732422,73.0,2021-02-05 11:43:19.026,train
62,62,82.6933822631836,113.0,2021-02-05 11:44:19.026,train
63,63,55.430213928222656,52.0,2021-02-05 11:45:19.026,train
64,64,23.63692283630371,2.0,2021-02-05 11:46:19.026,train
65,65,37.46009826660156,67.0,2021-02-05 11:47:19.026,train
66,66,117.15386962890624,130.0,2021-02-05 11:48:19.026,train
67,67,175.1803436279297,239.0,2021-02-05 11:49:19.026,train
68,68,289.1739501953125,180.0,2021-02-05 11:50:19.026,train
69,69,543.1531982421875,515.0,2021-02-05 11:51:19.026,train
70,70,553.5828247070311,613.0,2021-02-05 11:52:19.026,train
71,71,318.8091735839844,307.0,2021-02-05 11:53:19.026,train
72,72,599.088134765625,555.0,2021-02-05 11:54:19.026,train
73,73,399.9674682617188,337.0,2021-02-05 11:55:19.026,train
74,74,351.804931640625,304.0,2021-02-05 11:56:19.026,train
75,75,281.99420166015625,290.0,2021-02-05 11:57:19.026,train
76,76,192.99224853515625,180.0,2021-02-05 11:58:19.026,train
77,77,120.53594207763672,86.0,2021-02-05 11:59:19.026,train
78,78,79.86819458007812,66.0,2021-02-05 12:00:19.026,train
79,79,35.857444763183594,22.0,2021-02-05 12:01:19.026,train
80,80,22.087682723999023,22.0,2021-02-05 12:02:19.026,train
81,81,84.93811798095703,97.0,2021-02-05 12:03:19.026,train
82,82,155.80738830566406,197.0,2021-02-05 12:04:19.026,train
83,83,221.8520050048828,134.0,2021-02-05 12:05:19.026,train
84,84,486.2405090332031,451.0,2021-02-05 12:06:19.026,train
85,85,550.1792602539061,574.0,2021-02-05 12:07:19.026,train
86,86,299.11346435546875,325.0,2021-02-05 12:08:19.026,train
87,87,598.1326904296875,604.0,2021-02-05 12:09:19.026,train
88,88,430.14923095703125,518.0,2021-02-05 12:10:19.026,train
89,89,279.62271118164057,202.0,2021-02-05 12:11:19.026,train
90,90,289.5234680175781,339.0,2021-02-05 12:12:19.026,train
91,91,186.5082550048828,222.0,2021-02-05 12:13:19.026,train
92,92,115.65628814697266,74.0,2021-02-05 12:14:19.026,train
93,93,76.60639190673828,107.0,2021-02-05 12:15:19.026,train
94,94,50.16491317749024,51.0,2021-02-05 12:16:19.026,train
95,95,22.446138381958008,25.0,2021-02-05 12:17:19.026,train
96,96,56.70648956298828,103.0,2021-02-05 12:18:19.026,train
97,97,142.73019409179688,189.0,2021-02-05 12:19:19.026,train
98,98,211.78335571289062,132.0,2021-02-05 12:20:19.026,train
99,99,454.20928955078125,483.0,2021-02-05 12:21:19.026,train
100,100,541.1702270507811,582.0,2021-02-05 12:22:19.026,train
101,101,277.52273559570307,318.0,2021-02-05 12:23:19.026,train
102,102,606.7559814453125,603.0,2021-02-05 12:24:19.026,train
103,103,439.5958251953125,490.0,2021-02-05 12:25:19.026,train
104,104,289.7034606933594,214.0,2021-02-05 12:26:19.026,train
105,105,300.43218994140625,349.0,2021-02-05 12:27:19.026,train
106,106,191.6714630126953,227.0,2021-02-05 12:28:19.026,train
107,107,121.04559326171876,73.0,2021-02-05 12:29:19.026,train
108,108,78.69808959960938,100.0,2021-02-05 12:30:19.026,train
109,109,49.85654830932617,39.0,2021-02-05 12:31:19.026,train
110,110,21.76798248291016,9.0,2021-02-05 12:32:19.026,train
111,111,66.28093719482422,60.0,2021-02-05 12:33:19.026,train
112,112,135.75645446777344,158.0,2021-02-05 12:34:19.026,train
113,113,184.0509033203125,106.0,2021-02-05 12:35:19.026,train
114,114,358.76971435546875,334.0,2021-02-05 12:36:19.026,train
115,115,510.3742370605469,515.0,2021-02-05 12:37:19.026,train
116,116,303.41864013671875,294.0,2021-02-05 12:38:19.026,train
117,117,612.4837036132812,633.0,2021-02-05 12:39:19.026,train
118,118,468.4041748046875,573.0,2021-02-05 12:40:19.026,train
119,119,314.5860595703125,230.0,2021-02-05 12:41:19.026,train
120,120,324.04925537109375,395.0,2021-02-05 12:42:19.026,train
121,121,226.0174102783203,321.0,2021-02-05 12:43:19.026,train
122,122,181.27284240722656,95.0,2021-02-05 12:44:19.026,train
123,123,117.20906066894531,144.0,2021-02-05 12:45:19.026,train
124,124,72.02827453613281,64.0,2021-02-05 12:46:19.026,train
125,125,27.25080490112305,17.0,2021-02-05 12:47:19.026,train
126,126,17.707508087158203,21.0,2021-02-05 12:48:19.026,train
127,127,80.95592498779297,83.0,2021-02-05 12:49:19.026,train
128,128,152.19151306152344,77.0,2021-02-05 12:50:19.026,train
129,129,253.1855926513672,267.0,2021-02-05 12:51:19.026,train
130,130,447.0655822753906,481.0,2021-02-05 12:52:19.026,train
131,131,305.03594970703125,253.0,2021-02-05 12:53:19.026,train
132,132,617.1937255859375,642.0,2021-02-05 12:54:19.026,train
133,133,492.6236877441406,611.0,2021-02-05 12:55:19.026,train
134,134,346.62103271484375,268.0,2021-02-05 12:56:19.026,train
135,135,363.7529602050781,457.0,2021-02-05 12:57:19.026,train
136,136,254.7850341796875,353.0,2021-02-05 12:58:19.026,train
137,137,239.80567932128903,145.0,2021-02-05 12:59:19.026,train
138,138,153.839599609375,196.0,2021-02-05 13:00:19.026,train
139,139,92.1995620727539,110.0,2021-02-05 13:01:19.026,val
140,140,46.52660751342773,26.0,2021-02-05 13:02:19.026,val
141,141,13.187521934509276,27.0,2021-02-05 13:03:19.026,val
142,142,24.321134567260746,65.0,2021-02-05 13:04:19.026,val
143,143,105.138427734375,60.0,2021-02-05 13:05:19.026,val
144,144,175.97552490234375,184.0,2021-02-05 13:06:19.026,val
145,145,300.0865173339844,389.0,2021-02-05 13:07:19.026,val
146,146,461.8408508300781,240.0,2021-02-05 13:08:19.026,val
147,147,559.9237060546875,596.0,2021-02-05 13:09:19.026,val
148,148,392.5587768554688,635.0,2021-02-05 13:10:19.026,val
149,149,375.2784729003906,293.0,2021-02-05 13:11:19.026,val
150,150,501.8618469238281,501.0,2021-02-05 13:12:19.026,val
151,151,314.4504089355469,315.0,2021-02-05 13:13:19.026,val
152,152,304.53875732421875,250.0,2021-02-05 13:14:19.026,val
153,153,239.5291290283203,266.0,2021-02-05 13:15:19.026,val
154,154,146.83001708984375,102.0,2021-02-05 13:16:19.026,val
155,155,104.45753479003906,89.0,2021-02-05 13:17:19.026,val
156,156,67.05033111572266,42.0,2021-02-05 13:18:19.026,val
157,157,25.13566780090332,10.0,2021-02-05 13:19:19.026,val
158,158,12.358821868896484,55.0,2021-02-05 13:20:19.026,val
159,159,89.74142456054688,144.0,2021-02-05 13:21:19.026,val
160,160,160.3643798828125,107.0,2021-02-05 13:22:19.026,val
161,161,245.3521423339844,335.0,2021-02-05 13:23:19.026,val
162,162,496.2666931152344,532.0,2021-02-05 13:24:19.026,val
163,163,318.06298828125,306.0,2021-02-05 13:25:19.026,val
164,164,605.454345703125,663.0,2021-02-05 13:26:19.026,val
165,165,425.0870361328125,582.0,2021-02-05 13:27:19.026,val
166,166,306.29815673828125,250.0,2021-02-05 13:28:19.026,val
167,167,321.37701416015625,414.0,2021-02-05 13:29:19.026,val
168,168,231.78086853027344,295.0,2021-02-05 13:30:19.026,val
169,169,172.5580596923828,87.0,2021-02-05 13:31:19.026,val
170,170,109.26659393310548,149.0,2021-02-05 13:32:19.026,val
171,171,65.39900970458984,82.0,2021-02-05 13:33:19.026,val
172,172,19.032894134521484,16.0,2021-02-05 13:34:19.026,val
173,173,12.739457130432127,31.0,2021-02-05 13:35:19.026,val
174,174,86.3650894165039,86.0,2021-02-05 13:36:19.026,val
175,175,162.74917602539062,94.0,2021-02-05 13:37:19.026,val
176,176,250.76702880859372,262.0,2021-02-05 13:38:19.026,val
177,177,447.7984008789063,410.0,2021-02-05 13:39:19.026,val
178,178,467.3155822753906,304.0,2021-02-05 13:40:19.026,val
179,179,609.5635986328125,627.0,2021-02-05 13:41:19.026,val
180,180,434.4562072753906,603.0,2021-02-05 13:42:19.026,val
181,181,361.34942626953125,277.0,2021-02-05 13:43:19.026,val
182,182,391.7198486328125,446.0,2021-02-05 13:44:19.026,val
183,183,292.3249816894531,202.0,2021-02-05 13:45:19.026,val
184,184,280.72381591796875,298.0,2021-02-05 13:46:19.026,val
185,185,174.96981811523438,209.0,2021-02-05 13:47:19.026,val
186,186,116.5106430053711,76.0,2021-02-05 13:48:19.026,val
187,187,83.8882064819336,58.0,2021-02-05 13:49:19.026,val
188,188,38.95881271362305,19.0,2021-02-05 13:50:19.026,val
189,189,12.682493209838867,14.0,2021-02-05 13:51:19.026,val
190,190,69.54550170898439,104.0,2021-02-05 13:52:19.026,val
191,191,158.60890197753906,184.0,2021-02-05 13:53:19.026,val
192,192,227.1590881347656,190.0,2021-02-05 13:54:19.026,val
193,193,465.72943115234375,411.0,2021-02-05 13:55:19.026,val
194,194,536.1560668945311,579.0,2021-02-05 13:56:19.026,val
195,195,322.2044677734375,627.0,2021-02-05 13:57:19.026,val
196,196,372.5627746582031,295.0,2021-02-05 13:58:19.026,test
197,197,439.3321533203125,493.0,2021-02-05 13:59:19.026,test
198,198,312.4134826660156,404.0,2021-02-05 14:00:19.026,test
199,199,284.2537536621094,161.0,2021-02-05 14:01:19.026,test
200,200,258.158935546875,216.0,2021-02-05 14:02:19.026,test
201,201,143.3638153076172,94.0,2021-02-05 14:03:19.026,test
202,202,71.11051940917969,97.0,2021-02-05 14:04:19.026,test
203,203,19.70834350585937,50.0,2021-02-05 14:05:19.026,test
204,204,14.926097869873047,6.0,2021-02-05 14:06:19.026,test
205,205,80.87442016601562,50.0,2021-02-05 14:07:19.026,test
206,206,153.5320587158203,125.0,2021-02-05 14:08:19.026,test
207,207,224.3778533935547,120.0,2021-02-05 14:09:19.026,test
208,208,403.8305358886719,381.0,2021-02-05 14:10:19.026,test
209,209,491.00689697265625,534.0,2021-02-05 14:11:19.026,test
210,210,299.8470153808594,618.0,2021-02-05 14:12:19.026,test
211,211,362.769287109375,337.0,2021-02-05 14:13:19.026,test
212,212,470.23291015625,561.0,2021-02-05 14:14:19.026,test
213,213,328.3161926269531,464.0,2021-02-05 14:15:19.026,test
214,214,291.3622131347656,190.0,2021-02-05 14:16:19.026,test
215,215,281.64581298828125,317.0,2021-02-05 14:17:19.026,test
216,216,172.2864227294922,203.0,2021-02-05 14:18:19.026,test
217,217,113.55864715576172,65.0,2021-02-05 14:19:19.026,test
218,218,74.96319580078125,78.0,2021-02-05 14:20:19.026,test
219,219,28.430137634277344,20.0,2021-02-05 14:21:19.026,test
220,220,8.262086868286133,11.0,2021-02-05 14:22:19.026,test
