,Unnamed: 0,time,prediction,step
7642,7642,2021-02-18 14:16:50.382,29.743269,2
7652,7652,2021-02-18 14:17:20.382,28.134851,2
7662,7662,2021-02-18 14:17:50.382,25.894007000000002,2
7672,7672,2021-02-18 14:18:20.382,25.708757000000002,2
7682,7682,2021-02-18 14:18:50.382,25.814821,2
7692,7692,2021-02-18 14:19:20.382,26.058664,2
7702,7702,2021-02-18 14:19:50.382,26.206978,2
7712,7712,2021-02-18 14:20:20.382,26.398172,2
7722,7722,2021-02-18 14:20:50.382,26.700084999999998,2
7732,7732,2021-02-18 14:21:20.382,26.966316,2
7742,7742,2021-02-18 14:21:50.382,27.198807000000002,2
7752,7752,2021-02-18 14:22:20.382,27.538103000000003,2
7762,7762,2021-02-18 14:22:50.382,27.699192,2
7772,7772,2021-02-18 14:23:20.382,27.825706,2
7782,7782,2021-02-18 14:23:50.382,27.914609999999996,2
7792,7792,2021-02-18 14:24:20.382,28.17462,2
7802,7802,2021-02-18 14:24:50.382,28.402196999999997,2
7812,7812,2021-02-18 14:25:20.382,28.734444,2
7822,7822,2021-02-18 14:25:50.382,29.022268,2
7832,7832,2021-02-18 14:26:20.382,29.412683,2
7842,7842,2021-02-18 14:26:50.382,29.746304,2
7852,7852,2021-02-18 14:27:20.382,30.024124,2
7862,7862,2021-02-18 14:27:50.382,30.392221000000003,2
7872,7872,2021-02-18 14:28:20.382,30.649757,2
7882,7882,2021-02-18 14:28:50.382,30.867403000000003,2
7892,7892,2021-02-18 14:29:20.382,31.17418,2
7902,7902,2021-02-18 14:29:50.382,31.427174,2
7912,7912,2021-02-18 14:30:20.382,31.714159999999996,2
7922,7922,2021-02-18 14:30:50.382,33.636078000000005,2
7932,7932,2021-02-18 14:31:20.382,33.991783,2
7942,7942,2021-02-18 14:31:50.382,34.657978,2
7952,7952,2021-02-18 14:32:20.382,35.22067,2
7962,7962,2021-02-18 14:32:50.382,35.6838,2
7972,7972,2021-02-18 14:33:20.382,36.01384,2
7982,7982,2021-02-18 14:33:50.382,36.630558,2
7992,7992,2021-02-18 14:34:20.382,36.97932,2
8002,8002,2021-02-18 14:34:50.382,37.60848,2
8012,8012,2021-02-18 14:35:20.382,38.12664,2
8022,8022,2021-02-18 14:35:50.382,38.674576,2
8032,8032,2021-02-18 14:36:20.382,39.51644,2
8042,8042,2021-02-18 14:36:50.382,40.04873,2
8052,8052,2021-02-18 14:37:20.382,40.978970000000004,2
8062,8062,2021-02-18 14:37:50.382,41.662964,2
8072,8072,2021-02-18 14:38:20.382,42.2105,2
8082,8082,2021-02-18 14:38:50.382,43.00395,2
8092,8092,2021-02-18 14:39:20.382,43.801594,2
8102,8102,2021-02-18 14:39:50.382,44.26787,2
8112,8112,2021-02-18 14:40:20.382,45.33181,2
8122,8122,2021-02-18 14:40:50.382,46.235915999999996,2
8132,8132,2021-02-18 14:41:20.382,47.5317,2
8142,8142,2021-02-18 14:41:50.382,48.660755,2
8152,8152,2021-02-18 14:42:20.382,49.627792,2
8162,8162,2021-02-18 14:42:50.382,50.966534,2
8172,8172,2021-02-18 14:43:20.382,51.980667,2
8182,8182,2021-02-18 14:43:50.382,53.624843999999996,2
8192,8192,2021-02-18 14:44:20.382,55.185159999999996,2
8202,8202,2021-02-18 14:44:50.382,56.30585500000001,2
8212,8212,2021-02-18 14:45:20.382,58.021164,2
8222,8222,2021-02-18 14:45:50.382,59.80568,2
8232,8232,2021-02-18 14:46:20.382,62.27245,2
8242,8242,2021-02-18 14:46:50.382,64.5269,2
8252,8252,2021-02-18 14:47:20.382,66.31808000000001,2
8262,8262,2021-02-18 14:47:50.382,69.14935,2
8272,8272,2021-02-18 14:48:20.382,71.226814,2
8282,8282,2021-02-18 14:48:50.382,73.42735,2
8292,8292,2021-02-18 14:49:20.382,76.72564,2
8302,8302,2021-02-18 14:49:50.382,80.16915999999999,2
8312,8312,2021-02-18 14:50:20.382,85.25424,2
8322,8322,2021-02-18 14:50:50.382,89.89631,2
8332,8332,2021-02-18 14:51:20.382,94.04621999999999,2
8342,8342,2021-02-18 14:51:50.382,99.92811,2
8352,8352,2021-02-18 14:52:20.382,105.7436,2
8362,8362,2021-02-18 14:52:50.382,114.88886000000001,2
8372,8372,2021-02-18 14:53:20.382,123.34263600000001,2
8382,8382,2021-02-18 14:53:50.382,132.67928,2
8392,8392,2021-02-18 14:54:20.382,149.37025,2
8402,8402,2021-02-18 14:54:50.382,165.30856,2
8412,8412,2021-02-18 14:55:20.382,191.5299,2
8422,8422,2021-02-18 14:55:50.382,221.72327,2
8432,8432,2021-02-18 14:56:20.382,267.47153,2
8442,8442,2021-02-18 14:56:50.382,341.88403,2
8452,8452,2021-02-18 14:57:20.382,405.76007000000004,2
8462,8462,2021-02-18 14:57:50.382,506.1958,2
8472,8472,2021-02-18 14:58:20.382,533.60645,2
8482,8482,2021-02-18 14:58:50.382,534.35645,2
8492,8492,2021-02-18 14:59:20.382,510.92675999999994,2
8502,8502,2021-02-18 14:59:50.382,486.98013,2
8512,8512,2021-02-18 15:00:20.382,440.55032,2
8522,8522,2021-02-18 15:00:50.382,321.80707,2
8532,8532,2021-02-18 15:01:20.382,224.47807000000003,2
8542,8542,2021-02-18 15:01:50.382,179.0869,2
8552,8552,2021-02-18 15:02:20.382,130.55771000000001,2
8562,8562,2021-02-18 15:02:50.382,115.83053999999998,2
8572,8572,2021-02-18 15:03:20.382,97.61804000000001,2
8582,8582,2021-02-18 15:03:50.382,90.99149,2
8592,8592,2021-02-18 15:04:20.382,85.76058,2
8602,8602,2021-02-18 15:04:50.382,78.85731,2
8612,8612,2021-02-18 15:05:20.382,67.89158,2
8622,8622,2021-02-18 15:05:50.382,64.61783,2
8632,8632,2021-02-18 15:06:20.382,65.15281999999999,2
8642,8642,2021-02-18 15:06:50.382,64.02105999999999,2
8652,8652,2021-02-18 15:07:20.382,63.14674399999999,2
8662,8662,2021-02-18 15:07:50.382,60.33614,2
8672,8672,2021-02-18 15:08:20.382,57.746871999999996,2
8682,8682,2021-02-18 15:08:50.382,54.52653000000001,2
8692,8692,2021-02-18 15:09:20.382,50.930206,2
8702,8702,2021-02-18 15:09:50.382,46.743553000000006,2
8712,8712,2021-02-18 15:10:20.382,42.680622,2
8722,8722,2021-02-18 15:10:50.382,38.655483000000004,2
8732,8732,2021-02-18 15:11:20.382,35.23644,2
8742,8742,2021-02-18 15:11:50.382,31.68565,2
8752,8752,2021-02-18 15:12:20.382,28.611248,2
8762,8762,2021-02-18 15:12:50.382,25.625970000000002,2
8772,8772,2021-02-18 15:13:20.382,23.010149,2
8782,8782,2021-02-18 15:13:50.382,21.421474,2
8792,8792,2021-02-18 15:14:20.382,20.034422,2
8802,8802,2021-02-18 15:14:50.382,19.105085,2
8812,8812,2021-02-18 15:15:20.382,18.404529999999998,2
8822,8822,2021-02-18 15:15:50.382,18.113281,2
8832,8832,2021-02-18 15:16:20.382,18.036926,2
8842,8842,2021-02-18 15:16:50.382,18.234762,2
8852,8852,2021-02-18 15:17:20.382,17.491685999999998,2
8862,8862,2021-02-18 15:17:50.382,16.844278,2
8872,8872,2021-02-18 15:18:20.382,16.124487,2
8882,8882,2021-02-18 15:18:50.382,15.470185999999998,2
8892,8892,2021-02-18 15:19:20.382,14.733848000000002,2
8902,8902,2021-02-18 15:19:50.382,14.128132,2
8912,8912,2021-02-18 15:20:20.382,13.580216,2
8922,8922,2021-02-18 15:20:50.382,12.889671,2
8932,8932,2021-02-18 15:21:20.382,12.300028999999999,2
8942,8942,2021-02-18 15:21:50.382,11.648803,2
8952,8952,2021-02-18 15:22:20.382,10.970328,2
8962,8962,2021-02-18 15:22:50.382,10.255044,2
8972,8972,2021-02-18 15:23:20.382,9.697768,2
8982,8982,2021-02-18 15:23:50.382,9.244097,2
8992,8992,2021-02-18 15:24:20.382,8.699316,2
9002,9002,2021-02-18 15:24:50.382,8.18562,2
9012,9012,2021-02-18 15:25:20.382,7.7971325,2
9022,9022,2021-02-18 15:25:50.382,7.331236,2
9032,9032,2021-02-18 15:26:20.382,6.85113,2
9042,9042,2021-02-18 15:26:50.382,6.4368777,2
