,Unnamed: 0,prediction,real,time,split
1596,1596,-7.0,-7.0,2021-02-18 14:00:50.382,test
1597,1597,-7.0,-7.0,2021-02-18 14:01:20.382,test
1598,1598,-7.0,-7.0,2021-02-18 14:01:50.382,test
1599,1599,-7.0,-7.0,2021-02-18 14:02:20.382,test
1600,1600,-7.0,-7.0,2021-02-18 14:02:50.382,test
1601,1601,-7.0,-7.0,2021-02-18 14:03:20.382,test
1602,1602,-7.0,-7.0,2021-02-18 14:03:50.382,test
1603,1603,-7.0,-7.0,2021-02-18 14:04:20.382,test
1604,1604,-7.0,-7.0,2021-02-18 14:04:50.382,test
1605,1605,-7.0,-7.0,2021-02-18 14:05:20.382,test
1606,1606,-7.0,-7.0,2021-02-18 14:05:50.382,test
1607,1607,-7.0,-7.0,2021-02-18 14:06:20.382,test
1608,1608,-7.0,-7.0,2021-02-18 14:06:50.382,test
1609,1609,-7.0,-7.0,2021-02-18 14:07:20.382,test
1610,1610,-7.0,-6.0,2021-02-18 14:07:50.382,test
1611,1611,-7.0,-6.0,2021-02-18 14:08:20.382,test
1612,1612,-7.534923076629639,-6.0,2021-02-18 14:08:50.382,test
1613,1613,-7.722834587097168,-6.0,2021-02-18 14:09:20.382,test
1614,1614,-7.849329471588135,-6.0,2021-02-18 14:09:50.382,test
1615,1615,-7.942160129547119,-6.0,2021-02-18 14:10:20.382,test
1616,1616,-8.012199401855469,-6.0,2021-02-18 14:10:50.382,test
1617,1617,-8.065055847167969,-6.0,2021-02-18 14:11:20.382,test
1618,1618,-8.104065895080566,-6.0,2021-02-18 14:11:50.382,test
1619,1619,-8.131390571594237,-6.0,2021-02-18 14:12:20.382,test
1620,1620,-8.148508071899414,-6.0,2021-02-18 14:12:50.382,test
1621,1621,-8.156462669372559,-6.0,2021-02-18 14:13:20.382,test
1622,1622,-8.156010627746582,-6.0,2021-02-18 14:13:50.382,test
1623,1623,-8.147693634033201,-6.0,2021-02-18 14:14:20.382,test
1624,1624,-8.131898880004883,-6.0,2021-02-18 14:14:50.382,test
1625,1625,-8.108880996704103,-6.0,2021-02-18 14:15:20.382,test
1626,1626,-8.078791618347168,-6.0,2021-02-18 14:15:50.382,test
1627,1627,-8.041678428649902,-6.0,2021-02-18 14:16:20.382,test
1628,1628,-7.997500419616699,-6.0,2021-02-18 14:16:50.382,test
1629,1629,-7.946115016937256,-6.0,2021-02-18 14:17:20.382,test
1630,1630,-7.887272834777832,-6.0,2021-02-18 14:17:50.382,test
1631,1631,-7.820597648620605,-6.0,2021-02-18 14:18:20.382,test
1632,1632,-7.745553970336914,-6.0,2021-02-18 14:18:50.382,test
1633,1633,-7.661398887634277,-6.0,2021-02-18 14:19:20.382,test
1634,1634,-7.567097663879394,-6.0,2021-02-18 14:19:50.382,test
1635,1635,-7.461188316345215,-6.0,2021-02-18 14:20:20.382,test
1636,1636,-7.341530323028564,-6.0,2021-02-18 14:20:50.382,test
1637,1637,-7.204812049865723,-6.0,2021-02-18 14:21:20.382,test
1638,1638,-7.0454649925231925,-6.0,2021-02-18 14:21:50.382,test
1639,1639,-6.852686882019043,-6.0,2021-02-18 14:22:20.382,test
1640,1640,-6.598892688751222,-6.0,2021-02-18 14:22:50.382,test
1641,1641,-6.0,-6.0,2021-02-18 14:23:20.382,test
1642,1642,-6.0,-6.0,2021-02-18 14:23:50.382,test
1643,1643,-6.0,-6.0,2021-02-18 14:24:20.382,test
1644,1644,-6.0,-6.0,2021-02-18 14:24:50.382,test
1645,1645,-6.0,-6.0,2021-02-18 14:25:20.382,test
1646,1646,-6.0,-6.0,2021-02-18 14:25:50.382,test
1647,1647,-6.0,-6.0,2021-02-18 14:26:20.382,test
1648,1648,-6.0,-6.0,2021-02-18 14:26:50.382,test
1649,1649,-6.0,-6.0,2021-02-18 14:27:20.382,test
1650,1650,-6.0,-6.0,2021-02-18 14:27:50.382,test
1651,1651,-6.0,-6.0,2021-02-18 14:28:20.382,test
1652,1652,-6.0,-6.0,2021-02-18 14:28:50.382,test
1653,1653,-6.0,-6.0,2021-02-18 14:29:20.382,test
1654,1654,-6.0,-6.0,2021-02-18 14:29:50.382,test
1655,1655,-6.0,-6.0,2021-02-18 14:30:20.382,test
1656,1656,-6.0,-6.0,2021-02-18 14:30:50.382,test
1657,1657,-6.0,-6.0,2021-02-18 14:31:20.382,test
1658,1658,-6.0,-6.0,2021-02-18 14:31:50.382,test
1659,1659,-6.0,-6.0,2021-02-18 14:32:20.382,test
1660,1660,-6.0,-6.0,2021-02-18 14:32:50.382,test
1661,1661,-6.0,-6.0,2021-02-18 14:33:20.382,test
1662,1662,-6.0,-6.0,2021-02-18 14:33:50.382,test
1663,1663,-6.0,-6.0,2021-02-18 14:34:20.382,test
1664,1664,-6.0,-6.0,2021-02-18 14:34:50.382,test
1665,1665,-6.0,-6.0,2021-02-18 14:35:20.382,test
1666,1666,-6.0,-5.0,2021-02-18 14:35:50.382,test
1667,1667,-6.0,-5.0,2021-02-18 14:36:20.382,test
1668,1668,-6.52871036529541,-5.0,2021-02-18 14:36:50.382,test
1669,1669,-6.714245319366455,-5.0,2021-02-18 14:37:20.382,test
1670,1670,-6.839050769805907,-5.0,2021-02-18 14:37:50.382,test
1671,1671,-6.930573463439941,-5.0,2021-02-18 14:38:20.382,test
1672,1672,-6.999560832977295,-5.0,2021-02-18 14:38:50.382,test
1673,1673,-7.0515618324279785,-5.0,2021-02-18 14:39:20.382,test
1674,1674,-7.089871883392334,-5.0,2021-02-18 14:39:50.382,test
1675,1675,-7.116628646850586,-5.0,2021-02-18 14:40:20.382,test
1676,1676,-7.133290767669678,-5.0,2021-02-18 14:40:50.382,test
1677,1677,-7.1408934593200675,-5.0,2021-02-18 14:41:20.382,test
1678,1678,-7.1401801109313965,-5.0,2021-02-18 14:41:50.382,test
1679,1679,-7.131687641143799,-5.0,2021-02-18 14:42:20.382,test
1680,1680,-7.115796089172362,-5.0,2021-02-18 14:42:50.382,test
1681,1681,-7.092757225036621,-5.0,2021-02-18 14:43:20.382,test
1682,1682,-7.0627193450927725,-5.0,2021-02-18 14:43:50.382,test
1683,1683,-7.0257320404052725,-5.0,2021-02-18 14:44:20.382,test
1684,1684,-6.981748580932617,-5.0,2021-02-18 14:44:50.382,test
1685,1685,-6.9306297302246085,-5.0,2021-02-18 14:45:20.382,test
1686,1686,-6.8721251487731925,-5.0,2021-02-18 14:45:50.382,test
1687,1687,-6.805863380432129,-5.0,2021-02-18 14:46:20.382,test
1688,1688,-6.731311798095702,-5.0,2021-02-18 14:46:50.382,test
1689,1689,-6.647733211517334,-5.0,2021-02-18 14:47:20.382,test
1690,1690,-6.554102420806885,-5.0,2021-02-18 14:47:50.382,test
1691,1691,-6.448969841003418,-5.0,2021-02-18 14:48:20.382,test
1692,1692,-6.330213069915772,-5.0,2021-02-18 14:48:50.382,test
1693,1693,-6.194550514221191,-5.0,2021-02-18 14:49:20.382,test
1694,1694,-6.03646183013916,-5.0,2021-02-18 14:49:50.382,test
1695,1695,-5.845247268676758,-5.0,2021-02-18 14:50:20.382,test
1696,1696,-5.59357213973999,-5.0,2021-02-18 14:50:50.382,test
1697,1697,-5.0,-5.0,2021-02-18 14:51:20.382,test
1698,1698,-5.0,-5.0,2021-02-18 14:51:50.382,test
1699,1699,-5.0,-5.0,2021-02-18 14:52:20.382,test
1700,1700,-5.0,-5.0,2021-02-18 14:52:50.382,test
1701,1701,-5.0,-5.0,2021-02-18 14:53:20.382,test
1702,1702,-5.0,-5.0,2021-02-18 14:53:50.382,test
1703,1703,-5.0,-5.0,2021-02-18 14:54:20.382,test
1704,1704,-5.0,-5.0,2021-02-18 14:54:50.382,test
1705,1705,-5.0,-5.0,2021-02-18 14:55:20.382,test
1706,1706,-5.0,-5.0,2021-02-18 14:55:50.382,test
1707,1707,-5.0,-5.0,2021-02-18 14:56:20.382,test
1708,1708,-5.0,-5.0,2021-02-18 14:56:50.382,test
1709,1709,-5.0,-5.0,2021-02-18 14:57:20.382,test
1710,1710,-5.0,-5.0,2021-02-18 14:57:50.382,test
1711,1711,-5.0,-5.0,2021-02-18 14:58:20.382,test
1712,1712,-5.0,-5.0,2021-02-18 14:58:50.382,test
1713,1713,-5.0,-5.0,2021-02-18 14:59:20.382,test
1714,1714,-5.0,-5.0,2021-02-18 14:59:50.382,test
1715,1715,-5.0,-5.0,2021-02-18 15:00:20.382,test
1716,1716,-5.0,-5.0,2021-02-18 15:00:50.382,test
1717,1717,-5.0,-5.0,2021-02-18 15:01:20.382,test
1718,1718,-5.0,-5.0,2021-02-18 15:01:50.382,test
1719,1719,-5.0,-5.0,2021-02-18 15:02:20.382,test
1720,1720,-5.0,-5.0,2021-02-18 15:02:50.382,test
1721,1721,-5.0,-5.0,2021-02-18 15:03:20.382,test
1722,1722,-5.0,-5.0,2021-02-18 15:03:50.382,test
1723,1723,-5.0,-5.0,2021-02-18 15:04:20.382,test
1724,1724,-5.0,-5.0,2021-02-18 15:04:50.382,test
1725,1725,-5.0,-5.0,2021-02-18 15:05:20.382,test
1726,1726,-5.0,-5.0,2021-02-18 15:05:50.382,test
1727,1727,-5.0,-5.0,2021-02-18 15:06:20.382,test
1728,1728,-5.0,-5.0,2021-02-18 15:06:50.382,test
1729,1729,-5.0,-5.0,2021-02-18 15:07:20.382,test
1730,1730,-5.0,-5.0,2021-02-18 15:07:50.382,test
1731,1731,-5.0,-5.0,2021-02-18 15:08:20.382,test
1732,1732,-5.0,-5.0,2021-02-18 15:08:50.382,test
1733,1733,-5.0,-5.0,2021-02-18 15:09:20.382,test
1734,1734,-5.0,-5.0,2021-02-18 15:09:50.382,test
1735,1735,-5.0,-5.0,2021-02-18 15:10:20.382,test
1736,1736,-5.0,-5.0,2021-02-18 15:10:50.382,test
1737,1737,-5.0,-5.0,2021-02-18 15:11:20.382,test
1738,1738,-5.0,-5.0,2021-02-18 15:11:50.382,test
1739,1739,-5.0,-5.0,2021-02-18 15:12:20.382,test
1740,1740,-5.0,-5.0,2021-02-18 15:12:50.382,test
1741,1741,-5.0,-5.0,2021-02-18 15:13:20.382,test
1742,1742,-5.0,-5.0,2021-02-18 15:13:50.382,test
1743,1743,-5.0,-5.0,2021-02-18 15:14:20.382,test
1744,1744,-5.0,-5.0,2021-02-18 15:14:50.382,test
1745,1745,-5.0,-5.0,2021-02-18 15:15:20.382,test
1746,1746,-5.0,-5.0,2021-02-18 15:15:50.382,test
1747,1747,-5.0,-5.0,2021-02-18 15:16:20.382,test
1748,1748,-5.0,-5.0,2021-02-18 15:16:50.382,test
1749,1749,-5.0,-5.0,2021-02-18 15:17:20.382,test
1750,1750,-5.0,-5.0,2021-02-18 15:17:50.382,test
1751,1751,-5.0,-5.0,2021-02-18 15:18:20.382,test
1752,1752,-5.0,-5.0,2021-02-18 15:18:50.382,test
1753,1753,-5.0,-5.0,2021-02-18 15:19:20.382,test
1754,1754,-5.0,-5.0,2021-02-18 15:19:50.382,test
1755,1755,-5.0,-5.0,2021-02-18 15:20:20.382,test
1756,1756,-5.0,-5.0,2021-02-18 15:20:50.382,test
1757,1757,-5.0,-5.0,2021-02-18 15:21:20.382,test
1758,1758,-5.0,-5.0,2021-02-18 15:21:50.382,test
1759,1759,-5.0,-4.0,2021-02-18 15:22:20.382,test
1760,1760,-5.0,-4.0,2021-02-18 15:22:50.382,test
1761,1761,-5.519881725311278,-4.0,2021-02-18 15:23:20.382,test
1762,1762,-5.702024936676025,-4.0,2021-02-18 15:23:50.382,test
1763,1763,-5.8244147300720215,-4.0,2021-02-18 15:24:20.382,test
1764,1764,-5.914057731628418,-4.0,2021-02-18 15:24:50.382,test
1765,1765,-5.9815306663513175,-4.0,2021-02-18 15:25:20.382,test
1766,1766,-6.032290935516357,-4.0,2021-02-18 15:25:50.382,test
1767,1767,-6.069581985473633,-4.0,2021-02-18 15:26:20.382,test
1768,1768,-6.095504283905028,-4.0,2021-02-18 15:26:50.382,test
1769,1769,-6.111495018005371,-4.0,2021-02-18 15:27:20.382,test
1770,1770,-6.118568420410156,-4.0,2021-02-18 15:27:50.382,test
1771,1771,-6.1174564361572275,-4.0,2021-02-18 15:28:20.382,test
1772,1772,-6.1086859703063965,-4.0,2021-02-18 15:28:50.382,test
1773,1773,-6.092630386352539,-4.0,2021-02-18 15:29:20.382,test
1774,1774,-6.069537162780763,-4.0,2021-02-18 15:29:50.382,test
1775,1775,-6.039548873901367,-4.0,2021-02-18 15:30:20.382,test
3109,3109,-4.1441993713378915,-2.0,2021-02-18 14:00:50.382,test
3110,3110,-4.106593608856201,-2.0,2021-02-18 14:01:20.382,test
3111,3111,-4.061610221862793,-2.0,2021-02-18 14:01:50.382,test
3112,3112,-4.009105682373047,-2.0,2021-02-18 14:02:20.382,test
3113,3113,-3.9488248825073238,-2.0,2021-02-18 14:02:50.382,test
3114,3114,-3.8803806304931636,-2.0,2021-02-18 14:03:20.382,test
3115,3115,-3.8032228946685787,-2.0,2021-02-18 14:03:50.382,test
3116,3116,-3.7165861129760738,-2.0,2021-02-18 14:04:20.382,test
3117,3117,-3.619405508041382,-2.0,2021-02-18 14:04:50.382,test
3118,3118,-3.5101735591888428,-2.0,2021-02-18 14:05:20.382,test
3119,3119,-3.38668155670166,-2.0,2021-02-18 14:05:50.382,test
3120,3120,-3.245516061782837,-2.0,2021-02-18 14:06:20.382,test
3121,3121,-3.0809271335601807,-2.0,2021-02-18 14:06:50.382,test
3122,3122,-2.881758689880371,-2.0,2021-02-18 14:07:20.382,test
3123,3123,-2.6194863319396973,-2.0,2021-02-18 14:07:50.382,test
3124,3124,-2.0,-2.0,2021-02-18 14:08:20.382,test
3125,3125,-2.0,-2.0,2021-02-18 14:08:50.382,test
3126,3126,-2.0,-2.0,2021-02-18 14:09:20.382,test
3127,3127,-2.0,-2.0,2021-02-18 14:09:50.382,test
3128,3128,-2.0,-2.0,2021-02-18 14:10:20.382,test
3129,3129,-2.0,-2.0,2021-02-18 14:10:50.382,test
3130,3130,-2.0,-2.0,2021-02-18 14:11:20.382,test
3131,3131,-2.0,-2.0,2021-02-18 14:11:50.382,test
3132,3132,-2.0,-2.0,2021-02-18 14:12:20.382,test
3133,3133,-2.0,-2.0,2021-02-18 14:12:50.382,test
3134,3134,-2.0,-2.0,2021-02-18 14:13:20.382,test
3135,3135,-2.0,-2.0,2021-02-18 14:13:50.382,test
3136,3136,-2.0,-2.0,2021-02-18 14:14:20.382,test
3137,3137,-2.0,-2.0,2021-02-18 14:14:50.382,test
3138,3138,-2.0,-2.0,2021-02-18 14:15:20.382,test
3139,3139,-2.0,-2.0,2021-02-18 14:15:50.382,test
3140,3140,-2.0,-2.0,2021-02-18 14:16:20.382,test
3141,3141,-2.0,-2.0,2021-02-18 14:16:50.382,test
3142,3142,-2.0,-2.0,2021-02-18 14:17:20.382,test
3143,3143,-2.0,-2.0,2021-02-18 14:17:50.382,test
3144,3144,-2.0,-2.0,2021-02-18 14:18:20.382,test
3145,3145,-2.0,-2.0,2021-02-18 14:18:50.382,test
3146,3146,-2.0,-2.0,2021-02-18 14:19:20.382,test
3147,3147,-2.0,-2.0,2021-02-18 14:19:50.382,test
3148,3148,-2.0,-2.0,2021-02-18 14:20:20.382,test
3149,3149,-2.0,-2.0,2021-02-18 14:20:50.382,test
3150,3150,-2.0,-2.0,2021-02-18 14:21:20.382,test
3151,3151,-2.0,-2.0,2021-02-18 14:21:50.382,test
3152,3152,-2.0,-2.0,2021-02-18 14:22:20.382,test
3153,3153,-2.0,-2.0,2021-02-18 14:22:50.382,test
3154,3154,-2.0,-2.0,2021-02-18 14:23:20.382,test
3155,3155,-2.0,-2.0,2021-02-18 14:23:50.382,test
3156,3156,-2.0,-2.0,2021-02-18 14:24:20.382,test
3157,3157,-2.0,-2.0,2021-02-18 14:24:50.382,test
3158,3158,-2.0,-2.0,2021-02-18 14:25:20.382,test
3159,3159,-2.0,-2.0,2021-02-18 14:25:50.382,test
3160,3160,-2.0,-2.0,2021-02-18 14:26:20.382,test
3161,3161,-2.0,-2.0,2021-02-18 14:26:50.382,test
3162,3162,-2.0,-2.0,2021-02-18 14:27:20.382,test
3163,3163,-2.0,-2.0,2021-02-18 14:27:50.382,test
3164,3164,-2.0,-1.0,2021-02-18 14:28:20.382,test
3165,3165,-2.0,-1.0,2021-02-18 14:28:50.382,test
3166,3166,-2.548621416091919,-1.0,2021-02-18 14:29:20.382,test
3167,3167,-2.741366386413574,-1.0,2021-02-18 14:29:50.382,test
3168,3168,-2.8709423542022705,-1.0,2021-02-18 14:30:20.382,test
3169,3169,-2.965804100036621,-1.0,2021-02-18 14:30:50.382,test
3170,3170,-3.0370919704437256,-1.0,2021-02-18 14:31:20.382,test
3171,3171,-3.090552806854248,-1.0,2021-02-18 14:31:50.382,test
3172,3172,-3.129599571228028,-1.0,2021-02-18 14:32:20.382,test
3173,3173,-3.156438112258911,-1.0,2021-02-18 14:32:50.382,test
3174,3174,-3.1725716590881348,-1.0,2021-02-18 14:33:20.382,test
3175,3175,-3.1790566444396973,-1.0,2021-02-18 14:33:50.382,test
3176,3176,-3.176656007766724,-1.0,2021-02-18 14:34:20.382,test
3177,3177,-3.1659200191497803,-1.0,2021-02-18 14:34:50.382,test
3178,3178,-3.1472382545471187,-1.0,2021-02-18 14:35:20.382,test
3179,3179,-3.1208748817443848,-1.0,2021-02-18 14:35:50.382,test
3180,3180,-3.0869872570037837,-1.0,2021-02-18 14:36:20.382,test
3181,3181,-3.0456452369689937,-1.0,2021-02-18 14:36:50.382,test
3182,3182,-2.9968416690826416,-1.0,2021-02-18 14:37:20.382,test
3183,3183,-2.940482378005981,-1.0,2021-02-18 14:37:50.382,test
3184,3184,-2.876377820968628,-1.0,2021-02-18 14:38:20.382,test
3185,3185,-2.804234504699707,-1.0,2021-02-18 14:38:50.382,test
3186,3186,-2.723628520965576,-1.0,2021-02-18 14:39:20.382,test
3187,3187,-2.63396430015564,-1.0,2021-02-18 14:39:50.382,test
3188,3188,-2.5344109535217285,-1.0,2021-02-18 14:40:20.382,test
3189,3189,-2.4237563610076904,-1.0,2021-02-18 14:40:50.382,test
3190,3190,-2.3001887798309326,-1.0,2021-02-18 14:41:20.382,test
3191,3191,-2.1608531475067143,-1.0,2021-02-18 14:41:50.382,test
3192,3192,-2.000854730606079,-1.0,2021-02-18 14:42:20.382,test
3193,3193,-1.8105270862579343,-1.0,2021-02-18 14:42:50.382,test
3194,3194,-1.564757227897644,-1.0,2021-02-18 14:43:20.382,test
3195,3195,-1.0,-1.0,2021-02-18 14:43:50.382,test
3196,3196,-1.0,-1.0,2021-02-18 14:44:20.382,test
3197,3197,-1.0,-1.0,2021-02-18 14:44:50.382,test
3198,3198,-1.0,-1.0,2021-02-18 14:45:20.382,test
3199,3199,-1.0,-1.0,2021-02-18 14:45:50.382,test
3200,3200,-1.0,-1.0,2021-02-18 14:46:20.382,test
3201,3201,-1.0,-1.0,2021-02-18 14:46:50.382,test
3202,3202,-1.0,-1.0,2021-02-18 14:47:20.382,test
3203,3203,-1.0,-1.0,2021-02-18 14:47:50.382,test
3204,3204,-1.0,-1.0,2021-02-18 14:48:20.382,test
3205,3205,-1.0,-1.0,2021-02-18 14:48:50.382,test
3206,3206,-1.0,-1.0,2021-02-18 14:49:20.382,test
3207,3207,-1.0,-1.0,2021-02-18 14:49:50.382,test
3208,3208,-1.0,-1.0,2021-02-18 14:50:20.382,test
3209,3209,-1.0,-1.0,2021-02-18 14:50:50.382,test
3210,3210,-1.0,-1.0,2021-02-18 14:51:20.382,test
3211,3211,-1.0,-1.0,2021-02-18 14:51:50.382,test
3212,3212,-1.0,-1.0,2021-02-18 14:52:20.382,test
3213,3213,-1.0,-1.0,2021-02-18 14:52:50.382,test
3214,3214,-1.0,-1.0,2021-02-18 14:53:20.382,test
3215,3215,-1.0,-1.0,2021-02-18 14:53:50.382,test
3216,3216,-1.0,-1.0,2021-02-18 14:54:20.382,test
3217,3217,-1.0,-1.0,2021-02-18 14:54:50.382,test
3218,3218,-1.0,-1.0,2021-02-18 14:55:20.382,test
3219,3219,-1.0,-1.0,2021-02-18 14:55:50.382,test
3220,3220,-1.0,-1.0,2021-02-18 14:56:20.382,test
3221,3221,-1.0,-1.0,2021-02-18 14:56:50.382,test
3222,3222,-1.0,-1.0,2021-02-18 14:57:20.382,test
3223,3223,-1.0,-1.0,2021-02-18 14:57:50.382,test
3224,3224,-1.0,-1.0,2021-02-18 14:58:20.382,test
3225,3225,-1.0,-1.0,2021-02-18 14:58:50.382,test
3226,3226,-1.0,-1.0,2021-02-18 14:59:20.382,test
3227,3227,-1.0,-1.0,2021-02-18 14:59:50.382,test
3228,3228,-1.0,-1.0,2021-02-18 15:00:20.382,test
3229,3229,-1.0,-1.0,2021-02-18 15:00:50.382,test
3230,3230,-1.0,-1.0,2021-02-18 15:01:20.382,test
3231,3231,-1.0,-1.0,2021-02-18 15:01:50.382,test
3232,3232,-1.0,-1.0,2021-02-18 15:02:20.382,test
3233,3233,-1.0,-1.0,2021-02-18 15:02:50.382,test
3234,3234,-1.0,-1.0,2021-02-18 15:03:20.382,test
3235,3235,-1.0,-1.0,2021-02-18 15:03:50.382,test
3236,3236,-1.0,-1.0,2021-02-18 15:04:20.382,test
3237,3237,-1.0,-1.0,2021-02-18 15:04:50.382,test
3238,3238,-1.0,-1.0,2021-02-18 15:05:20.382,test
3239,3239,-1.0,-1.0,2021-02-18 15:05:50.382,test
3240,3240,-1.0,-1.0,2021-02-18 15:06:20.382,test
3241,3241,-1.0,-1.0,2021-02-18 15:06:50.382,test
3242,3242,-1.0,-1.0,2021-02-18 15:07:20.382,test
3243,3243,-1.0,-1.0,2021-02-18 15:07:50.382,test
3244,3244,-1.0,-1.0,2021-02-18 15:08:20.382,test
3245,3245,-1.0,-1.0,2021-02-18 15:08:50.382,test
3246,3246,-1.0,-1.0,2021-02-18 15:09:20.382,test
3247,3247,-1.0,-1.0,2021-02-18 15:09:50.382,test
3248,3248,-1.0,-1.0,2021-02-18 15:10:20.382,test
3249,3249,-1.0,-1.0,2021-02-18 15:10:50.382,test
3250,3250,-1.0,-1.0,2021-02-18 15:11:20.382,test
3251,3251,-1.0,-1.0,2021-02-18 15:11:50.382,test
3252,3252,-1.0,-1.0,2021-02-18 15:12:20.382,test
3253,3253,-1.0,-1.0,2021-02-18 15:12:50.382,test
3254,3254,-1.0,-1.0,2021-02-18 15:13:20.382,test
3255,3255,-1.0,-1.0,2021-02-18 15:13:50.382,test
3256,3256,-1.0,-1.0,2021-02-18 15:14:20.382,test
3257,3257,-1.0,-1.0,2021-02-18 15:14:50.382,test
3258,3258,-1.0,-1.0,2021-02-18 15:15:20.382,test
3259,3259,-1.0,-1.0,2021-02-18 15:15:50.382,test
3260,3260,-1.0,-1.0,2021-02-18 15:16:20.382,test
3261,3261,-1.0,-1.0,2021-02-18 15:16:50.382,test
3262,3262,-1.0,-1.0,2021-02-18 15:17:20.382,test
3263,3263,-1.0,-1.0,2021-02-18 15:17:50.382,test
3264,3264,-1.0,-1.0,2021-02-18 15:18:20.382,test
3265,3265,-1.0,-1.0,2021-02-18 15:18:50.382,test
3266,3266,-1.0,-1.0,2021-02-18 15:19:20.382,test
3267,3267,-1.0,-1.0,2021-02-18 15:19:50.382,test
3633,3633,1.0,1.0,2021-02-18 14:00:50.382,test
3634,3634,1.0,1.0,2021-02-18 14:01:20.382,test
3635,3635,1.0,1.0,2021-02-18 14:01:50.382,test
3636,3636,1.0,1.0,2021-02-18 14:02:20.382,test
3637,3637,1.0,1.0,2021-02-18 14:02:50.382,test
3638,3638,1.0,1.0,2021-02-18 14:03:20.382,test
3639,3639,1.0,1.0,2021-02-18 14:03:50.382,test
3640,3640,1.0,1.0,2021-02-18 14:04:20.382,test
3641,3641,1.0,1.0,2021-02-18 14:04:50.382,test
3642,3642,1.0,1.0,2021-02-18 14:05:20.382,test
3643,3643,1.0,1.0,2021-02-18 14:05:50.382,test
3644,3644,1.0,1.0,2021-02-18 14:06:20.382,test
3645,3645,1.0,1.0,2021-02-18 14:06:50.382,test
3646,3646,1.0,1.0,2021-02-18 14:07:20.382,test
3647,3647,1.0,1.0,2021-02-18 14:07:50.382,test
3648,3648,1.0,1.0,2021-02-18 14:08:20.382,test
3649,3649,1.0,1.0,2021-02-18 14:08:50.382,test
3650,3650,1.0,1.0,2021-02-18 14:09:20.382,test
3651,3651,1.0,1.0,2021-02-18 14:09:50.382,test
3652,3652,1.0,1.0,2021-02-18 14:10:20.382,test
3653,3653,1.0,1.0,2021-02-18 14:10:50.382,test
3654,3654,1.0,1.0,2021-02-18 14:11:20.382,test
3655,3655,1.0,1.0,2021-02-18 14:11:50.382,test
3656,3656,1.0,1.0,2021-02-18 14:12:20.382,test
3657,3657,1.0,1.0,2021-02-18 14:12:50.382,test
3658,3658,1.0,1.0,2021-02-18 14:13:20.382,test
3659,3659,1.0,1.0,2021-02-18 14:13:50.382,test
3660,3660,1.0,1.0,2021-02-18 14:14:20.382,test
3661,3661,1.0,1.0,2021-02-18 14:14:50.382,test
3662,3662,1.0,1.0,2021-02-18 14:15:20.382,test
3663,3663,1.0,1.0,2021-02-18 14:15:50.382,test
3664,3664,1.0,1.0,2021-02-18 14:16:20.382,test
3665,3665,1.0,1.0,2021-02-18 14:16:50.382,test
3666,3666,1.0,1.0,2021-02-18 14:17:20.382,test
3667,3667,1.0,1.0,2021-02-18 14:17:50.382,test
3668,3668,1.0,1.0,2021-02-18 14:18:20.382,test
3669,3669,1.0,1.0,2021-02-18 14:18:50.382,test
3670,3670,1.0,1.0,2021-02-18 14:19:20.382,test
3671,3671,1.0,1.0,2021-02-18 14:19:50.382,test
3672,3672,1.0,1.0,2021-02-18 14:20:20.382,test
3673,3673,1.0,1.0,2021-02-18 14:20:50.382,test
3674,3674,1.0,1.0,2021-02-18 14:21:20.382,test
3675,3675,1.0,1.0,2021-02-18 14:21:50.382,test
3676,3676,1.0,1.0,2021-02-18 14:22:20.382,test
3677,3677,1.0,1.0,2021-02-18 14:22:50.382,test
3678,3678,1.0,1.0,2021-02-18 14:23:20.382,test
3679,3679,1.0,1.0,2021-02-18 14:23:50.382,test
3680,3680,1.0,1.0,2021-02-18 14:24:20.382,test
3681,3681,1.0,1.0,2021-02-18 14:24:50.382,test
3682,3682,1.0,1.0,2021-02-18 14:25:20.382,test
3683,3683,1.0,1.0,2021-02-18 14:25:50.382,test
3684,3684,1.0,1.0,2021-02-18 14:26:20.382,test
3685,3685,1.0,1.0,2021-02-18 14:26:50.382,test
3686,3686,1.0,1.0,2021-02-18 14:27:20.382,test
3687,3687,1.0,1.0,2021-02-18 14:27:50.382,test
3688,3688,1.0,1.0,2021-02-18 14:28:20.382,test
3689,3689,1.0,1.0,2021-02-18 14:28:50.382,test
3690,3690,1.0,1.0,2021-02-18 14:29:20.382,test
3691,3691,1.0,1.0,2021-02-18 14:29:50.382,test
3692,3692,1.0,1.0,2021-02-18 14:30:20.382,test
3693,3693,1.0,1.0,2021-02-18 14:30:50.382,test
3694,3694,1.0,1.0,2021-02-18 14:31:20.382,test
3695,3695,1.0,1.0,2021-02-18 14:31:50.382,test
3696,3696,1.0,1.0,2021-02-18 14:32:20.382,test
3697,3697,1.0,1.0,2021-02-18 14:32:50.382,test
3698,3698,1.0,1.0,2021-02-18 14:33:20.382,test
3699,3699,1.0,1.0,2021-02-18 14:33:50.382,test
3700,3700,1.0,1.0,2021-02-18 14:34:20.382,test
3701,3701,1.0,1.0,2021-02-18 14:34:50.382,test
3702,3702,1.0,1.0,2021-02-18 14:35:20.382,test
3703,3703,1.0,1.0,2021-02-18 14:35:50.382,test
3704,3704,1.0,1.0,2021-02-18 14:36:20.382,test
3705,3705,1.0,1.0,2021-02-18 14:36:50.382,test
3706,3706,1.0,1.0,2021-02-18 14:37:20.382,test
3707,3707,1.0,1.0,2021-02-18 14:37:50.382,test
3708,3708,1.0,1.0,2021-02-18 14:38:20.382,test
3709,3709,1.0,1.0,2021-02-18 14:38:50.382,test
3710,3710,1.0,1.0,2021-02-18 14:39:20.382,test
3711,3711,1.0,1.0,2021-02-18 14:39:50.382,test
3712,3712,1.0,1.0,2021-02-18 14:40:20.382,test
3713,3713,1.0,1.0,2021-02-18 14:40:50.382,test
3714,3714,1.0,1.0,2021-02-18 14:41:20.382,test
3715,3715,1.0,1.0,2021-02-18 14:41:50.382,test
3716,3716,1.0,1.0,2021-02-18 14:42:20.382,test
3717,3717,1.0,1.0,2021-02-18 14:42:50.382,test
3718,3718,1.0,1.0,2021-02-18 14:43:20.382,test
3719,3719,1.0,1.0,2021-02-18 14:43:50.382,test
3720,3720,1.0,1.0,2021-02-18 14:44:20.382,test
3721,3721,1.0,1.0,2021-02-18 14:44:50.382,test
3722,3722,1.0,1.0,2021-02-18 14:45:20.382,test
3723,3723,1.0,1.0,2021-02-18 14:45:50.382,test
3724,3724,1.0,1.0,2021-02-18 14:46:20.382,test
3725,3725,1.0,1.0,2021-02-18 14:46:50.382,test
3726,3726,1.0,1.0,2021-02-18 14:47:20.382,test
3727,3727,1.0,1.0,2021-02-18 14:47:50.382,test
3728,3728,1.0,1.0,2021-02-18 14:48:20.382,test
3729,3729,1.0,1.0,2021-02-18 14:48:50.382,test
3730,3730,1.0,1.0,2021-02-18 14:49:20.382,test
3731,3731,1.0,1.0,2021-02-18 14:49:50.382,test
3732,3732,1.0,1.0,2021-02-18 14:50:20.382,test
3733,3733,1.0,1.0,2021-02-18 14:50:50.382,test
3734,3734,1.0,1.0,2021-02-18 14:51:20.382,test
3735,3735,1.0,1.0,2021-02-18 14:51:50.382,test
3736,3736,1.0,1.0,2021-02-18 14:52:20.382,test
3737,3737,1.0,1.0,2021-02-18 14:52:50.382,test
3738,3738,1.0,1.0,2021-02-18 14:53:20.382,test
3739,3739,1.0,1.0,2021-02-18 14:53:50.382,test
3740,3740,1.0,1.0,2021-02-18 14:54:20.382,test
3741,3741,1.0,1.0,2021-02-18 14:54:50.382,test
3742,3742,1.0,1.0,2021-02-18 14:55:20.382,test
3743,3743,1.0,1.0,2021-02-18 14:55:50.382,test
3744,3744,1.0,1.0,2021-02-18 14:56:20.382,test
3745,3745,1.0,1.0,2021-02-18 14:56:50.382,test
3746,3746,1.0,1.0,2021-02-18 14:57:20.382,test
3747,3747,1.0,1.0,2021-02-18 14:57:50.382,test
3748,3748,1.0,1.0,2021-02-18 14:58:20.382,test
3749,3749,1.0,1.0,2021-02-18 14:58:50.382,test
3750,3750,1.0,1.0,2021-02-18 14:59:20.382,test
3751,3751,1.0,1.0,2021-02-18 14:59:50.382,test
3752,3752,1.0,1.0,2021-02-18 15:00:20.382,test
3753,3753,1.0,1.0,2021-02-18 15:00:50.382,test
3754,3754,1.0,1.0,2021-02-18 15:01:20.382,test
3755,3755,1.0,1.0,2021-02-18 15:01:50.382,test
3756,3756,1.0,1.0,2021-02-18 15:02:20.382,test
3757,3757,1.0,1.0,2021-02-18 15:02:50.382,test
3758,3758,1.0,1.0,2021-02-18 15:03:20.382,test
3759,3759,1.0,1.0,2021-02-18 15:03:50.382,test
3760,3760,1.0,1.0,2021-02-18 15:04:20.382,test
3761,3761,1.0,1.0,2021-02-18 15:04:50.382,test
3762,3762,1.0,1.0,2021-02-18 15:05:20.382,test
3763,3763,1.0,1.0,2021-02-18 15:05:50.382,test
3764,3764,1.0,1.0,2021-02-18 15:06:20.382,test
3765,3765,1.0,1.0,2021-02-18 15:06:50.382,test
3766,3766,1.0,1.0,2021-02-18 15:07:20.382,test
3767,3767,1.0,1.0,2021-02-18 15:07:50.382,test
3768,3768,1.0,1.0,2021-02-18 15:08:20.382,test
3769,3769,1.0,1.0,2021-02-18 15:08:50.382,test
3770,3770,1.0,1.0,2021-02-18 15:09:20.382,test
3771,3771,1.0,1.0,2021-02-18 15:09:50.382,test
3772,3772,1.0,1.0,2021-02-18 15:10:20.382,test
3773,3773,1.0,1.0,2021-02-18 15:10:50.382,test
3774,3774,1.0,1.0,2021-02-18 15:11:20.382,test
3775,3775,1.0,1.0,2021-02-18 15:11:50.382,test
3776,3776,1.0,1.0,2021-02-18 15:12:20.382,test
3777,3777,1.0,1.0,2021-02-18 15:12:50.382,test
3778,3778,1.0,1.0,2021-02-18 15:13:20.382,test
3779,3779,1.0,1.0,2021-02-18 15:13:50.382,test
3780,3780,1.0,1.0,2021-02-18 15:14:20.382,test
3781,3781,1.0,1.0,2021-02-18 15:14:50.382,test
3782,3782,1.0,1.0,2021-02-18 15:15:20.382,test
3783,3783,1.0,1.0,2021-02-18 15:15:50.382,test
3784,3784,1.0,1.0,2021-02-18 15:16:20.382,test
3785,3785,1.0,1.0,2021-02-18 15:16:50.382,test
3786,3786,1.0,1.0,2021-02-18 15:17:20.382,test
3787,3787,1.0,1.0,2021-02-18 15:17:50.382,test
3788,3788,1.0,1.0,2021-02-18 15:18:20.382,test
3789,3789,1.0,1.0,2021-02-18 15:18:50.382,test
3790,3790,1.0,1.0,2021-02-18 15:19:20.382,test
3791,3791,1.0,1.0,2021-02-18 15:19:50.382,test
3792,3792,1.0,1.0,2021-02-18 15:20:20.382,test
3793,3793,1.0,1.0,2021-02-18 15:20:50.382,test
3794,3794,1.0,1.0,2021-02-18 15:21:20.382,test
3795,3795,1.0,1.0,2021-02-18 15:21:50.382,test
3796,3796,1.0,1.0,2021-02-18 15:22:20.382,test
3797,3797,1.0,1.0,2021-02-18 15:22:50.382,test
3798,3798,1.0,1.0,2021-02-18 15:23:20.382,test
3799,3799,1.0,1.0,2021-02-18 15:23:50.382,test
3800,3800,1.0,1.0,2021-02-18 15:24:20.382,test
3801,3801,1.0,1.0,2021-02-18 15:24:50.382,test
3802,3802,1.0,1.0,2021-02-18 15:25:20.382,test
3803,3803,1.0,1.0,2021-02-18 15:25:50.382,test
3804,3804,1.0,1.0,2021-02-18 15:26:20.382,test
3805,3805,1.0,1.0,2021-02-18 15:26:50.382,test
3806,3806,1.0,1.0,2021-02-18 15:27:20.382,test
3807,3807,1.0,1.0,2021-02-18 15:27:50.382,test
3808,3808,1.0,1.0,2021-02-18 15:28:20.382,test
3809,3809,1.0,1.0,2021-02-18 15:28:50.382,test
3810,3810,1.0,1.0,2021-02-18 15:29:20.382,test
3811,3811,1.0,1.0,2021-02-18 15:29:50.382,test
3812,3812,1.0,1.0,2021-02-18 15:30:20.382,test
