,prediction,real,time,split
0,18.56210708618164,37.0,2020-11-27 12:59:00,train
1,14.478087425231934,10.0,2020-11-27 12:59:30,train
2,14.499346733093262,2.0,2020-11-27 13:00:00,train
3,17.04496955871582,23.0,2020-11-27 13:00:30,train
4,27.908384323120117,36.0,2020-11-27 13:01:00,train
5,36.45306396484375,16.0,2020-11-27 13:01:30,train
6,47.12350082397461,41.0,2020-11-27 13:02:00,train
7,73.23529815673828,75.0,2020-11-27 13:02:30,train
8,90.34439849853516,110.0,2020-11-27 13:03:00,train
9,135.14517211914062,142.0,2020-11-27 13:03:30,train
10,137.14700317382812,169.0,2020-11-27 13:04:00,train
11,135.1404571533203,27.0,2020-11-27 13:04:30,train
12,108.88555908203125,116.0,2020-11-27 13:05:00,train
13,95.62357330322266,83.0,2020-11-27 13:05:30,train
14,71.00672912597656,71.0,2020-11-27 13:06:00,train
15,57.37559127807617,66.0,2020-11-27 13:06:30,train
16,45.36726379394531,50.0,2020-11-27 13:07:00,train
17,26.391550064086914,13.0,2020-11-27 13:07:30,train
18,16.603023529052734,8.0,2020-11-27 13:08:00,train
19,15.977763175964355,20.0,2020-11-27 13:08:30,train
20,19.536985397338867,6.0,2020-11-27 13:09:00,train
21,23.208383560180664,30.0,2020-11-27 13:09:30,train
22,30.88027572631836,44.0,2020-11-27 13:10:00,train
23,41.02185821533203,34.0,2020-11-27 13:10:30,train
24,59.61800765991211,18.0,2020-11-27 13:11:00,train
25,83.10708618164062,97.0,2020-11-27 13:11:30,train
26,86.28102111816406,100.0,2020-11-27 13:12:00,train
27,132.74325561523438,134.0,2020-11-27 13:12:30,train
28,128.2477569580078,161.0,2020-11-27 13:13:00,train
29,127.72571563720703,0.0,2020-11-27 13:13:30,train
30,125.39518737792969,144.0,2020-11-27 13:14:00,train
31,100.55353546142578,82.0,2020-11-27 13:14:30,train
32,71.52645874023438,72.0,2020-11-27 13:15:00,train
33,60.44929504394531,55.0,2020-11-27 13:15:30,train
34,49.21884536743164,48.0,2020-11-27 13:16:00,train
35,31.194011688232422,40.0,2020-11-27 13:16:30,train
36,19.596181869506836,0.0,2020-11-27 13:17:00,train
37,18.133121490478516,12.0,2020-11-27 13:17:30,train
38,22.416271209716797,25.0,2020-11-27 13:18:00,train
39,27.438631057739258,36.0,2020-11-27 13:18:30,train
40,34.923255920410156,56.0,2020-11-27 13:19:00,train
41,44.583648681640625,26.0,2020-11-27 13:19:30,train
42,74.52820587158203,57.0,2020-11-27 13:20:00,train
43,121.02178192138672,106.0,2020-11-27 13:20:30,train
44,125.08869171142578,127.0,2020-11-27 13:21:00,train
45,133.93861389160156,157.0,2020-11-27 13:21:30,train
46,132.3922576904297,83.0,2020-11-27 13:22:00,train
47,101.5780258178711,58.0,2020-11-27 13:22:30,train
48,90.5447006225586,101.0,2020-11-27 13:23:00,train
49,80.03890991210938,70.0,2020-11-27 13:23:30,train
50,61.97197341918945,53.0,2020-11-27 13:24:00,train
51,49.61665725708008,43.0,2020-11-27 13:24:30,train
52,32.51044845581055,37.0,2020-11-27 13:25:00,train
53,22.79669952392578,3.0,2020-11-27 13:25:30,train
54,22.554975509643555,13.0,2020-11-27 13:26:00,train
55,18.1325740814209,6.0,2020-11-27 13:26:30,train
56,23.418535232543945,21.0,2020-11-27 13:27:00,train
57,29.501781463623047,50.0,2020-11-27 13:27:30,train
58,36.62963104248047,51.0,2020-11-27 13:28:00,train
59,51.75365447998047,0.0,2020-11-27 13:28:30,train
60,74.80635070800781,84.0,2020-11-27 13:29:00,train
61,109.56785583496094,102.0,2020-11-27 13:29:30,train
62,137.87435913085938,148.0,2020-11-27 13:30:00,train
63,141.8490447998047,169.0,2020-11-27 13:30:30,train
64,136.11767578125,0.0,2020-11-27 13:31:00,train
65,106.93853759765625,145.0,2020-11-27 13:31:30,train
66,90.51229095458984,90.0,2020-11-27 13:32:00,train
67,80.22164154052734,74.0,2020-11-27 13:32:30,train
68,62.76985168457031,28.0,2020-11-27 13:33:00,train
69,46.10068130493164,22.0,2020-11-27 13:33:30,train
70,34.789432525634766,40.0,2020-11-27 13:34:00,train
71,24.925235748291016,22.0,2020-11-27 13:34:30,train
72,15.401920318603516,15.0,2020-11-27 13:35:00,train
73,13.515630722045898,8.0,2020-11-27 13:35:30,train
74,18.147491455078125,8.0,2020-11-27 13:36:00,train
75,30.115982055664062,2.0,2020-11-27 13:36:30,train
76,42.42914962768555,49.0,2020-11-27 13:37:00,train
77,62.266883850097656,60.0,2020-11-27 13:37:30,train
78,74.06926727294922,80.0,2020-11-27 13:38:00,train
79,104.4539794921875,104.0,2020-11-27 13:38:30,train
80,138.24571228027344,116.0,2020-11-27 13:39:00,train
81,147.9552459716797,44.0,2020-11-27 13:39:30,train
82,144.56341552734375,180.0,2020-11-27 13:40:00,train
83,129.8856658935547,139.0,2020-11-27 13:40:30,train
84,105.14435577392578,121.0,2020-11-27 13:41:00,train
85,88.47042083740234,72.0,2020-11-27 13:41:30,train
86,62.62970733642578,15.0,2020-11-27 13:42:00,train
87,48.70582580566406,48.0,2020-11-27 13:42:30,train
88,39.15806579589844,44.0,2020-11-27 13:43:00,train
89,27.49357795715332,29.0,2020-11-27 13:43:30,train
90,16.33355140686035,20.0,2020-11-27 13:44:00,train
91,11.867572784423828,10.0,2020-11-27 13:44:30,train
92,13.27172565460205,0.0,2020-11-27 13:45:00,train
93,19.888866424560547,13.0,2020-11-27 13:45:30,train
94,46.451210021972656,43.0,2020-11-27 13:46:00,train
95,60.41962814331055,50.0,2020-11-27 13:46:30,train
96,72.15695190429688,72.0,2020-11-27 13:47:00,train
97,95.703857421875,109.0,2020-11-27 13:47:30,train
98,127.47261810302734,0.0,2020-11-27 13:48:00,train
99,145.07144165039062,161.0,2020-11-27 13:48:30,train
100,142.5386962890625,159.0,2020-11-27 13:49:00,train
101,142.51451110839844,139.0,2020-11-27 13:49:30,train
102,113.60236358642578,0.0,2020-11-27 13:50:00,train
103,99.38670349121094,98.0,2020-11-27 13:50:30,train
104,76.71454620361328,73.0,2020-11-27 13:51:00,train
105,57.08882141113281,51.0,2020-11-27 13:51:30,train
106,42.19747543334961,44.0,2020-11-27 13:52:00,train
107,29.30208969116211,35.0,2020-11-27 13:52:30,train
108,17.733417510986328,0.0,2020-11-27 13:53:00,train
109,13.468484878540039,18.0,2020-11-27 13:53:30,train
110,15.549097061157227,7.0,2020-11-27 13:54:00,train
111,22.661691665649414,13.0,2020-11-27 13:54:30,train
112,43.289222717285156,48.0,2020-11-27 13:55:00,train
113,59.680702209472656,58.0,2020-11-27 13:55:30,train
114,77.90513610839844,0.0,2020-11-27 13:56:00,train
115,107.03538513183594,84.0,2020-11-27 13:56:30,train
116,98.6252670288086,110.0,2020-11-27 13:57:00,train
117,137.19216918945312,121.0,2020-11-27 13:57:30,train
118,146.80181884765625,172.0,2020-11-27 13:58:00,train
119,145.393310546875,141.0,2020-11-27 13:58:30,train
120,115.90702056884766,0.0,2020-11-27 13:59:00,train
121,101.6388931274414,104.0,2020-11-27 13:59:30,train
122,83.9471435546875,78.0,2020-11-27 14:00:00,train
123,60.36490249633789,65.0,2020-11-27 14:00:30,train
124,47.042259216308594,46.0,2020-11-27 14:01:00,train
125,30.879863739013672,25.0,2020-11-27 14:01:30,train
126,18.35639762878418,19.0,2020-11-27 14:02:00,train
127,11.561613082885742,0.0,2020-11-27 14:02:30,train
128,10.277203559875488,4.0,2020-11-27 14:03:00,train
129,19.692033767700195,20.0,2020-11-27 14:03:30,train
130,32.576820373535156,36.0,2020-11-27 14:04:00,train
131,56.20729064941406,58.0,2020-11-27 14:04:30,train
132,65.82138061523438,97.0,2020-11-27 14:05:00,train
133,85.69393920898438,78.0,2020-11-27 14:05:30,train
134,133.30569458007812,23.0,2020-11-27 14:06:00,train
135,145.1872100830078,145.0,2020-11-27 14:06:30,train
136,135.12612915039062,164.0,2020-11-27 14:07:00,train
137,135.5044708251953,141.0,2020-11-27 14:07:30,train
138,108.51302337646484,0.0,2020-11-27 14:08:00,train
139,97.94561004638672,84.0,2020-11-27 14:08:30,train
140,76.68125915527344,76.0,2020-11-27 14:09:00,train
141,60.84916305541992,65.0,2020-11-27 14:09:30,train
142,43.266632080078125,49.0,2020-11-27 14:10:00,train
143,27.12895393371582,36.0,2020-11-27 14:10:30,train
144,10.601428031921387,16.0,2020-11-27 14:11:00,train
145,8.768771171569824,1.0,2020-11-27 14:11:30,train
146,10.70792293548584,1.0,2020-11-27 14:12:00,train
147,24.183013916015625,29.0,2020-11-27 14:12:30,train
148,45.74528121948242,46.0,2020-11-27 14:13:00,train
149,60.61581039428711,55.0,2020-11-27 14:13:30,train
150,71.2420654296875,66.0,2020-11-27 14:14:00,train
151,87.79338836669922,6.0,2020-11-27 14:14:30,val
152,115.9378433227539,94.0,2020-11-27 14:15:00,val
153,110.0303955078125,160.0,2020-11-27 14:15:30,val
154,140.59837341308594,176.0,2020-11-27 14:16:00,val
155,135.6781005859375,145.0,2020-11-27 14:16:30,val
156,114.12686920166016,0.0,2020-11-27 14:17:00,val
157,101.91741943359375,112.0,2020-11-27 14:17:30,val
158,86.49114227294922,79.0,2020-11-27 14:18:00,val
159,62.418739318847656,59.0,2020-11-27 14:18:30,val
160,48.04378128051758,40.0,2020-11-27 14:19:00,val
161,36.23164749145508,3.0,2020-11-27 14:19:30,val
162,16.852619171142578,30.0,2020-11-27 14:20:00,val
163,10.579190254211426,19.0,2020-11-27 14:20:30,val
164,15.736335754394531,6.0,2020-11-27 14:21:00,val
165,19.28615951538086,13.0,2020-11-27 14:21:30,val
166,28.63897132873535,35.0,2020-11-27 14:22:00,val
167,40.799537658691406,5.0,2020-11-27 14:22:30,val
168,63.75179672241211,50.0,2020-11-27 14:23:00,val
169,69.08968353271484,63.0,2020-11-27 14:23:30,val
170,94.62095642089844,115.0,2020-11-27 14:24:00,val
171,116.61871337890625,160.0,2020-11-27 14:24:30,val
172,143.91012573242188,147.0,2020-11-27 14:25:00,val
173,128.89784240722656,32.0,2020-11-27 14:25:30,val
174,114.96723175048828,146.0,2020-11-27 14:26:00,val
175,105.15876007080078,101.0,2020-11-27 14:26:30,val
176,90.064453125,73.0,2020-11-27 14:27:00,val
177,60.70663070678711,59.0,2020-11-27 14:27:30,val
178,47.38859176635742,30.0,2020-11-27 14:28:00,val
179,27.408126831054688,17.0,2020-11-27 14:28:30,val
180,15.48817253112793,28.0,2020-11-27 14:29:00,val
181,10.119636535644531,13.0,2020-11-27 14:29:30,val
182,10.171473503112793,22.0,2020-11-27 14:30:00,val
183,20.48453140258789,47.0,2020-11-27 14:30:30,val
184,32.372161865234375,58.0,2020-11-27 14:31:00,val
185,54.009925842285156,0.0,2020-11-27 14:31:30,val
186,62.40279006958008,62.0,2020-11-27 14:32:00,val
187,77.66546630859375,119.0,2020-11-27 14:32:30,val
188,100.49830627441406,131.0,2020-11-27 14:33:00,val
189,140.28526306152344,155.0,2020-11-27 14:33:30,val
190,114.98672485351562,0.0,2020-11-27 14:34:00,val
191,106.21501922607422,136.0,2020-11-27 14:34:30,val
192,92.98490142822266,123.0,2020-11-27 14:35:00,val
193,78.69751739501953,7.0,2020-11-27 14:35:30,val
194,57.02663040161133,69.0,2020-11-27 14:36:00,test
195,52.0263671875,67.0,2020-11-27 14:36:30,test
196,35.291587829589844,43.0,2020-11-27 14:37:00,test
197,23.61211395263672,31.0,2020-11-27 14:37:30,test
198,9.425592422485352,10.0,2020-11-27 14:38:00,test
199,8.700872421264648,0.0,2020-11-27 14:38:30,test
200,11.675946235656738,4.0,2020-11-27 14:39:00,test
201,26.14350700378418,28.0,2020-11-27 14:39:30,test
202,41.94468307495117,31.0,2020-11-27 14:40:00,test
203,43.72364044189453,56.0,2020-11-27 14:40:30,test
204,65.20150756835938,97.0,2020-11-27 14:41:00,test
205,85.93045806884766,0.0,2020-11-27 14:41:30,test
206,130.07504272460938,111.0,2020-11-27 14:42:00,test
207,135.03285217285156,123.0,2020-11-27 14:42:30,test
208,138.55636596679688,174.0,2020-11-27 14:43:00,test
209,131.65220642089844,134.0,2020-11-27 14:43:30,test
210,109.8792495727539,20.0,2020-11-27 14:44:00,test
211,100.6885757446289,103.0,2020-11-27 14:44:30,test
212,77.30970001220703,71.0,2020-11-27 14:45:00,test
213,54.0621452331543,69.0,2020-11-27 14:45:30,test
214,42.526878356933594,42.0,2020-11-27 14:46:00,test
215,24.10101890563965,32.0,2020-11-27 14:46:30,test
