,Unnamed: 0,time,prediction,real,step
3810,3810,2021-01-22 12:26:55.480,6195.6533,6196.0,0
3820,3820,2021-01-22 12:27:25.480,6165.6475,6166.0,0
3830,3830,2021-01-22 12:27:55.480,6135.641,6136.0,0
3840,3840,2021-01-22 12:28:25.480,6105.635,6106.0,0
3850,3850,2021-01-22 12:28:55.480,6075.6284,6076.0,0
3860,3860,2021-01-22 12:29:25.480,6045.6226,6046.0,0
3870,3870,2021-01-22 12:29:55.480,6015.6157,6016.0,0
3880,3880,2021-01-22 12:30:25.480,5985.61,5986.0,0
3890,3890,2021-01-22 12:30:55.480,5955.604,5956.0,0
3900,3900,2021-01-22 12:31:25.480,5925.5977,5926.0,0
3910,3910,2021-01-22 12:31:55.480,5895.590999999999,5896.0,0
3920,3920,2021-01-22 12:32:25.480,5865.585,5866.0,0
3930,3930,2021-01-22 12:32:55.480,5835.5786,5836.0,0
3940,3940,2021-01-22 12:33:25.480,5805.5723,5806.0,0
3950,3950,2021-01-22 12:33:55.480,5775.566,5776.0,0
3960,3960,2021-01-22 12:34:25.480,5745.5596,5746.0,0
3970,3970,2021-01-22 12:34:55.480,5715.5537,5716.0,0
3980,3980,2021-01-22 12:35:25.480,5685.5474,5686.0,0
3990,3990,2021-01-22 12:35:55.480,5655.5405,5656.0,0
4000,4000,2021-01-22 12:36:25.480,5625.5347,5626.0,0
4010,4010,2021-01-22 12:36:55.480,5595.5283,5596.0,0
4020,4020,2021-01-22 12:37:25.480,5565.522,5566.0,0
4030,4030,2021-01-22 12:37:55.480,5535.5156,5536.0,0
4040,4040,2021-01-22 12:38:25.480,5505.5093,5506.0,0
4050,4050,2021-01-22 12:38:55.480,5475.503000000001,5476.0,0
4060,4060,2021-01-22 12:39:25.480,5445.4966,5446.0,0
4070,4070,2021-01-22 12:39:55.480,5415.4907,5416.0,0
4080,4080,2021-01-22 12:40:25.480,5385.4844,5386.0,0
4090,4090,2021-01-22 12:40:55.480,5355.478,5356.0,0
4100,4100,2021-01-22 12:41:25.480,5325.472,5326.0,0
4110,4110,2021-01-22 12:41:55.480,5295.4653,5296.0,0
4120,4120,2021-01-22 12:42:25.480,5265.4595,5266.0,0
4130,4130,2021-01-22 12:42:55.480,5235.4529999999995,5236.0,0
4140,4140,2021-01-22 12:43:25.480,5205.447,5206.0,0
4150,4150,2021-01-22 12:43:55.480,5175.441,5176.0,0
4160,4160,2021-01-22 12:44:25.480,5145.4346,5146.0,0
4170,4170,2021-01-22 12:44:55.480,5115.428,5116.0,0
4180,4180,2021-01-22 12:45:25.480,5085.4224,5086.0,0
4190,4190,2021-01-22 12:45:55.480,5055.416,5056.0,0
4200,4200,2021-01-22 12:46:25.480,5025.41,5026.0,0
4210,4210,2021-01-22 12:46:55.480,4995.4043,4996.0,0
4220,4220,2021-01-22 12:47:25.480,4965.398,4966.0,0
4230,4230,2021-01-22 12:47:55.480,4935.392,4936.0,0
4240,4240,2021-01-22 12:48:25.480,4905.3857,4906.0,0
4250,4250,2021-01-22 12:48:55.480,4875.38,4876.0,0
4260,4260,2021-01-22 12:49:25.480,4845.3735,4846.0,0
4270,4270,2021-01-22 12:49:55.480,4815.3679999999995,4816.0,0
4280,4280,2021-01-22 12:50:25.480,4785.362,4786.0,0
4290,4290,2021-01-22 12:50:55.480,4755.356,4756.0,0
4300,4300,2021-01-22 12:51:25.480,4725.35,4726.0,0
4310,4310,2021-01-22 12:51:55.480,4695.344,4696.0,0
4320,4320,2021-01-22 12:52:25.480,4665.3384,4666.0,0
4330,4330,2021-01-22 12:52:55.480,4635.333,4636.0,0
4340,4340,2021-01-22 12:53:25.480,4605.327,4606.0,0
4350,4350,2021-01-22 12:53:55.480,4575.3213,4576.0,0
4360,4360,2021-01-22 12:54:25.480,4545.3154,4546.0,0
4370,4370,2021-01-22 12:54:55.480,4515.31,4516.0,0
4380,4380,2021-01-22 12:55:25.480,4485.304,4486.0,0
4390,4390,2021-01-22 12:55:55.480,4455.299,4456.0,0
4400,4400,2021-01-22 12:56:25.480,4425.293,4426.0,0
4410,4410,2021-01-22 12:56:55.480,4395.2876,4396.0,0
4420,4420,2021-01-22 12:57:25.480,4365.282,4366.0,0
4430,4430,2021-01-22 12:57:55.480,4335.277,4336.0,0
4440,4440,2021-01-22 12:58:25.480,4305.2715,4306.0,0
4450,4450,2021-01-22 12:58:55.480,4275.2666,4276.0,0
4460,4460,2021-01-22 12:59:25.480,4245.2607,4246.0,0
4470,4470,2021-01-22 12:59:55.480,4215.255999999999,4216.0,0
4480,4480,2021-01-22 13:00:25.480,4185.2505,4186.0,0
4490,4490,2021-01-22 13:00:55.480,4155.2456,4156.0,0
4500,4500,2021-01-22 13:01:25.480,4125.2407,4126.0,0
4510,4510,2021-01-22 13:01:55.480,4095.2356,4096.0,0
4520,4520,2021-01-22 13:02:25.480,4065.2307,4066.0,0
4530,4530,2021-01-22 13:02:55.480,4035.2258,4036.0,0
4540,4540,2021-01-22 13:03:25.480,4005.2212,4006.0,0
4550,4550,2021-01-22 13:03:55.480,3975.2163,3976.0,0
4560,4560,2021-01-22 13:04:25.480,3945.212,3946.0,0
4570,4570,2021-01-22 13:04:55.480,3915.2073,3916.0,0
4580,4580,2021-01-22 13:05:25.480,3885.203,3886.0,0
4590,4590,2021-01-22 13:05:55.480,3855.1982,3856.0,0
4600,4600,2021-01-22 13:06:25.480,3825.1940000000004,3826.0,0
4610,4610,2021-01-22 13:06:55.480,3795.19,3796.0,0
4620,4620,2021-01-22 13:07:25.480,3765.1855,3766.0,0
4630,4630,2021-01-22 13:07:55.480,3735.1816,3736.0,0
4640,4640,2021-01-22 13:08:25.480,3705.1775,3706.0,0
4650,4650,2021-01-22 13:08:55.480,3675.1736,3676.0,0
4660,4660,2021-01-22 13:09:25.480,3645.1697,3646.0,0
4670,4670,2021-01-22 13:09:55.480,3615.1658,3616.0,0
4680,4680,2021-01-22 13:10:25.480,3585.1624,3586.0,0
4690,4690,2021-01-22 13:10:55.480,3555.1587,3556.0,0
4700,4700,2021-01-22 13:11:25.480,3525.155,3526.0,0
4710,4710,2021-01-22 13:11:55.480,3495.1516,3496.0,0
4720,4720,2021-01-22 13:12:25.480,3465.1484,3466.0,0
4730,4730,2021-01-22 13:12:55.480,3435.1453,3436.0,0
4740,4740,2021-01-22 13:13:25.480,3405.1420000000003,3406.0,0
4750,4750,2021-01-22 13:13:55.480,3375.139,3376.0,0
4760,4760,2021-01-22 13:14:25.480,3345.136,3346.0,0
4770,4770,2021-01-22 13:14:55.480,3315.1333,3316.0,0
4780,4780,2021-01-22 13:15:25.480,3285.1306,3286.0,0
4790,4790,2021-01-22 13:15:55.480,3255.1279999999997,3256.0,0
4800,4800,2021-01-22 13:16:25.480,3225.1255,3226.0,0
4810,4810,2021-01-22 13:16:55.480,3195.123,3196.0,0
4820,4820,2021-01-22 13:17:25.480,3165.1206,3166.0,0
4830,4830,2021-01-22 13:17:55.480,3135.1187,3136.0,0
4840,4840,2021-01-22 13:18:25.480,3105.1165,3106.0,0
4850,4850,2021-01-22 13:18:55.480,3075.1145,3076.0,0
4860,4860,2021-01-22 13:19:25.480,3045.1125,3046.0,0
4870,4870,2021-01-22 13:19:55.480,3015.1108,3016.0,0
4880,4880,2021-01-22 13:20:25.480,2985.1091,2986.0,0
4890,4890,2021-01-22 13:20:55.480,2955.1077,2956.0,0
4900,4900,2021-01-22 13:21:25.480,2925.1059999999998,2926.0,0
4910,4910,2021-01-22 13:21:55.480,2895.1047,2896.0,0
4920,4920,2021-01-22 13:22:25.480,2865.1035,2866.0,0
4930,4930,2021-01-22 13:22:55.480,2835.1025,2836.0,0
4940,4940,2021-01-22 13:23:25.480,2805.1016,2806.0,0
4950,4950,2021-01-22 13:23:55.480,2775.1003,2776.0,0
4960,4960,2021-01-22 13:24:25.480,2745.0996,2746.0,0
4970,4970,2021-01-22 13:24:55.480,2715.0989,2716.0,0
4980,4980,2021-01-22 13:25:25.480,2685.0981,2686.0,0
4990,4990,2021-01-22 13:25:55.480,2655.0977,2656.0,0
5000,5000,2021-01-22 13:26:25.480,2625.0972,2626.0,0
5010,5010,2021-01-22 13:26:55.480,2595.097,2596.0,0
5020,5020,2021-01-22 13:27:25.480,2565.0967,2566.0,0
5030,5030,2021-01-22 13:27:55.480,2535.0964,2536.0,0
5040,5040,2021-01-22 13:28:25.480,2505.0964,2506.0,0
5050,5050,2021-01-22 13:28:55.480,2475.0964,2476.0,0
5060,5060,2021-01-22 13:29:25.480,2445.0962,2446.0,0
5070,5070,2021-01-22 13:29:55.480,2415.0964,2416.0,0
5080,5080,2021-01-22 13:30:25.480,2385.0964,2386.0,0
5090,5090,2021-01-22 13:30:55.480,2355.0967,2356.0,0
5100,5100,2021-01-22 13:31:25.480,2325.097,2326.0,0
5110,5110,2021-01-22 13:31:55.480,2295.0972,2296.0,0
5120,5120,2021-01-22 13:32:25.480,2265.0974,2266.0,0
5130,5130,2021-01-22 13:32:55.480,2235.098,2236.0,0
5140,5140,2021-01-22 13:33:25.480,2205.0981,2206.0,0
5150,5150,2021-01-22 13:33:55.480,2175.0984,2176.0,0
5160,5160,2021-01-22 13:34:25.480,2145.0989,2146.0,0
5170,5170,2021-01-22 13:34:55.480,2115.099,2116.0,0
5180,5180,2021-01-22 13:35:25.480,2085.0994,2086.0,0
5190,5190,2021-01-22 13:35:55.480,2055.0996,2056.0,0
5200,5200,2021-01-22 13:36:25.480,2025.0999,2026.0,0
5210,5210,2021-01-22 13:36:55.480,1995.1001,1996.0,0
5220,5220,2021-01-22 13:37:25.480,1965.1002,1966.0,0
5230,5230,2021-01-22 13:37:55.480,1935.1002,1936.0,0
5240,5240,2021-01-22 13:38:25.480,1905.1001,1906.0,0
5250,5250,2021-01-22 13:38:55.480,1875.1,1876.0,0
5260,5260,2021-01-22 13:39:25.480,1845.0997,1846.0,0
5270,5270,2021-01-22 13:39:55.480,1815.0992,1816.0,0
5280,5280,2021-01-22 13:40:25.480,1785.0986,1786.0,0
5290,5290,2021-01-22 13:40:55.480,1755.098,1756.0,0
5300,5300,2021-01-22 13:41:25.480,1725.0970000000002,1726.0,0
5310,5310,2021-01-22 13:41:55.480,1695.096,1696.0,0
5320,5320,2021-01-22 13:42:25.480,1665.0946,1666.0,0
5330,5330,2021-01-22 13:42:55.480,1635.0931,1636.0,0
5340,5340,2021-01-22 13:43:25.480,1605.0913,1606.0,0
5350,5350,2021-01-22 13:43:55.480,1575.0895,1576.0,0
5360,5360,2021-01-22 13:44:25.480,1545.0874,1546.0,0
5370,5370,2021-01-22 13:44:55.480,1515.0847,1516.0,0
5380,5380,2021-01-22 13:45:25.480,1485.0822,1486.0,0
5390,5390,2021-01-22 13:45:55.480,1455.0792,1456.0,0
5400,5400,2021-01-22 13:46:25.480,1425.0759,1426.0,0
5410,5410,2021-01-22 13:46:55.480,1395.0725,1396.0,0
5420,5420,2021-01-22 13:47:25.480,1365.0687,1366.0,0
5430,5430,2021-01-22 13:47:55.480,1335.0646,1336.0,0
5440,5440,2021-01-22 13:48:25.480,1305.0602,1306.0,0
5450,5450,2021-01-22 13:48:55.480,1275.0555,1276.0,0
5460,5460,2021-01-22 13:49:25.480,1245.0508,1246.0,0
5470,5470,2021-01-22 13:49:55.480,1215.0459,1216.0,0
5480,5480,2021-01-22 13:50:25.480,1185.0406,1186.0,0
5490,5490,2021-01-22 13:50:55.480,1155.0352,1156.0,0
5500,5500,2021-01-22 13:51:25.480,1125.0297,1126.0,0
5510,5510,2021-01-22 13:51:55.480,1095.0239,1096.0,0
5520,5520,2021-01-22 13:52:25.480,1065.0182,1066.0,0
5530,5530,2021-01-22 13:52:55.480,1035.0123,1036.0,0
5540,5540,2021-01-22 13:53:25.480,1005.0065,1006.0,0
5550,5550,2021-01-22 13:53:55.480,975.0007,976.0,0
5560,5560,2021-01-22 13:54:25.480,944.995,946.0,0
5570,5570,2021-01-22 13:54:55.480,914.9894400000001,916.0,0
5580,5580,2021-01-22 13:55:25.480,884.9839,886.0,0
5590,5590,2021-01-22 13:55:55.480,854.9786,856.0,0
5600,5600,2021-01-22 13:56:25.480,824.9733,826.0,0
5610,5610,2021-01-22 13:56:55.480,794.9681400000001,796.0,0
5620,5620,2021-01-22 13:57:25.480,764.9631,766.0,0
5630,5630,2021-01-22 13:57:55.480,734.9579,736.0,0
5640,5640,2021-01-22 13:58:25.480,704.95233,706.0,0
5650,5650,2021-01-22 13:58:55.480,674.94617,676.0,0
5660,5660,2021-01-22 13:59:25.480,644.93896,646.0,0
5670,5670,2021-01-22 13:59:55.480,614.93,616.0,0
5680,5680,2021-01-22 14:00:25.480,584.9184,586.0,0
5690,5690,2021-01-22 14:00:55.480,554.90314,556.0,0
5700,5700,2021-01-22 14:01:25.480,524.8826,526.0,0
5710,5710,2021-01-22 14:01:55.480,494.8548,496.0,0
5720,5720,2021-01-22 14:02:25.480,464.81702,466.0,0
5730,5730,2021-01-22 14:02:55.480,434.76575,436.0,0
5740,5740,2021-01-22 14:03:25.480,404.69707999999997,406.0,0
5750,5750,2021-01-22 14:03:55.480,374.60605,376.0,0
5760,5760,2021-01-22 14:04:25.480,344.4875,346.0,0
5770,5770,2021-01-22 14:04:55.480,314.33673,316.0,0
5780,5780,2021-01-22 14:05:25.480,284.15143,286.0,0
5790,5790,2021-01-22 14:05:55.480,253.93282999999997,256.0,0
5800,5800,2021-01-22 14:06:25.480,223.68967999999998,226.0,0
5810,5810,2021-01-22 14:06:55.480,193.44432,196.0,0
5820,5820,2021-01-22 14:07:25.480,163.24475,166.0,0
5830,5830,2021-01-22 14:07:55.480,133.18428,136.0,0
5840,5840,2021-01-22 14:08:25.480,103.40746,106.0,0
5850,5850,2021-01-22 14:08:55.480,76.127655,76.0,0
5860,5860,2021-01-22 14:09:25.480,48.561890000000005,46.0,0
5870,5870,2021-01-22 14:09:55.480,24.056658,16.0,0
5880,5880,2021-01-22 14:10:25.480,5.6241074,14.0,0
5890,5890,2021-01-22 14:10:55.480,2.437434,44.0,0
5900,5900,2021-01-22 14:11:25.480,24.936884,74.0,0
5910,5910,2021-01-22 14:11:55.480,68.19761,104.0,0
5920,5920,2021-01-22 14:12:25.480,114.73706000000001,134.0,0
5930,5930,2021-01-22 14:12:55.480,149.05469,164.0,0
5940,5940,2021-01-22 14:13:25.480,170.04707,194.0,0
5950,5950,2021-01-22 14:13:55.480,187.85574,224.0,0
5960,5960,2021-01-22 14:14:25.480,271.22266,254.0,0
5970,5970,2021-01-22 14:14:55.480,297.01013,284.0,0
5980,5980,2021-01-22 14:15:25.480,308.90265,314.0,0
5990,5990,2021-01-22 14:15:55.480,361.6843,344.0,0
6000,6000,2021-01-22 14:16:25.480,407.91074,374.0,0
6010,6010,2021-01-22 14:16:55.480,418.3248,404.0,0
6020,6020,2021-01-22 14:17:25.480,433.83395,434.0,0
6030,6030,2021-01-22 14:17:55.480,451.3961,464.0,0
6040,6040,2021-01-22 14:18:25.480,492.14032000000003,494.0,0
6050,6050,2021-01-22 14:18:55.480,519.525,524.0,0
6060,6060,2021-01-22 14:19:25.480,539.34454,554.0,0
6070,6070,2021-01-22 14:19:55.480,564.0766,584.0,0
6080,6080,2021-01-22 14:20:25.480,592.1951,614.0,0
6090,6090,2021-01-22 14:20:55.480,624.17737,644.0,0
6100,6100,2021-01-22 14:21:25.480,657.6728,674.0,0
6110,6110,2021-01-22 14:21:55.480,692.57367,704.0,0
6120,6120,2021-01-22 14:22:25.480,727.0017,734.0,0
6130,6130,2021-01-22 14:22:55.480,761.7284,764.0,0
6140,6140,2021-01-22 14:23:25.480,795.2524400000001,794.0,0
6150,6150,2021-01-22 14:23:55.480,828.1665,824.0,0
6160,6160,2021-01-22 14:24:25.480,860.2652,854.0,0
6170,6170,2021-01-22 14:24:55.480,890.1591,884.0,0
6180,6180,2021-01-22 14:25:25.480,917.8324,914.0,0
6190,6190,2021-01-22 14:25:55.480,944.1556,944.0,0
6200,6200,2021-01-22 14:26:25.480,970.23376,974.0,0
6210,6210,2021-01-22 14:26:55.480,998.7538,1004.0,0
6220,6220,2021-01-22 14:27:25.480,1038.632,1034.0,0
6230,6230,2021-01-22 14:27:55.480,1067.8062,1064.0,0
6240,6240,2021-01-22 14:28:25.480,1097.2002,1094.0,0
6250,6250,2021-01-22 14:28:55.480,1126.7081,1124.0,0
6260,6260,2021-01-22 14:29:25.480,1156.309,1154.0,0
6270,6270,2021-01-22 14:29:55.480,1185.9843,1184.0,0
6280,6280,2021-01-22 14:30:25.480,1215.7195,1214.0,0
6290,6290,2021-01-22 14:30:55.480,1245.5026,1244.0,0
6300,6300,2021-01-22 14:31:25.480,1275.3245,1274.0,0
6310,6310,2021-01-22 14:31:55.480,1305.1777,1304.0,0
6320,6320,2021-01-22 14:32:25.480,1335.0563,1334.0,0
6330,6330,2021-01-22 14:32:55.480,1364.9556,1364.0,0
6340,6340,2021-01-22 14:33:25.480,1394.8717,1394.0,0
6350,6350,2021-01-22 14:33:55.480,1424.8018,1424.0,0
6360,6360,2021-01-22 14:34:25.480,1454.7433,1454.0,0
6370,6370,2021-01-22 14:34:55.480,1484.6945,1484.0,0
6380,6380,2021-01-22 14:35:25.480,1514.6532,1514.0,0
6390,6390,2021-01-22 14:35:55.480,1544.6188,1544.0,0
6400,6400,2021-01-22 14:36:25.480,1574.5895,1574.0,0
6410,6410,2021-01-22 14:36:55.480,1604.5651,1604.0,0
6420,6420,2021-01-22 14:37:25.480,1634.5443,1634.0,0
6430,6430,2021-01-22 14:37:55.480,1664.5269,1664.0,0
6440,6440,2021-01-22 14:38:25.480,1694.5123,1694.0,0
6450,6450,2021-01-22 14:38:55.480,1724.4996,1724.0,0
6460,6460,2021-01-22 14:39:25.480,1754.4891,1754.0,0
6470,6470,2021-01-22 14:39:55.480,1784.4805,1784.0,0
6480,6480,2021-01-22 14:40:25.480,1814.473,1814.0,0
6490,6490,2021-01-22 14:40:55.480,1844.4669,1844.0,0
6500,6500,2021-01-22 14:41:25.480,1874.4613,1874.0,0
6510,6510,2021-01-22 14:41:55.480,1904.457,1904.0,0
6520,6520,2021-01-22 14:42:25.480,1934.4536,1934.0,0
6530,6530,2021-01-22 14:42:55.480,1964.4504,1964.0,0
6540,6540,2021-01-22 14:43:25.480,1994.4479999999999,1994.0,0
6550,6550,2021-01-22 14:43:55.480,2024.4459,2024.0,0
6560,6560,2021-01-22 14:44:25.480,2054.4443,2054.0,0
6570,6570,2021-01-22 14:44:55.480,2084.4429999999998,2084.0,0
6580,6580,2021-01-22 14:45:25.480,2114.4421,2114.0,0
6590,6590,2021-01-22 14:45:55.480,2144.4412,2144.0,0
6600,6600,2021-01-22 14:46:25.480,2174.4407,2174.0,0
6610,6610,2021-01-22 14:46:55.480,2204.4402,2204.0,0
6620,6620,2021-01-22 14:47:25.480,2234.4397,2234.0,0
6630,6630,2021-01-22 14:47:55.480,2264.4397,2264.0,0
6640,6640,2021-01-22 14:48:25.480,2294.4397,2294.0,0
6650,6650,2021-01-22 14:48:55.480,2324.4397,2324.0,0
6660,6660,2021-01-22 14:49:25.480,2354.44,2354.0,0
6670,6670,2021-01-22 14:49:55.480,2384.44,2384.0,0
6680,6680,2021-01-22 14:50:25.480,2414.4402,2414.0,0
6690,6690,2021-01-22 14:50:55.480,2444.4404,2444.0,0
6700,6700,2021-01-22 14:51:25.480,2474.4407,2474.0,0
6710,6710,2021-01-22 14:51:55.480,2504.4410000000003,2504.0,0
6720,6720,2021-01-22 14:52:25.480,2534.4412,2534.0,0
6730,6730,2021-01-22 14:52:55.480,2564.4417,2564.0,0
6740,6740,2021-01-22 14:53:25.480,2594.4417,2594.0,0
6750,6750,2021-01-22 14:53:55.480,2624.4421,2624.0,0
6760,6760,2021-01-22 14:54:25.480,2654.4421,2654.0,0
6770,6770,2021-01-22 14:54:55.480,2684.4426,2684.0,0
6780,6780,2021-01-22 14:55:25.480,2714.4429,2714.0,0
6790,6790,2021-01-22 14:55:55.480,2744.4429,2744.0,0
6800,6800,2021-01-22 14:56:25.480,2774.4429,2774.0,0
6810,6810,2021-01-22 14:56:55.480,2804.4429999999998,2804.0,0
6820,6820,2021-01-22 14:57:25.480,2834.4429999999998,2834.0,0
6830,6830,2021-01-22 14:57:55.480,2864.4429999999998,2864.0,0
6840,6840,2021-01-22 14:58:25.480,2894.4429999999998,2894.0,0
6850,6850,2021-01-22 14:58:55.480,2924.4434,2924.0,0
6860,6860,2021-01-22 14:59:25.480,2954.4429999999998,2954.0,0
6870,6870,2021-01-22 14:59:55.480,2984.4429999999998,2984.0,0
6880,6880,2021-01-22 15:00:25.480,3014.4429,3014.0,0
6890,6890,2021-01-22 15:00:55.480,3044.4429,3044.0,0
6900,6900,2021-01-22 15:01:25.480,3074.4426,3074.0,0
6910,6910,2021-01-22 15:01:55.480,3104.4424,3104.0,0
6920,6920,2021-01-22 15:02:25.480,3134.4421,3134.0,0
6930,6930,2021-01-22 15:02:55.480,3164.4417,3164.0,0
6940,6940,2021-01-22 15:03:25.480,3194.4414,3194.0,0
6950,6950,2021-01-22 15:03:55.480,3224.441,3224.0,0
6960,6960,2021-01-22 15:04:25.480,3254.4407,3254.0,0
6970,6970,2021-01-22 15:04:55.480,3284.44,3284.0,0
6980,6980,2021-01-22 15:05:25.480,3314.4395,3314.0,0
6990,6990,2021-01-22 15:05:55.480,3344.4390000000003,3344.0,0
7000,7000,2021-01-22 15:06:25.480,3374.4385,3374.0,0
7010,7010,2021-01-22 15:06:55.480,3404.4375,3404.0,0
7020,7020,2021-01-22 15:07:25.480,3434.437,3434.0,0
7030,7030,2021-01-22 15:07:55.480,3464.4363,3464.0,0
7040,7040,2021-01-22 15:08:25.480,3494.4355,3494.0,0
7050,7050,2021-01-22 15:08:55.480,3524.435,3524.0,0
7060,7060,2021-01-22 15:09:25.480,3554.434,3554.0,0
7070,7070,2021-01-22 15:09:55.480,3584.4336,3584.0,0
7080,7080,2021-01-22 15:10:25.480,3614.4326,3614.0,0
7090,7090,2021-01-22 15:10:55.480,3644.4321,3644.0,0
7100,7100,2021-01-22 15:11:25.480,3674.4312,3674.0,0
7110,7110,2021-01-22 15:11:55.480,3704.4304,3704.0,0
7120,7120,2021-01-22 15:12:25.480,3734.4297,3734.0,0
7130,7130,2021-01-22 15:12:55.480,3764.4285,3764.0,0
7140,7140,2021-01-22 15:13:25.480,3794.4277,3794.0,0
7150,7150,2021-01-22 15:13:55.480,3824.4268,3824.0,0
7160,7160,2021-01-22 15:14:25.480,3854.426,3854.0,0
7170,7170,2021-01-22 15:14:55.480,3884.425,3884.0,0
7180,7180,2021-01-22 15:15:25.480,3914.4246,3914.0,0
7190,7190,2021-01-22 15:15:55.480,3944.4238,3944.0,0
7200,7200,2021-01-22 15:16:25.480,3974.4229,3974.0,0
7210,7210,2021-01-22 15:16:55.480,4004.4219,4004.0,0
7220,7220,2021-01-22 15:17:25.480,4034.4211,4034.0,0
7230,7230,2021-01-22 15:17:55.480,4064.4202,4064.0,0
7240,7240,2021-01-22 15:18:25.480,4094.4197,4094.0,0
7250,7250,2021-01-22 15:18:55.480,4124.419,4124.0,0
7260,7260,2021-01-22 15:19:25.480,4154.4185,4154.0,0
7270,7270,2021-01-22 15:19:55.480,4184.4175,4184.0,0
7280,7280,2021-01-22 15:20:25.480,4214.417,4214.0,0
7290,7290,2021-01-22 15:20:55.480,4244.416,4244.0,0
7300,7300,2021-01-22 15:21:25.480,4274.416,4274.0,0
7310,7310,2021-01-22 15:21:55.480,4304.415,4304.0,0
7320,7320,2021-01-22 15:22:25.480,4334.4146,4334.0,0
7330,7330,2021-01-22 15:22:55.480,4364.414000000001,4364.0,0
7340,7340,2021-01-22 15:23:25.480,4394.4136,4394.0,0
7350,7350,2021-01-22 15:23:55.480,4424.4136,4424.0,0
7360,7360,2021-01-22 15:24:25.480,4454.413,4454.0,0
7370,7370,2021-01-22 15:24:55.480,4484.4126,4484.0,0
7380,7380,2021-01-22 15:25:25.480,4514.4126,4514.0,0
7390,7390,2021-01-22 15:25:55.480,4544.4126,4544.0,0
7400,7400,2021-01-22 15:26:25.480,4574.412,4574.0,0
7410,7410,2021-01-22 15:26:55.480,4604.412,4604.0,0
7420,7420,2021-01-22 15:27:25.480,4634.412,4634.0,0
7430,7430,2021-01-22 15:27:55.480,4664.412,4664.0,0
7440,7440,2021-01-22 15:28:25.480,4694.4126,4694.0,0
7450,7450,2021-01-22 15:28:55.480,4724.412,4724.0,0
7460,7460,2021-01-22 15:29:25.480,4754.4126,4754.0,0
7470,7470,2021-01-22 15:29:55.480,4784.4126,4784.0,0
7480,7480,2021-01-22 15:30:25.480,4814.4136,4814.0,0
7490,7490,2021-01-22 15:30:55.480,4844.4136,4844.0,0
7500,7500,2021-01-22 15:31:25.480,4874.4146,4874.0,0
7510,7510,2021-01-22 15:31:55.480,4904.4146,4904.0,0
7520,7520,2021-01-22 15:32:25.480,4934.415,4934.0,0
7530,7530,2021-01-22 15:32:55.480,4964.416,4964.0,0
7540,7540,2021-01-22 15:33:25.480,4994.4165,4994.0,0
7550,7550,2021-01-22 15:33:55.480,5024.418,5024.0,0
7560,7560,2021-01-22 15:34:25.480,5054.419,5054.0,0
7570,7570,2021-01-22 15:34:55.480,5084.42,5084.0,0
7580,7580,2021-01-22 15:35:25.480,5114.4204,5114.0,0
7590,7590,2021-01-22 15:35:55.480,5144.4220000000005,5144.0,0
7600,7600,2021-01-22 15:36:25.480,5174.423,5174.0,0
7610,7610,2021-01-22 15:36:55.480,5204.4243,5204.0,0
7620,7620,2021-01-22 15:37:25.480,5234.4253,5234.0,0
7630,7630,2021-01-22 15:37:55.480,5264.427,5264.0,0
7640,7640,2021-01-22 15:38:25.480,5294.428000000001,5294.0,0
7650,7650,2021-01-22 15:38:55.480,5324.4297,5324.0,0
7660,7660,2021-01-22 15:39:25.480,5354.431,5354.0,0
7670,7670,2021-01-22 15:39:55.480,5384.4326,5384.0,0
7680,7680,2021-01-22 15:40:25.480,5414.434,5414.0,0
7690,7690,2021-01-22 15:40:55.480,5444.4365,5444.0,0
7700,7700,2021-01-22 15:41:25.480,5474.438,5474.0,0
7710,7710,2021-01-22 15:41:55.480,5504.4395,5504.0,0
7720,7720,2021-01-22 15:42:25.480,5534.441,5534.0,0
7730,7730,2021-01-22 15:42:55.480,5564.4434,5564.0,0
7740,7740,2021-01-22 15:43:25.480,5594.445,5594.0,0
7750,7750,2021-01-22 15:43:55.480,5624.446999999999,5624.0,0
7760,7760,2021-01-22 15:44:25.480,5654.4487,5654.0,0
7770,7770,2021-01-22 15:44:55.480,5684.4507,5684.0,0
7780,7780,2021-01-22 15:45:25.480,5714.4526,5714.0,0
7790,7790,2021-01-22 15:45:55.480,5744.4546,5744.0,0
7800,7800,2021-01-22 15:46:25.480,5774.456999999999,5774.0,0
7810,7810,2021-01-22 15:46:55.480,5804.459,5804.0,0
7820,7820,2021-01-22 15:47:25.480,5834.4614,5834.0,0
7830,7830,2021-01-22 15:47:55.480,5864.4634,5864.0,0
7840,7840,2021-01-22 15:48:25.480,5894.4663,5894.0,0
7850,7850,2021-01-22 15:48:55.480,5924.4683,5924.0,0
7860,7860,2021-01-22 15:49:25.480,5954.4707,5954.0,0
7870,7870,2021-01-22 15:49:55.480,5984.473000000001,5984.0,0
7880,7880,2021-01-22 15:50:25.480,6014.475,6014.0,0
7890,7890,2021-01-22 15:50:55.480,6044.4775,6044.0,0
7900,7900,2021-01-22 15:51:25.480,6074.48,6074.0,0
7910,7910,2021-01-22 15:51:55.480,6104.4824,6104.0,0
7920,7920,2021-01-22 15:52:25.480,6134.4844,6134.0,0
7930,7930,2021-01-22 15:52:55.480,6164.4873,6164.0,0
7940,7940,2021-01-22 15:53:25.480,6194.4893,6194.0,0
7950,7950,2021-01-22 15:53:55.480,6224.491999999999,6224.0,0
7960,7960,2021-01-22 15:54:25.480,6254.495,6254.0,0
7970,7970,2021-01-22 15:54:55.480,6284.4976,6284.0,0
7980,7980,2021-01-22 15:55:25.480,6314.4995,6314.0,0
7990,7990,2021-01-22 15:55:55.480,6344.5019999999995,6344.0,0
8000,8000,2021-01-22 15:56:25.480,6374.5044,6374.0,0
8010,8010,2021-01-22 15:56:55.480,6404.5073,6404.0,0
8020,8020,2021-01-22 15:57:25.480,6434.51,6434.0,0
8030,8030,2021-01-22 15:57:55.480,6464.512,6464.0,0
8040,8040,2021-01-22 15:58:25.480,6494.5146,6494.0,0
8050,8050,2021-01-22 15:58:55.480,6524.5176,6524.0,0
8060,8060,2021-01-22 15:59:25.480,6554.52,6554.0,0
8070,8070,2021-01-22 15:59:55.480,6584.5225,6584.0,0
8080,8080,2021-01-22 16:00:25.480,6614.525,6614.0,0
8090,8090,2021-01-22 16:00:55.480,6644.5273,6644.0,0
