,Unnamed: 0,time,prediction,step
14772,14772,2020-11-30 12:31:44.905,19157.727,2
14782,14782,2020-11-30 12:32:14.905,19170.89,2
14792,14792,2020-11-30 12:32:44.905,19158.795,2
14802,14802,2020-11-30 12:33:14.905,19126.81,2
14812,14812,2020-11-30 12:33:44.905,19061.061999999998,2
14822,14822,2020-11-30 12:34:14.905,19039.797,2
14832,14832,2020-11-30 12:34:44.905,19011.252,2
14842,14842,2020-11-30 12:35:14.905,18957.582,2
14852,14852,2020-11-30 12:35:44.905,19158.002,2
14862,14862,2020-11-30 12:36:14.905,19178.468999999997,2
14872,14872,2020-11-30 12:36:44.905,19148.738,2
14882,14882,2020-11-30 12:37:14.905,19146.86,2
14892,14892,2020-11-30 12:37:44.905,19138.049,2
14902,14902,2020-11-30 12:38:14.905,19103.781000000003,2
14912,14912,2020-11-30 12:38:44.905,17656.273,2
14922,14922,2020-11-30 12:39:14.905,17868.275,2
14932,14932,2020-11-30 12:39:44.905,18113.443,2
14942,14942,2020-11-30 12:40:14.905,18160.65,2
14952,14952,2020-11-30 12:40:44.905,18156.668,2
14962,14962,2020-11-30 12:41:14.905,18134.316000000003,2
14972,14972,2020-11-30 12:41:44.905,18107.625,2
14982,14982,2020-11-30 12:42:14.905,18092.752,2
14992,14992,2020-11-30 12:42:44.905,18089.016,2
15002,15002,2020-11-30 12:43:14.905,18460.67,2
15012,15012,2020-11-30 12:43:44.905,18483.7,2
15022,15022,2020-11-30 12:44:14.905,18468.855,2
15032,15032,2020-11-30 12:44:44.905,18467.918,2
15042,15042,2020-11-30 12:45:14.905,18449.049,2
15052,15052,2020-11-30 12:45:44.905,18429.213,2
15062,15062,2020-11-30 12:46:14.905,18426.318,2
15072,15072,2020-11-30 12:46:44.905,18405.558999999997,2
15082,15082,2020-11-30 12:47:14.905,18402.51,2
15092,15092,2020-11-30 12:47:44.905,18382.252,2
15102,15102,2020-11-30 12:48:14.905,18362.008,2
15112,15112,2020-11-30 12:48:44.905,18359.701,2
15122,15122,2020-11-30 12:49:14.905,18339.78,2
15132,15132,2020-11-30 12:49:44.905,18319.82,2
15142,15142,2020-11-30 12:50:14.905,18317.808999999997,2
15152,15152,2020-11-30 12:50:44.905,18299.64,2
15162,15162,2020-11-30 12:51:14.905,18599.12,2
15172,15172,2020-11-30 12:51:44.905,18630.197,2
15182,15182,2020-11-30 12:52:14.905,18703.186,2
15192,15192,2020-11-30 12:52:44.905,18707.652,2
15202,15202,2020-11-30 12:53:14.905,18649.29,2
15212,15212,2020-11-30 12:53:44.905,18653.697,2
15222,15222,2020-11-30 12:54:14.905,18659.752,2
15232,15232,2020-11-30 12:54:44.905,18665.07,2
15242,15242,2020-11-30 12:55:14.905,18676.053,2
15252,15252,2020-11-30 12:55:44.905,18669.996,2
15262,15262,2020-11-30 12:56:14.905,18656.968999999997,2
15272,15272,2020-11-30 12:56:44.905,18652.514,2
15282,15282,2020-11-30 12:57:14.905,18635.705,2
15292,15292,2020-11-30 12:57:44.905,18604.717,2
15302,15302,2020-11-30 12:58:14.905,18600.951,2
15312,15312,2020-11-30 12:58:44.905,18573.65,2
15322,15322,2020-11-30 12:59:14.905,18538.965,2
15332,15332,2020-11-30 12:59:44.905,18537.494,2
15342,15342,2020-11-30 13:00:14.905,18501.453,2
15352,15352,2020-11-30 13:00:44.905,18508.24,2
15362,15362,2020-11-30 13:01:14.905,17904.838,2
15372,15372,2020-11-30 13:01:44.905,17815.129,2
15382,15382,2020-11-30 13:02:14.905,17829.139,2
15392,15392,2020-11-30 13:02:44.905,17855.25,2
15402,15402,2020-11-30 13:03:14.905,17863.488,2
15412,15412,2020-11-30 13:03:44.905,17875.31,2
15422,15422,2020-11-30 13:04:14.905,17882.808999999997,2
15432,15432,2020-11-30 13:04:44.905,17863.143,2
15442,15442,2020-11-30 13:05:14.905,17838.74,2
15452,15452,2020-11-30 13:05:44.905,17824.781000000003,2
15462,15462,2020-11-30 13:06:14.905,17809.566000000003,2
15472,15472,2020-11-30 13:06:44.905,17843.111,2
15482,15482,2020-11-30 13:07:14.905,17830.093999999997,2
15492,15492,2020-11-30 13:07:44.905,17812.797,2
15502,15502,2020-11-30 13:08:14.905,17811.986,2
15512,15512,2020-11-30 13:08:44.905,17791.023,2
15522,15522,2020-11-30 13:09:14.905,17766.895,2
15532,15532,2020-11-30 13:09:44.905,17753.992,2
15542,15542,2020-11-30 13:10:14.905,17726.0,2
15552,15552,2020-11-30 13:10:44.905,17700.477,2
15562,15562,2020-11-30 13:11:14.905,17698.754,2
15572,15572,2020-11-30 13:11:44.905,17678.561999999998,2
15582,15582,2020-11-30 13:12:14.905,17680.4,2
15592,15592,2020-11-30 13:12:44.905,17659.808999999997,2
15602,15602,2020-11-30 13:13:14.905,17640.793,2
15612,15612,2020-11-30 13:13:44.905,17642.78,2
15622,15622,2020-11-30 13:14:14.905,17667.957,2
15632,15632,2020-11-30 13:14:44.905,18000.84,2
15642,15642,2020-11-30 13:15:14.905,18039.549,2
15652,15652,2020-11-30 13:15:44.905,17991.027,2
15662,15662,2020-11-30 13:16:14.905,17990.54,2
15672,15672,2020-11-30 13:16:44.905,17984.074,2
15682,15682,2020-11-30 13:17:14.905,17976.965,2
15692,15692,2020-11-30 13:17:44.905,17975.441000000003,2
15702,15702,2020-11-30 13:18:14.905,17965.432,2
15712,15712,2020-11-30 13:18:44.905,17952.652,2
15722,15722,2020-11-30 13:19:14.905,17949.41,2
15732,15732,2020-11-30 13:19:44.905,17935.607,2
15742,15742,2020-11-30 13:20:14.905,17918.7,2
15752,15752,2020-11-30 13:20:44.905,17916.168,2
15762,15762,2020-11-30 13:21:14.905,17896.57,2
15772,15772,2020-11-30 13:21:44.905,17892.843999999997,2
15782,15782,2020-11-30 13:22:14.905,17864.607,2
15792,15792,2020-11-30 13:22:44.905,17248.498,2
15802,15802,2020-11-30 13:23:14.905,17172.979,2
15812,15812,2020-11-30 13:23:44.905,17016.218999999997,2
15822,15822,2020-11-30 13:24:14.905,16916.057,2
15832,15832,2020-11-30 13:24:44.905,16861.637,2
15842,15842,2020-11-30 13:25:14.905,16861.566000000003,2
15852,15852,2020-11-30 13:25:44.905,16852.416,2
15862,15862,2020-11-30 13:26:14.905,16817.285,2
15872,15872,2020-11-30 13:26:44.905,16782.549,2
15882,15882,2020-11-30 13:27:14.905,17055.662,2
15892,15892,2020-11-30 13:27:44.905,17162.129,2
15902,15902,2020-11-30 13:28:14.905,17138.264,2
15912,15912,2020-11-30 13:28:44.905,17120.871,2
15922,15922,2020-11-30 13:29:14.905,17124.766,2
15932,15932,2020-11-30 13:29:44.905,17105.998,2
15942,15942,2020-11-30 13:30:14.905,17091.709,2
15952,15952,2020-11-30 13:30:44.905,17097.396,2
15962,15962,2020-11-30 13:31:14.905,17076.873,2
15972,15972,2020-11-30 13:31:44.905,17078.256,2
15982,15982,2020-11-30 13:32:14.905,17056.195,2
15992,15992,2020-11-30 13:32:44.905,17035.264,2
16002,16002,2020-11-30 13:33:14.905,17035.146,2
16012,16012,2020-11-30 13:33:44.905,17014.113,2
16022,16022,2020-11-30 13:34:14.905,16994.34,2
16032,16032,2020-11-30 13:34:44.905,16994.87,2
16042,16042,2020-11-30 13:35:14.905,16975.683999999997,2
16052,16052,2020-11-30 13:35:44.905,16977.137,2
16062,16062,2020-11-30 13:36:14.905,16959.639,2
16072,16072,2020-11-30 13:36:44.905,17011.47,2
16082,16082,2020-11-30 13:37:14.905,17001.947,2
16092,16092,2020-11-30 13:37:44.905,16967.18,2
16102,16102,2020-11-30 13:38:14.905,16940.766,2
16112,16112,2020-11-30 13:38:44.905,16949.93,2
16122,16122,2020-11-30 13:39:14.905,16913.836,2
16132,16132,2020-11-30 13:39:44.905,16869.367,2
16142,16142,2020-11-30 13:40:14.905,16870.158,2
16152,16152,2020-11-30 13:40:44.905,16800.19,2
16162,16162,2020-11-30 13:41:14.905,16797.695,2
16172,16172,2020-11-30 13:41:44.905,16735.621,2
16182,16182,2020-11-30 13:42:14.905,16696.791,2
16192,16192,2020-11-30 13:42:44.905,16724.336,2
16202,16202,2020-11-30 13:43:14.905,16688.453,2
16212,16212,2020-11-30 13:43:44.905,16541.596,2
16222,16222,2020-11-30 13:44:14.905,16289.403999999999,2
16232,16232,2020-11-30 13:44:44.905,16174.461000000001,2
16242,16242,2020-11-30 13:45:14.905,16196.151000000002,2
16252,16252,2020-11-30 13:45:44.905,16170.268,2
16262,16262,2020-11-30 13:46:14.905,16150.916000000001,2
16272,16272,2020-11-30 13:46:44.905,16144.533000000001,2
16282,16282,2020-11-30 13:47:14.905,16156.203000000001,2
16292,16292,2020-11-30 13:47:44.905,16138.28,2
16302,16302,2020-11-30 13:48:14.905,16114.832,2
16312,16312,2020-11-30 13:48:44.905,16102.309,2
16322,16322,2020-11-30 13:49:14.905,16085.4375,2
16332,16332,2020-11-30 13:49:44.905,16103.586000000001,2
16342,16342,2020-11-30 13:50:14.905,16110.466,2
16352,16352,2020-11-30 13:50:44.905,16095.492,2
16362,16362,2020-11-30 13:51:14.905,16093.778,2
16372,16372,2020-11-30 13:51:44.905,16072.893999999998,2
16382,16382,2020-11-30 13:52:14.905,16049.455,2
16392,16392,2020-11-30 13:52:44.905,16033.598,2
16402,16402,2020-11-30 13:53:14.905,16005.607,2
16412,16412,2020-11-30 13:53:44.905,15984.427,2
16422,16422,2020-11-30 13:54:14.905,15984.233,2
16432,16432,2020-11-30 13:54:44.905,15964.345,2
16442,16442,2020-11-30 13:55:14.905,15945.249,2
16452,16452,2020-11-30 13:55:44.905,15946.972,2
16462,16462,2020-11-30 13:56:14.905,15927.411,2
16472,16472,2020-11-30 13:56:44.905,15930.257,2
16482,16482,2020-11-30 13:57:14.905,15955.425,2
16492,16492,2020-11-30 13:57:44.905,15925.933,2
16502,16502,2020-11-30 13:58:14.905,15910.03,2
16512,16512,2020-11-30 13:58:44.905,15795.53,2
16522,16522,2020-11-30 13:59:14.905,16175.64,2
16532,16532,2020-11-30 13:59:44.905,16226.95,2
16542,16542,2020-11-30 14:00:14.905,16223.356000000002,2
16552,16552,2020-11-30 14:00:44.905,16221.456,2
16562,16562,2020-11-30 14:01:14.905,16212.463,2
16572,16572,2020-11-30 14:01:44.905,16196.673,2
16582,16582,2020-11-30 14:02:14.905,16194.863000000001,2
16592,16592,2020-11-30 14:02:44.905,16182.083999999999,2
16602,16602,2020-11-30 14:03:14.905,16166.903,2
16612,16612,2020-11-30 14:03:44.905,16162.963,2
16622,16622,2020-11-30 14:04:14.905,15343.883999999998,2
16632,16632,2020-11-30 14:04:44.905,15125.145,2
16642,16642,2020-11-30 14:05:14.905,15084.363000000001,2
16652,16652,2020-11-30 14:05:44.905,15121.972,2
16662,16662,2020-11-30 14:06:14.905,15150.291000000001,2
16672,16672,2020-11-30 14:06:44.905,15159.72,2
16682,16682,2020-11-30 14:07:14.905,15144.292,2
16692,16692,2020-11-30 14:07:44.905,15110.575,2
16702,16702,2020-11-30 14:08:14.905,15081.309,2
16712,16712,2020-11-30 14:08:44.905,15066.166000000001,2
16722,16722,2020-11-30 14:09:14.905,15097.249,2
16732,16732,2020-11-30 14:09:44.905,15086.818000000001,2
16742,16742,2020-11-30 14:10:14.905,15093.469,2
16752,16752,2020-11-30 14:10:44.905,15073.919,2
16762,16762,2020-11-30 14:11:14.905,15049.18,2
16772,16772,2020-11-30 14:11:44.905,15037.858999999999,2
16782,16782,2020-11-30 14:12:14.905,15009.721000000001,2
16792,16792,2020-11-30 14:12:44.905,14991.812,2
16802,16802,2020-11-30 14:13:14.905,14968.261999999999,2
16812,16812,2020-11-30 14:13:44.905,14949.078000000001,2
16822,16822,2020-11-30 14:14:14.905,15274.982,2
16832,16832,2020-11-30 14:14:44.905,15268.188,2
16842,16842,2020-11-30 14:15:14.905,15250.118,2
16852,16852,2020-11-30 14:15:44.905,15248.236,2
16862,16862,2020-11-30 14:16:14.905,15234.0205,2
16872,16872,2020-11-30 14:16:44.905,15219.215,2
16882,16882,2020-11-30 14:17:14.905,15223.944,2
16892,16892,2020-11-30 14:17:44.905,15222.298,2
16902,16902,2020-11-30 14:18:14.905,15299.507,2
16912,16912,2020-11-30 14:18:44.905,15263.2295,2
16922,16922,2020-11-30 14:19:14.905,15250.89,2
16932,16932,2020-11-30 14:19:44.905,15233.326000000001,2
16942,16942,2020-11-30 14:20:14.905,15229.671,2
16952,16952,2020-11-30 14:20:44.905,15204.468,2
16962,16962,2020-11-30 14:21:14.905,15172.239,2
16972,16972,2020-11-30 14:21:44.905,15171.92,2
16982,16982,2020-11-30 14:22:14.905,15138.089,2
16992,16992,2020-11-30 14:22:44.905,14606.765,2
17002,17002,2020-11-30 14:23:14.905,14307.173,2
17012,17012,2020-11-30 14:23:44.905,14204.493999999999,2
17022,17022,2020-11-30 14:24:14.905,14138.478000000001,2
17032,17032,2020-11-30 14:24:44.905,14116.263,2
17042,17042,2020-11-30 14:25:14.905,14136.765,2
17052,17052,2020-11-30 14:25:44.905,14147.58,2
17062,17062,2020-11-30 14:26:14.905,14131.821000000002,2
17072,17072,2020-11-30 14:26:44.905,14095.893,2
17082,17082,2020-11-30 14:27:14.905,14066.233,2
17092,17092,2020-11-30 14:27:44.905,14054.06,2
17102,17102,2020-11-30 14:28:14.905,14413.803999999998,2
17112,17112,2020-11-30 14:28:44.905,14403.792,2
17122,17122,2020-11-30 14:29:14.905,14415.108999999999,2
17132,17132,2020-11-30 14:29:44.905,14400.871000000001,2
17142,17142,2020-11-30 14:30:14.905,14406.321000000002,2
17152,17152,2020-11-30 14:30:44.905,14388.036,2
17162,17162,2020-11-30 14:31:14.905,14370.421,2
17172,17172,2020-11-30 14:31:44.905,14370.76,2
17182,17182,2020-11-30 14:32:14.905,14350.204,2
17192,17192,2020-11-30 14:32:44.905,14329.996000000001,2
17202,17202,2020-11-30 14:33:14.905,14328.032,2
17212,17212,2020-11-30 14:33:44.905,14308.431999999999,2
17222,17222,2020-11-30 14:34:14.905,14289.785,2
17232,17232,2020-11-30 14:34:44.905,14289.117,2
17242,17242,2020-11-30 14:35:14.905,14272.192,2
17252,17252,2020-11-30 14:35:44.905,14273.177,2
17262,17262,2020-11-30 14:36:14.905,14258.947,2
17272,17272,2020-11-30 14:36:44.905,14313.707,2
17282,17282,2020-11-30 14:37:14.905,14264.1045,2
17292,17292,2020-11-30 14:37:44.905,14228.0205,2
17302,17302,2020-11-30 14:38:14.905,14213.423999999999,2
17312,17312,2020-11-30 14:38:44.905,14241.427,2
17322,17322,2020-11-30 14:39:14.905,14219.905,2
17332,17332,2020-11-30 14:39:44.905,14226.581,2
17342,17342,2020-11-30 14:40:14.905,14193.652,2
17352,17352,2020-11-30 14:40:44.905,14139.341,2
17362,17362,2020-11-30 14:41:14.905,13724.408000000001,2
17372,17372,2020-11-30 14:41:44.905,13574.293,2
17382,17382,2020-11-30 14:42:14.905,13572.015,2
17392,17392,2020-11-30 14:42:44.905,13547.817,2
17402,17402,2020-11-30 14:43:14.905,13517.934,2
17412,17412,2020-11-30 14:43:44.905,13494.171,2
17422,17422,2020-11-30 14:44:14.905,13503.141000000001,2
17432,17432,2020-11-30 14:44:44.905,13519.996000000001,2
17442,17442,2020-11-30 14:45:14.905,13502.185,2
17452,17452,2020-11-30 14:45:44.905,13479.237,2
17462,17462,2020-11-30 14:46:14.905,13469.4375,2
17472,17472,2020-11-30 14:46:44.905,13491.083,2
17482,17482,2020-11-30 14:47:14.905,13500.218,2
17492,17492,2020-11-30 14:47:44.905,13486.656,2
17502,17502,2020-11-30 14:48:14.905,13468.028999999999,2
17512,17512,2020-11-30 14:48:44.905,13462.931999999999,2
17522,17522,2020-11-30 14:49:14.905,13441.8125,2
17532,17532,2020-11-30 14:49:44.905,13413.643999999998,2
17542,17542,2020-11-30 14:50:14.905,13397.828000000001,2
17552,17552,2020-11-30 14:50:44.905,13378.493999999999,2
17562,17562,2020-11-30 14:51:14.905,13379.873,2
17572,17572,2020-11-30 14:51:44.905,13360.586000000001,2
17582,17582,2020-11-30 14:52:14.905,13342.298,2
17592,17592,2020-11-30 14:52:44.905,13345.118,2
17602,17602,2020-11-30 14:53:14.905,13325.546,2
17612,17612,2020-11-30 14:53:44.905,13334.15,2
17622,17622,2020-11-30 14:54:14.905,13359.733999999999,2
17632,17632,2020-11-30 14:54:44.905,13330.656,2
17642,17642,2020-11-30 14:55:14.905,13329.723999999998,2
17652,17652,2020-11-30 14:55:44.905,13213.891000000001,2
17662,17662,2020-11-30 14:56:14.905,13170.941,2
17672,17672,2020-11-30 14:56:44.905,13195.798,2
17682,17682,2020-11-30 14:57:14.905,13161.249,2
17692,17692,2020-11-30 14:57:44.905,13124.223,2
17702,17702,2020-11-30 14:58:14.905,13149.778,2
17712,17712,2020-11-30 14:58:44.905,13116.87,2
17722,17722,2020-11-30 14:59:14.905,12770.607,2
17732,17732,2020-11-30 14:59:44.905,12602.921,2
17742,17742,2020-11-30 15:00:14.905,12610.978000000001,2
17752,17752,2020-11-30 15:00:44.905,12585.25,2
17762,17762,2020-11-30 15:01:14.905,12550.716999999999,2
17772,17772,2020-11-30 15:01:44.905,12543.22,2
17782,17782,2020-11-30 15:02:14.905,12555.03,2
17792,17792,2020-11-30 15:02:44.905,12567.916000000001,2
17802,17802,2020-11-30 15:03:14.905,12548.99,2
17812,17812,2020-11-30 15:03:44.905,12529.695,2
17822,17822,2020-11-30 15:04:14.905,12523.163,2
17832,17832,2020-11-30 15:04:44.905,12549.158000000001,2
17842,17842,2020-11-30 15:05:14.905,12537.294,2
17852,17852,2020-11-30 15:05:44.905,12541.483,2
17862,17862,2020-11-30 15:06:14.905,12523.89,2
17872,17872,2020-11-30 15:06:44.905,12502.976999999999,2
17882,17882,2020-11-30 15:07:14.905,12495.194,2
17892,17892,2020-11-30 15:07:44.905,12465.573999999999,2
17902,17902,2020-11-30 15:08:14.905,12454.893999999998,2
17912,17912,2020-11-30 15:08:44.905,12436.351,2
17922,17922,2020-11-30 15:09:14.905,12418.356000000002,2
17932,17932,2020-11-30 15:09:44.905,12420.433,2
17942,17942,2020-11-30 15:10:14.905,12401.456,2
17952,17952,2020-11-30 15:10:44.905,12383.73,2
17962,17962,2020-11-30 15:11:14.905,12386.893999999998,2
17972,17972,2020-11-30 15:11:44.905,12368.018999999998,2
17982,17982,2020-11-30 15:12:14.905,12419.784,2
17992,17992,2020-11-30 15:12:44.905,12390.892,2
18002,18002,2020-11-30 15:13:14.905,12357.936000000002,2
18012,18012,2020-11-30 15:13:44.905,12280.524,2
18022,18022,2020-11-30 15:14:14.905,12247.363000000001,2
18032,18032,2020-11-30 15:14:44.905,12574.308,2
18042,18042,2020-11-30 15:15:14.905,12621.465,2
18052,18052,2020-11-30 15:15:44.905,12608.47,2
18062,18062,2020-11-30 15:16:14.905,12061.173,2
18072,18072,2020-11-30 15:16:44.905,11842.776000000002,2
18082,18082,2020-11-30 15:17:14.905,11779.368,2
18092,18092,2020-11-30 15:17:44.905,11728.421999999999,2
18102,18102,2020-11-30 15:18:14.905,11713.336000000001,2
18112,18112,2020-11-30 15:18:44.905,11721.041000000001,2
18122,18122,2020-11-30 15:19:14.905,11709.784,2
18132,18132,2020-11-30 15:19:44.905,11688.435,2
18142,18142,2020-11-30 15:20:14.905,11655.715,2
18152,18152,2020-11-30 15:20:44.905,11627.788,2
18162,18162,2020-11-30 15:21:14.905,11619.233999999999,2
18172,18172,2020-11-30 15:21:44.905,11634.457,2
18182,18182,2020-11-30 15:22:14.905,11622.319,2
18192,18192,2020-11-30 15:22:44.905,11629.402,2
18202,18202,2020-11-30 15:23:14.905,11611.635,2
18212,18212,2020-11-30 15:23:44.905,11863.51,2
18222,18222,2020-11-30 15:24:14.905,11853.945,2
18232,18232,2020-11-30 15:24:44.905,11841.633,2
18242,18242,2020-11-30 15:25:14.905,11836.4,2
18252,18252,2020-11-30 15:25:44.905,11819.443000000001,2
18262,18262,2020-11-30 15:26:14.905,11800.854,2
18272,18272,2020-11-30 15:26:44.905,11797.321000000002,2
18282,18282,2020-11-30 15:27:14.905,11780.127,2
18292,18292,2020-11-30 15:27:44.905,11777.5205,2
18302,18302,2020-11-30 15:28:14.905,11761.255,2
18312,18312,2020-11-30 15:28:44.905,11744.812,2
18322,18322,2020-11-30 15:29:14.905,11743.066,2
18332,18332,2020-11-30 15:29:44.905,11732.323999999999,2
18342,18342,2020-11-30 15:30:14.905,11724.5625,2
18352,18352,2020-11-30 15:30:44.905,11605.669,2
18362,18362,2020-11-30 15:31:14.905,11599.928,2
18372,18372,2020-11-30 15:31:44.905,11566.184,2
18382,18382,2020-11-30 15:32:14.905,11626.775,2
18392,18392,2020-11-30 15:32:44.905,11230.865,2
18402,18402,2020-11-30 15:33:14.905,11095.756000000001,2
18412,18412,2020-11-30 15:33:44.905,11073.401000000002,2
18422,18422,2020-11-30 15:34:14.905,11067.67,2
18432,18432,2020-11-30 15:34:44.905,11063.475,2
18442,18442,2020-11-30 15:35:14.905,11069.415,2
18452,18452,2020-11-30 15:35:44.905,11084.493999999999,2
18462,18462,2020-11-30 15:36:14.905,11071.203000000001,2
18472,18472,2020-11-30 15:36:44.905,11044.515,2
18482,18482,2020-11-30 15:37:14.905,11027.377,2
18492,18492,2020-11-30 15:37:44.905,11008.115,2
18502,18502,2020-11-30 15:38:14.905,11042.71,2
18512,18512,2020-11-30 15:38:44.905,11034.698,2
18522,18522,2020-11-30 15:39:14.905,11018.936000000002,2
18532,18532,2020-11-30 15:39:44.905,11015.761,2
18542,18542,2020-11-30 15:40:14.905,10995.693000000001,2
18552,18552,2020-11-30 15:40:44.905,10973.768,2
18562,18562,2020-11-30 15:41:14.905,10959.114,2
18572,18572,2020-11-30 15:41:44.905,10930.598,2
18582,18582,2020-11-30 15:42:14.905,10912.535,2
18592,18592,2020-11-30 15:42:44.905,10913.822,2
18602,18602,2020-11-30 15:43:14.905,10895.703000000001,2
18612,18612,2020-11-30 15:43:44.905,10878.489,2
18622,18622,2020-11-30 15:44:14.905,10881.601999999999,2
18632,18632,2020-11-30 15:44:44.905,10863.41,2
18642,18642,2020-11-30 15:45:14.905,10846.691,2
18652,18652,2020-11-30 15:45:44.905,10884.476,2
18662,18662,2020-11-30 15:46:14.905,10858.229,2
18672,18672,2020-11-30 15:46:44.905,10827.696000000002,2
18682,18682,2020-11-30 15:47:14.905,10759.8,2
18692,18692,2020-11-30 15:47:44.905,10393.646,2
18702,18702,2020-11-30 15:48:14.905,10224.581,2
18712,18712,2020-11-30 15:48:44.905,10228.919,2
18722,18722,2020-11-30 15:49:14.905,10210.255,2
18732,18732,2020-11-30 15:49:44.905,10181.948,2
18742,18742,2020-11-30 15:50:14.905,10178.125,2
18752,18752,2020-11-30 15:50:44.905,10191.247,2
18762,18762,2020-11-30 15:51:14.905,10196.376,2
18772,18772,2020-11-30 15:51:44.905,10182.535,2
18782,18782,2020-11-30 15:52:14.905,10162.174,2
18792,18792,2020-11-30 15:52:44.905,10143.648000000001,2
18802,18802,2020-11-30 15:53:14.905,10177.603000000001,2
18812,18812,2020-11-30 15:53:44.905,10168.091999999999,2
18822,18822,2020-11-30 15:54:14.905,10150.058,2
18832,18832,2020-11-30 15:54:44.905,10146.699,2
18842,18842,2020-11-30 15:55:14.905,10126.884,2
18852,18852,2020-11-30 15:55:44.905,10118.624,2
18862,18862,2020-11-30 15:56:14.905,10090.511,2
18872,18872,2020-11-30 15:56:44.905,10062.024,2
18882,18882,2020-11-30 15:57:14.905,10062.041,2
18892,18892,2020-11-30 15:57:44.905,10044.648000000001,2
18902,18902,2020-11-30 15:58:14.905,10027.864,2
18912,18912,2020-11-30 15:58:44.905,10030.716999999999,2
18922,18922,2020-11-30 15:59:14.905,10013.056999999999,2
18932,18932,2020-11-30 15:59:44.905,10017.529,2
18942,18942,2020-11-30 16:00:14.905,9999.71,2
18952,18952,2020-11-30 16:00:44.905,9984.421,2
18962,18962,2020-11-30 16:01:14.905,9983.298,2
18972,18972,2020-11-30 16:01:44.905,9959.931,2
18982,18982,2020-11-30 16:02:14.905,9559.027,2
18992,18992,2020-11-30 16:02:44.905,9391.734,2
19002,19002,2020-11-30 16:03:14.905,9395.37,2
19012,19012,2020-11-30 16:03:44.905,9369.105,2
19022,19022,2020-11-30 16:04:14.905,9343.552,2
19032,19032,2020-11-30 16:04:44.905,9340.491,2
19042,19042,2020-11-30 16:05:14.905,9355.635,2
19052,19052,2020-11-30 16:05:44.905,9361.641,2
19062,19062,2020-11-30 16:06:14.905,9348.429,2
19072,19072,2020-11-30 16:06:44.905,9328.502,2
19082,19082,2020-11-30 16:07:14.905,9322.425,2
19092,19092,2020-11-30 16:07:44.905,9343.849,2
19102,19102,2020-11-30 16:08:14.905,9330.412,2
19112,19112,2020-11-30 16:08:44.905,9326.939,2
19122,19122,2020-11-30 16:09:14.905,9308.466999999999,2
19132,19132,2020-11-30 16:09:44.905,9287.829,2
19142,19142,2020-11-30 16:10:14.905,9279.063,2
19152,19152,2020-11-30 16:10:44.905,9248.952,2
19162,19162,2020-11-30 16:11:14.905,9238.403,2
19172,19172,2020-11-30 16:11:44.905,9221.19,2
19182,19182,2020-11-30 16:12:14.905,9205.098,2
19192,19192,2020-11-30 16:12:44.905,9207.652,2
19202,19202,2020-11-30 16:13:14.905,9190.567,2
19212,19212,2020-11-30 16:13:44.905,9175.18,2
19222,19222,2020-11-30 16:14:14.905,9179.318000000001,2
19232,19232,2020-11-30 16:14:44.905,9163.199,2
19242,19242,2020-11-30 16:15:14.905,9037.5625,2
19252,19252,2020-11-30 16:15:44.905,9028.296,2
19262,19262,2020-11-30 16:16:14.905,8746.249,2
19272,19272,2020-11-30 16:16:44.905,8691.3955,2
19282,19282,2020-11-30 16:17:14.905,8672.508,2
19292,19292,2020-11-30 16:17:44.905,8616.216999999999,2
19302,19302,2020-11-30 16:18:14.905,8567.759,2
19312,19312,2020-11-30 16:18:44.905,8552.639000000001,2
19322,19322,2020-11-30 16:19:14.905,8558.9375,2
19332,19332,2020-11-30 16:19:44.905,8567.171,2
19342,19342,2020-11-30 16:20:14.905,8553.926,2
19352,19352,2020-11-30 16:20:44.905,8530.385,2
19362,19362,2020-11-30 16:21:14.905,8511.108,2
19372,19372,2020-11-30 16:21:44.905,8508.135,2
19382,19382,2020-11-30 16:22:14.905,8524.18,2
19392,19392,2020-11-30 16:22:44.905,8519.668,2
19402,19402,2020-11-30 16:23:14.905,8501.355,2
19412,19412,2020-11-30 16:23:44.905,8482.028,2
19422,19422,2020-11-30 16:24:14.905,8474.094000000001,2
19432,19432,2020-11-30 16:24:44.905,8656.501,2
19442,19442,2020-11-30 16:25:14.905,8622.787,2
19452,19452,2020-11-30 16:25:44.905,8617.676,2
19462,19462,2020-11-30 16:26:14.905,8603.004,2
19472,19472,2020-11-30 16:26:44.905,8598.634,2
19482,19482,2020-11-30 16:27:14.905,8586.405,2
19492,19492,2020-11-30 16:27:44.905,8575.110999999999,2
19502,19502,2020-11-30 16:28:14.905,8573.947,2
19512,19512,2020-11-30 16:28:44.905,8565.446,2
19522,19522,2020-11-30 16:29:14.905,8086.935,2
19532,19532,2020-11-30 16:29:44.905,7945.166,2
19542,19542,2020-11-30 16:30:14.905,7963.5957,2
19552,19552,2020-11-30 16:30:44.905,8032.6006,2
19562,19562,2020-11-30 16:31:14.905,8055.9890000000005,2
19572,19572,2020-11-30 16:31:44.905,8066.859,2
19582,19582,2020-11-30 16:32:14.905,8061.609,2
19592,19592,2020-11-30 16:32:44.905,8046.585999999999,2
19602,19602,2020-11-30 16:33:14.905,8025.0156,2
19612,19612,2020-11-30 16:33:44.905,8005.6875,2
19622,19622,2020-11-30 16:34:14.905,8016.7427,2
19632,19632,2020-11-30 16:34:44.905,7992.2583,2
19642,19642,2020-11-30 16:35:14.905,7970.9169999999995,2
19652,19652,2020-11-30 16:35:44.905,7975.3784,2
19662,19662,2020-11-30 16:36:14.905,7958.1074,2
19672,19672,2020-11-30 16:36:44.905,7937.5205,2
19682,19682,2020-11-30 16:37:14.905,7925.78,2
19692,19692,2020-11-30 16:37:44.905,7887.9995,2
19702,19702,2020-11-30 16:38:14.905,7879.226,2
19712,19712,2020-11-30 16:38:44.905,7860.045999999999,2
19722,19722,2020-11-30 16:39:14.905,7841.6787,2
19732,19732,2020-11-30 16:39:44.905,7842.5664,2
19742,19742,2020-11-30 16:40:14.905,7826.7617,2
19752,19752,2020-11-30 16:40:44.905,7813.0044,2
19762,19762,2020-11-30 16:41:14.905,7816.2217,2
19772,19772,2020-11-30 16:41:44.905,7109.231,2
19782,19782,2020-11-30 16:42:14.905,7031.763000000001,2
19792,19792,2020-11-30 16:42:44.905,7215.5215,2
19802,19802,2020-11-30 16:43:14.905,7240.455,2
19812,19812,2020-11-30 16:43:44.905,7237.5854,2
19822,19822,2020-11-30 16:44:14.905,7225.1235,2
19832,19832,2020-11-30 16:44:44.905,7249.6123,2
19842,19842,2020-11-30 16:45:14.905,7253.3096,2
19852,19852,2020-11-30 16:45:44.905,7233.5425,2
19862,19862,2020-11-30 16:46:14.905,7219.9277,2
19872,19872,2020-11-30 16:46:44.905,7206.1836,2
19882,19882,2020-11-30 16:47:14.905,7237.3315,2
19892,19892,2020-11-30 16:47:44.905,7214.8354,2
19902,19902,2020-11-30 16:48:14.905,7190.7324,2
19912,19912,2020-11-30 16:48:44.905,7185.3613,2
19922,19922,2020-11-30 16:49:14.905,7165.689,2
19932,19932,2020-11-30 16:49:44.905,7143.6724,2
19942,19942,2020-11-30 16:50:14.905,7118.3306,2
19952,19952,2020-11-30 16:50:44.905,7086.353,2
19962,19962,2020-11-30 16:51:14.905,7069.3516,2
19972,19972,2020-11-30 16:51:44.905,7067.09,2
19982,19982,2020-11-30 16:52:14.905,7051.965,2
19992,19992,2020-11-30 16:52:44.905,6578.4116,2
20002,20002,2020-11-30 16:53:14.905,6524.648,2
20012,20012,2020-11-30 16:53:44.905,6490.7876,2
20022,20022,2020-11-30 16:54:14.905,6552.293000000001,2
20032,20032,2020-11-30 16:54:44.905,6497.6226,2
20042,20042,2020-11-30 16:55:14.905,6485.2480000000005,2
20052,20052,2020-11-30 16:55:44.905,6503.486999999999,2
20062,20062,2020-11-30 16:56:14.905,6529.703,2
20072,20072,2020-11-30 16:56:44.905,6515.7505,2
20082,20082,2020-11-30 16:57:14.905,6498.0684,2
20092,20092,2020-11-30 16:57:44.905,6494.2837,2
20102,20102,2020-11-30 16:58:14.905,6512.642,2
20112,20112,2020-11-30 16:58:44.905,6482.9155,2
20122,20122,2020-11-30 16:59:14.905,6471.9233,2
20132,20132,2020-11-30 16:59:44.905,6453.49,2
20142,20142,2020-11-30 17:00:14.905,6433.2725,2
20152,20152,2020-11-30 17:00:44.905,6421.654,2
20162,20162,2020-11-30 17:01:14.905,6378.2764,2
20172,20172,2020-11-30 17:01:44.905,6357.0034,2
20182,20182,2020-11-30 17:02:14.905,6340.219,2
20192,20192,2020-11-30 17:02:44.905,6325.5386,2
20202,20202,2020-11-30 17:03:14.905,6322.7880000000005,2
20212,20212,2020-11-30 17:03:44.905,5876.118,2
20222,20222,2020-11-30 17:04:14.905,5830.8945,2
20232,20232,2020-11-30 17:04:44.905,5781.036999999999,2
20242,20242,2020-11-30 17:05:14.905,5851.5493,2
20252,20252,2020-11-30 17:05:44.905,5799.599,2
20262,20262,2020-11-30 17:06:14.905,5778.685,2
20272,20272,2020-11-30 17:06:44.905,5808.1294,2
20282,20282,2020-11-30 17:07:14.905,5833.922,2
20292,20292,2020-11-30 17:07:44.905,5820.101,2
20302,20302,2020-11-30 17:08:14.905,5803.491999999999,2
20312,20312,2020-11-30 17:08:44.905,5789.9004,2
20322,20322,2020-11-30 17:09:14.905,5817.2314,2
20332,20332,2020-11-30 17:09:44.905,5783.3965,2
20342,20342,2020-11-30 17:10:14.905,5755.401999999999,2
20352,20352,2020-11-30 17:10:44.905,5749.55,2
20362,20362,2020-11-30 17:11:14.905,5729.920999999999,2
20372,20372,2020-11-30 17:11:44.905,5823.0234,2
20382,20382,2020-11-30 17:12:14.905,5713.403,2
20392,20392,2020-11-30 17:12:44.905,5697.36,2
20402,20402,2020-11-30 17:13:14.905,5347.3769999999995,2
20412,20412,2020-11-30 17:13:44.905,5352.5947,2
20422,20422,2020-11-30 17:14:14.905,5365.5312,2
20432,20432,2020-11-30 17:14:44.905,5358.651999999999,2
20442,20442,2020-11-30 17:15:14.905,5374.5093,2
20452,20452,2020-11-30 17:15:44.905,5340.6743,2
20462,20462,2020-11-30 17:16:14.905,5318.9116,2
20472,20472,2020-11-30 17:16:44.905,5321.1269999999995,2
20482,20482,2020-11-30 17:17:14.905,5320.37,2
20492,20492,2020-11-30 17:17:44.905,5321.4385,2
20502,20502,2020-11-30 17:18:14.905,5334.206,2
20512,20512,2020-11-30 17:18:44.905,5288.3022,2
20522,20522,2020-11-30 17:19:14.905,5258.1255,2
20532,20532,2020-11-30 17:19:44.905,5270.8765,2
20542,20542,2020-11-30 17:20:14.905,5267.3086,2
20552,20552,2020-11-30 17:20:44.905,5263.6475,2
20562,20562,2020-11-30 17:21:14.905,5242.3823,2
20572,20572,2020-11-30 17:21:44.905,5201.8364,2
20582,20582,2020-11-30 17:22:14.905,5179.4854,2
20592,20592,2020-11-30 17:22:44.905,4808.889,2
20602,20602,2020-11-30 17:23:14.905,4711.619000000001,2
20612,20612,2020-11-30 17:23:44.905,4675.981,2
20622,20622,2020-11-30 17:24:14.905,4747.9883,2
20632,20632,2020-11-30 17:24:44.905,4703.1626,2
20642,20642,2020-11-30 17:25:14.905,4654.6567,2
20652,20652,2020-11-30 17:25:44.905,4640.6235,2
20662,20662,2020-11-30 17:26:14.905,4635.1140000000005,2
20672,20672,2020-11-30 17:26:44.905,4644.496,2
20682,20682,2020-11-30 17:27:14.905,4648.032,2
20692,20692,2020-11-30 17:27:44.905,4646.85,2
20702,20702,2020-11-30 17:28:14.905,4673.817,2
20712,20712,2020-11-30 17:28:44.905,4634.545999999999,2
20722,20722,2020-11-30 17:29:14.905,4604.175,2
20732,20732,2020-11-30 17:29:44.905,4597.9424,2
20742,20742,2020-11-30 17:30:14.905,4578.9404,2
20752,20752,2020-11-30 17:30:44.905,4150.251,2
20762,20762,2020-11-30 17:31:14.905,4074.8977,2
20772,20772,2020-11-30 17:31:44.905,4138.431,2
20782,20782,2020-11-30 17:32:14.905,4126.1333,2
20792,20792,2020-11-30 17:32:44.905,4094.0005,2
20802,20802,2020-11-30 17:33:14.905,4065.6267,2
20812,20812,2020-11-30 17:33:44.905,4025.8198,2
20822,20822,2020-11-30 17:34:14.905,4014.3720000000003,2
20832,20832,2020-11-30 17:34:44.905,4014.5518,2
20842,20842,2020-11-30 17:35:14.905,4018.9570000000003,2
20852,20852,2020-11-30 17:35:44.905,4057.0737,2
20862,20862,2020-11-30 17:36:14.905,4054.369,2
20872,20872,2020-11-30 17:36:44.905,4008.2236,2
20882,20882,2020-11-30 17:37:14.905,4004.2786,2
20892,20892,2020-11-30 17:37:44.905,3987.177,2
20902,20902,2020-11-30 17:38:14.905,3580.244,2
20912,20912,2020-11-30 17:38:44.905,3474.7869,2
20922,20922,2020-11-30 17:39:14.905,3532.4565,2
20932,20932,2020-11-30 17:39:44.905,3535.2537,2
20942,20942,2020-11-30 17:40:14.905,3507.3540000000003,2
20952,20952,2020-11-30 17:40:44.905,3484.1690000000003,2
20962,20962,2020-11-30 17:41:14.905,3443.9297,2
20972,20972,2020-11-30 17:41:44.905,3422.1052,2
20982,20982,2020-11-30 17:42:14.905,3429.0215,2
20992,20992,2020-11-30 17:42:44.905,3434.6045,2
21002,21002,2020-11-30 17:43:14.905,3461.1492,2
21012,21012,2020-11-30 17:43:44.905,3464.634,2
21022,21022,2020-11-30 17:44:14.905,3418.837,2
21032,21032,2020-11-30 17:44:44.905,3099.3474,2
21042,21042,2020-11-30 17:45:14.905,2927.3381,2
21052,21052,2020-11-30 17:45:44.905,2929.6985,2
21062,21062,2020-11-30 17:46:14.905,2967.8059999999996,2
21072,21072,2020-11-30 17:46:44.905,3021.8347,2
21082,21082,2020-11-30 17:47:14.905,3023.0088,2
21092,21092,2020-11-30 17:47:44.905,3039.3394,2
21102,21102,2020-11-30 17:48:14.905,3042.2039,2
21112,21112,2020-11-30 17:48:44.905,3039.3572,2
21122,21122,2020-11-30 17:49:14.905,3031.8386,2
21132,21132,2020-11-30 17:49:44.905,3027.6462,2
21142,21142,2020-11-30 17:50:14.905,3012.492,2
21152,21152,2020-11-30 17:50:44.905,2558.7798,2
21162,21162,2020-11-30 17:51:14.905,2338.639,2
21172,21172,2020-11-30 17:51:44.905,2496.3223,2
21182,21182,2020-11-30 17:52:14.905,2552.3718,2
21192,21192,2020-11-30 17:52:44.905,2554.172,2
21202,21202,2020-11-30 17:53:14.905,2524.26,2
21212,21212,2020-11-30 17:53:44.905,2489.6602,2
21222,21222,2020-11-30 17:54:14.905,2464.982,2
21232,21232,2020-11-30 17:54:44.905,2455.2002,2
21242,21242,2020-11-30 17:55:14.905,2452.9946,2
21252,21252,2020-11-30 17:55:44.905,2490.1292,2
21262,21262,2020-11-30 17:56:14.905,1983.9294,2
21272,21272,2020-11-30 17:56:44.905,1671.01,2
21282,21282,2020-11-30 17:57:14.905,1910.9357,2
21292,21292,2020-11-30 17:57:44.905,2007.8162,2
21302,21302,2020-11-30 17:58:14.905,1999.285,2
21312,21312,2020-11-30 17:58:44.905,1987.1364,2
21322,21322,2020-11-30 17:59:14.905,1974.987,2
21332,21332,2020-11-30 17:59:44.905,1952.2075,2
21342,21342,2020-11-30 18:00:14.905,1948.3511,2
21352,21352,2020-11-30 18:00:44.905,1631.0482,2
21362,21362,2020-11-30 18:01:14.905,1244.2126,2
21372,21372,2020-11-30 18:01:44.905,1414.2292,2
21382,21382,2020-11-30 18:02:14.905,1497.7709,2
21392,21392,2020-11-30 18:02:44.905,1489.2969,2
21402,21402,2020-11-30 18:03:14.905,1472.0712,2
21412,21412,2020-11-30 18:03:44.905,693.9739400000001,2
21422,21422,2020-11-30 18:04:14.905,679.2667,2
21432,21432,2020-11-30 18:04:44.905,1082.1016,2
