,Unnamed: 0,time,preds,step
9058,9058,2021-02-10 07:50:15.483,28.889390000000002,8
9068,9068,2021-02-10 07:50:45.483,29.457390000000004,8
9078,9078,2021-02-10 07:51:15.483,29.066709999999997,8
9088,9088,2021-02-10 07:51:45.483,31.022423,8
9098,9098,2021-02-10 07:52:15.483,34.7292,8
9108,9108,2021-02-10 07:52:45.483,34.36565,8
9118,9118,2021-02-10 07:53:15.483,28.670885,8
9128,9128,2021-02-10 07:53:45.483,25.292965,8
9138,9138,2021-02-10 07:54:15.483,27.640217,8
9148,9148,2021-02-10 07:54:45.483,29.272818,8
9158,9158,2021-02-10 07:55:15.483,29.787573,8
9168,9168,2021-02-10 07:55:45.483,32.341427,8
9178,9178,2021-02-10 07:56:15.483,33.889385,8
9188,9188,2021-02-10 07:56:45.483,36.01187,8
9198,9198,2021-02-10 07:57:15.483,36.10382,8
9208,9208,2021-02-10 07:57:45.483,36.351240000000004,8
9218,9218,2021-02-10 07:58:15.483,36.760128,8
9228,9228,2021-02-10 07:58:45.483,34.059895000000004,8
9238,9238,2021-02-10 07:59:15.483,35.135525,8
9248,9248,2021-02-10 07:59:45.483,34.72081,8
9258,9258,2021-02-10 08:00:15.483,31.591778,8
9268,9268,2021-02-10 08:00:45.483,31.736553000000004,8
9278,9278,2021-02-10 08:01:15.483,31.421321999999996,8
9288,9288,2021-02-10 08:01:45.483,31.262615000000004,8
9298,9298,2021-02-10 08:02:15.483,35.997368,8
9308,9308,2021-02-10 08:02:45.483,38.920497999999995,8
9318,9318,2021-02-10 08:03:15.483,37.603195,8
9328,9328,2021-02-10 08:03:45.483,42.298332,8
9338,9338,2021-02-10 08:04:15.483,43.249275,8
9348,9348,2021-02-10 08:04:45.483,40.544253999999995,8
9358,9358,2021-02-10 08:05:15.483,41.384087,8
9368,9368,2021-02-10 08:05:45.483,42.16259,8
9378,9378,2021-02-10 08:06:15.483,41.259803999999995,8
9388,9388,2021-02-10 08:06:45.483,37.88332,8
9398,9398,2021-02-10 08:07:15.483,43.029804,8
9408,9408,2021-02-10 08:07:45.483,39.731567,8
9418,9418,2021-02-10 08:08:15.483,44.425957000000004,8
9428,9428,2021-02-10 08:08:45.483,47.80296,8
9438,9438,2021-02-10 08:09:15.483,46.43736,8
9448,9448,2021-02-10 08:09:45.483,36.876,8
9458,9458,2021-02-10 08:10:15.483,47.43525,8
9468,9468,2021-02-10 08:10:45.483,49.29407,8
9478,9478,2021-02-10 08:11:15.483,45.992332,8
9488,9488,2021-02-10 08:11:45.483,52.66887,8
9498,9498,2021-02-10 08:12:15.483,54.083836,8
9508,9508,2021-02-10 08:12:45.483,54.642887,8
9518,9518,2021-02-10 08:13:15.483,55.430943000000006,8
9528,9528,2021-02-10 08:13:45.483,57.170418000000005,8
9538,9538,2021-02-10 08:14:15.483,59.503384,8
9548,9548,2021-02-10 08:14:45.483,60.83736999999999,8
9558,9558,2021-02-10 08:15:15.483,59.813393000000005,8
9568,9568,2021-02-10 08:15:45.483,42.715763,8
9578,9578,2021-02-10 08:16:15.483,52.8678,8
9588,9588,2021-02-10 08:16:45.483,58.534130000000005,8
9598,9598,2021-02-10 08:17:15.483,69.41975,8
9608,9608,2021-02-10 08:17:45.483,70.19118,8
9618,9618,2021-02-10 08:18:15.483,68.80134,8
9628,9628,2021-02-10 08:18:45.483,74.82422,8
9638,9638,2021-02-10 08:19:15.483,72.35047,8
9648,9648,2021-02-10 08:19:45.483,66.43984,8
9658,9658,2021-02-10 08:20:15.483,81.14844000000001,8
9668,9668,2021-02-10 08:20:45.483,86.48084,8
9678,9678,2021-02-10 08:21:15.483,73.79219,8
9688,9688,2021-02-10 08:21:45.483,90.98640400000001,8
9698,9698,2021-02-10 08:22:15.483,97.85514,8
9708,9708,2021-02-10 08:22:45.483,111.41255,8
9718,9718,2021-02-10 08:23:15.483,114.94413999999999,8
9728,9728,2021-02-10 08:23:45.483,109.656456,8
9738,9738,2021-02-10 08:24:15.483,124.68879,8
9748,9748,2021-02-10 08:24:45.483,128.41937,8
9758,9758,2021-02-10 08:25:15.483,117.75657,8
9768,9768,2021-02-10 08:25:45.483,132.01411000000002,8
9778,9778,2021-02-10 08:26:15.483,157.27966,8
9788,9788,2021-02-10 08:26:45.483,181.73933,8
9798,9798,2021-02-10 08:27:15.483,194.9263,8
9808,9808,2021-02-10 08:27:45.483,172.33592,8
9818,9818,2021-02-10 08:28:15.483,206.67131,8
9828,9828,2021-02-10 08:28:45.483,251.38875,8
9838,9838,2021-02-10 08:29:15.483,164.7373,8
9848,9848,2021-02-10 08:29:45.483,302.3018,8
9858,9858,2021-02-10 08:30:15.483,361.98257,8
9868,9868,2021-02-10 08:30:45.483,178.02565,8
9878,9878,2021-02-10 08:31:15.483,475.19742,8
9888,9888,2021-02-10 08:31:45.483,618.8684,8
9898,9898,2021-02-10 08:32:15.483,619.6883,8
9908,9908,2021-02-10 08:32:45.483,626.2336,8
9918,9918,2021-02-10 08:33:15.483,409.38376,8
9928,9928,2021-02-10 08:33:45.483,89.4445,8
9938,9938,2021-02-10 08:34:15.483,60.09777,8
9948,9948,2021-02-10 08:34:45.483,68.76217,8
9958,9958,2021-02-10 08:35:15.483,64.010796,8
9968,9968,2021-02-10 08:35:45.483,75.97033,8
9978,9978,2021-02-10 08:36:15.483,45.33008,8
9988,9988,2021-02-10 08:36:45.483,36.140667,8
9998,9998,2021-02-10 08:37:15.483,36.734432,8
10008,10008,2021-02-10 08:37:45.483,39.907425,8
10018,10018,2021-02-10 08:38:15.483,40.186493,8
10028,10028,2021-02-10 08:38:45.483,36.841187,8
10038,10038,2021-02-10 08:39:15.483,40.72809,8
10048,10048,2021-02-10 08:39:45.483,39.907016999999996,8
10058,10058,2021-02-10 08:40:15.483,40.47377,8
10068,10068,2021-02-10 08:40:45.483,37.134304,8
10078,10078,2021-02-10 08:41:15.483,36.46092,8
10088,10088,2021-02-10 08:41:45.483,31.892570000000003,8
10098,10098,2021-02-10 08:42:15.483,30.609505,8
10108,10108,2021-02-10 08:42:45.483,30.985553999999997,8
10118,10118,2021-02-10 08:43:15.483,30.726736,8
10128,10128,2021-02-10 08:43:45.483,30.294790000000003,8
10138,10138,2021-02-10 08:44:15.483,30.748695,8
10148,10148,2021-02-10 08:44:45.483,31.177876,8
10158,10158,2021-02-10 08:45:15.483,29.474240999999996,8
10168,10168,2021-02-10 08:45:45.483,28.107788,8
10178,10178,2021-02-10 08:46:15.483,23.915024,8
10188,10188,2021-02-10 08:46:45.483,24.049324,8
10198,10198,2021-02-10 08:47:15.483,22.148563,8
10208,10208,2021-02-10 08:47:45.483,21.756270999999998,8
10218,10218,2021-02-10 08:48:15.483,22.870483,8
10228,10228,2021-02-10 08:48:45.483,19.80516,8
10238,10238,2021-02-10 08:49:15.483,18.169619,8
10248,10248,2021-02-10 08:49:45.483,15.492022,8
10258,10258,2021-02-10 08:50:15.483,18.523766000000002,8
10268,10268,2021-02-10 08:50:45.483,18.983248,8
10278,10278,2021-02-10 08:51:15.483,19.170534,8
10288,10288,2021-02-10 08:51:45.483,19.368113,8
10298,10298,2021-02-10 08:52:15.483,19.138327,8
10308,10308,2021-02-10 08:52:45.483,17.739092000000003,8
10318,10318,2021-02-10 08:53:15.483,16.362217,8
10328,10328,2021-02-10 08:53:45.483,16.69339,8
10338,10338,2021-02-10 08:54:15.483,16.853725,8
10348,10348,2021-02-10 08:54:45.483,15.869148000000001,8
10358,10358,2021-02-10 08:55:15.483,15.116461,8
10368,10368,2021-02-10 08:55:45.483,14.171435999999998,8
10378,10378,2021-02-10 08:56:15.483,14.176758,8
10388,10388,2021-02-10 08:56:45.483,13.45165,8
10398,10398,2021-02-10 08:57:15.483,13.451567,8
10408,10408,2021-02-10 08:57:45.483,12.953832,8
10418,10418,2021-02-10 08:58:15.483,12.3603945,8
10428,10428,2021-02-10 08:58:45.483,11.859954,8
10438,10438,2021-02-10 08:59:15.483,11.472128,8
10448,10448,2021-02-10 08:59:45.483,11.339027999999999,8
10458,10458,2021-02-10 09:00:15.483,11.455484,8
10468,10468,2021-02-10 09:00:45.483,10.964447999999999,8
10478,10478,2021-02-10 09:01:15.483,10.223441000000001,8
10488,10488,2021-02-10 09:01:45.483,9.678596,8
10498,10498,2021-02-10 09:02:15.483,9.041925,8
10508,10508,2021-02-10 09:02:45.483,8.808525999999999,8
10518,10518,2021-02-10 09:03:15.483,8.075676,8
10528,10528,2021-02-10 09:03:45.483,7.205064999999999,8
10538,10538,2021-02-10 09:04:15.483,6.911917,8
10548,10548,2021-02-10 09:04:45.483,7.011821,8
10558,10558,2021-02-10 09:05:15.483,7.1672009999999995,8
10568,10568,2021-02-10 09:05:45.483,5.853559,8
10578,10578,2021-02-10 09:06:15.483,5.366489,8
10588,10588,2021-02-10 09:06:45.483,5.346634,8
10598,10598,2021-02-10 09:07:15.483,5.4345946,8
10608,10608,2021-02-10 09:07:45.483,4.7919089999999995,8
10618,10618,2021-02-10 09:08:15.483,4.5129294,8
