,Unnamed: 0,time,prediction,step
9054,9054,2021-02-10 07:48:15.483,38.421566,4
9064,9064,2021-02-10 07:48:45.483,36.857563,4
9074,9074,2021-02-10 07:49:15.483,34.376118,4
9084,9084,2021-02-10 07:49:45.483,31.225883000000003,4
9094,9094,2021-02-10 07:50:15.483,30.552346999999997,4
9104,9104,2021-02-10 07:50:45.483,30.733719,4
9114,9114,2021-02-10 07:51:15.483,30.843008,4
9124,9124,2021-02-10 07:51:45.483,31.006079999999997,4
9134,9134,2021-02-10 07:52:15.483,31.262577,4
9144,9144,2021-02-10 07:52:45.483,31.473872999999998,4
9154,9154,2021-02-10 07:53:15.483,31.638474,4
9164,9164,2021-02-10 07:53:45.483,31.890537,4
9174,9174,2021-02-10 07:54:15.483,32.078316,4
9184,9184,2021-02-10 07:54:45.483,32.469879999999996,4
9194,9194,2021-02-10 07:55:15.483,32.80278,4
9204,9204,2021-02-10 07:55:45.483,32.934944,4
9214,9214,2021-02-10 07:56:15.483,33.291313,4
9224,9224,2021-02-10 07:56:45.483,33.41933,4
9234,9234,2021-02-10 07:57:15.483,33.753525,4
9244,9244,2021-02-10 07:57:45.483,34.02796,4
9254,9254,2021-02-10 07:58:15.483,34.240947999999996,4
9264,9264,2021-02-10 07:58:45.483,34.5409,4
9274,9274,2021-02-10 07:59:15.483,34.885838,4
9284,9284,2021-02-10 07:59:45.483,35.17264,4
9294,9294,2021-02-10 08:00:15.483,35.647137,4
9304,9304,2021-02-10 08:00:45.483,36.066032,4
9314,9314,2021-02-10 08:01:15.483,36.32463,4
9324,9324,2021-02-10 08:01:45.483,36.8383,4
9334,9334,2021-02-10 08:02:15.483,39.579414,4
9344,9344,2021-02-10 08:02:45.483,39.871082,4
9354,9354,2021-02-10 08:03:15.483,40.4953,4
9364,9364,2021-02-10 08:03:45.483,41.15528,4
9374,9374,2021-02-10 08:04:15.483,41.701836,4
9384,9384,2021-02-10 08:04:45.483,42.498077,4
9394,9394,2021-02-10 08:05:15.483,43.18732,4
9404,9404,2021-02-10 08:05:45.483,43.774353000000005,4
9414,9414,2021-02-10 08:06:15.483,44.52336,4
9424,9424,2021-02-10 08:06:45.483,45.096645,4
9434,9434,2021-02-10 08:07:15.483,45.707367,4
9444,9444,2021-02-10 08:07:45.483,45.973984,4
9454,9454,2021-02-10 08:08:15.483,46.746227000000005,4
9464,9464,2021-02-10 08:08:45.483,47.533817,4
9474,9474,2021-02-10 08:09:15.483,47.94954,4
9484,9484,2021-02-10 08:09:45.483,49.07257,4
9494,9494,2021-02-10 08:10:15.483,50.018364,4
9504,9504,2021-02-10 08:10:45.483,50.7915,4
9514,9514,2021-02-10 08:11:15.483,52.031242,4
9524,9524,2021-02-10 08:11:45.483,52.891514,4
9534,9534,2021-02-10 08:12:15.483,54.479687,4
9544,9544,2021-02-10 08:12:45.483,55.815394999999995,4
9554,9554,2021-02-10 08:13:15.483,56.904686,4
9564,9564,2021-02-10 08:13:45.483,57.741493000000006,4
9574,9574,2021-02-10 08:14:15.483,59.31125600000001,4
9584,9584,2021-02-10 08:14:45.483,60.598698,4
9594,9594,2021-02-10 08:15:15.483,62.850821999999994,4
9604,9604,2021-02-10 08:15:45.483,64.76697,4
9614,9614,2021-02-10 08:16:15.483,66.355354,4
9624,9624,2021-02-10 08:16:45.483,69.089005,4
9634,9634,2021-02-10 08:17:15.483,71.50349,4
9644,9644,2021-02-10 08:17:45.483,73.39605999999999,4
9654,9654,2021-02-10 08:18:15.483,76.81234,4
9664,9664,2021-02-10 08:18:45.483,80.03400400000001,4
9674,9674,2021-02-10 08:19:15.483,83.08523000000001,4
9684,9684,2021-02-10 08:19:45.483,88.083275,4
9694,9694,2021-02-10 08:20:15.483,92.28513000000001,4
9704,9704,2021-02-10 08:20:45.483,98.70685,4
9714,9714,2021-02-10 08:21:15.483,104.984505,4
9724,9724,2021-02-10 08:21:45.483,110.26614,4
9734,9734,2021-02-10 08:22:15.483,118.9615,4
9744,9744,2021-02-10 08:22:45.483,125.702126,4
9754,9754,2021-02-10 08:23:15.483,132.91591,4
9764,9764,2021-02-10 08:23:45.483,144.9999,4
9774,9774,2021-02-10 08:24:15.483,157.64235,4
9784,9784,2021-02-10 08:24:45.483,185.46726999999998,4
9794,9794,2021-02-10 08:25:15.483,214.19022999999999,4
9804,9804,2021-02-10 08:25:45.483,240.58105,4
9814,9814,2021-02-10 08:26:15.483,288.324,4
9824,9824,2021-02-10 08:26:45.483,356.02087,4
9834,9834,2021-02-10 08:27:15.483,415.3277,4
9844,9844,2021-02-10 08:27:45.483,483.32352000000003,4
9854,9854,2021-02-10 08:28:15.483,518.13275,4
9864,9864,2021-02-10 08:28:45.483,532.1225599999999,4
9874,9874,2021-02-10 08:29:15.483,575.16016,4
9884,9884,2021-02-10 08:29:45.483,555.23737,4
9894,9894,2021-02-10 08:30:15.483,490.80835,4
9904,9904,2021-02-10 08:30:45.483,406.1144,4
9914,9914,2021-02-10 08:31:15.483,337.851,4
9924,9924,2021-02-10 08:31:45.483,264.88644,4
9934,9934,2021-02-10 08:32:15.483,204.11498999999998,4
9944,9944,2021-02-10 08:32:45.483,163.84038,4
9954,9954,2021-02-10 08:33:15.483,144.57175,4
9964,9964,2021-02-10 08:33:45.483,136.57695,4
9974,9974,2021-02-10 08:34:15.483,114.584946,4
9984,9984,2021-02-10 08:34:45.483,108.59508999999998,4
9994,9994,2021-02-10 08:35:15.483,98.00978,4
10004,10004,2021-02-10 08:35:45.483,93.18397,4
10014,10014,2021-02-10 08:36:15.483,86.41859000000001,4
10024,10024,2021-02-10 08:36:45.483,75.32748000000001,4
10034,10034,2021-02-10 08:37:15.483,70.732056,4
10044,10044,2021-02-10 08:37:45.483,71.18605,4
10054,10054,2021-02-10 08:38:15.483,72.11295,4
10064,10064,2021-02-10 08:38:45.483,70.36976,4
10074,10074,2021-02-10 08:39:15.483,68.75728000000001,4
10084,10084,2021-02-10 08:39:45.483,64.47693000000001,4
10094,10094,2021-02-10 08:40:15.483,60.683319999999995,4
10104,10104,2021-02-10 08:40:45.483,57.2658,4
10114,10114,2021-02-10 08:41:15.483,52.460705000000004,4
10124,10124,2021-02-10 08:41:45.483,48.221798,4
10134,10134,2021-02-10 08:42:15.483,43.847378000000006,4
10144,10144,2021-02-10 08:42:45.483,39.713146,4
10154,10154,2021-02-10 08:43:15.483,35.69208,4
10164,10164,2021-02-10 08:43:45.483,32.224556,4
10174,10174,2021-02-10 08:44:15.483,28.873005,4
10184,10184,2021-02-10 08:44:45.483,26.118488,4
10194,10194,2021-02-10 08:45:15.483,24.179154999999998,4
10204,10204,2021-02-10 08:45:45.483,22.71679,4
10214,10214,2021-02-10 08:46:15.483,21.701387,4
10224,10224,2021-02-10 08:46:45.483,20.89551,4
10234,10234,2021-02-10 08:47:15.483,20.430948,4
10244,10244,2021-02-10 08:47:45.483,20.329905,4
10254,10254,2021-02-10 08:48:15.483,20.787153,4
10264,10264,2021-02-10 08:48:45.483,21.789185,4
10274,10274,2021-02-10 08:49:15.483,21.577032,4
10284,10284,2021-02-10 08:49:45.483,21.887079999999997,4
10294,10294,2021-02-10 08:50:15.483,21.448984,4
10304,10304,2021-02-10 08:50:45.483,20.980452,4
10314,10314,2021-02-10 08:51:15.483,20.03882,4
10324,10324,2021-02-10 08:51:45.483,19.173944,4
10334,10334,2021-02-10 08:52:15.483,17.990149,4
10344,10344,2021-02-10 08:52:45.483,17.478666,4
10354,10354,2021-02-10 08:53:15.483,16.373224,4
10364,10364,2021-02-10 08:53:45.483,15.836807,4
10374,10374,2021-02-10 08:54:15.483,14.922620000000002,4
10384,10384,2021-02-10 08:54:45.483,14.377885000000001,4
10394,10394,2021-02-10 08:55:15.483,13.919279999999999,4
10404,10404,2021-02-10 08:55:45.483,13.363131,4
10414,10414,2021-02-10 08:56:15.483,12.830527,4
10424,10424,2021-02-10 08:56:45.483,12.397157,4
10434,10434,2021-02-10 08:57:15.483,11.916822999999999,4
10444,10444,2021-02-10 08:57:45.483,11.562107000000001,4
10454,10454,2021-02-10 08:58:15.483,11.225953,4
10464,10464,2021-02-10 08:58:45.483,10.865278,4
10474,10474,2021-02-10 08:59:15.483,10.404822,4
10484,10484,2021-02-10 08:59:45.483,10.061794,4
10494,10494,2021-02-10 09:00:15.483,9.618631,4
10504,10504,2021-02-10 09:00:45.483,9.288208000000001,4
10514,10514,2021-02-10 09:01:15.483,8.936485000000001,4
10524,10524,2021-02-10 09:01:45.483,8.484619,4
10534,10534,2021-02-10 09:02:15.483,8.108231,4
10544,10544,2021-02-10 09:02:45.483,7.785411999999999,4
10554,10554,2021-02-10 09:03:15.483,7.5720644,4
10564,10564,2021-02-10 09:03:45.483,7.14077,4
10574,10574,2021-02-10 09:04:15.483,6.8570850000000005,4
10584,10584,2021-02-10 09:04:45.483,6.528672,4
10594,10594,2021-02-10 09:05:15.483,6.252888,4
10604,10604,2021-02-10 09:05:45.483,5.862544000000001,4
10614,10614,2021-02-10 09:06:15.483,5.534669,4
