,Unnamed: 0,time,preds,step
9056,9056,2021-02-10 07:49:15.483,29.670658000000003,6
9066,9066,2021-02-10 07:49:45.483,29.896482000000002,6
9076,9076,2021-02-10 07:50:15.483,29.305696,6
9086,9086,2021-02-10 07:50:45.483,31.060222999999997,6
9096,9096,2021-02-10 07:51:15.483,34.585609999999996,6
9106,9106,2021-02-10 07:51:45.483,34.244484,6
9116,9116,2021-02-10 07:52:15.483,29.026571,6
9126,9126,2021-02-10 07:52:45.483,26.068697,6
9136,9136,2021-02-10 07:53:15.483,28.101828,6
9146,9146,2021-02-10 07:53:45.483,29.53254,6
9156,9156,2021-02-10 07:54:15.483,29.950651,6
9166,9166,2021-02-10 07:54:45.483,32.3472,6
9176,9176,2021-02-10 07:55:15.483,33.871513,6
9186,9186,2021-02-10 07:55:45.483,36.152415999999995,6
9196,9196,2021-02-10 07:56:15.483,36.213383,6
9206,9206,2021-02-10 07:56:45.483,36.264275,6
9216,9216,2021-02-10 07:57:15.483,36.903296999999995,6
9226,9226,2021-02-10 07:57:45.483,34.22963,6
9236,9236,2021-02-10 07:58:15.483,35.299892,6
9246,9246,2021-02-10 07:58:45.483,34.888233,6
9256,9256,2021-02-10 07:59:15.483,32.034,6
9266,9266,2021-02-10 07:59:45.483,32.27207,6
9276,9276,2021-02-10 08:00:15.483,31.905708,6
9286,9286,2021-02-10 08:00:45.483,31.570572,6
9296,9296,2021-02-10 08:01:15.483,36.339209999999994,6
9306,9306,2021-02-10 08:01:45.483,38.854023,6
9316,9316,2021-02-10 08:02:15.483,37.739143,6
9326,9326,2021-02-10 08:02:45.483,42.347496,6
9336,9336,2021-02-10 08:03:15.483,43.179493,6
9346,9346,2021-02-10 08:03:45.483,40.336445,6
9356,9356,2021-02-10 08:04:15.483,41.20343,6
9366,9366,2021-02-10 08:04:45.483,42.191124,6
9376,9376,2021-02-10 08:05:15.483,41.240093,6
9386,9386,2021-02-10 08:05:45.483,38.456179999999996,6
9396,9396,2021-02-10 08:06:15.483,43.20691,6
9406,9406,2021-02-10 08:06:45.483,40.102245,6
9416,9416,2021-02-10 08:07:15.483,44.596759999999996,6
9426,9426,2021-02-10 08:07:45.483,47.87154,6
9436,9436,2021-02-10 08:08:15.483,46.420666,6
9446,9446,2021-02-10 08:08:45.483,37.63111,6
9456,9456,2021-02-10 08:09:15.483,47.497784,6
9466,9466,2021-02-10 08:09:45.483,49.062103,6
9476,9476,2021-02-10 08:10:15.483,46.067963,6
9486,9486,2021-02-10 08:10:45.483,52.494698,6
9496,9496,2021-02-10 08:11:15.483,53.69505699999999,6
9506,9506,2021-02-10 08:11:45.483,54.2733,6
9516,9516,2021-02-10 08:12:15.483,55.42881800000001,6
9526,9526,2021-02-10 08:12:45.483,57.071808,6
9536,9536,2021-02-10 08:13:15.483,60.217247,6
9546,9546,2021-02-10 08:13:45.483,60.970496999999995,6
9556,9556,2021-02-10 08:14:15.483,59.802459999999996,6
9566,9566,2021-02-10 08:14:45.483,44.15977,6
9576,9576,2021-02-10 08:15:15.483,53.768443999999995,6
9586,9586,2021-02-10 08:15:45.483,59.486909999999995,6
9596,9596,2021-02-10 08:16:15.483,69.38456,6
9606,9606,2021-02-10 08:16:45.483,70.41554000000001,6
9616,9616,2021-02-10 08:17:15.483,69.15805,6
9626,9626,2021-02-10 08:17:45.483,74.65646,6
9636,9636,2021-02-10 08:18:15.483,72.98318,6
9646,9646,2021-02-10 08:18:45.483,67.99503,6
9656,9656,2021-02-10 08:19:15.483,81.44566,6
9666,9666,2021-02-10 08:19:45.483,86.202095,6
9676,9676,2021-02-10 08:20:15.483,74.691574,6
9686,9686,2021-02-10 08:20:45.483,90.77654,6
9696,9696,2021-02-10 08:21:15.483,97.703285,6
9706,9706,2021-02-10 08:21:45.483,112.80843,6
9716,9716,2021-02-10 08:22:15.483,115.44845,6
9726,9726,2021-02-10 08:22:45.483,109.18085500000001,6
9736,9736,2021-02-10 08:23:15.483,125.91388,6
9746,9746,2021-02-10 08:23:45.483,129.14857,6
9756,9756,2021-02-10 08:24:15.483,119.30429,6
9766,9766,2021-02-10 08:24:45.483,134.04243,6
9776,9776,2021-02-10 08:25:15.483,158.50046,6
9786,9786,2021-02-10 08:25:45.483,189.3288,6
9796,9796,2021-02-10 08:26:15.483,195.93996,6
9806,9806,2021-02-10 08:26:45.483,175.76006999999998,6
9816,9816,2021-02-10 08:27:15.483,214.24553999999998,6
9826,9826,2021-02-10 08:27:45.483,256.9023,6
9836,9836,2021-02-10 08:28:15.483,176.64786999999998,6
9846,9846,2021-02-10 08:28:45.483,312.3313,6
9856,9856,2021-02-10 08:29:15.483,370.67624,6
9866,9866,2021-02-10 08:29:45.483,196.43237,6
9876,9876,2021-02-10 08:30:15.483,500.69687000000005,6
9886,9886,2021-02-10 08:30:45.483,652.8355,6
9896,9896,2021-02-10 08:31:15.483,816.17084,6
9906,9906,2021-02-10 08:31:45.483,804.2245,6
9916,9916,2021-02-10 08:32:15.483,555.67944,6
9926,9926,2021-02-10 08:32:45.483,134.43756000000002,6
9936,9936,2021-02-10 08:33:15.483,88.49985,6
9946,9946,2021-02-10 08:33:45.483,96.38924399999999,6
9956,9956,2021-02-10 08:34:15.483,97.49769,6
9966,9966,2021-02-10 08:34:45.483,110.67318999999999,6
9976,9976,2021-02-10 08:35:15.483,80.50869,6
9986,9986,2021-02-10 08:35:45.483,63.266266,6
9996,9996,2021-02-10 08:36:15.483,64.08232,6
10006,10006,2021-02-10 08:36:45.483,64.42668,6
10016,10016,2021-02-10 08:37:15.483,60.707530000000006,6
10026,10026,2021-02-10 08:37:45.483,52.009727000000005,6
10036,10036,2021-02-10 08:38:15.483,53.916957999999994,6
10046,10046,2021-02-10 08:38:45.483,51.610737,6
10056,10056,2021-02-10 08:39:15.483,50.74344,6
10066,10066,2021-02-10 08:39:45.483,46.056156,6
10076,10076,2021-02-10 08:40:15.483,44.262173,6
10086,10086,2021-02-10 08:40:45.483,38.346027,6
10096,10096,2021-02-10 08:41:15.483,37.139496,6
10106,10106,2021-02-10 08:41:45.483,36.727059999999994,6
10116,10116,2021-02-10 08:42:15.483,36.230796999999995,6
10126,10126,2021-02-10 08:42:45.483,35.644726,6
10136,10136,2021-02-10 08:43:15.483,35.552203999999996,6
10146,10146,2021-02-10 08:43:45.483,34.825237,6
10156,10156,2021-02-10 08:44:15.483,33.185406,6
10166,10166,2021-02-10 08:44:45.483,32.01871,6
10176,10176,2021-02-10 08:45:15.483,28.08312,6
10186,10186,2021-02-10 08:45:45.483,28.326384,6
10196,10196,2021-02-10 08:46:15.483,26.358824,6
10206,10206,2021-02-10 08:46:45.483,26.0911,6
10216,10216,2021-02-10 08:47:15.483,27.200870000000002,6
10226,10226,2021-02-10 08:47:45.483,23.877979999999997,6
10236,10236,2021-02-10 08:48:15.483,21.622746,6
10246,10246,2021-02-10 08:48:45.483,18.872583,6
10256,10256,2021-02-10 08:49:15.483,21.547173,6
10266,10266,2021-02-10 08:49:45.483,21.89024,6
10276,10276,2021-02-10 08:50:15.483,21.66082,6
10286,10286,2021-02-10 08:50:45.483,21.662073,6
10296,10296,2021-02-10 08:51:15.483,21.228544,6
10306,10306,2021-02-10 08:51:45.483,19.714292999999998,6
10316,10316,2021-02-10 08:52:15.483,18.342539000000002,6
10326,10326,2021-02-10 08:52:45.483,18.413632999999997,6
10336,10336,2021-02-10 08:53:15.483,18.377716,6
10346,10346,2021-02-10 08:53:45.483,17.380663000000002,6
10356,10356,2021-02-10 08:54:15.483,16.581656,6
10366,10366,2021-02-10 08:54:45.483,15.554737,6
10376,10376,2021-02-10 08:55:15.483,15.4398,6
10386,10386,2021-02-10 08:55:45.483,14.656922,6
10396,10396,2021-02-10 08:56:15.483,14.545724,6
10406,10406,2021-02-10 08:56:45.483,13.966546,6
10416,10416,2021-02-10 08:57:15.483,13.375014000000002,6
10426,10426,2021-02-10 08:57:45.483,12.840955000000001,6
10436,10436,2021-02-10 08:58:15.483,12.364456,6
10446,10446,2021-02-10 08:58:45.483,12.140911000000001,6
10456,10456,2021-02-10 08:59:15.483,12.244850999999999,6
10466,10466,2021-02-10 08:59:45.483,11.715008000000001,6
10476,10476,2021-02-10 09:00:15.483,10.989765,6
10486,10486,2021-02-10 09:00:45.483,10.446206,6
10496,10496,2021-02-10 09:01:15.483,9.793186,6
10506,10506,2021-02-10 09:01:45.483,9.517835,6
10516,10516,2021-02-10 09:02:15.483,8.806891,6
10526,10526,2021-02-10 09:02:45.483,7.97192,6
10536,10536,2021-02-10 09:03:15.483,7.66397,6
10546,10546,2021-02-10 09:03:45.483,7.6543865,6
10556,10556,2021-02-10 09:04:15.483,7.723068,6
10566,10566,2021-02-10 09:04:45.483,6.517111,6
10576,10576,2021-02-10 09:05:15.483,5.9934278,6
10586,10586,2021-02-10 09:05:45.483,5.923966,6
10596,10596,2021-02-10 09:06:15.483,5.915243,6
10606,10606,2021-02-10 09:06:45.483,5.300444000000001,6
10616,10616,2021-02-10 09:07:15.483,5.009322,6
