,Unnamed: 0,time,prediction,step
27860,27860,2021-02-12 12:19:27.990,19.221912,0
27870,27870,2021-02-12 12:19:57.990,17.512829,0
27880,27880,2021-02-12 12:20:27.990,21.556942000000003,0
27890,27890,2021-02-12 12:20:57.990,24.816,0
27900,27900,2021-02-12 12:21:27.990,31.243244,0
27910,27910,2021-02-12 12:21:57.990,31.397968,0
27920,27920,2021-02-12 12:22:27.990,31.259323,0
27930,27930,2021-02-12 12:22:57.990,31.193394,0
27940,27940,2021-02-12 12:23:27.990,31.204876000000002,0
27950,27950,2021-02-12 12:23:57.990,31.474190000000004,0
27960,27960,2021-02-12 12:24:27.990,31.816596999999998,0
27970,27970,2021-02-12 12:24:57.990,32.167072,0
27980,27980,2021-02-12 12:25:27.990,32.36052,0
27990,27990,2021-02-12 12:25:57.990,32.62872,0
28000,28000,2021-02-12 12:26:27.990,33.132168,0
28010,28010,2021-02-12 12:26:57.990,33.68998,0
28020,28020,2021-02-12 12:27:27.990,34.09102,0
28030,28030,2021-02-12 12:27:57.990,34.545284,0
28040,28040,2021-02-12 12:28:27.990,35.05166,0
28050,28050,2021-02-12 12:28:57.990,35.403816,0
28060,28060,2021-02-12 12:29:27.990,35.98395,0
28070,28070,2021-02-12 12:29:57.990,36.419918,0
28080,28080,2021-02-12 12:30:27.990,36.89839,0
28090,28090,2021-02-12 12:30:57.990,37.429226,0
28100,28100,2021-02-12 12:31:27.990,38.192734,0
28110,28110,2021-02-12 12:31:57.990,38.954052000000004,0
28120,28120,2021-02-12 12:32:27.990,39.590763,0
28130,28130,2021-02-12 12:32:57.990,40.251194,0
28140,28140,2021-02-12 12:33:27.990,40.92627,0
28150,28150,2021-02-12 12:33:57.990,41.826397,0
28160,28160,2021-02-12 12:34:27.990,42.543514,0
28170,28170,2021-02-12 12:34:57.990,43.079475,0
28180,28180,2021-02-12 12:35:27.990,43.810684,0
28190,28190,2021-02-12 12:35:57.990,44.363116999999995,0
28200,28200,2021-02-12 12:36:27.990,45.291477,0
28210,28210,2021-02-12 12:36:57.990,46.193974,0
28220,28220,2021-02-12 12:37:27.990,47.31797,0
28230,28230,2021-02-12 12:37:57.990,48.24801,0
28240,28240,2021-02-12 12:38:27.990,48.98217,0
28250,28250,2021-02-12 12:38:57.990,50.065228000000005,0
28260,28260,2021-02-12 12:39:27.990,50.941216,0
28270,28270,2021-02-12 12:39:57.990,52.35338,0
28280,28280,2021-02-12 12:40:27.990,53.533363,0
28290,28290,2021-02-12 12:40:57.990,54.48228,0
28300,28300,2021-02-12 12:41:27.990,55.948733999999995,0
28310,28310,2021-02-12 12:41:57.990,57.33761,0
28320,28320,2021-02-12 12:42:27.990,59.06653000000001,0
28330,28330,2021-02-12 12:42:57.990,60.509617000000006,0
28340,28340,2021-02-12 12:43:27.990,61.864265,0
28350,28350,2021-02-12 12:43:57.990,62.94793000000001,0
28360,28360,2021-02-12 12:44:27.990,64.500786,0
28370,28370,2021-02-12 12:44:57.990,65.77280400000001,0
28380,28380,2021-02-12 12:45:27.990,66.70105,0
28390,28390,2021-02-12 12:45:57.990,68.28063,0
28400,28400,2021-02-12 12:46:27.990,69.92824,0
28410,28410,2021-02-12 12:46:57.990,72.20163000000001,0
28420,28420,2021-02-12 12:47:27.990,74.15634,0
28430,28430,2021-02-12 12:47:57.990,77.125084,0
28440,28440,2021-02-12 12:48:27.990,79.64799000000001,0
28450,28450,2021-02-12 12:48:57.990,82.13287,0
28460,28460,2021-02-12 12:49:27.990,85.41235999999999,0
28470,28470,2021-02-12 12:49:57.990,88.21254,0
28480,28480,2021-02-12 12:50:27.990,92.365234,0
28490,28490,2021-02-12 12:50:57.990,95.91922,0
28500,28500,2021-02-12 12:51:27.990,99.34727,0
28510,28510,2021-02-12 12:51:57.990,104.05266999999999,0
28520,28520,2021-02-12 12:52:27.990,108.53924599999999,0
28530,28530,2021-02-12 12:52:57.990,114.90543999999998,0
28540,28540,2021-02-12 12:53:27.990,120.481476,0
28550,28550,2021-02-12 12:53:57.990,128.9717,0
28560,28560,2021-02-12 12:54:27.990,136.5235,0
28570,28570,2021-02-12 12:54:57.990,143.89708000000002,0
28580,28580,2021-02-12 12:55:27.990,154.89035,0
28590,28590,2021-02-12 12:55:57.990,164.80884,0
28600,28600,2021-02-12 12:56:27.990,180.4919,0
28610,28610,2021-02-12 12:56:57.990,194.96599999999998,0
28620,28620,2021-02-12 12:57:27.990,209.00269,0
28630,28630,2021-02-12 12:57:57.990,231.26717999999997,0
28640,28640,2021-02-12 12:58:27.990,252.08122000000003,0
28650,28650,2021-02-12 12:58:57.990,287.01373,0
28660,28660,2021-02-12 12:59:27.990,321.57962000000003,0
28670,28670,2021-02-12 12:59:57.990,354.19903999999997,0
28680,28680,2021-02-12 13:00:27.990,416.79992999999996,0
28690,28690,2021-02-12 13:00:57.990,480.4593,0
28700,28700,2021-02-12 13:01:27.990,633.7958,0
28710,28710,2021-02-12 13:01:57.990,803.23175,0
28720,28720,2021-02-12 13:02:27.990,981.0795,0
28730,28730,2021-02-12 13:02:57.990,1169.6827,0
28740,28740,2021-02-12 13:03:27.990,1362.1482,0
28750,28750,2021-02-12 13:03:57.990,1551.7771,0
28760,28760,2021-02-12 13:04:27.990,1741.8414,0
28770,28770,2021-02-12 13:04:57.990,1921.1675,0
28780,28780,2021-02-12 13:05:27.990,431.30048,0
28790,28790,2021-02-12 13:05:57.990,339.2358,0
28800,28800,2021-02-12 13:06:27.990,261.8136,0
28810,28810,2021-02-12 13:06:57.990,195.84702,0
28820,28820,2021-02-12 13:07:27.990,150.20676,0
28830,28830,2021-02-12 13:07:57.990,125.35026599999999,0
28840,28840,2021-02-12 13:08:27.990,124.34236999999999,0
28850,28850,2021-02-12 13:08:57.990,125.38906999999999,0
28860,28860,2021-02-12 13:09:27.990,128.46758,0
28870,28870,2021-02-12 13:09:57.990,132.18758,0
28880,28880,2021-02-12 13:10:27.990,131.60445,0
28890,28890,2021-02-12 13:10:57.990,131.24193,0
28900,28900,2021-02-12 13:11:27.990,126.78753,0
28910,28910,2021-02-12 13:11:57.990,122.69196000000001,0
28920,28920,2021-02-12 13:12:27.990,118.84201000000002,0
28930,28930,2021-02-12 13:12:57.990,111.73382,0
28940,28940,2021-02-12 13:13:27.990,105.3775,0
28950,28950,2021-02-12 13:13:57.990,98.34034,0
28960,28960,2021-02-12 13:14:27.990,91.00733000000001,0
28970,28970,2021-02-12 13:14:57.990,84.58704,0
28980,28980,2021-02-12 13:15:27.990,77.45895,0
28990,28990,2021-02-12 13:15:57.990,71.38835,0
29000,29000,2021-02-12 13:16:27.990,67.121666,0
29010,29010,2021-02-12 13:16:57.990,63.164368,0
29020,29020,2021-02-12 13:17:27.990,60.19183,0
29030,29030,2021-02-12 13:17:57.990,57.654194,0
29040,29040,2021-02-12 13:18:27.990,56.090878000000004,0
29050,29050,2021-02-12 13:18:57.990,55.54553000000001,0
29060,29060,2021-02-12 13:19:27.990,55.73415,0
29070,29070,2021-02-12 13:19:57.990,57.627407,0
29080,29080,2021-02-12 13:20:27.990,56.87101,0
29090,29090,2021-02-12 13:20:57.990,56.65257,0
29100,29100,2021-02-12 13:21:27.990,55.359196,0
29110,29110,2021-02-12 13:21:57.990,54.280575,0
29120,29120,2021-02-12 13:22:27.990,53.80585500000001,0
29130,29130,2021-02-12 13:22:57.990,52.384235,0
29140,29140,2021-02-12 13:23:27.990,51.50395,0
29150,29150,2021-02-12 13:23:57.990,49.960377,0
29160,29160,2021-02-12 13:24:27.990,48.843037,0
29170,29170,2021-02-12 13:24:57.990,47.823174,0
29180,29180,2021-02-12 13:25:27.990,46.59012,0
29190,29190,2021-02-12 13:25:57.990,45.703857,0
29200,29200,2021-02-12 13:26:27.990,44.356262,0
29210,29210,2021-02-12 13:26:57.990,43.314777,0
29220,29220,2021-02-12 13:27:27.990,42.56902,0
29230,29230,2021-02-12 13:27:57.990,41.491409999999995,0
29240,29240,2021-02-12 13:28:27.990,40.66525,0
29250,29250,2021-02-12 13:28:57.990,39.8705,0
29260,29260,2021-02-12 13:29:27.990,39.04307,0
29270,29270,2021-02-12 13:29:57.990,38.434013,0
29280,29280,2021-02-12 13:30:27.990,37.545376,0
29290,29290,2021-02-12 13:30:57.990,36.853943,0
29300,29300,2021-02-12 13:31:27.990,36.248222,0
29310,29310,2021-02-12 13:31:57.990,35.603559999999995,0
29320,29320,2021-02-12 13:32:27.990,35.120125,0
29330,29330,2021-02-12 13:32:57.990,34.405144,0
29340,29340,2021-02-12 13:33:27.990,33.84938,0
29350,29350,2021-02-12 13:33:57.990,33.34124,0
29360,29360,2021-02-12 13:34:27.990,32.800509999999996,0
29370,29370,2021-02-12 13:34:57.990,32.39077,0
29380,29380,2021-02-12 13:35:27.990,31.900837,0
29390,29390,2021-02-12 13:35:57.990,31.426685,0
29400,29400,2021-02-12 13:36:27.990,30.976244,0
29410,29410,2021-02-12 13:36:57.990,30.520271,0
29420,29420,2021-02-12 13:37:27.990,30.149485,0
29430,29430,2021-02-12 13:37:57.990,29.668743,0
29440,29440,2021-02-12 13:38:27.990,29.301708,0
29450,29450,2021-02-12 13:38:57.990,28.814625,0
29460,29460,2021-02-12 13:39:27.990,28.432496999999998,0
29470,29470,2021-02-12 13:39:57.990,28.039227,0
29480,29480,2021-02-12 13:40:27.990,27.614069,0
29490,29490,2021-02-12 13:40:57.990,27.28465,0
29500,29500,2021-02-12 13:41:27.990,26.932411,0
29510,29510,2021-02-12 13:41:57.990,26.539988,0
29520,29520,2021-02-12 13:42:27.990,26.23395,0
29530,29530,2021-02-12 13:42:57.990,25.930902,0
29540,29540,2021-02-12 13:43:27.990,25.58533,0
29550,29550,2021-02-12 13:43:57.990,25.245634,0
29560,29560,2021-02-12 13:44:27.990,24.85489,0
29570,29570,2021-02-12 13:44:57.990,24.544615,0
29580,29580,2021-02-12 13:45:27.990,24.230103,0
29590,29590,2021-02-12 13:45:57.990,23.975998,0
29600,29600,2021-02-12 13:46:27.990,23.743052,0
29610,29610,2021-02-12 13:46:57.990,23.455883,0
29620,29620,2021-02-12 13:47:27.990,23.240078,0
29630,29630,2021-02-12 13:47:57.990,23.003153,0
29640,29640,2021-02-12 13:48:27.990,22.70376,0
29650,29650,2021-02-12 13:48:57.990,22.428915,0
29660,29660,2021-02-12 13:49:27.990,22.209967000000002,0
29670,29670,2021-02-12 13:49:57.990,22.04822,0
29680,29680,2021-02-12 13:50:27.990,21.852179,0
29690,29690,2021-02-12 13:50:57.990,21.585214999999998,0
29700,29700,2021-02-12 13:51:27.990,21.333572,0
29710,29710,2021-02-12 13:51:57.990,21.126516,0
29720,29720,2021-02-12 13:52:27.990,20.844112,0
29730,29730,2021-02-12 13:52:57.990,20.577816000000002,0
29740,29740,2021-02-12 13:53:27.990,20.358765,0
29750,29750,2021-02-12 13:53:57.990,20.144335,0
29760,29760,2021-02-12 13:54:27.990,19.967663,0
29770,29770,2021-02-12 13:54:57.990,19.712524,0
29780,29780,2021-02-12 13:55:27.990,19.468264,0
29790,29790,2021-02-12 13:55:57.990,19.26536,0
29800,29800,2021-02-12 13:56:27.990,19.10289,0
29810,29810,2021-02-12 13:56:57.990,18.93693,0
29820,29820,2021-02-12 13:57:27.990,18.686695,0
29830,29830,2021-02-12 13:57:57.990,18.484695000000002,0
29840,29840,2021-02-12 13:58:27.990,18.282528,0
29850,29850,2021-02-12 13:58:57.990,18.115236,0
29860,29860,2021-02-12 13:59:27.990,17.94331,0
29870,29870,2021-02-12 13:59:57.990,17.797810000000002,0
29880,29880,2021-02-12 14:00:27.990,17.564909,0
29890,29890,2021-02-12 14:00:57.990,17.373836999999998,0
29900,29900,2021-02-12 14:01:27.990,17.220839,0
29910,29910,2021-02-12 14:01:57.990,16.93165,0
29920,29920,2021-02-12 14:02:27.990,16.688692,0
29930,29930,2021-02-12 14:02:57.990,16.485905,0
29940,29940,2021-02-12 14:03:27.990,16.281567000000003,0
29950,29950,2021-02-12 14:03:57.990,16.106459,0
29960,29960,2021-02-12 14:04:27.990,15.959779999999999,0
29970,29970,2021-02-12 14:04:57.990,15.841822,0
29980,29980,2021-02-12 14:05:27.990,15.754045499999998,0
29990,29990,2021-02-12 14:05:57.990,15.53537,0
30000,30000,2021-02-12 14:06:27.990,15.353714000000002,0
30010,30010,2021-02-12 14:06:57.990,15.204932999999999,0
30020,30020,2021-02-12 14:07:27.990,15.046507,0
30030,30030,2021-02-12 14:07:57.990,14.911288,0
30040,30040,2021-02-12 14:08:27.990,14.799129999999998,0
30050,30050,2021-02-12 14:08:57.990,14.710701,0
30060,30060,2021-02-12 14:09:27.990,14.531217000000002,0
30070,30070,2021-02-12 14:09:57.990,14.346302,0
30080,30080,2021-02-12 14:10:27.990,14.188692999999999,0
30090,30090,2021-02-12 14:10:57.990,14.05667,0
30100,30100,2021-02-12 14:11:27.990,13.950116,0
30110,30110,2021-02-12 14:11:57.990,13.870142999999999,0
30120,30120,2021-02-12 14:12:27.990,13.769437,0
30130,30130,2021-02-12 14:12:57.990,13.686801999999998,0
30140,30140,2021-02-12 14:13:27.990,13.623060999999998,0
30150,30150,2021-02-12 14:13:57.990,13.464520000000002,0
30160,30160,2021-02-12 14:14:27.990,13.340475,0
30170,30170,2021-02-12 14:14:57.990,13.248837,0
30180,30180,2021-02-12 14:15:27.990,13.131313,0
30190,30190,2021-02-12 14:15:57.990,13.035354,0
30200,30200,2021-02-12 14:16:27.990,12.961511999999999,0
30210,30210,2021-02-12 14:16:57.990,12.863977,0
30220,30220,2021-02-12 14:17:27.990,12.779641999999999,0
30230,30230,2021-02-12 14:17:57.990,12.708427,0
30240,30240,2021-02-12 14:18:27.990,12.650663,0
30250,30250,2021-02-12 14:18:57.990,12.607135000000001,0
30260,30260,2021-02-12 14:19:27.990,12.579211,0
30270,30270,2021-02-12 14:19:57.990,12.569108,0
30280,30280,2021-02-12 14:20:27.990,12.462716,0
30290,30290,2021-02-12 14:20:57.990,12.329119,0
30300,30300,2021-02-12 14:21:27.990,12.214692999999999,0
30310,30310,2021-02-12 14:21:57.990,12.117459,0
30320,30320,2021-02-12 14:22:27.990,12.036755,0
30330,30330,2021-02-12 14:22:57.990,11.972703,0
30340,30340,2021-02-12 14:23:27.990,11.926194,0
30350,30350,2021-02-12 14:23:57.990,11.899152,0
30360,30360,2021-02-12 14:24:27.990,11.835485,0
30370,30370,2021-02-12 14:24:57.990,11.780486,0
30380,30380,2021-02-12 14:25:27.990,11.602961,0
30390,30390,2021-02-12 14:25:57.990,11.453032,0
30400,30400,2021-02-12 14:26:27.990,11.324786999999999,0
30410,30410,2021-02-12 14:26:57.990,11.215374,0
30420,30420,2021-02-12 14:27:27.990,11.123461,0
30430,30430,2021-02-12 14:27:57.990,11.04861,0
30440,30440,2021-02-12 14:28:27.990,10.991195,0
30450,30450,2021-02-12 14:28:57.990,10.908219,0
30460,30460,2021-02-12 14:29:27.990,10.833902,0
30470,30470,2021-02-12 14:29:57.990,10.7678175,0
30480,30480,2021-02-12 14:30:27.990,10.709733,0
30490,30490,2021-02-12 14:30:57.990,10.659582,0
30500,30500,2021-02-12 14:31:27.990,10.617491000000001,0
30510,30510,2021-02-12 14:31:57.990,10.5837345,0
30520,30520,2021-02-12 14:32:27.990,10.558861,0
30530,30530,2021-02-12 14:32:57.990,10.543741,0
30540,30540,2021-02-12 14:33:27.990,10.539707,0
30550,30550,2021-02-12 14:33:57.990,10.43095,0
30560,30560,2021-02-12 14:34:27.990,10.347709,0
30570,30570,2021-02-12 14:34:57.990,10.288134,0
30580,30580,2021-02-12 14:35:27.990,10.190274,0
30590,30590,2021-02-12 14:35:57.990,10.104466,0
30600,30600,2021-02-12 14:36:27.990,10.029589999999999,0
30610,30610,2021-02-12 14:36:57.990,9.96499,0
30620,30620,2021-02-12 14:37:27.990,9.91036,0
30630,30630,2021-02-12 14:37:57.990,9.865752,0
30640,30640,2021-02-12 14:38:27.990,9.686435000000001,0
30650,30650,2021-02-12 14:38:57.990,9.538639,0
30660,30660,2021-02-12 14:39:27.990,9.415473,0
30670,30670,2021-02-12 14:39:57.990,9.313666,0
30680,30680,2021-02-12 14:40:27.990,9.1961,0
30690,30690,2021-02-12 14:40:57.990,9.090727000000001,0
30700,30700,2021-02-12 14:41:27.990,8.995961999999999,0
30710,30710,2021-02-12 14:41:57.990,8.910706,0
30720,30720,2021-02-12 14:42:27.990,8.834178,0
30730,30730,2021-02-12 14:42:57.990,8.765854,0
30740,30740,2021-02-12 14:43:27.990,8.705391,0
30750,30750,2021-02-12 14:43:57.990,8.652614999999999,0
30760,30760,2021-02-12 14:44:27.990,8.607519,0
30770,30770,2021-02-12 14:44:57.990,8.570269,0
30780,30780,2021-02-12 14:45:27.990,8.541198,0
30790,30790,2021-02-12 14:45:57.990,8.5209055,0
30800,30800,2021-02-12 14:46:27.990,8.510326,0
30810,30810,2021-02-12 14:46:57.990,8.510905000000001,0
30820,30820,2021-02-12 14:47:27.990,8.524919500000001,0
30830,30830,2021-02-12 14:47:57.990,8.556208,0
30840,30840,2021-02-12 14:48:27.990,8.611997,0
30850,30850,2021-02-12 14:48:57.990,8.478746000000001,0
30860,30860,2021-02-12 14:49:27.990,8.36779,0
30870,30870,2021-02-12 14:49:57.990,8.273736999999999,0
30880,30880,2021-02-12 14:50:27.990,8.193760000000001,0
30890,30890,2021-02-12 14:50:57.990,8.126479,0
30900,30900,2021-02-12 14:51:27.990,8.071301,0
30910,30910,2021-02-12 14:51:57.990,8.02824,0
30920,30920,2021-02-12 14:52:27.990,7.997934299999999,0
30930,30930,2021-02-12 14:52:57.990,7.981876400000001,0
30940,30940,2021-02-12 14:53:27.990,7.9311686,0
30950,30950,2021-02-12 14:53:57.990,7.884656,0
30960,30960,2021-02-12 14:54:27.990,7.84202,0
30970,30970,2021-02-12 14:54:57.990,7.8030367,0
30980,30980,2021-02-12 14:55:27.990,7.767542,0
30990,30990,2021-02-12 14:55:57.990,7.7354270000000005,0
31000,31000,2021-02-12 14:56:27.990,7.7066326,0
31010,31010,2021-02-12 14:56:57.990,7.6811523,0
31020,31020,2021-02-12 14:57:27.990,7.6590157,0
31030,31030,2021-02-12 14:57:57.990,7.640309299999999,0
31040,31040,2021-02-12 14:58:27.990,7.6251880000000005,0
31050,31050,2021-02-12 14:58:57.990,7.6138744,0
31060,31060,2021-02-12 14:59:27.990,7.606681,0
31070,31070,2021-02-12 14:59:57.990,7.604064999999999,0
31080,31080,2021-02-12 15:00:27.990,7.606679,0
31090,31090,2021-02-12 15:00:57.990,7.6154910000000005,0
31100,31100,2021-02-12 15:01:27.990,7.632011400000001,0
31110,31110,2021-02-12 15:01:57.990,7.658786999999999,0
31120,31120,2021-02-12 15:02:27.990,7.700783,0
31130,31130,2021-02-12 15:02:57.990,7.770731,0
31140,31140,2021-02-12 15:03:27.990,7.9999943,0
31150,31150,2021-02-12 15:03:57.990,7.9999943,0
31160,31160,2021-02-12 15:04:27.990,7.9999943,0
31170,31170,2021-02-12 15:04:57.990,7.9999943,0
31180,31180,2021-02-12 15:05:27.990,7.9999943,0
31190,31190,2021-02-12 15:05:57.990,7.6733713,0
31200,31200,2021-02-12 15:06:27.990,7.5265949999999995,0
31210,31210,2021-02-12 15:06:57.990,7.5385046,0
31220,31220,2021-02-12 15:07:27.990,7.417675,0
31230,31230,2021-02-12 15:07:57.990,7.320330599999999,0
31240,31240,2021-02-12 15:08:27.990,7.2370234,0
31250,31250,2021-02-12 15:08:57.990,7.16335,0
31260,31260,2021-02-12 15:09:27.990,7.097085000000001,0
31270,31270,2021-02-12 15:09:57.990,7.036916000000001,0
31280,31280,2021-02-12 15:10:27.990,6.9819865000000005,0
31290,31290,2021-02-12 15:10:57.990,6.9316897,0
31300,31300,2021-02-12 15:11:27.990,6.885593400000001,0
31310,31310,2021-02-12 15:11:57.990,6.843375,0
31320,31320,2021-02-12 15:12:27.990,6.804800500000001,0
31330,31330,2021-02-12 15:12:57.990,6.769703,0
31340,31340,2021-02-12 15:13:27.990,6.737964999999999,0
31350,31350,2021-02-12 15:13:57.990,6.709531,0
31360,31360,2021-02-12 15:14:27.990,6.6843753,0
31370,31370,2021-02-12 15:14:57.990,6.6625333,0
31380,31380,2021-02-12 15:15:27.990,6.644087299999999,0
31390,31390,2021-02-12 15:15:57.990,6.629183,0
31400,31400,2021-02-12 15:16:27.990,6.618036999999999,0
31410,31410,2021-02-12 15:16:57.990,6.610961,0
31420,31420,2021-02-12 15:17:27.990,6.608393700000001,0
31430,31430,2021-02-12 15:17:57.990,6.6109860000000005,0
31440,31440,2021-02-12 15:18:27.990,6.619693799999999,0
31450,31450,2021-02-12 15:18:57.990,6.6360016,0
31460,31460,2021-02-12 15:19:27.990,6.6624327,0
31470,31470,2021-02-12 15:19:57.990,6.7039027,0
31480,31480,2021-02-12 15:20:27.990,6.773016,0
31490,31490,2021-02-12 15:20:57.990,6.773038000000001,0
31500,31500,2021-02-12 15:21:27.990,6.7730603,0
31510,31510,2021-02-12 15:21:57.990,6.999998,0
31520,31520,2021-02-12 15:22:27.990,6.999998,0
31530,31530,2021-02-12 15:22:57.990,6.999998,0
31540,31540,2021-02-12 15:23:27.990,6.999998,0
31550,31550,2021-02-12 15:23:57.990,6.999998,0
31560,31560,2021-02-12 15:24:27.990,6.999998,0
31570,31570,2021-02-12 15:24:57.990,6.999998,0
31580,31580,2021-02-12 15:25:27.990,6.999998,0
31590,31590,2021-02-12 15:25:57.990,6.999998,0
31600,31600,2021-02-12 15:26:27.990,6.999998,0
31610,31610,2021-02-12 15:26:57.990,6.999998,0
31620,31620,2021-02-12 15:27:27.990,6.999998,0
31630,31630,2021-02-12 15:27:57.990,6.999998,0
31640,31640,2021-02-12 15:28:27.990,6.999998,0
31650,31650,2021-02-12 15:28:57.990,6.999998,0
31660,31660,2021-02-12 15:29:27.990,6.999998,0
31670,31670,2021-02-12 15:29:57.990,6.999998,0
31680,31680,2021-02-12 15:30:27.990,6.672591000000001,0
31690,31690,2021-02-12 15:30:57.990,6.525894,0
31700,31700,2021-02-12 15:31:27.990,6.413107,0
31710,31710,2021-02-12 15:31:57.990,6.318824299999999,0
31720,31720,2021-02-12 15:32:27.990,6.236843599999999,0
31730,31730,2021-02-12 15:32:57.990,6.163975700000001,0
31740,31740,2021-02-12 15:33:27.990,6.098349,0
31750,31750,2021-02-12 15:33:57.990,6.038758799999999,0
31760,31760,2021-02-12 15:34:27.990,5.9843774000000005,0
31770,31770,2021-02-12 15:34:57.990,5.9346128,0
31780,31780,2021-02-12 15:35:27.990,5.8890247,0
31790,31790,2021-02-12 15:35:57.990,5.847294000000001,0
31800,31800,2021-02-12 15:36:27.990,5.809182,0
31810,31810,2021-02-12 15:36:57.990,5.774518,0
31820,31820,2021-02-12 15:37:27.990,5.7431827,0
31830,31830,2021-02-12 15:37:57.990,5.715109,0
31840,31840,2021-02-12 15:38:27.990,5.690277,0
31850,31850,2021-02-12 15:38:57.990,5.668711,0
31860,31860,2021-02-12 15:39:27.990,5.6504900000000005,0
31870,31870,2021-02-12 15:39:57.990,5.635752,0
31880,31880,2021-02-12 15:40:27.990,5.624707,0
31890,31890,2021-02-12 15:40:57.990,5.6176653,0
31900,31900,2021-02-12 15:41:27.990,5.61505,0
31910,31910,2021-02-12 15:41:57.990,5.617499400000001,0
31920,31920,2021-02-12 15:42:27.990,5.6259502999999995,0
31930,31930,2021-02-12 15:42:57.990,5.641868,0
31940,31940,2021-02-12 15:43:27.990,5.6677365,0
31950,31950,2021-02-12 15:43:57.990,5.7084007,0
31960,31960,2021-02-12 15:44:27.990,5.7762933,0
31970,31970,2021-02-12 15:44:57.990,6.000004,0
31980,31980,2021-02-12 15:45:27.990,6.000004,0
31990,31990,2021-02-12 15:45:57.990,6.000004,0
32000,32000,2021-02-12 15:46:27.990,6.000004,0
32010,32010,2021-02-12 15:46:57.990,6.000004,0
32020,32020,2021-02-12 15:47:27.990,6.000004,0
32030,32030,2021-02-12 15:47:57.990,6.000004,0
32040,32040,2021-02-12 15:48:27.990,6.000004,0
32050,32050,2021-02-12 15:48:57.990,6.000004,0
32060,32060,2021-02-12 15:49:27.990,6.000004,0
32070,32070,2021-02-12 15:49:57.990,6.000004,0
32080,32080,2021-02-12 15:50:27.990,6.000004,0
32090,32090,2021-02-12 15:50:57.990,6.000004,0
32100,32100,2021-02-12 15:51:27.990,6.000004,0
32110,32110,2021-02-12 15:51:57.990,6.000004,0
32120,32120,2021-02-12 15:52:27.990,6.000004,0
32130,32130,2021-02-12 15:52:57.990,6.000004,0
32140,32140,2021-02-12 15:53:27.990,6.000004,0
32150,32150,2021-02-12 15:53:57.990,6.000004,0
32160,32160,2021-02-12 15:54:27.990,6.000004,0
32170,32170,2021-02-12 15:54:57.990,6.000004,0
32180,32180,2021-02-12 15:55:27.990,6.000004,0
32190,32190,2021-02-12 15:55:57.990,6.000004,0
32200,32200,2021-02-12 15:56:27.990,6.000004,0
32210,32210,2021-02-12 15:56:57.990,6.000004,0
32220,32220,2021-02-12 15:57:27.990,6.000004,0
32230,32230,2021-02-12 15:57:57.990,6.000004,0
32240,32240,2021-02-12 15:58:27.990,5.671451,0
32250,32250,2021-02-12 15:58:57.990,5.5247903,0
32260,32260,2021-02-12 15:59:27.990,5.412307299999999,0
32270,32270,2021-02-12 15:59:57.990,5.318454,0
32280,32280,2021-02-12 16:00:27.990,5.236976,0
32290,32290,2021-02-12 16:00:57.990,5.16466,0
32300,32300,2021-02-12 16:01:27.990,5.099614,0
32310,32310,2021-02-12 16:01:57.990,5.0406184000000005,0
32320,32320,2021-02-12 16:02:27.990,4.986833,0
32330,32330,2021-02-12 16:02:57.990,4.9376583,0
32340,32340,2021-02-12 16:03:27.990,4.892649700000001,0
32350,32350,2021-02-12 16:03:57.990,4.8514795,0
32360,32360,2021-02-12 16:04:27.990,4.8139043,0
32370,32370,2021-02-12 16:04:57.990,4.779746,0
32380,32380,2021-02-12 16:05:27.990,4.748883,0
32390,32390,2021-02-12 16:05:57.990,4.7212385999999995,0
32400,32400,2021-02-12 16:06:27.990,4.6967893,0
32410,32410,2021-02-12 16:06:57.990,4.6755557,0
32420,32420,2021-02-12 16:07:27.990,4.657609,0
32430,32430,2021-02-12 16:07:57.990,4.643078,0
32440,32440,2021-02-12 16:08:27.990,4.632167,0
32450,32450,2021-02-12 16:08:57.990,4.6251745,0
32460,32460,2021-02-12 16:09:27.990,4.62252,0
32470,32470,2021-02-12 16:09:57.990,4.624818,0
32480,32480,2021-02-12 16:10:27.990,4.632989,0
32490,32490,2021-02-12 16:10:57.990,4.648471400000001,0
32500,32500,2021-02-12 16:11:27.990,4.673703700000001,0
32510,32510,2021-02-12 16:11:57.990,4.7134540000000005,0
32520,32520,2021-02-12 16:12:27.990,4.779961599999999,0
32530,32530,2021-02-12 16:12:57.990,5.0,0
32540,32540,2021-02-12 16:13:27.990,5.0,0
32550,32550,2021-02-12 16:13:57.990,5.0,0
32560,32560,2021-02-12 16:14:27.990,5.0,0
32570,32570,2021-02-12 16:14:57.990,5.0,0
32580,32580,2021-02-12 16:15:27.990,5.0,0
32590,32590,2021-02-12 16:15:57.990,5.0,0
32600,32600,2021-02-12 16:16:27.990,5.0,0
32610,32610,2021-02-12 16:16:57.990,5.0,0
32620,32620,2021-02-12 16:17:27.990,5.0,0
32630,32630,2021-02-12 16:17:57.990,5.0,0
32640,32640,2021-02-12 16:18:27.990,5.0,0
32650,32650,2021-02-12 16:18:57.990,5.0,0
32660,32660,2021-02-12 16:19:27.990,5.0,0
32670,32670,2021-02-12 16:19:57.990,5.0,0
32680,32680,2021-02-12 16:20:27.990,5.0,0
32690,32690,2021-02-12 16:20:57.990,5.0,0
32700,32700,2021-02-12 16:21:27.990,5.0,0
32710,32710,2021-02-12 16:21:57.990,5.0,0
32720,32720,2021-02-12 16:22:27.990,5.0,0
32730,32730,2021-02-12 16:22:57.990,5.0,0
32740,32740,2021-02-12 16:23:27.990,5.0,0
32750,32750,2021-02-12 16:23:57.990,5.0,0
32760,32760,2021-02-12 16:24:27.990,5.0,0
32770,32770,2021-02-12 16:24:57.990,5.0,0
32780,32780,2021-02-12 16:25:27.990,5.0,0
32790,32790,2021-02-12 16:25:57.990,5.0,0
32800,32800,2021-02-12 16:26:27.990,5.0,0
32810,32810,2021-02-12 16:26:57.990,5.0,0
32820,32820,2021-02-12 16:27:27.990,5.0,0
32830,32830,2021-02-12 16:27:57.990,5.0,0
32840,32840,2021-02-12 16:28:27.990,5.0,0
32850,32850,2021-02-12 16:28:57.990,5.0,0
32860,32860,2021-02-12 16:29:27.990,5.0,0
32870,32870,2021-02-12 16:29:57.990,5.0,0
32880,32880,2021-02-12 16:30:27.990,5.0,0
32890,32890,2021-02-12 16:30:57.990,5.0,0
32900,32900,2021-02-12 16:31:27.990,5.0,0
32910,32910,2021-02-12 16:31:57.990,5.0,0
32920,32920,2021-02-12 16:32:27.990,5.0,0
32930,32930,2021-02-12 16:32:57.990,5.0,0
32940,32940,2021-02-12 16:33:27.990,5.0,0
32950,32950,2021-02-12 16:33:57.990,5.0,0
32960,32960,2021-02-12 16:34:27.990,5.0,0
32970,32970,2021-02-12 16:34:57.990,5.0,0
32980,32980,2021-02-12 16:35:27.990,5.0,0
32990,32990,2021-02-12 16:35:57.990,5.0,0
33000,33000,2021-02-12 16:36:27.990,5.0,0
33010,33010,2021-02-12 16:36:57.990,5.0,0
33020,33020,2021-02-12 16:37:27.990,5.0,0
33030,33030,2021-02-12 16:37:57.990,5.0,0
33040,33040,2021-02-12 16:38:27.990,5.0,0
33050,33050,2021-02-12 16:38:57.990,5.0,0
33060,33060,2021-02-12 16:39:27.990,5.0,0
33070,33070,2021-02-12 16:39:57.990,5.0,0
33080,33080,2021-02-12 16:40:27.990,5.0,0
33090,33090,2021-02-12 16:40:57.990,5.0,0
33100,33100,2021-02-12 16:41:27.990,5.0,0
33110,33110,2021-02-12 16:41:57.990,5.0,0
33120,33120,2021-02-12 16:42:27.990,5.0,0
33130,33130,2021-02-12 16:42:57.990,5.0,0
33140,33140,2021-02-12 16:43:27.990,5.0,0
33150,33150,2021-02-12 16:43:57.990,5.0,0
33160,33160,2021-02-12 16:44:27.990,5.0,0
33170,33170,2021-02-12 16:44:57.990,4.669152700000001,0
33180,33180,2021-02-12 16:45:27.990,4.5223107,0
33190,33190,2021-02-12 16:45:57.990,4.410072,0
33200,33200,2021-02-12 16:46:27.990,4.3166733,0
33210,33210,2021-02-12 16:46:57.990,4.235778,0
33220,33220,2021-02-12 16:47:27.990,4.1641273000000005,0
33230,33230,2021-02-12 16:47:57.990,4.0998,0
33240,33240,2021-02-12 16:48:27.990,4.0415535,0
33250,33250,2021-02-12 16:48:57.990,3.9885364,0
33260,33260,2021-02-12 16:49:27.990,3.9401312000000006,0
33270,33270,2021-02-12 16:49:57.990,3.8958839999999997,0
33280,33280,2021-02-12 16:50:27.990,3.8554592000000003,0
33290,33290,2021-02-12 16:50:57.990,3.8186035000000005,0
33300,33300,2021-02-12 16:51:27.990,3.7851295,0
33310,33310,2021-02-12 16:51:57.990,3.7549095,0
33320,33320,2021-02-12 16:52:27.990,3.7278599999999997,0
33330,33330,2021-02-12 16:52:57.990,3.7039495000000002,0
33340,33340,2021-02-12 16:53:27.990,3.683189,0
33350,33350,2021-02-12 16:53:57.990,3.6656442000000005,0
33360,33360,2021-02-12 16:54:27.990,3.6514339999999996,0
33370,33370,2021-02-12 16:54:57.990,3.6407510000000003,0
33380,33380,2021-02-12 16:55:27.990,3.6338835,0
33390,33390,2021-02-12 16:55:57.990,3.6312407999999996,0
33400,33400,2021-02-12 16:56:27.990,3.6334138,0
33410,33410,2021-02-12 16:56:57.990,3.6412977999999994,0
33420,33420,2021-02-12 16:57:27.990,3.6562977,0
33430,33430,2021-02-12 16:57:57.990,3.6807995000000004,0
33440,33440,2021-02-12 16:58:27.990,3.7194742999999995,0
33450,33450,2021-02-12 16:58:57.990,3.7843322999999995,0
33460,33460,2021-02-12 16:59:27.990,3.9999971,0
33470,33470,2021-02-12 16:59:57.990,3.9999971,0
33480,33480,2021-02-12 17:00:27.990,3.9999971,0
33490,33490,2021-02-12 17:00:57.990,3.9999971,0
33500,33500,2021-02-12 17:01:27.990,3.9999971,0
33510,33510,2021-02-12 17:01:57.990,3.9999971,0
33520,33520,2021-02-12 17:02:27.990,3.9999971,0
33530,33530,2021-02-12 17:02:57.990,3.9999971,0
33540,33540,2021-02-12 17:03:27.990,3.9999971,0
33550,33550,2021-02-12 17:03:57.990,3.9999971,0
33560,33560,2021-02-12 17:04:27.990,3.9999971,0
33570,33570,2021-02-12 17:04:57.990,3.9999971,0
33580,33580,2021-02-12 17:05:27.990,3.9999971,0
33590,33590,2021-02-12 17:05:57.990,3.9999971,0
33600,33600,2021-02-12 17:06:27.990,3.9999971,0
33610,33610,2021-02-12 17:06:57.990,3.9999971,0
33620,33620,2021-02-12 17:07:27.990,3.9999971,0
33630,33630,2021-02-12 17:07:57.990,3.9999971,0
33640,33640,2021-02-12 17:08:27.990,3.9999971,0
33650,33650,2021-02-12 17:08:57.990,3.9999971,0
33660,33660,2021-02-12 17:09:27.990,3.9999971,0
33670,33670,2021-02-12 17:09:57.990,3.9999971,0
33680,33680,2021-02-12 17:10:27.990,3.9999971,0
33690,33690,2021-02-12 17:10:57.990,3.9999971,0
33700,33700,2021-02-12 17:11:27.990,3.9999971,0
33710,33710,2021-02-12 17:11:57.990,3.9999971,0
33720,33720,2021-02-12 17:12:27.990,3.9999971,0
33730,33730,2021-02-12 17:12:57.990,3.9999971,0
33740,33740,2021-02-12 17:13:27.990,3.9999971,0
33750,33750,2021-02-12 17:13:57.990,3.9999971,0
33760,33760,2021-02-12 17:14:27.990,3.9999971,0
33770,33770,2021-02-12 17:14:57.990,3.9999971,0
33780,33780,2021-02-12 17:15:27.990,3.9999971,0
33790,33790,2021-02-12 17:15:57.990,3.9999971,0
33800,33800,2021-02-12 17:16:27.990,3.9999971,0
33810,33810,2021-02-12 17:16:57.990,3.9999971,0
33820,33820,2021-02-12 17:17:27.990,3.9999971,0
33830,33830,2021-02-12 17:17:57.990,3.9999971,0
33840,33840,2021-02-12 17:18:27.990,3.9999971,0
33850,33850,2021-02-12 17:18:57.990,3.9999971,0
33860,33860,2021-02-12 17:19:27.990,3.9999971,0
33870,33870,2021-02-12 17:19:57.990,3.9999971,0
33880,33880,2021-02-12 17:20:27.990,3.9999971,0
33890,33890,2021-02-12 17:20:57.990,3.9999971,0
33900,33900,2021-02-12 17:21:27.990,3.9999971,0
33910,33910,2021-02-12 17:21:57.990,3.9999971,0
33920,33920,2021-02-12 17:22:27.990,3.9999971,0
33930,33930,2021-02-12 17:22:57.990,3.9999971,0
33940,33940,2021-02-12 17:23:27.990,3.9999971,0
33950,33950,2021-02-12 17:23:57.990,3.9999971,0
33960,33960,2021-02-12 17:24:27.990,3.9999971,0
33970,33970,2021-02-12 17:24:57.990,3.9999971,0
33980,33980,2021-02-12 17:25:27.990,3.9999971,0
33990,33990,2021-02-12 17:25:57.990,3.9999971,0
34000,34000,2021-02-12 17:26:27.990,3.9999971,0
34010,34010,2021-02-12 17:26:57.990,3.9999971,0
34020,34020,2021-02-12 17:27:27.990,3.9999971,0
34030,34030,2021-02-12 17:27:57.990,3.9999971,0
34040,34040,2021-02-12 17:28:27.990,3.9999971,0
34050,34050,2021-02-12 17:28:57.990,3.9999971,0
34060,34060,2021-02-12 17:29:27.990,3.9999971,0
34070,34070,2021-02-12 17:29:57.990,3.9999971,0
34080,34080,2021-02-12 17:30:27.990,3.9999971,0
34090,34090,2021-02-12 17:30:57.990,3.9999971,0
34100,34100,2021-02-12 17:31:27.990,3.9999971,0
34110,34110,2021-02-12 17:31:57.990,3.9999971,0
34120,34120,2021-02-12 17:32:27.990,3.9999971,0
34130,34130,2021-02-12 17:32:57.990,3.9999971,0
34140,34140,2021-02-12 17:33:27.990,3.9999971,0
34150,34150,2021-02-12 17:33:57.990,3.9999971,0
34160,34160,2021-02-12 17:34:27.990,3.9999971,0
34170,34170,2021-02-12 17:34:57.990,3.9999971,0
34180,34180,2021-02-12 17:35:27.990,3.9999971,0
34190,34190,2021-02-12 17:35:57.990,3.9999971,0
34200,34200,2021-02-12 17:36:27.990,3.9999971,0
34210,34210,2021-02-12 17:36:57.990,3.9999971,0
34220,34220,2021-02-12 17:37:27.990,3.9999971,0
34230,34230,2021-02-12 17:37:57.990,3.9999971,0
34240,34240,2021-02-12 17:38:27.990,3.9999971,0
34250,34250,2021-02-12 17:38:57.990,3.9999971,0
34260,34260,2021-02-12 17:39:27.990,3.9999971,0
34270,34270,2021-02-12 17:39:57.990,3.9999971,0
34280,34280,2021-02-12 17:40:27.990,3.9999971,0
34290,34290,2021-02-12 17:40:57.990,3.9999971,0
34300,34300,2021-02-12 17:41:27.990,3.9999971,0
34310,34310,2021-02-12 17:41:57.990,3.9999971,0
34320,34320,2021-02-12 17:42:27.990,3.9999971,0
34330,34330,2021-02-12 17:42:57.990,3.9999971,0
34340,34340,2021-02-12 17:43:27.990,3.9999971,0
34350,34350,2021-02-12 17:43:57.990,3.664908,0
34360,34360,2021-02-12 17:44:27.990,3.5175471,0
34370,34370,2021-02-12 17:44:57.990,3.4054847,0
34380,34380,2021-02-12 17:45:27.990,3.3126178,0
34390,34390,2021-02-12 17:45:57.990,3.232472,0
34400,34400,2021-02-12 17:46:27.990,3.1617126,0
34410,34410,2021-02-12 17:46:57.990,3.0983691,0
34420,34420,2021-02-12 17:47:27.990,3.0411667999999996,0
34430,34430,2021-02-12 17:47:57.990,2.9892256,0
34440,34440,2021-02-12 17:48:27.990,2.941909,0
34450,34450,2021-02-12 17:48:57.990,2.898746,0
34460,34460,2021-02-12 17:49:27.990,2.8593864,0
34470,34470,2021-02-12 17:49:57.990,2.8235633,0
34480,34480,2021-02-12 17:50:27.990,2.7910798,0
34490,34490,2021-02-12 17:50:57.990,2.761794,0
34500,34500,2021-02-12 17:51:27.990,2.7356162,0
34510,34510,2021-02-12 17:51:57.990,2.7125008,0
34520,34520,2021-02-12 17:52:27.990,2.6924502999999995,0
34530,34530,2021-02-12 17:52:57.990,2.6755173,0
34540,34540,2021-02-12 17:53:27.990,2.6618109,0
34550,34550,2021-02-12 17:53:57.990,2.6515076,0
34560,34560,2021-02-12 17:54:27.990,2.6448786,0
34570,34570,2021-02-12 17:54:57.990,2.6423153999999998,0
34580,34580,2021-02-12 17:55:27.990,2.6443894,0
34590,34590,2021-02-12 17:55:57.990,2.6519582,0
34600,34600,2021-02-12 17:56:27.990,2.6663792,0
34610,34610,2021-02-12 17:56:57.990,2.6899712000000005,0
34620,34620,2021-02-12 17:57:27.990,2.7272757999999997,0
34630,34630,2021-02-12 17:57:57.990,2.7900057,0
34640,34640,2021-02-12 17:58:27.990,3.0000023999999996,0
34650,34650,2021-02-12 17:58:57.990,3.0000023999999996,0
34660,34660,2021-02-12 17:59:27.990,3.0000023999999996,0
34670,34670,2021-02-12 17:59:57.990,3.0000023999999996,0
34680,34680,2021-02-12 18:00:27.990,3.0000023999999996,0
34690,34690,2021-02-12 18:00:57.990,3.0000023999999996,0
34700,34700,2021-02-12 18:01:27.990,3.0000023999999996,0
34710,34710,2021-02-12 18:01:57.990,3.0000023999999996,0
34720,34720,2021-02-12 18:02:27.990,3.0000023999999996,0
34730,34730,2021-02-12 18:02:57.990,3.0000023999999996,0
34740,34740,2021-02-12 18:03:27.990,3.0000023999999996,0
34750,34750,2021-02-12 18:03:57.990,3.0000023999999996,0
34760,34760,2021-02-12 18:04:27.990,3.0000023999999996,0
34770,34770,2021-02-12 18:04:57.990,3.0000023999999996,0
34780,34780,2021-02-12 18:05:27.990,3.0000023999999996,0
34790,34790,2021-02-12 18:05:57.990,3.0000023999999996,0
34800,34800,2021-02-12 18:06:27.990,3.0000023999999996,0
34810,34810,2021-02-12 18:06:57.990,3.0000023999999996,0
34820,34820,2021-02-12 18:07:27.990,3.0000023999999996,0
34830,34830,2021-02-12 18:07:57.990,3.0000023999999996,0
34840,34840,2021-02-12 18:08:27.990,3.0000023999999996,0
34850,34850,2021-02-12 18:08:57.990,3.0000023999999996,0
34860,34860,2021-02-12 18:09:27.990,3.0000023999999996,0
34870,34870,2021-02-12 18:09:57.990,3.0000023999999996,0
34880,34880,2021-02-12 18:10:27.990,3.0000023999999996,0
34890,34890,2021-02-12 18:10:57.990,3.0000023999999996,0
34900,34900,2021-02-12 18:11:27.990,3.0000023999999996,0
34910,34910,2021-02-12 18:11:57.990,3.0000023999999996,0
34920,34920,2021-02-12 18:12:27.990,3.0000023999999996,0
34930,34930,2021-02-12 18:12:57.990,3.0000023999999996,0
34940,34940,2021-02-12 18:13:27.990,3.0000023999999996,0
34950,34950,2021-02-12 18:13:57.990,3.0000023999999996,0
34960,34960,2021-02-12 18:14:27.990,3.0000023999999996,0
34970,34970,2021-02-12 18:14:57.990,3.0000023999999996,0
34980,34980,2021-02-12 18:15:27.990,3.0000023999999996,0
34990,34990,2021-02-12 18:15:57.990,3.0000023999999996,0
35000,35000,2021-02-12 18:16:27.990,3.0000023999999996,0
35010,35010,2021-02-12 18:16:57.990,3.0000023999999996,0
35020,35020,2021-02-12 18:17:27.990,3.0000023999999996,0
35030,35030,2021-02-12 18:17:57.990,3.0000023999999996,0
35040,35040,2021-02-12 18:18:27.990,3.0000023999999996,0
35050,35050,2021-02-12 18:18:57.990,3.0000023999999996,0
35060,35060,2021-02-12 18:19:27.990,3.0000023999999996,0
35070,35070,2021-02-12 18:19:57.990,3.0000023999999996,0
35080,35080,2021-02-12 18:20:27.990,3.0000023999999996,0
35090,35090,2021-02-12 18:20:57.990,3.0000023999999996,0
35100,35100,2021-02-12 18:21:27.990,3.0000023999999996,0
35110,35110,2021-02-12 18:21:57.990,3.0000023999999996,0
35120,35120,2021-02-12 18:22:27.990,3.0000023999999996,0
35130,35130,2021-02-12 18:22:57.990,3.0000023999999996,0
35140,35140,2021-02-12 18:23:27.990,3.0000023999999996,0
35150,35150,2021-02-12 18:23:57.990,3.0000023999999996,0
35160,35160,2021-02-12 18:24:27.990,3.0000023999999996,0
35170,35170,2021-02-12 18:24:57.990,3.0000023999999996,0
35180,35180,2021-02-12 18:25:27.990,3.0000023999999996,0
35190,35190,2021-02-12 18:25:57.990,3.0000023999999996,0
35200,35200,2021-02-12 18:26:27.990,3.0000023999999996,0
35210,35210,2021-02-12 18:26:57.990,3.0000023999999996,0
35220,35220,2021-02-12 18:27:27.990,3.0000023999999996,0
35230,35230,2021-02-12 18:27:57.990,3.0000023999999996,0
35240,35240,2021-02-12 18:28:27.990,3.0000023999999996,0
35250,35250,2021-02-12 18:28:57.990,3.0000023999999996,0
35260,35260,2021-02-12 18:29:27.990,3.0000023999999996,0
35270,35270,2021-02-12 18:29:57.990,3.0000023999999996,0
35280,35280,2021-02-12 18:30:27.990,3.0000023999999996,0
35290,35290,2021-02-12 18:30:57.990,3.0000023999999996,0
35300,35300,2021-02-12 18:31:27.990,3.0000023999999996,0
35310,35310,2021-02-12 18:31:57.990,3.0000023999999996,0
35320,35320,2021-02-12 18:32:27.990,3.0000023999999996,0
35330,35330,2021-02-12 18:32:57.990,3.0000023999999996,0
35340,35340,2021-02-12 18:33:27.990,3.0000023999999996,0
35350,35350,2021-02-12 18:33:57.990,3.0000023999999996,0
35360,35360,2021-02-12 18:34:27.990,3.0000023999999996,0
35370,35370,2021-02-12 18:34:57.990,3.0000023999999996,0
35380,35380,2021-02-12 18:35:27.990,3.0000023999999996,0
35390,35390,2021-02-12 18:35:57.990,3.0000023999999996,0
35400,35400,2021-02-12 18:36:27.990,3.0000023999999996,0
35410,35410,2021-02-12 18:36:57.990,3.0000023999999996,0
35420,35420,2021-02-12 18:37:27.990,3.0000023999999996,0
35430,35430,2021-02-12 18:37:57.990,3.0000023999999996,0
35440,35440,2021-02-12 18:38:27.990,3.0000023999999996,0
35450,35450,2021-02-12 18:38:57.990,3.0000023999999996,0
35460,35460,2021-02-12 18:39:27.990,3.0000023999999996,0
35470,35470,2021-02-12 18:39:57.990,3.0000023999999996,0
35480,35480,2021-02-12 18:40:27.990,3.0000023999999996,0
35490,35490,2021-02-12 18:40:57.990,3.0000023999999996,0
35500,35500,2021-02-12 18:41:27.990,3.0000023999999996,0
35510,35510,2021-02-12 18:41:57.990,3.0000023999999996,0
35520,35520,2021-02-12 18:42:27.990,3.0000023999999996,0
35530,35530,2021-02-12 18:42:57.990,3.0000023999999996,0
35540,35540,2021-02-12 18:43:27.990,3.0000023999999996,0
35550,35550,2021-02-12 18:43:57.990,3.0000023999999996,0
35560,35560,2021-02-12 18:44:27.990,3.0000023999999996,0
35570,35570,2021-02-12 18:44:57.990,3.0000023999999996,0
35580,35580,2021-02-12 18:45:27.990,3.0000023999999996,0
35590,35590,2021-02-12 18:45:57.990,3.0000023999999996,0
35600,35600,2021-02-12 18:46:27.990,3.0000023999999996,0
35610,35610,2021-02-12 18:46:57.990,3.0000023999999996,0
35620,35620,2021-02-12 18:47:27.990,3.0000023999999996,0
35630,35630,2021-02-12 18:47:57.990,3.0000023999999996,0
35640,35640,2021-02-12 18:48:27.990,3.0000023999999996,0
35650,35650,2021-02-12 18:48:57.990,3.0000023999999996,0
35660,35660,2021-02-12 18:49:27.990,3.0000023999999996,0
35670,35670,2021-02-12 18:49:57.990,3.0000023999999996,0
35680,35680,2021-02-12 18:50:27.990,3.0000023999999996,0
35690,35690,2021-02-12 18:50:57.990,3.0000023999999996,0
35700,35700,2021-02-12 18:51:27.990,3.0000023999999996,0
35710,35710,2021-02-12 18:51:57.990,3.0000023999999996,0
35720,35720,2021-02-12 18:52:27.990,3.0000023999999996,0
35730,35730,2021-02-12 18:52:57.990,3.0000023999999996,0
35740,35740,2021-02-12 18:53:27.990,3.0000023999999996,0
35750,35750,2021-02-12 18:53:57.990,3.0000023999999996,0
35760,35760,2021-02-12 18:54:27.990,3.0000023999999996,0
35770,35770,2021-02-12 18:54:57.990,3.0000023999999996,0
35780,35780,2021-02-12 18:55:27.990,3.0000023999999996,0
35790,35790,2021-02-12 18:55:57.990,3.0000023999999996,0
35800,35800,2021-02-12 18:56:27.990,3.0000023999999996,0
35810,35810,2021-02-12 18:56:57.990,3.0000023999999996,0
35820,35820,2021-02-12 18:57:27.990,3.0000023999999996,0
35830,35830,2021-02-12 18:57:57.990,3.0000023999999996,0
35840,35840,2021-02-12 18:58:27.990,3.0000023999999996,0
35850,35850,2021-02-12 18:58:57.990,2.657852,0
35860,35860,2021-02-12 18:59:27.990,2.5096002,0
35870,35870,2021-02-12 18:59:57.990,2.3977807,0
35880,35880,2021-02-12 19:00:27.990,2.3057317999999998,0
35890,35890,2021-02-12 19:00:57.990,2.2267493999999997,0
35900,35900,2021-02-12 19:01:27.990,2.1573743999999997,0
35910,35910,2021-02-12 19:01:57.990,2.0955591,0
35920,35920,2021-02-12 19:02:27.990,2.0399733,0
35930,35930,2021-02-12 19:02:57.990,1.9896967,0
35940,35940,2021-02-12 19:03:27.990,1.9440613000000002,0
35950,35950,2021-02-12 19:03:57.990,1.90257,0
35960,35960,2021-02-12 19:04:27.990,1.86485,0
35970,35970,2021-02-12 19:04:57.990,1.8306162,0
35980,35980,2021-02-12 19:05:27.990,1.799653,0
35990,35990,2021-02-12 19:05:57.990,1.7718036,0
36000,36000,2021-02-12 19:06:27.990,1.7469616000000001,0
36010,36010,2021-02-12 19:06:57.990,1.7250671000000002,0
36020,36020,2021-02-12 19:07:27.990,1.7061071,0
36030,36030,2021-02-12 19:07:57.990,1.6901173999999999,0
36040,36040,2021-02-12 19:08:27.990,1.6771886000000003,0
36050,36050,2021-02-12 19:08:57.990,1.6674794999999998,0
36060,36060,2021-02-12 19:09:27.990,1.6612331999999999,0
36070,36070,2021-02-12 19:09:57.990,1.6588144,0
36080,36080,2021-02-12 19:10:27.990,1.6607604,0
36090,36090,2021-02-12 19:10:57.990,1.6678810000000002,0
36100,36100,2021-02-12 19:11:27.990,1.6814606,0
36110,36110,2021-02-12 19:11:57.990,1.7037139,0
36120,36120,2021-02-12 19:12:27.990,1.7389898000000001,0
36130,36130,2021-02-12 19:12:57.990,1.7985422999999998,0
36140,36140,2021-02-12 19:13:27.990,1.999999,0
36150,36150,2021-02-12 19:13:57.990,1.999999,0
36160,36160,2021-02-12 19:14:27.990,1.999999,0
36170,36170,2021-02-12 19:14:57.990,1.999999,0
36180,36180,2021-02-12 19:15:27.990,1.999999,0
36190,36190,2021-02-12 19:15:57.990,1.999999,0
36200,36200,2021-02-12 19:16:27.990,1.999999,0
36210,36210,2021-02-12 19:16:57.990,1.999999,0
36220,36220,2021-02-12 19:17:27.990,1.999999,0
36230,36230,2021-02-12 19:17:57.990,1.999999,0
36240,36240,2021-02-12 19:18:27.990,1.999999,0
36250,36250,2021-02-12 19:18:57.990,1.999999,0
36260,36260,2021-02-12 19:19:27.990,1.999999,0
36270,36270,2021-02-12 19:19:57.990,1.999999,0
36280,36280,2021-02-12 19:20:27.990,1.999999,0
36290,36290,2021-02-12 19:20:57.990,1.999999,0
36300,36300,2021-02-12 19:21:27.990,1.999999,0
36310,36310,2021-02-12 19:21:57.990,1.999999,0
36320,36320,2021-02-12 19:22:27.990,1.999999,0
36330,36330,2021-02-12 19:22:57.990,1.999999,0
36340,36340,2021-02-12 19:23:27.990,1.999999,0
36350,36350,2021-02-12 19:23:57.990,1.999999,0
36360,36360,2021-02-12 19:24:27.990,1.999999,0
36370,36370,2021-02-12 19:24:57.990,1.999999,0
36380,36380,2021-02-12 19:25:27.990,1.999999,0
36390,36390,2021-02-12 19:25:57.990,1.999999,0
36400,36400,2021-02-12 19:26:27.990,1.999999,0
36410,36410,2021-02-12 19:26:57.990,1.999999,0
36420,36420,2021-02-12 19:27:27.990,1.999999,0
36430,36430,2021-02-12 19:27:57.990,1.999999,0
36440,36440,2021-02-12 19:28:27.990,1.999999,0
36450,36450,2021-02-12 19:28:57.990,1.999999,0
36460,36460,2021-02-12 19:29:27.990,1.999999,0
36470,36470,2021-02-12 19:29:57.990,1.999999,0
36480,36480,2021-02-12 19:30:27.990,1.999999,0
36490,36490,2021-02-12 19:30:57.990,1.999999,0
36500,36500,2021-02-12 19:31:27.990,1.999999,0
36510,36510,2021-02-12 19:31:57.990,1.999999,0
36520,36520,2021-02-12 19:32:27.990,1.999999,0
36530,36530,2021-02-12 19:32:57.990,1.999999,0
36540,36540,2021-02-12 19:33:27.990,1.999999,0
36550,36550,2021-02-12 19:33:57.990,1.999999,0
36560,36560,2021-02-12 19:34:27.990,1.999999,0
36570,36570,2021-02-12 19:34:57.990,1.999999,0
36580,36580,2021-02-12 19:35:27.990,1.999999,0
36590,36590,2021-02-12 19:35:57.990,1.999999,0
36600,36600,2021-02-12 19:36:27.990,1.999999,0
36610,36610,2021-02-12 19:36:57.990,1.999999,0
36620,36620,2021-02-12 19:37:27.990,1.999999,0
36630,36630,2021-02-12 19:37:57.990,1.999999,0
36640,36640,2021-02-12 19:38:27.990,1.999999,0
36650,36650,2021-02-12 19:38:57.990,1.999999,0
36660,36660,2021-02-12 19:39:27.990,1.999999,0
36670,36670,2021-02-12 19:39:57.990,1.999999,0
36680,36680,2021-02-12 19:40:27.990,1.999999,0
36690,36690,2021-02-12 19:40:57.990,1.999999,0
36700,36700,2021-02-12 19:41:27.990,1.999999,0
36710,36710,2021-02-12 19:41:57.990,1.999999,0
36720,36720,2021-02-12 19:42:27.990,1.999999,0
36730,36730,2021-02-12 19:42:57.990,1.999999,0
36740,36740,2021-02-12 19:43:27.990,1.999999,0
36750,36750,2021-02-12 19:43:57.990,1.999999,0
36760,36760,2021-02-12 19:44:27.990,1.999999,0
36770,36770,2021-02-12 19:44:57.990,1.999999,0
36780,36780,2021-02-12 19:45:27.990,1.999999,0
36790,36790,2021-02-12 19:45:57.990,1.999999,0
36800,36800,2021-02-12 19:46:27.990,1.999999,0
36810,36810,2021-02-12 19:46:57.990,1.999999,0
36820,36820,2021-02-12 19:47:27.990,1.999999,0
36830,36830,2021-02-12 19:47:57.990,1.999999,0
36840,36840,2021-02-12 19:48:27.990,1.999999,0
36850,36850,2021-02-12 19:48:57.990,1.999999,0
36860,36860,2021-02-12 19:49:27.990,1.999999,0
36870,36870,2021-02-12 19:49:57.990,1.999999,0
36880,36880,2021-02-12 19:50:27.990,1.999999,0
36890,36890,2021-02-12 19:50:57.990,1.999999,0
36900,36900,2021-02-12 19:51:27.990,1.999999,0
36910,36910,2021-02-12 19:51:57.990,1.999999,0
36920,36920,2021-02-12 19:52:27.990,1.999999,0
36930,36930,2021-02-12 19:52:57.990,1.999999,0
36940,36940,2021-02-12 19:53:27.990,1.999999,0
36950,36950,2021-02-12 19:53:57.990,1.999999,0
36960,36960,2021-02-12 19:54:27.990,1.999999,0
36970,36970,2021-02-12 19:54:57.990,1.999999,0
36980,36980,2021-02-12 19:55:27.990,1.999999,0
36990,36990,2021-02-12 19:55:57.990,1.999999,0
37000,37000,2021-02-12 19:56:27.990,1.999999,0
37010,37010,2021-02-12 19:56:57.990,1.999999,0
37020,37020,2021-02-12 19:57:27.990,1.999999,0
37030,37030,2021-02-12 19:57:57.990,1.999999,0
37040,37040,2021-02-12 19:58:27.990,1.999999,0
37050,37050,2021-02-12 19:58:57.990,1.999999,0
37060,37060,2021-02-12 19:59:27.990,1.999999,0
37070,37070,2021-02-12 19:59:57.990,1.999999,0
37080,37080,2021-02-12 20:00:27.990,1.999999,0
37090,37090,2021-02-12 20:00:57.990,1.999999,0
37100,37100,2021-02-12 20:01:27.990,1.999999,0
37110,37110,2021-02-12 20:01:57.990,1.999999,0
37120,37120,2021-02-12 20:02:27.990,1.999999,0
37130,37130,2021-02-12 20:02:57.990,1.999999,0
37140,37140,2021-02-12 20:03:27.990,1.999999,0
37150,37150,2021-02-12 20:03:57.990,1.999999,0
37160,37160,2021-02-12 20:04:27.990,1.999999,0
37170,37170,2021-02-12 20:04:57.990,1.999999,0
37180,37180,2021-02-12 20:05:27.990,1.999999,0
37190,37190,2021-02-12 20:05:57.990,1.999999,0
37200,37200,2021-02-12 20:06:27.990,1.999999,0
37210,37210,2021-02-12 20:06:57.990,1.999999,0
37220,37220,2021-02-12 20:07:27.990,1.999999,0
37230,37230,2021-02-12 20:07:57.990,1.999999,0
37240,37240,2021-02-12 20:08:27.990,1.999999,0
37250,37250,2021-02-12 20:08:57.990,1.999999,0
37260,37260,2021-02-12 20:09:27.990,1.999999,0
37270,37270,2021-02-12 20:09:57.990,1.999999,0
37280,37280,2021-02-12 20:10:27.990,1.999999,0
37290,37290,2021-02-12 20:10:57.990,1.999999,0
37300,37300,2021-02-12 20:11:27.990,1.999999,0
37310,37310,2021-02-12 20:11:57.990,1.999999,0
37320,37320,2021-02-12 20:12:27.990,1.999999,0
37330,37330,2021-02-12 20:12:57.990,1.999999,0
37340,37340,2021-02-12 20:13:27.990,1.999999,0
37350,37350,2021-02-12 20:13:57.990,1.999999,0
37360,37360,2021-02-12 20:14:27.990,1.999999,0
37370,37370,2021-02-12 20:14:57.990,1.999999,0
37380,37380,2021-02-12 20:15:27.990,1.999999,0
37390,37390,2021-02-12 20:15:57.990,1.999999,0
37400,37400,2021-02-12 20:16:27.990,1.999999,0
37410,37410,2021-02-12 20:16:57.990,1.999999,0
37420,37420,2021-02-12 20:17:27.990,1.999999,0
37430,37430,2021-02-12 20:17:57.990,1.999999,0
37440,37440,2021-02-12 20:18:27.990,1.999999,0
37450,37450,2021-02-12 20:18:57.990,1.999999,0
37460,37460,2021-02-12 20:19:27.990,1.999999,0
37470,37470,2021-02-12 20:19:57.990,1.999999,0
37480,37480,2021-02-12 20:20:27.990,1.999999,0
37490,37490,2021-02-12 20:20:57.990,1.999999,0
37500,37500,2021-02-12 20:21:27.990,1.999999,0
37510,37510,2021-02-12 20:21:57.990,1.999999,0
37520,37520,2021-02-12 20:22:27.990,1.999999,0
37530,37530,2021-02-12 20:22:57.990,1.999999,0
37540,37540,2021-02-12 20:23:27.990,1.999999,0
37550,37550,2021-02-12 20:23:57.990,1.999999,0
37560,37560,2021-02-12 20:24:27.990,1.999999,0
37570,37570,2021-02-12 20:24:57.990,1.999999,0
37580,37580,2021-02-12 20:25:27.990,1.999999,0
37590,37590,2021-02-12 20:25:57.990,1.999999,0
37600,37600,2021-02-12 20:26:27.990,1.999999,0
37610,37610,2021-02-12 20:26:57.990,1.999999,0
37620,37620,2021-02-12 20:27:27.990,1.999999,0
37630,37630,2021-02-12 20:27:57.990,1.999999,0
37640,37640,2021-02-12 20:28:27.990,1.999999,0
37650,37650,2021-02-12 20:28:57.990,1.999999,0
37660,37660,2021-02-12 20:29:27.990,1.999999,0
37670,37670,2021-02-12 20:29:57.990,1.999999,0
37680,37680,2021-02-12 20:30:27.990,1.999999,0
37690,37690,2021-02-12 20:30:57.990,1.999999,0
37700,37700,2021-02-12 20:31:27.990,1.999999,0
37710,37710,2021-02-12 20:31:57.990,1.999999,0
37720,37720,2021-02-12 20:32:27.990,1.999999,0
37730,37730,2021-02-12 20:32:57.990,1.999999,0
37740,37740,2021-02-12 20:33:27.990,1.999999,0
37750,37750,2021-02-12 20:33:57.990,1.999999,0
37760,37760,2021-02-12 20:34:27.990,1.999999,0
37770,37770,2021-02-12 20:34:57.990,1.999999,0
37780,37780,2021-02-12 20:35:27.990,1.999999,0
37790,37790,2021-02-12 20:35:57.990,1.999999,0
37800,37800,2021-02-12 20:36:27.990,1.999999,0
37810,37810,2021-02-12 20:36:57.990,1.999999,0
37820,37820,2021-02-12 20:37:27.990,1.999999,0
37830,37830,2021-02-12 20:37:57.990,1.999999,0
37840,37840,2021-02-12 20:38:27.990,1.999999,0
37850,37850,2021-02-12 20:38:57.990,1.999999,0
37860,37860,2021-02-12 20:39:27.990,1.999999,0
37870,37870,2021-02-12 20:39:57.990,1.999999,0
37880,37880,2021-02-12 20:40:27.990,1.999999,0
37890,37890,2021-02-12 20:40:57.990,1.999999,0
37900,37900,2021-02-12 20:41:27.990,1.999999,0
37910,37910,2021-02-12 20:41:57.990,1.999999,0
37920,37920,2021-02-12 20:42:27.990,1.999999,0
37930,37930,2021-02-12 20:42:57.990,1.999999,0
37940,37940,2021-02-12 20:43:27.990,1.999999,0
37950,37950,2021-02-12 20:43:57.990,1.999999,0
37960,37960,2021-02-12 20:44:27.990,1.999999,0
37970,37970,2021-02-12 20:44:57.990,1.999999,0
37980,37980,2021-02-12 20:45:27.990,1.999999,0
37990,37990,2021-02-12 20:45:57.990,1.999999,0
38000,38000,2021-02-12 20:46:27.990,1.999999,0
38010,38010,2021-02-12 20:46:57.990,1.999999,0
38020,38020,2021-02-12 20:47:27.990,1.999999,0
38030,38030,2021-02-12 20:47:57.990,1.999999,0
38040,38040,2021-02-12 20:48:27.990,1.999999,0
38050,38050,2021-02-12 20:48:57.990,1.999999,0
38060,38060,2021-02-12 20:49:27.990,1.999999,0
38070,38070,2021-02-12 20:49:57.990,1.999999,0
38080,38080,2021-02-12 20:50:27.990,1.999999,0
38090,38090,2021-02-12 20:50:57.990,1.999999,0
38100,38100,2021-02-12 20:51:27.990,1.999999,0
38110,38110,2021-02-12 20:51:57.990,1.999999,0
38120,38120,2021-02-12 20:52:27.990,1.999999,0
38130,38130,2021-02-12 20:52:57.990,1.999999,0
38140,38140,2021-02-12 20:53:27.990,1.999999,0
38150,38150,2021-02-12 20:53:57.990,1.999999,0
38160,38160,2021-02-12 20:54:27.990,1.999999,0
38170,38170,2021-02-12 20:54:57.990,1.999999,0
38180,38180,2021-02-12 20:55:27.990,1.999999,0
38190,38190,2021-02-12 20:55:57.990,1.999999,0
38200,38200,2021-02-12 20:56:27.990,1.999999,0
38210,38210,2021-02-12 20:56:57.990,1.999999,0
38220,38220,2021-02-12 20:57:27.990,1.999999,0
38230,38230,2021-02-12 20:57:57.990,1.999999,0
38240,38240,2021-02-12 20:58:27.990,1.999999,0
38250,38250,2021-02-12 20:58:57.990,1.999999,0
38260,38260,2021-02-12 20:59:27.990,1.999999,0
38270,38270,2021-02-12 20:59:57.990,1.999999,0
38280,38280,2021-02-12 21:00:27.990,1.999999,0
38290,38290,2021-02-12 21:00:57.990,1.999999,0
38300,38300,2021-02-12 21:01:27.990,1.999999,0
38310,38310,2021-02-12 21:01:57.990,1.999999,0
38320,38320,2021-02-12 21:02:27.990,1.999999,0
38330,38330,2021-02-12 21:02:57.990,1.999999,0
38340,38340,2021-02-12 21:03:27.990,1.999999,0
38350,38350,2021-02-12 21:03:57.990,1.999999,0
38360,38360,2021-02-12 21:04:27.990,1.999999,0
38370,38370,2021-02-12 21:04:57.990,1.999999,0
38380,38380,2021-02-12 21:05:27.990,1.999999,0
38390,38390,2021-02-12 21:05:57.990,1.999999,0
38400,38400,2021-02-12 21:06:27.990,1.999999,0
38410,38410,2021-02-12 21:06:57.990,1.999999,0
38420,38420,2021-02-12 21:07:27.990,1.999999,0
38430,38430,2021-02-12 21:07:57.990,1.999999,0
38440,38440,2021-02-12 21:08:27.990,1.999999,0
38450,38450,2021-02-12 21:08:57.990,1.999999,0
38460,38460,2021-02-12 21:09:27.990,1.999999,0
38470,38470,2021-02-12 21:09:57.990,1.999999,0
38480,38480,2021-02-12 21:10:27.990,1.999999,0
38490,38490,2021-02-12 21:10:57.990,1.999999,0
38500,38500,2021-02-12 21:11:27.990,1.999999,0
38510,38510,2021-02-12 21:11:57.990,1.999999,0
38520,38520,2021-02-12 21:12:27.990,1.999999,0
38530,38530,2021-02-12 21:12:57.990,1.999999,0
38540,38540,2021-02-12 21:13:27.990,1.999999,0
38550,38550,2021-02-12 21:13:57.990,1.999999,0
38560,38560,2021-02-12 21:14:27.990,1.999999,0
38570,38570,2021-02-12 21:14:57.990,1.999999,0
38580,38580,2021-02-12 21:15:27.990,1.999999,0
38590,38590,2021-02-12 21:15:57.990,1.999999,0
38600,38600,2021-02-12 21:16:27.990,1.999999,0
38610,38610,2021-02-12 21:16:57.990,1.999999,0
38620,38620,2021-02-12 21:17:27.990,1.999999,0
38630,38630,2021-02-12 21:17:57.990,1.999999,0
38640,38640,2021-02-12 21:18:27.990,1.999999,0
38650,38650,2021-02-12 21:18:57.990,1.999999,0
38660,38660,2021-02-12 21:19:27.990,1.999999,0
38670,38670,2021-02-12 21:19:57.990,1.999999,0
38680,38680,2021-02-12 21:20:27.990,1.999999,0
38690,38690,2021-02-12 21:20:57.990,1.999999,0
38700,38700,2021-02-12 21:21:27.990,1.999999,0
38710,38710,2021-02-12 21:21:57.990,1.6447479999999999,0
38720,38720,2021-02-12 21:22:27.990,1.494951,0
38730,38730,2021-02-12 21:22:57.990,1.3836524,0
38740,38740,2021-02-12 21:23:27.990,1.2931485,0
38750,38750,2021-02-12 21:23:57.990,1.2163084,0
38760,38760,2021-02-12 21:24:27.990,1.1494461999999999,0
38770,38770,2021-02-12 21:24:57.990,1.090373,0
38780,38780,2021-02-12 21:25:27.990,1.0376639,0
38790,38790,2021-02-12 21:25:57.990,0.99032736,0
38800,38800,2021-02-12 21:26:27.990,0.9476416,0
38810,38810,2021-02-12 21:26:57.990,0.9090674999999999,0
38820,38820,2021-02-12 21:27:27.990,0.8741946,0
38830,38830,2021-02-12 21:27:57.990,0.84270716,0
38840,38840,2021-02-12 21:28:27.990,0.8143623000000001,0
38850,38850,2021-02-12 21:28:57.990,0.788978,0
38860,38860,2021-02-12 21:29:27.990,0.76642287,0
38870,38870,2021-02-12 21:29:57.990,0.74661374,0
38880,38880,2021-02-12 21:30:27.990,0.72951245,0
38890,38890,2021-02-12 21:30:57.990,0.7151289000000001,0
38900,38900,2021-02-12 21:31:27.990,0.70352507,0
38910,38910,2021-02-12 21:31:57.990,0.6948261,0
38920,38920,2021-02-12 21:32:27.990,0.6892375,0
38930,38930,2021-02-12 21:32:57.990,0.6870742,0
38940,38940,2021-02-12 21:33:27.990,0.68881285,0
38950,38950,2021-02-12 21:33:57.990,0.6951841,0
38960,38960,2021-02-12 21:34:27.990,0.7073567,0
38970,38970,2021-02-12 21:34:57.990,0.7273563,0
38980,38980,2021-02-12 21:35:27.990,0.7591994000000001,0
38990,38990,2021-02-12 21:35:57.990,0.8133397,0
39000,39000,2021-02-12 21:36:27.990,1.0000007,0
39010,39010,2021-02-12 21:36:57.990,1.0000007,0
39020,39020,2021-02-12 21:37:27.990,1.0000007,0
39030,39030,2021-02-12 21:37:57.990,1.0000007,0
39040,39040,2021-02-12 21:38:27.990,1.0000007,0
39050,39050,2021-02-12 21:38:57.990,1.0000007,0
39060,39060,2021-02-12 21:39:27.990,1.0000007,0
39070,39070,2021-02-12 21:39:57.990,1.0000007,0
39080,39080,2021-02-12 21:40:27.990,1.0000007,0
39090,39090,2021-02-12 21:40:57.990,1.0000007,0
39100,39100,2021-02-12 21:41:27.990,1.0000007,0
39110,39110,2021-02-12 21:41:57.990,1.0000007,0
39120,39120,2021-02-12 21:42:27.990,1.0000007,0
39130,39130,2021-02-12 21:42:57.990,1.0000007,0
39140,39140,2021-02-12 21:43:27.990,1.0000007,0
39150,39150,2021-02-12 21:43:57.990,1.0000007,0
39160,39160,2021-02-12 21:44:27.990,1.0000007,0
39170,39170,2021-02-12 21:44:57.990,1.0000007,0
39180,39180,2021-02-12 21:45:27.990,1.0000007,0
39190,39190,2021-02-12 21:45:57.990,1.0000007,0
39200,39200,2021-02-12 21:46:27.990,1.0000007,0
39210,39210,2021-02-12 21:46:57.990,1.0000007,0
39220,39220,2021-02-12 21:47:27.990,1.0000007,0
39230,39230,2021-02-12 21:47:57.990,1.0000007,0
39240,39240,2021-02-12 21:48:27.990,1.0000007,0
39250,39250,2021-02-12 21:48:57.990,1.0000007,0
39260,39260,2021-02-12 21:49:27.990,1.0000007,0
39270,39270,2021-02-12 21:49:57.990,1.0000007,0
39280,39280,2021-02-12 21:50:27.990,1.0000007,0
39290,39290,2021-02-12 21:50:57.990,1.0000007,0
39300,39300,2021-02-12 21:51:27.990,1.0000007,0
39310,39310,2021-02-12 21:51:57.990,1.0000007,0
39320,39320,2021-02-12 21:52:27.990,1.0000007,0
39330,39330,2021-02-12 21:52:57.990,1.0000007,0
39340,39340,2021-02-12 21:53:27.990,1.0000007,0
39350,39350,2021-02-12 21:53:57.990,1.0000007,0
39360,39360,2021-02-12 21:54:27.990,1.0000007,0
39370,39370,2021-02-12 21:54:57.990,1.0000007,0
39380,39380,2021-02-12 21:55:27.990,1.0000007,0
39390,39390,2021-02-12 21:55:57.990,1.0000007,0
39400,39400,2021-02-12 21:56:27.990,1.0000007,0
39410,39410,2021-02-12 21:56:57.990,1.0000007,0
39420,39420,2021-02-12 21:57:27.990,1.0000007,0
39430,39430,2021-02-12 21:57:57.990,1.0000007,0
39440,39440,2021-02-12 21:58:27.990,1.0000007,0
39450,39450,2021-02-12 21:58:57.990,1.0000007,0
39460,39460,2021-02-12 21:59:27.990,1.0000007,0
39470,39470,2021-02-12 21:59:57.990,1.0000007,0
39480,39480,2021-02-12 22:00:27.990,1.0000007,0
39490,39490,2021-02-12 22:00:57.990,1.0000007,0
39500,39500,2021-02-12 22:01:27.990,1.0000007,0
39510,39510,2021-02-12 22:01:57.990,1.0000007,0
39520,39520,2021-02-12 22:02:27.990,1.0000007,0
39530,39530,2021-02-12 22:02:57.990,1.0000007,0
39540,39540,2021-02-12 22:03:27.990,1.0000007,0
39550,39550,2021-02-12 22:03:57.990,1.0000007,0
39560,39560,2021-02-12 22:04:27.990,1.0000007,0
39570,39570,2021-02-12 22:04:57.990,1.0000007,0
39580,39580,2021-02-12 22:05:27.990,1.0000007,0
39590,39590,2021-02-12 22:05:57.990,1.0000007,0
39600,39600,2021-02-12 22:06:27.990,1.0000007,0
39610,39610,2021-02-12 22:06:57.990,1.0000007,0
39620,39620,2021-02-12 22:07:27.990,1.0000007,0
39630,39630,2021-02-12 22:07:57.990,1.0000007,0
39640,39640,2021-02-12 22:08:27.990,1.0000007,0
39650,39650,2021-02-12 22:08:57.990,1.0000007,0
39660,39660,2021-02-12 22:09:27.990,1.0000007,0
39670,39670,2021-02-12 22:09:57.990,1.0000007,0
39680,39680,2021-02-12 22:10:27.990,1.0000007,0
39690,39690,2021-02-12 22:10:57.990,1.0000007,0
39700,39700,2021-02-12 22:11:27.990,1.0000007,0
39710,39710,2021-02-12 22:11:57.990,1.0000007,0
39720,39720,2021-02-12 22:12:27.990,1.0000007,0
39730,39730,2021-02-12 22:12:57.990,1.0000007,0
39740,39740,2021-02-12 22:13:27.990,1.0000007,0
39750,39750,2021-02-12 22:13:57.990,1.0000007,0
39760,39760,2021-02-12 22:14:27.990,1.0000007,0
39770,39770,2021-02-12 22:14:57.990,1.0000007,0
39780,39780,2021-02-12 22:15:27.990,1.0000007,0
39790,39790,2021-02-12 22:15:57.990,1.0000007,0
39800,39800,2021-02-12 22:16:27.990,1.0000007,0
39810,39810,2021-02-12 22:16:57.990,1.0000007,0
39820,39820,2021-02-12 22:17:27.990,1.0000007,0
39830,39830,2021-02-12 22:17:57.990,1.0000007,0
39840,39840,2021-02-12 22:18:27.990,1.0000007,0
39850,39850,2021-02-12 22:18:57.990,1.0000007,0
39860,39860,2021-02-12 22:19:27.990,1.0000007,0
39870,39870,2021-02-12 22:19:57.990,1.0000007,0
39880,39880,2021-02-12 22:20:27.990,1.0000007,0
39890,39890,2021-02-12 22:20:57.990,1.0000007,0
39900,39900,2021-02-12 22:21:27.990,1.0000007,0
39910,39910,2021-02-12 22:21:57.990,1.0000007,0
39920,39920,2021-02-12 22:22:27.990,1.0000007,0
39930,39930,2021-02-12 22:22:57.990,1.0000007,0
39940,39940,2021-02-12 22:23:27.990,1.0000007,0
39950,39950,2021-02-12 22:23:57.990,1.0000007,0
39960,39960,2021-02-12 22:24:27.990,1.0000007,0
39970,39970,2021-02-12 22:24:57.990,1.0000007,0
39980,39980,2021-02-12 22:25:27.990,1.0000007,0
39990,39990,2021-02-12 22:25:57.990,1.0000007,0
40000,40000,2021-02-12 22:26:27.990,1.0000007,0
40010,40010,2021-02-12 22:26:57.990,1.0000007,0
40020,40020,2021-02-12 22:27:27.990,1.0000007,0
40030,40030,2021-02-12 22:27:57.990,1.0000007,0
40040,40040,2021-02-12 22:28:27.990,1.0000007,0
40050,40050,2021-02-12 22:28:57.990,1.0000007,0
40060,40060,2021-02-12 22:29:27.990,1.0000007,0
40070,40070,2021-02-12 22:29:57.990,1.0000007,0
40080,40080,2021-02-12 22:30:27.990,1.0000007,0
40090,40090,2021-02-12 22:30:57.990,1.0000007,0
40100,40100,2021-02-12 22:31:27.990,1.0000007,0
40110,40110,2021-02-12 22:31:57.990,1.0000007,0
40120,40120,2021-02-12 22:32:27.990,1.0000007,0
40130,40130,2021-02-12 22:32:57.990,1.0000007,0
40140,40140,2021-02-12 22:33:27.990,1.0000007,0
40150,40150,2021-02-12 22:33:57.990,1.0000007,0
40160,40160,2021-02-12 22:34:27.990,1.0000007,0
40170,40170,2021-02-12 22:34:57.990,1.0000007,0
40180,40180,2021-02-12 22:35:27.990,1.0000007,0
40190,40190,2021-02-12 22:35:57.990,1.0000007,0
40200,40200,2021-02-12 22:36:27.990,1.0000007,0
40210,40210,2021-02-12 22:36:57.990,1.0000007,0
40220,40220,2021-02-12 22:37:27.990,1.0000007,0
40230,40230,2021-02-12 22:37:57.990,1.0000007,0
40240,40240,2021-02-12 22:38:27.990,1.0000007,0
40250,40250,2021-02-12 22:38:57.990,1.0000007,0
40260,40260,2021-02-12 22:39:27.990,1.0000007,0
40270,40270,2021-02-12 22:39:57.990,1.0000007,0
40280,40280,2021-02-12 22:40:27.990,1.0000007,0
40290,40290,2021-02-12 22:40:57.990,1.0000007,0
40300,40300,2021-02-12 22:41:27.990,1.0000007,0
40310,40310,2021-02-12 22:41:57.990,1.0000007,0
40320,40320,2021-02-12 22:42:27.990,1.0000007,0
40330,40330,2021-02-12 22:42:57.990,1.0000007,0
40340,40340,2021-02-12 22:43:27.990,1.0000007,0
40350,40350,2021-02-12 22:43:57.990,1.0000007,0
40360,40360,2021-02-12 22:44:27.990,1.0000007,0
40370,40370,2021-02-12 22:44:57.990,1.0000007,0
40380,40380,2021-02-12 22:45:27.990,1.0000007,0
40390,40390,2021-02-12 22:45:57.990,1.0000007,0
40400,40400,2021-02-12 22:46:27.990,1.0000007,0
40410,40410,2021-02-12 22:46:57.990,1.0000007,0
40420,40420,2021-02-12 22:47:27.990,1.0000007,0
40430,40430,2021-02-12 22:47:57.990,1.0000007,0
40440,40440,2021-02-12 22:48:27.990,1.0000007,0
40450,40450,2021-02-12 22:48:57.990,1.0000007,0
40460,40460,2021-02-12 22:49:27.990,1.0000007,0
40470,40470,2021-02-12 22:49:57.990,1.0000007,0
40480,40480,2021-02-12 22:50:27.990,1.0000007,0
40490,40490,2021-02-12 22:50:57.990,1.0000007,0
40500,40500,2021-02-12 22:51:27.990,1.0000007,0
40510,40510,2021-02-12 22:51:57.990,1.0000007,0
40520,40520,2021-02-12 22:52:27.990,1.0000007,0
40530,40530,2021-02-12 22:52:57.990,1.0000007,0
40540,40540,2021-02-12 22:53:27.990,1.0000007,0
40550,40550,2021-02-12 22:53:57.990,1.0000007,0
40560,40560,2021-02-12 22:54:27.990,1.0000007,0
40570,40570,2021-02-12 22:54:57.990,1.0000007,0
40580,40580,2021-02-12 22:55:27.990,1.0000007,0
40590,40590,2021-02-12 22:55:57.990,1.0000007,0
40600,40600,2021-02-12 22:56:27.990,1.0000007,0
40610,40610,2021-02-12 22:56:57.990,1.0000007,0
40620,40620,2021-02-12 22:57:27.990,1.0000007,0
40630,40630,2021-02-12 22:57:57.990,1.0000007,0
40640,40640,2021-02-12 22:58:27.990,1.0000007,0
40650,40650,2021-02-12 22:58:57.990,1.0000007,0
40660,40660,2021-02-12 22:59:27.990,1.0000007,0
40670,40670,2021-02-12 22:59:57.990,1.0000007,0
40680,40680,2021-02-12 23:00:27.990,1.0000007,0
40690,40690,2021-02-12 23:00:57.990,1.0000007,0
40700,40700,2021-02-12 23:01:27.990,1.0000007,0
40710,40710,2021-02-12 23:01:57.990,1.0000007,0
40720,40720,2021-02-12 23:02:27.990,1.0000007,0
40730,40730,2021-02-12 23:02:57.990,1.0000007,0
40740,40740,2021-02-12 23:03:27.990,1.0000007,0
40750,40750,2021-02-12 23:03:57.990,1.0000007,0
40760,40760,2021-02-12 23:04:27.990,1.0000007,0
40770,40770,2021-02-12 23:04:57.990,1.0000007,0
40780,40780,2021-02-12 23:05:27.990,1.0000007,0
40790,40790,2021-02-12 23:05:57.990,1.0000007,0
40800,40800,2021-02-12 23:06:27.990,1.0000007,0
40810,40810,2021-02-12 23:06:57.990,1.0000007,0
40820,40820,2021-02-12 23:07:27.990,1.0000007,0
40830,40830,2021-02-12 23:07:57.990,1.0000007,0
40840,40840,2021-02-12 23:08:27.990,1.0000007,0
40850,40850,2021-02-12 23:08:57.990,1.0000007,0
40860,40860,2021-02-12 23:09:27.990,1.0000007,0
40870,40870,2021-02-12 23:09:57.990,1.0000007,0
40880,40880,2021-02-12 23:10:27.990,1.0000007,0
40890,40890,2021-02-12 23:10:57.990,1.0000007,0
40900,40900,2021-02-12 23:11:27.990,1.0000007,0
40910,40910,2021-02-12 23:11:57.990,1.0000007,0
40920,40920,2021-02-12 23:12:27.990,1.0000007,0
40930,40930,2021-02-12 23:12:57.990,1.0000007,0
40940,40940,2021-02-12 23:13:27.990,1.0000007,0
40950,40950,2021-02-12 23:13:57.990,1.0000007,0
40960,40960,2021-02-12 23:14:27.990,1.0000007,0
40970,40970,2021-02-12 23:14:57.990,1.0000007,0
40980,40980,2021-02-12 23:15:27.990,1.0000007,0
40990,40990,2021-02-12 23:15:57.990,1.0000007,0
41000,41000,2021-02-12 23:16:27.990,1.0000007,0
41010,41010,2021-02-12 23:16:57.990,1.0000007,0
41020,41020,2021-02-12 23:17:27.990,1.0000007,0
41030,41030,2021-02-12 23:17:57.990,1.0000007,0
41040,41040,2021-02-12 23:18:27.990,1.0000007,0
41050,41050,2021-02-12 23:18:57.990,1.0000007,0
41060,41060,2021-02-12 23:19:27.990,1.0000007,0
41070,41070,2021-02-12 23:19:57.990,1.0000007,0
41080,41080,2021-02-12 23:20:27.990,1.0000007,0
41090,41090,2021-02-12 23:20:57.990,1.0000007,0
41100,41100,2021-02-12 23:21:27.990,1.0000007,0
41110,41110,2021-02-12 23:21:57.990,1.0000007,0
41120,41120,2021-02-12 23:22:27.990,1.0000007,0
41130,41130,2021-02-12 23:22:57.990,1.0000007,0
41140,41140,2021-02-12 23:23:27.990,1.0000007,0
41150,41150,2021-02-12 23:23:57.990,1.0000007,0
41160,41160,2021-02-12 23:24:27.990,1.0000007,0
41170,41170,2021-02-12 23:24:57.990,1.0000007,0
41180,41180,2021-02-12 23:25:27.990,1.0000007,0
41190,41190,2021-02-12 23:25:57.990,1.0000007,0
41200,41200,2021-02-12 23:26:27.990,1.0000007,0
41210,41210,2021-02-12 23:26:57.990,1.0000007,0
41220,41220,2021-02-12 23:27:27.990,1.0000007,0
41230,41230,2021-02-12 23:27:57.990,1.0000007,0
41240,41240,2021-02-12 23:28:27.990,1.0000007,0
41250,41250,2021-02-12 23:28:57.990,1.0000007,0
41260,41260,2021-02-12 23:29:27.990,1.0000007,0
41270,41270,2021-02-12 23:29:57.990,1.0000007,0
41280,41280,2021-02-12 23:30:27.990,1.0000007,0
41290,41290,2021-02-12 23:30:57.990,1.0000007,0
41300,41300,2021-02-12 23:31:27.990,1.0000007,0
41310,41310,2021-02-12 23:31:57.990,1.0000007,0
41320,41320,2021-02-12 23:32:27.990,1.0000007,0
41330,41330,2021-02-12 23:32:57.990,1.0000007,0
41340,41340,2021-02-12 23:33:27.990,1.0000007,0
41350,41350,2021-02-12 23:33:57.990,1.0000007,0
41360,41360,2021-02-12 23:34:27.990,1.0000007,0
41370,41370,2021-02-12 23:34:57.990,1.0000007,0
41380,41380,2021-02-12 23:35:27.990,1.0000007,0
41390,41390,2021-02-12 23:35:57.990,1.0000007,0
41400,41400,2021-02-12 23:36:27.990,1.0000007,0
41410,41410,2021-02-12 23:36:57.990,1.0000007,0
41420,41420,2021-02-12 23:37:27.990,1.0000007,0
41430,41430,2021-02-12 23:37:57.990,1.0000007,0
41440,41440,2021-02-12 23:38:27.990,1.0000007,0
41450,41450,2021-02-12 23:38:57.990,1.0000007,0
41460,41460,2021-02-12 23:39:27.990,1.0000007,0
41470,41470,2021-02-12 23:39:57.990,1.0000007,0
41480,41480,2021-02-12 23:40:27.990,1.0000007,0
41490,41490,2021-02-12 23:40:57.990,1.0000007,0
41500,41500,2021-02-12 23:41:27.990,1.0000007,0
41510,41510,2021-02-12 23:41:57.990,1.0000007,0
41520,41520,2021-02-12 23:42:27.990,1.0000007,0
41530,41530,2021-02-12 23:42:57.990,1.0000007,0
41540,41540,2021-02-12 23:43:27.990,1.0000007,0
41550,41550,2021-02-12 23:43:57.990,1.0000007,0
41560,41560,2021-02-12 23:44:27.990,1.0000007,0
41570,41570,2021-02-12 23:44:57.990,1.0000007,0
41580,41580,2021-02-12 23:45:27.990,1.0000007,0
41590,41590,2021-02-12 23:45:57.990,1.0000007,0
41600,41600,2021-02-12 23:46:27.990,1.0000007,0
41610,41610,2021-02-12 23:46:57.990,1.0000007,0
41620,41620,2021-02-12 23:47:27.990,1.0000007,0
41630,41630,2021-02-12 23:47:57.990,1.0000007,0
41640,41640,2021-02-12 23:48:27.990,1.0000007,0
41650,41650,2021-02-12 23:48:57.990,1.0000007,0
41660,41660,2021-02-12 23:49:27.990,1.0000007,0
41670,41670,2021-02-12 23:49:57.990,1.0000007,0
41680,41680,2021-02-12 23:50:27.990,1.0000007,0
41690,41690,2021-02-12 23:50:57.990,1.0000007,0
41700,41700,2021-02-12 23:51:27.990,1.0000007,0
41710,41710,2021-02-12 23:51:57.990,1.0000007,0
41720,41720,2021-02-12 23:52:27.990,1.0000007,0
41730,41730,2021-02-12 23:52:57.990,1.0000007,0
41740,41740,2021-02-12 23:53:27.990,1.0000007,0
41750,41750,2021-02-12 23:53:57.990,1.0000007,0
41760,41760,2021-02-12 23:54:27.990,1.0000007,0
41770,41770,2021-02-12 23:54:57.990,1.0000007,0
41780,41780,2021-02-12 23:55:27.990,1.0000007,0
41790,41790,2021-02-12 23:55:57.990,1.0000007,0
41800,41800,2021-02-12 23:56:27.990,1.0000007,0
41810,41810,2021-02-12 23:56:57.990,1.0000007,0
41820,41820,2021-02-12 23:57:27.990,1.0000007,0
41830,41830,2021-02-12 23:57:57.990,1.0000007,0
41840,41840,2021-02-12 23:58:27.990,1.0000007,0
41850,41850,2021-02-12 23:58:57.990,1.0000007,0
41860,41860,2021-02-12 23:59:27.990,1.0000007,0
41870,41870,2021-02-12 23:59:57.990,1.0000007,0
41880,41880,2021-02-13 00:00:27.990,1.0000007,0
41890,41890,2021-02-13 00:00:57.990,1.0000007,0
41900,41900,2021-02-13 00:01:27.990,1.0000007,0
41910,41910,2021-02-13 00:01:57.990,1.0000007,0
41920,41920,2021-02-13 00:02:27.990,1.0000007,0
41930,41930,2021-02-13 00:02:57.990,1.0000007,0
41940,41940,2021-02-13 00:03:27.990,1.0000007,0
41950,41950,2021-02-13 00:03:57.990,1.0000007,0
41960,41960,2021-02-13 00:04:27.990,1.0000007,0
41970,41970,2021-02-13 00:04:57.990,1.0000007,0
41980,41980,2021-02-13 00:05:27.990,1.0000007,0
41990,41990,2021-02-13 00:05:57.990,1.0000007,0
42000,42000,2021-02-13 00:06:27.990,1.0000007,0
42010,42010,2021-02-13 00:06:57.990,1.0000007,0
42020,42020,2021-02-13 00:07:27.990,1.0000007,0
42030,42030,2021-02-13 00:07:57.990,1.0000007,0
42040,42040,2021-02-13 00:08:27.990,1.0000007,0
42050,42050,2021-02-13 00:08:57.990,1.0000007,0
42060,42060,2021-02-13 00:09:27.990,1.0000007,0
42070,42070,2021-02-13 00:09:57.990,1.0000007,0
42080,42080,2021-02-13 00:10:27.990,1.0000007,0
42090,42090,2021-02-13 00:10:57.990,1.0000007,0
42100,42100,2021-02-13 00:11:27.990,1.0000007,0
42110,42110,2021-02-13 00:11:57.990,1.0000007,0
42120,42120,2021-02-13 00:12:27.990,1.0000007,0
42130,42130,2021-02-13 00:12:57.990,1.0000007,0
42140,42140,2021-02-13 00:13:27.990,1.0000007,0
42150,42150,2021-02-13 00:13:57.990,1.0000007,0
42160,42160,2021-02-13 00:14:27.990,1.0000007,0
42170,42170,2021-02-13 00:14:57.990,1.0000007,0
42180,42180,2021-02-13 00:15:27.990,1.0000007,0
42190,42190,2021-02-13 00:15:57.990,1.0000007,0
42200,42200,2021-02-13 00:16:27.990,1.0000007,0
42210,42210,2021-02-13 00:16:57.990,1.0000007,0
42220,42220,2021-02-13 00:17:27.990,1.0000007,0
42230,42230,2021-02-13 00:17:57.990,1.0000007,0
42240,42240,2021-02-13 00:18:27.990,1.0000007,0
42250,42250,2021-02-13 00:18:57.990,1.0000007,0
42260,42260,2021-02-13 00:19:27.990,1.0000007,0
42270,42270,2021-02-13 00:19:57.990,1.0000007,0
42280,42280,2021-02-13 00:20:27.990,1.0000007,0
42290,42290,2021-02-13 00:20:57.990,1.0000007,0
42300,42300,2021-02-13 00:21:27.990,1.0000007,0
42310,42310,2021-02-13 00:21:57.990,1.0000007,0
42320,42320,2021-02-13 00:22:27.990,1.0000007,0
42330,42330,2021-02-13 00:22:57.990,1.0000007,0
42340,42340,2021-02-13 00:23:27.990,1.0000007,0
42350,42350,2021-02-13 00:23:57.990,1.0000007,0
42360,42360,2021-02-13 00:24:27.990,1.0000007,0
42370,42370,2021-02-13 00:24:57.990,1.0000007,0
42380,42380,2021-02-13 00:25:27.990,1.0000007,0
42390,42390,2021-02-13 00:25:57.990,1.0000007,0
42400,42400,2021-02-13 00:26:27.990,1.0000007,0
42410,42410,2021-02-13 00:26:57.990,1.0000007,0
42420,42420,2021-02-13 00:27:27.990,1.0000007,0
42430,42430,2021-02-13 00:27:57.990,1.0000007,0
42440,42440,2021-02-13 00:28:27.990,1.0000007,0
42450,42450,2021-02-13 00:28:57.990,1.0000007,0
42460,42460,2021-02-13 00:29:27.990,1.0000007,0
42470,42470,2021-02-13 00:29:57.990,1.0000007,0
42480,42480,2021-02-13 00:30:27.990,1.0000007,0
42490,42490,2021-02-13 00:30:57.990,1.0000007,0
42500,42500,2021-02-13 00:31:27.990,1.0000007,0
42510,42510,2021-02-13 00:31:57.990,1.0000007,0
42520,42520,2021-02-13 00:32:27.990,1.0000007,0
42530,42530,2021-02-13 00:32:57.990,1.0000007,0
42540,42540,2021-02-13 00:33:27.990,1.0000007,0
42550,42550,2021-02-13 00:33:57.990,1.0000007,0
42560,42560,2021-02-13 00:34:27.990,1.0000007,0
42570,42570,2021-02-13 00:34:57.990,1.0000007,0
42580,42580,2021-02-13 00:35:27.990,1.0000007,0
42590,42590,2021-02-13 00:35:57.990,1.0000007,0
42600,42600,2021-02-13 00:36:27.990,1.0000007,0
42610,42610,2021-02-13 00:36:57.990,1.0000007,0
42620,42620,2021-02-13 00:37:27.990,1.0000007,0
42630,42630,2021-02-13 00:37:57.990,1.0000007,0
42640,42640,2021-02-13 00:38:27.990,1.0000007,0
42650,42650,2021-02-13 00:38:57.990,1.0000007,0
42660,42660,2021-02-13 00:39:27.990,1.0000007,0
42670,42670,2021-02-13 00:39:57.990,1.0000007,0
42680,42680,2021-02-13 00:40:27.990,1.0000007,0
42690,42690,2021-02-13 00:40:57.990,1.0000007,0
42700,42700,2021-02-13 00:41:27.990,1.0000007,0
42710,42710,2021-02-13 00:41:57.990,1.0000007,0
42720,42720,2021-02-13 00:42:27.990,1.0000007,0
42730,42730,2021-02-13 00:42:57.990,1.0000007,0
42740,42740,2021-02-13 00:43:27.990,1.0000007,0
42750,42750,2021-02-13 00:43:57.990,1.0000007,0
42760,42760,2021-02-13 00:44:27.990,1.0000007,0
42770,42770,2021-02-13 00:44:57.990,1.0000007,0
42780,42780,2021-02-13 00:45:27.990,1.0000007,0
42790,42790,2021-02-13 00:45:57.990,1.0000007,0
42800,42800,2021-02-13 00:46:27.990,1.0000007,0
42810,42810,2021-02-13 00:46:57.990,1.0000007,0
42820,42820,2021-02-13 00:47:27.990,1.0000007,0
42830,42830,2021-02-13 00:47:57.990,1.0000007,0
42840,42840,2021-02-13 00:48:27.990,1.0000007,0
42850,42850,2021-02-13 00:48:57.990,1.0000007,0
42860,42860,2021-02-13 00:49:27.990,1.0000007,0
42870,42870,2021-02-13 00:49:57.990,1.0000007,0
42880,42880,2021-02-13 00:50:27.990,1.0000007,0
42890,42890,2021-02-13 00:50:57.990,1.0000007,0
42900,42900,2021-02-13 00:51:27.990,1.0000007,0
42910,42910,2021-02-13 00:51:57.990,1.0000007,0
42920,42920,2021-02-13 00:52:27.990,1.0000007,0
42930,42930,2021-02-13 00:52:57.990,1.0000007,0
42940,42940,2021-02-13 00:53:27.990,1.0000007,0
