,prediction,real,time,split
0,157.33840942382812,160.0,2021-01-21 18:06:55.278000+00:00,train
1,157.3230743408203,160.0,2021-01-21 18:07:55.278000+00:00,train
2,157.32388305664062,160.0,2021-01-21 18:08:55.278000+00:00,train
3,157.32467651367188,160.0,2021-01-21 18:09:55.278000+00:00,train
4,157.3255157470703,160.0,2021-01-21 18:10:55.278000+00:00,train
5,157.32635498046875,160.0,2021-01-21 18:11:55.278000+00:00,train
6,157.3112030029297,160.0,2021-01-21 18:12:55.278000+00:00,train
7,157.2885284423828,160.0,2021-01-21 18:13:55.278000+00:00,train
8,157.26620483398438,160.0,2021-01-21 18:14:55.278000+00:00,train
9,157.24420166015625,160.0,2021-01-21 18:15:55.278000+00:00,train
10,157.22254943847656,156.0,2021-01-21 18:16:55.278000+00:00,train
11,157.2012481689453,156.0,2021-01-21 18:17:55.278000+00:00,train
12,157.18026733398438,154.0,2021-01-21 18:18:55.278000+00:00,train
13,157.1596221923828,154.0,2021-01-21 18:19:55.278000+00:00,train
14,157.1393280029297,156.0,2021-01-21 18:20:55.278000+00:00,train
15,157.11936950683594,156.0,2021-01-21 18:21:55.278000+00:00,train
16,156.963134765625,156.0,2021-01-21 18:22:55.278000+00:00,train
17,156.8119354248047,156.0,2021-01-21 18:23:55.278000+00:00,train
18,156.55747985839844,156.0,2021-01-21 18:24:55.278000+00:00,train
19,156.31455993652344,156.0,2021-01-21 18:25:55.278000+00:00,train
20,156.1842041015625,156.0,2021-01-21 18:26:55.278000+00:00,train
21,156.06820678710938,156.0,2021-01-21 18:27:55.278000+00:00,train
22,155.9569854736328,156.0,2021-01-21 18:28:55.278000+00:00,train
23,155.85044860839844,156.0,2021-01-21 18:29:55.278000+00:00,train
24,155.74844360351562,156.0,2021-01-21 18:30:55.278000+00:00,train
25,155.65090942382812,156.0,2021-01-21 18:31:55.278000+00:00,train
26,155.5577850341797,156.0,2021-01-21 18:32:55.278000+00:00,train
27,155.4690399169922,156.0,2021-01-21 18:33:55.278000+00:00,train
28,155.38461303710938,156.0,2021-01-21 18:34:55.278000+00:00,train
29,155.30455017089844,156.0,2021-01-21 18:35:55.278000+00:00,train
30,155.22879028320312,156.0,2021-01-21 18:36:55.278000+00:00,train
31,155.15733337402344,156.0,2021-01-21 18:37:55.278000+00:00,train
32,155.09017944335938,156.0,2021-01-21 18:38:55.278000+00:00,train
33,155.02737426757812,156.0,2021-01-21 18:39:55.278000+00:00,train
34,154.96893310546875,158.0,2021-01-21 18:40:55.278000+00:00,train
35,154.91493225097656,158.0,2021-01-21 18:41:55.278000+00:00,train
36,154.92361450195312,158.0,2021-01-21 18:42:55.278000+00:00,train
37,154.94212341308594,158.0,2021-01-21 18:43:55.278000+00:00,train
38,154.97125244140625,158.0,2021-01-21 18:44:55.278000+00:00,train
39,155.01231384277344,158.0,2021-01-21 18:45:55.278000+00:00,train
40,155.0430908203125,158.0,2021-01-21 18:46:55.278000+00:00,train
41,155.0248260498047,158.0,2021-01-21 18:47:55.278000+00:00,train
42,155.0054168701172,158.0,2021-01-21 18:48:55.278000+00:00,train
43,154.9862823486328,158.0,2021-01-21 18:49:55.278000+00:00,train
44,154.96746826171875,158.0,2021-01-21 18:50:55.278000+00:00,train
45,154.94898986816406,158.0,2021-01-21 18:51:55.278000+00:00,train
46,154.93084716796875,156.0,2021-01-21 18:52:55.278000+00:00,train
47,154.9130096435547,154.0,2021-01-21 18:53:55.278000+00:00,train
48,154.8954620361328,153.0,2021-01-21 18:54:55.278000+00:00,train
49,154.87820434570312,152.0,2021-01-21 18:55:55.278000+00:00,train
50,154.86122131347656,152.0,2021-01-21 18:56:55.278000+00:00,train
51,154.84445190429688,153.0,2021-01-21 18:57:55.278000+00:00,train
52,154.77963256835938,154.0,2021-01-21 18:58:55.278000+00:00,train
53,154.63807678222656,154.0,2021-01-21 18:59:55.278000+00:00,train
54,154.45175170898438,154.0,2021-01-21 19:00:55.278000+00:00,train
55,154.2176971435547,154.0,2021-01-21 19:01:55.278000+00:00,train
56,153.99720764160156,154.0,2021-01-21 19:02:55.278000+00:00,train
57,153.8478546142578,154.0,2021-01-21 19:03:55.278000+00:00,train
58,153.74778747558594,154.0,2021-01-21 19:04:55.278000+00:00,train
59,153.65203857421875,154.0,2021-01-21 19:05:55.278000+00:00,train
60,153.56112670898438,154.0,2021-01-21 19:06:55.278000+00:00,train
61,153.4745330810547,154.0,2021-01-21 19:07:55.278000+00:00,train
62,153.39224243164062,154.0,2021-01-21 19:08:55.278000+00:00,train
63,153.31423950195312,154.0,2021-01-21 19:09:55.278000+00:00,train
64,153.24058532714844,154.0,2021-01-21 19:10:55.278000+00:00,train
65,153.17124938964844,154.0,2021-01-21 19:11:55.278000+00:00,train
66,153.10630798339844,154.0,2021-01-21 19:12:55.278000+00:00,train
67,153.0458221435547,154.0,2021-01-21 19:13:55.278000+00:00,train
68,152.98988342285156,154.0,2021-01-21 19:14:55.278000+00:00,train
69,152.9385528564453,154.0,2021-01-21 19:15:55.278000+00:00,train
70,152.8919677734375,154.0,2021-01-21 19:16:55.278000+00:00,train
71,152.85025024414062,154.0,2021-01-21 19:17:55.278000+00:00,train
72,152.81358337402344,154.0,2021-01-21 19:18:55.278000+00:00,train
73,152.78213500976562,154.0,2021-01-21 19:19:55.278000+00:00,train
74,152.75608825683594,154.0,2021-01-21 19:20:55.278000+00:00,train
75,152.73573303222656,154.0,2021-01-21 19:21:55.278000+00:00,train
76,152.72186279296875,156.0,2021-01-21 19:22:55.278000+00:00,train
77,152.7147674560547,156.0,2021-01-21 19:23:55.278000+00:00,train
78,152.71450805664062,156.0,2021-01-21 19:24:55.278000+00:00,train
79,152.65606689453125,156.0,2021-01-21 19:25:55.278000+00:00,train
80,152.59429931640625,156.0,2021-01-21 19:26:55.278000+00:00,train
81,152.53378295898438,151.0,2021-01-21 19:27:55.278000+00:00,train
82,152.5157470703125,150.0,2021-01-21 19:28:55.278000+00:00,train
83,152.4973907470703,150.0,2021-01-21 19:29:55.278000+00:00,train
84,152.478271484375,150.0,2021-01-21 19:30:55.278000+00:00,train
85,152.45875549316406,150.0,2021-01-21 19:31:55.278000+00:00,train
86,152.43896484375,150.0,2021-01-21 19:32:55.278000+00:00,train
87,152.25465393066406,150.0,2021-01-21 19:33:55.278000+00:00,train
88,152.02108764648438,150.0,2021-01-21 19:34:55.278000+00:00,train
89,151.79713439941406,150.0,2021-01-21 19:35:55.278000+00:00,train
90,151.58226013183594,150.0,2021-01-21 19:36:55.278000+00:00,train
91,151.37603759765625,152.0,2021-01-21 19:37:55.278000+00:00,train
92,151.178466796875,152.0,2021-01-21 19:38:55.278000+00:00,train
93,150.98934936523438,152.0,2021-01-21 19:39:55.278000+00:00,train
94,150.80850219726562,152.0,2021-01-21 19:40:55.278000+00:00,train
95,150.63607788085938,152.0,2021-01-21 19:41:55.278000+00:00,train
96,150.47227478027344,152.0,2021-01-21 19:42:55.278000+00:00,train
97,150.39707946777344,152.0,2021-01-21 19:43:55.278000+00:00,train
98,150.33160400390625,152.0,2021-01-21 19:44:55.278000+00:00,train
99,150.28945922851562,152.0,2021-01-21 19:45:55.278000+00:00,train
100,150.28628540039062,152.0,2021-01-21 19:46:55.278000+00:00,train
101,150.31057739257812,152.0,2021-01-21 19:47:55.278000+00:00,train
102,150.37258911132812,152.0,2021-01-21 19:48:55.278000+00:00,train
103,151.49057006835938,152.0,2021-01-21 19:49:55.278000+00:00,train
104,153.23182678222656,152.0,2021-01-21 19:50:55.278000+00:00,train
105,154.9448699951172,153.0,2021-01-21 19:51:55.278000+00:00,train
106,156.41392517089844,154.0,2021-01-21 19:52:55.278000+00:00,train
107,157.18450927734375,154.0,2021-01-21 19:53:55.278000+00:00,train
108,157.55616760253906,154.0,2021-01-21 19:54:55.278000+00:00,train
109,157.77076721191406,154.0,2021-01-21 19:55:55.278000+00:00,train
110,157.8502960205078,154.0,2021-01-21 19:56:55.278000+00:00,train
111,157.97166442871094,156.0,2021-01-21 19:57:55.278000+00:00,train
112,158.06639099121094,156.0,2021-01-21 19:58:55.278000+00:00,train
113,158.0377197265625,156.0,2021-01-21 19:59:55.278000+00:00,train
114,157.96173095703125,156.0,2021-01-21 20:00:55.278000+00:00,train
115,157.85662841796875,156.0,2021-01-21 20:01:55.278000+00:00,train
116,157.86932373046875,156.0,2021-01-21 20:02:55.278000+00:00,train
117,157.9202117919922,156.0,2021-01-21 20:03:55.278000+00:00,train
118,157.98765563964844,156.0,2021-01-21 20:04:55.278000+00:00,train
119,158.04481506347656,156.0,2021-01-21 20:05:55.278000+00:00,train
120,158.06887817382812,158.0,2021-01-21 20:06:55.278000+00:00,train
121,158.09010314941406,158.0,2021-01-21 20:07:55.278000+00:00,train
122,158.10719299316406,158.0,2021-01-21 20:08:55.278000+00:00,train
123,158.1249237060547,158.0,2021-01-21 20:09:55.278000+00:00,train
124,158.1396484375,158.0,2021-01-21 20:10:55.278000+00:00,train
125,158.1521453857422,158.0,2021-01-21 20:11:55.278000+00:00,train
126,158.22364807128906,158.0,2021-01-21 20:12:55.278000+00:00,train
127,158.2930908203125,158.0,2021-01-21 20:13:55.278000+00:00,train
128,158.3608856201172,159.0,2021-01-21 20:14:55.278000+00:00,train
129,158.42922973632812,160.0,2021-01-21 20:15:55.278000+00:00,train
130,158.49603271484375,160.0,2021-01-21 20:16:55.278000+00:00,train
131,158.56239318847656,158.0,2021-01-21 20:17:55.278000+00:00,train
132,158.62828063964844,156.0,2021-01-21 20:18:55.278000+00:00,train
133,158.6928253173828,156.0,2021-01-21 20:19:55.278000+00:00,train
134,158.79429626464844,156.0,2021-01-21 20:20:55.278000+00:00,train
135,158.93792724609375,156.0,2021-01-21 20:21:55.278000+00:00,train
136,159.07818603515625,156.0,2021-01-21 20:22:55.278000+00:00,train
137,159.14886474609375,156.0,2021-01-21 20:23:55.278000+00:00,train
138,159.18116760253906,156.0,2021-01-21 20:24:55.278000+00:00,train
139,159.2075958251953,156.0,2021-01-21 20:25:55.278000+00:00,train
140,159.1744384765625,156.0,2021-01-21 20:26:55.278000+00:00,train
141,159.13619995117188,156.0,2021-01-21 20:27:55.278000+00:00,train
142,159.09596252441406,156.0,2021-01-21 20:28:55.278000+00:00,train
143,159.05255126953125,156.0,2021-01-21 20:29:55.278000+00:00,train
144,159.00729370117188,157.0,2021-01-21 20:30:55.278000+00:00,train
145,158.96046447753906,158.0,2021-01-21 20:31:55.278000+00:00,train
146,158.9117431640625,158.0,2021-01-21 20:32:55.278000+00:00,train
147,158.86183166503906,158.0,2021-01-21 20:33:55.278000+00:00,train
148,158.81080627441406,158.0,2021-01-21 20:34:55.278000+00:00,train
149,158.75840759277344,158.0,2021-01-21 20:35:55.278000+00:00,train
150,158.73072814941406,158.0,2021-01-21 20:36:55.278000+00:00,train
151,158.73585510253906,158.0,2021-01-21 20:37:55.278000+00:00,train
152,158.79942321777344,158.0,2021-01-21 20:38:55.278000+00:00,train
153,158.89059448242188,160.0,2021-01-21 20:39:55.278000+00:00,train
154,158.98281860351562,160.0,2021-01-21 20:40:55.278000+00:00,train
155,159.0677490234375,160.0,2021-01-21 20:41:55.278000+00:00,train
156,159.15011596679688,160.0,2021-01-21 20:42:55.278000+00:00,train
157,159.2353057861328,160.0,2021-01-21 20:43:55.278000+00:00,train
158,159.31704711914062,160.0,2021-01-21 20:44:55.278000+00:00,train
159,159.4774169921875,160.0,2021-01-21 20:45:55.278000+00:00,train
160,159.63331604003906,160.0,2021-01-21 20:46:55.278000+00:00,train
161,159.7850341796875,161.0,2021-01-21 20:47:55.278000+00:00,train
162,159.93309020996094,162.0,2021-01-21 20:48:55.278000+00:00,train
163,160.0773162841797,162.0,2021-01-21 20:49:55.278000+00:00,train
164,160.21792602539062,162.0,2021-01-21 20:50:55.278000+00:00,train
165,160.3553466796875,162.0,2021-01-21 20:51:55.278000+00:00,train
166,160.4893798828125,162.0,2021-01-21 20:52:55.278000+00:00,train
167,160.6630096435547,162.0,2021-01-21 20:53:55.278000+00:00,train
168,160.8794403076172,162.0,2021-01-21 20:54:55.278000+00:00,train
169,161.0890350341797,162.0,2021-01-21 20:55:55.278000+00:00,train
170,161.29232788085938,164.0,2021-01-21 20:56:55.278000+00:00,train
171,161.48971557617188,164.0,2021-01-21 20:57:55.278000+00:00,train
172,161.68138122558594,164.0,2021-01-21 20:58:55.278000+00:00,train
173,161.86773681640625,164.0,2021-01-21 20:59:55.278000+00:00,train
174,162.04904174804688,164.0,2021-01-21 21:00:55.278000+00:00,train
175,162.2253875732422,164.0,2021-01-21 21:01:55.278000+00:00,train
176,162.4910888671875,164.0,2021-01-21 21:02:55.278000+00:00,train
177,162.747802734375,164.0,2021-01-21 21:03:55.278000+00:00,train
178,162.9961395263672,165.0,2021-01-21 21:04:55.278000+00:00,train
179,163.23687744140625,166.0,2021-01-21 21:05:55.278000+00:00,train
180,163.46922302246094,166.0,2021-01-21 21:06:55.278000+00:00,train
181,163.69537353515625,166.0,2021-01-21 21:07:55.278000+00:00,train
182,163.90989685058594,166.0,2021-01-21 21:08:55.278000+00:00,train
183,164.1191864013672,166.0,2021-01-21 21:09:55.278000+00:00,train
184,164.3685302734375,166.0,2021-01-21 21:10:55.278000+00:00,train
185,164.65965270996094,166.0,2021-01-21 21:11:55.278000+00:00,train
186,164.94215393066406,166.0,2021-01-21 21:12:55.278000+00:00,train
187,165.1912078857422,166.0,2021-01-21 21:13:55.278000+00:00,train
188,165.4113311767578,166.0,2021-01-21 21:14:55.278000+00:00,train
189,165.6201629638672,166.0,2021-01-21 21:15:55.278000+00:00,train
190,165.8180694580078,165.0,2021-01-21 21:16:55.278000+00:00,train
191,166.00509643554688,163.0,2021-01-21 21:17:55.278000+00:00,train
192,166.1812286376953,162.0,2021-01-21 21:18:55.278000+00:00,train
193,166.34658813476562,162.0,2021-01-21 21:19:55.278000+00:00,train
194,166.5010986328125,162.0,2021-01-21 21:20:55.278000+00:00,train
195,166.64468383789062,162.0,2021-01-21 21:21:55.278000+00:00,train
196,166.73890686035156,162.0,2021-01-21 21:22:55.278000+00:00,train
197,166.80291748046875,164.0,2021-01-21 21:23:55.278000+00:00,train
198,166.8348388671875,164.0,2021-01-21 21:24:55.278000+00:00,train
199,166.861328125,164.0,2021-01-21 21:25:55.278000+00:00,train
200,166.88232421875,164.0,2021-01-21 21:26:55.278000+00:00,train
201,166.89772033691406,164.0,2021-01-21 21:27:55.278000+00:00,train
202,166.90725708007812,164.0,2021-01-21 21:28:55.278000+00:00,train
203,166.96510314941406,164.0,2021-01-21 21:29:55.278000+00:00,train
204,167.01548767089844,164.0,2021-01-21 21:30:55.278000+00:00,train
205,167.05813598632812,164.0,2021-01-21 21:31:55.278000+00:00,train
206,167.09292602539062,164.0,2021-01-21 21:32:55.278000+00:00,train
207,167.1194610595703,164.0,2021-01-21 21:33:55.278000+00:00,train
208,167.13743591308594,165.0,2021-01-21 21:34:55.278000+00:00,train
209,167.1465606689453,166.0,2021-01-21 21:35:55.278000+00:00,train
210,167.14630126953125,166.0,2021-01-21 21:36:55.278000+00:00,train
211,167.16554260253906,166.0,2021-01-21 21:37:55.278000+00:00,train
212,167.20208740234375,166.0,2021-01-21 21:38:55.278000+00:00,train
213,167.23255920410156,166.0,2021-01-21 21:39:55.278000+00:00,train
214,167.2874755859375,166.0,2021-01-21 21:40:55.278000+00:00,train
215,167.37062072753906,166.0,2021-01-21 21:41:55.278000+00:00,train
216,167.44554138183594,166.0,2021-01-21 21:42:55.278000+00:00,train
217,167.55470275878906,166.0,2021-01-21 21:43:55.278000+00:00,train
218,167.65821838378906,166.0,2021-01-21 21:44:55.278000+00:00,train
219,167.75607299804688,167.0,2021-01-21 21:45:55.278000+00:00,train
220,167.84825134277344,168.0,2021-01-21 21:46:55.278000+00:00,train
221,167.9346923828125,168.0,2021-01-21 21:47:55.278000+00:00,train
222,168.0153045654297,168.0,2021-01-21 21:48:55.278000+00:00,train
223,168.09005737304688,168.0,2021-01-21 21:49:55.278000+00:00,train
224,168.15878295898438,168.0,2021-01-21 21:50:55.278000+00:00,train
225,168.25653076171875,168.0,2021-01-21 21:51:55.278000+00:00,train
226,168.4185791015625,168.0,2021-01-21 21:52:55.278000+00:00,train
227,168.57359313964844,168.0,2021-01-21 21:53:55.278000+00:00,train
228,168.72152709960938,168.0,2021-01-21 21:54:55.278000+00:00,train
229,168.8623046875,168.0,2021-01-21 21:55:55.278000+00:00,train
230,168.99569702148438,169.0,2021-01-21 21:56:55.278000+00:00,train
231,169.12139892578125,170.0,2021-01-21 21:57:55.278000+00:00,train
232,169.23899841308594,170.0,2021-01-21 21:58:55.278000+00:00,train
233,169.34791564941406,170.0,2021-01-21 21:59:55.278000+00:00,train
234,169.4601593017578,170.0,2021-01-21 22:00:55.278000+00:00,train
235,169.5720977783203,170.0,2021-01-21 22:01:55.278000+00:00,train
236,169.70973205566406,170.0,2021-01-21 22:02:55.278000+00:00,train
237,169.8448486328125,170.0,2021-01-21 22:03:55.278000+00:00,train
238,169.90330505371094,170.0,2021-01-21 22:04:55.278000+00:00,train
239,169.91563415527344,170.0,2021-01-21 22:05:55.278000+00:00,train
240,169.86778259277344,170.0,2021-01-21 22:06:55.278000+00:00,train
241,169.76705932617188,171.0,2021-01-21 22:07:55.278000+00:00,train
242,169.63742065429688,172.0,2021-01-21 22:08:55.278000+00:00,train
243,169.5167236328125,172.0,2021-01-21 22:09:55.278000+00:00,train
244,169.42999267578125,170.0,2021-01-21 22:10:55.278000+00:00,train
245,169.3858184814453,168.0,2021-01-21 22:11:55.278000+00:00,train
246,169.381591796875,166.0,2021-01-21 22:12:55.278000+00:00,train
247,169.43701171875,166.0,2021-01-21 22:13:55.278000+00:00,train
248,169.55026245117188,166.0,2021-01-21 22:14:55.278000+00:00,train
249,169.6764678955078,166.0,2021-01-21 22:15:55.278000+00:00,train
250,169.75555419921875,166.0,2021-01-21 22:16:55.278000+00:00,train
251,169.79539489746094,167.0,2021-01-21 22:17:55.278000+00:00,train
252,169.79336547851562,168.0,2021-01-21 22:18:55.278000+00:00,train
253,169.7891387939453,168.0,2021-01-21 22:19:55.278000+00:00,train
254,169.78221130371094,168.0,2021-01-21 22:20:55.278000+00:00,train
255,169.7719268798828,168.0,2021-01-21 22:21:55.278000+00:00,train
256,169.75790405273438,168.0,2021-01-21 22:22:55.278000+00:00,train
257,169.757568359375,168.0,2021-01-21 22:23:55.278000+00:00,train
258,169.77407836914062,168.0,2021-01-21 22:24:55.278000+00:00,train
259,169.82110595703125,168.0,2021-01-21 22:25:55.278000+00:00,train
260,169.86473083496094,168.0,2021-01-21 22:26:55.278000+00:00,train
261,169.90399169921875,168.0,2021-01-21 22:27:55.278000+00:00,train
262,169.93798828125,168.0,2021-01-21 22:28:55.278000+00:00,train
263,169.96588134765625,170.0,2021-01-21 22:29:55.278000+00:00,train
264,169.98741149902344,170.0,2021-01-21 22:30:55.278000+00:00,train
265,170.002197265625,170.0,2021-01-21 22:31:55.278000+00:00,train
266,170.0097198486328,170.0,2021-01-21 22:32:55.278000+00:00,train
267,170.0302276611328,170.0,2021-01-21 22:33:55.278000+00:00,train
268,170.0612335205078,170.0,2021-01-21 22:34:55.278000+00:00,train
269,170.14535522460938,170.0,2021-01-21 22:35:55.278000+00:00,train
270,170.2235565185547,170.0,2021-01-21 22:36:55.278000+00:00,train
271,170.29562377929688,170.0,2021-01-21 22:37:55.278000+00:00,train
272,170.3612518310547,170.0,2021-01-21 22:38:55.278000+00:00,train
273,170.42027282714844,170.0,2021-01-21 22:39:55.278000+00:00,train
274,170.47238159179688,171.0,2021-01-21 22:40:55.278000+00:00,train
275,170.51708984375,172.0,2021-01-21 22:41:55.278000+00:00,train
276,170.58285522460938,172.0,2021-01-21 22:42:55.278000+00:00,train
277,170.64405822753906,172.0,2021-01-21 22:43:55.278000+00:00,train
278,170.70071411132812,172.0,2021-01-21 22:44:55.278000+00:00,train
279,170.7527618408203,172.0,2021-01-21 22:45:55.278000+00:00,train
280,170.8302764892578,172.0,2021-01-21 22:46:55.278000+00:00,train
281,170.9344940185547,172.0,2021-01-21 22:47:55.278000+00:00,train
282,171.02932739257812,172.0,2021-01-21 22:48:55.278000+00:00,train
283,171.11508178710938,172.0,2021-01-21 22:49:55.278000+00:00,train
284,171.2028350830078,172.0,2021-01-21 22:50:55.278000+00:00,train
285,171.2889862060547,172.0,2021-01-21 22:51:55.278000+00:00,train
286,171.36976623535156,174.0,2021-01-21 22:52:55.278000+00:00,train
287,171.4457244873047,174.0,2021-01-21 22:53:55.278000+00:00,train
288,171.51748657226562,174.0,2021-01-21 22:54:55.278000+00:00,train
289,171.58567810058594,174.0,2021-01-21 22:55:55.278000+00:00,train
290,171.65089416503906,174.0,2021-01-21 22:56:55.278000+00:00,train
291,171.71368408203125,174.0,2021-01-21 22:57:55.278000+00:00,train
292,171.83587646484375,174.0,2021-01-21 22:58:55.278000+00:00,train
293,171.9539794921875,174.0,2021-01-21 22:59:55.278000+00:00,train
294,172.0686492919922,174.0,2021-01-21 23:00:55.278000+00:00,train
295,172.18060302734375,174.0,2021-01-21 23:01:55.278000+00:00,train
296,172.2855987548828,174.0,2021-01-21 23:02:55.278000+00:00,train
297,172.36715698242188,172.0,2021-01-21 23:03:55.278000+00:00,train
298,172.4302978515625,170.0,2021-01-21 23:04:55.278000+00:00,train
299,172.49169921875,170.0,2021-01-21 23:05:55.278000+00:00,train
300,172.55068969726562,170.0,2021-01-21 23:06:55.278000+00:00,train
301,172.60630798339844,170.0,2021-01-21 23:07:55.278000+00:00,train
302,172.65826416015625,170.0,2021-01-21 23:08:55.278000+00:00,train
303,172.68746948242188,170.0,2021-01-21 23:09:55.278000+00:00,train
304,172.680419921875,170.0,2021-01-21 23:10:55.278000+00:00,train
305,172.6716766357422,170.0,2021-01-21 23:11:55.278000+00:00,train
306,172.6613311767578,170.0,2021-01-21 23:12:55.278000+00:00,train
307,172.64903259277344,170.0,2021-01-21 23:13:55.278000+00:00,train
308,172.63470458984375,170.0,2021-01-21 23:14:55.278000+00:00,train
309,172.61839294433594,170.0,2021-01-21 23:15:55.278000+00:00,train
310,172.5996856689453,171.0,2021-01-21 23:16:55.278000+00:00,train
311,172.57858276367188,172.0,2021-01-21 23:17:55.278000+00:00,train
312,172.5548553466797,172.0,2021-01-21 23:18:55.278000+00:00,train
313,172.52825927734375,172.0,2021-01-21 23:19:55.278000+00:00,train
314,172.51486206054688,172.0,2021-01-21 23:20:55.278000+00:00,train
315,172.5111541748047,172.0,2021-01-21 23:21:55.278000+00:00,train
316,172.51971435546875,172.0,2021-01-21 23:22:55.278000+00:00,train
317,172.54530334472656,172.0,2021-01-21 23:23:55.278000+00:00,train
318,172.56906127929688,172.0,2021-01-21 23:24:55.278000+00:00,train
319,172.59075927734375,172.0,2021-01-21 23:25:55.278000+00:00,train
320,172.61073303222656,172.0,2021-01-21 23:26:55.278000+00:00,train
321,172.62852478027344,173.0,2021-01-21 23:27:55.278000+00:00,train
322,172.6441192626953,174.0,2021-01-21 23:28:55.278000+00:00,train
323,172.6578369140625,174.0,2021-01-21 23:29:55.278000+00:00,train
324,172.6692352294922,174.0,2021-01-21 23:30:55.278000+00:00,train
325,172.68878173828125,174.0,2021-01-21 23:31:55.278000+00:00,train
326,172.71177673339844,174.0,2021-01-21 23:32:55.278000+00:00,train
327,172.7549591064453,174.0,2021-01-21 23:33:55.278000+00:00,train
328,172.82301330566406,174.0,2021-01-21 23:34:55.278000+00:00,train
329,172.8885955810547,174.0,2021-01-21 23:35:55.278000+00:00,train
330,172.9513397216797,174.0,2021-01-21 23:36:55.278000+00:00,train
331,173.01206970214844,174.0,2021-01-21 23:37:55.278000+00:00,train
332,173.07017517089844,174.0,2021-01-21 23:38:55.278000+00:00,train
333,173.12570190429688,174.0,2021-01-21 23:39:55.278000+00:00,train
334,173.1795654296875,174.0,2021-01-21 23:40:55.278000+00:00,train
335,173.2306365966797,174.0,2021-01-21 23:41:55.278000+00:00,train
336,173.2809295654297,176.0,2021-01-21 23:42:55.278000+00:00,train
337,173.32591247558594,176.0,2021-01-21 23:43:55.278000+00:00,train
338,173.36859130859375,176.0,2021-01-21 23:44:55.278000+00:00,train
339,173.4082794189453,176.0,2021-01-21 23:45:55.278000+00:00,train
340,173.4665985107422,176.0,2021-01-21 23:46:55.278000+00:00,train
341,173.5039520263672,176.0,2021-01-21 23:47:55.278000+00:00,train
342,173.59458923339844,176.0,2021-01-21 23:48:55.278000+00:00,train
343,173.68016052246094,176.0,2021-01-21 23:49:55.278000+00:00,train
344,173.76060485839844,176.0,2021-01-21 23:50:55.278000+00:00,train
345,173.8379669189453,176.0,2021-01-21 23:51:55.278000+00:00,train
346,173.91049194335938,176.0,2021-01-21 23:52:55.278000+00:00,train
347,173.9724578857422,174.0,2021-01-21 23:53:55.278000+00:00,train
348,174.0221710205078,172.0,2021-01-21 23:54:55.278000+00:00,train
349,174.0667266845703,172.0,2021-01-21 23:55:55.278000+00:00,train
350,174.13519287109375,172.0,2021-01-21 23:56:55.278000+00:00,train
351,174.21107482910156,172.0,2021-01-21 23:57:55.278000+00:00,train
352,174.27194213867188,172.0,2021-01-21 23:58:55.278000+00:00,train
353,174.28634643554688,172.0,2021-01-21 23:59:55.278000+00:00,train
354,174.26951599121094,172.0,2021-01-22 00:00:55.278000+00:00,train
355,174.251220703125,172.0,2021-01-22 00:01:55.278000+00:00,train
356,174.23004150390625,172.0,2021-01-22 00:02:55.278000+00:00,train
357,174.217041015625,172.0,2021-01-22 00:03:55.278000+00:00,train
358,174.2112579345703,172.0,2021-01-22 00:04:55.278000+00:00,train
359,174.20394897460938,172.0,2021-01-22 00:05:55.278000+00:00,train
360,174.19578552246094,172.0,2021-01-22 00:06:55.278000+00:00,train
361,174.18682861328125,172.0,2021-01-22 00:07:55.278000+00:00,train
362,174.17625427246094,172.0,2021-01-22 00:08:55.278000+00:00,train
363,174.1647491455078,173.0,2021-01-22 00:09:55.278000+00:00,train
364,174.15240478515625,174.0,2021-01-22 00:10:55.278000+00:00,train
365,174.1383056640625,174.0,2021-01-22 00:11:55.278000+00:00,train
366,174.12318420410156,174.0,2021-01-22 00:12:55.278000+00:00,train
367,174.10707092285156,174.0,2021-01-22 00:13:55.278000+00:00,train
368,174.08909606933594,174.0,2021-01-22 00:14:55.278000+00:00,train
369,174.09213256835938,174.0,2021-01-22 00:15:55.278000+00:00,train
370,174.1082763671875,174.0,2021-01-22 00:16:55.278000+00:00,train
371,174.12261962890625,174.0,2021-01-22 00:17:55.278000+00:00,train
372,174.13702392578125,174.0,2021-01-22 00:18:55.278000+00:00,train
373,174.14976501464844,174.0,2021-01-22 00:19:55.278000+00:00,train
374,174.16061401367188,174.0,2021-01-22 00:20:55.278000+00:00,train
375,174.17156982421875,174.0,2021-01-22 00:21:55.278000+00:00,train
376,174.18067932128906,174.0,2021-01-22 00:22:55.278000+00:00,train
377,174.18887329101562,175.0,2021-01-22 00:23:55.278000+00:00,train
378,174.1961669921875,176.0,2021-01-22 00:24:55.278000+00:00,train
379,174.201171875,176.0,2021-01-22 00:25:55.278000+00:00,train
380,174.20640563964844,176.0,2021-01-22 00:26:55.278000+00:00,train
381,174.20997619628906,176.0,2021-01-22 00:27:55.278000+00:00,train
382,174.21182250976562,176.0,2021-01-22 00:28:55.278000+00:00,train
383,174.2293243408203,176.0,2021-01-22 00:29:55.278000+00:00,train
384,174.26577758789062,176.0,2021-01-22 00:30:55.278000+00:00,train
385,174.29896545410156,176.0,2021-01-22 00:31:55.278000+00:00,train
386,174.33009338378906,176.0,2021-01-22 00:32:55.278000+00:00,train
387,174.3592987060547,176.0,2021-01-22 00:33:55.278000+00:00,train
388,174.38478088378906,176.0,2021-01-22 00:34:55.278000+00:00,train
389,174.4097137451172,176.0,2021-01-22 00:35:55.278000+00:00,train
390,174.43072509765625,176.0,2021-01-22 00:36:55.278000+00:00,train
391,174.44610595703125,176.0,2021-01-22 00:37:55.278000+00:00,train
392,174.45362854003906,178.0,2021-01-22 00:38:55.278000+00:00,train
393,174.45892333984375,178.0,2021-01-22 00:39:55.278000+00:00,train
394,174.4614715576172,178.0,2021-01-22 00:40:55.278000+00:00,train
395,174.46478271484375,172.0,2021-01-22 00:41:55.278000+00:00,train
396,174.46572875976562,172.0,2021-01-22 00:42:55.278000+00:00,train
397,174.46383666992188,172.0,2021-01-22 00:43:55.278000+00:00,train
398,174.49957275390625,172.0,2021-01-22 00:44:55.278000+00:00,train
399,174.53768920898438,172.0,2021-01-22 00:45:55.278000+00:00,train
400,174.5465545654297,172.0,2021-01-22 00:46:55.278000+00:00,train
401,174.4913787841797,172.0,2021-01-22 00:47:55.278000+00:00,train
402,174.4310760498047,172.0,2021-01-22 00:48:55.278000+00:00,train
403,174.3955535888672,172.0,2021-01-22 00:49:55.278000+00:00,train
404,174.37989807128906,172.0,2021-01-22 00:50:55.278000+00:00,train
405,174.36581420898438,174.0,2021-01-22 00:51:55.278000+00:00,train
406,174.3504638671875,174.0,2021-01-22 00:52:55.278000+00:00,train
407,174.33338928222656,174.0,2021-01-22 00:53:55.278000+00:00,train
408,174.31793212890625,174.0,2021-01-22 00:54:55.278000+00:00,train
409,174.30105590820312,174.0,2021-01-22 00:55:55.278000+00:00,train
410,174.28240966796875,174.0,2021-01-22 00:56:55.278000+00:00,train
411,174.2854461669922,174.0,2021-01-22 00:57:55.278000+00:00,train
412,174.2869110107422,174.0,2021-01-22 00:58:55.278000+00:00,train
413,174.28829956054688,174.0,2021-01-22 00:59:55.278000+00:00,train
414,174.2895050048828,174.0,2021-01-22 01:00:55.278000+00:00,train
415,174.28805541992188,174.0,2021-01-22 01:01:55.278000+00:00,train
416,174.28367614746094,174.0,2021-01-22 01:02:55.278000+00:00,train
417,174.2775421142578,174.0,2021-01-22 01:03:55.278000+00:00,train
418,174.27005004882812,174.0,2021-01-22 01:04:55.278000+00:00,train
419,174.2624053955078,176.0,2021-01-22 01:05:55.278000+00:00,train
420,174.25469970703125,176.0,2021-01-22 01:06:55.278000+00:00,train
421,174.24537658691406,176.0,2021-01-22 01:07:55.278000+00:00,train
422,174.2373504638672,176.0,2021-01-22 01:08:55.278000+00:00,train
423,174.22784423828125,176.0,2021-01-22 01:09:55.278000+00:00,train
424,174.21621704101562,176.0,2021-01-22 01:10:55.278000+00:00,train
425,174.2274169921875,176.0,2021-01-22 01:11:55.278000+00:00,train
426,174.23464965820312,176.0,2021-01-22 01:12:55.278000+00:00,train
427,174.23760986328125,176.0,2021-01-22 01:13:55.278000+00:00,train
428,174.23876953125,176.0,2021-01-22 01:14:55.278000+00:00,train
429,174.23887634277344,176.0,2021-01-22 01:15:55.278000+00:00,train
430,174.2376708984375,176.0,2021-01-22 01:16:55.278000+00:00,train
431,174.23716735839844,176.0,2021-01-22 01:17:55.278000+00:00,train
432,174.23550415039062,176.0,2021-01-22 01:18:55.278000+00:00,train
433,174.23361206054688,176.0,2021-01-22 01:19:55.278000+00:00,train
434,174.23158264160156,176.0,2021-01-22 01:20:55.278000+00:00,train
435,174.2283477783203,176.0,2021-01-22 01:21:55.278000+00:00,train
436,174.22488403320312,177.0,2021-01-22 01:22:55.278000+00:00,train
437,174.22125244140625,178.0,2021-01-22 01:23:55.278000+00:00,train
438,174.21633911132812,178.0,2021-01-22 01:24:55.278000+00:00,train
439,174.21096801757812,172.0,2021-01-22 01:25:55.278000+00:00,train
440,174.20492553710938,172.0,2021-01-22 01:26:55.278000+00:00,train
441,174.1964111328125,172.0,2021-01-22 01:27:55.278000+00:00,train
442,174.1848602294922,172.0,2021-01-22 01:28:55.278000+00:00,train
443,174.17904663085938,172.0,2021-01-22 01:29:55.278000+00:00,train
444,174.171875,172.0,2021-01-22 01:30:55.278000+00:00,train
445,174.10345458984375,172.0,2021-01-22 01:31:55.278000+00:00,train
446,174.03424072265625,172.0,2021-01-22 01:32:55.278000+00:00,train
447,173.96414184570312,172.0,2021-01-22 01:33:55.278000+00:00,train
448,173.89511108398438,172.0,2021-01-22 01:34:55.278000+00:00,train
449,173.8256378173828,172.0,2021-01-22 01:35:55.278000+00:00,train
450,173.7555694580078,172.0,2021-01-22 01:36:55.278000+00:00,train
451,173.6864776611328,173.0,2021-01-22 01:37:55.278000+00:00,train
452,173.61642456054688,174.0,2021-01-22 01:38:55.278000+00:00,train
453,173.5688018798828,174.0,2021-01-22 01:39:55.278000+00:00,train
454,173.54396057128906,174.0,2021-01-22 01:40:55.278000+00:00,train
455,173.5199737548828,174.0,2021-01-22 01:41:55.278000+00:00,train
456,173.49549865722656,174.0,2021-01-22 01:42:55.278000+00:00,train
457,173.48532104492188,174.0,2021-01-22 01:43:55.278000+00:00,train
458,173.48886108398438,174.0,2021-01-22 01:44:55.278000+00:00,train
459,173.49215698242188,174.0,2021-01-22 01:45:55.278000+00:00,train
460,173.49502563476562,174.0,2021-01-22 01:46:55.278000+00:00,train
461,173.49900817871094,174.0,2021-01-22 01:47:55.278000+00:00,train
462,173.50271606445312,174.0,2021-01-22 01:48:55.278000+00:00,train
463,173.5067596435547,174.0,2021-01-22 01:49:55.278000+00:00,train
464,173.51119995117188,174.0,2021-01-22 01:50:55.278000+00:00,train
465,173.51522827148438,174.0,2021-01-22 01:51:55.278000+00:00,train
466,173.5193634033203,174.0,2021-01-22 01:52:55.278000+00:00,train
467,173.52340698242188,174.0,2021-01-22 01:53:55.278000+00:00,train
468,173.52584838867188,176.0,2021-01-22 01:54:55.278000+00:00,train
469,173.5181121826172,176.0,2021-01-22 01:55:55.278000+00:00,train
470,173.5023193359375,176.0,2021-01-22 01:56:55.278000+00:00,train
471,173.4862823486328,176.0,2021-01-22 01:57:55.278000+00:00,train
472,173.47036743164062,176.0,2021-01-22 01:58:55.278000+00:00,train
473,173.45465087890625,176.0,2021-01-22 01:59:55.278000+00:00,train
474,173.45582580566406,176.0,2021-01-22 02:00:55.278000+00:00,train
475,173.45751953125,176.0,2021-01-22 02:01:55.278000+00:00,train
476,173.458984375,176.0,2021-01-22 02:02:55.278000+00:00,train
477,173.4601593017578,176.0,2021-01-22 02:03:55.278000+00:00,train
478,173.46180725097656,176.0,2021-01-22 02:04:55.278000+00:00,train
479,173.46327209472656,174.0,2021-01-22 02:05:55.278000+00:00,train
480,173.46434020996094,172.0,2021-01-22 02:06:55.278000+00:00,train
481,173.46580505371094,172.0,2021-01-22 02:07:55.278000+00:00,train
482,173.46669006347656,172.0,2021-01-22 02:08:55.278000+00:00,train
483,173.459228515625,172.0,2021-01-22 02:09:55.278000+00:00,train
484,173.44598388671875,172.0,2021-01-22 02:10:55.278000+00:00,train
485,173.41455078125,172.0,2021-01-22 02:11:55.278000+00:00,train
486,173.3494873046875,172.0,2021-01-22 02:12:55.278000+00:00,train
487,173.2850341796875,172.0,2021-01-22 02:13:55.278000+00:00,train
488,173.22091674804688,172.0,2021-01-22 02:14:55.278000+00:00,train
489,173.15740966796875,172.0,2021-01-22 02:15:55.278000+00:00,train
490,173.0945587158203,172.0,2021-01-22 02:16:55.278000+00:00,train
491,173.03208923339844,172.0,2021-01-22 02:17:55.278000+00:00,train
492,172.9702606201172,172.0,2021-01-22 02:18:55.278000+00:00,train
493,172.9091033935547,172.0,2021-01-22 02:19:55.278000+00:00,train
494,172.84837341308594,172.0,2021-01-22 02:20:55.278000+00:00,train
495,172.78860473632812,172.0,2021-01-22 02:21:55.278000+00:00,train
496,172.7292938232422,172.0,2021-01-22 02:22:55.278000+00:00,train
497,172.6703643798828,172.0,2021-01-22 02:23:55.278000+00:00,train
498,172.6192626953125,172.0,2021-01-22 02:24:55.278000+00:00,train
499,172.57073974609375,172.0,2021-01-22 02:25:55.278000+00:00,val
500,172.52499389648438,172.0,2021-01-22 02:26:55.278000+00:00,val
501,172.51071166992188,174.0,2021-01-22 02:27:55.278000+00:00,val
502,172.4965057373047,174.0,2021-01-22 02:28:55.278000+00:00,val
503,172.48243713378906,174.0,2021-01-22 02:29:55.278000+00:00,val
504,172.4682159423828,174.0,2021-01-22 02:30:55.278000+00:00,val
505,172.45431518554688,174.0,2021-01-22 02:31:55.278000+00:00,val
506,172.44032287597656,174.0,2021-01-22 02:32:55.278000+00:00,val
507,172.4561309814453,174.0,2021-01-22 02:33:55.278000+00:00,val
508,172.4724884033203,174.0,2021-01-22 02:34:55.278000+00:00,val
509,172.48887634277344,174.0,2021-01-22 02:35:55.278000+00:00,val
510,172.50486755371094,174.0,2021-01-22 02:36:55.278000+00:00,val
511,172.4951171875,174.0,2021-01-22 02:37:55.278000+00:00,val
512,172.48532104492188,174.0,2021-01-22 02:38:55.278000+00:00,val
513,172.4754638671875,174.0,2021-01-22 02:39:55.278000+00:00,val
514,172.4658660888672,174.0,2021-01-22 02:40:55.278000+00:00,val
515,172.45619201660156,174.0,2021-01-22 02:41:55.278000+00:00,val
516,172.44662475585938,174.0,2021-01-22 02:42:55.278000+00:00,val
517,172.4371795654297,174.0,2021-01-22 02:43:55.278000+00:00,val
518,172.4276580810547,170.0,2021-01-22 02:44:55.278000+00:00,val
519,172.41824340820312,170.0,2021-01-22 02:45:55.278000+00:00,val
520,172.408935546875,170.0,2021-01-22 02:46:55.278000+00:00,val
521,172.3995819091797,170.0,2021-01-22 02:47:55.278000+00:00,val
522,172.39028930664062,170.0,2021-01-22 02:48:55.278000+00:00,val
523,172.381103515625,170.0,2021-01-22 02:49:55.278000+00:00,val
524,172.2859344482422,170.0,2021-01-22 02:50:55.278000+00:00,val
525,172.1845703125,170.0,2021-01-22 02:51:55.278000+00:00,val
526,172.0855255126953,170.0,2021-01-22 02:52:55.278000+00:00,val
527,171.98858642578125,170.0,2021-01-22 02:53:55.278000+00:00,val
528,171.8939208984375,170.0,2021-01-22 02:54:55.278000+00:00,val
529,171.80123901367188,170.0,2021-01-22 02:55:55.278000+00:00,val
530,171.71051025390625,170.0,2021-01-22 02:56:55.278000+00:00,val
531,171.62193298339844,170.0,2021-01-22 02:57:55.278000+00:00,val
532,171.53524780273438,170.0,2021-01-22 02:58:55.278000+00:00,val
533,171.45042419433594,170.0,2021-01-22 02:59:55.278000+00:00,val
534,171.36769104003906,172.0,2021-01-22 03:00:55.278000+00:00,val
535,171.28680419921875,172.0,2021-01-22 03:01:55.278000+00:00,val
536,171.20790100097656,172.0,2021-01-22 03:02:55.278000+00:00,val
537,171.1309356689453,172.0,2021-01-22 03:03:55.278000+00:00,val
538,171.05584716796875,172.0,2021-01-22 03:04:55.278000+00:00,val
539,170.98275756835938,172.0,2021-01-22 03:05:55.278000+00:00,val
540,170.95323181152344,172.0,2021-01-22 03:06:55.278000+00:00,val
541,170.92494201660156,172.0,2021-01-22 03:07:55.278000+00:00,val
542,170.90798950195312,172.0,2021-01-22 03:08:55.278000+00:00,val
543,170.9107208251953,172.0,2021-01-22 03:09:55.278000+00:00,val
544,170.91888427734375,172.0,2021-01-22 03:10:55.278000+00:00,val
545,170.91189575195312,172.0,2021-01-22 03:11:55.278000+00:00,val
546,170.90504455566406,172.0,2021-01-22 03:12:55.278000+00:00,val
547,170.89828491210938,172.0,2021-01-22 03:13:55.278000+00:00,val
548,170.8915252685547,172.0,2021-01-22 03:14:55.278000+00:00,val
549,170.8848114013672,172.0,2021-01-22 03:15:55.278000+00:00,val
550,170.87814331054688,172.0,2021-01-22 03:16:55.278000+00:00,val
551,170.8719482421875,174.0,2021-01-22 03:17:55.278000+00:00,val
552,170.8662567138672,174.0,2021-01-22 03:18:55.278000+00:00,val
553,170.8606719970703,174.0,2021-01-22 03:19:55.278000+00:00,val
554,170.85507202148438,168.0,2021-01-22 03:20:55.278000+00:00,val
555,170.84962463378906,168.0,2021-01-22 03:21:55.278000+00:00,val
556,170.84375,168.0,2021-01-22 03:22:55.278000+00:00,val
557,170.84414672851562,168.0,2021-01-22 03:23:55.278000+00:00,val
558,170.83895874023438,168.0,2021-01-22 03:24:55.278000+00:00,val
559,170.8337860107422,168.0,2021-01-22 03:25:55.278000+00:00,val
560,170.70086669921875,168.0,2021-01-22 03:26:55.278000+00:00,val
561,170.57191467285156,168.0,2021-01-22 03:27:55.278000+00:00,val
562,170.446533203125,168.0,2021-01-22 03:28:55.278000+00:00,val
563,170.32452392578125,168.0,2021-01-22 03:29:55.278000+00:00,val
564,170.20562744140625,168.0,2021-01-22 03:30:55.278000+00:00,val
565,170.08958435058594,168.0,2021-01-22 03:31:55.278000+00:00,val
566,169.9763641357422,168.0,2021-01-22 03:32:55.278000+00:00,val
567,169.86570739746094,168.0,2021-01-22 03:33:55.278000+00:00,val
568,169.7574920654297,168.0,2021-01-22 03:34:55.278000+00:00,val
569,169.65171813964844,169.0,2021-01-22 03:35:55.278000+00:00,val
570,169.5481719970703,170.0,2021-01-22 03:36:55.278000+00:00,val
571,169.4468231201172,170.0,2021-01-22 03:37:55.278000+00:00,val
572,169.34759521484375,170.0,2021-01-22 03:38:55.278000+00:00,val
573,169.25039672851562,170.0,2021-01-22 03:39:55.278000+00:00,val
574,169.1658935546875,170.0,2021-01-22 03:40:55.278000+00:00,val
575,169.11143493652344,170.0,2021-01-22 03:41:55.278000+00:00,val
576,169.0813751220703,170.0,2021-01-22 03:42:55.278000+00:00,val
577,169.05401611328125,170.0,2021-01-22 03:43:55.278000+00:00,val
578,169.02931213378906,170.0,2021-01-22 03:44:55.278000+00:00,val
579,169.0074462890625,170.0,2021-01-22 03:45:55.278000+00:00,val
580,168.98867797851562,170.0,2021-01-22 03:46:55.278000+00:00,val
581,168.97305297851562,170.0,2021-01-22 03:47:55.278000+00:00,val
582,168.96083068847656,170.0,2021-01-22 03:48:55.278000+00:00,val
583,168.95223999023438,170.0,2021-01-22 03:49:55.278000+00:00,val
584,168.94744873046875,170.0,2021-01-22 03:50:55.278000+00:00,val
585,168.9205780029297,170.0,2021-01-22 03:51:55.278000+00:00,val
586,168.8934783935547,170.0,2021-01-22 03:52:55.278000+00:00,val
587,168.86669921875,166.0,2021-01-22 03:53:55.278000+00:00,val
588,168.8401641845703,166.0,2021-01-22 03:54:55.278000+00:00,val
589,168.81387329101562,166.0,2021-01-22 03:55:55.278000+00:00,val
590,168.78790283203125,166.0,2021-01-22 03:56:55.278000+00:00,val
591,168.76219177246094,166.0,2021-01-22 03:57:55.278000+00:00,val
592,168.7367401123047,166.0,2021-01-22 03:58:55.278000+00:00,val
593,168.59596252441406,166.0,2021-01-22 03:59:55.278000+00:00,val
594,168.4593048095703,166.0,2021-01-22 04:00:55.278000+00:00,val
595,168.32644653320312,166.0,2021-01-22 04:01:55.278000+00:00,val
596,168.19717407226562,166.0,2021-01-22 04:02:55.278000+00:00,val
597,168.0711212158203,166.0,2021-01-22 04:03:55.278000+00:00,val
598,167.9481658935547,166.0,2021-01-22 04:04:55.278000+00:00,val
599,167.82809448242188,166.0,2021-01-22 04:05:55.278000+00:00,val
600,167.71072387695312,166.0,2021-01-22 04:06:55.278000+00:00,val
601,167.595947265625,166.0,2021-01-22 04:07:55.278000+00:00,val
602,167.48365783691406,167.0,2021-01-22 04:08:55.278000+00:00,val
603,167.37367248535156,168.0,2021-01-22 04:09:55.278000+00:00,val
604,167.26600646972656,168.0,2021-01-22 04:10:55.278000+00:00,val
605,167.16050720214844,168.0,2021-01-22 04:11:55.278000+00:00,val
606,167.05706787109375,168.0,2021-01-22 04:12:55.278000+00:00,val
607,166.96240234375,168.0,2021-01-22 04:13:55.278000+00:00,val
608,166.89830017089844,168.0,2021-01-22 04:14:55.278000+00:00,val
609,166.85919189453125,168.0,2021-01-22 04:15:55.278000+00:00,val
610,166.8222198486328,168.0,2021-01-22 04:16:55.278000+00:00,val
611,166.78738403320312,168.0,2021-01-22 04:17:55.278000+00:00,val
612,166.7547607421875,168.0,2021-01-22 04:18:55.278000+00:00,val
613,166.7244415283203,168.0,2021-01-22 04:19:55.278000+00:00,val
614,166.6964569091797,168.0,2021-01-22 04:20:55.278000+00:00,val
615,166.67092895507812,168.0,2021-01-22 04:21:55.278000+00:00,val
616,166.6479949951172,168.0,2021-01-22 04:22:55.278000+00:00,val
617,166.627685546875,164.0,2021-01-22 04:23:55.278000+00:00,val
618,166.6101837158203,164.0,2021-01-22 04:24:55.278000+00:00,val
619,166.59564208984375,164.0,2021-01-22 04:25:55.278000+00:00,val
620,166.5841522216797,164.0,2021-01-22 04:26:55.278000+00:00,val
621,166.57598876953125,164.0,2021-01-22 04:27:55.278000+00:00,val
622,166.5713348388672,164.0,2021-01-22 04:28:55.278000+00:00,val
623,166.4506378173828,164.0,2021-01-22 04:29:55.278000+00:00,val
624,166.30856323242188,164.0,2021-01-22 04:30:55.278000+00:00,val
625,166.1702423095703,164.0,2021-01-22 04:31:55.278000+00:00,val
626,166.0354461669922,164.0,2021-01-22 04:32:55.278000+00:00,val
627,165.90390014648438,164.0,2021-01-22 04:33:55.278000+00:00,val
628,165.7754364013672,164.0,2021-01-22 04:34:55.278000+00:00,val
629,165.6498565673828,164.0,2021-01-22 04:35:55.278000+00:00,val
630,165.5269775390625,164.0,2021-01-22 04:36:55.278000+00:00,val
631,165.40673828125,164.0,2021-01-22 04:37:55.278000+00:00,val
632,165.28904724121094,164.0,2021-01-22 04:38:55.278000+00:00,val
633,165.1737823486328,164.0,2021-01-22 04:39:55.278000+00:00,val
634,165.0609893798828,164.0,2021-01-22 04:40:55.278000+00:00,val
635,164.95057678222656,164.0,2021-01-22 04:41:55.278000+00:00,val
636,164.84254455566406,164.0,2021-01-22 04:42:55.278000+00:00,val
637,164.73707580566406,164.0,2021-01-22 04:43:55.278000+00:00,val
638,164.63417053222656,166.0,2021-01-22 04:44:55.278000+00:00,val
639,164.5339813232422,166.0,2021-01-22 04:45:55.278000+00:00,val
640,164.4447021484375,166.0,2021-01-22 04:46:55.278000+00:00,val
641,164.361328125,166.0,2021-01-22 04:47:55.278000+00:00,val
642,164.28506469726562,166.0,2021-01-22 04:48:55.278000+00:00,val
643,164.21722412109375,163.0,2021-01-22 04:49:55.278000+00:00,val
644,164.19921875,160.0,2021-01-22 04:50:55.278000+00:00,val
645,164.18756103515625,160.0,2021-01-22 04:51:55.278000+00:00,val
646,164.18353271484375,160.0,2021-01-22 04:52:55.278000+00:00,val
647,164.18838500976562,160.0,2021-01-22 04:53:55.278000+00:00,val
648,164.20278930664062,160.0,2021-01-22 04:54:55.278000+00:00,val
649,164.18406677246094,160.0,2021-01-22 04:55:55.278000+00:00,val
650,164.1246337890625,160.0,2021-01-22 04:56:55.278000+00:00,val
651,164.12493896484375,160.0,2021-01-22 04:57:55.278000+00:00,val
652,164.18836975097656,160.0,2021-01-22 04:58:55.278000+00:00,val
653,164.31094360351562,161.0,2021-01-22 04:59:55.278000+00:00,val
654,164.4514923095703,162.0,2021-01-22 05:00:55.278000+00:00,val
655,164.57760620117188,162.0,2021-01-22 05:01:55.278000+00:00,val
656,164.66737365722656,162.0,2021-01-22 05:02:55.278000+00:00,val
657,164.73504638671875,162.0,2021-01-22 05:03:55.278000+00:00,val
658,164.71009826660156,162.0,2021-01-22 05:04:55.278000+00:00,val
659,164.61427307128906,162.0,2021-01-22 05:05:55.278000+00:00,val
660,164.5066375732422,162.0,2021-01-22 05:06:55.278000+00:00,val
661,164.38307189941406,162.0,2021-01-22 05:07:55.278000+00:00,val
662,164.24400329589844,162.0,2021-01-22 05:08:55.278000+00:00,val
663,164.08990478515625,162.0,2021-01-22 05:09:55.278000+00:00,val
664,163.92160034179688,162.0,2021-01-22 05:10:55.278000+00:00,val
665,163.74139404296875,162.0,2021-01-22 05:11:55.278000+00:00,val
666,163.55123901367188,162.0,2021-01-22 05:12:55.278000+00:00,val
667,163.35272216796875,162.0,2021-01-22 05:13:55.278000+00:00,val
668,163.14698791503906,158.0,2021-01-22 05:14:55.278000+00:00,val
669,162.935791015625,158.0,2021-01-22 05:15:55.278000+00:00,val
670,162.72186279296875,158.0,2021-01-22 05:16:55.278000+00:00,test
671,162.508056640625,158.0,2021-01-22 05:17:55.278000+00:00,test
672,162.29637145996094,158.0,2021-01-22 05:18:55.278000+00:00,test
673,162.09034729003906,158.0,2021-01-22 05:19:55.278000+00:00,test
674,161.7040557861328,158.0,2021-01-22 05:20:55.278000+00:00,test
675,161.3184814453125,158.0,2021-01-22 05:21:55.278000+00:00,test
676,160.9457244873047,158.0,2021-01-22 05:22:55.278000+00:00,test
677,160.59909057617188,158.0,2021-01-22 05:23:55.278000+00:00,test
678,160.27500915527344,158.0,2021-01-22 05:24:55.278000+00:00,test
679,159.9735565185547,158.0,2021-01-22 05:25:55.278000+00:00,test
680,159.6972198486328,158.0,2021-01-22 05:26:55.278000+00:00,test
681,159.44610595703125,158.0,2021-01-22 05:27:55.278000+00:00,test
682,159.21189880371094,158.0,2021-01-22 05:28:55.278000+00:00,test
683,158.98841857910156,158.0,2021-01-22 05:29:55.278000+00:00,test
684,158.76925659179688,158.0,2021-01-22 05:30:55.278000+00:00,test
685,158.55690002441406,158.0,2021-01-22 05:31:55.278000+00:00,test
686,158.34918212890625,158.0,2021-01-22 05:32:55.278000+00:00,test
687,158.14894104003906,158.0,2021-01-22 05:33:55.278000+00:00,test
688,157.9647979736328,158.0,2021-01-22 05:34:55.278000+00:00,test
689,157.80177307128906,157.0,2021-01-22 05:35:55.278000+00:00,test
690,157.66542053222656,154.0,2021-01-22 05:36:55.278000+00:00,test
691,157.55642700195312,154.0,2021-01-22 05:37:55.278000+00:00,test
692,157.46949768066406,154.0,2021-01-22 05:38:55.278000+00:00,test
693,157.33920288085938,154.0,2021-01-22 05:39:55.278000+00:00,test
694,157.2134246826172,154.0,2021-01-22 05:40:55.278000+00:00,test
695,157.0543975830078,154.0,2021-01-22 05:41:55.278000+00:00,test
696,156.76336669921875,154.0,2021-01-22 05:42:55.278000+00:00,test
697,156.4828338623047,154.0,2021-01-22 05:43:55.278000+00:00,test
698,156.2123565673828,154.0,2021-01-22 05:44:55.278000+00:00,test
699,155.95155334472656,154.0,2021-01-22 05:45:55.278000+00:00,test
700,155.69998168945312,154.0,2021-01-22 05:46:55.278000+00:00,test
701,155.45712280273438,154.0,2021-01-22 05:47:55.278000+00:00,test
702,155.22254943847656,154.0,2021-01-22 05:48:55.278000+00:00,test
703,154.99588012695312,154.0,2021-01-22 05:49:55.278000+00:00,test
704,154.77670288085938,154.0,2021-01-22 05:50:55.278000+00:00,test
705,154.56472778320312,156.0,2021-01-22 05:51:55.278000+00:00,test
706,154.35971069335938,156.0,2021-01-22 05:52:55.278000+00:00,test
707,154.161376953125,156.0,2021-01-22 05:53:55.278000+00:00,test
708,153.97967529296875,150.0,2021-01-22 05:54:55.278000+00:00,test
709,153.81961059570312,150.0,2021-01-22 05:55:55.278000+00:00,test
710,153.66748046875,150.0,2021-01-22 05:56:55.278000+00:00,test
711,153.59092712402344,150.0,2021-01-22 05:57:55.278000+00:00,test
712,153.52066040039062,150.0,2021-01-22 05:58:55.278000+00:00,test
713,153.45677185058594,150.0,2021-01-22 05:59:55.278000+00:00,test
714,153.15484619140625,150.0,2021-01-22 06:00:55.278000+00:00,test
715,152.8676300048828,150.0,2021-01-22 06:01:55.278000+00:00,test
716,152.5945281982422,150.0,2021-01-22 06:02:55.278000+00:00,test
717,152.33511352539062,150.0,2021-01-22 06:03:55.278000+00:00,test
718,152.0889892578125,152.0,2021-01-22 06:04:55.278000+00:00,test
719,151.8558349609375,152.0,2021-01-22 06:05:55.278000+00:00,test
720,151.63539123535156,152.0,2021-01-22 06:06:55.278000+00:00,test
721,151.42750549316406,152.0,2021-01-22 06:07:55.278000+00:00,test
722,151.2319793701172,152.0,2021-01-22 06:08:55.278000+00:00,test
723,150.9834747314453,150.0,2021-01-22 06:09:55.278000+00:00,test
724,150.82164001464844,148.0,2021-01-22 06:10:55.278000+00:00,test
725,150.66539001464844,148.0,2021-01-22 06:11:55.278000+00:00,test
726,150.5146026611328,148.0,2021-01-22 06:12:55.278000+00:00,test
727,150.36927795410156,148.0,2021-01-22 06:13:55.278000+00:00,test
728,150.22933959960938,148.0,2021-01-22 06:14:55.278000+00:00,test
729,150.0218963623047,148.0,2021-01-22 06:15:55.278000+00:00,test
730,149.7366943359375,148.0,2021-01-22 06:16:55.278000+00:00,test
731,149.46237182617188,148.0,2021-01-22 06:17:55.278000+00:00,test
732,149.198486328125,148.0,2021-01-22 06:18:55.278000+00:00,test
733,148.9447021484375,148.0,2021-01-22 06:19:55.278000+00:00,test
734,148.70066833496094,148.0,2021-01-22 06:20:55.278000+00:00,test
735,148.46612548828125,148.0,2021-01-22 06:21:55.278000+00:00,test
736,148.2408447265625,144.0,2021-01-22 06:22:55.278000+00:00,test
737,148.02464294433594,144.0,2021-01-22 06:23:55.278000+00:00,test
738,147.81735229492188,144.0,2021-01-22 06:24:55.278000+00:00,test
739,147.6188201904297,144.0,2021-01-22 06:25:55.278000+00:00,test
740,147.42897033691406,144.0,2021-01-22 06:26:55.278000+00:00,test
741,147.24771118164062,144.0,2021-01-22 06:27:55.278000+00:00,test
742,146.90203857421875,144.0,2021-01-22 06:28:55.278000+00:00,test
