,prediction,real,time,split
0,158.6582794189453,158.0,2021-01-21 17:50:55.278000+00:00,train
1,158.513671875,158.0,2021-01-21 17:51:55.278000+00:00,train
2,158.40652465820312,158.0,2021-01-21 17:52:55.278000+00:00,train
3,158.3020477294922,158.0,2021-01-21 17:53:55.278000+00:00,train
4,158.20005798339844,158.0,2021-01-21 17:54:55.278000+00:00,train
5,158.10035705566406,158.0,2021-01-21 17:55:55.278000+00:00,train
6,157.97328186035156,158.0,2021-01-21 17:56:55.278000+00:00,train
7,157.8335723876953,158.0,2021-01-21 17:57:55.278000+00:00,train
8,157.6984405517578,158.0,2021-01-21 17:58:55.278000+00:00,train
9,157.56761169433594,159.0,2021-01-21 17:59:55.278000+00:00,train
10,157.44081115722656,160.0,2021-01-21 18:00:55.278000+00:00,train
11,157.31785583496094,160.0,2021-01-21 18:01:55.278000+00:00,train
12,157.19850158691406,160.0,2021-01-21 18:02:55.278000+00:00,train
13,157.08261108398438,160.0,2021-01-21 18:03:55.278000+00:00,train
14,156.9700164794922,160.0,2021-01-21 18:04:55.278000+00:00,train
15,156.86056518554688,160.0,2021-01-21 18:05:55.278000+00:00,train
16,156.75416564941406,160.0,2021-01-21 18:06:55.278000+00:00,train
17,156.65066528320312,160.0,2021-01-21 18:07:55.278000+00:00,train
18,156.54995727539062,160.0,2021-01-21 18:08:55.278000+00:00,train
19,156.4922332763672,160.0,2021-01-21 18:09:55.278000+00:00,train
20,156.46673583984375,160.0,2021-01-21 18:10:55.278000+00:00,train
21,156.45443725585938,160.0,2021-01-21 18:11:55.278000+00:00,train
22,156.44447326660156,160.0,2021-01-21 18:12:55.278000+00:00,train
23,156.43690490722656,160.0,2021-01-21 18:13:55.278000+00:00,train
24,156.43182373046875,160.0,2021-01-21 18:14:55.278000+00:00,train
25,156.4292755126953,160.0,2021-01-21 18:15:55.278000+00:00,train
26,156.42930603027344,156.0,2021-01-21 18:16:55.278000+00:00,train
27,156.43202209472656,156.0,2021-01-21 18:17:55.278000+00:00,train
28,156.43751525878906,154.0,2021-01-21 18:18:55.278000+00:00,train
29,156.44586181640625,154.0,2021-01-21 18:19:55.278000+00:00,train
30,156.45718383789062,156.0,2021-01-21 18:20:55.278000+00:00,train
31,156.4716033935547,156.0,2021-01-21 18:21:55.278000+00:00,train
32,156.4892578125,156.0,2021-01-21 18:22:55.278000+00:00,train
33,156.51026916503906,156.0,2021-01-21 18:23:55.278000+00:00,train
34,156.5348358154297,156.0,2021-01-21 18:24:55.278000+00:00,train
35,156.5631103515625,156.0,2021-01-21 18:25:55.278000+00:00,train
36,156.519775390625,156.0,2021-01-21 18:26:55.278000+00:00,train
37,156.4941864013672,156.0,2021-01-21 18:27:55.278000+00:00,train
38,156.33119201660156,156.0,2021-01-21 18:28:55.278000+00:00,train
39,156.19140625,156.0,2021-01-21 18:29:55.278000+00:00,train
40,156.11209106445312,156.0,2021-01-21 18:30:55.278000+00:00,train
41,155.9728240966797,156.0,2021-01-21 18:31:55.278000+00:00,train
42,155.84112548828125,156.0,2021-01-21 18:32:55.278000+00:00,train
43,155.71380615234375,156.0,2021-01-21 18:33:55.278000+00:00,train
44,155.59059143066406,156.0,2021-01-21 18:34:55.278000+00:00,train
45,155.47125244140625,156.0,2021-01-21 18:35:55.278000+00:00,train
46,155.35560607910156,156.0,2021-01-21 18:36:55.278000+00:00,train
47,155.24346923828125,156.0,2021-01-21 18:37:55.278000+00:00,train
48,155.13465881347656,156.0,2021-01-21 18:38:55.278000+00:00,train
49,155.02903747558594,156.0,2021-01-21 18:39:55.278000+00:00,train
50,154.92648315429688,158.0,2021-01-21 18:40:55.278000+00:00,train
51,154.82688903808594,158.0,2021-01-21 18:41:55.278000+00:00,train
52,154.7301483154297,158.0,2021-01-21 18:42:55.278000+00:00,train
53,154.63612365722656,158.0,2021-01-21 18:43:55.278000+00:00,train
54,154.5447235107422,158.0,2021-01-21 18:44:55.278000+00:00,train
55,154.4558563232422,158.0,2021-01-21 18:45:55.278000+00:00,train
56,154.3726806640625,158.0,2021-01-21 18:46:55.278000+00:00,train
57,154.30686950683594,158.0,2021-01-21 18:47:55.278000+00:00,train
58,154.24563598632812,158.0,2021-01-21 18:48:55.278000+00:00,train
59,154.18902587890625,158.0,2021-01-21 18:49:55.278000+00:00,train
60,154.196044921875,158.0,2021-01-21 18:50:55.278000+00:00,train
61,154.20571899414062,158.0,2021-01-21 18:51:55.278000+00:00,train
62,154.21812438964844,156.0,2021-01-21 18:52:55.278000+00:00,train
63,154.23341369628906,154.0,2021-01-21 18:53:55.278000+00:00,train
64,154.25169372558594,153.0,2021-01-21 18:54:55.278000+00:00,train
65,154.2730712890625,152.0,2021-01-21 18:55:55.278000+00:00,train
66,154.2977294921875,152.0,2021-01-21 18:56:55.278000+00:00,train
67,154.32582092285156,153.0,2021-01-21 18:57:55.278000+00:00,train
68,154.35751342773438,154.0,2021-01-21 18:58:55.278000+00:00,train
69,154.39305114746094,154.0,2021-01-21 18:59:55.278000+00:00,train
70,154.43264770507812,154.0,2021-01-21 19:00:55.278000+00:00,train
71,154.47659301757812,154.0,2021-01-21 19:01:55.278000+00:00,train
72,154.4734344482422,154.0,2021-01-21 19:02:55.278000+00:00,train
73,154.37744140625,154.0,2021-01-21 19:03:55.278000+00:00,train
74,154.22511291503906,154.0,2021-01-21 19:04:55.278000+00:00,train
75,154.01025390625,154.0,2021-01-21 19:05:55.278000+00:00,train
76,153.8126983642578,154.0,2021-01-21 19:06:55.278000+00:00,train
77,153.7017059326172,154.0,2021-01-21 19:07:55.278000+00:00,train
78,153.6609649658203,154.0,2021-01-21 19:08:55.278000+00:00,train
79,153.55316162109375,154.0,2021-01-21 19:09:55.278000+00:00,train
80,153.44766235351562,154.0,2021-01-21 19:10:55.278000+00:00,train
81,153.34556579589844,154.0,2021-01-21 19:11:55.278000+00:00,train
82,153.2467498779297,154.0,2021-01-21 19:12:55.278000+00:00,train
83,153.15106201171875,154.0,2021-01-21 19:13:55.278000+00:00,train
84,153.05844116210938,154.0,2021-01-21 19:14:55.278000+00:00,train
85,152.96875,154.0,2021-01-21 19:15:55.278000+00:00,train
86,152.88192749023438,154.0,2021-01-21 19:16:55.278000+00:00,train
87,152.79791259765625,154.0,2021-01-21 19:17:55.278000+00:00,train
88,152.71664428710938,154.0,2021-01-21 19:18:55.278000+00:00,train
89,152.63807678222656,154.0,2021-01-21 19:19:55.278000+00:00,train
90,152.5621795654297,154.0,2021-01-21 19:20:55.278000+00:00,train
91,152.4889373779297,154.0,2021-01-21 19:21:55.278000+00:00,train
92,152.41839599609375,156.0,2021-01-21 19:22:55.278000+00:00,train
93,152.35052490234375,156.0,2021-01-21 19:23:55.278000+00:00,train
94,152.28536987304688,156.0,2021-01-21 19:24:55.278000+00:00,train
95,152.2230224609375,156.0,2021-01-21 19:25:55.278000+00:00,train
96,152.1635284423828,156.0,2021-01-21 19:26:55.278000+00:00,train
97,152.1070556640625,151.0,2021-01-21 19:27:55.278000+00:00,train
98,152.0537567138672,150.0,2021-01-21 19:28:55.278000+00:00,train
99,152.01316833496094,150.0,2021-01-21 19:29:55.278000+00:00,train
100,151.99729919433594,150.0,2021-01-21 19:30:55.278000+00:00,train
101,151.98898315429688,150.0,2021-01-21 19:31:55.278000+00:00,train
102,152.03529357910156,150.0,2021-01-21 19:32:55.278000+00:00,train
103,152.0890655517578,150.0,2021-01-21 19:33:55.278000+00:00,train
104,152.15206909179688,150.0,2021-01-21 19:34:55.278000+00:00,train
105,152.22695922851562,150.0,2021-01-21 19:35:55.278000+00:00,train
106,152.3174285888672,150.0,2021-01-21 19:36:55.278000+00:00,train
107,152.2538604736328,152.0,2021-01-21 19:37:55.278000+00:00,train
108,152.17437744140625,152.0,2021-01-21 19:38:55.278000+00:00,train
109,152.1644744873047,152.0,2021-01-21 19:39:55.278000+00:00,train
110,152.2522430419922,152.0,2021-01-21 19:40:55.278000+00:00,train
111,152.4758758544922,152.0,2021-01-21 19:41:55.278000+00:00,train
112,152.8765106201172,152.0,2021-01-21 19:42:55.278000+00:00,train
113,153.47039794921875,152.0,2021-01-21 19:43:55.278000+00:00,train
114,154.2224578857422,152.0,2021-01-21 19:44:55.278000+00:00,train
115,155.01522827148438,152.0,2021-01-21 19:45:55.278000+00:00,train
116,155.7145233154297,152.0,2021-01-21 19:46:55.278000+00:00,train
117,156.30340576171875,152.0,2021-01-21 19:47:55.278000+00:00,train
118,156.7611541748047,152.0,2021-01-21 19:48:55.278000+00:00,train
119,157.11582946777344,152.0,2021-01-21 19:49:55.278000+00:00,train
120,157.37078857421875,152.0,2021-01-21 19:50:55.278000+00:00,train
121,157.55545043945312,153.0,2021-01-21 19:51:55.278000+00:00,train
122,157.6866912841797,154.0,2021-01-21 19:52:55.278000+00:00,train
123,157.7783203125,154.0,2021-01-21 19:53:55.278000+00:00,train
124,157.839599609375,154.0,2021-01-21 19:54:55.278000+00:00,train
125,157.87722778320312,154.0,2021-01-21 19:55:55.278000+00:00,train
126,157.89764404296875,154.0,2021-01-21 19:56:55.278000+00:00,train
127,157.90484619140625,156.0,2021-01-21 19:57:55.278000+00:00,train
128,157.9017791748047,156.0,2021-01-21 19:58:55.278000+00:00,train
129,157.89039611816406,156.0,2021-01-21 19:59:55.278000+00:00,train
130,157.8720703125,156.0,2021-01-21 20:00:55.278000+00:00,train
131,157.8480987548828,156.0,2021-01-21 20:01:55.278000+00:00,train
132,157.82826232910156,156.0,2021-01-21 20:02:55.278000+00:00,train
133,157.80494689941406,156.0,2021-01-21 20:03:55.278000+00:00,train
134,157.7786407470703,156.0,2021-01-21 20:04:55.278000+00:00,train
135,157.74986267089844,156.0,2021-01-21 20:05:55.278000+00:00,train
136,157.71881103515625,158.0,2021-01-21 20:06:55.278000+00:00,train
137,157.7303924560547,158.0,2021-01-21 20:07:55.278000+00:00,train
138,157.74066162109375,158.0,2021-01-21 20:08:55.278000+00:00,train
139,157.7498779296875,158.0,2021-01-21 20:09:55.278000+00:00,train
140,157.67922973632812,158.0,2021-01-21 20:10:55.278000+00:00,train
141,157.60635375976562,158.0,2021-01-21 20:11:55.278000+00:00,train
142,157.53134155273438,158.0,2021-01-21 20:12:55.278000+00:00,train
143,157.4542694091797,158.0,2021-01-21 20:13:55.278000+00:00,train
144,157.37513732910156,159.0,2021-01-21 20:14:55.278000+00:00,train
145,157.29396057128906,160.0,2021-01-21 20:15:55.278000+00:00,train
146,157.29864501953125,160.0,2021-01-21 20:16:55.278000+00:00,train
147,157.30300903320312,158.0,2021-01-21 20:17:55.278000+00:00,train
148,157.30711364746094,156.0,2021-01-21 20:18:55.278000+00:00,train
149,157.31100463867188,156.0,2021-01-21 20:19:55.278000+00:00,train
150,157.31472778320312,156.0,2021-01-21 20:20:55.278000+00:00,train
151,157.3182830810547,156.0,2021-01-21 20:21:55.278000+00:00,train
152,157.40855407714844,156.0,2021-01-21 20:22:55.278000+00:00,train
153,157.54446411132812,156.0,2021-01-21 20:23:55.278000+00:00,train
154,157.73997497558594,156.0,2021-01-21 20:24:55.278000+00:00,train
155,157.98826599121094,156.0,2021-01-21 20:25:55.278000+00:00,train
156,158.22494506835938,156.0,2021-01-21 20:26:55.278000+00:00,train
157,158.34825134277344,156.0,2021-01-21 20:27:55.278000+00:00,train
158,158.39068603515625,156.0,2021-01-21 20:28:55.278000+00:00,train
159,158.43260192871094,156.0,2021-01-21 20:29:55.278000+00:00,train
160,158.47406005859375,157.0,2021-01-21 20:30:55.278000+00:00,train
161,158.5150146484375,158.0,2021-01-21 20:31:55.278000+00:00,train
162,158.55552673339844,158.0,2021-01-21 20:32:55.278000+00:00,train
163,158.59555053710938,158.0,2021-01-21 20:33:55.278000+00:00,train
164,158.6351318359375,158.0,2021-01-21 20:34:55.278000+00:00,train
165,158.6742706298828,158.0,2021-01-21 20:35:55.278000+00:00,train
166,158.7129669189453,158.0,2021-01-21 20:36:55.278000+00:00,train
167,158.75120544433594,158.0,2021-01-21 20:37:55.278000+00:00,train
168,158.7890167236328,158.0,2021-01-21 20:38:55.278000+00:00,train
169,158.8263702392578,160.0,2021-01-21 20:39:55.278000+00:00,train
170,158.8919677734375,160.0,2021-01-21 20:40:55.278000+00:00,train
171,158.99267578125,160.0,2021-01-21 20:41:55.278000+00:00,train
172,159.09136962890625,160.0,2021-01-21 20:42:55.278000+00:00,train
173,159.18809509277344,160.0,2021-01-21 20:43:55.278000+00:00,train
174,159.2828826904297,160.0,2021-01-21 20:44:55.278000+00:00,train
175,159.37579345703125,160.0,2021-01-21 20:45:55.278000+00:00,train
176,159.46690368652344,160.0,2021-01-21 20:46:55.278000+00:00,train
177,159.5561981201172,161.0,2021-01-21 20:47:55.278000+00:00,train
178,159.6437225341797,162.0,2021-01-21 20:48:55.278000+00:00,train
179,159.8147735595703,162.0,2021-01-21 20:49:55.278000+00:00,train
180,159.9809112548828,162.0,2021-01-21 20:50:55.278000+00:00,train
181,160.1423797607422,162.0,2021-01-21 20:51:55.278000+00:00,train
182,160.2770233154297,162.0,2021-01-21 20:52:55.278000+00:00,train
183,160.4091033935547,162.0,2021-01-21 20:53:55.278000+00:00,train
184,160.5386962890625,162.0,2021-01-21 20:54:55.278000+00:00,train
185,160.6659393310547,162.0,2021-01-21 20:55:55.278000+00:00,train
186,160.79092407226562,164.0,2021-01-21 20:56:55.278000+00:00,train
187,160.9569549560547,164.0,2021-01-21 20:57:55.278000+00:00,train
188,161.14419555664062,164.0,2021-01-21 20:58:55.278000+00:00,train
189,161.31939697265625,164.0,2021-01-21 20:59:55.278000+00:00,train
190,161.4826202392578,164.0,2021-01-21 21:00:55.278000+00:00,train
191,161.63397216796875,164.0,2021-01-21 21:01:55.278000+00:00,train
192,161.77337646484375,164.0,2021-01-21 21:02:55.278000+00:00,train
193,161.90074157714844,164.0,2021-01-21 21:03:55.278000+00:00,train
194,162.01588439941406,165.0,2021-01-21 21:04:55.278000+00:00,train
195,162.11849975585938,166.0,2021-01-21 21:05:55.278000+00:00,train
196,162.31661987304688,166.0,2021-01-21 21:06:55.278000+00:00,train
197,162.5540771484375,166.0,2021-01-21 21:07:55.278000+00:00,train
198,162.77854919433594,166.0,2021-01-21 21:08:55.278000+00:00,train
199,162.990478515625,166.0,2021-01-21 21:09:55.278000+00:00,train
200,163.20095825195312,166.0,2021-01-21 21:10:55.278000+00:00,train
201,163.38870239257812,166.0,2021-01-21 21:11:55.278000+00:00,train
202,163.56483459472656,166.0,2021-01-21 21:12:55.278000+00:00,train
203,163.72943115234375,166.0,2021-01-21 21:13:55.278000+00:00,train
204,163.93592834472656,166.0,2021-01-21 21:14:55.278000+00:00,train
205,164.18698120117188,166.0,2021-01-21 21:15:55.278000+00:00,train
206,164.42196655273438,165.0,2021-01-21 21:16:55.278000+00:00,train
207,164.64132690429688,163.0,2021-01-21 21:17:55.278000+00:00,train
208,164.8453369140625,162.0,2021-01-21 21:18:55.278000+00:00,train
209,165.03416442871094,162.0,2021-01-21 21:19:55.278000+00:00,train
210,165.20790100097656,162.0,2021-01-21 21:20:55.278000+00:00,train
211,165.39593505859375,162.0,2021-01-21 21:21:55.278000+00:00,train
212,165.5948944091797,162.0,2021-01-21 21:22:55.278000+00:00,train
213,165.7826385498047,164.0,2021-01-21 21:23:55.278000+00:00,train
214,165.9593048095703,164.0,2021-01-21 21:24:55.278000+00:00,train
215,166.1250457763672,164.0,2021-01-21 21:25:55.278000+00:00,train
216,166.23434448242188,164.0,2021-01-21 21:26:55.278000+00:00,train
217,166.3001708984375,164.0,2021-01-21 21:27:55.278000+00:00,train
218,166.33551025390625,164.0,2021-01-21 21:28:55.278000+00:00,train
219,166.36769104003906,164.0,2021-01-21 21:29:55.278000+00:00,train
220,166.39666748046875,164.0,2021-01-21 21:30:55.278000+00:00,train
221,166.42230224609375,164.0,2021-01-21 21:31:55.278000+00:00,train
222,166.44454956054688,164.0,2021-01-21 21:32:55.278000+00:00,train
223,166.5192108154297,164.0,2021-01-21 21:33:55.278000+00:00,train
224,166.58851623535156,165.0,2021-01-21 21:34:55.278000+00:00,train
225,166.6524200439453,166.0,2021-01-21 21:35:55.278000+00:00,train
226,166.73634338378906,166.0,2021-01-21 21:36:55.278000+00:00,train
227,166.8173370361328,166.0,2021-01-21 21:37:55.278000+00:00,train
228,166.89537048339844,166.0,2021-01-21 21:38:55.278000+00:00,train
229,166.97048950195312,166.0,2021-01-21 21:39:55.278000+00:00,train
230,167.0426483154297,166.0,2021-01-21 21:40:55.278000+00:00,train
231,167.11184692382812,166.0,2021-01-21 21:41:55.278000+00:00,train
232,167.17807006835938,166.0,2021-01-21 21:42:55.278000+00:00,train
233,167.24130249023438,166.0,2021-01-21 21:43:55.278000+00:00,train
234,167.34068298339844,166.0,2021-01-21 21:44:55.278000+00:00,train
235,167.47581481933594,167.0,2021-01-21 21:45:55.278000+00:00,train
236,167.60752868652344,168.0,2021-01-21 21:46:55.278000+00:00,train
237,167.7264862060547,168.0,2021-01-21 21:47:55.278000+00:00,train
238,167.8032989501953,168.0,2021-01-21 21:48:55.278000+00:00,train
239,167.8715057373047,168.0,2021-01-21 21:49:55.278000+00:00,train
240,167.93080139160156,168.0,2021-01-21 21:50:55.278000+00:00,train
241,167.9808807373047,168.0,2021-01-21 21:51:55.278000+00:00,train
242,168.02137756347656,168.0,2021-01-21 21:52:55.278000+00:00,train
243,168.0518035888672,168.0,2021-01-21 21:53:55.278000+00:00,train
244,168.07164001464844,168.0,2021-01-21 21:54:55.278000+00:00,train
245,168.11976623535156,168.0,2021-01-21 21:55:55.278000+00:00,train
246,168.20132446289062,169.0,2021-01-21 21:56:55.278000+00:00,train
247,168.26861572265625,170.0,2021-01-21 21:57:55.278000+00:00,train
248,168.3208770751953,170.0,2021-01-21 21:58:55.278000+00:00,train
249,168.35726928710938,170.0,2021-01-21 21:59:55.278000+00:00,train
250,168.4190216064453,170.0,2021-01-21 22:00:55.278000+00:00,train
251,168.5033721923828,170.0,2021-01-21 22:01:55.278000+00:00,train
252,168.5773468017578,170.0,2021-01-21 22:02:55.278000+00:00,train
253,168.6405792236328,170.0,2021-01-21 22:03:55.278000+00:00,train
254,168.692626953125,170.0,2021-01-21 22:04:55.278000+00:00,train
255,168.7329559326172,170.0,2021-01-21 22:05:55.278000+00:00,train
256,168.80975341796875,170.0,2021-01-21 22:06:55.278000+00:00,train
257,168.92909240722656,171.0,2021-01-21 22:07:55.278000+00:00,train
258,169.0326385498047,172.0,2021-01-21 22:08:55.278000+00:00,train
259,169.19334411621094,172.0,2021-01-21 22:09:55.278000+00:00,train
260,169.34983825683594,170.0,2021-01-21 22:10:55.278000+00:00,train
261,169.4889678955078,168.0,2021-01-21 22:11:55.278000+00:00,train
262,169.61752319335938,166.0,2021-01-21 22:12:55.278000+00:00,train
263,169.7354736328125,166.0,2021-01-21 22:13:55.278000+00:00,train
264,169.84274291992188,166.0,2021-01-21 22:14:55.278000+00:00,train
265,169.93917846679688,166.0,2021-01-21 22:15:55.278000+00:00,train
266,170.02447509765625,166.0,2021-01-21 22:16:55.278000+00:00,train
267,170.18588256835938,167.0,2021-01-21 22:17:55.278000+00:00,train
268,170.42164611816406,168.0,2021-01-21 22:18:55.278000+00:00,train
269,170.64454650878906,168.0,2021-01-21 22:19:55.278000+00:00,train
270,170.74847412109375,168.0,2021-01-21 22:20:55.278000+00:00,train
271,170.7723388671875,168.0,2021-01-21 22:21:55.278000+00:00,train
272,170.752197265625,168.0,2021-01-21 22:22:55.278000+00:00,train
273,170.72915649414062,168.0,2021-01-21 22:23:55.278000+00:00,train
274,170.7030792236328,168.0,2021-01-21 22:24:55.278000+00:00,train
275,170.67379760742188,168.0,2021-01-21 22:25:55.278000+00:00,train
276,170.67662048339844,168.0,2021-01-21 22:26:55.278000+00:00,train
277,170.69290161132812,168.0,2021-01-21 22:27:55.278000+00:00,train
278,170.73077392578125,168.0,2021-01-21 22:28:55.278000+00:00,train
279,170.7667694091797,170.0,2021-01-21 22:29:55.278000+00:00,train
280,170.79367065429688,170.0,2021-01-21 22:30:55.278000+00:00,train
281,170.82545471191406,170.0,2021-01-21 22:31:55.278000+00:00,train
282,170.8552703857422,170.0,2021-01-21 22:32:55.278000+00:00,train
283,170.88308715820312,170.0,2021-01-21 22:33:55.278000+00:00,train
284,170.91688537597656,170.0,2021-01-21 22:34:55.278000+00:00,train
285,170.94839477539062,170.0,2021-01-21 22:35:55.278000+00:00,train
286,170.9794464111328,170.0,2021-01-21 22:36:55.278000+00:00,train
287,171.00997924804688,170.0,2021-01-21 22:37:55.278000+00:00,train
288,171.04005432128906,170.0,2021-01-21 22:38:55.278000+00:00,train
289,171.13487243652344,170.0,2021-01-21 22:39:55.278000+00:00,train
290,171.22743225097656,171.0,2021-01-21 22:40:55.278000+00:00,train
291,171.31776428222656,172.0,2021-01-21 22:41:55.278000+00:00,train
292,171.4059600830078,172.0,2021-01-21 22:42:55.278000+00:00,train
293,171.49208068847656,172.0,2021-01-21 22:43:55.278000+00:00,train
294,171.5760955810547,172.0,2021-01-21 22:44:55.278000+00:00,train
295,171.65811157226562,172.0,2021-01-21 22:45:55.278000+00:00,train
296,171.73593139648438,172.0,2021-01-21 22:46:55.278000+00:00,train
297,171.7785186767578,172.0,2021-01-21 22:47:55.278000+00:00,train
298,171.7837677001953,172.0,2021-01-21 22:48:55.278000+00:00,train
299,171.77944946289062,172.0,2021-01-21 22:49:55.278000+00:00,train
300,171.80482482910156,172.0,2021-01-21 22:50:55.278000+00:00,train
301,171.86734008789062,172.0,2021-01-21 22:51:55.278000+00:00,train
302,171.91665649414062,174.0,2021-01-21 22:52:55.278000+00:00,train
303,172.02493286132812,174.0,2021-01-21 22:53:55.278000+00:00,train
304,172.12538146972656,174.0,2021-01-21 22:54:55.278000+00:00,train
305,172.21795654296875,174.0,2021-01-21 22:55:55.278000+00:00,train
306,172.30264282226562,174.0,2021-01-21 22:56:55.278000+00:00,train
307,172.37936401367188,174.0,2021-01-21 22:57:55.278000+00:00,train
308,172.44790649414062,174.0,2021-01-21 22:58:55.278000+00:00,train
309,172.50814819335938,174.0,2021-01-21 22:59:55.278000+00:00,train
310,172.5597686767578,174.0,2021-01-21 23:00:55.278000+00:00,train
311,172.6024627685547,174.0,2021-01-21 23:01:55.278000+00:00,train
312,172.74676513671875,174.0,2021-01-21 23:02:55.278000+00:00,train
313,172.87811279296875,172.0,2021-01-21 23:03:55.278000+00:00,train
314,173.03121948242188,170.0,2021-01-21 23:04:55.278000+00:00,train
315,173.19839477539062,170.0,2021-01-21 23:05:55.278000+00:00,train
316,173.35655212402344,170.0,2021-01-21 23:06:55.278000+00:00,train
317,173.5059814453125,170.0,2021-01-21 23:07:55.278000+00:00,train
318,173.6470184326172,170.0,2021-01-21 23:08:55.278000+00:00,train
319,173.77993774414062,170.0,2021-01-21 23:09:55.278000+00:00,train
320,173.90615844726562,170.0,2021-01-21 23:10:55.278000+00:00,train
321,174.023193359375,170.0,2021-01-21 23:11:55.278000+00:00,train
322,174.13262939453125,170.0,2021-01-21 23:12:55.278000+00:00,train
323,174.15264892578125,170.0,2021-01-21 23:13:55.278000+00:00,train
324,174.1243133544922,170.0,2021-01-21 23:14:55.278000+00:00,train
325,174.11520385742188,170.0,2021-01-21 23:15:55.278000+00:00,train
326,174.11758422851562,171.0,2021-01-21 23:16:55.278000+00:00,train
327,174.11924743652344,172.0,2021-01-21 23:17:55.278000+00:00,train
328,174.1201629638672,172.0,2021-01-21 23:18:55.278000+00:00,train
329,174.12034606933594,172.0,2021-01-21 23:19:55.278000+00:00,train
330,174.11976623535156,172.0,2021-01-21 23:20:55.278000+00:00,train
331,174.1184539794922,172.0,2021-01-21 23:21:55.278000+00:00,train
332,174.11634826660156,172.0,2021-01-21 23:22:55.278000+00:00,train
333,174.1134796142578,172.0,2021-01-21 23:23:55.278000+00:00,train
334,174.1098175048828,172.0,2021-01-21 23:24:55.278000+00:00,train
335,174.10533142089844,172.0,2021-01-21 23:25:55.278000+00:00,train
336,174.12042236328125,172.0,2021-01-21 23:26:55.278000+00:00,train
337,174.15484619140625,173.0,2021-01-21 23:27:55.278000+00:00,train
338,174.1881866455078,174.0,2021-01-21 23:28:55.278000+00:00,train
339,174.2202606201172,174.0,2021-01-21 23:29:55.278000+00:00,train
340,174.25938415527344,174.0,2021-01-21 23:30:55.278000+00:00,train
341,174.29115295410156,174.0,2021-01-21 23:31:55.278000+00:00,train
342,174.32199096679688,174.0,2021-01-21 23:32:55.278000+00:00,train
343,174.3519744873047,174.0,2021-01-21 23:33:55.278000+00:00,train
344,174.381103515625,174.0,2021-01-21 23:34:55.278000+00:00,train
345,174.40931701660156,174.0,2021-01-21 23:35:55.278000+00:00,train
346,174.43673706054688,174.0,2021-01-21 23:36:55.278000+00:00,train
347,174.48214721679688,174.0,2021-01-21 23:37:55.278000+00:00,train
348,174.54449462890625,174.0,2021-01-21 23:38:55.278000+00:00,train
349,174.60476684570312,174.0,2021-01-21 23:39:55.278000+00:00,train
350,174.6956787109375,174.0,2021-01-21 23:40:55.278000+00:00,train
351,174.77548217773438,174.0,2021-01-21 23:41:55.278000+00:00,train
352,174.8021697998047,176.0,2021-01-21 23:42:55.278000+00:00,train
353,174.8197784423828,176.0,2021-01-21 23:43:55.278000+00:00,train
354,174.8278350830078,176.0,2021-01-21 23:44:55.278000+00:00,train
355,174.8257293701172,176.0,2021-01-21 23:45:55.278000+00:00,train
356,174.81297302246094,176.0,2021-01-21 23:46:55.278000+00:00,train
357,174.8282012939453,176.0,2021-01-21 23:47:55.278000+00:00,train
358,174.86520385742188,176.0,2021-01-21 23:48:55.278000+00:00,train
359,174.89688110351562,176.0,2021-01-21 23:49:55.278000+00:00,train
360,174.92306518554688,176.0,2021-01-21 23:50:55.278000+00:00,train
361,174.94369506835938,176.0,2021-01-21 23:51:55.278000+00:00,train
362,175.0545654296875,176.0,2021-01-21 23:52:55.278000+00:00,train
363,175.15597534179688,174.0,2021-01-21 23:53:55.278000+00:00,train
364,175.2481231689453,172.0,2021-01-21 23:54:55.278000+00:00,train
365,175.3310546875,172.0,2021-01-21 23:55:55.278000+00:00,train
366,175.4048614501953,172.0,2021-01-21 23:56:55.278000+00:00,train
367,175.46958923339844,172.0,2021-01-21 23:57:55.278000+00:00,train
368,175.52532958984375,172.0,2021-01-21 23:58:55.278000+00:00,train
369,175.61907958984375,172.0,2021-01-21 23:59:55.278000+00:00,train
370,175.7066192626953,172.0,2021-01-22 00:00:55.278000+00:00,train
371,175.78799438476562,172.0,2021-01-22 00:01:55.278000+00:00,train
372,175.86341857910156,172.0,2021-01-22 00:02:55.278000+00:00,train
373,175.86276245117188,172.0,2021-01-22 00:03:55.278000+00:00,train
374,175.83180236816406,172.0,2021-01-22 00:04:55.278000+00:00,train
375,175.79959106445312,172.0,2021-01-22 00:05:55.278000+00:00,train
376,175.76625061035156,172.0,2021-01-22 00:06:55.278000+00:00,train
377,175.73175048828125,172.0,2021-01-22 00:07:55.278000+00:00,train
378,175.69593811035156,172.0,2021-01-22 00:08:55.278000+00:00,train
379,175.65908813476562,173.0,2021-01-22 00:09:55.278000+00:00,train
380,175.63229370117188,174.0,2021-01-22 00:10:55.278000+00:00,train
381,175.60511779785156,174.0,2021-01-22 00:11:55.278000+00:00,train
382,175.57713317871094,174.0,2021-01-22 00:12:55.278000+00:00,train
383,175.54823303222656,174.0,2021-01-22 00:13:55.278000+00:00,train
384,175.51837158203125,174.0,2021-01-22 00:14:55.278000+00:00,train
385,175.48764038085938,174.0,2021-01-22 00:15:55.278000+00:00,train
386,175.4559326171875,174.0,2021-01-22 00:16:55.278000+00:00,train
387,175.42318725585938,174.0,2021-01-22 00:17:55.278000+00:00,train
388,175.38941955566406,174.0,2021-01-22 00:18:55.278000+00:00,train
389,175.3616943359375,174.0,2021-01-22 00:19:55.278000+00:00,train
390,175.34751892089844,174.0,2021-01-22 00:20:55.278000+00:00,train
391,175.33016967773438,174.0,2021-01-22 00:21:55.278000+00:00,train
392,175.28164672851562,174.0,2021-01-22 00:22:55.278000+00:00,train
393,175.2312774658203,175.0,2021-01-22 00:23:55.278000+00:00,train
394,175.1793212890625,176.0,2021-01-22 00:24:55.278000+00:00,train
395,175.12603759765625,176.0,2021-01-22 00:25:55.278000+00:00,train
396,175.07156372070312,176.0,2021-01-22 00:26:55.278000+00:00,train
397,175.01649475097656,176.0,2021-01-22 00:27:55.278000+00:00,train
398,174.96192932128906,176.0,2021-01-22 00:28:55.278000+00:00,train
399,174.9097137451172,176.0,2021-01-22 00:29:55.278000+00:00,train
400,174.7925567626953,176.0,2021-01-22 00:30:55.278000+00:00,train
401,174.73216247558594,176.0,2021-01-22 00:31:55.278000+00:00,train
402,174.67417907714844,176.0,2021-01-22 00:32:55.278000+00:00,train
403,174.6693115234375,176.0,2021-01-22 00:33:55.278000+00:00,train
404,174.69520568847656,176.0,2021-01-22 00:34:55.278000+00:00,train
405,174.71847534179688,176.0,2021-01-22 00:35:55.278000+00:00,train
406,174.7392120361328,176.0,2021-01-22 00:36:55.278000+00:00,train
407,174.75772094726562,176.0,2021-01-22 00:37:55.278000+00:00,train
408,174.7743682861328,178.0,2021-01-22 00:38:55.278000+00:00,train
409,174.78921508789062,178.0,2021-01-22 00:39:55.278000+00:00,train
410,174.80252075195312,178.0,2021-01-22 00:40:55.278000+00:00,train
411,174.8145751953125,172.0,2021-01-22 00:41:55.278000+00:00,train
412,174.8253631591797,172.0,2021-01-22 00:42:55.278000+00:00,train
413,174.8350067138672,172.0,2021-01-22 00:43:55.278000+00:00,train
414,174.84373474121094,172.0,2021-01-22 00:44:55.278000+00:00,train
415,174.8522491455078,172.0,2021-01-22 00:45:55.278000+00:00,train
416,174.86280822753906,172.0,2021-01-22 00:46:55.278000+00:00,train
417,174.8707733154297,172.0,2021-01-22 00:47:55.278000+00:00,train
418,174.93020629882812,172.0,2021-01-22 00:48:55.278000+00:00,train
419,174.98526000976562,172.0,2021-01-22 00:49:55.278000+00:00,train
420,175.0363311767578,172.0,2021-01-22 00:50:55.278000+00:00,train
421,174.98855590820312,174.0,2021-01-22 00:51:55.278000+00:00,train
422,174.9412841796875,174.0,2021-01-22 00:52:55.278000+00:00,train
423,174.89413452148438,174.0,2021-01-22 00:53:55.278000+00:00,train
424,174.8470458984375,174.0,2021-01-22 00:54:55.278000+00:00,train
425,174.79957580566406,174.0,2021-01-22 00:55:55.278000+00:00,train
426,174.75189208984375,174.0,2021-01-22 00:56:55.278000+00:00,train
427,174.69613647460938,174.0,2021-01-22 00:57:55.278000+00:00,train
428,174.63214111328125,174.0,2021-01-22 00:58:55.278000+00:00,train
429,174.56825256347656,174.0,2021-01-22 00:59:55.278000+00:00,train
430,174.5045166015625,174.0,2021-01-22 01:00:55.278000+00:00,train
431,174.4651336669922,174.0,2021-01-22 01:01:55.278000+00:00,train
432,174.42648315429688,174.0,2021-01-22 01:02:55.278000+00:00,train
433,174.38876342773438,174.0,2021-01-22 01:03:55.278000+00:00,train
434,174.3517608642578,174.0,2021-01-22 01:04:55.278000+00:00,train
435,174.3153839111328,176.0,2021-01-22 01:05:55.278000+00:00,train
436,174.2796173095703,176.0,2021-01-22 01:06:55.278000+00:00,train
437,174.2443084716797,176.0,2021-01-22 01:07:55.278000+00:00,train
438,174.2090301513672,176.0,2021-01-22 01:08:55.278000+00:00,train
439,174.1735076904297,176.0,2021-01-22 01:09:55.278000+00:00,train
440,174.13719177246094,176.0,2021-01-22 01:10:55.278000+00:00,train
441,174.09927368164062,176.0,2021-01-22 01:11:55.278000+00:00,train
442,174.04376220703125,176.0,2021-01-22 01:12:55.278000+00:00,train
443,173.9890899658203,176.0,2021-01-22 01:13:55.278000+00:00,train
444,173.93531799316406,176.0,2021-01-22 01:14:55.278000+00:00,train
445,173.9059600830078,176.0,2021-01-22 01:15:55.278000+00:00,train
446,173.87718200683594,176.0,2021-01-22 01:16:55.278000+00:00,train
447,173.8491668701172,176.0,2021-01-22 01:17:55.278000+00:00,train
448,173.8223876953125,176.0,2021-01-22 01:18:55.278000+00:00,train
449,173.7967071533203,176.0,2021-01-22 01:19:55.278000+00:00,train
450,173.7725830078125,176.0,2021-01-22 01:20:55.278000+00:00,train
451,173.7508544921875,176.0,2021-01-22 01:21:55.278000+00:00,train
452,173.73231506347656,177.0,2021-01-22 01:22:55.278000+00:00,train
453,173.7344207763672,178.0,2021-01-22 01:23:55.278000+00:00,train
454,173.76324462890625,178.0,2021-01-22 01:24:55.278000+00:00,train
455,173.79315185546875,172.0,2021-01-22 01:25:55.278000+00:00,train
456,173.82382202148438,172.0,2021-01-22 01:26:55.278000+00:00,train
457,173.85540771484375,172.0,2021-01-22 01:27:55.278000+00:00,train
458,173.88812255859375,172.0,2021-01-22 01:28:55.278000+00:00,train
459,173.9217529296875,172.0,2021-01-22 01:29:55.278000+00:00,train
460,173.95645141601562,172.0,2021-01-22 01:30:55.278000+00:00,train
461,173.9923553466797,172.0,2021-01-22 01:31:55.278000+00:00,train
462,174.03770446777344,172.0,2021-01-22 01:32:55.278000+00:00,train
463,174.09043884277344,172.0,2021-01-22 01:33:55.278000+00:00,train
464,174.1442108154297,172.0,2021-01-22 01:34:55.278000+00:00,train
465,174.12362670898438,172.0,2021-01-22 01:35:55.278000+00:00,train
466,174.10328674316406,172.0,2021-01-22 01:36:55.278000+00:00,train
467,174.0830078125,173.0,2021-01-22 01:37:55.278000+00:00,train
468,174.06285095214844,174.0,2021-01-22 01:38:55.278000+00:00,train
469,174.0251007080078,174.0,2021-01-22 01:39:55.278000+00:00,train
470,173.9730987548828,174.0,2021-01-22 01:40:55.278000+00:00,train
471,173.92138671875,174.0,2021-01-22 01:41:55.278000+00:00,train
472,173.8699951171875,174.0,2021-01-22 01:42:55.278000+00:00,train
473,173.81895446777344,174.0,2021-01-22 01:43:55.278000+00:00,train
474,173.76817321777344,174.0,2021-01-22 01:44:55.278000+00:00,train
475,173.7177734375,174.0,2021-01-22 01:45:55.278000+00:00,train
476,173.66758728027344,174.0,2021-01-22 01:46:55.278000+00:00,train
477,173.6370849609375,174.0,2021-01-22 01:47:55.278000+00:00,train
478,173.6228485107422,174.0,2021-01-22 01:48:55.278000+00:00,train
479,173.60858154296875,174.0,2021-01-22 01:49:55.278000+00:00,train
480,173.5941619873047,174.0,2021-01-22 01:50:55.278000+00:00,train
481,173.57955932617188,174.0,2021-01-22 01:51:55.278000+00:00,train
482,173.56442260742188,174.0,2021-01-22 01:52:55.278000+00:00,train
483,173.53884887695312,174.0,2021-01-22 01:53:55.278000+00:00,train
484,173.50643920898438,176.0,2021-01-22 01:54:55.278000+00:00,train
485,173.4744415283203,176.0,2021-01-22 01:55:55.278000+00:00,train
486,173.44293212890625,176.0,2021-01-22 01:56:55.278000+00:00,train
487,173.411865234375,176.0,2021-01-22 01:57:55.278000+00:00,train
488,173.38124084472656,176.0,2021-01-22 01:58:55.278000+00:00,train
489,173.35107421875,176.0,2021-01-22 01:59:55.278000+00:00,train
490,173.32138061523438,176.0,2021-01-22 02:00:55.278000+00:00,train
491,173.2921142578125,176.0,2021-01-22 02:01:55.278000+00:00,train
492,173.26332092285156,176.0,2021-01-22 02:02:55.278000+00:00,train
493,173.2350311279297,176.0,2021-01-22 02:03:55.278000+00:00,train
494,173.2260284423828,176.0,2021-01-22 02:04:55.278000+00:00,train
495,173.21722412109375,174.0,2021-01-22 02:05:55.278000+00:00,train
496,173.2085723876953,172.0,2021-01-22 02:06:55.278000+00:00,train
497,173.19989013671875,172.0,2021-01-22 02:07:55.278000+00:00,train
498,173.19012451171875,172.0,2021-01-22 02:08:55.278000+00:00,train
499,173.18211364746094,172.0,2021-01-22 02:09:55.278000+00:00,train
500,173.1769256591797,172.0,2021-01-22 02:10:55.278000+00:00,train
501,173.22242736816406,172.0,2021-01-22 02:11:55.278000+00:00,train
502,173.26898193359375,172.0,2021-01-22 02:12:55.278000+00:00,train
503,173.31663513183594,172.0,2021-01-22 02:13:55.278000+00:00,train
504,173.36538696289062,172.0,2021-01-22 02:14:55.278000+00:00,train
505,173.39593505859375,172.0,2021-01-22 02:15:55.278000+00:00,train
506,173.38711547851562,172.0,2021-01-22 02:16:55.278000+00:00,train
507,173.3783721923828,172.0,2021-01-22 02:17:55.278000+00:00,train
508,173.3697509765625,172.0,2021-01-22 02:18:55.278000+00:00,train
509,173.3611602783203,172.0,2021-01-22 02:19:55.278000+00:00,train
510,173.35247802734375,172.0,2021-01-22 02:20:55.278000+00:00,train
511,173.30636596679688,172.0,2021-01-22 02:21:55.278000+00:00,train
512,173.26065063476562,172.0,2021-01-22 02:22:55.278000+00:00,train
513,173.21530151367188,172.0,2021-01-22 02:23:55.278000+00:00,train
514,173.17042541503906,172.0,2021-01-22 02:24:55.278000+00:00,train
515,173.12591552734375,172.0,2021-01-22 02:25:55.278000+00:00,val
516,173.08180236816406,172.0,2021-01-22 02:26:55.278000+00:00,val
517,173.03807067871094,174.0,2021-01-22 02:27:55.278000+00:00,val
518,172.99464416503906,174.0,2021-01-22 02:28:55.278000+00:00,val
519,172.9515838623047,174.0,2021-01-22 02:29:55.278000+00:00,val
520,172.90882873535156,174.0,2021-01-22 02:30:55.278000+00:00,val
521,172.8663330078125,174.0,2021-01-22 02:31:55.278000+00:00,val
522,172.82406616210938,174.0,2021-01-22 02:32:55.278000+00:00,val
523,172.78195190429688,174.0,2021-01-22 02:33:55.278000+00:00,val
524,172.73960876464844,174.0,2021-01-22 02:34:55.278000+00:00,val
525,172.68406677246094,174.0,2021-01-22 02:35:55.278000+00:00,val
526,172.62954711914062,174.0,2021-01-22 02:36:55.278000+00:00,val
527,172.6101531982422,174.0,2021-01-22 02:37:55.278000+00:00,val
528,172.59117126464844,174.0,2021-01-22 02:38:55.278000+00:00,val
529,172.5725860595703,174.0,2021-01-22 02:39:55.278000+00:00,val
530,172.55442810058594,174.0,2021-01-22 02:40:55.278000+00:00,val
531,172.53671264648438,174.0,2021-01-22 02:41:55.278000+00:00,val
532,172.51943969726562,174.0,2021-01-22 02:42:55.278000+00:00,val
533,172.5026092529297,174.0,2021-01-22 02:43:55.278000+00:00,val
534,172.48631286621094,170.0,2021-01-22 02:44:55.278000+00:00,val
535,172.47048950195312,170.0,2021-01-22 02:45:55.278000+00:00,val
536,172.45516967773438,170.0,2021-01-22 02:46:55.278000+00:00,val
537,172.4404296875,170.0,2021-01-22 02:47:55.278000+00:00,val
538,172.4261932373047,170.0,2021-01-22 02:48:55.278000+00:00,val
539,172.41259765625,170.0,2021-01-22 02:49:55.278000+00:00,val
540,172.39964294433594,170.0,2021-01-22 02:50:55.278000+00:00,val
541,172.38729858398438,170.0,2021-01-22 02:51:55.278000+00:00,val
542,172.3808135986328,170.0,2021-01-22 02:52:55.278000+00:00,val
543,172.38914489746094,170.0,2021-01-22 02:53:55.278000+00:00,val
544,172.31460571289062,170.0,2021-01-22 02:54:55.278000+00:00,val
545,172.2541046142578,170.0,2021-01-22 02:55:55.278000+00:00,val
546,172.19468688964844,170.0,2021-01-22 02:56:55.278000+00:00,val
547,172.13629150390625,170.0,2021-01-22 02:57:55.278000+00:00,val
548,172.07882690429688,170.0,2021-01-22 02:58:55.278000+00:00,val
549,172.02223205566406,170.0,2021-01-22 02:59:55.278000+00:00,val
550,171.96646118164062,172.0,2021-01-22 03:00:55.278000+00:00,val
551,171.9114227294922,172.0,2021-01-22 03:01:55.278000+00:00,val
552,171.85711669921875,172.0,2021-01-22 03:02:55.278000+00:00,val
553,171.803466796875,172.0,2021-01-22 03:03:55.278000+00:00,val
554,171.75042724609375,172.0,2021-01-22 03:04:55.278000+00:00,val
555,171.6979522705078,172.0,2021-01-22 03:05:55.278000+00:00,val
556,171.64585876464844,172.0,2021-01-22 03:06:55.278000+00:00,val
557,171.57931518554688,172.0,2021-01-22 03:07:55.278000+00:00,val
558,171.50465393066406,172.0,2021-01-22 03:08:55.278000+00:00,val
559,171.4313201904297,172.0,2021-01-22 03:09:55.278000+00:00,val
560,171.4042510986328,172.0,2021-01-22 03:10:55.278000+00:00,val
561,171.37745666503906,172.0,2021-01-22 03:11:55.278000+00:00,val
562,171.35093688964844,172.0,2021-01-22 03:12:55.278000+00:00,val
563,171.32472229003906,172.0,2021-01-22 03:13:55.278000+00:00,val
564,171.29879760742188,172.0,2021-01-22 03:14:55.278000+00:00,val
565,171.27316284179688,172.0,2021-01-22 03:15:55.278000+00:00,val
566,171.24783325195312,172.0,2021-01-22 03:16:55.278000+00:00,val
567,171.22280883789062,174.0,2021-01-22 03:17:55.278000+00:00,val
568,171.19805908203125,174.0,2021-01-22 03:18:55.278000+00:00,val
569,171.17359924316406,174.0,2021-01-22 03:19:55.278000+00:00,val
570,171.14942932128906,168.0,2021-01-22 03:20:55.278000+00:00,val
571,171.12548828125,168.0,2021-01-22 03:21:55.278000+00:00,val
572,171.101806640625,168.0,2021-01-22 03:22:55.278000+00:00,val
573,171.07818603515625,168.0,2021-01-22 03:23:55.278000+00:00,val
574,171.05670166015625,168.0,2021-01-22 03:24:55.278000+00:00,val
575,171.03707885742188,168.0,2021-01-22 03:25:55.278000+00:00,val
576,171.01947021484375,168.0,2021-01-22 03:26:55.278000+00:00,val
577,171.02200317382812,168.0,2021-01-22 03:27:55.278000+00:00,val
578,171.0255584716797,168.0,2021-01-22 03:28:55.278000+00:00,val
579,171.03025817871094,168.0,2021-01-22 03:29:55.278000+00:00,val
580,170.91090393066406,168.0,2021-01-22 03:30:55.278000+00:00,val
581,170.79660034179688,168.0,2021-01-22 03:31:55.278000+00:00,val
582,170.68727111816406,168.0,2021-01-22 03:32:55.278000+00:00,val
583,170.5829315185547,168.0,2021-01-22 03:33:55.278000+00:00,val
584,170.48379516601562,168.0,2021-01-22 03:34:55.278000+00:00,val
585,170.37625122070312,169.0,2021-01-22 03:35:55.278000+00:00,val
586,170.28158569335938,170.0,2021-01-22 03:36:55.278000+00:00,val
587,170.18922424316406,170.0,2021-01-22 03:37:55.278000+00:00,val
588,170.09896850585938,170.0,2021-01-22 03:38:55.278000+00:00,val
589,170.01071166992188,170.0,2021-01-22 03:39:55.278000+00:00,val
590,169.92430114746094,170.0,2021-01-22 03:40:55.278000+00:00,val
591,169.83963012695312,170.0,2021-01-22 03:41:55.278000+00:00,val
592,169.75660705566406,170.0,2021-01-22 03:42:55.278000+00:00,val
593,169.67514038085938,170.0,2021-01-22 03:43:55.278000+00:00,val
594,169.59519958496094,170.0,2021-01-22 03:44:55.278000+00:00,val
595,169.54327392578125,170.0,2021-01-22 03:45:55.278000+00:00,val
596,169.5135498046875,170.0,2021-01-22 03:46:55.278000+00:00,val
597,169.48406982421875,170.0,2021-01-22 03:47:55.278000+00:00,val
598,169.4548797607422,170.0,2021-01-22 03:48:55.278000+00:00,val
599,169.42593383789062,170.0,2021-01-22 03:49:55.278000+00:00,val
600,169.39727783203125,170.0,2021-01-22 03:50:55.278000+00:00,val
601,169.36888122558594,170.0,2021-01-22 03:51:55.278000+00:00,val
602,169.3407440185547,170.0,2021-01-22 03:52:55.278000+00:00,val
603,169.3128662109375,166.0,2021-01-22 03:53:55.278000+00:00,val
604,169.28517150878906,166.0,2021-01-22 03:54:55.278000+00:00,val
605,169.25772094726562,166.0,2021-01-22 03:55:55.278000+00:00,val
606,169.2302703857422,166.0,2021-01-22 03:56:55.278000+00:00,val
607,169.1986083984375,166.0,2021-01-22 03:57:55.278000+00:00,val
608,169.16824340820312,166.0,2021-01-22 03:58:55.278000+00:00,val
609,169.13919067382812,166.0,2021-01-22 03:59:55.278000+00:00,val
610,169.1115264892578,166.0,2021-01-22 04:00:55.278000+00:00,val
611,169.08529663085938,166.0,2021-01-22 04:01:55.278000+00:00,val
612,169.06053161621094,166.0,2021-01-22 04:02:55.278000+00:00,val
613,168.9289093017578,166.0,2021-01-22 04:03:55.278000+00:00,val
614,168.8019561767578,166.0,2021-01-22 04:04:55.278000+00:00,val
615,168.67945861816406,166.0,2021-01-22 04:05:55.278000+00:00,val
616,168.56126403808594,166.0,2021-01-22 04:06:55.278000+00:00,val
617,168.44728088378906,166.0,2021-01-22 04:07:55.278000+00:00,val
618,168.33738708496094,167.0,2021-01-22 04:08:55.278000+00:00,val
619,168.23162841796875,168.0,2021-01-22 04:09:55.278000+00:00,val
620,168.12997436523438,168.0,2021-01-22 04:10:55.278000+00:00,val
621,168.03253173828125,168.0,2021-01-22 04:11:55.278000+00:00,val
622,167.9394073486328,168.0,2021-01-22 04:12:55.278000+00:00,val
623,167.85104370117188,168.0,2021-01-22 04:13:55.278000+00:00,val
624,167.76609802246094,168.0,2021-01-22 04:14:55.278000+00:00,val
625,167.68276977539062,168.0,2021-01-22 04:15:55.278000+00:00,val
626,167.60098266601562,168.0,2021-01-22 04:16:55.278000+00:00,val
627,167.52064514160156,168.0,2021-01-22 04:17:55.278000+00:00,val
628,167.4684295654297,168.0,2021-01-22 04:18:55.278000+00:00,val
629,167.4385986328125,168.0,2021-01-22 04:19:55.278000+00:00,val
630,167.40902709960938,168.0,2021-01-22 04:20:55.278000+00:00,val
631,167.37969970703125,168.0,2021-01-22 04:21:55.278000+00:00,val
632,167.35064697265625,168.0,2021-01-22 04:22:55.278000+00:00,val
633,167.3218536376953,164.0,2021-01-22 04:23:55.278000+00:00,val
634,167.29331970214844,164.0,2021-01-22 04:24:55.278000+00:00,val
635,167.26504516601562,164.0,2021-01-22 04:25:55.278000+00:00,val
636,167.2369842529297,164.0,2021-01-22 04:26:55.278000+00:00,val
637,167.2091827392578,164.0,2021-01-22 04:27:55.278000+00:00,val
638,167.18154907226562,164.0,2021-01-22 04:28:55.278000+00:00,val
639,167.1539764404297,164.0,2021-01-22 04:29:55.278000+00:00,val
640,167.12057495117188,164.0,2021-01-22 04:30:55.278000+00:00,val
641,167.0883331298828,164.0,2021-01-22 04:31:55.278000+00:00,val
642,167.0572967529297,164.0,2021-01-22 04:32:55.278000+00:00,val
643,166.91949462890625,164.0,2021-01-22 04:33:55.278000+00:00,val
644,166.7861785888672,164.0,2021-01-22 04:34:55.278000+00:00,val
645,166.6571502685547,164.0,2021-01-22 04:35:55.278000+00:00,val
646,166.5321807861328,164.0,2021-01-22 04:36:55.278000+00:00,val
647,166.41119384765625,164.0,2021-01-22 04:37:55.278000+00:00,val
648,166.29400634765625,164.0,2021-01-22 04:38:55.278000+00:00,val
649,166.1805419921875,164.0,2021-01-22 04:39:55.278000+00:00,val
650,166.07077026367188,164.0,2021-01-22 04:40:55.278000+00:00,val
651,165.964599609375,164.0,2021-01-22 04:41:55.278000+00:00,val
652,165.86207580566406,164.0,2021-01-22 04:42:55.278000+00:00,val
653,165.76315307617188,164.0,2021-01-22 04:43:55.278000+00:00,val
654,165.6678924560547,166.0,2021-01-22 04:44:55.278000+00:00,val
655,165.5763397216797,166.0,2021-01-22 04:45:55.278000+00:00,val
656,165.4885711669922,166.0,2021-01-22 04:46:55.278000+00:00,val
657,165.43211364746094,166.0,2021-01-22 04:47:55.278000+00:00,val
658,165.3848114013672,166.0,2021-01-22 04:48:55.278000+00:00,val
659,165.34820556640625,163.0,2021-01-22 04:49:55.278000+00:00,val
660,165.27285766601562,160.0,2021-01-22 04:50:55.278000+00:00,val
661,165.1988983154297,160.0,2021-01-22 04:51:55.278000+00:00,val
662,165.1262664794922,160.0,2021-01-22 04:52:55.278000+00:00,val
663,165.05491638183594,160.0,2021-01-22 04:53:55.278000+00:00,val
664,165.0297393798828,160.0,2021-01-22 04:54:55.278000+00:00,val
665,165.00479125976562,160.0,2021-01-22 04:55:55.278000+00:00,val
666,164.98011779785156,160.0,2021-01-22 04:56:55.278000+00:00,val
667,164.95570373535156,160.0,2021-01-22 04:57:55.278000+00:00,val
668,164.9315643310547,160.0,2021-01-22 04:58:55.278000+00:00,val
669,164.8349151611328,161.0,2021-01-22 04:59:55.278000+00:00,val
670,164.6273193359375,162.0,2021-01-22 05:00:55.278000+00:00,val
671,164.42868041992188,162.0,2021-01-22 05:01:55.278000+00:00,val
672,164.2378387451172,162.0,2021-01-22 05:02:55.278000+00:00,val
673,164.05393981933594,162.0,2021-01-22 05:03:55.278000+00:00,val
674,163.8762664794922,162.0,2021-01-22 05:04:55.278000+00:00,val
675,163.70118713378906,162.0,2021-01-22 05:05:55.278000+00:00,val
676,163.5330352783203,162.0,2021-01-22 05:06:55.278000+00:00,val
677,163.371337890625,162.0,2021-01-22 05:07:55.278000+00:00,val
678,163.2161407470703,162.0,2021-01-22 05:08:55.278000+00:00,val
679,163.09893798828125,162.0,2021-01-22 05:09:55.278000+00:00,val
680,163.01416015625,162.0,2021-01-22 05:10:55.278000+00:00,val
681,162.93356323242188,162.0,2021-01-22 05:11:55.278000+00:00,val
682,162.8571319580078,162.0,2021-01-22 05:12:55.278000+00:00,val
683,162.78472900390625,162.0,2021-01-22 05:13:55.278000+00:00,val
684,162.71595764160156,158.0,2021-01-22 05:14:55.278000+00:00,val
685,162.6502227783203,158.0,2021-01-22 05:15:55.278000+00:00,val
686,162.58663940429688,158.0,2021-01-22 05:16:55.278000+00:00,test
687,162.52484130859375,158.0,2021-01-22 05:17:55.278000+00:00,test
688,162.46498107910156,158.0,2021-01-22 05:18:55.278000+00:00,test
689,162.407470703125,158.0,2021-01-22 05:19:55.278000+00:00,test
690,162.35281372070312,158.0,2021-01-22 05:20:55.278000+00:00,test
691,162.30152893066406,158.0,2021-01-22 05:21:55.278000+00:00,test
692,162.25440979003906,158.0,2021-01-22 05:22:55.278000+00:00,test
693,162.19798278808594,158.0,2021-01-22 05:23:55.278000+00:00,test
694,162.02040100097656,158.0,2021-01-22 05:24:55.278000+00:00,test
695,161.84832763671875,158.0,2021-01-22 05:25:55.278000+00:00,test
696,161.6811981201172,158.0,2021-01-22 05:26:55.278000+00:00,test
697,161.5186767578125,158.0,2021-01-22 05:27:55.278000+00:00,test
698,161.3604278564453,158.0,2021-01-22 05:28:55.278000+00:00,test
699,161.20619201660156,158.0,2021-01-22 05:29:55.278000+00:00,test
700,161.0557098388672,158.0,2021-01-22 05:30:55.278000+00:00,test
701,160.9088134765625,158.0,2021-01-22 05:31:55.278000+00:00,test
702,160.76535034179688,158.0,2021-01-22 05:32:55.278000+00:00,test
703,160.62513732910156,158.0,2021-01-22 05:33:55.278000+00:00,test
704,160.48809814453125,158.0,2021-01-22 05:34:55.278000+00:00,test
705,160.35414123535156,157.0,2021-01-22 05:35:55.278000+00:00,test
706,160.22308349609375,154.0,2021-01-22 05:36:55.278000+00:00,test
707,160.09486389160156,154.0,2021-01-22 05:37:55.278000+00:00,test
708,159.96852111816406,154.0,2021-01-22 05:38:55.278000+00:00,test
709,159.8481903076172,154.0,2021-01-22 05:39:55.278000+00:00,test
710,159.73204040527344,154.0,2021-01-22 05:40:55.278000+00:00,test
711,159.6201171875,154.0,2021-01-22 05:41:55.278000+00:00,test
712,159.5124969482422,154.0,2021-01-22 05:42:55.278000+00:00,test
713,159.40928649902344,154.0,2021-01-22 05:43:55.278000+00:00,test
714,159.31057739257812,154.0,2021-01-22 05:44:55.278000+00:00,test
715,159.18865966796875,154.0,2021-01-22 05:45:55.278000+00:00,test
716,158.9698028564453,154.0,2021-01-22 05:46:55.278000+00:00,test
717,158.75979614257812,154.0,2021-01-22 05:47:55.278000+00:00,test
718,158.55841064453125,154.0,2021-01-22 05:48:55.278000+00:00,test
719,158.36544799804688,154.0,2021-01-22 05:49:55.278000+00:00,test
720,158.18080139160156,154.0,2021-01-22 05:50:55.278000+00:00,test
721,158.00450134277344,156.0,2021-01-22 05:51:55.278000+00:00,test
722,157.83673095703125,156.0,2021-01-22 05:52:55.278000+00:00,test
723,157.6567840576172,156.0,2021-01-22 05:53:55.278000+00:00,test
724,157.48182678222656,150.0,2021-01-22 05:54:55.278000+00:00,test
725,157.3116455078125,150.0,2021-01-22 05:55:55.278000+00:00,test
726,157.14601135253906,150.0,2021-01-22 05:56:55.278000+00:00,test
727,156.98475646972656,150.0,2021-01-22 05:57:55.278000+00:00,test
728,156.82774353027344,150.0,2021-01-22 05:58:55.278000+00:00,test
729,156.67483520507812,150.0,2021-01-22 05:59:55.278000+00:00,test
730,156.52590942382812,150.0,2021-01-22 06:00:55.278000+00:00,test
731,156.43370056152344,150.0,2021-01-22 06:01:55.278000+00:00,test
732,156.3439178466797,150.0,2021-01-22 06:02:55.278000+00:00,test
733,156.25653076171875,150.0,2021-01-22 06:03:55.278000+00:00,test
734,155.984130859375,152.0,2021-01-22 06:04:55.278000+00:00,test
735,155.7216033935547,152.0,2021-01-22 06:05:55.278000+00:00,test
736,155.4681854248047,152.0,2021-01-22 06:06:55.278000+00:00,test
737,155.22328186035156,152.0,2021-01-22 06:07:55.278000+00:00,test
738,154.98634338378906,152.0,2021-01-22 06:08:55.278000+00:00,test
739,154.75692749023438,150.0,2021-01-22 06:09:55.278000+00:00,test
740,154.5347442626953,148.0,2021-01-22 06:10:55.278000+00:00,test
741,154.31947326660156,148.0,2021-01-22 06:11:55.278000+00:00,test
742,154.11087036132812,148.0,2021-01-22 06:12:55.278000+00:00,test
743,153.9087371826172,148.0,2021-01-22 06:13:55.278000+00:00,test
744,153.7838134765625,148.0,2021-01-22 06:14:55.278000+00:00,test
745,153.6659393310547,148.0,2021-01-22 06:15:55.278000+00:00,test
746,153.5554962158203,148.0,2021-01-22 06:16:55.278000+00:00,test
747,153.45289611816406,148.0,2021-01-22 06:17:55.278000+00:00,test
748,153.3588104248047,148.0,2021-01-22 06:18:55.278000+00:00,test
749,153.18922424316406,148.0,2021-01-22 06:19:55.278000+00:00,test
750,152.9564971923828,148.0,2021-01-22 06:20:55.278000+00:00,test
751,152.73057556152344,148.0,2021-01-22 06:21:55.278000+00:00,test
752,152.5110321044922,144.0,2021-01-22 06:22:55.278000+00:00,test
753,152.29750061035156,144.0,2021-01-22 06:23:55.278000+00:00,test
754,152.08963012695312,144.0,2021-01-22 06:24:55.278000+00:00,test
755,151.88720703125,144.0,2021-01-22 06:25:55.278000+00:00,test
756,151.68997192382812,144.0,2021-01-22 06:26:55.278000+00:00,test
757,151.49766540527344,144.0,2021-01-22 06:27:55.278000+00:00,test
758,151.3101348876953,144.0,2021-01-22 06:28:55.278000+00:00,test
759,151.1272735595703,144.0,2021-01-22 06:29:55.278000+00:00,test
760,150.95225524902344,144.0,2021-01-22 06:30:55.278000+00:00,test
761,150.78305053710938,144.0,2021-01-22 06:31:55.278000+00:00,test
762,150.489501953125,142.0,2021-01-22 06:32:55.278000+00:00,test
