,prediction,real,time,split
0,156.39596557617188,156.0,2021-01-21 18:22:55.278000+00:00,train
1,156.28294372558594,156.0,2021-01-21 18:23:55.278000+00:00,train
2,156.18284606933594,156.0,2021-01-21 18:24:55.278000+00:00,train
3,156.08497619628906,156.0,2021-01-21 18:25:55.278000+00:00,train
4,155.98924255371094,156.0,2021-01-21 18:26:55.278000+00:00,train
5,155.89559936523438,156.0,2021-01-21 18:27:55.278000+00:00,train
6,155.79481506347656,156.0,2021-01-21 18:28:55.278000+00:00,train
7,155.69358825683594,156.0,2021-01-21 18:29:55.278000+00:00,train
8,155.5950469970703,156.0,2021-01-21 18:30:55.278000+00:00,train
9,155.4990997314453,156.0,2021-01-21 18:31:55.278000+00:00,train
10,155.40565490722656,156.0,2021-01-21 18:32:55.278000+00:00,train
11,155.3146514892578,156.0,2021-01-21 18:33:55.278000+00:00,train
12,155.22601318359375,156.0,2021-01-21 18:34:55.278000+00:00,train
13,155.13967895507812,156.0,2021-01-21 18:35:55.278000+00:00,train
14,155.05557250976562,156.0,2021-01-21 18:36:55.278000+00:00,train
15,154.97364807128906,156.0,2021-01-21 18:37:55.278000+00:00,train
16,154.89385986328125,156.0,2021-01-21 18:38:55.278000+00:00,train
17,154.81613159179688,156.0,2021-01-21 18:39:55.278000+00:00,train
18,154.74044799804688,158.0,2021-01-21 18:40:55.278000+00:00,train
19,154.6668243408203,158.0,2021-01-21 18:41:55.278000+00:00,train
20,154.64920043945312,158.0,2021-01-21 18:42:55.278000+00:00,train
21,154.6432647705078,158.0,2021-01-21 18:43:55.278000+00:00,train
22,154.63885498046875,158.0,2021-01-21 18:44:55.278000+00:00,train
23,154.63609313964844,158.0,2021-01-21 18:45:55.278000+00:00,train
24,154.63510131835938,158.0,2021-01-21 18:46:55.278000+00:00,train
25,154.63595581054688,158.0,2021-01-21 18:47:55.278000+00:00,train
26,154.6387481689453,158.0,2021-01-21 18:48:55.278000+00:00,train
27,154.64352416992188,158.0,2021-01-21 18:49:55.278000+00:00,train
28,154.65028381347656,158.0,2021-01-21 18:50:55.278000+00:00,train
29,154.6591033935547,158.0,2021-01-21 18:51:55.278000+00:00,train
30,154.6700439453125,156.0,2021-01-21 18:52:55.278000+00:00,train
31,154.6825714111328,154.0,2021-01-21 18:53:55.278000+00:00,train
32,154.6521453857422,153.0,2021-01-21 18:54:55.278000+00:00,train
33,154.5579833984375,152.0,2021-01-21 18:55:55.278000+00:00,train
34,154.42874145507812,152.0,2021-01-21 18:56:55.278000+00:00,train
35,154.26123046875,153.0,2021-01-21 18:57:55.278000+00:00,train
36,154.15310668945312,154.0,2021-01-21 18:58:55.278000+00:00,train
37,154.09918212890625,154.0,2021-01-21 18:59:55.278000+00:00,train
38,154.09242248535156,154.0,2021-01-21 19:00:55.278000+00:00,train
39,154.09352111816406,154.0,2021-01-21 19:01:55.278000+00:00,train
40,154.04364013671875,154.0,2021-01-21 19:02:55.278000+00:00,train
41,153.9531707763672,154.0,2021-01-21 19:03:55.278000+00:00,train
42,153.8618927001953,154.0,2021-01-21 19:04:55.278000+00:00,train
43,153.77305603027344,154.0,2021-01-21 19:05:55.278000+00:00,train
44,153.68655395507812,154.0,2021-01-21 19:06:55.278000+00:00,train
45,153.60223388671875,154.0,2021-01-21 19:07:55.278000+00:00,train
46,153.5200653076172,154.0,2021-01-21 19:08:55.278000+00:00,train
47,153.44000244140625,154.0,2021-01-21 19:09:55.278000+00:00,train
48,153.36192321777344,154.0,2021-01-21 19:10:55.278000+00:00,train
49,153.28590393066406,154.0,2021-01-21 19:11:55.278000+00:00,train
50,153.21170043945312,154.0,2021-01-21 19:12:55.278000+00:00,train
51,153.13934326171875,154.0,2021-01-21 19:13:55.278000+00:00,train
52,153.06874084472656,154.0,2021-01-21 19:14:55.278000+00:00,train
53,152.999755859375,154.0,2021-01-21 19:15:55.278000+00:00,train
54,152.93243408203125,154.0,2021-01-21 19:16:55.278000+00:00,train
55,152.86668395996094,154.0,2021-01-21 19:17:55.278000+00:00,train
56,152.8079833984375,154.0,2021-01-21 19:18:55.278000+00:00,train
57,152.76210021972656,154.0,2021-01-21 19:19:55.278000+00:00,train
58,152.7185821533203,154.0,2021-01-21 19:20:55.278000+00:00,train
59,152.67726135253906,154.0,2021-01-21 19:21:55.278000+00:00,train
60,152.63841247558594,156.0,2021-01-21 19:22:55.278000+00:00,train
61,152.60189819335938,156.0,2021-01-21 19:23:55.278000+00:00,train
62,152.6123809814453,156.0,2021-01-21 19:24:55.278000+00:00,train
63,152.6227569580078,156.0,2021-01-21 19:25:55.278000+00:00,train
64,152.6333770751953,156.0,2021-01-21 19:26:55.278000+00:00,train
65,152.6448211669922,151.0,2021-01-21 19:27:55.278000+00:00,train
66,152.65721130371094,150.0,2021-01-21 19:28:55.278000+00:00,train
67,152.5213623046875,150.0,2021-01-21 19:29:55.278000+00:00,train
68,152.3516082763672,150.0,2021-01-21 19:30:55.278000+00:00,train
69,152.19039916992188,150.0,2021-01-21 19:31:55.278000+00:00,train
70,152.0361328125,150.0,2021-01-21 19:32:55.278000+00:00,train
71,151.88771057128906,150.0,2021-01-21 19:33:55.278000+00:00,train
72,151.74468994140625,150.0,2021-01-21 19:34:55.278000+00:00,train
73,151.60693359375,150.0,2021-01-21 19:35:55.278000+00:00,train
74,151.47471618652344,150.0,2021-01-21 19:36:55.278000+00:00,train
75,151.34967041015625,152.0,2021-01-21 19:37:55.278000+00:00,train
76,151.2346954345703,152.0,2021-01-21 19:38:55.278000+00:00,train
77,151.20254516601562,152.0,2021-01-21 19:39:55.278000+00:00,train
78,151.1803741455078,152.0,2021-01-21 19:40:55.278000+00:00,train
79,151.12648010253906,152.0,2021-01-21 19:41:55.278000+00:00,train
80,151.0833740234375,152.0,2021-01-21 19:42:55.278000+00:00,train
81,151.0617218017578,152.0,2021-01-21 19:43:55.278000+00:00,train
82,151.06787109375,152.0,2021-01-21 19:44:55.278000+00:00,train
83,151.13880920410156,152.0,2021-01-21 19:45:55.278000+00:00,train
84,151.2534637451172,152.0,2021-01-21 19:46:55.278000+00:00,train
85,151.40301513671875,152.0,2021-01-21 19:47:55.278000+00:00,train
86,151.57972717285156,152.0,2021-01-21 19:48:55.278000+00:00,train
87,151.77920532226562,152.0,2021-01-21 19:49:55.278000+00:00,train
88,151.9958038330078,152.0,2021-01-21 19:50:55.278000+00:00,train
89,152.2244873046875,153.0,2021-01-21 19:51:55.278000+00:00,train
90,152.4662628173828,154.0,2021-01-21 19:52:55.278000+00:00,train
91,152.75880432128906,154.0,2021-01-21 19:53:55.278000+00:00,train
92,153.07351684570312,154.0,2021-01-21 19:54:55.278000+00:00,train
93,153.34425354003906,154.0,2021-01-21 19:55:55.278000+00:00,train
94,153.60169982910156,154.0,2021-01-21 19:56:55.278000+00:00,train
95,153.8505401611328,156.0,2021-01-21 19:57:55.278000+00:00,train
96,154.09417724609375,156.0,2021-01-21 19:58:55.278000+00:00,train
97,154.48504638671875,156.0,2021-01-21 19:59:55.278000+00:00,train
98,154.79225158691406,156.0,2021-01-21 20:00:55.278000+00:00,train
99,155.04852294921875,156.0,2021-01-21 20:01:55.278000+00:00,train
100,155.26771545410156,156.0,2021-01-21 20:02:55.278000+00:00,train
101,155.46487426757812,156.0,2021-01-21 20:03:55.278000+00:00,train
102,155.6450958251953,156.0,2021-01-21 20:04:55.278000+00:00,train
103,155.80523681640625,156.0,2021-01-21 20:05:55.278000+00:00,train
104,155.95077514648438,158.0,2021-01-21 20:06:55.278000+00:00,train
105,156.0819091796875,158.0,2021-01-21 20:07:55.278000+00:00,train
106,156.2811737060547,158.0,2021-01-21 20:08:55.278000+00:00,train
107,156.4340057373047,158.0,2021-01-21 20:09:55.278000+00:00,train
108,156.56045532226562,158.0,2021-01-21 20:10:55.278000+00:00,train
109,156.66824340820312,158.0,2021-01-21 20:11:55.278000+00:00,train
110,156.7646026611328,158.0,2021-01-21 20:12:55.278000+00:00,train
111,156.850341796875,158.0,2021-01-21 20:13:55.278000+00:00,train
112,156.92662048339844,159.0,2021-01-21 20:14:55.278000+00:00,train
113,156.99513244628906,160.0,2021-01-21 20:15:55.278000+00:00,train
114,157.09376525878906,160.0,2021-01-21 20:16:55.278000+00:00,train
115,157.2181854248047,158.0,2021-01-21 20:17:55.278000+00:00,train
116,157.4043731689453,156.0,2021-01-21 20:18:55.278000+00:00,train
117,157.49697875976562,156.0,2021-01-21 20:19:55.278000+00:00,train
118,157.544189453125,156.0,2021-01-21 20:20:55.278000+00:00,train
119,157.6155548095703,156.0,2021-01-21 20:21:55.278000+00:00,train
120,157.68344116210938,156.0,2021-01-21 20:22:55.278000+00:00,train
121,157.75772094726562,156.0,2021-01-21 20:23:55.278000+00:00,train
122,157.83267211914062,156.0,2021-01-21 20:24:55.278000+00:00,train
123,157.9085693359375,156.0,2021-01-21 20:25:55.278000+00:00,train
124,157.98306274414062,156.0,2021-01-21 20:26:55.278000+00:00,train
125,158.05580139160156,156.0,2021-01-21 20:27:55.278000+00:00,train
126,158.12730407714844,156.0,2021-01-21 20:28:55.278000+00:00,train
127,158.19625854492188,156.0,2021-01-21 20:29:55.278000+00:00,train
128,158.26283264160156,157.0,2021-01-21 20:30:55.278000+00:00,train
129,158.3278045654297,158.0,2021-01-21 20:31:55.278000+00:00,train
130,158.42214965820312,158.0,2021-01-21 20:32:55.278000+00:00,train
131,158.54270935058594,158.0,2021-01-21 20:33:55.278000+00:00,train
132,158.65101623535156,158.0,2021-01-21 20:34:55.278000+00:00,train
133,158.75103759765625,158.0,2021-01-21 20:35:55.278000+00:00,train
134,158.84556579589844,158.0,2021-01-21 20:36:55.278000+00:00,train
135,158.93670654296875,158.0,2021-01-21 20:37:55.278000+00:00,train
136,159.02352905273438,158.0,2021-01-21 20:38:55.278000+00:00,train
137,159.10830688476562,160.0,2021-01-21 20:39:55.278000+00:00,train
138,159.19081115722656,160.0,2021-01-21 20:40:55.278000+00:00,train
139,159.3524169921875,160.0,2021-01-21 20:41:55.278000+00:00,train
140,159.46311950683594,160.0,2021-01-21 20:42:55.278000+00:00,train
141,159.5653533935547,160.0,2021-01-21 20:43:55.278000+00:00,train
142,159.66065979003906,160.0,2021-01-21 20:44:55.278000+00:00,train
143,159.75222778320312,160.0,2021-01-21 20:45:55.278000+00:00,train
144,159.84056091308594,160.0,2021-01-21 20:46:55.278000+00:00,train
145,159.92477416992188,161.0,2021-01-21 20:47:55.278000+00:00,train
146,160.00674438476562,162.0,2021-01-21 20:48:55.278000+00:00,train
147,160.13153076171875,162.0,2021-01-21 20:49:55.278000+00:00,train
148,160.29837036132812,162.0,2021-01-21 20:50:55.278000+00:00,train
149,160.45501708984375,162.0,2021-01-21 20:51:55.278000+00:00,train
150,160.60354614257812,162.0,2021-01-21 20:52:55.278000+00:00,train
151,160.74559020996094,162.0,2021-01-21 20:53:55.278000+00:00,train
152,160.915283203125,162.0,2021-01-21 20:54:55.278000+00:00,train
153,161.09152221679688,162.0,2021-01-21 20:55:55.278000+00:00,train
154,161.2602081298828,164.0,2021-01-21 20:56:55.278000+00:00,train
155,161.41708374023438,164.0,2021-01-21 20:57:55.278000+00:00,train
156,161.6669158935547,164.0,2021-01-21 20:58:55.278000+00:00,train
157,161.90650939941406,164.0,2021-01-21 20:59:55.278000+00:00,train
158,162.1348419189453,164.0,2021-01-21 21:00:55.278000+00:00,train
159,162.35015869140625,164.0,2021-01-21 21:01:55.278000+00:00,train
160,162.5463104248047,164.0,2021-01-21 21:02:55.278000+00:00,train
161,162.7584228515625,164.0,2021-01-21 21:03:55.278000+00:00,train
162,162.95213317871094,165.0,2021-01-21 21:04:55.278000+00:00,train
163,163.13746643066406,166.0,2021-01-21 21:05:55.278000+00:00,train
164,163.3647003173828,166.0,2021-01-21 21:06:55.278000+00:00,train
165,163.63009643554688,166.0,2021-01-21 21:07:55.278000+00:00,train
166,163.88121032714844,166.0,2021-01-21 21:08:55.278000+00:00,train
167,164.11996459960938,166.0,2021-01-21 21:09:55.278000+00:00,train
168,164.34849548339844,166.0,2021-01-21 21:10:55.278000+00:00,train
169,164.56886291503906,166.0,2021-01-21 21:11:55.278000+00:00,train
170,164.78109741210938,166.0,2021-01-21 21:12:55.278000+00:00,train
171,164.9860076904297,166.0,2021-01-21 21:13:55.278000+00:00,train
172,165.184814453125,166.0,2021-01-21 21:14:55.278000+00:00,train
173,165.3770751953125,166.0,2021-01-21 21:15:55.278000+00:00,train
174,165.563232421875,165.0,2021-01-21 21:16:55.278000+00:00,train
175,165.7443084716797,163.0,2021-01-21 21:17:55.278000+00:00,train
176,165.87173461914062,162.0,2021-01-21 21:18:55.278000+00:00,train
177,165.92852783203125,162.0,2021-01-21 21:19:55.278000+00:00,train
178,165.96536254882812,162.0,2021-01-21 21:20:55.278000+00:00,train
179,166.0105438232422,162.0,2021-01-21 21:21:55.278000+00:00,train
180,166.05889892578125,162.0,2021-01-21 21:22:55.278000+00:00,train
181,166.1082000732422,164.0,2021-01-21 21:23:55.278000+00:00,train
182,166.15892028808594,164.0,2021-01-21 21:24:55.278000+00:00,train
183,166.2672882080078,164.0,2021-01-21 21:25:55.278000+00:00,train
184,166.3684844970703,164.0,2021-01-21 21:26:55.278000+00:00,train
185,166.46534729003906,164.0,2021-01-21 21:27:55.278000+00:00,train
186,166.55792236328125,164.0,2021-01-21 21:28:55.278000+00:00,train
187,166.6197052001953,164.0,2021-01-21 21:29:55.278000+00:00,train
188,166.66204833984375,164.0,2021-01-21 21:30:55.278000+00:00,train
189,166.6982879638672,164.0,2021-01-21 21:31:55.278000+00:00,train
190,166.7296142578125,164.0,2021-01-21 21:32:55.278000+00:00,train
191,166.75534057617188,164.0,2021-01-21 21:33:55.278000+00:00,train
192,166.77549743652344,165.0,2021-01-21 21:34:55.278000+00:00,train
193,166.7904052734375,166.0,2021-01-21 21:35:55.278000+00:00,train
194,166.8290557861328,166.0,2021-01-21 21:36:55.278000+00:00,train
195,166.8916015625,166.0,2021-01-21 21:37:55.278000+00:00,train
196,166.94415283203125,166.0,2021-01-21 21:38:55.278000+00:00,train
197,167.02426147460938,166.0,2021-01-21 21:39:55.278000+00:00,train
198,167.09805297851562,166.0,2021-01-21 21:40:55.278000+00:00,train
199,167.16635131835938,166.0,2021-01-21 21:41:55.278000+00:00,train
200,167.22850036621094,166.0,2021-01-21 21:42:55.278000+00:00,train
201,167.28558349609375,166.0,2021-01-21 21:43:55.278000+00:00,train
202,167.33738708496094,166.0,2021-01-21 21:44:55.278000+00:00,train
203,167.38316345214844,167.0,2021-01-21 21:45:55.278000+00:00,train
204,167.42381286621094,168.0,2021-01-21 21:46:55.278000+00:00,train
205,167.4908447265625,168.0,2021-01-21 21:47:55.278000+00:00,train
206,167.58456420898438,168.0,2021-01-21 21:48:55.278000+00:00,train
207,167.66873168945312,168.0,2021-01-21 21:49:55.278000+00:00,train
208,167.74400329589844,168.0,2021-01-21 21:50:55.278000+00:00,train
209,167.8112335205078,168.0,2021-01-21 21:51:55.278000+00:00,train
210,167.87103271484375,168.0,2021-01-21 21:52:55.278000+00:00,train
211,167.9430694580078,168.0,2021-01-21 21:53:55.278000+00:00,train
212,168.0264892578125,168.0,2021-01-21 21:54:55.278000+00:00,train
213,168.10459899902344,168.0,2021-01-21 21:55:55.278000+00:00,train
214,168.1766815185547,169.0,2021-01-21 21:56:55.278000+00:00,train
215,168.24334716796875,170.0,2021-01-21 21:57:55.278000+00:00,train
216,168.3391876220703,170.0,2021-01-21 21:58:55.278000+00:00,train
217,168.49269104003906,170.0,2021-01-21 21:59:55.278000+00:00,train
218,168.63735961914062,170.0,2021-01-21 22:00:55.278000+00:00,train
219,168.77413940429688,170.0,2021-01-21 22:01:55.278000+00:00,train
220,168.9016876220703,170.0,2021-01-21 22:02:55.278000+00:00,train
221,169.02850341796875,170.0,2021-01-21 22:03:55.278000+00:00,train
222,169.1474609375,170.0,2021-01-21 22:04:55.278000+00:00,train
223,169.26092529296875,170.0,2021-01-21 22:05:55.278000+00:00,train
224,169.36924743652344,170.0,2021-01-21 22:06:55.278000+00:00,train
225,169.47177124023438,171.0,2021-01-21 22:07:55.278000+00:00,train
226,169.5895233154297,172.0,2021-01-21 22:08:55.278000+00:00,train
227,169.73817443847656,172.0,2021-01-21 22:09:55.278000+00:00,train
228,169.9163055419922,170.0,2021-01-21 22:10:55.278000+00:00,train
229,170.0858154296875,168.0,2021-01-21 22:11:55.278000+00:00,train
230,170.17425537109375,166.0,2021-01-21 22:12:55.278000+00:00,train
231,170.2015838623047,166.0,2021-01-21 22:13:55.278000+00:00,train
232,170.1884765625,166.0,2021-01-21 22:14:55.278000+00:00,train
233,170.18174743652344,166.0,2021-01-21 22:15:55.278000+00:00,train
234,170.18519592285156,166.0,2021-01-21 22:16:55.278000+00:00,train
235,170.19383239746094,167.0,2021-01-21 22:17:55.278000+00:00,train
236,170.20372009277344,168.0,2021-01-21 22:18:55.278000+00:00,train
237,170.2238311767578,168.0,2021-01-21 22:19:55.278000+00:00,train
238,170.2401580810547,168.0,2021-01-21 22:20:55.278000+00:00,train
239,170.25001525878906,168.0,2021-01-21 22:21:55.278000+00:00,train
240,170.2541961669922,168.0,2021-01-21 22:22:55.278000+00:00,train
241,170.25340270996094,168.0,2021-01-21 22:23:55.278000+00:00,train
242,170.24838256835938,168.0,2021-01-21 22:24:55.278000+00:00,train
243,170.23866271972656,168.0,2021-01-21 22:25:55.278000+00:00,train
244,170.2242889404297,168.0,2021-01-21 22:26:55.278000+00:00,train
245,170.20559692382812,168.0,2021-01-21 22:27:55.278000+00:00,train
246,170.18182373046875,168.0,2021-01-21 22:28:55.278000+00:00,train
247,170.15283203125,170.0,2021-01-21 22:29:55.278000+00:00,train
248,170.11871337890625,170.0,2021-01-21 22:30:55.278000+00:00,train
249,170.1320037841797,170.0,2021-01-21 22:31:55.278000+00:00,train
250,170.15505981445312,170.0,2021-01-21 22:32:55.278000+00:00,train
251,170.18873596191406,170.0,2021-01-21 22:33:55.278000+00:00,train
252,170.21595764160156,170.0,2021-01-21 22:34:55.278000+00:00,train
253,170.23828125,170.0,2021-01-21 22:35:55.278000+00:00,train
254,170.25572204589844,170.0,2021-01-21 22:36:55.278000+00:00,train
255,170.26742553710938,170.0,2021-01-21 22:37:55.278000+00:00,train
256,170.27444458007812,170.0,2021-01-21 22:38:55.278000+00:00,train
257,170.2760009765625,170.0,2021-01-21 22:39:55.278000+00:00,train
258,170.27195739746094,171.0,2021-01-21 22:40:55.278000+00:00,train
259,170.29913330078125,172.0,2021-01-21 22:41:55.278000+00:00,train
260,170.35263061523438,172.0,2021-01-21 22:42:55.278000+00:00,train
261,170.43289184570312,172.0,2021-01-21 22:43:55.278000+00:00,train
262,170.50527954101562,172.0,2021-01-21 22:44:55.278000+00:00,train
263,170.57115173339844,172.0,2021-01-21 22:45:55.278000+00:00,train
264,170.63136291503906,172.0,2021-01-21 22:46:55.278000+00:00,train
265,170.6868438720703,172.0,2021-01-21 22:47:55.278000+00:00,train
266,170.7372589111328,172.0,2021-01-21 22:48:55.278000+00:00,train
267,170.79864501953125,172.0,2021-01-21 22:49:55.278000+00:00,train
268,170.8687744140625,172.0,2021-01-21 22:50:55.278000+00:00,train
269,170.93505859375,172.0,2021-01-21 22:51:55.278000+00:00,train
270,170.99864196777344,174.0,2021-01-21 22:52:55.278000+00:00,train
271,171.05929565429688,174.0,2021-01-21 22:53:55.278000+00:00,train
272,171.18533325195312,174.0,2021-01-21 22:54:55.278000+00:00,train
273,171.30206298828125,174.0,2021-01-21 22:55:55.278000+00:00,train
274,171.41184997558594,174.0,2021-01-21 22:56:55.278000+00:00,train
275,171.5150604248047,174.0,2021-01-21 22:57:55.278000+00:00,train
276,171.63009643554688,174.0,2021-01-21 22:58:55.278000+00:00,train
277,171.74110412597656,174.0,2021-01-21 22:59:55.278000+00:00,train
278,171.8474578857422,174.0,2021-01-21 23:00:55.278000+00:00,train
279,171.95083618164062,174.0,2021-01-21 23:01:55.278000+00:00,train
280,172.06088256835938,174.0,2021-01-21 23:02:55.278000+00:00,train
281,172.1400604248047,172.0,2021-01-21 23:03:55.278000+00:00,train
282,172.22927856445312,170.0,2021-01-21 23:04:55.278000+00:00,train
283,172.2548828125,170.0,2021-01-21 23:05:55.278000+00:00,train
284,172.24197387695312,170.0,2021-01-21 23:06:55.278000+00:00,train
285,172.2396240234375,170.0,2021-01-21 23:07:55.278000+00:00,train
286,172.24301147460938,170.0,2021-01-21 23:08:55.278000+00:00,train
287,172.24935913085938,170.0,2021-01-21 23:09:55.278000+00:00,train
288,172.25660705566406,170.0,2021-01-21 23:10:55.278000+00:00,train
289,172.26466369628906,170.0,2021-01-21 23:11:55.278000+00:00,train
290,172.27301025390625,170.0,2021-01-21 23:12:55.278000+00:00,train
291,172.2808074951172,170.0,2021-01-21 23:13:55.278000+00:00,train
292,172.28863525390625,170.0,2021-01-21 23:14:55.278000+00:00,train
293,172.29598999023438,170.0,2021-01-21 23:15:55.278000+00:00,train
294,172.30288696289062,171.0,2021-01-21 23:16:55.278000+00:00,train
295,172.3095703125,172.0,2021-01-21 23:17:55.278000+00:00,train
296,172.33309936523438,172.0,2021-01-21 23:18:55.278000+00:00,train
297,172.3628387451172,172.0,2021-01-21 23:19:55.278000+00:00,train
298,172.37596130371094,172.0,2021-01-21 23:20:55.278000+00:00,train
299,172.38401794433594,172.0,2021-01-21 23:21:55.278000+00:00,train
300,172.38787841796875,172.0,2021-01-21 23:22:55.278000+00:00,train
301,172.38816833496094,172.0,2021-01-21 23:23:55.278000+00:00,train
302,172.38412475585938,172.0,2021-01-21 23:24:55.278000+00:00,train
303,172.40150451660156,172.0,2021-01-21 23:25:55.278000+00:00,train
304,172.41712951660156,172.0,2021-01-21 23:26:55.278000+00:00,train
305,172.4303436279297,173.0,2021-01-21 23:27:55.278000+00:00,train
306,172.44195556640625,174.0,2021-01-21 23:28:55.278000+00:00,train
307,172.474853515625,174.0,2021-01-21 23:29:55.278000+00:00,train
308,172.5289764404297,174.0,2021-01-21 23:30:55.278000+00:00,train
309,172.577392578125,174.0,2021-01-21 23:31:55.278000+00:00,train
310,172.62144470214844,174.0,2021-01-21 23:32:55.278000+00:00,train
311,172.6611785888672,174.0,2021-01-21 23:33:55.278000+00:00,train
312,172.69786071777344,174.0,2021-01-21 23:34:55.278000+00:00,train
313,172.73114013671875,174.0,2021-01-21 23:35:55.278000+00:00,train
314,172.77239990234375,174.0,2021-01-21 23:36:55.278000+00:00,train
315,172.81944274902344,174.0,2021-01-21 23:37:55.278000+00:00,train
316,172.86434936523438,174.0,2021-01-21 23:38:55.278000+00:00,train
317,172.9072265625,174.0,2021-01-21 23:39:55.278000+00:00,train
318,172.94845581054688,174.0,2021-01-21 23:40:55.278000+00:00,train
319,172.98760986328125,174.0,2021-01-21 23:41:55.278000+00:00,train
320,173.02487182617188,176.0,2021-01-21 23:42:55.278000+00:00,train
321,173.0604705810547,176.0,2021-01-21 23:43:55.278000+00:00,train
322,173.14877319335938,176.0,2021-01-21 23:44:55.278000+00:00,train
323,173.23056030273438,176.0,2021-01-21 23:45:55.278000+00:00,train
324,173.30747985839844,176.0,2021-01-21 23:46:55.278000+00:00,train
325,173.38587951660156,176.0,2021-01-21 23:47:55.278000+00:00,train
326,173.46401977539062,176.0,2021-01-21 23:48:55.278000+00:00,train
327,173.53932189941406,176.0,2021-01-21 23:49:55.278000+00:00,train
328,173.6113739013672,176.0,2021-01-21 23:50:55.278000+00:00,train
329,173.68112182617188,176.0,2021-01-21 23:51:55.278000+00:00,train
330,173.74851989746094,176.0,2021-01-21 23:52:55.278000+00:00,train
331,173.81307983398438,174.0,2021-01-21 23:53:55.278000+00:00,train
332,173.87557983398438,172.0,2021-01-21 23:54:55.278000+00:00,train
333,173.88650512695312,172.0,2021-01-21 23:55:55.278000+00:00,train
334,173.86695861816406,172.0,2021-01-21 23:56:55.278000+00:00,train
335,173.85400390625,172.0,2021-01-21 23:57:55.278000+00:00,train
336,173.8433380126953,172.0,2021-01-21 23:58:55.278000+00:00,train
337,173.83058166503906,172.0,2021-01-21 23:59:55.278000+00:00,train
338,173.8177032470703,172.0,2021-01-22 00:00:55.278000+00:00,train
339,173.80438232421875,172.0,2021-01-22 00:01:55.278000+00:00,train
340,173.7945098876953,172.0,2021-01-22 00:02:55.278000+00:00,train
341,173.78076171875,172.0,2021-01-22 00:03:55.278000+00:00,train
342,173.76637268066406,172.0,2021-01-22 00:04:55.278000+00:00,train
343,173.75108337402344,172.0,2021-01-22 00:05:55.278000+00:00,train
344,173.7347869873047,172.0,2021-01-22 00:06:55.278000+00:00,train
345,173.7175750732422,172.0,2021-01-22 00:07:55.278000+00:00,train
346,173.6992950439453,172.0,2021-01-22 00:08:55.278000+00:00,train
347,173.67356872558594,173.0,2021-01-22 00:09:55.278000+00:00,train
348,173.63726806640625,174.0,2021-01-22 00:10:55.278000+00:00,train
349,173.61085510253906,174.0,2021-01-22 00:11:55.278000+00:00,train
350,173.615234375,174.0,2021-01-22 00:12:55.278000+00:00,train
351,173.63023376464844,174.0,2021-01-22 00:13:55.278000+00:00,train
352,173.6416015625,174.0,2021-01-22 00:14:55.278000+00:00,train
353,173.6512451171875,174.0,2021-01-22 00:15:55.278000+00:00,train
354,173.659423828125,174.0,2021-01-22 00:16:55.278000+00:00,train
355,173.66653442382812,174.0,2021-01-22 00:17:55.278000+00:00,train
356,173.67178344726562,174.0,2021-01-22 00:18:55.278000+00:00,train
357,173.67950439453125,174.0,2021-01-22 00:19:55.278000+00:00,train
358,173.68849182128906,174.0,2021-01-22 00:20:55.278000+00:00,train
359,173.69674682617188,174.0,2021-01-22 00:21:55.278000+00:00,train
360,173.70462036132812,174.0,2021-01-22 00:22:55.278000+00:00,train
361,173.7120361328125,175.0,2021-01-22 00:23:55.278000+00:00,train
362,173.7188720703125,176.0,2021-01-22 00:24:55.278000+00:00,train
363,173.74090576171875,176.0,2021-01-22 00:25:55.278000+00:00,train
364,173.77915954589844,176.0,2021-01-22 00:26:55.278000+00:00,train
365,173.81509399414062,176.0,2021-01-22 00:27:55.278000+00:00,train
366,173.84959411621094,176.0,2021-01-22 00:28:55.278000+00:00,train
367,173.88282775878906,176.0,2021-01-22 00:29:55.278000+00:00,train
368,173.9140625,176.0,2021-01-22 00:30:55.278000+00:00,train
369,173.94273376464844,176.0,2021-01-22 00:31:55.278000+00:00,train
370,173.9700469970703,176.0,2021-01-22 00:32:55.278000+00:00,train
371,173.9962921142578,176.0,2021-01-22 00:33:55.278000+00:00,train
372,174.0220184326172,176.0,2021-01-22 00:34:55.278000+00:00,train
373,174.04664611816406,176.0,2021-01-22 00:35:55.278000+00:00,train
374,174.0705108642578,176.0,2021-01-22 00:36:55.278000+00:00,train
375,174.09410095214844,176.0,2021-01-22 00:37:55.278000+00:00,train
376,174.1171112060547,178.0,2021-01-22 00:38:55.278000+00:00,train
377,174.13998413085938,178.0,2021-01-22 00:39:55.278000+00:00,train
378,174.1968231201172,178.0,2021-01-22 00:40:55.278000+00:00,train
379,174.24989318847656,172.0,2021-01-22 00:41:55.278000+00:00,train
380,174.2951202392578,172.0,2021-01-22 00:42:55.278000+00:00,train
381,174.25390625,172.0,2021-01-22 00:43:55.278000+00:00,train
382,174.21853637695312,172.0,2021-01-22 00:44:55.278000+00:00,train
383,174.18539428710938,172.0,2021-01-22 00:45:55.278000+00:00,train
384,174.15292358398438,172.0,2021-01-22 00:46:55.278000+00:00,train
385,174.12075805664062,172.0,2021-01-22 00:47:55.278000+00:00,train
386,174.08888244628906,172.0,2021-01-22 00:48:55.278000+00:00,train
387,174.057373046875,172.0,2021-01-22 00:49:55.278000+00:00,train
388,174.02647399902344,172.0,2021-01-22 00:50:55.278000+00:00,train
389,173.99661254882812,174.0,2021-01-22 00:51:55.278000+00:00,train
390,173.9670867919922,174.0,2021-01-22 00:52:55.278000+00:00,train
391,173.95639038085938,174.0,2021-01-22 00:53:55.278000+00:00,train
392,173.92234802246094,174.0,2021-01-22 00:54:55.278000+00:00,train
393,173.88726806640625,174.0,2021-01-22 00:55:55.278000+00:00,train
394,173.8517303466797,174.0,2021-01-22 00:56:55.278000+00:00,train
395,173.81646728515625,174.0,2021-01-22 00:57:55.278000+00:00,train
396,173.78062438964844,174.0,2021-01-22 00:58:55.278000+00:00,train
397,173.74429321289062,174.0,2021-01-22 00:59:55.278000+00:00,train
398,173.7092742919922,174.0,2021-01-22 01:00:55.278000+00:00,train
399,173.6802978515625,174.0,2021-01-22 01:01:55.278000+00:00,train
400,173.6726837158203,174.0,2021-01-22 01:02:55.278000+00:00,train
401,173.63673400878906,174.0,2021-01-22 01:03:55.278000+00:00,train
402,173.60256958007812,174.0,2021-01-22 01:04:55.278000+00:00,train
403,173.59344482421875,176.0,2021-01-22 01:05:55.278000+00:00,train
404,173.60595703125,176.0,2021-01-22 01:06:55.278000+00:00,train
405,173.6387176513672,176.0,2021-01-22 01:07:55.278000+00:00,train
406,173.6709747314453,176.0,2021-01-22 01:08:55.278000+00:00,train
407,173.7030487060547,176.0,2021-01-22 01:09:55.278000+00:00,train
408,173.7357177734375,176.0,2021-01-22 01:10:55.278000+00:00,train
409,173.76858520507812,176.0,2021-01-22 01:11:55.278000+00:00,train
410,173.8018341064453,176.0,2021-01-22 01:12:55.278000+00:00,train
411,173.83607482910156,176.0,2021-01-22 01:13:55.278000+00:00,train
412,173.8708038330078,176.0,2021-01-22 01:14:55.278000+00:00,train
413,173.90631103515625,176.0,2021-01-22 01:15:55.278000+00:00,train
414,173.94271850585938,176.0,2021-01-22 01:16:55.278000+00:00,train
415,173.97955322265625,176.0,2021-01-22 01:17:55.278000+00:00,train
416,174.00645446777344,176.0,2021-01-22 01:18:55.278000+00:00,train
417,174.02357482910156,176.0,2021-01-22 01:19:55.278000+00:00,train
418,174.04080200195312,176.0,2021-01-22 01:20:55.278000+00:00,train
419,174.05841064453125,176.0,2021-01-22 01:21:55.278000+00:00,train
420,174.07640075683594,177.0,2021-01-22 01:22:55.278000+00:00,train
421,174.0946044921875,178.0,2021-01-22 01:23:55.278000+00:00,train
422,174.1209259033203,178.0,2021-01-22 01:24:55.278000+00:00,train
423,174.15391540527344,172.0,2021-01-22 01:25:55.278000+00:00,train
424,174.18663024902344,172.0,2021-01-22 01:26:55.278000+00:00,train
425,174.167724609375,172.0,2021-01-22 01:27:55.278000+00:00,train
426,174.15066528320312,172.0,2021-01-22 01:28:55.278000+00:00,train
427,174.12374877929688,172.0,2021-01-22 01:29:55.278000+00:00,train
428,174.08767700195312,172.0,2021-01-22 01:30:55.278000+00:00,train
429,174.05162048339844,172.0,2021-01-22 01:31:55.278000+00:00,train
430,174.01556396484375,172.0,2021-01-22 01:32:55.278000+00:00,train
431,173.9796600341797,172.0,2021-01-22 01:33:55.278000+00:00,train
432,173.9437255859375,172.0,2021-01-22 01:34:55.278000+00:00,train
433,173.9079132080078,172.0,2021-01-22 01:35:55.278000+00:00,train
434,173.87210083007812,172.0,2021-01-22 01:36:55.278000+00:00,train
435,173.83639526367188,173.0,2021-01-22 01:37:55.278000+00:00,train
436,173.8006591796875,174.0,2021-01-22 01:38:55.278000+00:00,train
437,173.77584838867188,174.0,2021-01-22 01:39:55.278000+00:00,train
438,173.76197814941406,174.0,2021-01-22 01:40:55.278000+00:00,train
439,173.74757385253906,174.0,2021-01-22 01:41:55.278000+00:00,train
440,173.73316955566406,174.0,2021-01-22 01:42:55.278000+00:00,train
441,173.7185821533203,174.0,2021-01-22 01:43:55.278000+00:00,train
442,173.68809509277344,174.0,2021-01-22 01:44:55.278000+00:00,train
443,173.6577911376953,174.0,2021-01-22 01:45:55.278000+00:00,train
444,173.62767028808594,174.0,2021-01-22 01:46:55.278000+00:00,train
445,173.5978546142578,174.0,2021-01-22 01:47:55.278000+00:00,train
446,173.56826782226562,174.0,2021-01-22 01:48:55.278000+00:00,train
447,173.53868103027344,174.0,2021-01-22 01:49:55.278000+00:00,train
448,173.50924682617188,174.0,2021-01-22 01:50:55.278000+00:00,train
449,173.47988891601562,174.0,2021-01-22 01:51:55.278000+00:00,train
450,173.4503631591797,174.0,2021-01-22 01:52:55.278000+00:00,train
451,173.42115783691406,174.0,2021-01-22 01:53:55.278000+00:00,train
452,173.39283752441406,176.0,2021-01-22 01:54:55.278000+00:00,train
453,173.3809051513672,176.0,2021-01-22 01:55:55.278000+00:00,train
454,173.40780639648438,176.0,2021-01-22 01:56:55.278000+00:00,train
455,173.43394470214844,176.0,2021-01-22 01:57:55.278000+00:00,train
456,173.45965576171875,176.0,2021-01-22 01:58:55.278000+00:00,train
457,173.4854278564453,176.0,2021-01-22 01:59:55.278000+00:00,train
458,173.5113983154297,176.0,2021-01-22 02:00:55.278000+00:00,train
459,173.53753662109375,176.0,2021-01-22 02:01:55.278000+00:00,train
460,173.5640869140625,176.0,2021-01-22 02:02:55.278000+00:00,train
461,173.59103393554688,176.0,2021-01-22 02:03:55.278000+00:00,train
462,173.6183624267578,176.0,2021-01-22 02:04:55.278000+00:00,train
463,173.6461639404297,174.0,2021-01-22 02:05:55.278000+00:00,train
464,173.6743621826172,172.0,2021-01-22 02:06:55.278000+00:00,train
465,173.68624877929688,172.0,2021-01-22 02:07:55.278000+00:00,train
466,173.6756134033203,172.0,2021-01-22 02:08:55.278000+00:00,train
467,173.66571044921875,172.0,2021-01-22 02:09:55.278000+00:00,train
468,173.6559600830078,172.0,2021-01-22 02:10:55.278000+00:00,train
469,173.6329803466797,172.0,2021-01-22 02:11:55.278000+00:00,train
470,173.5994415283203,172.0,2021-01-22 02:12:55.278000+00:00,train
471,173.56593322753906,172.0,2021-01-22 02:13:55.278000+00:00,train
472,173.53260803222656,172.0,2021-01-22 02:14:55.278000+00:00,train
473,173.4993896484375,172.0,2021-01-22 02:15:55.278000+00:00,train
474,173.46620178222656,172.0,2021-01-22 02:16:55.278000+00:00,train
475,173.4332275390625,172.0,2021-01-22 02:17:55.278000+00:00,train
476,173.40028381347656,172.0,2021-01-22 02:18:55.278000+00:00,train
477,173.3673553466797,172.0,2021-01-22 02:19:55.278000+00:00,train
478,173.3346710205078,172.0,2021-01-22 02:20:55.278000+00:00,train
479,173.30201721191406,172.0,2021-01-22 02:21:55.278000+00:00,train
480,173.2693634033203,172.0,2021-01-22 02:22:55.278000+00:00,train
481,173.23684692382812,172.0,2021-01-22 02:23:55.278000+00:00,train
482,173.20416259765625,172.0,2021-01-22 02:24:55.278000+00:00,train
483,173.16310119628906,172.0,2021-01-22 02:25:55.278000+00:00,val
484,173.11671447753906,172.0,2021-01-22 02:26:55.278000+00:00,val
485,173.07052612304688,174.0,2021-01-22 02:27:55.278000+00:00,val
486,173.02467346191406,174.0,2021-01-22 02:28:55.278000+00:00,val
487,173.00389099121094,174.0,2021-01-22 02:29:55.278000+00:00,val
488,172.9821014404297,174.0,2021-01-22 02:30:55.278000+00:00,val
489,172.9600830078125,174.0,2021-01-22 02:31:55.278000+00:00,val
490,172.9381561279297,174.0,2021-01-22 02:32:55.278000+00:00,val
491,172.91624450683594,174.0,2021-01-22 02:33:55.278000+00:00,val
492,172.89453125,174.0,2021-01-22 02:34:55.278000+00:00,val
493,172.8730926513672,174.0,2021-01-22 02:35:55.278000+00:00,val
494,172.851806640625,174.0,2021-01-22 02:36:55.278000+00:00,val
495,172.830810546875,174.0,2021-01-22 02:37:55.278000+00:00,val
496,172.80992126464844,174.0,2021-01-22 02:38:55.278000+00:00,val
497,172.78892517089844,174.0,2021-01-22 02:39:55.278000+00:00,val
498,172.77044677734375,174.0,2021-01-22 02:40:55.278000+00:00,val
499,172.75404357910156,174.0,2021-01-22 02:41:55.278000+00:00,val
500,172.7403106689453,174.0,2021-01-22 02:42:55.278000+00:00,val
501,172.75704956054688,174.0,2021-01-22 02:43:55.278000+00:00,val
502,172.77403259277344,170.0,2021-01-22 02:44:55.278000+00:00,val
503,172.79124450683594,170.0,2021-01-22 02:45:55.278000+00:00,val
504,172.74794006347656,170.0,2021-01-22 02:46:55.278000+00:00,val
505,172.70530700683594,170.0,2021-01-22 02:47:55.278000+00:00,val
506,172.66310119628906,170.0,2021-01-22 02:48:55.278000+00:00,val
507,172.6212615966797,170.0,2021-01-22 02:49:55.278000+00:00,val
508,172.57984924316406,170.0,2021-01-22 02:50:55.278000+00:00,val
509,172.53872680664062,170.0,2021-01-22 02:51:55.278000+00:00,val
510,172.497802734375,170.0,2021-01-22 02:52:55.278000+00:00,val
511,172.4356231689453,170.0,2021-01-22 02:53:55.278000+00:00,val
512,172.3740692138672,170.0,2021-01-22 02:54:55.278000+00:00,val
513,172.3131103515625,170.0,2021-01-22 02:55:55.278000+00:00,val
514,172.2528533935547,170.0,2021-01-22 02:56:55.278000+00:00,val
515,172.19309997558594,170.0,2021-01-22 02:57:55.278000+00:00,val
516,172.1338653564453,170.0,2021-01-22 02:58:55.278000+00:00,val
517,172.07528686523438,170.0,2021-01-22 02:59:55.278000+00:00,val
518,172.01712036132812,172.0,2021-01-22 03:00:55.278000+00:00,val
519,171.95948791503906,172.0,2021-01-22 03:01:55.278000+00:00,val
520,171.93406677246094,172.0,2021-01-22 03:02:55.278000+00:00,val
521,171.90846252441406,172.0,2021-01-22 03:03:55.278000+00:00,val
522,171.8828887939453,172.0,2021-01-22 03:04:55.278000+00:00,val
523,171.85733032226562,172.0,2021-01-22 03:05:55.278000+00:00,val
524,171.8315887451172,172.0,2021-01-22 03:06:55.278000+00:00,val
525,171.79844665527344,172.0,2021-01-22 03:07:55.278000+00:00,val
526,171.76585388183594,172.0,2021-01-22 03:08:55.278000+00:00,val
527,171.7337646484375,172.0,2021-01-22 03:09:55.278000+00:00,val
528,171.7023162841797,172.0,2021-01-22 03:10:55.278000+00:00,val
529,171.6714324951172,172.0,2021-01-22 03:11:55.278000+00:00,val
530,171.64109802246094,172.0,2021-01-22 03:12:55.278000+00:00,val
531,171.6114501953125,172.0,2021-01-22 03:13:55.278000+00:00,val
532,171.58242797851562,172.0,2021-01-22 03:14:55.278000+00:00,val
533,171.5540008544922,172.0,2021-01-22 03:15:55.278000+00:00,val
534,171.52633666992188,172.0,2021-01-22 03:16:55.278000+00:00,val
535,171.4993133544922,174.0,2021-01-22 03:17:55.278000+00:00,val
536,171.4730224609375,174.0,2021-01-22 03:18:55.278000+00:00,val
537,171.46731567382812,174.0,2021-01-22 03:19:55.278000+00:00,val
538,171.4601287841797,168.0,2021-01-22 03:20:55.278000+00:00,val
539,171.45248413085938,168.0,2021-01-22 03:21:55.278000+00:00,val
540,171.3505401611328,168.0,2021-01-22 03:22:55.278000+00:00,val
541,171.25180053710938,168.0,2021-01-22 03:23:55.278000+00:00,val
542,171.16029357910156,168.0,2021-01-22 03:24:55.278000+00:00,val
543,171.0804443359375,168.0,2021-01-22 03:25:55.278000+00:00,val
544,171.0045623779297,168.0,2021-01-22 03:26:55.278000+00:00,val
545,170.93031311035156,168.0,2021-01-22 03:27:55.278000+00:00,val
546,170.8572540283203,168.0,2021-01-22 03:28:55.278000+00:00,val
547,170.78530883789062,168.0,2021-01-22 03:29:55.278000+00:00,val
548,170.71435546875,168.0,2021-01-22 03:30:55.278000+00:00,val
549,170.64431762695312,168.0,2021-01-22 03:31:55.278000+00:00,val
550,170.57525634765625,168.0,2021-01-22 03:32:55.278000+00:00,val
551,170.5069580078125,168.0,2021-01-22 03:33:55.278000+00:00,val
552,170.43946838378906,168.0,2021-01-22 03:34:55.278000+00:00,val
553,170.37281799316406,169.0,2021-01-22 03:35:55.278000+00:00,val
554,170.30686950683594,170.0,2021-01-22 03:36:55.278000+00:00,val
555,170.2613067626953,170.0,2021-01-22 03:37:55.278000+00:00,val
556,170.2328643798828,170.0,2021-01-22 03:38:55.278000+00:00,val
557,170.19691467285156,170.0,2021-01-22 03:39:55.278000+00:00,val
558,170.1568145751953,170.0,2021-01-22 03:40:55.278000+00:00,val
559,170.1171112060547,170.0,2021-01-22 03:41:55.278000+00:00,val
560,170.0778045654297,170.0,2021-01-22 03:42:55.278000+00:00,val
561,170.03892517089844,170.0,2021-01-22 03:43:55.278000+00:00,val
562,170.00047302246094,170.0,2021-01-22 03:44:55.278000+00:00,val
563,169.96241760253906,170.0,2021-01-22 03:45:55.278000+00:00,val
564,169.92483520507812,170.0,2021-01-22 03:46:55.278000+00:00,val
565,169.88768005371094,170.0,2021-01-22 03:47:55.278000+00:00,val
566,169.85096740722656,170.0,2021-01-22 03:48:55.278000+00:00,val
567,169.814697265625,170.0,2021-01-22 03:49:55.278000+00:00,val
568,169.7788848876953,170.0,2021-01-22 03:50:55.278000+00:00,val
569,169.74351501464844,170.0,2021-01-22 03:51:55.278000+00:00,val
570,169.70864868164062,170.0,2021-01-22 03:52:55.278000+00:00,val
571,169.6741943359375,166.0,2021-01-22 03:53:55.278000+00:00,val
572,169.64016723632812,166.0,2021-01-22 03:54:55.278000+00:00,val
573,169.52761840820312,166.0,2021-01-22 03:55:55.278000+00:00,val
574,169.42156982421875,166.0,2021-01-22 03:56:55.278000+00:00,val
575,169.31800842285156,166.0,2021-01-22 03:57:55.278000+00:00,val
576,169.21697998046875,166.0,2021-01-22 03:58:55.278000+00:00,val
577,169.11862182617188,166.0,2021-01-22 03:59:55.278000+00:00,val
578,169.02284240722656,166.0,2021-01-22 04:00:55.278000+00:00,val
579,168.92959594726562,166.0,2021-01-22 04:01:55.278000+00:00,val
580,168.83905029296875,166.0,2021-01-22 04:02:55.278000+00:00,val
581,168.75103759765625,166.0,2021-01-22 04:03:55.278000+00:00,val
582,168.66567993164062,166.0,2021-01-22 04:04:55.278000+00:00,val
583,168.58311462402344,166.0,2021-01-22 04:05:55.278000+00:00,val
584,168.50338745117188,166.0,2021-01-22 04:06:55.278000+00:00,val
585,168.4158935546875,166.0,2021-01-22 04:07:55.278000+00:00,val
586,168.3321075439453,167.0,2021-01-22 04:08:55.278000+00:00,val
587,168.2495574951172,168.0,2021-01-22 04:09:55.278000+00:00,val
588,168.188720703125,168.0,2021-01-22 04:10:55.278000+00:00,val
589,168.1461639404297,168.0,2021-01-22 04:11:55.278000+00:00,val
590,168.1038360595703,168.0,2021-01-22 04:12:55.278000+00:00,val
591,168.06190490722656,168.0,2021-01-22 04:13:55.278000+00:00,val
592,168.02032470703125,168.0,2021-01-22 04:14:55.278000+00:00,val
593,167.97915649414062,168.0,2021-01-22 04:15:55.278000+00:00,val
594,167.93838500976562,168.0,2021-01-22 04:16:55.278000+00:00,val
595,167.8980712890625,168.0,2021-01-22 04:17:55.278000+00:00,val
596,167.8581085205078,168.0,2021-01-22 04:18:55.278000+00:00,val
597,167.818603515625,168.0,2021-01-22 04:19:55.278000+00:00,val
598,167.7794952392578,168.0,2021-01-22 04:20:55.278000+00:00,val
599,167.74081420898438,168.0,2021-01-22 04:21:55.278000+00:00,val
600,167.70252990722656,168.0,2021-01-22 04:22:55.278000+00:00,val
601,167.66470336914062,164.0,2021-01-22 04:23:55.278000+00:00,val
602,167.62725830078125,164.0,2021-01-22 04:24:55.278000+00:00,val
603,167.50869750976562,164.0,2021-01-22 04:25:55.278000+00:00,val
604,167.39230346679688,164.0,2021-01-22 04:26:55.278000+00:00,val
605,167.2779998779297,164.0,2021-01-22 04:27:55.278000+00:00,val
606,167.1657257080078,164.0,2021-01-22 04:28:55.278000+00:00,val
607,167.05770874023438,164.0,2021-01-22 04:29:55.278000+00:00,val
608,166.95216369628906,164.0,2021-01-22 04:30:55.278000+00:00,val
609,166.8490447998047,164.0,2021-01-22 04:31:55.278000+00:00,val
610,166.74839782714844,164.0,2021-01-22 04:32:55.278000+00:00,val
611,166.65011596679688,164.0,2021-01-22 04:33:55.278000+00:00,val
612,166.55419921875,164.0,2021-01-22 04:34:55.278000+00:00,val
613,166.460693359375,164.0,2021-01-22 04:35:55.278000+00:00,val
614,166.3695068359375,164.0,2021-01-22 04:36:55.278000+00:00,val
615,166.28073120117188,164.0,2021-01-22 04:37:55.278000+00:00,val
616,166.19432067871094,164.0,2021-01-22 04:38:55.278000+00:00,val
617,166.1102752685547,164.0,2021-01-22 04:39:55.278000+00:00,val
618,166.02867126464844,164.0,2021-01-22 04:40:55.278000+00:00,val
619,165.94949340820312,164.0,2021-01-22 04:41:55.278000+00:00,val
620,165.87277221679688,164.0,2021-01-22 04:42:55.278000+00:00,val
621,165.7986297607422,164.0,2021-01-22 04:43:55.278000+00:00,val
622,165.72706604003906,166.0,2021-01-22 04:44:55.278000+00:00,val
623,165.65817260742188,166.0,2021-01-22 04:45:55.278000+00:00,val
624,165.61839294433594,166.0,2021-01-22 04:46:55.278000+00:00,val
625,165.57864379882812,166.0,2021-01-22 04:47:55.278000+00:00,val
626,165.53916931152344,166.0,2021-01-22 04:48:55.278000+00:00,val
627,165.50009155273438,163.0,2021-01-22 04:49:55.278000+00:00,val
628,165.4613494873047,160.0,2021-01-22 04:50:55.278000+00:00,val
629,165.36566162109375,160.0,2021-01-22 04:51:55.278000+00:00,val
630,165.19053649902344,160.0,2021-01-22 04:52:55.278000+00:00,val
631,165.0200653076172,160.0,2021-01-22 04:53:55.278000+00:00,val
632,164.8538055419922,160.0,2021-01-22 04:54:55.278000+00:00,val
633,164.69155883789062,160.0,2021-01-22 04:55:55.278000+00:00,val
634,164.53309631347656,160.0,2021-01-22 04:56:55.278000+00:00,val
635,164.3780517578125,160.0,2021-01-22 04:57:55.278000+00:00,val
636,164.22630310058594,160.0,2021-01-22 04:58:55.278000+00:00,val
637,164.07769775390625,161.0,2021-01-22 04:59:55.278000+00:00,val
638,163.93197631835938,162.0,2021-01-22 05:00:55.278000+00:00,val
639,163.81358337402344,162.0,2021-01-22 05:01:55.278000+00:00,val
640,163.72023010253906,162.0,2021-01-22 05:02:55.278000+00:00,val
641,163.62875366210938,162.0,2021-01-22 05:03:55.278000+00:00,val
642,163.53921508789062,162.0,2021-01-22 05:04:55.278000+00:00,val
643,163.45169067382812,162.0,2021-01-22 05:05:55.278000+00:00,val
644,163.3661346435547,162.0,2021-01-22 05:06:55.278000+00:00,val
645,163.28257751464844,162.0,2021-01-22 05:07:55.278000+00:00,val
646,163.20108032226562,162.0,2021-01-22 05:08:55.278000+00:00,val
647,163.12158203125,162.0,2021-01-22 05:09:55.278000+00:00,val
648,163.044189453125,162.0,2021-01-22 05:10:55.278000+00:00,val
649,162.9688720703125,162.0,2021-01-22 05:11:55.278000+00:00,val
650,162.89566040039062,162.0,2021-01-22 05:12:55.278000+00:00,val
651,162.82461547851562,162.0,2021-01-22 05:13:55.278000+00:00,val
652,162.75576782226562,158.0,2021-01-22 05:14:55.278000+00:00,val
653,162.68911743164062,158.0,2021-01-22 05:15:55.278000+00:00,val
654,162.53138732910156,158.0,2021-01-22 05:16:55.278000+00:00,test
655,162.3777313232422,158.0,2021-01-22 05:17:55.278000+00:00,test
656,162.2281036376953,158.0,2021-01-22 05:18:55.278000+00:00,test
657,162.1017303466797,158.0,2021-01-22 05:19:55.278000+00:00,test
658,161.98080444335938,158.0,2021-01-22 05:20:55.278000+00:00,test
659,161.8655548095703,158.0,2021-01-22 05:21:55.278000+00:00,test
660,161.72100830078125,158.0,2021-01-22 05:22:55.278000+00:00,test
661,161.57948303222656,158.0,2021-01-22 05:23:55.278000+00:00,test
662,161.44073486328125,158.0,2021-01-22 05:24:55.278000+00:00,test
663,161.30470275878906,158.0,2021-01-22 05:25:55.278000+00:00,test
664,161.1713409423828,158.0,2021-01-22 05:26:55.278000+00:00,test
665,161.04049682617188,158.0,2021-01-22 05:27:55.278000+00:00,test
666,160.9120635986328,158.0,2021-01-22 05:28:55.278000+00:00,test
667,160.7860107421875,158.0,2021-01-22 05:29:55.278000+00:00,test
668,160.66217041015625,158.0,2021-01-22 05:30:55.278000+00:00,test
669,160.5404815673828,158.0,2021-01-22 05:31:55.278000+00:00,test
670,160.42091369628906,158.0,2021-01-22 05:32:55.278000+00:00,test
671,160.3033447265625,158.0,2021-01-22 05:33:55.278000+00:00,test
672,160.18777465820312,158.0,2021-01-22 05:34:55.278000+00:00,test
673,160.07415771484375,157.0,2021-01-22 05:35:55.278000+00:00,test
674,159.96241760253906,154.0,2021-01-22 05:36:55.278000+00:00,test
675,159.831787109375,154.0,2021-01-22 05:37:55.278000+00:00,test
676,159.62876892089844,154.0,2021-01-22 05:38:55.278000+00:00,test
677,159.43093872070312,154.0,2021-01-22 05:39:55.278000+00:00,test
678,159.23806762695312,154.0,2021-01-22 05:40:55.278000+00:00,test
679,159.05003356933594,154.0,2021-01-22 05:41:55.278000+00:00,test
680,158.86672973632812,154.0,2021-01-22 05:42:55.278000+00:00,test
681,158.68801879882812,154.0,2021-01-22 05:43:55.278000+00:00,test
682,158.5138397216797,154.0,2021-01-22 05:44:55.278000+00:00,test
683,158.34405517578125,154.0,2021-01-22 05:45:55.278000+00:00,test
684,158.17860412597656,154.0,2021-01-22 05:46:55.278000+00:00,test
685,158.01747131347656,154.0,2021-01-22 05:47:55.278000+00:00,test
686,157.86058044433594,154.0,2021-01-22 05:48:55.278000+00:00,test
687,157.7078857421875,154.0,2021-01-22 05:49:55.278000+00:00,test
688,157.55938720703125,154.0,2021-01-22 05:50:55.278000+00:00,test
689,157.41505432128906,156.0,2021-01-22 05:51:55.278000+00:00,test
690,157.27491760253906,156.0,2021-01-22 05:52:55.278000+00:00,test
691,157.18307495117188,156.0,2021-01-22 05:53:55.278000+00:00,test
692,157.094482421875,150.0,2021-01-22 05:54:55.278000+00:00,test
693,156.99285888671875,150.0,2021-01-22 05:55:55.278000+00:00,test
694,156.7420654296875,150.0,2021-01-22 05:56:55.278000+00:00,test
695,156.49786376953125,150.0,2021-01-22 05:57:55.278000+00:00,test
696,156.2596893310547,150.0,2021-01-22 05:58:55.278000+00:00,test
697,156.0271759033203,150.0,2021-01-22 05:59:55.278000+00:00,test
698,155.800048828125,150.0,2021-01-22 06:00:55.278000+00:00,test
699,155.57803344726562,150.0,2021-01-22 06:01:55.278000+00:00,test
700,155.36090087890625,150.0,2021-01-22 06:02:55.278000+00:00,test
701,155.14846801757812,150.0,2021-01-22 06:03:55.278000+00:00,test
702,154.94052124023438,152.0,2021-01-22 06:04:55.278000+00:00,test
703,154.7369384765625,152.0,2021-01-22 06:05:55.278000+00:00,test
704,154.58546447753906,152.0,2021-01-22 06:06:55.278000+00:00,test
705,154.4365997314453,152.0,2021-01-22 06:07:55.278000+00:00,test
706,154.2904815673828,152.0,2021-01-22 06:08:55.278000+00:00,test
707,154.1471405029297,150.0,2021-01-22 06:09:55.278000+00:00,test
708,154.00927734375,148.0,2021-01-22 06:10:55.278000+00:00,test
709,153.833984375,148.0,2021-01-22 06:11:55.278000+00:00,test
710,153.61224365234375,148.0,2021-01-22 06:12:55.278000+00:00,test
711,153.39622497558594,148.0,2021-01-22 06:13:55.278000+00:00,test
712,153.18580627441406,148.0,2021-01-22 06:14:55.278000+00:00,test
713,152.9808807373047,148.0,2021-01-22 06:15:55.278000+00:00,test
714,152.78143310546875,148.0,2021-01-22 06:16:55.278000+00:00,test
715,152.58738708496094,148.0,2021-01-22 06:17:55.278000+00:00,test
716,152.39866638183594,148.0,2021-01-22 06:18:55.278000+00:00,test
717,152.21533203125,148.0,2021-01-22 06:19:55.278000+00:00,test
718,152.03732299804688,148.0,2021-01-22 06:20:55.278000+00:00,test
719,151.8646240234375,148.0,2021-01-22 06:21:55.278000+00:00,test
720,151.69728088378906,144.0,2021-01-22 06:22:55.278000+00:00,test
721,151.53533935546875,144.0,2021-01-22 06:23:55.278000+00:00,test
722,151.27244567871094,144.0,2021-01-22 06:24:55.278000+00:00,test
