,prediction,real,time,split
0,158.63897705078125,158.0,2021-01-21 17:54:55.278000+00:00,train
1,158.4938507080078,158.0,2021-01-21 17:55:55.278000+00:00,train
2,158.3862762451172,158.0,2021-01-21 17:56:55.278000+00:00,train
3,158.28140258789062,158.0,2021-01-21 17:57:55.278000+00:00,train
4,158.17904663085938,158.0,2021-01-21 17:58:55.278000+00:00,train
5,158.07899475097656,159.0,2021-01-21 17:59:55.278000+00:00,train
6,157.9514617919922,160.0,2021-01-21 18:00:55.278000+00:00,train
7,157.8113250732422,160.0,2021-01-21 18:01:55.278000+00:00,train
8,157.67576599121094,160.0,2021-01-21 18:02:55.278000+00:00,train
9,157.5445556640625,160.0,2021-01-21 18:03:55.278000+00:00,train
10,157.41738891601562,160.0,2021-01-21 18:04:55.278000+00:00,train
11,157.29409790039062,160.0,2021-01-21 18:05:55.278000+00:00,train
12,157.1744384765625,160.0,2021-01-21 18:06:55.278000+00:00,train
13,157.05824279785156,160.0,2021-01-21 18:07:55.278000+00:00,train
14,156.94537353515625,160.0,2021-01-21 18:08:55.278000+00:00,train
15,156.83567810058594,160.0,2021-01-21 18:09:55.278000+00:00,train
16,156.7290496826172,160.0,2021-01-21 18:10:55.278000+00:00,train
17,156.6253204345703,160.0,2021-01-21 18:11:55.278000+00:00,train
18,156.52442932128906,160.0,2021-01-21 18:12:55.278000+00:00,train
19,156.46664428710938,160.0,2021-01-21 18:13:55.278000+00:00,train
20,156.44126892089844,160.0,2021-01-21 18:14:55.278000+00:00,train
21,156.42922973632812,160.0,2021-01-21 18:15:55.278000+00:00,train
22,156.4195556640625,156.0,2021-01-21 18:16:55.278000+00:00,train
23,156.41229248046875,156.0,2021-01-21 18:17:55.278000+00:00,train
24,156.40753173828125,154.0,2021-01-21 18:18:55.278000+00:00,train
25,156.40528869628906,154.0,2021-01-21 18:19:55.278000+00:00,train
26,156.40567016601562,156.0,2021-01-21 18:20:55.278000+00:00,train
27,156.4087371826172,156.0,2021-01-21 18:21:55.278000+00:00,train
28,156.41458129882812,156.0,2021-01-21 18:22:55.278000+00:00,train
29,156.42333984375,156.0,2021-01-21 18:23:55.278000+00:00,train
30,156.43504333496094,156.0,2021-01-21 18:24:55.278000+00:00,train
31,156.44985961914062,156.0,2021-01-21 18:25:55.278000+00:00,train
32,156.46792602539062,156.0,2021-01-21 18:26:55.278000+00:00,train
33,156.48939514160156,156.0,2021-01-21 18:27:55.278000+00:00,train
34,156.514404296875,156.0,2021-01-21 18:28:55.278000+00:00,train
35,156.54315185546875,156.0,2021-01-21 18:29:55.278000+00:00,train
36,156.50038146972656,156.0,2021-01-21 18:30:55.278000+00:00,train
37,156.47540283203125,156.0,2021-01-21 18:31:55.278000+00:00,train
38,156.31243896484375,156.0,2021-01-21 18:32:55.278000+00:00,train
39,156.17279052734375,156.0,2021-01-21 18:33:55.278000+00:00,train
40,156.09364318847656,156.0,2021-01-21 18:34:55.278000+00:00,train
41,155.9540252685547,156.0,2021-01-21 18:35:55.278000+00:00,train
42,155.82200622558594,156.0,2021-01-21 18:36:55.278000+00:00,train
43,155.69435119628906,156.0,2021-01-21 18:37:55.278000+00:00,train
44,155.57083129882812,156.0,2021-01-21 18:38:55.278000+00:00,train
45,155.4512176513672,156.0,2021-01-21 18:39:55.278000+00:00,train
46,155.33531188964844,158.0,2021-01-21 18:40:55.278000+00:00,train
47,155.22293090820312,158.0,2021-01-21 18:41:55.278000+00:00,train
48,155.1138916015625,158.0,2021-01-21 18:42:55.278000+00:00,train
49,155.00807189941406,158.0,2021-01-21 18:43:55.278000+00:00,train
50,154.90533447265625,158.0,2021-01-21 18:44:55.278000+00:00,train
51,154.80555725097656,158.0,2021-01-21 18:45:55.278000+00:00,train
52,154.7086639404297,158.0,2021-01-21 18:46:55.278000+00:00,train
53,154.61448669433594,158.0,2021-01-21 18:47:55.278000+00:00,train
54,154.52296447753906,158.0,2021-01-21 18:48:55.278000+00:00,train
55,154.43397521972656,158.0,2021-01-21 18:49:55.278000+00:00,train
56,154.35076904296875,158.0,2021-01-21 18:50:55.278000+00:00,train
57,154.28506469726562,158.0,2021-01-21 18:51:55.278000+00:00,train
58,154.22396850585938,156.0,2021-01-21 18:52:55.278000+00:00,train
59,154.16749572753906,154.0,2021-01-21 18:53:55.278000+00:00,train
60,154.17481994628906,153.0,2021-01-21 18:54:55.278000+00:00,train
61,154.18479919433594,152.0,2021-01-21 18:55:55.278000+00:00,train
62,154.1975555419922,152.0,2021-01-21 18:56:55.278000+00:00,train
63,154.21319580078125,153.0,2021-01-21 18:57:55.278000+00:00,train
64,154.23184204101562,154.0,2021-01-21 18:58:55.278000+00:00,train
65,154.25360107421875,154.0,2021-01-21 18:59:55.278000+00:00,train
66,154.2786407470703,154.0,2021-01-21 19:00:55.278000+00:00,train
67,154.30712890625,154.0,2021-01-21 19:01:55.278000+00:00,train
68,154.3392333984375,154.0,2021-01-21 19:02:55.278000+00:00,train
69,154.37521362304688,154.0,2021-01-21 19:03:55.278000+00:00,train
70,154.41525268554688,154.0,2021-01-21 19:04:55.278000+00:00,train
71,154.45965576171875,154.0,2021-01-21 19:05:55.278000+00:00,train
72,154.45689392089844,154.0,2021-01-21 19:06:55.278000+00:00,train
73,154.36097717285156,154.0,2021-01-21 19:07:55.278000+00:00,train
74,154.20851135253906,154.0,2021-01-21 19:08:55.278000+00:00,train
75,153.99327087402344,154.0,2021-01-21 19:09:55.278000+00:00,train
76,153.79539489746094,154.0,2021-01-21 19:10:55.278000+00:00,train
77,153.68441772460938,154.0,2021-01-21 19:11:55.278000+00:00,train
78,153.64395141601562,154.0,2021-01-21 19:12:55.278000+00:00,train
79,153.5359344482422,154.0,2021-01-21 19:13:55.278000+00:00,train
80,153.43017578125,154.0,2021-01-21 19:14:55.278000+00:00,train
81,153.3278350830078,154.0,2021-01-21 19:15:55.278000+00:00,train
82,153.22877502441406,154.0,2021-01-21 19:16:55.278000+00:00,train
83,153.13287353515625,154.0,2021-01-21 19:17:55.278000+00:00,train
84,153.0399932861328,154.0,2021-01-21 19:18:55.278000+00:00,train
85,152.9500732421875,154.0,2021-01-21 19:19:55.278000+00:00,train
86,152.86302185058594,154.0,2021-01-21 19:20:55.278000+00:00,train
87,152.7787628173828,154.0,2021-01-21 19:21:55.278000+00:00,train
88,152.69725036621094,156.0,2021-01-21 19:22:55.278000+00:00,train
89,152.61839294433594,156.0,2021-01-21 19:23:55.278000+00:00,train
90,152.54217529296875,156.0,2021-01-21 19:24:55.278000+00:00,train
91,152.4685821533203,156.0,2021-01-21 19:25:55.278000+00:00,train
92,152.39759826660156,156.0,2021-01-21 19:26:55.278000+00:00,train
93,152.3292236328125,151.0,2021-01-21 19:27:55.278000+00:00,train
94,152.26348876953125,150.0,2021-01-21 19:28:55.278000+00:00,train
95,152.20045471191406,150.0,2021-01-21 19:29:55.278000+00:00,train
96,152.14019775390625,150.0,2021-01-21 19:30:55.278000+00:00,train
97,152.0828094482422,150.0,2021-01-21 19:31:55.278000+00:00,train
98,152.02838134765625,150.0,2021-01-21 19:32:55.278000+00:00,train
99,151.98646545410156,150.0,2021-01-21 19:33:55.278000+00:00,train
100,151.96902465820312,150.0,2021-01-21 19:34:55.278000+00:00,train
101,151.95860290527344,150.0,2021-01-21 19:35:55.278000+00:00,train
102,152.0024871826172,150.0,2021-01-21 19:36:55.278000+00:00,train
103,152.0530242919922,152.0,2021-01-21 19:37:55.278000+00:00,train
104,152.11154174804688,152.0,2021-01-21 19:38:55.278000+00:00,train
105,152.1799774169922,152.0,2021-01-21 19:39:55.278000+00:00,train
106,152.26132202148438,152.0,2021-01-21 19:40:55.278000+00:00,train
107,152.18136596679688,152.0,2021-01-21 19:41:55.278000+00:00,train
108,152.07632446289062,152.0,2021-01-21 19:42:55.278000+00:00,train
109,152.02748107910156,152.0,2021-01-21 19:43:55.278000+00:00,train
110,152.05584716796875,152.0,2021-01-21 19:44:55.278000+00:00,train
111,152.19366455078125,152.0,2021-01-21 19:45:55.278000+00:00,train
112,152.48033142089844,152.0,2021-01-21 19:46:55.278000+00:00,train
113,152.94920349121094,152.0,2021-01-21 19:47:55.278000+00:00,train
114,153.60733032226562,152.0,2021-01-21 19:48:55.278000+00:00,train
115,154.3866424560547,152.0,2021-01-21 19:49:55.278000+00:00,train
116,155.12554931640625,152.0,2021-01-21 19:50:55.278000+00:00,train
117,155.80433654785156,153.0,2021-01-21 19:51:55.278000+00:00,train
118,156.35118103027344,154.0,2021-01-21 19:52:55.278000+00:00,train
119,156.78549194335938,154.0,2021-01-21 19:53:55.278000+00:00,train
120,157.1114044189453,154.0,2021-01-21 19:54:55.278000+00:00,train
121,157.3494415283203,154.0,2021-01-21 19:55:55.278000+00:00,train
122,157.5212860107422,154.0,2021-01-21 19:56:55.278000+00:00,train
123,157.64306640625,156.0,2021-01-21 19:57:55.278000+00:00,train
124,157.72718811035156,156.0,2021-01-21 19:58:55.278000+00:00,train
125,157.7822265625,156.0,2021-01-21 19:59:55.278000+00:00,train
126,157.8150177001953,156.0,2021-01-21 20:00:55.278000+00:00,train
127,157.83132934570312,156.0,2021-01-21 20:01:55.278000+00:00,train
128,157.8350830078125,156.0,2021-01-21 20:02:55.278000+00:00,train
129,157.82896423339844,156.0,2021-01-21 20:03:55.278000+00:00,train
130,157.81475830078125,156.0,2021-01-21 20:04:55.278000+00:00,train
131,157.794189453125,156.0,2021-01-21 20:05:55.278000+00:00,train
132,157.7771453857422,158.0,2021-01-21 20:06:55.278000+00:00,train
133,157.75611877441406,158.0,2021-01-21 20:07:55.278000+00:00,train
134,157.73170471191406,158.0,2021-01-21 20:08:55.278000+00:00,train
135,157.70443725585938,158.0,2021-01-21 20:09:55.278000+00:00,train
136,157.67469787597656,158.0,2021-01-21 20:10:55.278000+00:00,train
137,157.6872100830078,158.0,2021-01-21 20:11:55.278000+00:00,train
138,157.69821166992188,158.0,2021-01-21 20:12:55.278000+00:00,train
139,157.7080078125,158.0,2021-01-21 20:13:55.278000+00:00,train
140,157.63839721679688,159.0,2021-01-21 20:14:55.278000+00:00,train
141,157.5664825439453,160.0,2021-01-21 20:15:55.278000+00:00,train
142,157.49232482910156,160.0,2021-01-21 20:16:55.278000+00:00,train
143,157.41604614257812,158.0,2021-01-21 20:17:55.278000+00:00,train
144,157.33766174316406,156.0,2021-01-21 20:18:55.278000+00:00,train
145,157.2572021484375,156.0,2021-01-21 20:19:55.278000+00:00,train
146,157.26193237304688,156.0,2021-01-21 20:20:55.278000+00:00,train
147,157.2663116455078,156.0,2021-01-21 20:21:55.278000+00:00,train
148,157.27040100097656,156.0,2021-01-21 20:22:55.278000+00:00,train
149,157.27423095703125,156.0,2021-01-21 20:23:55.278000+00:00,train
150,157.27786254882812,156.0,2021-01-21 20:24:55.278000+00:00,train
151,157.2813262939453,156.0,2021-01-21 20:25:55.278000+00:00,train
152,157.37083435058594,156.0,2021-01-21 20:26:55.278000+00:00,train
153,157.50575256347656,156.0,2021-01-21 20:27:55.278000+00:00,train
154,157.69992065429688,156.0,2021-01-21 20:28:55.278000+00:00,train
155,157.94656372070312,156.0,2021-01-21 20:29:55.278000+00:00,train
156,158.18170166015625,157.0,2021-01-21 20:30:55.278000+00:00,train
157,158.30421447753906,158.0,2021-01-21 20:31:55.278000+00:00,train
158,158.34628295898438,158.0,2021-01-21 20:32:55.278000+00:00,train
159,158.38787841796875,158.0,2021-01-21 20:33:55.278000+00:00,train
160,158.42901611328125,158.0,2021-01-21 20:34:55.278000+00:00,train
161,158.4696502685547,158.0,2021-01-21 20:35:55.278000+00:00,train
162,158.5098419189453,158.0,2021-01-21 20:36:55.278000+00:00,train
163,158.54957580566406,158.0,2021-01-21 20:37:55.278000+00:00,train
164,158.5888214111328,158.0,2021-01-21 20:38:55.278000+00:00,train
165,158.62767028808594,160.0,2021-01-21 20:39:55.278000+00:00,train
166,158.66604614257812,160.0,2021-01-21 20:40:55.278000+00:00,train
167,158.70399475097656,160.0,2021-01-21 20:41:55.278000+00:00,train
168,158.7415008544922,160.0,2021-01-21 20:42:55.278000+00:00,train
169,158.77854919433594,160.0,2021-01-21 20:43:55.278000+00:00,train
170,158.8437042236328,160.0,2021-01-21 20:44:55.278000+00:00,train
171,158.94369506835938,160.0,2021-01-21 20:45:55.278000+00:00,train
172,159.04168701171875,160.0,2021-01-21 20:46:55.278000+00:00,train
173,159.13771057128906,161.0,2021-01-21 20:47:55.278000+00:00,train
174,159.23184204101562,162.0,2021-01-21 20:48:55.278000+00:00,train
175,159.32411193847656,162.0,2021-01-21 20:49:55.278000+00:00,train
176,159.41455078125,162.0,2021-01-21 20:50:55.278000+00:00,train
177,159.50323486328125,162.0,2021-01-21 20:51:55.278000+00:00,train
178,159.59014892578125,162.0,2021-01-21 20:52:55.278000+00:00,train
179,159.7599639892578,162.0,2021-01-21 20:53:55.278000+00:00,train
180,159.92489624023438,162.0,2021-01-21 20:54:55.278000+00:00,train
181,160.08517456054688,162.0,2021-01-21 20:55:55.278000+00:00,train
182,160.21865844726562,164.0,2021-01-21 20:56:55.278000+00:00,train
183,160.34957885742188,164.0,2021-01-21 20:57:55.278000+00:00,train
184,160.47802734375,164.0,2021-01-21 20:58:55.278000+00:00,train
185,160.60418701171875,164.0,2021-01-21 20:59:55.278000+00:00,train
186,160.7281036376953,164.0,2021-01-21 21:00:55.278000+00:00,train
187,160.89344787597656,164.0,2021-01-21 21:01:55.278000+00:00,train
188,161.08006286621094,164.0,2021-01-21 21:02:55.278000+00:00,train
189,161.25474548339844,164.0,2021-01-21 21:03:55.278000+00:00,train
190,161.41761779785156,165.0,2021-01-21 21:04:55.278000+00:00,train
191,161.5687255859375,166.0,2021-01-21 21:05:55.278000+00:00,train
192,161.7080535888672,166.0,2021-01-21 21:06:55.278000+00:00,train
193,161.83546447753906,166.0,2021-01-21 21:07:55.278000+00:00,train
194,161.9508056640625,166.0,2021-01-21 21:08:55.278000+00:00,train
195,162.05377197265625,166.0,2021-01-21 21:09:55.278000+00:00,train
196,162.2514190673828,166.0,2021-01-21 21:10:55.278000+00:00,train
197,162.48764038085938,166.0,2021-01-21 21:11:55.278000+00:00,train
198,162.7110137939453,166.0,2021-01-21 21:12:55.278000+00:00,train
199,162.92196655273438,166.0,2021-01-21 21:13:55.278000+00:00,train
200,163.1318817138672,166.0,2021-01-21 21:14:55.278000+00:00,train
201,163.31927490234375,166.0,2021-01-21 21:15:55.278000+00:00,train
202,163.49501037597656,165.0,2021-01-21 21:16:55.278000+00:00,train
203,163.65928649902344,163.0,2021-01-21 21:17:55.278000+00:00,train
204,163.8650665283203,162.0,2021-01-21 21:18:55.278000+00:00,train
205,164.114990234375,162.0,2021-01-21 21:19:55.278000+00:00,train
206,164.3490447998047,162.0,2021-01-21 21:20:55.278000+00:00,train
207,164.56764221191406,162.0,2021-01-21 21:21:55.278000+00:00,train
208,164.7710723876953,162.0,2021-01-21 21:22:55.278000+00:00,train
209,164.9595184326172,164.0,2021-01-21 21:23:55.278000+00:00,train
210,165.133056640625,164.0,2021-01-21 21:24:55.278000+00:00,train
211,165.32057189941406,164.0,2021-01-21 21:25:55.278000+00:00,train
212,165.51870727539062,164.0,2021-01-21 21:26:55.278000+00:00,train
213,165.7057647705078,164.0,2021-01-21 21:27:55.278000+00:00,train
214,165.88189697265625,164.0,2021-01-21 21:28:55.278000+00:00,train
215,166.04721069335938,164.0,2021-01-21 21:29:55.278000+00:00,train
216,166.1566619873047,164.0,2021-01-21 21:30:55.278000+00:00,train
217,166.22250366210938,164.0,2021-01-21 21:31:55.278000+00:00,train
218,166.2581329345703,164.0,2021-01-21 21:32:55.278000+00:00,train
219,166.29061889648438,164.0,2021-01-21 21:33:55.278000+00:00,train
220,166.31997680664062,165.0,2021-01-21 21:34:55.278000+00:00,train
221,166.34603881835938,166.0,2021-01-21 21:35:55.278000+00:00,train
222,166.36874389648438,166.0,2021-01-21 21:36:55.278000+00:00,train
223,166.4435272216797,166.0,2021-01-21 21:37:55.278000+00:00,train
224,166.51303100585938,166.0,2021-01-21 21:38:55.278000+00:00,train
225,166.57720947265625,166.0,2021-01-21 21:39:55.278000+00:00,train
226,166.66082763671875,166.0,2021-01-21 21:40:55.278000+00:00,train
227,166.74151611328125,166.0,2021-01-21 21:41:55.278000+00:00,train
228,166.81932067871094,166.0,2021-01-21 21:42:55.278000+00:00,train
229,166.89425659179688,166.0,2021-01-21 21:43:55.278000+00:00,train
230,166.9662628173828,166.0,2021-01-21 21:44:55.278000+00:00,train
231,167.03533935546875,167.0,2021-01-21 21:45:55.278000+00:00,train
232,167.1014862060547,168.0,2021-01-21 21:46:55.278000+00:00,train
233,167.16468811035156,168.0,2021-01-21 21:47:55.278000+00:00,train
234,167.26358032226562,168.0,2021-01-21 21:48:55.278000+00:00,train
235,167.3977508544922,168.0,2021-01-21 21:49:55.278000+00:00,train
236,167.52853393554688,168.0,2021-01-21 21:50:55.278000+00:00,train
237,167.64706420898438,168.0,2021-01-21 21:51:55.278000+00:00,train
238,167.724365234375,168.0,2021-01-21 21:52:55.278000+00:00,train
239,167.79315185546875,168.0,2021-01-21 21:53:55.278000+00:00,train
240,167.85317993164062,168.0,2021-01-21 21:54:55.278000+00:00,train
241,167.9040985107422,168.0,2021-01-21 21:55:55.278000+00:00,train
242,167.94554138183594,169.0,2021-01-21 21:56:55.278000+00:00,train
243,167.9770965576172,170.0,2021-01-21 21:57:55.278000+00:00,train
244,167.99819946289062,170.0,2021-01-21 21:58:55.278000+00:00,train
245,168.0474090576172,170.0,2021-01-21 21:59:55.278000+00:00,train
246,168.12973022460938,170.0,2021-01-21 22:00:55.278000+00:00,train
247,168.19802856445312,170.0,2021-01-21 22:01:55.278000+00:00,train
248,168.25149536132812,170.0,2021-01-21 22:02:55.278000+00:00,train
249,168.28927612304688,170.0,2021-01-21 22:03:55.278000+00:00,train
250,168.3519744873047,170.0,2021-01-21 22:04:55.278000+00:00,train
251,168.43675231933594,170.0,2021-01-21 22:05:55.278000+00:00,train
252,168.5113067626953,170.0,2021-01-21 22:06:55.278000+00:00,train
253,168.5752716064453,171.0,2021-01-21 22:07:55.278000+00:00,train
254,168.6282196044922,172.0,2021-01-21 22:08:55.278000+00:00,train
255,168.66961669921875,172.0,2021-01-21 22:09:55.278000+00:00,train
256,168.7471466064453,170.0,2021-01-21 22:10:55.278000+00:00,train
257,168.86683654785156,168.0,2021-01-21 22:11:55.278000+00:00,train
258,168.97091674804688,166.0,2021-01-21 22:12:55.278000+00:00,train
259,169.1310577392578,166.0,2021-01-21 22:13:55.278000+00:00,train
260,169.2875213623047,166.0,2021-01-21 22:14:55.278000+00:00,train
261,169.4264678955078,166.0,2021-01-21 22:15:55.278000+00:00,train
262,169.554931640625,166.0,2021-01-21 22:16:55.278000+00:00,train
263,169.67294311523438,167.0,2021-01-21 22:17:55.278000+00:00,train
264,169.78042602539062,168.0,2021-01-21 22:18:55.278000+00:00,train
265,169.87721252441406,168.0,2021-01-21 22:19:55.278000+00:00,train
266,169.96304321289062,168.0,2021-01-21 22:20:55.278000+00:00,train
267,170.12391662597656,168.0,2021-01-21 22:21:55.278000+00:00,train
268,170.35812377929688,168.0,2021-01-21 22:22:55.278000+00:00,train
269,170.5796356201172,168.0,2021-01-21 22:23:55.278000+00:00,train
270,170.6834716796875,168.0,2021-01-21 22:24:55.278000+00:00,train
271,170.7079620361328,168.0,2021-01-21 22:25:55.278000+00:00,train
272,170.688720703125,168.0,2021-01-21 22:26:55.278000+00:00,train
273,170.6666259765625,168.0,2021-01-21 22:27:55.278000+00:00,train
274,170.64154052734375,168.0,2021-01-21 22:28:55.278000+00:00,train
275,170.6133270263672,170.0,2021-01-21 22:29:55.278000+00:00,train
276,170.61639404296875,170.0,2021-01-21 22:30:55.278000+00:00,train
277,170.63294982910156,170.0,2021-01-21 22:31:55.278000+00:00,train
278,170.6710205078125,170.0,2021-01-21 22:32:55.278000+00:00,train
279,170.70726013183594,170.0,2021-01-21 22:33:55.278000+00:00,train
280,170.73373413085938,170.0,2021-01-21 22:34:55.278000+00:00,train
281,170.76568603515625,170.0,2021-01-21 22:35:55.278000+00:00,train
282,170.7957305908203,170.0,2021-01-21 22:36:55.278000+00:00,train
283,170.8238067626953,170.0,2021-01-21 22:37:55.278000+00:00,train
284,170.8576202392578,170.0,2021-01-21 22:38:55.278000+00:00,train
285,170.8889923095703,170.0,2021-01-21 22:39:55.278000+00:00,train
286,170.91989135742188,171.0,2021-01-21 22:40:55.278000+00:00,train
287,170.95030212402344,172.0,2021-01-21 22:41:55.278000+00:00,train
288,170.98025512695312,172.0,2021-01-21 22:42:55.278000+00:00,train
289,171.07437133789062,172.0,2021-01-21 22:43:55.278000+00:00,train
290,171.16627502441406,172.0,2021-01-21 22:44:55.278000+00:00,train
291,171.25601196289062,172.0,2021-01-21 22:45:55.278000+00:00,train
292,171.34361267089844,172.0,2021-01-21 22:46:55.278000+00:00,train
293,171.4291534423828,172.0,2021-01-21 22:47:55.278000+00:00,train
294,171.51266479492188,172.0,2021-01-21 22:48:55.278000+00:00,train
295,171.59417724609375,172.0,2021-01-21 22:49:55.278000+00:00,train
296,171.67173767089844,172.0,2021-01-21 22:50:55.278000+00:00,train
297,171.71490478515625,172.0,2021-01-21 22:51:55.278000+00:00,train
298,171.72145080566406,174.0,2021-01-21 22:52:55.278000+00:00,train
299,171.71856689453125,174.0,2021-01-21 22:53:55.278000+00:00,train
300,171.74514770507812,174.0,2021-01-21 22:54:55.278000+00:00,train
301,171.80850219726562,174.0,2021-01-21 22:55:55.278000+00:00,train
302,171.8588409423828,174.0,2021-01-21 22:56:55.278000+00:00,train
303,171.9669647216797,174.0,2021-01-21 22:57:55.278000+00:00,train
304,172.06736755371094,174.0,2021-01-21 22:58:55.278000+00:00,train
305,172.16001892089844,174.0,2021-01-21 22:59:55.278000+00:00,train
306,172.24490356445312,174.0,2021-01-21 23:00:55.278000+00:00,train
307,172.32191467285156,174.0,2021-01-21 23:01:55.278000+00:00,train
308,172.39089965820312,174.0,2021-01-21 23:02:55.278000+00:00,train
309,172.45164489746094,172.0,2021-01-21 23:03:55.278000+00:00,train
310,172.50393676757812,170.0,2021-01-21 23:04:55.278000+00:00,train
311,172.54742431640625,170.0,2021-01-21 23:05:55.278000+00:00,train
312,172.69140625,170.0,2021-01-21 23:06:55.278000+00:00,train
313,172.8226318359375,170.0,2021-01-21 23:07:55.278000+00:00,train
314,172.97511291503906,170.0,2021-01-21 23:08:55.278000+00:00,train
315,173.1413116455078,170.0,2021-01-21 23:09:55.278000+00:00,train
316,173.298583984375,170.0,2021-01-21 23:10:55.278000+00:00,train
317,173.44729614257812,170.0,2021-01-21 23:11:55.278000+00:00,train
318,173.58773803710938,170.0,2021-01-21 23:12:55.278000+00:00,train
319,173.72015380859375,170.0,2021-01-21 23:13:55.278000+00:00,train
320,173.8458251953125,170.0,2021-01-21 23:14:55.278000+00:00,train
321,173.9627227783203,170.0,2021-01-21 23:15:55.278000+00:00,train
322,174.072021484375,171.0,2021-01-21 23:16:55.278000+00:00,train
323,174.0928192138672,172.0,2021-01-21 23:17:55.278000+00:00,train
324,174.06556701660156,172.0,2021-01-21 23:18:55.278000+00:00,train
325,174.0570526123047,172.0,2021-01-21 23:19:55.278000+00:00,train
326,174.0597381591797,172.0,2021-01-21 23:20:55.278000+00:00,train
327,174.0616912841797,172.0,2021-01-21 23:21:55.278000+00:00,train
328,174.06289672851562,172.0,2021-01-21 23:22:55.278000+00:00,train
329,174.0634307861328,172.0,2021-01-21 23:23:55.278000+00:00,train
330,174.06320190429688,172.0,2021-01-21 23:24:55.278000+00:00,train
331,174.06224060058594,172.0,2021-01-21 23:25:55.278000+00:00,train
332,174.06051635742188,172.0,2021-01-21 23:26:55.278000+00:00,train
333,174.05801391601562,173.0,2021-01-21 23:27:55.278000+00:00,train
334,174.0547637939453,174.0,2021-01-21 23:28:55.278000+00:00,train
335,174.0507049560547,174.0,2021-01-21 23:29:55.278000+00:00,train
336,174.06593322753906,174.0,2021-01-21 23:30:55.278000+00:00,train
337,174.10023498535156,174.0,2021-01-21 23:31:55.278000+00:00,train
338,174.1334686279297,174.0,2021-01-21 23:32:55.278000+00:00,train
339,174.1654052734375,174.0,2021-01-21 23:33:55.278000+00:00,train
340,174.2040557861328,174.0,2021-01-21 23:34:55.278000+00:00,train
341,174.2357177734375,174.0,2021-01-21 23:35:55.278000+00:00,train
342,174.2664337158203,174.0,2021-01-21 23:36:55.278000+00:00,train
343,174.2963104248047,174.0,2021-01-21 23:37:55.278000+00:00,train
344,174.32534790039062,174.0,2021-01-21 23:38:55.278000+00:00,train
345,174.35350036621094,174.0,2021-01-21 23:39:55.278000+00:00,train
346,174.38084411621094,174.0,2021-01-21 23:40:55.278000+00:00,train
347,174.42588806152344,174.0,2021-01-21 23:41:55.278000+00:00,train
348,174.48756408691406,176.0,2021-01-21 23:42:55.278000+00:00,train
349,174.54713439941406,176.0,2021-01-21 23:43:55.278000+00:00,train
350,174.63735961914062,176.0,2021-01-21 23:44:55.278000+00:00,train
351,174.7169952392578,176.0,2021-01-21 23:45:55.278000+00:00,train
352,174.7446746826172,176.0,2021-01-21 23:46:55.278000+00:00,train
353,174.76339721679688,176.0,2021-01-21 23:47:55.278000+00:00,train
354,174.7726593017578,176.0,2021-01-21 23:48:55.278000+00:00,train
355,174.77194213867188,176.0,2021-01-21 23:49:55.278000+00:00,train
356,174.76071166992188,176.0,2021-01-21 23:50:55.278000+00:00,train
357,174.7768096923828,176.0,2021-01-21 23:51:55.278000+00:00,train
358,174.814208984375,176.0,2021-01-21 23:52:55.278000+00:00,train
359,174.84634399414062,174.0,2021-01-21 23:53:55.278000+00:00,train
360,174.87303161621094,172.0,2021-01-21 23:54:55.278000+00:00,train
361,174.89422607421875,172.0,2021-01-21 23:55:55.278000+00:00,train
362,175.00466918945312,172.0,2021-01-21 23:56:55.278000+00:00,train
363,175.10574340820312,172.0,2021-01-21 23:57:55.278000+00:00,train
364,175.1977081298828,172.0,2021-01-21 23:58:55.278000+00:00,train
365,175.280517578125,172.0,2021-01-21 23:59:55.278000+00:00,train
366,175.35433959960938,172.0,2021-01-22 00:00:55.278000+00:00,train
367,175.41920471191406,172.0,2021-01-22 00:01:55.278000+00:00,train
368,175.47520446777344,172.0,2021-01-22 00:02:55.278000+00:00,train
369,175.568115234375,172.0,2021-01-22 00:03:55.278000+00:00,train
370,175.6548614501953,172.0,2021-01-22 00:04:55.278000+00:00,train
371,175.73550415039062,172.0,2021-01-22 00:05:55.278000+00:00,train
372,175.81021118164062,172.0,2021-01-22 00:06:55.278000+00:00,train
373,175.80958557128906,172.0,2021-01-22 00:07:55.278000+00:00,train
374,175.77877807617188,172.0,2021-01-22 00:08:55.278000+00:00,train
375,175.7467041015625,173.0,2021-01-22 00:09:55.278000+00:00,train
376,175.71347045898438,174.0,2021-01-22 00:10:55.278000+00:00,train
377,175.6790771484375,174.0,2021-01-22 00:11:55.278000+00:00,train
378,175.6433563232422,174.0,2021-01-22 00:12:55.278000+00:00,train
379,175.6066131591797,174.0,2021-01-22 00:13:55.278000+00:00,train
380,175.57943725585938,174.0,2021-01-22 00:14:55.278000+00:00,train
381,175.5515594482422,174.0,2021-01-22 00:15:55.278000+00:00,train
382,175.5227813720703,174.0,2021-01-22 00:16:55.278000+00:00,train
383,175.49301147460938,174.0,2021-01-22 00:17:55.278000+00:00,train
384,175.46224975585938,174.0,2021-01-22 00:18:55.278000+00:00,train
385,175.43052673339844,174.0,2021-01-22 00:19:55.278000+00:00,train
386,175.39776611328125,174.0,2021-01-22 00:20:55.278000+00:00,train
387,175.36386108398438,174.0,2021-01-22 00:21:55.278000+00:00,train
388,175.32884216308594,174.0,2021-01-22 00:22:55.278000+00:00,train
389,175.29983520507812,175.0,2021-01-22 00:23:55.278000+00:00,train
390,175.28414916992188,176.0,2021-01-22 00:24:55.278000+00:00,train
391,175.26513671875,176.0,2021-01-22 00:25:55.278000+00:00,train
392,175.21478271484375,176.0,2021-01-22 00:26:55.278000+00:00,train
393,175.16249084472656,176.0,2021-01-22 00:27:55.278000+00:00,train
394,175.10855102539062,176.0,2021-01-22 00:28:55.278000+00:00,train
395,175.0532989501953,176.0,2021-01-22 00:29:55.278000+00:00,train
396,174.996826171875,176.0,2021-01-22 00:30:55.278000+00:00,train
397,174.93980407714844,176.0,2021-01-22 00:31:55.278000+00:00,train
398,174.883544921875,176.0,2021-01-22 00:32:55.278000+00:00,train
399,174.82977294921875,176.0,2021-01-22 00:33:55.278000+00:00,train
400,174.70425415039062,176.0,2021-01-22 00:34:55.278000+00:00,train
401,174.6414794921875,176.0,2021-01-22 00:35:55.278000+00:00,train
402,174.581298828125,176.0,2021-01-22 00:36:55.278000+00:00,train
403,174.57411193847656,176.0,2021-01-22 00:37:55.278000+00:00,train
404,174.59848022460938,178.0,2021-01-22 00:38:55.278000+00:00,train
405,174.62042236328125,178.0,2021-01-22 00:39:55.278000+00:00,train
406,174.64002990722656,178.0,2021-01-22 00:40:55.278000+00:00,train
407,174.65762329101562,172.0,2021-01-22 00:41:55.278000+00:00,train
408,174.67359924316406,172.0,2021-01-22 00:42:55.278000+00:00,train
409,174.68798828125,172.0,2021-01-22 00:43:55.278000+00:00,train
410,174.70108032226562,172.0,2021-01-22 00:44:55.278000+00:00,train
411,174.7132110595703,172.0,2021-01-22 00:45:55.278000+00:00,train
412,174.72433471679688,172.0,2021-01-22 00:46:55.278000+00:00,train
413,174.7345733642578,172.0,2021-01-22 00:47:55.278000+00:00,train
414,174.7441864013672,172.0,2021-01-22 00:48:55.278000+00:00,train
415,174.75390625,172.0,2021-01-22 00:49:55.278000+00:00,train
416,174.76443481445312,172.0,2021-01-22 00:50:55.278000+00:00,train
417,174.7714385986328,174.0,2021-01-22 00:51:55.278000+00:00,train
418,174.82716369628906,174.0,2021-01-22 00:52:55.278000+00:00,train
419,174.8788299560547,174.0,2021-01-22 00:53:55.278000+00:00,train
420,174.92677307128906,174.0,2021-01-22 00:54:55.278000+00:00,train
421,174.87828063964844,174.0,2021-01-22 00:55:55.278000+00:00,train
422,174.83033752441406,174.0,2021-01-22 00:56:55.278000+00:00,train
423,174.78260803222656,174.0,2021-01-22 00:57:55.278000+00:00,train
424,174.73495483398438,174.0,2021-01-22 00:58:55.278000+00:00,train
425,174.68698120117188,174.0,2021-01-22 00:59:55.278000+00:00,train
426,174.63894653320312,174.0,2021-01-22 01:00:55.278000+00:00,train
427,174.5823974609375,174.0,2021-01-22 01:01:55.278000+00:00,train
428,174.51759338378906,174.0,2021-01-22 01:02:55.278000+00:00,train
429,174.45294189453125,174.0,2021-01-22 01:03:55.278000+00:00,train
430,174.3885040283203,174.0,2021-01-22 01:04:55.278000+00:00,train
431,174.3494415283203,176.0,2021-01-22 01:05:55.278000+00:00,train
432,174.31114196777344,176.0,2021-01-22 01:06:55.278000+00:00,train
433,174.27377319335938,176.0,2021-01-22 01:07:55.278000+00:00,train
434,174.23716735839844,176.0,2021-01-22 01:08:55.278000+00:00,train
435,174.20114135742188,176.0,2021-01-22 01:09:55.278000+00:00,train
436,174.16578674316406,176.0,2021-01-22 01:10:55.278000+00:00,train
437,174.13087463378906,176.0,2021-01-22 01:11:55.278000+00:00,train
438,174.0960235595703,176.0,2021-01-22 01:12:55.278000+00:00,train
439,174.0609130859375,176.0,2021-01-22 01:13:55.278000+00:00,train
440,174.0249786376953,176.0,2021-01-22 01:14:55.278000+00:00,train
441,173.9873504638672,176.0,2021-01-22 01:15:55.278000+00:00,train
442,173.9329376220703,176.0,2021-01-22 01:16:55.278000+00:00,train
443,173.8793487548828,176.0,2021-01-22 01:17:55.278000+00:00,train
444,173.82672119140625,176.0,2021-01-22 01:18:55.278000+00:00,train
445,173.79762268066406,176.0,2021-01-22 01:19:55.278000+00:00,train
446,173.76910400390625,176.0,2021-01-22 01:20:55.278000+00:00,train
447,173.74136352539062,176.0,2021-01-22 01:21:55.278000+00:00,train
448,173.71481323242188,177.0,2021-01-22 01:22:55.278000+00:00,train
449,173.68939208984375,178.0,2021-01-22 01:23:55.278000+00:00,train
450,173.66552734375,178.0,2021-01-22 01:24:55.278000+00:00,train
451,173.6440887451172,172.0,2021-01-22 01:25:55.278000+00:00,train
452,173.62588500976562,172.0,2021-01-22 01:26:55.278000+00:00,train
453,173.6276092529297,172.0,2021-01-22 01:27:55.278000+00:00,train
454,173.65711975097656,172.0,2021-01-22 01:28:55.278000+00:00,train
455,173.68775939941406,172.0,2021-01-22 01:29:55.278000+00:00,train
456,173.7192840576172,172.0,2021-01-22 01:30:55.278000+00:00,train
457,173.7517852783203,172.0,2021-01-22 01:31:55.278000+00:00,train
458,173.78549194335938,172.0,2021-01-22 01:32:55.278000+00:00,train
459,173.8202362060547,172.0,2021-01-22 01:33:55.278000+00:00,train
460,173.85609436035156,172.0,2021-01-22 01:34:55.278000+00:00,train
461,173.89328002929688,172.0,2021-01-22 01:35:55.278000+00:00,train
462,173.9390869140625,172.0,2021-01-22 01:36:55.278000+00:00,train
463,173.99110412597656,173.0,2021-01-22 01:37:55.278000+00:00,train
464,174.0443878173828,174.0,2021-01-22 01:38:55.278000+00:00,train
465,174.0243682861328,174.0,2021-01-22 01:39:55.278000+00:00,train
466,174.00454711914062,174.0,2021-01-22 01:40:55.278000+00:00,train
467,173.98480224609375,174.0,2021-01-22 01:41:55.278000+00:00,train
468,173.96514892578125,174.0,2021-01-22 01:42:55.278000+00:00,train
469,173.92697143554688,174.0,2021-01-22 01:43:55.278000+00:00,train
470,173.8740692138672,174.0,2021-01-22 01:44:55.278000+00:00,train
471,173.8214569091797,174.0,2021-01-22 01:45:55.278000+00:00,train
472,173.7692413330078,174.0,2021-01-22 01:46:55.278000+00:00,train
473,173.71737670898438,174.0,2021-01-22 01:47:55.278000+00:00,train
474,173.66583251953125,174.0,2021-01-22 01:48:55.278000+00:00,train
475,173.61468505859375,174.0,2021-01-22 01:49:55.278000+00:00,train
476,173.56378173828125,174.0,2021-01-22 01:50:55.278000+00:00,train
477,173.53330993652344,174.0,2021-01-22 01:51:55.278000+00:00,train
478,173.51942443847656,174.0,2021-01-22 01:52:55.278000+00:00,train
479,173.5055389404297,174.0,2021-01-22 01:53:55.278000+00:00,train
480,173.49148559570312,176.0,2021-01-22 01:54:55.278000+00:00,train
481,173.47723388671875,176.0,2021-01-22 01:55:55.278000+00:00,train
482,173.4624481201172,176.0,2021-01-22 01:56:55.278000+00:00,train
483,173.4371337890625,176.0,2021-01-22 01:57:55.278000+00:00,train
484,173.4053497314453,176.0,2021-01-22 01:58:55.278000+00:00,train
485,173.37399291992188,176.0,2021-01-22 01:59:55.278000+00:00,train
486,173.34310913085938,176.0,2021-01-22 02:00:55.278000+00:00,train
487,173.3126983642578,176.0,2021-01-22 02:01:55.278000+00:00,train
488,173.28274536132812,176.0,2021-01-22 02:02:55.278000+00:00,train
489,173.25328063964844,176.0,2021-01-22 02:03:55.278000+00:00,train
490,173.2242889404297,176.0,2021-01-22 02:04:55.278000+00:00,train
491,173.19573974609375,174.0,2021-01-22 02:05:55.278000+00:00,train
492,173.1676788330078,172.0,2021-01-22 02:06:55.278000+00:00,train
493,173.14016723632812,172.0,2021-01-22 02:07:55.278000+00:00,train
494,173.13134765625,172.0,2021-01-22 02:08:55.278000+00:00,train
495,173.1227264404297,172.0,2021-01-22 02:09:55.278000+00:00,train
496,173.11427307128906,172.0,2021-01-22 02:10:55.278000+00:00,train
497,173.1057891845703,172.0,2021-01-22 02:11:55.278000+00:00,train
498,173.09828186035156,172.0,2021-01-22 02:12:55.278000+00:00,train
499,173.09259033203125,172.0,2021-01-22 02:13:55.278000+00:00,train
500,173.08978271484375,172.0,2021-01-22 02:14:55.278000+00:00,train
501,173.13584899902344,172.0,2021-01-22 02:15:55.278000+00:00,train
502,173.18304443359375,172.0,2021-01-22 02:16:55.278000+00:00,train
503,173.23141479492188,172.0,2021-01-22 02:17:55.278000+00:00,train
504,173.28097534179688,172.0,2021-01-22 02:18:55.278000+00:00,train
505,173.3128662109375,172.0,2021-01-22 02:19:55.278000+00:00,train
506,173.3043670654297,172.0,2021-01-22 02:20:55.278000+00:00,train
507,173.29592895507812,172.0,2021-01-22 02:21:55.278000+00:00,train
508,173.28762817382812,172.0,2021-01-22 02:22:55.278000+00:00,train
509,173.27932739257812,172.0,2021-01-22 02:23:55.278000+00:00,train
510,173.2709503173828,172.0,2021-01-22 02:24:55.278000+00:00,train
511,173.22401428222656,172.0,2021-01-22 02:25:55.278000+00:00,val
512,173.17750549316406,172.0,2021-01-22 02:26:55.278000+00:00,val
513,173.1314239501953,174.0,2021-01-22 02:27:55.278000+00:00,val
514,173.08584594726562,174.0,2021-01-22 02:28:55.278000+00:00,val
515,173.04063415527344,174.0,2021-01-22 02:29:55.278000+00:00,val
516,172.99586486816406,174.0,2021-01-22 02:30:55.278000+00:00,val
517,172.9514923095703,174.0,2021-01-22 02:31:55.278000+00:00,val
518,172.907470703125,174.0,2021-01-22 02:32:55.278000+00:00,val
519,172.86383056640625,174.0,2021-01-22 02:33:55.278000+00:00,val
520,172.8205108642578,174.0,2021-01-22 02:34:55.278000+00:00,val
521,172.77748107910156,174.0,2021-01-22 02:35:55.278000+00:00,val
522,172.7346954345703,174.0,2021-01-22 02:36:55.278000+00:00,val
523,172.69207763671875,174.0,2021-01-22 02:37:55.278000+00:00,val
524,172.64926147460938,174.0,2021-01-22 02:38:55.278000+00:00,val
525,172.59385681152344,174.0,2021-01-22 02:39:55.278000+00:00,val
526,172.53952026367188,174.0,2021-01-22 02:40:55.278000+00:00,val
527,172.52096557617188,174.0,2021-01-22 02:41:55.278000+00:00,val
528,172.50283813476562,174.0,2021-01-22 02:42:55.278000+00:00,val
529,172.48512268066406,174.0,2021-01-22 02:43:55.278000+00:00,val
530,172.4678497314453,170.0,2021-01-22 02:44:55.278000+00:00,val
531,172.4510498046875,170.0,2021-01-22 02:45:55.278000+00:00,val
532,172.43472290039062,170.0,2021-01-22 02:46:55.278000+00:00,val
533,172.41885375976562,170.0,2021-01-22 02:47:55.278000+00:00,val
534,172.40353393554688,170.0,2021-01-22 02:48:55.278000+00:00,val
535,172.3887176513672,170.0,2021-01-22 02:49:55.278000+00:00,val
536,172.3744354248047,170.0,2021-01-22 02:50:55.278000+00:00,val
537,172.3607177734375,170.0,2021-01-22 02:51:55.278000+00:00,val
538,172.34759521484375,170.0,2021-01-22 02:52:55.278000+00:00,val
539,172.33509826660156,170.0,2021-01-22 02:53:55.278000+00:00,val
540,172.32327270507812,170.0,2021-01-22 02:54:55.278000+00:00,val
541,172.31210327148438,170.0,2021-01-22 02:55:55.278000+00:00,val
542,172.30795288085938,170.0,2021-01-22 02:56:55.278000+00:00,val
543,172.32029724121094,170.0,2021-01-22 02:57:55.278000+00:00,val
544,172.247802734375,170.0,2021-01-22 02:58:55.278000+00:00,val
545,172.18557739257812,170.0,2021-01-22 02:59:55.278000+00:00,val
546,172.12451171875,172.0,2021-01-22 03:00:55.278000+00:00,val
547,172.0645294189453,172.0,2021-01-22 03:01:55.278000+00:00,val
548,172.00555419921875,172.0,2021-01-22 03:02:55.278000+00:00,val
549,171.94749450683594,172.0,2021-01-22 03:03:55.278000+00:00,val
550,171.8903350830078,172.0,2021-01-22 03:04:55.278000+00:00,val
551,171.83395385742188,172.0,2021-01-22 03:05:55.278000+00:00,val
552,171.7783660888672,172.0,2021-01-22 03:06:55.278000+00:00,val
553,171.72348022460938,172.0,2021-01-22 03:07:55.278000+00:00,val
554,171.66921997070312,172.0,2021-01-22 03:08:55.278000+00:00,val
555,171.61558532714844,172.0,2021-01-22 03:09:55.278000+00:00,val
556,171.56236267089844,172.0,2021-01-22 03:10:55.278000+00:00,val
557,171.49453735351562,172.0,2021-01-22 03:11:55.278000+00:00,val
558,171.41879272460938,172.0,2021-01-22 03:12:55.278000+00:00,val
559,171.34445190429688,172.0,2021-01-22 03:13:55.278000+00:00,val
560,171.31752014160156,172.0,2021-01-22 03:14:55.278000+00:00,val
561,171.29087829589844,172.0,2021-01-22 03:15:55.278000+00:00,val
562,171.26455688476562,172.0,2021-01-22 03:16:55.278000+00:00,val
563,171.23854064941406,174.0,2021-01-22 03:17:55.278000+00:00,val
564,171.2128143310547,174.0,2021-01-22 03:18:55.278000+00:00,val
565,171.1874237060547,174.0,2021-01-22 03:19:55.278000+00:00,val
566,171.16232299804688,168.0,2021-01-22 03:20:55.278000+00:00,val
567,171.13754272460938,168.0,2021-01-22 03:21:55.278000+00:00,val
568,171.11306762695312,168.0,2021-01-22 03:22:55.278000+00:00,val
569,171.08888244628906,168.0,2021-01-22 03:23:55.278000+00:00,val
570,171.06500244140625,168.0,2021-01-22 03:24:55.278000+00:00,val
571,171.0413818359375,168.0,2021-01-22 03:25:55.278000+00:00,val
572,171.01803588867188,168.0,2021-01-22 03:26:55.278000+00:00,val
573,170.9947509765625,168.0,2021-01-22 03:27:55.278000+00:00,val
574,170.97506713867188,168.0,2021-01-22 03:28:55.278000+00:00,val
575,170.95736694335938,168.0,2021-01-22 03:29:55.278000+00:00,val
576,170.94174194335938,168.0,2021-01-22 03:30:55.278000+00:00,val
577,170.9459991455078,168.0,2021-01-22 03:31:55.278000+00:00,val
578,170.9513397216797,168.0,2021-01-22 03:32:55.278000+00:00,val
579,170.9578857421875,168.0,2021-01-22 03:33:55.278000+00:00,val
580,170.8378448486328,168.0,2021-01-22 03:34:55.278000+00:00,val
581,170.72312927246094,169.0,2021-01-22 03:35:55.278000+00:00,val
582,170.61361694335938,170.0,2021-01-22 03:36:55.278000+00:00,val
583,170.5093994140625,170.0,2021-01-22 03:37:55.278000+00:00,val
584,170.4105987548828,170.0,2021-01-22 03:38:55.278000+00:00,val
585,170.3015899658203,170.0,2021-01-22 03:39:55.278000+00:00,val
586,170.20484924316406,170.0,2021-01-22 03:40:55.278000+00:00,val
587,170.1105194091797,170.0,2021-01-22 03:41:55.278000+00:00,val
588,170.0184326171875,170.0,2021-01-22 03:42:55.278000+00:00,val
589,169.92845153808594,170.0,2021-01-22 03:43:55.278000+00:00,val
590,169.84039306640625,170.0,2021-01-22 03:44:55.278000+00:00,val
591,169.75416564941406,170.0,2021-01-22 03:45:55.278000+00:00,val
592,169.66969299316406,170.0,2021-01-22 03:46:55.278000+00:00,val
593,169.5868682861328,170.0,2021-01-22 03:47:55.278000+00:00,val
594,169.505615234375,170.0,2021-01-22 03:48:55.278000+00:00,val
595,169.4531707763672,170.0,2021-01-22 03:49:55.278000+00:00,val
596,169.42337036132812,170.0,2021-01-22 03:50:55.278000+00:00,val
597,169.39385986328125,170.0,2021-01-22 03:51:55.278000+00:00,val
598,169.36463928222656,170.0,2021-01-22 03:52:55.278000+00:00,val
599,169.335693359375,166.0,2021-01-22 03:53:55.278000+00:00,val
600,169.30703735351562,166.0,2021-01-22 03:54:55.278000+00:00,val
601,169.27865600585938,166.0,2021-01-22 03:55:55.278000+00:00,val
602,169.2505340576172,166.0,2021-01-22 03:56:55.278000+00:00,val
603,169.2227020263672,166.0,2021-01-22 03:57:55.278000+00:00,val
604,169.195068359375,166.0,2021-01-22 03:58:55.278000+00:00,val
605,169.16766357421875,166.0,2021-01-22 03:59:55.278000+00:00,val
606,169.14028930664062,166.0,2021-01-22 04:00:55.278000+00:00,val
607,169.10972595214844,166.0,2021-01-22 04:01:55.278000+00:00,val
608,169.0804901123047,166.0,2021-01-22 04:02:55.278000+00:00,val
609,169.05264282226562,166.0,2021-01-22 04:03:55.278000+00:00,val
610,169.02622985839844,166.0,2021-01-22 04:04:55.278000+00:00,val
611,169.00132751464844,166.0,2021-01-22 04:05:55.278000+00:00,val
612,168.97796630859375,166.0,2021-01-22 04:06:55.278000+00:00,val
613,168.84503173828125,166.0,2021-01-22 04:07:55.278000+00:00,val
614,168.71701049804688,167.0,2021-01-22 04:08:55.278000+00:00,val
615,168.59365844726562,168.0,2021-01-22 04:09:55.278000+00:00,val
616,168.4748077392578,168.0,2021-01-22 04:10:55.278000+00:00,val
617,168.36038208007812,168.0,2021-01-22 04:11:55.278000+00:00,val
618,168.25027465820312,168.0,2021-01-22 04:12:55.278000+00:00,val
619,168.14447021484375,168.0,2021-01-22 04:13:55.278000+00:00,val
620,168.04298400878906,168.0,2021-01-22 04:14:55.278000+00:00,val
621,167.94590759277344,168.0,2021-01-22 04:15:55.278000+00:00,val
622,167.8533477783203,168.0,2021-01-22 04:16:55.278000+00:00,val
623,167.76573181152344,168.0,2021-01-22 04:17:55.278000+00:00,val
624,167.67929077148438,168.0,2021-01-22 04:18:55.278000+00:00,val
625,167.5945587158203,168.0,2021-01-22 04:19:55.278000+00:00,val
626,167.5114288330078,168.0,2021-01-22 04:20:55.278000+00:00,val
627,167.42984008789062,168.0,2021-01-22 04:21:55.278000+00:00,val
628,167.37705993652344,168.0,2021-01-22 04:22:55.278000+00:00,val
629,167.3471221923828,164.0,2021-01-22 04:23:55.278000+00:00,val
630,167.31747436523438,164.0,2021-01-22 04:24:55.278000+00:00,val
631,167.28807067871094,164.0,2021-01-22 04:25:55.278000+00:00,val
632,167.2589569091797,164.0,2021-01-22 04:26:55.278000+00:00,val
633,167.23011779785156,164.0,2021-01-22 04:27:55.278000+00:00,val
634,167.20155334472656,164.0,2021-01-22 04:28:55.278000+00:00,val
635,167.17324829101562,164.0,2021-01-22 04:29:55.278000+00:00,val
636,167.1451873779297,164.0,2021-01-22 04:30:55.278000+00:00,val
637,167.11737060546875,164.0,2021-01-22 04:31:55.278000+00:00,val
638,167.08975219726562,164.0,2021-01-22 04:32:55.278000+00:00,val
639,167.06219482421875,164.0,2021-01-22 04:33:55.278000+00:00,val
640,167.02967834472656,164.0,2021-01-22 04:34:55.278000+00:00,val
641,166.9983673095703,164.0,2021-01-22 04:35:55.278000+00:00,val
642,166.96832275390625,164.0,2021-01-22 04:36:55.278000+00:00,val
643,166.82896423339844,164.0,2021-01-22 04:37:55.278000+00:00,val
644,166.69427490234375,164.0,2021-01-22 04:38:55.278000+00:00,val
645,166.5640869140625,164.0,2021-01-22 04:39:55.278000+00:00,val
646,166.43814086914062,164.0,2021-01-22 04:40:55.278000+00:00,val
647,166.31634521484375,164.0,2021-01-22 04:41:55.278000+00:00,val
648,166.1985626220703,164.0,2021-01-22 04:42:55.278000+00:00,val
649,166.08465576171875,164.0,2021-01-22 04:43:55.278000+00:00,val
650,165.97462463378906,166.0,2021-01-22 04:44:55.278000+00:00,val
651,165.86837768554688,166.0,2021-01-22 04:45:55.278000+00:00,val
652,165.7659149169922,166.0,2021-01-22 04:46:55.278000+00:00,val
653,165.667236328125,166.0,2021-01-22 04:47:55.278000+00:00,val
654,165.5723876953125,166.0,2021-01-22 04:48:55.278000+00:00,val
655,165.48143005371094,163.0,2021-01-22 04:49:55.278000+00:00,val
656,165.3944091796875,160.0,2021-01-22 04:50:55.278000+00:00,val
657,165.34127807617188,160.0,2021-01-22 04:51:55.278000+00:00,val
658,165.29769897460938,160.0,2021-01-22 04:52:55.278000+00:00,val
659,165.2652130126953,160.0,2021-01-22 04:53:55.278000+00:00,val
660,165.18882751464844,160.0,2021-01-22 04:54:55.278000+00:00,val
661,165.11390686035156,160.0,2021-01-22 04:55:55.278000+00:00,val
662,165.04034423828125,160.0,2021-01-22 04:56:55.278000+00:00,val
663,164.96812438964844,160.0,2021-01-22 04:57:55.278000+00:00,val
664,164.9429931640625,160.0,2021-01-22 04:58:55.278000+00:00,val
665,164.91810607910156,161.0,2021-01-22 04:59:55.278000+00:00,val
666,164.89352416992188,162.0,2021-01-22 05:00:55.278000+00:00,val
667,164.86920166015625,162.0,2021-01-22 05:01:55.278000+00:00,val
668,164.8451690673828,162.0,2021-01-22 05:02:55.278000+00:00,val
669,164.7471160888672,162.0,2021-01-22 05:03:55.278000+00:00,val
670,164.53488159179688,162.0,2021-01-22 05:04:55.278000+00:00,val
671,164.33197021484375,162.0,2021-01-22 05:05:55.278000+00:00,val
672,164.13720703125,162.0,2021-01-22 05:06:55.278000+00:00,val
673,163.94967651367188,162.0,2021-01-22 05:07:55.278000+00:00,val
674,163.76861572265625,162.0,2021-01-22 05:08:55.278000+00:00,val
675,163.59078979492188,162.0,2021-01-22 05:09:55.278000+00:00,val
676,163.42066955566406,162.0,2021-01-22 05:10:55.278000+00:00,val
677,163.25721740722656,162.0,2021-01-22 05:11:55.278000+00:00,val
678,163.10040283203125,162.0,2021-01-22 05:12:55.278000+00:00,val
679,162.9826202392578,162.0,2021-01-22 05:13:55.278000+00:00,val
680,162.8980712890625,158.0,2021-01-22 05:14:55.278000+00:00,val
681,162.81776428222656,158.0,2021-01-22 05:15:55.278000+00:00,val
682,162.74166870117188,158.0,2021-01-22 05:16:55.278000+00:00,test
683,162.66966247558594,158.0,2021-01-22 05:17:55.278000+00:00,test
684,162.60134887695312,158.0,2021-01-22 05:18:55.278000+00:00,test
685,162.5362091064453,158.0,2021-01-22 05:19:55.278000+00:00,test
686,162.4734344482422,158.0,2021-01-22 05:20:55.278000+00:00,test
687,162.4126739501953,158.0,2021-01-22 05:21:55.278000+00:00,test
688,162.3541717529297,158.0,2021-01-22 05:22:55.278000+00:00,test
689,162.2982940673828,158.0,2021-01-22 05:23:55.278000+00:00,test
690,162.2455596923828,158.0,2021-01-22 05:24:55.278000+00:00,test
691,162.19647216796875,158.0,2021-01-22 05:25:55.278000+00:00,test
692,162.15179443359375,158.0,2021-01-22 05:26:55.278000+00:00,test
693,162.09507751464844,158.0,2021-01-22 05:27:55.278000+00:00,test
694,161.9138946533203,158.0,2021-01-22 05:28:55.278000+00:00,test
695,161.73849487304688,158.0,2021-01-22 05:29:55.278000+00:00,test
696,161.56832885742188,158.0,2021-01-22 05:30:55.278000+00:00,test
697,161.4029998779297,158.0,2021-01-22 05:31:55.278000+00:00,test
698,161.24217224121094,158.0,2021-01-22 05:32:55.278000+00:00,test
699,161.08555603027344,158.0,2021-01-22 05:33:55.278000+00:00,test
700,160.93292236328125,158.0,2021-01-22 05:34:55.278000+00:00,test
701,160.7840576171875,157.0,2021-01-22 05:35:55.278000+00:00,test
702,160.6387939453125,154.0,2021-01-22 05:36:55.278000+00:00,test
703,160.49696350097656,154.0,2021-01-22 05:37:55.278000+00:00,test
704,160.35845947265625,154.0,2021-01-22 05:38:55.278000+00:00,test
705,160.22315979003906,154.0,2021-01-22 05:39:55.278000+00:00,test
706,160.09091186523438,154.0,2021-01-22 05:40:55.278000+00:00,test
707,159.96165466308594,154.0,2021-01-22 05:41:55.278000+00:00,test
708,159.83499145507812,154.0,2021-01-22 05:42:55.278000+00:00,test
709,159.71519470214844,154.0,2021-01-22 05:43:55.278000+00:00,test
710,159.59976196289062,154.0,2021-01-22 05:44:55.278000+00:00,test
711,159.48875427246094,154.0,2021-01-22 05:45:55.278000+00:00,test
712,159.38221740722656,154.0,2021-01-22 05:46:55.278000+00:00,test
713,159.2803192138672,154.0,2021-01-22 05:47:55.278000+00:00,test
714,159.18310546875,154.0,2021-01-22 05:48:55.278000+00:00,test
715,159.06219482421875,154.0,2021-01-22 05:49:55.278000+00:00,test
716,158.8417205810547,154.0,2021-01-22 05:50:55.278000+00:00,test
717,158.63050842285156,156.0,2021-01-22 05:51:55.278000+00:00,test
718,158.42823791503906,156.0,2021-01-22 05:52:55.278000+00:00,test
719,158.23477172851562,156.0,2021-01-22 05:53:55.278000+00:00,test
720,158.0500030517578,150.0,2021-01-22 05:54:55.278000+00:00,test
721,157.87391662597656,150.0,2021-01-22 05:55:55.278000+00:00,test
722,157.70669555664062,150.0,2021-01-22 05:56:55.278000+00:00,test
723,157.52444458007812,150.0,2021-01-22 05:57:55.278000+00:00,test
724,157.347412109375,150.0,2021-01-22 05:58:55.278000+00:00,test
725,157.1753387451172,150.0,2021-01-22 05:59:55.278000+00:00,test
726,157.00804138183594,150.0,2021-01-22 06:00:55.278000+00:00,test
727,156.84530639648438,150.0,2021-01-22 06:01:55.278000+00:00,test
728,156.68701171875,150.0,2021-01-22 06:02:55.278000+00:00,test
729,156.53298950195312,150.0,2021-01-22 06:03:55.278000+00:00,test
730,156.3831329345703,152.0,2021-01-22 06:04:55.278000+00:00,test
731,156.2913360595703,152.0,2021-01-22 06:05:55.278000+00:00,test
732,156.20208740234375,152.0,2021-01-22 06:06:55.278000+00:00,test
733,156.1153564453125,152.0,2021-01-22 06:07:55.278000+00:00,test
734,155.83885192871094,152.0,2021-01-22 06:08:55.278000+00:00,test
735,155.57261657714844,150.0,2021-01-22 06:09:55.278000+00:00,test
736,155.31591796875,148.0,2021-01-22 06:10:55.278000+00:00,test
737,155.06805419921875,148.0,2021-01-22 06:11:55.278000+00:00,test
738,154.82850646972656,148.0,2021-01-22 06:12:55.278000+00:00,test
739,154.5968475341797,148.0,2021-01-22 06:13:55.278000+00:00,test
740,154.37271118164062,148.0,2021-01-22 06:14:55.278000+00:00,test
741,154.15579223632812,148.0,2021-01-22 06:15:55.278000+00:00,test
742,153.94586181640625,148.0,2021-01-22 06:16:55.278000+00:00,test
743,153.74267578125,148.0,2021-01-22 06:17:55.278000+00:00,test
744,153.6200714111328,148.0,2021-01-22 06:18:55.278000+00:00,test
745,153.50482177734375,148.0,2021-01-22 06:19:55.278000+00:00,test
746,153.3973388671875,148.0,2021-01-22 06:20:55.278000+00:00,test
747,153.29803466796875,148.0,2021-01-22 06:21:55.278000+00:00,test
748,153.20761108398438,144.0,2021-01-22 06:22:55.278000+00:00,test
749,153.0377960205078,144.0,2021-01-22 06:23:55.278000+00:00,test
750,152.80152893066406,144.0,2021-01-22 06:24:55.278000+00:00,test
751,152.57235717773438,144.0,2021-01-22 06:25:55.278000+00:00,test
752,152.3498077392578,144.0,2021-01-22 06:26:55.278000+00:00,test
753,152.133544921875,144.0,2021-01-22 06:27:55.278000+00:00,test
754,151.9231719970703,144.0,2021-01-22 06:28:55.278000+00:00,test
755,151.71847534179688,144.0,2021-01-22 06:29:55.278000+00:00,test
756,151.51919555664062,144.0,2021-01-22 06:30:55.278000+00:00,test
757,151.3250732421875,144.0,2021-01-22 06:31:55.278000+00:00,test
758,151.13592529296875,142.0,2021-01-22 06:32:55.278000+00:00,test
759,150.9521942138672,140.0,2021-01-22 06:33:55.278000+00:00,test
760,150.7772216796875,140.0,2021-01-22 06:34:55.278000+00:00,test
761,150.60829162597656,140.0,2021-01-22 06:35:55.278000+00:00,test
762,150.3118438720703,140.0,2021-01-22 06:36:55.278000+00:00,test
