,prediction,real,time,split
0,159.2168426513672,158.0,2021-01-21 17:46:55.278000+00:00,train
1,159.0907745361328,158.0,2021-01-21 17:47:55.278000+00:00,train
2,158.9980926513672,158.0,2021-01-21 17:48:55.278000+00:00,train
3,158.90773010253906,158.0,2021-01-21 17:49:55.278000+00:00,train
4,158.81948852539062,158.0,2021-01-21 17:50:55.278000+00:00,train
5,158.73324584960938,158.0,2021-01-21 17:51:55.278000+00:00,train
6,158.62210083007812,158.0,2021-01-21 17:52:55.278000+00:00,train
7,158.49835205078125,158.0,2021-01-21 17:53:55.278000+00:00,train
8,158.37847900390625,158.0,2021-01-21 17:54:55.278000+00:00,train
9,158.26223754882812,158.0,2021-01-21 17:55:55.278000+00:00,train
10,158.14942932128906,158.0,2021-01-21 17:56:55.278000+00:00,train
11,158.03985595703125,158.0,2021-01-21 17:57:55.278000+00:00,train
12,157.93341064453125,158.0,2021-01-21 17:58:55.278000+00:00,train
13,157.82997131347656,159.0,2021-01-21 17:59:55.278000+00:00,train
14,157.72930908203125,160.0,2021-01-21 18:00:55.278000+00:00,train
15,157.6313018798828,160.0,2021-01-21 18:01:55.278000+00:00,train
16,157.5358428955078,160.0,2021-01-21 18:02:55.278000+00:00,train
17,157.44285583496094,160.0,2021-01-21 18:03:55.278000+00:00,train
18,157.35223388671875,160.0,2021-01-21 18:04:55.278000+00:00,train
19,157.2993927001953,160.0,2021-01-21 18:05:55.278000+00:00,train
20,157.27317810058594,160.0,2021-01-21 18:06:55.278000+00:00,train
21,157.25572204589844,160.0,2021-01-21 18:07:55.278000+00:00,train
22,157.24020385742188,160.0,2021-01-21 18:08:55.278000+00:00,train
23,157.22665405273438,160.0,2021-01-21 18:09:55.278000+00:00,train
24,157.2151336669922,160.0,2021-01-21 18:10:55.278000+00:00,train
25,157.2056884765625,160.0,2021-01-21 18:11:55.278000+00:00,train
26,157.1983642578125,160.0,2021-01-21 18:12:55.278000+00:00,train
27,157.19322204589844,160.0,2021-01-21 18:13:55.278000+00:00,train
28,157.19036865234375,160.0,2021-01-21 18:14:55.278000+00:00,train
29,157.1898651123047,160.0,2021-01-21 18:15:55.278000+00:00,train
30,157.1917724609375,156.0,2021-01-21 18:16:55.278000+00:00,train
31,157.19619750976562,156.0,2021-01-21 18:17:55.278000+00:00,train
32,157.2032470703125,154.0,2021-01-21 18:18:55.278000+00:00,train
33,157.2130584716797,154.0,2021-01-21 18:19:55.278000+00:00,train
34,157.22576904296875,156.0,2021-01-21 18:20:55.278000+00:00,train
35,157.24148559570312,156.0,2021-01-21 18:21:55.278000+00:00,train
36,157.1854248046875,156.0,2021-01-21 18:22:55.278000+00:00,train
37,157.14405822753906,156.0,2021-01-21 18:23:55.278000+00:00,train
38,156.98504638671875,156.0,2021-01-21 18:24:55.278000+00:00,train
39,156.84515380859375,156.0,2021-01-21 18:25:55.278000+00:00,train
40,156.7636260986328,156.0,2021-01-21 18:26:55.278000+00:00,train
41,156.63954162597656,156.0,2021-01-21 18:27:55.278000+00:00,train
42,156.52413940429688,156.0,2021-01-21 18:28:55.278000+00:00,train
43,156.41241455078125,156.0,2021-01-21 18:29:55.278000+00:00,train
44,156.3041229248047,156.0,2021-01-21 18:30:55.278000+00:00,train
45,156.19908142089844,156.0,2021-01-21 18:31:55.278000+00:00,train
46,156.0971221923828,156.0,2021-01-21 18:32:55.278000+00:00,train
47,155.9980926513672,156.0,2021-01-21 18:33:55.278000+00:00,train
48,155.90184020996094,156.0,2021-01-21 18:34:55.278000+00:00,train
49,155.80824279785156,156.0,2021-01-21 18:35:55.278000+00:00,train
50,155.7172088623047,156.0,2021-01-21 18:36:55.278000+00:00,train
51,155.6286163330078,156.0,2021-01-21 18:37:55.278000+00:00,train
52,155.5424041748047,156.0,2021-01-21 18:38:55.278000+00:00,train
53,155.45843505859375,156.0,2021-01-21 18:39:55.278000+00:00,train
54,155.3766632080078,158.0,2021-01-21 18:40:55.278000+00:00,train
55,155.29702758789062,158.0,2021-01-21 18:41:55.278000+00:00,train
56,155.21963500976562,158.0,2021-01-21 18:42:55.278000+00:00,train
57,155.15396118164062,158.0,2021-01-21 18:43:55.278000+00:00,train
58,155.0919952392578,158.0,2021-01-21 18:44:55.278000+00:00,train
59,155.03375244140625,158.0,2021-01-21 18:45:55.278000+00:00,train
60,155.03179931640625,158.0,2021-01-21 18:46:55.278000+00:00,train
61,155.03189086914062,158.0,2021-01-21 18:47:55.278000+00:00,train
62,155.03414916992188,158.0,2021-01-21 18:48:55.278000+00:00,train
63,155.0386505126953,158.0,2021-01-21 18:49:55.278000+00:00,train
64,155.04550170898438,158.0,2021-01-21 18:50:55.278000+00:00,train
65,155.05479431152344,158.0,2021-01-21 18:51:55.278000+00:00,train
66,155.06663513183594,156.0,2021-01-21 18:52:55.278000+00:00,train
67,155.08116149902344,154.0,2021-01-21 18:53:55.278000+00:00,train
68,155.09854125976562,153.0,2021-01-21 18:54:55.278000+00:00,train
69,155.11895751953125,152.0,2021-01-21 18:55:55.278000+00:00,train
70,155.14254760742188,152.0,2021-01-21 18:56:55.278000+00:00,train
71,155.1697998046875,153.0,2021-01-21 18:57:55.278000+00:00,train
72,155.15423583984375,154.0,2021-01-21 18:58:55.278000+00:00,train
73,155.0586700439453,154.0,2021-01-21 18:59:55.278000+00:00,train
74,154.9150390625,154.0,2021-01-21 19:00:55.278000+00:00,train
75,154.7183380126953,154.0,2021-01-21 19:01:55.278000+00:00,train
76,154.53561401367188,154.0,2021-01-21 19:02:55.278000+00:00,train
77,154.4251708984375,154.0,2021-01-21 19:03:55.278000+00:00,train
78,154.37371826171875,154.0,2021-01-21 19:04:55.278000+00:00,train
79,154.27566528320312,154.0,2021-01-21 19:05:55.278000+00:00,train
80,154.1820831298828,154.0,2021-01-21 19:06:55.278000+00:00,train
81,154.09121704101562,154.0,2021-01-21 19:07:55.278000+00:00,train
82,154.0030059814453,154.0,2021-01-21 19:08:55.278000+00:00,train
83,153.91726684570312,154.0,2021-01-21 19:09:55.278000+00:00,train
84,153.8339080810547,154.0,2021-01-21 19:10:55.278000+00:00,train
85,153.7528839111328,154.0,2021-01-21 19:11:55.278000+00:00,train
86,153.674072265625,154.0,2021-01-21 19:12:55.278000+00:00,train
87,153.59744262695312,154.0,2021-01-21 19:13:55.278000+00:00,train
88,153.52288818359375,154.0,2021-01-21 19:14:55.278000+00:00,train
89,153.45037841796875,154.0,2021-01-21 19:15:55.278000+00:00,train
90,153.3798828125,154.0,2021-01-21 19:16:55.278000+00:00,train
91,153.31134033203125,154.0,2021-01-21 19:17:55.278000+00:00,train
92,153.2447509765625,154.0,2021-01-21 19:18:55.278000+00:00,train
93,153.1800537109375,154.0,2021-01-21 19:19:55.278000+00:00,train
94,153.11724853515625,154.0,2021-01-21 19:20:55.278000+00:00,train
95,153.0563201904297,154.0,2021-01-21 19:21:55.278000+00:00,train
96,152.99729919433594,156.0,2021-01-21 19:22:55.278000+00:00,train
97,152.940185546875,156.0,2021-01-21 19:23:55.278000+00:00,train
98,152.8849639892578,156.0,2021-01-21 19:24:55.278000+00:00,train
99,152.83619689941406,156.0,2021-01-21 19:25:55.278000+00:00,train
100,152.8031463623047,156.0,2021-01-21 19:26:55.278000+00:00,train
101,152.7742156982422,151.0,2021-01-21 19:27:55.278000+00:00,train
102,152.7936553955078,150.0,2021-01-21 19:28:55.278000+00:00,train
103,152.81626892089844,150.0,2021-01-21 19:29:55.278000+00:00,train
104,152.84262084960938,150.0,2021-01-21 19:30:55.278000+00:00,train
105,152.87303161621094,150.0,2021-01-21 19:31:55.278000+00:00,train
106,152.90786743164062,150.0,2021-01-21 19:32:55.278000+00:00,train
107,152.77857971191406,150.0,2021-01-21 19:33:55.278000+00:00,train
108,152.60377502441406,150.0,2021-01-21 19:34:55.278000+00:00,train
109,152.44186401367188,150.0,2021-01-21 19:35:55.278000+00:00,train
110,152.2923583984375,150.0,2021-01-21 19:36:55.278000+00:00,train
111,152.15504455566406,152.0,2021-01-21 19:37:55.278000+00:00,train
112,152.02967834472656,152.0,2021-01-21 19:38:55.278000+00:00,train
113,151.9162139892578,152.0,2021-01-21 19:39:55.278000+00:00,train
114,151.81478881835938,152.0,2021-01-21 19:40:55.278000+00:00,train
115,151.725341796875,152.0,2021-01-21 19:41:55.278000+00:00,train
116,151.59718322753906,152.0,2021-01-21 19:42:55.278000+00:00,train
117,151.570556640625,152.0,2021-01-21 19:43:55.278000+00:00,train
118,151.5688934326172,152.0,2021-01-21 19:44:55.278000+00:00,train
119,151.57589721679688,152.0,2021-01-21 19:45:55.278000+00:00,train
120,151.57998657226562,152.0,2021-01-21 19:46:55.278000+00:00,train
121,151.5961151123047,152.0,2021-01-21 19:47:55.278000+00:00,train
122,151.6254119873047,152.0,2021-01-21 19:48:55.278000+00:00,train
123,152.636962890625,152.0,2021-01-21 19:49:55.278000+00:00,train
124,154.19329833984375,152.0,2021-01-21 19:50:55.278000+00:00,train
125,155.61495971679688,153.0,2021-01-21 19:51:55.278000+00:00,train
126,156.56307983398438,154.0,2021-01-21 19:52:55.278000+00:00,train
127,157.0728302001953,154.0,2021-01-21 19:53:55.278000+00:00,train
128,157.33090209960938,154.0,2021-01-21 19:54:55.278000+00:00,train
129,157.45285034179688,154.0,2021-01-21 19:55:55.278000+00:00,train
130,157.49526977539062,154.0,2021-01-21 19:56:55.278000+00:00,train
131,157.4957733154297,156.0,2021-01-21 19:57:55.278000+00:00,train
132,157.4787139892578,156.0,2021-01-21 19:58:55.278000+00:00,train
133,157.446044921875,156.0,2021-01-21 19:59:55.278000+00:00,train
134,157.40377807617188,156.0,2021-01-21 20:00:55.278000+00:00,train
135,157.3555908203125,156.0,2021-01-21 20:01:55.278000+00:00,train
136,157.30380249023438,156.0,2021-01-21 20:02:55.278000+00:00,train
137,157.29197692871094,156.0,2021-01-21 20:03:55.278000+00:00,train
138,157.2789306640625,156.0,2021-01-21 20:04:55.278000+00:00,train
139,157.26536560058594,156.0,2021-01-21 20:05:55.278000+00:00,train
140,157.17991638183594,158.0,2021-01-21 20:06:55.278000+00:00,train
141,157.093994140625,158.0,2021-01-21 20:07:55.278000+00:00,train
142,157.00765991210938,158.0,2021-01-21 20:08:55.278000+00:00,train
143,156.92103576660156,158.0,2021-01-21 20:09:55.278000+00:00,train
144,156.83396911621094,158.0,2021-01-21 20:10:55.278000+00:00,train
145,156.74647521972656,158.0,2021-01-21 20:11:55.278000+00:00,train
146,156.73817443847656,158.0,2021-01-21 20:12:55.278000+00:00,train
147,156.72979736328125,158.0,2021-01-21 20:13:55.278000+00:00,train
148,156.72149658203125,159.0,2021-01-21 20:14:55.278000+00:00,train
149,156.71336364746094,160.0,2021-01-21 20:15:55.278000+00:00,train
150,156.70533752441406,160.0,2021-01-21 20:16:55.278000+00:00,train
151,156.69741821289062,158.0,2021-01-21 20:17:55.278000+00:00,train
152,156.7645721435547,156.0,2021-01-21 20:18:55.278000+00:00,train
153,156.8731689453125,156.0,2021-01-21 20:19:55.278000+00:00,train
154,157.03515625,156.0,2021-01-21 20:20:55.278000+00:00,train
155,157.24456787109375,156.0,2021-01-21 20:21:55.278000+00:00,train
156,157.4438018798828,156.0,2021-01-21 20:22:55.278000+00:00,train
157,157.54287719726562,156.0,2021-01-21 20:23:55.278000+00:00,train
158,157.5685272216797,156.0,2021-01-21 20:24:55.278000+00:00,train
159,157.59423828125,156.0,2021-01-21 20:25:55.278000+00:00,train
160,157.61984252929688,156.0,2021-01-21 20:26:55.278000+00:00,train
161,157.6452178955078,156.0,2021-01-21 20:27:55.278000+00:00,train
162,157.6704559326172,156.0,2021-01-21 20:28:55.278000+00:00,train
163,157.69544982910156,156.0,2021-01-21 20:29:55.278000+00:00,train
164,157.72021484375,157.0,2021-01-21 20:30:55.278000+00:00,train
165,157.74478149414062,158.0,2021-01-21 20:31:55.278000+00:00,train
166,157.76905822753906,158.0,2021-01-21 20:32:55.278000+00:00,train
167,157.79310607910156,158.0,2021-01-21 20:33:55.278000+00:00,train
168,157.81690979003906,158.0,2021-01-21 20:34:55.278000+00:00,train
169,157.8424835205078,158.0,2021-01-21 20:35:55.278000+00:00,train
170,159.9822540283203,158.0,2021-01-21 20:36:55.278000+00:00,train
171,160.08079528808594,158.0,2021-01-21 20:37:55.278000+00:00,train
172,160.15992736816406,158.0,2021-01-21 20:38:55.278000+00:00,train
173,160.24606323242188,160.0,2021-01-21 20:39:55.278000+00:00,train
174,160.3258514404297,160.0,2021-01-21 20:40:55.278000+00:00,train
175,160.39657592773438,160.0,2021-01-21 20:41:55.278000+00:00,train
176,160.46922302246094,160.0,2021-01-21 20:42:55.278000+00:00,train
177,160.53489685058594,160.0,2021-01-21 20:43:55.278000+00:00,train
178,160.60171508789062,160.0,2021-01-21 20:44:55.278000+00:00,train
179,160.75942993164062,160.0,2021-01-21 20:45:55.278000+00:00,train
180,160.91038513183594,160.0,2021-01-21 20:46:55.278000+00:00,train
181,161.05491638183594,161.0,2021-01-21 20:47:55.278000+00:00,train
182,161.17176818847656,162.0,2021-01-21 20:48:55.278000+00:00,train
183,161.28488159179688,162.0,2021-01-21 20:49:55.278000+00:00,train
184,161.39443969726562,162.0,2021-01-21 20:50:55.278000+00:00,train
185,161.5006866455078,162.0,2021-01-21 20:51:55.278000+00:00,train
186,161.60379028320312,162.0,2021-01-21 20:52:55.278000+00:00,train
187,161.7424774169922,162.0,2021-01-21 20:53:55.278000+00:00,train
188,161.90219116210938,162.0,2021-01-21 20:54:55.278000+00:00,train
189,162.04832458496094,162.0,2021-01-21 20:55:55.278000+00:00,train
190,162.18116760253906,164.0,2021-01-21 20:56:55.278000+00:00,train
191,162.3009796142578,164.0,2021-01-21 20:57:55.278000+00:00,train
192,162.40794372558594,164.0,2021-01-21 20:58:55.278000+00:00,train
193,162.5021209716797,164.0,2021-01-21 20:59:55.278000+00:00,train
194,162.58355712890625,164.0,2021-01-21 21:00:55.278000+00:00,train
195,162.65213012695312,164.0,2021-01-21 21:01:55.278000+00:00,train
196,162.82318115234375,164.0,2021-01-21 21:02:55.278000+00:00,train
197,163.03799438476562,164.0,2021-01-21 21:03:55.278000+00:00,train
198,163.23828125,165.0,2021-01-21 21:04:55.278000+00:00,train
199,163.42315673828125,166.0,2021-01-21 21:05:55.278000+00:00,train
200,163.59661865234375,166.0,2021-01-21 21:06:55.278000+00:00,train
201,163.7571563720703,166.0,2021-01-21 21:07:55.278000+00:00,train
202,163.90565490722656,166.0,2021-01-21 21:08:55.278000+00:00,train
203,164.0400848388672,166.0,2021-01-21 21:09:55.278000+00:00,train
204,164.21778869628906,166.0,2021-01-21 21:10:55.278000+00:00,train
205,164.44110107421875,166.0,2021-01-21 21:11:55.278000+00:00,train
206,164.6474151611328,166.0,2021-01-21 21:12:55.278000+00:00,train
207,164.83740234375,166.0,2021-01-21 21:13:55.278000+00:00,train
208,165.0115966796875,166.0,2021-01-21 21:14:55.278000+00:00,train
209,165.17037963867188,166.0,2021-01-21 21:15:55.278000+00:00,train
210,165.3141632080078,165.0,2021-01-21 21:16:55.278000+00:00,train
211,165.47293090820312,163.0,2021-01-21 21:17:55.278000+00:00,train
212,165.64292907714844,162.0,2021-01-21 21:18:55.278000+00:00,train
213,165.80152893066406,162.0,2021-01-21 21:19:55.278000+00:00,train
214,165.94903564453125,162.0,2021-01-21 21:20:55.278000+00:00,train
215,166.08575439453125,162.0,2021-01-21 21:21:55.278000+00:00,train
216,166.16685485839844,162.0,2021-01-21 21:22:55.278000+00:00,train
217,166.2051544189453,164.0,2021-01-21 21:23:55.278000+00:00,train
218,166.21372985839844,164.0,2021-01-21 21:24:55.278000+00:00,train
219,166.21990966796875,164.0,2021-01-21 21:25:55.278000+00:00,train
220,166.22364807128906,164.0,2021-01-21 21:26:55.278000+00:00,train
221,166.22483825683594,164.0,2021-01-21 21:27:55.278000+00:00,train
222,166.22341918945312,164.0,2021-01-21 21:28:55.278000+00:00,train
223,166.27426147460938,164.0,2021-01-21 21:29:55.278000+00:00,train
224,166.32032775878906,164.0,2021-01-21 21:30:55.278000+00:00,train
225,166.36163330078125,164.0,2021-01-21 21:31:55.278000+00:00,train
226,166.42141723632812,164.0,2021-01-21 21:32:55.278000+00:00,train
227,166.478515625,164.0,2021-01-21 21:33:55.278000+00:00,train
228,166.5330047607422,165.0,2021-01-21 21:34:55.278000+00:00,train
229,166.5849609375,166.0,2021-01-21 21:35:55.278000+00:00,train
230,166.63433837890625,166.0,2021-01-21 21:36:55.278000+00:00,train
231,166.6811981201172,166.0,2021-01-21 21:37:55.278000+00:00,train
232,166.72557067871094,166.0,2021-01-21 21:38:55.278000+00:00,train
233,166.7673797607422,166.0,2021-01-21 21:39:55.278000+00:00,train
234,166.8428192138672,166.0,2021-01-21 21:40:55.278000+00:00,train
235,166.9510040283203,166.0,2021-01-21 21:41:55.278000+00:00,train
236,167.05575561523438,166.0,2021-01-21 21:42:55.278000+00:00,train
237,167.1509552001953,166.0,2021-01-21 21:43:55.278000+00:00,train
238,167.21067810058594,166.0,2021-01-21 21:44:55.278000+00:00,train
239,167.26316833496094,167.0,2021-01-21 21:45:55.278000+00:00,train
240,167.30825805664062,168.0,2021-01-21 21:46:55.278000+00:00,train
241,167.3457794189453,168.0,2021-01-21 21:47:55.278000+00:00,train
242,167.37547302246094,168.0,2021-01-21 21:48:55.278000+00:00,train
243,167.39703369140625,168.0,2021-01-21 21:49:55.278000+00:00,train
244,167.4100799560547,168.0,2021-01-21 21:50:55.278000+00:00,train
245,167.450439453125,168.0,2021-01-21 21:51:55.278000+00:00,train
246,167.52232360839844,168.0,2021-01-21 21:52:55.278000+00:00,train
247,167.5823211669922,168.0,2021-01-21 21:53:55.278000+00:00,train
248,167.6300048828125,168.0,2021-01-21 21:54:55.278000+00:00,train
249,167.6647491455078,168.0,2021-01-21 21:55:55.278000+00:00,train
250,167.72044372558594,169.0,2021-01-21 21:56:55.278000+00:00,train
251,167.79434204101562,170.0,2021-01-21 21:57:55.278000+00:00,train
252,167.85975646972656,170.0,2021-01-21 21:58:55.278000+00:00,train
253,167.91651916503906,170.0,2021-01-21 21:59:55.278000+00:00,train
254,167.9644012451172,170.0,2021-01-21 22:00:55.278000+00:00,train
255,168.00283813476562,170.0,2021-01-21 22:01:55.278000+00:00,train
256,168.0746612548828,170.0,2021-01-21 22:02:55.278000+00:00,train
257,168.1849365234375,170.0,2021-01-21 22:03:55.278000+00:00,train
258,168.28233337402344,170.0,2021-01-21 22:04:55.278000+00:00,train
259,168.42257690429688,170.0,2021-01-21 22:05:55.278000+00:00,train
260,168.5552978515625,170.0,2021-01-21 22:06:55.278000+00:00,train
261,168.67723083496094,171.0,2021-01-21 22:07:55.278000+00:00,train
262,168.7905731201172,172.0,2021-01-21 22:08:55.278000+00:00,train
263,168.89540100097656,172.0,2021-01-21 22:09:55.278000+00:00,train
264,168.99166870117188,170.0,2021-01-21 22:10:55.278000+00:00,train
265,169.07919311523438,168.0,2021-01-21 22:11:55.278000+00:00,train
266,169.15785217285156,166.0,2021-01-21 22:12:55.278000+00:00,train
267,169.29794311523438,166.0,2021-01-21 22:13:55.278000+00:00,train
268,169.4973602294922,166.0,2021-01-21 22:14:55.278000+00:00,train
269,169.68556213378906,166.0,2021-01-21 22:15:55.278000+00:00,train
270,169.77320861816406,166.0,2021-01-21 22:16:55.278000+00:00,train
271,169.7919921875,167.0,2021-01-21 22:17:55.278000+00:00,train
272,169.77023315429688,168.0,2021-01-21 22:18:55.278000+00:00,train
273,169.74737548828125,168.0,2021-01-21 22:19:55.278000+00:00,train
274,169.72300720214844,168.0,2021-01-21 22:20:55.278000+00:00,train
275,169.6969451904297,168.0,2021-01-21 22:21:55.278000+00:00,train
276,169.69093322753906,168.0,2021-01-21 22:22:55.278000+00:00,train
277,169.69918823242188,168.0,2021-01-21 22:23:55.278000+00:00,train
278,169.7272491455078,168.0,2021-01-21 22:24:55.278000+00:00,train
279,169.75440979003906,168.0,2021-01-21 22:25:55.278000+00:00,train
280,169.77947998046875,168.0,2021-01-21 22:26:55.278000+00:00,train
281,169.8028106689453,168.0,2021-01-21 22:27:55.278000+00:00,train
282,169.82473754882812,168.0,2021-01-21 22:28:55.278000+00:00,train
283,169.8452606201172,170.0,2021-01-21 22:29:55.278000+00:00,train
284,169.867431640625,170.0,2021-01-21 22:30:55.278000+00:00,train
285,169.8849334716797,170.0,2021-01-21 22:31:55.278000+00:00,train
286,169.902099609375,170.0,2021-01-21 22:32:55.278000+00:00,train
287,169.9188995361328,170.0,2021-01-21 22:33:55.278000+00:00,train
288,169.9353790283203,170.0,2021-01-21 22:34:55.278000+00:00,train
289,170.0070037841797,170.0,2021-01-21 22:35:55.278000+00:00,train
290,170.0763397216797,170.0,2021-01-21 22:36:55.278000+00:00,train
291,170.1436309814453,170.0,2021-01-21 22:37:55.278000+00:00,train
292,170.20909118652344,170.0,2021-01-21 22:38:55.278000+00:00,train
293,170.2727813720703,170.0,2021-01-21 22:39:55.278000+00:00,train
294,170.3347625732422,171.0,2021-01-21 22:40:55.278000+00:00,train
295,170.3951873779297,172.0,2021-01-21 22:41:55.278000+00:00,train
296,170.45584106445312,172.0,2021-01-21 22:42:55.278000+00:00,train
297,170.4982452392578,172.0,2021-01-21 22:43:55.278000+00:00,train
298,170.5178985595703,172.0,2021-01-21 22:44:55.278000+00:00,train
299,170.5313720703125,172.0,2021-01-21 22:45:55.278000+00:00,train
300,170.5704803466797,172.0,2021-01-21 22:46:55.278000+00:00,train
301,170.6400909423828,172.0,2021-01-21 22:47:55.278000+00:00,train
302,170.70062255859375,172.0,2021-01-21 22:48:55.278000+00:00,train
303,170.79522705078125,172.0,2021-01-21 22:49:55.278000+00:00,train
304,170.8843231201172,172.0,2021-01-21 22:50:55.278000+00:00,train
305,170.9679718017578,172.0,2021-01-21 22:51:55.278000+00:00,train
306,171.0462646484375,174.0,2021-01-21 22:52:55.278000+00:00,train
307,171.1191864013672,174.0,2021-01-21 22:53:55.278000+00:00,train
308,171.18670654296875,174.0,2021-01-21 22:54:55.278000+00:00,train
309,171.2488250732422,174.0,2021-01-21 22:55:55.278000+00:00,train
310,171.30531311035156,174.0,2021-01-21 22:56:55.278000+00:00,train
311,171.3561248779297,174.0,2021-01-21 22:57:55.278000+00:00,train
312,171.48443603515625,174.0,2021-01-21 22:58:55.278000+00:00,train
313,171.60382080078125,174.0,2021-01-21 22:59:55.278000+00:00,train
314,171.7334747314453,174.0,2021-01-21 23:00:55.278000+00:00,train
315,171.86817932128906,174.0,2021-01-21 23:01:55.278000+00:00,train
316,171.9965362548828,174.0,2021-01-21 23:02:55.278000+00:00,train
317,172.118896484375,172.0,2021-01-21 23:03:55.278000+00:00,train
318,172.2355499267578,170.0,2021-01-21 23:04:55.278000+00:00,train
319,172.3467559814453,170.0,2021-01-21 23:05:55.278000+00:00,train
320,172.4636688232422,170.0,2021-01-21 23:06:55.278000+00:00,train
321,172.56124877929688,170.0,2021-01-21 23:07:55.278000+00:00,train
322,172.65484619140625,170.0,2021-01-21 23:08:55.278000+00:00,train
323,172.6820526123047,170.0,2021-01-21 23:09:55.278000+00:00,train
324,172.6688232421875,170.0,2021-01-21 23:10:55.278000+00:00,train
325,172.6650390625,170.0,2021-01-21 23:11:55.278000+00:00,train
326,172.66513061523438,170.0,2021-01-21 23:12:55.278000+00:00,train
327,172.66529846191406,170.0,2021-01-21 23:13:55.278000+00:00,train
328,172.6654510498047,170.0,2021-01-21 23:14:55.278000+00:00,train
329,172.66546630859375,170.0,2021-01-21 23:15:55.278000+00:00,train
330,172.6652374267578,171.0,2021-01-21 23:16:55.278000+00:00,train
331,172.66482543945312,172.0,2021-01-21 23:17:55.278000+00:00,train
332,172.6641082763672,172.0,2021-01-21 23:18:55.278000+00:00,train
333,172.66311645507812,172.0,2021-01-21 23:19:55.278000+00:00,train
334,172.66183471679688,172.0,2021-01-21 23:20:55.278000+00:00,train
335,172.6604461669922,172.0,2021-01-21 23:21:55.278000+00:00,train
336,172.6726531982422,172.0,2021-01-21 23:22:55.278000+00:00,train
337,172.6977081298828,172.0,2021-01-21 23:23:55.278000+00:00,train
338,172.721923828125,172.0,2021-01-21 23:24:55.278000+00:00,train
339,172.74607849121094,172.0,2021-01-21 23:25:55.278000+00:00,train
340,172.77005004882812,172.0,2021-01-21 23:26:55.278000+00:00,train
341,172.7928009033203,173.0,2021-01-21 23:27:55.278000+00:00,train
342,172.81507873535156,174.0,2021-01-21 23:28:55.278000+00:00,train
343,172.83692932128906,174.0,2021-01-21 23:29:55.278000+00:00,train
344,172.85838317871094,174.0,2021-01-21 23:30:55.278000+00:00,train
345,172.87942504882812,174.0,2021-01-21 23:31:55.278000+00:00,train
346,172.90005493164062,174.0,2021-01-21 23:32:55.278000+00:00,train
347,172.9327392578125,174.0,2021-01-21 23:33:55.278000+00:00,train
348,172.97686767578125,174.0,2021-01-21 23:34:55.278000+00:00,train
349,173.02000427246094,174.0,2021-01-21 23:35:55.278000+00:00,train
350,173.09031677246094,174.0,2021-01-21 23:36:55.278000+00:00,train
351,173.1637725830078,174.0,2021-01-21 23:37:55.278000+00:00,train
352,173.21580505371094,174.0,2021-01-21 23:38:55.278000+00:00,train
353,173.26287841796875,174.0,2021-01-21 23:39:55.278000+00:00,train
354,173.30479431152344,174.0,2021-01-21 23:40:55.278000+00:00,train
355,173.34120178222656,174.0,2021-01-21 23:41:55.278000+00:00,train
356,173.37176513671875,176.0,2021-01-21 23:42:55.278000+00:00,train
357,173.4141082763672,176.0,2021-01-21 23:43:55.278000+00:00,train
358,173.464599609375,176.0,2021-01-21 23:44:55.278000+00:00,train
359,173.51229858398438,176.0,2021-01-21 23:45:55.278000+00:00,train
360,173.5570831298828,176.0,2021-01-21 23:46:55.278000+00:00,train
361,173.5989227294922,176.0,2021-01-21 23:47:55.278000+00:00,train
362,173.70469665527344,176.0,2021-01-21 23:48:55.278000+00:00,train
363,173.8050079345703,176.0,2021-01-21 23:49:55.278000+00:00,train
364,173.9001007080078,176.0,2021-01-21 23:50:55.278000+00:00,train
365,173.99014282226562,176.0,2021-01-21 23:51:55.278000+00:00,train
366,174.07518005371094,176.0,2021-01-21 23:52:55.278000+00:00,train
367,174.15525817871094,174.0,2021-01-21 23:53:55.278000+00:00,train
368,174.23031616210938,172.0,2021-01-21 23:54:55.278000+00:00,train
369,174.31808471679688,172.0,2021-01-21 23:55:55.278000+00:00,train
370,174.40260314941406,172.0,2021-01-21 23:56:55.278000+00:00,train
371,174.4840087890625,172.0,2021-01-21 23:57:55.278000+00:00,train
372,174.56236267089844,172.0,2021-01-21 23:58:55.278000+00:00,train
373,174.58563232421875,172.0,2021-01-21 23:59:55.278000+00:00,train
374,174.57801818847656,172.0,2021-01-22 00:00:55.278000+00:00,train
375,174.57080078125,172.0,2021-01-22 00:01:55.278000+00:00,train
376,174.56353759765625,172.0,2021-01-22 00:02:55.278000+00:00,train
377,174.55599975585938,172.0,2021-01-22 00:03:55.278000+00:00,train
378,174.54808044433594,172.0,2021-01-22 00:04:55.278000+00:00,train
379,174.53953552246094,172.0,2021-01-22 00:05:55.278000+00:00,train
380,174.53265380859375,172.0,2021-01-22 00:06:55.278000+00:00,train
381,174.52206420898438,172.0,2021-01-22 00:07:55.278000+00:00,train
382,174.5111846923828,172.0,2021-01-22 00:08:55.278000+00:00,train
383,174.50003051757812,173.0,2021-01-22 00:09:55.278000+00:00,train
384,174.48858642578125,174.0,2021-01-22 00:10:55.278000+00:00,train
385,174.47677612304688,174.0,2021-01-22 00:11:55.278000+00:00,train
386,174.464599609375,174.0,2021-01-22 00:12:55.278000+00:00,train
387,174.4520263671875,174.0,2021-01-22 00:13:55.278000+00:00,train
388,174.43899536132812,174.0,2021-01-22 00:14:55.278000+00:00,train
389,174.43714904785156,174.0,2021-01-22 00:15:55.278000+00:00,train
390,174.451171875,174.0,2021-01-22 00:16:55.278000+00:00,train
391,174.46435546875,174.0,2021-01-22 00:17:55.278000+00:00,train
392,174.45513916015625,174.0,2021-01-22 00:18:55.278000+00:00,train
393,174.44578552246094,174.0,2021-01-22 00:19:55.278000+00:00,train
394,174.4364013671875,174.0,2021-01-22 00:20:55.278000+00:00,train
395,174.42710876464844,174.0,2021-01-22 00:21:55.278000+00:00,train
396,174.41790771484375,174.0,2021-01-22 00:22:55.278000+00:00,train
397,174.408935546875,175.0,2021-01-22 00:23:55.278000+00:00,train
398,174.40054321289062,176.0,2021-01-22 00:24:55.278000+00:00,train
399,174.3932647705078,176.0,2021-01-22 00:25:55.278000+00:00,train
400,174.38607788085938,176.0,2021-01-22 00:26:55.278000+00:00,train
401,174.3782958984375,176.0,2021-01-22 00:27:55.278000+00:00,train
402,174.36953735351562,176.0,2021-01-22 00:28:55.278000+00:00,train
403,174.40188598632812,176.0,2021-01-22 00:29:55.278000+00:00,train
404,174.45828247070312,176.0,2021-01-22 00:30:55.278000+00:00,train
405,174.5113525390625,176.0,2021-01-22 00:31:55.278000+00:00,train
406,174.56112670898438,176.0,2021-01-22 00:32:55.278000+00:00,train
407,174.60760498046875,176.0,2021-01-22 00:33:55.278000+00:00,train
408,174.65087890625,176.0,2021-01-22 00:34:55.278000+00:00,train
409,174.69081115722656,176.0,2021-01-22 00:35:55.278000+00:00,train
410,174.7273712158203,176.0,2021-01-22 00:36:55.278000+00:00,train
411,174.76065063476562,176.0,2021-01-22 00:37:55.278000+00:00,train
412,174.79043579101562,178.0,2021-01-22 00:38:55.278000+00:00,train
413,174.81668090820312,178.0,2021-01-22 00:39:55.278000+00:00,train
414,174.8393096923828,178.0,2021-01-22 00:40:55.278000+00:00,train
415,174.85877990722656,172.0,2021-01-22 00:41:55.278000+00:00,train
416,174.88076782226562,172.0,2021-01-22 00:42:55.278000+00:00,train
417,174.90237426757812,172.0,2021-01-22 00:43:55.278000+00:00,train
418,174.9696502685547,172.0,2021-01-22 00:44:55.278000+00:00,train
419,175.03097534179688,172.0,2021-01-22 00:45:55.278000+00:00,train
420,175.0865020751953,172.0,2021-01-22 00:46:55.278000+00:00,train
421,175.03671264648438,172.0,2021-01-22 00:47:55.278000+00:00,train
422,174.9840850830078,172.0,2021-01-22 00:48:55.278000+00:00,train
423,174.92759704589844,172.0,2021-01-22 00:49:55.278000+00:00,train
424,174.86679077148438,172.0,2021-01-22 00:50:55.278000+00:00,train
425,174.80201721191406,174.0,2021-01-22 00:51:55.278000+00:00,train
426,174.7384490966797,174.0,2021-01-22 00:52:55.278000+00:00,train
427,174.68406677246094,174.0,2021-01-22 00:53:55.278000+00:00,train
428,174.6319122314453,174.0,2021-01-22 00:54:55.278000+00:00,train
429,174.57968139648438,174.0,2021-01-22 00:55:55.278000+00:00,train
430,174.5273895263672,174.0,2021-01-22 00:56:55.278000+00:00,train
431,174.50347900390625,174.0,2021-01-22 00:57:55.278000+00:00,train
432,174.47958374023438,174.0,2021-01-22 00:58:55.278000+00:00,train
433,174.45590209960938,174.0,2021-01-22 00:59:55.278000+00:00,train
434,174.43252563476562,174.0,2021-01-22 01:00:55.278000+00:00,train
435,174.40951538085938,174.0,2021-01-22 01:01:55.278000+00:00,train
436,174.3869171142578,174.0,2021-01-22 01:02:55.278000+00:00,train
437,174.36473083496094,174.0,2021-01-22 01:03:55.278000+00:00,train
438,174.34298706054688,174.0,2021-01-22 01:04:55.278000+00:00,train
439,174.3218231201172,176.0,2021-01-22 01:05:55.278000+00:00,train
440,174.30165100097656,176.0,2021-01-22 01:06:55.278000+00:00,train
441,174.2840576171875,176.0,2021-01-22 01:07:55.278000+00:00,train
442,174.24468994140625,176.0,2021-01-22 01:08:55.278000+00:00,train
443,174.20596313476562,176.0,2021-01-22 01:09:55.278000+00:00,train
444,174.16783142089844,176.0,2021-01-22 01:10:55.278000+00:00,train
445,174.15805053710938,176.0,2021-01-22 01:11:55.278000+00:00,train
446,174.14816284179688,176.0,2021-01-22 01:12:55.278000+00:00,train
447,174.13845825195312,176.0,2021-01-22 01:13:55.278000+00:00,train
448,174.12911987304688,176.0,2021-01-22 01:14:55.278000+00:00,train
449,174.12034606933594,176.0,2021-01-22 01:15:55.278000+00:00,train
450,174.1122283935547,176.0,2021-01-22 01:16:55.278000+00:00,train
451,174.1044464111328,176.0,2021-01-22 01:17:55.278000+00:00,train
452,174.09530639648438,176.0,2021-01-22 01:18:55.278000+00:00,train
453,174.10379028320312,176.0,2021-01-22 01:19:55.278000+00:00,train
454,174.12628173828125,176.0,2021-01-22 01:20:55.278000+00:00,train
455,174.1486358642578,176.0,2021-01-22 01:21:55.278000+00:00,train
456,174.17083740234375,177.0,2021-01-22 01:22:55.278000+00:00,train
457,174.1929168701172,178.0,2021-01-22 01:23:55.278000+00:00,train
458,174.2149658203125,178.0,2021-01-22 01:24:55.278000+00:00,train
459,174.23695373535156,172.0,2021-01-22 01:25:55.278000+00:00,train
460,174.25897216796875,172.0,2021-01-22 01:26:55.278000+00:00,train
461,174.2811279296875,172.0,2021-01-22 01:27:55.278000+00:00,train
462,174.31358337402344,172.0,2021-01-22 01:28:55.278000+00:00,train
463,174.3539581298828,172.0,2021-01-22 01:29:55.278000+00:00,train
464,174.3939208984375,172.0,2021-01-22 01:30:55.278000+00:00,train
465,174.35147094726562,172.0,2021-01-22 01:31:55.278000+00:00,train
466,174.3094940185547,172.0,2021-01-22 01:32:55.278000+00:00,train
467,174.2682647705078,172.0,2021-01-22 01:33:55.278000+00:00,train
468,174.2308349609375,172.0,2021-01-22 01:34:55.278000+00:00,train
469,174.18641662597656,172.0,2021-01-22 01:35:55.278000+00:00,train
470,174.13417053222656,172.0,2021-01-22 01:36:55.278000+00:00,train
471,174.08279418945312,173.0,2021-01-22 01:37:55.278000+00:00,train
472,174.03233337402344,174.0,2021-01-22 01:38:55.278000+00:00,train
473,173.98257446289062,174.0,2021-01-22 01:39:55.278000+00:00,train
474,173.93353271484375,174.0,2021-01-22 01:40:55.278000+00:00,train
475,173.88519287109375,174.0,2021-01-22 01:41:55.278000+00:00,train
476,173.83737182617188,174.0,2021-01-22 01:42:55.278000+00:00,train
477,173.80899047851562,174.0,2021-01-22 01:43:55.278000+00:00,train
478,173.79718017578125,174.0,2021-01-22 01:44:55.278000+00:00,train
479,173.78546142578125,174.0,2021-01-22 01:45:55.278000+00:00,train
480,173.77392578125,174.0,2021-01-22 01:46:55.278000+00:00,train
481,173.76275634765625,174.0,2021-01-22 01:47:55.278000+00:00,train
482,173.75245666503906,174.0,2021-01-22 01:48:55.278000+00:00,train
483,173.73165893554688,174.0,2021-01-22 01:49:55.278000+00:00,train
484,173.701416015625,174.0,2021-01-22 01:50:55.278000+00:00,train
485,173.67153930664062,174.0,2021-01-22 01:51:55.278000+00:00,train
486,173.64205932617188,174.0,2021-01-22 01:52:55.278000+00:00,train
487,173.61294555664062,174.0,2021-01-22 01:53:55.278000+00:00,train
488,173.584228515625,176.0,2021-01-22 01:54:55.278000+00:00,train
489,173.55589294433594,176.0,2021-01-22 01:55:55.278000+00:00,train
490,173.5279083251953,176.0,2021-01-22 01:56:55.278000+00:00,train
491,173.5003204345703,176.0,2021-01-22 01:57:55.278000+00:00,train
492,173.4730987548828,176.0,2021-01-22 01:58:55.278000+00:00,train
493,173.44627380371094,176.0,2021-01-22 01:59:55.278000+00:00,train
494,173.4413604736328,176.0,2021-01-22 02:00:55.278000+00:00,train
495,173.43612670898438,176.0,2021-01-22 02:01:55.278000+00:00,train
496,173.43084716796875,176.0,2021-01-22 02:02:55.278000+00:00,train
497,173.42567443847656,176.0,2021-01-22 02:03:55.278000+00:00,train
498,173.41444396972656,176.0,2021-01-22 02:04:55.278000+00:00,train
499,173.4039764404297,174.0,2021-01-22 02:05:55.278000+00:00,train
500,173.39334106445312,172.0,2021-01-22 02:06:55.278000+00:00,train
501,173.4369354248047,172.0,2021-01-22 02:07:55.278000+00:00,train
502,173.48146057128906,172.0,2021-01-22 02:08:55.278000+00:00,train
503,173.52694702148438,172.0,2021-01-22 02:09:55.278000+00:00,train
504,173.5734405517578,172.0,2021-01-22 02:10:55.278000+00:00,train
505,173.59906005859375,172.0,2021-01-22 02:11:55.278000+00:00,train
506,173.58816528320312,172.0,2021-01-22 02:12:55.278000+00:00,train
507,173.5779571533203,172.0,2021-01-22 02:13:55.278000+00:00,train
508,173.5682373046875,172.0,2021-01-22 02:14:55.278000+00:00,train
509,173.55905151367188,172.0,2021-01-22 02:15:55.278000+00:00,train
510,173.551025390625,172.0,2021-01-22 02:16:55.278000+00:00,train
511,173.50962829589844,172.0,2021-01-22 02:17:55.278000+00:00,train
512,173.46868896484375,172.0,2021-01-22 02:18:55.278000+00:00,train
513,173.42816162109375,172.0,2021-01-22 02:19:55.278000+00:00,train
514,173.38803100585938,172.0,2021-01-22 02:20:55.278000+00:00,train
515,173.34829711914062,172.0,2021-01-22 02:21:55.278000+00:00,train
516,173.30894470214844,172.0,2021-01-22 02:22:55.278000+00:00,train
517,173.2699432373047,172.0,2021-01-22 02:23:55.278000+00:00,train
518,173.23129272460938,172.0,2021-01-22 02:24:55.278000+00:00,train
519,173.19297790527344,172.0,2021-01-22 02:25:55.278000+00:00,val
520,173.15496826171875,172.0,2021-01-22 02:26:55.278000+00:00,val
521,173.1173095703125,174.0,2021-01-22 02:27:55.278000+00:00,val
522,173.07994079589844,174.0,2021-01-22 02:28:55.278000+00:00,val
523,173.0428466796875,174.0,2021-01-22 02:29:55.278000+00:00,val
524,173.0060577392578,174.0,2021-01-22 02:30:55.278000+00:00,val
525,172.95196533203125,174.0,2021-01-22 02:31:55.278000+00:00,val
526,172.89866638183594,174.0,2021-01-22 02:32:55.278000+00:00,val
527,172.87924194335938,174.0,2021-01-22 02:33:55.278000+00:00,val
528,172.85977172851562,174.0,2021-01-22 02:34:55.278000+00:00,val
529,172.84046936035156,174.0,2021-01-22 02:35:55.278000+00:00,val
530,172.82139587402344,174.0,2021-01-22 02:36:55.278000+00:00,val
531,172.80259704589844,174.0,2021-01-22 02:37:55.278000+00:00,val
532,172.78414916992188,174.0,2021-01-22 02:38:55.278000+00:00,val
533,172.76605224609375,174.0,2021-01-22 02:39:55.278000+00:00,val
534,172.74835205078125,174.0,2021-01-22 02:40:55.278000+00:00,val
535,172.73106384277344,174.0,2021-01-22 02:41:55.278000+00:00,val
536,172.7141571044922,174.0,2021-01-22 02:42:55.278000+00:00,val
537,172.69772338867188,174.0,2021-01-22 02:43:55.278000+00:00,val
538,172.68170166015625,170.0,2021-01-22 02:44:55.278000+00:00,val
539,172.6661834716797,170.0,2021-01-22 02:45:55.278000+00:00,val
540,172.65115356445312,170.0,2021-01-22 02:46:55.278000+00:00,val
541,172.6365966796875,170.0,2021-01-22 02:47:55.278000+00:00,val
542,172.6242218017578,170.0,2021-01-22 02:48:55.278000+00:00,val
543,172.62124633789062,170.0,2021-01-22 02:49:55.278000+00:00,val
544,172.54086303710938,170.0,2021-01-22 02:50:55.278000+00:00,val
545,172.48741149902344,170.0,2021-01-22 02:51:55.278000+00:00,val
546,172.43507385253906,170.0,2021-01-22 02:52:55.278000+00:00,val
547,172.3837432861328,170.0,2021-01-22 02:53:55.278000+00:00,val
548,172.33328247070312,170.0,2021-01-22 02:54:55.278000+00:00,val
549,172.2835693359375,170.0,2021-01-22 02:55:55.278000+00:00,val
550,172.23455810546875,170.0,2021-01-22 02:56:55.278000+00:00,val
551,172.1859588623047,170.0,2021-01-22 02:57:55.278000+00:00,val
552,172.13778686523438,170.0,2021-01-22 02:58:55.278000+00:00,val
553,172.0902099609375,170.0,2021-01-22 02:59:55.278000+00:00,val
554,172.04318237304688,172.0,2021-01-22 03:00:55.278000+00:00,val
555,171.9967498779297,172.0,2021-01-22 03:01:55.278000+00:00,val
556,171.95106506347656,172.0,2021-01-22 03:02:55.278000+00:00,val
557,171.89138793945312,172.0,2021-01-22 03:03:55.278000+00:00,val
558,171.822021484375,172.0,2021-01-22 03:04:55.278000+00:00,val
559,171.753662109375,172.0,2021-01-22 03:05:55.278000+00:00,val
560,171.7271728515625,172.0,2021-01-22 03:06:55.278000+00:00,val
561,171.7007598876953,172.0,2021-01-22 03:07:55.278000+00:00,val
562,171.6744842529297,172.0,2021-01-22 03:08:55.278000+00:00,val
563,171.6483917236328,172.0,2021-01-22 03:09:55.278000+00:00,val
564,171.62246704101562,172.0,2021-01-22 03:10:55.278000+00:00,val
565,171.59678649902344,172.0,2021-01-22 03:11:55.278000+00:00,val
566,171.5712890625,172.0,2021-01-22 03:12:55.278000+00:00,val
567,171.54603576660156,172.0,2021-01-22 03:13:55.278000+00:00,val
568,171.52101135253906,172.0,2021-01-22 03:14:55.278000+00:00,val
569,171.49620056152344,172.0,2021-01-22 03:15:55.278000+00:00,val
570,171.47164916992188,172.0,2021-01-22 03:16:55.278000+00:00,val
571,171.4473114013672,174.0,2021-01-22 03:17:55.278000+00:00,val
572,171.42320251464844,174.0,2021-01-22 03:18:55.278000+00:00,val
573,171.39930725097656,174.0,2021-01-22 03:19:55.278000+00:00,val
574,171.37155151367188,168.0,2021-01-22 03:20:55.278000+00:00,val
575,171.34530639648438,168.0,2021-01-22 03:21:55.278000+00:00,val
576,171.32066345214844,168.0,2021-01-22 03:22:55.278000+00:00,val
577,171.31822204589844,168.0,2021-01-22 03:23:55.278000+00:00,val
578,171.31614685058594,168.0,2021-01-22 03:24:55.278000+00:00,val
579,171.3147735595703,168.0,2021-01-22 03:25:55.278000+00:00,val
580,171.19833374023438,168.0,2021-01-22 03:26:55.278000+00:00,val
581,171.0865020751953,168.0,2021-01-22 03:27:55.278000+00:00,val
582,170.97897338867188,168.0,2021-01-22 03:28:55.278000+00:00,val
583,170.87562561035156,168.0,2021-01-22 03:29:55.278000+00:00,val
584,170.7763671875,168.0,2021-01-22 03:30:55.278000+00:00,val
585,170.67527770996094,168.0,2021-01-22 03:31:55.278000+00:00,val
586,170.59019470214844,168.0,2021-01-22 03:32:55.278000+00:00,val
587,170.50689697265625,168.0,2021-01-22 03:33:55.278000+00:00,val
588,170.42527770996094,168.0,2021-01-22 03:34:55.278000+00:00,val
589,170.34519958496094,169.0,2021-01-22 03:35:55.278000+00:00,val
590,170.2665557861328,170.0,2021-01-22 03:36:55.278000+00:00,val
591,170.18923950195312,170.0,2021-01-22 03:37:55.278000+00:00,val
592,170.11318969726562,170.0,2021-01-22 03:38:55.278000+00:00,val
593,170.03834533691406,170.0,2021-01-22 03:39:55.278000+00:00,val
594,169.96466064453125,170.0,2021-01-22 03:40:55.278000+00:00,val
595,169.9156951904297,170.0,2021-01-22 03:41:55.278000+00:00,val
596,169.8869171142578,170.0,2021-01-22 03:42:55.278000+00:00,val
597,169.8582305908203,170.0,2021-01-22 03:43:55.278000+00:00,val
598,169.8297119140625,170.0,2021-01-22 03:44:55.278000+00:00,val
599,169.8013458251953,170.0,2021-01-22 03:45:55.278000+00:00,val
600,169.77317810058594,170.0,2021-01-22 03:46:55.278000+00:00,val
601,169.74517822265625,170.0,2021-01-22 03:47:55.278000+00:00,val
602,169.71737670898438,170.0,2021-01-22 03:48:55.278000+00:00,val
603,169.68978881835938,170.0,2021-01-22 03:49:55.278000+00:00,val
604,169.66238403320312,170.0,2021-01-22 03:50:55.278000+00:00,val
605,169.63516235351562,170.0,2021-01-22 03:51:55.278000+00:00,val
606,169.60813903808594,170.0,2021-01-22 03:52:55.278000+00:00,val
607,169.5720977783203,166.0,2021-01-22 03:53:55.278000+00:00,val
608,169.53707885742188,166.0,2021-01-22 03:54:55.278000+00:00,val
609,169.5031280517578,166.0,2021-01-22 03:55:55.278000+00:00,val
610,169.47027587890625,166.0,2021-01-22 03:56:55.278000+00:00,val
611,169.4385986328125,166.0,2021-01-22 03:57:55.278000+00:00,val
612,169.40811157226562,166.0,2021-01-22 03:58:55.278000+00:00,val
613,169.28216552734375,166.0,2021-01-22 03:59:55.278000+00:00,val
614,169.1601104736328,166.0,2021-01-22 04:00:55.278000+00:00,val
615,169.04168701171875,166.0,2021-01-22 04:01:55.278000+00:00,val
616,168.9268035888672,166.0,2021-01-22 04:02:55.278000+00:00,val
617,168.8153533935547,166.0,2021-01-22 04:03:55.278000+00:00,val
618,168.70724487304688,166.0,2021-01-22 04:04:55.278000+00:00,val
619,168.6024627685547,166.0,2021-01-22 04:05:55.278000+00:00,val
620,168.50099182128906,166.0,2021-01-22 04:06:55.278000+00:00,val
621,168.40286254882812,166.0,2021-01-22 04:07:55.278000+00:00,val
622,168.30812072753906,167.0,2021-01-22 04:08:55.278000+00:00,val
623,168.21681213378906,168.0,2021-01-22 04:09:55.278000+00:00,val
624,168.1388397216797,168.0,2021-01-22 04:10:55.278000+00:00,val
625,168.06214904785156,168.0,2021-01-22 04:11:55.278000+00:00,val
626,167.9866180419922,168.0,2021-01-22 04:12:55.278000+00:00,val
627,167.9122314453125,168.0,2021-01-22 04:13:55.278000+00:00,val
628,167.8627471923828,168.0,2021-01-22 04:14:55.278000+00:00,val
629,167.83367919921875,168.0,2021-01-22 04:15:55.278000+00:00,val
630,167.80470275878906,168.0,2021-01-22 04:16:55.278000+00:00,val
631,167.77586364746094,168.0,2021-01-22 04:17:55.278000+00:00,val
632,167.7471923828125,168.0,2021-01-22 04:18:55.278000+00:00,val
633,167.7186737060547,168.0,2021-01-22 04:19:55.278000+00:00,val
634,167.69036865234375,168.0,2021-01-22 04:20:55.278000+00:00,val
635,167.66224670410156,168.0,2021-01-22 04:21:55.278000+00:00,val
636,167.63427734375,168.0,2021-01-22 04:22:55.278000+00:00,val
637,167.60653686523438,164.0,2021-01-22 04:23:55.278000+00:00,val
638,167.57896423339844,164.0,2021-01-22 04:24:55.278000+00:00,val
639,167.5515594482422,164.0,2021-01-22 04:25:55.278000+00:00,val
640,167.5140838623047,164.0,2021-01-22 04:26:55.278000+00:00,val
641,167.4775390625,164.0,2021-01-22 04:27:55.278000+00:00,val
642,167.44198608398438,164.0,2021-01-22 04:28:55.278000+00:00,val
643,167.31060791015625,164.0,2021-01-22 04:29:55.278000+00:00,val
644,167.18296813964844,164.0,2021-01-22 04:30:55.278000+00:00,val
645,167.05886840820312,164.0,2021-01-22 04:31:55.278000+00:00,val
646,166.93809509277344,164.0,2021-01-22 04:32:55.278000+00:00,val
647,166.82058715820312,164.0,2021-01-22 04:33:55.278000+00:00,val
648,166.7062225341797,164.0,2021-01-22 04:34:55.278000+00:00,val
649,166.59490966796875,164.0,2021-01-22 04:35:55.278000+00:00,val
650,166.48666381835938,164.0,2021-01-22 04:36:55.278000+00:00,val
651,166.3813934326172,164.0,2021-01-22 04:37:55.278000+00:00,val
652,166.27915954589844,164.0,2021-01-22 04:38:55.278000+00:00,val
653,166.17990112304688,164.0,2021-01-22 04:39:55.278000+00:00,val
654,166.08367919921875,164.0,2021-01-22 04:40:55.278000+00:00,val
655,165.9905548095703,164.0,2021-01-22 04:41:55.278000+00:00,val
656,165.90054321289062,164.0,2021-01-22 04:42:55.278000+00:00,val
657,165.83123779296875,164.0,2021-01-22 04:43:55.278000+00:00,val
658,165.7693328857422,166.0,2021-01-22 04:44:55.278000+00:00,val
659,165.71575927734375,166.0,2021-01-22 04:45:55.278000+00:00,val
660,165.6453094482422,166.0,2021-01-22 04:46:55.278000+00:00,val
661,165.57595825195312,166.0,2021-01-22 04:47:55.278000+00:00,val
662,165.5076446533203,166.0,2021-01-22 04:48:55.278000+00:00,val
663,165.4403839111328,163.0,2021-01-22 04:49:55.278000+00:00,val
664,165.4151611328125,160.0,2021-01-22 04:50:55.278000+00:00,val
665,165.3899383544922,160.0,2021-01-22 04:51:55.278000+00:00,val
666,165.36483764648438,160.0,2021-01-22 04:52:55.278000+00:00,val
667,165.3398895263672,160.0,2021-01-22 04:53:55.278000+00:00,val
668,165.31512451171875,160.0,2021-01-22 04:54:55.278000+00:00,val
669,165.22470092773438,160.0,2021-01-22 04:55:55.278000+00:00,val
670,165.038330078125,160.0,2021-01-22 04:56:55.278000+00:00,val
671,164.85939025878906,160.0,2021-01-22 04:57:55.278000+00:00,val
672,164.68695068359375,160.0,2021-01-22 04:58:55.278000+00:00,val
673,164.5203094482422,161.0,2021-01-22 04:59:55.278000+00:00,val
674,164.3589324951172,162.0,2021-01-22 05:00:55.278000+00:00,val
675,164.1974639892578,162.0,2021-01-22 05:01:55.278000+00:00,val
676,164.03927612304688,162.0,2021-01-22 05:02:55.278000+00:00,val
677,163.885986328125,162.0,2021-01-22 05:03:55.278000+00:00,val
678,163.73727416992188,162.0,2021-01-22 05:04:55.278000+00:00,val
679,163.620361328125,162.0,2021-01-22 05:05:55.278000+00:00,val
680,163.53074645996094,162.0,2021-01-22 05:06:55.278000+00:00,val
681,163.44309997558594,162.0,2021-01-22 05:07:55.278000+00:00,val
682,163.35726928710938,162.0,2021-01-22 05:08:55.278000+00:00,val
683,163.27308654785156,162.0,2021-01-22 05:09:55.278000+00:00,val
684,163.19053649902344,162.0,2021-01-22 05:10:55.278000+00:00,val
685,163.10977172851562,162.0,2021-01-22 05:11:55.278000+00:00,val
686,163.03102111816406,162.0,2021-01-22 05:12:55.278000+00:00,val
687,162.95458984375,162.0,2021-01-22 05:13:55.278000+00:00,val
688,162.8807830810547,158.0,2021-01-22 05:14:55.278000+00:00,val
689,162.80990600585938,158.0,2021-01-22 05:15:55.278000+00:00,val
690,162.74232482910156,158.0,2021-01-22 05:16:55.278000+00:00,test
691,162.6783447265625,158.0,2021-01-22 05:17:55.278000+00:00,test
692,162.6183319091797,158.0,2021-01-22 05:18:55.278000+00:00,test
693,162.56089782714844,158.0,2021-01-22 05:19:55.278000+00:00,test
694,162.39306640625,158.0,2021-01-22 05:20:55.278000+00:00,test
695,162.2301025390625,158.0,2021-01-22 05:21:55.278000+00:00,test
696,162.07151794433594,158.0,2021-01-22 05:22:55.278000+00:00,test
697,161.91700744628906,158.0,2021-01-22 05:23:55.278000+00:00,test
698,161.7662811279297,158.0,2021-01-22 05:24:55.278000+00:00,test
699,161.6190643310547,158.0,2021-01-22 05:25:55.278000+00:00,test
700,161.47520446777344,158.0,2021-01-22 05:26:55.278000+00:00,test
701,161.33448791503906,158.0,2021-01-22 05:27:55.278000+00:00,test
702,161.19676208496094,158.0,2021-01-22 05:28:55.278000+00:00,test
703,161.06192016601562,158.0,2021-01-22 05:29:55.278000+00:00,test
704,160.9298095703125,158.0,2021-01-22 05:30:55.278000+00:00,test
705,160.80035400390625,158.0,2021-01-22 05:31:55.278000+00:00,test
706,160.67343139648438,158.0,2021-01-22 05:32:55.278000+00:00,test
707,160.54898071289062,158.0,2021-01-22 05:33:55.278000+00:00,test
708,160.4242401123047,158.0,2021-01-22 05:34:55.278000+00:00,test
709,160.30274963378906,157.0,2021-01-22 05:35:55.278000+00:00,test
710,160.18479919433594,154.0,2021-01-22 05:36:55.278000+00:00,test
711,160.07044982910156,154.0,2021-01-22 05:37:55.278000+00:00,test
712,159.95973205566406,154.0,2021-01-22 05:38:55.278000+00:00,test
713,159.8527374267578,154.0,2021-01-22 05:39:55.278000+00:00,test
714,159.74954223632812,154.0,2021-01-22 05:40:55.278000+00:00,test
715,159.62472534179688,154.0,2021-01-22 05:41:55.278000+00:00,test
716,159.41241455078125,154.0,2021-01-22 05:42:55.278000+00:00,test
717,159.20750427246094,154.0,2021-01-22 05:43:55.278000+00:00,test
718,159.009765625,154.0,2021-01-22 05:44:55.278000+00:00,test
719,158.8190155029297,154.0,2021-01-22 05:45:55.278000+00:00,test
720,158.63516235351562,154.0,2021-01-22 05:46:55.278000+00:00,test
721,158.4581756591797,154.0,2021-01-22 05:47:55.278000+00:00,test
722,158.28805541992188,154.0,2021-01-22 05:48:55.278000+00:00,test
723,158.1154327392578,154.0,2021-01-22 05:49:55.278000+00:00,test
724,157.94692993164062,154.0,2021-01-22 05:50:55.278000+00:00,test
725,157.7823944091797,156.0,2021-01-22 05:51:55.278000+00:00,test
726,157.6216583251953,156.0,2021-01-22 05:52:55.278000+00:00,test
727,157.4645538330078,156.0,2021-01-22 05:53:55.278000+00:00,test
728,157.3109893798828,150.0,2021-01-22 05:54:55.278000+00:00,test
729,157.16085815429688,150.0,2021-01-22 05:55:55.278000+00:00,test
730,157.01405334472656,150.0,2021-01-22 05:56:55.278000+00:00,test
731,156.91915893554688,150.0,2021-01-22 05:57:55.278000+00:00,test
732,156.82623291015625,150.0,2021-01-22 05:58:55.278000+00:00,test
733,156.73532104492188,150.0,2021-01-22 05:59:55.278000+00:00,test
734,156.47552490234375,150.0,2021-01-22 06:00:55.278000+00:00,test
735,156.22406005859375,150.0,2021-01-22 06:01:55.278000+00:00,test
736,155.9802703857422,150.0,2021-01-22 06:02:55.278000+00:00,test
737,155.74359130859375,150.0,2021-01-22 06:03:55.278000+00:00,test
738,155.51364135742188,152.0,2021-01-22 06:04:55.278000+00:00,test
739,155.29005432128906,152.0,2021-01-22 06:05:55.278000+00:00,test
740,155.07257080078125,152.0,2021-01-22 06:06:55.278000+00:00,test
741,154.86097717285156,152.0,2021-01-22 06:07:55.278000+00:00,test
742,154.65504455566406,152.0,2021-01-22 06:08:55.278000+00:00,test
743,154.4546356201172,150.0,2021-01-22 06:09:55.278000+00:00,test
744,154.3204803466797,148.0,2021-01-22 06:10:55.278000+00:00,test
745,154.19235229492188,148.0,2021-01-22 06:11:55.278000+00:00,test
746,154.07058715820312,148.0,2021-01-22 06:12:55.278000+00:00,test
747,153.95555114746094,148.0,2021-01-22 06:13:55.278000+00:00,test
748,153.84771728515625,148.0,2021-01-22 06:14:55.278000+00:00,test
749,153.67649841308594,148.0,2021-01-22 06:15:55.278000+00:00,test
750,153.4528350830078,148.0,2021-01-22 06:16:55.278000+00:00,test
751,153.23492431640625,148.0,2021-01-22 06:17:55.278000+00:00,test
752,153.0223846435547,148.0,2021-01-22 06:18:55.278000+00:00,test
753,152.81491088867188,148.0,2021-01-22 06:19:55.278000+00:00,test
754,152.61221313476562,148.0,2021-01-22 06:20:55.278000+00:00,test
755,152.4141082763672,148.0,2021-01-22 06:21:55.278000+00:00,test
756,152.22039794921875,144.0,2021-01-22 06:22:55.278000+00:00,test
757,152.0308837890625,144.0,2021-01-22 06:23:55.278000+00:00,test
758,151.84547424316406,144.0,2021-01-22 06:24:55.278000+00:00,test
759,151.662353515625,144.0,2021-01-22 06:25:55.278000+00:00,test
760,151.48435974121094,144.0,2021-01-22 06:26:55.278000+00:00,test
761,151.31141662597656,144.0,2021-01-22 06:27:55.278000+00:00,test
762,151.0233612060547,144.0,2021-01-22 06:28:55.278000+00:00,test
