,prediction,real,time,split
0,161.311767578125,158.0,2021-01-21 17:55:55.278000+00:00,train
1,161.2515106201172,158.0,2021-01-21 17:56:55.278000+00:00,train
2,161.20896911621094,158.0,2021-01-21 17:57:55.278000+00:00,train
3,161.16693115234375,158.0,2021-01-21 17:58:55.278000+00:00,train
4,161.1254119873047,159.0,2021-01-21 17:59:55.278000+00:00,train
5,161.0843505859375,160.0,2021-01-21 18:00:55.278000+00:00,train
6,161.02752685546875,160.0,2021-01-21 18:01:55.278000+00:00,train
7,160.9579620361328,160.0,2021-01-21 18:02:55.278000+00:00,train
8,160.88929748535156,160.0,2021-01-21 18:03:55.278000+00:00,train
9,160.82138061523438,160.0,2021-01-21 18:04:55.278000+00:00,train
10,160.7542724609375,160.0,2021-01-21 18:05:55.278000+00:00,train
11,160.68792724609375,160.0,2021-01-21 18:06:55.278000+00:00,train
12,160.62232971191406,160.0,2021-01-21 18:07:55.278000+00:00,train
13,160.55743408203125,160.0,2021-01-21 18:08:55.278000+00:00,train
14,160.4931182861328,160.0,2021-01-21 18:09:55.278000+00:00,train
15,160.4293670654297,160.0,2021-01-21 18:10:55.278000+00:00,train
16,160.36622619628906,160.0,2021-01-21 18:11:55.278000+00:00,train
17,160.3036651611328,160.0,2021-01-21 18:12:55.278000+00:00,train
18,160.24172973632812,160.0,2021-01-21 18:13:55.278000+00:00,train
19,160.1988067626953,160.0,2021-01-21 18:14:55.278000+00:00,train
20,160.16281127929688,160.0,2021-01-21 18:15:55.278000+00:00,train
21,160.11976623535156,156.0,2021-01-21 18:16:55.278000+00:00,train
22,160.07711791992188,156.0,2021-01-21 18:17:55.278000+00:00,train
23,160.03500366210938,154.0,2021-01-21 18:18:55.278000+00:00,train
24,159.99346923828125,154.0,2021-01-21 18:19:55.278000+00:00,train
25,159.9524688720703,156.0,2021-01-21 18:20:55.278000+00:00,train
26,159.91207885742188,156.0,2021-01-21 18:21:55.278000+00:00,train
27,159.87228393554688,156.0,2021-01-21 18:22:55.278000+00:00,train
28,159.83309936523438,156.0,2021-01-21 18:23:55.278000+00:00,train
29,159.79446411132812,156.0,2021-01-21 18:24:55.278000+00:00,train
30,159.75650024414062,156.0,2021-01-21 18:25:55.278000+00:00,train
31,159.71926879882812,156.0,2021-01-21 18:26:55.278000+00:00,train
32,159.6827850341797,156.0,2021-01-21 18:27:55.278000+00:00,train
33,159.6471405029297,156.0,2021-01-21 18:28:55.278000+00:00,train
34,159.61239624023438,156.0,2021-01-21 18:29:55.278000+00:00,train
35,159.57858276367188,156.0,2021-01-21 18:30:55.278000+00:00,train
36,159.4709014892578,156.0,2021-01-21 18:31:55.278000+00:00,train
37,159.36697387695312,156.0,2021-01-21 18:32:55.278000+00:00,train
38,159.21363830566406,156.0,2021-01-21 18:33:55.278000+00:00,train
39,159.06509399414062,156.0,2021-01-21 18:34:55.278000+00:00,train
40,158.96807861328125,156.0,2021-01-21 18:35:55.278000+00:00,train
41,158.88694763183594,156.0,2021-01-21 18:36:55.278000+00:00,train
42,158.8172607421875,156.0,2021-01-21 18:37:55.278000+00:00,train
43,158.7484130859375,156.0,2021-01-21 18:38:55.278000+00:00,train
44,158.68038940429688,156.0,2021-01-21 18:39:55.278000+00:00,train
45,158.6130828857422,158.0,2021-01-21 18:40:55.278000+00:00,train
46,158.5464630126953,158.0,2021-01-21 18:41:55.278000+00:00,train
47,158.4805450439453,158.0,2021-01-21 18:42:55.278000+00:00,train
48,158.415283203125,158.0,2021-01-21 18:43:55.278000+00:00,train
49,158.3506622314453,158.0,2021-01-21 18:44:55.278000+00:00,train
50,158.2866668701172,158.0,2021-01-21 18:45:55.278000+00:00,train
51,158.2232666015625,158.0,2021-01-21 18:46:55.278000+00:00,train
52,158.16046142578125,158.0,2021-01-21 18:47:55.278000+00:00,train
53,158.0982208251953,158.0,2021-01-21 18:48:55.278000+00:00,train
54,158.0365447998047,158.0,2021-01-21 18:49:55.278000+00:00,train
55,157.97543334960938,158.0,2021-01-21 18:50:55.278000+00:00,train
56,157.9058837890625,158.0,2021-01-21 18:51:55.278000+00:00,train
57,157.83056640625,156.0,2021-01-21 18:52:55.278000+00:00,train
58,157.75628662109375,154.0,2021-01-21 18:53:55.278000+00:00,train
59,157.68310546875,153.0,2021-01-21 18:54:55.278000+00:00,train
60,157.64378356933594,152.0,2021-01-21 18:55:55.278000+00:00,train
61,157.60516357421875,152.0,2021-01-21 18:56:55.278000+00:00,train
62,157.56723022460938,153.0,2021-01-21 18:57:55.278000+00:00,train
63,157.53004455566406,154.0,2021-01-21 18:58:55.278000+00:00,train
64,157.49363708496094,154.0,2021-01-21 18:59:55.278000+00:00,train
65,157.45802307128906,154.0,2021-01-21 19:00:55.278000+00:00,train
66,157.4232177734375,154.0,2021-01-21 19:01:55.278000+00:00,train
67,157.38931274414062,154.0,2021-01-21 19:02:55.278000+00:00,train
68,157.35635375976562,154.0,2021-01-21 19:03:55.278000+00:00,train
69,157.3243865966797,154.0,2021-01-21 19:04:55.278000+00:00,train
70,157.29345703125,154.0,2021-01-21 19:05:55.278000+00:00,train
71,157.26353454589844,154.0,2021-01-21 19:06:55.278000+00:00,train
72,157.20309448242188,154.0,2021-01-21 19:07:55.278000+00:00,train
73,157.1018524169922,154.0,2021-01-21 19:08:55.278000+00:00,train
74,156.977783203125,154.0,2021-01-21 19:09:55.278000+00:00,train
75,156.82928466796875,154.0,2021-01-21 19:10:55.278000+00:00,train
76,156.68466186523438,154.0,2021-01-21 19:11:55.278000+00:00,train
77,156.56991577148438,154.0,2021-01-21 19:12:55.278000+00:00,train
78,156.4813232421875,154.0,2021-01-21 19:13:55.278000+00:00,train
79,156.40501403808594,154.0,2021-01-21 19:14:55.278000+00:00,train
80,156.33871459960938,154.0,2021-01-21 19:15:55.278000+00:00,train
81,156.2731475830078,154.0,2021-01-21 19:16:55.278000+00:00,train
82,156.20828247070312,154.0,2021-01-21 19:17:55.278000+00:00,train
83,156.14407348632812,154.0,2021-01-21 19:18:55.278000+00:00,train
84,156.08050537109375,154.0,2021-01-21 19:19:55.278000+00:00,train
85,156.017578125,154.0,2021-01-21 19:20:55.278000+00:00,train
86,155.9552764892578,154.0,2021-01-21 19:21:55.278000+00:00,train
87,155.89356994628906,156.0,2021-01-21 19:22:55.278000+00:00,train
88,155.83245849609375,156.0,2021-01-21 19:23:55.278000+00:00,train
89,155.7719268798828,156.0,2021-01-21 19:24:55.278000+00:00,train
90,155.71197509765625,156.0,2021-01-21 19:25:55.278000+00:00,train
91,155.652587890625,156.0,2021-01-21 19:26:55.278000+00:00,train
92,155.59373474121094,151.0,2021-01-21 19:27:55.278000+00:00,train
93,155.53529357910156,150.0,2021-01-21 19:28:55.278000+00:00,train
94,155.4774169921875,150.0,2021-01-21 19:29:55.278000+00:00,train
95,155.42005920410156,150.0,2021-01-21 19:30:55.278000+00:00,train
96,155.3632354736328,150.0,2021-01-21 19:31:55.278000+00:00,train
97,155.3069610595703,150.0,2021-01-21 19:32:55.278000+00:00,train
98,155.25119018554688,150.0,2021-01-21 19:33:55.278000+00:00,train
99,155.1889190673828,150.0,2021-01-21 19:34:55.278000+00:00,train
100,155.12319946289062,150.0,2021-01-21 19:35:55.278000+00:00,train
101,155.05880737304688,150.0,2021-01-21 19:36:55.278000+00:00,train
102,155.026611328125,152.0,2021-01-21 19:37:55.278000+00:00,train
103,154.99542236328125,152.0,2021-01-21 19:38:55.278000+00:00,train
104,154.9652557373047,152.0,2021-01-21 19:39:55.278000+00:00,train
105,154.9362030029297,152.0,2021-01-21 19:40:55.278000+00:00,train
106,154.90830993652344,152.0,2021-01-21 19:41:55.278000+00:00,train
107,154.7863311767578,152.0,2021-01-21 19:42:55.278000+00:00,train
108,154.64051818847656,152.0,2021-01-21 19:43:55.278000+00:00,train
109,154.49847412109375,152.0,2021-01-21 19:44:55.278000+00:00,train
110,154.3600311279297,152.0,2021-01-21 19:45:55.278000+00:00,train
111,154.22509765625,152.0,2021-01-21 19:46:55.278000+00:00,train
112,154.0935516357422,152.0,2021-01-21 19:47:55.278000+00:00,train
113,153.96539306640625,152.0,2021-01-21 19:48:55.278000+00:00,train
114,153.8406219482422,152.0,2021-01-21 19:49:55.278000+00:00,train
115,153.71922302246094,152.0,2021-01-21 19:50:55.278000+00:00,train
116,153.61563110351562,153.0,2021-01-21 19:51:55.278000+00:00,train
117,153.55714416503906,154.0,2021-01-21 19:52:55.278000+00:00,train
118,153.52220153808594,154.0,2021-01-21 19:53:55.278000+00:00,train
119,153.4874267578125,154.0,2021-01-21 19:54:55.278000+00:00,train
120,153.43006896972656,154.0,2021-01-21 19:55:55.278000+00:00,train
121,153.3732452392578,154.0,2021-01-21 19:56:55.278000+00:00,train
122,153.31695556640625,156.0,2021-01-21 19:57:55.278000+00:00,train
123,153.2606201171875,156.0,2021-01-21 19:58:55.278000+00:00,train
124,153.20481872558594,156.0,2021-01-21 19:59:55.278000+00:00,train
125,153.14956665039062,156.0,2021-01-21 20:00:55.278000+00:00,train
126,153.09486389160156,156.0,2021-01-21 20:01:55.278000+00:00,train
127,153.0406951904297,156.0,2021-01-21 20:02:55.278000+00:00,train
128,152.98709106445312,156.0,2021-01-21 20:03:55.278000+00:00,train
129,152.9340057373047,156.0,2021-01-21 20:04:55.278000+00:00,train
130,152.88143920898438,156.0,2021-01-21 20:05:55.278000+00:00,train
131,152.8457794189453,158.0,2021-01-21 20:06:55.278000+00:00,train
132,152.82437133789062,158.0,2021-01-21 20:07:55.278000+00:00,train
133,152.8031768798828,158.0,2021-01-21 20:08:55.278000+00:00,train
134,152.7821807861328,158.0,2021-01-21 20:09:55.278000+00:00,train
135,152.76141357421875,158.0,2021-01-21 20:10:55.278000+00:00,train
136,152.74081420898438,158.0,2021-01-21 20:11:55.278000+00:00,train
137,152.7399139404297,158.0,2021-01-21 20:12:55.278000+00:00,train
138,152.739013671875,158.0,2021-01-21 20:13:55.278000+00:00,train
139,152.73812866210938,159.0,2021-01-21 20:14:55.278000+00:00,train
140,152.72891235351562,160.0,2021-01-21 20:15:55.278000+00:00,train
141,152.7201385498047,160.0,2021-01-21 20:16:55.278000+00:00,train
142,152.71182250976562,158.0,2021-01-21 20:17:55.278000+00:00,train
143,152.70399475097656,156.0,2021-01-21 20:18:55.278000+00:00,train
144,152.69664001464844,156.0,2021-01-21 20:19:55.278000+00:00,train
145,152.6898193359375,156.0,2021-01-21 20:20:55.278000+00:00,train
146,152.68980407714844,156.0,2021-01-21 20:21:55.278000+00:00,train
147,152.6898193359375,156.0,2021-01-21 20:22:55.278000+00:00,train
148,152.6898651123047,156.0,2021-01-21 20:23:55.278000+00:00,train
149,152.68995666503906,156.0,2021-01-21 20:24:55.278000+00:00,train
150,152.69012451171875,156.0,2021-01-21 20:25:55.278000+00:00,train
151,152.69033813476562,156.0,2021-01-21 20:26:55.278000+00:00,train
152,152.69654846191406,156.0,2021-01-21 20:27:55.278000+00:00,train
153,152.7212677001953,156.0,2021-01-21 20:28:55.278000+00:00,train
154,152.76055908203125,156.0,2021-01-21 20:29:55.278000+00:00,train
155,152.8164520263672,157.0,2021-01-21 20:30:55.278000+00:00,train
156,152.875732421875,158.0,2021-01-21 20:31:55.278000+00:00,train
157,152.92042541503906,158.0,2021-01-21 20:32:55.278000+00:00,train
158,152.9407501220703,158.0,2021-01-21 20:33:55.278000+00:00,train
159,152.9612274169922,158.0,2021-01-21 20:34:55.278000+00:00,train
160,152.9818115234375,158.0,2021-01-21 20:35:55.278000+00:00,train
161,153.00250244140625,158.0,2021-01-21 20:36:55.278000+00:00,train
162,153.02334594726562,158.0,2021-01-21 20:37:55.278000+00:00,train
163,153.0443115234375,158.0,2021-01-21 20:38:55.278000+00:00,train
164,153.06539916992188,160.0,2021-01-21 20:39:55.278000+00:00,train
165,153.08665466308594,160.0,2021-01-21 20:40:55.278000+00:00,train
166,153.10801696777344,160.0,2021-01-21 20:41:55.278000+00:00,train
167,153.12953186035156,160.0,2021-01-21 20:42:55.278000+00:00,train
168,153.1511688232422,160.0,2021-01-21 20:43:55.278000+00:00,train
169,153.17294311523438,160.0,2021-01-21 20:44:55.278000+00:00,train
170,153.20252990722656,160.0,2021-01-21 20:45:55.278000+00:00,train
171,153.2378692626953,160.0,2021-01-21 20:46:55.278000+00:00,train
172,153.27381896972656,161.0,2021-01-21 20:47:55.278000+00:00,train
173,153.3103790283203,162.0,2021-01-21 20:48:55.278000+00:00,train
174,153.34751892089844,162.0,2021-01-21 20:49:55.278000+00:00,train
175,153.38523864746094,162.0,2021-01-21 20:50:55.278000+00:00,train
176,153.42352294921875,162.0,2021-01-21 20:51:55.278000+00:00,train
177,153.4623260498047,162.0,2021-01-21 20:52:55.278000+00:00,train
178,153.5016326904297,162.0,2021-01-21 20:53:55.278000+00:00,train
179,153.54852294921875,162.0,2021-01-21 20:54:55.278000+00:00,train
180,153.59681701660156,162.0,2021-01-21 20:55:55.278000+00:00,train
181,153.64646911621094,164.0,2021-01-21 20:56:55.278000+00:00,train
182,153.671875,164.0,2021-01-21 20:57:55.278000+00:00,train
183,153.6980743408203,164.0,2021-01-21 20:58:55.278000+00:00,train
184,153.72499084472656,164.0,2021-01-21 20:59:55.278000+00:00,train
185,153.75271606445312,164.0,2021-01-21 21:00:55.278000+00:00,train
186,153.7812042236328,164.0,2021-01-21 21:01:55.278000+00:00,train
187,153.8941192626953,164.0,2021-01-21 21:02:55.278000+00:00,train
188,154.032958984375,164.0,2021-01-21 21:03:55.278000+00:00,train
189,154.1753692626953,165.0,2021-01-21 21:04:55.278000+00:00,train
190,154.32131958007812,166.0,2021-01-21 21:05:55.278000+00:00,train
191,154.47079467773438,166.0,2021-01-21 21:06:55.278000+00:00,train
192,154.623779296875,166.0,2021-01-21 21:07:55.278000+00:00,train
193,154.77816772460938,166.0,2021-01-21 21:08:55.278000+00:00,train
194,154.93838500976562,166.0,2021-01-21 21:09:55.278000+00:00,train
195,155.10231018066406,166.0,2021-01-21 21:10:55.278000+00:00,train
196,155.27024841308594,166.0,2021-01-21 21:11:55.278000+00:00,train
197,155.3942413330078,166.0,2021-01-21 21:12:55.278000+00:00,train
198,155.5221405029297,166.0,2021-01-21 21:13:55.278000+00:00,train
199,155.65341186523438,166.0,2021-01-21 21:14:55.278000+00:00,train
200,155.7884521484375,166.0,2021-01-21 21:15:55.278000+00:00,train
201,155.92527770996094,165.0,2021-01-21 21:16:55.278000+00:00,train
202,156.06771850585938,163.0,2021-01-21 21:17:55.278000+00:00,train
203,156.21380615234375,162.0,2021-01-21 21:18:55.278000+00:00,train
204,156.36363220214844,162.0,2021-01-21 21:19:55.278000+00:00,train
205,156.5165252685547,162.0,2021-01-21 21:20:55.278000+00:00,train
206,156.67422485351562,162.0,2021-01-21 21:21:55.278000+00:00,train
207,156.83657836914062,162.0,2021-01-21 21:22:55.278000+00:00,train
208,157.00360107421875,164.0,2021-01-21 21:23:55.278000+00:00,train
209,157.1729278564453,164.0,2021-01-21 21:24:55.278000+00:00,train
210,157.34893798828125,164.0,2021-01-21 21:25:55.278000+00:00,train
211,157.5045928955078,164.0,2021-01-21 21:26:55.278000+00:00,train
212,157.640869140625,164.0,2021-01-21 21:27:55.278000+00:00,train
213,157.780517578125,164.0,2021-01-21 21:28:55.278000+00:00,train
214,157.92344665527344,164.0,2021-01-21 21:29:55.278000+00:00,train
215,158.06964111328125,164.0,2021-01-21 21:30:55.278000+00:00,train
216,158.2169952392578,164.0,2021-01-21 21:31:55.278000+00:00,train
217,158.3097686767578,164.0,2021-01-21 21:32:55.278000+00:00,train
218,158.3978729248047,164.0,2021-01-21 21:33:55.278000+00:00,train
219,158.4868621826172,165.0,2021-01-21 21:34:55.278000+00:00,train
220,158.57675170898438,166.0,2021-01-21 21:35:55.278000+00:00,train
221,158.66758728027344,166.0,2021-01-21 21:36:55.278000+00:00,train
222,158.7593536376953,166.0,2021-01-21 21:37:55.278000+00:00,train
223,158.8680419921875,166.0,2021-01-21 21:38:55.278000+00:00,train
224,158.97593688964844,166.0,2021-01-21 21:39:55.278000+00:00,train
225,159.08773803710938,166.0,2021-01-21 21:40:55.278000+00:00,train
226,159.1614227294922,166.0,2021-01-21 21:41:55.278000+00:00,train
227,159.23597717285156,166.0,2021-01-21 21:42:55.278000+00:00,train
228,159.31137084960938,166.0,2021-01-21 21:43:55.278000+00:00,train
229,159.3876495361328,166.0,2021-01-21 21:44:55.278000+00:00,train
230,159.46478271484375,167.0,2021-01-21 21:45:55.278000+00:00,train
231,159.54275512695312,168.0,2021-01-21 21:46:55.278000+00:00,train
232,159.61865234375,168.0,2021-01-21 21:47:55.278000+00:00,train
233,159.69833374023438,168.0,2021-01-21 21:48:55.278000+00:00,train
234,159.76748657226562,168.0,2021-01-21 21:49:55.278000+00:00,train
235,159.82620239257812,168.0,2021-01-21 21:50:55.278000+00:00,train
236,159.88595581054688,168.0,2021-01-21 21:51:55.278000+00:00,train
237,159.98167419433594,168.0,2021-01-21 21:52:55.278000+00:00,train
238,160.12184143066406,168.0,2021-01-21 21:53:55.278000+00:00,train
239,160.2644805908203,168.0,2021-01-21 21:54:55.278000+00:00,train
240,160.40586853027344,168.0,2021-01-21 21:55:55.278000+00:00,train
241,160.55380249023438,169.0,2021-01-21 21:56:55.278000+00:00,train
242,160.70449829101562,170.0,2021-01-21 21:57:55.278000+00:00,train
243,160.85812377929688,170.0,2021-01-21 21:58:55.278000+00:00,train
244,161.01478576660156,170.0,2021-01-21 21:59:55.278000+00:00,train
245,161.17935180664062,170.0,2021-01-21 22:00:55.278000+00:00,train
246,161.350341796875,170.0,2021-01-21 22:01:55.278000+00:00,train
247,161.5255126953125,170.0,2021-01-21 22:02:55.278000+00:00,train
248,161.70045471191406,170.0,2021-01-21 22:03:55.278000+00:00,train
249,161.88475036621094,170.0,2021-01-21 22:04:55.278000+00:00,train
250,162.0454864501953,170.0,2021-01-21 22:05:55.278000+00:00,train
251,162.18348693847656,170.0,2021-01-21 22:06:55.278000+00:00,train
252,162.32452392578125,171.0,2021-01-21 22:07:55.278000+00:00,train
253,162.4686737060547,172.0,2021-01-21 22:08:55.278000+00:00,train
254,162.61607360839844,172.0,2021-01-21 22:09:55.278000+00:00,train
255,162.7667236328125,170.0,2021-01-21 22:10:55.278000+00:00,train
256,162.9175262451172,168.0,2021-01-21 22:11:55.278000+00:00,train
257,163.07777404785156,166.0,2021-01-21 22:12:55.278000+00:00,train
258,163.24240112304688,166.0,2021-01-21 22:13:55.278000+00:00,train
259,163.3575439453125,166.0,2021-01-21 22:14:55.278000+00:00,train
260,163.47584533691406,166.0,2021-01-21 22:15:55.278000+00:00,train
261,163.59686279296875,166.0,2021-01-21 22:16:55.278000+00:00,train
262,163.72047424316406,167.0,2021-01-21 22:17:55.278000+00:00,train
263,163.8465576171875,168.0,2021-01-21 22:18:55.278000+00:00,train
264,163.96788024902344,168.0,2021-01-21 22:19:55.278000+00:00,train
265,164.09896850585938,168.0,2021-01-21 22:20:55.278000+00:00,train
266,164.2327423095703,168.0,2021-01-21 22:21:55.278000+00:00,train
267,164.3438262939453,168.0,2021-01-21 22:22:55.278000+00:00,train
268,164.43276977539062,168.0,2021-01-21 22:23:55.278000+00:00,train
269,164.52532958984375,168.0,2021-01-21 22:24:55.278000+00:00,train
270,164.6216583251953,168.0,2021-01-21 22:25:55.278000+00:00,train
271,164.7103271484375,168.0,2021-01-21 22:26:55.278000+00:00,train
272,164.77133178710938,168.0,2021-01-21 22:27:55.278000+00:00,train
273,164.84239196777344,168.0,2021-01-21 22:28:55.278000+00:00,train
274,164.9143829345703,170.0,2021-01-21 22:29:55.278000+00:00,train
275,164.98739624023438,170.0,2021-01-21 22:30:55.278000+00:00,train
276,165.0191192626953,170.0,2021-01-21 22:31:55.278000+00:00,train
277,165.06288146972656,170.0,2021-01-21 22:32:55.278000+00:00,train
278,165.11622619628906,170.0,2021-01-21 22:33:55.278000+00:00,train
279,165.17044067382812,170.0,2021-01-21 22:34:55.278000+00:00,train
280,165.21568298339844,170.0,2021-01-21 22:35:55.278000+00:00,train
281,165.2709503173828,170.0,2021-01-21 22:36:55.278000+00:00,train
282,165.32681274414062,170.0,2021-01-21 22:37:55.278000+00:00,train
283,165.38330078125,170.0,2021-01-21 22:38:55.278000+00:00,train
284,165.42208862304688,170.0,2021-01-21 22:39:55.278000+00:00,train
285,165.4455108642578,171.0,2021-01-21 22:40:55.278000+00:00,train
286,165.4691162109375,172.0,2021-01-21 22:41:55.278000+00:00,train
287,165.4927978515625,172.0,2021-01-21 22:42:55.278000+00:00,train
288,165.51173400878906,172.0,2021-01-21 22:43:55.278000+00:00,train
289,165.54833984375,172.0,2021-01-21 22:44:55.278000+00:00,train
290,165.58566284179688,172.0,2021-01-21 22:45:55.278000+00:00,train
291,165.62364196777344,172.0,2021-01-21 22:46:55.278000+00:00,train
292,165.66233825683594,172.0,2021-01-21 22:47:55.278000+00:00,train
293,165.70166015625,172.0,2021-01-21 22:48:55.278000+00:00,train
294,165.74159240722656,172.0,2021-01-21 22:49:55.278000+00:00,train
295,165.7836151123047,172.0,2021-01-21 22:50:55.278000+00:00,train
296,165.8534698486328,172.0,2021-01-21 22:51:55.278000+00:00,train
297,165.95396423339844,174.0,2021-01-21 22:52:55.278000+00:00,train
298,166.08172607421875,174.0,2021-01-21 22:53:55.278000+00:00,train
299,166.2124481201172,174.0,2021-01-21 22:54:55.278000+00:00,train
300,166.35057067871094,174.0,2021-01-21 22:55:55.278000+00:00,train
301,166.49383544921875,174.0,2021-01-21 22:56:55.278000+00:00,train
302,166.64083862304688,174.0,2021-01-21 22:57:55.278000+00:00,train
303,165.3173065185547,174.0,2021-01-21 22:58:55.278000+00:00,train
304,165.4121551513672,174.0,2021-01-21 22:59:55.278000+00:00,train
305,165.5170135498047,174.0,2021-01-21 23:00:55.278000+00:00,train
306,165.62698364257812,174.0,2021-01-21 23:01:55.278000+00:00,train
307,165.7421112060547,174.0,2021-01-21 23:02:55.278000+00:00,train
308,165.86245727539062,172.0,2021-01-21 23:03:55.278000+00:00,train
309,165.98822021484375,170.0,2021-01-21 23:04:55.278000+00:00,train
310,166.11947631835938,170.0,2021-01-21 23:05:55.278000+00:00,train
311,166.2565155029297,170.0,2021-01-21 23:06:55.278000+00:00,train
312,166.36880493164062,170.0,2021-01-21 23:07:55.278000+00:00,train
313,166.48941040039062,170.0,2021-01-21 23:08:55.278000+00:00,train
314,166.57521057128906,170.0,2021-01-21 23:09:55.278000+00:00,train
315,166.63121032714844,170.0,2021-01-21 23:10:55.278000+00:00,train
316,166.69300842285156,170.0,2021-01-21 23:11:55.278000+00:00,train
317,166.76034545898438,170.0,2021-01-21 23:12:55.278000+00:00,train
318,166.83302307128906,170.0,2021-01-21 23:13:55.278000+00:00,train
319,166.9109344482422,170.0,2021-01-21 23:14:55.278000+00:00,train
320,166.9952392578125,170.0,2021-01-21 23:15:55.278000+00:00,train
321,167.08306884765625,171.0,2021-01-21 23:16:55.278000+00:00,train
322,167.1758270263672,172.0,2021-01-21 23:17:55.278000+00:00,train
323,167.2854461669922,172.0,2021-01-21 23:18:55.278000+00:00,train
324,167.38540649414062,172.0,2021-01-21 23:19:55.278000+00:00,train
325,167.45220947265625,172.0,2021-01-21 23:20:55.278000+00:00,train
326,167.49081420898438,172.0,2021-01-21 23:21:55.278000+00:00,train
327,167.52975463867188,172.0,2021-01-21 23:22:55.278000+00:00,train
328,167.569091796875,172.0,2021-01-21 23:23:55.278000+00:00,train
329,167.60879516601562,172.0,2021-01-21 23:24:55.278000+00:00,train
330,167.6488494873047,172.0,2021-01-21 23:25:55.278000+00:00,train
331,167.6893310546875,172.0,2021-01-21 23:26:55.278000+00:00,train
332,167.7301788330078,173.0,2021-01-21 23:27:55.278000+00:00,train
333,167.77145385742188,174.0,2021-01-21 23:28:55.278000+00:00,train
334,167.8131866455078,174.0,2021-01-21 23:29:55.278000+00:00,train
335,167.85528564453125,174.0,2021-01-21 23:30:55.278000+00:00,train
336,167.88421630859375,174.0,2021-01-21 23:31:55.278000+00:00,train
337,167.89987182617188,174.0,2021-01-21 23:32:55.278000+00:00,train
338,167.91587829589844,174.0,2021-01-21 23:33:55.278000+00:00,train
339,167.9321746826172,174.0,2021-01-21 23:34:55.278000+00:00,train
340,167.9486846923828,174.0,2021-01-21 23:35:55.278000+00:00,train
341,167.9656219482422,174.0,2021-01-21 23:36:55.278000+00:00,train
342,167.9828643798828,174.0,2021-01-21 23:37:55.278000+00:00,train
343,168.00039672851562,174.0,2021-01-21 23:38:55.278000+00:00,train
344,168.01824951171875,174.0,2021-01-21 23:39:55.278000+00:00,train
345,168.03640747070312,174.0,2021-01-21 23:40:55.278000+00:00,train
346,168.05487060546875,174.0,2021-01-21 23:41:55.278000+00:00,train
347,168.06039428710938,176.0,2021-01-21 23:42:55.278000+00:00,train
348,168.0532684326172,176.0,2021-01-21 23:43:55.278000+00:00,train
349,168.0467987060547,176.0,2021-01-21 23:44:55.278000+00:00,train
350,168.06224060058594,176.0,2021-01-21 23:45:55.278000+00:00,train
351,168.1268310546875,176.0,2021-01-21 23:46:55.278000+00:00,train
352,168.26904296875,176.0,2021-01-21 23:47:55.278000+00:00,train
353,168.41732788085938,176.0,2021-01-21 23:48:55.278000+00:00,train
354,168.57205200195312,176.0,2021-01-21 23:49:55.278000+00:00,train
355,168.733642578125,176.0,2021-01-21 23:50:55.278000+00:00,train
356,168.90267944335938,176.0,2021-01-21 23:51:55.278000+00:00,train
357,169.0314483642578,176.0,2021-01-21 23:52:55.278000+00:00,train
358,169.12380981445312,174.0,2021-01-21 23:53:55.278000+00:00,train
359,169.21966552734375,172.0,2021-01-21 23:54:55.278000+00:00,train
360,169.31910705566406,172.0,2021-01-21 23:55:55.278000+00:00,train
361,169.42227172851562,172.0,2021-01-21 23:56:55.278000+00:00,train
362,169.5051727294922,172.0,2021-01-21 23:57:55.278000+00:00,train
363,169.5941162109375,172.0,2021-01-21 23:58:55.278000+00:00,train
364,169.6890869140625,172.0,2021-01-21 23:59:55.278000+00:00,train
365,169.79005432128906,172.0,2021-01-22 00:00:55.278000+00:00,train
366,169.89706420898438,172.0,2021-01-22 00:01:55.278000+00:00,train
367,170.0101776123047,172.0,2021-01-22 00:02:55.278000+00:00,train
368,170.12953186035156,172.0,2021-01-22 00:03:55.278000+00:00,train
369,170.1769561767578,172.0,2021-01-22 00:04:55.278000+00:00,train
370,170.22804260253906,172.0,2021-01-22 00:05:55.278000+00:00,train
371,170.28265380859375,172.0,2021-01-22 00:06:55.278000+00:00,train
372,170.34071350097656,172.0,2021-01-22 00:07:55.278000+00:00,train
373,170.41064453125,172.0,2021-01-22 00:08:55.278000+00:00,train
374,170.46078491210938,173.0,2021-01-22 00:09:55.278000+00:00,train
375,170.51165771484375,174.0,2021-01-22 00:10:55.278000+00:00,train
376,170.56326293945312,174.0,2021-01-22 00:11:55.278000+00:00,train
377,170.61563110351562,174.0,2021-01-22 00:12:55.278000+00:00,train
378,170.66879272460938,174.0,2021-01-22 00:13:55.278000+00:00,train
379,170.72276306152344,174.0,2021-01-22 00:14:55.278000+00:00,train
380,170.74545288085938,174.0,2021-01-22 00:15:55.278000+00:00,train
381,170.74436950683594,174.0,2021-01-22 00:16:55.278000+00:00,train
382,170.74325561523438,174.0,2021-01-22 00:17:55.278000+00:00,train
383,170.7421417236328,174.0,2021-01-22 00:18:55.278000+00:00,train
384,170.7410125732422,174.0,2021-01-22 00:19:55.278000+00:00,train
385,170.73988342285156,174.0,2021-01-22 00:20:55.278000+00:00,train
386,170.73873901367188,174.0,2021-01-22 00:21:55.278000+00:00,train
387,170.73756408691406,174.0,2021-01-22 00:22:55.278000+00:00,train
388,170.73638916015625,175.0,2021-01-22 00:23:55.278000+00:00,train
389,170.75100708007812,176.0,2021-01-22 00:24:55.278000+00:00,train
390,170.7735595703125,176.0,2021-01-22 00:25:55.278000+00:00,train
391,170.79644775390625,176.0,2021-01-22 00:26:55.278000+00:00,train
392,170.795166015625,176.0,2021-01-22 00:27:55.278000+00:00,train
393,170.79388427734375,176.0,2021-01-22 00:28:55.278000+00:00,train
394,170.79257202148438,176.0,2021-01-22 00:29:55.278000+00:00,train
395,170.791259765625,176.0,2021-01-22 00:30:55.278000+00:00,train
396,170.78994750976562,176.0,2021-01-22 00:31:55.278000+00:00,train
397,170.78863525390625,176.0,2021-01-22 00:32:55.278000+00:00,train
398,170.7873077392578,176.0,2021-01-22 00:33:55.278000+00:00,train
399,170.7859649658203,176.0,2021-01-22 00:34:55.278000+00:00,train
400,170.78414916992188,176.0,2021-01-22 00:35:55.278000+00:00,train
401,170.7828369140625,176.0,2021-01-22 00:36:55.278000+00:00,train
402,170.7815399169922,176.0,2021-01-22 00:37:55.278000+00:00,train
403,170.80494689941406,178.0,2021-01-22 00:38:55.278000+00:00,train
404,170.88038635253906,178.0,2021-01-22 00:39:55.278000+00:00,train
405,170.95948791503906,178.0,2021-01-22 00:40:55.278000+00:00,train
406,171.0423583984375,172.0,2021-01-22 00:41:55.278000+00:00,train
407,171.12901306152344,172.0,2021-01-22 00:42:55.278000+00:00,train
408,171.21954345703125,172.0,2021-01-22 00:43:55.278000+00:00,train
409,171.3140411376953,172.0,2021-01-22 00:44:55.278000+00:00,train
410,171.4126739501953,172.0,2021-01-22 00:45:55.278000+00:00,train
411,171.51556396484375,172.0,2021-01-22 00:46:55.278000+00:00,train
412,171.62290954589844,172.0,2021-01-22 00:47:55.278000+00:00,train
413,171.73492431640625,172.0,2021-01-22 00:48:55.278000+00:00,train
414,171.8519287109375,172.0,2021-01-22 00:49:55.278000+00:00,train
415,171.97422790527344,172.0,2021-01-22 00:50:55.278000+00:00,train
416,172.05609130859375,174.0,2021-01-22 00:51:55.278000+00:00,train
417,172.1043701171875,174.0,2021-01-22 00:52:55.278000+00:00,train
418,172.12400817871094,174.0,2021-01-22 00:53:55.278000+00:00,train
419,172.14915466308594,174.0,2021-01-22 00:54:55.278000+00:00,train
420,172.1793670654297,174.0,2021-01-22 00:55:55.278000+00:00,train
421,172.17820739746094,174.0,2021-01-22 00:56:55.278000+00:00,train
422,172.17709350585938,174.0,2021-01-22 00:57:55.278000+00:00,train
423,172.17596435546875,174.0,2021-01-22 00:58:55.278000+00:00,train
424,172.17486572265625,174.0,2021-01-22 00:59:55.278000+00:00,train
425,172.17373657226562,174.0,2021-01-22 01:00:55.278000+00:00,train
426,172.172607421875,174.0,2021-01-22 01:01:55.278000+00:00,train
427,172.14349365234375,174.0,2021-01-22 01:02:55.278000+00:00,train
428,172.09584045410156,174.0,2021-01-22 01:03:55.278000+00:00,train
429,172.04879760742188,174.0,2021-01-22 01:04:55.278000+00:00,train
430,172.00234985351562,176.0,2021-01-22 01:05:55.278000+00:00,train
431,172.00099182128906,176.0,2021-01-22 01:06:55.278000+00:00,train
432,171.99964904785156,176.0,2021-01-22 01:07:55.278000+00:00,train
433,171.99830627441406,176.0,2021-01-22 01:08:55.278000+00:00,train
434,171.9969482421875,176.0,2021-01-22 01:09:55.278000+00:00,train
435,171.99559020996094,176.0,2021-01-22 01:10:55.278000+00:00,train
436,171.9942169189453,176.0,2021-01-22 01:11:55.278000+00:00,train
437,171.99282836914062,176.0,2021-01-22 01:12:55.278000+00:00,train
438,171.991455078125,176.0,2021-01-22 01:13:55.278000+00:00,train
439,171.99005126953125,176.0,2021-01-22 01:14:55.278000+00:00,train
440,171.98861694335938,176.0,2021-01-22 01:15:55.278000+00:00,train
441,171.98712158203125,176.0,2021-01-22 01:16:55.278000+00:00,train
442,171.9757843017578,176.0,2021-01-22 01:17:55.278000+00:00,train
443,171.9650115966797,176.0,2021-01-22 01:18:55.278000+00:00,train
444,171.9547882080078,176.0,2021-01-22 01:19:55.278000+00:00,train
445,171.95339965820312,176.0,2021-01-22 01:20:55.278000+00:00,train
446,171.9519805908203,176.0,2021-01-22 01:21:55.278000+00:00,train
447,171.9505615234375,177.0,2021-01-22 01:22:55.278000+00:00,train
448,171.94912719726562,178.0,2021-01-22 01:23:55.278000+00:00,train
449,171.9477081298828,178.0,2021-01-22 01:24:55.278000+00:00,train
450,171.9462890625,172.0,2021-01-22 01:25:55.278000+00:00,train
451,171.9449005126953,172.0,2021-01-22 01:26:55.278000+00:00,train
452,171.94358825683594,172.0,2021-01-22 01:27:55.278000+00:00,train
453,171.95089721679688,172.0,2021-01-22 01:28:55.278000+00:00,train
454,172.00393676757812,172.0,2021-01-22 01:29:55.278000+00:00,train
455,172.0587921142578,172.0,2021-01-22 01:30:55.278000+00:00,train
456,172.11546325683594,172.0,2021-01-22 01:31:55.278000+00:00,train
457,172.1739959716797,172.0,2021-01-22 01:32:55.278000+00:00,train
458,172.2344207763672,172.0,2021-01-22 01:33:55.278000+00:00,train
459,172.29673767089844,172.0,2021-01-22 01:34:55.278000+00:00,train
460,172.3610382080078,172.0,2021-01-22 01:35:55.278000+00:00,train
461,172.4273223876953,172.0,2021-01-22 01:36:55.278000+00:00,train
462,172.4899139404297,173.0,2021-01-22 01:37:55.278000+00:00,train
463,172.54110717773438,174.0,2021-01-22 01:38:55.278000+00:00,train
464,172.59664916992188,174.0,2021-01-22 01:39:55.278000+00:00,train
465,172.5953369140625,174.0,2021-01-22 01:40:55.278000+00:00,train
466,172.59408569335938,174.0,2021-01-22 01:41:55.278000+00:00,train
467,172.5928192138672,174.0,2021-01-22 01:42:55.278000+00:00,train
468,172.59156799316406,174.0,2021-01-22 01:43:55.278000+00:00,train
469,172.55755615234375,174.0,2021-01-22 01:44:55.278000+00:00,train
470,172.5006866455078,174.0,2021-01-22 01:45:55.278000+00:00,train
471,172.444580078125,174.0,2021-01-22 01:46:55.278000+00:00,train
472,172.3892364501953,174.0,2021-01-22 01:47:55.278000+00:00,train
473,172.33465576171875,174.0,2021-01-22 01:48:55.278000+00:00,train
474,172.28079223632812,174.0,2021-01-22 01:49:55.278000+00:00,train
475,172.22763061523438,174.0,2021-01-22 01:50:55.278000+00:00,train
476,172.17520141601562,174.0,2021-01-22 01:51:55.278000+00:00,train
477,172.15257263183594,174.0,2021-01-22 01:52:55.278000+00:00,train
478,172.15097045898438,174.0,2021-01-22 01:53:55.278000+00:00,train
479,172.1493682861328,176.0,2021-01-22 01:54:55.278000+00:00,train
480,172.14776611328125,176.0,2021-01-22 01:55:55.278000+00:00,train
481,172.1461181640625,176.0,2021-01-22 01:56:55.278000+00:00,train
482,172.14443969726562,176.0,2021-01-22 01:57:55.278000+00:00,train
483,172.13015747070312,176.0,2021-01-22 01:58:55.278000+00:00,train
484,172.1121063232422,176.0,2021-01-22 01:59:55.278000+00:00,train
485,172.09451293945312,176.0,2021-01-22 02:00:55.278000+00:00,train
486,172.07740783691406,176.0,2021-01-22 02:01:55.278000+00:00,train
487,172.06076049804688,176.0,2021-01-22 02:02:55.278000+00:00,train
488,172.0446319580078,176.0,2021-01-22 02:03:55.278000+00:00,train
489,172.0290069580078,176.0,2021-01-22 02:04:55.278000+00:00,train
490,172.01385498046875,174.0,2021-01-22 02:05:55.278000+00:00,train
491,171.99923706054688,172.0,2021-01-22 02:06:55.278000+00:00,train
492,171.98512268066406,172.0,2021-01-22 02:07:55.278000+00:00,train
493,171.9715576171875,172.0,2021-01-22 02:08:55.278000+00:00,train
494,171.9700164794922,172.0,2021-01-22 02:09:55.278000+00:00,train
495,171.9684295654297,172.0,2021-01-22 02:10:55.278000+00:00,train
496,171.96682739257812,172.0,2021-01-22 02:11:55.278000+00:00,train
497,171.9651641845703,172.0,2021-01-22 02:12:55.278000+00:00,train
498,171.98849487304688,172.0,2021-01-22 02:13:55.278000+00:00,train
499,172.01358032226562,172.0,2021-01-22 02:14:55.278000+00:00,train
500,172.04067993164062,172.0,2021-01-22 02:15:55.278000+00:00,train
501,172.09701538085938,172.0,2021-01-22 02:16:55.278000+00:00,train
502,172.1552734375,172.0,2021-01-22 02:17:55.278000+00:00,train
503,172.21556091308594,172.0,2021-01-22 02:18:55.278000+00:00,train
504,172.2778778076172,172.0,2021-01-22 02:19:55.278000+00:00,train
505,172.32879638671875,172.0,2021-01-22 02:20:55.278000+00:00,train
506,172.3275146484375,172.0,2021-01-22 02:21:55.278000+00:00,train
507,172.3262176513672,172.0,2021-01-22 02:22:55.278000+00:00,train
508,172.32493591308594,172.0,2021-01-22 02:23:55.278000+00:00,train
509,172.3236541748047,172.0,2021-01-22 02:24:55.278000+00:00,train
510,172.3223419189453,172.0,2021-01-22 02:25:55.278000+00:00,val
511,172.26866149902344,172.0,2021-01-22 02:26:55.278000+00:00,val
512,172.21578979492188,174.0,2021-01-22 02:27:55.278000+00:00,val
513,172.1636505126953,174.0,2021-01-22 02:28:55.278000+00:00,val
514,172.11228942871094,174.0,2021-01-22 02:29:55.278000+00:00,val
515,172.06161499023438,174.0,2021-01-22 02:30:55.278000+00:00,val
516,172.01165771484375,174.0,2021-01-22 02:31:55.278000+00:00,val
517,171.9623565673828,174.0,2021-01-22 02:32:55.278000+00:00,val
518,171.91371154785156,174.0,2021-01-22 02:33:55.278000+00:00,val
519,171.86569213867188,174.0,2021-01-22 02:34:55.278000+00:00,val
520,171.81826782226562,174.0,2021-01-22 02:35:55.278000+00:00,val
521,171.77146911621094,174.0,2021-01-22 02:36:55.278000+00:00,val
522,171.72520446777344,174.0,2021-01-22 02:37:55.278000+00:00,val
523,171.67947387695312,174.0,2021-01-22 02:38:55.278000+00:00,val
524,171.63421630859375,174.0,2021-01-22 02:39:55.278000+00:00,val
525,171.58168029785156,174.0,2021-01-22 02:40:55.278000+00:00,val
526,171.53089904785156,174.0,2021-01-22 02:41:55.278000+00:00,val
527,171.52285766601562,174.0,2021-01-22 02:42:55.278000+00:00,val
528,171.5154266357422,174.0,2021-01-22 02:43:55.278000+00:00,val
529,171.50865173339844,170.0,2021-01-22 02:44:55.278000+00:00,val
530,171.50253295898438,170.0,2021-01-22 02:45:55.278000+00:00,val
531,171.49703979492188,170.0,2021-01-22 02:46:55.278000+00:00,val
532,171.49227905273438,170.0,2021-01-22 02:47:55.278000+00:00,val
533,171.48818969726562,170.0,2021-01-22 02:48:55.278000+00:00,val
534,171.48483276367188,170.0,2021-01-22 02:49:55.278000+00:00,val
535,171.48223876953125,170.0,2021-01-22 02:50:55.278000+00:00,val
536,171.48040771484375,170.0,2021-01-22 02:51:55.278000+00:00,val
537,171.47938537597656,170.0,2021-01-22 02:52:55.278000+00:00,val
538,171.4791717529297,170.0,2021-01-22 02:53:55.278000+00:00,val
539,171.47984313964844,170.0,2021-01-22 02:54:55.278000+00:00,val
540,171.4813690185547,170.0,2021-01-22 02:55:55.278000+00:00,val
541,171.48377990722656,170.0,2021-01-22 02:56:55.278000+00:00,val
542,171.5059051513672,170.0,2021-01-22 02:57:55.278000+00:00,val
543,171.5634002685547,170.0,2021-01-22 02:58:55.278000+00:00,val
544,171.51394653320312,170.0,2021-01-22 02:59:55.278000+00:00,val
545,171.43399047851562,172.0,2021-01-22 03:00:55.278000+00:00,val
546,171.35597229003906,172.0,2021-01-22 03:01:55.278000+00:00,val
547,171.27978515625,172.0,2021-01-22 03:02:55.278000+00:00,val
548,171.20529174804688,172.0,2021-01-22 03:03:55.278000+00:00,val
549,171.13233947753906,172.0,2021-01-22 03:04:55.278000+00:00,val
550,171.0608673095703,172.0,2021-01-22 03:05:55.278000+00:00,val
551,170.9907684326172,172.0,2021-01-22 03:06:55.278000+00:00,val
552,170.92198181152344,172.0,2021-01-22 03:07:55.278000+00:00,val
553,170.85440063476562,172.0,2021-01-22 03:08:55.278000+00:00,val
554,170.7879638671875,172.0,2021-01-22 03:09:55.278000+00:00,val
555,170.7225799560547,172.0,2021-01-22 03:10:55.278000+00:00,val
556,170.65817260742188,172.0,2021-01-22 03:11:55.278000+00:00,val
557,170.57730102539062,172.0,2021-01-22 03:12:55.278000+00:00,val
558,170.48988342285156,172.0,2021-01-22 03:13:55.278000+00:00,val
559,170.40464782714844,172.0,2021-01-22 03:14:55.278000+00:00,val
560,170.3791961669922,172.0,2021-01-22 03:15:55.278000+00:00,val
561,170.3542022705078,172.0,2021-01-22 03:16:55.278000+00:00,val
562,170.32965087890625,174.0,2021-01-22 03:17:55.278000+00:00,val
563,170.3055419921875,174.0,2021-01-22 03:18:55.278000+00:00,val
564,170.2818603515625,174.0,2021-01-22 03:19:55.278000+00:00,val
565,170.2586212158203,168.0,2021-01-22 03:20:55.278000+00:00,val
566,170.23582458496094,168.0,2021-01-22 03:21:55.278000+00:00,val
567,170.21348571777344,168.0,2021-01-22 03:22:55.278000+00:00,val
568,170.19158935546875,168.0,2021-01-22 03:23:55.278000+00:00,val
569,170.17013549804688,168.0,2021-01-22 03:24:55.278000+00:00,val
570,170.14913940429688,168.0,2021-01-22 03:25:55.278000+00:00,val
571,170.1285858154297,168.0,2021-01-22 03:26:55.278000+00:00,val
572,170.10845947265625,168.0,2021-01-22 03:27:55.278000+00:00,val
573,170.0886993408203,168.0,2021-01-22 03:28:55.278000+00:00,val
574,170.08837890625,168.0,2021-01-22 03:29:55.278000+00:00,val
575,170.09104919433594,168.0,2021-01-22 03:30:55.278000+00:00,val
576,170.09695434570312,168.0,2021-01-22 03:31:55.278000+00:00,val
577,170.1199951171875,168.0,2021-01-22 03:32:55.278000+00:00,val
578,170.14463806152344,168.0,2021-01-22 03:33:55.278000+00:00,val
579,170.17105102539062,168.0,2021-01-22 03:34:55.278000+00:00,val
580,170.04360961914062,169.0,2021-01-22 03:35:55.278000+00:00,val
581,169.9245147705078,170.0,2021-01-22 03:36:55.278000+00:00,val
582,169.8135528564453,170.0,2021-01-22 03:37:55.278000+00:00,val
583,169.71066284179688,170.0,2021-01-22 03:38:55.278000+00:00,val
584,169.61593627929688,170.0,2021-01-22 03:39:55.278000+00:00,val
585,169.4904327392578,170.0,2021-01-22 03:40:55.278000+00:00,val
586,169.3710479736328,170.0,2021-01-22 03:41:55.278000+00:00,val
587,169.2553253173828,170.0,2021-01-22 03:42:55.278000+00:00,val
588,169.14300537109375,170.0,2021-01-22 03:43:55.278000+00:00,val
589,169.0338592529297,170.0,2021-01-22 03:44:55.278000+00:00,val
590,168.92764282226562,170.0,2021-01-22 03:45:55.278000+00:00,val
591,168.82418823242188,170.0,2021-01-22 03:46:55.278000+00:00,val
592,168.72332763671875,170.0,2021-01-22 03:47:55.278000+00:00,val
593,168.62493896484375,170.0,2021-01-22 03:48:55.278000+00:00,val
594,168.52890014648438,170.0,2021-01-22 03:49:55.278000+00:00,val
595,168.46994018554688,170.0,2021-01-22 03:50:55.278000+00:00,val
596,168.4386749267578,170.0,2021-01-22 03:51:55.278000+00:00,val
597,168.4077911376953,170.0,2021-01-22 03:52:55.278000+00:00,val
598,168.37734985351562,166.0,2021-01-22 03:53:55.278000+00:00,val
599,168.34727478027344,166.0,2021-01-22 03:54:55.278000+00:00,val
600,168.317626953125,166.0,2021-01-22 03:55:55.278000+00:00,val
601,168.28836059570312,166.0,2021-01-22 03:56:55.278000+00:00,val
602,168.25949096679688,166.0,2021-01-22 03:57:55.278000+00:00,val
603,168.23101806640625,166.0,2021-01-22 03:58:55.278000+00:00,val
604,168.20289611816406,166.0,2021-01-22 03:59:55.278000+00:00,val
605,168.17515563964844,166.0,2021-01-22 04:00:55.278000+00:00,val
606,168.14768981933594,166.0,2021-01-22 04:01:55.278000+00:00,val
607,168.12783813476562,166.0,2021-01-22 04:02:55.278000+00:00,val
608,168.11000061035156,166.0,2021-01-22 04:03:55.278000+00:00,val
609,168.09426879882812,166.0,2021-01-22 04:04:55.278000+00:00,val
610,168.08070373535156,166.0,2021-01-22 04:05:55.278000+00:00,val
611,168.0694580078125,166.0,2021-01-22 04:06:55.278000+00:00,val
612,168.06057739257812,166.0,2021-01-22 04:07:55.278000+00:00,val
613,167.9120330810547,167.0,2021-01-22 04:08:55.278000+00:00,val
614,167.77101135253906,168.0,2021-01-22 04:09:55.278000+00:00,val
615,167.6371612548828,168.0,2021-01-22 04:10:55.278000+00:00,val
616,167.51026916503906,168.0,2021-01-22 04:11:55.278000+00:00,val
617,167.39015197753906,168.0,2021-01-22 04:12:55.278000+00:00,val
618,167.2766571044922,168.0,2021-01-22 04:13:55.278000+00:00,val
619,167.1697540283203,168.0,2021-01-22 04:14:55.278000+00:00,val
620,167.06939697265625,168.0,2021-01-22 04:15:55.278000+00:00,val
621,166.9756317138672,168.0,2021-01-22 04:16:55.278000+00:00,val
622,166.88858032226562,168.0,2021-01-22 04:17:55.278000+00:00,val
623,166.80844116210938,168.0,2021-01-22 04:18:55.278000+00:00,val
624,166.70443725585938,168.0,2021-01-22 04:19:55.278000+00:00,val
625,166.6029510498047,168.0,2021-01-22 04:20:55.278000+00:00,val
626,166.50379943847656,168.0,2021-01-22 04:21:55.278000+00:00,val
627,166.40692138671875,168.0,2021-01-22 04:22:55.278000+00:00,val
628,166.3468017578125,164.0,2021-01-22 04:23:55.278000+00:00,val
629,166.31446838378906,164.0,2021-01-22 04:24:55.278000+00:00,val
630,166.28253173828125,164.0,2021-01-22 04:25:55.278000+00:00,val
631,166.25096130371094,164.0,2021-01-22 04:26:55.278000+00:00,val
632,166.21978759765625,164.0,2021-01-22 04:27:55.278000+00:00,val
633,166.18898010253906,164.0,2021-01-22 04:28:55.278000+00:00,val
634,166.15858459472656,164.0,2021-01-22 04:29:55.278000+00:00,val
635,166.12855529785156,164.0,2021-01-22 04:30:55.278000+00:00,val
636,166.09889221191406,164.0,2021-01-22 04:31:55.278000+00:00,val
637,166.06959533691406,164.0,2021-01-22 04:32:55.278000+00:00,val
638,166.04061889648438,164.0,2021-01-22 04:33:55.278000+00:00,val
639,166.01193237304688,164.0,2021-01-22 04:34:55.278000+00:00,val
640,165.988037109375,164.0,2021-01-22 04:35:55.278000+00:00,val
641,165.9659881591797,164.0,2021-01-22 04:36:55.278000+00:00,val
642,165.94583129882812,164.0,2021-01-22 04:37:55.278000+00:00,val
643,165.78692626953125,164.0,2021-01-22 04:38:55.278000+00:00,val
644,165.63511657714844,164.0,2021-01-22 04:39:55.278000+00:00,val
645,165.4901123046875,164.0,2021-01-22 04:40:55.278000+00:00,val
646,165.35159301757812,164.0,2021-01-22 04:41:55.278000+00:00,val
647,165.2193603515625,164.0,2021-01-22 04:42:55.278000+00:00,val
648,165.09323120117188,164.0,2021-01-22 04:43:55.278000+00:00,val
649,164.97308349609375,166.0,2021-01-22 04:44:55.278000+00:00,val
650,164.85882568359375,166.0,2021-01-22 04:45:55.278000+00:00,val
651,164.7503662109375,166.0,2021-01-22 04:46:55.278000+00:00,val
652,164.647705078125,166.0,2021-01-22 04:47:55.278000+00:00,val
653,164.55081176757812,166.0,2021-01-22 04:48:55.278000+00:00,val
654,164.45970153808594,163.0,2021-01-22 04:49:55.278000+00:00,val
655,164.37445068359375,160.0,2021-01-22 04:50:55.278000+00:00,val
656,164.2950897216797,160.0,2021-01-22 04:51:55.278000+00:00,val
657,164.2803955078125,160.0,2021-01-22 04:52:55.278000+00:00,val
658,164.27989196777344,160.0,2021-01-22 04:53:55.278000+00:00,val
659,164.29556274414062,160.0,2021-01-22 04:54:55.278000+00:00,val
660,164.20579528808594,160.0,2021-01-22 04:55:55.278000+00:00,val
661,164.1181182861328,160.0,2021-01-22 04:56:55.278000+00:00,val
662,164.0324249267578,160.0,2021-01-22 04:57:55.278000+00:00,val
663,163.94866943359375,160.0,2021-01-22 04:58:55.278000+00:00,val
664,163.92263793945312,161.0,2021-01-22 04:59:55.278000+00:00,val
665,163.89700317382812,162.0,2021-01-22 05:00:55.278000+00:00,val
666,163.8717803955078,162.0,2021-01-22 05:01:55.278000+00:00,val
667,163.846923828125,162.0,2021-01-22 05:02:55.278000+00:00,val
668,163.82249450683594,162.0,2021-01-22 05:03:55.278000+00:00,val
669,163.70590209960938,162.0,2021-01-22 05:04:55.278000+00:00,val
670,163.43650817871094,162.0,2021-01-22 05:05:55.278000+00:00,val
671,163.18089294433594,162.0,2021-01-22 05:06:55.278000+00:00,val
672,162.93719482421875,162.0,2021-01-22 05:07:55.278000+00:00,val
673,162.70404052734375,162.0,2021-01-22 05:08:55.278000+00:00,val
674,162.48020935058594,162.0,2021-01-22 05:09:55.278000+00:00,val
675,162.26663208007812,162.0,2021-01-22 05:10:55.278000+00:00,val
676,162.06982421875,162.0,2021-01-22 05:11:55.278000+00:00,val
677,161.8815460205078,162.0,2021-01-22 05:12:55.278000+00:00,val
678,161.70152282714844,162.0,2021-01-22 05:13:55.278000+00:00,val
679,161.57261657714844,158.0,2021-01-22 05:14:55.278000+00:00,val
680,161.48663330078125,158.0,2021-01-22 05:15:55.278000+00:00,val
681,161.40562438964844,158.0,2021-01-22 05:16:55.278000+00:00,test
682,161.32977294921875,158.0,2021-01-22 05:17:55.278000+00:00,test
683,161.25912475585938,158.0,2021-01-22 05:18:55.278000+00:00,test
684,161.19386291503906,158.0,2021-01-22 05:19:55.278000+00:00,test
685,161.13414001464844,158.0,2021-01-22 05:20:55.278000+00:00,test
686,161.08010864257812,158.0,2021-01-22 05:21:55.278000+00:00,test
687,161.03195190429688,158.0,2021-01-22 05:22:55.278000+00:00,test
688,160.9898223876953,158.0,2021-01-22 05:23:55.278000+00:00,test
689,160.95401000976562,158.0,2021-01-22 05:24:55.278000+00:00,test
690,160.92481994628906,158.0,2021-01-22 05:25:55.278000+00:00,test
691,160.9026336669922,158.0,2021-01-22 05:26:55.278000+00:00,test
692,160.88800048828125,158.0,2021-01-22 05:27:55.278000+00:00,test
693,160.82656860351562,158.0,2021-01-22 05:28:55.278000+00:00,test
694,160.60011291503906,158.0,2021-01-22 05:29:55.278000+00:00,test
695,160.38308715820312,158.0,2021-01-22 05:30:55.278000+00:00,test
696,160.1746063232422,158.0,2021-01-22 05:31:55.278000+00:00,test
697,159.9739532470703,158.0,2021-01-22 05:32:55.278000+00:00,test
698,159.7805633544922,158.0,2021-01-22 05:33:55.278000+00:00,test
699,159.59388732910156,158.0,2021-01-22 05:34:55.278000+00:00,test
700,159.41357421875,157.0,2021-01-22 05:35:55.278000+00:00,test
701,159.2391815185547,154.0,2021-01-22 05:36:55.278000+00:00,test
702,159.07044982910156,154.0,2021-01-22 05:37:55.278000+00:00,test
703,158.90713500976562,154.0,2021-01-22 05:38:55.278000+00:00,test
704,158.7489471435547,154.0,2021-01-22 05:39:55.278000+00:00,test
705,158.59573364257812,154.0,2021-01-22 05:40:55.278000+00:00,test
706,158.447265625,154.0,2021-01-22 05:41:55.278000+00:00,test
707,158.30335998535156,154.0,2021-01-22 05:42:55.278000+00:00,test
708,158.1708526611328,154.0,2021-01-22 05:43:55.278000+00:00,test
709,158.05654907226562,154.0,2021-01-22 05:44:55.278000+00:00,test
710,157.9488525390625,154.0,2021-01-22 05:45:55.278000+00:00,test
711,157.84783935546875,154.0,2021-01-22 05:46:55.278000+00:00,test
712,157.75363159179688,154.0,2021-01-22 05:47:55.278000+00:00,test
713,157.66635131835938,154.0,2021-01-22 05:48:55.278000+00:00,test
714,157.5862274169922,154.0,2021-01-22 05:49:55.278000+00:00,test
715,157.476318359375,154.0,2021-01-22 05:50:55.278000+00:00,test
716,157.2338104248047,156.0,2021-01-22 05:51:55.278000+00:00,test
717,157.00535583496094,156.0,2021-01-22 05:52:55.278000+00:00,test
718,156.79049682617188,156.0,2021-01-22 05:53:55.278000+00:00,test
719,156.58889770507812,150.0,2021-01-22 05:54:55.278000+00:00,test
720,156.400390625,150.0,2021-01-22 05:55:55.278000+00:00,test
721,156.22494506835938,150.0,2021-01-22 05:56:55.278000+00:00,test
722,156.06263732910156,150.0,2021-01-22 05:57:55.278000+00:00,test
723,155.84869384765625,150.0,2021-01-22 05:58:55.278000+00:00,test
724,155.64266967773438,150.0,2021-01-22 05:59:55.278000+00:00,test
725,155.44419860839844,150.0,2021-01-22 06:00:55.278000+00:00,test
726,155.25291442871094,150.0,2021-01-22 06:01:55.278000+00:00,test
727,155.06857299804688,150.0,2021-01-22 06:02:55.278000+00:00,test
728,154.8909454345703,150.0,2021-01-22 06:03:55.278000+00:00,test
729,154.71978759765625,152.0,2021-01-22 06:04:55.278000+00:00,test
730,154.55499267578125,152.0,2021-01-22 06:05:55.278000+00:00,test
731,154.46542358398438,152.0,2021-01-22 06:06:55.278000+00:00,test
732,154.3797607421875,152.0,2021-01-22 06:07:55.278000+00:00,test
733,154.29803466796875,152.0,2021-01-22 06:08:55.278000+00:00,test
734,153.96481323242188,150.0,2021-01-22 06:09:55.278000+00:00,test
735,153.64730834960938,148.0,2021-01-22 06:10:55.278000+00:00,test
736,153.34426879882812,148.0,2021-01-22 06:11:55.278000+00:00,test
737,153.05474853515625,148.0,2021-01-22 06:12:55.278000+00:00,test
738,152.7779083251953,148.0,2021-01-22 06:13:55.278000+00:00,test
739,152.5131378173828,148.0,2021-01-22 06:14:55.278000+00:00,test
740,152.25985717773438,148.0,2021-01-22 06:15:55.278000+00:00,test
741,152.01766967773438,148.0,2021-01-22 06:16:55.278000+00:00,test
742,151.78614807128906,148.0,2021-01-22 06:17:55.278000+00:00,test
743,151.56497192382812,148.0,2021-01-22 06:18:55.278000+00:00,test
744,151.46914672851562,148.0,2021-01-22 06:19:55.278000+00:00,test
745,151.38479614257812,148.0,2021-01-22 06:20:55.278000+00:00,test
746,151.31253051757812,148.0,2021-01-22 06:21:55.278000+00:00,test
747,151.25302124023438,144.0,2021-01-22 06:22:55.278000+00:00,test
748,151.2072296142578,144.0,2021-01-22 06:23:55.278000+00:00,test
749,151.03004455566406,144.0,2021-01-22 06:24:55.278000+00:00,test
750,150.74209594726562,144.0,2021-01-22 06:25:55.278000+00:00,test
751,150.46490478515625,144.0,2021-01-22 06:26:55.278000+00:00,test
752,150.19776916503906,144.0,2021-01-22 06:27:55.278000+00:00,test
753,149.9401397705078,144.0,2021-01-22 06:28:55.278000+00:00,test
754,149.69149780273438,144.0,2021-01-22 06:29:55.278000+00:00,test
755,149.4514617919922,144.0,2021-01-22 06:30:55.278000+00:00,test
756,149.21966552734375,144.0,2021-01-22 06:31:55.278000+00:00,test
757,148.99575805664062,142.0,2021-01-22 06:32:55.278000+00:00,test
758,148.77947998046875,140.0,2021-01-22 06:33:55.278000+00:00,test
759,148.57882690429688,140.0,2021-01-22 06:34:55.278000+00:00,test
760,148.399169921875,140.0,2021-01-22 06:35:55.278000+00:00,test
761,148.22897338867188,140.0,2021-01-22 06:36:55.278000+00:00,test
762,147.8868865966797,140.0,2021-01-22 06:37:55.278000+00:00,test
