,prediction,real,time,split
0,156.76145935058594,156.0,2021-01-21 18:27:55.278000+00:00,train
1,156.65478515625,156.0,2021-01-21 18:28:55.278000+00:00,train
2,156.56082153320312,156.0,2021-01-21 18:29:55.278000+00:00,train
3,156.46897888183594,156.0,2021-01-21 18:30:55.278000+00:00,train
4,156.37911987304688,156.0,2021-01-21 18:31:55.278000+00:00,train
5,156.2912139892578,156.0,2021-01-21 18:32:55.278000+00:00,train
6,156.1959991455078,156.0,2021-01-21 18:33:55.278000+00:00,train
7,156.09959411621094,156.0,2021-01-21 18:34:55.278000+00:00,train
8,156.00570678710938,156.0,2021-01-21 18:35:55.278000+00:00,train
9,155.914306640625,156.0,2021-01-21 18:36:55.278000+00:00,train
10,155.82525634765625,156.0,2021-01-21 18:37:55.278000+00:00,train
11,155.73849487304688,156.0,2021-01-21 18:38:55.278000+00:00,train
12,155.65396118164062,156.0,2021-01-21 18:39:55.278000+00:00,train
13,155.5716094970703,158.0,2021-01-21 18:40:55.278000+00:00,train
14,155.49142456054688,158.0,2021-01-21 18:41:55.278000+00:00,train
15,155.41331481933594,158.0,2021-01-21 18:42:55.278000+00:00,train
16,155.33724975585938,158.0,2021-01-21 18:43:55.278000+00:00,train
17,155.26316833496094,158.0,2021-01-21 18:44:55.278000+00:00,train
18,155.1910400390625,158.0,2021-01-21 18:45:55.278000+00:00,train
19,155.12083435058594,158.0,2021-01-21 18:46:55.278000+00:00,train
20,155.10104370117188,158.0,2021-01-21 18:47:55.278000+00:00,train
21,155.0916748046875,158.0,2021-01-21 18:48:55.278000+00:00,train
22,155.0840606689453,158.0,2021-01-21 18:49:55.278000+00:00,train
23,155.07823181152344,158.0,2021-01-21 18:50:55.278000+00:00,train
24,155.07415771484375,158.0,2021-01-21 18:51:55.278000+00:00,train
25,155.07191467285156,156.0,2021-01-21 18:52:55.278000+00:00,train
26,155.0714874267578,154.0,2021-01-21 18:53:55.278000+00:00,train
27,155.0729522705078,153.0,2021-01-21 18:54:55.278000+00:00,train
28,155.07635498046875,152.0,2021-01-21 18:55:55.278000+00:00,train
29,155.08172607421875,152.0,2021-01-21 18:56:55.278000+00:00,train
30,155.08912658691406,153.0,2021-01-21 18:57:55.278000+00:00,train
31,155.0983123779297,154.0,2021-01-21 18:58:55.278000+00:00,train
32,155.07029724121094,154.0,2021-01-21 18:59:55.278000+00:00,train
33,154.9840850830078,154.0,2021-01-21 19:00:55.278000+00:00,train
34,154.86480712890625,154.0,2021-01-21 19:01:55.278000+00:00,train
35,154.7096405029297,154.0,2021-01-21 19:02:55.278000+00:00,train
36,154.60623168945312,154.0,2021-01-21 19:03:55.278000+00:00,train
37,154.5521240234375,154.0,2021-01-21 19:04:55.278000+00:00,train
38,154.5414581298828,154.0,2021-01-21 19:05:55.278000+00:00,train
39,154.5386962890625,154.0,2021-01-21 19:06:55.278000+00:00,train
40,154.49240112304688,154.0,2021-01-21 19:07:55.278000+00:00,train
41,154.413330078125,154.0,2021-01-21 19:08:55.278000+00:00,train
42,154.3357391357422,154.0,2021-01-21 19:09:55.278000+00:00,train
43,154.26156616210938,154.0,2021-01-21 19:10:55.278000+00:00,train
44,154.19090270996094,154.0,2021-01-21 19:11:55.278000+00:00,train
45,154.12388610839844,154.0,2021-01-21 19:12:55.278000+00:00,train
46,154.06065368652344,154.0,2021-01-21 19:13:55.278000+00:00,train
47,154.00132751464844,154.0,2021-01-21 19:14:55.278000+00:00,train
48,153.94613647460938,154.0,2021-01-21 19:15:55.278000+00:00,train
49,153.89532470703125,154.0,2021-01-21 19:16:55.278000+00:00,train
50,153.8491668701172,154.0,2021-01-21 19:17:55.278000+00:00,train
51,153.80801391601562,154.0,2021-01-21 19:18:55.278000+00:00,train
52,153.77220153808594,154.0,2021-01-21 19:19:55.278000+00:00,train
53,153.74220275878906,154.0,2021-01-21 19:20:55.278000+00:00,train
54,153.71847534179688,154.0,2021-01-21 19:21:55.278000+00:00,train
55,153.7015380859375,156.0,2021-01-21 19:22:55.278000+00:00,train
56,153.6946258544922,156.0,2021-01-21 19:23:55.278000+00:00,train
57,153.7020263671875,156.0,2021-01-21 19:24:55.278000+00:00,train
58,153.71763610839844,156.0,2021-01-21 19:25:55.278000+00:00,train
59,153.74183654785156,156.0,2021-01-21 19:26:55.278000+00:00,train
60,153.77493286132812,151.0,2021-01-21 19:27:55.278000+00:00,train
61,153.8162841796875,150.0,2021-01-21 19:28:55.278000+00:00,train
62,153.92408752441406,150.0,2021-01-21 19:29:55.278000+00:00,train
63,154.0373992919922,150.0,2021-01-21 19:30:55.278000+00:00,train
64,154.15414428710938,150.0,2021-01-21 19:31:55.278000+00:00,train
65,154.27220153808594,150.0,2021-01-21 19:32:55.278000+00:00,train
66,154.38963317871094,150.0,2021-01-21 19:33:55.278000+00:00,train
67,154.3586883544922,150.0,2021-01-21 19:34:55.278000+00:00,train
68,154.30311584472656,150.0,2021-01-21 19:35:55.278000+00:00,train
69,154.2554168701172,150.0,2021-01-21 19:36:55.278000+00:00,train
70,154.2157745361328,152.0,2021-01-21 19:37:55.278000+00:00,train
71,154.18411254882812,152.0,2021-01-21 19:38:55.278000+00:00,train
72,154.16004943847656,152.0,2021-01-21 19:39:55.278000+00:00,train
73,154.1429443359375,152.0,2021-01-21 19:40:55.278000+00:00,train
74,154.13211059570312,152.0,2021-01-21 19:41:55.278000+00:00,train
75,154.12660217285156,152.0,2021-01-21 19:42:55.278000+00:00,train
76,154.12548828125,152.0,2021-01-21 19:43:55.278000+00:00,train
77,154.1719512939453,152.0,2021-01-21 19:44:55.278000+00:00,train
78,154.21629333496094,152.0,2021-01-21 19:45:55.278000+00:00,train
79,154.26292419433594,152.0,2021-01-21 19:46:55.278000+00:00,train
80,154.31231689453125,152.0,2021-01-21 19:47:55.278000+00:00,train
81,154.36016845703125,152.0,2021-01-21 19:48:55.278000+00:00,train
82,154.40643310546875,152.0,2021-01-21 19:49:55.278000+00:00,train
83,154.46812438964844,152.0,2021-01-21 19:50:55.278000+00:00,train
84,154.5227508544922,153.0,2021-01-21 19:51:55.278000+00:00,train
85,154.5720977783203,154.0,2021-01-21 19:52:55.278000+00:00,train
86,154.61700439453125,154.0,2021-01-21 19:53:55.278000+00:00,train
87,154.65859985351562,154.0,2021-01-21 19:54:55.278000+00:00,train
88,154.69769287109375,154.0,2021-01-21 19:55:55.278000+00:00,train
89,154.73484802246094,154.0,2021-01-21 19:56:55.278000+00:00,train
90,154.77049255371094,156.0,2021-01-21 19:57:55.278000+00:00,train
91,154.81394958496094,156.0,2021-01-21 19:58:55.278000+00:00,train
92,154.8647003173828,156.0,2021-01-21 19:59:55.278000+00:00,train
93,154.9142303466797,156.0,2021-01-21 20:00:55.278000+00:00,train
94,154.96279907226562,156.0,2021-01-21 20:01:55.278000+00:00,train
95,155.01046752929688,156.0,2021-01-21 20:02:55.278000+00:00,train
96,155.05735778808594,156.0,2021-01-21 20:03:55.278000+00:00,train
97,155.12033081054688,156.0,2021-01-21 20:04:55.278000+00:00,train
98,155.18226623535156,156.0,2021-01-21 20:05:55.278000+00:00,train
99,155.23464965820312,158.0,2021-01-21 20:06:55.278000+00:00,train
100,155.2764129638672,158.0,2021-01-21 20:07:55.278000+00:00,train
101,155.3163604736328,158.0,2021-01-21 20:08:55.278000+00:00,train
102,155.3544158935547,158.0,2021-01-21 20:09:55.278000+00:00,train
103,155.39059448242188,158.0,2021-01-21 20:10:55.278000+00:00,train
104,155.42481994628906,158.0,2021-01-21 20:11:55.278000+00:00,train
105,155.45703125,158.0,2021-01-21 20:12:55.278000+00:00,train
106,155.50930786132812,158.0,2021-01-21 20:13:55.278000+00:00,train
107,155.55941772460938,159.0,2021-01-21 20:14:55.278000+00:00,train
108,155.6078338623047,160.0,2021-01-21 20:15:55.278000+00:00,train
109,155.6546173095703,160.0,2021-01-21 20:16:55.278000+00:00,train
110,155.69989013671875,158.0,2021-01-21 20:17:55.278000+00:00,train
111,155.74368286132812,156.0,2021-01-21 20:18:55.278000+00:00,train
112,155.7859344482422,156.0,2021-01-21 20:19:55.278000+00:00,train
113,155.82662963867188,156.0,2021-01-21 20:20:55.278000+00:00,train
114,155.88160705566406,156.0,2021-01-21 20:21:55.278000+00:00,train
115,155.9534149169922,156.0,2021-01-21 20:22:55.278000+00:00,train
116,156.0819549560547,156.0,2021-01-21 20:23:55.278000+00:00,train
117,156.1772003173828,156.0,2021-01-21 20:24:55.278000+00:00,train
118,156.26412963867188,156.0,2021-01-21 20:25:55.278000+00:00,train
119,156.35264587402344,156.0,2021-01-21 20:26:55.278000+00:00,train
120,156.42486572265625,156.0,2021-01-21 20:27:55.278000+00:00,train
121,156.49801635742188,156.0,2021-01-21 20:28:55.278000+00:00,train
122,156.572021484375,156.0,2021-01-21 20:29:55.278000+00:00,train
123,156.64682006835938,157.0,2021-01-21 20:30:55.278000+00:00,train
124,156.72239685058594,158.0,2021-01-21 20:31:55.278000+00:00,train
125,156.7987823486328,158.0,2021-01-21 20:32:55.278000+00:00,train
126,156.87608337402344,158.0,2021-01-21 20:33:55.278000+00:00,train
127,156.9545135498047,158.0,2021-01-21 20:34:55.278000+00:00,train
128,157.03451538085938,158.0,2021-01-21 20:35:55.278000+00:00,train
129,157.11627197265625,158.0,2021-01-21 20:36:55.278000+00:00,train
130,157.21519470214844,158.0,2021-01-21 20:37:55.278000+00:00,train
131,157.33506774902344,158.0,2021-01-21 20:38:55.278000+00:00,train
132,157.45755004882812,160.0,2021-01-21 20:39:55.278000+00:00,train
133,157.58352661132812,160.0,2021-01-21 20:40:55.278000+00:00,train
134,157.71376037597656,160.0,2021-01-21 20:41:55.278000+00:00,train
135,157.84898376464844,160.0,2021-01-21 20:42:55.278000+00:00,train
136,157.989990234375,160.0,2021-01-21 20:43:55.278000+00:00,train
137,158.13677978515625,160.0,2021-01-21 20:44:55.278000+00:00,train
138,158.2898712158203,160.0,2021-01-21 20:45:55.278000+00:00,train
139,158.50418090820312,160.0,2021-01-21 20:46:55.278000+00:00,train
140,158.6905517578125,161.0,2021-01-21 20:47:55.278000+00:00,train
141,158.88116455078125,162.0,2021-01-21 20:48:55.278000+00:00,train
142,159.07618713378906,162.0,2021-01-21 20:49:55.278000+00:00,train
143,159.27545166015625,162.0,2021-01-21 20:50:55.278000+00:00,train
144,159.4788055419922,162.0,2021-01-21 20:51:55.278000+00:00,train
145,159.68399047851562,162.0,2021-01-21 20:52:55.278000+00:00,train
146,159.88731384277344,162.0,2021-01-21 20:53:55.278000+00:00,train
147,160.1239776611328,162.0,2021-01-21 20:54:55.278000+00:00,train
148,160.3956298828125,162.0,2021-01-21 20:55:55.278000+00:00,train
149,160.6540985107422,164.0,2021-01-21 20:56:55.278000+00:00,train
150,160.89334106445312,164.0,2021-01-21 20:57:55.278000+00:00,train
151,161.10537719726562,164.0,2021-01-21 20:58:55.278000+00:00,train
152,161.31295776367188,164.0,2021-01-21 20:59:55.278000+00:00,train
153,161.48187255859375,164.0,2021-01-21 21:00:55.278000+00:00,train
154,161.59971618652344,164.0,2021-01-21 21:01:55.278000+00:00,train
155,161.67236328125,164.0,2021-01-21 21:02:55.278000+00:00,train
156,161.80467224121094,164.0,2021-01-21 21:03:55.278000+00:00,train
157,161.9031524658203,165.0,2021-01-21 21:04:55.278000+00:00,train
158,161.9700469970703,166.0,2021-01-21 21:05:55.278000+00:00,train
159,162.0073699951172,166.0,2021-01-21 21:06:55.278000+00:00,train
160,162.2147979736328,166.0,2021-01-21 21:07:55.278000+00:00,train
161,162.1925811767578,166.0,2021-01-21 21:08:55.278000+00:00,train
162,162.1777801513672,166.0,2021-01-21 21:09:55.278000+00:00,train
163,162.1737060546875,166.0,2021-01-21 21:10:55.278000+00:00,train
164,162.2200164794922,166.0,2021-01-21 21:11:55.278000+00:00,train
165,162.3130645751953,166.0,2021-01-21 21:12:55.278000+00:00,train
166,162.40713500976562,166.0,2021-01-21 21:13:55.278000+00:00,train
167,162.50340270996094,166.0,2021-01-21 21:14:55.278000+00:00,train
168,162.6022186279297,166.0,2021-01-21 21:15:55.278000+00:00,train
169,162.70352172851562,165.0,2021-01-21 21:16:55.278000+00:00,train
170,162.8070526123047,163.0,2021-01-21 21:17:55.278000+00:00,train
171,162.9123077392578,162.0,2021-01-21 21:18:55.278000+00:00,train
172,163.01882934570312,162.0,2021-01-21 21:19:55.278000+00:00,train
173,163.12615966796875,162.0,2021-01-21 21:20:55.278000+00:00,train
174,163.23391723632812,162.0,2021-01-21 21:21:55.278000+00:00,train
175,163.3417205810547,162.0,2021-01-21 21:22:55.278000+00:00,train
176,163.41995239257812,164.0,2021-01-21 21:23:55.278000+00:00,train
177,163.44949340820312,164.0,2021-01-21 21:24:55.278000+00:00,train
178,163.46322631835938,164.0,2021-01-21 21:25:55.278000+00:00,train
179,163.4826202392578,164.0,2021-01-21 21:26:55.278000+00:00,train
180,163.5058135986328,164.0,2021-01-21 21:27:55.278000+00:00,train
181,163.53173828125,164.0,2021-01-21 21:28:55.278000+00:00,train
182,163.55630493164062,164.0,2021-01-21 21:29:55.278000+00:00,train
183,163.62525939941406,164.0,2021-01-21 21:30:55.278000+00:00,train
184,163.6917266845703,164.0,2021-01-21 21:31:55.278000+00:00,train
185,163.75677490234375,164.0,2021-01-21 21:32:55.278000+00:00,train
186,163.8212127685547,164.0,2021-01-21 21:33:55.278000+00:00,train
187,163.87725830078125,165.0,2021-01-21 21:34:55.278000+00:00,train
188,163.924072265625,166.0,2021-01-21 21:35:55.278000+00:00,train
189,163.9687957763672,166.0,2021-01-21 21:36:55.278000+00:00,train
190,164.01123046875,166.0,2021-01-21 21:37:55.278000+00:00,train
191,164.05130004882812,166.0,2021-01-21 21:38:55.278000+00:00,train
192,164.08895874023438,166.0,2021-01-21 21:39:55.278000+00:00,train
193,164.1240692138672,166.0,2021-01-21 21:40:55.278000+00:00,train
194,164.17752075195312,166.0,2021-01-21 21:41:55.278000+00:00,train
195,164.24966430664062,166.0,2021-01-21 21:42:55.278000+00:00,train
196,164.3167266845703,166.0,2021-01-21 21:43:55.278000+00:00,train
197,164.3981170654297,166.0,2021-01-21 21:44:55.278000+00:00,train
198,164.47633361816406,167.0,2021-01-21 21:45:55.278000+00:00,train
199,164.55152893066406,168.0,2021-01-21 21:46:55.278000+00:00,train
200,164.62376403808594,168.0,2021-01-21 21:47:55.278000+00:00,train
201,164.6930389404297,168.0,2021-01-21 21:48:55.278000+00:00,train
202,164.75936889648438,168.0,2021-01-21 21:49:55.278000+00:00,train
203,164.82302856445312,168.0,2021-01-21 21:50:55.278000+00:00,train
204,164.88363647460938,168.0,2021-01-21 21:51:55.278000+00:00,train
205,164.96267700195312,168.0,2021-01-21 21:52:55.278000+00:00,train
206,165.0608673095703,168.0,2021-01-21 21:53:55.278000+00:00,train
207,165.15408325195312,168.0,2021-01-21 21:54:55.278000+00:00,train
208,165.24266052246094,168.0,2021-01-21 21:55:55.278000+00:00,train
209,165.3267059326172,169.0,2021-01-21 21:56:55.278000+00:00,train
210,165.40631103515625,170.0,2021-01-21 21:57:55.278000+00:00,train
211,165.49169921875,170.0,2021-01-21 21:58:55.278000+00:00,train
212,165.58163452148438,170.0,2021-01-21 21:59:55.278000+00:00,train
213,165.66827392578125,170.0,2021-01-21 22:00:55.278000+00:00,train
214,165.75160217285156,170.0,2021-01-21 22:01:55.278000+00:00,train
215,165.83251953125,170.0,2021-01-21 22:02:55.278000+00:00,train
216,165.9312286376953,170.0,2021-01-21 22:03:55.278000+00:00,train
217,166.06280517578125,170.0,2021-01-21 22:04:55.278000+00:00,train
218,166.1911163330078,170.0,2021-01-21 22:05:55.278000+00:00,train
219,166.3175811767578,170.0,2021-01-21 22:06:55.278000+00:00,train
220,166.45529174804688,171.0,2021-01-21 22:07:55.278000+00:00,train
221,166.56549072265625,172.0,2021-01-21 22:08:55.278000+00:00,train
222,166.67581176757812,172.0,2021-01-21 22:09:55.278000+00:00,train
223,166.7845001220703,170.0,2021-01-21 22:10:55.278000+00:00,train
224,166.8909912109375,168.0,2021-01-21 22:11:55.278000+00:00,train
225,166.99510192871094,166.0,2021-01-21 22:12:55.278000+00:00,train
226,167.103515625,166.0,2021-01-21 22:13:55.278000+00:00,train
227,167.23226928710938,166.0,2021-01-21 22:14:55.278000+00:00,train
228,167.38221740722656,166.0,2021-01-21 22:15:55.278000+00:00,train
229,167.52902221679688,166.0,2021-01-21 22:16:55.278000+00:00,train
230,167.628662109375,167.0,2021-01-21 22:17:55.278000+00:00,train
231,167.6901092529297,168.0,2021-01-21 22:18:55.278000+00:00,train
232,167.7213897705078,168.0,2021-01-21 22:19:55.278000+00:00,train
233,167.75259399414062,168.0,2021-01-21 22:20:55.278000+00:00,train
234,167.78448486328125,168.0,2021-01-21 22:21:55.278000+00:00,train
235,167.81527709960938,168.0,2021-01-21 22:22:55.278000+00:00,train
236,167.845947265625,168.0,2021-01-21 22:23:55.278000+00:00,train
237,167.89036560058594,168.0,2021-01-21 22:24:55.278000+00:00,train
238,167.9427490234375,168.0,2021-01-21 22:25:55.278000+00:00,train
239,167.99493408203125,168.0,2021-01-21 22:26:55.278000+00:00,train
240,168.04733276367188,168.0,2021-01-21 22:27:55.278000+00:00,train
241,168.10043334960938,168.0,2021-01-21 22:28:55.278000+00:00,train
242,168.1546173095703,170.0,2021-01-21 22:29:55.278000+00:00,train
243,168.21022033691406,170.0,2021-01-21 22:30:55.278000+00:00,train
244,168.26742553710938,170.0,2021-01-21 22:31:55.278000+00:00,train
245,168.32672119140625,170.0,2021-01-21 22:32:55.278000+00:00,train
246,168.38845825195312,170.0,2021-01-21 22:33:55.278000+00:00,train
247,168.4517059326172,170.0,2021-01-21 22:34:55.278000+00:00,train
248,168.5163116455078,170.0,2021-01-21 22:35:55.278000+00:00,train
249,168.62925720214844,170.0,2021-01-21 22:36:55.278000+00:00,train
250,168.7533416748047,170.0,2021-01-21 22:37:55.278000+00:00,train
251,168.88604736328125,170.0,2021-01-21 22:38:55.278000+00:00,train
252,169.0243377685547,170.0,2021-01-21 22:39:55.278000+00:00,train
253,169.16810607910156,171.0,2021-01-21 22:40:55.278000+00:00,train
254,169.31411743164062,172.0,2021-01-21 22:41:55.278000+00:00,train
255,169.4559326171875,172.0,2021-01-21 22:42:55.278000+00:00,train
256,169.58401489257812,172.0,2021-01-21 22:43:55.278000+00:00,train
257,169.68702697753906,172.0,2021-01-21 22:44:55.278000+00:00,train
258,169.76052856445312,172.0,2021-01-21 22:45:55.278000+00:00,train
259,169.8302001953125,172.0,2021-01-21 22:46:55.278000+00:00,train
260,169.9071502685547,172.0,2021-01-21 22:47:55.278000+00:00,train
261,169.99276733398438,172.0,2021-01-21 22:48:55.278000+00:00,train
262,170.06101989746094,172.0,2021-01-21 22:49:55.278000+00:00,train
263,170.11480712890625,172.0,2021-01-21 22:50:55.278000+00:00,train
264,170.1566925048828,172.0,2021-01-21 22:51:55.278000+00:00,train
265,170.1892547607422,174.0,2021-01-21 22:52:55.278000+00:00,train
266,170.215576171875,174.0,2021-01-21 22:53:55.278000+00:00,train
267,170.25347900390625,174.0,2021-01-21 22:54:55.278000+00:00,train
268,170.30178833007812,174.0,2021-01-21 22:55:55.278000+00:00,train
269,170.3489532470703,174.0,2021-01-21 22:56:55.278000+00:00,train
270,170.3948974609375,174.0,2021-01-21 22:57:55.278000+00:00,train
271,170.43971252441406,174.0,2021-01-21 22:58:55.278000+00:00,train
272,170.53240966796875,174.0,2021-01-21 22:59:55.278000+00:00,train
273,170.62242126464844,174.0,2021-01-21 23:00:55.278000+00:00,train
274,170.70982360839844,174.0,2021-01-21 23:01:55.278000+00:00,train
275,170.79470825195312,174.0,2021-01-21 23:02:55.278000+00:00,train
276,170.8900909423828,172.0,2021-01-21 23:03:55.278000+00:00,train
277,170.98291015625,170.0,2021-01-21 23:04:55.278000+00:00,train
278,171.0734100341797,170.0,2021-01-21 23:05:55.278000+00:00,train
279,171.162109375,170.0,2021-01-21 23:06:55.278000+00:00,train
280,171.24801635742188,170.0,2021-01-21 23:07:55.278000+00:00,train
281,171.3321075439453,170.0,2021-01-21 23:08:55.278000+00:00,train
282,171.4142608642578,170.0,2021-01-21 23:09:55.278000+00:00,train
283,171.45477294921875,170.0,2021-01-21 23:10:55.278000+00:00,train
284,171.46743774414062,170.0,2021-01-21 23:11:55.278000+00:00,train
285,171.4795379638672,170.0,2021-01-21 23:12:55.278000+00:00,train
286,171.49148559570312,170.0,2021-01-21 23:13:55.278000+00:00,train
287,171.5032501220703,170.0,2021-01-21 23:14:55.278000+00:00,train
288,171.5148468017578,170.0,2021-01-21 23:15:55.278000+00:00,train
289,171.5262451171875,171.0,2021-01-21 23:16:55.278000+00:00,train
290,171.5374755859375,172.0,2021-01-21 23:17:55.278000+00:00,train
291,171.5485382080078,172.0,2021-01-21 23:18:55.278000+00:00,train
292,171.55938720703125,172.0,2021-01-21 23:19:55.278000+00:00,train
293,171.570068359375,172.0,2021-01-21 23:20:55.278000+00:00,train
294,171.58053588867188,172.0,2021-01-21 23:21:55.278000+00:00,train
295,171.5908660888672,172.0,2021-01-21 23:22:55.278000+00:00,train
296,171.61322021484375,172.0,2021-01-21 23:23:55.278000+00:00,train
297,171.64178466796875,172.0,2021-01-21 23:24:55.278000+00:00,train
298,171.6610107421875,172.0,2021-01-21 23:25:55.278000+00:00,train
299,171.6782684326172,172.0,2021-01-21 23:26:55.278000+00:00,train
300,171.69338989257812,173.0,2021-01-21 23:27:55.278000+00:00,train
301,171.7062530517578,174.0,2021-01-21 23:28:55.278000+00:00,train
302,171.71670532226562,174.0,2021-01-21 23:29:55.278000+00:00,train
303,171.74195861816406,174.0,2021-01-21 23:30:55.278000+00:00,train
304,171.76597595214844,174.0,2021-01-21 23:31:55.278000+00:00,train
305,171.78872680664062,174.0,2021-01-21 23:32:55.278000+00:00,train
306,171.8101348876953,174.0,2021-01-21 23:33:55.278000+00:00,train
307,171.84628295898438,174.0,2021-01-21 23:34:55.278000+00:00,train
308,171.89939880371094,174.0,2021-01-21 23:35:55.278000+00:00,train
309,171.950439453125,174.0,2021-01-21 23:36:55.278000+00:00,train
310,171.9994354248047,174.0,2021-01-21 23:37:55.278000+00:00,train
311,172.0463104248047,174.0,2021-01-21 23:38:55.278000+00:00,train
312,172.091064453125,174.0,2021-01-21 23:39:55.278000+00:00,train
313,172.13363647460938,174.0,2021-01-21 23:40:55.278000+00:00,train
314,172.18148803710938,174.0,2021-01-21 23:41:55.278000+00:00,train
315,172.23245239257812,176.0,2021-01-21 23:42:55.278000+00:00,train
316,172.28208923339844,176.0,2021-01-21 23:43:55.278000+00:00,train
317,172.3303680419922,176.0,2021-01-21 23:44:55.278000+00:00,train
318,172.37730407714844,176.0,2021-01-21 23:45:55.278000+00:00,train
319,172.42294311523438,176.0,2021-01-21 23:46:55.278000+00:00,train
320,172.46725463867188,176.0,2021-01-21 23:47:55.278000+00:00,train
321,172.51022338867188,176.0,2021-01-21 23:48:55.278000+00:00,train
322,172.59194946289062,176.0,2021-01-21 23:49:55.278000+00:00,train
323,172.6713104248047,176.0,2021-01-21 23:50:55.278000+00:00,train
324,172.74839782714844,176.0,2021-01-21 23:51:55.278000+00:00,train
325,172.8267059326172,176.0,2021-01-21 23:52:55.278000+00:00,train
326,172.90383911132812,174.0,2021-01-21 23:53:55.278000+00:00,train
327,172.9791717529297,172.0,2021-01-21 23:54:55.278000+00:00,train
328,173.05279541015625,172.0,2021-01-21 23:55:55.278000+00:00,train
329,173.124755859375,172.0,2021-01-21 23:56:55.278000+00:00,train
330,173.1951446533203,172.0,2021-01-21 23:57:55.278000+00:00,train
331,173.2640380859375,172.0,2021-01-21 23:58:55.278000+00:00,train
332,173.33143615722656,172.0,2021-01-21 23:59:55.278000+00:00,train
333,173.3642578125,172.0,2021-01-22 00:00:55.278000+00:00,train
334,173.37274169921875,172.0,2021-01-22 00:01:55.278000+00:00,train
335,173.38113403320312,172.0,2021-01-22 00:02:55.278000+00:00,train
336,173.38818359375,172.0,2021-01-22 00:03:55.278000+00:00,train
337,173.39173889160156,172.0,2021-01-22 00:04:55.278000+00:00,train
338,173.3953399658203,172.0,2021-01-22 00:05:55.278000+00:00,train
339,173.39898681640625,172.0,2021-01-22 00:06:55.278000+00:00,train
340,173.4025115966797,172.0,2021-01-22 00:07:55.278000+00:00,train
341,173.40611267089844,172.0,2021-01-22 00:08:55.278000+00:00,train
342,173.40966796875,173.0,2021-01-22 00:09:55.278000+00:00,train
343,173.41322326660156,174.0,2021-01-22 00:10:55.278000+00:00,train
344,173.4167938232422,174.0,2021-01-22 00:11:55.278000+00:00,train
345,173.42031860351562,174.0,2021-01-22 00:12:55.278000+00:00,train
346,173.42384338378906,174.0,2021-01-22 00:13:55.278000+00:00,train
347,173.4218292236328,174.0,2021-01-22 00:14:55.278000+00:00,train
348,173.41201782226562,174.0,2021-01-22 00:15:55.278000+00:00,train
349,173.41229248046875,174.0,2021-01-22 00:16:55.278000+00:00,train
350,173.4380340576172,174.0,2021-01-22 00:17:55.278000+00:00,train
351,173.46774291992188,174.0,2021-01-22 00:18:55.278000+00:00,train
352,173.4918212890625,174.0,2021-01-22 00:19:55.278000+00:00,train
353,173.51449584960938,174.0,2021-01-22 00:20:55.278000+00:00,train
354,173.53564453125,174.0,2021-01-22 00:21:55.278000+00:00,train
355,173.55520629882812,174.0,2021-01-22 00:22:55.278000+00:00,train
356,173.57301330566406,175.0,2021-01-22 00:23:55.278000+00:00,train
357,173.59458923339844,176.0,2021-01-22 00:24:55.278000+00:00,train
358,173.61834716796875,176.0,2021-01-22 00:25:55.278000+00:00,train
359,173.6414031982422,176.0,2021-01-22 00:26:55.278000+00:00,train
360,173.6636962890625,176.0,2021-01-22 00:27:55.278000+00:00,train
361,173.6852569580078,176.0,2021-01-22 00:28:55.278000+00:00,train
362,173.70602416992188,176.0,2021-01-22 00:29:55.278000+00:00,train
363,173.7393798828125,176.0,2021-01-22 00:30:55.278000+00:00,train
364,173.78756713867188,176.0,2021-01-22 00:31:55.278000+00:00,train
365,173.83445739746094,176.0,2021-01-22 00:32:55.278000+00:00,train
366,173.88002014160156,176.0,2021-01-22 00:33:55.278000+00:00,train
367,173.9242401123047,176.0,2021-01-22 00:34:55.278000+00:00,train
368,173.9670867919922,176.0,2021-01-22 00:35:55.278000+00:00,train
369,174.0123291015625,176.0,2021-01-22 00:36:55.278000+00:00,train
370,174.0568084716797,176.0,2021-01-22 00:37:55.278000+00:00,train
371,174.10052490234375,178.0,2021-01-22 00:38:55.278000+00:00,train
372,174.14349365234375,178.0,2021-01-22 00:39:55.278000+00:00,train
373,174.18572998046875,178.0,2021-01-22 00:40:55.278000+00:00,train
374,174.22723388671875,172.0,2021-01-22 00:41:55.278000+00:00,train
375,174.26806640625,172.0,2021-01-22 00:42:55.278000+00:00,train
376,174.3081817626953,172.0,2021-01-22 00:43:55.278000+00:00,train
377,174.34759521484375,172.0,2021-01-22 00:44:55.278000+00:00,train
378,174.42108154296875,172.0,2021-01-22 00:45:55.278000+00:00,train
379,174.49295043945312,172.0,2021-01-22 00:46:55.278000+00:00,train
380,174.56199645996094,172.0,2021-01-22 00:47:55.278000+00:00,train
381,174.55511474609375,172.0,2021-01-22 00:48:55.278000+00:00,train
382,174.54832458496094,172.0,2021-01-22 00:49:55.278000+00:00,train
383,174.54161071777344,172.0,2021-01-22 00:50:55.278000+00:00,train
384,174.534912109375,174.0,2021-01-22 00:51:55.278000+00:00,train
385,174.5282745361328,174.0,2021-01-22 00:52:55.278000+00:00,train
386,174.5216522216797,174.0,2021-01-22 00:53:55.278000+00:00,train
387,174.5150604248047,174.0,2021-01-22 00:54:55.278000+00:00,train
388,174.50848388671875,174.0,2021-01-22 00:55:55.278000+00:00,train
389,174.501953125,174.0,2021-01-22 00:56:55.278000+00:00,train
390,172.15040588378906,174.0,2021-01-22 00:57:55.278000+00:00,train
391,172.1687469482422,174.0,2021-01-22 00:58:55.278000+00:00,train
392,172.16786193847656,174.0,2021-01-22 00:59:55.278000+00:00,train
393,172.1155242919922,174.0,2021-01-22 01:00:55.278000+00:00,train
394,172.11468505859375,174.0,2021-01-22 01:01:55.278000+00:00,train
395,172.07965087890625,174.0,2021-01-22 01:02:55.278000+00:00,train
396,172.07882690429688,174.0,2021-01-22 01:03:55.278000+00:00,train
397,172.0780029296875,174.0,2021-01-22 01:04:55.278000+00:00,train
398,172.0530548095703,176.0,2021-01-22 01:05:55.278000+00:00,train
399,172.05221557617188,176.0,2021-01-22 01:06:55.278000+00:00,train
400,172.03099060058594,176.0,2021-01-22 01:07:55.278000+00:00,train
401,172.03018188476562,176.0,2021-01-22 01:08:55.278000+00:00,train
402,172.0293731689453,176.0,2021-01-22 01:09:55.278000+00:00,train
403,172.02886962890625,176.0,2021-01-22 01:10:55.278000+00:00,train
404,172.08062744140625,176.0,2021-01-22 01:11:55.278000+00:00,train
405,172.12234497070312,176.0,2021-01-22 01:12:55.278000+00:00,train
406,172.18344116210938,176.0,2021-01-22 01:13:55.278000+00:00,train
407,172.24560546875,176.0,2021-01-22 01:14:55.278000+00:00,train
408,172.3089141845703,176.0,2021-01-22 01:15:55.278000+00:00,train
409,172.3734130859375,176.0,2021-01-22 01:16:55.278000+00:00,train
410,172.4391326904297,176.0,2021-01-22 01:17:55.278000+00:00,train
411,172.50613403320312,176.0,2021-01-22 01:18:55.278000+00:00,train
412,172.57449340820312,176.0,2021-01-22 01:19:55.278000+00:00,train
413,172.64427185058594,176.0,2021-01-22 01:20:55.278000+00:00,train
414,172.71551513671875,176.0,2021-01-22 01:21:55.278000+00:00,train
415,172.7882843017578,177.0,2021-01-22 01:22:55.278000+00:00,train
416,172.8405303955078,178.0,2021-01-22 01:23:55.278000+00:00,train
417,172.87522888183594,178.0,2021-01-22 01:24:55.278000+00:00,train
418,172.91041564941406,172.0,2021-01-22 01:25:55.278000+00:00,train
419,172.94615173339844,172.0,2021-01-22 01:26:55.278000+00:00,train
420,172.98239135742188,172.0,2021-01-22 01:27:55.278000+00:00,train
421,173.01918029785156,172.0,2021-01-22 01:28:55.278000+00:00,train
422,173.05648803710938,172.0,2021-01-22 01:29:55.278000+00:00,train
423,173.09092712402344,172.0,2021-01-22 01:30:55.278000+00:00,train
424,173.12660217285156,172.0,2021-01-22 01:31:55.278000+00:00,train
425,173.1256103515625,172.0,2021-01-22 01:32:55.278000+00:00,train
426,173.1248016357422,172.0,2021-01-22 01:33:55.278000+00:00,train
427,173.1085205078125,172.0,2021-01-22 01:34:55.278000+00:00,train
428,173.08062744140625,172.0,2021-01-22 01:35:55.278000+00:00,train
429,173.05294799804688,172.0,2021-01-22 01:36:55.278000+00:00,train
430,173.02548217773438,173.0,2021-01-22 01:37:55.278000+00:00,train
431,172.9986572265625,174.0,2021-01-22 01:38:55.278000+00:00,train
432,172.97215270996094,174.0,2021-01-22 01:39:55.278000+00:00,train
433,172.94552612304688,174.0,2021-01-22 01:40:55.278000+00:00,train
434,172.91896057128906,174.0,2021-01-22 01:41:55.278000+00:00,train
435,172.8925323486328,174.0,2021-01-22 01:42:55.278000+00:00,train
436,172.8658447265625,174.0,2021-01-22 01:43:55.278000+00:00,train
437,172.85447692871094,174.0,2021-01-22 01:44:55.278000+00:00,train
438,172.8540496826172,174.0,2021-01-22 01:45:55.278000+00:00,train
439,172.85353088378906,174.0,2021-01-22 01:46:55.278000+00:00,train
440,172.85296630859375,174.0,2021-01-22 01:47:55.278000+00:00,train
441,172.85240173339844,174.0,2021-01-22 01:48:55.278000+00:00,train
442,172.84051513671875,174.0,2021-01-22 01:49:55.278000+00:00,train
443,172.82879638671875,174.0,2021-01-22 01:50:55.278000+00:00,train
444,172.8171844482422,174.0,2021-01-22 01:51:55.278000+00:00,train
445,172.8057403564453,174.0,2021-01-22 01:52:55.278000+00:00,train
446,172.79444885253906,174.0,2021-01-22 01:53:55.278000+00:00,train
447,172.78329467773438,176.0,2021-01-22 01:54:55.278000+00:00,train
448,172.77230834960938,176.0,2021-01-22 01:55:55.278000+00:00,train
449,172.761474609375,176.0,2021-01-22 01:56:55.278000+00:00,train
450,172.7508087158203,176.0,2021-01-22 01:57:55.278000+00:00,train
451,172.74029541015625,176.0,2021-01-22 01:58:55.278000+00:00,train
452,172.7299346923828,176.0,2021-01-22 01:59:55.278000+00:00,train
453,172.72938537597656,176.0,2021-01-22 02:00:55.278000+00:00,train
454,172.7637481689453,176.0,2021-01-22 02:01:55.278000+00:00,train
455,172.79849243164062,176.0,2021-01-22 02:02:55.278000+00:00,train
456,172.83367919921875,176.0,2021-01-22 02:03:55.278000+00:00,train
457,172.86932373046875,176.0,2021-01-22 02:04:55.278000+00:00,train
458,172.90550231933594,174.0,2021-01-22 02:05:55.278000+00:00,train
459,172.94219970703125,172.0,2021-01-22 02:06:55.278000+00:00,train
460,172.97938537597656,172.0,2021-01-22 02:07:55.278000+00:00,train
461,173.01712036132812,172.0,2021-01-22 02:08:55.278000+00:00,train
462,173.0553741455078,172.0,2021-01-22 02:09:55.278000+00:00,train
463,173.0941925048828,172.0,2021-01-22 02:10:55.278000+00:00,train
464,173.13356018066406,172.0,2021-01-22 02:11:55.278000+00:00,train
465,173.16073608398438,172.0,2021-01-22 02:12:55.278000+00:00,train
466,173.1601104736328,172.0,2021-01-22 02:13:55.278000+00:00,train
467,173.15956115722656,172.0,2021-01-22 02:14:55.278000+00:00,train
468,173.15902709960938,172.0,2021-01-22 02:15:55.278000+00:00,train
469,173.142578125,172.0,2021-01-22 02:16:55.278000+00:00,train
470,173.1142578125,172.0,2021-01-22 02:17:55.278000+00:00,train
471,173.08615112304688,172.0,2021-01-22 02:18:55.278000+00:00,train
472,173.0582733154297,172.0,2021-01-22 02:19:55.278000+00:00,train
473,173.0305633544922,172.0,2021-01-22 02:20:55.278000+00:00,train
474,173.0030975341797,172.0,2021-01-22 02:21:55.278000+00:00,train
475,172.97579956054688,172.0,2021-01-22 02:22:55.278000+00:00,train
476,172.94869995117188,172.0,2021-01-22 02:23:55.278000+00:00,train
477,172.9217987060547,172.0,2021-01-22 02:24:55.278000+00:00,train
478,172.8950958251953,172.0,2021-01-22 02:25:55.278000+00:00,val
479,172.86856079101562,172.0,2021-01-22 02:26:55.278000+00:00,val
480,172.84219360351562,174.0,2021-01-22 02:27:55.278000+00:00,val
481,172.81600952148438,174.0,2021-01-22 02:28:55.278000+00:00,val
482,172.79002380371094,174.0,2021-01-22 02:29:55.278000+00:00,val
483,172.75686645507812,174.0,2021-01-22 02:30:55.278000+00:00,val
484,172.7203826904297,174.0,2021-01-22 02:31:55.278000+00:00,val
485,172.6843719482422,174.0,2021-01-22 02:32:55.278000+00:00,val
486,172.6488494873047,174.0,2021-01-22 02:33:55.278000+00:00,val
487,172.63816833496094,174.0,2021-01-22 02:34:55.278000+00:00,val
488,172.62759399414062,174.0,2021-01-22 02:35:55.278000+00:00,val
489,172.61715698242188,174.0,2021-01-22 02:36:55.278000+00:00,val
490,172.6068572998047,174.0,2021-01-22 02:37:55.278000+00:00,val
491,172.5967254638672,174.0,2021-01-22 02:38:55.278000+00:00,val
492,172.58673095703125,174.0,2021-01-22 02:39:55.278000+00:00,val
493,172.576904296875,174.0,2021-01-22 02:40:55.278000+00:00,val
494,172.5672607421875,174.0,2021-01-22 02:41:55.278000+00:00,val
495,172.55775451660156,174.0,2021-01-22 02:42:55.278000+00:00,val
496,172.54843139648438,174.0,2021-01-22 02:43:55.278000+00:00,val
497,172.53927612304688,170.0,2021-01-22 02:44:55.278000+00:00,val
498,172.5371856689453,170.0,2021-01-22 02:45:55.278000+00:00,val
499,172.53636169433594,170.0,2021-01-22 02:46:55.278000+00:00,val
500,172.5369110107422,170.0,2021-01-22 02:47:55.278000+00:00,val
501,172.55984497070312,170.0,2021-01-22 02:48:55.278000+00:00,val
502,172.58294677734375,170.0,2021-01-22 02:49:55.278000+00:00,val
503,172.60623168945312,170.0,2021-01-22 02:50:55.278000+00:00,val
504,172.56602478027344,170.0,2021-01-22 02:51:55.278000+00:00,val
505,172.52630615234375,170.0,2021-01-22 02:52:55.278000+00:00,val
506,172.487060546875,170.0,2021-01-22 02:53:55.278000+00:00,val
507,172.44830322265625,170.0,2021-01-22 02:54:55.278000+00:00,val
508,172.41000366210938,170.0,2021-01-22 02:55:55.278000+00:00,val
509,172.37213134765625,170.0,2021-01-22 02:56:55.278000+00:00,val
510,172.33468627929688,170.0,2021-01-22 02:57:55.278000+00:00,val
511,172.27572631835938,170.0,2021-01-22 02:58:55.278000+00:00,val
512,172.21763610839844,170.0,2021-01-22 02:59:55.278000+00:00,val
513,172.16043090820312,172.0,2021-01-22 03:00:55.278000+00:00,val
514,172.10403442382812,172.0,2021-01-22 03:01:55.278000+00:00,val
515,172.0484161376953,172.0,2021-01-22 03:02:55.278000+00:00,val
516,171.9935302734375,172.0,2021-01-22 03:03:55.278000+00:00,val
517,171.9394073486328,172.0,2021-01-22 03:04:55.278000+00:00,val
518,171.8859405517578,172.0,2021-01-22 03:05:55.278000+00:00,val
519,171.83314514160156,172.0,2021-01-22 03:06:55.278000+00:00,val
520,171.81309509277344,172.0,2021-01-22 03:07:55.278000+00:00,val
521,171.79318237304688,172.0,2021-01-22 03:08:55.278000+00:00,val
522,171.77340698242188,172.0,2021-01-22 03:09:55.278000+00:00,val
523,171.75372314453125,172.0,2021-01-22 03:10:55.278000+00:00,val
524,171.7341766357422,172.0,2021-01-22 03:11:55.278000+00:00,val
525,171.70872497558594,172.0,2021-01-22 03:12:55.278000+00:00,val
526,171.68373107910156,172.0,2021-01-22 03:13:55.278000+00:00,val
527,171.6592559814453,172.0,2021-01-22 03:14:55.278000+00:00,val
528,171.63525390625,172.0,2021-01-22 03:15:55.278000+00:00,val
529,171.61175537109375,172.0,2021-01-22 03:16:55.278000+00:00,val
530,171.58877563476562,174.0,2021-01-22 03:17:55.278000+00:00,val
531,171.56631469726562,174.0,2021-01-22 03:18:55.278000+00:00,val
532,171.54440307617188,174.0,2021-01-22 03:19:55.278000+00:00,val
533,171.5230255126953,168.0,2021-01-22 03:20:55.278000+00:00,val
534,171.50221252441406,168.0,2021-01-22 03:21:55.278000+00:00,val
535,171.48194885253906,168.0,2021-01-22 03:22:55.278000+00:00,val
536,171.4622802734375,168.0,2021-01-22 03:23:55.278000+00:00,val
537,171.45968627929688,168.0,2021-01-22 03:24:55.278000+00:00,val
538,171.45724487304688,168.0,2021-01-22 03:25:55.278000+00:00,val
539,171.45501708984375,168.0,2021-01-22 03:26:55.278000+00:00,val
540,171.36302185058594,168.0,2021-01-22 03:27:55.278000+00:00,val
541,171.2732696533203,168.0,2021-01-22 03:28:55.278000+00:00,val
542,171.1903839111328,168.0,2021-01-22 03:29:55.278000+00:00,val
543,171.1183624267578,168.0,2021-01-22 03:30:55.278000+00:00,val
544,171.04934692382812,168.0,2021-01-22 03:31:55.278000+00:00,val
545,170.98072814941406,168.0,2021-01-22 03:32:55.278000+00:00,val
546,170.91336059570312,168.0,2021-01-22 03:33:55.278000+00:00,val
547,170.8471221923828,168.0,2021-01-22 03:34:55.278000+00:00,val
548,170.78196716308594,169.0,2021-01-22 03:35:55.278000+00:00,val
549,170.71783447265625,170.0,2021-01-22 03:36:55.278000+00:00,val
550,170.65467834472656,170.0,2021-01-22 03:37:55.278000+00:00,val
551,170.59239196777344,170.0,2021-01-22 03:38:55.278000+00:00,val
552,170.5309600830078,170.0,2021-01-22 03:39:55.278000+00:00,val
553,170.47035217285156,170.0,2021-01-22 03:40:55.278000+00:00,val
554,170.4105682373047,170.0,2021-01-22 03:41:55.278000+00:00,val
555,170.3703155517578,170.0,2021-01-22 03:42:55.278000+00:00,val
556,170.34637451171875,170.0,2021-01-22 03:43:55.278000+00:00,val
557,170.31529235839844,170.0,2021-01-22 03:44:55.278000+00:00,val
558,170.28016662597656,170.0,2021-01-22 03:45:55.278000+00:00,val
559,170.24542236328125,170.0,2021-01-22 03:46:55.278000+00:00,val
560,170.21109008789062,170.0,2021-01-22 03:47:55.278000+00:00,val
561,170.17713928222656,170.0,2021-01-22 03:48:55.278000+00:00,val
562,170.1436004638672,170.0,2021-01-22 03:49:55.278000+00:00,val
563,170.1104278564453,170.0,2021-01-22 03:50:55.278000+00:00,val
564,170.07766723632812,170.0,2021-01-22 03:51:55.278000+00:00,val
565,170.04527282714844,170.0,2021-01-22 03:52:55.278000+00:00,val
566,170.01329040527344,166.0,2021-01-22 03:53:55.278000+00:00,val
567,169.981689453125,166.0,2021-01-22 03:54:55.278000+00:00,val
568,169.9504852294922,166.0,2021-01-22 03:55:55.278000+00:00,val
569,169.91966247558594,166.0,2021-01-22 03:56:55.278000+00:00,val
570,169.88926696777344,166.0,2021-01-22 03:57:55.278000+00:00,val
571,169.85922241210938,166.0,2021-01-22 03:58:55.278000+00:00,val
572,169.82960510253906,166.0,2021-01-22 03:59:55.278000+00:00,val
573,169.7263641357422,166.0,2021-01-22 04:00:55.278000+00:00,val
574,169.6283721923828,166.0,2021-01-22 04:01:55.278000+00:00,val
575,169.5328369140625,166.0,2021-01-22 04:02:55.278000+00:00,val
576,169.43971252441406,166.0,2021-01-22 04:03:55.278000+00:00,val
577,169.3489990234375,166.0,2021-01-22 04:04:55.278000+00:00,val
578,169.26065063476562,166.0,2021-01-22 04:05:55.278000+00:00,val
579,169.17465209960938,166.0,2021-01-22 04:06:55.278000+00:00,val
580,169.09100341796875,166.0,2021-01-22 04:07:55.278000+00:00,val
581,169.0096893310547,167.0,2021-01-22 04:08:55.278000+00:00,val
582,168.93069458007812,168.0,2021-01-22 04:09:55.278000+00:00,val
583,168.8540802001953,168.0,2021-01-22 04:10:55.278000+00:00,val
584,168.7798309326172,168.0,2021-01-22 04:11:55.278000+00:00,val
585,168.69996643066406,168.0,2021-01-22 04:12:55.278000+00:00,val
586,168.6246795654297,168.0,2021-01-22 04:13:55.278000+00:00,val
587,168.55059814453125,168.0,2021-01-22 04:14:55.278000+00:00,val
588,168.4961700439453,168.0,2021-01-22 04:15:55.278000+00:00,val
589,168.45826721191406,168.0,2021-01-22 04:16:55.278000+00:00,val
590,168.42074584960938,168.0,2021-01-22 04:17:55.278000+00:00,val
591,168.3836669921875,168.0,2021-01-22 04:18:55.278000+00:00,val
592,168.346923828125,168.0,2021-01-22 04:19:55.278000+00:00,val
593,168.31057739257812,168.0,2021-01-22 04:20:55.278000+00:00,val
594,168.2746124267578,168.0,2021-01-22 04:21:55.278000+00:00,val
595,168.239013671875,168.0,2021-01-22 04:22:55.278000+00:00,val
596,168.2037811279297,164.0,2021-01-22 04:23:55.278000+00:00,val
597,168.16891479492188,164.0,2021-01-22 04:24:55.278000+00:00,val
598,168.13441467285156,164.0,2021-01-22 04:25:55.278000+00:00,val
599,168.1002960205078,164.0,2021-01-22 04:26:55.278000+00:00,val
600,168.06651306152344,164.0,2021-01-22 04:27:55.278000+00:00,val
601,168.0331268310547,164.0,2021-01-22 04:28:55.278000+00:00,val
602,168.0000762939453,164.0,2021-01-22 04:29:55.278000+00:00,val
603,167.894775390625,164.0,2021-01-22 04:30:55.278000+00:00,val
604,167.79159545898438,164.0,2021-01-22 04:31:55.278000+00:00,val
605,167.6904754638672,164.0,2021-01-22 04:32:55.278000+00:00,val
606,167.59136962890625,164.0,2021-01-22 04:33:55.278000+00:00,val
607,167.4940643310547,164.0,2021-01-22 04:34:55.278000+00:00,val
608,167.39906311035156,164.0,2021-01-22 04:35:55.278000+00:00,val
609,167.3062744140625,164.0,2021-01-22 04:36:55.278000+00:00,val
610,167.21568298339844,164.0,2021-01-22 04:37:55.278000+00:00,val
611,167.12728881835938,164.0,2021-01-22 04:38:55.278000+00:00,val
612,167.0410614013672,164.0,2021-01-22 04:39:55.278000+00:00,val
613,166.9569549560547,164.0,2021-01-22 04:40:55.278000+00:00,val
614,166.87503051757812,164.0,2021-01-22 04:41:55.278000+00:00,val
615,166.79525756835938,164.0,2021-01-22 04:42:55.278000+00:00,val
616,166.7176055908203,164.0,2021-01-22 04:43:55.278000+00:00,val
617,166.64215087890625,166.0,2021-01-22 04:44:55.278000+00:00,val
618,166.5688934326172,166.0,2021-01-22 04:45:55.278000+00:00,val
619,166.49781799316406,166.0,2021-01-22 04:46:55.278000+00:00,val
620,166.42898559570312,166.0,2021-01-22 04:47:55.278000+00:00,val
621,166.36245727539062,166.0,2021-01-22 04:48:55.278000+00:00,val
622,166.29823303222656,163.0,2021-01-22 04:49:55.278000+00:00,val
623,166.23638916015625,160.0,2021-01-22 04:50:55.278000+00:00,val
624,166.20263671875,160.0,2021-01-22 04:51:55.278000+00:00,val
625,166.16932678222656,160.0,2021-01-22 04:52:55.278000+00:00,val
626,166.1364288330078,160.0,2021-01-22 04:53:55.278000+00:00,val
627,166.10394287109375,160.0,2021-01-22 04:54:55.278000+00:00,val
628,166.0718536376953,160.0,2021-01-22 04:55:55.278000+00:00,val
629,165.99343872070312,160.0,2021-01-22 04:56:55.278000+00:00,val
630,165.85183715820312,160.0,2021-01-22 04:57:55.278000+00:00,val
631,165.71514892578125,160.0,2021-01-22 04:58:55.278000+00:00,val
632,165.58322143554688,161.0,2021-01-22 04:59:55.278000+00:00,val
633,165.45596313476562,162.0,2021-01-22 05:00:55.278000+00:00,val
634,165.33302307128906,162.0,2021-01-22 05:01:55.278000+00:00,val
635,165.21421813964844,162.0,2021-01-22 05:02:55.278000+00:00,val
636,165.0994415283203,162.0,2021-01-22 05:03:55.278000+00:00,val
637,164.98851013183594,162.0,2021-01-22 05:04:55.278000+00:00,val
638,164.8812713623047,162.0,2021-01-22 05:05:55.278000+00:00,val
639,164.79527282714844,162.0,2021-01-22 05:06:55.278000+00:00,val
640,164.72775268554688,162.0,2021-01-22 05:07:55.278000+00:00,val
641,164.66226196289062,162.0,2021-01-22 05:08:55.278000+00:00,val
642,164.598388671875,162.0,2021-01-22 05:09:55.278000+00:00,val
643,164.53570556640625,162.0,2021-01-22 05:10:55.278000+00:00,val
644,164.47369384765625,162.0,2021-01-22 05:11:55.278000+00:00,val
645,164.41163635253906,162.0,2021-01-22 05:12:55.278000+00:00,val
646,164.348876953125,162.0,2021-01-22 05:13:55.278000+00:00,val
647,164.28445434570312,158.0,2021-01-22 05:14:55.278000+00:00,val
648,164.21697998046875,158.0,2021-01-22 05:15:55.278000+00:00,val
649,164.14527893066406,158.0,2021-01-22 05:16:55.278000+00:00,test
650,164.0676727294922,158.0,2021-01-22 05:17:55.278000+00:00,test
651,163.98263549804688,158.0,2021-01-22 05:18:55.278000+00:00,test
652,163.88858032226562,158.0,2021-01-22 05:19:55.278000+00:00,test
653,163.7837371826172,158.0,2021-01-22 05:20:55.278000+00:00,test
654,163.5735321044922,158.0,2021-01-22 05:21:55.278000+00:00,test
655,163.348876953125,158.0,2021-01-22 05:22:55.278000+00:00,test
656,163.11534118652344,158.0,2021-01-22 05:23:55.278000+00:00,test
657,162.87893676757812,158.0,2021-01-22 05:24:55.278000+00:00,test
658,162.65179443359375,158.0,2021-01-22 05:25:55.278000+00:00,test
659,162.4344024658203,158.0,2021-01-22 05:26:55.278000+00:00,test
660,162.23988342285156,158.0,2021-01-22 05:27:55.278000+00:00,test
661,162.0494842529297,158.0,2021-01-22 05:28:55.278000+00:00,test
662,161.86524963378906,158.0,2021-01-22 05:29:55.278000+00:00,test
663,161.68829345703125,158.0,2021-01-22 05:30:55.278000+00:00,test
664,161.51876831054688,158.0,2021-01-22 05:31:55.278000+00:00,test
665,161.3564453125,158.0,2021-01-22 05:32:55.278000+00:00,test
666,161.2012481689453,158.0,2021-01-22 05:33:55.278000+00:00,test
667,161.05340576171875,158.0,2021-01-22 05:34:55.278000+00:00,test
668,160.9142608642578,157.0,2021-01-22 05:35:55.278000+00:00,test
669,160.7828826904297,154.0,2021-01-22 05:36:55.278000+00:00,test
670,160.65809631347656,154.0,2021-01-22 05:37:55.278000+00:00,test
671,160.53871154785156,154.0,2021-01-22 05:38:55.278000+00:00,test
672,160.42376708984375,154.0,2021-01-22 05:39:55.278000+00:00,test
673,160.3126678466797,154.0,2021-01-22 05:40:55.278000+00:00,test
674,160.20513916015625,154.0,2021-01-22 05:41:55.278000+00:00,test
675,160.08059692382812,154.0,2021-01-22 05:42:55.278000+00:00,test
676,159.8896026611328,154.0,2021-01-22 05:43:55.278000+00:00,test
677,159.70594787597656,154.0,2021-01-22 05:44:55.278000+00:00,test
678,159.52882385253906,154.0,2021-01-22 05:45:55.278000+00:00,test
679,159.3576202392578,154.0,2021-01-22 05:46:55.278000+00:00,test
680,159.19183349609375,154.0,2021-01-22 05:47:55.278000+00:00,test
681,159.031005859375,154.0,2021-01-22 05:48:55.278000+00:00,test
682,158.8748016357422,154.0,2021-01-22 05:49:55.278000+00:00,test
683,158.7229461669922,154.0,2021-01-22 05:50:55.278000+00:00,test
684,158.5751953125,156.0,2021-01-22 05:51:55.278000+00:00,test
685,158.43136596679688,156.0,2021-01-22 05:52:55.278000+00:00,test
686,158.2913055419922,156.0,2021-01-22 05:53:55.278000+00:00,test
687,158.15487670898438,150.0,2021-01-22 05:54:55.278000+00:00,test
688,158.02197265625,150.0,2021-01-22 05:55:55.278000+00:00,test
689,157.89251708984375,150.0,2021-01-22 05:56:55.278000+00:00,test
690,157.76649475097656,150.0,2021-01-22 05:57:55.278000+00:00,test
691,157.68341064453125,150.0,2021-01-22 05:58:55.278000+00:00,test
692,157.60301208496094,150.0,2021-01-22 05:59:55.278000+00:00,test
693,157.5116729736328,150.0,2021-01-22 06:00:55.278000+00:00,test
694,157.28590393066406,150.0,2021-01-22 06:01:55.278000+00:00,test
695,157.0658416748047,150.0,2021-01-22 06:02:55.278000+00:00,test
696,156.8511505126953,150.0,2021-01-22 06:03:55.278000+00:00,test
697,156.64144897460938,152.0,2021-01-22 06:04:55.278000+00:00,test
698,156.43650817871094,152.0,2021-01-22 06:05:55.278000+00:00,test
699,156.2360382080078,152.0,2021-01-22 06:06:55.278000+00:00,test
700,156.03982543945312,152.0,2021-01-22 06:07:55.278000+00:00,test
701,155.84767150878906,152.0,2021-01-22 06:08:55.278000+00:00,test
702,155.65939331054688,150.0,2021-01-22 06:09:55.278000+00:00,test
703,155.47483825683594,148.0,2021-01-22 06:10:55.278000+00:00,test
704,155.33642578125,148.0,2021-01-22 06:11:55.278000+00:00,test
705,155.2003936767578,148.0,2021-01-22 06:12:55.278000+00:00,test
706,155.0666961669922,148.0,2021-01-22 06:13:55.278000+00:00,test
707,154.93528747558594,148.0,2021-01-22 06:14:55.278000+00:00,test
708,154.80776977539062,148.0,2021-01-22 06:15:55.278000+00:00,test
709,154.64547729492188,148.0,2021-01-22 06:16:55.278000+00:00,test
710,154.44140625,148.0,2021-01-22 06:17:55.278000+00:00,test
711,154.2421417236328,148.0,2021-01-22 06:18:55.278000+00:00,test
712,154.04759216308594,148.0,2021-01-22 06:19:55.278000+00:00,test
713,153.85763549804688,148.0,2021-01-22 06:20:55.278000+00:00,test
714,153.67221069335938,148.0,2021-01-22 06:21:55.278000+00:00,test
715,153.4912567138672,144.0,2021-01-22 06:22:55.278000+00:00,test
716,153.31471252441406,144.0,2021-01-22 06:23:55.278000+00:00,test
717,153.14256286621094,144.0,2021-01-22 06:24:55.278000+00:00,test
718,152.97476196289062,144.0,2021-01-22 06:25:55.278000+00:00,test
719,152.81130981445312,144.0,2021-01-22 06:26:55.278000+00:00,test
720,152.6521759033203,144.0,2021-01-22 06:27:55.278000+00:00,test
721,152.4974365234375,144.0,2021-01-22 06:28:55.278000+00:00,test
722,152.25331115722656,144.0,2021-01-22 06:29:55.278000+00:00,test
