,prediction,real,time,split
0,156.78208923339844,156.0,2021-01-21 18:30:55.278000+00:00,train
1,156.67601013183594,156.0,2021-01-21 18:31:55.278000+00:00,train
2,156.58262634277344,156.0,2021-01-21 18:32:55.278000+00:00,train
3,156.4913787841797,156.0,2021-01-21 18:33:55.278000+00:00,train
4,156.40211486816406,156.0,2021-01-21 18:34:55.278000+00:00,train
5,156.31480407714844,156.0,2021-01-21 18:35:55.278000+00:00,train
6,156.22018432617188,156.0,2021-01-21 18:36:55.278000+00:00,train
7,156.1243438720703,156.0,2021-01-21 18:37:55.278000+00:00,train
8,156.03103637695312,156.0,2021-01-21 18:38:55.278000+00:00,train
9,155.94021606445312,156.0,2021-01-21 18:39:55.278000+00:00,train
10,155.8517303466797,158.0,2021-01-21 18:40:55.278000+00:00,train
11,155.7655487060547,158.0,2021-01-21 18:41:55.278000+00:00,train
12,155.6815948486328,158.0,2021-01-21 18:42:55.278000+00:00,train
13,155.59982299804688,158.0,2021-01-21 18:43:55.278000+00:00,train
14,155.5202178955078,158.0,2021-01-21 18:44:55.278000+00:00,train
15,155.4427032470703,158.0,2021-01-21 18:45:55.278000+00:00,train
16,155.3672332763672,158.0,2021-01-21 18:46:55.278000+00:00,train
17,155.2937469482422,158.0,2021-01-21 18:47:55.278000+00:00,train
18,155.22222900390625,158.0,2021-01-21 18:48:55.278000+00:00,train
19,155.15261840820312,158.0,2021-01-21 18:49:55.278000+00:00,train
20,155.13328552246094,158.0,2021-01-21 18:50:55.278000+00:00,train
21,155.12417602539062,158.0,2021-01-21 18:51:55.278000+00:00,train
22,155.1168212890625,156.0,2021-01-21 18:52:55.278000+00:00,train
23,155.1112060546875,154.0,2021-01-21 18:53:55.278000+00:00,train
24,155.10733032226562,153.0,2021-01-21 18:54:55.278000+00:00,train
25,155.1052703857422,152.0,2021-01-21 18:55:55.278000+00:00,train
26,155.10504150390625,152.0,2021-01-21 18:56:55.278000+00:00,train
27,155.106689453125,153.0,2021-01-21 18:57:55.278000+00:00,train
28,155.11024475097656,154.0,2021-01-21 18:58:55.278000+00:00,train
29,155.1157684326172,154.0,2021-01-21 18:59:55.278000+00:00,train
30,155.123291015625,154.0,2021-01-21 19:00:55.278000+00:00,train
31,155.13287353515625,154.0,2021-01-21 19:01:55.278000+00:00,train
32,155.10540771484375,154.0,2021-01-21 19:02:55.278000+00:00,train
33,155.01979064941406,154.0,2021-01-21 19:03:55.278000+00:00,train
34,154.9012908935547,154.0,2021-01-21 19:04:55.278000+00:00,train
35,154.74710083007812,154.0,2021-01-21 19:05:55.278000+00:00,train
36,154.6442108154297,154.0,2021-01-21 19:06:55.278000+00:00,train
37,154.59042358398438,154.0,2021-01-21 19:07:55.278000+00:00,train
38,154.57986450195312,154.0,2021-01-21 19:08:55.278000+00:00,train
39,154.5770721435547,154.0,2021-01-21 19:09:55.278000+00:00,train
40,154.5313262939453,154.0,2021-01-21 19:10:55.278000+00:00,train
41,154.4534149169922,154.0,2021-01-21 19:11:55.278000+00:00,train
42,154.3771209716797,154.0,2021-01-21 19:12:55.278000+00:00,train
43,154.30430603027344,154.0,2021-01-21 19:13:55.278000+00:00,train
44,154.23504638671875,154.0,2021-01-21 19:14:55.278000+00:00,train
45,154.16949462890625,154.0,2021-01-21 19:15:55.278000+00:00,train
46,154.10780334472656,154.0,2021-01-21 19:16:55.278000+00:00,train
47,154.05010986328125,154.0,2021-01-21 19:17:55.278000+00:00,train
48,153.9966583251953,154.0,2021-01-21 19:18:55.278000+00:00,train
49,153.94769287109375,154.0,2021-01-21 19:19:55.278000+00:00,train
50,153.9035186767578,154.0,2021-01-21 19:20:55.278000+00:00,train
51,153.86451721191406,154.0,2021-01-21 19:21:55.278000+00:00,train
52,153.83103942871094,156.0,2021-01-21 19:22:55.278000+00:00,train
53,153.8035888671875,156.0,2021-01-21 19:23:55.278000+00:00,train
54,153.7826385498047,156.0,2021-01-21 19:24:55.278000+00:00,train
55,153.7687225341797,156.0,2021-01-21 19:25:55.278000+00:00,train
56,153.76490783691406,156.0,2021-01-21 19:26:55.278000+00:00,train
57,153.77536010742188,151.0,2021-01-21 19:27:55.278000+00:00,train
58,153.7943115234375,150.0,2021-01-21 19:28:55.278000+00:00,train
59,153.8221435546875,150.0,2021-01-21 19:29:55.278000+00:00,train
60,153.85911560058594,150.0,2021-01-21 19:30:55.278000+00:00,train
61,153.9043426513672,150.0,2021-01-21 19:31:55.278000+00:00,train
62,154.0170440673828,150.0,2021-01-21 19:32:55.278000+00:00,train
63,154.13526916503906,150.0,2021-01-21 19:33:55.278000+00:00,train
64,154.2567901611328,150.0,2021-01-21 19:34:55.278000+00:00,train
65,154.37940979003906,150.0,2021-01-21 19:35:55.278000+00:00,train
66,154.50108337402344,150.0,2021-01-21 19:36:55.278000+00:00,train
67,154.4740753173828,152.0,2021-01-21 19:37:55.278000+00:00,train
68,154.42333984375,152.0,2021-01-21 19:38:55.278000+00:00,train
69,154.38092041015625,152.0,2021-01-21 19:39:55.278000+00:00,train
70,154.34689331054688,152.0,2021-01-21 19:40:55.278000+00:00,train
71,154.32107543945312,152.0,2021-01-21 19:41:55.278000+00:00,train
72,154.30300903320312,152.0,2021-01-21 19:42:55.278000+00:00,train
73,154.29202270507812,152.0,2021-01-21 19:43:55.278000+00:00,train
74,154.287353515625,152.0,2021-01-21 19:44:55.278000+00:00,train
75,154.2880096435547,152.0,2021-01-21 19:45:55.278000+00:00,train
76,154.2930145263672,152.0,2021-01-21 19:46:55.278000+00:00,train
77,154.34434509277344,152.0,2021-01-21 19:47:55.278000+00:00,train
78,154.39308166503906,152.0,2021-01-21 19:48:55.278000+00:00,train
79,154.4462890625,152.0,2021-01-21 19:49:55.278000+00:00,train
80,154.50262451171875,152.0,2021-01-21 19:50:55.278000+00:00,train
81,154.55731201171875,153.0,2021-01-21 19:51:55.278000+00:00,train
82,154.61032104492188,154.0,2021-01-21 19:52:55.278000+00:00,train
83,154.6813201904297,154.0,2021-01-21 19:53:55.278000+00:00,train
84,154.74465942382812,154.0,2021-01-21 19:54:55.278000+00:00,train
85,154.80172729492188,154.0,2021-01-21 19:55:55.278000+00:00,train
86,154.85382080078125,154.0,2021-01-21 19:56:55.278000+00:00,train
87,154.902099609375,156.0,2021-01-21 19:57:55.278000+00:00,train
88,154.94744873046875,156.0,2021-01-21 19:58:55.278000+00:00,train
89,154.9905242919922,156.0,2021-01-21 19:59:55.278000+00:00,train
90,155.0317840576172,156.0,2021-01-21 20:00:55.278000+00:00,train
91,155.07986450195312,156.0,2021-01-21 20:01:55.278000+00:00,train
92,155.13449096679688,156.0,2021-01-21 20:02:55.278000+00:00,train
93,155.18768310546875,156.0,2021-01-21 20:03:55.278000+00:00,train
94,155.23968505859375,156.0,2021-01-21 20:04:55.278000+00:00,train
95,155.29051208496094,156.0,2021-01-21 20:05:55.278000+00:00,train
96,155.34033203125,158.0,2021-01-21 20:06:55.278000+00:00,train
97,155.4052276611328,158.0,2021-01-21 20:07:55.278000+00:00,train
98,155.46923828125,158.0,2021-01-21 20:08:55.278000+00:00,train
99,155.5225830078125,158.0,2021-01-21 20:09:55.278000+00:00,train
100,155.56382751464844,158.0,2021-01-21 20:10:55.278000+00:00,train
101,155.60302734375,158.0,2021-01-21 20:11:55.278000+00:00,train
102,155.64012145996094,158.0,2021-01-21 20:12:55.278000+00:00,train
103,155.67506408691406,158.0,2021-01-21 20:13:55.278000+00:00,train
104,155.70779418945312,159.0,2021-01-21 20:14:55.278000+00:00,train
105,155.73825073242188,160.0,2021-01-21 20:15:55.278000+00:00,train
106,155.78831481933594,160.0,2021-01-21 20:16:55.278000+00:00,train
107,155.83670043945312,158.0,2021-01-21 20:17:55.278000+00:00,train
108,155.88351440429688,156.0,2021-01-21 20:18:55.278000+00:00,train
109,155.92881774902344,156.0,2021-01-21 20:19:55.278000+00:00,train
110,155.97259521484375,156.0,2021-01-21 20:20:55.278000+00:00,train
111,156.0148468017578,156.0,2021-01-21 20:21:55.278000+00:00,train
112,156.05548095703125,156.0,2021-01-21 20:22:55.278000+00:00,train
113,156.09449768066406,156.0,2021-01-21 20:23:55.278000+00:00,train
114,156.1482696533203,156.0,2021-01-21 20:24:55.278000+00:00,train
115,156.2201690673828,156.0,2021-01-21 20:25:55.278000+00:00,train
116,156.354736328125,156.0,2021-01-21 20:26:55.278000+00:00,train
117,156.45489501953125,156.0,2021-01-21 20:27:55.278000+00:00,train
118,156.5464630126953,156.0,2021-01-21 20:28:55.278000+00:00,train
119,156.6388702392578,156.0,2021-01-21 20:29:55.278000+00:00,train
120,156.71444702148438,157.0,2021-01-21 20:30:55.278000+00:00,train
121,156.790771484375,158.0,2021-01-21 20:31:55.278000+00:00,train
122,156.8679962158203,158.0,2021-01-21 20:32:55.278000+00:00,train
123,156.94622802734375,158.0,2021-01-21 20:33:55.278000+00:00,train
124,157.02557373046875,158.0,2021-01-21 20:34:55.278000+00:00,train
125,157.1063995361328,158.0,2021-01-21 20:35:55.278000+00:00,train
126,157.18899536132812,158.0,2021-01-21 20:36:55.278000+00:00,train
127,157.2736358642578,158.0,2021-01-21 20:37:55.278000+00:00,train
128,157.360595703125,158.0,2021-01-21 20:38:55.278000+00:00,train
129,157.45021057128906,160.0,2021-01-21 20:39:55.278000+00:00,train
130,157.557861328125,160.0,2021-01-21 20:40:55.278000+00:00,train
131,157.68829345703125,160.0,2021-01-21 20:41:55.278000+00:00,train
132,157.82362365722656,160.0,2021-01-21 20:42:55.278000+00:00,train
133,157.96458435058594,160.0,2021-01-21 20:43:55.278000+00:00,train
134,158.1110382080078,160.0,2021-01-21 20:44:55.278000+00:00,train
135,158.26318359375,160.0,2021-01-21 20:45:55.278000+00:00,train
136,158.42149353027344,160.0,2021-01-21 20:46:55.278000+00:00,train
137,158.58523559570312,161.0,2021-01-21 20:47:55.278000+00:00,train
138,158.75254821777344,162.0,2021-01-21 20:48:55.278000+00:00,train
139,158.9802703857422,162.0,2021-01-21 20:49:55.278000+00:00,train
140,159.17628479003906,162.0,2021-01-21 20:50:55.278000+00:00,train
141,159.3768768310547,162.0,2021-01-21 20:51:55.278000+00:00,train
142,159.58103942871094,162.0,2021-01-21 20:52:55.278000+00:00,train
143,159.7849884033203,162.0,2021-01-21 20:53:55.278000+00:00,train
144,159.9865264892578,162.0,2021-01-21 20:54:55.278000+00:00,train
145,160.18289184570312,162.0,2021-01-21 20:55:55.278000+00:00,train
146,160.37071228027344,164.0,2021-01-21 20:56:55.278000+00:00,train
147,160.58499145507812,164.0,2021-01-21 20:57:55.278000+00:00,train
148,160.82554626464844,164.0,2021-01-21 20:58:55.278000+00:00,train
149,161.04039001464844,164.0,2021-01-21 20:59:55.278000+00:00,train
150,161.22216796875,164.0,2021-01-21 21:00:55.278000+00:00,train
151,161.3623046875,164.0,2021-01-21 21:01:55.278000+00:00,train
152,161.49423217773438,164.0,2021-01-21 21:02:55.278000+00:00,train
153,161.60414123535156,164.0,2021-01-21 21:03:55.278000+00:00,train
154,161.6789093017578,165.0,2021-01-21 21:04:55.278000+00:00,train
155,161.71600341796875,166.0,2021-01-21 21:05:55.278000+00:00,train
156,161.81468200683594,166.0,2021-01-21 21:06:55.278000+00:00,train
157,161.894775390625,166.0,2021-01-21 21:07:55.278000+00:00,train
158,161.9588623046875,166.0,2021-01-21 21:08:55.278000+00:00,train
159,162.00515747070312,166.0,2021-01-21 21:09:55.278000+00:00,train
160,162.0965118408203,166.0,2021-01-21 21:10:55.278000+00:00,train
161,162.13507080078125,166.0,2021-01-21 21:11:55.278000+00:00,train
162,162.17637634277344,166.0,2021-01-21 21:12:55.278000+00:00,train
163,162.22189331054688,166.0,2021-01-21 21:13:55.278000+00:00,train
164,162.3076171875,166.0,2021-01-21 21:14:55.278000+00:00,train
165,162.4326629638672,166.0,2021-01-21 21:15:55.278000+00:00,train
166,162.55703735351562,165.0,2021-01-21 21:16:55.278000+00:00,train
167,162.68130493164062,163.0,2021-01-21 21:17:55.278000+00:00,train
168,162.8057098388672,162.0,2021-01-21 21:18:55.278000+00:00,train
169,162.93019104003906,162.0,2021-01-21 21:19:55.278000+00:00,train
170,163.05471801757812,162.0,2021-01-21 21:20:55.278000+00:00,train
171,163.17918395996094,162.0,2021-01-21 21:21:55.278000+00:00,train
172,163.30332946777344,162.0,2021-01-21 21:22:55.278000+00:00,train
173,163.42694091796875,164.0,2021-01-21 21:23:55.278000+00:00,train
174,163.5497283935547,164.0,2021-01-21 21:24:55.278000+00:00,train
175,163.67138671875,164.0,2021-01-21 21:25:55.278000+00:00,train
176,163.7643585205078,164.0,2021-01-21 21:26:55.278000+00:00,train
177,163.81004333496094,164.0,2021-01-21 21:27:55.278000+00:00,train
178,163.83731079101562,164.0,2021-01-21 21:28:55.278000+00:00,train
179,163.86607360839844,164.0,2021-01-21 21:29:55.278000+00:00,train
180,163.89561462402344,164.0,2021-01-21 21:30:55.278000+00:00,train
181,163.92543029785156,164.0,2021-01-21 21:31:55.278000+00:00,train
182,163.95274353027344,164.0,2021-01-21 21:32:55.278000+00:00,train
183,164.0207061767578,164.0,2021-01-21 21:33:55.278000+00:00,train
184,164.0863494873047,165.0,2021-01-21 21:34:55.278000+00:00,train
185,164.1499481201172,166.0,2021-01-21 21:35:55.278000+00:00,train
186,164.21180725097656,166.0,2021-01-21 21:36:55.278000+00:00,train
187,164.26055908203125,166.0,2021-01-21 21:37:55.278000+00:00,train
188,164.29766845703125,166.0,2021-01-21 21:38:55.278000+00:00,train
189,164.33154296875,166.0,2021-01-21 21:39:55.278000+00:00,train
190,164.36196899414062,166.0,2021-01-21 21:40:55.278000+00:00,train
191,164.3887939453125,166.0,2021-01-21 21:41:55.278000+00:00,train
192,164.4119873046875,166.0,2021-01-21 21:42:55.278000+00:00,train
193,164.43154907226562,166.0,2021-01-21 21:43:55.278000+00:00,train
194,164.4692840576172,166.0,2021-01-21 21:44:55.278000+00:00,train
195,164.52593994140625,167.0,2021-01-21 21:45:55.278000+00:00,train
196,164.57696533203125,168.0,2021-01-21 21:46:55.278000+00:00,train
197,164.64366149902344,168.0,2021-01-21 21:47:55.278000+00:00,train
198,164.70684814453125,168.0,2021-01-21 21:48:55.278000+00:00,train
199,164.76683044433594,168.0,2021-01-21 21:49:55.278000+00:00,train
200,164.82391357421875,168.0,2021-01-21 21:50:55.278000+00:00,train
201,164.87820434570312,168.0,2021-01-21 21:51:55.278000+00:00,train
202,164.92987060546875,168.0,2021-01-21 21:52:55.278000+00:00,train
203,164.97938537597656,168.0,2021-01-21 21:53:55.278000+00:00,train
204,165.02642822265625,168.0,2021-01-21 21:54:55.278000+00:00,train
205,165.09347534179688,168.0,2021-01-21 21:55:55.278000+00:00,train
206,165.1810302734375,169.0,2021-01-21 21:56:55.278000+00:00,train
207,165.26385498046875,170.0,2021-01-21 21:57:55.278000+00:00,train
208,165.34239196777344,170.0,2021-01-21 21:58:55.278000+00:00,train
209,165.41693115234375,170.0,2021-01-21 21:59:55.278000+00:00,train
210,165.48756408691406,170.0,2021-01-21 22:00:55.278000+00:00,train
211,165.56483459472656,170.0,2021-01-21 22:01:55.278000+00:00,train
212,165.64744567871094,170.0,2021-01-21 22:02:55.278000+00:00,train
213,165.7272491455078,170.0,2021-01-21 22:03:55.278000+00:00,train
214,165.8042449951172,170.0,2021-01-21 22:04:55.278000+00:00,train
215,165.8792724609375,170.0,2021-01-21 22:05:55.278000+00:00,train
216,165.97299194335938,170.0,2021-01-21 22:06:55.278000+00:00,train
217,166.10040283203125,171.0,2021-01-21 22:07:55.278000+00:00,train
218,166.22454833984375,172.0,2021-01-21 22:08:55.278000+00:00,train
219,166.34718322753906,172.0,2021-01-21 22:09:55.278000+00:00,train
220,166.48507690429688,170.0,2021-01-21 22:10:55.278000+00:00,train
221,166.5902862548828,168.0,2021-01-21 22:11:55.278000+00:00,train
222,166.69639587402344,166.0,2021-01-21 22:12:55.278000+00:00,train
223,166.80152893066406,166.0,2021-01-21 22:13:55.278000+00:00,train
224,166.9048309326172,166.0,2021-01-21 22:14:55.278000+00:00,train
225,167.006103515625,166.0,2021-01-21 22:15:55.278000+00:00,train
226,167.1119384765625,166.0,2021-01-21 22:16:55.278000+00:00,train
227,167.2384033203125,167.0,2021-01-21 22:17:55.278000+00:00,train
228,167.3861846923828,168.0,2021-01-21 22:18:55.278000+00:00,train
229,167.5309295654297,168.0,2021-01-21 22:19:55.278000+00:00,train
230,167.6286163330078,168.0,2021-01-21 22:20:55.278000+00:00,train
231,167.68821716308594,168.0,2021-01-21 22:21:55.278000+00:00,train
232,167.71780395507812,168.0,2021-01-21 22:22:55.278000+00:00,train
233,167.74742126464844,168.0,2021-01-21 22:23:55.278000+00:00,train
234,167.7777862548828,168.0,2021-01-21 22:24:55.278000+00:00,train
235,167.8071746826172,168.0,2021-01-21 22:25:55.278000+00:00,train
236,167.83651733398438,168.0,2021-01-21 22:26:55.278000+00:00,train
237,167.8796844482422,168.0,2021-01-21 22:27:55.278000+00:00,train
238,167.93092346191406,168.0,2021-01-21 22:28:55.278000+00:00,train
239,167.98199462890625,170.0,2021-01-21 22:29:55.278000+00:00,train
240,168.0333709716797,170.0,2021-01-21 22:30:55.278000+00:00,train
241,168.08547973632812,170.0,2021-01-21 22:31:55.278000+00:00,train
242,168.138671875,170.0,2021-01-21 22:32:55.278000+00:00,train
243,168.1932830810547,170.0,2021-01-21 22:33:55.278000+00:00,train
244,168.24951171875,170.0,2021-01-21 22:34:55.278000+00:00,train
245,168.30783081054688,170.0,2021-01-21 22:35:55.278000+00:00,train
246,168.36868286132812,170.0,2021-01-21 22:36:55.278000+00:00,train
247,168.43109130859375,170.0,2021-01-21 22:37:55.278000+00:00,train
248,168.4949188232422,170.0,2021-01-21 22:38:55.278000+00:00,train
249,168.6067657470703,170.0,2021-01-21 22:39:55.278000+00:00,train
250,168.72994995117188,171.0,2021-01-21 22:40:55.278000+00:00,train
251,168.86181640625,172.0,2021-01-21 22:41:55.278000+00:00,train
252,168.99928283691406,172.0,2021-01-21 22:42:55.278000+00:00,train
253,169.14227294921875,172.0,2021-01-21 22:43:55.278000+00:00,train
254,169.28782653808594,172.0,2021-01-21 22:44:55.278000+00:00,train
255,169.42919921875,172.0,2021-01-21 22:45:55.278000+00:00,train
256,169.5569610595703,172.0,2021-01-21 22:46:55.278000+00:00,train
257,169.65968322753906,172.0,2021-01-21 22:47:55.278000+00:00,train
258,169.7329559326172,172.0,2021-01-21 22:48:55.278000+00:00,train
259,169.80227661132812,172.0,2021-01-21 22:49:55.278000+00:00,train
260,169.87876892089844,172.0,2021-01-21 22:50:55.278000+00:00,train
261,169.96380615234375,172.0,2021-01-21 22:51:55.278000+00:00,train
262,170.03163146972656,174.0,2021-01-21 22:52:55.278000+00:00,train
263,170.08509826660156,174.0,2021-01-21 22:53:55.278000+00:00,train
264,170.12680053710938,174.0,2021-01-21 22:54:55.278000+00:00,train
265,170.15928649902344,174.0,2021-01-21 22:55:55.278000+00:00,train
266,170.1856231689453,174.0,2021-01-21 22:56:55.278000+00:00,train
267,170.22360229492188,174.0,2021-01-21 22:57:55.278000+00:00,train
268,170.2718505859375,174.0,2021-01-21 22:58:55.278000+00:00,train
269,170.31898498535156,174.0,2021-01-21 22:59:55.278000+00:00,train
270,170.36495971679688,174.0,2021-01-21 23:00:55.278000+00:00,train
271,170.4098663330078,174.0,2021-01-21 23:01:55.278000+00:00,train
272,170.50233459472656,174.0,2021-01-21 23:02:55.278000+00:00,train
273,170.59214782714844,172.0,2021-01-21 23:03:55.278000+00:00,train
274,170.6793975830078,170.0,2021-01-21 23:04:55.278000+00:00,train
275,170.76416015625,170.0,2021-01-21 23:05:55.278000+00:00,train
276,170.85916137695312,170.0,2021-01-21 23:06:55.278000+00:00,train
277,170.95166015625,170.0,2021-01-21 23:07:55.278000+00:00,train
278,171.04185485839844,170.0,2021-01-21 23:08:55.278000+00:00,train
279,171.13014221191406,170.0,2021-01-21 23:09:55.278000+00:00,train
280,171.21575927734375,170.0,2021-01-21 23:10:55.278000+00:00,train
281,171.2996826171875,170.0,2021-01-21 23:11:55.278000+00:00,train
282,171.3816375732422,170.0,2021-01-21 23:12:55.278000+00:00,train
283,171.42225646972656,170.0,2021-01-21 23:13:55.278000+00:00,train
284,171.43505859375,170.0,2021-01-21 23:14:55.278000+00:00,train
285,171.44720458984375,170.0,2021-01-21 23:15:55.278000+00:00,train
286,171.45921325683594,171.0,2021-01-21 23:16:55.278000+00:00,train
287,171.47100830078125,172.0,2021-01-21 23:17:55.278000+00:00,train
288,171.48265075683594,172.0,2021-01-21 23:18:55.278000+00:00,train
289,171.4940948486328,172.0,2021-01-21 23:19:55.278000+00:00,train
290,171.50538635253906,172.0,2021-01-21 23:20:55.278000+00:00,train
291,171.5164794921875,172.0,2021-01-21 23:21:55.278000+00:00,train
292,171.52740478515625,172.0,2021-01-21 23:22:55.278000+00:00,train
293,171.5381317138672,172.0,2021-01-21 23:23:55.278000+00:00,train
294,171.5487060546875,172.0,2021-01-21 23:24:55.278000+00:00,train
295,171.55909729003906,172.0,2021-01-21 23:25:55.278000+00:00,train
296,171.58154296875,172.0,2021-01-21 23:26:55.278000+00:00,train
297,171.61041259765625,173.0,2021-01-21 23:27:55.278000+00:00,train
298,171.6301727294922,174.0,2021-01-21 23:28:55.278000+00:00,train
299,171.64794921875,174.0,2021-01-21 23:29:55.278000+00:00,train
300,171.66368103027344,174.0,2021-01-21 23:30:55.278000+00:00,train
301,171.6771697998047,174.0,2021-01-21 23:31:55.278000+00:00,train
302,171.6882781982422,174.0,2021-01-21 23:32:55.278000+00:00,train
303,171.71388244628906,174.0,2021-01-21 23:33:55.278000+00:00,train
304,171.73825073242188,174.0,2021-01-21 23:34:55.278000+00:00,train
305,171.76136779785156,174.0,2021-01-21 23:35:55.278000+00:00,train
306,171.78317260742188,174.0,2021-01-21 23:36:55.278000+00:00,train
307,171.81964111328125,174.0,2021-01-21 23:37:55.278000+00:00,train
308,171.8729705810547,174.0,2021-01-21 23:38:55.278000+00:00,train
309,171.9242706298828,174.0,2021-01-21 23:39:55.278000+00:00,train
310,171.9735565185547,174.0,2021-01-21 23:40:55.278000+00:00,train
311,172.02076721191406,174.0,2021-01-21 23:41:55.278000+00:00,train
312,172.06588745117188,176.0,2021-01-21 23:42:55.278000+00:00,train
313,172.1088409423828,176.0,2021-01-21 23:43:55.278000+00:00,train
314,172.1569061279297,176.0,2021-01-21 23:44:55.278000+00:00,train
315,172.20799255371094,176.0,2021-01-21 23:45:55.278000+00:00,train
316,172.25772094726562,176.0,2021-01-21 23:46:55.278000+00:00,train
317,172.30615234375,176.0,2021-01-21 23:47:55.278000+00:00,train
318,172.35325622558594,176.0,2021-01-21 23:48:55.278000+00:00,train
319,172.39907836914062,176.0,2021-01-21 23:49:55.278000+00:00,train
320,172.44357299804688,176.0,2021-01-21 23:50:55.278000+00:00,train
321,172.48675537109375,176.0,2021-01-21 23:51:55.278000+00:00,train
322,172.56838989257812,176.0,2021-01-21 23:52:55.278000+00:00,train
323,172.647705078125,174.0,2021-01-21 23:53:55.278000+00:00,train
324,172.7248077392578,172.0,2021-01-21 23:54:55.278000+00:00,train
325,172.80299377441406,172.0,2021-01-21 23:55:55.278000+00:00,train
326,172.87991333007812,172.0,2021-01-21 23:56:55.278000+00:00,train
327,172.95506286621094,172.0,2021-01-21 23:57:55.278000+00:00,train
328,173.0285186767578,172.0,2021-01-21 23:58:55.278000+00:00,train
329,173.10035705566406,172.0,2021-01-21 23:59:55.278000+00:00,train
330,173.17063903808594,172.0,2021-01-22 00:00:55.278000+00:00,train
331,173.2394256591797,172.0,2021-01-22 00:01:55.278000+00:00,train
332,173.3067626953125,172.0,2021-01-22 00:02:55.278000+00:00,train
333,173.33975219726562,172.0,2021-01-22 00:03:55.278000+00:00,train
334,173.34857177734375,172.0,2021-01-22 00:04:55.278000+00:00,train
335,173.3572235107422,172.0,2021-01-22 00:05:55.278000+00:00,train
336,173.3644561767578,172.0,2021-01-22 00:06:55.278000+00:00,train
337,173.36814880371094,172.0,2021-01-22 00:07:55.278000+00:00,train
338,173.37184143066406,172.0,2021-01-22 00:08:55.278000+00:00,train
339,173.3756103515625,173.0,2021-01-22 00:09:55.278000+00:00,train
340,173.37925720214844,174.0,2021-01-22 00:10:55.278000+00:00,train
341,173.38296508789062,174.0,2021-01-22 00:11:55.278000+00:00,train
342,173.3866424560547,174.0,2021-01-22 00:12:55.278000+00:00,train
343,173.39031982421875,174.0,2021-01-22 00:13:55.278000+00:00,train
344,173.3939971923828,174.0,2021-01-22 00:14:55.278000+00:00,train
345,173.39764404296875,174.0,2021-01-22 00:15:55.278000+00:00,train
346,173.4012908935547,174.0,2021-01-22 00:16:55.278000+00:00,train
347,173.3993682861328,174.0,2021-01-22 00:17:55.278000+00:00,train
348,173.3896484375,174.0,2021-01-22 00:18:55.278000+00:00,train
349,173.38995361328125,174.0,2021-01-22 00:19:55.278000+00:00,train
350,173.4157257080078,174.0,2021-01-22 00:20:55.278000+00:00,train
351,173.4456329345703,174.0,2021-01-22 00:21:55.278000+00:00,train
352,173.47021484375,174.0,2021-01-22 00:22:55.278000+00:00,train
353,173.493408203125,175.0,2021-01-22 00:23:55.278000+00:00,train
354,173.51512145996094,176.0,2021-01-22 00:24:55.278000+00:00,train
355,173.53526306152344,176.0,2021-01-22 00:25:55.278000+00:00,train
356,173.55369567871094,176.0,2021-01-22 00:26:55.278000+00:00,train
357,173.57569885253906,176.0,2021-01-22 00:27:55.278000+00:00,train
358,173.5997772216797,176.0,2021-01-22 00:28:55.278000+00:00,train
359,173.6231689453125,176.0,2021-01-22 00:29:55.278000+00:00,train
360,173.64578247070312,176.0,2021-01-22 00:30:55.278000+00:00,train
361,173.66769409179688,176.0,2021-01-22 00:31:55.278000+00:00,train
362,173.6887969970703,176.0,2021-01-22 00:32:55.278000+00:00,train
363,173.7224578857422,176.0,2021-01-22 00:33:55.278000+00:00,train
364,173.77084350585938,176.0,2021-01-22 00:34:55.278000+00:00,train
365,173.81796264648438,176.0,2021-01-22 00:35:55.278000+00:00,train
366,173.86375427246094,176.0,2021-01-22 00:36:55.278000+00:00,train
367,173.90826416015625,176.0,2021-01-22 00:37:55.278000+00:00,train
368,173.95138549804688,178.0,2021-01-22 00:38:55.278000+00:00,train
369,173.99668884277344,178.0,2021-01-22 00:39:55.278000+00:00,train
370,174.04119873046875,178.0,2021-01-22 00:40:55.278000+00:00,train
371,174.08497619628906,172.0,2021-01-22 00:41:55.278000+00:00,train
372,174.1280059814453,172.0,2021-01-22 00:42:55.278000+00:00,train
373,174.17031860351562,172.0,2021-01-22 00:43:55.278000+00:00,train
374,174.21192932128906,172.0,2021-01-22 00:44:55.278000+00:00,train
375,174.2528533935547,172.0,2021-01-22 00:45:55.278000+00:00,train
376,174.29306030273438,172.0,2021-01-22 00:46:55.278000+00:00,train
377,174.3325958251953,172.0,2021-01-22 00:47:55.278000+00:00,train
378,174.4059295654297,172.0,2021-01-22 00:48:55.278000+00:00,train
379,174.47769165039062,172.0,2021-01-22 00:49:55.278000+00:00,train
380,174.5465545654297,172.0,2021-01-22 00:50:55.278000+00:00,train
381,174.53982543945312,174.0,2021-01-22 00:51:55.278000+00:00,train
382,174.53311157226562,174.0,2021-01-22 00:52:55.278000+00:00,train
383,172.1785888671875,174.0,2021-01-22 00:53:55.278000+00:00,train
384,172.1776580810547,174.0,2021-01-22 00:54:55.278000+00:00,train
385,172.12770080566406,174.0,2021-01-22 00:55:55.278000+00:00,train
386,172.1268310546875,174.0,2021-01-22 00:56:55.278000+00:00,train
387,172.12596130371094,174.0,2021-01-22 00:57:55.278000+00:00,train
388,172.094482421875,174.0,2021-01-22 00:58:55.278000+00:00,train
389,172.09364318847656,174.0,2021-01-22 00:59:55.278000+00:00,train
390,172.07362365722656,174.0,2021-01-22 01:00:55.278000+00:00,train
391,172.09222412109375,174.0,2021-01-22 01:01:55.278000+00:00,train
392,172.09140014648438,174.0,2021-01-22 01:02:55.278000+00:00,train
393,172.0759735107422,174.0,2021-01-22 01:03:55.278000+00:00,train
394,172.07516479492188,174.0,2021-01-22 01:04:55.278000+00:00,train
395,172.06117248535156,176.0,2021-01-22 01:05:55.278000+00:00,train
396,172.0603790283203,176.0,2021-01-22 01:06:55.278000+00:00,train
397,172.05955505371094,176.0,2021-01-22 01:07:55.278000+00:00,train
398,172.0460968017578,176.0,2021-01-22 01:08:55.278000+00:00,train
399,172.04525756835938,176.0,2021-01-22 01:09:55.278000+00:00,train
400,172.03248596191406,176.0,2021-01-22 01:10:55.278000+00:00,train
401,172.0316925048828,176.0,2021-01-22 01:11:55.278000+00:00,train
402,172.03086853027344,176.0,2021-01-22 01:12:55.278000+00:00,train
403,172.03836059570312,176.0,2021-01-22 01:13:55.278000+00:00,train
404,172.08999633789062,176.0,2021-01-22 01:14:55.278000+00:00,train
405,172.13929748535156,176.0,2021-01-22 01:15:55.278000+00:00,train
406,172.20018005371094,176.0,2021-01-22 01:16:55.278000+00:00,train
407,172.26214599609375,176.0,2021-01-22 01:17:55.278000+00:00,train
408,172.32525634765625,176.0,2021-01-22 01:18:55.278000+00:00,train
409,172.38954162597656,176.0,2021-01-22 01:19:55.278000+00:00,train
410,172.45504760742188,176.0,2021-01-22 01:20:55.278000+00:00,train
411,172.5218505859375,176.0,2021-01-22 01:21:55.278000+00:00,train
412,172.58998107910156,177.0,2021-01-22 01:22:55.278000+00:00,train
413,172.6595001220703,178.0,2021-01-22 01:23:55.278000+00:00,train
414,172.73048400878906,178.0,2021-01-22 01:24:55.278000+00:00,train
415,172.80296325683594,172.0,2021-01-22 01:25:55.278000+00:00,train
416,172.85508728027344,172.0,2021-01-22 01:26:55.278000+00:00,train
417,172.88973999023438,172.0,2021-01-22 01:27:55.278000+00:00,train
418,172.92489624023438,172.0,2021-01-22 01:28:55.278000+00:00,train
419,172.96058654785156,172.0,2021-01-22 01:29:55.278000+00:00,train
420,172.9967803955078,172.0,2021-01-22 01:30:55.278000+00:00,train
421,173.0335235595703,172.0,2021-01-22 01:31:55.278000+00:00,train
422,173.07078552246094,172.0,2021-01-22 01:32:55.278000+00:00,train
423,173.10531616210938,172.0,2021-01-22 01:33:55.278000+00:00,train
424,173.14111328125,172.0,2021-01-22 01:34:55.278000+00:00,train
425,173.14028930664062,172.0,2021-01-22 01:35:55.278000+00:00,train
426,173.1395721435547,172.0,2021-01-22 01:36:55.278000+00:00,train
427,173.12339782714844,173.0,2021-01-22 01:37:55.278000+00:00,train
428,173.09564208984375,174.0,2021-01-22 01:38:55.278000+00:00,train
429,173.06809997558594,174.0,2021-01-22 01:39:55.278000+00:00,train
430,173.04075622558594,174.0,2021-01-22 01:40:55.278000+00:00,train
431,173.0138397216797,174.0,2021-01-22 01:41:55.278000+00:00,train
432,172.9871826171875,174.0,2021-01-22 01:42:55.278000+00:00,train
433,172.9605712890625,174.0,2021-01-22 01:43:55.278000+00:00,train
434,172.93406677246094,174.0,2021-01-22 01:44:55.278000+00:00,train
435,172.90771484375,174.0,2021-01-22 01:45:55.278000+00:00,train
436,172.88131713867188,174.0,2021-01-22 01:46:55.278000+00:00,train
437,172.86984252929688,174.0,2021-01-22 01:47:55.278000+00:00,train
438,172.8693389892578,174.0,2021-01-22 01:48:55.278000+00:00,train
439,172.86878967285156,174.0,2021-01-22 01:49:55.278000+00:00,train
440,172.8682098388672,174.0,2021-01-22 01:50:55.278000+00:00,train
441,172.8676300048828,174.0,2021-01-22 01:51:55.278000+00:00,train
442,172.85568237304688,174.0,2021-01-22 01:52:55.278000+00:00,train
443,172.84388732910156,174.0,2021-01-22 01:53:55.278000+00:00,train
444,172.83221435546875,176.0,2021-01-22 01:54:55.278000+00:00,train
445,172.82070922851562,176.0,2021-01-22 01:55:55.278000+00:00,train
446,172.80934143066406,176.0,2021-01-22 01:56:55.278000+00:00,train
447,172.79812622070312,176.0,2021-01-22 01:57:55.278000+00:00,train
448,172.78704833984375,176.0,2021-01-22 01:58:55.278000+00:00,train
449,172.77615356445312,176.0,2021-01-22 01:59:55.278000+00:00,train
450,172.76539611816406,176.0,2021-01-22 02:00:55.278000+00:00,train
451,172.7548065185547,176.0,2021-01-22 02:01:55.278000+00:00,train
452,172.74436950683594,176.0,2021-01-22 02:02:55.278000+00:00,train
453,172.7438201904297,176.0,2021-01-22 02:03:55.278000+00:00,train
454,172.77801513671875,176.0,2021-01-22 02:04:55.278000+00:00,train
455,172.81265258789062,174.0,2021-01-22 02:05:55.278000+00:00,train
456,172.84779357910156,172.0,2021-01-22 02:06:55.278000+00:00,train
457,172.88339233398438,172.0,2021-01-22 02:07:55.278000+00:00,train
458,172.9195098876953,172.0,2021-01-22 02:08:55.278000+00:00,train
459,172.9561309814453,172.0,2021-01-22 02:09:55.278000+00:00,train
460,172.99327087402344,172.0,2021-01-22 02:10:55.278000+00:00,train
461,173.03094482421875,172.0,2021-01-22 02:11:55.278000+00:00,train
462,173.0691375732422,172.0,2021-01-22 02:12:55.278000+00:00,train
463,173.10787963867188,172.0,2021-01-22 02:13:55.278000+00:00,train
464,173.1471710205078,172.0,2021-01-22 02:14:55.278000+00:00,train
465,173.17434692382812,172.0,2021-01-22 02:15:55.278000+00:00,train
466,173.1737823486328,172.0,2021-01-22 02:16:55.278000+00:00,train
467,173.17323303222656,172.0,2021-01-22 02:17:55.278000+00:00,train
468,173.1727294921875,172.0,2021-01-22 02:18:55.278000+00:00,train
469,173.15635681152344,172.0,2021-01-22 02:19:55.278000+00:00,train
470,173.12814331054688,172.0,2021-01-22 02:20:55.278000+00:00,train
471,173.10015869140625,172.0,2021-01-22 02:21:55.278000+00:00,train
472,173.07237243652344,172.0,2021-01-22 02:22:55.278000+00:00,train
473,173.04478454589844,172.0,2021-01-22 02:23:55.278000+00:00,train
474,173.0174102783203,172.0,2021-01-22 02:24:55.278000+00:00,train
475,172.99021911621094,172.0,2021-01-22 02:25:55.278000+00:00,val
476,172.9632110595703,172.0,2021-01-22 02:26:55.278000+00:00,val
477,172.93641662597656,174.0,2021-01-22 02:27:55.278000+00:00,val
478,172.9097900390625,174.0,2021-01-22 02:28:55.278000+00:00,val
479,172.88336181640625,174.0,2021-01-22 02:29:55.278000+00:00,val
480,172.85708618164062,174.0,2021-01-22 02:30:55.278000+00:00,val
481,172.8310089111328,174.0,2021-01-22 02:31:55.278000+00:00,val
482,172.80508422851562,174.0,2021-01-22 02:32:55.278000+00:00,val
483,172.7720184326172,174.0,2021-01-22 02:33:55.278000+00:00,val
484,172.73556518554688,174.0,2021-01-22 02:34:55.278000+00:00,val
485,172.69956970214844,174.0,2021-01-22 02:35:55.278000+00:00,val
486,172.6640625,174.0,2021-01-22 02:36:55.278000+00:00,val
487,172.65328979492188,174.0,2021-01-22 02:37:55.278000+00:00,val
488,172.64260864257812,174.0,2021-01-22 02:38:55.278000+00:00,val
489,172.63209533691406,174.0,2021-01-22 02:39:55.278000+00:00,val
490,172.62171936035156,174.0,2021-01-22 02:40:55.278000+00:00,val
491,172.6114959716797,174.0,2021-01-22 02:41:55.278000+00:00,val
492,172.60140991210938,174.0,2021-01-22 02:42:55.278000+00:00,val
493,172.59152221679688,174.0,2021-01-22 02:43:55.278000+00:00,val
494,172.581787109375,170.0,2021-01-22 02:44:55.278000+00:00,val
495,172.5721893310547,170.0,2021-01-22 02:45:55.278000+00:00,val
496,172.5627899169922,170.0,2021-01-22 02:46:55.278000+00:00,val
497,172.55355834960938,170.0,2021-01-22 02:47:55.278000+00:00,val
498,172.55111694335938,170.0,2021-01-22 02:48:55.278000+00:00,val
499,172.54995727539062,170.0,2021-01-22 02:49:55.278000+00:00,val
500,172.55014038085938,170.0,2021-01-22 02:50:55.278000+00:00,val
501,172.57301330566406,170.0,2021-01-22 02:51:55.278000+00:00,val
502,172.59603881835938,170.0,2021-01-22 02:52:55.278000+00:00,val
503,172.61924743652344,170.0,2021-01-22 02:53:55.278000+00:00,val
504,172.57920837402344,170.0,2021-01-22 02:54:55.278000+00:00,val
505,172.53970336914062,170.0,2021-01-22 02:55:55.278000+00:00,val
506,172.5006561279297,170.0,2021-01-22 02:56:55.278000+00:00,val
507,172.4621124267578,170.0,2021-01-22 02:57:55.278000+00:00,val
508,172.4240264892578,170.0,2021-01-22 02:58:55.278000+00:00,val
509,172.3863525390625,170.0,2021-01-22 02:59:55.278000+00:00,val
510,172.34910583496094,172.0,2021-01-22 03:00:55.278000+00:00,val
511,172.2904052734375,172.0,2021-01-22 03:01:55.278000+00:00,val
512,172.23257446289062,172.0,2021-01-22 03:02:55.278000+00:00,val
513,172.1756134033203,172.0,2021-01-22 03:03:55.278000+00:00,val
514,172.11944580078125,172.0,2021-01-22 03:04:55.278000+00:00,val
515,172.06405639648438,172.0,2021-01-22 03:05:55.278000+00:00,val
516,172.0093994140625,172.0,2021-01-22 03:06:55.278000+00:00,val
517,171.95547485351562,172.0,2021-01-22 03:07:55.278000+00:00,val
518,171.9022216796875,172.0,2021-01-22 03:08:55.278000+00:00,val
519,171.84962463378906,172.0,2021-01-22 03:09:55.278000+00:00,val
520,171.8296356201172,172.0,2021-01-22 03:10:55.278000+00:00,val
521,171.80978393554688,172.0,2021-01-22 03:11:55.278000+00:00,val
522,171.79002380371094,172.0,2021-01-22 03:12:55.278000+00:00,val
523,171.7703857421875,172.0,2021-01-22 03:13:55.278000+00:00,val
524,171.7508544921875,172.0,2021-01-22 03:14:55.278000+00:00,val
525,171.72532653808594,172.0,2021-01-22 03:15:55.278000+00:00,val
526,171.70025634765625,172.0,2021-01-22 03:16:55.278000+00:00,val
527,171.67567443847656,174.0,2021-01-22 03:17:55.278000+00:00,val
528,171.65158081054688,174.0,2021-01-22 03:18:55.278000+00:00,val
529,171.6279754638672,174.0,2021-01-22 03:19:55.278000+00:00,val
530,171.60488891601562,168.0,2021-01-22 03:20:55.278000+00:00,val
531,171.5823211669922,168.0,2021-01-22 03:21:55.278000+00:00,val
532,171.56027221679688,168.0,2021-01-22 03:22:55.278000+00:00,val
533,171.53875732421875,168.0,2021-01-22 03:23:55.278000+00:00,val
534,171.51780700683594,168.0,2021-01-22 03:24:55.278000+00:00,val
535,171.49740600585938,168.0,2021-01-22 03:25:55.278000+00:00,val
536,171.4776153564453,168.0,2021-01-22 03:26:55.278000+00:00,val
537,171.47476196289062,168.0,2021-01-22 03:27:55.278000+00:00,val
538,171.47210693359375,168.0,2021-01-22 03:28:55.278000+00:00,val
539,171.46969604492188,168.0,2021-01-22 03:29:55.278000+00:00,val
540,171.37791442871094,168.0,2021-01-22 03:30:55.278000+00:00,val
541,171.28839111328125,168.0,2021-01-22 03:31:55.278000+00:00,val
542,171.20558166503906,168.0,2021-01-22 03:32:55.278000+00:00,val
543,171.13343811035156,168.0,2021-01-22 03:33:55.278000+00:00,val
544,171.06427001953125,168.0,2021-01-22 03:34:55.278000+00:00,val
545,170.9960174560547,169.0,2021-01-22 03:35:55.278000+00:00,val
546,170.92898559570312,170.0,2021-01-22 03:36:55.278000+00:00,val
547,170.86309814453125,170.0,2021-01-22 03:37:55.278000+00:00,val
548,170.79827880859375,170.0,2021-01-22 03:38:55.278000+00:00,val
549,170.7344512939453,170.0,2021-01-22 03:39:55.278000+00:00,val
550,170.67160034179688,170.0,2021-01-22 03:40:55.278000+00:00,val
551,170.60960388183594,170.0,2021-01-22 03:41:55.278000+00:00,val
552,170.54847717285156,170.0,2021-01-22 03:42:55.278000+00:00,val
553,170.48814392089844,170.0,2021-01-22 03:43:55.278000+00:00,val
554,170.42861938476562,170.0,2021-01-22 03:44:55.278000+00:00,val
555,170.38856506347656,170.0,2021-01-22 03:45:55.278000+00:00,val
556,170.36473083496094,170.0,2021-01-22 03:46:55.278000+00:00,val
557,170.333740234375,170.0,2021-01-22 03:47:55.278000+00:00,val
558,170.29864501953125,170.0,2021-01-22 03:48:55.278000+00:00,val
559,170.263916015625,170.0,2021-01-22 03:49:55.278000+00:00,val
560,170.2296142578125,170.0,2021-01-22 03:50:55.278000+00:00,val
561,170.19566345214844,170.0,2021-01-22 03:51:55.278000+00:00,val
562,170.16213989257812,170.0,2021-01-22 03:52:55.278000+00:00,val
563,170.12896728515625,166.0,2021-01-22 03:53:55.278000+00:00,val
564,170.09619140625,166.0,2021-01-22 03:54:55.278000+00:00,val
565,170.06378173828125,166.0,2021-01-22 03:55:55.278000+00:00,val
566,170.0317840576172,166.0,2021-01-22 03:56:55.278000+00:00,val
567,170.0001678466797,166.0,2021-01-22 03:57:55.278000+00:00,val
568,169.9689483642578,166.0,2021-01-22 03:58:55.278000+00:00,val
569,169.93809509277344,166.0,2021-01-22 03:59:55.278000+00:00,val
570,169.90765380859375,166.0,2021-01-22 04:00:55.278000+00:00,val
571,169.87759399414062,166.0,2021-01-22 04:01:55.278000+00:00,val
572,169.8479461669922,166.0,2021-01-22 04:02:55.278000+00:00,val
573,169.7449188232422,166.0,2021-01-22 04:03:55.278000+00:00,val
574,169.6470489501953,166.0,2021-01-22 04:04:55.278000+00:00,val
575,169.55162048339844,166.0,2021-01-22 04:05:55.278000+00:00,val
576,169.45858764648438,166.0,2021-01-22 04:06:55.278000+00:00,val
577,169.3679656982422,166.0,2021-01-22 04:07:55.278000+00:00,val
578,169.2797088623047,167.0,2021-01-22 04:08:55.278000+00:00,val
579,169.19375610351562,168.0,2021-01-22 04:09:55.278000+00:00,val
580,169.11013793945312,168.0,2021-01-22 04:10:55.278000+00:00,val
581,169.02883911132812,168.0,2021-01-22 04:11:55.278000+00:00,val
582,168.94984436035156,168.0,2021-01-22 04:12:55.278000+00:00,val
583,168.87319946289062,168.0,2021-01-22 04:13:55.278000+00:00,val
584,168.79888916015625,168.0,2021-01-22 04:14:55.278000+00:00,val
585,168.71920776367188,168.0,2021-01-22 04:15:55.278000+00:00,val
586,168.6442108154297,168.0,2021-01-22 04:16:55.278000+00:00,val
587,168.57040405273438,168.0,2021-01-22 04:17:55.278000+00:00,val
588,168.51617431640625,168.0,2021-01-22 04:18:55.278000+00:00,val
589,168.47836303710938,168.0,2021-01-22 04:19:55.278000+00:00,val
590,168.44094848632812,168.0,2021-01-22 04:20:55.278000+00:00,val
591,168.40391540527344,168.0,2021-01-22 04:21:55.278000+00:00,val
592,168.3672332763672,168.0,2021-01-22 04:22:55.278000+00:00,val
593,168.33094787597656,164.0,2021-01-22 04:23:55.278000+00:00,val
594,168.29501342773438,164.0,2021-01-22 04:24:55.278000+00:00,val
595,168.25946044921875,164.0,2021-01-22 04:25:55.278000+00:00,val
596,168.22425842285156,164.0,2021-01-22 04:26:55.278000+00:00,val
597,168.18942260742188,164.0,2021-01-22 04:27:55.278000+00:00,val
598,168.1549530029297,164.0,2021-01-22 04:28:55.278000+00:00,val
599,168.120849609375,164.0,2021-01-22 04:29:55.278000+00:00,val
600,168.08709716796875,164.0,2021-01-22 04:30:55.278000+00:00,val
601,168.0537109375,164.0,2021-01-22 04:31:55.278000+00:00,val
602,168.0206756591797,164.0,2021-01-22 04:32:55.278000+00:00,val
603,167.91567993164062,164.0,2021-01-22 04:33:55.278000+00:00,val
604,167.8128662109375,164.0,2021-01-22 04:34:55.278000+00:00,val
605,167.7121124267578,164.0,2021-01-22 04:35:55.278000+00:00,val
606,167.61338806152344,164.0,2021-01-22 04:36:55.278000+00:00,val
607,167.5163116455078,164.0,2021-01-22 04:37:55.278000+00:00,val
608,167.4215087890625,164.0,2021-01-22 04:38:55.278000+00:00,val
609,167.32891845703125,164.0,2021-01-22 04:39:55.278000+00:00,val
610,167.23851013183594,164.0,2021-01-22 04:40:55.278000+00:00,val
611,167.1502685546875,164.0,2021-01-22 04:41:55.278000+00:00,val
612,167.06419372558594,164.0,2021-01-22 04:42:55.278000+00:00,val
613,166.980224609375,164.0,2021-01-22 04:43:55.278000+00:00,val
614,166.89840698242188,166.0,2021-01-22 04:44:55.278000+00:00,val
615,166.81874084472656,166.0,2021-01-22 04:45:55.278000+00:00,val
616,166.74119567871094,166.0,2021-01-22 04:46:55.278000+00:00,val
617,166.6658172607422,166.0,2021-01-22 04:47:55.278000+00:00,val
618,166.5926055908203,166.0,2021-01-22 04:48:55.278000+00:00,val
619,166.52157592773438,163.0,2021-01-22 04:49:55.278000+00:00,val
620,166.45278930664062,160.0,2021-01-22 04:50:55.278000+00:00,val
621,166.3862762451172,160.0,2021-01-22 04:51:55.278000+00:00,val
622,166.32205200195312,160.0,2021-01-22 04:52:55.278000+00:00,val
623,166.26022338867188,160.0,2021-01-22 04:53:55.278000+00:00,val
624,166.22662353515625,160.0,2021-01-22 04:54:55.278000+00:00,val
625,166.1934356689453,160.0,2021-01-22 04:55:55.278000+00:00,val
626,166.16065979003906,160.0,2021-01-22 04:56:55.278000+00:00,val
627,166.12828063964844,160.0,2021-01-22 04:57:55.278000+00:00,val
628,166.0963134765625,160.0,2021-01-22 04:58:55.278000+00:00,val
629,166.0182647705078,161.0,2021-01-22 04:59:55.278000+00:00,val
630,165.8775177001953,162.0,2021-01-22 05:00:55.278000+00:00,val
631,165.7417755126953,162.0,2021-01-22 05:01:55.278000+00:00,val
632,165.61087036132812,162.0,2021-01-22 05:02:55.278000+00:00,val
633,165.4846649169922,162.0,2021-01-22 05:03:55.278000+00:00,val
634,165.36280822753906,162.0,2021-01-22 05:04:55.278000+00:00,val
635,165.24514770507812,162.0,2021-01-22 05:05:55.278000+00:00,val
636,165.13153076171875,162.0,2021-01-22 05:06:55.278000+00:00,val
637,165.02182006835938,162.0,2021-01-22 05:07:55.278000+00:00,val
638,164.9158477783203,162.0,2021-01-22 05:08:55.278000+00:00,val
639,164.83094787597656,162.0,2021-01-22 05:09:55.278000+00:00,val
640,164.7643585205078,162.0,2021-01-22 05:10:55.278000+00:00,val
641,164.69979858398438,162.0,2021-01-22 05:11:55.278000+00:00,val
642,164.63690185546875,162.0,2021-01-22 05:12:55.278000+00:00,val
643,164.57522583007812,162.0,2021-01-22 05:13:55.278000+00:00,val
644,164.5142364501953,158.0,2021-01-22 05:14:55.278000+00:00,val
645,164.45321655273438,158.0,2021-01-22 05:15:55.278000+00:00,val
646,164.39151000976562,158.0,2021-01-22 05:16:55.278000+00:00,test
647,164.32801818847656,158.0,2021-01-22 05:17:55.278000+00:00,test
648,164.26133728027344,158.0,2021-01-22 05:18:55.278000+00:00,test
649,164.190185546875,158.0,2021-01-22 05:19:55.278000+00:00,test
650,164.11279296875,158.0,2021-01-22 05:20:55.278000+00:00,test
651,164.02757263183594,158.0,2021-01-22 05:21:55.278000+00:00,test
652,163.93292236328125,158.0,2021-01-22 05:22:55.278000+00:00,test
653,163.82704162597656,158.0,2021-01-22 05:23:55.278000+00:00,test
654,163.61509704589844,158.0,2021-01-22 05:24:55.278000+00:00,test
655,163.38836669921875,158.0,2021-01-22 05:25:55.278000+00:00,test
656,163.1527099609375,158.0,2021-01-22 05:26:55.278000+00:00,test
657,162.9140167236328,158.0,2021-01-22 05:27:55.278000+00:00,test
658,162.6847381591797,158.0,2021-01-22 05:28:55.278000+00:00,test
659,162.46551513671875,158.0,2021-01-22 05:29:55.278000+00:00,test
660,162.27041625976562,158.0,2021-01-22 05:30:55.278000+00:00,test
661,162.07923889160156,158.0,2021-01-22 05:31:55.278000+00:00,test
662,161.8940887451172,158.0,2021-01-22 05:32:55.278000+00:00,test
663,161.71615600585938,158.0,2021-01-22 05:33:55.278000+00:00,test
664,161.5456085205078,158.0,2021-01-22 05:34:55.278000+00:00,test
665,161.3822784423828,157.0,2021-01-22 05:35:55.278000+00:00,test
666,161.22608947753906,154.0,2021-01-22 05:36:55.278000+00:00,test
667,161.07736206054688,154.0,2021-01-22 05:37:55.278000+00:00,test
668,160.93746948242188,154.0,2021-01-22 05:38:55.278000+00:00,test
669,160.80552673339844,154.0,2021-01-22 05:39:55.278000+00:00,test
670,160.68032836914062,154.0,2021-01-22 05:40:55.278000+00:00,test
671,160.5607452392578,154.0,2021-01-22 05:41:55.278000+00:00,test
672,160.4457244873047,154.0,2021-01-22 05:42:55.278000+00:00,test
673,160.33457946777344,154.0,2021-01-22 05:43:55.278000+00:00,test
674,160.22706604003906,154.0,2021-01-22 05:44:55.278000+00:00,test
675,160.10252380371094,154.0,2021-01-22 05:45:55.278000+00:00,test
676,159.91172790527344,154.0,2021-01-22 05:46:55.278000+00:00,test
677,159.72833251953125,154.0,2021-01-22 05:47:55.278000+00:00,test
678,159.5514678955078,154.0,2021-01-22 05:48:55.278000+00:00,test
679,159.38050842285156,154.0,2021-01-22 05:49:55.278000+00:00,test
680,159.2149658203125,154.0,2021-01-22 05:50:55.278000+00:00,test
681,159.0543975830078,156.0,2021-01-22 05:51:55.278000+00:00,test
682,158.89845275878906,156.0,2021-01-22 05:52:55.278000+00:00,test
683,158.74685668945312,156.0,2021-01-22 05:53:55.278000+00:00,test
684,158.59934997558594,150.0,2021-01-22 05:54:55.278000+00:00,test
685,158.4557647705078,150.0,2021-01-22 05:55:55.278000+00:00,test
686,158.31593322753906,150.0,2021-01-22 05:56:55.278000+00:00,test
687,158.17970275878906,150.0,2021-01-22 05:57:55.278000+00:00,test
688,158.0469970703125,150.0,2021-01-22 05:58:55.278000+00:00,test
689,157.91770935058594,150.0,2021-01-22 05:59:55.278000+00:00,test
690,157.7918243408203,150.0,2021-01-22 06:00:55.278000+00:00,test
691,157.70872497558594,150.0,2021-01-22 06:01:55.278000+00:00,test
692,157.62828063964844,150.0,2021-01-22 06:02:55.278000+00:00,test
693,157.537109375,150.0,2021-01-22 06:03:55.278000+00:00,test
694,157.31198120117188,152.0,2021-01-22 06:04:55.278000+00:00,test
695,157.09259033203125,152.0,2021-01-22 06:05:55.278000+00:00,test
696,156.87852478027344,152.0,2021-01-22 06:06:55.278000+00:00,test
697,156.6694793701172,152.0,2021-01-22 06:07:55.278000+00:00,test
698,156.46514892578125,152.0,2021-01-22 06:08:55.278000+00:00,test
699,156.26527404785156,150.0,2021-01-22 06:09:55.278000+00:00,test
700,156.0696258544922,148.0,2021-01-22 06:10:55.278000+00:00,test
701,155.87802124023438,148.0,2021-01-22 06:11:55.278000+00:00,test
702,155.6902618408203,148.0,2021-01-22 06:12:55.278000+00:00,test
703,155.50621032714844,148.0,2021-01-22 06:13:55.278000+00:00,test
704,155.3681182861328,148.0,2021-01-22 06:14:55.278000+00:00,test
705,155.23236083984375,148.0,2021-01-22 06:15:55.278000+00:00,test
706,155.0989227294922,148.0,2021-01-22 06:16:55.278000+00:00,test
707,154.96775817871094,148.0,2021-01-22 06:17:55.278000+00:00,test
708,154.84039306640625,148.0,2021-01-22 06:18:55.278000+00:00,test
709,154.67832946777344,148.0,2021-01-22 06:19:55.278000+00:00,test
710,154.47463989257812,148.0,2021-01-22 06:20:55.278000+00:00,test
711,154.27574157714844,148.0,2021-01-22 06:21:55.278000+00:00,test
712,154.08154296875,144.0,2021-01-22 06:22:55.278000+00:00,test
713,153.8918914794922,144.0,2021-01-22 06:23:55.278000+00:00,test
714,153.70675659179688,144.0,2021-01-22 06:24:55.278000+00:00,test
715,153.5260772705078,144.0,2021-01-22 06:25:55.278000+00:00,test
716,153.34974670410156,144.0,2021-01-22 06:26:55.278000+00:00,test
717,153.17779541015625,144.0,2021-01-22 06:27:55.278000+00:00,test
718,153.0101776123047,144.0,2021-01-22 06:28:55.278000+00:00,test
719,152.8468475341797,144.0,2021-01-22 06:29:55.278000+00:00,test
720,152.6878204345703,144.0,2021-01-22 06:30:55.278000+00:00,test
721,152.53314208984375,144.0,2021-01-22 06:31:55.278000+00:00,test
722,152.2894287109375,142.0,2021-01-22 06:32:55.278000+00:00,test
