,prediction,real,time,split
0,156.75840759277344,156.0,2021-01-21 18:24:55.278000+00:00,train
1,156.6513214111328,156.0,2021-01-21 18:25:55.278000+00:00,train
2,156.55694580078125,156.0,2021-01-21 18:26:55.278000+00:00,train
3,156.4647216796875,156.0,2021-01-21 18:27:55.278000+00:00,train
4,156.37448120117188,156.0,2021-01-21 18:28:55.278000+00:00,train
5,156.28619384765625,156.0,2021-01-21 18:29:55.278000+00:00,train
6,156.19056701660156,156.0,2021-01-21 18:30:55.278000+00:00,train
7,156.09376525878906,156.0,2021-01-21 18:31:55.278000+00:00,train
8,155.99948120117188,156.0,2021-01-21 18:32:55.278000+00:00,train
9,155.9076385498047,156.0,2021-01-21 18:33:55.278000+00:00,train
10,155.81814575195312,156.0,2021-01-21 18:34:55.278000+00:00,train
11,155.73092651367188,156.0,2021-01-21 18:35:55.278000+00:00,train
12,155.6459197998047,156.0,2021-01-21 18:36:55.278000+00:00,train
13,155.56307983398438,156.0,2021-01-21 18:37:55.278000+00:00,train
14,155.4823760986328,156.0,2021-01-21 18:38:55.278000+00:00,train
15,155.40374755859375,156.0,2021-01-21 18:39:55.278000+00:00,train
16,155.32711791992188,158.0,2021-01-21 18:40:55.278000+00:00,train
17,155.2524871826172,158.0,2021-01-21 18:41:55.278000+00:00,train
18,155.17977905273438,158.0,2021-01-21 18:42:55.278000+00:00,train
19,155.1089630126953,158.0,2021-01-21 18:43:55.278000+00:00,train
20,155.08827209472656,158.0,2021-01-21 18:44:55.278000+00:00,train
21,155.07821655273438,158.0,2021-01-21 18:45:55.278000+00:00,train
22,155.07005310058594,158.0,2021-01-21 18:46:55.278000+00:00,train
23,155.0636749267578,158.0,2021-01-21 18:47:55.278000+00:00,train
24,155.05908203125,158.0,2021-01-21 18:48:55.278000+00:00,train
25,155.0563201904297,158.0,2021-01-21 18:49:55.278000+00:00,train
26,155.05538940429688,158.0,2021-01-21 18:50:55.278000+00:00,train
27,155.0563507080078,158.0,2021-01-21 18:51:55.278000+00:00,train
28,155.0592498779297,156.0,2021-01-21 18:52:55.278000+00:00,train
29,155.06411743164062,154.0,2021-01-21 18:53:55.278000+00:00,train
30,155.0709991455078,153.0,2021-01-21 18:54:55.278000+00:00,train
31,155.07867431640625,152.0,2021-01-21 18:55:55.278000+00:00,train
32,155.0488739013672,152.0,2021-01-21 18:56:55.278000+00:00,train
33,154.9617919921875,153.0,2021-01-21 18:57:55.278000+00:00,train
34,154.8417510986328,154.0,2021-01-21 18:58:55.278000+00:00,train
35,154.685791015625,154.0,2021-01-21 18:59:55.278000+00:00,train
36,154.58169555664062,154.0,2021-01-21 19:00:55.278000+00:00,train
37,154.526611328125,154.0,2021-01-21 19:01:55.278000+00:00,train
38,154.51492309570312,154.0,2021-01-21 19:02:55.278000+00:00,train
39,154.51138305664062,154.0,2021-01-21 19:03:55.278000+00:00,train
40,154.4639434814453,154.0,2021-01-21 19:04:55.278000+00:00,train
41,154.38327026367188,154.0,2021-01-21 19:05:55.278000+00:00,train
42,154.30393981933594,154.0,2021-01-21 19:06:55.278000+00:00,train
43,154.2279815673828,154.0,2021-01-21 19:07:55.278000+00:00,train
44,154.15548706054688,154.0,2021-01-21 19:08:55.278000+00:00,train
45,154.0865478515625,154.0,2021-01-21 19:09:55.278000+00:00,train
46,154.02130126953125,154.0,2021-01-21 19:10:55.278000+00:00,train
47,153.95986938476562,154.0,2021-01-21 19:11:55.278000+00:00,train
48,153.9024658203125,154.0,2021-01-21 19:12:55.278000+00:00,train
49,153.8492889404297,154.0,2021-01-21 19:13:55.278000+00:00,train
50,153.8006134033203,154.0,2021-01-21 19:14:55.278000+00:00,train
51,153.7567596435547,154.0,2021-01-21 19:15:55.278000+00:00,train
52,153.7180633544922,154.0,2021-01-21 19:16:55.278000+00:00,train
53,153.6849365234375,154.0,2021-01-21 19:17:55.278000+00:00,train
54,153.65782165527344,154.0,2021-01-21 19:18:55.278000+00:00,train
55,153.63720703125,154.0,2021-01-21 19:19:55.278000+00:00,train
56,153.6265106201172,154.0,2021-01-21 19:20:55.278000+00:00,train
57,153.63011169433594,154.0,2021-01-21 19:21:55.278000+00:00,train
58,153.64161682128906,156.0,2021-01-21 19:22:55.278000+00:00,train
59,153.66140747070312,156.0,2021-01-21 19:23:55.278000+00:00,train
60,153.68975830078125,156.0,2021-01-21 19:24:55.278000+00:00,train
61,153.72616577148438,156.0,2021-01-21 19:25:55.278000+00:00,train
62,153.82754516601562,156.0,2021-01-21 19:26:55.278000+00:00,train
63,153.9343719482422,151.0,2021-01-21 19:27:55.278000+00:00,train
64,154.044677734375,150.0,2021-01-21 19:28:55.278000+00:00,train
65,154.15647888183594,150.0,2021-01-21 19:29:55.278000+00:00,train
66,154.2678680419922,150.0,2021-01-21 19:30:55.278000+00:00,train
67,154.23324584960938,150.0,2021-01-21 19:31:55.278000+00:00,train
68,154.17291259765625,150.0,2021-01-21 19:32:55.278000+00:00,train
69,154.1192169189453,150.0,2021-01-21 19:33:55.278000+00:00,train
70,154.07281494140625,150.0,2021-01-21 19:34:55.278000+00:00,train
71,154.0338592529297,150.0,2021-01-21 19:35:55.278000+00:00,train
72,154.00213623046875,150.0,2021-01-21 19:36:55.278000+00:00,train
73,153.97711181640625,152.0,2021-01-21 19:37:55.278000+00:00,train
74,153.95816040039062,152.0,2021-01-21 19:38:55.278000+00:00,train
75,153.94444274902344,152.0,2021-01-21 19:39:55.278000+00:00,train
76,153.93511962890625,152.0,2021-01-21 19:40:55.278000+00:00,train
77,153.9739227294922,152.0,2021-01-21 19:41:55.278000+00:00,train
78,154.01129150390625,152.0,2021-01-21 19:42:55.278000+00:00,train
79,154.0482635498047,152.0,2021-01-21 19:43:55.278000+00:00,train
80,154.08770751953125,152.0,2021-01-21 19:44:55.278000+00:00,train
81,154.12576293945312,152.0,2021-01-21 19:45:55.278000+00:00,train
82,154.16232299804688,152.0,2021-01-21 19:46:55.278000+00:00,train
83,154.2039031982422,152.0,2021-01-21 19:47:55.278000+00:00,train
84,154.2411651611328,152.0,2021-01-21 19:48:55.278000+00:00,train
85,154.27540588378906,152.0,2021-01-21 19:49:55.278000+00:00,train
86,154.30694580078125,152.0,2021-01-21 19:50:55.278000+00:00,train
87,154.33645629882812,153.0,2021-01-21 19:51:55.278000+00:00,train
88,154.36434936523438,154.0,2021-01-21 19:52:55.278000+00:00,train
89,154.3910369873047,154.0,2021-01-21 19:53:55.278000+00:00,train
90,154.41676330566406,154.0,2021-01-21 19:54:55.278000+00:00,train
91,154.45181274414062,154.0,2021-01-21 19:55:55.278000+00:00,train
92,154.49545288085938,154.0,2021-01-21 19:56:55.278000+00:00,train
93,154.53799438476562,156.0,2021-01-21 19:57:55.278000+00:00,train
94,154.57981872558594,156.0,2021-01-21 19:58:55.278000+00:00,train
95,154.6210174560547,156.0,2021-01-21 19:59:55.278000+00:00,train
96,154.66168212890625,156.0,2021-01-21 20:00:55.278000+00:00,train
97,154.72093200683594,156.0,2021-01-21 20:01:55.278000+00:00,train
98,154.77845764160156,156.0,2021-01-21 20:02:55.278000+00:00,train
99,154.82772827148438,156.0,2021-01-21 20:03:55.278000+00:00,train
100,154.86842346191406,156.0,2021-01-21 20:04:55.278000+00:00,train
101,154.9075927734375,156.0,2021-01-21 20:05:55.278000+00:00,train
102,154.94522094726562,158.0,2021-01-21 20:06:55.278000+00:00,train
103,154.9813232421875,158.0,2021-01-21 20:07:55.278000+00:00,train
104,155.0159149169922,158.0,2021-01-21 20:08:55.278000+00:00,train
105,155.0488739013672,158.0,2021-01-21 20:09:55.278000+00:00,train
106,155.10470581054688,158.0,2021-01-21 20:10:55.278000+00:00,train
107,155.15701293945312,158.0,2021-01-21 20:11:55.278000+00:00,train
108,155.20700073242188,158.0,2021-01-21 20:12:55.278000+00:00,train
109,155.255126953125,158.0,2021-01-21 20:13:55.278000+00:00,train
110,155.3016357421875,159.0,2021-01-21 20:14:55.278000+00:00,train
111,155.3466796875,160.0,2021-01-21 20:15:55.278000+00:00,train
112,155.39027404785156,160.0,2021-01-21 20:16:55.278000+00:00,train
113,155.43247985839844,158.0,2021-01-21 20:17:55.278000+00:00,train
114,155.489501953125,156.0,2021-01-21 20:18:55.278000+00:00,train
115,155.56227111816406,156.0,2021-01-21 20:19:55.278000+00:00,train
116,155.68191528320312,156.0,2021-01-21 20:20:55.278000+00:00,train
117,155.7672119140625,156.0,2021-01-21 20:21:55.278000+00:00,train
118,155.84339904785156,156.0,2021-01-21 20:22:55.278000+00:00,train
119,155.92376708984375,156.0,2021-01-21 20:23:55.278000+00:00,train
120,155.98956298828125,156.0,2021-01-21 20:24:55.278000+00:00,train
121,156.05723571777344,156.0,2021-01-21 20:25:55.278000+00:00,train
122,156.1263427734375,156.0,2021-01-21 20:26:55.278000+00:00,train
123,156.19662475585938,156.0,2021-01-21 20:27:55.278000+00:00,train
124,156.26791381835938,156.0,2021-01-21 20:28:55.278000+00:00,train
125,156.34014892578125,156.0,2021-01-21 20:29:55.278000+00:00,train
126,156.41322326660156,157.0,2021-01-21 20:30:55.278000+00:00,train
127,156.48715209960938,158.0,2021-01-21 20:31:55.278000+00:00,train
128,156.5619659423828,158.0,2021-01-21 20:32:55.278000+00:00,train
129,156.63778686523438,158.0,2021-01-21 20:33:55.278000+00:00,train
130,156.73060607910156,158.0,2021-01-21 20:34:55.278000+00:00,train
131,156.8429412841797,158.0,2021-01-21 20:35:55.278000+00:00,train
132,156.9557647705078,158.0,2021-01-21 20:36:55.278000+00:00,train
133,157.07022094726562,158.0,2021-01-21 20:37:55.278000+00:00,train
134,157.187255859375,158.0,2021-01-21 20:38:55.278000+00:00,train
135,157.30751037597656,160.0,2021-01-21 20:39:55.278000+00:00,train
136,157.43174743652344,160.0,2021-01-21 20:40:55.278000+00:00,train
137,157.56069946289062,160.0,2021-01-21 20:41:55.278000+00:00,train
138,157.69503784179688,160.0,2021-01-21 20:42:55.278000+00:00,train
139,157.8867645263672,160.0,2021-01-21 20:43:55.278000+00:00,train
140,158.05165100097656,160.0,2021-01-21 20:44:55.278000+00:00,train
141,158.22190856933594,160.0,2021-01-21 20:45:55.278000+00:00,train
142,158.3986053466797,160.0,2021-01-21 20:46:55.278000+00:00,train
143,158.5813751220703,161.0,2021-01-21 20:47:55.278000+00:00,train
144,158.76779174804688,162.0,2021-01-21 20:48:55.278000+00:00,train
145,158.95741271972656,162.0,2021-01-21 20:49:55.278000+00:00,train
146,159.14894104003906,162.0,2021-01-21 20:50:55.278000+00:00,train
147,159.37539672851562,162.0,2021-01-21 20:51:55.278000+00:00,train
148,159.63589477539062,162.0,2021-01-21 20:52:55.278000+00:00,train
149,159.884521484375,162.0,2021-01-21 20:53:55.278000+00:00,train
150,160.11561584472656,162.0,2021-01-21 20:54:55.278000+00:00,train
151,160.3214874267578,162.0,2021-01-21 20:55:55.278000+00:00,train
152,160.52197265625,164.0,2021-01-21 20:56:55.278000+00:00,train
153,160.6846160888672,164.0,2021-01-21 20:57:55.278000+00:00,train
154,160.7899169921875,164.0,2021-01-21 20:58:55.278000+00:00,train
155,160.8497772216797,164.0,2021-01-21 20:59:55.278000+00:00,train
156,160.97047424316406,164.0,2021-01-21 21:00:55.278000+00:00,train
157,161.05325317382812,164.0,2021-01-21 21:01:55.278000+00:00,train
158,161.1045684814453,164.0,2021-01-21 21:02:55.278000+00:00,train
159,161.1317138671875,164.0,2021-01-21 21:03:55.278000+00:00,train
160,161.54893493652344,165.0,2021-01-21 21:04:55.278000+00:00,train
161,161.42263793945312,166.0,2021-01-21 21:05:55.278000+00:00,train
162,161.35719299316406,166.0,2021-01-21 21:06:55.278000+00:00,train
163,161.3334503173828,166.0,2021-01-21 21:07:55.278000+00:00,train
164,161.3759765625,166.0,2021-01-21 21:08:55.278000+00:00,train
165,161.4712677001953,166.0,2021-01-21 21:09:55.278000+00:00,train
166,161.57196044921875,166.0,2021-01-21 21:10:55.278000+00:00,train
167,161.67855834960938,166.0,2021-01-21 21:11:55.278000+00:00,train
168,161.79046630859375,166.0,2021-01-21 21:12:55.278000+00:00,train
169,161.90672302246094,166.0,2021-01-21 21:13:55.278000+00:00,train
170,162.0265350341797,166.0,2021-01-21 21:14:55.278000+00:00,train
171,162.149169921875,166.0,2021-01-21 21:15:55.278000+00:00,train
172,162.27394104003906,165.0,2021-01-21 21:16:55.278000+00:00,train
173,162.40017700195312,163.0,2021-01-21 21:17:55.278000+00:00,train
174,162.5274200439453,162.0,2021-01-21 21:18:55.278000+00:00,train
175,162.6551513671875,162.0,2021-01-21 21:19:55.278000+00:00,train
176,162.75721740722656,162.0,2021-01-21 21:20:55.278000+00:00,train
177,162.8165740966797,162.0,2021-01-21 21:21:55.278000+00:00,train
178,162.86148071289062,162.0,2021-01-21 21:22:55.278000+00:00,train
179,162.91030883789062,164.0,2021-01-21 21:23:55.278000+00:00,train
180,162.9613800048828,164.0,2021-01-21 21:24:55.278000+00:00,train
181,163.01380920410156,164.0,2021-01-21 21:25:55.278000+00:00,train
182,163.0625762939453,164.0,2021-01-21 21:26:55.278000+00:00,train
183,163.14950561523438,164.0,2021-01-21 21:27:55.278000+00:00,train
184,163.23472595214844,164.0,2021-01-21 21:28:55.278000+00:00,train
185,163.31881713867188,164.0,2021-01-21 21:29:55.278000+00:00,train
186,163.40194702148438,164.0,2021-01-21 21:30:55.278000+00:00,train
187,163.4796905517578,164.0,2021-01-21 21:31:55.278000+00:00,train
188,163.54847717285156,164.0,2021-01-21 21:32:55.278000+00:00,train
189,163.61444091796875,164.0,2021-01-21 21:33:55.278000+00:00,train
190,163.6774444580078,165.0,2021-01-21 21:34:55.278000+00:00,train
191,163.7373504638672,166.0,2021-01-21 21:35:55.278000+00:00,train
192,163.79408264160156,166.0,2021-01-21 21:36:55.278000+00:00,train
193,163.84747314453125,166.0,2021-01-21 21:37:55.278000+00:00,train
194,163.91661071777344,166.0,2021-01-21 21:38:55.278000+00:00,train
195,164.0023193359375,166.0,2021-01-21 21:39:55.278000+00:00,train
196,164.0830841064453,166.0,2021-01-21 21:40:55.278000+00:00,train
197,164.17649841308594,166.0,2021-01-21 21:41:55.278000+00:00,train
198,164.26649475097656,166.0,2021-01-21 21:42:55.278000+00:00,train
199,164.35308837890625,166.0,2021-01-21 21:43:55.278000+00:00,train
200,164.436279296875,166.0,2021-01-21 21:44:55.278000+00:00,train
201,164.5160369873047,167.0,2021-01-21 21:45:55.278000+00:00,train
202,164.59234619140625,168.0,2021-01-21 21:46:55.278000+00:00,train
203,164.6654815673828,168.0,2021-01-21 21:47:55.278000+00:00,train
204,164.73507690429688,168.0,2021-01-21 21:48:55.278000+00:00,train
205,164.82177734375,168.0,2021-01-21 21:49:55.278000+00:00,train
206,164.92652893066406,168.0,2021-01-21 21:50:55.278000+00:00,train
207,165.0262908935547,168.0,2021-01-21 21:51:55.278000+00:00,train
208,165.12127685546875,168.0,2021-01-21 21:52:55.278000+00:00,train
209,165.21156311035156,168.0,2021-01-21 21:53:55.278000+00:00,train
210,165.2971954345703,168.0,2021-01-21 21:54:55.278000+00:00,train
211,165.38796997070312,168.0,2021-01-21 21:55:55.278000+00:00,train
212,165.4827423095703,169.0,2021-01-21 21:56:55.278000+00:00,train
213,165.57398986816406,170.0,2021-01-21 21:57:55.278000+00:00,train
214,165.66175842285156,170.0,2021-01-21 21:58:55.278000+00:00,train
215,165.74734497070312,170.0,2021-01-21 21:59:55.278000+00:00,train
216,165.84925842285156,170.0,2021-01-21 22:00:55.278000+00:00,train
217,165.9834442138672,170.0,2021-01-21 22:01:55.278000+00:00,train
218,166.11488342285156,170.0,2021-01-21 22:02:55.278000+00:00,train
219,166.24496459960938,170.0,2021-01-21 22:03:55.278000+00:00,train
220,166.3807830810547,170.0,2021-01-21 22:04:55.278000+00:00,train
221,166.49505615234375,170.0,2021-01-21 22:05:55.278000+00:00,train
222,166.60888671875,170.0,2021-01-21 22:06:55.278000+00:00,train
223,166.72056579589844,171.0,2021-01-21 22:07:55.278000+00:00,train
224,166.8297882080078,172.0,2021-01-21 22:08:55.278000+00:00,train
225,166.9364471435547,172.0,2021-01-21 22:09:55.278000+00:00,train
226,167.04698181152344,170.0,2021-01-21 22:10:55.278000+00:00,train
227,167.17767333984375,168.0,2021-01-21 22:11:55.278000+00:00,train
228,167.32933044433594,166.0,2021-01-21 22:12:55.278000+00:00,train
229,167.47779846191406,166.0,2021-01-21 22:13:55.278000+00:00,train
230,167.57920837402344,166.0,2021-01-21 22:14:55.278000+00:00,train
231,167.64248657226562,166.0,2021-01-21 22:15:55.278000+00:00,train
232,167.67559814453125,166.0,2021-01-21 22:16:55.278000+00:00,train
233,167.70875549316406,167.0,2021-01-21 22:17:55.278000+00:00,train
234,167.7425079345703,168.0,2021-01-21 22:18:55.278000+00:00,train
235,167.77503967285156,168.0,2021-01-21 22:19:55.278000+00:00,train
236,167.8074188232422,168.0,2021-01-21 22:20:55.278000+00:00,train
237,167.853759765625,168.0,2021-01-21 22:21:55.278000+00:00,train
238,167.90830993652344,168.0,2021-01-21 22:22:55.278000+00:00,train
239,167.9624786376953,168.0,2021-01-21 22:23:55.278000+00:00,train
240,168.01681518554688,168.0,2021-01-21 22:24:55.278000+00:00,train
241,168.0718231201172,168.0,2021-01-21 22:25:55.278000+00:00,train
242,168.12791442871094,168.0,2021-01-21 22:26:55.278000+00:00,train
243,168.1853790283203,168.0,2021-01-21 22:27:55.278000+00:00,train
244,168.24441528320312,168.0,2021-01-21 22:28:55.278000+00:00,train
245,168.30545043945312,170.0,2021-01-21 22:29:55.278000+00:00,train
246,168.36898803710938,170.0,2021-01-21 22:30:55.278000+00:00,train
247,168.43402099609375,170.0,2021-01-21 22:31:55.278000+00:00,train
248,168.50042724609375,170.0,2021-01-21 22:32:55.278000+00:00,train
249,168.61532592773438,170.0,2021-01-21 22:33:55.278000+00:00,train
250,168.7408447265625,170.0,2021-01-21 22:34:55.278000+00:00,train
251,168.874755859375,170.0,2021-01-21 22:35:55.278000+00:00,train
252,169.0142059326172,170.0,2021-01-21 22:36:55.278000+00:00,train
253,169.1591339111328,170.0,2021-01-21 22:37:55.278000+00:00,train
254,169.30580139160156,170.0,2021-01-21 22:38:55.278000+00:00,train
255,169.44822692871094,170.0,2021-01-21 22:39:55.278000+00:00,train
256,169.57704162597656,171.0,2021-01-21 22:40:55.278000+00:00,train
257,169.6809539794922,172.0,2021-01-21 22:41:55.278000+00:00,train
258,169.7554168701172,172.0,2021-01-21 22:42:55.278000+00:00,train
259,169.8259735107422,172.0,2021-01-21 22:43:55.278000+00:00,train
260,169.9039764404297,172.0,2021-01-21 22:44:55.278000+00:00,train
261,169.99069213867188,172.0,2021-01-21 22:45:55.278000+00:00,train
262,170.05996704101562,172.0,2021-01-21 22:46:55.278000+00:00,train
263,170.11474609375,172.0,2021-01-21 22:47:55.278000+00:00,train
264,170.15756225585938,172.0,2021-01-21 22:48:55.278000+00:00,train
265,170.1909637451172,172.0,2021-01-21 22:49:55.278000+00:00,train
266,170.218017578125,172.0,2021-01-21 22:50:55.278000+00:00,train
267,170.25637817382812,172.0,2021-01-21 22:51:55.278000+00:00,train
268,170.3050537109375,174.0,2021-01-21 22:52:55.278000+00:00,train
269,170.35256958007812,174.0,2021-01-21 22:53:55.278000+00:00,train
270,170.3988800048828,174.0,2021-01-21 22:54:55.278000+00:00,train
271,170.44398498535156,174.0,2021-01-21 22:55:55.278000+00:00,train
272,170.5370635986328,174.0,2021-01-21 22:56:55.278000+00:00,train
273,170.62738037109375,174.0,2021-01-21 22:57:55.278000+00:00,train
274,170.7150421142578,174.0,2021-01-21 22:58:55.278000+00:00,train
275,170.8001708984375,174.0,2021-01-21 22:59:55.278000+00:00,train
276,170.8958282470703,174.0,2021-01-21 23:00:55.278000+00:00,train
277,170.98892211914062,174.0,2021-01-21 23:01:55.278000+00:00,train
278,171.07969665527344,174.0,2021-01-21 23:02:55.278000+00:00,train
279,171.1691436767578,172.0,2021-01-21 23:03:55.278000+00:00,train
280,171.2554168701172,170.0,2021-01-21 23:04:55.278000+00:00,train
281,171.33941650390625,170.0,2021-01-21 23:05:55.278000+00:00,train
282,171.42176818847656,170.0,2021-01-21 23:06:55.278000+00:00,train
283,171.4622344970703,170.0,2021-01-21 23:07:55.278000+00:00,train
284,171.47476196289062,170.0,2021-01-21 23:08:55.278000+00:00,train
285,171.48692321777344,170.0,2021-01-21 23:09:55.278000+00:00,train
286,171.49900817871094,170.0,2021-01-21 23:10:55.278000+00:00,train
287,171.5109100341797,170.0,2021-01-21 23:11:55.278000+00:00,train
288,171.5226593017578,170.0,2021-01-21 23:12:55.278000+00:00,train
289,171.5342254638672,170.0,2021-01-21 23:13:55.278000+00:00,train
290,171.5456085205078,170.0,2021-01-21 23:14:55.278000+00:00,train
291,171.5568084716797,170.0,2021-01-21 23:15:55.278000+00:00,train
292,171.5677947998047,171.0,2021-01-21 23:16:55.278000+00:00,train
293,171.57861328125,172.0,2021-01-21 23:17:55.278000+00:00,train
294,171.5892333984375,172.0,2021-01-21 23:18:55.278000+00:00,train
295,171.59967041015625,172.0,2021-01-21 23:19:55.278000+00:00,train
296,171.62222290039062,172.0,2021-01-21 23:20:55.278000+00:00,train
297,171.65098571777344,172.0,2021-01-21 23:21:55.278000+00:00,train
298,171.67022705078125,172.0,2021-01-21 23:22:55.278000+00:00,train
299,171.6874542236328,172.0,2021-01-21 23:23:55.278000+00:00,train
300,171.70252990722656,172.0,2021-01-21 23:24:55.278000+00:00,train
301,171.71530151367188,172.0,2021-01-21 23:25:55.278000+00:00,train
302,171.7256317138672,172.0,2021-01-21 23:26:55.278000+00:00,train
303,171.75091552734375,173.0,2021-01-21 23:27:55.278000+00:00,train
304,171.77491760253906,174.0,2021-01-21 23:28:55.278000+00:00,train
305,171.79763793945312,174.0,2021-01-21 23:29:55.278000+00:00,train
306,171.81900024414062,174.0,2021-01-21 23:30:55.278000+00:00,train
307,171.85520935058594,174.0,2021-01-21 23:31:55.278000+00:00,train
308,171.90841674804688,174.0,2021-01-21 23:32:55.278000+00:00,train
309,171.95947265625,174.0,2021-01-21 23:33:55.278000+00:00,train
310,172.00845336914062,174.0,2021-01-21 23:34:55.278000+00:00,train
311,172.0552978515625,174.0,2021-01-21 23:35:55.278000+00:00,train
312,172.09999084472656,174.0,2021-01-21 23:36:55.278000+00:00,train
313,172.14248657226562,174.0,2021-01-21 23:37:55.278000+00:00,train
314,172.19027709960938,174.0,2021-01-21 23:38:55.278000+00:00,train
315,172.2412872314453,174.0,2021-01-21 23:39:55.278000+00:00,train
316,172.29090881347656,174.0,2021-01-21 23:40:55.278000+00:00,train
317,172.33920288085938,174.0,2021-01-21 23:41:55.278000+00:00,train
318,172.38613891601562,176.0,2021-01-21 23:42:55.278000+00:00,train
319,172.43174743652344,176.0,2021-01-21 23:43:55.278000+00:00,train
320,172.4760284423828,176.0,2021-01-21 23:44:55.278000+00:00,train
321,172.51895141601562,176.0,2021-01-21 23:45:55.278000+00:00,train
322,172.600830078125,176.0,2021-01-21 23:46:55.278000+00:00,train
323,172.6802978515625,176.0,2021-01-21 23:47:55.278000+00:00,train
324,172.7574462890625,176.0,2021-01-21 23:48:55.278000+00:00,train
325,172.83584594726562,176.0,2021-01-21 23:49:55.278000+00:00,train
326,172.9130859375,176.0,2021-01-21 23:50:55.278000+00:00,train
327,172.98851013183594,176.0,2021-01-21 23:51:55.278000+00:00,train
328,173.0622100830078,176.0,2021-01-21 23:52:55.278000+00:00,train
329,173.13427734375,174.0,2021-01-21 23:53:55.278000+00:00,train
330,173.20474243164062,172.0,2021-01-21 23:54:55.278000+00:00,train
331,173.273681640625,172.0,2021-01-21 23:55:55.278000+00:00,train
332,173.3411407470703,172.0,2021-01-21 23:56:55.278000+00:00,train
333,173.37379455566406,172.0,2021-01-21 23:57:55.278000+00:00,train
334,173.38197326660156,172.0,2021-01-21 23:58:55.278000+00:00,train
335,173.39016723632812,172.0,2021-01-21 23:59:55.278000+00:00,train
336,173.3971405029297,172.0,2021-01-22 00:00:55.278000+00:00,train
337,173.40066528320312,172.0,2021-01-22 00:01:55.278000+00:00,train
338,173.40420532226562,172.0,2021-01-22 00:02:55.278000+00:00,train
339,173.4078369140625,172.0,2021-01-22 00:03:55.278000+00:00,train
340,173.41134643554688,172.0,2021-01-22 00:04:55.278000+00:00,train
341,173.41490173339844,172.0,2021-01-22 00:05:55.278000+00:00,train
342,173.41844177246094,172.0,2021-01-22 00:06:55.278000+00:00,train
343,173.4219512939453,172.0,2021-01-22 00:07:55.278000+00:00,train
344,173.4254608154297,172.0,2021-01-22 00:08:55.278000+00:00,train
345,173.42897033691406,173.0,2021-01-22 00:09:55.278000+00:00,train
346,173.43246459960938,174.0,2021-01-22 00:10:55.278000+00:00,train
347,173.430419921875,174.0,2021-01-22 00:11:55.278000+00:00,train
348,173.42059326171875,174.0,2021-01-22 00:12:55.278000+00:00,train
349,173.4209747314453,174.0,2021-01-22 00:13:55.278000+00:00,train
350,173.4468231201172,174.0,2021-01-22 00:14:55.278000+00:00,train
351,173.4764862060547,174.0,2021-01-22 00:15:55.278000+00:00,train
352,173.50039672851562,174.0,2021-01-22 00:16:55.278000+00:00,train
353,173.52285766601562,174.0,2021-01-22 00:17:55.278000+00:00,train
354,173.54380798339844,174.0,2021-01-22 00:18:55.278000+00:00,train
355,173.56314086914062,174.0,2021-01-22 00:19:55.278000+00:00,train
356,173.5806884765625,174.0,2021-01-22 00:20:55.278000+00:00,train
357,173.6020965576172,174.0,2021-01-22 00:21:55.278000+00:00,train
358,173.62574768066406,174.0,2021-01-22 00:22:55.278000+00:00,train
359,173.64865112304688,175.0,2021-01-22 00:23:55.278000+00:00,train
360,173.6708221435547,176.0,2021-01-22 00:24:55.278000+00:00,train
361,173.69224548339844,176.0,2021-01-22 00:25:55.278000+00:00,train
362,173.7128448486328,176.0,2021-01-22 00:26:55.278000+00:00,train
363,173.7461700439453,176.0,2021-01-22 00:27:55.278000+00:00,train
364,173.7943572998047,176.0,2021-01-22 00:28:55.278000+00:00,train
365,173.84117126464844,176.0,2021-01-22 00:29:55.278000+00:00,train
366,173.8866424560547,176.0,2021-01-22 00:30:55.278000+00:00,train
367,173.93075561523438,176.0,2021-01-22 00:31:55.278000+00:00,train
368,173.97348022460938,176.0,2021-01-22 00:32:55.278000+00:00,train
369,174.0187225341797,176.0,2021-01-22 00:33:55.278000+00:00,train
370,174.0631561279297,176.0,2021-01-22 00:34:55.278000+00:00,train
371,174.1068572998047,176.0,2021-01-22 00:35:55.278000+00:00,train
372,174.1497802734375,176.0,2021-01-22 00:36:55.278000+00:00,train
373,174.19198608398438,176.0,2021-01-22 00:37:55.278000+00:00,train
374,174.23345947265625,178.0,2021-01-22 00:38:55.278000+00:00,train
375,174.2742156982422,178.0,2021-01-22 00:39:55.278000+00:00,train
376,174.31430053710938,178.0,2021-01-22 00:40:55.278000+00:00,train
377,174.35365295410156,172.0,2021-01-22 00:41:55.278000+00:00,train
378,174.42724609375,172.0,2021-01-22 00:42:55.278000+00:00,train
379,174.4991912841797,172.0,2021-01-22 00:43:55.278000+00:00,train
380,174.56829833984375,172.0,2021-01-22 00:44:55.278000+00:00,train
381,174.56092834472656,172.0,2021-01-22 00:45:55.278000+00:00,train
382,174.55392456054688,172.0,2021-01-22 00:46:55.278000+00:00,train
383,174.54710388183594,172.0,2021-01-22 00:47:55.278000+00:00,train
384,174.5403594970703,172.0,2021-01-22 00:48:55.278000+00:00,train
385,174.53366088867188,172.0,2021-01-22 00:49:55.278000+00:00,train
386,174.52699279785156,172.0,2021-01-22 00:50:55.278000+00:00,train
387,174.52037048339844,174.0,2021-01-22 00:51:55.278000+00:00,train
388,174.5137481689453,174.0,2021-01-22 00:52:55.278000+00:00,train
389,174.50717163085938,174.0,2021-01-22 00:53:55.278000+00:00,train
390,174.50064086914062,174.0,2021-01-22 00:54:55.278000+00:00,train
391,174.50888061523438,174.0,2021-01-22 00:55:55.278000+00:00,train
392,174.5024871826172,174.0,2021-01-22 00:56:55.278000+00:00,train
393,174.49607849121094,174.0,2021-01-22 00:57:55.278000+00:00,train
394,174.4896697998047,174.0,2021-01-22 00:58:55.278000+00:00,train
395,174.48326110839844,174.0,2021-01-22 00:59:55.278000+00:00,train
396,174.4768829345703,174.0,2021-01-22 01:00:55.278000+00:00,train
397,174.47048950195312,174.0,2021-01-22 01:01:55.278000+00:00,train
398,172.12989807128906,174.0,2021-01-22 01:02:55.278000+00:00,train
399,172.1289825439453,174.0,2021-01-22 01:03:55.278000+00:00,train
400,172.06768798828125,174.0,2021-01-22 01:04:55.278000+00:00,train
401,172.06687927246094,176.0,2021-01-22 01:05:55.278000+00:00,train
402,172.06605529785156,176.0,2021-01-22 01:06:55.278000+00:00,train
403,172.0378875732422,176.0,2021-01-22 01:07:55.278000+00:00,train
404,172.08953857421875,176.0,2021-01-22 01:08:55.278000+00:00,train
405,172.11135864257812,176.0,2021-01-22 01:09:55.278000+00:00,train
406,172.17276000976562,176.0,2021-01-22 01:10:55.278000+00:00,train
407,172.2351531982422,176.0,2021-01-22 01:11:55.278000+00:00,train
408,172.29864501953125,176.0,2021-01-22 01:12:55.278000+00:00,train
409,172.36329650878906,176.0,2021-01-22 01:13:55.278000+00:00,train
410,172.42918395996094,176.0,2021-01-22 01:14:55.278000+00:00,train
411,172.49635314941406,176.0,2021-01-22 01:15:55.278000+00:00,train
412,172.5648956298828,176.0,2021-01-22 01:16:55.278000+00:00,train
413,172.63482666015625,176.0,2021-01-22 01:17:55.278000+00:00,train
414,172.7062530517578,176.0,2021-01-22 01:18:55.278000+00:00,train
415,172.77920532226562,176.0,2021-01-22 01:19:55.278000+00:00,train
416,172.83157348632812,176.0,2021-01-22 01:20:55.278000+00:00,train
417,172.8662872314453,176.0,2021-01-22 01:21:55.278000+00:00,train
418,172.90150451660156,177.0,2021-01-22 01:22:55.278000+00:00,train
419,172.93727111816406,178.0,2021-01-22 01:23:55.278000+00:00,train
420,172.9735565185547,178.0,2021-01-22 01:24:55.278000+00:00,train
421,173.01039123535156,172.0,2021-01-22 01:25:55.278000+00:00,train
422,173.04782104492188,172.0,2021-01-22 01:26:55.278000+00:00,train
423,173.08238220214844,172.0,2021-01-22 01:27:55.278000+00:00,train
424,173.1180877685547,172.0,2021-01-22 01:28:55.278000+00:00,train
425,173.11666870117188,172.0,2021-01-22 01:29:55.278000+00:00,train
426,173.1156768798828,172.0,2021-01-22 01:30:55.278000+00:00,train
427,173.0992431640625,172.0,2021-01-22 01:31:55.278000+00:00,train
428,173.07122802734375,172.0,2021-01-22 01:32:55.278000+00:00,train
429,173.04347229003906,172.0,2021-01-22 01:33:55.278000+00:00,train
430,173.0159454345703,172.0,2021-01-22 01:34:55.278000+00:00,train
431,172.9895477294922,172.0,2021-01-22 01:35:55.278000+00:00,train
432,172.96363830566406,172.0,2021-01-22 01:36:55.278000+00:00,train
433,172.93722534179688,173.0,2021-01-22 01:37:55.278000+00:00,train
434,172.9107208251953,174.0,2021-01-22 01:38:55.278000+00:00,train
435,172.88427734375,174.0,2021-01-22 01:39:55.278000+00:00,train
436,172.85707092285156,174.0,2021-01-22 01:40:55.278000+00:00,train
437,172.84596252441406,174.0,2021-01-22 01:41:55.278000+00:00,train
438,172.845703125,174.0,2021-01-22 01:42:55.278000+00:00,train
439,172.8452606201172,174.0,2021-01-22 01:43:55.278000+00:00,train
440,172.84474182128906,174.0,2021-01-22 01:44:55.278000+00:00,train
441,172.8441925048828,174.0,2021-01-22 01:45:55.278000+00:00,train
442,172.8323516845703,174.0,2021-01-22 01:46:55.278000+00:00,train
443,172.82066345214844,174.0,2021-01-22 01:47:55.278000+00:00,train
444,172.80909729003906,174.0,2021-01-22 01:48:55.278000+00:00,train
445,172.79771423339844,174.0,2021-01-22 01:49:55.278000+00:00,train
446,172.78646850585938,174.0,2021-01-22 01:50:55.278000+00:00,train
447,172.775390625,174.0,2021-01-22 01:51:55.278000+00:00,train
448,172.76443481445312,174.0,2021-01-22 01:52:55.278000+00:00,train
449,172.75367736816406,174.0,2021-01-22 01:53:55.278000+00:00,train
450,172.74307250976562,176.0,2021-01-22 01:54:55.278000+00:00,train
451,172.73260498046875,176.0,2021-01-22 01:55:55.278000+00:00,train
452,172.72230529785156,176.0,2021-01-22 01:56:55.278000+00:00,train
453,172.72177124023438,176.0,2021-01-22 01:57:55.278000+00:00,train
454,172.75653076171875,176.0,2021-01-22 01:58:55.278000+00:00,train
455,172.79147338867188,176.0,2021-01-22 01:59:55.278000+00:00,train
456,172.8267822265625,176.0,2021-01-22 02:00:55.278000+00:00,train
457,172.86251831054688,176.0,2021-01-22 02:01:55.278000+00:00,train
458,172.8987579345703,176.0,2021-01-22 02:02:55.278000+00:00,train
459,172.93548583984375,176.0,2021-01-22 02:03:55.278000+00:00,train
460,172.97271728515625,176.0,2021-01-22 02:04:55.278000+00:00,train
461,173.010498046875,174.0,2021-01-22 02:05:55.278000+00:00,train
462,173.04879760742188,172.0,2021-01-22 02:06:55.278000+00:00,train
463,173.08766174316406,172.0,2021-01-22 02:07:55.278000+00:00,train
464,173.12705993652344,172.0,2021-01-22 02:08:55.278000+00:00,train
465,173.1540069580078,172.0,2021-01-22 02:09:55.278000+00:00,train
466,173.1532745361328,172.0,2021-01-22 02:10:55.278000+00:00,train
467,173.15267944335938,172.0,2021-01-22 02:11:55.278000+00:00,train
468,173.15216064453125,172.0,2021-01-22 02:12:55.278000+00:00,train
469,173.13568115234375,172.0,2021-01-22 02:13:55.278000+00:00,train
470,173.10731506347656,172.0,2021-01-22 02:14:55.278000+00:00,train
471,173.0791778564453,172.0,2021-01-22 02:15:55.278000+00:00,train
472,173.05123901367188,172.0,2021-01-22 02:16:55.278000+00:00,train
473,173.0235137939453,172.0,2021-01-22 02:17:55.278000+00:00,train
474,172.99598693847656,172.0,2021-01-22 02:18:55.278000+00:00,train
475,172.96865844726562,172.0,2021-01-22 02:19:55.278000+00:00,train
476,172.94151306152344,172.0,2021-01-22 02:20:55.278000+00:00,train
477,172.91458129882812,172.0,2021-01-22 02:21:55.278000+00:00,train
478,172.88783264160156,172.0,2021-01-22 02:22:55.278000+00:00,train
479,172.86126708984375,172.0,2021-01-22 02:23:55.278000+00:00,train
480,172.83485412597656,172.0,2021-01-22 02:24:55.278000+00:00,train
481,172.80865478515625,172.0,2021-01-22 02:25:55.278000+00:00,val
482,172.78260803222656,172.0,2021-01-22 02:26:55.278000+00:00,val
483,172.7494354248047,174.0,2021-01-22 02:27:55.278000+00:00,val
484,172.71295166015625,174.0,2021-01-22 02:28:55.278000+00:00,val
485,172.6769256591797,174.0,2021-01-22 02:29:55.278000+00:00,val
486,172.6414031982422,174.0,2021-01-22 02:30:55.278000+00:00,val
487,172.63082885742188,174.0,2021-01-22 02:31:55.278000+00:00,val
488,172.6203155517578,174.0,2021-01-22 02:32:55.278000+00:00,val
489,172.60992431640625,174.0,2021-01-22 02:33:55.278000+00:00,val
490,172.5996856689453,174.0,2021-01-22 02:34:55.278000+00:00,val
491,172.58958435058594,174.0,2021-01-22 02:35:55.278000+00:00,val
492,172.5796356201172,174.0,2021-01-22 02:36:55.278000+00:00,val
493,172.56985473632812,174.0,2021-01-22 02:37:55.278000+00:00,val
494,172.5602569580078,174.0,2021-01-22 02:38:55.278000+00:00,val
495,172.55081176757812,174.0,2021-01-22 02:39:55.278000+00:00,val
496,172.5415496826172,174.0,2021-01-22 02:40:55.278000+00:00,val
497,172.53245544433594,174.0,2021-01-22 02:41:55.278000+00:00,val
498,172.53053283691406,174.0,2021-01-22 02:42:55.278000+00:00,val
499,172.5299072265625,174.0,2021-01-22 02:43:55.278000+00:00,val
500,172.5306396484375,170.0,2021-01-22 02:44:55.278000+00:00,val
501,172.55361938476562,170.0,2021-01-22 02:45:55.278000+00:00,val
502,172.57676696777344,170.0,2021-01-22 02:46:55.278000+00:00,val
503,172.60011291503906,170.0,2021-01-22 02:47:55.278000+00:00,val
504,172.55999755859375,170.0,2021-01-22 02:48:55.278000+00:00,val
505,172.52029418945312,170.0,2021-01-22 02:49:55.278000+00:00,val
506,172.48101806640625,170.0,2021-01-22 02:50:55.278000+00:00,val
507,172.44223022460938,170.0,2021-01-22 02:51:55.278000+00:00,val
508,172.40386962890625,170.0,2021-01-22 02:52:55.278000+00:00,val
509,172.36593627929688,170.0,2021-01-22 02:53:55.278000+00:00,val
510,172.32839965820312,170.0,2021-01-22 02:54:55.278000+00:00,val
511,172.26931762695312,170.0,2021-01-22 02:55:55.278000+00:00,val
512,172.21112060546875,170.0,2021-01-22 02:56:55.278000+00:00,val
513,172.15379333496094,170.0,2021-01-22 02:57:55.278000+00:00,val
514,172.09727478027344,170.0,2021-01-22 02:58:55.278000+00:00,val
515,172.0415496826172,170.0,2021-01-22 02:59:55.278000+00:00,val
516,171.98655700683594,172.0,2021-01-22 03:00:55.278000+00:00,val
517,171.9323272705078,172.0,2021-01-22 03:01:55.278000+00:00,val
518,171.87875366210938,172.0,2021-01-22 03:02:55.278000+00:00,val
519,171.8258819580078,172.0,2021-01-22 03:03:55.278000+00:00,val
520,171.8056640625,172.0,2021-01-22 03:04:55.278000+00:00,val
521,171.78565979003906,172.0,2021-01-22 03:05:55.278000+00:00,val
522,171.7658233642578,172.0,2021-01-22 03:06:55.278000+00:00,val
523,171.74609375,172.0,2021-01-22 03:07:55.278000+00:00,val
524,171.7265167236328,172.0,2021-01-22 03:08:55.278000+00:00,val
525,171.7010955810547,172.0,2021-01-22 03:09:55.278000+00:00,val
526,171.6761474609375,172.0,2021-01-22 03:10:55.278000+00:00,val
527,171.65171813964844,172.0,2021-01-22 03:11:55.278000+00:00,val
528,171.6277618408203,172.0,2021-01-22 03:12:55.278000+00:00,val
529,171.6043243408203,172.0,2021-01-22 03:13:55.278000+00:00,val
530,171.58140563964844,172.0,2021-01-22 03:14:55.278000+00:00,val
531,171.5590057373047,172.0,2021-01-22 03:15:55.278000+00:00,val
532,171.53717041015625,172.0,2021-01-22 03:16:55.278000+00:00,val
533,171.51583862304688,174.0,2021-01-22 03:17:55.278000+00:00,val
534,171.49510192871094,174.0,2021-01-22 03:18:55.278000+00:00,val
535,171.47491455078125,174.0,2021-01-22 03:19:55.278000+00:00,val
536,171.45533752441406,168.0,2021-01-22 03:20:55.278000+00:00,val
537,171.4530792236328,168.0,2021-01-22 03:21:55.278000+00:00,val
538,171.4508514404297,168.0,2021-01-22 03:22:55.278000+00:00,val
539,171.4487762451172,168.0,2021-01-22 03:23:55.278000+00:00,val
540,171.35687255859375,168.0,2021-01-22 03:24:55.278000+00:00,val
541,171.2671356201172,168.0,2021-01-22 03:25:55.278000+00:00,val
542,171.1842803955078,168.0,2021-01-22 03:26:55.278000+00:00,val
543,171.1123504638672,168.0,2021-01-22 03:27:55.278000+00:00,val
544,171.04342651367188,168.0,2021-01-22 03:28:55.278000+00:00,val
545,170.9746551513672,168.0,2021-01-22 03:29:55.278000+00:00,val
546,170.90713500976562,168.0,2021-01-22 03:30:55.278000+00:00,val
547,170.8407440185547,168.0,2021-01-22 03:31:55.278000+00:00,val
548,170.7754364013672,168.0,2021-01-22 03:32:55.278000+00:00,val
549,170.71115112304688,168.0,2021-01-22 03:33:55.278000+00:00,val
550,170.64784240722656,168.0,2021-01-22 03:34:55.278000+00:00,val
551,170.58541870117188,169.0,2021-01-22 03:35:55.278000+00:00,val
552,170.52386474609375,170.0,2021-01-22 03:36:55.278000+00:00,val
553,170.46311950683594,170.0,2021-01-22 03:37:55.278000+00:00,val
554,170.4031982421875,170.0,2021-01-22 03:38:55.278000+00:00,val
555,170.36273193359375,170.0,2021-01-22 03:39:55.278000+00:00,val
556,170.33860778808594,170.0,2021-01-22 03:40:55.278000+00:00,val
557,170.3074188232422,170.0,2021-01-22 03:41:55.278000+00:00,val
558,170.27223205566406,170.0,2021-01-22 03:42:55.278000+00:00,val
559,170.23744201660156,170.0,2021-01-22 03:43:55.278000+00:00,val
560,170.20309448242188,170.0,2021-01-22 03:44:55.278000+00:00,val
561,170.16912841796875,170.0,2021-01-22 03:45:55.278000+00:00,val
562,170.13555908203125,170.0,2021-01-22 03:46:55.278000+00:00,val
563,170.10240173339844,170.0,2021-01-22 03:47:55.278000+00:00,val
564,170.06964111328125,170.0,2021-01-22 03:48:55.278000+00:00,val
565,170.03724670410156,170.0,2021-01-22 03:49:55.278000+00:00,val
566,170.00527954101562,170.0,2021-01-22 03:50:55.278000+00:00,val
567,169.97369384765625,170.0,2021-01-22 03:51:55.278000+00:00,val
568,169.9425048828125,170.0,2021-01-22 03:52:55.278000+00:00,val
569,169.9116973876953,166.0,2021-01-22 03:53:55.278000+00:00,val
570,169.8813018798828,166.0,2021-01-22 03:54:55.278000+00:00,val
571,169.85130310058594,166.0,2021-01-22 03:55:55.278000+00:00,val
572,169.82171630859375,166.0,2021-01-22 03:56:55.278000+00:00,val
573,169.71876525878906,166.0,2021-01-22 03:57:55.278000+00:00,val
574,169.62094116210938,166.0,2021-01-22 03:58:55.278000+00:00,val
575,169.5254669189453,166.0,2021-01-22 03:59:55.278000+00:00,val
576,169.43235778808594,166.0,2021-01-22 04:00:55.278000+00:00,val
577,169.3416290283203,166.0,2021-01-22 04:01:55.278000+00:00,val
578,169.25326538085938,166.0,2021-01-22 04:02:55.278000+00:00,val
579,169.167236328125,166.0,2021-01-22 04:03:55.278000+00:00,val
580,169.0835418701172,166.0,2021-01-22 04:04:55.278000+00:00,val
581,169.00221252441406,166.0,2021-01-22 04:05:55.278000+00:00,val
582,168.92318725585938,166.0,2021-01-22 04:06:55.278000+00:00,val
583,168.8465576171875,166.0,2021-01-22 04:07:55.278000+00:00,val
584,168.77230834960938,167.0,2021-01-22 04:08:55.278000+00:00,val
585,168.69232177734375,168.0,2021-01-22 04:09:55.278000+00:00,val
586,168.6168975830078,168.0,2021-01-22 04:10:55.278000+00:00,val
587,168.54266357421875,168.0,2021-01-22 04:11:55.278000+00:00,val
588,168.48800659179688,168.0,2021-01-22 04:12:55.278000+00:00,val
589,168.4499053955078,168.0,2021-01-22 04:13:55.278000+00:00,val
590,168.4122772216797,168.0,2021-01-22 04:14:55.278000+00:00,val
591,168.3750762939453,168.0,2021-01-22 04:15:55.278000+00:00,val
592,168.33828735351562,168.0,2021-01-22 04:16:55.278000+00:00,val
593,168.30189514160156,168.0,2021-01-22 04:17:55.278000+00:00,val
594,168.26588439941406,168.0,2021-01-22 04:18:55.278000+00:00,val
595,168.23025512695312,168.0,2021-01-22 04:19:55.278000+00:00,val
596,168.1949920654297,168.0,2021-01-22 04:20:55.278000+00:00,val
597,168.1601104736328,168.0,2021-01-22 04:21:55.278000+00:00,val
598,168.12559509277344,168.0,2021-01-22 04:22:55.278000+00:00,val
599,168.09146118164062,164.0,2021-01-22 04:23:55.278000+00:00,val
600,168.05767822265625,164.0,2021-01-22 04:24:55.278000+00:00,val
601,168.02426147460938,164.0,2021-01-22 04:25:55.278000+00:00,val
602,167.9912109375,164.0,2021-01-22 04:26:55.278000+00:00,val
603,167.8861846923828,164.0,2021-01-22 04:27:55.278000+00:00,val
604,167.7830352783203,164.0,2021-01-22 04:28:55.278000+00:00,val
605,167.68185424804688,164.0,2021-01-22 04:29:55.278000+00:00,val
606,167.58261108398438,164.0,2021-01-22 04:30:55.278000+00:00,val
607,167.4852294921875,164.0,2021-01-22 04:31:55.278000+00:00,val
608,167.39010620117188,164.0,2021-01-22 04:32:55.278000+00:00,val
609,167.2971954345703,164.0,2021-01-22 04:33:55.278000+00:00,val
610,167.2064666748047,164.0,2021-01-22 04:34:55.278000+00:00,val
611,167.11793518066406,164.0,2021-01-22 04:35:55.278000+00:00,val
612,167.0315704345703,164.0,2021-01-22 04:36:55.278000+00:00,val
613,166.9473419189453,164.0,2021-01-22 04:37:55.278000+00:00,val
614,166.8652801513672,164.0,2021-01-22 04:38:55.278000+00:00,val
615,166.78536987304688,164.0,2021-01-22 04:39:55.278000+00:00,val
616,166.70761108398438,164.0,2021-01-22 04:40:55.278000+00:00,val
617,166.63201904296875,164.0,2021-01-22 04:41:55.278000+00:00,val
618,166.55862426757812,164.0,2021-01-22 04:42:55.278000+00:00,val
619,166.48741149902344,164.0,2021-01-22 04:43:55.278000+00:00,val
620,166.41848754882812,166.0,2021-01-22 04:44:55.278000+00:00,val
621,166.351806640625,166.0,2021-01-22 04:45:55.278000+00:00,val
622,166.28746032714844,166.0,2021-01-22 04:46:55.278000+00:00,val
623,166.22549438476562,166.0,2021-01-22 04:47:55.278000+00:00,val
624,166.1914520263672,166.0,2021-01-22 04:48:55.278000+00:00,val
625,166.1579132080078,163.0,2021-01-22 04:49:55.278000+00:00,val
626,166.12484741210938,160.0,2021-01-22 04:50:55.278000+00:00,val
627,166.09222412109375,160.0,2021-01-22 04:51:55.278000+00:00,val
628,166.0600128173828,160.0,2021-01-22 04:52:55.278000+00:00,val
629,165.98155212402344,160.0,2021-01-22 04:53:55.278000+00:00,val
630,165.8399200439453,160.0,2021-01-22 04:54:55.278000+00:00,val
631,165.7028350830078,160.0,2021-01-22 04:55:55.278000+00:00,val
632,165.57029724121094,160.0,2021-01-22 04:56:55.278000+00:00,val
633,165.44227600097656,160.0,2021-01-22 04:57:55.278000+00:00,val
634,165.31849670410156,160.0,2021-01-22 04:58:55.278000+00:00,val
635,165.19876098632812,161.0,2021-01-22 04:59:55.278000+00:00,val
636,165.08297729492188,162.0,2021-01-22 05:00:55.278000+00:00,val
637,164.970947265625,162.0,2021-01-22 05:01:55.278000+00:00,val
638,164.8625030517578,162.0,2021-01-22 05:02:55.278000+00:00,val
639,164.77528381347656,162.0,2021-01-22 05:03:55.278000+00:00,val
640,164.70651245117188,162.0,2021-01-22 05:04:55.278000+00:00,val
641,164.63978576660156,162.0,2021-01-22 05:05:55.278000+00:00,val
642,164.57464599609375,162.0,2021-01-22 05:06:55.278000+00:00,val
643,164.5106658935547,162.0,2021-01-22 05:07:55.278000+00:00,val
644,164.4473114013672,162.0,2021-01-22 05:08:55.278000+00:00,val
645,164.38389587402344,162.0,2021-01-22 05:09:55.278000+00:00,val
646,164.3197784423828,162.0,2021-01-22 05:10:55.278000+00:00,val
647,164.25405883789062,162.0,2021-01-22 05:11:55.278000+00:00,val
648,164.18545532226562,162.0,2021-01-22 05:12:55.278000+00:00,val
649,164.11288452148438,162.0,2021-01-22 05:13:55.278000+00:00,val
650,164.03477478027344,158.0,2021-01-22 05:14:55.278000+00:00,val
651,163.94964599609375,158.0,2021-01-22 05:15:55.278000+00:00,val
652,163.85598754882812,158.0,2021-01-22 05:16:55.278000+00:00,test
653,163.75205993652344,158.0,2021-01-22 05:17:55.278000+00:00,test
654,163.54429626464844,158.0,2021-01-22 05:18:55.278000+00:00,test
655,163.32232666015625,158.0,2021-01-22 05:19:55.278000+00:00,test
656,163.09133911132812,158.0,2021-01-22 05:20:55.278000+00:00,test
657,162.85772705078125,158.0,2021-01-22 05:21:55.278000+00:00,test
658,162.63323974609375,158.0,2021-01-22 05:22:55.278000+00:00,test
659,162.41806030273438,158.0,2021-01-22 05:23:55.278000+00:00,test
660,162.2246551513672,158.0,2021-01-22 05:24:55.278000+00:00,test
661,162.03553771972656,158.0,2021-01-22 05:25:55.278000+00:00,test
662,161.85269165039062,158.0,2021-01-22 05:26:55.278000+00:00,test
663,161.6771697998047,158.0,2021-01-22 05:27:55.278000+00:00,test
664,161.5089874267578,158.0,2021-01-22 05:28:55.278000+00:00,test
665,161.3479766845703,158.0,2021-01-22 05:29:55.278000+00:00,test
666,161.19403076171875,158.0,2021-01-22 05:30:55.278000+00:00,test
667,161.04730224609375,158.0,2021-01-22 05:31:55.278000+00:00,test
668,160.90899658203125,158.0,2021-01-22 05:32:55.278000+00:00,test
669,160.77825927734375,158.0,2021-01-22 05:33:55.278000+00:00,test
670,160.6537628173828,158.0,2021-01-22 05:34:55.278000+00:00,test
671,160.53448486328125,157.0,2021-01-22 05:35:55.278000+00:00,test
672,160.4196319580078,154.0,2021-01-22 05:36:55.278000+00:00,test
673,160.3085479736328,154.0,2021-01-22 05:37:55.278000+00:00,test
674,160.20098876953125,154.0,2021-01-22 05:38:55.278000+00:00,test
675,160.07640075683594,154.0,2021-01-22 05:39:55.278000+00:00,test
676,159.88548278808594,154.0,2021-01-22 05:40:55.278000+00:00,test
677,159.70175170898438,154.0,2021-01-22 05:41:55.278000+00:00,test
678,159.52444458007812,154.0,2021-01-22 05:42:55.278000+00:00,test
679,159.35299682617188,154.0,2021-01-22 05:43:55.278000+00:00,test
680,159.1869354248047,154.0,2021-01-22 05:44:55.278000+00:00,test
681,159.02584838867188,154.0,2021-01-22 05:45:55.278000+00:00,test
682,158.86941528320312,154.0,2021-01-22 05:46:55.278000+00:00,test
683,158.71731567382812,154.0,2021-01-22 05:47:55.278000+00:00,test
684,158.56935119628906,154.0,2021-01-22 05:48:55.278000+00:00,test
685,158.42527770996094,154.0,2021-01-22 05:49:55.278000+00:00,test
686,158.2849578857422,154.0,2021-01-22 05:50:55.278000+00:00,test
687,158.14830017089844,156.0,2021-01-22 05:51:55.278000+00:00,test
688,158.01516723632812,156.0,2021-01-22 05:52:55.278000+00:00,test
689,157.885498046875,156.0,2021-01-22 05:53:55.278000+00:00,test
690,157.75926208496094,150.0,2021-01-22 05:54:55.278000+00:00,test
691,157.6759490966797,150.0,2021-01-22 05:55:55.278000+00:00,test
692,157.59536743164062,150.0,2021-01-22 05:56:55.278000+00:00,test
693,157.50384521484375,150.0,2021-01-22 05:57:55.278000+00:00,test
694,157.27809143066406,150.0,2021-01-22 05:58:55.278000+00:00,test
695,157.05787658691406,150.0,2021-01-22 05:59:55.278000+00:00,test
696,156.8429412841797,150.0,2021-01-22 06:00:55.278000+00:00,test
697,156.63299560546875,150.0,2021-01-22 06:01:55.278000+00:00,test
698,156.42776489257812,150.0,2021-01-22 06:02:55.278000+00:00,test
699,156.2270050048828,150.0,2021-01-22 06:03:55.278000+00:00,test
700,156.03048706054688,152.0,2021-01-22 06:04:55.278000+00:00,test
701,155.8380126953125,152.0,2021-01-22 06:05:55.278000+00:00,test
702,155.64944458007812,152.0,2021-01-22 06:06:55.278000+00:00,test
703,155.46458435058594,152.0,2021-01-22 06:07:55.278000+00:00,test
704,155.32582092285156,152.0,2021-01-22 06:08:55.278000+00:00,test
705,155.1894989013672,150.0,2021-01-22 06:09:55.278000+00:00,test
706,155.05555725097656,148.0,2021-01-22 06:10:55.278000+00:00,test
707,154.9239501953125,148.0,2021-01-22 06:11:55.278000+00:00,test
708,154.79623413085938,148.0,2021-01-22 06:12:55.278000+00:00,test
709,154.6338348388672,148.0,2021-01-22 06:13:55.278000+00:00,test
710,154.4296875,148.0,2021-01-22 06:14:55.278000+00:00,test
711,154.2302703857422,148.0,2021-01-22 06:15:55.278000+00:00,test
712,154.03553771972656,148.0,2021-01-22 06:16:55.278000+00:00,test
713,153.8453826904297,148.0,2021-01-22 06:17:55.278000+00:00,test
714,153.65975952148438,148.0,2021-01-22 06:18:55.278000+00:00,test
715,153.47862243652344,148.0,2021-01-22 06:19:55.278000+00:00,test
716,153.30189514160156,148.0,2021-01-22 06:20:55.278000+00:00,test
717,153.12954711914062,148.0,2021-01-22 06:21:55.278000+00:00,test
718,152.9615936279297,144.0,2021-01-22 06:22:55.278000+00:00,test
719,152.7979736328125,144.0,2021-01-22 06:23:55.278000+00:00,test
720,152.6387176513672,144.0,2021-01-22 06:24:55.278000+00:00,test
721,152.4838409423828,144.0,2021-01-22 06:25:55.278000+00:00,test
722,152.23973083496094,144.0,2021-01-22 06:26:55.278000+00:00,test
