,prediction,real,time,split
0,157.32460021972656,156.0,2021-01-21 18:16:55.278000+00:00,train
1,157.30935668945312,156.0,2021-01-21 18:17:55.278000+00:00,train
2,157.31027221679688,154.0,2021-01-21 18:18:55.278000+00:00,train
3,157.3112030029297,154.0,2021-01-21 18:19:55.278000+00:00,train
4,157.31216430664062,156.0,2021-01-21 18:20:55.278000+00:00,train
5,157.31312561035156,156.0,2021-01-21 18:21:55.278000+00:00,train
6,157.2980499267578,156.0,2021-01-21 18:22:55.278000+00:00,train
7,157.27548217773438,156.0,2021-01-21 18:23:55.278000+00:00,train
8,157.25323486328125,156.0,2021-01-21 18:24:55.278000+00:00,train
9,157.23133850097656,156.0,2021-01-21 18:25:55.278000+00:00,train
10,157.20977783203125,156.0,2021-01-21 18:26:55.278000+00:00,train
11,157.18858337402344,156.0,2021-01-21 18:27:55.278000+00:00,train
12,157.16769409179688,156.0,2021-01-21 18:28:55.278000+00:00,train
13,157.14715576171875,156.0,2021-01-21 18:29:55.278000+00:00,train
14,157.12698364257812,156.0,2021-01-21 18:30:55.278000+00:00,train
15,157.10711669921875,156.0,2021-01-21 18:31:55.278000+00:00,train
16,156.95053100585938,156.0,2021-01-21 18:32:55.278000+00:00,train
17,156.79905700683594,156.0,2021-01-21 18:33:55.278000+00:00,train
18,156.54403686523438,156.0,2021-01-21 18:34:55.278000+00:00,train
19,156.30062866210938,156.0,2021-01-21 18:35:55.278000+00:00,train
20,156.170166015625,156.0,2021-01-21 18:36:55.278000+00:00,train
21,156.0541229248047,156.0,2021-01-21 18:37:55.278000+00:00,train
22,155.94287109375,156.0,2021-01-21 18:38:55.278000+00:00,train
23,155.83627319335938,156.0,2021-01-21 18:39:55.278000+00:00,train
24,155.7342529296875,158.0,2021-01-21 18:40:55.278000+00:00,train
25,155.63670349121094,158.0,2021-01-21 18:41:55.278000+00:00,train
26,155.54359436035156,158.0,2021-01-21 18:42:55.278000+00:00,train
27,155.45484924316406,158.0,2021-01-21 18:43:55.278000+00:00,train
28,155.37045288085938,158.0,2021-01-21 18:44:55.278000+00:00,train
29,155.29043579101562,158.0,2021-01-21 18:45:55.278000+00:00,train
30,155.2147216796875,158.0,2021-01-21 18:46:55.278000+00:00,train
31,155.14334106445312,158.0,2021-01-21 18:47:55.278000+00:00,train
32,155.07626342773438,158.0,2021-01-21 18:48:55.278000+00:00,train
33,155.0135498046875,158.0,2021-01-21 18:49:55.278000+00:00,train
34,154.95521545410156,158.0,2021-01-21 18:50:55.278000+00:00,train
35,154.9013214111328,158.0,2021-01-21 18:51:55.278000+00:00,train
36,154.91036987304688,156.0,2021-01-21 18:52:55.278000+00:00,train
37,154.92922973632812,154.0,2021-01-21 18:53:55.278000+00:00,train
38,154.95875549316406,153.0,2021-01-21 18:54:55.278000+00:00,train
39,155.00022888183594,152.0,2021-01-21 18:55:55.278000+00:00,train
40,155.0314178466797,152.0,2021-01-21 18:56:55.278000+00:00,train
41,155.01332092285156,153.0,2021-01-21 18:57:55.278000+00:00,train
42,154.99403381347656,154.0,2021-01-21 18:58:55.278000+00:00,train
43,154.97503662109375,154.0,2021-01-21 18:59:55.278000+00:00,train
44,154.95632934570312,154.0,2021-01-21 19:00:55.278000+00:00,train
45,154.93795776367188,154.0,2021-01-21 19:01:55.278000+00:00,train
46,154.91993713378906,154.0,2021-01-21 19:02:55.278000+00:00,train
47,154.90219116210938,154.0,2021-01-21 19:03:55.278000+00:00,train
48,154.88473510742188,154.0,2021-01-21 19:04:55.278000+00:00,train
49,154.8675994873047,154.0,2021-01-21 19:05:55.278000+00:00,train
50,154.85072326660156,154.0,2021-01-21 19:06:55.278000+00:00,train
51,154.83404541015625,154.0,2021-01-21 19:07:55.278000+00:00,train
52,154.7691650390625,154.0,2021-01-21 19:08:55.278000+00:00,train
53,154.62730407714844,154.0,2021-01-21 19:09:55.278000+00:00,train
54,154.44058227539062,154.0,2021-01-21 19:10:55.278000+00:00,train
55,154.2059783935547,154.0,2021-01-21 19:11:55.278000+00:00,train
56,153.98507690429688,154.0,2021-01-21 19:12:55.278000+00:00,train
57,153.83554077148438,154.0,2021-01-21 19:13:55.278000+00:00,train
58,153.7354736328125,154.0,2021-01-21 19:14:55.278000+00:00,train
59,153.6397247314453,154.0,2021-01-21 19:15:55.278000+00:00,train
60,153.5487823486328,154.0,2021-01-21 19:16:55.278000+00:00,train
61,153.46218872070312,154.0,2021-01-21 19:17:55.278000+00:00,train
62,153.37991333007812,154.0,2021-01-21 19:18:55.278000+00:00,train
63,153.3019561767578,154.0,2021-01-21 19:19:55.278000+00:00,train
64,153.2283477783203,154.0,2021-01-21 19:20:55.278000+00:00,train
65,153.15908813476562,154.0,2021-01-21 19:21:55.278000+00:00,train
66,153.09425354003906,156.0,2021-01-21 19:22:55.278000+00:00,train
67,153.03387451171875,156.0,2021-01-21 19:23:55.278000+00:00,train
68,152.9780731201172,156.0,2021-01-21 19:24:55.278000+00:00,train
69,152.92689514160156,156.0,2021-01-21 19:25:55.278000+00:00,train
70,152.8804931640625,156.0,2021-01-21 19:26:55.278000+00:00,train
71,152.83897399902344,151.0,2021-01-21 19:27:55.278000+00:00,train
72,152.80250549316406,150.0,2021-01-21 19:28:55.278000+00:00,train
73,152.7712860107422,150.0,2021-01-21 19:29:55.278000+00:00,train
74,152.7454833984375,150.0,2021-01-21 19:30:55.278000+00:00,train
75,152.7253875732422,150.0,2021-01-21 19:31:55.278000+00:00,train
76,152.7117919921875,150.0,2021-01-21 19:32:55.278000+00:00,train
77,152.70492553710938,150.0,2021-01-21 19:33:55.278000+00:00,train
78,152.70492553710938,150.0,2021-01-21 19:34:55.278000+00:00,train
79,152.64666748046875,150.0,2021-01-21 19:35:55.278000+00:00,train
80,152.5850830078125,150.0,2021-01-21 19:36:55.278000+00:00,train
81,152.52481079101562,152.0,2021-01-21 19:37:55.278000+00:00,train
82,152.50726318359375,152.0,2021-01-21 19:38:55.278000+00:00,train
83,152.48953247070312,152.0,2021-01-21 19:39:55.278000+00:00,train
84,152.47119140625,152.0,2021-01-21 19:40:55.278000+00:00,train
85,152.45260620117188,152.0,2021-01-21 19:41:55.278000+00:00,train
86,152.4338836669922,152.0,2021-01-21 19:42:55.278000+00:00,train
87,152.2504119873047,152.0,2021-01-21 19:43:55.278000+00:00,train
88,152.01785278320312,152.0,2021-01-21 19:44:55.278000+00:00,train
89,151.7950439453125,152.0,2021-01-21 19:45:55.278000+00:00,train
90,151.58145141601562,152.0,2021-01-21 19:46:55.278000+00:00,train
91,151.3766632080078,152.0,2021-01-21 19:47:55.278000+00:00,train
92,151.18063354492188,152.0,2021-01-21 19:48:55.278000+00:00,train
93,150.9932403564453,152.0,2021-01-21 19:49:55.278000+00:00,train
94,150.8142852783203,152.0,2021-01-21 19:50:55.278000+00:00,train
95,150.64390563964844,153.0,2021-01-21 19:51:55.278000+00:00,train
96,150.48231506347656,154.0,2021-01-21 19:52:55.278000+00:00,train
97,150.40985107421875,154.0,2021-01-21 19:53:55.278000+00:00,train
98,150.34774780273438,154.0,2021-01-21 19:54:55.278000+00:00,train
99,150.3099822998047,154.0,2021-01-21 19:55:55.278000+00:00,train
100,150.31228637695312,154.0,2021-01-21 19:56:55.278000+00:00,train
101,150.34376525878906,156.0,2021-01-21 19:57:55.278000+00:00,train
102,150.4161834716797,156.0,2021-01-21 19:58:55.278000+00:00,train
103,151.5980224609375,156.0,2021-01-21 19:59:55.278000+00:00,train
104,153.37965393066406,156.0,2021-01-21 20:00:55.278000+00:00,train
105,155.10079956054688,156.0,2021-01-21 20:01:55.278000+00:00,train
106,156.54302978515625,156.0,2021-01-21 20:02:55.278000+00:00,train
107,157.28268432617188,156.0,2021-01-21 20:03:55.278000+00:00,train
108,157.63278198242188,156.0,2021-01-21 20:04:55.278000+00:00,train
109,157.83091735839844,156.0,2021-01-21 20:05:55.278000+00:00,train
110,157.89967346191406,158.0,2021-01-21 20:06:55.278000+00:00,train
111,158.0079345703125,158.0,2021-01-21 20:07:55.278000+00:00,train
112,158.0920867919922,158.0,2021-01-21 20:08:55.278000+00:00,train
113,158.05844116210938,158.0,2021-01-21 20:09:55.278000+00:00,train
114,157.97933959960938,158.0,2021-01-21 20:10:55.278000+00:00,train
115,157.8717803955078,158.0,2021-01-21 20:11:55.278000+00:00,train
116,157.88311767578125,158.0,2021-01-21 20:12:55.278000+00:00,train
117,157.93280029296875,158.0,2021-01-21 20:13:55.278000+00:00,train
118,157.9995574951172,159.0,2021-01-21 20:14:55.278000+00:00,train
119,158.0561981201172,160.0,2021-01-21 20:15:55.278000+00:00,train
120,158.07977294921875,160.0,2021-01-21 20:16:55.278000+00:00,train
121,158.10052490234375,158.0,2021-01-21 20:17:55.278000+00:00,train
122,158.1172332763672,156.0,2021-01-21 20:18:55.278000+00:00,train
123,158.13458251953125,156.0,2021-01-21 20:19:55.278000+00:00,train
124,158.14895629882812,156.0,2021-01-21 20:20:55.278000+00:00,train
125,158.16114807128906,156.0,2021-01-21 20:21:55.278000+00:00,train
126,158.2324676513672,156.0,2021-01-21 20:22:55.278000+00:00,train
127,158.3017120361328,156.0,2021-01-21 20:23:55.278000+00:00,train
128,158.36927795410156,156.0,2021-01-21 20:24:55.278000+00:00,train
129,158.43739318847656,156.0,2021-01-21 20:25:55.278000+00:00,train
130,158.5039520263672,156.0,2021-01-21 20:26:55.278000+00:00,train
131,158.570068359375,156.0,2021-01-21 20:27:55.278000+00:00,train
132,158.63572692871094,156.0,2021-01-21 20:28:55.278000+00:00,train
133,158.70001220703125,156.0,2021-01-21 20:29:55.278000+00:00,train
134,158.80130004882812,157.0,2021-01-21 20:30:55.278000+00:00,train
135,158.9447479248047,158.0,2021-01-21 20:31:55.278000+00:00,train
136,159.0848388671875,158.0,2021-01-21 20:32:55.278000+00:00,train
137,159.1551513671875,158.0,2021-01-21 20:33:55.278000+00:00,train
138,159.18719482421875,158.0,2021-01-21 20:34:55.278000+00:00,train
139,159.21336364746094,158.0,2021-01-21 20:35:55.278000+00:00,train
140,159.17987060546875,158.0,2021-01-21 20:36:55.278000+00:00,train
141,159.1412811279297,158.0,2021-01-21 20:37:55.278000+00:00,train
142,159.10072326660156,158.0,2021-01-21 20:38:55.278000+00:00,train
143,159.0569305419922,160.0,2021-01-21 20:39:55.278000+00:00,train
144,159.01132202148438,160.0,2021-01-21 20:40:55.278000+00:00,train
145,158.96412658691406,160.0,2021-01-21 20:41:55.278000+00:00,train
146,158.9150390625,160.0,2021-01-21 20:42:55.278000+00:00,train
147,158.86477661132812,160.0,2021-01-21 20:43:55.278000+00:00,train
148,158.81338500976562,160.0,2021-01-21 20:44:55.278000+00:00,train
149,158.7606201171875,160.0,2021-01-21 20:45:55.278000+00:00,train
150,158.73260498046875,160.0,2021-01-21 20:46:55.278000+00:00,train
151,158.7373809814453,161.0,2021-01-21 20:47:55.278000+00:00,train
152,158.80059814453125,162.0,2021-01-21 20:48:55.278000+00:00,train
153,158.89144897460938,162.0,2021-01-21 20:49:55.278000+00:00,train
154,158.98330688476562,162.0,2021-01-21 20:50:55.278000+00:00,train
155,159.06787109375,162.0,2021-01-21 20:51:55.278000+00:00,train
156,159.14990234375,162.0,2021-01-21 20:52:55.278000+00:00,train
157,159.23472595214844,162.0,2021-01-21 20:53:55.278000+00:00,train
158,159.31610107421875,162.0,2021-01-21 20:54:55.278000+00:00,train
159,159.47605895996094,162.0,2021-01-21 20:55:55.278000+00:00,train
160,159.6315460205078,164.0,2021-01-21 20:56:55.278000+00:00,train
161,159.7828369140625,164.0,2021-01-21 20:57:55.278000+00:00,train
162,159.93043518066406,164.0,2021-01-21 20:58:55.278000+00:00,train
163,160.07420349121094,164.0,2021-01-21 20:59:55.278000+00:00,train
164,160.2143096923828,164.0,2021-01-21 21:00:55.278000+00:00,train
165,160.3512420654297,164.0,2021-01-21 21:01:55.278000+00:00,train
166,160.48480224609375,164.0,2021-01-21 21:02:55.278000+00:00,train
167,160.65786743164062,164.0,2021-01-21 21:03:55.278000+00:00,train
168,160.8737030029297,165.0,2021-01-21 21:04:55.278000+00:00,train
169,161.08265686035156,166.0,2021-01-21 21:05:55.278000+00:00,train
170,161.2853240966797,166.0,2021-01-21 21:06:55.278000+00:00,train
171,161.48207092285156,166.0,2021-01-21 21:07:55.278000+00:00,train
172,161.67308044433594,166.0,2021-01-21 21:08:55.278000+00:00,train
173,161.85879516601562,166.0,2021-01-21 21:09:55.278000+00:00,train
174,162.03944396972656,166.0,2021-01-21 21:10:55.278000+00:00,train
175,162.2151336669922,166.0,2021-01-21 21:11:55.278000+00:00,train
176,162.48004150390625,166.0,2021-01-21 21:12:55.278000+00:00,train
177,162.7359619140625,166.0,2021-01-21 21:13:55.278000+00:00,train
178,162.98348999023438,166.0,2021-01-21 21:14:55.278000+00:00,train
179,163.22341918945312,166.0,2021-01-21 21:15:55.278000+00:00,train
180,163.45501708984375,165.0,2021-01-21 21:16:55.278000+00:00,train
181,163.68040466308594,163.0,2021-01-21 21:17:55.278000+00:00,train
182,163.8940887451172,162.0,2021-01-21 21:18:55.278000+00:00,train
183,164.10252380371094,162.0,2021-01-21 21:19:55.278000+00:00,train
184,164.35096740722656,162.0,2021-01-21 21:20:55.278000+00:00,train
185,164.64108276367188,162.0,2021-01-21 21:21:55.278000+00:00,train
186,164.922607421875,162.0,2021-01-21 21:22:55.278000+00:00,train
187,165.1708526611328,164.0,2021-01-21 21:23:55.278000+00:00,train
188,165.39022827148438,164.0,2021-01-21 21:24:55.278000+00:00,train
189,165.59840393066406,164.0,2021-01-21 21:25:55.278000+00:00,train
190,165.79563903808594,164.0,2021-01-21 21:26:55.278000+00:00,train
191,165.98204040527344,164.0,2021-01-21 21:27:55.278000+00:00,train
192,166.1575927734375,164.0,2021-01-21 21:28:55.278000+00:00,train
193,166.32237243652344,164.0,2021-01-21 21:29:55.278000+00:00,train
194,166.47637939453125,164.0,2021-01-21 21:30:55.278000+00:00,train
195,166.61949157714844,164.0,2021-01-21 21:31:55.278000+00:00,train
196,166.71337890625,164.0,2021-01-21 21:32:55.278000+00:00,train
197,166.77708435058594,164.0,2021-01-21 21:33:55.278000+00:00,train
198,166.808837890625,165.0,2021-01-21 21:34:55.278000+00:00,train
199,166.835205078125,166.0,2021-01-21 21:35:55.278000+00:00,train
200,166.85606384277344,166.0,2021-01-21 21:36:55.278000+00:00,train
201,166.87136840820312,166.0,2021-01-21 21:37:55.278000+00:00,train
202,166.8808135986328,166.0,2021-01-21 21:38:55.278000+00:00,train
203,166.93849182128906,166.0,2021-01-21 21:39:55.278000+00:00,train
204,166.98870849609375,166.0,2021-01-21 21:40:55.278000+00:00,train
205,167.03125,166.0,2021-01-21 21:41:55.278000+00:00,train
206,167.06597900390625,166.0,2021-01-21 21:42:55.278000+00:00,train
207,167.0924835205078,166.0,2021-01-21 21:43:55.278000+00:00,train
208,167.11048889160156,166.0,2021-01-21 21:44:55.278000+00:00,train
209,167.1196746826172,167.0,2021-01-21 21:45:55.278000+00:00,train
210,167.11953735351562,168.0,2021-01-21 21:46:55.278000+00:00,train
211,167.1387939453125,168.0,2021-01-21 21:47:55.278000+00:00,train
212,167.17529296875,168.0,2021-01-21 21:48:55.278000+00:00,train
213,167.20574951171875,168.0,2021-01-21 21:49:55.278000+00:00,train
214,167.2605743408203,168.0,2021-01-21 21:50:55.278000+00:00,train
215,167.3435821533203,168.0,2021-01-21 21:51:55.278000+00:00,train
216,167.41839599609375,168.0,2021-01-21 21:52:55.278000+00:00,train
217,167.52723693847656,168.0,2021-01-21 21:53:55.278000+00:00,train
218,167.6304931640625,168.0,2021-01-21 21:54:55.278000+00:00,train
219,167.72808837890625,168.0,2021-01-21 21:55:55.278000+00:00,train
220,167.8200225830078,169.0,2021-01-21 21:56:55.278000+00:00,train
221,167.90628051757812,170.0,2021-01-21 21:57:55.278000+00:00,train
222,167.9867401123047,170.0,2021-01-21 21:58:55.278000+00:00,train
223,168.0613555908203,170.0,2021-01-21 21:59:55.278000+00:00,train
224,168.12998962402344,170.0,2021-01-21 22:00:55.278000+00:00,train
225,168.22756958007812,170.0,2021-01-21 22:01:55.278000+00:00,train
226,168.38912963867188,170.0,2021-01-21 22:02:55.278000+00:00,train
227,168.54368591308594,170.0,2021-01-21 22:03:55.278000+00:00,train
228,168.69119262695312,170.0,2021-01-21 22:04:55.278000+00:00,train
229,168.8315887451172,170.0,2021-01-21 22:05:55.278000+00:00,train
230,168.96463012695312,170.0,2021-01-21 22:06:55.278000+00:00,train
231,169.09002685546875,171.0,2021-01-21 22:07:55.278000+00:00,train
232,169.20736694335938,172.0,2021-01-21 22:08:55.278000+00:00,train
233,169.3160400390625,172.0,2021-01-21 22:09:55.278000+00:00,train
234,169.42799377441406,170.0,2021-01-21 22:10:55.278000+00:00,train
235,169.53956604003906,168.0,2021-01-21 22:11:55.278000+00:00,train
236,169.67672729492188,166.0,2021-01-21 22:12:55.278000+00:00,train
237,169.8114471435547,166.0,2021-01-21 22:13:55.278000+00:00,train
238,169.86976623535156,166.0,2021-01-21 22:14:55.278000+00:00,train
239,169.88194274902344,166.0,2021-01-21 22:15:55.278000+00:00,train
240,169.83468627929688,166.0,2021-01-21 22:16:55.278000+00:00,train
241,169.73489379882812,167.0,2021-01-21 22:17:55.278000+00:00,train
242,169.60647583007812,168.0,2021-01-21 22:18:55.278000+00:00,train
243,169.4871826171875,168.0,2021-01-21 22:19:55.278000+00:00,train
244,169.40208435058594,168.0,2021-01-21 22:20:55.278000+00:00,train
245,169.359375,168.0,2021-01-21 22:21:55.278000+00:00,train
246,169.35641479492188,168.0,2021-01-21 22:22:55.278000+00:00,train
247,169.4127960205078,168.0,2021-01-21 22:23:55.278000+00:00,train
248,169.52670288085938,168.0,2021-01-21 22:24:55.278000+00:00,train
249,169.65325927734375,168.0,2021-01-21 22:25:55.278000+00:00,train
250,169.73269653320312,168.0,2021-01-21 22:26:55.278000+00:00,train
251,169.7728729248047,168.0,2021-01-21 22:27:55.278000+00:00,train
252,169.77125549316406,168.0,2021-01-21 22:28:55.278000+00:00,train
253,169.7673797607422,170.0,2021-01-21 22:29:55.278000+00:00,train
254,169.76077270507812,170.0,2021-01-21 22:30:55.278000+00:00,train
255,169.7508544921875,170.0,2021-01-21 22:31:55.278000+00:00,train
256,169.73715209960938,170.0,2021-01-21 22:32:55.278000+00:00,train
257,169.73707580566406,170.0,2021-01-21 22:33:55.278000+00:00,train
258,169.75381469726562,170.0,2021-01-21 22:34:55.278000+00:00,train
259,169.80079650878906,170.0,2021-01-21 22:35:55.278000+00:00,train
260,169.84442138671875,170.0,2021-01-21 22:36:55.278000+00:00,train
261,169.88388061523438,170.0,2021-01-21 22:37:55.278000+00:00,train
262,169.9180450439453,170.0,2021-01-21 22:38:55.278000+00:00,train
263,169.94615173339844,170.0,2021-01-21 22:39:55.278000+00:00,train
264,169.96786499023438,171.0,2021-01-21 22:40:55.278000+00:00,train
265,169.98284912109375,172.0,2021-01-21 22:41:55.278000+00:00,train
266,169.9905548095703,172.0,2021-01-21 22:42:55.278000+00:00,train
267,170.0111541748047,172.0,2021-01-21 22:43:55.278000+00:00,train
268,170.04222106933594,172.0,2021-01-21 22:44:55.278000+00:00,train
269,170.1265106201172,172.0,2021-01-21 22:45:55.278000+00:00,train
270,170.20489501953125,172.0,2021-01-21 22:46:55.278000+00:00,train
271,170.2772216796875,172.0,2021-01-21 22:47:55.278000+00:00,train
272,170.34315490722656,172.0,2021-01-21 22:48:55.278000+00:00,train
273,170.40257263183594,172.0,2021-01-21 22:49:55.278000+00:00,train
274,170.45513916015625,172.0,2021-01-21 22:50:55.278000+00:00,train
275,170.50042724609375,172.0,2021-01-21 22:51:55.278000+00:00,train
276,170.5665740966797,174.0,2021-01-21 22:52:55.278000+00:00,train
277,170.62820434570312,174.0,2021-01-21 22:53:55.278000+00:00,train
278,170.68508911132812,174.0,2021-01-21 22:54:55.278000+00:00,train
279,170.7373504638672,174.0,2021-01-21 22:55:55.278000+00:00,train
280,170.8151092529297,174.0,2021-01-21 22:56:55.278000+00:00,train
281,170.9194793701172,174.0,2021-01-21 22:57:55.278000+00:00,train
282,171.01454162597656,174.0,2021-01-21 22:58:55.278000+00:00,train
283,171.1005096435547,174.0,2021-01-21 22:59:55.278000+00:00,train
284,171.18833923339844,174.0,2021-01-21 23:00:55.278000+00:00,train
285,171.27444458007812,174.0,2021-01-21 23:01:55.278000+00:00,train
286,171.3551483154297,174.0,2021-01-21 23:02:55.278000+00:00,train
287,171.43099975585938,172.0,2021-01-21 23:03:55.278000+00:00,train
288,171.5025634765625,170.0,2021-01-21 23:04:55.278000+00:00,train
289,171.5704803466797,170.0,2021-01-21 23:05:55.278000+00:00,train
290,171.63540649414062,170.0,2021-01-21 23:06:55.278000+00:00,train
291,171.6977996826172,170.0,2021-01-21 23:07:55.278000+00:00,train
292,171.8192901611328,170.0,2021-01-21 23:08:55.278000+00:00,train
293,171.93653869628906,170.0,2021-01-21 23:09:55.278000+00:00,train
294,172.05023193359375,170.0,2021-01-21 23:10:55.278000+00:00,train
295,172.16110229492188,170.0,2021-01-21 23:11:55.278000+00:00,train
296,172.26504516601562,170.0,2021-01-21 23:12:55.278000+00:00,train
297,172.3455352783203,170.0,2021-01-21 23:13:55.278000+00:00,train
298,172.40773010253906,170.0,2021-01-21 23:14:55.278000+00:00,train
299,172.4683074951172,170.0,2021-01-21 23:15:55.278000+00:00,train
300,172.5264434814453,171.0,2021-01-21 23:16:55.278000+00:00,train
301,172.58163452148438,172.0,2021-01-21 23:17:55.278000+00:00,train
302,172.63331604003906,172.0,2021-01-21 23:18:55.278000+00:00,train
303,172.6624298095703,172.0,2021-01-21 23:19:55.278000+00:00,train
304,172.65553283691406,172.0,2021-01-21 23:20:55.278000+00:00,train
305,172.64700317382812,172.0,2021-01-21 23:21:55.278000+00:00,train
306,172.6368865966797,172.0,2021-01-21 23:22:55.278000+00:00,train
307,172.6248779296875,172.0,2021-01-21 23:23:55.278000+00:00,train
308,172.61082458496094,172.0,2021-01-21 23:24:55.278000+00:00,train
309,172.59483337402344,172.0,2021-01-21 23:25:55.278000+00:00,train
310,172.5764617919922,172.0,2021-01-21 23:26:55.278000+00:00,train
311,172.5557403564453,173.0,2021-01-21 23:27:55.278000+00:00,train
312,172.53240966796875,174.0,2021-01-21 23:28:55.278000+00:00,train
313,172.50625610351562,174.0,2021-01-21 23:29:55.278000+00:00,train
314,172.4931640625,174.0,2021-01-21 23:30:55.278000+00:00,train
315,172.4896240234375,174.0,2021-01-21 23:31:55.278000+00:00,train
316,172.49832153320312,174.0,2021-01-21 23:32:55.278000+00:00,train
317,172.52398681640625,174.0,2021-01-21 23:33:55.278000+00:00,train
318,172.54782104492188,174.0,2021-01-21 23:34:55.278000+00:00,train
319,172.5696258544922,174.0,2021-01-21 23:35:55.278000+00:00,train
320,172.58973693847656,174.0,2021-01-21 23:36:55.278000+00:00,train
321,172.60768127441406,174.0,2021-01-21 23:37:55.278000+00:00,train
322,172.6234588623047,174.0,2021-01-21 23:38:55.278000+00:00,train
323,172.63735961914062,174.0,2021-01-21 23:39:55.278000+00:00,train
324,172.64898681640625,174.0,2021-01-21 23:40:55.278000+00:00,train
325,172.66859436035156,174.0,2021-01-21 23:41:55.278000+00:00,train
326,172.69155883789062,176.0,2021-01-21 23:42:55.278000+00:00,train
327,172.734619140625,176.0,2021-01-21 23:43:55.278000+00:00,train
328,172.80242919921875,176.0,2021-01-21 23:44:55.278000+00:00,train
329,172.8677520751953,176.0,2021-01-21 23:45:55.278000+00:00,train
330,172.93026733398438,176.0,2021-01-21 23:46:55.278000+00:00,train
331,172.99078369140625,176.0,2021-01-21 23:47:55.278000+00:00,train
332,173.0487060546875,176.0,2021-01-21 23:48:55.278000+00:00,train
333,173.1040496826172,176.0,2021-01-21 23:49:55.278000+00:00,train
334,173.15774536132812,176.0,2021-01-21 23:50:55.278000+00:00,train
335,173.2086944580078,176.0,2021-01-21 23:51:55.278000+00:00,train
336,173.25875854492188,176.0,2021-01-21 23:52:55.278000+00:00,train
337,173.303466796875,174.0,2021-01-21 23:53:55.278000+00:00,train
338,173.3458709716797,172.0,2021-01-21 23:54:55.278000+00:00,train
339,173.38534545898438,172.0,2021-01-21 23:55:55.278000+00:00,train
340,173.44338989257812,172.0,2021-01-21 23:56:55.278000+00:00,train
341,173.4805145263672,172.0,2021-01-21 23:57:55.278000+00:00,train
342,173.570556640625,172.0,2021-01-21 23:58:55.278000+00:00,train
343,173.6555633544922,172.0,2021-01-21 23:59:55.278000+00:00,train
344,173.73550415039062,172.0,2021-01-22 00:00:55.278000+00:00,train
345,173.81236267089844,172.0,2021-01-22 00:01:55.278000+00:00,train
346,173.88438415527344,172.0,2021-01-22 00:02:55.278000+00:00,train
347,173.94586181640625,172.0,2021-01-22 00:03:55.278000+00:00,train
348,173.99508666992188,172.0,2021-01-22 00:04:55.278000+00:00,train
349,174.03921508789062,172.0,2021-01-22 00:05:55.278000+00:00,train
350,174.1072540283203,172.0,2021-01-22 00:06:55.278000+00:00,train
351,174.1829376220703,172.0,2021-01-22 00:07:55.278000+00:00,train
352,174.24400329589844,172.0,2021-01-22 00:08:55.278000+00:00,train
353,174.2589111328125,173.0,2021-01-22 00:09:55.278000+00:00,train
354,174.24270629882812,174.0,2021-01-22 00:10:55.278000+00:00,train
355,174.22512817382812,174.0,2021-01-22 00:11:55.278000+00:00,train
356,174.2046661376953,174.0,2021-01-22 00:12:55.278000+00:00,train
357,174.19219970703125,174.0,2021-01-22 00:13:55.278000+00:00,train
358,174.18670654296875,174.0,2021-01-22 00:14:55.278000+00:00,train
359,174.17971801757812,174.0,2021-01-22 00:15:55.278000+00:00,train
360,174.17189025878906,174.0,2021-01-22 00:16:55.278000+00:00,train
361,174.16329956054688,174.0,2021-01-22 00:17:55.278000+00:00,train
362,174.153076171875,174.0,2021-01-22 00:18:55.278000+00:00,train
363,174.14198303222656,174.0,2021-01-22 00:19:55.278000+00:00,train
364,174.1300048828125,174.0,2021-01-22 00:20:55.278000+00:00,train
365,174.1163330078125,174.0,2021-01-22 00:21:55.278000+00:00,train
366,174.10166931152344,174.0,2021-01-22 00:22:55.278000+00:00,train
367,174.08599853515625,175.0,2021-01-22 00:23:55.278000+00:00,train
368,174.0685272216797,176.0,2021-01-22 00:24:55.278000+00:00,train
369,174.07167053222656,176.0,2021-01-22 00:25:55.278000+00:00,train
370,174.08782958984375,176.0,2021-01-22 00:26:55.278000+00:00,train
371,174.1022186279297,176.0,2021-01-22 00:27:55.278000+00:00,train
372,174.11669921875,176.0,2021-01-22 00:28:55.278000+00:00,train
373,174.12948608398438,176.0,2021-01-22 00:29:55.278000+00:00,train
374,174.14041137695312,176.0,2021-01-22 00:30:55.278000+00:00,train
375,174.1514434814453,176.0,2021-01-22 00:31:55.278000+00:00,train
376,174.16067504882812,176.0,2021-01-22 00:32:55.278000+00:00,train
377,174.1689453125,176.0,2021-01-22 00:33:55.278000+00:00,train
378,174.17636108398438,176.0,2021-01-22 00:34:55.278000+00:00,train
379,174.1815185546875,176.0,2021-01-22 00:35:55.278000+00:00,train
380,174.18670654296875,176.0,2021-01-22 00:36:55.278000+00:00,train
381,174.1901397705078,176.0,2021-01-22 00:37:55.278000+00:00,train
382,174.19186401367188,178.0,2021-01-22 00:38:55.278000+00:00,train
383,174.2091064453125,178.0,2021-01-22 00:39:55.278000+00:00,train
384,174.24514770507812,178.0,2021-01-22 00:40:55.278000+00:00,train
385,174.27793884277344,172.0,2021-01-22 00:41:55.278000+00:00,train
386,174.3086700439453,172.0,2021-01-22 00:42:55.278000+00:00,train
387,174.33746337890625,172.0,2021-01-22 00:43:55.278000+00:00,train
388,174.362548828125,172.0,2021-01-22 00:44:55.278000+00:00,train
389,174.3871307373047,172.0,2021-01-22 00:45:55.278000+00:00,train
390,174.40782165527344,172.0,2021-01-22 00:46:55.278000+00:00,train
391,174.4228973388672,172.0,2021-01-22 00:47:55.278000+00:00,train
392,174.4300537109375,172.0,2021-01-22 00:48:55.278000+00:00,train
393,174.4350128173828,172.0,2021-01-22 00:49:55.278000+00:00,train
394,174.43719482421875,172.0,2021-01-22 00:50:55.278000+00:00,train
395,174.44015502929688,174.0,2021-01-22 00:51:55.278000+00:00,train
396,174.44076538085938,174.0,2021-01-22 00:52:55.278000+00:00,train
397,174.43853759765625,174.0,2021-01-22 00:53:55.278000+00:00,train
398,174.47344970703125,174.0,2021-01-22 00:54:55.278000+00:00,train
399,174.51077270507812,174.0,2021-01-22 00:55:55.278000+00:00,train
400,174.5187530517578,174.0,2021-01-22 00:56:55.278000+00:00,train
401,174.46331787109375,174.0,2021-01-22 00:57:55.278000+00:00,train
402,174.4027862548828,174.0,2021-01-22 00:58:55.278000+00:00,train
403,174.36712646484375,174.0,2021-01-22 00:59:55.278000+00:00,train
404,174.35165405273438,174.0,2021-01-22 01:00:55.278000+00:00,train
405,174.33778381347656,174.0,2021-01-22 01:01:55.278000+00:00,train
406,174.32260131835938,174.0,2021-01-22 01:02:55.278000+00:00,train
407,174.30572509765625,174.0,2021-01-22 01:03:55.278000+00:00,train
408,174.29046630859375,174.0,2021-01-22 01:04:55.278000+00:00,train
409,174.27378845214844,176.0,2021-01-22 01:05:55.278000+00:00,train
410,174.25538635253906,176.0,2021-01-22 01:06:55.278000+00:00,train
411,174.2587890625,176.0,2021-01-22 01:07:55.278000+00:00,train
412,174.26065063476562,176.0,2021-01-22 01:08:55.278000+00:00,train
413,174.26248168945312,176.0,2021-01-22 01:09:55.278000+00:00,train
414,174.2641143798828,176.0,2021-01-22 01:10:55.278000+00:00,train
415,174.26318359375,176.0,2021-01-22 01:11:55.278000+00:00,train
416,174.25904846191406,176.0,2021-01-22 01:12:55.278000+00:00,train
417,174.25296020507812,176.0,2021-01-22 01:13:55.278000+00:00,train
418,174.24551391601562,176.0,2021-01-22 01:14:55.278000+00:00,train
419,174.23789978027344,176.0,2021-01-22 01:15:55.278000+00:00,train
420,174.2302703857422,176.0,2021-01-22 01:16:55.278000+00:00,train
421,174.2209930419922,176.0,2021-01-22 01:17:55.278000+00:00,train
422,174.21304321289062,176.0,2021-01-22 01:18:55.278000+00:00,train
423,174.20359802246094,176.0,2021-01-22 01:19:55.278000+00:00,train
424,174.1920623779297,176.0,2021-01-22 01:20:55.278000+00:00,train
425,174.2031707763672,176.0,2021-01-22 01:21:55.278000+00:00,train
426,174.21038818359375,177.0,2021-01-22 01:22:55.278000+00:00,train
427,174.21315002441406,178.0,2021-01-22 01:23:55.278000+00:00,train
428,174.21405029296875,178.0,2021-01-22 01:24:55.278000+00:00,train
429,174.21392822265625,172.0,2021-01-22 01:25:55.278000+00:00,train
430,174.21250915527344,172.0,2021-01-22 01:26:55.278000+00:00,train
431,174.21177673339844,172.0,2021-01-22 01:27:55.278000+00:00,train
432,174.2099151611328,172.0,2021-01-22 01:28:55.278000+00:00,train
433,174.20782470703125,172.0,2021-01-22 01:29:55.278000+00:00,train
434,174.20559692382812,172.0,2021-01-22 01:30:55.278000+00:00,train
435,174.20216369628906,172.0,2021-01-22 01:31:55.278000+00:00,train
436,174.19850158691406,172.0,2021-01-22 01:32:55.278000+00:00,train
437,174.1947021484375,172.0,2021-01-22 01:33:55.278000+00:00,train
438,174.18960571289062,172.0,2021-01-22 01:34:55.278000+00:00,train
439,174.18406677246094,172.0,2021-01-22 01:35:55.278000+00:00,train
440,174.17787170410156,172.0,2021-01-22 01:36:55.278000+00:00,train
441,174.1692352294922,173.0,2021-01-22 01:37:55.278000+00:00,train
442,174.1573944091797,174.0,2021-01-22 01:38:55.278000+00:00,train
443,174.15101623535156,174.0,2021-01-22 01:39:55.278000+00:00,train
444,174.143310546875,174.0,2021-01-22 01:40:55.278000+00:00,train
445,174.07461547851562,174.0,2021-01-22 01:41:55.278000+00:00,train
446,174.005126953125,174.0,2021-01-22 01:42:55.278000+00:00,train
447,173.93475341796875,174.0,2021-01-22 01:43:55.278000+00:00,train
448,173.8654327392578,174.0,2021-01-22 01:44:55.278000+00:00,train
449,173.79566955566406,174.0,2021-01-22 01:45:55.278000+00:00,train
450,173.72532653808594,174.0,2021-01-22 01:46:55.278000+00:00,train
451,173.65594482421875,174.0,2021-01-22 01:47:55.278000+00:00,train
452,173.58563232421875,174.0,2021-01-22 01:48:55.278000+00:00,train
453,173.53759765625,174.0,2021-01-22 01:49:55.278000+00:00,train
454,173.51260375976562,174.0,2021-01-22 01:50:55.278000+00:00,train
455,173.4884490966797,174.0,2021-01-22 01:51:55.278000+00:00,train
456,173.4638214111328,174.0,2021-01-22 01:52:55.278000+00:00,train
457,173.4536590576172,174.0,2021-01-22 01:53:55.278000+00:00,train
458,173.45729064941406,176.0,2021-01-22 01:54:55.278000+00:00,train
459,173.46067810058594,176.0,2021-01-22 01:55:55.278000+00:00,train
460,173.4636688232422,176.0,2021-01-22 01:56:55.278000+00:00,train
461,173.46775817871094,176.0,2021-01-22 01:57:55.278000+00:00,train
462,173.47158813476562,176.0,2021-01-22 01:58:55.278000+00:00,train
463,173.47576904296875,176.0,2021-01-22 01:59:55.278000+00:00,train
464,173.48036193847656,176.0,2021-01-22 02:00:55.278000+00:00,train
465,173.48452758789062,176.0,2021-01-22 02:01:55.278000+00:00,train
466,173.48883056640625,176.0,2021-01-22 02:02:55.278000+00:00,train
467,173.49305725097656,176.0,2021-01-22 02:03:55.278000+00:00,train
468,173.49571228027344,176.0,2021-01-22 02:04:55.278000+00:00,train
469,173.48797607421875,174.0,2021-01-22 02:05:55.278000+00:00,train
470,173.47206115722656,172.0,2021-01-22 02:06:55.278000+00:00,train
471,173.45590209960938,172.0,2021-01-22 02:07:55.278000+00:00,train
472,173.43988037109375,172.0,2021-01-22 02:08:55.278000+00:00,train
473,173.4240264892578,172.0,2021-01-22 02:09:55.278000+00:00,train
474,173.4249725341797,172.0,2021-01-22 02:10:55.278000+00:00,train
475,173.4264373779297,172.0,2021-01-22 02:11:55.278000+00:00,train
476,173.42770385742188,172.0,2021-01-22 02:12:55.278000+00:00,train
477,173.42868041992188,172.0,2021-01-22 02:13:55.278000+00:00,train
478,173.4301300048828,172.0,2021-01-22 02:14:55.278000+00:00,train
479,173.431396484375,172.0,2021-01-22 02:15:55.278000+00:00,train
480,173.4322967529297,172.0,2021-01-22 02:16:55.278000+00:00,train
481,173.43360900878906,172.0,2021-01-22 02:17:55.278000+00:00,train
482,173.434326171875,172.0,2021-01-22 02:18:55.278000+00:00,train
483,173.4266815185547,172.0,2021-01-22 02:19:55.278000+00:00,train
484,173.41334533691406,172.0,2021-01-22 02:20:55.278000+00:00,train
485,173.38192749023438,172.0,2021-01-22 02:21:55.278000+00:00,train
486,173.3165283203125,172.0,2021-01-22 02:22:55.278000+00:00,train
487,173.25173950195312,172.0,2021-01-22 02:23:55.278000+00:00,train
488,173.1873321533203,172.0,2021-01-22 02:24:55.278000+00:00,train
489,173.12353515625,172.0,2021-01-22 02:25:55.278000+00:00,val
490,173.0604248046875,172.0,2021-01-22 02:26:55.278000+00:00,val
491,172.9976806640625,174.0,2021-01-22 02:27:55.278000+00:00,val
492,172.93563842773438,174.0,2021-01-22 02:28:55.278000+00:00,val
493,172.87429809570312,174.0,2021-01-22 02:29:55.278000+00:00,val
494,172.8134002685547,174.0,2021-01-22 02:30:55.278000+00:00,val
495,172.7534637451172,174.0,2021-01-22 02:31:55.278000+00:00,val
496,172.69403076171875,174.0,2021-01-22 02:32:55.278000+00:00,val
497,172.63499450683594,174.0,2021-01-22 02:33:55.278000+00:00,val
498,172.5843963623047,174.0,2021-01-22 02:34:55.278000+00:00,val
499,172.53646850585938,174.0,2021-01-22 02:35:55.278000+00:00,val
500,172.49136352539062,174.0,2021-01-22 02:36:55.278000+00:00,val
501,172.47708129882812,174.0,2021-01-22 02:37:55.278000+00:00,val
502,172.46290588378906,174.0,2021-01-22 02:38:55.278000+00:00,val
503,172.44886779785156,174.0,2021-01-22 02:39:55.278000+00:00,val
504,172.4346466064453,174.0,2021-01-22 02:40:55.278000+00:00,val
505,172.42080688476562,174.0,2021-01-22 02:41:55.278000+00:00,val
506,172.4068603515625,174.0,2021-01-22 02:42:55.278000+00:00,val
507,172.42294311523438,174.0,2021-01-22 02:43:55.278000+00:00,val
508,172.43960571289062,170.0,2021-01-22 02:44:55.278000+00:00,val
509,172.45628356933594,170.0,2021-01-22 02:45:55.278000+00:00,val
510,172.47262573242188,170.0,2021-01-22 02:46:55.278000+00:00,val
511,172.46290588378906,170.0,2021-01-22 02:47:55.278000+00:00,val
512,172.45314025878906,170.0,2021-01-22 02:48:55.278000+00:00,val
513,172.44332885742188,170.0,2021-01-22 02:49:55.278000+00:00,val
514,172.4337615966797,170.0,2021-01-22 02:50:55.278000+00:00,val
515,172.42416381835938,170.0,2021-01-22 02:51:55.278000+00:00,val
516,172.41464233398438,170.0,2021-01-22 02:52:55.278000+00:00,val
517,172.4052276611328,170.0,2021-01-22 02:53:55.278000+00:00,val
518,172.39578247070312,170.0,2021-01-22 02:54:55.278000+00:00,val
519,172.3864288330078,170.0,2021-01-22 02:55:55.278000+00:00,val
520,172.37718200683594,170.0,2021-01-22 02:56:55.278000+00:00,val
521,172.36788940429688,170.0,2021-01-22 02:57:55.278000+00:00,val
522,172.35867309570312,170.0,2021-01-22 02:58:55.278000+00:00,val
523,172.34954833984375,170.0,2021-01-22 02:59:55.278000+00:00,val
524,172.25357055664062,172.0,2021-01-22 03:00:55.278000+00:00,val
525,172.15167236328125,172.0,2021-01-22 03:01:55.278000+00:00,val
526,172.0521240234375,172.0,2021-01-22 03:02:55.278000+00:00,val
527,171.95472717285156,172.0,2021-01-22 03:03:55.278000+00:00,val
528,171.85964965820312,172.0,2021-01-22 03:04:55.278000+00:00,val
529,171.76657104492188,172.0,2021-01-22 03:05:55.278000+00:00,val
530,171.67547607421875,172.0,2021-01-22 03:06:55.278000+00:00,val
531,171.58653259277344,172.0,2021-01-22 03:07:55.278000+00:00,val
532,171.49954223632812,172.0,2021-01-22 03:08:55.278000+00:00,val
533,171.4144287109375,172.0,2021-01-22 03:09:55.278000+00:00,val
534,171.33145141601562,172.0,2021-01-22 03:10:55.278000+00:00,val
535,171.25038146972656,172.0,2021-01-22 03:11:55.278000+00:00,val
536,171.17129516601562,172.0,2021-01-22 03:12:55.278000+00:00,val
537,171.09420776367188,172.0,2021-01-22 03:13:55.278000+00:00,val
538,171.01904296875,172.0,2021-01-22 03:14:55.278000+00:00,val
539,170.94590759277344,172.0,2021-01-22 03:15:55.278000+00:00,val
540,170.91676330566406,172.0,2021-01-22 03:16:55.278000+00:00,val
541,170.88888549804688,174.0,2021-01-22 03:17:55.278000+00:00,val
542,170.87269592285156,174.0,2021-01-22 03:18:55.278000+00:00,val
543,170.87669372558594,174.0,2021-01-22 03:19:55.278000+00:00,val
544,170.88621520996094,168.0,2021-01-22 03:20:55.278000+00:00,val
545,170.8792724609375,168.0,2021-01-22 03:21:55.278000+00:00,val
546,170.87246704101562,168.0,2021-01-22 03:22:55.278000+00:00,val
547,170.8657684326172,168.0,2021-01-22 03:23:55.278000+00:00,val
548,170.8590545654297,168.0,2021-01-22 03:24:55.278000+00:00,val
549,170.85240173339844,168.0,2021-01-22 03:25:55.278000+00:00,val
550,170.8457794189453,168.0,2021-01-22 03:26:55.278000+00:00,val
551,170.8396453857422,168.0,2021-01-22 03:27:55.278000+00:00,val
552,170.83399963378906,168.0,2021-01-22 03:28:55.278000+00:00,val
553,170.8284454345703,168.0,2021-01-22 03:29:55.278000+00:00,val
554,170.82289123535156,168.0,2021-01-22 03:30:55.278000+00:00,val
555,170.81748962402344,168.0,2021-01-22 03:31:55.278000+00:00,val
556,170.81167602539062,168.0,2021-01-22 03:32:55.278000+00:00,val
557,170.8120574951172,168.0,2021-01-22 03:33:55.278000+00:00,val
558,170.80691528320312,168.0,2021-01-22 03:34:55.278000+00:00,val
559,170.8018035888672,169.0,2021-01-22 03:35:55.278000+00:00,val
560,170.66781616210938,170.0,2021-01-22 03:36:55.278000+00:00,val
561,170.53785705566406,170.0,2021-01-22 03:37:55.278000+00:00,val
562,170.41152954101562,170.0,2021-01-22 03:38:55.278000+00:00,val
563,170.2886199951172,170.0,2021-01-22 03:39:55.278000+00:00,val
564,170.1688995361328,170.0,2021-01-22 03:40:55.278000+00:00,val
565,170.05209350585938,170.0,2021-01-22 03:41:55.278000+00:00,val
566,169.93814086914062,170.0,2021-01-22 03:42:55.278000+00:00,val
567,169.82679748535156,170.0,2021-01-22 03:43:55.278000+00:00,val
568,169.7179412841797,170.0,2021-01-22 03:44:55.278000+00:00,val
569,169.611572265625,170.0,2021-01-22 03:45:55.278000+00:00,val
570,169.50746154785156,170.0,2021-01-22 03:46:55.278000+00:00,val
571,169.40557861328125,170.0,2021-01-22 03:47:55.278000+00:00,val
572,169.3058624267578,170.0,2021-01-22 03:48:55.278000+00:00,val
573,169.20822143554688,170.0,2021-01-22 03:49:55.278000+00:00,val
574,169.1237335205078,170.0,2021-01-22 03:50:55.278000+00:00,val
575,169.06964111328125,170.0,2021-01-22 03:51:55.278000+00:00,val
576,169.04017639160156,170.0,2021-01-22 03:52:55.278000+00:00,val
577,169.013427734375,166.0,2021-01-22 03:53:55.278000+00:00,val
578,168.9893798828125,166.0,2021-01-22 03:54:55.278000+00:00,val
579,168.9682159423828,166.0,2021-01-22 03:55:55.278000+00:00,val
580,168.95018005371094,166.0,2021-01-22 03:56:55.278000+00:00,val
581,168.93533325195312,166.0,2021-01-22 03:57:55.278000+00:00,val
582,168.9239501953125,166.0,2021-01-22 03:58:55.278000+00:00,val
583,168.91624450683594,166.0,2021-01-22 03:59:55.278000+00:00,val
584,168.9123992919922,166.0,2021-01-22 04:00:55.278000+00:00,val
585,168.88583374023438,166.0,2021-01-22 04:01:55.278000+00:00,val
586,168.8587188720703,166.0,2021-01-22 04:02:55.278000+00:00,val
587,168.83193969726562,166.0,2021-01-22 04:03:55.278000+00:00,val
588,168.80540466308594,166.0,2021-01-22 04:04:55.278000+00:00,val
589,168.77911376953125,166.0,2021-01-22 04:05:55.278000+00:00,val
590,168.75314331054688,166.0,2021-01-22 04:06:55.278000+00:00,val
591,168.72744750976562,166.0,2021-01-22 04:07:55.278000+00:00,val
592,168.70201110839844,167.0,2021-01-22 04:08:55.278000+00:00,val
593,168.56011962890625,168.0,2021-01-22 04:09:55.278000+00:00,val
594,168.42242431640625,168.0,2021-01-22 04:10:55.278000+00:00,val
595,168.28858947753906,168.0,2021-01-22 04:11:55.278000+00:00,val
596,168.1583709716797,168.0,2021-01-22 04:12:55.278000+00:00,val
597,168.0314483642578,168.0,2021-01-22 04:13:55.278000+00:00,val
598,167.90765380859375,168.0,2021-01-22 04:14:55.278000+00:00,val
599,167.7868194580078,168.0,2021-01-22 04:15:55.278000+00:00,val
600,167.668701171875,168.0,2021-01-22 04:16:55.278000+00:00,val
601,167.55323791503906,168.0,2021-01-22 04:17:55.278000+00:00,val
602,167.44027709960938,168.0,2021-01-22 04:18:55.278000+00:00,val
603,167.32968139648438,168.0,2021-01-22 04:19:55.278000+00:00,val
604,167.221435546875,168.0,2021-01-22 04:20:55.278000+00:00,val
605,167.11537170410156,168.0,2021-01-22 04:21:55.278000+00:00,val
606,167.01141357421875,168.0,2021-01-22 04:22:55.278000+00:00,val
607,166.9166259765625,164.0,2021-01-22 04:23:55.278000+00:00,val
608,166.8527069091797,164.0,2021-01-22 04:24:55.278000+00:00,val
609,166.8140106201172,164.0,2021-01-22 04:25:55.278000+00:00,val
610,166.77749633789062,164.0,2021-01-22 04:26:55.278000+00:00,val
611,166.7431182861328,164.0,2021-01-22 04:27:55.278000+00:00,val
612,166.71099853515625,164.0,2021-01-22 04:28:55.278000+00:00,val
613,166.6812286376953,164.0,2021-01-22 04:29:55.278000+00:00,val
614,166.65382385253906,164.0,2021-01-22 04:30:55.278000+00:00,val
615,166.6289520263672,164.0,2021-01-22 04:31:55.278000+00:00,val
616,166.60670471191406,164.0,2021-01-22 04:32:55.278000+00:00,val
617,166.58714294433594,164.0,2021-01-22 04:33:55.278000+00:00,val
618,166.57044982910156,164.0,2021-01-22 04:34:55.278000+00:00,val
619,166.5567626953125,164.0,2021-01-22 04:35:55.278000+00:00,val
620,166.54620361328125,164.0,2021-01-22 04:36:55.278000+00:00,val
621,166.5389862060547,164.0,2021-01-22 04:37:55.278000+00:00,val
622,166.53538513183594,164.0,2021-01-22 04:38:55.278000+00:00,val
623,166.41485595703125,164.0,2021-01-22 04:39:55.278000+00:00,val
624,166.27203369140625,164.0,2021-01-22 04:40:55.278000+00:00,val
625,166.13304138183594,164.0,2021-01-22 04:41:55.278000+00:00,val
626,165.99761962890625,164.0,2021-01-22 04:42:55.278000+00:00,val
627,165.8655242919922,164.0,2021-01-22 04:43:55.278000+00:00,val
628,165.73658752441406,166.0,2021-01-22 04:44:55.278000+00:00,val
629,165.61062622070312,166.0,2021-01-22 04:45:55.278000+00:00,val
630,165.4874725341797,166.0,2021-01-22 04:46:55.278000+00:00,val
631,165.36708068847656,166.0,2021-01-22 04:47:55.278000+00:00,val
632,165.24940490722656,166.0,2021-01-22 04:48:55.278000+00:00,val
633,165.13430786132812,163.0,2021-01-22 04:49:55.278000+00:00,val
634,165.02186584472656,160.0,2021-01-22 04:50:55.278000+00:00,val
635,164.91201782226562,160.0,2021-01-22 04:51:55.278000+00:00,val
636,164.8048095703125,160.0,2021-01-22 04:52:55.278000+00:00,val
637,164.70045471191406,160.0,2021-01-22 04:53:55.278000+00:00,val
638,164.59901428222656,160.0,2021-01-22 04:54:55.278000+00:00,val
639,164.50076293945312,160.0,2021-01-22 04:55:55.278000+00:00,val
640,164.41517639160156,160.0,2021-01-22 04:56:55.278000+00:00,val
641,164.3365020751953,160.0,2021-01-22 04:57:55.278000+00:00,val
642,164.26614379882812,160.0,2021-01-22 04:58:55.278000+00:00,val
643,164.2056427001953,161.0,2021-01-22 04:59:55.278000+00:00,val
644,164.1943359375,162.0,2021-01-22 05:00:55.278000+00:00,val
645,164.19015502929688,162.0,2021-01-22 05:01:55.278000+00:00,val
646,164.1938934326172,162.0,2021-01-22 05:02:55.278000+00:00,val
647,164.2064971923828,162.0,2021-01-22 05:03:55.278000+00:00,val
648,164.22866821289062,162.0,2021-01-22 05:04:55.278000+00:00,val
649,164.22201538085938,162.0,2021-01-22 05:05:55.278000+00:00,val
650,164.1783905029297,162.0,2021-01-22 05:06:55.278000+00:00,val
651,164.19461059570312,162.0,2021-01-22 05:07:55.278000+00:00,val
652,164.2747039794922,162.0,2021-01-22 05:08:55.278000+00:00,val
653,164.4029083251953,162.0,2021-01-22 05:09:55.278000+00:00,val
654,164.54058837890625,162.0,2021-01-22 05:10:55.278000+00:00,val
655,164.66433715820312,162.0,2021-01-22 05:11:55.278000+00:00,val
656,164.75241088867188,162.0,2021-01-22 05:12:55.278000+00:00,val
657,164.81541442871094,162.0,2021-01-22 05:13:55.278000+00:00,val
658,164.78482055664062,158.0,2021-01-22 05:14:55.278000+00:00,val
659,164.68296813964844,158.0,2021-01-22 05:15:55.278000+00:00,val
660,164.57406616210938,158.0,2021-01-22 05:16:55.278000+00:00,test
661,164.44927978515625,158.0,2021-01-22 05:17:55.278000+00:00,test
662,164.3089599609375,158.0,2021-01-22 05:18:55.278000+00:00,test
663,164.1537322998047,158.0,2021-01-22 05:19:55.278000+00:00,test
664,163.98545837402344,158.0,2021-01-22 05:20:55.278000+00:00,test
665,163.80618286132812,158.0,2021-01-22 05:21:55.278000+00:00,test
666,163.6173553466797,158.0,2021-01-22 05:22:55.278000+00:00,test
667,163.42068481445312,158.0,2021-01-22 05:23:55.278000+00:00,test
668,163.21737670898438,158.0,2021-01-22 05:24:55.278000+00:00,test
669,163.00921630859375,158.0,2021-01-22 05:25:55.278000+00:00,test
670,162.7989959716797,158.0,2021-01-22 05:26:55.278000+00:00,test
671,162.58958435058594,158.0,2021-01-22 05:27:55.278000+00:00,test
672,162.38284301757812,158.0,2021-01-22 05:28:55.278000+00:00,test
673,162.18014526367188,158.0,2021-01-22 05:29:55.278000+00:00,test
674,161.7937774658203,158.0,2021-01-22 05:30:55.278000+00:00,test
675,161.40687561035156,158.0,2021-01-22 05:31:55.278000+00:00,test
676,161.03314208984375,158.0,2021-01-22 05:32:55.278000+00:00,test
677,160.68614196777344,158.0,2021-01-22 05:33:55.278000+00:00,test
678,160.361572265625,158.0,2021-01-22 05:34:55.278000+00:00,test
679,160.05897521972656,157.0,2021-01-22 05:35:55.278000+00:00,test
680,159.78005981445312,154.0,2021-01-22 05:36:55.278000+00:00,test
681,159.52423095703125,154.0,2021-01-22 05:37:55.278000+00:00,test
682,159.2821044921875,154.0,2021-01-22 05:38:55.278000+00:00,test
683,159.04803466796875,154.0,2021-01-22 05:39:55.278000+00:00,test
684,158.81454467773438,154.0,2021-01-22 05:40:55.278000+00:00,test
685,158.58169555664062,154.0,2021-01-22 05:41:55.278000+00:00,test
686,158.35537719726562,154.0,2021-01-22 05:42:55.278000+00:00,test
687,158.14173889160156,154.0,2021-01-22 05:43:55.278000+00:00,test
688,157.94869995117188,154.0,2021-01-22 05:44:55.278000+00:00,test
689,157.78016662597656,154.0,2021-01-22 05:45:55.278000+00:00,test
690,157.64044189453125,154.0,2021-01-22 05:46:55.278000+00:00,test
691,157.52928161621094,154.0,2021-01-22 05:47:55.278000+00:00,test
692,157.44061279296875,154.0,2021-01-22 05:48:55.278000+00:00,test
693,157.3089599609375,154.0,2021-01-22 05:49:55.278000+00:00,test
694,157.18222045898438,154.0,2021-01-22 05:50:55.278000+00:00,test
695,157.0223388671875,156.0,2021-01-22 05:51:55.278000+00:00,test
696,156.73013305664062,156.0,2021-01-22 05:52:55.278000+00:00,test
697,156.4487762451172,156.0,2021-01-22 05:53:55.278000+00:00,test
698,156.1775665283203,150.0,2021-01-22 05:54:55.278000+00:00,test
699,155.9160614013672,150.0,2021-01-22 05:55:55.278000+00:00,test
700,155.663818359375,150.0,2021-01-22 05:56:55.278000+00:00,test
701,155.4202880859375,150.0,2021-01-22 05:57:55.278000+00:00,test
702,155.18504333496094,150.0,2021-01-22 05:58:55.278000+00:00,test
703,154.95773315429688,150.0,2021-01-22 05:59:55.278000+00:00,test
704,154.7379150390625,150.0,2021-01-22 06:00:55.278000+00:00,test
705,154.5253448486328,150.0,2021-01-22 06:01:55.278000+00:00,test
706,154.31976318359375,150.0,2021-01-22 06:02:55.278000+00:00,test
707,154.12088012695312,150.0,2021-01-22 06:03:55.278000+00:00,test
708,153.9387969970703,152.0,2021-01-22 06:04:55.278000+00:00,test
709,153.77850341796875,152.0,2021-01-22 06:05:55.278000+00:00,test
710,153.6261749267578,152.0,2021-01-22 06:06:55.278000+00:00,test
711,153.5497589111328,152.0,2021-01-22 06:07:55.278000+00:00,test
712,153.47964477539062,152.0,2021-01-22 06:08:55.278000+00:00,test
713,153.4159698486328,150.0,2021-01-22 06:09:55.278000+00:00,test
714,153.11322021484375,148.0,2021-01-22 06:10:55.278000+00:00,test
715,152.8252716064453,148.0,2021-01-22 06:11:55.278000+00:00,test
716,152.551513671875,148.0,2021-01-22 06:12:55.278000+00:00,test
717,152.29151916503906,148.0,2021-01-22 06:13:55.278000+00:00,test
718,152.04489135742188,148.0,2021-01-22 06:14:55.278000+00:00,test
719,151.81134033203125,148.0,2021-01-22 06:15:55.278000+00:00,test
720,151.590576171875,148.0,2021-01-22 06:16:55.278000+00:00,test
721,151.38243103027344,148.0,2021-01-22 06:17:55.278000+00:00,test
722,151.1867218017578,148.0,2021-01-22 06:18:55.278000+00:00,test
723,150.9375762939453,148.0,2021-01-22 06:19:55.278000+00:00,test
724,150.77548217773438,148.0,2021-01-22 06:20:55.278000+00:00,test
725,150.61898803710938,148.0,2021-01-22 06:21:55.278000+00:00,test
726,150.46798706054688,144.0,2021-01-22 06:22:55.278000+00:00,test
727,150.32249450683594,144.0,2021-01-22 06:23:55.278000+00:00,test
728,150.1824188232422,144.0,2021-01-22 06:24:55.278000+00:00,test
729,149.9745330810547,144.0,2021-01-22 06:25:55.278000+00:00,test
730,149.6885986328125,144.0,2021-01-22 06:26:55.278000+00:00,test
731,149.41358947753906,144.0,2021-01-22 06:27:55.278000+00:00,test
732,149.14906311035156,144.0,2021-01-22 06:28:55.278000+00:00,test
733,148.89471435546875,144.0,2021-01-22 06:29:55.278000+00:00,test
734,148.65016174316406,144.0,2021-01-22 06:30:55.278000+00:00,test
735,148.41514587402344,144.0,2021-01-22 06:31:55.278000+00:00,test
736,148.189453125,142.0,2021-01-22 06:32:55.278000+00:00,test
737,147.97286987304688,140.0,2021-01-22 06:33:55.278000+00:00,test
738,147.76527404785156,140.0,2021-01-22 06:34:55.278000+00:00,test
739,147.5664825439453,140.0,2021-01-22 06:35:55.278000+00:00,test
740,147.37640380859375,140.0,2021-01-22 06:36:55.278000+00:00,test
741,147.19496154785156,140.0,2021-01-22 06:37:55.278000+00:00,test
742,146.84840393066406,140.0,2021-01-22 06:38:55.278000+00:00,test
