,Unnamed: 0,time,prediction,real,step
10627,10627,2021-02-12 12:22:57.990,30.324185999999997,27.0,7
10637,10637,2021-02-12 12:23:27.990,30.171305,28.0,7
10647,10647,2021-02-12 12:23:57.990,30.401213000000002,28.0,7
10657,10657,2021-02-12 12:24:27.990,29.913621999999997,29.0,7
10667,10667,2021-02-12 12:24:57.990,29.844036,29.0,7
10677,10677,2021-02-12 12:25:27.990,31.12725,29.0,7
10687,10687,2021-02-12 12:25:57.990,31.179909000000002,30.0,7
10697,10697,2021-02-12 12:26:27.990,30.670757000000002,31.0,7
10707,10707,2021-02-12 12:26:57.990,30.214878000000002,31.0,7
10717,10717,2021-02-12 12:27:27.990,31.147305,31.0,7
10727,10727,2021-02-12 12:27:57.990,31.193904999999997,32.0,7
10737,10737,2021-02-12 12:28:27.990,32.53205,32.0,7
10747,10747,2021-02-12 12:28:57.990,32.69808,33.0,7
10757,10757,2021-02-12 12:29:27.990,32.207188,33.0,7
10767,10767,2021-02-12 12:29:57.990,33.27217,33.0,7
10777,10777,2021-02-12 12:30:27.990,35.499798,34.0,7
10787,10787,2021-02-12 12:30:57.990,36.32029,36.0,7
10797,10797,2021-02-12 12:31:27.990,35.116859999999996,36.0,7
10807,10807,2021-02-12 12:31:57.990,35.987938,36.0,7
10817,10817,2021-02-12 12:32:27.990,35.917027000000004,37.0,7
10827,10827,2021-02-12 12:32:57.990,37.267624,37.0,7
10837,10837,2021-02-12 12:33:27.990,37.245914,39.0,7
10847,10847,2021-02-12 12:33:57.990,36.446182,39.0,7
10857,10857,2021-02-12 12:34:27.990,37.42927,39.0,7
10867,10867,2021-02-12 12:34:57.990,42.5001,40.0,7
10877,10877,2021-02-12 12:35:27.990,44.17491,40.0,7
10887,10887,2021-02-12 12:35:57.990,43.580276,42.0,7
10897,10897,2021-02-12 12:36:27.990,43.397816,42.0,7
10907,10907,2021-02-12 12:36:57.990,42.27973,44.0,7
10917,10917,2021-02-12 12:37:27.990,45.841879999999996,44.0,7
10927,10927,2021-02-12 12:37:57.990,46.914204,44.0,7
10937,10937,2021-02-12 12:38:27.990,45.95805,46.0,7
10947,10947,2021-02-12 12:38:57.990,45.98843,46.0,7
10957,10957,2021-02-12 12:39:27.990,45.07275,49.0,7
10967,10967,2021-02-12 12:39:57.990,48.32285,49.0,7
10977,10977,2021-02-12 12:40:27.990,49.014965000000004,49.0,7
10987,10987,2021-02-12 12:40:57.990,52.948517,52.0,7
10997,10997,2021-02-12 12:41:27.990,53.201313,52.0,7
11007,11007,2021-02-12 12:41:57.990,51.59809,55.0,7
11017,11017,2021-02-12 12:42:27.990,53.57269300000001,55.0,7
11027,11027,2021-02-12 12:42:57.990,53.619735999999996,55.0,7
11037,11037,2021-02-12 12:43:27.990,60.37953,55.0,7
11047,11047,2021-02-12 12:43:57.990,61.490590000000005,58.0,7
11057,11057,2021-02-12 12:44:27.990,60.256843999999994,58.0,7
11067,11067,2021-02-12 12:44:57.990,64.16424,58.0,7
11077,11077,2021-02-12 12:45:27.990,64.37819,62.0,7
11087,11087,2021-02-12 12:45:57.990,71.52752,62.0,7
11097,11097,2021-02-12 12:46:27.990,70.95082,67.0,7
11107,11107,2021-02-12 12:46:57.990,68.09183,67.0,7
11117,11117,2021-02-12 12:47:27.990,63.517830000000004,73.0,7
11127,11127,2021-02-12 12:47:57.990,66.58468,73.0,7
11137,11137,2021-02-12 12:48:27.990,66.84784,73.0,7
11147,11147,2021-02-12 12:48:57.990,65.59163000000001,79.0,7
11157,11157,2021-02-12 12:49:27.990,71.80975,79.0,7
11167,11167,2021-02-12 12:49:57.990,72.93581400000001,87.0,7
11177,11177,2021-02-12 12:50:27.990,85.47501,87.0,7
11187,11187,2021-02-12 12:50:57.990,87.45782,87.0,7
11197,11197,2021-02-12 12:51:27.990,107.39556999999999,96.0,7
11207,11207,2021-02-12 12:51:57.990,109.75956000000001,96.0,7
11217,11217,2021-02-12 12:52:27.990,102.12836,108.0,7
11227,11227,2021-02-12 12:52:57.990,115.556335,108.0,7
11237,11237,2021-02-12 12:53:27.990,110.785866,123.0,7
11247,11247,2021-02-12 12:53:57.990,135.34108,123.0,7
11257,11257,2021-02-12 12:54:27.990,138.7534,123.0,7
11267,11267,2021-02-12 12:54:57.990,125.68279,144.0,7
11277,11277,2021-02-12 12:55:27.990,150.66306,144.0,7
11287,11287,2021-02-12 12:55:57.990,142.3383,172.0,7
11297,11297,2021-02-12 12:56:27.990,180.74173000000002,172.0,7
11307,11307,2021-02-12 12:56:57.990,188.90896999999998,172.0,7
11317,11317,2021-02-12 12:57:27.990,210.71282999999997,215.0,7
11327,11327,2021-02-12 12:57:57.990,229.53671,215.0,7
11337,11337,2021-02-12 12:58:27.990,216.92667000000003,286.0,7
11347,11347,2021-02-12 12:58:57.990,271.56894,286.0,7
11357,11357,2021-02-12 12:59:27.990,287.07583999999997,286.0,7
11367,11367,2021-02-12 12:59:57.990,330.98758,428.0,7
11377,11377,2021-02-12 13:00:27.990,376.45797999999996,428.0,7
11387,11387,2021-02-12 13:00:57.990,361.06174,856.0,7
11397,11397,2021-02-12 13:01:27.990,474.77615,855.0,7
11407,11407,2021-02-12 13:01:57.990,532.28986,855.0,7
11417,11417,2021-02-12 13:02:27.990,567.1916,854.0,7
11427,11427,2021-02-12 13:02:57.990,745.68616,854.0,7
11437,11437,2021-02-12 13:03:27.990,878.3507699999999,854.0,7
11447,11447,2021-02-12 13:03:57.990,900.209,854.0,7
11457,11457,2021-02-12 13:04:27.990,1251.7516,853.0,7
11467,11467,2021-02-12 13:04:57.990,408.9554,426.0,7
11477,11477,2021-02-12 13:05:27.990,416.15576,426.0,7
11487,11487,2021-02-12 13:05:57.990,292.96515,284.0,7
11497,11497,2021-02-12 13:06:27.990,267.59982,284.0,7
11507,11507,2021-02-12 13:06:57.990,238.23573,283.0,7
11517,11517,2021-02-12 13:07:27.990,202.13464,212.0,7
11527,11527,2021-02-12 13:07:57.990,175.68094,212.0,7
11537,11537,2021-02-12 13:08:27.990,181.36111,170.0,7
11547,11547,2021-02-12 13:08:57.990,162.88023,170.0,7
11557,11557,2021-02-12 13:09:27.990,150.92166,170.0,7
11567,11567,2021-02-12 13:09:57.990,133.08063,141.0,7
11577,11577,2021-02-12 13:10:27.990,128.07751000000002,141.0,7
11587,11587,2021-02-12 13:10:57.990,119.36213000000001,121.0,7
11597,11597,2021-02-12 13:11:27.990,103.9745,121.0,7
11607,11607,2021-02-12 13:11:57.990,100.713295,121.0,7
11617,11617,2021-02-12 13:12:27.990,94.78404,105.0,7
11627,11627,2021-02-12 13:12:57.990,95.400696,105.0,7
11637,11637,2021-02-12 13:13:27.990,98.43701999999999,105.0,7
11647,11647,2021-02-12 13:13:57.990,97.93805,94.0,7
11657,11657,2021-02-12 13:14:27.990,97.60558,94.0,7
11667,11667,2021-02-12 13:14:57.990,93.7089,84.0,7
11677,11677,2021-02-12 13:15:27.990,90.07614000000001,84.0,7
11687,11687,2021-02-12 13:15:57.990,86.67114000000001,84.0,7
11697,11697,2021-02-12 13:16:27.990,80.55538,76.0,7
11707,11707,2021-02-12 13:16:57.990,75.105385,76.0,7
11717,11717,2021-02-12 13:17:27.990,69.23685,70.0,7
11727,11727,2021-02-12 13:17:57.990,63.249176,70.0,7
11737,11737,2021-02-12 13:18:27.990,58.063423,70.0,7
11747,11747,2021-02-12 13:18:57.990,52.58538000000001,64.0,7
11757,11757,2021-02-12 13:19:27.990,47.989143,64.0,7
11767,11767,2021-02-12 13:19:57.990,45.297867,64.0,7
11777,11777,2021-02-12 13:20:27.990,42.895004,60.0,7
11787,11787,2021-02-12 13:20:57.990,41.274338,60.0,7
11797,11797,2021-02-12 13:21:27.990,40.049285999999995,56.0,7
11807,11807,2021-02-12 13:21:57.990,39.653521999999995,55.0,7
11817,11817,2021-02-12 13:22:27.990,40.19925,52.0,7
11827,11827,2021-02-12 13:22:57.990,41.552277000000004,52.0,7
11837,11837,2021-02-12 13:23:27.990,46.831759999999996,49.0,7
11847,11847,2021-02-12 13:23:57.990,45.71045,49.0,7
11857,11857,2021-02-12 13:24:27.990,45.123627,46.0,7
11867,11867,2021-02-12 13:24:57.990,44.287476,46.0,7
11877,11877,2021-02-12 13:25:27.990,43.841217,46.0,7
11887,11887,2021-02-12 13:25:57.990,44.096096,43.0,7
11897,11897,2021-02-12 13:26:27.990,43.164528000000004,43.0,7
11907,11907,2021-02-12 13:26:57.990,42.92484,43.0,7
11917,11917,2021-02-12 13:27:27.990,41.768257,41.0,7
11927,11927,2021-02-12 13:27:57.990,41.069965,41.0,7
11937,11937,2021-02-12 13:28:27.990,40.519943,39.0,7
11947,11947,2021-02-12 13:28:57.990,39.618977,39.0,7
11957,11957,2021-02-12 13:29:27.990,39.13062,39.0,7
11967,11967,2021-02-12 13:29:57.990,38.013447,37.0,7
11977,11977,2021-02-12 13:30:27.990,37.236095,37.0,7
11987,11987,2021-02-12 13:30:57.990,36.80462,36.0,7
11997,11997,2021-02-12 13:31:27.990,35.958603000000004,36.0,7
12007,12007,2021-02-12 13:31:57.990,35.372375,36.0,7
12017,12017,2021-02-12 13:32:27.990,34.838028,34.0,7
12027,12027,2021-02-12 13:32:57.990,34.227512,34.0,7
12037,12037,2021-02-12 13:33:27.990,33.87238,33.0,7
12047,12047,2021-02-12 13:33:57.990,33.145126,33.0,7
12057,12057,2021-02-12 13:34:27.990,32.61638,33.0,7
12067,12067,2021-02-12 13:34:57.990,32.2175,31.0,7
12077,12077,2021-02-12 13:35:27.990,31.71313,31.0,7
12087,12087,2021-02-12 13:35:57.990,31.398033,30.0,7
12097,12097,2021-02-12 13:36:27.990,30.80818,30.0,7
12107,12107,2021-02-12 13:36:57.990,30.3793,30.0,7
12117,12117,2021-02-12 13:37:27.990,30.033209000000003,29.0,7
12127,12127,2021-02-12 13:37:57.990,29.591071999999997,29.0,7
12137,12137,2021-02-12 13:38:27.990,29.317642,28.0,7
12147,12147,2021-02-12 13:38:57.990,28.9847,28.0,7
12157,12157,2021-02-12 13:39:27.990,28.613443,28.0,7
12167,12167,2021-02-12 13:39:57.990,28.289602000000002,27.0,7
12177,12177,2021-02-12 13:40:27.990,27.945095000000002,27.0,7
12187,12187,2021-02-12 13:40:57.990,27.677490000000002,27.0,7
12197,12197,2021-02-12 13:41:27.990,27.26463,26.0,7
12207,12207,2021-02-12 13:41:57.990,26.992659999999997,26.0,7
12217,12217,2021-02-12 13:42:27.990,26.571726,26.0,7
12227,12227,2021-02-12 13:42:57.990,26.261715000000002,25.0,7
12237,12237,2021-02-12 13:43:27.990,25.907618,25.0,7
12247,12247,2021-02-12 13:43:57.990,25.538542,24.0,7
12257,12257,2021-02-12 13:44:27.990,25.307827,24.0,7
12267,12267,2021-02-12 13:44:57.990,25.005219,24.0,7
12277,12277,2021-02-12 13:45:27.990,24.646612,24.0,7
12287,12287,2021-02-12 13:45:57.990,24.400646,24.0,7
12297,12297,2021-02-12 13:46:27.990,24.149960999999998,23.0,7
12307,12307,2021-02-12 13:46:57.990,23.87566,23.0,7
12317,12317,2021-02-12 13:47:27.990,23.57355,23.0,7
12327,12327,2021-02-12 13:47:57.990,23.202973999999998,22.0,7
12337,12337,2021-02-12 13:48:27.990,22.934772,22.0,7
12347,12347,2021-02-12 13:48:57.990,22.649603,22.0,7
12357,12357,2021-02-12 13:49:27.990,22.438576,22.0,7
12367,12367,2021-02-12 13:49:57.990,22.252028,22.0,7
12377,12377,2021-02-12 13:50:27.990,22.013714,21.0,7
12387,12387,2021-02-12 13:50:57.990,21.854668,21.0,7
12397,12397,2021-02-12 13:51:27.990,21.648239999999998,21.0,7
12407,12407,2021-02-12 13:51:57.990,21.381199,20.0,7
12417,12417,2021-02-12 13:52:27.990,21.135127999999998,20.0,7
12427,12427,2021-02-12 13:52:57.990,20.954357,20.0,7
12437,12437,2021-02-12 13:53:27.990,20.847582,20.0,7
12447,12447,2021-02-12 13:53:57.990,20.68299,20.0,7
12457,12457,2021-02-12 13:54:27.990,20.439615,19.0,7
12467,12467,2021-02-12 13:54:57.990,20.202707,19.0,7
12477,12477,2021-02-12 13:55:27.990,20.028154,19.0,7
12487,12487,2021-02-12 13:55:57.990,19.761570000000003,19.0,7
12497,12497,2021-02-12 13:56:27.990,19.502394,19.0,7
12507,12507,2021-02-12 13:56:57.990,19.303257000000002,18.0,7
12517,12517,2021-02-12 13:57:27.990,19.093957999999997,18.0,7
12527,12527,2021-02-12 13:57:57.990,18.937,18.0,7
12537,12537,2021-02-12 13:58:27.990,18.716028,18.0,7
12547,12547,2021-02-12 13:58:57.990,18.485285,18.0,7
12557,12557,2021-02-12 13:59:27.990,18.295101000000003,18.0,7
12567,12567,2021-02-12 13:59:57.990,18.163624,17.0,7
12577,12577,2021-02-12 14:00:27.990,18.021156,17.0,7
12587,12587,2021-02-12 14:00:57.990,17.772827,17.0,7
12597,12597,2021-02-12 14:01:27.990,17.581768,16.0,7
12607,12607,2021-02-12 14:01:57.990,17.397454999999997,16.0,7
12617,12617,2021-02-12 14:02:27.990,17.266014000000002,16.0,7
12627,12627,2021-02-12 14:02:57.990,17.097454,16.0,7
12637,12637,2021-02-12 14:03:27.990,16.963093,16.0,7
12647,12647,2021-02-12 14:03:57.990,16.741613,16.0,7
12657,12657,2021-02-12 14:04:27.990,16.570421,16.0,7
12667,12667,2021-02-12 14:04:57.990,16.432756,16.0,7
12677,12677,2021-02-12 14:05:27.990,16.126617,15.0,7
12687,12687,2021-02-12 14:05:57.990,15.8833885,15.0,7
12697,12697,2021-02-12 14:06:27.990,15.707375,15.0,7
12707,12707,2021-02-12 14:06:57.990,15.504105,15.0,7
12717,12717,2021-02-12 14:07:27.990,15.327942000000002,15.0,7
12727,12727,2021-02-12 14:07:57.990,15.191193,15.0,7
12737,12737,2021-02-12 14:08:27.990,15.10174,15.0,7
12747,12747,2021-02-12 14:08:57.990,15.063208,14.0,7
12757,12757,2021-02-12 14:09:27.990,14.839982000000001,14.0,7
12767,12767,2021-02-12 14:09:57.990,14.657048999999999,14.0,7
12777,12777,2021-02-12 14:10:27.990,14.518969,14.0,7
12787,12787,2021-02-12 14:10:57.990,14.367632999999998,14.0,7
12797,12797,2021-02-12 14:11:27.990,14.266673,14.0,7
12807,12807,2021-02-12 14:11:57.990,14.168543,14.0,7
12817,12817,2021-02-12 14:12:27.990,14.096105,14.0,7
12827,12827,2021-02-12 14:12:57.990,13.931365,14.0,7
12837,12837,2021-02-12 14:13:27.990,13.747089,13.0,7
12847,12847,2021-02-12 14:13:57.990,13.5979,13.0,7
12857,12857,2021-02-12 14:14:27.990,13.474564,13.0,7
12867,12867,2021-02-12 14:14:57.990,13.378179000000001,13.0,7
12877,12877,2021-02-12 14:15:27.990,13.317197,13.0,7
12887,12887,2021-02-12 14:15:57.990,13.221174,13.0,7
12897,12897,2021-02-12 14:16:27.990,13.145492,13.0,7
12907,12907,2021-02-12 14:16:57.990,13.109088,13.0,7
12917,12917,2021-02-12 14:17:27.990,12.980205,13.0,7
12927,12927,2021-02-12 14:17:57.990,12.863567,13.0,7
12937,12937,2021-02-12 14:18:27.990,12.790166000000001,13.0,7
12947,12947,2021-02-12 14:18:57.990,12.674263,13.0,7
12957,12957,2021-02-12 14:19:27.990,12.581951,13.0,7
12967,12967,2021-02-12 14:19:57.990,12.525439,12.0,7
12977,12977,2021-02-12 14:20:27.990,12.450037,12.0,7
12987,12987,2021-02-12 14:20:57.990,12.369221000000001,12.0,7
12997,12997,2021-02-12 14:21:27.990,12.301753,12.0,7
13007,13007,2021-02-12 14:21:57.990,12.253351,12.0,7
13017,13017,2021-02-12 14:22:27.990,12.224691,12.0,7
13027,13027,2021-02-12 14:22:57.990,12.212752,12.0,7
13037,13037,2021-02-12 14:23:27.990,12.220873,12.0,7
13047,13047,2021-02-12 14:23:57.990,12.118053,12.0,7
13057,13057,2021-02-12 14:24:27.990,11.982064999999999,12.0,7
13067,13067,2021-02-12 14:24:57.990,11.885784,11.0,7
13077,13077,2021-02-12 14:25:27.990,11.786878,11.0,7
13087,13087,2021-02-12 14:25:57.990,11.708982,11.0,7
13097,13097,2021-02-12 14:26:27.990,11.654233,11.0,7
13107,13107,2021-02-12 14:26:57.990,11.619862,11.0,7
13117,13117,2021-02-12 14:27:27.990,11.608262,11.0,7
13127,13127,2021-02-12 14:27:57.990,11.543432000000001,11.0,7
13137,13137,2021-02-12 14:28:27.990,11.48835,11.0,7
13147,13147,2021-02-12 14:28:57.990,11.289919,11.0,7
13157,13157,2021-02-12 14:29:27.990,11.120009,11.0,7
13167,13167,2021-02-12 14:29:57.990,11.006757,11.0,7
13177,13177,2021-02-12 14:30:27.990,10.906792,11.0,7
13187,13187,2021-02-12 14:30:57.990,10.815664,11.0,7
13197,13197,2021-02-12 14:31:27.990,10.745167,11.0,7
13207,13207,2021-02-12 14:31:57.990,10.698457000000001,11.0,7
13217,13217,2021-02-12 14:32:27.990,10.610887,11.0,7
13227,13227,2021-02-12 14:32:57.990,10.533557,11.0,7
13237,13237,2021-02-12 14:33:27.990,10.465778,10.0,7
13247,13247,2021-02-12 14:33:57.990,10.407193,10.0,7
13257,13257,2021-02-12 14:34:27.990,10.357415,10.0,7
13267,13267,2021-02-12 14:34:57.990,10.316034,10.0,7
13277,13277,2021-02-12 14:35:27.990,10.285572,10.0,7
13287,13287,2021-02-12 14:35:57.990,10.28317,10.0,7
13297,13297,2021-02-12 14:36:27.990,10.2900095,10.0,7
13307,13307,2021-02-12 14:36:57.990,10.29798,10.0,7
13317,13317,2021-02-12 14:37:27.990,10.191517999999999,10.0,7
13327,13327,2021-02-12 14:37:57.990,10.113721,9.0,7
13337,13337,2021-02-12 14:38:27.990,10.062612,9.0,7
13347,13347,2021-02-12 14:38:57.990,9.956669,9.0,7
13357,13357,2021-02-12 14:39:27.990,9.865192,9.0,7
13367,13367,2021-02-12 14:39:57.990,9.786653,9.0,7
13377,13377,2021-02-12 14:40:27.990,9.719922,9.0,7
13387,13387,2021-02-12 14:40:57.990,9.664093,9.0,7
13397,13397,2021-02-12 14:41:27.990,9.618378,9.0,7
13407,13407,2021-02-12 14:41:57.990,9.413753999999999,9.0,7
13417,13417,2021-02-12 14:42:27.990,9.283551,9.0,7
13427,13427,2021-02-12 14:42:57.990,9.158151,9.0,7
13437,13437,2021-02-12 14:43:27.990,9.058852,9.0,7
13447,13447,2021-02-12 14:43:57.990,8.929409,9.0,7
13457,13457,2021-02-12 14:44:27.990,8.815778,9.0,7
13467,13467,2021-02-12 14:44:57.990,8.715163,9.0,7
13477,13477,2021-02-12 14:45:27.990,8.62504,9.0,7
13487,13487,2021-02-12 14:45:57.990,8.545084,9.0,7
13497,13497,2021-02-12 14:46:27.990,8.474616000000001,9.0,7
13507,13507,2021-02-12 14:46:57.990,8.413044000000001,9.0,7
13517,13517,2021-02-12 14:47:27.990,8.360057000000001,9.0,7
13527,13527,2021-02-12 14:47:57.990,8.315338,9.0,7
13537,13537,2021-02-12 14:48:27.990,8.279397,8.0,7
13547,13547,2021-02-12 14:48:57.990,8.25892,8.0,7
13557,13557,2021-02-12 14:49:27.990,8.267164,8.0,7
13567,13567,2021-02-12 14:49:57.990,8.267263,8.0,7
13577,13577,2021-02-12 14:50:27.990,8.279948,8.0,7
13587,13587,2021-02-12 14:50:57.990,8.311641,8.0,7
13597,13597,2021-02-12 14:51:27.990,8.363955,8.0,7
13607,13607,2021-02-12 14:51:57.990,8.446557,8.0,7
13617,13617,2021-02-12 14:52:27.990,8.301960000000001,8.0,7
13627,13627,2021-02-12 14:52:57.990,8.181519,8.0,7
13637,13637,2021-02-12 14:53:27.990,8.080293,8.0,7
13647,13647,2021-02-12 14:53:57.990,7.995311,8.0,7
13657,13657,2021-02-12 14:54:27.990,7.9247913,8.0,7
13667,13667,2021-02-12 14:54:57.990,7.8676960000000005,8.0,7
13677,13677,2021-02-12 14:55:27.990,7.821986,8.0,7
13687,13687,2021-02-12 14:55:57.990,7.794553,8.0,7
13697,13697,2021-02-12 14:56:27.990,7.813341,8.0,7
13707,13707,2021-02-12 14:56:57.990,7.7637350000000005,8.0,7
13717,13717,2021-02-12 14:57:27.990,7.714074,8.0,7
13727,13727,2021-02-12 14:57:57.990,7.6684703999999995,8.0,7
13737,13737,2021-02-12 14:58:27.990,7.627826700000001,8.0,7
13747,13747,2021-02-12 14:58:57.990,7.5920095000000005,8.0,7
13757,13757,2021-02-12 14:59:27.990,7.5595655,8.0,7
13767,13767,2021-02-12 14:59:57.990,7.531103,8.0,7
13777,13777,2021-02-12 15:00:27.990,7.506674,8.0,7
13787,13787,2021-02-12 15:00:57.990,7.486244,8.0,7
13797,13797,2021-02-12 15:01:27.990,7.469972599999999,8.0,7
13807,13807,2021-02-12 15:01:57.990,7.458152,8.0,7
13817,13817,2021-02-12 15:02:27.990,7.451006,8.0,7
13827,13827,2021-02-12 15:02:57.990,7.4488497,8.0,7
13837,13837,2021-02-12 15:03:27.990,7.4520035,8.0,7
13847,13847,2021-02-12 15:03:57.990,7.460938499999999,8.0,7
13857,13857,2021-02-12 15:04:27.990,7.478297,8.0,7
13867,13867,2021-02-12 15:04:57.990,7.505094500000001,8.0,7
13877,13877,2021-02-12 15:05:27.990,7.545657,7.0,7
13887,13887,2021-02-12 15:05:57.990,7.605672,7.0,7
13897,13897,2021-02-12 15:06:27.990,7.700609,8.0,7
13907,13907,2021-02-12 15:06:57.990,7.9999943,7.0,7
13917,13917,2021-02-12 15:07:27.990,7.9999943,7.0,7
13927,13927,2021-02-12 15:07:57.990,7.9999943,7.0,7
13937,13937,2021-02-12 15:08:27.990,7.9999943,7.0,7
13947,13947,2021-02-12 15:08:57.990,7.9999943,7.0,7
13957,13957,2021-02-12 15:09:27.990,7.5970955,7.0,7
13967,13967,2021-02-12 15:09:57.990,7.423208,7.0,7
13977,13977,2021-02-12 15:10:27.990,7.4232397,7.0,7
13987,13987,2021-02-12 15:10:57.990,7.288683,7.0,7
13997,13997,2021-02-12 15:11:27.990,7.1740837,7.0,7
14007,14007,2021-02-12 15:11:57.990,7.074750999999999,7.0,7
14017,14017,2021-02-12 15:12:27.990,6.994725999999999,7.0,7
14027,14027,2021-02-12 15:12:57.990,6.930644,7.0,7
14037,14037,2021-02-12 15:13:27.990,6.865433,7.0,7
14047,14047,2021-02-12 15:13:57.990,6.8147807,7.0,7
14057,14057,2021-02-12 15:14:27.990,6.766184,7.0,7
14067,14067,2021-02-12 15:14:57.990,6.717403999999999,7.0,7
14077,14077,2021-02-12 15:15:27.990,6.672386,7.0,7
14087,14087,2021-02-12 15:15:57.990,6.631839,7.0,7
14097,14097,2021-02-12 15:16:27.990,6.595412700000001,7.0,7
14107,14107,2021-02-12 15:16:57.990,6.5630417,7.0,7
14117,14117,2021-02-12 15:17:27.990,6.534918,7.0,7
14127,14127,2021-02-12 15:17:57.990,6.5108566,7.0,7
14137,14137,2021-02-12 15:18:27.990,6.490836,7.0,7
14147,14147,2021-02-12 15:18:57.990,6.4749527,7.0,7
14157,14157,2021-02-12 15:19:27.990,6.463425599999999,7.0,7
14167,14167,2021-02-12 15:19:57.990,6.456516000000001,7.0,7
14177,14177,2021-02-12 15:20:27.990,6.454582,7.0,7
14187,14187,2021-02-12 15:20:57.990,6.458038,7.0,7
14197,14197,2021-02-12 15:21:27.990,6.4672527,7.0,7
14207,14207,2021-02-12 15:21:57.990,6.482895,7.0,7
14217,14217,2021-02-12 15:22:27.990,6.5081370000000005,7.0,7
14227,14227,2021-02-12 15:22:57.990,6.5491486,7.0,7
14237,14237,2021-02-12 15:23:27.990,6.608488,7.0,7
14247,14247,2021-02-12 15:23:57.990,6.703667599999999,7.0,7
14257,14257,2021-02-12 15:24:27.990,6.703697,7.0,7
14267,14267,2021-02-12 15:24:57.990,6.70308,7.0,7
14277,14277,2021-02-12 15:25:27.990,6.999998,7.0,7
14287,14287,2021-02-12 15:25:57.990,6.999998,7.0,7
14297,14297,2021-02-12 15:26:27.990,6.999998,7.0,7
14307,14307,2021-02-12 15:26:57.990,6.999998,7.0,7
14317,14317,2021-02-12 15:27:27.990,6.999998,7.0,7
14327,14327,2021-02-12 15:27:57.990,6.999998,7.0,7
14337,14337,2021-02-12 15:28:27.990,6.999998,7.0,7
14347,14347,2021-02-12 15:28:57.990,6.999998,7.0,7
14357,14357,2021-02-12 15:29:27.990,6.999998,7.0,7
14367,14367,2021-02-12 15:29:57.990,6.999998,6.0,7
14377,14377,2021-02-12 15:30:27.990,6.999998,6.0,7
14387,14387,2021-02-12 15:30:57.990,6.999998,6.0,7
14397,14397,2021-02-12 15:31:27.990,6.999998,6.0,7
14407,14407,2021-02-12 15:31:57.990,6.999998,6.0,7
14417,14417,2021-02-12 15:32:27.990,6.999998,6.0,7
14427,14427,2021-02-12 15:32:57.990,6.999998,6.0,7
14437,14437,2021-02-12 15:33:27.990,6.999998,6.0,7
14447,14447,2021-02-12 15:33:57.990,6.595192,6.0,7
14457,14457,2021-02-12 15:34:27.990,6.421236,6.0,7
14467,14467,2021-02-12 15:34:57.990,6.2868794999999995,6.0,7
14477,14477,2021-02-12 15:35:27.990,6.172634599999999,6.0,7
14487,14487,2021-02-12 15:35:57.990,6.0740857,6.0,7
14497,14497,2021-02-12 15:36:27.990,5.9951096,6.0,7
14507,14507,2021-02-12 15:36:57.990,5.9309816,6.0,7
14517,14517,2021-02-12 15:37:27.990,5.8667355,6.0,7
14527,14527,2021-02-12 15:37:57.990,5.81651,6.0,7
14537,14537,2021-02-12 15:38:27.990,5.7677712,6.0,7
14547,14547,2021-02-12 15:38:57.990,5.719269799999999,6.0,7
14557,14557,2021-02-12 15:39:27.990,5.674738,6.0,7
14567,14567,2021-02-12 15:39:57.990,5.634928700000001,6.0,7
14577,14577,2021-02-12 15:40:27.990,5.600105999999999,6.0,7
14587,14587,2021-02-12 15:40:57.990,5.568594,6.0,7
14597,14597,2021-02-12 15:41:27.990,5.540931,6.0,7
14607,14607,2021-02-12 15:41:57.990,5.5172195,6.0,7
14617,14617,2021-02-12 15:42:27.990,5.497436,6.0,7
14627,14627,2021-02-12 15:42:57.990,5.481659,6.0,7
14637,14637,2021-02-12 15:43:27.990,5.4701699999999995,6.0,7
14647,14647,2021-02-12 15:43:57.990,5.4632473,6.0,7
14657,14657,2021-02-12 15:44:27.990,5.461217400000001,6.0,7
14667,14667,2021-02-12 15:44:57.990,5.4645267,6.0,7
14677,14677,2021-02-12 15:45:27.990,5.4736133,6.0,7
14687,14687,2021-02-12 15:45:57.990,5.48994,6.0,7
14697,14697,2021-02-12 15:46:27.990,5.5157614,6.0,7
14707,14707,2021-02-12 15:46:57.990,5.555175299999999,6.0,7
14717,14717,2021-02-12 15:47:27.990,5.6135345,6.0,7
14727,14727,2021-02-12 15:47:57.990,5.706173400000001,6.0,7
14737,14737,2021-02-12 15:48:27.990,6.000004,6.0,7
14747,14747,2021-02-12 15:48:57.990,6.000004,6.0,7
14757,14757,2021-02-12 15:49:27.990,6.000004,6.0,7
14767,14767,2021-02-12 15:49:57.990,6.000004,6.0,7
14777,14777,2021-02-12 15:50:27.990,6.000004,6.0,7
14787,14787,2021-02-12 15:50:57.990,6.000004,6.0,7
14797,14797,2021-02-12 15:51:27.990,6.000004,6.0,7
14807,14807,2021-02-12 15:51:57.990,6.000004,6.0,7
14817,14817,2021-02-12 15:52:27.990,6.000004,6.0,7
14827,14827,2021-02-12 15:52:57.990,6.000004,6.0,7
14837,14837,2021-02-12 15:53:27.990,6.000004,6.0,7
14847,14847,2021-02-12 15:53:57.990,6.000004,6.0,7
14857,14857,2021-02-12 15:54:27.990,6.000004,6.0,7
14867,14867,2021-02-12 15:54:57.990,6.000004,6.0,7
14877,14877,2021-02-12 15:55:27.990,6.000004,6.0,7
14887,14887,2021-02-12 15:55:57.990,6.000004,6.0,7
14897,14897,2021-02-12 15:56:27.990,6.000004,6.0,7
14907,14907,2021-02-12 15:56:57.990,6.000004,6.0,7
14917,14917,2021-02-12 15:57:27.990,6.000004,6.0,7
14927,14927,2021-02-12 15:57:57.990,6.000004,5.0,7
14937,14937,2021-02-12 15:58:27.990,6.000004,5.0,7
14947,14947,2021-02-12 15:58:57.990,6.000004,5.0,7
14957,14957,2021-02-12 15:59:27.990,6.000004,5.0,7
14967,14967,2021-02-12 15:59:57.990,6.000004,5.0,7
14977,14977,2021-02-12 16:00:27.990,6.000004,5.0,7
14987,14987,2021-02-12 16:00:57.990,6.000004,5.0,7
14997,14997,2021-02-12 16:01:27.990,6.000004,5.0,7
15007,15007,2021-02-12 16:01:57.990,5.592666,5.0,7
15017,15017,2021-02-12 16:02:27.990,5.418622,5.0,7
15027,15027,2021-02-12 16:02:57.990,5.2845755,5.0,7
15037,15037,2021-02-12 16:03:27.990,5.1709228,5.0,7
15047,15047,2021-02-12 16:03:57.990,5.073362400000001,5.0,7
15057,15057,2021-02-12 16:04:27.990,4.995097,5.0,7
15067,15067,2021-02-12 16:04:57.990,4.931548,5.0,7
15077,15077,2021-02-12 16:05:27.990,4.868337,5.0,7
15087,15087,2021-02-12 16:05:57.990,4.8187184,5.0,7
15097,15097,2021-02-12 16:06:27.990,4.7706184,5.0,7
15107,15107,2021-02-12 16:06:57.990,4.722946599999999,5.0,7
15117,15117,2021-02-12 16:07:27.990,4.679183999999999,5.0,7
15127,15127,2021-02-12 16:07:57.990,4.6400275,5.0,7
15137,15137,2021-02-12 16:08:27.990,4.605868,5.0,7
15147,15147,2021-02-12 16:08:57.990,4.575028,5.0,7
15157,15157,2021-02-12 16:09:27.990,4.547936,5.0,7
15167,15167,2021-02-12 16:09:57.990,4.524734,5.0,7
15177,15177,2021-02-12 16:10:27.990,4.5053997,5.0,7
15187,15187,2021-02-12 16:10:57.990,4.4899892999999995,5.0,7
15197,15197,2021-02-12 16:11:27.990,4.4787445,5.0,7
15207,15207,2021-02-12 16:11:57.990,4.471976799999999,5.0,7
15217,15217,2021-02-12 16:12:27.990,4.4700084,5.0,7
15227,15227,2021-02-12 16:12:57.990,4.4733186,5.0,7
15237,15237,2021-02-12 16:13:27.990,4.482496299999999,5.0,7
15247,15247,2021-02-12 16:13:57.990,4.498142700000001,5.0,7
15257,15257,2021-02-12 16:14:27.990,4.523432700000001,5.0,7
15267,15267,2021-02-12 16:14:57.990,4.5620046,5.0,7
15277,15277,2021-02-12 16:15:27.990,4.6191654,5.0,7
15287,15287,2021-02-12 16:15:57.990,4.710159,5.0,7
15297,15297,2021-02-12 16:16:27.990,5.0,5.0,7
15307,15307,2021-02-12 16:16:57.990,5.0,5.0,7
15317,15317,2021-02-12 16:17:27.990,5.0,5.0,7
15327,15327,2021-02-12 16:17:57.990,5.0,5.0,7
15337,15337,2021-02-12 16:18:27.990,5.0,5.0,7
15347,15347,2021-02-12 16:18:57.990,5.0,5.0,7
15357,15357,2021-02-12 16:19:27.990,5.0,5.0,7
15367,15367,2021-02-12 16:19:57.990,5.0,5.0,7
15377,15377,2021-02-12 16:20:27.990,5.0,5.0,7
15387,15387,2021-02-12 16:20:57.990,5.0,5.0,7
15397,15397,2021-02-12 16:21:27.990,5.0,5.0,7
15407,15407,2021-02-12 16:21:57.990,5.0,5.0,7
15417,15417,2021-02-12 16:22:27.990,5.0,5.0,7
15427,15427,2021-02-12 16:22:57.990,5.0,5.0,7
15437,15437,2021-02-12 16:23:27.990,5.0,5.0,7
15447,15447,2021-02-12 16:23:57.990,5.0,5.0,7
15457,15457,2021-02-12 16:24:27.990,5.0,5.0,7
15467,15467,2021-02-12 16:24:57.990,5.0,5.0,7
15477,15477,2021-02-12 16:25:27.990,5.0,5.0,7
15487,15487,2021-02-12 16:25:57.990,5.0,5.0,7
15497,15497,2021-02-12 16:26:27.990,5.0,5.0,7
15507,15507,2021-02-12 16:26:57.990,5.0,5.0,7
15517,15517,2021-02-12 16:27:27.990,5.0,5.0,7
15527,15527,2021-02-12 16:27:57.990,5.0,5.0,7
15537,15537,2021-02-12 16:28:27.990,5.0,5.0,7
15547,15547,2021-02-12 16:28:57.990,5.0,5.0,7
15557,15557,2021-02-12 16:29:27.990,5.0,5.0,7
15567,15567,2021-02-12 16:29:57.990,5.0,5.0,7
15577,15577,2021-02-12 16:30:27.990,5.0,5.0,7
15587,15587,2021-02-12 16:30:57.990,5.0,5.0,7
15597,15597,2021-02-12 16:31:27.990,5.0,5.0,7
15607,15607,2021-02-12 16:31:57.990,5.0,5.0,7
15617,15617,2021-02-12 16:32:27.990,5.0,5.0,7
15627,15627,2021-02-12 16:32:57.990,5.0,5.0,7
15637,15637,2021-02-12 16:33:27.990,5.0,5.0,7
15647,15647,2021-02-12 16:33:57.990,5.0,5.0,7
15657,15657,2021-02-12 16:34:27.990,5.0,5.0,7
15667,15667,2021-02-12 16:34:57.990,5.0,5.0,7
15677,15677,2021-02-12 16:35:27.990,5.0,5.0,7
15687,15687,2021-02-12 16:35:57.990,5.0,5.0,7
15697,15697,2021-02-12 16:36:27.990,5.0,5.0,7
15707,15707,2021-02-12 16:36:57.990,5.0,5.0,7
15717,15717,2021-02-12 16:37:27.990,5.0,5.0,7
15727,15727,2021-02-12 16:37:57.990,5.0,5.0,7
15737,15737,2021-02-12 16:38:27.990,5.0,5.0,7
15747,15747,2021-02-12 16:38:57.990,5.0,5.0,7
15757,15757,2021-02-12 16:39:27.990,5.0,5.0,7
15767,15767,2021-02-12 16:39:57.990,5.0,5.0,7
15777,15777,2021-02-12 16:40:27.990,5.0,5.0,7
15787,15787,2021-02-12 16:40:57.990,5.0,5.0,7
15797,15797,2021-02-12 16:41:27.990,5.0,5.0,7
15807,15807,2021-02-12 16:41:57.990,5.0,5.0,7
15817,15817,2021-02-12 16:42:27.990,5.0,5.0,7
15827,15827,2021-02-12 16:42:57.990,5.0,5.0,7
15837,15837,2021-02-12 16:43:27.990,5.0,5.0,7
15847,15847,2021-02-12 16:43:57.990,5.0,5.0,7
15857,15857,2021-02-12 16:44:27.990,5.0,4.0,7
15867,15867,2021-02-12 16:44:57.990,5.0,4.0,7
15877,15877,2021-02-12 16:45:27.990,5.0,4.0,7
15887,15887,2021-02-12 16:45:57.990,5.0,4.0,7
15897,15897,2021-02-12 16:46:27.990,5.0,4.0,7
15907,15907,2021-02-12 16:46:57.990,5.0,4.0,7
15917,15917,2021-02-12 16:47:27.990,5.0,4.0,7
15927,15927,2021-02-12 16:47:57.990,5.0,4.0,7
15937,15937,2021-02-12 16:48:27.990,4.5891585,4.0,7
15947,15947,2021-02-12 16:48:57.990,4.414971400000001,4.0,7
15957,15957,2021-02-12 16:49:27.990,4.281322,4.0,7
15967,15967,2021-02-12 16:49:57.990,4.168501,4.0,7
15977,15977,2021-02-12 16:50:27.990,4.0723577,4.0,7
15987,15987,2021-02-12 16:50:57.990,3.9950775999999997,4.0,7
15997,15997,2021-02-12 16:51:27.990,3.9322519999999996,4.0,7
16007,16007,2021-02-12 16:51:57.990,3.8704987,4.0,7
16017,16017,2021-02-12 16:52:27.990,3.8216424,4.0,7
16027,16027,2021-02-12 16:52:57.990,3.7743669,4.0,7
16037,16037,2021-02-12 16:53:27.990,3.7278193999999996,4.0,7
16047,16047,2021-02-12 16:53:57.990,3.6850958,4.0,7
16057,16057,2021-02-12 16:54:27.990,3.6468491999999997,4.0,7
16067,16067,2021-02-12 16:54:57.990,3.6135230000000003,4.0,7
16077,16077,2021-02-12 16:55:27.990,3.5836089999999996,4.0,7
16087,16087,2021-02-12 16:55:57.990,3.5572786,4.0,7
16097,16097,2021-02-12 16:56:27.990,3.5347557000000003,4.0,7
16107,16107,2021-02-12 16:56:57.990,3.5160193,4.0,7
16117,16117,2021-02-12 16:57:27.990,3.5011067000000002,4.0,7
16127,16127,2021-02-12 16:57:57.990,3.4901986000000003,4.0,7
16137,16137,2021-02-12 16:58:27.990,3.4836287000000006,4.0,7
16147,16147,2021-02-12 16:58:57.990,3.4817367,4.0,7
16157,16157,2021-02-12 16:59:27.990,3.4849997000000004,4.0,7
16167,16167,2021-02-12 16:59:57.990,3.4941182,4.0,7
16177,16177,2021-02-12 17:00:27.990,3.5098947999999996,4.0,7
16187,16187,2021-02-12 17:00:57.990,3.5339312999999994,4.0,7
16197,16197,2021-02-12 17:01:27.990,3.5712442,4.0,7
16207,16207,2021-02-12 17:01:57.990,3.6267443,4.0,7
16217,16217,2021-02-12 17:02:27.990,3.7155227999999996,4.0,7
16227,16227,2021-02-12 17:02:57.990,3.9999971,4.0,7
16237,16237,2021-02-12 17:03:27.990,3.9999971,4.0,7
16247,16247,2021-02-12 17:03:57.990,3.9999971,4.0,7
16257,16257,2021-02-12 17:04:27.990,3.9999971,4.0,7
16267,16267,2021-02-12 17:04:57.990,3.9999971,4.0,7
16277,16277,2021-02-12 17:05:27.990,3.9999971,4.0,7
16287,16287,2021-02-12 17:05:57.990,3.9999971,4.0,7
16297,16297,2021-02-12 17:06:27.990,3.9999971,4.0,7
16307,16307,2021-02-12 17:06:57.990,3.9999971,4.0,7
16317,16317,2021-02-12 17:07:27.990,3.9999971,4.0,7
16327,16327,2021-02-12 17:07:57.990,3.9999971,4.0,7
16337,16337,2021-02-12 17:08:27.990,3.9999971,4.0,7
16347,16347,2021-02-12 17:08:57.990,3.9999971,4.0,7
16357,16357,2021-02-12 17:09:27.990,3.9999971,4.0,7
16367,16367,2021-02-12 17:09:57.990,3.9999971,4.0,7
16377,16377,2021-02-12 17:10:27.990,3.9999971,4.0,7
16387,16387,2021-02-12 17:10:57.990,3.9999971,4.0,7
16397,16397,2021-02-12 17:11:27.990,3.9999971,4.0,7
16407,16407,2021-02-12 17:11:57.990,3.9999971,4.0,7
16417,16417,2021-02-12 17:12:27.990,3.9999971,4.0,7
16427,16427,2021-02-12 17:12:57.990,3.9999971,4.0,7
16437,16437,2021-02-12 17:13:27.990,3.9999971,4.0,7
16447,16447,2021-02-12 17:13:57.990,3.9999971,4.0,7
16457,16457,2021-02-12 17:14:27.990,3.9999971,4.0,7
16467,16467,2021-02-12 17:14:57.990,3.9999971,4.0,7
16477,16477,2021-02-12 17:15:27.990,3.9999971,4.0,7
16487,16487,2021-02-12 17:15:57.990,3.9999971,4.0,7
16497,16497,2021-02-12 17:16:27.990,3.9999971,4.0,7
16507,16507,2021-02-12 17:16:57.990,3.9999971,4.0,7
16517,16517,2021-02-12 17:17:27.990,3.9999971,4.0,7
16527,16527,2021-02-12 17:17:57.990,3.9999971,4.0,7
16537,16537,2021-02-12 17:18:27.990,3.9999971,4.0,7
16547,16547,2021-02-12 17:18:57.990,3.9999971,4.0,7
16557,16557,2021-02-12 17:19:27.990,3.9999971,4.0,7
16567,16567,2021-02-12 17:19:57.990,3.9999971,4.0,7
16577,16577,2021-02-12 17:20:27.990,3.9999971,4.0,7
16587,16587,2021-02-12 17:20:57.990,3.9999971,4.0,7
16597,16597,2021-02-12 17:21:27.990,3.9999971,4.0,7
16607,16607,2021-02-12 17:21:57.990,3.9999971,4.0,7
16617,16617,2021-02-12 17:22:27.990,3.9999971,4.0,7
16627,16627,2021-02-12 17:22:57.990,3.9999971,4.0,7
16637,16637,2021-02-12 17:23:27.990,3.9999971,4.0,7
16647,16647,2021-02-12 17:23:57.990,3.9999971,4.0,7
16657,16657,2021-02-12 17:24:27.990,3.9999971,4.0,7
16667,16667,2021-02-12 17:24:57.990,3.9999971,4.0,7
16677,16677,2021-02-12 17:25:27.990,3.9999971,4.0,7
16687,16687,2021-02-12 17:25:57.990,3.9999971,4.0,7
16697,16697,2021-02-12 17:26:27.990,3.9999971,4.0,7
16707,16707,2021-02-12 17:26:57.990,3.9999971,4.0,7
16717,16717,2021-02-12 17:27:27.990,3.9999971,4.0,7
16727,16727,2021-02-12 17:27:57.990,3.9999971,4.0,7
16737,16737,2021-02-12 17:28:27.990,3.9999971,4.0,7
16747,16747,2021-02-12 17:28:57.990,3.9999971,4.0,7
16757,16757,2021-02-12 17:29:27.990,3.9999971,4.0,7
16767,16767,2021-02-12 17:29:57.990,3.9999971,4.0,7
16777,16777,2021-02-12 17:30:27.990,3.9999971,4.0,7
16787,16787,2021-02-12 17:30:57.990,3.9999971,4.0,7
16797,16797,2021-02-12 17:31:27.990,3.9999971,4.0,7
16807,16807,2021-02-12 17:31:57.990,3.9999971,4.0,7
16817,16817,2021-02-12 17:32:27.990,3.9999971,4.0,7
16827,16827,2021-02-12 17:32:57.990,3.9999971,4.0,7
16837,16837,2021-02-12 17:33:27.990,3.9999971,4.0,7
16847,16847,2021-02-12 17:33:57.990,3.9999971,4.0,7
16857,16857,2021-02-12 17:34:27.990,3.9999971,4.0,7
16867,16867,2021-02-12 17:34:57.990,3.9999971,4.0,7
16877,16877,2021-02-12 17:35:27.990,3.9999971,4.0,7
16887,16887,2021-02-12 17:35:57.990,3.9999971,4.0,7
16897,16897,2021-02-12 17:36:27.990,3.9999971,4.0,7
16907,16907,2021-02-12 17:36:57.990,3.9999971,4.0,7
16917,16917,2021-02-12 17:37:27.990,3.9999971,4.0,7
16927,16927,2021-02-12 17:37:57.990,3.9999971,4.0,7
16937,16937,2021-02-12 17:38:27.990,3.9999971,4.0,7
16947,16947,2021-02-12 17:38:57.990,3.9999971,4.0,7
16957,16957,2021-02-12 17:39:27.990,3.9999971,4.0,7
16967,16967,2021-02-12 17:39:57.990,3.9999971,4.0,7
16977,16977,2021-02-12 17:40:27.990,3.9999971,4.0,7
16987,16987,2021-02-12 17:40:57.990,3.9999971,4.0,7
16997,16997,2021-02-12 17:41:27.990,3.9999971,4.0,7
17007,17007,2021-02-12 17:41:57.990,3.9999971,4.0,7
17017,17017,2021-02-12 17:42:27.990,3.9999971,4.0,7
17027,17027,2021-02-12 17:42:57.990,3.9999971,4.0,7
17037,17037,2021-02-12 17:43:27.990,3.9999971,3.0,7
17047,17047,2021-02-12 17:43:57.990,3.9999971,3.0,7
17057,17057,2021-02-12 17:44:27.990,3.9999971,3.0,7
17067,17067,2021-02-12 17:44:57.990,3.9999971,3.0,7
17077,17077,2021-02-12 17:45:27.990,3.9999971,3.0,7
17087,17087,2021-02-12 17:45:57.990,3.9999971,3.0,7
17097,17097,2021-02-12 17:46:27.990,3.9999971,3.0,7
17107,17107,2021-02-12 17:46:57.990,3.9999971,3.0,7
17117,17117,2021-02-12 17:47:27.990,3.5841403,3.0,7
17127,17127,2021-02-12 17:47:57.990,3.409783,3.0,7
17137,17137,2021-02-12 17:48:27.990,3.2767258,3.0,7
17147,17147,2021-02-12 17:48:57.990,3.1652259999999997,3.0,7
17157,17157,2021-02-12 17:49:27.990,3.0711327,3.0,7
17167,17167,2021-02-12 17:49:57.990,2.995128,3.0,7
17177,17177,2021-02-12 17:50:27.990,2.9334729999999998,3.0,7
17187,17187,2021-02-12 17:50:57.990,2.8738506,3.0,7
17197,17197,2021-02-12 17:51:27.990,2.8260520000000002,3.0,7
17207,17207,2021-02-12 17:51:57.990,2.7798529,3.0,7
17217,17217,2021-02-12 17:52:27.990,2.7348924,3.0,7
17227,17227,2021-02-12 17:52:57.990,2.6936364,3.0,7
17237,17237,2021-02-12 17:53:27.990,2.656736,3.0,7
17247,17247,2021-02-12 17:53:57.990,2.6244747999999998,3.0,7
17257,17257,2021-02-12 17:54:27.990,2.5959086,3.0,7
17267,17267,2021-02-12 17:54:57.990,2.5706596,3.0,7
17277,17277,2021-02-12 17:55:27.990,2.5490823,3.0,7
17287,17287,2021-02-12 17:55:57.990,2.5311677,3.0,7
17297,17297,2021-02-12 17:56:27.990,2.5169444,3.0,7
17307,17307,2021-02-12 17:56:57.990,2.5065315,3.0,7
17317,17317,2021-02-12 17:57:27.990,2.5002343999999996,3.0,7
17327,17327,2021-02-12 17:57:57.990,2.498428,3.0,7
17337,17337,2021-02-12 17:58:27.990,2.5015693,3.0,7
17347,17347,2021-02-12 17:58:57.990,2.5103562000000004,3.0,7
17357,17357,2021-02-12 17:59:27.990,2.525803,3.0,7
17367,17367,2021-02-12 17:59:57.990,2.548921,3.0,7
17377,17377,2021-02-12 18:00:27.990,2.5845525,3.0,7
17387,17387,2021-02-12 18:00:57.990,2.6376897999999995,3.0,7
17397,17397,2021-02-12 18:01:27.990,2.7232845,3.0,7
17407,17407,2021-02-12 18:01:57.990,3.0000023999999996,3.0,7
17417,17417,2021-02-12 18:02:27.990,3.0000023999999996,3.0,7
17427,17427,2021-02-12 18:02:57.990,3.0000023999999996,3.0,7
17437,17437,2021-02-12 18:03:27.990,3.0000023999999996,3.0,7
17447,17447,2021-02-12 18:03:57.990,3.0000023999999996,3.0,7
17457,17457,2021-02-12 18:04:27.990,3.0000023999999996,3.0,7
17467,17467,2021-02-12 18:04:57.990,3.0000023999999996,3.0,7
17477,17477,2021-02-12 18:05:27.990,3.0000023999999996,3.0,7
17487,17487,2021-02-12 18:05:57.990,3.0000023999999996,3.0,7
17497,17497,2021-02-12 18:06:27.990,3.0000023999999996,3.0,7
17507,17507,2021-02-12 18:06:57.990,3.0000023999999996,3.0,7
17517,17517,2021-02-12 18:07:27.990,3.0000023999999996,3.0,7
17527,17527,2021-02-12 18:07:57.990,3.0000023999999996,3.0,7
17537,17537,2021-02-12 18:08:27.990,3.0000023999999996,3.0,7
17547,17547,2021-02-12 18:08:57.990,3.0000023999999996,3.0,7
17557,17557,2021-02-12 18:09:27.990,3.0000023999999996,3.0,7
17567,17567,2021-02-12 18:09:57.990,3.0000023999999996,3.0,7
17577,17577,2021-02-12 18:10:27.990,3.0000023999999996,3.0,7
17587,17587,2021-02-12 18:10:57.990,3.0000023999999996,3.0,7
17597,17597,2021-02-12 18:11:27.990,3.0000023999999996,3.0,7
17607,17607,2021-02-12 18:11:57.990,3.0000023999999996,3.0,7
17617,17617,2021-02-12 18:12:27.990,3.0000023999999996,3.0,7
17627,17627,2021-02-12 18:12:57.990,3.0000023999999996,3.0,7
17637,17637,2021-02-12 18:13:27.990,3.0000023999999996,3.0,7
17647,17647,2021-02-12 18:13:57.990,3.0000023999999996,3.0,7
17657,17657,2021-02-12 18:14:27.990,3.0000023999999996,3.0,7
17667,17667,2021-02-12 18:14:57.990,3.0000023999999996,3.0,7
17677,17677,2021-02-12 18:15:27.990,3.0000023999999996,3.0,7
17687,17687,2021-02-12 18:15:57.990,3.0000023999999996,3.0,7
17697,17697,2021-02-12 18:16:27.990,3.0000023999999996,3.0,7
17707,17707,2021-02-12 18:16:57.990,3.0000023999999996,3.0,7
17717,17717,2021-02-12 18:17:27.990,3.0000023999999996,3.0,7
17727,17727,2021-02-12 18:17:57.990,3.0000023999999996,3.0,7
17737,17737,2021-02-12 18:18:27.990,3.0000023999999996,3.0,7
17747,17747,2021-02-12 18:18:57.990,3.0000023999999996,3.0,7
17757,17757,2021-02-12 18:19:27.990,3.0000023999999996,3.0,7
17767,17767,2021-02-12 18:19:57.990,3.0000023999999996,3.0,7
17777,17777,2021-02-12 18:20:27.990,3.0000023999999996,3.0,7
17787,17787,2021-02-12 18:20:57.990,3.0000023999999996,3.0,7
17797,17797,2021-02-12 18:21:27.990,3.0000023999999996,3.0,7
17807,17807,2021-02-12 18:21:57.990,3.0000023999999996,3.0,7
17817,17817,2021-02-12 18:22:27.990,3.0000023999999996,3.0,7
17827,17827,2021-02-12 18:22:57.990,3.0000023999999996,3.0,7
17837,17837,2021-02-12 18:23:27.990,3.0000023999999996,3.0,7
17847,17847,2021-02-12 18:23:57.990,3.0000023999999996,3.0,7
17857,17857,2021-02-12 18:24:27.990,3.0000023999999996,3.0,7
17867,17867,2021-02-12 18:24:57.990,3.0000023999999996,3.0,7
17877,17877,2021-02-12 18:25:27.990,3.0000023999999996,3.0,7
17887,17887,2021-02-12 18:25:57.990,3.0000023999999996,3.0,7
17897,17897,2021-02-12 18:26:27.990,3.0000023999999996,3.0,7
17907,17907,2021-02-12 18:26:57.990,3.0000023999999996,3.0,7
17917,17917,2021-02-12 18:27:27.990,3.0000023999999996,3.0,7
17927,17927,2021-02-12 18:27:57.990,3.0000023999999996,3.0,7
17937,17937,2021-02-12 18:28:27.990,3.0000023999999996,3.0,7
17947,17947,2021-02-12 18:28:57.990,3.0000023999999996,3.0,7
17957,17957,2021-02-12 18:29:27.990,3.0000023999999996,3.0,7
17967,17967,2021-02-12 18:29:57.990,3.0000023999999996,3.0,7
17977,17977,2021-02-12 18:30:27.990,3.0000023999999996,3.0,7
17987,17987,2021-02-12 18:30:57.990,3.0000023999999996,3.0,7
17997,17997,2021-02-12 18:31:27.990,3.0000023999999996,3.0,7
18007,18007,2021-02-12 18:31:57.990,3.0000023999999996,3.0,7
18017,18017,2021-02-12 18:32:27.990,3.0000023999999996,3.0,7
18027,18027,2021-02-12 18:32:57.990,3.0000023999999996,3.0,7
18037,18037,2021-02-12 18:33:27.990,3.0000023999999996,3.0,7
18047,18047,2021-02-12 18:33:57.990,3.0000023999999996,3.0,7
18057,18057,2021-02-12 18:34:27.990,3.0000023999999996,3.0,7
18067,18067,2021-02-12 18:34:57.990,3.0000023999999996,3.0,7
18077,18077,2021-02-12 18:35:27.990,3.0000023999999996,3.0,7
18087,18087,2021-02-12 18:35:57.990,3.0000023999999996,3.0,7
18097,18097,2021-02-12 18:36:27.990,3.0000023999999996,3.0,7
18107,18107,2021-02-12 18:36:57.990,3.0000023999999996,3.0,7
18117,18117,2021-02-12 18:37:27.990,3.0000023999999996,3.0,7
18127,18127,2021-02-12 18:37:57.990,3.0000023999999996,3.0,7
18137,18137,2021-02-12 18:38:27.990,3.0000023999999996,3.0,7
18147,18147,2021-02-12 18:38:57.990,3.0000023999999996,3.0,7
18157,18157,2021-02-12 18:39:27.990,3.0000023999999996,3.0,7
18167,18167,2021-02-12 18:39:57.990,3.0000023999999996,3.0,7
18177,18177,2021-02-12 18:40:27.990,3.0000023999999996,3.0,7
18187,18187,2021-02-12 18:40:57.990,3.0000023999999996,3.0,7
18197,18197,2021-02-12 18:41:27.990,3.0000023999999996,3.0,7
18207,18207,2021-02-12 18:41:57.990,3.0000023999999996,3.0,7
18217,18217,2021-02-12 18:42:27.990,3.0000023999999996,3.0,7
18227,18227,2021-02-12 18:42:57.990,3.0000023999999996,3.0,7
18237,18237,2021-02-12 18:43:27.990,3.0000023999999996,3.0,7
18247,18247,2021-02-12 18:43:57.990,3.0000023999999996,3.0,7
18257,18257,2021-02-12 18:44:27.990,3.0000023999999996,3.0,7
18267,18267,2021-02-12 18:44:57.990,3.0000023999999996,3.0,7
18277,18277,2021-02-12 18:45:27.990,3.0000023999999996,3.0,7
18287,18287,2021-02-12 18:45:57.990,3.0000023999999996,3.0,7
18297,18297,2021-02-12 18:46:27.990,3.0000023999999996,3.0,7
18307,18307,2021-02-12 18:46:57.990,3.0000023999999996,3.0,7
18317,18317,2021-02-12 18:47:27.990,3.0000023999999996,3.0,7
18327,18327,2021-02-12 18:47:57.990,3.0000023999999996,3.0,7
18337,18337,2021-02-12 18:48:27.990,3.0000023999999996,3.0,7
18347,18347,2021-02-12 18:48:57.990,3.0000023999999996,3.0,7
18357,18357,2021-02-12 18:49:27.990,3.0000023999999996,3.0,7
18367,18367,2021-02-12 18:49:57.990,3.0000023999999996,3.0,7
18377,18377,2021-02-12 18:50:27.990,3.0000023999999996,3.0,7
18387,18387,2021-02-12 18:50:57.990,3.0000023999999996,3.0,7
18397,18397,2021-02-12 18:51:27.990,3.0000023999999996,3.0,7
18407,18407,2021-02-12 18:51:57.990,3.0000023999999996,3.0,7
18417,18417,2021-02-12 18:52:27.990,3.0000023999999996,3.0,7
18427,18427,2021-02-12 18:52:57.990,3.0000023999999996,3.0,7
18437,18437,2021-02-12 18:53:27.990,3.0000023999999996,3.0,7
18447,18447,2021-02-12 18:53:57.990,3.0000023999999996,3.0,7
18457,18457,2021-02-12 18:54:27.990,3.0000023999999996,3.0,7
18467,18467,2021-02-12 18:54:57.990,3.0000023999999996,3.0,7
18477,18477,2021-02-12 18:55:27.990,3.0000023999999996,3.0,7
18487,18487,2021-02-12 18:55:57.990,3.0000023999999996,3.0,7
18497,18497,2021-02-12 18:56:27.990,3.0000023999999996,3.0,7
18507,18507,2021-02-12 18:56:57.990,3.0000023999999996,3.0,7
18517,18517,2021-02-12 18:57:27.990,3.0000023999999996,3.0,7
18527,18527,2021-02-12 18:57:57.990,3.0000023999999996,3.0,7
18537,18537,2021-02-12 18:58:27.990,3.0000023999999996,2.0,7
18547,18547,2021-02-12 18:58:57.990,3.0000023999999996,2.0,7
18557,18557,2021-02-12 18:59:27.990,3.0000023999999996,2.0,7
18567,18567,2021-02-12 18:59:57.990,3.0000023999999996,2.0,7
18577,18577,2021-02-12 19:00:27.990,3.0000023999999996,2.0,7
18587,18587,2021-02-12 19:00:57.990,3.0000023999999996,2.0,7
18597,18597,2021-02-12 19:01:27.990,3.0000023999999996,2.0,7
18607,18607,2021-02-12 19:01:57.990,3.0000023999999996,2.0,7
18617,18617,2021-02-12 19:02:27.990,2.576387,2.0,7
18627,18627,2021-02-12 19:02:57.990,2.4019023999999995,2.0,7
18637,18637,2021-02-12 19:03:27.990,2.2699845,2.0,7
18647,18647,2021-02-12 19:03:57.990,2.160724,2.0,7
18657,18657,2021-02-12 19:04:27.990,2.0694381999999996,2.0,7
18667,18667,2021-02-12 19:04:57.990,1.994894,2.0,7
18677,18677,2021-02-12 19:05:27.990,1.9357817,2.0,7
18687,18687,2021-02-12 19:05:57.990,1.8787953999999998,2.0,7
18697,18697,2021-02-12 19:06:27.990,1.8329144,2.0,7
18707,18707,2021-02-12 19:06:57.990,1.7885749,2.0,7
18717,18717,2021-02-12 19:07:27.990,1.7460861,2.0,7
18727,18727,2021-02-12 19:07:57.990,1.7070165000000002,2.0,7
18737,18737,2021-02-12 19:08:27.990,1.6721706000000003,2.0,7
18747,18747,2021-02-12 19:08:57.990,1.6414628,2.0,7
18757,18757,2021-02-12 19:09:27.990,1.6148738999999999,2.0,7
18767,18767,2021-02-12 19:09:57.990,1.5913028999999999,2.0,7
18777,18777,2021-02-12 19:10:27.990,1.571137,2.0,7
18787,18787,2021-02-12 19:10:57.990,1.5544307,2.0,7
18797,18797,2021-02-12 19:11:27.990,1.5412018,2.0,7
18807,18807,2021-02-12 19:11:57.990,1.5315334999999999,2.0,7
18817,18817,2021-02-12 19:12:27.990,1.5256624,2.0,7
18827,18827,2021-02-12 19:12:57.990,1.5239719999999999,2.0,7
18837,18837,2021-02-12 19:13:27.990,1.5268996000000001,2.0,7
18847,18847,2021-02-12 19:13:57.990,1.5350926,2.0,7
18857,18857,2021-02-12 19:14:27.990,1.5495162,2.0,7
18867,18867,2021-02-12 19:14:57.990,1.5711853999999998,2.0,7
18877,18877,2021-02-12 19:15:27.990,1.6044278,2.0,7
18887,18887,2021-02-12 19:15:57.990,1.6544398999999999,2.0,7
18897,18897,2021-02-12 19:16:27.990,1.7352271000000001,2.0,7
18907,18907,2021-02-12 19:16:57.990,1.999999,2.0,7
18917,18917,2021-02-12 19:17:27.990,1.999999,2.0,7
18927,18927,2021-02-12 19:17:57.990,1.999999,2.0,7
18937,18937,2021-02-12 19:18:27.990,1.999999,2.0,7
18947,18947,2021-02-12 19:18:57.990,1.999999,2.0,7
18957,18957,2021-02-12 19:19:27.990,1.999999,2.0,7
18967,18967,2021-02-12 19:19:57.990,1.999999,2.0,7
18977,18977,2021-02-12 19:20:27.990,1.999999,2.0,7
18987,18987,2021-02-12 19:20:57.990,1.999999,2.0,7
18997,18997,2021-02-12 19:21:27.990,1.999999,2.0,7
19007,19007,2021-02-12 19:21:57.990,1.999999,2.0,7
19017,19017,2021-02-12 19:22:27.990,1.999999,2.0,7
19027,19027,2021-02-12 19:22:57.990,1.999999,2.0,7
19037,19037,2021-02-12 19:23:27.990,1.999999,2.0,7
19047,19047,2021-02-12 19:23:57.990,1.999999,2.0,7
19057,19057,2021-02-12 19:24:27.990,1.999999,2.0,7
19067,19067,2021-02-12 19:24:57.990,1.999999,2.0,7
19077,19077,2021-02-12 19:25:27.990,1.999999,2.0,7
19087,19087,2021-02-12 19:25:57.990,1.999999,2.0,7
19097,19097,2021-02-12 19:26:27.990,1.999999,2.0,7
19107,19107,2021-02-12 19:26:57.990,1.999999,2.0,7
19117,19117,2021-02-12 19:27:27.990,1.999999,2.0,7
19127,19127,2021-02-12 19:27:57.990,1.999999,2.0,7
19137,19137,2021-02-12 19:28:27.990,1.999999,2.0,7
19147,19147,2021-02-12 19:28:57.990,1.999999,2.0,7
19157,19157,2021-02-12 19:29:27.990,1.999999,2.0,7
19167,19167,2021-02-12 19:29:57.990,1.999999,2.0,7
19177,19177,2021-02-12 19:30:27.990,1.999999,2.0,7
19187,19187,2021-02-12 19:30:57.990,1.999999,2.0,7
19197,19197,2021-02-12 19:31:27.990,1.999999,2.0,7
19207,19207,2021-02-12 19:31:57.990,1.999999,2.0,7
19217,19217,2021-02-12 19:32:27.990,1.999999,2.0,7
19227,19227,2021-02-12 19:32:57.990,1.999999,2.0,7
19237,19237,2021-02-12 19:33:27.990,1.999999,2.0,7
19247,19247,2021-02-12 19:33:57.990,1.999999,2.0,7
19257,19257,2021-02-12 19:34:27.990,1.999999,2.0,7
19267,19267,2021-02-12 19:34:57.990,1.999999,2.0,7
19277,19277,2021-02-12 19:35:27.990,1.999999,2.0,7
19287,19287,2021-02-12 19:35:57.990,1.999999,2.0,7
19297,19297,2021-02-12 19:36:27.990,1.999999,2.0,7
19307,19307,2021-02-12 19:36:57.990,1.999999,2.0,7
19317,19317,2021-02-12 19:37:27.990,1.999999,2.0,7
19327,19327,2021-02-12 19:37:57.990,1.999999,2.0,7
19337,19337,2021-02-12 19:38:27.990,1.999999,2.0,7
19347,19347,2021-02-12 19:38:57.990,1.999999,2.0,7
19357,19357,2021-02-12 19:39:27.990,1.999999,2.0,7
19367,19367,2021-02-12 19:39:57.990,1.999999,2.0,7
19377,19377,2021-02-12 19:40:27.990,1.999999,2.0,7
19387,19387,2021-02-12 19:40:57.990,1.999999,2.0,7
19397,19397,2021-02-12 19:41:27.990,1.999999,2.0,7
19407,19407,2021-02-12 19:41:57.990,1.999999,2.0,7
19417,19417,2021-02-12 19:42:27.990,1.999999,2.0,7
19427,19427,2021-02-12 19:42:57.990,1.999999,2.0,7
19437,19437,2021-02-12 19:43:27.990,1.999999,2.0,7
19447,19447,2021-02-12 19:43:57.990,1.999999,2.0,7
19457,19457,2021-02-12 19:44:27.990,1.999999,2.0,7
19467,19467,2021-02-12 19:44:57.990,1.999999,2.0,7
19477,19477,2021-02-12 19:45:27.990,1.999999,2.0,7
19487,19487,2021-02-12 19:45:57.990,1.999999,2.0,7
19497,19497,2021-02-12 19:46:27.990,1.999999,2.0,7
19507,19507,2021-02-12 19:46:57.990,1.999999,2.0,7
19517,19517,2021-02-12 19:47:27.990,1.999999,2.0,7
19527,19527,2021-02-12 19:47:57.990,1.999999,2.0,7
19537,19537,2021-02-12 19:48:27.990,1.999999,2.0,7
19547,19547,2021-02-12 19:48:57.990,1.999999,2.0,7
19557,19557,2021-02-12 19:49:27.990,1.999999,2.0,7
19567,19567,2021-02-12 19:49:57.990,1.999999,2.0,7
19577,19577,2021-02-12 19:50:27.990,1.999999,2.0,7
19587,19587,2021-02-12 19:50:57.990,1.999999,2.0,7
19597,19597,2021-02-12 19:51:27.990,1.999999,2.0,7
19607,19607,2021-02-12 19:51:57.990,1.999999,2.0,7
19617,19617,2021-02-12 19:52:27.990,1.999999,2.0,7
19627,19627,2021-02-12 19:52:57.990,1.999999,2.0,7
19637,19637,2021-02-12 19:53:27.990,1.999999,2.0,7
19647,19647,2021-02-12 19:53:57.990,1.999999,2.0,7
19657,19657,2021-02-12 19:54:27.990,1.999999,2.0,7
19667,19667,2021-02-12 19:54:57.990,1.999999,2.0,7
19677,19677,2021-02-12 19:55:27.990,1.999999,2.0,7
19687,19687,2021-02-12 19:55:57.990,1.999999,2.0,7
19697,19697,2021-02-12 19:56:27.990,1.999999,2.0,7
19707,19707,2021-02-12 19:56:57.990,1.999999,2.0,7
19717,19717,2021-02-12 19:57:27.990,1.999999,2.0,7
19727,19727,2021-02-12 19:57:57.990,1.999999,2.0,7
19737,19737,2021-02-12 19:58:27.990,1.999999,2.0,7
19747,19747,2021-02-12 19:58:57.990,1.999999,2.0,7
19757,19757,2021-02-12 19:59:27.990,1.999999,2.0,7
19767,19767,2021-02-12 19:59:57.990,1.999999,2.0,7
19777,19777,2021-02-12 20:00:27.990,1.999999,2.0,7
19787,19787,2021-02-12 20:00:57.990,1.999999,2.0,7
19797,19797,2021-02-12 20:01:27.990,1.999999,2.0,7
19807,19807,2021-02-12 20:01:57.990,1.999999,2.0,7
19817,19817,2021-02-12 20:02:27.990,1.999999,2.0,7
19827,19827,2021-02-12 20:02:57.990,1.999999,2.0,7
19837,19837,2021-02-12 20:03:27.990,1.999999,2.0,7
19847,19847,2021-02-12 20:03:57.990,1.999999,2.0,7
19857,19857,2021-02-12 20:04:27.990,1.999999,2.0,7
19867,19867,2021-02-12 20:04:57.990,1.999999,2.0,7
19877,19877,2021-02-12 20:05:27.990,1.999999,2.0,7
19887,19887,2021-02-12 20:05:57.990,1.999999,2.0,7
19897,19897,2021-02-12 20:06:27.990,1.999999,2.0,7
19907,19907,2021-02-12 20:06:57.990,1.999999,2.0,7
19917,19917,2021-02-12 20:07:27.990,1.999999,2.0,7
19927,19927,2021-02-12 20:07:57.990,1.999999,2.0,7
19937,19937,2021-02-12 20:08:27.990,1.999999,2.0,7
19947,19947,2021-02-12 20:08:57.990,1.999999,2.0,7
19957,19957,2021-02-12 20:09:27.990,1.999999,2.0,7
19967,19967,2021-02-12 20:09:57.990,1.999999,2.0,7
19977,19977,2021-02-12 20:10:27.990,1.999999,2.0,7
19987,19987,2021-02-12 20:10:57.990,1.999999,2.0,7
19997,19997,2021-02-12 20:11:27.990,1.999999,2.0,7
20007,20007,2021-02-12 20:11:57.990,1.999999,2.0,7
20017,20017,2021-02-12 20:12:27.990,1.999999,2.0,7
20027,20027,2021-02-12 20:12:57.990,1.999999,2.0,7
20037,20037,2021-02-12 20:13:27.990,1.999999,2.0,7
20047,20047,2021-02-12 20:13:57.990,1.999999,2.0,7
20057,20057,2021-02-12 20:14:27.990,1.999999,2.0,7
20067,20067,2021-02-12 20:14:57.990,1.999999,2.0,7
20077,20077,2021-02-12 20:15:27.990,1.999999,2.0,7
20087,20087,2021-02-12 20:15:57.990,1.999999,2.0,7
20097,20097,2021-02-12 20:16:27.990,1.999999,2.0,7
20107,20107,2021-02-12 20:16:57.990,1.999999,2.0,7
20117,20117,2021-02-12 20:17:27.990,1.999999,2.0,7
20127,20127,2021-02-12 20:17:57.990,1.999999,2.0,7
20137,20137,2021-02-12 20:18:27.990,1.999999,2.0,7
20147,20147,2021-02-12 20:18:57.990,1.999999,2.0,7
20157,20157,2021-02-12 20:19:27.990,1.999999,2.0,7
20167,20167,2021-02-12 20:19:57.990,1.999999,2.0,7
20177,20177,2021-02-12 20:20:27.990,1.999999,2.0,7
20187,20187,2021-02-12 20:20:57.990,1.999999,2.0,7
20197,20197,2021-02-12 20:21:27.990,1.999999,2.0,7
20207,20207,2021-02-12 20:21:57.990,1.999999,2.0,7
20217,20217,2021-02-12 20:22:27.990,1.999999,2.0,7
20227,20227,2021-02-12 20:22:57.990,1.999999,2.0,7
20237,20237,2021-02-12 20:23:27.990,1.999999,2.0,7
20247,20247,2021-02-12 20:23:57.990,1.999999,2.0,7
20257,20257,2021-02-12 20:24:27.990,1.999999,2.0,7
20267,20267,2021-02-12 20:24:57.990,1.999999,2.0,7
20277,20277,2021-02-12 20:25:27.990,1.999999,2.0,7
20287,20287,2021-02-12 20:25:57.990,1.999999,2.0,7
20297,20297,2021-02-12 20:26:27.990,1.999999,2.0,7
20307,20307,2021-02-12 20:26:57.990,1.999999,2.0,7
20317,20317,2021-02-12 20:27:27.990,1.999999,2.0,7
20327,20327,2021-02-12 20:27:57.990,1.999999,2.0,7
20337,20337,2021-02-12 20:28:27.990,1.999999,2.0,7
20347,20347,2021-02-12 20:28:57.990,1.999999,2.0,7
20357,20357,2021-02-12 20:29:27.990,1.999999,2.0,7
20367,20367,2021-02-12 20:29:57.990,1.999999,2.0,7
20377,20377,2021-02-12 20:30:27.990,1.999999,2.0,7
20387,20387,2021-02-12 20:30:57.990,1.999999,2.0,7
20397,20397,2021-02-12 20:31:27.990,1.999999,2.0,7
20407,20407,2021-02-12 20:31:57.990,1.999999,2.0,7
20417,20417,2021-02-12 20:32:27.990,1.999999,2.0,7
20427,20427,2021-02-12 20:32:57.990,1.999999,2.0,7
20437,20437,2021-02-12 20:33:27.990,1.999999,2.0,7
20447,20447,2021-02-12 20:33:57.990,1.999999,2.0,7
20457,20457,2021-02-12 20:34:27.990,1.999999,2.0,7
20467,20467,2021-02-12 20:34:57.990,1.999999,2.0,7
20477,20477,2021-02-12 20:35:27.990,1.999999,2.0,7
20487,20487,2021-02-12 20:35:57.990,1.999999,2.0,7
20497,20497,2021-02-12 20:36:27.990,1.999999,2.0,7
20507,20507,2021-02-12 20:36:57.990,1.999999,2.0,7
20517,20517,2021-02-12 20:37:27.990,1.999999,2.0,7
20527,20527,2021-02-12 20:37:57.990,1.999999,2.0,7
20537,20537,2021-02-12 20:38:27.990,1.999999,2.0,7
20547,20547,2021-02-12 20:38:57.990,1.999999,2.0,7
20557,20557,2021-02-12 20:39:27.990,1.999999,2.0,7
20567,20567,2021-02-12 20:39:57.990,1.999999,2.0,7
20577,20577,2021-02-12 20:40:27.990,1.999999,2.0,7
20587,20587,2021-02-12 20:40:57.990,1.999999,2.0,7
20597,20597,2021-02-12 20:41:27.990,1.999999,2.0,7
20607,20607,2021-02-12 20:41:57.990,1.999999,2.0,7
20617,20617,2021-02-12 20:42:27.990,1.999999,2.0,7
20627,20627,2021-02-12 20:42:57.990,1.999999,2.0,7
20637,20637,2021-02-12 20:43:27.990,1.999999,2.0,7
20647,20647,2021-02-12 20:43:57.990,1.999999,2.0,7
20657,20657,2021-02-12 20:44:27.990,1.999999,2.0,7
20667,20667,2021-02-12 20:44:57.990,1.999999,2.0,7
20677,20677,2021-02-12 20:45:27.990,1.999999,2.0,7
20687,20687,2021-02-12 20:45:57.990,1.999999,2.0,7
20697,20697,2021-02-12 20:46:27.990,1.999999,2.0,7
20707,20707,2021-02-12 20:46:57.990,1.999999,2.0,7
20717,20717,2021-02-12 20:47:27.990,1.999999,2.0,7
20727,20727,2021-02-12 20:47:57.990,1.999999,2.0,7
20737,20737,2021-02-12 20:48:27.990,1.999999,2.0,7
20747,20747,2021-02-12 20:48:57.990,1.999999,2.0,7
20757,20757,2021-02-12 20:49:27.990,1.999999,2.0,7
20767,20767,2021-02-12 20:49:57.990,1.999999,2.0,7
20777,20777,2021-02-12 20:50:27.990,1.999999,2.0,7
20787,20787,2021-02-12 20:50:57.990,1.999999,2.0,7
20797,20797,2021-02-12 20:51:27.990,1.999999,2.0,7
20807,20807,2021-02-12 20:51:57.990,1.999999,2.0,7
20817,20817,2021-02-12 20:52:27.990,1.999999,2.0,7
20827,20827,2021-02-12 20:52:57.990,1.999999,2.0,7
20837,20837,2021-02-12 20:53:27.990,1.999999,2.0,7
20847,20847,2021-02-12 20:53:57.990,1.999999,2.0,7
20857,20857,2021-02-12 20:54:27.990,1.999999,2.0,7
20867,20867,2021-02-12 20:54:57.990,1.999999,2.0,7
20877,20877,2021-02-12 20:55:27.990,1.999999,2.0,7
20887,20887,2021-02-12 20:55:57.990,1.999999,2.0,7
20897,20897,2021-02-12 20:56:27.990,1.999999,2.0,7
20907,20907,2021-02-12 20:56:57.990,1.999999,2.0,7
20917,20917,2021-02-12 20:57:27.990,1.999999,2.0,7
20927,20927,2021-02-12 20:57:57.990,1.999999,2.0,7
20937,20937,2021-02-12 20:58:27.990,1.999999,2.0,7
20947,20947,2021-02-12 20:58:57.990,1.999999,2.0,7
20957,20957,2021-02-12 20:59:27.990,1.999999,2.0,7
20967,20967,2021-02-12 20:59:57.990,1.999999,2.0,7
20977,20977,2021-02-12 21:00:27.990,1.999999,2.0,7
20987,20987,2021-02-12 21:00:57.990,1.999999,2.0,7
20997,20997,2021-02-12 21:01:27.990,1.999999,2.0,7
21007,21007,2021-02-12 21:01:57.990,1.999999,2.0,7
21017,21017,2021-02-12 21:02:27.990,1.999999,2.0,7
21027,21027,2021-02-12 21:02:57.990,1.999999,2.0,7
21037,21037,2021-02-12 21:03:27.990,1.999999,2.0,7
21047,21047,2021-02-12 21:03:57.990,1.999999,2.0,7
21057,21057,2021-02-12 21:04:27.990,1.999999,2.0,7
21067,21067,2021-02-12 21:04:57.990,1.999999,2.0,7
21077,21077,2021-02-12 21:05:27.990,1.999999,2.0,7
21087,21087,2021-02-12 21:05:57.990,1.999999,2.0,7
21097,21097,2021-02-12 21:06:27.990,1.999999,2.0,7
21107,21107,2021-02-12 21:06:57.990,1.999999,2.0,7
21117,21117,2021-02-12 21:07:27.990,1.999999,2.0,7
21127,21127,2021-02-12 21:07:57.990,1.999999,2.0,7
21137,21137,2021-02-12 21:08:27.990,1.999999,2.0,7
21147,21147,2021-02-12 21:08:57.990,1.999999,2.0,7
21157,21157,2021-02-12 21:09:27.990,1.999999,2.0,7
21167,21167,2021-02-12 21:09:57.990,1.999999,2.0,7
21177,21177,2021-02-12 21:10:27.990,1.999999,2.0,7
21187,21187,2021-02-12 21:10:57.990,1.999999,2.0,7
21197,21197,2021-02-12 21:11:27.990,1.999999,2.0,7
21207,21207,2021-02-12 21:11:57.990,1.999999,2.0,7
21217,21217,2021-02-12 21:12:27.990,1.999999,2.0,7
21227,21227,2021-02-12 21:12:57.990,1.999999,2.0,7
21237,21237,2021-02-12 21:13:27.990,1.999999,2.0,7
21247,21247,2021-02-12 21:13:57.990,1.999999,2.0,7
21257,21257,2021-02-12 21:14:27.990,1.999999,2.0,7
21267,21267,2021-02-12 21:14:57.990,1.999999,2.0,7
21277,21277,2021-02-12 21:15:27.990,1.999999,2.0,7
21287,21287,2021-02-12 21:15:57.990,1.999999,2.0,7
21297,21297,2021-02-12 21:16:27.990,1.999999,2.0,7
21307,21307,2021-02-12 21:16:57.990,1.999999,2.0,7
21317,21317,2021-02-12 21:17:27.990,1.999999,2.0,7
21327,21327,2021-02-12 21:17:57.990,1.999999,2.0,7
21337,21337,2021-02-12 21:18:27.990,1.999999,2.0,7
21347,21347,2021-02-12 21:18:57.990,1.999999,2.0,7
21357,21357,2021-02-12 21:19:27.990,1.999999,2.0,7
21367,21367,2021-02-12 21:19:57.990,1.999999,2.0,7
21377,21377,2021-02-12 21:20:27.990,1.999999,2.0,7
21387,21387,2021-02-12 21:20:57.990,1.999999,2.0,7
21397,21397,2021-02-12 21:21:27.990,1.999999,1.0,7
21407,21407,2021-02-12 21:21:57.990,1.999999,1.0,7
21417,21417,2021-02-12 21:22:27.990,1.999999,1.0,7
21427,21427,2021-02-12 21:22:57.990,1.999999,1.0,7
21437,21437,2021-02-12 21:23:27.990,1.999999,1.0,7
21447,21447,2021-02-12 21:23:57.990,1.999999,1.0,7
21457,21457,2021-02-12 21:24:27.990,1.999999,1.0,7
21467,21467,2021-02-12 21:24:57.990,1.999999,1.0,7
21477,21477,2021-02-12 21:25:27.990,1.5620444,1.0,7
21487,21487,2021-02-12 21:25:57.990,1.3877025,1.0,7
21497,21497,2021-02-12 21:26:27.990,1.2583776000000002,1.0,7
21507,21507,2021-02-12 21:26:57.990,1.1527343,1.0,7
21517,21517,2021-02-12 21:27:27.990,1.0654242,1.0,7
21527,21527,2021-02-12 21:27:57.990,0.9945290000000001,1.0,7
21537,21537,2021-02-12 21:28:27.990,0.9400735,1.0,7
21547,21547,2021-02-12 21:28:57.990,0.88599885,1.0,7
21557,21557,2021-02-12 21:29:27.990,0.8437716999999999,1.0,7
21567,21567,2021-02-12 21:29:57.990,0.8039073,1.0,7
21577,21577,2021-02-12 21:30:27.990,0.7656807,1.0,7
21587,21587,2021-02-12 21:30:57.990,0.73037255,1.0,7
21597,21597,2021-02-12 21:31:27.990,0.6990291000000001,1.0,7
21607,21607,2021-02-12 21:31:57.990,0.67146873,1.0,7
21617,21617,2021-02-12 21:32:27.990,0.6478106,1.0,7
21627,21627,2021-02-12 21:32:57.990,0.6269621999999999,1.0,7
21637,21637,2021-02-12 21:33:27.990,0.6091479999999999,1.0,7
21647,21647,2021-02-12 21:33:57.990,0.59443116,1.0,7
21657,21657,2021-02-12 21:34:27.990,0.58280325,1.0,7
21667,21667,2021-02-12 21:34:57.990,0.5743151,1.0,7
21677,21677,2021-02-12 21:35:27.990,0.5691651,1.0,7
21687,21687,2021-02-12 21:35:57.990,0.56768024,1.0,7
21697,21697,2021-02-12 21:36:27.990,0.5702343000000001,1.0,7
21707,21707,2021-02-12 21:36:57.990,0.5773994,1.0,7
21717,21717,2021-02-12 21:37:27.990,0.5900464,1.0,7
21727,21727,2021-02-12 21:37:57.990,0.60952175,1.0,7
21737,21737,2021-02-12 21:38:27.990,0.6387936,1.0,7
21747,21747,2021-02-12 21:38:57.990,0.6830927,1.0,7
21757,21757,2021-02-12 21:39:27.990,0.75573814,1.0,7
21767,21767,2021-02-12 21:39:57.990,1.0000007,1.0,7
21777,21777,2021-02-12 21:40:27.990,1.0000007,1.0,7
21787,21787,2021-02-12 21:40:57.990,1.0000007,1.0,7
21797,21797,2021-02-12 21:41:27.990,1.0000007,1.0,7
21807,21807,2021-02-12 21:41:57.990,1.0000007,1.0,7
21817,21817,2021-02-12 21:42:27.990,1.0000007,1.0,7
21827,21827,2021-02-12 21:42:57.990,1.0000007,1.0,7
21837,21837,2021-02-12 21:43:27.990,1.0000007,1.0,7
21847,21847,2021-02-12 21:43:57.990,1.0000007,1.0,7
21857,21857,2021-02-12 21:44:27.990,1.0000007,1.0,7
21867,21867,2021-02-12 21:44:57.990,1.0000007,1.0,7
21877,21877,2021-02-12 21:45:27.990,1.0000007,1.0,7
21887,21887,2021-02-12 21:45:57.990,1.0000007,1.0,7
21897,21897,2021-02-12 21:46:27.990,1.0000007,1.0,7
21907,21907,2021-02-12 21:46:57.990,1.0000007,1.0,7
21917,21917,2021-02-12 21:47:27.990,1.0000007,1.0,7
21927,21927,2021-02-12 21:47:57.990,1.0000007,1.0,7
21937,21937,2021-02-12 21:48:27.990,1.0000007,1.0,7
21947,21947,2021-02-12 21:48:57.990,1.0000007,1.0,7
21957,21957,2021-02-12 21:49:27.990,1.0000007,1.0,7
21967,21967,2021-02-12 21:49:57.990,1.0000007,1.0,7
21977,21977,2021-02-12 21:50:27.990,1.0000007,1.0,7
21987,21987,2021-02-12 21:50:57.990,1.0000007,1.0,7
21997,21997,2021-02-12 21:51:27.990,1.0000007,1.0,7
22007,22007,2021-02-12 21:51:57.990,1.0000007,1.0,7
22017,22017,2021-02-12 21:52:27.990,1.0000007,1.0,7
22027,22027,2021-02-12 21:52:57.990,1.0000007,1.0,7
22037,22037,2021-02-12 21:53:27.990,1.0000007,1.0,7
22047,22047,2021-02-12 21:53:57.990,1.0000007,1.0,7
22057,22057,2021-02-12 21:54:27.990,1.0000007,1.0,7
22067,22067,2021-02-12 21:54:57.990,1.0000007,1.0,7
22077,22077,2021-02-12 21:55:27.990,1.0000007,1.0,7
22087,22087,2021-02-12 21:55:57.990,1.0000007,1.0,7
22097,22097,2021-02-12 21:56:27.990,1.0000007,1.0,7
22107,22107,2021-02-12 21:56:57.990,1.0000007,1.0,7
22117,22117,2021-02-12 21:57:27.990,1.0000007,1.0,7
22127,22127,2021-02-12 21:57:57.990,1.0000007,1.0,7
22137,22137,2021-02-12 21:58:27.990,1.0000007,1.0,7
22147,22147,2021-02-12 21:58:57.990,1.0000007,1.0,7
22157,22157,2021-02-12 21:59:27.990,1.0000007,1.0,7
22167,22167,2021-02-12 21:59:57.990,1.0000007,1.0,7
22177,22177,2021-02-12 22:00:27.990,1.0000007,1.0,7
22187,22187,2021-02-12 22:00:57.990,1.0000007,1.0,7
22197,22197,2021-02-12 22:01:27.990,1.0000007,1.0,7
22207,22207,2021-02-12 22:01:57.990,1.0000007,1.0,7
22217,22217,2021-02-12 22:02:27.990,1.0000007,1.0,7
22227,22227,2021-02-12 22:02:57.990,1.0000007,1.0,7
22237,22237,2021-02-12 22:03:27.990,1.0000007,1.0,7
22247,22247,2021-02-12 22:03:57.990,1.0000007,1.0,7
22257,22257,2021-02-12 22:04:27.990,1.0000007,1.0,7
22267,22267,2021-02-12 22:04:57.990,1.0000007,1.0,7
22277,22277,2021-02-12 22:05:27.990,1.0000007,1.0,7
22287,22287,2021-02-12 22:05:57.990,1.0000007,1.0,7
22297,22297,2021-02-12 22:06:27.990,1.0000007,1.0,7
22307,22307,2021-02-12 22:06:57.990,1.0000007,1.0,7
22317,22317,2021-02-12 22:07:27.990,1.0000007,1.0,7
22327,22327,2021-02-12 22:07:57.990,1.0000007,1.0,7
22337,22337,2021-02-12 22:08:27.990,1.0000007,1.0,7
22347,22347,2021-02-12 22:08:57.990,1.0000007,1.0,7
22357,22357,2021-02-12 22:09:27.990,1.0000007,1.0,7
22367,22367,2021-02-12 22:09:57.990,1.0000007,1.0,7
22377,22377,2021-02-12 22:10:27.990,1.0000007,1.0,7
22387,22387,2021-02-12 22:10:57.990,1.0000007,1.0,7
22397,22397,2021-02-12 22:11:27.990,1.0000007,1.0,7
22407,22407,2021-02-12 22:11:57.990,1.0000007,1.0,7
22417,22417,2021-02-12 22:12:27.990,1.0000007,1.0,7
22427,22427,2021-02-12 22:12:57.990,1.0000007,1.0,7
22437,22437,2021-02-12 22:13:27.990,1.0000007,1.0,7
22447,22447,2021-02-12 22:13:57.990,1.0000007,1.0,7
22457,22457,2021-02-12 22:14:27.990,1.0000007,1.0,7
22467,22467,2021-02-12 22:14:57.990,1.0000007,1.0,7
22477,22477,2021-02-12 22:15:27.990,1.0000007,1.0,7
22487,22487,2021-02-12 22:15:57.990,1.0000007,1.0,7
22497,22497,2021-02-12 22:16:27.990,1.0000007,1.0,7
22507,22507,2021-02-12 22:16:57.990,1.0000007,1.0,7
22517,22517,2021-02-12 22:17:27.990,1.0000007,1.0,7
22527,22527,2021-02-12 22:17:57.990,1.0000007,1.0,7
22537,22537,2021-02-12 22:18:27.990,1.0000007,1.0,7
22547,22547,2021-02-12 22:18:57.990,1.0000007,1.0,7
22557,22557,2021-02-12 22:19:27.990,1.0000007,1.0,7
22567,22567,2021-02-12 22:19:57.990,1.0000007,1.0,7
22577,22577,2021-02-12 22:20:27.990,1.0000007,1.0,7
22587,22587,2021-02-12 22:20:57.990,1.0000007,1.0,7
22597,22597,2021-02-12 22:21:27.990,1.0000007,1.0,7
22607,22607,2021-02-12 22:21:57.990,1.0000007,1.0,7
22617,22617,2021-02-12 22:22:27.990,1.0000007,1.0,7
22627,22627,2021-02-12 22:22:57.990,1.0000007,1.0,7
22637,22637,2021-02-12 22:23:27.990,1.0000007,1.0,7
22647,22647,2021-02-12 22:23:57.990,1.0000007,1.0,7
22657,22657,2021-02-12 22:24:27.990,1.0000007,1.0,7
22667,22667,2021-02-12 22:24:57.990,1.0000007,1.0,7
22677,22677,2021-02-12 22:25:27.990,1.0000007,1.0,7
22687,22687,2021-02-12 22:25:57.990,1.0000007,1.0,7
22697,22697,2021-02-12 22:26:27.990,1.0000007,1.0,7
22707,22707,2021-02-12 22:26:57.990,1.0000007,1.0,7
22717,22717,2021-02-12 22:27:27.990,1.0000007,1.0,7
22727,22727,2021-02-12 22:27:57.990,1.0000007,1.0,7
22737,22737,2021-02-12 22:28:27.990,1.0000007,1.0,7
22747,22747,2021-02-12 22:28:57.990,1.0000007,1.0,7
22757,22757,2021-02-12 22:29:27.990,1.0000007,1.0,7
22767,22767,2021-02-12 22:29:57.990,1.0000007,1.0,7
22777,22777,2021-02-12 22:30:27.990,1.0000007,1.0,7
22787,22787,2021-02-12 22:30:57.990,1.0000007,1.0,7
22797,22797,2021-02-12 22:31:27.990,1.0000007,1.0,7
22807,22807,2021-02-12 22:31:57.990,1.0000007,1.0,7
22817,22817,2021-02-12 22:32:27.990,1.0000007,1.0,7
22827,22827,2021-02-12 22:32:57.990,1.0000007,1.0,7
22837,22837,2021-02-12 22:33:27.990,1.0000007,1.0,7
22847,22847,2021-02-12 22:33:57.990,1.0000007,1.0,7
22857,22857,2021-02-12 22:34:27.990,1.0000007,1.0,7
22867,22867,2021-02-12 22:34:57.990,1.0000007,1.0,7
22877,22877,2021-02-12 22:35:27.990,1.0000007,1.0,7
22887,22887,2021-02-12 22:35:57.990,1.0000007,1.0,7
22897,22897,2021-02-12 22:36:27.990,1.0000007,1.0,7
22907,22907,2021-02-12 22:36:57.990,1.0000007,1.0,7
22917,22917,2021-02-12 22:37:27.990,1.0000007,1.0,7
22927,22927,2021-02-12 22:37:57.990,1.0000007,1.0,7
22937,22937,2021-02-12 22:38:27.990,1.0000007,1.0,7
22947,22947,2021-02-12 22:38:57.990,1.0000007,1.0,7
22957,22957,2021-02-12 22:39:27.990,1.0000007,1.0,7
22967,22967,2021-02-12 22:39:57.990,1.0000007,1.0,7
22977,22977,2021-02-12 22:40:27.990,1.0000007,1.0,7
22987,22987,2021-02-12 22:40:57.990,1.0000007,1.0,7
22997,22997,2021-02-12 22:41:27.990,1.0000007,1.0,7
23007,23007,2021-02-12 22:41:57.990,1.0000007,1.0,7
23017,23017,2021-02-12 22:42:27.990,1.0000007,1.0,7
23027,23027,2021-02-12 22:42:57.990,1.0000007,1.0,7
23037,23037,2021-02-12 22:43:27.990,1.0000007,1.0,7
23047,23047,2021-02-12 22:43:57.990,1.0000007,1.0,7
23057,23057,2021-02-12 22:44:27.990,1.0000007,1.0,7
23067,23067,2021-02-12 22:44:57.990,1.0000007,1.0,7
23077,23077,2021-02-12 22:45:27.990,1.0000007,1.0,7
23087,23087,2021-02-12 22:45:57.990,1.0000007,1.0,7
23097,23097,2021-02-12 22:46:27.990,1.0000007,1.0,7
23107,23107,2021-02-12 22:46:57.990,1.0000007,1.0,7
23117,23117,2021-02-12 22:47:27.990,1.0000007,1.0,7
23127,23127,2021-02-12 22:47:57.990,1.0000007,1.0,7
23137,23137,2021-02-12 22:48:27.990,1.0000007,1.0,7
23147,23147,2021-02-12 22:48:57.990,1.0000007,1.0,7
23157,23157,2021-02-12 22:49:27.990,1.0000007,1.0,7
23167,23167,2021-02-12 22:49:57.990,1.0000007,1.0,7
23177,23177,2021-02-12 22:50:27.990,1.0000007,1.0,7
23187,23187,2021-02-12 22:50:57.990,1.0000007,1.0,7
23197,23197,2021-02-12 22:51:27.990,1.0000007,1.0,7
23207,23207,2021-02-12 22:51:57.990,1.0000007,1.0,7
23217,23217,2021-02-12 22:52:27.990,1.0000007,1.0,7
23227,23227,2021-02-12 22:52:57.990,1.0000007,1.0,7
23237,23237,2021-02-12 22:53:27.990,1.0000007,1.0,7
23247,23247,2021-02-12 22:53:57.990,1.0000007,1.0,7
23257,23257,2021-02-12 22:54:27.990,1.0000007,1.0,7
23267,23267,2021-02-12 22:54:57.990,1.0000007,1.0,7
23277,23277,2021-02-12 22:55:27.990,1.0000007,1.0,7
23287,23287,2021-02-12 22:55:57.990,1.0000007,1.0,7
23297,23297,2021-02-12 22:56:27.990,1.0000007,1.0,7
23307,23307,2021-02-12 22:56:57.990,1.0000007,1.0,7
23317,23317,2021-02-12 22:57:27.990,1.0000007,1.0,7
23327,23327,2021-02-12 22:57:57.990,1.0000007,1.0,7
23337,23337,2021-02-12 22:58:27.990,1.0000007,1.0,7
23347,23347,2021-02-12 22:58:57.990,1.0000007,1.0,7
23357,23357,2021-02-12 22:59:27.990,1.0000007,1.0,7
23367,23367,2021-02-12 22:59:57.990,1.0000007,1.0,7
23377,23377,2021-02-12 23:00:27.990,1.0000007,1.0,7
23387,23387,2021-02-12 23:00:57.990,1.0000007,1.0,7
23397,23397,2021-02-12 23:01:27.990,1.0000007,1.0,7
23407,23407,2021-02-12 23:01:57.990,1.0000007,1.0,7
23417,23417,2021-02-12 23:02:27.990,1.0000007,1.0,7
23427,23427,2021-02-12 23:02:57.990,1.0000007,1.0,7
23437,23437,2021-02-12 23:03:27.990,1.0000007,1.0,7
23447,23447,2021-02-12 23:03:57.990,1.0000007,1.0,7
23457,23457,2021-02-12 23:04:27.990,1.0000007,1.0,7
23467,23467,2021-02-12 23:04:57.990,1.0000007,1.0,7
23477,23477,2021-02-12 23:05:27.990,1.0000007,1.0,7
23487,23487,2021-02-12 23:05:57.990,1.0000007,1.0,7
23497,23497,2021-02-12 23:06:27.990,1.0000007,1.0,7
23507,23507,2021-02-12 23:06:57.990,1.0000007,1.0,7
23517,23517,2021-02-12 23:07:27.990,1.0000007,1.0,7
23527,23527,2021-02-12 23:07:57.990,1.0000007,1.0,7
23537,23537,2021-02-12 23:08:27.990,1.0000007,1.0,7
23547,23547,2021-02-12 23:08:57.990,1.0000007,1.0,7
23557,23557,2021-02-12 23:09:27.990,1.0000007,1.0,7
23567,23567,2021-02-12 23:09:57.990,1.0000007,1.0,7
23577,23577,2021-02-12 23:10:27.990,1.0000007,1.0,7
23587,23587,2021-02-12 23:10:57.990,1.0000007,1.0,7
23597,23597,2021-02-12 23:11:27.990,1.0000007,1.0,7
23607,23607,2021-02-12 23:11:57.990,1.0000007,1.0,7
23617,23617,2021-02-12 23:12:27.990,1.0000007,1.0,7
23627,23627,2021-02-12 23:12:57.990,1.0000007,1.0,7
23637,23637,2021-02-12 23:13:27.990,1.0000007,1.0,7
23647,23647,2021-02-12 23:13:57.990,1.0000007,1.0,7
23657,23657,2021-02-12 23:14:27.990,1.0000007,1.0,7
23667,23667,2021-02-12 23:14:57.990,1.0000007,1.0,7
23677,23677,2021-02-12 23:15:27.990,1.0000007,1.0,7
23687,23687,2021-02-12 23:15:57.990,1.0000007,1.0,7
23697,23697,2021-02-12 23:16:27.990,1.0000007,1.0,7
23707,23707,2021-02-12 23:16:57.990,1.0000007,1.0,7
23717,23717,2021-02-12 23:17:27.990,1.0000007,1.0,7
23727,23727,2021-02-12 23:17:57.990,1.0000007,1.0,7
23737,23737,2021-02-12 23:18:27.990,1.0000007,1.0,7
23747,23747,2021-02-12 23:18:57.990,1.0000007,1.0,7
23757,23757,2021-02-12 23:19:27.990,1.0000007,1.0,7
23767,23767,2021-02-12 23:19:57.990,1.0000007,1.0,7
23777,23777,2021-02-12 23:20:27.990,1.0000007,1.0,7
23787,23787,2021-02-12 23:20:57.990,1.0000007,1.0,7
23797,23797,2021-02-12 23:21:27.990,1.0000007,1.0,7
23807,23807,2021-02-12 23:21:57.990,1.0000007,1.0,7
23817,23817,2021-02-12 23:22:27.990,1.0000007,1.0,7
23827,23827,2021-02-12 23:22:57.990,1.0000007,1.0,7
23837,23837,2021-02-12 23:23:27.990,1.0000007,1.0,7
23847,23847,2021-02-12 23:23:57.990,1.0000007,1.0,7
23857,23857,2021-02-12 23:24:27.990,1.0000007,1.0,7
23867,23867,2021-02-12 23:24:57.990,1.0000007,1.0,7
23877,23877,2021-02-12 23:25:27.990,1.0000007,1.0,7
23887,23887,2021-02-12 23:25:57.990,1.0000007,1.0,7
23897,23897,2021-02-12 23:26:27.990,1.0000007,1.0,7
23907,23907,2021-02-12 23:26:57.990,1.0000007,1.0,7
23917,23917,2021-02-12 23:27:27.990,1.0000007,1.0,7
23927,23927,2021-02-12 23:27:57.990,1.0000007,1.0,7
23937,23937,2021-02-12 23:28:27.990,1.0000007,1.0,7
23947,23947,2021-02-12 23:28:57.990,1.0000007,1.0,7
23957,23957,2021-02-12 23:29:27.990,1.0000007,1.0,7
23967,23967,2021-02-12 23:29:57.990,1.0000007,1.0,7
23977,23977,2021-02-12 23:30:27.990,1.0000007,1.0,7
23987,23987,2021-02-12 23:30:57.990,1.0000007,1.0,7
23997,23997,2021-02-12 23:31:27.990,1.0000007,1.0,7
24007,24007,2021-02-12 23:31:57.990,1.0000007,1.0,7
24017,24017,2021-02-12 23:32:27.990,1.0000007,1.0,7
24027,24027,2021-02-12 23:32:57.990,1.0000007,1.0,7
24037,24037,2021-02-12 23:33:27.990,1.0000007,1.0,7
24047,24047,2021-02-12 23:33:57.990,1.0000007,1.0,7
24057,24057,2021-02-12 23:34:27.990,1.0000007,1.0,7
24067,24067,2021-02-12 23:34:57.990,1.0000007,1.0,7
24077,24077,2021-02-12 23:35:27.990,1.0000007,1.0,7
24087,24087,2021-02-12 23:35:57.990,1.0000007,1.0,7
24097,24097,2021-02-12 23:36:27.990,1.0000007,1.0,7
24107,24107,2021-02-12 23:36:57.990,1.0000007,1.0,7
24117,24117,2021-02-12 23:37:27.990,1.0000007,1.0,7
24127,24127,2021-02-12 23:37:57.990,1.0000007,1.0,7
24137,24137,2021-02-12 23:38:27.990,1.0000007,1.0,7
24147,24147,2021-02-12 23:38:57.990,1.0000007,1.0,7
24157,24157,2021-02-12 23:39:27.990,1.0000007,1.0,7
24167,24167,2021-02-12 23:39:57.990,1.0000007,1.0,7
24177,24177,2021-02-12 23:40:27.990,1.0000007,1.0,7
24187,24187,2021-02-12 23:40:57.990,1.0000007,1.0,7
24197,24197,2021-02-12 23:41:27.990,1.0000007,1.0,7
24207,24207,2021-02-12 23:41:57.990,1.0000007,1.0,7
24217,24217,2021-02-12 23:42:27.990,1.0000007,1.0,7
24227,24227,2021-02-12 23:42:57.990,1.0000007,1.0,7
24237,24237,2021-02-12 23:43:27.990,1.0000007,1.0,7
24247,24247,2021-02-12 23:43:57.990,1.0000007,1.0,7
24257,24257,2021-02-12 23:44:27.990,1.0000007,1.0,7
24267,24267,2021-02-12 23:44:57.990,1.0000007,1.0,7
24277,24277,2021-02-12 23:45:27.990,1.0000007,1.0,7
24287,24287,2021-02-12 23:45:57.990,1.0000007,1.0,7
24297,24297,2021-02-12 23:46:27.990,1.0000007,1.0,7
24307,24307,2021-02-12 23:46:57.990,1.0000007,1.0,7
24317,24317,2021-02-12 23:47:27.990,1.0000007,1.0,7
24327,24327,2021-02-12 23:47:57.990,1.0000007,1.0,7
24337,24337,2021-02-12 23:48:27.990,1.0000007,1.0,7
24347,24347,2021-02-12 23:48:57.990,1.0000007,1.0,7
24357,24357,2021-02-12 23:49:27.990,1.0000007,1.0,7
24367,24367,2021-02-12 23:49:57.990,1.0000007,1.0,7
24377,24377,2021-02-12 23:50:27.990,1.0000007,1.0,7
24387,24387,2021-02-12 23:50:57.990,1.0000007,1.0,7
24397,24397,2021-02-12 23:51:27.990,1.0000007,1.0,7
24407,24407,2021-02-12 23:51:57.990,1.0000007,1.0,7
24417,24417,2021-02-12 23:52:27.990,1.0000007,1.0,7
24427,24427,2021-02-12 23:52:57.990,1.0000007,1.0,7
24437,24437,2021-02-12 23:53:27.990,1.0000007,1.0,7
24447,24447,2021-02-12 23:53:57.990,1.0000007,1.0,7
24457,24457,2021-02-12 23:54:27.990,1.0000007,1.0,7
24467,24467,2021-02-12 23:54:57.990,1.0000007,1.0,7
24477,24477,2021-02-12 23:55:27.990,1.0000007,1.0,7
24487,24487,2021-02-12 23:55:57.990,1.0000007,1.0,7
24497,24497,2021-02-12 23:56:27.990,1.0000007,1.0,7
24507,24507,2021-02-12 23:56:57.990,1.0000007,1.0,7
24517,24517,2021-02-12 23:57:27.990,1.0000007,1.0,7
24527,24527,2021-02-12 23:57:57.990,1.0000007,1.0,7
24537,24537,2021-02-12 23:58:27.990,1.0000007,1.0,7
24547,24547,2021-02-12 23:58:57.990,1.0000007,1.0,7
24557,24557,2021-02-12 23:59:27.990,1.0000007,1.0,7
24567,24567,2021-02-12 23:59:57.990,1.0000007,1.0,7
24577,24577,2021-02-13 00:00:27.990,1.0000007,1.0,7
24587,24587,2021-02-13 00:00:57.990,1.0000007,1.0,7
24597,24597,2021-02-13 00:01:27.990,1.0000007,1.0,7
24607,24607,2021-02-13 00:01:57.990,1.0000007,1.0,7
24617,24617,2021-02-13 00:02:27.990,1.0000007,1.0,7
24627,24627,2021-02-13 00:02:57.990,1.0000007,1.0,7
24637,24637,2021-02-13 00:03:27.990,1.0000007,1.0,7
24647,24647,2021-02-13 00:03:57.990,1.0000007,1.0,7
24657,24657,2021-02-13 00:04:27.990,1.0000007,1.0,7
24667,24667,2021-02-13 00:04:57.990,1.0000007,1.0,7
24677,24677,2021-02-13 00:05:27.990,1.0000007,1.0,7
24687,24687,2021-02-13 00:05:57.990,1.0000007,1.0,7
24697,24697,2021-02-13 00:06:27.990,1.0000007,1.0,7
24707,24707,2021-02-13 00:06:57.990,1.0000007,1.0,7
24717,24717,2021-02-13 00:07:27.990,1.0000007,1.0,7
24727,24727,2021-02-13 00:07:57.990,1.0000007,1.0,7
24737,24737,2021-02-13 00:08:27.990,1.0000007,1.0,7
24747,24747,2021-02-13 00:08:57.990,1.0000007,1.0,7
24757,24757,2021-02-13 00:09:27.990,1.0000007,1.0,7
24767,24767,2021-02-13 00:09:57.990,1.0000007,1.0,7
24777,24777,2021-02-13 00:10:27.990,1.0000007,1.0,7
24787,24787,2021-02-13 00:10:57.990,1.0000007,1.0,7
24797,24797,2021-02-13 00:11:27.990,1.0000007,1.0,7
24807,24807,2021-02-13 00:11:57.990,1.0000007,1.0,7
24817,24817,2021-02-13 00:12:27.990,1.0000007,1.0,7
24827,24827,2021-02-13 00:12:57.990,1.0000007,1.0,7
24837,24837,2021-02-13 00:13:27.990,1.0000007,1.0,7
24847,24847,2021-02-13 00:13:57.990,1.0000007,1.0,7
24857,24857,2021-02-13 00:14:27.990,1.0000007,1.0,7
24867,24867,2021-02-13 00:14:57.990,1.0000007,1.0,7
24877,24877,2021-02-13 00:15:27.990,1.0000007,1.0,7
24887,24887,2021-02-13 00:15:57.990,1.0000007,1.0,7
24897,24897,2021-02-13 00:16:27.990,1.0000007,1.0,7
24907,24907,2021-02-13 00:16:57.990,1.0000007,1.0,7
24917,24917,2021-02-13 00:17:27.990,1.0000007,1.0,7
24927,24927,2021-02-13 00:17:57.990,1.0000007,1.0,7
24937,24937,2021-02-13 00:18:27.990,1.0000007,1.0,7
24947,24947,2021-02-13 00:18:57.990,1.0000007,1.0,7
24957,24957,2021-02-13 00:19:27.990,1.0000007,1.0,7
24967,24967,2021-02-13 00:19:57.990,1.0000007,1.0,7
24977,24977,2021-02-13 00:20:27.990,1.0000007,1.0,7
24987,24987,2021-02-13 00:20:57.990,1.0000007,1.0,7
24997,24997,2021-02-13 00:21:27.990,1.0000007,1.0,7
25007,25007,2021-02-13 00:21:57.990,1.0000007,1.0,7
25017,25017,2021-02-13 00:22:27.990,1.0000007,1.0,7
25027,25027,2021-02-13 00:22:57.990,1.0000007,1.0,7
25037,25037,2021-02-13 00:23:27.990,1.0000007,1.0,7
25047,25047,2021-02-13 00:23:57.990,1.0000007,1.0,7
25057,25057,2021-02-13 00:24:27.990,1.0000007,1.0,7
25067,25067,2021-02-13 00:24:57.990,1.0000007,1.0,7
25077,25077,2021-02-13 00:25:27.990,1.0000007,1.0,7
25087,25087,2021-02-13 00:25:57.990,1.0000007,1.0,7
25097,25097,2021-02-13 00:26:27.990,1.0000007,1.0,7
25107,25107,2021-02-13 00:26:57.990,1.0000007,1.0,7
25117,25117,2021-02-13 00:27:27.990,1.0000007,1.0,7
25127,25127,2021-02-13 00:27:57.990,1.0000007,1.0,7
25137,25137,2021-02-13 00:28:27.990,1.0000007,1.0,7
25147,25147,2021-02-13 00:28:57.990,1.0000007,1.0,7
25157,25157,2021-02-13 00:29:27.990,1.0000007,1.0,7
25167,25167,2021-02-13 00:29:57.990,1.0000007,1.0,7
25177,25177,2021-02-13 00:30:27.990,1.0000007,1.0,7
25187,25187,2021-02-13 00:30:57.990,1.0000007,1.0,7
25197,25197,2021-02-13 00:31:27.990,1.0000007,1.0,7
25207,25207,2021-02-13 00:31:57.990,1.0000007,1.0,7
25217,25217,2021-02-13 00:32:27.990,1.0000007,1.0,7
25227,25227,2021-02-13 00:32:57.990,1.0000007,1.0,7
25237,25237,2021-02-13 00:33:27.990,1.0000007,1.0,7
25247,25247,2021-02-13 00:33:57.990,1.0000007,1.0,7
25257,25257,2021-02-13 00:34:27.990,1.0000007,1.0,7
25267,25267,2021-02-13 00:34:57.990,1.0000007,1.0,7
25277,25277,2021-02-13 00:35:27.990,1.0000007,1.0,7
25287,25287,2021-02-13 00:35:57.990,1.0000007,1.0,7
25297,25297,2021-02-13 00:36:27.990,1.0000007,1.0,7
25307,25307,2021-02-13 00:36:57.990,1.0000007,1.0,7
25317,25317,2021-02-13 00:37:27.990,1.0000007,1.0,7
25327,25327,2021-02-13 00:37:57.990,1.0000007,1.0,7
25337,25337,2021-02-13 00:38:27.990,1.0000007,1.0,7
25347,25347,2021-02-13 00:38:57.990,1.0000007,1.0,7
25357,25357,2021-02-13 00:39:27.990,1.0000007,1.0,7
25367,25367,2021-02-13 00:39:57.990,1.0000007,1.0,7
25377,25377,2021-02-13 00:40:27.990,1.0000007,1.0,7
25387,25387,2021-02-13 00:40:57.990,1.0000007,1.0,7
25397,25397,2021-02-13 00:41:27.990,1.0000007,1.0,7
25407,25407,2021-02-13 00:41:57.990,1.0000007,1.0,7
25417,25417,2021-02-13 00:42:27.990,1.0000007,1.0,7
25427,25427,2021-02-13 00:42:57.990,1.0000007,1.0,7
25437,25437,2021-02-13 00:43:27.990,1.0000007,1.0,7
25447,25447,2021-02-13 00:43:57.990,1.0000007,1.0,7
25457,25457,2021-02-13 00:44:27.990,1.0000007,1.0,7
25467,25467,2021-02-13 00:44:57.990,1.0000007,1.0,7
25477,25477,2021-02-13 00:45:27.990,1.0000007,1.0,7
25487,25487,2021-02-13 00:45:57.990,1.0000007,1.0,7
25497,25497,2021-02-13 00:46:27.990,1.0000007,1.0,7
25507,25507,2021-02-13 00:46:57.990,1.0000007,1.0,7
25517,25517,2021-02-13 00:47:27.990,1.0000007,1.0,7
25527,25527,2021-02-13 00:47:57.990,1.0000007,1.0,7
25537,25537,2021-02-13 00:48:27.990,1.0000007,1.0,7
25547,25547,2021-02-13 00:48:57.990,1.0000007,1.0,7
25557,25557,2021-02-13 00:49:27.990,1.0000007,1.0,7
25567,25567,2021-02-13 00:49:57.990,1.0000007,1.0,7
25577,25577,2021-02-13 00:50:27.990,1.0000007,1.0,7
25587,25587,2021-02-13 00:50:57.990,1.0000007,1.0,7
25597,25597,2021-02-13 00:51:27.990,1.0000007,1.0,7
25607,25607,2021-02-13 00:51:57.990,1.0000007,1.0,7
25617,25617,2021-02-13 00:52:27.990,1.0000007,1.0,7
25627,25627,2021-02-13 00:52:57.990,1.0000007,1.0,7
25637,25637,2021-02-13 00:53:27.990,1.0000007,1.0,7
25647,25647,2021-02-13 00:53:57.990,1.0000007,1.0,7
25657,25657,2021-02-13 00:54:27.990,1.0000007,1.0,7
25667,25667,2021-02-13 00:54:57.990,1.0000007,1.0,7
25677,25677,2021-02-13 00:55:27.990,1.0000007,1.0,7
25687,25687,2021-02-13 00:55:57.990,1.0000007,1.0,7
25697,25697,2021-02-13 00:56:27.990,1.0000007,1.0,7
25707,25707,2021-02-13 00:56:57.990,1.0000007,1.0,7
