,Unnamed: 0,time,prediction,step
7841,7841,2020-10-21 11:46:02.926,390.88552999999996,1
7851,7851,2020-10-21 11:46:32.926,397.6089,1
7861,7861,2020-10-21 11:47:02.926,360.7126,1
7871,7871,2020-10-21 11:47:32.926,322.42535,1
7881,7881,2020-10-21 11:48:02.926,269.5794,1
7891,7891,2020-10-21 11:48:32.926,223.06354,1
7901,7901,2020-10-21 11:49:02.926,188.40913,1
7911,7911,2020-10-21 11:49:32.926,180.7362,1
7921,7921,2020-10-21 11:50:02.926,279.02274,1
7931,7931,2020-10-21 11:50:32.926,347.77917,1
7941,7941,2020-10-21 11:51:02.926,242.2711,1
7951,7951,2020-10-21 11:51:32.926,236.91772000000003,1
7961,7961,2020-10-21 11:52:02.926,233.97937000000002,1
7971,7971,2020-10-21 11:52:32.926,226.36673,1
7981,7981,2020-10-21 11:53:02.926,207.11954,1
7991,7991,2020-10-21 11:53:32.926,201.99301,1
8001,8001,2020-10-21 11:54:02.926,186.8975,1
8011,8011,2020-10-21 11:54:32.926,179.81053,1
8021,8021,2020-10-21 11:55:02.926,177.1598,1
8031,8031,2020-10-21 11:55:32.926,168.30843000000002,1
8041,8041,2020-10-21 11:56:02.926,162.85576,1
8051,8051,2020-10-21 11:56:32.926,257.2352,1
8061,8061,2020-10-21 11:57:02.926,231.11995,1
8071,8071,2020-10-21 11:57:32.926,206.14886,1
8081,8081,2020-10-21 11:58:02.926,186.30606,1
8091,8091,2020-10-21 11:58:32.926,173.86221,1
8101,8101,2020-10-21 11:59:02.926,163.8439,1
8111,8111,2020-10-21 11:59:32.926,155.99417,1
8121,8121,2020-10-21 12:00:02.926,156.04997,1
8131,8131,2020-10-21 12:00:32.926,157.33153000000001,1
8141,8141,2020-10-21 12:01:02.926,194.834,1
8151,8151,2020-10-21 12:01:32.926,229.3533,1
8161,8161,2020-10-21 12:02:02.926,241.55067000000003,1
8171,8171,2020-10-21 12:02:32.926,244.0616,1
8181,8181,2020-10-21 12:03:02.926,246.43356,1
8191,8191,2020-10-21 12:03:32.926,217.67557000000002,1
8201,8201,2020-10-21 12:04:02.926,201.67741,1
8211,8211,2020-10-21 12:04:32.926,199.18465,1
8221,8221,2020-10-21 12:05:02.926,183.17395,1
8231,8231,2020-10-21 12:05:32.926,173.19272,1
8241,8241,2020-10-21 12:06:02.926,167.02972,1
8251,8251,2020-10-21 12:06:32.926,165.70108000000002,1
8261,8261,2020-10-21 12:07:02.926,228.36513,1
8271,8271,2020-10-21 12:07:32.926,218.71613,1
8281,8281,2020-10-21 12:08:02.926,217.9023,1
8291,8291,2020-10-21 12:08:32.926,221.05086,1
8301,8301,2020-10-21 12:09:02.926,231.29031,1
8311,8311,2020-10-21 12:09:32.926,238.34848,1
8321,8321,2020-10-21 12:10:02.926,203.48091000000002,1
8331,8331,2020-10-21 12:10:32.926,195.0364,1
8341,8341,2020-10-21 12:11:02.926,189.74373,1
8351,8351,2020-10-21 12:11:32.926,184.78055,1
8361,8361,2020-10-21 12:12:02.926,189.97708,1
8371,8371,2020-10-21 12:12:32.926,189.09622,1
8381,8381,2020-10-21 12:13:02.926,188.44211,1
8391,8391,2020-10-21 12:13:32.926,190.21951,1
8401,8401,2020-10-21 12:14:02.926,194.25676,1
8411,8411,2020-10-21 12:14:32.926,186.78096000000002,1
8421,8421,2020-10-21 12:15:02.926,178.31663999999998,1
8431,8431,2020-10-21 12:15:32.926,169.4052,1
8441,8441,2020-10-21 12:16:02.926,165.22507,1
8451,8451,2020-10-21 12:16:32.926,169.79103,1
8461,8461,2020-10-21 12:17:02.926,168.9359,1
8471,8471,2020-10-21 12:17:32.926,164.70235,1
8481,8481,2020-10-21 12:18:02.926,192.01963999999998,1
8491,8491,2020-10-21 12:18:32.926,185.93532,1
8501,8501,2020-10-21 12:19:02.926,164.27351000000002,1
8511,8511,2020-10-21 12:19:32.926,155.55696,1
8521,8521,2020-10-21 12:20:02.926,141.2362,1
8531,8531,2020-10-21 12:20:32.926,127.09943999999999,1
8541,8541,2020-10-21 12:21:02.926,114.38417,1
8551,8551,2020-10-21 12:21:32.926,105.05221999999999,1
8561,8561,2020-10-21 12:22:02.926,94.293564,1
8571,8571,2020-10-21 12:22:32.926,90.91171,1
8581,8581,2020-10-21 12:23:02.926,89.44384000000001,1
8591,8591,2020-10-21 12:23:32.926,82.397285,1
8601,8601,2020-10-21 12:24:02.926,78.74611,1
8611,8611,2020-10-21 12:24:32.926,83.73909,1
8621,8621,2020-10-21 12:25:02.926,91.72981999999999,1
8631,8631,2020-10-21 12:25:32.926,99.31151,1
8641,8641,2020-10-21 12:26:02.926,104.54751,1
