,Unnamed: 0,time,prediction,real,step
61506,61506,2020-11-30 12:33:11.098,6028.0625,6031.0,6
61516,61516,2020-11-30 12:33:41.098,5998.057,6001.0,6
61526,61526,2020-11-30 12:34:11.098,5968.0522,5971.0,6
61536,61536,2020-11-30 12:34:41.098,5938.047,5941.0,6
61546,61546,2020-11-30 12:35:11.098,5908.0415,5911.0,6
61556,61556,2020-11-30 12:35:41.098,5878.0366,5881.0,6
61566,61566,2020-11-30 12:36:11.098,5848.0312,5851.0,6
61576,61576,2020-11-30 12:36:41.098,5818.026,5821.0,6
61586,61586,2020-11-30 12:37:11.098,5788.021,5791.0,6
61596,61596,2020-11-30 12:37:41.098,5758.0156,5761.0,6
61606,61606,2020-11-30 12:38:11.098,5728.0103,5731.0,6
61616,61616,2020-11-30 12:38:41.098,5698.0054,5701.0,6
61626,61626,2020-11-30 12:39:11.098,5668.0005,5671.0,6
61636,61636,2020-11-30 12:39:41.098,5637.995,5641.0,6
61646,61646,2020-11-30 12:40:11.098,5607.99,5611.0,6
61656,61656,2020-11-30 12:40:41.098,5577.985,5581.0,6
61666,61666,2020-11-30 12:41:11.098,5547.98,5551.0,6
61676,61676,2020-11-30 12:41:41.098,5517.975,5521.0,6
61686,61686,2020-11-30 12:42:11.098,5487.97,5491.0,6
61696,61696,2020-11-30 12:42:41.098,5457.9653,5461.0,6
61706,61706,2020-11-30 12:43:11.098,5427.96,5431.0,6
61716,61716,2020-11-30 12:43:41.098,5397.955,5401.0,6
61726,61726,2020-11-30 12:44:11.098,5367.95,5371.0,6
61736,61736,2020-11-30 12:44:41.098,5337.9453,5341.0,6
61746,61746,2020-11-30 12:45:11.098,5307.9404,5311.0,6
61756,61756,2020-11-30 12:45:41.098,5277.9355,5281.0,6
61766,61766,2020-11-30 12:46:11.098,5247.9307,5251.0,6
61776,61776,2020-11-30 12:46:41.098,5217.9259999999995,5221.0,6
61786,61786,2020-11-30 12:47:11.098,5187.9214,5191.0,6
61796,61796,2020-11-30 12:47:41.098,5157.9165,5161.0,6
61806,61806,2020-11-30 12:48:11.098,5127.912,5131.0,6
61816,61816,2020-11-30 12:48:41.098,5097.907,5101.0,6
61826,61826,2020-11-30 12:49:11.098,5067.903,5071.0,6
61836,61836,2020-11-30 12:49:41.098,5037.8984,5041.0,6
61846,61846,2020-11-30 12:50:11.098,5007.894,5011.0,6
61856,61856,2020-11-30 12:50:41.098,4977.889,4981.0,6
61866,61866,2020-11-30 12:51:11.098,4947.885,4951.0,6
61876,61876,2020-11-30 12:51:41.098,4917.880999999999,4921.0,6
61886,61886,2020-11-30 12:52:11.098,4887.8765,4891.0,6
61896,61896,2020-11-30 12:52:41.098,4857.8716,4861.0,6
61906,61906,2020-11-30 12:53:11.098,4827.8677,4831.0,6
61916,61916,2020-11-30 12:53:41.098,4797.8633,4801.0,6
61926,61926,2020-11-30 12:54:11.098,4767.8594,4771.0,6
61936,61936,2020-11-30 12:54:41.098,4737.8555,4741.0,6
61946,61946,2020-11-30 12:55:11.098,4707.851,4711.0,6
61956,61956,2020-11-30 12:55:41.098,4677.847,4681.0,6
61966,61966,2020-11-30 12:56:11.098,4647.8433,4651.0,6
61976,61976,2020-11-30 12:56:41.098,4617.8394,4621.0,6
61986,61986,2020-11-30 12:57:11.098,4587.8354,4591.0,6
61996,61996,2020-11-30 12:57:41.098,4557.8315,4561.0,6
62006,62006,2020-11-30 12:58:11.098,4527.8279999999995,4531.0,6
62016,62016,2020-11-30 12:58:41.098,4497.8247,4501.0,6
62026,62026,2020-11-30 12:59:11.098,4467.821,4471.0,6
62036,62036,2020-11-30 12:59:41.098,4437.8174,4441.0,6
62046,62046,2020-11-30 13:00:11.098,4407.814,4411.0,6
62056,62056,2020-11-30 13:00:41.098,4377.811,4381.0,6
62066,62066,2020-11-30 13:01:11.098,4347.8076,4351.0,6
62076,62076,2020-11-30 13:01:41.098,4317.8047,4321.0,6
62086,62086,2020-11-30 13:02:11.098,4287.8013,4291.0,6
62096,62096,2020-11-30 13:02:41.098,4257.7983,4261.0,6
62106,62106,2020-11-30 13:03:11.098,4227.7954,4231.0,6
62116,62116,2020-11-30 13:03:41.098,4197.7925,4201.0,6
62126,62126,2020-11-30 13:04:11.098,4167.7896,4171.0,6
62136,62136,2020-11-30 13:04:41.098,4137.787,4141.0,6
62146,62146,2020-11-30 13:05:11.098,4107.7847,4111.0,6
62156,62156,2020-11-30 13:05:41.098,4077.7822,4081.0,6
62166,62166,2020-11-30 13:06:11.098,4047.7798,4051.0,6
62176,62176,2020-11-30 13:06:41.098,4017.7776,4021.0,6
62186,62186,2020-11-30 13:07:11.098,3987.7751,3991.0,6
62196,62196,2020-11-30 13:07:41.098,3957.7734,3961.0,6
62206,62206,2020-11-30 13:08:11.098,3927.7709999999997,3931.0,6
62216,62216,2020-11-30 13:08:41.098,3897.7693,3901.0,6
62226,62226,2020-11-30 13:09:11.098,3867.7676,3871.0,6
62236,62236,2020-11-30 13:09:41.098,3837.7659,3841.0,6
62246,62246,2020-11-30 13:10:11.098,3807.7644,3811.0,6
62256,62256,2020-11-30 13:10:41.098,3777.763,3781.0,6
62266,62266,2020-11-30 13:11:11.098,3747.7617,3751.0,6
62276,62276,2020-11-30 13:11:41.098,3717.7605,3721.0,6
62286,62286,2020-11-30 13:12:11.098,3687.7595,3691.0,6
62296,62296,2020-11-30 13:12:41.098,3657.7585,3661.0,6
62306,62306,2020-11-30 13:13:11.098,3627.7578,3631.0,6
62316,62316,2020-11-30 13:13:41.098,3597.7573,3601.0,6
62326,62326,2020-11-30 13:14:11.098,3567.7566,3571.0,6
62336,62336,2020-11-30 13:14:41.098,3537.756,3541.0,6
62346,62346,2020-11-30 13:15:11.098,3507.7559,3511.0,6
62356,62356,2020-11-30 13:15:41.098,3477.7559,3481.0,6
62366,62366,2020-11-30 13:16:11.098,3447.7559,3451.0,6
62376,62376,2020-11-30 13:16:41.098,3417.7559,3421.0,6
62386,62386,2020-11-30 13:17:11.098,3387.756,3391.0,6
62396,62396,2020-11-30 13:17:41.098,3357.7566,3361.0,6
62406,62406,2020-11-30 13:18:11.098,3327.757,3331.0,6
62416,62416,2020-11-30 13:18:41.098,3297.7578,3301.0,6
62426,62426,2020-11-30 13:19:11.098,3267.7588,3271.0,6
62436,62436,2020-11-30 13:19:41.098,3237.7595,3241.0,6
62446,62446,2020-11-30 13:20:11.098,3207.761,3211.0,6
62456,62456,2020-11-30 13:20:41.098,3177.7622,3181.0,6
62466,62466,2020-11-30 13:21:11.098,3147.7634,3151.0,6
62476,62476,2020-11-30 13:21:41.098,3117.765,3121.0,6
62486,62486,2020-11-30 13:22:11.098,3087.7668,3091.0,6
62496,62496,2020-11-30 13:22:41.098,3057.7688,3061.0,6
62506,62506,2020-11-30 13:23:11.098,3027.7708,3031.0,6
62516,62516,2020-11-30 13:23:41.098,2997.7727,3001.0,6
62526,62526,2020-11-30 13:24:11.098,2967.7751,2971.0,6
62536,62536,2020-11-30 13:24:41.098,2937.7776,2941.0,6
62546,62546,2020-11-30 13:25:11.098,2907.7803,2911.0,6
62556,62556,2020-11-30 13:25:41.098,2877.783,2881.0,6
62566,62566,2020-11-30 13:26:11.098,2847.7859999999996,2851.0,6
62576,62576,2020-11-30 13:26:41.098,2817.7888,2821.0,6
62586,62586,2020-11-30 13:27:11.098,2787.792,2791.0,6
62596,62596,2020-11-30 13:27:41.098,2757.7957,2761.0,6
62606,62606,2020-11-30 13:28:11.098,2727.7988,2731.0,6
62616,62616,2020-11-30 13:28:41.098,2697.8022,2701.0,6
62626,62626,2020-11-30 13:29:11.098,2667.8062,2671.0,6
62636,62636,2020-11-30 13:29:41.098,2637.81,2641.0,6
62646,62646,2020-11-30 13:30:11.098,2607.814,2611.0,6
62656,62656,2020-11-30 13:30:41.098,2577.8179999999998,2581.0,6
62666,62666,2020-11-30 13:31:11.098,2547.822,2551.0,6
62676,62676,2020-11-30 13:31:41.098,2517.8264,2521.0,6
62686,62686,2020-11-30 13:32:11.098,2487.831,2491.0,6
62696,62696,2020-11-30 13:32:41.098,2457.8354,2461.0,6
62706,62706,2020-11-30 13:33:11.098,2427.8398,2431.0,6
62716,62716,2020-11-30 13:33:41.098,2397.8445,2401.0,6
62726,62726,2020-11-30 13:34:11.098,2367.8494,2371.0,6
62736,62736,2020-11-30 13:34:41.098,2337.854,2341.0,6
62746,62746,2020-11-30 13:35:11.098,2307.8591,2311.0,6
62756,62756,2020-11-30 13:35:41.098,2277.8638,2281.0,6
62766,62766,2020-11-30 13:36:11.098,2247.8687,2251.0,6
62776,62776,2020-11-30 13:36:41.098,2217.8735,2221.0,6
62786,62786,2020-11-30 13:37:11.098,2187.8787,2191.0,6
62796,62796,2020-11-30 13:37:41.098,2157.8835,2161.0,6
62806,62806,2020-11-30 13:38:11.098,2127.8884,2131.0,6
62816,62816,2020-11-30 13:38:41.098,2097.8933,2101.0,6
62826,62826,2020-11-30 13:39:11.098,2067.8982,2071.0,6
62836,62836,2020-11-30 13:39:41.098,2037.9029999999998,2041.0,6
62846,62846,2020-11-30 13:40:11.098,2007.9076,2011.0,6
62856,62856,2020-11-30 13:40:41.098,1977.9122,1981.0,6
62866,62866,2020-11-30 13:41:11.098,1947.9167,1951.0,6
62876,62876,2020-11-30 13:41:41.098,1917.9211,1921.0,6
62886,62886,2020-11-30 13:42:11.098,1887.9255,1891.0,6
62896,62896,2020-11-30 13:42:41.098,1857.9296,1861.0,6
62906,62906,2020-11-30 13:43:11.098,1827.9336,1831.0,6
62916,62916,2020-11-30 13:43:41.098,1797.9375,1801.0,6
62926,62926,2020-11-30 13:44:11.098,1767.9412,1771.0,6
62936,62936,2020-11-30 13:44:41.098,1737.9446,1741.0,6
62946,62946,2020-11-30 13:45:11.098,1707.9479,1711.0,6
62956,62956,2020-11-30 13:45:41.098,1677.9509,1681.0,6
62966,62966,2020-11-30 13:46:11.098,1647.9536,1651.0,6
62976,62976,2020-11-30 13:46:41.098,1617.9564,1621.0,6
62986,62986,2020-11-30 13:47:11.098,1587.9586,1591.0,6
62996,62996,2020-11-30 13:47:41.098,1557.9606,1561.0,6
63006,63006,2020-11-30 13:48:11.098,1527.9625,1531.0,6
63016,63016,2020-11-30 13:48:41.098,1497.9642,1501.0,6
63026,63026,2020-11-30 13:49:11.098,1467.9655,1471.0,6
63036,63036,2020-11-30 13:49:41.098,1437.9667,1441.0,6
63046,63046,2020-11-30 13:50:11.098,1407.9678,1411.0,6
63056,63056,2020-11-30 13:50:41.098,1377.9688,1381.0,6
63066,63066,2020-11-30 13:51:11.098,1347.9695,1351.0,6
63076,63076,2020-11-30 13:51:41.098,1317.9701,1321.0,6
63086,63086,2020-11-30 13:52:11.098,1287.9707,1291.0,6
63096,63096,2020-11-30 13:52:41.098,1257.9717,1261.0,6
63106,63106,2020-11-30 13:53:11.098,1227.9727,1231.0,6
63116,63116,2020-11-30 13:53:41.098,1197.9738,1201.0,6
63126,63126,2020-11-30 13:54:11.098,1167.9753,1171.0,6
63136,63136,2020-11-30 13:54:41.098,1137.9773,1141.0,6
63146,63146,2020-11-30 13:55:11.098,1107.9801,1111.0,6
63156,63156,2020-11-30 13:55:41.098,1077.9834,1081.0,6
63166,63166,2020-11-30 13:56:11.098,1047.9878,1051.0,6
63176,63176,2020-11-30 13:56:41.098,1017.9934,1021.0,6
63186,63186,2020-11-30 13:57:11.098,988.0,991.0,6
63196,63196,2020-11-30 13:57:41.098,958.0083599999999,961.0,6
63206,63206,2020-11-30 13:58:11.098,928.0184300000001,931.0,6
63216,63216,2020-11-30 13:58:41.098,898.0306,901.0,6
63226,63226,2020-11-30 13:59:11.098,868.04474,871.0,6
63236,63236,2020-11-30 13:59:41.098,838.0613400000001,841.0,6
63246,63246,2020-11-30 14:00:11.098,808.0804400000001,811.0,6
63256,63256,2020-11-30 14:00:41.098,778.10236,781.0,6
63266,63266,2020-11-30 14:01:11.098,748.1269,751.0,6
63276,63276,2020-11-30 14:01:41.098,718.1539,721.0,6
63286,63286,2020-11-30 14:02:11.098,688.1833,691.0,6
63296,63296,2020-11-30 14:02:41.098,658.2144,661.0,6
63306,63306,2020-11-30 14:03:11.098,628.2466400000001,631.0,6
63316,63316,2020-11-30 14:03:41.098,598.2784,601.0,6
63326,63326,2020-11-30 14:04:11.098,568.3081,571.0,6
63336,63336,2020-11-30 14:04:41.098,538.33307,541.0,6
63346,63346,2020-11-30 14:05:11.098,508.34964,511.0,6
63356,63356,2020-11-30 14:05:41.098,478.3533,481.0,6
63366,63366,2020-11-30 14:06:11.098,448.33774000000005,451.0,6
63376,63376,2020-11-30 14:06:41.098,418.29532,421.0,6
63386,63386,2020-11-30 14:07:11.098,388.21682999999996,391.0,6
63396,63396,2020-11-30 14:07:41.098,358.0917,361.0,6
63406,63406,2020-11-30 14:08:11.098,327.91025,331.0,6
63416,63416,2020-11-30 14:08:41.098,297.66568,301.0,6
63426,63426,2020-11-30 14:09:11.098,267.35773,271.0,6
63436,63436,2020-11-30 14:09:41.098,236.99738,241.0,6
63446,63446,2020-11-30 14:10:11.098,206.61789,211.0,6
63456,63456,2020-11-30 14:10:41.098,176.29016000000001,181.0,6
63466,63466,2020-11-30 14:11:11.098,146.15248,151.0,6
63476,63476,2020-11-30 14:11:41.098,116.46008,121.0,6
63486,63486,2020-11-30 14:12:11.098,87.688644,91.0,6
63496,63496,2020-11-30 14:12:41.098,60.745219999999996,61.0,6
63506,63506,2020-11-30 14:13:11.098,37.39932,31.0,6
63516,63516,2020-11-30 14:13:41.098,21.069525,1.0,6
63526,63526,2020-11-30 14:14:11.098,17.576134,29.0,6
63536,63536,2020-11-30 14:14:41.098,31.570593,59.0,6
63546,63546,2020-11-30 14:15:11.098,80.980125,89.0,6
63556,63556,2020-11-30 14:15:41.098,101.812126,119.0,6
63566,63566,2020-11-30 14:16:11.098,137.09717,149.0,6
63576,63576,2020-11-30 14:16:41.098,166.80507,179.0,6
63586,63586,2020-11-30 14:17:11.098,186.07856999999998,209.0,6
63596,63596,2020-11-30 14:17:41.098,212.23189,239.0,6
63606,63606,2020-11-30 14:18:11.098,250.2405,269.0,6
63616,63616,2020-11-30 14:18:41.098,297.6269,299.0,6
63626,63626,2020-11-30 14:19:11.098,337.27286000000004,329.0,6
63636,63636,2020-11-30 14:19:41.098,359.17636,359.0,6
63646,63646,2020-11-30 14:20:11.098,370.4186,389.0,6
63656,63656,2020-11-30 14:20:41.098,389.0079,419.0,6
63666,63666,2020-11-30 14:21:11.098,465.82437000000004,449.0,6
63676,63676,2020-11-30 14:21:41.098,499.71957000000003,479.0,6
63686,63686,2020-11-30 14:22:11.098,520.95056,509.0,6
63696,63696,2020-11-30 14:22:41.098,535.3434,539.0,6
63706,63706,2020-11-30 14:23:11.098,567.9327,569.0,6
63716,63716,2020-11-30 14:23:41.098,603.9173599999999,599.0,6
63726,63726,2020-11-30 14:24:11.098,636.2163,629.0,6
63736,63736,2020-11-30 14:24:41.098,670.0208,659.0,6
63746,63746,2020-11-30 14:25:11.098,681.8027,689.0,6
63756,63756,2020-11-30 14:25:41.098,702.8122,719.0,6
63766,63766,2020-11-30 14:26:11.098,731.9797,749.0,6
63776,63776,2020-11-30 14:26:41.098,766.56287,779.0,6
63786,63786,2020-11-30 14:27:11.098,803.2025,809.0,6
63796,63796,2020-11-30 14:27:41.098,838.36523,839.0,6
63806,63806,2020-11-30 14:28:11.098,868.80035,869.0,6
63816,63816,2020-11-30 14:28:41.098,892.7209,899.0,6
63826,63826,2020-11-30 14:29:11.098,912.6712,929.0,6
63836,63836,2020-11-30 14:29:41.098,939.08734,959.0,6
63846,63846,2020-11-30 14:30:11.098,973.39624,989.0,6
63856,63856,2020-11-30 14:30:41.098,1011.01526,1019.0,6
63866,63866,2020-11-30 14:31:11.098,1048.0719,1049.0,6
63876,63876,2020-11-30 14:31:41.098,1081.9536,1079.0,6
63886,63886,2020-11-30 14:32:11.098,1110.8358,1109.0,6
63896,63896,2020-11-30 14:32:41.098,1139.853,1139.0,6
63906,63906,2020-11-30 14:33:11.098,1169.2839999999999,1169.0,6
63916,63916,2020-11-30 14:33:41.098,1198.7041,1199.0,6
63926,63926,2020-11-30 14:34:11.098,1228.3142,1229.0,6
63936,63936,2020-11-30 14:34:41.098,1258.1107,1259.0,6
63946,63946,2020-11-30 14:35:11.098,1287.965,1289.0,6
63956,63956,2020-11-30 14:35:41.098,1317.8643,1319.0,6
63966,63966,2020-11-30 14:36:11.098,1347.7987,1349.0,6
63976,63976,2020-11-30 14:36:41.098,1377.7611,1379.0,6
63986,63986,2020-11-30 14:37:11.098,1407.7457,1409.0,6
63996,63996,2020-11-30 14:37:41.098,1437.7478,1439.0,6
64006,64006,2020-11-30 14:38:11.098,1467.7637,1469.0,6
64016,64016,2020-11-30 14:38:41.098,1497.7905,1499.0,6
64026,64026,2020-11-30 14:39:11.098,1527.8257,1529.0,6
64036,64036,2020-11-30 14:39:41.098,1557.8676,1559.0,6
64046,64046,2020-11-30 14:40:11.098,1587.9142,1589.0,6
64056,64056,2020-11-30 14:40:41.098,1617.9641,1619.0,6
64066,64066,2020-11-30 14:41:11.098,1648.0166,1649.0,6
64076,64076,2020-11-30 14:41:41.098,1678.0707,1679.0,6
64086,64086,2020-11-30 14:42:11.098,1708.1259,1709.0,6
64096,64096,2020-11-30 14:42:41.098,1738.1813,1739.0,6
64106,64106,2020-11-30 14:43:11.098,1768.2366,1769.0,6
64116,64116,2020-11-30 14:43:41.098,1798.2911,1799.0,6
64126,64126,2020-11-30 14:44:11.098,1828.3448,1829.0,6
64136,64136,2020-11-30 14:44:41.098,1858.3977,1859.0,6
64146,64146,2020-11-30 14:45:11.098,1888.4491,1889.0,6
64156,64156,2020-11-30 14:45:41.098,1918.499,1919.0,6
64166,64166,2020-11-30 14:46:11.098,1948.5476,1949.0,6
64176,64176,2020-11-30 14:46:41.098,1978.5945,1979.0,6
64186,64186,2020-11-30 14:47:11.098,2008.6398,2009.0,6
64196,64196,2020-11-30 14:47:41.098,2038.6835,2039.0,6
64206,64206,2020-11-30 14:48:11.098,2068.7253,2069.0,6
64216,64216,2020-11-30 14:48:41.098,2098.7656,2099.0,6
64226,64226,2020-11-30 14:49:11.098,2128.8042,2129.0,6
64236,64236,2020-11-30 14:49:41.098,2158.8413,2159.0,6
64246,64246,2020-11-30 14:50:11.098,2188.8767,2189.0,6
64256,64256,2020-11-30 14:50:41.098,2218.9104,2219.0,6
64266,64266,2020-11-30 14:51:11.098,2248.9429,2249.0,6
64276,64276,2020-11-30 14:51:41.098,2278.9739,2279.0,6
64286,64286,2020-11-30 14:52:11.098,2309.0032,2309.0,6
64296,64296,2020-11-30 14:52:41.098,2339.0315,2339.0,6
64306,64306,2020-11-30 14:53:11.098,2369.058,2369.0,6
64316,64316,2020-11-30 14:53:41.098,2399.0837,2399.0,6
64326,64326,2020-11-30 14:54:11.098,2429.1079999999997,2429.0,6
64336,64336,2020-11-30 14:54:41.098,2459.1309,2459.0,6
64346,64346,2020-11-30 14:55:11.098,2489.1528,2489.0,6
64356,64356,2020-11-30 14:55:41.098,2519.1736,2519.0,6
64366,64366,2020-11-30 14:56:11.098,2549.1934,2549.0,6
64376,64376,2020-11-30 14:56:41.098,2579.212,2579.0,6
64386,64386,2020-11-30 14:57:11.098,2609.23,2609.0,6
64396,64396,2020-11-30 14:57:41.098,2639.2468,2639.0,6
64406,64406,2020-11-30 14:58:11.098,2669.2627,2669.0,6
64416,64416,2020-11-30 14:58:41.098,2699.2778,2699.0,6
64426,64426,2020-11-30 14:59:11.098,2729.292,2729.0,6
64436,64436,2020-11-30 14:59:41.098,2759.3057,2759.0,6
64446,64446,2020-11-30 15:00:11.098,2789.3184,2789.0,6
64456,64456,2020-11-30 15:00:41.098,2819.3306,2819.0,6
64466,64466,2020-11-30 15:01:11.098,2849.3418,2849.0,6
64476,64476,2020-11-30 15:01:41.098,2879.3525,2879.0,6
64486,64486,2020-11-30 15:02:11.098,2909.3628,2909.0,6
64496,64496,2020-11-30 15:02:41.098,2939.3723,2939.0,6
64506,64506,2020-11-30 15:03:11.098,2969.3813,2969.0,6
64516,64516,2020-11-30 15:03:41.098,2999.39,2999.0,6
64526,64526,2020-11-30 15:04:11.098,3029.3977,3029.0,6
64536,64536,2020-11-30 15:04:41.098,3059.405,3059.0,6
64546,64546,2020-11-30 15:05:11.098,3089.4120000000003,3089.0,6
64556,64556,2020-11-30 15:05:41.098,3119.4185,3119.0,6
64566,64566,2020-11-30 15:06:11.098,3149.4246,3149.0,6
64576,64576,2020-11-30 15:06:41.098,3179.4302,3179.0,6
64586,64586,2020-11-30 15:07:11.098,3209.4359999999997,3209.0,6
64596,64596,2020-11-30 15:07:41.098,3239.441,3239.0,6
64606,64606,2020-11-30 15:08:11.098,3269.4453,3269.0,6
64616,64616,2020-11-30 15:08:41.098,3299.4495,3299.0,6
64626,64626,2020-11-30 15:09:11.098,3329.4536,3329.0,6
64636,64636,2020-11-30 15:09:41.098,3359.4570000000003,3359.0,6
64646,64646,2020-11-30 15:10:11.098,3389.4602,3389.0,6
64656,64656,2020-11-30 15:10:41.098,3419.4634,3419.0,6
64666,64666,2020-11-30 15:11:11.098,3449.4663,3449.0,6
64676,64676,2020-11-30 15:11:41.098,3479.4688,3479.0,6
64686,64686,2020-11-30 15:12:11.098,3509.4712,3509.0,6
64696,64696,2020-11-30 15:12:41.098,3539.4731,3539.0,6
64706,64706,2020-11-30 15:13:11.098,3569.475,3569.0,6
64716,64716,2020-11-30 15:13:41.098,3599.4766,3599.0,6
64726,64726,2020-11-30 15:14:11.098,3629.478,3629.0,6
64736,64736,2020-11-30 15:14:41.098,3659.4795,3659.0,6
64746,64746,2020-11-30 15:15:11.098,3689.4805,3689.0,6
64756,64756,2020-11-30 15:15:41.098,3719.4814,3719.0,6
64766,64766,2020-11-30 15:16:11.098,3749.482,3749.0,6
64776,64776,2020-11-30 15:16:41.098,3779.4829999999997,3779.0,6
64786,64786,2020-11-30 15:17:11.098,3809.4832,3809.0,6
64796,64796,2020-11-30 15:17:41.098,3839.4836,3839.0,6
64806,64806,2020-11-30 15:18:11.098,3869.4834,3869.0,6
64816,64816,2020-11-30 15:18:41.098,3899.4834,3899.0,6
64826,64826,2020-11-30 15:19:11.098,3929.4836,3929.0,6
64836,64836,2020-11-30 15:19:41.098,3959.4832,3959.0,6
64846,64846,2020-11-30 15:20:11.098,3989.4832,3989.0,6
64856,64856,2020-11-30 15:20:41.098,4019.4829999999997,4019.0,6
64866,64866,2020-11-30 15:21:11.098,4049.4824,4049.0,6
64876,64876,2020-11-30 15:21:41.098,4079.4814,4079.0,6
64886,64886,2020-11-30 15:22:11.098,4109.481,4109.0,6
64896,64896,2020-11-30 15:22:41.098,4139.48,4139.0,6
64906,64906,2020-11-30 15:23:11.098,4169.479,4169.0,6
64916,64916,2020-11-30 15:23:41.098,4199.4785,4199.0,6
64926,64926,2020-11-30 15:24:11.098,4229.4775,4229.0,6
64936,64936,2020-11-30 15:24:41.098,4259.476,4259.0,6
64946,64946,2020-11-30 15:25:11.098,4289.475,4289.0,6
64956,64956,2020-11-30 15:25:41.098,4319.474,4319.0,6
64966,64966,2020-11-30 15:26:11.098,4349.4727,4349.0,6
64976,64976,2020-11-30 15:26:41.098,4379.4717,4379.0,6
64986,64986,2020-11-30 15:27:11.098,4409.47,4409.0,6
64996,64996,2020-11-30 15:27:41.098,4439.4688,4439.0,6
65006,65006,2020-11-30 15:28:11.098,4469.4673,4469.0,6
65016,65016,2020-11-30 15:28:41.098,4499.465999999999,4499.0,6
65026,65026,2020-11-30 15:29:11.098,4529.4644,4529.0,6
65036,65036,2020-11-30 15:29:41.098,4559.4634,4559.0,6
65046,65046,2020-11-30 15:30:11.098,4589.4614,4589.0,6
65056,65056,2020-11-30 15:30:41.098,4619.46,4619.0,6
65066,65066,2020-11-30 15:31:11.098,4649.4585,4649.0,6
65076,65076,2020-11-30 15:31:41.098,4679.4565,4679.0,6
65086,65086,2020-11-30 15:32:11.098,4709.4546,4709.0,6
65096,65096,2020-11-30 15:32:41.098,4739.4529999999995,4739.0,6
65106,65106,2020-11-30 15:33:11.098,4769.4517,4769.0,6
65116,65116,2020-11-30 15:33:41.098,4799.4497,4799.0,6
65126,65126,2020-11-30 15:34:11.098,4829.4478,4829.0,6
65136,65136,2020-11-30 15:34:41.098,4859.4463,4859.0,6
65146,65146,2020-11-30 15:35:11.098,4889.4443,4889.0,6
65156,65156,2020-11-30 15:35:41.098,4919.4424,4919.0,6
65166,65166,2020-11-30 15:36:11.098,4949.441,4949.0,6
65176,65176,2020-11-30 15:36:41.098,4979.4385,4979.0,6
65186,65186,2020-11-30 15:37:11.098,5009.437,5009.0,6
65196,65196,2020-11-30 15:37:41.098,5039.4355,5039.0,6
65206,65206,2020-11-30 15:38:11.098,5069.433,5069.0,6
65216,65216,2020-11-30 15:38:41.098,5099.431,5099.0,6
65226,65226,2020-11-30 15:39:11.098,5129.4297,5129.0,6
65236,65236,2020-11-30 15:39:41.098,5159.4272,5159.0,6
65246,65246,2020-11-30 15:40:11.098,5189.4253,5189.0,6
65256,65256,2020-11-30 15:40:41.098,5219.424,5219.0,6
65266,65266,2020-11-30 15:41:11.098,5249.4214,5249.0,6
65276,65276,2020-11-30 15:41:41.098,5279.4194,5279.0,6
65286,65286,2020-11-30 15:42:11.098,5309.418000000001,5309.0,6
65296,65296,2020-11-30 15:42:41.098,5339.4165,5339.0,6
65306,65306,2020-11-30 15:43:11.098,5369.414000000001,5369.0,6
65316,65316,2020-11-30 15:43:41.098,5399.411999999999,5399.0,6
65326,65326,2020-11-30 15:44:11.098,5429.41,5429.0,6
65336,65336,2020-11-30 15:44:41.098,5459.408,5459.0,6
65346,65346,2020-11-30 15:45:11.098,5489.4062,5489.0,6
65356,65356,2020-11-30 15:45:41.098,5519.4043,5519.0,6
65366,65366,2020-11-30 15:46:11.098,5549.403,5549.0,6
65376,65376,2020-11-30 15:46:41.098,5579.401,5579.0,6
65386,65386,2020-11-30 15:47:11.098,5609.3984,5609.0,6
65396,65396,2020-11-30 15:47:41.098,5639.397,5639.0,6
65406,65406,2020-11-30 15:48:11.098,5669.3945,5669.0,6
65416,65416,2020-11-30 15:48:41.098,5699.393,5699.0,6
65426,65426,2020-11-30 15:49:11.098,5729.391,5729.0,6
65436,65436,2020-11-30 15:49:41.098,5759.389,5759.0,6
65446,65446,2020-11-30 15:50:11.098,5789.387,5789.0,6
65456,65456,2020-11-30 15:50:41.098,5819.3857,5819.0,6
65466,65466,2020-11-30 15:51:11.098,5849.384,5849.0,6
65476,65476,2020-11-30 15:51:41.098,5879.382,5879.0,6
65486,65486,2020-11-30 15:52:11.098,5909.38,5909.0,6
65496,65496,2020-11-30 15:52:41.098,5939.378000000001,5939.0,6
65506,65506,2020-11-30 15:53:11.098,5969.3765,5969.0,6
65516,65516,2020-11-30 15:53:41.098,5999.3745,5999.0,6
65526,65526,2020-11-30 15:54:11.098,6029.3726,6029.0,6
65536,65536,2020-11-30 15:54:41.098,6059.3706,6059.0,6
65546,65546,2020-11-30 15:55:11.098,6089.369000000001,6089.0,6
65556,65556,2020-11-30 15:55:41.098,6119.366999999999,6119.0,6
65566,65566,2020-11-30 15:56:11.098,6149.365,6149.0,6
65576,65576,2020-11-30 15:56:41.098,6179.3640000000005,6179.0,6
65586,65586,2020-11-30 15:57:11.098,6209.361999999999,6209.0,6
65596,65596,2020-11-30 15:57:41.098,6239.36,6239.0,6
65606,65606,2020-11-30 15:58:11.098,6269.3584,6269.0,6
65616,65616,2020-11-30 15:58:41.098,6299.3564,6299.0,6
65626,65626,2020-11-30 15:59:11.098,6329.355,6329.0,6
65636,65636,2020-11-30 15:59:41.098,6359.353,6359.0,6
65646,65646,2020-11-30 16:00:11.098,6389.3516,6389.0,6
65656,65656,2020-11-30 16:00:41.098,6419.3496,6419.0,6
65666,65666,2020-11-30 16:01:11.098,6449.348000000001,6449.0,6
65676,65676,2020-11-30 16:01:41.098,6479.346,6479.0,6
65686,65686,2020-11-30 16:02:11.098,6509.3447,6509.0,6
65696,65696,2020-11-30 16:02:41.098,6539.343000000001,6539.0,6
65706,65706,2020-11-30 16:03:11.098,6569.3413,6569.0,6
65716,65716,2020-11-30 16:03:41.098,6599.34,6599.0,6
65726,65726,2020-11-30 16:04:11.098,6629.338000000001,6629.0,6
65736,65736,2020-11-30 16:04:41.098,6659.335999999999,6659.0,6
65746,65746,2020-11-30 16:05:11.098,6689.3345,6689.0,6
65756,65756,2020-11-30 16:05:41.098,6719.3330000000005,6719.0,6
65766,65766,2020-11-30 16:06:11.098,6749.331,6749.0,6
65776,65776,2020-11-30 16:06:41.098,6779.33,6779.0,6
65786,65786,2020-11-30 16:07:11.098,6809.328,6809.0,6
65796,65796,2020-11-30 16:07:41.098,6839.326999999999,6839.0,6
65806,65806,2020-11-30 16:08:11.098,6869.325,6869.0,6
65816,65816,2020-11-30 16:08:41.098,6899.323,6899.0,6
65826,65826,2020-11-30 16:09:11.098,6929.321999999999,6929.0,6
65836,65836,2020-11-30 16:09:41.098,6959.3203,6959.0,6
65846,65846,2020-11-30 16:10:11.098,6989.3184,6989.0,6
65856,65856,2020-11-30 16:10:41.098,7019.316999999999,7019.0,6
65866,65866,2020-11-30 16:11:11.098,7049.316,7049.0,6
65876,65876,2020-11-30 16:11:41.098,7079.314,7079.0,6
65886,65886,2020-11-30 16:12:11.098,7109.313,7109.0,6
65896,65896,2020-11-30 16:12:41.098,7139.311,7139.0,6
65906,65906,2020-11-30 16:13:11.098,7169.3096,7169.0,6
65916,65916,2020-11-30 16:13:41.098,7199.308000000001,7199.0,6
65926,65926,2020-11-30 16:14:11.098,7229.307,7229.0,6
65936,65936,2020-11-30 16:14:41.098,7259.3047,7259.0,6
65946,65946,2020-11-30 16:15:11.098,7289.3037,7289.0,6
65956,65956,2020-11-30 16:15:41.098,7319.3022,7319.0,6
65966,65966,2020-11-30 16:16:11.098,7349.3003,7349.0,6
65976,65976,2020-11-30 16:16:41.098,7379.299,7379.0,6
65986,65986,2020-11-30 16:17:11.098,7409.2974,7409.0,6
65996,65996,2020-11-30 16:17:41.098,7439.2964,7439.0,6
66006,66006,2020-11-30 16:18:11.098,7469.295,7469.0,6
66016,66016,2020-11-30 16:18:41.098,7499.293000000001,7499.0,6
66026,66026,2020-11-30 16:19:11.098,7529.2919999999995,7529.0,6
66036,66036,2020-11-30 16:19:41.098,7559.2905,7559.0,6
66046,66046,2020-11-30 16:20:11.098,7589.289000000001,7589.0,6
66056,66056,2020-11-30 16:20:41.098,7619.2876,7619.0,6
66066,66066,2020-11-30 16:21:11.098,7649.2866,7649.0,6
66076,66076,2020-11-30 16:21:41.098,7679.285,7679.0,6
66086,66086,2020-11-30 16:22:11.098,7709.2837,7709.0,6
66096,66096,2020-11-30 16:22:41.098,7739.281999999999,7739.0,6
66106,66106,2020-11-30 16:23:11.098,7769.281,7769.0,6
66116,66116,2020-11-30 16:23:41.098,7799.2803,7799.0,6
66126,66126,2020-11-30 16:24:11.098,7829.2793,7829.0,6
66136,66136,2020-11-30 16:24:41.098,7859.278,7859.0,6
66146,66146,2020-11-30 16:25:11.098,7889.2764,7889.0,6
66156,66156,2020-11-30 16:25:41.098,7919.2744,7919.0,6
66166,66166,2020-11-30 16:26:11.098,7949.273,7949.0,6
66176,66176,2020-11-30 16:26:41.098,7979.272,7979.0,6
66186,66186,2020-11-30 16:27:11.098,8009.2705,8009.0,6
66196,66196,2020-11-30 16:27:41.098,8039.27,8039.0,6
66206,66206,2020-11-30 16:28:11.098,8069.2686,8069.0,6
66216,66216,2020-11-30 16:28:41.098,8099.267,8099.0,6
66226,66226,2020-11-30 16:29:11.098,8129.266,8129.0,6
66236,66236,2020-11-30 16:29:41.098,8159.265,8159.0,6
66246,66246,2020-11-30 16:30:11.098,8189.2637,8189.0,6
66256,66256,2020-11-30 16:30:41.098,8219.263,8219.0,6
66266,66266,2020-11-30 16:31:11.098,8249.261999999999,8249.0,6
66276,66276,2020-11-30 16:31:41.098,8279.26,8279.0,6
66286,66286,2020-11-30 16:32:11.098,8309.259,8309.0,6
66296,66296,2020-11-30 16:32:41.098,8339.258,8339.0,6
66306,66306,2020-11-30 16:33:11.098,8369.257,8369.0,6
66316,66316,2020-11-30 16:33:41.098,8399.256,8399.0,6
66326,66326,2020-11-30 16:34:11.098,8429.254,8429.0,6
66336,66336,2020-11-30 16:34:41.098,8459.254,8459.0,6
66346,66346,2020-11-30 16:35:11.098,8489.252,8489.0,6
66356,66356,2020-11-30 16:35:41.098,8519.251,8519.0,6
66366,66366,2020-11-30 16:36:11.098,8549.25,8549.0,6
66376,66376,2020-11-30 16:36:41.098,8579.249,8579.0,6
66386,66386,2020-11-30 16:37:11.098,8609.248,8609.0,6
66396,66396,2020-11-30 16:37:41.098,8639.247,8639.0,6
66406,66406,2020-11-30 16:38:11.098,8669.246,8669.0,6
66416,66416,2020-11-30 16:38:41.098,8699.245,8699.0,6
66426,66426,2020-11-30 16:39:11.098,8729.244,8729.0,6
66436,66436,2020-11-30 16:39:41.098,8759.242,8759.0,6
66446,66446,2020-11-30 16:40:11.098,8789.242,8789.0,6
66456,66456,2020-11-30 16:40:41.098,8819.24,8819.0,6
66466,66466,2020-11-30 16:41:11.098,8849.239,8849.0,6
66476,66476,2020-11-30 16:41:41.098,8879.238000000001,8879.0,6
66486,66486,2020-11-30 16:42:11.098,8909.238000000001,8909.0,6
66496,66496,2020-11-30 16:42:41.098,8939.237,8939.0,6
66506,66506,2020-11-30 16:43:11.098,8969.235999999999,8969.0,6
66516,66516,2020-11-30 16:43:41.098,8999.235,8999.0,6
66526,66526,2020-11-30 16:44:11.098,9029.233,9029.0,6
66536,66536,2020-11-30 16:44:41.098,9059.233,9059.0,6
66546,66546,2020-11-30 16:45:11.098,9089.231,9089.0,6
66556,66556,2020-11-30 16:45:41.098,9119.23,9119.0,6
66566,66566,2020-11-30 16:46:11.098,9149.23,9149.0,6
66576,66576,2020-11-30 16:46:41.098,9179.229,9179.0,6
66586,66586,2020-11-30 16:47:11.098,9209.229,9209.0,6
66596,66596,2020-11-30 16:47:41.098,9239.228000000001,9239.0,6
66606,66606,2020-11-30 16:48:11.098,9269.226999999999,9269.0,6
66616,66616,2020-11-30 16:48:41.098,9299.226,9299.0,6
66626,66626,2020-11-30 16:49:11.098,9329.225,9329.0,6
66636,66636,2020-11-30 16:49:41.098,9359.224,9359.0,6
66646,66646,2020-11-30 16:50:11.098,9389.223,9389.0,6
66656,66656,2020-11-30 16:50:41.098,9419.222,9419.0,6
66666,66666,2020-11-30 16:51:11.098,9449.221,9449.0,6
66676,66676,2020-11-30 16:51:41.098,9479.221,9479.0,6
66686,66686,2020-11-30 16:52:11.098,9509.22,9509.0,6
66696,66696,2020-11-30 16:52:41.098,9539.219000000001,9539.0,6
66706,66706,2020-11-30 16:53:11.098,9569.218,9569.0,6
66716,66716,2020-11-30 16:53:41.098,9599.216999999999,9599.0,6
66726,66726,2020-11-30 16:54:11.098,9629.216,9629.0,6
66736,66736,2020-11-30 16:54:41.098,9659.215,9659.0,6
66746,66746,2020-11-30 16:55:11.098,9689.215,9689.0,6
66756,66756,2020-11-30 16:55:41.098,9719.215,9719.0,6
66766,66766,2020-11-30 16:56:11.098,9749.213,9749.0,6
66776,66776,2020-11-30 16:56:41.098,9779.212,9779.0,6
66786,66786,2020-11-30 16:57:11.098,9809.211,9809.0,6
66796,66796,2020-11-30 16:57:41.098,9839.21,9839.0,6
66806,66806,2020-11-30 16:58:11.098,9869.21,9869.0,6
66816,66816,2020-11-30 16:58:41.098,9899.209,9899.0,6
66826,66826,2020-11-30 16:59:11.098,9929.209,9929.0,6
66836,66836,2020-11-30 16:59:41.098,9959.208,9959.0,6
66846,66846,2020-11-30 17:00:11.098,9989.207,9989.0,6
66856,66856,2020-11-30 17:00:41.098,10019.206,10019.0,6
66866,66866,2020-11-30 17:01:11.098,10049.206,10049.0,6
66876,66876,2020-11-30 17:01:41.098,10079.205,10079.0,6
66886,66886,2020-11-30 17:02:11.098,10109.204,10109.0,6
66896,66896,2020-11-30 17:02:41.098,10139.203000000001,10139.0,6
66906,66906,2020-11-30 17:03:11.098,10169.203000000001,10169.0,6
66916,66916,2020-11-30 17:03:41.098,10199.202,10199.0,6
66926,66926,2020-11-30 17:04:11.098,10229.201,10229.0,6
66936,66936,2020-11-30 17:04:41.098,10259.201,10259.0,6
66946,66946,2020-11-30 17:05:11.098,10289.2,10289.0,6
66956,66956,2020-11-30 17:05:41.098,10319.199,10319.0,6
66966,66966,2020-11-30 17:06:11.098,10349.198,10349.0,6
66976,66976,2020-11-30 17:06:41.098,10379.198,10379.0,6
66986,66986,2020-11-30 17:07:11.098,10409.198,10409.0,6
66996,66996,2020-11-30 17:07:41.098,10439.196,10439.0,6
67006,67006,2020-11-30 17:08:11.098,10469.196,10469.0,6
67016,67016,2020-11-30 17:08:41.098,10499.195,10499.0,6
67026,67026,2020-11-30 17:09:11.098,10529.195,10529.0,6
67036,67036,2020-11-30 17:09:41.098,10559.194,10559.0,6
67046,67046,2020-11-30 17:10:11.098,10589.194,10589.0,6
67056,67056,2020-11-30 17:10:41.098,10619.193000000001,10619.0,6
67066,67066,2020-11-30 17:11:11.098,10649.192,10649.0,6
67076,67076,2020-11-30 17:11:41.098,10679.192,10679.0,6
67086,67086,2020-11-30 17:12:11.098,10709.191,10709.0,6
67096,67096,2020-11-30 17:12:41.098,10739.19,10739.0,6
67106,67106,2020-11-30 17:13:11.098,10769.19,10769.0,6
67116,67116,2020-11-30 17:13:41.098,10799.188999999998,10799.0,6
67126,67126,2020-11-30 17:14:11.098,10829.19,10829.0,6
67136,67136,2020-11-30 17:14:41.098,10859.188,10859.0,6
67146,67146,2020-11-30 17:15:11.098,10889.188,10889.0,6
67156,67156,2020-11-30 17:15:41.098,10919.188,10919.0,6
67166,67166,2020-11-30 17:16:11.098,10949.1875,10949.0,6
67176,67176,2020-11-30 17:16:41.098,10979.187,10979.0,6
67186,67186,2020-11-30 17:17:11.098,11009.187,11009.0,6
67196,67196,2020-11-30 17:17:41.098,11039.186000000002,11039.0,6
67206,67206,2020-11-30 17:18:11.098,11069.185,11069.0,6
67216,67216,2020-11-30 17:18:41.098,11099.185,11099.0,6
67226,67226,2020-11-30 17:19:11.098,11129.185,11129.0,6
67236,67236,2020-11-30 17:19:41.098,11159.185,11159.0,6
67246,67246,2020-11-30 17:20:11.098,11189.184,11189.0,6
67256,67256,2020-11-30 17:20:41.098,11219.183,11219.0,6
67266,67266,2020-11-30 17:21:11.098,11249.183,11249.0,6
67276,67276,2020-11-30 17:21:41.098,11279.181999999999,11279.0,6
67286,67286,2020-11-30 17:22:11.098,11309.181999999999,11309.0,6
67296,67296,2020-11-30 17:22:41.098,11339.181,11339.0,6
67306,67306,2020-11-30 17:23:11.098,11369.181,11369.0,6
67316,67316,2020-11-30 17:23:41.098,11399.181,11399.0,6
67326,67326,2020-11-30 17:24:11.098,11429.178999999998,11429.0,6
67336,67336,2020-11-30 17:24:41.098,11459.18,11459.0,6
67346,67346,2020-11-30 17:25:11.098,11489.178999999998,11489.0,6
67356,67356,2020-11-30 17:25:41.098,11519.178999999998,11519.0,6
67366,67366,2020-11-30 17:26:11.098,11549.178,11549.0,6
67376,67376,2020-11-30 17:26:41.098,11579.178,11579.0,6
67386,67386,2020-11-30 17:27:11.098,11609.177,11609.0,6
67396,67396,2020-11-30 17:27:41.098,11639.177,11639.0,6
67406,67406,2020-11-30 17:28:11.098,11669.177,11669.0,6
67416,67416,2020-11-30 17:28:41.098,11699.176000000001,11699.0,6
67426,67426,2020-11-30 17:29:11.098,11729.176000000001,11729.0,6
67436,67436,2020-11-30 17:29:41.098,11759.175,11759.0,6
67446,67446,2020-11-30 17:30:11.098,11789.175,11789.0,6
67456,67456,2020-11-30 17:30:41.098,11819.175,11819.0,6
67466,67466,2020-11-30 17:31:11.098,11849.175,11849.0,6
67476,67476,2020-11-30 17:31:41.098,11879.173,11879.0,6
67486,67486,2020-11-30 17:32:11.098,11909.173,11909.0,6
67496,67496,2020-11-30 17:32:41.098,11939.173999999999,11939.0,6
67506,67506,2020-11-30 17:33:11.098,11969.173,11969.0,6
67516,67516,2020-11-30 17:33:41.098,11999.173,11999.0,6
67526,67526,2020-11-30 17:34:11.098,12029.171999999999,12029.0,6
67536,67536,2020-11-30 17:34:41.098,12059.171,12059.0,6
67546,67546,2020-11-30 17:35:11.098,12089.171,12089.0,6
67556,67556,2020-11-30 17:35:41.098,12119.17,12119.0,6
67566,67566,2020-11-30 17:36:11.098,12149.17,12149.0,6
67576,67576,2020-11-30 17:36:41.098,12179.17,12179.0,6
67586,67586,2020-11-30 17:37:11.098,12209.17,12209.0,6
67596,67596,2020-11-30 17:37:41.098,12239.169,12239.0,6
67606,67606,2020-11-30 17:38:11.098,12269.168,12269.0,6
67616,67616,2020-11-30 17:38:41.098,12299.169,12299.0,6
67626,67626,2020-11-30 17:39:11.098,12329.168,12329.0,6
67636,67636,2020-11-30 17:39:41.098,12359.169,12359.0,6
67646,67646,2020-11-30 17:40:11.098,12389.168,12389.0,6
67656,67656,2020-11-30 17:40:41.098,12419.168,12419.0,6
67666,67666,2020-11-30 17:41:11.098,12449.167,12449.0,6
67676,67676,2020-11-30 17:41:41.098,12479.167,12479.0,6
67686,67686,2020-11-30 17:42:11.098,12509.166000000001,12509.0,6
67696,67696,2020-11-30 17:42:41.098,12539.166000000001,12539.0,6
67706,67706,2020-11-30 17:43:11.098,12569.166000000001,12569.0,6
67716,67716,2020-11-30 17:43:41.098,12599.166000000001,12599.0,6
67726,67726,2020-11-30 17:44:11.098,12629.166000000001,12629.0,6
67736,67736,2020-11-30 17:44:41.098,12659.166000000001,12659.0,6
67746,67746,2020-11-30 17:45:11.098,12689.163999999999,12689.0,6
67756,67756,2020-11-30 17:45:41.098,12719.165,12719.0,6
67766,67766,2020-11-30 17:46:11.098,12749.165,12749.0,6
67776,67776,2020-11-30 17:46:41.098,12779.163999999999,12779.0,6
67786,67786,2020-11-30 17:47:11.098,12809.163999999999,12809.0,6
67796,67796,2020-11-30 17:47:41.098,12839.163999999999,12839.0,6
67806,67806,2020-11-30 17:48:11.098,12869.163999999999,12869.0,6
67816,67816,2020-11-30 17:48:41.098,12899.163999999999,12899.0,6
67826,67826,2020-11-30 17:49:11.098,12929.163,12929.0,6
67836,67836,2020-11-30 17:49:41.098,12959.162,12959.0,6
67846,67846,2020-11-30 17:50:11.098,12989.163,12989.0,6
67856,67856,2020-11-30 17:50:41.098,13019.163,13019.0,6
67866,67866,2020-11-30 17:51:11.098,13049.162,13049.0,6
67876,67876,2020-11-30 17:51:41.098,13079.162,13079.0,6
67886,67886,2020-11-30 17:52:11.098,13109.161,13109.0,6
67896,67896,2020-11-30 17:52:41.098,13139.161,13139.0,6
67906,67906,2020-11-30 17:53:11.098,13169.162,13169.0,6
67916,67916,2020-11-30 17:53:41.098,13199.161,13199.0,6
67926,67926,2020-11-30 17:54:11.098,13229.161,13229.0,6
67936,67936,2020-11-30 17:54:41.098,13259.16,13259.0,6
67946,67946,2020-11-30 17:55:11.098,13289.16,13289.0,6
67956,67956,2020-11-30 17:55:41.098,13319.161,13319.0,6
67966,67966,2020-11-30 17:56:11.098,13349.16,13349.0,6
67976,67976,2020-11-30 17:56:41.098,13379.159,13379.0,6
67986,67986,2020-11-30 17:57:11.098,13409.159,13409.0,6
67996,67996,2020-11-30 17:57:41.098,13439.159,13439.0,6
68006,68006,2020-11-30 17:58:11.098,13469.159,13469.0,6
68016,68016,2020-11-30 17:58:41.098,13499.159,13499.0,6
68026,68026,2020-11-30 17:59:11.098,13529.159,13529.0,6
68036,68036,2020-11-30 17:59:41.098,13559.159,13559.0,6
68046,68046,2020-11-30 18:00:11.098,13589.159,13589.0,6
68056,68056,2020-11-30 18:00:41.098,13619.159,13619.0,6
68066,68066,2020-11-30 18:01:11.098,13649.158000000001,13649.0,6
68076,68076,2020-11-30 18:01:41.098,13679.158000000001,13679.0,6
68086,68086,2020-11-30 18:02:11.098,13709.159,13709.0,6
68096,68096,2020-11-30 18:02:41.098,13739.157,13739.0,6
68106,68106,2020-11-30 18:03:11.098,13769.157,13769.0,6
68116,68116,2020-11-30 18:03:41.098,13799.158000000001,13799.0,6
68126,68126,2020-11-30 18:04:11.098,13829.158000000001,13829.0,6
68136,68136,2020-11-30 18:04:41.098,13859.158000000001,13859.0,6
68146,68146,2020-11-30 18:05:11.098,13889.158000000001,13889.0,6
68156,68156,2020-11-30 18:05:41.098,13919.157,13919.0,6
68166,68166,2020-11-30 18:06:11.098,13949.157,13949.0,6
68176,68176,2020-11-30 18:06:41.098,13979.156,13979.0,6
68186,68186,2020-11-30 18:07:11.098,14009.156,14009.0,6
