,Unnamed: 0,time,prediction,step
8692,8692,2021-02-09 14:51:39.866,6144.398,2
8702,8702,2021-02-09 14:52:09.866,6114.4917,2
8712,8712,2021-02-09 14:52:39.866,6084.5684,2
8722,8722,2021-02-09 14:53:09.866,6054.628000000001,2
8732,8732,2021-02-09 14:53:39.866,6024.6777,2
8742,8742,2021-02-09 14:54:09.866,5994.721,2
8752,8752,2021-02-09 14:54:39.866,5964.7603,2
8762,8762,2021-02-09 14:55:09.866,5934.797,2
8772,8772,2021-02-09 14:55:39.866,5904.831,2
8782,8782,2021-02-09 14:56:09.866,5874.8640000000005,2
8792,8792,2021-02-09 14:56:39.866,5844.896,2
8802,8802,2021-02-09 14:57:09.866,5814.9272,2
8812,8812,2021-02-09 14:57:39.866,5784.959,2
8822,8822,2021-02-09 14:58:09.866,5754.9897,2
8832,8832,2021-02-09 14:58:39.866,5725.021,2
8842,8842,2021-02-09 14:59:09.866,5695.0728,2
8852,8852,2021-02-09 14:59:39.866,5665.124,2
8862,8862,2021-02-09 15:00:09.866,5635.170999999999,2
8872,8872,2021-02-09 15:00:39.866,5605.215,2
8882,8882,2021-02-09 15:01:09.866,5575.2563,2
8892,8892,2021-02-09 15:01:39.866,5545.295999999999,2
8902,8902,2021-02-09 15:02:09.866,5515.334,2
8912,8912,2021-02-09 15:02:39.866,5485.3716,2
8922,8922,2021-02-09 15:03:09.866,5455.409000000001,2
8932,8932,2021-02-09 15:03:39.866,5425.446999999999,2
8942,8942,2021-02-09 15:04:09.866,5395.484,2
8952,8952,2021-02-09 15:04:39.866,5365.522,2
8962,8962,2021-02-09 15:05:09.866,5335.5596,2
8972,8972,2021-02-09 15:05:39.866,5305.597,2
8982,8982,2021-02-09 15:06:09.866,5275.6436,2
8992,8992,2021-02-09 15:06:39.866,5245.69,2
9002,9002,2021-02-09 15:07:09.866,5215.738,2
9012,9012,2021-02-09 15:07:39.866,5185.786,2
9022,9022,2021-02-09 15:08:09.866,5155.8354,2
9032,9032,2021-02-09 15:08:39.866,5125.8853,2
9042,9042,2021-02-09 15:09:09.866,5095.936,2
9052,9052,2021-02-09 15:09:39.866,5065.988,2
9062,9062,2021-02-09 15:10:09.866,5036.0405,2
9072,9072,2021-02-09 15:10:39.866,5006.0947,2
9082,9082,2021-02-09 15:11:09.866,4976.15,2
9092,9092,2021-02-09 15:11:39.866,4946.207,2
9102,9102,2021-02-09 15:12:09.866,4916.2646,2
9112,9112,2021-02-09 15:12:39.866,4886.323,2
9122,9122,2021-02-09 15:13:09.866,4856.3965,2
9132,9132,2021-02-09 15:13:39.866,4826.4707,2
9142,9142,2021-02-09 15:14:09.866,4796.5444,2
9152,9152,2021-02-09 15:14:39.866,4766.617,2
9162,9162,2021-02-09 15:15:09.866,4736.6895,2
9172,9172,2021-02-09 15:15:39.866,4706.762,2
9182,9182,2021-02-09 15:16:09.866,4676.835,2
9192,9192,2021-02-09 15:16:39.866,4646.9087,2
9202,9202,2021-02-09 15:17:09.866,4616.983,2
9212,9212,2021-02-09 15:17:39.866,4587.059,2
9222,9222,2021-02-09 15:18:09.866,4557.1359999999995,2
9232,9232,2021-02-09 15:18:39.866,4527.2153,2
9242,9242,2021-02-09 15:19:09.866,4497.2954,2
9252,9252,2021-02-09 15:19:39.866,4467.3774,2
9262,9262,2021-02-09 15:20:09.866,4437.460999999999,2
9272,9272,2021-02-09 15:20:39.866,4407.545999999999,2
9282,9282,2021-02-09 15:21:09.866,4377.633,2
9292,9292,2021-02-09 15:21:39.866,4347.7217,2
9302,9302,2021-02-09 15:22:09.866,4317.812,2
9312,9312,2021-02-09 15:22:39.866,4287.905,2
9322,9322,2021-02-09 15:23:09.866,4258.0,2
9332,9332,2021-02-09 15:23:39.866,4228.096,2
9342,9342,2021-02-09 15:24:09.866,4198.194,2
9352,9352,2021-02-09 15:24:39.866,4168.2925,2
9362,9362,2021-02-09 15:25:09.866,4138.3926,2
9372,9372,2021-02-09 15:25:39.866,4108.4937,2
9382,9382,2021-02-09 15:26:09.866,4078.5959999999995,2
9392,9392,2021-02-09 15:26:39.866,4048.6995,2
9402,9402,2021-02-09 15:27:09.866,4018.8037,2
9412,9412,2021-02-09 15:27:39.866,3988.909,2
9422,9422,2021-02-09 15:28:09.866,3959.0156,2
9432,9432,2021-02-09 15:28:39.866,3929.123,2
9442,9442,2021-02-09 15:29:09.866,3899.2168,2
9452,9452,2021-02-09 15:29:39.866,3869.3108,2
9462,9462,2021-02-09 15:30:09.866,3839.3920000000003,2
9472,9472,2021-02-09 15:30:39.866,3809.4759999999997,2
9482,9482,2021-02-09 15:31:09.866,3779.5464,2
9492,9492,2021-02-09 15:31:39.866,3749.62,2
9502,9502,2021-02-09 15:32:09.866,3719.7024,2
9512,9512,2021-02-09 15:32:39.866,3689.7908,2
9522,9522,2021-02-09 15:33:09.866,3659.8833,2
9532,9532,2021-02-09 15:33:39.866,3629.9788,2
9542,9542,2021-02-09 15:34:09.866,3600.0764,2
9552,9552,2021-02-09 15:34:39.866,3570.1746,2
9562,9562,2021-02-09 15:35:09.866,3540.2732,2
9572,9572,2021-02-09 15:35:39.866,3510.3723,2
9582,9582,2021-02-09 15:36:09.866,3480.4707,2
9592,9592,2021-02-09 15:36:39.866,3450.5688,2
