,Unnamed: 0,time,preds,step
34477,34477,2021-01-21 14:32:33.581,76.48575,7
34487,34487,2021-01-21 14:33:03.581,75.753235,7
34497,34497,2021-01-21 14:33:33.581,76.20834,7
34507,34507,2021-01-21 14:34:03.581,76.93576999999999,7
34517,34517,2021-01-21 14:34:33.581,76.311966,7
34527,34527,2021-01-21 14:35:03.581,77.138336,7
34537,34537,2021-01-21 14:35:33.581,77.55205500000001,7
34547,34547,2021-01-21 14:36:03.581,77.169235,7
34557,34557,2021-01-21 14:36:33.581,78.17495,7
34567,34567,2021-01-21 14:37:03.581,78.27874,7
34577,34577,2021-01-21 14:37:33.581,78.10401999999999,7
34587,34587,2021-01-21 14:38:03.581,78.234116,7
34597,34597,2021-01-21 14:38:33.581,78.19343,7
34607,34607,2021-01-21 14:39:03.581,78.54381,7
34617,34617,2021-01-21 14:39:33.581,78.658966,7
34627,34627,2021-01-21 14:40:03.581,78.86525999999999,7
34637,34637,2021-01-21 14:40:33.581,78.9023,7
34647,34647,2021-01-21 14:41:03.581,79.088936,7
34657,34657,2021-01-21 14:41:33.581,79.13436,7
34667,34667,2021-01-21 14:42:03.581,78.98456999999999,7
34677,34677,2021-01-21 14:42:33.581,78.81305,7
34687,34687,2021-01-21 14:43:03.581,78.5496,7
34697,34697,2021-01-21 14:43:33.581,79.16938,7
34707,34707,2021-01-21 14:44:03.581,79.33055999999999,7
34717,34717,2021-01-21 14:44:33.581,79.26726500000001,7
34727,34727,2021-01-21 14:45:03.581,79.43661,7
34737,34737,2021-01-21 14:45:33.581,79.42969000000001,7
34747,34747,2021-01-21 14:46:03.581,79.34836,7
34757,34757,2021-01-21 14:46:33.581,79.9943,7
34767,34767,2021-01-21 14:47:03.581,80.22166999999999,7
34777,34777,2021-01-21 14:47:33.581,80.35704,7
34787,34787,2021-01-21 14:48:03.581,80.59859,7
34797,34797,2021-01-21 14:48:33.581,80.7236,7
34807,34807,2021-01-21 14:49:03.581,80.67086,7
34817,34817,2021-01-21 14:49:33.581,80.70069000000001,7
34827,34827,2021-01-21 14:50:03.581,80.60941,7
34837,34837,2021-01-21 14:50:33.581,80.48061,7
34847,34847,2021-01-21 14:51:03.581,80.4053,7
34857,34857,2021-01-21 14:51:33.581,80.365875,7
34867,34867,2021-01-21 14:52:03.581,81.07068000000001,7
34877,34877,2021-01-21 14:52:33.581,81.30048000000001,7
34887,34887,2021-01-21 14:53:03.581,81.214554,7
34897,34897,2021-01-21 14:53:33.581,81.43602,7
34907,34907,2021-01-21 14:54:03.581,81.25452,7
34917,34917,2021-01-21 14:54:33.581,81.19637,7
34927,34927,2021-01-21 14:55:03.581,81.23775,7
34937,34937,2021-01-21 14:55:33.581,81.3682,7
34947,34947,2021-01-21 14:56:03.581,81.44626,7
34957,34957,2021-01-21 14:56:33.581,81.53106,7
34967,34967,2021-01-21 14:57:03.581,81.56194,7
34977,34977,2021-01-21 14:57:33.581,81.417816,7
34987,34987,2021-01-21 14:58:03.581,81.32099000000001,7
34997,34997,2021-01-21 14:58:33.581,81.17394,7
35007,35007,2021-01-21 14:59:03.581,81.003555,7
35017,35017,2021-01-21 14:59:33.581,80.92596400000001,7
35027,35027,2021-01-21 15:00:03.581,80.959724,7
35037,35037,2021-01-21 15:00:33.581,79.0606,7
35047,35047,2021-01-21 15:01:03.581,78.8022,7
35057,35057,2021-01-21 15:01:33.581,78.81012,7
35067,35067,2021-01-21 15:02:03.581,78.11905,7
35077,35077,2021-01-21 15:02:33.581,78.39224,7
35087,35087,2021-01-21 15:03:03.581,78.470505,7
35097,35097,2021-01-21 15:03:33.581,78.872055,7
35107,35107,2021-01-21 15:04:03.581,79.14641,7
35117,35117,2021-01-21 15:04:33.581,79.31871,7
35127,35127,2021-01-21 15:05:03.581,79.21619399999999,7
35137,35137,2021-01-21 15:05:33.581,79.10898,7
35147,35147,2021-01-21 15:06:03.581,79.007286,7
35157,35157,2021-01-21 15:06:33.581,79.17950400000001,7
35167,35167,2021-01-21 15:07:03.581,79.39356,7
35177,35177,2021-01-21 15:07:33.581,79.475105,7
35187,35187,2021-01-21 15:08:03.581,79.47504,7
35197,35197,2021-01-21 15:08:33.581,79.537796,7
35207,35207,2021-01-21 15:09:03.581,79.47211,7
35217,35217,2021-01-21 15:09:33.581,79.50506999999999,7
35227,35227,2021-01-21 15:10:03.581,79.62095,7
35237,35237,2021-01-21 15:10:33.581,79.61868,7
35247,35247,2021-01-21 15:11:03.581,79.61664,7
35257,35257,2021-01-21 15:11:33.581,79.44412,7
35267,35267,2021-01-21 15:12:03.581,79.49579,7
35277,35277,2021-01-21 15:12:33.581,79.75808,7
35287,35287,2021-01-21 15:13:03.581,80.6553,7
35297,35297,2021-01-21 15:13:33.581,81.08107,7
35307,35307,2021-01-21 15:14:03.581,81.32961999999999,7
35317,35317,2021-01-21 15:14:33.581,81.474075,7
35327,35327,2021-01-21 15:15:03.581,81.16257,7
35337,35337,2021-01-21 15:15:33.581,81.19256,7
35347,35347,2021-01-21 15:16:03.581,81.26306,7
35357,35357,2021-01-21 15:16:33.581,81.42129,7
35367,35367,2021-01-21 15:17:03.581,81.44058000000001,7
35377,35377,2021-01-21 15:17:33.581,82.11664,7
35387,35387,2021-01-21 15:18:03.581,82.34994499999999,7
35397,35397,2021-01-21 15:18:33.581,82.36417,7
35407,35407,2021-01-21 15:19:03.581,82.35461,7
35417,35417,2021-01-21 15:19:33.581,82.3188,7
35427,35427,2021-01-21 15:20:03.581,82.325806,7
35437,35437,2021-01-21 15:20:33.581,82.109375,7
35447,35447,2021-01-21 15:21:03.581,82.1421,7
35457,35457,2021-01-21 15:21:33.581,82.15032,7
35467,35467,2021-01-21 15:22:03.581,82.3563,7
35477,35477,2021-01-21 15:22:33.581,82.4697,7
35487,35487,2021-01-21 15:23:03.581,82.47315,7
35497,35497,2021-01-21 15:23:33.581,82.40491,7
35507,35507,2021-01-21 15:24:03.581,82.20234,7
35517,35517,2021-01-21 15:24:33.581,82.01092,7
35527,35527,2021-01-21 15:25:03.581,82.46271999999999,7
35537,35537,2021-01-21 15:25:33.581,82.70518,7
35547,35547,2021-01-21 15:26:03.581,82.84215,7
35557,35557,2021-01-21 15:26:33.581,82.97953000000001,7
35567,35567,2021-01-21 15:27:03.581,83.034485,7
35577,35577,2021-01-21 15:27:33.581,83.21727,7
35587,35587,2021-01-21 15:28:03.581,83.24075,7
35597,35597,2021-01-21 15:28:33.581,83.272446,7
35607,35607,2021-01-21 15:29:03.581,83.29034,7
35617,35617,2021-01-21 15:29:33.581,83.42059,7
35627,35627,2021-01-21 15:30:03.581,83.41045,7
35637,35637,2021-01-21 15:30:33.581,83.33209000000001,7
35647,35647,2021-01-21 15:31:03.581,83.289024,7
35657,35657,2021-01-21 15:31:33.581,83.11701,7
35667,35667,2021-01-21 15:32:03.581,83.177376,7
35677,35677,2021-01-21 15:32:33.581,82.98891400000001,7
35687,35687,2021-01-21 15:33:03.581,82.96729,7
35697,35697,2021-01-21 15:33:33.581,82.88767,7
35707,35707,2021-01-21 15:34:03.581,82.946945,7
35717,35717,2021-01-21 15:34:33.581,82.89007600000001,7
35727,35727,2021-01-21 15:35:03.581,82.8721,7
35737,35737,2021-01-21 15:35:33.581,83.59276,7
35747,35747,2021-01-21 15:36:03.581,83.78400400000001,7
35757,35757,2021-01-21 15:36:33.581,83.92746,7
35767,35767,2021-01-21 15:37:03.581,84.025665,7
35777,35777,2021-01-21 15:37:33.581,84.01952,7
35787,35787,2021-01-21 15:38:03.581,84.08283,7
35797,35797,2021-01-21 15:38:33.581,84.03846,7
35807,35807,2021-01-21 15:39:03.581,83.929794,7
35817,35817,2021-01-21 15:39:33.581,83.79772,7
35827,35827,2021-01-21 15:40:03.581,83.92822,7
35837,35837,2021-01-21 15:40:33.581,84.049255,7
35847,35847,2021-01-21 15:41:03.581,84.15921999999999,7
35857,35857,2021-01-21 15:41:33.581,84.25277,7
35867,35867,2021-01-21 15:42:03.581,84.22131,7
35877,35877,2021-01-21 15:42:33.581,84.177376,7
35887,35887,2021-01-21 15:43:03.581,82.91547,7
35897,35897,2021-01-21 15:43:33.581,81.02466,7
35907,35907,2021-01-21 15:44:03.581,80.8441,7
35917,35917,2021-01-21 15:44:33.581,80.89535500000001,7
35927,35927,2021-01-21 15:45:03.581,81.001015,7
35937,35937,2021-01-21 15:45:33.581,81.43391,7
35947,35947,2021-01-21 15:46:03.581,81.40388,7
35957,35957,2021-01-21 15:46:33.581,81.37134,7
35967,35967,2021-01-21 15:47:03.581,81.46839,7
35977,35977,2021-01-21 15:47:33.581,81.56466,7
35987,35987,2021-01-21 15:48:03.581,81.56241999999999,7
35997,35997,2021-01-21 15:48:33.581,81.56009,7
36007,36007,2021-01-21 15:49:03.581,81.56728000000001,7
36017,36017,2021-01-21 15:49:33.581,81.66207,7
36027,36027,2021-01-21 15:50:03.581,81.78161999999999,7
36037,36037,2021-01-21 15:50:33.581,81.70973000000001,7
36047,36047,2021-01-21 15:51:03.581,81.68784000000001,7
36057,36057,2021-01-21 15:51:33.581,81.6409,7
36067,36067,2021-01-21 15:52:03.581,81.53011,7
36077,36077,2021-01-21 15:52:33.581,81.5076,7
36087,36087,2021-01-21 15:53:03.581,81.51321999999999,7
36097,36097,2021-01-21 15:53:33.581,81.47358,7
36107,36107,2021-01-21 15:54:03.581,81.50477,7
36117,36117,2021-01-21 15:54:33.581,81.507935,7
36127,36127,2021-01-21 15:55:03.581,81.43831,7
36137,36137,2021-01-21 15:55:33.581,81.84935,7
36147,36147,2021-01-21 15:56:03.581,81.964066,7
36157,36157,2021-01-21 15:56:33.581,82.01515,7
36167,36167,2021-01-21 15:57:03.581,82.17925,7
36177,36177,2021-01-21 15:57:33.581,81.940605,7
36187,36187,2021-01-21 15:58:03.581,81.80629,7
36197,36197,2021-01-21 15:58:33.581,81.82093,7
36207,36207,2021-01-21 15:59:03.581,81.8217,7
36217,36217,2021-01-21 15:59:33.581,81.79772,7
36227,36227,2021-01-21 16:00:03.581,81.92821500000001,7
36237,36237,2021-01-21 16:00:33.581,82.049255,7
36247,36247,2021-01-21 16:01:03.581,82.1592,7
36257,36257,2021-01-21 16:01:33.581,82.25276,7
36267,36267,2021-01-21 16:02:03.581,82.22131,7
36277,36277,2021-01-21 16:02:33.581,82.177376,7
36287,36287,2021-01-21 16:03:03.581,81.98891,7
36297,36297,2021-01-21 16:03:33.581,81.96729,7
36307,36307,2021-01-21 16:04:03.581,81.88767,7
36317,36317,2021-01-21 16:04:33.581,81.946945,7
36327,36327,2021-01-21 16:05:03.581,81.89008000000001,7
36337,36337,2021-01-21 16:05:33.581,81.87209,7
36347,36347,2021-01-21 16:06:03.581,81.91762,7
36357,36357,2021-01-21 16:06:33.581,81.91425,7
36367,36367,2021-01-21 16:07:03.581,81.97492,7
36377,36377,2021-01-21 16:07:33.581,82.01703,7
36387,36387,2021-01-21 16:08:03.581,82.00405,7
36397,36397,2021-01-21 16:08:33.581,81.95703,7
36407,36407,2021-01-21 16:09:03.581,81.98193,7
36417,36417,2021-01-21 16:09:33.581,81.98875,7
36427,36427,2021-01-21 16:10:03.581,82.0,7
36437,36437,2021-01-21 16:10:33.581,82.0,7
36447,36447,2021-01-21 16:11:03.581,82.0,7
36457,36457,2021-01-21 16:11:33.581,82.0,7
36467,36467,2021-01-21 16:12:03.581,82.0,7
36477,36477,2021-01-21 16:12:33.581,82.0,7
36487,36487,2021-01-21 16:13:03.581,82.0,7
36497,36497,2021-01-21 16:13:33.581,82.0,7
36507,36507,2021-01-21 16:14:03.581,82.0,7
36517,36517,2021-01-21 16:14:33.581,82.0,7
36527,36527,2021-01-21 16:15:03.581,82.59151,7
36537,36537,2021-01-21 16:15:33.581,82.63672,7
36547,36547,2021-01-21 16:16:03.581,82.58273,7
36557,36557,2021-01-21 16:16:33.581,82.59283,7
36567,36567,2021-01-21 16:17:03.581,82.68226999999999,7
36577,36577,2021-01-21 16:17:33.581,82.80629,7
36587,36587,2021-01-21 16:18:03.581,82.82093,7
36597,36597,2021-01-21 16:18:33.581,82.82169,7
36607,36607,2021-01-21 16:19:03.581,82.79772,7
36617,36617,2021-01-21 16:19:33.581,82.92821500000001,7
36627,36627,2021-01-21 16:20:03.581,83.04925,7
36637,36637,2021-01-21 16:20:33.581,83.15921999999999,7
36647,36647,2021-01-21 16:21:03.581,83.25276,7
36657,36657,2021-01-21 16:21:33.581,83.22131999999999,7
36667,36667,2021-01-21 16:22:03.581,83.177376,7
36677,36677,2021-01-21 16:22:33.581,82.98891400000001,7
36687,36687,2021-01-21 16:23:03.581,82.96729,7
36697,36697,2021-01-21 16:23:33.581,82.88767,7
36707,36707,2021-01-21 16:24:03.581,81.918175,7
36717,36717,2021-01-21 16:24:33.581,80.80429000000001,7
36727,36727,2021-01-21 16:25:03.581,80.89031,7
36737,36737,2021-01-21 16:25:33.581,80.96862,7
36747,36747,2021-01-21 16:26:03.581,80.38391,7
36757,36757,2021-01-21 16:26:33.581,80.44575,7
36767,36767,2021-01-21 16:27:03.581,80.50820999999999,7
36777,36777,2021-01-21 16:27:33.581,80.54938,7
36787,36787,2021-01-21 16:28:03.581,80.62161,7
36797,36797,2021-01-21 16:28:33.581,80.586365,7
36807,36807,2021-01-21 16:29:03.581,80.46254,7
36817,36817,2021-01-21 16:29:33.581,80.16667,7
36827,36827,2021-01-21 16:30:03.581,80.35292,7
36837,36837,2021-01-21 16:30:33.581,80.48857,7
36847,36847,2021-01-21 16:31:03.581,80.770645,7
36857,36857,2021-01-21 16:31:33.581,80.852905,7
36867,36867,2021-01-21 16:32:03.581,81.03825,7
36877,36877,2021-01-21 16:32:33.581,81.20749,7
36887,36887,2021-01-21 16:33:03.581,81.18422,7
36897,36897,2021-01-21 16:33:33.581,81.20652,7
36907,36907,2021-01-21 16:34:03.581,81.27866,7
36917,36917,2021-01-21 16:34:33.581,81.26140600000001,7
36927,36927,2021-01-21 16:35:03.581,81.28504000000001,7
36937,36937,2021-01-21 16:35:33.581,81.258156,7
36947,36947,2021-01-21 16:36:03.581,81.14317,7
36957,36957,2021-01-21 16:36:33.581,80.97609,7
36967,36967,2021-01-21 16:37:03.581,81.01746,7
36977,36977,2021-01-21 16:37:33.581,81.201965,7
36987,36987,2021-01-21 16:38:03.581,81.44852,7
36997,36997,2021-01-21 16:38:33.581,81.22734,7
37007,37007,2021-01-21 16:39:03.581,81.03005999999999,7
37017,37017,2021-01-21 16:39:33.581,81.01813,7
37027,37027,2021-01-21 16:40:03.581,81.05206,7
37037,37037,2021-01-21 16:40:33.581,80.89009,7
37047,37047,2021-01-21 16:41:03.581,80.87209,7
37057,37057,2021-01-21 16:41:33.581,80.91761,7
37067,37067,2021-01-21 16:42:03.581,80.91425,7
37077,37077,2021-01-21 16:42:33.581,80.97492,7
37087,37087,2021-01-21 16:43:03.581,81.01703,7
37097,37097,2021-01-21 16:43:33.581,81.00405,7
37107,37107,2021-01-21 16:44:03.581,80.95704,7
37117,37117,2021-01-21 16:44:33.581,80.98194000000001,7
37127,37127,2021-01-21 16:45:03.581,81.462326,7
37137,37137,2021-01-21 16:45:33.581,81.63671,7
37147,37147,2021-01-21 16:46:03.581,81.58273,7
37157,37157,2021-01-21 16:46:33.581,81.59281999999999,7
37167,37167,2021-01-21 16:47:03.581,81.68226999999999,7
37177,37177,2021-01-21 16:47:33.581,81.80629,7
37187,37187,2021-01-21 16:48:03.581,81.82093,7
37197,37197,2021-01-21 16:48:33.581,81.8217,7
37207,37207,2021-01-21 16:49:03.581,81.79772,7
37217,37217,2021-01-21 16:49:33.581,81.92821500000001,7
37227,37227,2021-01-21 16:50:03.581,82.049255,7
37237,37237,2021-01-21 16:50:33.581,82.1592,7
37247,37247,2021-01-21 16:51:03.581,82.25276,7
37257,37257,2021-01-21 16:51:33.581,82.22131,7
37267,37267,2021-01-21 16:52:03.581,82.177376,7
37277,37277,2021-01-21 16:52:33.581,81.98891,7
37287,37287,2021-01-21 16:53:03.581,81.96729,7
37297,37297,2021-01-21 16:53:33.581,81.88767,7
37307,37307,2021-01-21 16:54:03.581,81.946945,7
37317,37317,2021-01-21 16:54:33.581,81.89008000000001,7
37327,37327,2021-01-21 16:55:03.581,81.87209,7
37337,37337,2021-01-21 16:55:33.581,81.91762,7
37347,37347,2021-01-21 16:56:03.581,81.91425,7
37357,37357,2021-01-21 16:56:33.581,81.97492,7
37367,37367,2021-01-21 16:57:03.581,82.01703,7
37377,37377,2021-01-21 16:57:33.581,82.00405,7
37387,37387,2021-01-21 16:58:03.581,81.95703,7
37397,37397,2021-01-21 16:58:33.581,81.98193,7
37407,37407,2021-01-21 16:59:03.581,81.98875,7
37417,37417,2021-01-21 16:59:33.581,82.0,7
37427,37427,2021-01-21 17:00:03.581,82.0,7
37437,37437,2021-01-21 17:00:33.581,82.59151,7
37447,37447,2021-01-21 17:01:03.581,82.63672,7
37457,37457,2021-01-21 17:01:33.581,82.58273,7
37467,37467,2021-01-21 17:02:03.581,82.59283,7
37477,37477,2021-01-21 17:02:33.581,82.68226999999999,7
37487,37487,2021-01-21 17:03:03.581,82.80629,7
37497,37497,2021-01-21 17:03:33.581,82.82093,7
37507,37507,2021-01-21 17:04:03.581,82.82169,7
37517,37517,2021-01-21 17:04:33.581,82.79772,7
37527,37527,2021-01-21 17:05:03.581,80.99343,7
37537,37537,2021-01-21 17:05:33.581,80.827965,7
37547,37547,2021-01-21 17:06:03.581,80.13274399999999,7
37557,37557,2021-01-21 17:06:33.581,80.021225,7
37567,37567,2021-01-21 17:07:03.581,80.17715,7
37577,37577,2021-01-21 17:07:33.581,80.18851,7
37587,37587,2021-01-21 17:08:03.581,80.27164499999999,7
37597,37597,2021-01-21 17:08:33.581,80.3416,7
37607,37607,2021-01-21 17:09:03.581,80.36008000000001,7
37617,37617,2021-01-21 17:09:33.581,80.42105,7
37627,37627,2021-01-21 17:10:03.581,80.35725,7
37637,37637,2021-01-21 17:10:33.581,80.235016,7
37647,37647,2021-01-21 17:11:03.581,80.22974,7
37657,37657,2021-01-21 17:11:33.581,80.26874000000001,7
37667,37667,2021-01-21 17:12:03.581,80.37911,7
37677,37677,2021-01-21 17:12:33.581,80.48536999999999,7
37687,37687,2021-01-21 17:13:03.581,80.549736,7
37697,37697,2021-01-21 17:13:33.581,80.53891,7
37707,37707,2021-01-21 17:14:03.581,80.583885,7
37717,37717,2021-01-21 17:14:33.581,80.63839,7
37727,37727,2021-01-21 17:15:03.581,80.57314000000001,7
37737,37737,2021-01-21 17:15:33.581,80.5326,7
37747,37747,2021-01-21 17:16:03.581,80.58551999999999,7
37757,37757,2021-01-21 17:16:33.581,80.46873000000001,7
37767,37767,2021-01-21 17:17:03.581,80.51674,7
37777,37777,2021-01-21 17:17:33.581,80.38306999999999,7
37787,37787,2021-01-21 17:18:03.581,80.42235,7
37797,37797,2021-01-21 17:18:33.581,80.44686,7
37807,37807,2021-01-21 17:19:03.581,80.42294,7
37817,37817,2021-01-21 17:19:33.581,80.12783,7
37827,37827,2021-01-21 17:20:03.581,80.09233,7
37837,37837,2021-01-21 17:20:33.581,80.0,7
37847,37847,2021-01-21 17:21:03.581,80.591515,7
37857,37857,2021-01-21 17:21:33.581,80.63671,7
37867,37867,2021-01-21 17:22:03.581,80.58273,7
37877,37877,2021-01-21 17:22:33.581,80.592834,7
37887,37887,2021-01-21 17:23:03.581,80.68227399999999,7
37897,37897,2021-01-21 17:23:33.581,80.80629,7
37907,37907,2021-01-21 17:24:03.581,80.82093,7
37917,37917,2021-01-21 17:24:33.581,80.82169,7
37927,37927,2021-01-21 17:25:03.581,80.79772,7
37937,37937,2021-01-21 17:25:33.581,80.92821500000001,7
37947,37947,2021-01-21 17:26:03.581,81.049255,7
37957,37957,2021-01-21 17:26:33.581,81.15921,7
37967,37967,2021-01-21 17:27:03.581,81.25276,7
37977,37977,2021-01-21 17:27:33.581,81.22131999999999,7
37987,37987,2021-01-21 17:28:03.581,81.177376,7
37997,37997,2021-01-21 17:28:33.581,80.98891400000001,7
38007,38007,2021-01-21 17:29:03.581,80.96729,7
38017,38017,2021-01-21 17:29:33.581,80.88767,7
38027,38027,2021-01-21 17:30:03.581,80.94695,7
38037,38037,2021-01-21 17:30:33.581,80.89009,7
38047,38047,2021-01-21 17:31:03.581,80.87209,7
38057,38057,2021-01-21 17:31:33.581,80.91761,7
38067,38067,2021-01-21 17:32:03.581,80.91425,7
38077,38077,2021-01-21 17:32:33.581,80.97492,7
38087,38087,2021-01-21 17:33:03.581,81.01703,7
38097,38097,2021-01-21 17:33:33.581,81.00405,7
38107,38107,2021-01-21 17:34:03.581,80.95704,7
38117,38117,2021-01-21 17:34:33.581,80.98194000000001,7
38127,38127,2021-01-21 17:35:03.581,80.988754,7
38137,38137,2021-01-21 17:35:33.581,81.0,7
38147,38147,2021-01-21 17:36:03.581,81.0,7
38157,38157,2021-01-21 17:36:33.581,81.0,7
38167,38167,2021-01-21 17:37:03.581,81.0,7
38177,38177,2021-01-21 17:37:33.581,81.0,7
38187,38187,2021-01-21 17:38:03.581,81.0,7
38197,38197,2021-01-21 17:38:33.581,81.0,7
38207,38207,2021-01-21 17:39:03.581,81.0,7
38217,38217,2021-01-21 17:39:33.581,81.0,7
38227,38227,2021-01-21 17:40:03.581,81.0,7
38237,38237,2021-01-21 17:40:33.581,81.0,7
38247,38247,2021-01-21 17:41:03.581,81.0,7
38257,38257,2021-01-21 17:41:33.581,81.0,7
38267,38267,2021-01-21 17:42:03.581,81.0,7
38277,38277,2021-01-21 17:42:33.581,81.0,7
38287,38287,2021-01-21 17:43:03.581,81.0,7
38297,38297,2021-01-21 17:43:33.581,80.03596,7
38307,38307,2021-01-21 17:44:03.581,79.03139499999999,7
38317,38317,2021-01-21 17:44:33.581,79.004616,7
38327,38327,2021-01-21 17:45:03.581,78.98437,7
38337,38337,2021-01-21 17:45:33.581,79.0888,7
38347,38347,2021-01-21 17:46:03.581,79.22815,7
38357,38357,2021-01-21 17:46:33.581,79.19162,7
38367,38367,2021-01-21 17:47:03.581,79.15309,7
38377,38377,2021-01-21 17:47:33.581,79.18174,7
38387,38387,2021-01-21 17:48:03.581,79.20528,7
38397,38397,2021-01-21 17:48:33.581,79.13566999999999,7
38407,38407,2021-01-21 17:49:03.581,79.17471,7
38417,38417,2021-01-21 17:49:33.581,79.30752,7
38427,38427,2021-01-21 17:50:03.581,79.44615,7
38437,38437,2021-01-21 17:50:33.581,79.5167,7
38447,38447,2021-01-21 17:51:03.581,79.469574,7
38457,38457,2021-01-21 17:51:33.581,79.455574,7
38467,38467,2021-01-21 17:52:03.581,79.41906999999999,7
38477,38477,2021-01-21 17:52:33.581,79.357086,7
38487,38487,2021-01-21 17:53:03.581,79.34944,7
38497,38497,2021-01-21 17:53:33.581,79.34406,7
38507,38507,2021-01-21 17:54:03.581,79.32166,7
38517,38517,2021-01-21 17:54:33.581,79.35421,7
38527,38527,2021-01-21 17:55:03.581,79.32433,7
38537,38537,2021-01-21 17:55:33.581,79.30509,7
38547,38547,2021-01-21 17:56:03.581,79.29656,7
38557,38557,2021-01-21 17:56:33.581,79.240364,7
38567,38567,2021-01-21 17:57:03.581,79.258026,7
38577,38577,2021-01-21 17:57:33.581,79.29887,7
38587,38587,2021-01-21 17:58:03.581,79.09233,7
38597,38597,2021-01-21 17:58:33.581,79.0,7
38607,38607,2021-01-21 17:59:03.581,79.0,7
38617,38617,2021-01-21 17:59:33.581,79.0,7
38627,38627,2021-01-21 18:00:03.581,79.0,7
38637,38637,2021-01-21 18:00:33.581,79.0,7
38647,38647,2021-01-21 18:01:03.581,79.0,7
38657,38657,2021-01-21 18:01:33.581,79.0,7
38667,38667,2021-01-21 18:02:03.581,79.0,7
38677,38677,2021-01-21 18:02:33.581,79.0,7
38687,38687,2021-01-21 18:03:03.581,79.0,7
38697,38697,2021-01-21 18:03:33.581,79.0,7
38707,38707,2021-01-21 18:04:03.581,79.59151,7
38717,38717,2021-01-21 18:04:33.581,79.63671,7
38727,38727,2021-01-21 18:05:03.581,79.58274,7
38737,38737,2021-01-21 18:05:33.581,79.59283,7
38747,38747,2021-01-21 18:06:03.581,79.68226999999999,7
38757,38757,2021-01-21 18:06:33.581,79.8063,7
38767,38767,2021-01-21 18:07:03.581,79.82094000000001,7
38777,38777,2021-01-21 18:07:33.581,79.82169,7
38787,38787,2021-01-21 18:08:03.581,79.79772,7
38797,38797,2021-01-21 18:08:33.581,79.92821500000001,7
38807,38807,2021-01-21 18:09:03.581,80.04926,7
38817,38817,2021-01-21 18:09:33.581,80.15921999999999,7
38827,38827,2021-01-21 18:10:03.581,80.25276,7
38837,38837,2021-01-21 18:10:33.581,80.22131999999999,7
38847,38847,2021-01-21 18:11:03.581,80.177376,7
38857,38857,2021-01-21 18:11:33.581,79.98892,7
38867,38867,2021-01-21 18:12:03.581,79.9673,7
38877,38877,2021-01-21 18:12:33.581,79.88767,7
38887,38887,2021-01-21 18:13:03.581,79.946945,7
38897,38897,2021-01-21 18:13:33.581,79.89008000000001,7
38907,38907,2021-01-21 18:14:03.581,79.872086,7
38917,38917,2021-01-21 18:14:33.581,79.91762,7
38927,38927,2021-01-21 18:15:03.581,79.91424599999999,7
38937,38937,2021-01-21 18:15:33.581,79.974915,7
38947,38947,2021-01-21 18:16:03.581,80.01702,7
38957,38957,2021-01-21 18:16:33.581,80.00404,7
38967,38967,2021-01-21 18:17:03.581,79.95704,7
38977,38977,2021-01-21 18:17:33.581,79.98194000000001,7
38987,38987,2021-01-21 18:18:03.581,79.988754,7
38997,38997,2021-01-21 18:18:33.581,80.0,7
39007,39007,2021-01-21 18:19:03.581,80.0,7
39017,39017,2021-01-21 18:19:33.581,80.0,7
39027,39027,2021-01-21 18:20:03.581,80.0,7
39037,39037,2021-01-21 18:20:33.581,78.07189,7
39047,39047,2021-01-21 18:21:03.581,77.945175,7
39057,39057,2021-01-21 18:21:33.581,77.95998,7
39067,39067,2021-01-21 18:22:03.581,77.94685,7
39077,39077,2021-01-21 18:22:33.581,77.502884,7
39087,39087,2021-01-21 18:23:03.581,77.39491,7
39097,39097,2021-01-21 18:23:33.581,77.38063000000001,7
39107,39107,2021-01-21 18:24:03.581,77.31272,7
39117,39117,2021-01-21 18:24:33.581,77.804405,7
39127,39127,2021-01-21 18:25:03.581,77.900215,7
39137,39137,2021-01-21 18:25:33.581,77.84934,7
39147,39147,2021-01-21 18:26:03.581,77.752716,7
39157,39157,2021-01-21 18:26:33.581,77.92774,7
39167,39167,2021-01-21 18:27:03.581,78.11394,7
39177,39177,2021-01-21 18:27:33.581,78.22771,7
39187,39187,2021-01-21 18:28:03.581,78.27779,7
39197,39197,2021-01-21 18:28:33.581,78.36431999999999,7
39207,39207,2021-01-21 18:29:03.581,78.4357,7
39217,39217,2021-01-21 18:29:33.581,78.360886,7
39227,39227,2021-01-21 18:30:03.581,78.37954,7
39237,39237,2021-01-21 18:30:33.581,78.32789,7
39247,39247,2021-01-21 18:31:03.581,78.23591,7
39257,39257,2021-01-21 18:31:33.581,78.22674599999999,7
39267,39267,2021-01-21 18:32:03.581,78.068115,7
39277,39277,2021-01-21 18:32:33.581,78.072014,7
39287,39287,2021-01-21 18:33:03.581,77.964,7
39297,39297,2021-01-21 18:33:33.581,77.906685,7
39307,39307,2021-01-21 18:34:03.581,78.222466,7
39317,39317,2021-01-21 18:34:33.581,78.34269,7
39327,39327,2021-01-21 18:35:03.581,77.98959,7
39337,39337,2021-01-21 18:35:33.581,77.875374,7
39347,39347,2021-01-21 18:36:03.581,77.75169,7
39357,39357,2021-01-21 18:36:33.581,77.87776,7
39367,39367,2021-01-21 18:37:03.581,78.00405,7
39377,39377,2021-01-21 18:37:33.581,77.95703,7
39387,39387,2021-01-21 18:38:03.581,77.98194000000001,7
39397,39397,2021-01-21 18:38:33.581,77.988754,7
39407,39407,2021-01-21 18:39:03.581,78.0,7
39417,39417,2021-01-21 18:39:33.581,78.0,7
39427,39427,2021-01-21 18:40:03.581,78.0,7
39437,39437,2021-01-21 18:40:33.581,78.0,7
39447,39447,2021-01-21 18:41:03.581,78.0,7
39457,39457,2021-01-21 18:41:33.581,78.0,7
39467,39467,2021-01-21 18:42:03.581,78.0,7
39477,39477,2021-01-21 18:42:33.581,78.0,7
39487,39487,2021-01-21 18:43:03.581,78.0,7
39497,39497,2021-01-21 18:43:33.581,78.0,7
39507,39507,2021-01-21 18:44:03.581,78.0,7
39517,39517,2021-01-21 18:44:33.581,78.59151,7
39527,39527,2021-01-21 18:45:03.581,78.63671,7
39537,39537,2021-01-21 18:45:33.581,78.58273,7
39547,39547,2021-01-21 18:46:03.581,78.59283,7
39557,39557,2021-01-21 18:46:33.581,78.68226999999999,7
39567,39567,2021-01-21 18:47:03.581,78.80629,7
39577,39577,2021-01-21 18:47:33.581,78.82093,7
39587,39587,2021-01-21 18:48:03.581,78.82169,7
39597,39597,2021-01-21 18:48:33.581,78.79772,7
39607,39607,2021-01-21 18:49:03.581,78.92821500000001,7
39617,39617,2021-01-21 18:49:33.581,79.049255,7
39627,39627,2021-01-21 18:50:03.581,79.1592,7
39637,39637,2021-01-21 18:50:33.581,79.25277,7
39647,39647,2021-01-21 18:51:03.581,79.22131,7
39657,39657,2021-01-21 18:51:33.581,79.17738,7
39667,39667,2021-01-21 18:52:03.581,78.98891400000001,7
39677,39677,2021-01-21 18:52:33.581,78.96729,7
39687,39687,2021-01-21 18:53:03.581,78.887665,7
39697,39697,2021-01-21 18:53:33.581,78.946945,7
39707,39707,2021-01-21 18:54:03.581,78.89008000000001,7
39717,39717,2021-01-21 18:54:33.581,78.872086,7
39727,39727,2021-01-21 18:55:03.581,78.91762,7
39737,39737,2021-01-21 18:55:33.581,78.91424599999999,7
39747,39747,2021-01-21 18:56:03.581,78.97492,7
39757,39757,2021-01-21 18:56:33.581,79.01703,7
39767,39767,2021-01-21 18:57:03.581,77.127686,7
39777,39777,2021-01-21 18:57:33.581,76.85233000000001,7
39787,39787,2021-01-21 18:58:03.581,76.97904,7
39797,39797,2021-01-21 18:58:33.581,76.903145,7
39807,39807,2021-01-21 18:59:03.581,76.502884,7
39817,39817,2021-01-21 18:59:33.581,76.39491,7
39827,39827,2021-01-21 19:00:03.581,76.38064,7
39837,39837,2021-01-21 19:00:33.581,76.31273,7
39847,39847,2021-01-21 19:01:03.581,76.401566,7
39857,39857,2021-01-21 19:01:33.581,76.336525,7
39867,39867,2021-01-21 19:02:03.581,76.64219,7
39877,39877,2021-01-21 19:02:33.581,76.77640500000001,7
39887,39887,2021-01-21 19:03:03.581,76.87104000000001,7
39897,39897,2021-01-21 19:03:33.581,77.03901,7
39907,39907,2021-01-21 19:04:03.581,77.07836,7
39917,39917,2021-01-21 19:04:33.581,77.11023,7
39927,39927,2021-01-21 19:05:03.581,77.26708,7
39937,39937,2021-01-21 19:05:33.581,77.33484,7
39947,39947,2021-01-21 19:06:03.581,77.34257,7
39957,39957,2021-01-21 19:06:33.581,77.368,7
39967,39967,2021-01-21 19:07:03.581,77.33091,7
39977,39977,2021-01-21 19:07:33.581,77.23176600000001,7
39987,39987,2021-01-21 19:08:03.581,77.248375,7
39997,39997,2021-01-21 19:08:33.581,77.12078000000001,7
40007,40007,2021-01-21 19:09:03.581,77.12639,7
40017,40017,2021-01-21 19:09:33.581,76.99003,7
40027,40027,2021-01-21 19:10:03.581,76.93355,7
40037,40037,2021-01-21 19:10:33.581,77.1264,7
40047,40047,2021-01-21 19:11:03.581,77.31671999999999,7
40057,40057,2021-01-21 19:11:33.581,76.948654,7
40067,40067,2021-01-21 19:12:03.581,77.00319,7
40077,40077,2021-01-21 19:12:33.581,76.90185,7
40087,40087,2021-01-21 19:13:03.581,76.801865,7
40097,40097,2021-01-21 19:13:33.581,76.974915,7
40107,40107,2021-01-21 19:14:03.581,77.01702,7
40117,40117,2021-01-21 19:14:33.581,77.00404,7
40127,40127,2021-01-21 19:15:03.581,76.95703,7
40137,40137,2021-01-21 19:15:33.581,76.98194000000001,7
40147,40147,2021-01-21 19:16:03.581,76.988754,7
40157,40157,2021-01-21 19:16:33.581,77.0,7
40167,40167,2021-01-21 19:17:03.581,77.0,7
40177,40177,2021-01-21 19:17:33.581,77.0,7
40187,40187,2021-01-21 19:18:03.581,77.0,7
40197,40197,2021-01-21 19:18:33.581,77.0,7
40207,40207,2021-01-21 19:19:03.581,77.0,7
40217,40217,2021-01-21 19:19:33.581,77.0,7
40227,40227,2021-01-21 19:20:03.581,77.0,7
40237,40237,2021-01-21 19:20:33.581,77.0,7
40247,40247,2021-01-21 19:21:03.581,77.0,7
40257,40257,2021-01-21 19:21:33.581,77.0,7
40267,40267,2021-01-21 19:22:03.581,77.0,7
40277,40277,2021-01-21 19:22:33.581,77.0,7
40287,40287,2021-01-21 19:23:03.581,77.0,7
40297,40297,2021-01-21 19:23:33.581,77.0,7
40307,40307,2021-01-21 19:24:03.581,77.0,7
40317,40317,2021-01-21 19:24:33.581,77.0,7
40327,40327,2021-01-21 19:25:03.581,77.0,7
40337,40337,2021-01-21 19:25:33.581,77.0,7
40347,40347,2021-01-21 19:26:03.581,77.0,7
40357,40357,2021-01-21 19:26:33.581,77.59151,7
40367,40367,2021-01-21 19:27:03.581,77.63671,7
40377,40377,2021-01-21 19:27:33.581,77.58274,7
40387,40387,2021-01-21 19:28:03.581,77.59283,7
40397,40397,2021-01-21 19:28:33.581,77.68227399999999,7
40407,40407,2021-01-21 19:29:03.581,77.8063,7
40417,40417,2021-01-21 19:29:33.581,77.82092,7
40427,40427,2021-01-21 19:30:03.581,77.82169,7
40437,40437,2021-01-21 19:30:33.581,77.79773,7
40447,40447,2021-01-21 19:31:03.581,77.92820999999999,7
40457,40457,2021-01-21 19:31:33.581,76.024445,7
40467,40467,2021-01-21 19:32:03.581,75.03154,7
40477,40477,2021-01-21 19:32:33.581,75.04424,7
40487,40487,2021-01-21 19:33:03.581,74.93633,7
40497,40497,2021-01-21 19:33:33.581,75.039925,7
40507,40507,2021-01-21 19:34:03.581,75.24637,7
40517,40517,2021-01-21 19:34:33.581,75.31494,7
40527,40527,2021-01-21 19:35:03.581,75.24732,7
40537,40537,2021-01-21 19:35:33.581,75.359375,7
40547,40547,2021-01-21 19:36:03.581,75.41251,7
40557,40557,2021-01-21 19:36:33.581,75.34563,7
40567,40567,2021-01-21 19:37:03.581,75.2047,7
40577,40577,2021-01-21 19:37:33.581,75.23957,7
40587,40587,2021-01-21 19:38:03.581,75.389626,7
40597,40597,2021-01-21 19:38:33.581,75.44799,7
40607,40607,2021-01-21 19:39:03.581,75.54711,7
40617,40617,2021-01-21 19:39:33.581,75.50148,7
40627,40627,2021-01-21 19:40:03.581,75.54579,7
40637,40637,2021-01-21 19:40:33.581,75.561104,7
40647,40647,2021-01-21 19:41:03.581,75.51914000000001,7
40657,40657,2021-01-21 19:41:33.581,75.74811600000001,7
40667,40667,2021-01-21 19:42:03.581,75.78444,7
40677,40677,2021-01-21 19:42:33.581,75.89851,7
40687,40687,2021-01-21 19:43:03.581,75.90988,7
40697,40697,2021-01-21 19:43:33.581,75.95031999999999,7
40707,40707,2021-01-21 19:44:03.581,75.90465,7
40717,40717,2021-01-21 19:44:33.581,75.94771,7
40727,40727,2021-01-21 19:45:03.581,76.03915400000001,7
40737,40737,2021-01-21 19:45:33.581,76.13506,7
40747,40747,2021-01-21 19:46:03.581,75.92701,7
40757,40757,2021-01-21 19:46:33.581,76.04925,7
40767,40767,2021-01-21 19:47:03.581,76.159225,7
40777,40777,2021-01-21 19:47:33.581,76.25276,7
40787,40787,2021-01-21 19:48:03.581,76.22131,7
40797,40797,2021-01-21 19:48:33.581,76.17738,7
40807,40807,2021-01-21 19:49:03.581,75.98891400000001,7
40817,40817,2021-01-21 19:49:33.581,75.96729,7
40827,40827,2021-01-21 19:50:03.581,75.88766,7
40837,40837,2021-01-21 19:50:33.581,75.94695,7
40847,40847,2021-01-21 19:51:03.581,75.89009,7
40857,40857,2021-01-21 19:51:33.581,75.872086,7
40867,40867,2021-01-21 19:52:03.581,75.91762,7
40877,40877,2021-01-21 19:52:33.581,75.91424599999999,7
40887,40887,2021-01-21 19:53:03.581,75.974915,7
40897,40897,2021-01-21 19:53:33.581,76.01703,7
40907,40907,2021-01-21 19:54:03.581,76.004036,7
40917,40917,2021-01-21 19:54:33.581,75.95703,7
40927,40927,2021-01-21 19:55:03.581,75.98194000000001,7
40937,40937,2021-01-21 19:55:33.581,75.988754,7
40947,40947,2021-01-21 19:56:03.581,76.59151,7
40957,40957,2021-01-21 19:56:33.581,76.63672,7
40967,40967,2021-01-21 19:57:03.581,76.58274,7
40977,40977,2021-01-21 19:57:33.581,76.59281999999999,7
40987,40987,2021-01-21 19:58:03.581,76.68226999999999,7
40997,40997,2021-01-21 19:58:33.581,76.80629,7
41007,41007,2021-01-21 19:59:03.581,76.82092,7
41017,41017,2021-01-21 19:59:33.581,76.82169,7
41027,41027,2021-01-21 20:00:03.581,76.79772,7
41037,41037,2021-01-21 20:00:33.581,76.92821500000001,7
41047,41047,2021-01-21 20:01:03.581,77.04925,7
41057,41057,2021-01-21 20:01:33.581,78.01749000000001,7
41067,41067,2021-01-21 20:02:03.581,78.211395,7
41077,41077,2021-01-21 20:02:33.581,78.19913000000001,7
41087,41087,2021-01-21 20:03:03.581,78.2853,7
41097,41097,2021-01-21 20:03:33.581,78.20047,7
41107,41107,2021-01-21 20:04:03.581,78.19581,7
41117,41117,2021-01-21 20:04:33.581,78.18473,7
41127,41127,2021-01-21 20:05:03.581,78.24377,7
41137,41137,2021-01-21 20:05:33.581,78.27471,7
41147,41147,2021-01-21 20:06:03.581,78.448364,7
41157,41157,2021-01-21 20:06:33.581,78.47757,7
41167,41167,2021-01-21 20:07:03.581,78.42008,7
41177,41177,2021-01-21 20:07:33.581,78.321,7
41187,41187,2021-01-21 20:08:03.581,78.17394,7
41197,41197,2021-01-21 20:08:33.581,78.00356,7
41207,41207,2021-01-21 20:09:03.581,77.92596999999999,7
41217,41217,2021-01-21 20:09:33.581,77.959724,7
41227,41227,2021-01-21 20:10:03.581,77.872505,7
41237,41237,2021-01-21 20:10:33.581,78.70384,7
41247,41247,2021-01-21 20:11:03.581,78.898636,7
41257,41257,2021-01-21 20:11:33.581,78.9959,7
41267,41267,2021-01-21 20:12:03.581,79.04085500000001,7
41277,41277,2021-01-21 20:12:33.581,79.08291,7
41287,41287,2021-01-21 20:13:03.581,79.177826,7
41297,41297,2021-01-21 20:13:33.581,79.25036999999999,7
41307,41307,2021-01-21 20:14:03.581,79.26163000000001,7
41317,41317,2021-01-21 20:14:33.581,79.24065,7
41327,41327,2021-01-21 20:15:03.581,79.253174,7
41337,41337,2021-01-21 20:15:33.581,79.17305999999999,7
41347,41347,2021-01-21 20:16:03.581,79.1592,7
41357,41357,2021-01-21 20:16:33.581,79.25277,7
41367,41367,2021-01-21 20:17:03.581,79.22131,7
41377,41377,2021-01-21 20:17:33.581,79.17738,7
41387,41387,2021-01-21 20:18:03.581,78.98891400000001,7
41397,41397,2021-01-21 20:18:33.581,78.96729,7
41407,41407,2021-01-21 20:19:03.581,79.69798,7
41417,41417,2021-01-21 20:19:33.581,79.926926,7
41427,41427,2021-01-21 20:20:03.581,79.99853,7
41437,41437,2021-01-21 20:20:33.581,80.08142,7
41447,41447,2021-01-21 20:21:03.581,80.099434,7
41457,41457,2021-01-21 20:21:33.581,80.162056,7
41467,41467,2021-01-21 20:22:03.581,78.09963,7
41477,41477,2021-01-21 20:22:33.581,77.87933000000001,7
41487,41487,2021-01-21 20:23:03.581,77.74632,7
41497,41497,2021-01-21 20:23:33.581,77.77615,7
41507,41507,2021-01-21 20:24:03.581,77.97971,7
41517,41517,2021-01-21 20:24:33.581,78.07054000000001,7
41527,41527,2021-01-21 20:25:03.581,78.124,7
41537,41537,2021-01-21 20:25:33.581,78.10384,7
41547,41547,2021-01-21 20:26:03.581,78.09785,7
41557,41557,2021-01-21 20:26:33.581,78.16152,7
41567,41567,2021-01-21 20:27:03.581,78.21715,7
41577,41577,2021-01-21 20:27:33.581,78.04817,7
41587,41587,2021-01-21 20:28:03.581,78.00784,7
41597,41597,2021-01-21 20:28:33.581,78.01541,7
41607,41607,2021-01-21 20:29:03.581,77.9985,7
41617,41617,2021-01-21 20:29:33.581,77.9899,7
41627,41627,2021-01-21 20:30:03.581,77.9046,7
41637,41637,2021-01-21 20:30:33.581,77.86825,7
41647,41647,2021-01-21 20:31:03.581,77.92784,7
41657,41657,2021-01-21 20:31:33.581,78.00801,7
41667,41667,2021-01-21 20:32:03.581,78.09245,7
41677,41677,2021-01-21 20:32:33.581,78.21146,7
41687,41687,2021-01-21 20:33:03.581,78.31959499999999,7
41697,41697,2021-01-21 20:33:33.581,78.24197,7
41707,41707,2021-01-21 20:34:03.581,78.29332,7
41717,41717,2021-01-21 20:34:33.581,78.22744,7
41727,41727,2021-01-21 20:35:03.581,78.71449,7
41737,41737,2021-01-21 20:35:33.581,78.903435,7
41747,41747,2021-01-21 20:36:03.581,78.962296,7
41757,41757,2021-01-21 20:36:33.581,78.59283,7
41767,41767,2021-01-21 20:37:03.581,78.68226999999999,7
41777,41777,2021-01-21 20:37:33.581,78.80629,7
41787,41787,2021-01-21 20:38:03.581,78.82093,7
41797,41797,2021-01-21 20:38:33.581,78.82169,7
41807,41807,2021-01-21 20:39:03.581,78.79772,7
41817,41817,2021-01-21 20:39:33.581,78.92821500000001,7
41827,41827,2021-01-21 20:40:03.581,79.049255,7
41837,41837,2021-01-21 20:40:33.581,79.1592,7
41847,41847,2021-01-21 20:41:03.581,79.25277,7
41857,41857,2021-01-21 20:41:33.581,79.22131,7
41867,41867,2021-01-21 20:42:03.581,79.17738,7
41877,41877,2021-01-21 20:42:33.581,78.98891400000001,7
41887,41887,2021-01-21 20:43:03.581,78.96729,7
41897,41897,2021-01-21 20:43:33.581,79.69798,7
41907,41907,2021-01-21 20:44:03.581,79.926926,7
41917,41917,2021-01-21 20:44:33.581,79.99853,7
41927,41927,2021-01-21 20:45:03.581,80.08142,7
41937,41937,2021-01-21 20:45:33.581,80.099434,7
41947,41947,2021-01-21 20:46:03.581,80.162056,7
41957,41957,2021-01-21 20:46:33.581,80.22782,7
41967,41967,2021-01-21 20:47:03.581,80.30164,7
41977,41977,2021-01-21 20:47:33.581,80.27551,7
41987,41987,2021-01-21 20:48:03.581,80.368935,7
41997,41997,2021-01-21 20:48:33.581,80.331184,7
42007,42007,2021-01-21 20:49:03.581,80.184326,7
42017,42017,2021-01-21 20:49:33.581,80.25276,7
42027,42027,2021-01-21 20:50:03.581,80.22131999999999,7
42037,42037,2021-01-21 20:50:33.581,80.177376,7
42047,42047,2021-01-21 20:51:03.581,79.98892,7
42057,42057,2021-01-21 20:51:33.581,79.9673,7
42067,42067,2021-01-21 20:52:03.581,80.697975,7
42077,42077,2021-01-21 20:52:33.581,80.92692,7
42087,42087,2021-01-21 20:53:03.581,80.99852,7
42097,42097,2021-01-21 20:53:33.581,81.08140999999999,7
42107,42107,2021-01-21 20:54:03.581,81.09944,7
42117,42117,2021-01-21 20:54:33.581,81.162056,7
42127,42127,2021-01-21 20:55:03.581,81.22780999999999,7
42137,42137,2021-01-21 20:55:33.581,81.30164,7
42147,42147,2021-01-21 20:56:03.581,81.27552,7
42157,42157,2021-01-21 20:56:33.581,81.36893,7
42167,42167,2021-01-21 20:57:03.581,81.33119,7
42177,42177,2021-01-21 20:57:33.581,81.18433,7
42187,42187,2021-01-21 20:58:03.581,81.25276,7
42197,42197,2021-01-21 20:58:33.581,81.22131999999999,7
42207,42207,2021-01-21 20:59:03.581,81.177376,7
42217,42217,2021-01-21 20:59:33.581,80.98891400000001,7
42227,42227,2021-01-21 21:00:03.581,80.96729,7
42237,42237,2021-01-21 21:00:33.581,81.69798,7
42247,42247,2021-01-21 21:01:03.581,81.926926,7
42257,42257,2021-01-21 21:01:33.581,81.99852,7
42267,42267,2021-01-21 21:02:03.581,82.08142,7
42277,42277,2021-01-21 21:02:33.581,82.09944,7
42287,42287,2021-01-21 21:03:03.581,82.162056,7
42297,42297,2021-01-21 21:03:33.581,82.22782,7
42307,42307,2021-01-21 21:04:03.581,82.301636,7
42317,42317,2021-01-21 21:04:33.581,82.27551,7
42327,42327,2021-01-21 21:05:03.581,82.368935,7
42337,42337,2021-01-21 21:05:33.581,82.331184,7
42347,42347,2021-01-21 21:06:03.581,82.18432,7
42357,42357,2021-01-21 21:06:33.581,82.25276,7
42367,42367,2021-01-21 21:07:03.581,82.22131,7
42377,42377,2021-01-21 21:07:33.581,82.177376,7
42387,42387,2021-01-21 21:08:03.581,81.98891,7
42397,42397,2021-01-21 21:08:33.581,81.96729,7
42407,42407,2021-01-21 21:09:03.581,82.69798,7
42417,42417,2021-01-21 21:09:33.581,82.926926,7
42427,42427,2021-01-21 21:10:03.581,82.99853,7
42437,42437,2021-01-21 21:10:33.581,83.08142,7
42447,42447,2021-01-21 21:11:03.581,83.099434,7
42457,42457,2021-01-21 21:11:33.581,83.162056,7
42467,42467,2021-01-21 21:12:03.581,83.22780999999999,7
42477,42477,2021-01-21 21:12:33.581,83.301636,7
42487,42487,2021-01-21 21:13:03.581,83.27551,7
42497,42497,2021-01-21 21:13:33.581,83.368935,7
42507,42507,2021-01-21 21:14:03.581,83.33119,7
42517,42517,2021-01-21 21:14:33.581,83.18432,7
42527,42527,2021-01-21 21:15:03.581,83.25276,7
42537,42537,2021-01-21 21:15:33.581,83.22131999999999,7
42547,42547,2021-01-21 21:16:03.581,83.177376,7
42557,42557,2021-01-21 21:16:33.581,82.98891400000001,7
42567,42567,2021-01-21 21:17:03.581,82.96729,7
42577,42577,2021-01-21 21:17:33.581,82.88767,7
42587,42587,2021-01-21 21:18:03.581,82.946945,7
42597,42597,2021-01-21 21:18:33.581,82.89007600000001,7
42607,42607,2021-01-21 21:19:03.581,82.8721,7
42617,42617,2021-01-21 21:19:33.581,82.917625,7
42627,42627,2021-01-21 21:20:03.581,82.91425,7
42637,42637,2021-01-21 21:20:33.581,82.97492,7
42647,42647,2021-01-21 21:21:03.581,82.148155,7
42657,42657,2021-01-21 21:21:33.581,81.96797,7
42667,42667,2021-01-21 21:22:03.581,81.1061,7
42677,42677,2021-01-21 21:22:33.581,80.966125,7
42687,42687,2021-01-21 21:23:03.581,81.11113,7
42697,42697,2021-01-21 21:23:33.581,81.17746,7
42707,42707,2021-01-21 21:24:03.581,81.24524,7
42717,42717,2021-01-21 21:24:33.581,81.18518,7
42727,42727,2021-01-21 21:25:03.581,81.21732,7
42737,42737,2021-01-21 21:25:33.581,81.189735,7
42747,42747,2021-01-21 21:26:03.581,81.167366,7
42757,42757,2021-01-21 21:26:33.581,81.19221999999999,7
42767,42767,2021-01-21 21:27:03.581,81.25779,7
42777,42777,2021-01-21 21:27:33.581,81.48016,7
42787,42787,2021-01-21 21:28:03.581,81.55945,7
42797,42797,2021-01-21 21:28:33.581,81.68489,7
42807,42807,2021-01-21 21:29:03.581,81.749535,7
42817,42817,2021-01-21 21:29:33.581,81.79515,7
42827,42827,2021-01-21 21:30:03.581,81.7475,7
42837,42837,2021-01-21 21:30:33.581,81.84853000000001,7
42847,42847,2021-01-21 21:31:03.581,81.866486,7
42857,42857,2021-01-21 21:31:33.581,81.90995,7
42867,42867,2021-01-21 21:32:03.581,81.84722,7
42877,42877,2021-01-21 21:32:33.581,81.76767,7
42887,42887,2021-01-21 21:33:03.581,81.74531999999999,7
42897,42897,2021-01-21 21:33:33.581,81.87598,7
42907,42907,2021-01-21 21:34:03.581,82.074745,7
42917,42917,2021-01-21 21:34:33.581,82.25876,7
42927,42927,2021-01-21 21:35:03.581,82.23039,7
42937,42937,2021-01-21 21:35:33.581,82.09522,7
42947,42947,2021-01-21 21:36:03.581,82.04208,7
42957,42957,2021-01-21 21:36:33.581,81.946945,7
42967,42967,2021-01-21 21:37:03.581,81.89008000000001,7
42977,42977,2021-01-21 21:37:33.581,81.87209,7
42987,42987,2021-01-21 21:38:03.581,81.91762,7
42997,42997,2021-01-21 21:38:33.581,81.91425,7
43007,43007,2021-01-21 21:39:03.581,82.52795400000001,7
43017,43017,2021-01-21 21:39:33.581,82.79451,7
43027,43027,2021-01-21 21:40:03.581,82.85619,7
43037,43037,2021-01-21 21:40:33.581,82.90299999999999,7
43047,43047,2021-01-21 21:41:03.581,82.86018,7
43057,43057,2021-01-21 21:41:33.581,82.87071999999999,7
43067,43067,2021-01-21 21:42:03.581,82.82093,7
43077,43077,2021-01-21 21:42:33.581,82.82169,7
43087,43087,2021-01-21 21:43:03.581,82.79772,7
43097,43097,2021-01-21 21:43:33.581,82.92821500000001,7
43107,43107,2021-01-21 21:44:03.581,83.04925,7
43117,43117,2021-01-21 21:44:33.581,83.15921999999999,7
43127,43127,2021-01-21 21:45:03.581,83.25276,7
43137,43137,2021-01-21 21:45:33.581,83.22131999999999,7
43147,43147,2021-01-21 21:46:03.581,83.177376,7
43157,43157,2021-01-21 21:46:33.581,82.98891400000001,7
43167,43167,2021-01-21 21:47:03.581,82.96729,7
43177,43177,2021-01-21 21:47:33.581,82.88767,7
43187,43187,2021-01-21 21:48:03.581,82.946945,7
43197,43197,2021-01-21 21:48:33.581,82.89007600000001,7
43207,43207,2021-01-21 21:49:03.581,82.8721,7
43217,43217,2021-01-21 21:49:33.581,82.917625,7
43227,43227,2021-01-21 21:50:03.581,83.53067,7
43237,43237,2021-01-21 21:50:33.581,83.78164,7
43247,43247,2021-01-21 21:51:03.581,83.933464,7
43257,43257,2021-01-21 21:51:33.581,83.9413,7
43267,43267,2021-01-21 21:52:03.581,83.96656999999999,7
43277,43277,2021-01-21 21:52:33.581,83.98245,7
43287,43287,2021-01-21 21:53:03.581,83.91509,7
43297,43297,2021-01-21 21:53:33.581,83.82169,7
43307,43307,2021-01-21 21:54:03.581,83.79772,7
43317,43317,2021-01-21 21:54:33.581,83.92822,7
43327,43327,2021-01-21 21:55:03.581,84.049255,7
43337,43337,2021-01-21 21:55:33.581,84.15921999999999,7
43347,43347,2021-01-21 21:56:03.581,84.25277,7
43357,43357,2021-01-21 21:56:33.581,84.22131,7
43367,43367,2021-01-21 21:57:03.581,84.177376,7
43377,43377,2021-01-21 21:57:33.581,83.98892,7
43387,43387,2021-01-21 21:58:03.581,83.96729,7
43397,43397,2021-01-21 21:58:33.581,83.887665,7
43407,43407,2021-01-21 21:59:03.581,83.94695,7
43417,43417,2021-01-21 21:59:33.581,83.89009,7
43427,43427,2021-01-21 22:00:03.581,83.872086,7
43437,43437,2021-01-21 22:00:33.581,83.917625,7
43447,43447,2021-01-21 22:01:03.581,84.53066,7
43457,43457,2021-01-21 22:01:33.581,84.78165,7
43467,43467,2021-01-21 22:02:03.581,84.933464,7
43477,43477,2021-01-21 22:02:33.581,84.9413,7
43487,43487,2021-01-21 22:03:03.581,84.966576,7
43497,43497,2021-01-21 22:03:33.581,84.98246,7
43507,43507,2021-01-21 22:04:03.581,84.91509,7
43517,43517,2021-01-21 22:04:33.581,84.82169,7
43527,43527,2021-01-21 22:05:03.581,84.79773,7
43537,43537,2021-01-21 22:05:33.581,84.92822,7
43547,43547,2021-01-21 22:06:03.581,85.04925,7
43557,43557,2021-01-21 22:06:33.581,85.159225,7
43567,43567,2021-01-21 22:07:03.581,85.25275400000001,7
43577,43577,2021-01-21 22:07:33.581,85.22131999999999,7
43587,43587,2021-01-21 22:08:03.581,85.17738,7
43597,43597,2021-01-21 22:08:33.581,84.98891400000001,7
43607,43607,2021-01-21 22:09:03.581,84.96729,7
43617,43617,2021-01-21 22:09:33.581,84.887665,7
43627,43627,2021-01-21 22:10:03.581,84.94694,7
43637,43637,2021-01-21 22:10:33.581,84.89008000000001,7
43647,43647,2021-01-21 22:11:03.581,84.87209,7
43657,43657,2021-01-21 22:11:33.581,84.91761,7
43667,43667,2021-01-21 22:12:03.581,85.53065500000001,7
43677,43677,2021-01-21 22:12:33.581,85.781654,7
43687,43687,2021-01-21 22:13:03.581,85.93346,7
43697,43697,2021-01-21 22:13:33.581,85.9413,7
43707,43707,2021-01-21 22:14:03.581,85.966576,7
43717,43717,2021-01-21 22:14:33.581,85.98245,7
43727,43727,2021-01-21 22:15:03.581,84.13087,7
43737,43737,2021-01-21 22:15:33.581,83.77543,7
43747,43747,2021-01-21 22:16:03.581,83.71539,7
43757,43757,2021-01-21 22:16:33.581,82.914955,7
43767,43767,2021-01-21 22:17:03.581,83.11413,7
43777,43777,2021-01-21 22:17:33.581,83.22215,7
43787,43787,2021-01-21 22:18:03.581,83.259895,7
43797,43797,2021-01-21 22:18:33.581,83.256424,7
43807,43807,2021-01-21 22:19:03.581,83.3193,7
43817,43817,2021-01-21 22:19:33.581,83.34438,7
43827,43827,2021-01-21 22:20:03.581,83.368576,7
43837,43837,2021-01-21 22:20:33.581,83.31378000000001,7
43847,43847,2021-01-21 22:21:03.581,83.31041,7
43857,43857,2021-01-21 22:21:33.581,83.2832,7
43867,43867,2021-01-21 22:22:03.581,83.20914,7
43877,43877,2021-01-21 22:22:33.581,83.40225,7
43887,43887,2021-01-21 22:23:03.581,83.53205,7
43897,43897,2021-01-21 22:23:33.581,83.52414,7
43907,43907,2021-01-21 22:24:03.581,83.57607,7
43917,43917,2021-01-21 22:24:33.581,83.80369,7
43927,43927,2021-01-21 22:25:03.581,83.87395,7
43937,43937,2021-01-21 22:25:33.581,83.98550999999999,7
43947,43947,2021-01-21 22:26:03.581,84.11208,7
43957,43957,2021-01-21 22:26:33.581,84.16013000000001,7
43967,43967,2021-01-21 22:27:03.581,84.04985,7
43977,43977,2021-01-21 22:27:33.581,83.93471,7
43987,43987,2021-01-21 22:28:03.581,84.07468399999999,7
43997,43997,2021-01-21 22:28:33.581,84.4019,7
44007,44007,2021-01-21 22:29:03.581,84.48964000000001,7
44017,44017,2021-01-21 22:29:33.581,84.0492,7
44027,44027,2021-01-21 22:30:03.581,84.09522,7
44037,44037,2021-01-21 22:30:33.581,84.042076,7
44047,44047,2021-01-21 22:31:03.581,83.94695,7
44057,44057,2021-01-21 22:31:33.581,83.89009,7
44067,44067,2021-01-21 22:32:03.581,83.872086,7
44077,44077,2021-01-21 22:32:33.581,83.917625,7
44087,44087,2021-01-21 22:33:03.581,83.91425,7
44097,44097,2021-01-21 22:33:33.581,84.52796,7
44107,44107,2021-01-21 22:34:03.581,84.79451999999999,7
44117,44117,2021-01-21 22:34:33.581,84.85619,7
44127,44127,2021-01-21 22:35:03.581,84.90301,7
44137,44137,2021-01-21 22:35:33.581,84.86018,7
44147,44147,2021-01-21 22:36:03.581,84.87071999999999,7
44157,44157,2021-01-21 22:36:33.581,84.82093,7
44167,44167,2021-01-21 22:37:03.581,84.82169,7
44177,44177,2021-01-21 22:37:33.581,84.79773,7
44187,44187,2021-01-21 22:38:03.581,84.92822,7
44197,44197,2021-01-21 22:38:33.581,85.04925,7
44207,44207,2021-01-21 22:39:03.581,85.159225,7
44217,44217,2021-01-21 22:39:33.581,85.25275400000001,7
44227,44227,2021-01-21 22:40:03.581,85.22131999999999,7
44237,44237,2021-01-21 22:40:33.581,85.17738,7
44247,44247,2021-01-21 22:41:03.581,84.98891400000001,7
44257,44257,2021-01-21 22:41:33.581,84.96729,7
44267,44267,2021-01-21 22:42:03.581,84.887665,7
44277,44277,2021-01-21 22:42:33.581,84.94694,7
44287,44287,2021-01-21 22:43:03.581,84.89008000000001,7
44297,44297,2021-01-21 22:43:33.581,84.87209,7
44307,44307,2021-01-21 22:44:03.581,84.91761,7
44317,44317,2021-01-21 22:44:33.581,84.91425,7
44327,44327,2021-01-21 22:45:03.581,85.52795400000001,7
44337,44337,2021-01-21 22:45:33.581,85.79451999999999,7
44347,44347,2021-01-21 22:46:03.581,85.8562,7
44357,44357,2021-01-21 22:46:33.581,85.90301,7
44367,44367,2021-01-21 22:47:03.581,85.86018,7
44377,44377,2021-01-21 22:47:33.581,85.87071999999999,7
44387,44387,2021-01-21 22:48:03.581,85.82093,7
44397,44397,2021-01-21 22:48:33.581,85.82169,7
44407,44407,2021-01-21 22:49:03.581,85.79772,7
44417,44417,2021-01-21 22:49:33.581,85.92821500000001,7
44427,44427,2021-01-21 22:50:03.581,86.049255,7
44437,44437,2021-01-21 22:50:33.581,86.15921,7
44447,44447,2021-01-21 22:51:03.581,86.25275400000001,7
44457,44457,2021-01-21 22:51:33.581,86.22131999999999,7
44467,44467,2021-01-21 22:52:03.581,86.177376,7
44477,44477,2021-01-21 22:52:33.581,85.98891400000001,7
44487,44487,2021-01-21 22:53:03.581,85.967285,7
44497,44497,2021-01-21 22:53:33.581,85.887665,7
44507,44507,2021-01-21 22:54:03.581,85.94695,7
44517,44517,2021-01-21 22:54:33.581,85.89009,7
44527,44527,2021-01-21 22:55:03.581,85.87209,7
44537,44537,2021-01-21 22:55:33.581,85.91762,7
44547,44547,2021-01-21 22:56:03.581,85.91424599999999,7
44557,44557,2021-01-21 22:56:33.581,86.52795400000001,7
44567,44567,2021-01-21 22:57:03.581,86.79451,7
44577,44577,2021-01-21 22:57:33.581,86.85619,7
44587,44587,2021-01-21 22:58:03.581,86.90301,7
44597,44597,2021-01-21 22:58:33.581,86.86018,7
44607,44607,2021-01-21 22:59:03.581,86.87071999999999,7
44617,44617,2021-01-21 22:59:33.581,86.82092,7
44627,44627,2021-01-21 23:00:03.581,86.821686,7
44637,44637,2021-01-21 23:00:33.581,86.79772,7
44647,44647,2021-01-21 23:01:03.581,86.92821500000001,7
44657,44657,2021-01-21 23:01:33.581,87.049255,7
44667,44667,2021-01-21 23:02:03.581,87.15921,7
44677,44677,2021-01-21 23:02:33.581,87.25278,7
44687,44687,2021-01-21 23:03:03.581,87.22131999999999,7
44697,44697,2021-01-21 23:03:33.581,87.177376,7
44707,44707,2021-01-21 23:04:03.581,86.98891,7
44717,44717,2021-01-21 23:04:33.581,86.96729,7
44727,44727,2021-01-21 23:05:03.581,86.88767,7
44737,44737,2021-01-21 23:05:33.581,86.946945,7
44747,44747,2021-01-21 23:06:03.581,86.89008000000001,7
44757,44757,2021-01-21 23:06:33.581,86.87209,7
44767,44767,2021-01-21 23:07:03.581,86.91763,7
44777,44777,2021-01-21 23:07:33.581,86.91425,7
44787,44787,2021-01-21 23:08:03.581,85.03466,7
44797,44797,2021-01-21 23:08:33.581,84.91659,7
44807,44807,2021-01-21 23:09:03.581,84.95411999999999,7
44817,44817,2021-01-21 23:09:33.581,84.88833000000001,7
44827,44827,2021-01-21 23:10:03.581,85.20406,7
44837,44837,2021-01-21 23:10:33.581,85.12236999999999,7
44847,44847,2021-01-21 23:11:03.581,85.14439,7
44857,44857,2021-01-21 23:11:33.581,85.101,7
44867,44867,2021-01-21 23:12:03.581,85.16898,7
44877,44877,2021-01-21 23:12:33.581,85.11643000000001,7
44887,44887,2021-01-21 23:13:03.581,85.0618,7
44897,44897,2021-01-21 23:13:33.581,85.18576999999999,7
44907,44907,2021-01-21 23:14:03.581,85.35563,7
44917,44917,2021-01-21 23:14:33.581,85.50849000000001,7
44927,44927,2021-01-21 23:15:03.581,85.45867,7
44937,44937,2021-01-21 23:15:33.581,85.438126,7
44947,44947,2021-01-21 23:16:03.581,85.414795,7
44957,44957,2021-01-21 23:16:33.581,85.33065,7
44967,44967,2021-01-21 23:17:03.581,85.27268000000001,7
44977,44977,2021-01-21 23:17:33.581,85.296646,7
44987,44987,2021-01-21 23:18:03.581,85.263855,7
44997,44997,2021-01-21 23:18:33.581,85.285484,7
45007,45007,2021-01-21 23:19:03.581,85.3443,7
45017,45017,2021-01-21 23:19:33.581,85.24197,7
45027,45027,2021-01-21 23:20:03.581,85.29333000000001,7
45037,45037,2021-01-21 23:20:33.581,85.22744,7
45047,45047,2021-01-21 23:21:03.581,85.71449,7
45057,45057,2021-01-21 23:21:33.581,85.90344,7
45067,45067,2021-01-21 23:22:03.581,85.962296,7
45077,45077,2021-01-21 23:22:33.581,85.59283,7
45087,45087,2021-01-21 23:23:03.581,85.68227399999999,7
45097,45097,2021-01-21 23:23:33.581,85.8063,7
45107,45107,2021-01-21 23:24:03.581,85.82093,7
45117,45117,2021-01-21 23:24:33.581,85.82169,7
45127,45127,2021-01-21 23:25:03.581,85.79772,7
45137,45137,2021-01-21 23:25:33.581,85.92821500000001,7
45147,45147,2021-01-21 23:26:03.581,86.049255,7
45157,45157,2021-01-21 23:26:33.581,86.15921,7
45167,45167,2021-01-21 23:27:03.581,86.25275400000001,7
45177,45177,2021-01-21 23:27:33.581,86.22131999999999,7
45187,45187,2021-01-21 23:28:03.581,86.177376,7
45197,45197,2021-01-21 23:28:33.581,85.98891400000001,7
45207,45207,2021-01-21 23:29:03.581,85.967285,7
45217,45217,2021-01-21 23:29:33.581,85.887665,7
45227,45227,2021-01-21 23:30:03.581,85.94695,7
45237,45237,2021-01-21 23:30:33.581,85.89009,7
45247,45247,2021-01-21 23:31:03.581,85.87209,7
45257,45257,2021-01-21 23:31:33.581,85.91762,7
45267,45267,2021-01-21 23:32:03.581,86.53067,7
45277,45277,2021-01-21 23:32:33.581,86.781654,7
45287,45287,2021-01-21 23:33:03.581,86.933464,7
45297,45297,2021-01-21 23:33:33.581,86.9413,7
45307,45307,2021-01-21 23:34:03.581,86.966576,7
45317,45317,2021-01-21 23:34:33.581,86.98245,7
45327,45327,2021-01-21 23:35:03.581,86.91509,7
45337,45337,2021-01-21 23:35:33.581,86.821686,7
45347,45347,2021-01-21 23:36:03.581,86.79772,7
45357,45357,2021-01-21 23:36:33.581,86.92821500000001,7
45367,45367,2021-01-21 23:37:03.581,87.049255,7
45377,45377,2021-01-21 23:37:33.581,87.15921,7
45387,45387,2021-01-21 23:38:03.581,87.25278,7
45397,45397,2021-01-21 23:38:33.581,87.22131999999999,7
45407,45407,2021-01-21 23:39:03.581,87.177376,7
45417,45417,2021-01-21 23:39:33.581,86.98891,7
45427,45427,2021-01-21 23:40:03.581,86.96729,7
45437,45437,2021-01-21 23:40:33.581,86.88767,7
45447,45447,2021-01-21 23:41:03.581,86.946945,7
45457,45457,2021-01-21 23:41:33.581,86.89008000000001,7
45467,45467,2021-01-21 23:42:03.581,86.87209,7
45477,45477,2021-01-21 23:42:33.581,86.91763,7
45487,45487,2021-01-21 23:43:03.581,86.91425,7
45497,45497,2021-01-21 23:43:33.581,86.974915,7
45507,45507,2021-01-21 23:44:03.581,87.01703,7
45517,45517,2021-01-21 23:44:33.581,87.00405,7
45527,45527,2021-01-21 23:45:03.581,86.95703,7
45537,45537,2021-01-21 23:45:33.581,86.98195,7
45547,45547,2021-01-21 23:46:03.581,86.98875,7
45557,45557,2021-01-21 23:46:33.581,87.59151,7
45567,45567,2021-01-21 23:47:03.581,87.63671,7
45577,45577,2021-01-21 23:47:33.581,87.58273,7
45587,45587,2021-01-21 23:48:03.581,87.59283,7
45597,45597,2021-01-21 23:48:33.581,87.68226999999999,7
45607,45607,2021-01-21 23:49:03.581,87.8063,7
45617,45617,2021-01-21 23:49:33.581,87.82092,7
45627,45627,2021-01-21 23:50:03.581,87.82169,7
45637,45637,2021-01-21 23:50:33.581,87.797714,7
45647,45647,2021-01-21 23:51:03.581,87.92821500000001,7
45657,45657,2021-01-21 23:51:33.581,88.049255,7
45667,45667,2021-01-21 23:52:03.581,88.15921999999999,7
45677,45677,2021-01-21 23:52:33.581,88.25277,7
45687,45687,2021-01-21 23:53:03.581,88.22131999999999,7
45697,45697,2021-01-21 23:53:33.581,88.177376,7
45707,45707,2021-01-21 23:54:03.581,87.98891,7
45717,45717,2021-01-21 23:54:33.581,87.96729,7
45727,45727,2021-01-21 23:55:03.581,87.887665,7
45737,45737,2021-01-21 23:55:33.581,87.946945,7
45747,45747,2021-01-21 23:56:03.581,87.89009,7
45757,45757,2021-01-21 23:56:33.581,87.87209,7
45767,45767,2021-01-21 23:57:03.581,87.91762,7
45777,45777,2021-01-21 23:57:33.581,87.91424599999999,7
45787,45787,2021-01-21 23:58:03.581,86.03466,7
45797,45797,2021-01-21 23:58:33.581,85.91659,7
45807,45807,2021-01-21 23:59:03.581,85.95411,7
45817,45817,2021-01-21 23:59:33.581,85.88833000000001,7
45827,45827,2021-01-22 00:00:03.581,86.20406,7
45837,45837,2021-01-22 00:00:33.581,86.12236999999999,7
45847,45847,2021-01-22 00:01:03.581,86.14439,7
45857,45857,2021-01-22 00:01:33.581,86.101,7
45867,45867,2021-01-22 00:02:03.581,86.16898,7
45877,45877,2021-01-22 00:02:33.581,86.11643000000001,7
45887,45887,2021-01-22 00:03:03.581,86.0618,7
45897,45897,2021-01-22 00:03:33.581,86.185776,7
45907,45907,2021-01-22 00:04:03.581,86.35563,7
45917,45917,2021-01-22 00:04:33.581,86.5085,7
45927,45927,2021-01-22 00:05:03.581,86.45867,7
45937,45937,2021-01-22 00:05:33.581,86.438126,7
45947,45947,2021-01-22 00:06:03.581,86.4148,7
45957,45957,2021-01-22 00:06:33.581,86.33066,7
45967,45967,2021-01-22 00:07:03.581,86.27268000000001,7
45977,45977,2021-01-22 00:07:33.581,86.296646,7
45987,45987,2021-01-22 00:08:03.581,86.26386,7
45997,45997,2021-01-22 00:08:33.581,86.285484,7
46007,46007,2021-01-22 00:09:03.581,86.34429,7
46017,46017,2021-01-22 00:09:33.581,86.24197,7
46027,46027,2021-01-22 00:10:03.581,86.29333000000001,7
46037,46037,2021-01-22 00:10:33.581,86.22744,7
46047,46047,2021-01-22 00:11:03.581,86.15974,7
46057,46057,2021-01-22 00:11:33.581,86.25565999999999,7
46067,46067,2021-01-22 00:12:03.581,86.18466,7
46077,46077,2021-01-22 00:12:33.581,86.0,7
46087,46087,2021-01-22 00:13:03.581,86.0,7
46097,46097,2021-01-22 00:13:33.581,86.0,7
46107,46107,2021-01-22 00:14:03.581,86.59151,7
46117,46117,2021-01-22 00:14:33.581,86.63672,7
46127,46127,2021-01-22 00:15:03.581,86.58274,7
46137,46137,2021-01-22 00:15:33.581,86.59283,7
46147,46147,2021-01-22 00:16:03.581,86.68227399999999,7
46157,46157,2021-01-22 00:16:33.581,86.80629,7
46167,46167,2021-01-22 00:17:03.581,86.82092,7
46177,46177,2021-01-22 00:17:33.581,86.821686,7
46187,46187,2021-01-22 00:18:03.581,86.79772,7
46197,46197,2021-01-22 00:18:33.581,86.92821500000001,7
46207,46207,2021-01-22 00:19:03.581,87.049255,7
46217,46217,2021-01-22 00:19:33.581,87.15921,7
46227,46227,2021-01-22 00:20:03.581,87.25278,7
46237,46237,2021-01-22 00:20:33.581,87.22131999999999,7
46247,46247,2021-01-22 00:21:03.581,87.177376,7
46257,46257,2021-01-22 00:21:33.581,86.98891,7
46267,46267,2021-01-22 00:22:03.581,86.96729,7
46277,46277,2021-01-22 00:22:33.581,86.88767,7
46287,46287,2021-01-22 00:23:03.581,86.946945,7
46297,46297,2021-01-22 00:23:33.581,86.89008000000001,7
46307,46307,2021-01-22 00:24:03.581,86.87209,7
46317,46317,2021-01-22 00:24:33.581,86.91763,7
46327,46327,2021-01-22 00:25:03.581,86.91425,7
46337,46337,2021-01-22 00:25:33.581,86.974915,7
46347,46347,2021-01-22 00:26:03.581,87.01703,7
46357,46357,2021-01-22 00:26:33.581,87.00405,7
46367,46367,2021-01-22 00:27:03.581,86.95703,7
46377,46377,2021-01-22 00:27:33.581,86.98195,7
46387,46387,2021-01-22 00:28:03.581,87.462326,7
46397,46397,2021-01-22 00:28:33.581,87.63671,7
46407,46407,2021-01-22 00:29:03.581,87.58273,7
46417,46417,2021-01-22 00:29:33.581,87.59283,7
46427,46427,2021-01-22 00:30:03.581,87.68226999999999,7
46437,46437,2021-01-22 00:30:33.581,87.8063,7
46447,46447,2021-01-22 00:31:03.581,87.82092,7
46457,46457,2021-01-22 00:31:33.581,87.82169,7
46467,46467,2021-01-22 00:32:03.581,87.797714,7
46477,46477,2021-01-22 00:32:33.581,87.92821500000001,7
46487,46487,2021-01-22 00:33:03.581,88.049255,7
46497,46497,2021-01-22 00:33:33.581,88.15921999999999,7
46507,46507,2021-01-22 00:34:03.581,88.25277,7
46517,46517,2021-01-22 00:34:33.581,88.22131999999999,7
46527,46527,2021-01-22 00:35:03.581,88.177376,7
46537,46537,2021-01-22 00:35:33.581,87.98891,7
46547,46547,2021-01-22 00:36:03.581,87.96729,7
46557,46557,2021-01-22 00:36:33.581,87.887665,7
46567,46567,2021-01-22 00:37:03.581,87.946945,7
46577,46577,2021-01-22 00:37:33.581,87.89009,7
46587,46587,2021-01-22 00:38:03.581,87.87209,7
46597,46597,2021-01-22 00:38:33.581,87.91762,7
46607,46607,2021-01-22 00:39:03.581,87.91424599999999,7
46617,46617,2021-01-22 00:39:33.581,87.97492,7
46627,46627,2021-01-22 00:40:03.581,88.01702,7
46637,46637,2021-01-22 00:40:33.581,88.00404,7
46647,46647,2021-01-22 00:41:03.581,87.95704,7
46657,46657,2021-01-22 00:41:33.581,87.98194000000001,7
46667,46667,2021-01-22 00:42:03.581,87.988754,7
46677,46677,2021-01-22 00:42:33.581,88.59151,7
46687,46687,2021-01-22 00:43:03.581,88.63672,7
46697,46697,2021-01-22 00:43:33.581,88.58274,7
46707,46707,2021-01-22 00:44:03.581,88.59283,7
46717,46717,2021-01-22 00:44:33.581,88.68228,7
46727,46727,2021-01-22 00:45:03.581,88.80629,7
46737,46737,2021-01-22 00:45:33.581,86.13016,7
46747,46747,2021-01-22 00:46:03.581,85.74554,7
46757,46757,2021-01-22 00:46:33.581,85.71978,7
46767,46767,2021-01-22 00:47:03.581,85.63571,7
46777,46777,2021-01-22 00:47:33.581,85.99606,7
46787,46787,2021-01-22 00:48:03.581,86.184814,7
46797,46797,2021-01-22 00:48:33.581,86.22853,7
46807,46807,2021-01-22 00:49:03.581,86.12849399999999,7
46817,46817,2021-01-22 00:49:33.581,86.20088,7
46827,46827,2021-01-22 00:50:03.581,86.28095,7
46837,46837,2021-01-22 00:50:33.581,86.28761,7
46847,46847,2021-01-22 00:51:03.581,86.19176,7
46857,46857,2021-01-22 00:51:33.581,86.21066,7
46867,46867,2021-01-22 00:52:03.581,86.33013000000001,7
46877,46877,2021-01-22 00:52:33.581,86.29457,7
46887,46887,2021-01-22 00:53:03.581,86.25565999999999,7
46897,46897,2021-01-22 00:53:33.581,86.16212,7
46907,46907,2021-01-22 00:54:03.581,86.13396,7
46917,46917,2021-01-22 00:54:33.581,86.13679499999999,7
46927,46927,2021-01-22 00:55:03.581,86.26678000000001,7
46937,46937,2021-01-22 00:55:33.581,86.48918,7
46947,46947,2021-01-22 00:56:03.581,86.64923,7
46957,46957,2021-01-22 00:56:33.581,86.78745,7
46967,46967,2021-01-22 00:57:03.581,86.85853,7
46977,46977,2021-01-22 00:57:33.581,86.90919,7
46987,46987,2021-01-22 00:58:03.581,86.85027,7
46997,46997,2021-01-22 00:58:33.581,86.90975999999999,7
47007,47007,2021-01-22 00:59:03.581,87.03913,7
47017,47017,2021-01-22 00:59:33.581,87.08743,7
47027,47027,2021-01-22 01:00:03.581,86.92821500000001,7
47037,47037,2021-01-22 01:00:33.581,87.049255,7
47047,47047,2021-01-22 01:01:03.581,87.15921,7
47057,47057,2021-01-22 01:01:33.581,87.25278,7
47067,47067,2021-01-22 01:02:03.581,87.22131999999999,7
47077,47077,2021-01-22 01:02:33.581,87.177376,7
47087,47087,2021-01-22 01:03:03.581,86.98891,7
47097,47097,2021-01-22 01:03:33.581,86.96729,7
47107,47107,2021-01-22 01:04:03.581,86.88767,7
47117,47117,2021-01-22 01:04:33.581,86.946945,7
47127,47127,2021-01-22 01:05:03.581,86.89008000000001,7
47137,47137,2021-01-22 01:05:33.581,86.87209,7
47147,47147,2021-01-22 01:06:03.581,86.91763,7
47157,47157,2021-01-22 01:06:33.581,86.91425,7
47167,47167,2021-01-22 01:07:03.581,86.974915,7
47177,47177,2021-01-22 01:07:33.581,87.01703,7
47187,47187,2021-01-22 01:08:03.581,87.00405,7
47197,47197,2021-01-22 01:08:33.581,86.95703,7
47207,47207,2021-01-22 01:09:03.581,86.98195,7
47217,47217,2021-01-22 01:09:33.581,87.462326,7
47227,47227,2021-01-22 01:10:03.581,87.63671,7
47237,47237,2021-01-22 01:10:33.581,87.58273,7
47247,47247,2021-01-22 01:11:03.581,87.59283,7
47257,47257,2021-01-22 01:11:33.581,87.68226999999999,7
47267,47267,2021-01-22 01:12:03.581,87.8063,7
47277,47277,2021-01-22 01:12:33.581,87.82092,7
47287,47287,2021-01-22 01:13:03.581,87.82169,7
47297,47297,2021-01-22 01:13:33.581,87.797714,7
47307,47307,2021-01-22 01:14:03.581,87.92821500000001,7
47317,47317,2021-01-22 01:14:33.581,88.049255,7
47327,47327,2021-01-22 01:15:03.581,88.15921999999999,7
47337,47337,2021-01-22 01:15:33.581,88.25277,7
47347,47347,2021-01-22 01:16:03.581,88.22131999999999,7
47357,47357,2021-01-22 01:16:33.581,88.177376,7
47367,47367,2021-01-22 01:17:03.581,87.98891,7
47377,47377,2021-01-22 01:17:33.581,87.96729,7
47387,47387,2021-01-22 01:18:03.581,87.887665,7
47397,47397,2021-01-22 01:18:33.581,87.946945,7
47407,47407,2021-01-22 01:19:03.581,87.89009,7
47417,47417,2021-01-22 01:19:33.581,87.87209,7
47427,47427,2021-01-22 01:20:03.581,87.91762,7
47437,47437,2021-01-22 01:20:33.581,87.91424599999999,7
47447,47447,2021-01-22 01:21:03.581,87.97492,7
47457,47457,2021-01-22 01:21:33.581,88.01702,7
47467,47467,2021-01-22 01:22:03.581,88.00404,7
47477,47477,2021-01-22 01:22:33.581,87.95704,7
47487,47487,2021-01-22 01:23:03.581,87.98194000000001,7
47497,47497,2021-01-22 01:23:33.581,87.988754,7
47507,47507,2021-01-22 01:24:03.581,88.0,7
47517,47517,2021-01-22 01:24:33.581,88.0,7
47527,47527,2021-01-22 01:25:03.581,88.0,7
47537,47537,2021-01-22 01:25:33.581,88.0,7
47547,47547,2021-01-22 01:26:03.581,88.0,7
47557,47557,2021-01-22 01:26:33.581,88.0,7
47567,47567,2021-01-22 01:27:03.581,88.59151,7
47577,47577,2021-01-22 01:27:33.581,88.63672,7
47587,47587,2021-01-22 01:28:03.581,88.58274,7
47597,47597,2021-01-22 01:28:33.581,88.59283,7
47607,47607,2021-01-22 01:29:03.581,88.68228,7
47617,47617,2021-01-22 01:29:33.581,86.09513000000001,7
47627,47627,2021-01-22 01:30:03.581,85.79576,7
47637,47637,2021-01-22 01:30:33.581,85.80736,7
47647,47647,2021-01-22 01:31:03.581,85.607765,7
47657,47657,2021-01-22 01:31:33.581,85.94846,7
47667,47667,2021-01-22 01:32:03.581,86.08218000000001,7
47677,47677,2021-01-22 01:32:33.581,86.203766,7
47687,47687,2021-01-22 01:33:03.581,86.13853,7
47697,47697,2021-01-22 01:33:33.581,86.16204,7
47707,47707,2021-01-22 01:34:03.581,86.21342,7
47717,47717,2021-01-22 01:34:33.581,86.23253000000001,7
47727,47727,2021-01-22 01:35:03.581,86.28711,7
47737,47737,2021-01-22 01:35:33.581,86.27138000000001,7
47747,47747,2021-01-22 01:36:03.581,86.369865,7
47757,47757,2021-01-22 01:36:33.581,86.31392,7
47767,47767,2021-01-22 01:37:03.581,86.263306,7
47777,47777,2021-01-22 01:37:33.581,86.100746,7
47787,47787,2021-01-22 01:38:03.581,86.06586,7
47797,47797,2021-01-22 01:38:33.581,86.06028,7
47807,47807,2021-01-22 01:39:03.581,86.116585,7
47817,47817,2021-01-22 01:39:33.581,86.20833,7
47827,47827,2021-01-22 01:40:03.581,86.2932,7
47837,47837,2021-01-22 01:40:33.581,86.442825,7
47847,47847,2021-01-22 01:41:03.581,86.26979,7
47857,47857,2021-01-22 01:41:33.581,86.43998,7
47867,47867,2021-01-22 01:42:03.581,86.82135,7
47877,47877,2021-01-22 01:42:33.581,86.941795,7
47887,47887,2021-01-22 01:43:03.581,87.11515,7
47897,47897,2021-01-22 01:43:33.581,87.13943499999999,7
47907,47907,2021-01-22 01:44:03.581,86.68227399999999,7
47917,47917,2021-01-22 01:44:33.581,86.80629,7
47927,47927,2021-01-22 01:45:03.581,86.82092,7
47937,47937,2021-01-22 01:45:33.581,86.821686,7
47947,47947,2021-01-22 01:46:03.581,86.79772,7
47957,47957,2021-01-22 01:46:33.581,86.92821500000001,7
47967,47967,2021-01-22 01:47:03.581,87.049255,7
47977,47977,2021-01-22 01:47:33.581,87.15921,7
47987,47987,2021-01-22 01:48:03.581,87.25278,7
47997,47997,2021-01-22 01:48:33.581,87.22131999999999,7
48007,48007,2021-01-22 01:49:03.581,87.177376,7
48017,48017,2021-01-22 01:49:33.581,86.98891,7
48027,48027,2021-01-22 01:50:03.581,86.96729,7
48037,48037,2021-01-22 01:50:33.581,86.88767,7
48047,48047,2021-01-22 01:51:03.581,86.946945,7
48057,48057,2021-01-22 01:51:33.581,86.89008000000001,7
48067,48067,2021-01-22 01:52:03.581,86.87209,7
48077,48077,2021-01-22 01:52:33.581,86.91763,7
48087,48087,2021-01-22 01:53:03.581,86.91425,7
48097,48097,2021-01-22 01:53:33.581,86.974915,7
48107,48107,2021-01-22 01:54:03.581,87.01703,7
48117,48117,2021-01-22 01:54:33.581,87.00405,7
48127,48127,2021-01-22 01:55:03.581,86.95703,7
48137,48137,2021-01-22 01:55:33.581,86.98195,7
48147,48147,2021-01-22 01:56:03.581,86.98875,7
48157,48157,2021-01-22 01:56:33.581,87.0,7
48167,48167,2021-01-22 01:57:03.581,87.0,7
48177,48177,2021-01-22 01:57:33.581,87.0,7
48187,48187,2021-01-22 01:58:03.581,87.0,7
48197,48197,2021-01-22 01:58:33.581,87.59151,7
48207,48207,2021-01-22 01:59:03.581,87.63671,7
48217,48217,2021-01-22 01:59:33.581,87.58273,7
48227,48227,2021-01-22 02:00:03.581,87.59283,7
48237,48237,2021-01-22 02:00:33.581,87.68226999999999,7
48247,48247,2021-01-22 02:01:03.581,87.8063,7
48257,48257,2021-01-22 02:01:33.581,87.82092,7
48267,48267,2021-01-22 02:02:03.581,87.82169,7
48277,48277,2021-01-22 02:02:33.581,87.797714,7
48287,48287,2021-01-22 02:03:03.581,87.92821500000001,7
48297,48297,2021-01-22 02:03:33.581,88.049255,7
48307,48307,2021-01-22 02:04:03.581,88.15921999999999,7
48317,48317,2021-01-22 02:04:33.581,88.25277,7
48327,48327,2021-01-22 02:05:03.581,88.22131999999999,7
48337,48337,2021-01-22 02:05:33.581,88.177376,7
48347,48347,2021-01-22 02:06:03.581,87.98891,7
48357,48357,2021-01-22 02:06:33.581,87.96729,7
48367,48367,2021-01-22 02:07:03.581,87.887665,7
48377,48377,2021-01-22 02:07:33.581,87.946945,7
48387,48387,2021-01-22 02:08:03.581,87.89009,7
48397,48397,2021-01-22 02:08:33.581,87.87209,7
48407,48407,2021-01-22 02:09:03.581,87.91762,7
48417,48417,2021-01-22 02:09:33.581,87.91424599999999,7
48427,48427,2021-01-22 02:10:03.581,86.03466,7
48437,48437,2021-01-22 02:10:33.581,85.91659,7
48447,48447,2021-01-22 02:11:03.581,85.95411,7
48457,48457,2021-01-22 02:11:33.581,85.88833000000001,7
48467,48467,2021-01-22 02:12:03.581,86.20406,7
48477,48477,2021-01-22 02:12:33.581,86.12236999999999,7
48487,48487,2021-01-22 02:13:03.581,86.14439,7
48497,48497,2021-01-22 02:13:33.581,86.101,7
48507,48507,2021-01-22 02:14:03.581,86.16898,7
48517,48517,2021-01-22 02:14:33.581,86.11643000000001,7
48527,48527,2021-01-22 02:15:03.581,86.0618,7
48537,48537,2021-01-22 02:15:33.581,86.185776,7
48547,48547,2021-01-22 02:16:03.581,86.35563,7
48557,48557,2021-01-22 02:16:33.581,86.5085,7
48567,48567,2021-01-22 02:17:03.581,86.45867,7
48577,48577,2021-01-22 02:17:33.581,86.438126,7
48587,48587,2021-01-22 02:18:03.581,86.4148,7
48597,48597,2021-01-22 02:18:33.581,86.33066,7
48607,48607,2021-01-22 02:19:03.581,86.27268000000001,7
48617,48617,2021-01-22 02:19:33.581,86.296646,7
48627,48627,2021-01-22 02:20:03.581,86.26386,7
48637,48637,2021-01-22 02:20:33.581,86.285484,7
48647,48647,2021-01-22 02:21:03.581,86.34429,7
48657,48657,2021-01-22 02:21:33.581,86.24197,7
48667,48667,2021-01-22 02:22:03.581,86.29333000000001,7
48677,48677,2021-01-22 02:22:33.581,86.22744,7
48687,48687,2021-01-22 02:23:03.581,86.15974,7
48697,48697,2021-01-22 02:23:33.581,86.25565999999999,7
48707,48707,2021-01-22 02:24:03.581,86.18466,7
48717,48717,2021-01-22 02:24:33.581,86.0,7
48727,48727,2021-01-22 02:25:03.581,86.0,7
48737,48737,2021-01-22 02:25:33.581,86.0,7
48747,48747,2021-01-22 02:26:03.581,86.0,7
48757,48757,2021-01-22 02:26:33.581,86.0,7
48767,48767,2021-01-22 02:27:03.581,86.0,7
48777,48777,2021-01-22 02:27:33.581,86.0,7
48787,48787,2021-01-22 02:28:03.581,86.0,7
48797,48797,2021-01-22 02:28:33.581,86.0,7
48807,48807,2021-01-22 02:29:03.581,86.0,7
48817,48817,2021-01-22 02:29:33.581,86.0,7
48827,48827,2021-01-22 02:30:03.581,86.0,7
48837,48837,2021-01-22 02:30:33.581,86.0,7
48847,48847,2021-01-22 02:31:03.581,86.0,7
48857,48857,2021-01-22 02:31:33.581,86.59151,7
48867,48867,2021-01-22 02:32:03.581,86.63672,7
48877,48877,2021-01-22 02:32:33.581,86.58274,7
48887,48887,2021-01-22 02:33:03.581,86.59283,7
48897,48897,2021-01-22 02:33:33.581,86.68227399999999,7
48907,48907,2021-01-22 02:34:03.581,86.80629,7
48917,48917,2021-01-22 02:34:33.581,86.82092,7
48927,48927,2021-01-22 02:35:03.581,86.821686,7
48937,48937,2021-01-22 02:35:33.581,86.79772,7
48947,48947,2021-01-22 02:36:03.581,86.92821500000001,7
48957,48957,2021-01-22 02:36:33.581,87.049255,7
48967,48967,2021-01-22 02:37:03.581,87.15921,7
48977,48977,2021-01-22 02:37:33.581,87.25278,7
48987,48987,2021-01-22 02:38:03.581,87.22131999999999,7
48997,48997,2021-01-22 02:38:33.581,87.177376,7
49007,49007,2021-01-22 02:39:03.581,86.98891,7
49017,49017,2021-01-22 02:39:33.581,86.96729,7
49027,49027,2021-01-22 02:40:03.581,86.88767,7
49037,49037,2021-01-22 02:40:33.581,86.946945,7
49047,49047,2021-01-22 02:41:03.581,86.89008000000001,7
49057,49057,2021-01-22 02:41:33.581,86.87209,7
49067,49067,2021-01-22 02:42:03.581,86.91763,7
49077,49077,2021-01-22 02:42:33.581,86.91425,7
49087,49087,2021-01-22 02:43:03.581,86.974915,7
49097,49097,2021-01-22 02:43:33.581,87.01703,7
49107,49107,2021-01-22 02:44:03.581,87.00405,7
49117,49117,2021-01-22 02:44:33.581,86.95703,7
49127,49127,2021-01-22 02:45:03.581,86.98195,7
49137,49137,2021-01-22 02:45:33.581,86.98875,7
49147,49147,2021-01-22 02:46:03.581,87.0,7
49157,49157,2021-01-22 02:46:33.581,87.0,7
49167,49167,2021-01-22 02:47:03.581,87.0,7
49177,49177,2021-01-22 02:47:33.581,87.0,7
49187,49187,2021-01-22 02:48:03.581,87.0,7
49197,49197,2021-01-22 02:48:33.581,85.0719,7
49207,49207,2021-01-22 02:49:03.581,84.945175,7
49217,49217,2021-01-22 02:49:33.581,84.95998399999999,7
49227,49227,2021-01-22 02:50:03.581,84.94685,7
49237,49237,2021-01-22 02:50:33.581,85.17130999999999,7
49247,49247,2021-01-22 02:51:03.581,85.17351,7
49257,49257,2021-01-22 02:51:33.581,85.14439,7
49267,49267,2021-01-22 02:52:03.581,85.101,7
49277,49277,2021-01-22 02:52:33.581,85.16898,7
49287,49287,2021-01-22 02:53:03.581,85.11643000000001,7
49297,49297,2021-01-22 02:53:33.581,85.0618,7
49307,49307,2021-01-22 02:54:03.581,85.18576999999999,7
49317,49317,2021-01-22 02:54:33.581,85.35563,7
49327,49327,2021-01-22 02:55:03.581,85.50849000000001,7
49337,49337,2021-01-22 02:55:33.581,85.45867,7
49347,49347,2021-01-22 02:56:03.581,85.438126,7
49357,49357,2021-01-22 02:56:33.581,85.414795,7
49367,49367,2021-01-22 02:57:03.581,85.33065,7
49377,49377,2021-01-22 02:57:33.581,85.27268000000001,7
49387,49387,2021-01-22 02:58:03.581,85.296646,7
49397,49397,2021-01-22 02:58:33.581,85.263855,7
49407,49407,2021-01-22 02:59:03.581,85.285484,7
49417,49417,2021-01-22 02:59:33.581,85.3443,7
49427,49427,2021-01-22 03:00:03.581,85.24197,7
49437,49437,2021-01-22 03:00:33.581,85.29333000000001,7
49447,49447,2021-01-22 03:01:03.581,85.22744,7
49457,49457,2021-01-22 03:01:33.581,85.15974,7
49467,49467,2021-01-22 03:02:03.581,85.25565999999999,7
49477,49477,2021-01-22 03:02:33.581,85.18468,7
49487,49487,2021-01-22 03:03:03.581,85.0,7
49497,49497,2021-01-22 03:03:33.581,85.0,7
49507,49507,2021-01-22 03:04:03.581,85.0,7
49517,49517,2021-01-22 03:04:33.581,85.59151,7
49527,49527,2021-01-22 03:05:03.581,85.63672,7
49537,49537,2021-01-22 03:05:33.581,85.58273,7
49547,49547,2021-01-22 03:06:03.581,85.59283,7
49557,49557,2021-01-22 03:06:33.581,85.68227399999999,7
49567,49567,2021-01-22 03:07:03.581,85.8063,7
49577,49577,2021-01-22 03:07:33.581,85.82093,7
49587,49587,2021-01-22 03:08:03.581,85.82169,7
49597,49597,2021-01-22 03:08:33.581,85.79772,7
49607,49607,2021-01-22 03:09:03.581,85.92821500000001,7
49617,49617,2021-01-22 03:09:33.581,86.049255,7
49627,49627,2021-01-22 03:10:03.581,86.15921,7
49637,49637,2021-01-22 03:10:33.581,86.25275400000001,7
49647,49647,2021-01-22 03:11:03.581,86.22131999999999,7
49657,49657,2021-01-22 03:11:33.581,86.177376,7
49667,49667,2021-01-22 03:12:03.581,85.98891400000001,7
49677,49677,2021-01-22 03:12:33.581,85.967285,7
49687,49687,2021-01-22 03:13:03.581,85.887665,7
49697,49697,2021-01-22 03:13:33.581,85.94695,7
49707,49707,2021-01-22 03:14:03.581,85.89009,7
49717,49717,2021-01-22 03:14:33.581,85.87209,7
49727,49727,2021-01-22 03:15:03.581,85.91762,7
49737,49737,2021-01-22 03:15:33.581,85.91424599999999,7
49747,49747,2021-01-22 03:16:03.581,85.97492,7
49757,49757,2021-01-22 03:16:33.581,86.01702,7
49767,49767,2021-01-22 03:17:03.581,86.00405,7
49777,49777,2021-01-22 03:17:33.581,85.95703,7
49787,49787,2021-01-22 03:18:03.581,85.98194000000001,7
49797,49797,2021-01-22 03:18:33.581,85.988754,7
49807,49807,2021-01-22 03:19:03.581,86.0,7
49817,49817,2021-01-22 03:19:33.581,86.0,7
49827,49827,2021-01-22 03:20:03.581,86.0,7
49837,49837,2021-01-22 03:20:33.581,86.0,7
49847,49847,2021-01-22 03:21:03.581,86.0,7
49857,49857,2021-01-22 03:21:33.581,86.59151,7
49867,49867,2021-01-22 03:22:03.581,86.63672,7
49877,49877,2021-01-22 03:22:33.581,86.58274,7
49887,49887,2021-01-22 03:23:03.581,86.59283,7
49897,49897,2021-01-22 03:23:33.581,86.68227399999999,7
49907,49907,2021-01-22 03:24:03.581,86.80629,7
49917,49917,2021-01-22 03:24:33.581,84.13016,7
49927,49927,2021-01-22 03:25:03.581,83.74553,7
49937,49937,2021-01-22 03:25:33.581,83.71978,7
49947,49947,2021-01-22 03:26:03.581,83.63571,7
49957,49957,2021-01-22 03:26:33.581,83.99606,7
49967,49967,2021-01-22 03:27:03.581,84.18482,7
49977,49977,2021-01-22 03:27:33.581,84.22853,7
49987,49987,2021-01-22 03:28:03.581,84.12849399999999,7
49997,49997,2021-01-22 03:28:33.581,84.20088,7
50007,50007,2021-01-22 03:29:03.581,84.28095,7
50017,50017,2021-01-22 03:29:33.581,84.28761999999999,7
50027,50027,2021-01-22 03:30:03.581,84.19175,7
50037,50037,2021-01-22 03:30:33.581,84.21066,7
50047,50047,2021-01-22 03:31:03.581,84.33014,7
50057,50057,2021-01-22 03:31:33.581,84.29457,7
50067,50067,2021-01-22 03:32:03.581,84.25565999999999,7
50077,50077,2021-01-22 03:32:33.581,84.16212,7
50087,50087,2021-01-22 03:33:03.581,84.13396,7
50097,50097,2021-01-22 03:33:33.581,84.13679499999999,7
50107,50107,2021-01-22 03:34:03.581,84.266785,7
50117,50117,2021-01-22 03:34:33.581,84.28365,7
50127,50127,2021-01-22 03:35:03.581,84.39529,7
50137,50137,2021-01-22 03:35:33.581,84.50778000000001,7
50147,50147,2021-01-22 03:36:03.581,84.362946,7
50157,50157,2021-01-22 03:36:33.581,84.43999000000001,7
50167,50167,2021-01-22 03:37:03.581,84.34115600000001,7
50177,50177,2021-01-22 03:37:33.581,84.23961,7
50187,50187,2021-01-22 03:38:03.581,84.3835,7
50197,50197,2021-01-22 03:38:33.581,84.27701,7
50207,50207,2021-01-22 03:39:03.581,84.0,7
50217,50217,2021-01-22 03:39:33.581,84.0,7
50227,50227,2021-01-22 03:40:03.581,84.5915,7
50237,50237,2021-01-22 03:40:33.581,84.63672,7
50247,50247,2021-01-22 03:41:03.581,84.58273,7
50257,50257,2021-01-22 03:41:33.581,84.59281999999999,7
50267,50267,2021-01-22 03:42:03.581,84.68227399999999,7
50277,50277,2021-01-22 03:42:33.581,84.8063,7
50287,50287,2021-01-22 03:43:03.581,84.82093,7
50297,50297,2021-01-22 03:43:33.581,84.82169,7
50307,50307,2021-01-22 03:44:03.581,84.79773,7
50317,50317,2021-01-22 03:44:33.581,84.92822,7
50327,50327,2021-01-22 03:45:03.581,85.04925,7
50337,50337,2021-01-22 03:45:33.581,85.159225,7
50347,50347,2021-01-22 03:46:03.581,85.25275400000001,7
50357,50357,2021-01-22 03:46:33.581,85.22131999999999,7
50367,50367,2021-01-22 03:47:03.581,85.17738,7
50377,50377,2021-01-22 03:47:33.581,84.98891400000001,7
50387,50387,2021-01-22 03:48:03.581,84.96729,7
50397,50397,2021-01-22 03:48:33.581,84.887665,7
50407,50407,2021-01-22 03:49:03.581,84.94694,7
50417,50417,2021-01-22 03:49:33.581,84.89008000000001,7
50427,50427,2021-01-22 03:50:03.581,84.87209,7
50437,50437,2021-01-22 03:50:33.581,84.91761,7
50447,50447,2021-01-22 03:51:03.581,84.91425,7
50457,50457,2021-01-22 03:51:33.581,84.974915,7
50467,50467,2021-01-22 03:52:03.581,85.01703,7
50477,50477,2021-01-22 03:52:33.581,85.00404,7
50487,50487,2021-01-22 03:53:03.581,84.95703,7
50497,50497,2021-01-22 03:53:33.581,84.98194000000001,7
50507,50507,2021-01-22 03:54:03.581,84.98875,7
50517,50517,2021-01-22 03:54:33.581,85.0,7
50527,50527,2021-01-22 03:55:03.581,85.0,7
50537,50537,2021-01-22 03:55:33.581,85.0,7
50547,50547,2021-01-22 03:56:03.581,85.0,7
50557,50557,2021-01-22 03:56:33.581,85.0,7
50567,50567,2021-01-22 03:57:03.581,85.0,7
50577,50577,2021-01-22 03:57:33.581,83.0719,7
50587,50587,2021-01-22 03:58:03.581,82.945175,7
50597,50597,2021-01-22 03:58:33.581,82.95998399999999,7
50607,50607,2021-01-22 03:59:03.581,82.94685,7
50617,50617,2021-01-22 03:59:33.581,83.1713,7
50627,50627,2021-01-22 04:00:03.581,83.17351,7
50637,50637,2021-01-22 04:00:33.581,83.14439,7
50647,50647,2021-01-22 04:01:03.581,83.101,7
50657,50657,2021-01-22 04:01:33.581,83.16898,7
50667,50667,2021-01-22 04:02:03.581,83.116425,7
50677,50677,2021-01-22 04:02:33.581,83.061806,7
50687,50687,2021-01-22 04:03:03.581,83.18576999999999,7
50697,50697,2021-01-22 04:03:33.581,83.35563,7
50707,50707,2021-01-22 04:04:03.581,83.50849000000001,7
50717,50717,2021-01-22 04:04:33.581,83.458664,7
50727,50727,2021-01-22 04:05:03.581,83.438126,7
50737,50737,2021-01-22 04:05:33.581,83.414795,7
50747,50747,2021-01-22 04:06:03.581,83.33066,7
50757,50757,2021-01-22 04:06:33.581,83.272675,7
50767,50767,2021-01-22 04:07:03.581,83.296646,7
50777,50777,2021-01-22 04:07:33.581,83.263855,7
50787,50787,2021-01-22 04:08:03.581,83.285484,7
50797,50797,2021-01-22 04:08:33.581,83.3443,7
50807,50807,2021-01-22 04:09:03.581,83.24197,7
50817,50817,2021-01-22 04:09:33.581,83.29333000000001,7
50827,50827,2021-01-22 04:10:03.581,83.22744,7
50837,50837,2021-01-22 04:10:33.581,83.15974,7
50847,50847,2021-01-22 04:11:03.581,83.25565999999999,7
50857,50857,2021-01-22 04:11:33.581,83.18467,7
50867,50867,2021-01-22 04:12:03.581,83.0,7
50877,50877,2021-01-22 04:12:33.581,83.0,7
50887,50887,2021-01-22 04:13:03.581,83.5915,7
50897,50897,2021-01-22 04:13:33.581,83.63671,7
50907,50907,2021-01-22 04:14:03.581,83.58274,7
50917,50917,2021-01-22 04:14:33.581,83.592834,7
50927,50927,2021-01-22 04:15:03.581,83.68226999999999,7
50937,50937,2021-01-22 04:15:33.581,83.8063,7
50947,50947,2021-01-22 04:16:03.581,83.82093,7
50957,50957,2021-01-22 04:16:33.581,83.82169,7
50967,50967,2021-01-22 04:17:03.581,83.79772,7
50977,50977,2021-01-22 04:17:33.581,83.92822,7
50987,50987,2021-01-22 04:18:03.581,84.049255,7
50997,50997,2021-01-22 04:18:33.581,84.15921999999999,7
51007,51007,2021-01-22 04:19:03.581,84.25277,7
51017,51017,2021-01-22 04:19:33.581,84.22131,7
51027,51027,2021-01-22 04:20:03.581,84.177376,7
51037,51037,2021-01-22 04:20:33.581,83.98892,7
51047,51047,2021-01-22 04:21:03.581,83.96729,7
51057,51057,2021-01-22 04:21:33.581,83.887665,7
51067,51067,2021-01-22 04:22:03.581,83.94695,7
51077,51077,2021-01-22 04:22:33.581,83.89009,7
51087,51087,2021-01-22 04:23:03.581,83.872086,7
51097,51097,2021-01-22 04:23:33.581,83.917625,7
51107,51107,2021-01-22 04:24:03.581,83.91425,7
51117,51117,2021-01-22 04:24:33.581,83.974915,7
51127,51127,2021-01-22 04:25:03.581,84.01703,7
51137,51137,2021-01-22 04:25:33.581,84.00404,7
51147,51147,2021-01-22 04:26:03.581,83.95703,7
51157,51157,2021-01-22 04:26:33.581,83.98194000000001,7
51167,51167,2021-01-22 04:27:03.581,83.98875,7
51177,51177,2021-01-22 04:27:33.581,82.0719,7
51187,51187,2021-01-22 04:28:03.581,81.945175,7
51197,51197,2021-01-22 04:28:33.581,81.95998399999999,7
51207,51207,2021-01-22 04:29:03.581,81.94686,7
51217,51217,2021-01-22 04:29:33.581,82.1713,7
51227,51227,2021-01-22 04:30:03.581,82.17351,7
51237,51237,2021-01-22 04:30:33.581,82.14439,7
51247,51247,2021-01-22 04:31:03.581,82.101,7
51257,51257,2021-01-22 04:31:33.581,82.16898,7
51267,51267,2021-01-22 04:32:03.581,82.11643000000001,7
51277,51277,2021-01-22 04:32:33.581,82.06179,7
51287,51287,2021-01-22 04:33:03.581,82.185776,7
51297,51297,2021-01-22 04:33:33.581,82.35562,7
51307,51307,2021-01-22 04:34:03.581,82.50849000000001,7
51317,51317,2021-01-22 04:34:33.581,82.45867,7
51327,51327,2021-01-22 04:35:03.581,82.438126,7
51337,51337,2021-01-22 04:35:33.581,82.414795,7
51347,51347,2021-01-22 04:36:03.581,82.33066,7
51357,51357,2021-01-22 04:36:33.581,82.27268000000001,7
51367,51367,2021-01-22 04:37:03.581,82.296646,7
51377,51377,2021-01-22 04:37:33.581,82.26386,7
51387,51387,2021-01-22 04:38:03.581,82.285484,7
51397,51397,2021-01-22 04:38:33.581,82.3443,7
51407,51407,2021-01-22 04:39:03.581,82.24197,7
51417,51417,2021-01-22 04:39:33.581,82.29333000000001,7
51427,51427,2021-01-22 04:40:03.581,82.22744,7
51437,51437,2021-01-22 04:40:33.581,82.15974,7
51447,51447,2021-01-22 04:41:03.581,82.25565999999999,7
51457,51457,2021-01-22 04:41:33.581,82.18467,7
51467,51467,2021-01-22 04:42:03.581,82.0,7
51477,51477,2021-01-22 04:42:33.581,82.0,7
51487,51487,2021-01-22 04:43:03.581,82.0,7
51497,51497,2021-01-22 04:43:33.581,82.0,7
51507,51507,2021-01-22 04:44:03.581,82.0,7
51517,51517,2021-01-22 04:44:33.581,82.0,7
51527,51527,2021-01-22 04:45:03.581,82.0,7
51537,51537,2021-01-22 04:45:33.581,82.0,7
51547,51547,2021-01-22 04:46:03.581,82.0,7
51557,51557,2021-01-22 04:46:33.581,82.0,7
51567,51567,2021-01-22 04:47:03.581,82.0,7
51577,51577,2021-01-22 04:47:33.581,82.0,7
51587,51587,2021-01-22 04:48:03.581,82.0,7
51597,51597,2021-01-22 04:48:33.581,82.59151,7
51607,51607,2021-01-22 04:49:03.581,82.63672,7
51617,51617,2021-01-22 04:49:33.581,82.58273,7
51627,51627,2021-01-22 04:50:03.581,82.59283,7
51637,51637,2021-01-22 04:50:33.581,82.68226999999999,7
51647,51647,2021-01-22 04:51:03.581,82.80629,7
51657,51657,2021-01-22 04:51:33.581,82.82093,7
51667,51667,2021-01-22 04:52:03.581,82.82169,7
51677,51677,2021-01-22 04:52:33.581,82.79772,7
51687,51687,2021-01-22 04:53:03.581,82.92821500000001,7
51697,51697,2021-01-22 04:53:33.581,83.04925,7
51707,51707,2021-01-22 04:54:03.581,80.164,7
51717,51717,2021-01-22 04:54:33.581,79.97088000000001,7
51727,51727,2021-01-22 04:55:03.581,79.911446,7
51737,51737,2021-01-22 04:55:33.581,79.8216,7
51747,51747,2021-01-22 04:56:03.581,80.12329,7
51757,51757,2021-01-22 04:56:33.581,80.302826,7
51767,51767,2021-01-22 04:57:03.581,80.20311,7
51777,51777,2021-01-22 04:57:33.581,80.259964,7
51787,51787,2021-01-22 04:58:03.581,80.335335,7
51797,51797,2021-01-22 04:58:33.581,80.41813,7
51807,51807,2021-01-22 04:59:03.581,80.20589,7
51817,51817,2021-01-22 04:59:33.581,80.161896,7
51827,51827,2021-01-22 05:00:03.581,80.32343,7
51837,51837,2021-01-22 05:00:33.581,80.44368,7
51847,51847,2021-01-22 05:01:03.581,80.51115,7
51857,51857,2021-01-22 05:01:33.581,80.55411,7
51867,51867,2021-01-22 05:02:03.581,80.502945,7
51877,51877,2021-01-22 05:02:33.581,80.50544000000001,7
51887,51887,2021-01-22 05:03:03.581,80.40902,7
51897,51897,2021-01-22 05:03:33.581,80.44498,7
51907,51907,2021-01-22 05:04:03.581,80.66913000000001,7
51917,51917,2021-01-22 05:04:33.581,80.73761999999999,7
51927,51927,2021-01-22 05:05:03.581,80.86568,7
51937,51937,2021-01-22 05:05:33.581,80.85853,7
51947,51947,2021-01-22 05:06:03.581,80.90919,7
51957,51957,2021-01-22 05:06:33.581,80.850266,7
51967,51967,2021-01-22 05:07:03.581,80.90975999999999,7
51977,51977,2021-01-22 05:07:33.581,81.03913,7
51987,51987,2021-01-22 05:08:03.581,81.087425,7
51997,51997,2021-01-22 05:08:33.581,80.92821500000001,7
52007,52007,2021-01-22 05:09:03.581,81.049255,7
52017,52017,2021-01-22 05:09:33.581,81.15921,7
52027,52027,2021-01-22 05:10:03.581,81.25276,7
52037,52037,2021-01-22 05:10:33.581,81.22131999999999,7
52047,52047,2021-01-22 05:11:03.581,81.177376,7
52057,52057,2021-01-22 05:11:33.581,80.98891400000001,7
52067,52067,2021-01-22 05:12:03.581,80.96729,7
52077,52077,2021-01-22 05:12:33.581,80.88767,7
52087,52087,2021-01-22 05:13:03.581,80.94695,7
52097,52097,2021-01-22 05:13:33.581,80.89009,7
52107,52107,2021-01-22 05:14:03.581,80.87209,7
52117,52117,2021-01-22 05:14:33.581,80.91761,7
52127,52127,2021-01-22 05:15:03.581,80.91425,7
52137,52137,2021-01-22 05:15:33.581,80.97492,7
52147,52147,2021-01-22 05:16:03.581,81.01703,7
52157,52157,2021-01-22 05:16:33.581,81.00405,7
52167,52167,2021-01-22 05:17:03.581,80.95704,7
52177,52177,2021-01-22 05:17:33.581,80.98194000000001,7
52187,52187,2021-01-22 05:18:03.581,80.988754,7
52197,52197,2021-01-22 05:18:33.581,79.0719,7
52207,52207,2021-01-22 05:19:03.581,78.945175,7
52217,52217,2021-01-22 05:19:33.581,78.95998399999999,7
52227,52227,2021-01-22 05:20:03.581,78.94685,7
52237,52237,2021-01-22 05:20:33.581,79.1713,7
52247,52247,2021-01-22 05:21:03.581,79.17351,7
52257,52257,2021-01-22 05:21:33.581,79.14439,7
52267,52267,2021-01-22 05:22:03.581,79.101,7
52277,52277,2021-01-22 05:22:33.581,79.168976,7
52287,52287,2021-01-22 05:23:03.581,79.11643000000001,7
52297,52297,2021-01-22 05:23:33.581,79.061806,7
52307,52307,2021-01-22 05:24:03.581,79.18576999999999,7
52317,52317,2021-01-22 05:24:33.581,79.35563,7
52327,52327,2021-01-22 05:25:03.581,79.50849000000001,7
52337,52337,2021-01-22 05:25:33.581,79.45867,7
52347,52347,2021-01-22 05:26:03.581,79.438126,7
52357,52357,2021-01-22 05:26:33.581,79.414795,7
52367,52367,2021-01-22 05:27:03.581,79.33066,7
52377,52377,2021-01-22 05:27:33.581,79.272675,7
52387,52387,2021-01-22 05:28:03.581,79.296646,7
52397,52397,2021-01-22 05:28:33.581,79.263855,7
52407,52407,2021-01-22 05:29:03.581,79.285484,7
52417,52417,2021-01-22 05:29:33.581,79.3443,7
52427,52427,2021-01-22 05:30:03.581,79.24197,7
52437,52437,2021-01-22 05:30:33.581,79.29332,7
52447,52447,2021-01-22 05:31:03.581,79.22744,7
52457,52457,2021-01-22 05:31:33.581,79.15974,7
52467,52467,2021-01-22 05:32:03.581,79.25565999999999,7
52477,52477,2021-01-22 05:32:33.581,79.18467,7
52487,52487,2021-01-22 05:33:03.581,79.0,7
52497,52497,2021-01-22 05:33:33.581,79.0,7
52507,52507,2021-01-22 05:34:03.581,79.0,7
52517,52517,2021-01-22 05:34:33.581,79.0,7
52527,52527,2021-01-22 05:35:03.581,79.0,7
52537,52537,2021-01-22 05:35:33.581,79.0,7
52547,52547,2021-01-22 05:36:03.581,79.0,7
52557,52557,2021-01-22 05:36:33.581,79.0,7
52567,52567,2021-01-22 05:37:03.581,79.0,7
52577,52577,2021-01-22 05:37:33.581,79.0,7
52587,52587,2021-01-22 05:38:03.581,79.0,7
52597,52597,2021-01-22 05:38:33.581,79.0,7
52607,52607,2021-01-22 05:39:03.581,79.0,7
52617,52617,2021-01-22 05:39:33.581,79.59151,7
52627,52627,2021-01-22 05:40:03.581,77.15292,7
52637,52637,2021-01-22 05:40:33.581,76.83932,7
52647,52647,2021-01-22 05:41:03.581,76.93909000000001,7
52657,52657,2021-01-22 05:41:33.581,76.78101,7
52667,52667,2021-01-22 05:42:03.581,77.056656,7
52677,52677,2021-01-22 05:42:33.581,77.06321,7
52687,52687,2021-01-22 05:43:03.581,77.065895,7
52697,52697,2021-01-22 05:43:33.581,76.95243,7
52707,52707,2021-01-22 05:44:03.581,77.04664,7
52717,52717,2021-01-22 05:44:33.581,76.98698399999999,7
52727,52727,2021-01-22 05:45:03.581,76.93215,7
52737,52737,2021-01-22 05:45:33.581,76.93512,7
52747,52747,2021-01-22 05:46:03.581,77.24478,7
52757,52757,2021-01-22 05:46:33.581,77.42786,7
52767,52767,2021-01-22 05:47:03.581,77.419785,7
52777,52777,2021-01-22 05:47:33.581,77.38471,7
52787,52787,2021-01-22 05:48:03.581,77.31638000000001,7
52797,52797,2021-01-22 05:48:33.581,77.23638000000001,7
52807,52807,2021-01-22 05:49:03.581,77.12329,7
52817,52817,2021-01-22 05:49:33.581,77.09727,7
52827,52827,2021-01-22 05:50:03.581,77.07086,7
52837,52837,2021-01-22 05:50:33.581,77.140175,7
52847,52847,2021-01-22 05:51:03.581,77.29219,7
52857,52857,2021-01-22 05:51:33.581,77.10358000000001,7
52867,52867,2021-01-22 05:52:03.581,77.20419,7
52877,52877,2021-01-22 05:52:33.581,77.11399999999999,7
52887,52887,2021-01-22 05:53:03.581,77.0228,7
52897,52897,2021-01-22 05:53:33.581,77.12980999999999,7
52907,52907,2021-01-22 05:54:03.581,77.27701,7
52917,52917,2021-01-22 05:54:33.581,77.0,7
52927,52927,2021-01-22 05:55:03.581,77.0,7
52937,52937,2021-01-22 05:55:33.581,77.59151,7
52947,52947,2021-01-22 05:56:03.581,77.63671,7
52957,52957,2021-01-22 05:56:33.581,77.58274,7
52967,52967,2021-01-22 05:57:03.581,77.59283,7
52977,52977,2021-01-22 05:57:33.581,77.68227399999999,7
52987,52987,2021-01-22 05:58:03.581,77.8063,7
52997,52997,2021-01-22 05:58:33.581,75.13016,7
53007,53007,2021-01-22 05:59:03.581,74.74554,7
53017,53017,2021-01-22 05:59:33.581,74.71978,7
53027,53027,2021-01-22 06:00:03.581,74.63571,7
53037,53037,2021-01-22 06:00:33.581,74.99606,7
53047,53047,2021-01-22 06:01:03.581,75.184814,7
53057,53057,2021-01-22 06:01:33.581,75.22853,7
53067,53067,2021-01-22 06:02:03.581,75.12849,7
53077,53077,2021-01-22 06:02:33.581,75.20088,7
53087,53087,2021-01-22 06:03:03.581,75.28095,7
53097,53097,2021-01-22 06:03:33.581,75.28761999999999,7
53107,53107,2021-01-22 06:04:03.581,75.19175,7
53117,53117,2021-01-22 06:04:33.581,75.21067,7
53127,53127,2021-01-22 06:05:03.581,75.33013000000001,7
53137,53137,2021-01-22 06:05:33.581,75.29457,7
53147,53147,2021-01-22 06:06:03.581,75.25565999999999,7
53157,53157,2021-01-22 06:06:33.581,75.16212,7
53167,53167,2021-01-22 06:07:03.581,75.13396,7
53177,53177,2021-01-22 06:07:33.581,75.13679499999999,7
53187,53187,2021-01-22 06:08:03.581,75.266785,7
53197,53197,2021-01-22 06:08:33.581,75.489174,7
53207,53207,2021-01-22 06:09:03.581,75.64923,7
53217,53217,2021-01-22 06:09:33.581,75.78745,7
53227,53227,2021-01-22 06:10:03.581,75.85853,7
53237,53237,2021-01-22 06:10:33.581,75.90919,7
53247,53247,2021-01-22 06:11:03.581,75.850266,7
53257,53257,2021-01-22 06:11:33.581,75.90975999999999,7
53267,53267,2021-01-22 06:12:03.581,76.03912,7
53277,53277,2021-01-22 06:12:33.581,76.08743,7
53287,53287,2021-01-22 06:13:03.581,75.92821500000001,7
53297,53297,2021-01-22 06:13:33.581,76.04925,7
53307,53307,2021-01-22 06:14:03.581,74.116516,7
53317,53317,2021-01-22 06:14:33.581,74.026726,7
53327,53327,2021-01-22 06:15:03.581,73.96016999999999,7
53337,53337,2021-01-22 06:15:33.581,73.83661,7
53347,53347,2021-01-22 06:16:03.581,74.011696,7
53357,53357,2021-01-22 06:16:33.581,74.20215,7
53367,53367,2021-01-22 06:17:03.581,74.0963,7
53377,53377,2021-01-22 06:17:33.581,74.18058,7
53387,53387,2021-01-22 06:18:03.581,74.18503,7
53397,53397,2021-01-22 06:18:33.581,74.284256,7
53407,53407,2021-01-22 06:19:03.581,74.12087,7
53417,53417,2021-01-22 06:19:33.581,73.9859,7
53427,53427,2021-01-22 06:20:03.581,74.14655,7
53437,53437,2021-01-22 06:20:33.581,74.19532,7
53447,53447,2021-01-22 06:21:03.581,74.26414,7
53457,53457,2021-01-22 06:21:33.581,74.30067,7
53467,53467,2021-01-22 06:22:03.581,74.250626,7
53477,53477,2021-01-22 06:22:33.581,74.30825,7
53487,53487,2021-01-22 06:23:03.581,74.27268000000001,7
53497,53497,2021-01-22 06:23:33.581,74.296646,7
53507,53507,2021-01-22 06:24:03.581,74.26386,7
53517,53517,2021-01-22 06:24:33.581,74.285484,7
53527,53527,2021-01-22 06:25:03.581,74.3443,7
53537,53537,2021-01-22 06:25:33.581,74.24197,7
53547,53547,2021-01-22 06:26:03.581,74.29332,7
53557,53557,2021-01-22 06:26:33.581,72.53185,7
53567,53567,2021-01-22 06:27:03.581,72.16936,7
53577,53577,2021-01-22 06:27:33.581,72.20751,7
53587,53587,2021-01-22 06:28:03.581,72.013115,7
53597,53597,2021-01-22 06:28:33.581,72.17130999999999,7
53607,53607,2021-01-22 06:29:03.581,72.17351,7
53617,53617,2021-01-22 06:29:33.581,72.14439,7
53627,53627,2021-01-22 06:30:03.581,72.101,7
53637,53637,2021-01-22 06:30:33.581,72.16898,7
53647,53647,2021-01-22 06:31:03.581,72.11643000000001,7
53657,53657,2021-01-22 06:31:33.581,72.0618,7
53667,53667,2021-01-22 06:32:03.581,72.18576999999999,7
53677,53677,2021-01-22 06:32:33.581,72.35563,7
53687,53687,2021-01-22 06:33:03.581,72.50849000000001,7
53697,53697,2021-01-22 06:33:33.581,72.458664,7
53707,53707,2021-01-22 06:34:03.581,72.438126,7
53717,53717,2021-01-22 06:34:33.581,72.414795,7
53727,53727,2021-01-22 06:35:03.581,72.33066,7
53737,53737,2021-01-22 06:35:33.581,72.27268000000001,7
53747,53747,2021-01-22 06:36:03.581,72.296646,7
53757,53757,2021-01-22 06:36:33.581,72.263855,7
53767,53767,2021-01-22 06:37:03.581,70.91476999999999,7
53777,53777,2021-01-22 06:37:33.581,70.53974000000001,7
53787,53787,2021-01-22 06:38:03.581,70.370346,7
53797,53797,2021-01-22 06:38:33.581,70.31933000000001,7
53807,53807,2021-01-22 06:39:03.581,70.241646,7
53817,53817,2021-01-22 06:39:33.581,70.08659,7
53827,53827,2021-01-22 06:40:03.581,70.23935999999999,7
53837,53837,2021-01-22 06:40:33.581,70.019684,7
53847,53847,2021-01-22 06:41:03.581,70.16898,7
53857,53857,2021-01-22 06:41:33.581,70.11643000000001,7
53867,53867,2021-01-22 06:42:03.581,70.0618,7
53877,53877,2021-01-22 06:42:33.581,70.18576999999999,7
53887,53887,2021-01-22 06:43:03.581,70.35563,7
53897,53897,2021-01-22 06:43:33.581,70.5085,7
53907,53907,2021-01-22 06:44:03.581,69.40888000000001,7
53917,53917,2021-01-22 06:44:33.581,67.97330500000001,7
