,Unnamed: 0,time,preds,step
34470,34470,2021-01-21 14:29:03.581,74.41639,0
34480,34480,2021-01-21 14:29:33.581,74.65765,0
34490,34490,2021-01-21 14:30:03.581,74.895935,0
34500,34500,2021-01-21 14:30:33.581,75.89358,0
34510,34510,2021-01-21 14:31:03.581,75.51958,0
34520,34520,2021-01-21 14:31:33.581,75.64111,0
34530,34530,2021-01-21 14:32:03.581,76.45895,0
34540,34540,2021-01-21 14:32:33.581,76.15881999999999,0
34550,34550,2021-01-21 14:33:03.581,76.81158,0
34560,34560,2021-01-21 14:33:33.581,77.13529,0
34570,34570,2021-01-21 14:34:03.581,77.03443,0
34580,34580,2021-01-21 14:34:33.581,77.1781,0
34590,34590,2021-01-21 14:35:03.581,77.46637,0
34600,34600,2021-01-21 14:35:33.581,77.84068,0
34610,34610,2021-01-21 14:36:03.581,77.90786999999999,0
34620,34620,2021-01-21 14:36:33.581,78.231415,0
34630,34630,2021-01-21 14:37:03.581,78.1421,0
34640,34640,2021-01-21 14:37:33.581,78.17033,0
34650,34650,2021-01-21 14:38:03.581,78.33919499999999,0
34660,34660,2021-01-21 14:38:33.581,78.29607,0
34670,34670,2021-01-21 14:39:03.581,78.25576,0
34680,34680,2021-01-21 14:39:33.581,78.15106999999999,0
34690,34690,2021-01-21 14:40:03.581,78.73363499999999,0
34700,34700,2021-01-21 14:40:33.581,79.00196,0
34710,34710,2021-01-21 14:41:03.581,78.99707,0
34720,34720,2021-01-21 14:41:33.581,79.02382,0
34730,34730,2021-01-21 14:42:03.581,79.088844,0
34740,34740,2021-01-21 14:42:33.581,79.04781,0
34750,34750,2021-01-21 14:43:03.581,79.78205,0
34760,34760,2021-01-21 14:43:33.581,80.00702,0
34770,34770,2021-01-21 14:44:03.581,80.00985,0
34780,34780,2021-01-21 14:44:33.581,80.067894,0
34790,34790,2021-01-21 14:45:03.581,80.187614,0
34800,34800,2021-01-21 14:45:33.581,80.1788,0
34810,34810,2021-01-21 14:46:03.581,80.228874,0
34820,34820,2021-01-21 14:46:33.581,80.25803,0
34830,34830,2021-01-21 14:47:03.581,80.11513000000001,0
34840,34840,2021-01-21 14:47:33.581,80.03256,0
34850,34850,2021-01-21 14:48:03.581,80.1441,0
34860,34860,2021-01-21 14:48:33.581,80.898705,0
34870,34870,2021-01-21 14:49:03.581,81.11081,0
34880,34880,2021-01-21 14:49:33.581,81.00554,0
34890,34890,2021-01-21 14:50:03.581,81.0553,0
34900,34900,2021-01-21 14:50:33.581,80.96598,0
34910,34910,2021-01-21 14:51:03.581,81.02689000000001,0
34920,34920,2021-01-21 14:51:33.581,81.0231,0
34930,34930,2021-01-21 14:52:03.581,81.078354,0
34940,34940,2021-01-21 14:52:33.581,81.07648499999999,0
34950,34950,2021-01-21 14:53:03.581,81.10438,0
34960,34960,2021-01-21 14:53:33.581,81.17444,0
34970,34970,2021-01-21 14:54:03.581,81.14983000000001,0
34980,34980,2021-01-21 14:54:33.581,81.136475,0
34990,34990,2021-01-21 14:55:03.581,81.097664,0
35000,35000,2021-01-21 14:55:33.581,80.99327,0
35010,35010,2021-01-21 14:56:03.581,80.97954,0
35020,35020,2021-01-21 14:56:33.581,81.05069,0
35030,35030,2021-01-21 14:57:03.581,78.86497,0
35040,35040,2021-01-21 14:57:33.581,78.67594,0
35050,35050,2021-01-21 14:58:03.581,78.73154,0
35060,35060,2021-01-21 14:58:33.581,77.88195,0
35070,35070,2021-01-21 14:59:03.581,78.10507,0
35080,35080,2021-01-21 14:59:33.581,78.03882,0
35090,35090,2021-01-21 15:00:03.581,78.61326,0
35100,35100,2021-01-21 15:00:33.581,78.88573000000001,0
35110,35110,2021-01-21 15:01:03.581,78.89838,0
35120,35120,2021-01-21 15:01:33.581,78.84232,0
35130,35130,2021-01-21 15:02:03.581,78.72570999999999,0
35140,35140,2021-01-21 15:02:33.581,78.94583,0
35150,35150,2021-01-21 15:03:03.581,79.71459,0
35160,35160,2021-01-21 15:03:33.581,79.88329,0
35170,35170,2021-01-21 15:04:03.581,79.77101,0
35180,35180,2021-01-21 15:04:33.581,79.75948000000001,0
35190,35190,2021-01-21 15:05:03.581,79.656044,0
35200,35200,2021-01-21 15:05:33.581,79.765335,0
35210,35210,2021-01-21 15:06:03.581,79.81505,0
35220,35220,2021-01-21 15:06:33.581,79.95628,0
35230,35230,2021-01-21 15:07:03.581,79.94539,0
35240,35240,2021-01-21 15:07:33.581,79.96967,0
35250,35250,2021-01-21 15:08:03.581,79.96844,0
35260,35260,2021-01-21 15:08:33.581,79.96862,0
35270,35270,2021-01-21 15:09:03.581,80.02018000000001,0
35280,35280,2021-01-21 15:09:33.581,80.83445999999999,0
35290,35290,2021-01-21 15:10:03.581,80.99039,0
35300,35300,2021-01-21 15:10:33.581,80.935425,0
35310,35310,2021-01-21 15:11:03.581,81.184326,0
35320,35320,2021-01-21 15:11:33.581,81.03469,0
35330,35330,2021-01-21 15:12:03.581,80.98241,0
35340,35340,2021-01-21 15:12:33.581,81.01726,0
35350,35350,2021-01-21 15:13:03.581,81.10122,0
35360,35360,2021-01-21 15:13:33.581,81.12517,0
35370,35370,2021-01-21 15:14:03.581,81.82642,0
35380,35380,2021-01-21 15:14:33.581,82.10121,0
35390,35390,2021-01-21 15:15:03.581,82.1049,0
35400,35400,2021-01-21 15:15:33.581,82.08708,0
35410,35410,2021-01-21 15:16:03.581,82.08494,0
35420,35420,2021-01-21 15:16:33.581,82.13828000000001,0
35430,35430,2021-01-21 15:17:03.581,82.01271,0
35440,35440,2021-01-21 15:17:33.581,82.04688,0
35450,35450,2021-01-21 15:18:03.581,81.998535,0
35460,35460,2021-01-21 15:18:33.581,82.02524,0
35470,35470,2021-01-21 15:19:03.581,82.08332,0
35480,35480,2021-01-21 15:19:33.581,82.105804,0
35490,35490,2021-01-21 15:20:03.581,82.10766600000001,0
35500,35500,2021-01-21 15:20:33.581,82.04051,0
35510,35510,2021-01-21 15:21:03.581,81.98432,0
35520,35520,2021-01-21 15:21:33.581,82.62437,0
35530,35530,2021-01-21 15:22:03.581,82.8702,0
35540,35540,2021-01-21 15:22:33.581,82.884445,0
35550,35550,2021-01-21 15:23:03.581,82.92683000000001,0
35560,35560,2021-01-21 15:23:33.581,82.93531999999999,0
35570,35570,2021-01-21 15:24:03.581,83.00667,0
35580,35580,2021-01-21 15:24:33.581,83.02715,0
35590,35590,2021-01-21 15:25:03.581,83.05591,0
35600,35600,2021-01-21 15:25:33.581,83.030594,0
35610,35610,2021-01-21 15:26:03.581,83.09523,0
35620,35620,2021-01-21 15:26:33.581,83.126564,0
35630,35630,2021-01-21 15:27:03.581,83.13044000000001,0
35640,35640,2021-01-21 15:27:33.581,83.163055,0
35650,35650,2021-01-21 15:28:03.581,83.04458000000001,0
35660,35660,2021-01-21 15:28:33.581,83.03633,0
35670,35670,2021-01-21 15:29:03.581,82.9581,0
35680,35680,2021-01-21 15:29:33.581,83.00493,0
35690,35690,2021-01-21 15:30:03.581,82.966515,0
35700,35700,2021-01-21 15:30:33.581,82.95333000000001,0
35710,35710,2021-01-21 15:31:03.581,82.92891999999999,0
35720,35720,2021-01-21 15:31:33.581,82.9291,0
35730,35730,2021-01-21 15:32:03.581,83.69098000000001,0
35740,35740,2021-01-21 15:32:33.581,83.88062,0
35750,35750,2021-01-21 15:33:03.581,84.01469399999999,0
35760,35760,2021-01-21 15:33:33.581,84.0041,0
35770,35770,2021-01-21 15:34:03.581,83.96336,0
35780,35780,2021-01-21 15:34:33.581,83.99667,0
35790,35790,2021-01-21 15:35:03.581,84.03183,0
35800,35800,2021-01-21 15:35:33.581,84.00347,0
35810,35810,2021-01-21 15:36:03.581,83.94631,0
35820,35820,2021-01-21 15:36:33.581,83.968124,0
35830,35830,2021-01-21 15:37:03.581,84.00925,0
35840,35840,2021-01-21 15:37:33.581,84.03626,0
35850,35850,2021-01-21 15:38:03.581,84.08546,0
35860,35860,2021-01-21 15:38:33.581,84.04698,0
35870,35870,2021-01-21 15:39:03.581,84.03633,0
35880,35880,2021-01-21 15:39:33.581,82.84239000000001,0
35890,35890,2021-01-21 15:40:03.581,80.77893,0
35900,35900,2021-01-21 15:40:33.581,80.65774499999999,0
35910,35910,2021-01-21 15:41:03.581,80.62399,0
35920,35920,2021-01-21 15:41:33.581,80.69916500000001,0
35930,35930,2021-01-21 15:42:03.581,81.07952,0
35940,35940,2021-01-21 15:42:33.581,81.002884,0
35950,35950,2021-01-21 15:43:03.581,80.98075,0
35960,35960,2021-01-21 15:43:33.581,81.036865,0
35970,35970,2021-01-21 15:44:03.581,81.13234,0
35980,35980,2021-01-21 15:44:33.581,81.05081,0
35990,35990,2021-01-21 15:45:03.581,80.9592,0
36000,36000,2021-01-21 15:45:33.581,81.0447,0
36010,36010,2021-01-21 15:46:03.581,81.01196999999999,0
36020,36020,2021-01-21 15:46:33.581,81.00495,0
36030,36030,2021-01-21 15:47:03.581,81.0459,0
36040,36040,2021-01-21 15:47:33.581,81.097084,0
36050,36050,2021-01-21 15:48:03.581,81.2128,0
36060,36060,2021-01-21 15:48:33.581,81.29945,0
36070,36070,2021-01-21 15:49:03.581,81.35938,0
36080,36080,2021-01-21 15:49:33.581,81.31952,0
36090,36090,2021-01-21 15:50:03.581,81.29853,0
36100,36100,2021-01-21 15:50:33.581,81.25605999999999,0
36110,36110,2021-01-21 15:51:03.581,81.30905,0
36120,36120,2021-01-21 15:51:33.581,81.26778,0
36130,36130,2021-01-21 15:52:03.581,81.94394,0
36140,36140,2021-01-21 15:52:33.581,82.17676999999999,0
36150,36150,2021-01-21 15:53:03.581,82.13866,0
36160,36160,2021-01-21 15:53:33.581,82.07148000000001,0
36170,36170,2021-01-21 15:54:03.581,82.02689000000001,0
36180,36180,2021-01-21 15:54:33.581,81.98289,0
36190,36190,2021-01-21 15:55:03.581,81.993645,0
36200,36200,2021-01-21 15:55:33.581,82.00265,0
36210,36210,2021-01-21 15:56:03.581,81.94631,0
36220,36220,2021-01-21 15:56:33.581,81.968124,0
36230,36230,2021-01-21 15:57:03.581,82.00924,0
36240,36240,2021-01-21 15:57:33.581,82.03626,0
36250,36250,2021-01-21 15:58:03.581,82.08545,0
36260,36260,2021-01-21 15:58:33.581,82.04698,0
36270,36270,2021-01-21 15:59:03.581,82.03634,0
36280,36280,2021-01-21 15:59:33.581,81.9581,0
36290,36290,2021-01-21 16:00:03.581,82.004944,0
36300,36300,2021-01-21 16:00:33.581,81.96651,0
36310,36310,2021-01-21 16:01:03.581,81.95333000000001,0
36320,36320,2021-01-21 16:01:33.581,81.92891999999999,0
36330,36330,2021-01-21 16:02:03.581,81.9291,0
36340,36340,2021-01-21 16:02:33.581,81.95730999999999,0
36350,36350,2021-01-21 16:03:03.581,81.940765,0
36360,36360,2021-01-21 16:03:33.581,81.9695,0
36370,36370,2021-01-21 16:04:03.581,82.03155,0
36380,36380,2021-01-21 16:04:33.581,82.03653,0
36390,36390,2021-01-21 16:05:03.581,82.022865,0
36400,36400,2021-01-21 16:05:33.581,82.01069,0
36410,36410,2021-01-21 16:06:03.581,81.99428,0
36420,36420,2021-01-21 16:06:33.581,82.0,0
36430,36430,2021-01-21 16:07:03.581,82.0,0
36440,36440,2021-01-21 16:07:33.581,82.0,0
36450,36450,2021-01-21 16:08:03.581,82.0,0
36460,36460,2021-01-21 16:08:33.581,82.0,0
36470,36470,2021-01-21 16:09:03.581,82.0,0
36480,36480,2021-01-21 16:09:33.581,82.0,0
36490,36490,2021-01-21 16:10:03.581,82.0,0
36500,36500,2021-01-21 16:10:33.581,82.0,0
36510,36510,2021-01-21 16:11:03.581,82.0,0
36520,36520,2021-01-21 16:11:33.581,82.90458000000001,0
36530,36530,2021-01-21 16:12:03.581,83.02372,0
36540,36540,2021-01-21 16:12:33.581,83.01104000000001,0
36550,36550,2021-01-21 16:13:03.581,82.98181,0
36560,36560,2021-01-21 16:13:33.581,82.948975,0
36570,36570,2021-01-21 16:14:03.581,82.98289,0
36580,36580,2021-01-21 16:14:33.581,82.99364,0
36590,36590,2021-01-21 16:15:03.581,83.002655,0
36600,36600,2021-01-21 16:15:33.581,82.94632,0
36610,36610,2021-01-21 16:16:03.581,82.968124,0
36620,36620,2021-01-21 16:16:33.581,83.00923,0
36630,36630,2021-01-21 16:17:03.581,83.03627,0
36640,36640,2021-01-21 16:17:33.581,83.08545,0
36650,36650,2021-01-21 16:18:03.581,83.04698,0
36660,36660,2021-01-21 16:18:33.581,83.03633,0
36670,36670,2021-01-21 16:19:03.581,82.9581,0
36680,36680,2021-01-21 16:19:33.581,83.00493,0
36690,36690,2021-01-21 16:20:03.581,82.966515,0
36700,36700,2021-01-21 16:20:33.581,81.88588,0
36710,36710,2021-01-21 16:21:03.581,80.765305,0
36720,36720,2021-01-21 16:21:33.581,80.81415,0
36730,36730,2021-01-21 16:22:03.581,80.83256,0
36740,36740,2021-01-21 16:22:33.581,80.073326,0
36750,36750,2021-01-21 16:23:03.581,80.09286999999999,0
36760,36760,2021-01-21 16:23:33.581,80.07396,0
36770,36770,2021-01-21 16:24:03.581,80.062225,0
36780,36780,2021-01-21 16:24:33.581,80.19660999999999,0
36790,36790,2021-01-21 16:25:03.581,80.12974,0
36800,36800,2021-01-21 16:25:33.581,80.04604,0
36810,36810,2021-01-21 16:26:03.581,79.90711,0
36820,36820,2021-01-21 16:26:33.581,79.93585999999999,0
36830,36830,2021-01-21 16:27:03.581,79.97758,0
36840,36840,2021-01-21 16:27:33.581,80.6697,0
36850,36850,2021-01-21 16:28:03.581,80.76664,0
36860,36860,2021-01-21 16:28:33.581,80.80484,0
36870,36870,2021-01-21 16:29:03.581,80.82392,0
36880,36880,2021-01-21 16:29:33.581,80.92219,0
36890,36890,2021-01-21 16:30:03.581,81.034195,0
36900,36900,2021-01-21 16:30:33.581,81.09769399999999,0
36910,36910,2021-01-21 16:31:03.581,81.10178,0
36920,36920,2021-01-21 16:31:33.581,81.17570500000001,0
36930,36930,2021-01-21 16:32:03.581,81.204666,0
36940,36940,2021-01-21 16:32:33.581,81.17426999999999,0
36950,36950,2021-01-21 16:33:03.581,81.14708,0
36960,36960,2021-01-21 16:33:33.581,81.231186,0
36970,36970,2021-01-21 16:34:03.581,81.155785,0
36980,36980,2021-01-21 16:34:33.581,81.16084000000001,0
36990,36990,2021-01-21 16:35:03.581,81.05587,0
37000,37000,2021-01-21 16:35:33.581,81.00843,0
37010,37010,2021-01-21 16:36:03.581,80.96703000000001,0
37020,37020,2021-01-21 16:36:33.581,81.00706,0
37030,37030,2021-01-21 16:37:03.581,80.928925,0
37040,37040,2021-01-21 16:37:33.581,80.9291,0
37050,37050,2021-01-21 16:38:03.581,80.957306,0
37060,37060,2021-01-21 16:38:33.581,80.940765,0
37070,37070,2021-01-21 16:39:03.581,80.9695,0
37080,37080,2021-01-21 16:39:33.581,81.03155,0
37090,37090,2021-01-21 16:40:03.581,81.03653,0
37100,37100,2021-01-21 16:40:33.581,81.022865,0
37110,37110,2021-01-21 16:41:03.581,81.010704,0
37120,37120,2021-01-21 16:41:33.581,81.72965,0
37130,37130,2021-01-21 16:42:03.581,82.02371,0
37140,37140,2021-01-21 16:42:33.581,82.01103,0
37150,37150,2021-01-21 16:43:03.581,81.98181,0
37160,37160,2021-01-21 16:43:33.581,81.94898,0
37170,37170,2021-01-21 16:44:03.581,81.98289,0
37180,37180,2021-01-21 16:44:33.581,81.993645,0
37190,37190,2021-01-21 16:45:03.581,82.00265,0
37200,37200,2021-01-21 16:45:33.581,81.94631,0
37210,37210,2021-01-21 16:46:03.581,81.968124,0
37220,37220,2021-01-21 16:46:33.581,82.00924,0
37230,37230,2021-01-21 16:47:03.581,82.03626,0
37240,37240,2021-01-21 16:47:33.581,82.08545,0
37250,37250,2021-01-21 16:48:03.581,82.04698,0
37260,37260,2021-01-21 16:48:33.581,82.03634,0
37270,37270,2021-01-21 16:49:03.581,81.9581,0
37280,37280,2021-01-21 16:49:33.581,82.004944,0
37290,37290,2021-01-21 16:50:03.581,81.96651,0
37300,37300,2021-01-21 16:50:33.581,81.95333000000001,0
37310,37310,2021-01-21 16:51:03.581,81.92891999999999,0
37320,37320,2021-01-21 16:51:33.581,81.9291,0
37330,37330,2021-01-21 16:52:03.581,81.95730999999999,0
37340,37340,2021-01-21 16:52:33.581,81.940765,0
37350,37350,2021-01-21 16:53:03.581,81.9695,0
37360,37360,2021-01-21 16:53:33.581,82.03155,0
37370,37370,2021-01-21 16:54:03.581,82.03653,0
37380,37380,2021-01-21 16:54:33.581,82.022865,0
37390,37390,2021-01-21 16:55:03.581,82.01069,0
37400,37400,2021-01-21 16:55:33.581,81.99428,0
37410,37410,2021-01-21 16:56:03.581,82.0,0
37420,37420,2021-01-21 16:56:33.581,82.0,0
37430,37430,2021-01-21 16:57:03.581,82.90458000000001,0
37440,37440,2021-01-21 16:57:33.581,83.02372,0
37450,37450,2021-01-21 16:58:03.581,83.01104000000001,0
37460,37460,2021-01-21 16:58:33.581,82.98181,0
37470,37470,2021-01-21 16:59:03.581,82.948975,0
37480,37480,2021-01-21 16:59:33.581,82.98289,0
37490,37490,2021-01-21 17:00:03.581,82.99364,0
37500,37500,2021-01-21 17:00:33.581,83.002655,0
37510,37510,2021-01-21 17:01:03.581,82.94632,0
37520,37520,2021-01-21 17:01:33.581,80.77203,0
37530,37530,2021-01-21 17:02:03.581,80.66358000000001,0
37540,37540,2021-01-21 17:02:33.581,79.84849,0
37550,37550,2021-01-21 17:03:03.581,79.72678,0
37560,37560,2021-01-21 17:03:33.581,79.84933000000001,0
37570,37570,2021-01-21 17:04:03.581,79.77583,0
37580,37580,2021-01-21 17:04:33.581,79.92239000000001,0
37590,37590,2021-01-21 17:05:03.581,79.98470999999999,0
37600,37600,2021-01-21 17:05:33.581,80.02342,0
37610,37610,2021-01-21 17:06:03.581,80.04162600000001,0
37620,37620,2021-01-21 17:06:33.581,80.03999,0
37630,37630,2021-01-21 17:07:03.581,79.95897,0
37640,37640,2021-01-21 17:07:33.581,79.987305,0
37650,37650,2021-01-21 17:08:03.581,80.0175,0
37660,37660,2021-01-21 17:08:33.581,80.12536,0
37670,37670,2021-01-21 17:09:03.581,80.010086,0
37680,37680,2021-01-21 17:09:33.581,80.03636999999999,0
37690,37690,2021-01-21 17:10:03.581,80.14135999999999,0
37700,37700,2021-01-21 17:10:33.581,80.22875,0
37710,37710,2021-01-21 17:11:03.581,80.29291500000001,0
37720,37720,2021-01-21 17:11:33.581,80.3563,0
37730,37730,2021-01-21 17:12:03.581,80.27555,0
37740,37740,2021-01-21 17:12:33.581,80.378456,0
37750,37750,2021-01-21 17:13:03.581,80.27091999999999,0
37760,37760,2021-01-21 17:13:33.581,80.40536999999999,0
37770,37770,2021-01-21 17:14:03.581,80.29007,0
37780,37780,2021-01-21 17:14:33.581,80.3,0
37790,37790,2021-01-21 17:15:03.581,80.2199,0
37800,37800,2021-01-21 17:15:33.581,80.22963,0
37810,37810,2021-01-21 17:16:03.581,80.037285,0
37820,37820,2021-01-21 17:16:33.581,80.05019,0
37830,37830,2021-01-21 17:17:03.581,80.0,0
37840,37840,2021-01-21 17:17:33.581,80.90456999999999,0
37850,37850,2021-01-21 17:18:03.581,81.02372,0
37860,37860,2021-01-21 17:18:33.581,81.01104000000001,0
37870,37870,2021-01-21 17:19:03.581,80.98183,0
37880,37880,2021-01-21 17:19:33.581,80.948975,0
37890,37890,2021-01-21 17:20:03.581,80.98289,0
37900,37900,2021-01-21 17:20:33.581,80.99364,0
37910,37910,2021-01-21 17:21:03.581,81.00264,0
37920,37920,2021-01-21 17:21:33.581,80.94632,0
37930,37930,2021-01-21 17:22:03.581,80.968124,0
37940,37940,2021-01-21 17:22:33.581,81.00925,0
37950,37950,2021-01-21 17:23:03.581,81.03626,0
37960,37960,2021-01-21 17:23:33.581,81.08545,0
37970,37970,2021-01-21 17:24:03.581,81.04699000000001,0
37980,37980,2021-01-21 17:24:33.581,81.03633,0
37990,37990,2021-01-21 17:25:03.581,80.95810999999999,0
38000,38000,2021-01-21 17:25:33.581,81.00494,0
38010,38010,2021-01-21 17:26:03.581,80.966515,0
38020,38020,2021-01-21 17:26:33.581,80.95333000000001,0
38030,38030,2021-01-21 17:27:03.581,80.928925,0
38040,38040,2021-01-21 17:27:33.581,80.9291,0
38050,38050,2021-01-21 17:28:03.581,80.957306,0
38060,38060,2021-01-21 17:28:33.581,80.940765,0
38070,38070,2021-01-21 17:29:03.581,80.9695,0
38080,38080,2021-01-21 17:29:33.581,81.03155,0
38090,38090,2021-01-21 17:30:03.581,81.03653,0
38100,38100,2021-01-21 17:30:33.581,81.022865,0
38110,38110,2021-01-21 17:31:03.581,81.010704,0
38120,38120,2021-01-21 17:31:33.581,80.99428,0
38130,38130,2021-01-21 17:32:03.581,81.0,0
38140,38140,2021-01-21 17:32:33.581,81.0,0
38150,38150,2021-01-21 17:33:03.581,81.0,0
38160,38160,2021-01-21 17:33:33.581,81.0,0
38170,38170,2021-01-21 17:34:03.581,81.0,0
38180,38180,2021-01-21 17:34:33.581,81.0,0
38190,38190,2021-01-21 17:35:03.581,81.0,0
38200,38200,2021-01-21 17:35:33.581,81.0,0
38210,38210,2021-01-21 17:36:03.581,81.0,0
38220,38220,2021-01-21 17:36:33.581,81.0,0
38230,38230,2021-01-21 17:37:03.581,81.0,0
38240,38240,2021-01-21 17:37:33.581,81.0,0
38250,38250,2021-01-21 17:38:03.581,81.0,0
38260,38260,2021-01-21 17:38:33.581,81.0,0
38270,38270,2021-01-21 17:39:03.581,81.0,0
38280,38280,2021-01-21 17:39:33.581,81.0,0
38290,38290,2021-01-21 17:40:03.581,79.9785,0
38300,38300,2021-01-21 17:40:33.581,78.89506,0
38310,38310,2021-01-21 17:41:03.581,78.867836,0
38320,38320,2021-01-21 17:41:33.581,78.8102,0
38330,38330,2021-01-21 17:42:03.581,78.89560999999999,0
38340,38340,2021-01-21 17:42:33.581,79.04176,0
38350,38350,2021-01-21 17:43:03.581,78.98749000000001,0
38360,38360,2021-01-21 17:43:33.581,78.968575,0
38370,38370,2021-01-21 17:44:03.581,78.98562,0
38380,38380,2021-01-21 17:44:33.581,79.02643,0
38390,38390,2021-01-21 17:45:03.581,78.990425,0
38400,38400,2021-01-21 17:45:33.581,78.92356,0
38410,38410,2021-01-21 17:46:03.581,78.96295,0
38420,38420,2021-01-21 17:46:33.581,78.97497,0
38430,38430,2021-01-21 17:47:03.581,79.00265999999999,0
38440,38440,2021-01-21 17:47:33.581,79.03538,0
38450,38450,2021-01-21 17:48:03.581,79.07568,0
38460,38460,2021-01-21 17:48:33.581,79.1619,0
38470,38470,2021-01-21 17:49:03.581,79.21902,0
38480,38480,2021-01-21 17:49:33.581,79.23344399999999,0
38490,38490,2021-01-21 17:50:03.581,79.2135,0
38500,38500,2021-01-21 17:50:33.581,79.19313000000001,0
38510,38510,2021-01-21 17:51:03.581,79.19277,0
38520,38520,2021-01-21 17:51:33.581,79.19466,0
38530,38530,2021-01-21 17:52:03.581,79.20607,0
38540,38540,2021-01-21 17:52:33.581,79.237915,0
38550,38550,2021-01-21 17:53:03.581,79.20806,0
38560,38560,2021-01-21 17:53:33.581,79.138,0
38570,38570,2021-01-21 17:54:03.581,79.11111,0
38580,38580,2021-01-21 17:54:33.581,79.05019,0
38590,38590,2021-01-21 17:55:03.581,79.0,0
38600,38600,2021-01-21 17:55:33.581,79.0,0
38610,38610,2021-01-21 17:56:03.581,79.0,0
38620,38620,2021-01-21 17:56:33.581,79.0,0
38630,38630,2021-01-21 17:57:03.581,79.0,0
38640,38640,2021-01-21 17:57:33.581,79.0,0
38650,38650,2021-01-21 17:58:03.581,79.0,0
38660,38660,2021-01-21 17:58:33.581,79.0,0
38670,38670,2021-01-21 17:59:03.581,79.0,0
38680,38680,2021-01-21 17:59:33.581,79.0,0
38690,38690,2021-01-21 18:00:03.581,79.0,0
38700,38700,2021-01-21 18:00:33.581,79.90458000000001,0
38710,38710,2021-01-21 18:01:03.581,80.02371,0
38720,38720,2021-01-21 18:01:33.581,80.01103,0
38730,38730,2021-01-21 18:02:03.581,79.98181,0
38740,38740,2021-01-21 18:02:33.581,79.94896999999999,0
38750,38750,2021-01-21 18:03:03.581,79.982895,0
38760,38760,2021-01-21 18:03:33.581,79.99363000000001,0
38770,38770,2021-01-21 18:04:03.581,80.00265,0
38780,38780,2021-01-21 18:04:33.581,79.94631,0
38790,38790,2021-01-21 18:05:03.581,79.96812,0
38800,38800,2021-01-21 18:05:33.581,80.00925,0
38810,38810,2021-01-21 18:06:03.581,80.03626,0
38820,38820,2021-01-21 18:06:33.581,80.08546,0
38830,38830,2021-01-21 18:07:03.581,80.04698,0
38840,38840,2021-01-21 18:07:33.581,80.03634,0
38850,38850,2021-01-21 18:08:03.581,79.95810999999999,0
38860,38860,2021-01-21 18:08:33.581,80.00494,0
38870,38870,2021-01-21 18:09:03.581,79.966515,0
38880,38880,2021-01-21 18:09:33.581,79.95333000000001,0
38890,38890,2021-01-21 18:10:03.581,79.928925,0
38900,38900,2021-01-21 18:10:33.581,79.92909,0
38910,38910,2021-01-21 18:11:03.581,79.95730999999999,0
38920,38920,2021-01-21 18:11:33.581,79.940765,0
38930,38930,2021-01-21 18:12:03.581,79.9695,0
38940,38940,2021-01-21 18:12:33.581,80.03155,0
38950,38950,2021-01-21 18:13:03.581,80.03652,0
38960,38960,2021-01-21 18:13:33.581,80.022865,0
38970,38970,2021-01-21 18:14:03.581,80.0107,0
38980,38980,2021-01-21 18:14:33.581,79.99429,0
38990,38990,2021-01-21 18:15:03.581,80.0,0
39000,39000,2021-01-21 18:15:33.581,80.0,0
39010,39010,2021-01-21 18:16:03.581,80.0,0
39020,39020,2021-01-21 18:16:33.581,80.0,0
39030,39030,2021-01-21 18:17:03.581,77.95699,0
39040,39040,2021-01-21 18:17:33.581,77.82263,0
39050,39050,2021-01-21 18:18:03.581,77.84172,0
39060,39060,2021-01-21 18:18:33.581,77.77673,0
39070,39070,2021-01-21 18:19:03.581,77.23666999999999,0
39080,39080,2021-01-21 18:19:33.581,77.0906,0
39090,39090,2021-01-21 18:20:03.581,77.05313000000001,0
39100,39100,2021-01-21 18:20:33.581,77.06866,0
39110,39110,2021-01-21 18:21:03.581,77.701546,0
39120,39120,2021-01-21 18:21:33.581,77.7784,0
39130,39130,2021-01-21 18:22:03.581,77.67519,0
39140,39140,2021-01-21 18:22:33.581,77.67871,0
39150,39150,2021-01-21 18:23:03.581,77.87169,0
39160,39160,2021-01-21 18:23:33.581,77.9717,0
39170,39170,2021-01-21 18:24:03.581,77.95349,0
39180,39180,2021-01-21 18:24:33.581,77.93200999999999,0
39190,39190,2021-01-21 18:25:03.581,78.0211,0
39200,39200,2021-01-21 18:25:33.581,78.11397,0
39210,39210,2021-01-21 18:26:03.581,78.14811999999999,0
39220,39220,2021-01-21 18:26:33.581,78.19277,0
39230,39230,2021-01-21 18:27:03.581,78.15338,0
39240,39240,2021-01-21 18:27:33.581,78.191124,0
39250,39250,2021-01-21 18:28:03.581,78.24996,0
39260,39260,2021-01-21 18:28:33.581,78.109024,0
39270,39270,2021-01-21 18:29:03.581,78.21979499999999,0
39280,39280,2021-01-21 18:29:33.581,78.13894,0
39290,39290,2021-01-21 18:30:03.581,78.04239,0
39300,39300,2021-01-21 18:30:33.581,78.01714,0
39310,39310,2021-01-21 18:31:03.581,78.08618,0
39320,39320,2021-01-21 18:31:33.581,77.97737,0
39330,39330,2021-01-21 18:32:03.581,77.92231,0
39340,39340,2021-01-21 18:32:33.581,77.85556,0
39350,39350,2021-01-21 18:33:03.581,77.94745999999999,0
39360,39360,2021-01-21 18:33:33.581,78.03653,0
39370,39370,2021-01-21 18:34:03.581,78.02286,0
39380,39380,2021-01-21 18:34:33.581,78.0107,0
39390,39390,2021-01-21 18:35:03.581,77.99428,0
39400,39400,2021-01-21 18:35:33.581,78.0,0
39410,39410,2021-01-21 18:36:03.581,78.0,0
39420,39420,2021-01-21 18:36:33.581,78.0,0
39430,39430,2021-01-21 18:37:03.581,78.0,0
39440,39440,2021-01-21 18:37:33.581,78.0,0
39450,39450,2021-01-21 18:38:03.581,78.0,0
39460,39460,2021-01-21 18:38:33.581,78.0,0
39470,39470,2021-01-21 18:39:03.581,78.0,0
39480,39480,2021-01-21 18:39:33.581,78.0,0
39490,39490,2021-01-21 18:40:03.581,78.0,0
39500,39500,2021-01-21 18:40:33.581,78.0,0
39510,39510,2021-01-21 18:41:03.581,78.90458000000001,0
39520,39520,2021-01-21 18:41:33.581,79.02372,0
39530,39530,2021-01-21 18:42:03.581,79.01103,0
39540,39540,2021-01-21 18:42:33.581,78.98182,0
39550,39550,2021-01-21 18:43:03.581,78.948975,0
39560,39560,2021-01-21 18:43:33.581,78.98288000000001,0
39570,39570,2021-01-21 18:44:03.581,78.993645,0
39580,39580,2021-01-21 18:44:33.581,79.00265,0
39590,39590,2021-01-21 18:45:03.581,78.94632,0
39600,39600,2021-01-21 18:45:33.581,78.96812,0
39610,39610,2021-01-21 18:46:03.581,79.00924,0
39620,39620,2021-01-21 18:46:33.581,79.03626,0
39630,39630,2021-01-21 18:47:03.581,79.08546,0
39640,39640,2021-01-21 18:47:33.581,79.04699000000001,0
39650,39650,2021-01-21 18:48:03.581,79.03634,0
39660,39660,2021-01-21 18:48:33.581,78.9581,0
39670,39670,2021-01-21 18:49:03.581,79.00494,0
39680,39680,2021-01-21 18:49:33.581,78.96651,0
39690,39690,2021-01-21 18:50:03.581,78.95331999999999,0
39700,39700,2021-01-21 18:50:33.581,78.928925,0
39710,39710,2021-01-21 18:51:03.581,78.9291,0
39720,39720,2021-01-21 18:51:33.581,78.95730999999999,0
39730,39730,2021-01-21 18:52:03.581,78.940765,0
39740,39740,2021-01-21 18:52:33.581,78.96949000000001,0
39750,39750,2021-01-21 18:53:03.581,79.03155500000001,0
39760,39760,2021-01-21 18:53:33.581,77.129524,0
39770,39770,2021-01-21 18:54:03.581,76.94065,0
39780,39780,2021-01-21 18:54:33.581,76.87419,0
39790,39790,2021-01-21 18:55:03.581,76.73536999999999,0
39800,39800,2021-01-21 18:55:33.581,76.236664,0
39810,39810,2021-01-21 18:56:03.581,76.0906,0
39820,39820,2021-01-21 18:56:33.581,76.05314,0
39830,39830,2021-01-21 18:57:03.581,76.06866,0
39840,39840,2021-01-21 18:57:33.581,76.17750500000001,0
39850,39850,2021-01-21 18:58:03.581,76.09819,0
39860,39860,2021-01-21 18:58:33.581,76.499,0
39870,39870,2021-01-21 18:59:03.581,76.626526,0
39880,39880,2021-01-21 18:59:33.581,76.85351999999999,0
39890,39890,2021-01-21 19:00:03.581,76.90001,0
39900,39900,2021-01-21 19:00:33.581,76.82776,0
39910,39910,2021-01-21 19:01:03.581,76.835175,0
39920,39920,2021-01-21 19:01:33.581,76.967384,0
39930,39930,2021-01-21 19:02:03.581,77.05374,0
39940,39940,2021-01-21 19:02:33.581,77.13793000000001,0
39950,39950,2021-01-21 19:03:03.581,77.16415400000001,0
39960,39960,2021-01-21 19:03:33.581,77.09344,0
39970,39970,2021-01-21 19:04:03.581,77.132935,0
39980,39980,2021-01-21 19:04:33.581,77.24662,0
39990,39990,2021-01-21 19:05:03.581,77.16133,0
40000,40000,2021-01-21 19:05:33.581,77.22395999999999,0
40010,40010,2021-01-21 19:06:03.581,77.1295,0
40020,40020,2021-01-21 19:06:33.581,77.09418000000001,0
40030,40030,2021-01-21 19:07:03.581,77.02479,0
40040,40040,2021-01-21 19:07:33.581,77.13516,0
40050,40050,2021-01-21 19:08:03.581,76.97879,0
40060,40060,2021-01-21 19:08:33.581,76.9857,0
40070,40070,2021-01-21 19:09:03.581,76.88745,0
40080,40080,2021-01-21 19:09:33.581,76.882706,0
40090,40090,2021-01-21 19:10:03.581,76.9695,0
40100,40100,2021-01-21 19:10:33.581,77.03155,0
40110,40110,2021-01-21 19:11:03.581,77.03653,0
40120,40120,2021-01-21 19:11:33.581,77.02286,0
40130,40130,2021-01-21 19:12:03.581,77.0107,0
40140,40140,2021-01-21 19:12:33.581,76.994286,0
40150,40150,2021-01-21 19:13:03.581,77.0,0
40160,40160,2021-01-21 19:13:33.581,77.0,0
40170,40170,2021-01-21 19:14:03.581,77.0,0
40180,40180,2021-01-21 19:14:33.581,77.0,0
40190,40190,2021-01-21 19:15:03.581,77.0,0
40200,40200,2021-01-21 19:15:33.581,77.0,0
40210,40210,2021-01-21 19:16:03.581,77.0,0
40220,40220,2021-01-21 19:16:33.581,77.0,0
40230,40230,2021-01-21 19:17:03.581,77.0,0
40240,40240,2021-01-21 19:17:33.581,77.0,0
40250,40250,2021-01-21 19:18:03.581,77.0,0
40260,40260,2021-01-21 19:18:33.581,77.0,0
40270,40270,2021-01-21 19:19:03.581,77.0,0
40280,40280,2021-01-21 19:19:33.581,77.0,0
40290,40290,2021-01-21 19:20:03.581,77.0,0
40300,40300,2021-01-21 19:20:33.581,77.0,0
40310,40310,2021-01-21 19:21:03.581,77.0,0
40320,40320,2021-01-21 19:21:33.581,77.0,0
40330,40330,2021-01-21 19:22:03.581,77.0,0
40340,40340,2021-01-21 19:22:33.581,77.0,0
40350,40350,2021-01-21 19:23:03.581,77.90458000000001,0
40360,40360,2021-01-21 19:23:33.581,78.02372,0
40370,40370,2021-01-21 19:24:03.581,78.01104000000001,0
40380,40380,2021-01-21 19:24:33.581,77.98182,0
40390,40390,2021-01-21 19:25:03.581,77.948975,0
40400,40400,2021-01-21 19:25:33.581,77.982895,0
40410,40410,2021-01-21 19:26:03.581,77.99364,0
40420,40420,2021-01-21 19:26:33.581,78.00264,0
40430,40430,2021-01-21 19:27:03.581,77.94633,0
40440,40440,2021-01-21 19:27:33.581,77.96812,0
40450,40450,2021-01-21 19:28:03.581,75.79998,0
40460,40460,2021-01-21 19:28:33.581,74.71395,0
40470,40470,2021-01-21 19:29:03.581,74.77624499999999,0
40480,40480,2021-01-21 19:29:33.581,74.6397,0
40490,40490,2021-01-21 19:30:03.581,74.73076,0
40500,40500,2021-01-21 19:30:33.581,74.86663,0
40510,40510,2021-01-21 19:31:03.581,74.96314,0
40520,40520,2021-01-21 19:31:33.581,74.914375,0
40530,40530,2021-01-21 19:32:03.581,74.97906,0
40540,40540,2021-01-21 19:32:33.581,75.09037,0
40550,40550,2021-01-21 19:33:03.581,75.0592,0
40560,40560,2021-01-21 19:33:33.581,74.90475500000001,0
40570,40570,2021-01-21 19:34:03.581,74.97599,0
40580,40580,2021-01-21 19:34:33.581,75.03416,0
40590,40590,2021-01-21 19:35:03.581,75.11936999999999,0
40600,40600,2021-01-21 19:35:33.581,75.00949,0
40610,40610,2021-01-21 19:36:03.581,74.99559,0
40620,40620,2021-01-21 19:36:33.581,75.16067,0
40630,40630,2021-01-21 19:37:03.581,75.2843,0
40640,40640,2021-01-21 19:37:33.581,75.33714,0
40650,40650,2021-01-21 19:38:03.581,75.80966,0
40660,40660,2021-01-21 19:38:33.581,75.91102,0
40670,40670,2021-01-21 19:39:03.581,75.91295,0
40680,40680,2021-01-21 19:39:33.581,75.89976999999999,0
40690,40690,2021-01-21 19:40:03.581,76.030136,0
40700,40700,2021-01-21 19:40:33.581,76.14865,0
40710,40710,2021-01-21 19:41:03.581,76.234474,0
40720,40720,2021-01-21 19:41:33.581,76.14209,0
40730,40730,2021-01-21 19:42:03.581,76.05349,0
40740,40740,2021-01-21 19:42:33.581,75.94693000000001,0
40750,40750,2021-01-21 19:43:03.581,76.00924,0
40760,40760,2021-01-21 19:43:33.581,76.03626,0
40770,40770,2021-01-21 19:44:03.581,76.08545,0
40780,40780,2021-01-21 19:44:33.581,76.04698,0
40790,40790,2021-01-21 19:45:03.581,76.03634,0
40800,40800,2021-01-21 19:45:33.581,75.9581,0
40810,40810,2021-01-21 19:46:03.581,76.00494,0
40820,40820,2021-01-21 19:46:33.581,75.96651,0
40830,40830,2021-01-21 19:47:03.581,75.95333000000001,0
40840,40840,2021-01-21 19:47:33.581,75.928925,0
40850,40850,2021-01-21 19:48:03.581,75.92909,0
40860,40860,2021-01-21 19:48:33.581,75.95730999999999,0
40870,40870,2021-01-21 19:49:03.581,75.940765,0
40880,40880,2021-01-21 19:49:33.581,75.96949000000001,0
40890,40890,2021-01-21 19:50:03.581,76.03155,0
40900,40900,2021-01-21 19:50:33.581,76.03652,0
40910,40910,2021-01-21 19:51:03.581,76.022865,0
40920,40920,2021-01-21 19:51:33.581,76.010704,0
40930,40930,2021-01-21 19:52:03.581,75.994286,0
40940,40940,2021-01-21 19:52:33.581,76.90456999999999,0
40950,40950,2021-01-21 19:53:03.581,77.02372,0
40960,40960,2021-01-21 19:53:33.581,77.011024,0
40970,40970,2021-01-21 19:54:03.581,76.98182,0
40980,40980,2021-01-21 19:54:33.581,76.94896999999999,0
40990,40990,2021-01-21 19:55:03.581,76.98289,0
41000,41000,2021-01-21 19:55:33.581,76.99364,0
41010,41010,2021-01-21 19:56:03.581,77.00264,0
41020,41020,2021-01-21 19:56:33.581,76.94631,0
41030,41030,2021-01-21 19:57:03.581,76.968124,0
41040,41040,2021-01-21 19:57:33.581,77.00924,0
41050,41050,2021-01-21 19:58:03.581,77.92905400000001,0
41060,41060,2021-01-21 19:58:33.581,78.07184000000001,0
41070,41070,2021-01-21 19:59:03.581,78.02474000000001,0
41080,41080,2021-01-21 19:59:33.581,78.063156,0
41090,41090,2021-01-21 20:00:03.581,78.02239,0
41100,41100,2021-01-21 20:00:33.581,78.08078,0
41110,41110,2021-01-21 20:01:03.581,78.02205,0
41120,41120,2021-01-21 20:01:33.581,78.05126,0
41130,41130,2021-01-21 20:02:03.581,78.03093,0
41140,41140,2021-01-21 20:02:33.581,78.041214,0
41150,41150,2021-01-21 20:03:03.581,78.08386,0
41160,41160,2021-01-21 20:03:33.581,78.10873000000001,0
41170,41170,2021-01-21 20:04:03.581,78.136475,0
41180,41180,2021-01-21 20:04:33.581,78.097664,0
41190,41190,2021-01-21 20:05:03.581,77.99327,0
41200,41200,2021-01-21 20:05:33.581,77.97954,0
41210,41210,2021-01-21 20:06:03.581,78.05068,0
41220,41220,2021-01-21 20:06:33.581,77.931175,0
41230,41230,2021-01-21 20:07:03.581,78.869736,0
41240,41240,2021-01-21 20:07:33.581,78.9955,0
41250,41250,2021-01-21 20:08:03.581,78.95175,0
41260,41260,2021-01-21 20:08:33.581,78.933914,0
41270,41270,2021-01-21 20:09:03.581,78.94495,0
41280,41280,2021-01-21 20:09:33.581,79.02428,0
41290,41290,2021-01-21 20:10:03.581,79.077,0
41300,41300,2021-01-21 20:10:33.581,79.08659,0
41310,41310,2021-01-21 20:11:03.581,79.06183,0
41320,41320,2021-01-21 20:11:33.581,79.081795,0
41330,41330,2021-01-21 20:12:03.581,79.01932,0
41340,41340,2021-01-21 20:12:33.581,79.03626,0
41350,41350,2021-01-21 20:13:03.581,79.08546,0
41360,41360,2021-01-21 20:13:33.581,79.04699000000001,0
41370,41370,2021-01-21 20:14:03.581,79.03634,0
41380,41380,2021-01-21 20:14:33.581,78.9581,0
41390,41390,2021-01-21 20:15:03.581,79.00494,0
41400,41400,2021-01-21 20:15:33.581,79.87613,0
41410,41410,2021-01-21 20:16:03.581,80.04148,0
41420,41420,2021-01-21 20:16:33.581,79.98286,0
41430,41430,2021-01-21 20:17:03.581,79.98069,0
41440,41440,2021-01-21 20:17:33.581,79.90742,0
41450,41450,2021-01-21 20:18:03.581,80.00393000000001,0
41460,41460,2021-01-21 20:18:33.581,77.98311600000001,0
41470,41470,2021-01-21 20:19:03.581,77.783936,0
41480,41480,2021-01-21 20:19:33.581,77.67896999999999,0
41490,41490,2021-01-21 20:20:03.581,77.73514,0
41500,41500,2021-01-21 20:20:33.581,77.86516999999999,0
41510,41510,2021-01-21 20:21:03.581,77.87482,0
41520,41520,2021-01-21 20:21:33.581,77.95586,0
41530,41530,2021-01-21 20:22:03.581,77.85811,0
41540,41540,2021-01-21 20:22:33.581,77.95515999999999,0
41550,41550,2021-01-21 20:23:03.581,77.96064,0
41560,41560,2021-01-21 20:23:33.581,77.97522,0
41570,41570,2021-01-21 20:24:03.581,77.9327,0
41580,41580,2021-01-21 20:24:33.581,77.987656,0
41590,41590,2021-01-21 20:25:03.581,78.06878,0
41600,41600,2021-01-21 20:25:33.581,78.07503,0
41610,41610,2021-01-21 20:26:03.581,78.04348,0
41620,41620,2021-01-21 20:26:33.581,77.992195,0
41630,41630,2021-01-21 20:27:03.581,78.05122,0
41640,41640,2021-01-21 20:27:33.581,78.09064000000001,0
41650,41650,2021-01-21 20:28:03.581,78.0811,0
41660,41660,2021-01-21 20:28:33.581,78.1052,0
41670,41670,2021-01-21 20:29:03.581,78.02193,0
41680,41680,2021-01-21 20:29:33.581,78.11263000000001,0
41690,41690,2021-01-21 20:30:03.581,78.11901,0
41700,41700,2021-01-21 20:30:33.581,78.241196,0
41710,41710,2021-01-21 20:31:03.581,78.223946,0
41720,41720,2021-01-21 20:31:33.581,78.925896,0
41730,41730,2021-01-21 20:32:03.581,78.96114,0
41740,41740,2021-01-21 20:32:33.581,79.075096,0
41750,41750,2021-01-21 20:33:03.581,78.98182,0
41760,41760,2021-01-21 20:33:33.581,78.948975,0
41770,41770,2021-01-21 20:34:03.581,78.98288000000001,0
41780,41780,2021-01-21 20:34:33.581,78.993645,0
41790,41790,2021-01-21 20:35:03.581,79.00265,0
41800,41800,2021-01-21 20:35:33.581,78.94632,0
41810,41810,2021-01-21 20:36:03.581,78.96812,0
41820,41820,2021-01-21 20:36:33.581,79.00924,0
41830,41830,2021-01-21 20:37:03.581,79.03626,0
41840,41840,2021-01-21 20:37:33.581,79.08546,0
41850,41850,2021-01-21 20:38:03.581,79.04699000000001,0
41860,41860,2021-01-21 20:38:33.581,79.03634,0
41870,41870,2021-01-21 20:39:03.581,78.9581,0
41880,41880,2021-01-21 20:39:33.581,79.00494,0
41890,41890,2021-01-21 20:40:03.581,79.87613,0
41900,41900,2021-01-21 20:40:33.581,80.04148,0
41910,41910,2021-01-21 20:41:03.581,79.98286,0
41920,41920,2021-01-21 20:41:33.581,79.98069,0
41930,41930,2021-01-21 20:42:03.581,79.90742,0
41940,41940,2021-01-21 20:42:33.581,80.00393000000001,0
41950,41950,2021-01-21 20:43:03.581,80.04521,0
41960,41960,2021-01-21 20:43:33.581,80.101295,0
41970,41970,2021-01-21 20:44:03.581,80.07401999999999,0
41980,41980,2021-01-21 20:44:33.581,80.09515,0
41990,41990,2021-01-21 20:45:03.581,80.1181,0
42000,42000,2021-01-21 20:45:33.581,80.05503,0
42010,42010,2021-01-21 20:46:03.581,80.08546,0
42020,42020,2021-01-21 20:46:33.581,80.04698,0
42030,42030,2021-01-21 20:47:03.581,80.03634,0
42040,42040,2021-01-21 20:47:33.581,79.95810999999999,0
42050,42050,2021-01-21 20:48:03.581,80.00494,0
42060,42060,2021-01-21 20:48:33.581,80.87613,0
42070,42070,2021-01-21 20:49:03.581,81.04148,0
42080,42080,2021-01-21 20:49:33.581,80.98284,0
42090,42090,2021-01-21 20:50:03.581,80.98068,0
42100,42100,2021-01-21 20:50:33.581,80.90743,0
42110,42110,2021-01-21 20:51:03.581,81.00393000000001,0
42120,42120,2021-01-21 20:51:33.581,81.04521,0
42130,42130,2021-01-21 20:52:03.581,81.10129,0
42140,42140,2021-01-21 20:52:33.581,81.07403000000001,0
42150,42150,2021-01-21 20:53:03.581,81.095146,0
42160,42160,2021-01-21 20:53:33.581,81.118095,0
42170,42170,2021-01-21 20:54:03.581,81.05503,0
42180,42180,2021-01-21 20:54:33.581,81.08545,0
42190,42190,2021-01-21 20:55:03.581,81.04699000000001,0
42200,42200,2021-01-21 20:55:33.581,81.03633,0
42210,42210,2021-01-21 20:56:03.581,80.95810999999999,0
42220,42220,2021-01-21 20:56:33.581,81.00494,0
42230,42230,2021-01-21 20:57:03.581,81.87614,0
42240,42240,2021-01-21 20:57:33.581,82.04148,0
42250,42250,2021-01-21 20:58:03.581,81.98285,0
42260,42260,2021-01-21 20:58:33.581,81.980675,0
42270,42270,2021-01-21 20:59:03.581,81.907425,0
42280,42280,2021-01-21 20:59:33.581,82.00393000000001,0
42290,42290,2021-01-21 21:00:03.581,82.04521,0
42300,42300,2021-01-21 21:00:33.581,82.10129,0
42310,42310,2021-01-21 21:01:03.581,82.07403599999999,0
42320,42320,2021-01-21 21:01:33.581,82.09515,0
42330,42330,2021-01-21 21:02:03.581,82.11809000000001,0
42340,42340,2021-01-21 21:02:33.581,82.05502,0
42350,42350,2021-01-21 21:03:03.581,82.08545,0
42360,42360,2021-01-21 21:03:33.581,82.04698,0
42370,42370,2021-01-21 21:04:03.581,82.03634,0
42380,42380,2021-01-21 21:04:33.581,81.9581,0
42390,42390,2021-01-21 21:05:03.581,82.004944,0
42400,42400,2021-01-21 21:05:33.581,82.87614,0
42410,42410,2021-01-21 21:06:03.581,83.04148,0
42420,42420,2021-01-21 21:06:33.581,82.98286,0
42430,42430,2021-01-21 21:07:03.581,82.98068,0
42440,42440,2021-01-21 21:07:33.581,82.907425,0
42450,42450,2021-01-21 21:08:03.581,83.00393000000001,0
42460,42460,2021-01-21 21:08:33.581,83.04521,0
42470,42470,2021-01-21 21:09:03.581,83.101295,0
42480,42480,2021-01-21 21:09:33.581,83.07403000000001,0
42490,42490,2021-01-21 21:10:03.581,83.095146,0
42500,42500,2021-01-21 21:10:33.581,83.118095,0
42510,42510,2021-01-21 21:11:03.581,83.05502,0
42520,42520,2021-01-21 21:11:33.581,83.08545,0
42530,42530,2021-01-21 21:12:03.581,83.04698,0
42540,42540,2021-01-21 21:12:33.581,83.03633,0
42550,42550,2021-01-21 21:13:03.581,82.9581,0
42560,42560,2021-01-21 21:13:33.581,83.00493,0
42570,42570,2021-01-21 21:14:03.581,82.966515,0
42580,42580,2021-01-21 21:14:33.581,82.95333000000001,0
42590,42590,2021-01-21 21:15:03.581,82.92891999999999,0
42600,42600,2021-01-21 21:15:33.581,82.9291,0
42610,42610,2021-01-21 21:16:03.581,82.95732,0
42620,42620,2021-01-21 21:16:33.581,82.94077,0
42630,42630,2021-01-21 21:17:03.581,82.96949000000001,0
42640,42640,2021-01-21 21:17:33.581,82.18921999999999,0
42650,42650,2021-01-21 21:18:03.581,82.05239,0
42660,42660,2021-01-21 21:18:33.581,81.1006,0
42670,42670,2021-01-21 21:19:03.581,80.86534,0
42680,42680,2021-01-21 21:19:33.581,80.91843399999999,0
42690,42690,2021-01-21 21:20:03.581,80.96991,0
42700,42700,2021-01-21 21:20:33.581,81.04984,0
42710,42710,2021-01-21 21:21:03.581,81.00412,0
42720,42720,2021-01-21 21:21:33.581,81.03846999999999,0
42730,42730,2021-01-21 21:22:03.581,81.00264,0
42740,42740,2021-01-21 21:22:33.581,80.98530600000001,0
42750,42750,2021-01-21 21:23:03.581,80.96432,0
42760,42760,2021-01-21 21:23:33.581,80.95648,0
42770,42770,2021-01-21 21:24:03.581,81.71,0
42780,42780,2021-01-21 21:24:33.581,81.90439599999999,0
42790,42790,2021-01-21 21:25:03.581,81.80326,0
42800,42800,2021-01-21 21:25:33.581,81.76878,0
42810,42810,2021-01-21 21:26:03.581,81.79165,0
42820,42820,2021-01-21 21:26:33.581,81.8533,0
42830,42830,2021-01-21 21:27:03.581,81.96141,0
42840,42840,2021-01-21 21:27:33.581,81.97975,0
42850,42850,2021-01-21 21:28:03.581,82.00392,0
42860,42860,2021-01-21 21:28:33.581,82.00567,0
42870,42870,2021-01-21 21:29:03.581,81.95824,0
42880,42880,2021-01-21 21:29:33.581,81.99049000000001,0
42890,42890,2021-01-21 21:30:03.581,82.07513,0
42900,42900,2021-01-21 21:30:33.581,82.109406,0
42910,42910,2021-01-21 21:31:03.581,82.09007,0
42920,42920,2021-01-21 21:31:33.581,82.02956999999999,0
42930,42930,2021-01-21 21:32:03.581,81.98833499999999,0
42940,42940,2021-01-21 21:32:33.581,82.02079,0
42950,42950,2021-01-21 21:33:03.581,81.95333000000001,0
42960,42960,2021-01-21 21:33:33.581,81.92891999999999,0
42970,42970,2021-01-21 21:34:03.581,81.9291,0
42980,42980,2021-01-21 21:34:33.581,81.95730999999999,0
42990,42990,2021-01-21 21:35:03.581,81.940765,0
43000,43000,2021-01-21 21:35:33.581,82.69234499999999,0
43010,43010,2021-01-21 21:36:03.581,82.94775,0
43020,43020,2021-01-21 21:36:33.581,82.941414,0
43030,43030,2021-01-21 21:37:03.581,82.9173,0
43040,43040,2021-01-21 21:37:33.581,82.93415,0
43050,43050,2021-01-21 21:38:03.581,82.97918,0
43060,43060,2021-01-21 21:38:33.581,82.99364,0
43070,43070,2021-01-21 21:39:03.581,83.002655,0
43080,43080,2021-01-21 21:39:33.581,82.94632,0
43090,43090,2021-01-21 21:40:03.581,82.968124,0
43100,43100,2021-01-21 21:40:33.581,83.00923,0
43110,43110,2021-01-21 21:41:03.581,83.03627,0
43120,43120,2021-01-21 21:41:33.581,83.08545,0
43130,43130,2021-01-21 21:42:03.581,83.04698,0
43140,43140,2021-01-21 21:42:33.581,83.03633,0
43150,43150,2021-01-21 21:43:03.581,82.9581,0
43160,43160,2021-01-21 21:43:33.581,83.00493,0
43170,43170,2021-01-21 21:44:03.581,82.966515,0
43180,43180,2021-01-21 21:44:33.581,82.95333000000001,0
43190,43190,2021-01-21 21:45:03.581,82.92891999999999,0
43200,43200,2021-01-21 21:45:33.581,82.9291,0
43210,43210,2021-01-21 21:46:03.581,82.95732,0
43220,43220,2021-01-21 21:46:33.581,83.665146,0
43230,43230,2021-01-21 21:47:03.581,83.94187,0
43240,43240,2021-01-21 21:47:33.581,84.03276,0
43250,43250,2021-01-21 21:48:03.581,83.9351,0
43260,43260,2021-01-21 21:48:33.581,83.92326,0
43270,43270,2021-01-21 21:49:03.581,83.98916,0
43280,43280,2021-01-21 21:49:33.581,84.003235,0
43290,43290,2021-01-21 21:50:03.581,84.00265,0
43300,43300,2021-01-21 21:50:33.581,83.94631,0
43310,43310,2021-01-21 21:51:03.581,83.968124,0
43320,43320,2021-01-21 21:51:33.581,84.00925,0
43330,43330,2021-01-21 21:52:03.581,84.03626,0
43340,43340,2021-01-21 21:52:33.581,84.08546,0
43350,43350,2021-01-21 21:53:03.581,84.04698,0
43360,43360,2021-01-21 21:53:33.581,84.03633,0
43370,43370,2021-01-21 21:54:03.581,83.9581,0
43380,43380,2021-01-21 21:54:33.581,84.00493,0
43390,43390,2021-01-21 21:55:03.581,83.966515,0
43400,43400,2021-01-21 21:55:33.581,83.95333000000001,0
43410,43410,2021-01-21 21:56:03.581,83.928925,0
43420,43420,2021-01-21 21:56:33.581,83.9291,0
43430,43430,2021-01-21 21:57:03.581,83.95730999999999,0
43440,43440,2021-01-21 21:57:33.581,84.66513,0
43450,43450,2021-01-21 21:58:03.581,84.94187,0
43460,43460,2021-01-21 21:58:33.581,85.03276,0
43470,43470,2021-01-21 21:59:03.581,84.93509,0
43480,43480,2021-01-21 21:59:33.581,84.92326,0
43490,43490,2021-01-21 22:00:03.581,84.98916,0
43500,43500,2021-01-21 22:00:33.581,85.003235,0
43510,43510,2021-01-21 22:01:03.581,85.00265,0
43520,43520,2021-01-21 22:01:33.581,84.94632,0
43530,43530,2021-01-21 22:02:03.581,84.968124,0
43540,43540,2021-01-21 22:02:33.581,85.00924,0
43550,43550,2021-01-21 22:03:03.581,85.03626,0
43560,43560,2021-01-21 22:03:33.581,85.08545,0
43570,43570,2021-01-21 22:04:03.581,85.04699000000001,0
43580,43580,2021-01-21 22:04:33.581,85.03634,0
43590,43590,2021-01-21 22:05:03.581,84.95809,0
43600,43600,2021-01-21 22:05:33.581,85.004944,0
43610,43610,2021-01-21 22:06:03.581,84.966515,0
43620,43620,2021-01-21 22:06:33.581,84.95331999999999,0
43630,43630,2021-01-21 22:07:03.581,84.928925,0
43640,43640,2021-01-21 22:07:33.581,84.9291,0
43650,43650,2021-01-21 22:08:03.581,84.957306,0
43660,43660,2021-01-21 22:08:33.581,85.66514000000001,0
43670,43670,2021-01-21 22:09:03.581,85.94188,0
43680,43680,2021-01-21 22:09:33.581,86.03276,0
43690,43690,2021-01-21 22:10:03.581,85.93510400000001,0
43700,43700,2021-01-21 22:10:33.581,85.92326,0
43710,43710,2021-01-21 22:11:03.581,85.98916,0
43720,43720,2021-01-21 22:11:33.581,83.90034,0
43730,43730,2021-01-21 22:12:03.581,83.62286999999999,0
43740,43740,2021-01-21 22:12:33.581,83.60512,0
43750,43750,2021-01-21 22:13:03.581,82.71911999999999,0
43760,43760,2021-01-21 22:13:33.581,82.84794000000001,0
43770,43770,2021-01-21 22:14:03.581,82.86635600000001,0
43780,43780,2021-01-21 22:14:33.581,82.93843000000001,0
43790,43790,2021-01-21 22:15:03.581,82.95153,0
43800,43800,2021-01-21 22:15:33.581,83.01634,0
43810,43810,2021-01-21 22:16:03.581,82.988976,0
43820,43820,2021-01-21 22:16:33.581,82.98149000000001,0
43830,43830,2021-01-21 22:17:03.581,82.97157,0
43840,43840,2021-01-21 22:17:33.581,83.059044,0
43850,43850,2021-01-21 22:18:03.581,83.09903,0
43860,43860,2021-01-21 22:18:33.581,83.80039000000001,0
43870,43870,2021-01-21 22:19:03.581,83.91469000000001,0
43880,43880,2021-01-21 22:19:33.581,83.82172,0
43890,43890,2021-01-21 22:20:03.581,83.88158,0
43900,43900,2021-01-21 22:20:33.581,83.83329,0
43910,43910,2021-01-21 22:21:03.581,83.89328,0
43920,43920,2021-01-21 22:21:33.581,83.909485,0
43930,43930,2021-01-21 22:22:03.581,83.930626,0
43940,43940,2021-01-21 22:22:33.581,84.065834,0
43950,43950,2021-01-21 22:23:03.581,84.164955,0
43960,43960,2021-01-21 22:23:33.581,84.12549,0
43970,43970,2021-01-21 22:24:03.581,84.16147,0
43980,43980,2021-01-21 22:24:33.581,84.20685999999999,0
43990,43990,2021-01-21 22:25:03.581,84.16248,0
44000,44000,2021-01-21 22:25:33.581,84.1774,0
44010,44010,2021-01-21 22:26:03.581,83.96472,0
44020,44020,2021-01-21 22:26:33.581,83.98833,0
44030,44030,2021-01-21 22:27:03.581,84.02079,0
44040,44040,2021-01-21 22:27:33.581,83.95333000000001,0
44050,44050,2021-01-21 22:28:03.581,83.928925,0
44060,44060,2021-01-21 22:28:33.581,83.9291,0
44070,44070,2021-01-21 22:29:03.581,83.95730999999999,0
44080,44080,2021-01-21 22:29:33.581,83.940765,0
44090,44090,2021-01-21 22:30:03.581,84.69234499999999,0
44100,44100,2021-01-21 22:30:33.581,84.947754,0
44110,44110,2021-01-21 22:31:03.581,84.94141,0
44120,44120,2021-01-21 22:31:33.581,84.91729000000001,0
44130,44130,2021-01-21 22:32:03.581,84.93415,0
44140,44140,2021-01-21 22:32:33.581,84.97919499999999,0
44150,44150,2021-01-21 22:33:03.581,84.99364,0
44160,44160,2021-01-21 22:33:33.581,85.00265,0
44170,44170,2021-01-21 22:34:03.581,84.94632,0
44180,44180,2021-01-21 22:34:33.581,84.968124,0
44190,44190,2021-01-21 22:35:03.581,85.00924,0
44200,44200,2021-01-21 22:35:33.581,85.03626,0
44210,44210,2021-01-21 22:36:03.581,85.08545,0
44220,44220,2021-01-21 22:36:33.581,85.04699000000001,0
44230,44230,2021-01-21 22:37:03.581,85.03634,0
44240,44240,2021-01-21 22:37:33.581,84.95809,0
44250,44250,2021-01-21 22:38:03.581,85.004944,0
44260,44260,2021-01-21 22:38:33.581,84.966515,0
44270,44270,2021-01-21 22:39:03.581,84.95331999999999,0
44280,44280,2021-01-21 22:39:33.581,84.928925,0
44290,44290,2021-01-21 22:40:03.581,84.9291,0
44300,44300,2021-01-21 22:40:33.581,84.957306,0
44310,44310,2021-01-21 22:41:03.581,84.940765,0
44320,44320,2021-01-21 22:41:33.581,85.69234499999999,0
44330,44330,2021-01-21 22:42:03.581,85.94775,0
44340,44340,2021-01-21 22:42:33.581,85.94141,0
44350,44350,2021-01-21 22:43:03.581,85.91731,0
44360,44360,2021-01-21 22:43:33.581,85.93415999999999,0
44370,44370,2021-01-21 22:44:03.581,85.97919499999999,0
44380,44380,2021-01-21 22:44:33.581,85.99364,0
44390,44390,2021-01-21 22:45:03.581,86.00265,0
44400,44400,2021-01-21 22:45:33.581,85.94632,0
44410,44410,2021-01-21 22:46:03.581,85.968124,0
44420,44420,2021-01-21 22:46:33.581,86.00925,0
44430,44430,2021-01-21 22:47:03.581,86.03626,0
44440,44440,2021-01-21 22:47:33.581,86.08546,0
44450,44450,2021-01-21 22:48:03.581,86.04699000000001,0
44460,44460,2021-01-21 22:48:33.581,86.03633,0
44470,44470,2021-01-21 22:49:03.581,85.95810999999999,0
44480,44480,2021-01-21 22:49:33.581,86.00494,0
44490,44490,2021-01-21 22:50:03.581,85.96651,0
44500,44500,2021-01-21 22:50:33.581,85.95333000000001,0
44510,44510,2021-01-21 22:51:03.581,85.928925,0
44520,44520,2021-01-21 22:51:33.581,85.92909,0
44530,44530,2021-01-21 22:52:03.581,85.957306,0
44540,44540,2021-01-21 22:52:33.581,85.940765,0
44550,44550,2021-01-21 22:53:03.581,86.69235,0
44560,44560,2021-01-21 22:53:33.581,86.94775,0
44570,44570,2021-01-21 22:54:03.581,86.9414,0
44580,44580,2021-01-21 22:54:33.581,86.9173,0
44590,44590,2021-01-21 22:55:03.581,86.93415999999999,0
44600,44600,2021-01-21 22:55:33.581,86.97919,0
44610,44610,2021-01-21 22:56:03.581,86.99364,0
44620,44620,2021-01-21 22:56:33.581,87.00264,0
44630,44630,2021-01-21 22:57:03.581,86.94632,0
44640,44640,2021-01-21 22:57:33.581,86.96812,0
44650,44650,2021-01-21 22:58:03.581,87.00925,0
44660,44660,2021-01-21 22:58:33.581,87.03626,0
44670,44670,2021-01-21 22:59:03.581,87.085464,0
44680,44680,2021-01-21 22:59:33.581,87.04699000000001,0
44690,44690,2021-01-21 23:00:03.581,87.03634,0
44700,44700,2021-01-21 23:00:33.581,86.9581,0
44710,44710,2021-01-21 23:01:03.581,87.00494,0
44720,44720,2021-01-21 23:01:33.581,86.966515,0
44730,44730,2021-01-21 23:02:03.581,86.95333000000001,0
44740,44740,2021-01-21 23:02:33.581,86.92891999999999,0
44750,44750,2021-01-21 23:03:03.581,86.9291,0
44760,44760,2021-01-21 23:03:33.581,86.95730999999999,0
44770,44770,2021-01-21 23:04:03.581,86.94076,0
44780,44780,2021-01-21 23:04:33.581,85.02693000000001,0
44790,44790,2021-01-21 23:05:03.581,84.93942,0
44800,44800,2021-01-21 23:05:33.581,84.893295,0
44810,44810,2021-01-21 23:06:03.581,84.856606,0
44820,44820,2021-01-21 23:06:33.581,85.06651,0
44830,44830,2021-01-21 23:07:03.581,84.99278000000001,0
44840,44840,2021-01-21 23:07:33.581,84.94666,0
44850,44850,2021-01-21 23:08:03.581,84.95222,0
44860,44860,2021-01-21 23:08:33.581,85.006294,0
44870,44870,2021-01-21 23:09:03.581,85.02704,0
44880,44880,2021-01-21 23:09:33.581,84.91664,0
44890,44890,2021-01-21 23:10:03.581,84.92255,0
44900,44900,2021-01-21 23:10:33.581,84.95187,0
44910,44910,2021-01-21 23:11:03.581,84.989784,0
44920,44920,2021-01-21 23:11:33.581,85.01826,0
44930,44930,2021-01-21 23:12:03.581,85.03835,0
44940,44940,2021-01-21 23:12:33.581,85.07585,0
44950,44950,2021-01-21 23:13:03.581,85.15769,0
44960,44960,2021-01-21 23:13:33.581,85.24484,0
44970,44970,2021-01-21 23:14:03.581,85.20170999999999,0
44980,44980,2021-01-21 23:14:33.581,85.187996,0
44990,44990,2021-01-21 23:15:03.581,85.1276,0
45000,45000,2021-01-21 23:15:33.581,85.2033,0
45010,45010,2021-01-21 23:16:03.581,85.11901999999999,0
45020,45020,2021-01-21 23:16:33.581,85.241196,0
45030,45030,2021-01-21 23:17:03.581,85.223946,0
45040,45040,2021-01-21 23:17:33.581,85.925896,0
45050,45050,2021-01-21 23:18:03.581,85.96115999999999,0
45060,45060,2021-01-21 23:18:33.581,86.075096,0
45070,45070,2021-01-21 23:19:03.581,85.98181,0
45080,45080,2021-01-21 23:19:33.581,85.948975,0
45090,45090,2021-01-21 23:20:03.581,85.98289,0
45100,45100,2021-01-21 23:20:33.581,85.99364,0
45110,45110,2021-01-21 23:21:03.581,86.00265,0
45120,45120,2021-01-21 23:21:33.581,85.94632,0
45130,45130,2021-01-21 23:22:03.581,85.968124,0
45140,45140,2021-01-21 23:22:33.581,86.00925,0
45150,45150,2021-01-21 23:23:03.581,86.03626,0
45160,45160,2021-01-21 23:23:33.581,86.08546,0
45170,45170,2021-01-21 23:24:03.581,86.04699000000001,0
45180,45180,2021-01-21 23:24:33.581,86.03633,0
45190,45190,2021-01-21 23:25:03.581,85.95810999999999,0
45200,45200,2021-01-21 23:25:33.581,86.00494,0
45210,45210,2021-01-21 23:26:03.581,85.96651,0
45220,45220,2021-01-21 23:26:33.581,85.95333000000001,0
45230,45230,2021-01-21 23:27:03.581,85.928925,0
45240,45240,2021-01-21 23:27:33.581,85.92909,0
45250,45250,2021-01-21 23:28:03.581,85.957306,0
45260,45260,2021-01-21 23:28:33.581,86.66514000000001,0
45270,45270,2021-01-21 23:29:03.581,86.94187,0
45280,45280,2021-01-21 23:29:33.581,87.03275,0
45290,45290,2021-01-21 23:30:03.581,86.9351,0
45300,45300,2021-01-21 23:30:33.581,86.92327,0
45310,45310,2021-01-21 23:31:03.581,86.98916,0
45320,45320,2021-01-21 23:31:33.581,87.00324,0
45330,45330,2021-01-21 23:32:03.581,87.00264,0
45340,45340,2021-01-21 23:32:33.581,86.94632,0
45350,45350,2021-01-21 23:33:03.581,86.96812,0
45360,45360,2021-01-21 23:33:33.581,87.00925,0
45370,45370,2021-01-21 23:34:03.581,87.03626,0
45380,45380,2021-01-21 23:34:33.581,87.085464,0
45390,45390,2021-01-21 23:35:03.581,87.04699000000001,0
45400,45400,2021-01-21 23:35:33.581,87.03634,0
45410,45410,2021-01-21 23:36:03.581,86.9581,0
45420,45420,2021-01-21 23:36:33.581,87.00494,0
45430,45430,2021-01-21 23:37:03.581,86.966515,0
45440,45440,2021-01-21 23:37:33.581,86.95333000000001,0
45450,45450,2021-01-21 23:38:03.581,86.92891999999999,0
45460,45460,2021-01-21 23:38:33.581,86.9291,0
45470,45470,2021-01-21 23:39:03.581,86.95730999999999,0
45480,45480,2021-01-21 23:39:33.581,86.94076,0
45490,45490,2021-01-21 23:40:03.581,86.96949000000001,0
45500,45500,2021-01-21 23:40:33.581,87.03155500000001,0
45510,45510,2021-01-21 23:41:03.581,87.03653,0
45520,45520,2021-01-21 23:41:33.581,87.022865,0
45530,45530,2021-01-21 23:42:03.581,87.0107,0
45540,45540,2021-01-21 23:42:33.581,86.994286,0
45550,45550,2021-01-21 23:43:03.581,87.90458000000001,0
45560,45560,2021-01-21 23:43:33.581,88.02372,0
45570,45570,2021-01-21 23:44:03.581,88.01103,0
45580,45580,2021-01-21 23:44:33.581,87.98181,0
45590,45590,2021-01-21 23:45:03.581,87.948975,0
45600,45600,2021-01-21 23:45:33.581,87.98289,0
45610,45610,2021-01-21 23:46:03.581,87.99364,0
45620,45620,2021-01-21 23:46:33.581,88.00264,0
45630,45630,2021-01-21 23:47:03.581,87.94632,0
45640,45640,2021-01-21 23:47:33.581,87.968124,0
45650,45650,2021-01-21 23:48:03.581,88.00924,0
45660,45660,2021-01-21 23:48:33.581,88.03627,0
45670,45670,2021-01-21 23:49:03.581,88.085464,0
45680,45680,2021-01-21 23:49:33.581,88.04698,0
45690,45690,2021-01-21 23:50:03.581,88.03633,0
45700,45700,2021-01-21 23:50:33.581,87.9581,0
45710,45710,2021-01-21 23:51:03.581,88.00494,0
45720,45720,2021-01-21 23:51:33.581,87.96651,0
45730,45730,2021-01-21 23:52:03.581,87.95331999999999,0
45740,45740,2021-01-21 23:52:33.581,87.928925,0
45750,45750,2021-01-21 23:53:03.581,87.9291,0
45760,45760,2021-01-21 23:53:33.581,87.95730999999999,0
45770,45770,2021-01-21 23:54:03.581,87.940765,0
45780,45780,2021-01-21 23:54:33.581,86.02694,0
45790,45790,2021-01-21 23:55:03.581,85.93943,0
45800,45800,2021-01-21 23:55:33.581,85.893295,0
45810,45810,2021-01-21 23:56:03.581,85.856606,0
45820,45820,2021-01-21 23:56:33.581,86.066505,0
45830,45830,2021-01-21 23:57:03.581,85.99279,0
45840,45840,2021-01-21 23:57:33.581,85.94666,0
45850,45850,2021-01-21 23:58:03.581,85.95222,0
45860,45860,2021-01-21 23:58:33.581,86.006294,0
45870,45870,2021-01-21 23:59:03.581,86.02704,0
45880,45880,2021-01-21 23:59:33.581,85.91664,0
45890,45890,2021-01-22 00:00:03.581,85.92255,0
45900,45900,2021-01-22 00:00:33.581,85.95187,0
45910,45910,2021-01-22 00:01:03.581,85.989784,0
45920,45920,2021-01-22 00:01:33.581,86.01826,0
45930,45930,2021-01-22 00:02:03.581,86.03835,0
45940,45940,2021-01-22 00:02:33.581,86.07585,0
45950,45950,2021-01-22 00:03:03.581,86.1577,0
45960,45960,2021-01-22 00:03:33.581,86.24485,0
45970,45970,2021-01-22 00:04:03.581,86.20170999999999,0
45980,45980,2021-01-22 00:04:33.581,86.18799999999999,0
45990,45990,2021-01-22 00:05:03.581,86.1276,0
46000,46000,2021-01-22 00:05:33.581,86.2033,0
46010,46010,2021-01-22 00:06:03.581,86.11901999999999,0
46020,46020,2021-01-22 00:06:33.581,86.241196,0
46030,46030,2021-01-22 00:07:03.581,86.22394,0
46040,46040,2021-01-22 00:07:33.581,86.15992,0
46050,46050,2021-01-22 00:08:03.581,86.07457,0
46060,46060,2021-01-22 00:08:33.581,86.10039,0
46070,46070,2021-01-22 00:09:03.581,86.0,0
46080,46080,2021-01-22 00:09:33.581,86.0,0
46090,46090,2021-01-22 00:10:03.581,86.0,0
46100,46100,2021-01-22 00:10:33.581,86.90458000000001,0
46110,46110,2021-01-22 00:11:03.581,87.02373,0
46120,46120,2021-01-22 00:11:33.581,87.01103,0
46130,46130,2021-01-22 00:12:03.581,86.98182,0
46140,46140,2021-01-22 00:12:33.581,86.94898,0
46150,46150,2021-01-22 00:13:03.581,86.982895,0
46160,46160,2021-01-22 00:13:33.581,86.99364,0
46170,46170,2021-01-22 00:14:03.581,87.00264,0
46180,46180,2021-01-22 00:14:33.581,86.94632,0
46190,46190,2021-01-22 00:15:03.581,86.96812,0
46200,46200,2021-01-22 00:15:33.581,87.00925,0
46210,46210,2021-01-22 00:16:03.581,87.03626,0
46220,46220,2021-01-22 00:16:33.581,87.085464,0
46230,46230,2021-01-22 00:17:03.581,87.04699000000001,0
46240,46240,2021-01-22 00:17:33.581,87.03634,0
46250,46250,2021-01-22 00:18:03.581,86.9581,0
46260,46260,2021-01-22 00:18:33.581,87.00494,0
46270,46270,2021-01-22 00:19:03.581,86.966515,0
46280,46280,2021-01-22 00:19:33.581,86.95333000000001,0
46290,46290,2021-01-22 00:20:03.581,86.92891999999999,0
46300,46300,2021-01-22 00:20:33.581,86.9291,0
46310,46310,2021-01-22 00:21:03.581,86.95730999999999,0
46320,46320,2021-01-22 00:21:33.581,86.94076,0
46330,46330,2021-01-22 00:22:03.581,86.96949000000001,0
46340,46340,2021-01-22 00:22:33.581,87.03155500000001,0
46350,46350,2021-01-22 00:23:03.581,87.03653,0
46360,46360,2021-01-22 00:23:33.581,87.022865,0
46370,46370,2021-01-22 00:24:03.581,87.0107,0
46380,46380,2021-01-22 00:24:33.581,87.72965,0
46390,46390,2021-01-22 00:25:03.581,88.02372,0
46400,46400,2021-01-22 00:25:33.581,88.01103,0
46410,46410,2021-01-22 00:26:03.581,87.98181,0
46420,46420,2021-01-22 00:26:33.581,87.948975,0
46430,46430,2021-01-22 00:27:03.581,87.98289,0
46440,46440,2021-01-22 00:27:33.581,87.99364,0
46450,46450,2021-01-22 00:28:03.581,88.00264,0
46460,46460,2021-01-22 00:28:33.581,87.94632,0
46470,46470,2021-01-22 00:29:03.581,87.968124,0
46480,46480,2021-01-22 00:29:33.581,88.00924,0
46490,46490,2021-01-22 00:30:03.581,88.03627,0
46500,46500,2021-01-22 00:30:33.581,88.085464,0
46510,46510,2021-01-22 00:31:03.581,88.04698,0
46520,46520,2021-01-22 00:31:33.581,88.03633,0
46530,46530,2021-01-22 00:32:03.581,87.9581,0
46540,46540,2021-01-22 00:32:33.581,88.00494,0
46550,46550,2021-01-22 00:33:03.581,87.96651,0
46560,46560,2021-01-22 00:33:33.581,87.95331999999999,0
46570,46570,2021-01-22 00:34:03.581,87.928925,0
46580,46580,2021-01-22 00:34:33.581,87.9291,0
46590,46590,2021-01-22 00:35:03.581,87.95730999999999,0
46600,46600,2021-01-22 00:35:33.581,87.940765,0
46610,46610,2021-01-22 00:36:03.581,87.96949000000001,0
46620,46620,2021-01-22 00:36:33.581,88.03154,0
46630,46630,2021-01-22 00:37:03.581,88.03652,0
46640,46640,2021-01-22 00:37:33.581,88.022865,0
46650,46650,2021-01-22 00:38:03.581,88.0107,0
46660,46660,2021-01-22 00:38:33.581,87.994286,0
46670,46670,2021-01-22 00:39:03.581,88.90458000000001,0
46680,46680,2021-01-22 00:39:33.581,89.02372,0
46690,46690,2021-01-22 00:40:03.581,89.01103,0
46700,46700,2021-01-22 00:40:33.581,88.98181,0
46710,46710,2021-01-22 00:41:03.581,88.948975,0
46720,46720,2021-01-22 00:41:33.581,88.98289,0
46730,46730,2021-01-22 00:42:03.581,85.807175,0
46740,46740,2021-01-22 00:42:33.581,85.51813,0
46750,46750,2021-01-22 00:43:03.581,85.541595,0
46760,46760,2021-01-22 00:43:33.581,85.47922,0
46770,46770,2021-01-22 00:44:03.581,85.78299999999999,0
46780,46780,2021-01-22 00:44:33.581,85.91176,0
46790,46790,2021-01-22 00:45:03.581,85.9246,0
46800,46800,2021-01-22 00:45:33.581,85.82789,0
46810,46810,2021-01-22 00:46:03.581,85.9635,0
46820,46820,2021-01-22 00:46:33.581,85.98709000000001,0
46830,46830,2021-01-22 00:47:03.581,85.95867,0
46840,46840,2021-01-22 00:47:33.581,85.90181,0
46850,46850,2021-01-22 00:48:03.581,85.9639,0
46860,46860,2021-01-22 00:48:33.581,86.08726999999999,0
46870,46870,2021-01-22 00:49:03.581,86.06026,0
46880,46880,2021-01-22 00:49:33.581,86.0136,0
46890,46890,2021-01-22 00:50:03.581,85.997986,0
46900,46900,2021-01-22 00:50:33.581,86.14604,0
46910,46910,2021-01-22 00:51:03.581,86.19025400000001,0
46920,46920,2021-01-22 00:51:33.581,86.17969000000001,0
46930,46930,2021-01-22 00:52:03.581,86.718956,0
46940,46940,2021-01-22 00:52:33.581,86.74316,0
46950,46950,2021-01-22 00:53:03.581,86.77721,0
46960,46960,2021-01-22 00:53:33.581,86.84685,0
46970,46970,2021-01-22 00:54:03.581,87.05363,0
46980,46980,2021-01-22 00:54:33.581,87.170876,0
46990,46990,2021-01-22 00:55:03.581,87.20938000000001,0
47000,47000,2021-01-22 00:55:33.581,87.07096,0
47010,47010,2021-01-22 00:56:03.581,87.0552,0
47020,47020,2021-01-22 00:56:33.581,86.96812,0
47030,47030,2021-01-22 00:57:03.581,87.00925,0
47040,47040,2021-01-22 00:57:33.581,87.03626,0
47050,47050,2021-01-22 00:58:03.581,87.085464,0
47060,47060,2021-01-22 00:58:33.581,87.04699000000001,0
47070,47070,2021-01-22 00:59:03.581,87.03634,0
47080,47080,2021-01-22 00:59:33.581,86.9581,0
47090,47090,2021-01-22 01:00:03.581,87.00494,0
47100,47100,2021-01-22 01:00:33.581,86.966515,0
47110,47110,2021-01-22 01:01:03.581,86.95333000000001,0
47120,47120,2021-01-22 01:01:33.581,86.92891999999999,0
47130,47130,2021-01-22 01:02:03.581,86.9291,0
47140,47140,2021-01-22 01:02:33.581,86.95730999999999,0
47150,47150,2021-01-22 01:03:03.581,86.94076,0
47160,47160,2021-01-22 01:03:33.581,86.96949000000001,0
47170,47170,2021-01-22 01:04:03.581,87.03155500000001,0
47180,47180,2021-01-22 01:04:33.581,87.03653,0
47190,47190,2021-01-22 01:05:03.581,87.022865,0
47200,47200,2021-01-22 01:05:33.581,87.0107,0
47210,47210,2021-01-22 01:06:03.581,87.72965,0
47220,47220,2021-01-22 01:06:33.581,88.02372,0
47230,47230,2021-01-22 01:07:03.581,88.01103,0
47240,47240,2021-01-22 01:07:33.581,87.98181,0
47250,47250,2021-01-22 01:08:03.581,87.948975,0
47260,47260,2021-01-22 01:08:33.581,87.98289,0
47270,47270,2021-01-22 01:09:03.581,87.99364,0
47280,47280,2021-01-22 01:09:33.581,88.00264,0
47290,47290,2021-01-22 01:10:03.581,87.94632,0
47300,47300,2021-01-22 01:10:33.581,87.968124,0
47310,47310,2021-01-22 01:11:03.581,88.00924,0
47320,47320,2021-01-22 01:11:33.581,88.03627,0
47330,47330,2021-01-22 01:12:03.581,88.085464,0
47340,47340,2021-01-22 01:12:33.581,88.04698,0
47350,47350,2021-01-22 01:13:03.581,88.03633,0
47360,47360,2021-01-22 01:13:33.581,87.9581,0
47370,47370,2021-01-22 01:14:03.581,88.00494,0
47380,47380,2021-01-22 01:14:33.581,87.96651,0
47390,47390,2021-01-22 01:15:03.581,87.95331999999999,0
47400,47400,2021-01-22 01:15:33.581,87.928925,0
47410,47410,2021-01-22 01:16:03.581,87.9291,0
47420,47420,2021-01-22 01:16:33.581,87.95730999999999,0
47430,47430,2021-01-22 01:17:03.581,87.940765,0
47440,47440,2021-01-22 01:17:33.581,87.96949000000001,0
47450,47450,2021-01-22 01:18:03.581,88.03154,0
47460,47460,2021-01-22 01:18:33.581,88.03652,0
47470,47470,2021-01-22 01:19:03.581,88.022865,0
47480,47480,2021-01-22 01:19:33.581,88.0107,0
47490,47490,2021-01-22 01:20:03.581,87.994286,0
47500,47500,2021-01-22 01:20:33.581,88.0,0
47510,47510,2021-01-22 01:21:03.581,88.0,0
47520,47520,2021-01-22 01:21:33.581,88.0,0
47530,47530,2021-01-22 01:22:03.581,88.0,0
47540,47540,2021-01-22 01:22:33.581,88.0,0
47550,47550,2021-01-22 01:23:03.581,88.0,0
47560,47560,2021-01-22 01:23:33.581,88.90458000000001,0
47570,47570,2021-01-22 01:24:03.581,89.02372,0
47580,47580,2021-01-22 01:24:33.581,89.01103,0
47590,47590,2021-01-22 01:25:03.581,88.98181,0
47600,47600,2021-01-22 01:25:33.581,88.948975,0
47610,47610,2021-01-22 01:26:03.581,85.84828,0
47620,47620,2021-01-22 01:26:33.581,85.596695,0
47630,47630,2021-01-22 01:27:03.581,85.61631,0
47640,47640,2021-01-22 01:27:33.581,85.44079599999999,0
47650,47650,2021-01-22 01:28:03.581,85.77348,0
47660,47660,2021-01-22 01:28:33.581,85.83551,0
47670,47670,2021-01-22 01:29:03.581,85.92599,0
47680,47680,2021-01-22 01:29:33.581,85.85339,0
47690,47690,2021-01-22 01:30:03.581,85.97378499999999,0
47700,47700,2021-01-22 01:30:33.581,85.979034,0
47710,47710,2021-01-22 01:31:03.581,85.90489000000001,0
47720,47720,2021-01-22 01:31:33.581,85.89889000000001,0
47730,47730,2021-01-22 01:32:03.581,85.960205,0
47740,47740,2021-01-22 01:32:33.581,86.03888,0
47750,47750,2021-01-22 01:33:03.581,86.03994,0
47760,47760,2021-01-22 01:33:33.581,85.97118,0
47770,47770,2021-01-22 01:34:03.581,85.96806,0
47780,47780,2021-01-22 01:34:33.581,86.12543000000001,0
47790,47790,2021-01-22 01:35:03.581,86.22091,0
47800,47800,2021-01-22 01:35:33.581,86.16346,0
47810,47810,2021-01-22 01:36:03.581,86.13671,0
47820,47820,2021-01-22 01:36:33.581,86.06506999999999,0
47830,47830,2021-01-22 01:37:03.581,86.17833,0
47840,47840,2021-01-22 01:37:33.581,86.08211,0
47850,47850,2021-01-22 01:38:03.581,86.3618,0
47860,47860,2021-01-22 01:38:33.581,87.002785,0
47870,47870,2021-01-22 01:39:03.581,87.15114,0
47880,47880,2021-01-22 01:39:33.581,87.009,0
47890,47890,2021-01-22 01:40:03.581,87.10771,0
47900,47900,2021-01-22 01:40:33.581,86.94898,0
47910,47910,2021-01-22 01:41:03.581,86.982895,0
47920,47920,2021-01-22 01:41:33.581,86.99364,0
47930,47930,2021-01-22 01:42:03.581,87.00264,0
47940,47940,2021-01-22 01:42:33.581,86.94632,0
47950,47950,2021-01-22 01:43:03.581,86.96812,0
47960,47960,2021-01-22 01:43:33.581,87.00925,0
47970,47970,2021-01-22 01:44:03.581,87.03626,0
47980,47980,2021-01-22 01:44:33.581,87.085464,0
47990,47990,2021-01-22 01:45:03.581,87.04699000000001,0
48000,48000,2021-01-22 01:45:33.581,87.03634,0
48010,48010,2021-01-22 01:46:03.581,86.9581,0
48020,48020,2021-01-22 01:46:33.581,87.00494,0
48030,48030,2021-01-22 01:47:03.581,86.966515,0
48040,48040,2021-01-22 01:47:33.581,86.95333000000001,0
48050,48050,2021-01-22 01:48:03.581,86.92891999999999,0
48060,48060,2021-01-22 01:48:33.581,86.9291,0
48070,48070,2021-01-22 01:49:03.581,86.95730999999999,0
48080,48080,2021-01-22 01:49:33.581,86.94076,0
48090,48090,2021-01-22 01:50:03.581,86.96949000000001,0
48100,48100,2021-01-22 01:50:33.581,87.03155500000001,0
48110,48110,2021-01-22 01:51:03.581,87.03653,0
48120,48120,2021-01-22 01:51:33.581,87.022865,0
48130,48130,2021-01-22 01:52:03.581,87.0107,0
48140,48140,2021-01-22 01:52:33.581,86.994286,0
48150,48150,2021-01-22 01:53:03.581,87.0,0
48160,48160,2021-01-22 01:53:33.581,87.0,0
48170,48170,2021-01-22 01:54:03.581,87.0,0
48180,48180,2021-01-22 01:54:33.581,87.0,0
48190,48190,2021-01-22 01:55:03.581,87.90458000000001,0
48200,48200,2021-01-22 01:55:33.581,88.02372,0
48210,48210,2021-01-22 01:56:03.581,88.01103,0
48220,48220,2021-01-22 01:56:33.581,87.98181,0
48230,48230,2021-01-22 01:57:03.581,87.948975,0
48240,48240,2021-01-22 01:57:33.581,87.98289,0
48250,48250,2021-01-22 01:58:03.581,87.99364,0
48260,48260,2021-01-22 01:58:33.581,88.00264,0
48270,48270,2021-01-22 01:59:03.581,87.94632,0
48280,48280,2021-01-22 01:59:33.581,87.968124,0
48290,48290,2021-01-22 02:00:03.581,88.00924,0
48300,48300,2021-01-22 02:00:33.581,88.03627,0
48310,48310,2021-01-22 02:01:03.581,88.085464,0
48320,48320,2021-01-22 02:01:33.581,88.04698,0
48330,48330,2021-01-22 02:02:03.581,88.03633,0
48340,48340,2021-01-22 02:02:33.581,87.9581,0
48350,48350,2021-01-22 02:03:03.581,88.00494,0
48360,48360,2021-01-22 02:03:33.581,87.96651,0
48370,48370,2021-01-22 02:04:03.581,87.95331999999999,0
48380,48380,2021-01-22 02:04:33.581,87.928925,0
48390,48390,2021-01-22 02:05:03.581,87.9291,0
48400,48400,2021-01-22 02:05:33.581,87.95730999999999,0
48410,48410,2021-01-22 02:06:03.581,87.940765,0
48420,48420,2021-01-22 02:06:33.581,86.02694,0
48430,48430,2021-01-22 02:07:03.581,85.93943,0
48440,48440,2021-01-22 02:07:33.581,85.893295,0
48450,48450,2021-01-22 02:08:03.581,85.856606,0
48460,48460,2021-01-22 02:08:33.581,86.066505,0
48470,48470,2021-01-22 02:09:03.581,85.99279,0
48480,48480,2021-01-22 02:09:33.581,85.94666,0
48490,48490,2021-01-22 02:10:03.581,85.95222,0
48500,48500,2021-01-22 02:10:33.581,86.006294,0
48510,48510,2021-01-22 02:11:03.581,86.02704,0
48520,48520,2021-01-22 02:11:33.581,85.91664,0
48530,48530,2021-01-22 02:12:03.581,85.92255,0
48540,48540,2021-01-22 02:12:33.581,85.95187,0
48550,48550,2021-01-22 02:13:03.581,85.989784,0
48560,48560,2021-01-22 02:13:33.581,86.01826,0
48570,48570,2021-01-22 02:14:03.581,86.03835,0
48580,48580,2021-01-22 02:14:33.581,86.07585,0
48590,48590,2021-01-22 02:15:03.581,86.1577,0
48600,48600,2021-01-22 02:15:33.581,86.24485,0
48610,48610,2021-01-22 02:16:03.581,86.20170999999999,0
48620,48620,2021-01-22 02:16:33.581,86.18799999999999,0
48630,48630,2021-01-22 02:17:03.581,86.1276,0
48640,48640,2021-01-22 02:17:33.581,86.2033,0
48650,48650,2021-01-22 02:18:03.581,86.11901999999999,0
48660,48660,2021-01-22 02:18:33.581,86.241196,0
48670,48670,2021-01-22 02:19:03.581,86.22394,0
48680,48680,2021-01-22 02:19:33.581,86.15992,0
48690,48690,2021-01-22 02:20:03.581,86.07457,0
48700,48700,2021-01-22 02:20:33.581,86.10039,0
48710,48710,2021-01-22 02:21:03.581,86.0,0
48720,48720,2021-01-22 02:21:33.581,86.0,0
48730,48730,2021-01-22 02:22:03.581,86.0,0
48740,48740,2021-01-22 02:22:33.581,86.0,0
48750,48750,2021-01-22 02:23:03.581,86.0,0
48760,48760,2021-01-22 02:23:33.581,86.0,0
48770,48770,2021-01-22 02:24:03.581,86.0,0
48780,48780,2021-01-22 02:24:33.581,86.0,0
48790,48790,2021-01-22 02:25:03.581,86.0,0
48800,48800,2021-01-22 02:25:33.581,86.0,0
48810,48810,2021-01-22 02:26:03.581,86.0,0
48820,48820,2021-01-22 02:26:33.581,86.0,0
48830,48830,2021-01-22 02:27:03.581,86.0,0
48840,48840,2021-01-22 02:27:33.581,86.0,0
48850,48850,2021-01-22 02:28:03.581,86.90458000000001,0
48860,48860,2021-01-22 02:28:33.581,87.02373,0
48870,48870,2021-01-22 02:29:03.581,87.01103,0
48880,48880,2021-01-22 02:29:33.581,86.98182,0
48890,48890,2021-01-22 02:30:03.581,86.94898,0
48900,48900,2021-01-22 02:30:33.581,86.982895,0
48910,48910,2021-01-22 02:31:03.581,86.99364,0
48920,48920,2021-01-22 02:31:33.581,87.00264,0
48930,48930,2021-01-22 02:32:03.581,86.94632,0
48940,48940,2021-01-22 02:32:33.581,86.96812,0
48950,48950,2021-01-22 02:33:03.581,87.00925,0
48960,48960,2021-01-22 02:33:33.581,87.03626,0
48970,48970,2021-01-22 02:34:03.581,87.085464,0
48980,48980,2021-01-22 02:34:33.581,87.04699000000001,0
48990,48990,2021-01-22 02:35:03.581,87.03634,0
49000,49000,2021-01-22 02:35:33.581,86.9581,0
49010,49010,2021-01-22 02:36:03.581,87.00494,0
49020,49020,2021-01-22 02:36:33.581,86.966515,0
49030,49030,2021-01-22 02:37:03.581,86.95333000000001,0
49040,49040,2021-01-22 02:37:33.581,86.92891999999999,0
49050,49050,2021-01-22 02:38:03.581,86.9291,0
49060,49060,2021-01-22 02:38:33.581,86.95730999999999,0
49070,49070,2021-01-22 02:39:03.581,86.94076,0
49080,49080,2021-01-22 02:39:33.581,86.96949000000001,0
49090,49090,2021-01-22 02:40:03.581,87.03155500000001,0
49100,49100,2021-01-22 02:40:33.581,87.03653,0
49110,49110,2021-01-22 02:41:03.581,87.022865,0
49120,49120,2021-01-22 02:41:33.581,87.0107,0
49130,49130,2021-01-22 02:42:03.581,86.994286,0
49140,49140,2021-01-22 02:42:33.581,87.0,0
49150,49150,2021-01-22 02:43:03.581,87.0,0
49160,49160,2021-01-22 02:43:33.581,87.0,0
49170,49170,2021-01-22 02:44:03.581,87.0,0
49180,49180,2021-01-22 02:44:33.581,87.0,0
49190,49190,2021-01-22 02:45:03.581,84.95700000000001,0
49200,49200,2021-01-22 02:45:33.581,84.82263,0
49210,49210,2021-01-22 02:46:03.581,84.84172,0
49220,49220,2021-01-22 02:46:33.581,84.776726,0
49230,49230,2021-01-22 02:47:03.581,85.02292,0
49240,49240,2021-01-22 02:47:33.581,85.0067,0
49250,49250,2021-01-22 02:48:03.581,84.94666,0
49260,49260,2021-01-22 02:48:33.581,84.95222,0
49270,49270,2021-01-22 02:49:03.581,85.006294,0
49280,49280,2021-01-22 02:49:33.581,85.02704,0
49290,49290,2021-01-22 02:50:03.581,84.91664,0
49300,49300,2021-01-22 02:50:33.581,84.92255,0
49310,49310,2021-01-22 02:51:03.581,84.95187,0
49320,49320,2021-01-22 02:51:33.581,84.989784,0
49330,49330,2021-01-22 02:52:03.581,85.01826,0
49340,49340,2021-01-22 02:52:33.581,85.03835,0
49350,49350,2021-01-22 02:53:03.581,85.07585,0
49360,49360,2021-01-22 02:53:33.581,85.15769,0
49370,49370,2021-01-22 02:54:03.581,85.24484,0
49380,49380,2021-01-22 02:54:33.581,85.20170999999999,0
49390,49390,2021-01-22 02:55:03.581,85.187996,0
49400,49400,2021-01-22 02:55:33.581,85.1276,0
49410,49410,2021-01-22 02:56:03.581,85.2033,0
49420,49420,2021-01-22 02:56:33.581,85.11901999999999,0
49430,49430,2021-01-22 02:57:03.581,85.241196,0
49440,49440,2021-01-22 02:57:33.581,85.223946,0
49450,49450,2021-01-22 02:58:03.581,85.15992,0
49460,49460,2021-01-22 02:58:33.581,85.07457,0
49470,49470,2021-01-22 02:59:03.581,85.10038,0
49480,49480,2021-01-22 02:59:33.581,85.0,0
49490,49490,2021-01-22 03:00:03.581,85.0,0
49500,49500,2021-01-22 03:00:33.581,85.0,0
49510,49510,2021-01-22 03:01:03.581,85.90458000000001,0
49520,49520,2021-01-22 03:01:33.581,86.02372,0
49530,49530,2021-01-22 03:02:03.581,86.01103,0
49540,49540,2021-01-22 03:02:33.581,85.98181,0
49550,49550,2021-01-22 03:03:03.581,85.948975,0
49560,49560,2021-01-22 03:03:33.581,85.98289,0
49570,49570,2021-01-22 03:04:03.581,85.99364,0
49580,49580,2021-01-22 03:04:33.581,86.00265,0
49590,49590,2021-01-22 03:05:03.581,85.94632,0
49600,49600,2021-01-22 03:05:33.581,85.968124,0
49610,49610,2021-01-22 03:06:03.581,86.00925,0
49620,49620,2021-01-22 03:06:33.581,86.03626,0
49630,49630,2021-01-22 03:07:03.581,86.08546,0
49640,49640,2021-01-22 03:07:33.581,86.04699000000001,0
49650,49650,2021-01-22 03:08:03.581,86.03633,0
49660,49660,2021-01-22 03:08:33.581,85.95810999999999,0
49670,49670,2021-01-22 03:09:03.581,86.00494,0
49680,49680,2021-01-22 03:09:33.581,85.96651,0
49690,49690,2021-01-22 03:10:03.581,85.95333000000001,0
49700,49700,2021-01-22 03:10:33.581,85.928925,0
49710,49710,2021-01-22 03:11:03.581,85.92909,0
49720,49720,2021-01-22 03:11:33.581,85.957306,0
49730,49730,2021-01-22 03:12:03.581,85.940765,0
49740,49740,2021-01-22 03:12:33.581,85.96949000000001,0
49750,49750,2021-01-22 03:13:03.581,86.03155500000001,0
49760,49760,2021-01-22 03:13:33.581,86.03653,0
49770,49770,2021-01-22 03:14:03.581,86.022865,0
49780,49780,2021-01-22 03:14:33.581,86.0107,0
49790,49790,2021-01-22 03:15:03.581,85.994286,0
49800,49800,2021-01-22 03:15:33.581,86.0,0
49810,49810,2021-01-22 03:16:03.581,86.0,0
49820,49820,2021-01-22 03:16:33.581,86.0,0
49830,49830,2021-01-22 03:17:03.581,86.0,0
49840,49840,2021-01-22 03:17:33.581,86.0,0
49850,49850,2021-01-22 03:18:03.581,86.90458000000001,0
49860,49860,2021-01-22 03:18:33.581,87.02373,0
49870,49870,2021-01-22 03:19:03.581,87.01103,0
49880,49880,2021-01-22 03:19:33.581,86.98182,0
49890,49890,2021-01-22 03:20:03.581,86.94898,0
49900,49900,2021-01-22 03:20:33.581,86.982895,0
49910,49910,2021-01-22 03:21:03.581,83.80718,0
49920,49920,2021-01-22 03:21:33.581,83.51813,0
49930,49930,2021-01-22 03:22:03.581,83.541595,0
49940,49940,2021-01-22 03:22:33.581,83.47922,0
49950,49950,2021-01-22 03:23:03.581,83.783005,0
49960,49960,2021-01-22 03:23:33.581,83.911766,0
49970,49970,2021-01-22 03:24:03.581,83.9246,0
49980,49980,2021-01-22 03:24:33.581,83.82789,0
49990,49990,2021-01-22 03:25:03.581,83.9635,0
50000,50000,2021-01-22 03:25:33.581,83.98709000000001,0
50010,50010,2021-01-22 03:26:03.581,83.958664,0
50020,50020,2021-01-22 03:26:33.581,83.9018,0
50030,50030,2021-01-22 03:27:03.581,83.9639,0
50040,50040,2021-01-22 03:27:33.581,84.08726999999999,0
50050,50050,2021-01-22 03:28:03.581,84.06026,0
50060,50060,2021-01-22 03:28:33.581,84.01361,0
50070,50070,2021-01-22 03:29:03.581,83.997986,0
50080,50080,2021-01-22 03:29:33.581,84.14604,0
50090,50090,2021-01-22 03:30:03.581,84.19025400000001,0
50100,50100,2021-01-22 03:30:33.581,84.17969000000001,0
50110,50110,2021-01-22 03:31:03.581,84.205536,0
50120,50120,2021-01-22 03:31:33.581,84.0906,0
50130,50130,2021-01-22 03:32:03.581,84.21907,0
50140,50140,2021-01-22 03:32:33.581,84.17851999999999,0
50150,50150,2021-01-22 03:33:03.581,84.36179,0
50160,50160,2021-01-22 03:33:33.581,84.335915,0
50170,50170,2021-01-22 03:34:03.581,84.23988,0
50180,50180,2021-01-22 03:34:33.581,84.111855,0
50190,50190,2021-01-22 03:35:03.581,84.15057,0
50200,50200,2021-01-22 03:35:33.581,84.0,0
50210,50210,2021-01-22 03:36:03.581,84.0,0
50220,50220,2021-01-22 03:36:33.581,84.90458000000001,0
50230,50230,2021-01-22 03:37:03.581,85.02372,0
50240,50240,2021-01-22 03:37:33.581,85.01103,0
50250,50250,2021-01-22 03:38:03.581,84.98181,0
50260,50260,2021-01-22 03:38:33.581,84.94898,0
50270,50270,2021-01-22 03:39:03.581,84.98289,0
50280,50280,2021-01-22 03:39:33.581,84.99364,0
50290,50290,2021-01-22 03:40:03.581,85.00265,0
50300,50300,2021-01-22 03:40:33.581,84.94632,0
50310,50310,2021-01-22 03:41:03.581,84.968124,0
50320,50320,2021-01-22 03:41:33.581,85.00924,0
50330,50330,2021-01-22 03:42:03.581,85.03626,0
50340,50340,2021-01-22 03:42:33.581,85.08545,0
50350,50350,2021-01-22 03:43:03.581,85.04699000000001,0
50360,50360,2021-01-22 03:43:33.581,85.03634,0
50370,50370,2021-01-22 03:44:03.581,84.95809,0
50380,50380,2021-01-22 03:44:33.581,85.004944,0
50390,50390,2021-01-22 03:45:03.581,84.966515,0
50400,50400,2021-01-22 03:45:33.581,84.95331999999999,0
50410,50410,2021-01-22 03:46:03.581,84.928925,0
50420,50420,2021-01-22 03:46:33.581,84.9291,0
50430,50430,2021-01-22 03:47:03.581,84.957306,0
50440,50440,2021-01-22 03:47:33.581,84.940765,0
50450,50450,2021-01-22 03:48:03.581,84.96949000000001,0
50460,50460,2021-01-22 03:48:33.581,85.03155,0
50470,50470,2021-01-22 03:49:03.581,85.03652,0
50480,50480,2021-01-22 03:49:33.581,85.02286,0
50490,50490,2021-01-22 03:50:03.581,85.0107,0
50500,50500,2021-01-22 03:50:33.581,84.994286,0
50510,50510,2021-01-22 03:51:03.581,85.0,0
50520,50520,2021-01-22 03:51:33.581,85.0,0
50530,50530,2021-01-22 03:52:03.581,85.0,0
50540,50540,2021-01-22 03:52:33.581,85.0,0
50550,50550,2021-01-22 03:53:03.581,85.0,0
50560,50560,2021-01-22 03:53:33.581,85.0,0
50570,50570,2021-01-22 03:54:03.581,82.95699,0
50580,50580,2021-01-22 03:54:33.581,82.82263,0
50590,50590,2021-01-22 03:55:03.581,82.84172,0
50600,50600,2021-01-22 03:55:33.581,82.77673,0
50610,50610,2021-01-22 03:56:03.581,83.02291,0
50620,50620,2021-01-22 03:56:33.581,83.0067,0
50630,50630,2021-01-22 03:57:03.581,82.94667,0
50640,50640,2021-01-22 03:57:33.581,82.95221,0
50650,50650,2021-01-22 03:58:03.581,83.006294,0
50660,50660,2021-01-22 03:58:33.581,83.02704,0
50670,50670,2021-01-22 03:59:03.581,82.91664,0
50680,50680,2021-01-22 03:59:33.581,82.92255,0
50690,50690,2021-01-22 04:00:03.581,82.95186600000001,0
50700,50700,2021-01-22 04:00:33.581,82.989784,0
50710,50710,2021-01-22 04:01:03.581,83.01826,0
50720,50720,2021-01-22 04:01:33.581,83.03835,0
50730,50730,2021-01-22 04:02:03.581,83.07585999999999,0
50740,50740,2021-01-22 04:02:33.581,83.1577,0
50750,50750,2021-01-22 04:03:03.581,83.24484,0
50760,50760,2021-01-22 04:03:33.581,83.20170999999999,0
50770,50770,2021-01-22 04:04:03.581,83.18799999999999,0
50780,50780,2021-01-22 04:04:33.581,83.1276,0
50790,50790,2021-01-22 04:05:03.581,83.2033,0
50800,50800,2021-01-22 04:05:33.581,83.11901,0
50810,50810,2021-01-22 04:06:03.581,83.2412,0
50820,50820,2021-01-22 04:06:33.581,83.22394,0
50830,50830,2021-01-22 04:07:03.581,83.15992,0
50840,50840,2021-01-22 04:07:33.581,83.07457,0
50850,50850,2021-01-22 04:08:03.581,83.10038,0
50860,50860,2021-01-22 04:08:33.581,83.0,0
50870,50870,2021-01-22 04:09:03.581,83.0,0
50880,50880,2021-01-22 04:09:33.581,83.90456999999999,0
50890,50890,2021-01-22 04:10:03.581,84.02371,0
50900,50900,2021-01-22 04:10:33.581,84.01104000000001,0
50910,50910,2021-01-22 04:11:03.581,83.98182,0
50920,50920,2021-01-22 04:11:33.581,83.94896999999999,0
50930,50930,2021-01-22 04:12:03.581,83.98289,0
50940,50940,2021-01-22 04:12:33.581,83.99364,0
50950,50950,2021-01-22 04:13:03.581,84.00265,0
50960,50960,2021-01-22 04:13:33.581,83.94631,0
50970,50970,2021-01-22 04:14:03.581,83.968124,0
50980,50980,2021-01-22 04:14:33.581,84.00925,0
50990,50990,2021-01-22 04:15:03.581,84.03626,0
51000,51000,2021-01-22 04:15:33.581,84.08546,0
51010,51010,2021-01-22 04:16:03.581,84.04698,0
51020,51020,2021-01-22 04:16:33.581,84.03633,0
51030,51030,2021-01-22 04:17:03.581,83.9581,0
51040,51040,2021-01-22 04:17:33.581,84.00493,0
51050,51050,2021-01-22 04:18:03.581,83.966515,0
51060,51060,2021-01-22 04:18:33.581,83.95333000000001,0
51070,51070,2021-01-22 04:19:03.581,83.928925,0
51080,51080,2021-01-22 04:19:33.581,83.9291,0
51090,51090,2021-01-22 04:20:03.581,83.95730999999999,0
51100,51100,2021-01-22 04:20:33.581,83.940765,0
51110,51110,2021-01-22 04:21:03.581,83.96949000000001,0
51120,51120,2021-01-22 04:21:33.581,84.03155,0
51130,51130,2021-01-22 04:22:03.581,84.03653,0
51140,51140,2021-01-22 04:22:33.581,84.022865,0
51150,51150,2021-01-22 04:23:03.581,84.0107,0
51160,51160,2021-01-22 04:23:33.581,83.994286,0
51170,51170,2021-01-22 04:24:03.581,81.95699,0
51180,51180,2021-01-22 04:24:33.581,81.82263,0
51190,51190,2021-01-22 04:25:03.581,81.84172,0
51200,51200,2021-01-22 04:25:33.581,81.77673,0
51210,51210,2021-01-22 04:26:03.581,82.02291,0
51220,51220,2021-01-22 04:26:33.581,82.0067,0
51230,51230,2021-01-22 04:27:03.581,81.94666,0
51240,51240,2021-01-22 04:27:33.581,81.95222,0
51250,51250,2021-01-22 04:28:03.581,82.006294,0
51260,51260,2021-01-22 04:28:33.581,82.02704,0
51270,51270,2021-01-22 04:29:03.581,81.91664,0
51280,51280,2021-01-22 04:29:33.581,81.922554,0
51290,51290,2021-01-22 04:30:03.581,81.95186600000001,0
51300,51300,2021-01-22 04:30:33.581,81.98978000000001,0
51310,51310,2021-01-22 04:31:03.581,82.01826,0
51320,51320,2021-01-22 04:31:33.581,82.03835,0
51330,51330,2021-01-22 04:32:03.581,82.07585999999999,0
51340,51340,2021-01-22 04:32:33.581,82.1577,0
51350,51350,2021-01-22 04:33:03.581,82.24484,0
51360,51360,2021-01-22 04:33:33.581,82.20170999999999,0
51370,51370,2021-01-22 04:34:03.581,82.18799999999999,0
51380,51380,2021-01-22 04:34:33.581,82.1276,0
51390,51390,2021-01-22 04:35:03.581,82.2033,0
51400,51400,2021-01-22 04:35:33.581,82.11901,0
51410,51410,2021-01-22 04:36:03.581,82.241196,0
51420,51420,2021-01-22 04:36:33.581,82.22394,0
51430,51430,2021-01-22 04:37:03.581,82.15992,0
51440,51440,2021-01-22 04:37:33.581,82.07458000000001,0
51450,51450,2021-01-22 04:38:03.581,82.10039,0
51460,51460,2021-01-22 04:38:33.581,82.0,0
51470,51470,2021-01-22 04:39:03.581,82.0,0
51480,51480,2021-01-22 04:39:33.581,82.0,0
51490,51490,2021-01-22 04:40:03.581,82.0,0
51500,51500,2021-01-22 04:40:33.581,82.0,0
51510,51510,2021-01-22 04:41:03.581,82.0,0
51520,51520,2021-01-22 04:41:33.581,82.0,0
51530,51530,2021-01-22 04:42:03.581,82.0,0
51540,51540,2021-01-22 04:42:33.581,82.0,0
51550,51550,2021-01-22 04:43:03.581,82.0,0
51560,51560,2021-01-22 04:43:33.581,82.0,0
51570,51570,2021-01-22 04:44:03.581,82.0,0
51580,51580,2021-01-22 04:44:33.581,82.0,0
51590,51590,2021-01-22 04:45:03.581,82.90458000000001,0
51600,51600,2021-01-22 04:45:33.581,83.02372,0
51610,51610,2021-01-22 04:46:03.581,83.01104000000001,0
51620,51620,2021-01-22 04:46:33.581,82.98181,0
51630,51630,2021-01-22 04:47:03.581,82.948975,0
51640,51640,2021-01-22 04:47:33.581,82.98289,0
51650,51650,2021-01-22 04:48:03.581,82.99364,0
51660,51660,2021-01-22 04:48:33.581,83.002655,0
51670,51670,2021-01-22 04:49:03.581,82.94632,0
51680,51680,2021-01-22 04:49:33.581,82.968124,0
51690,51690,2021-01-22 04:50:03.581,83.00923,0
51700,51700,2021-01-22 04:50:33.581,79.844505,0
51710,51710,2021-01-22 04:51:03.581,79.707756,0
51720,51720,2021-01-22 04:51:33.581,79.7051,0
51730,51730,2021-01-22 04:52:03.581,79.51995,0
51740,51740,2021-01-22 04:52:33.581,79.81662,0
51750,51750,2021-01-22 04:53:03.581,79.947914,0
51760,51760,2021-01-22 04:53:33.581,79.87982,0
51770,51770,2021-01-22 04:54:03.581,79.8852,0
51780,51780,2021-01-22 04:54:33.581,80.020004,0
51790,51790,2021-01-22 04:55:03.581,80.13651999999999,0
51800,51800,2021-01-22 04:55:33.581,79.96412,0
51810,51810,2021-01-22 04:56:03.581,79.89811,0
51820,51820,2021-01-22 04:56:33.581,79.985794,0
51830,51830,2021-01-22 04:57:03.581,80.06285,0
51840,51840,2021-01-22 04:57:33.581,80.08983,0
51850,51850,2021-01-22 04:58:03.581,79.96368000000001,0
51860,51860,2021-01-22 04:58:33.581,80.031975,0
51870,51870,2021-01-22 04:59:03.581,80.19032,0
51880,51880,2021-01-22 04:59:33.581,80.36726999999999,0
51890,51890,2021-01-22 05:00:03.581,80.30256999999999,0
51900,51900,2021-01-22 05:00:33.581,80.82802,0
51910,51910,2021-01-22 05:01:03.581,80.88356,0
51920,51920,2021-01-22 05:01:33.581,80.8856,0
51930,51930,2021-01-22 05:02:03.581,80.84685,0
51940,51940,2021-01-22 05:02:33.581,81.05363,0
51950,51950,2021-01-22 05:03:03.581,81.17088000000001,0
51960,51960,2021-01-22 05:03:33.581,81.20939,0
51970,51970,2021-01-22 05:04:03.581,81.07096999999999,0
51980,51980,2021-01-22 05:04:33.581,81.05519,0
51990,51990,2021-01-22 05:05:03.581,80.968124,0
52000,52000,2021-01-22 05:05:33.581,81.00925,0
52010,52010,2021-01-22 05:06:03.581,81.03626,0
52020,52020,2021-01-22 05:06:33.581,81.08545,0
52030,52030,2021-01-22 05:07:03.581,81.04699000000001,0
52040,52040,2021-01-22 05:07:33.581,81.03633,0
52050,52050,2021-01-22 05:08:03.581,80.95810999999999,0
52060,52060,2021-01-22 05:08:33.581,81.00494,0
52070,52070,2021-01-22 05:09:03.581,80.966515,0
52080,52080,2021-01-22 05:09:33.581,80.95333000000001,0
52090,52090,2021-01-22 05:10:03.581,80.928925,0
52100,52100,2021-01-22 05:10:33.581,80.9291,0
52110,52110,2021-01-22 05:11:03.581,80.957306,0
52120,52120,2021-01-22 05:11:33.581,80.940765,0
52130,52130,2021-01-22 05:12:03.581,80.9695,0
52140,52140,2021-01-22 05:12:33.581,81.03155,0
52150,52150,2021-01-22 05:13:03.581,81.03653,0
52160,52160,2021-01-22 05:13:33.581,81.022865,0
52170,52170,2021-01-22 05:14:03.581,81.010704,0
52180,52180,2021-01-22 05:14:33.581,80.99428,0
52190,52190,2021-01-22 05:15:03.581,78.95699,0
52200,52200,2021-01-22 05:15:33.581,78.82263,0
52210,52210,2021-01-22 05:16:03.581,78.84172,0
52220,52220,2021-01-22 05:16:33.581,78.77673,0
52230,52230,2021-01-22 05:17:03.581,79.02292,0
52240,52240,2021-01-22 05:17:33.581,79.0067,0
52250,52250,2021-01-22 05:18:03.581,78.94666,0
52260,52260,2021-01-22 05:18:33.581,78.95222,0
52270,52270,2021-01-22 05:19:03.581,79.006294,0
52280,52280,2021-01-22 05:19:33.581,79.02704,0
52290,52290,2021-01-22 05:20:03.581,78.91665,0
52300,52300,2021-01-22 05:20:33.581,78.92255,0
52310,52310,2021-01-22 05:21:03.581,78.95187,0
52320,52320,2021-01-22 05:21:33.581,78.989784,0
52330,52330,2021-01-22 05:22:03.581,79.01826,0
52340,52340,2021-01-22 05:22:33.581,79.03835,0
52350,52350,2021-01-22 05:23:03.581,79.07585,0
52360,52360,2021-01-22 05:23:33.581,79.1577,0
52370,52370,2021-01-22 05:24:03.581,79.24485,0
52380,52380,2021-01-22 05:24:33.581,79.201706,0
52390,52390,2021-01-22 05:25:03.581,79.188,0
52400,52400,2021-01-22 05:25:33.581,79.1276,0
52410,52410,2021-01-22 05:26:03.581,79.2033,0
52420,52420,2021-01-22 05:26:33.581,79.11901999999999,0
52430,52430,2021-01-22 05:27:03.581,79.241196,0
52440,52440,2021-01-22 05:27:33.581,79.22394,0
52450,52450,2021-01-22 05:28:03.581,79.15992,0
52460,52460,2021-01-22 05:28:33.581,79.07457,0
52470,52470,2021-01-22 05:29:03.581,79.10039,0
52480,52480,2021-01-22 05:29:33.581,79.0,0
52490,52490,2021-01-22 05:30:03.581,79.0,0
52500,52500,2021-01-22 05:30:33.581,79.0,0
52510,52510,2021-01-22 05:31:03.581,79.0,0
52520,52520,2021-01-22 05:31:33.581,79.0,0
52530,52530,2021-01-22 05:32:03.581,79.0,0
52540,52540,2021-01-22 05:32:33.581,79.0,0
52550,52550,2021-01-22 05:33:03.581,79.0,0
52560,52560,2021-01-22 05:33:33.581,79.0,0
52570,52570,2021-01-22 05:34:03.581,79.0,0
52580,52580,2021-01-22 05:34:33.581,79.0,0
52590,52590,2021-01-22 05:35:03.581,79.0,0
52600,52600,2021-01-22 05:35:33.581,79.0,0
52610,52610,2021-01-22 05:36:03.581,79.90458000000001,0
52620,52620,2021-01-22 05:36:33.581,77.024765,0
52630,52630,2021-01-22 05:37:03.581,76.75118,0
52640,52640,2021-01-22 05:37:33.581,76.86445,0
52650,52650,2021-01-22 05:38:03.581,76.70279000000001,0
52660,52660,2021-01-22 05:38:33.581,76.97766,0
52670,52670,2021-01-22 05:39:03.581,76.987526,0
52680,52680,2021-01-22 05:39:33.581,76.917816,0
52690,52690,2021-01-22 05:40:03.581,76.873695,0
52700,52700,2021-01-22 05:40:33.581,76.97476999999999,0
52710,52710,2021-01-22 05:41:03.581,77.04249,0
52720,52720,2021-01-22 05:41:33.581,76.9229,0
52730,52730,2021-01-22 05:42:03.581,76.82345,0
52740,52740,2021-01-22 05:42:33.581,76.928345,0
52750,52750,2021-01-22 05:43:03.581,76.90849,0
52760,52760,2021-01-22 05:43:33.581,76.98825,0
52770,52770,2021-01-22 05:44:03.581,76.997505,0
52780,52780,2021-01-22 05:44:33.581,76.93592,0
52790,52790,2021-01-22 05:45:03.581,77.095184,0
52800,52800,2021-01-22 05:45:33.581,77.22910999999999,0
52810,52810,2021-01-22 05:46:03.581,77.13915,0
52820,52820,2021-01-22 05:46:33.581,77.14409,0
52830,52830,2021-01-22 05:47:03.581,77.046974,0
52840,52840,2021-01-22 05:47:33.581,77.15847,0
52850,52850,2021-01-22 05:48:03.581,76.99197,0
52860,52860,2021-01-22 05:48:33.581,77.20358,0
52870,52870,2021-01-22 05:49:03.581,77.17184,0
52880,52880,2021-01-22 05:49:33.581,77.15758000000001,0
52890,52890,2021-01-22 05:50:03.581,77.016655,0
52900,52900,2021-01-22 05:50:33.581,77.15059000000001,0
52910,52910,2021-01-22 05:51:03.581,77.0,0
52920,52920,2021-01-22 05:51:33.581,77.0,0
52930,52930,2021-01-22 05:52:03.581,77.90458000000001,0
52940,52940,2021-01-22 05:52:33.581,78.02372,0
52950,52950,2021-01-22 05:53:03.581,78.01104000000001,0
52960,52960,2021-01-22 05:53:33.581,77.98182,0
52970,52970,2021-01-22 05:54:03.581,77.948975,0
52980,52980,2021-01-22 05:54:33.581,77.982895,0
52990,52990,2021-01-22 05:55:03.581,74.807175,0
53000,53000,2021-01-22 05:55:33.581,74.51813,0
53010,53010,2021-01-22 05:56:03.581,74.541595,0
53020,53020,2021-01-22 05:56:33.581,74.479225,0
53030,53030,2021-01-22 05:57:03.581,74.783005,0
53040,53040,2021-01-22 05:57:33.581,74.91176,0
53050,53050,2021-01-22 05:58:03.581,74.9246,0
53060,53060,2021-01-22 05:58:33.581,74.82789,0
53070,53070,2021-01-22 05:59:03.581,74.9635,0
53080,53080,2021-01-22 05:59:33.581,74.98709000000001,0
53090,53090,2021-01-22 06:00:03.581,74.958664,0
53100,53100,2021-01-22 06:00:33.581,74.90181,0
53110,53110,2021-01-22 06:01:03.581,74.9639,0
53120,53120,2021-01-22 06:01:33.581,75.08726999999999,0
53130,53130,2021-01-22 06:02:03.581,75.06026,0
53140,53140,2021-01-22 06:02:33.581,75.01361,0
53150,53150,2021-01-22 06:03:03.581,74.997986,0
53160,53160,2021-01-22 06:03:33.581,75.14604,0
53170,53170,2021-01-22 06:04:03.581,75.19025,0
53180,53180,2021-01-22 06:04:33.581,75.17969000000001,0
53190,53190,2021-01-22 06:05:03.581,75.718956,0
53200,53200,2021-01-22 06:05:33.581,75.74316400000001,0
53210,53210,2021-01-22 06:06:03.581,75.777214,0
53220,53220,2021-01-22 06:06:33.581,75.84685,0
53230,53230,2021-01-22 06:07:03.581,76.053635,0
53240,53240,2021-01-22 06:07:33.581,76.170876,0
53250,53250,2021-01-22 06:08:03.581,76.20938000000001,0
53260,53260,2021-01-22 06:08:33.581,76.07096,0
53270,53270,2021-01-22 06:09:03.581,76.05519,0
53280,53280,2021-01-22 06:09:33.581,75.96812,0
53290,53290,2021-01-22 06:10:03.581,76.00924,0
53300,53300,2021-01-22 06:10:33.581,73.87892,0
53310,53310,2021-01-22 06:11:03.581,73.83438000000001,0
53320,53320,2021-01-22 06:11:33.581,73.81827,0
53330,53330,2021-01-22 06:12:03.581,73.65867,0
53340,53340,2021-01-22 06:12:33.581,73.81699,0
53350,53350,2021-01-22 06:13:03.581,73.957146,0
53360,53360,2021-01-22 06:13:33.581,73.91542,0
53370,53370,2021-01-22 06:14:03.581,73.92434,0
53380,53380,2021-01-22 06:14:33.581,74.01288000000001,0
53390,53390,2021-01-22 06:15:03.581,74.10656,0
53400,53400,2021-01-22 06:15:33.581,73.97379000000001,0
53410,53410,2021-01-22 06:16:03.581,73.87255,0
53420,53420,2021-01-22 06:16:33.581,73.98055,0
53430,53430,2021-01-22 06:17:03.581,74.062294,0
53440,53440,2021-01-22 06:17:33.581,74.1052,0
53450,53450,2021-01-22 06:18:03.581,73.971176,0
53460,53460,2021-01-22 06:18:33.581,73.98363499999999,0
53470,53470,2021-01-22 06:19:03.581,74.10276,0
53480,53480,2021-01-22 06:19:33.581,74.24485,0
53490,53490,2021-01-22 06:20:03.581,74.20170999999999,0
53500,53500,2021-01-22 06:20:33.581,74.188,0
53510,53510,2021-01-22 06:21:03.581,74.1276,0
53520,53520,2021-01-22 06:21:33.581,74.2033,0
53530,53530,2021-01-22 06:22:03.581,74.11901999999999,0
53540,53540,2021-01-22 06:22:33.581,74.241196,0
53550,53550,2021-01-22 06:23:03.581,72.34425,0
53560,53560,2021-01-22 06:23:33.581,72.04431,0
53570,53570,2021-01-22 06:24:03.581,72.13838,0
53580,53580,2021-01-22 06:24:33.581,71.97375,0
53590,53590,2021-01-22 06:25:03.581,72.02292,0
53600,53600,2021-01-22 06:25:33.581,72.0067,0
53610,53610,2021-01-22 06:26:03.581,71.94666,0
53620,53620,2021-01-22 06:26:33.581,71.95222,0
53630,53630,2021-01-22 06:27:03.581,72.00629,0
53640,53640,2021-01-22 06:27:33.581,72.02703000000001,0
53650,53650,2021-01-22 06:28:03.581,71.91664,0
53660,53660,2021-01-22 06:28:33.581,71.92255,0
53670,53670,2021-01-22 06:29:03.581,71.95187,0
53680,53680,2021-01-22 06:29:33.581,71.989784,0
53690,53690,2021-01-22 06:30:03.581,72.01826,0
53700,53700,2021-01-22 06:30:33.581,72.03835,0
53710,53710,2021-01-22 06:31:03.581,72.07585999999999,0
53720,53720,2021-01-22 06:31:33.581,72.1577,0
53730,53730,2021-01-22 06:32:03.581,72.24485,0
53740,53740,2021-01-22 06:32:33.581,72.20170999999999,0
53750,53750,2021-01-22 06:33:03.581,72.188,0
53760,53760,2021-01-22 06:33:33.581,70.193634,0
53770,53770,2021-01-22 06:34:03.581,70.1829,0
53780,53780,2021-01-22 06:34:33.581,70.29132,0
53790,53790,2021-01-22 06:35:03.581,70.24461,0
53800,53800,2021-01-22 06:35:33.581,70.217224,0
53810,53810,2021-01-22 06:36:03.581,70.05339000000001,0
53820,53820,2021-01-22 06:36:33.581,69.993095,0
53830,53830,2021-01-22 06:37:03.581,69.955574,0
53840,53840,2021-01-22 06:37:33.581,70.006294,0
53850,53850,2021-01-22 06:38:03.581,70.02704,0
53860,53860,2021-01-22 06:38:33.581,69.91664,0
53870,53870,2021-01-22 06:39:03.581,69.92255,0
53880,53880,2021-01-22 06:39:33.581,69.95186600000001,0
53890,53890,2021-01-22 06:40:03.581,69.989784,0
53900,53900,2021-01-22 06:40:33.581,68.42835,0
53910,53910,2021-01-22 06:41:03.581,68.23751999999999,0
