,Unnamed: 0,time,preds,step
12364,12364,2021-02-09 14:53:42.498,41.149229999999996,4
12374,12374,2021-02-09 14:54:12.498,35.518044,4
12384,12384,2021-02-09 14:54:42.498,37.040817,4
12394,12394,2021-02-09 14:55:12.498,32.638844,4
12404,12404,2021-02-09 14:55:42.498,29.688082,4
12414,12414,2021-02-09 14:56:12.498,26.671675,4
12424,12424,2021-02-09 14:56:42.498,27.032425,4
12434,12434,2021-02-09 14:57:12.498,27.75303,4
12444,12444,2021-02-09 14:57:42.498,30.108614000000003,4
12454,12454,2021-02-09 14:58:12.498,30.124676,4
12464,12464,2021-02-09 14:58:42.498,31.381003999999997,4
12474,12474,2021-02-09 14:59:12.498,34.844856,4
12484,12484,2021-02-09 14:59:42.498,33.10609,4
12494,12494,2021-02-09 15:00:12.498,38.715903999999995,4
12504,12504,2021-02-09 15:00:42.498,31.528557,4
12514,12514,2021-02-09 15:01:12.498,31.637627000000002,4
12524,12524,2021-02-09 15:01:42.498,31.443659999999998,4
12534,12534,2021-02-09 15:02:12.498,33.96771,4
12544,12544,2021-02-09 15:02:42.498,34.34554,4
12554,12554,2021-02-09 15:03:12.498,33.06037,4
12564,12564,2021-02-09 15:03:42.498,31.755783,4
12574,12574,2021-02-09 15:04:12.498,31.515144,4
12584,12584,2021-02-09 15:04:42.498,32.009712,4
12594,12594,2021-02-09 15:05:12.498,33.112026,4
12604,12604,2021-02-09 15:05:42.498,36.40768,4
12614,12614,2021-02-09 15:06:12.498,39.49262,4
12624,12624,2021-02-09 15:06:42.498,39.83376,4
12634,12634,2021-02-09 15:07:12.498,39.305240000000005,4
12644,12644,2021-02-09 15:07:42.498,38.114246,4
12654,12654,2021-02-09 15:08:12.498,36.232746,4
12664,12664,2021-02-09 15:08:42.498,33.807697,4
12674,12674,2021-02-09 15:09:12.498,33.856106,4
12684,12684,2021-02-09 15:09:42.498,34.66302,4
12694,12694,2021-02-09 15:10:12.498,33.70425,4
12704,12704,2021-02-09 15:10:42.498,33.721107,4
12714,12714,2021-02-09 15:11:12.498,33.722946,4
12724,12724,2021-02-09 15:11:42.498,38.3676,4
12734,12734,2021-02-09 15:12:12.498,34.131009999999996,4
12744,12744,2021-02-09 15:12:42.498,34.396442,4
12754,12754,2021-02-09 15:13:12.498,34.056927,4
12764,12764,2021-02-09 15:13:42.498,38.569935,4
12774,12774,2021-02-09 15:14:12.498,38.534363,4
12784,12784,2021-02-09 15:14:42.498,35.383133,4
12794,12794,2021-02-09 15:15:12.498,34.545826,4
12804,12804,2021-02-09 15:15:42.498,34.156597,4
12814,12814,2021-02-09 15:16:12.498,34.359665,4
12824,12824,2021-02-09 15:16:42.498,35.03613,4
12834,12834,2021-02-09 15:17:12.498,34.669636,4
12844,12844,2021-02-09 15:17:42.498,35.047764,4
12854,12854,2021-02-09 15:18:12.498,35.616935999999995,4
12864,12864,2021-02-09 15:18:42.498,35.28988,4
12874,12874,2021-02-09 15:19:12.498,34.205013,4
12884,12884,2021-02-09 15:19:42.498,33.698192999999996,4
12894,12894,2021-02-09 15:20:12.498,33.1043,4
12904,12904,2021-02-09 15:20:42.498,34.618359999999996,4
12914,12914,2021-02-09 15:21:12.498,33.50298,4
12924,12924,2021-02-09 15:21:42.498,33.85406,4
12934,12934,2021-02-09 15:22:12.498,33.54307,4
12944,12944,2021-02-09 15:22:42.498,34.1003,4
12954,12954,2021-02-09 15:23:12.498,34.045970000000004,4
12964,12964,2021-02-09 15:23:42.498,33.144093,4
12974,12974,2021-02-09 15:24:12.498,33.761845,4
12984,12984,2021-02-09 15:24:42.498,32.891459999999995,4
12994,12994,2021-02-09 15:25:12.498,34.025246,4
13004,13004,2021-02-09 15:25:42.498,33.302296000000005,4
13014,13014,2021-02-09 15:26:12.498,32.267754,4
13024,13024,2021-02-09 15:26:42.498,32.38759,4
13034,13034,2021-02-09 15:27:12.498,31.154723999999998,4
13044,13044,2021-02-09 15:27:42.498,31.703327,4
13054,13054,2021-02-09 15:28:12.498,29.716719,4
13064,13064,2021-02-09 15:28:42.498,27.426803999999997,4
13074,13074,2021-02-09 15:29:12.498,24.056845000000003,4
13084,13084,2021-02-09 15:29:42.498,20.856173000000002,4
13094,13094,2021-02-09 15:30:12.498,21.756563,4
13104,13104,2021-02-09 15:30:42.498,21.274254,4
13114,13114,2021-02-09 15:31:12.498,31.240639,4
13124,13124,2021-02-09 15:31:42.498,43.515125,4
13134,13134,2021-02-09 15:32:12.498,39.45459,4
13144,13144,2021-02-09 15:32:42.498,35.706738,4
13154,13154,2021-02-09 15:33:12.498,42.45016,4
13164,13164,2021-02-09 15:33:42.498,42.026962,4
13174,13174,2021-02-09 15:34:12.498,44.856007,4
13184,13184,2021-02-09 15:34:42.498,44.02108,4
13194,13194,2021-02-09 15:35:12.498,50.753616,4
13204,13204,2021-02-09 15:35:42.498,52.578790000000005,4
13214,13214,2021-02-09 15:36:12.498,105.84203000000001,4
13224,13224,2021-02-09 15:36:42.498,114.504395,4
13234,13234,2021-02-09 15:37:12.498,72.11484,4
13244,13244,2021-02-09 15:37:42.498,62.302443999999994,4
