,Unnamed: 0,time,prediction,step
24224,24224,2021-02-09 14:53:42.498,49.3227,4
24234,24234,2021-02-09 14:54:12.498,48.91297,4
24244,24244,2021-02-09 14:54:42.498,48.549620000000004,4
24254,24254,2021-02-09 14:55:12.498,47.687866,4
24264,24264,2021-02-09 14:55:42.498,46.06576,4
24274,24274,2021-02-09 14:56:12.498,45.4804,4
24284,24284,2021-02-09 14:56:42.498,44.68306,4
24294,24294,2021-02-09 14:57:12.498,43.428000000000004,4
24304,24304,2021-02-09 14:57:42.498,42.619679999999995,4
24314,24314,2021-02-09 14:58:12.498,41.41872,4
24324,24324,2021-02-09 14:58:42.498,39.69298,4
24334,24334,2021-02-09 14:59:12.498,38.633476,4
24344,24344,2021-02-09 14:59:42.498,36.932327,4
24354,24354,2021-02-09 15:00:12.498,34.014202000000004,4
24364,24364,2021-02-09 15:00:42.498,34.079834000000005,4
24374,24374,2021-02-09 15:01:12.498,34.245197,4
24384,24384,2021-02-09 15:01:42.498,34.535378,4
24394,24394,2021-02-09 15:02:12.498,34.899035999999995,4
24404,24404,2021-02-09 15:02:42.498,35.205784,4
24414,24414,2021-02-09 15:03:12.498,35.540172999999996,4
24424,24424,2021-02-09 15:03:42.498,35.60367,4
24434,24434,2021-02-09 15:04:12.498,35.725952,4
24444,24444,2021-02-09 15:04:42.498,35.956585,4
24454,24454,2021-02-09 15:05:12.498,36.207553999999995,4
24464,24464,2021-02-09 15:05:42.498,36.37038,4
24474,24474,2021-02-09 15:06:12.498,36.641342,4
24484,24484,2021-02-09 15:06:42.498,36.711597,4
24494,24494,2021-02-09 15:07:12.498,36.858990000000006,4
24504,24504,2021-02-09 15:07:42.498,36.891690000000004,4
24514,24514,2021-02-09 15:08:12.498,37.012856,4
24524,24524,2021-02-09 15:08:42.498,37.184204,4
24534,24534,2021-02-09 15:09:12.498,37.32958,4
24544,24544,2021-02-09 15:09:42.498,37.589935,4
24554,24554,2021-02-09 15:10:12.498,37.565544,4
24564,24564,2021-02-09 15:10:42.498,37.508514,4
24574,24574,2021-02-09 15:11:12.498,37.38392,4
24584,24584,2021-02-09 15:11:42.498,37.4888,4
24594,24594,2021-02-09 15:12:12.498,37.20261,4
24604,24604,2021-02-09 15:12:42.498,37.197052,4
24614,24614,2021-02-09 15:13:12.498,37.041878000000004,4
24624,24624,2021-02-09 15:13:42.498,37.098934,4
24634,24634,2021-02-09 15:14:12.498,37.21928,4
24644,24644,2021-02-09 15:14:42.498,37.205925,4
24654,24654,2021-02-09 15:15:12.498,37.23319,4
24664,24664,2021-02-09 15:15:42.498,35.185295,4
24674,24674,2021-02-09 15:16:12.498,37.03406,4
24684,24684,2021-02-09 15:16:42.498,37.102596000000005,4
24694,24694,2021-02-09 15:17:12.498,37.07606,4
24704,24704,2021-02-09 15:17:42.498,37.191227000000005,4
24714,24714,2021-02-09 15:18:12.498,37.270790000000005,4
24724,24724,2021-02-09 15:18:42.498,37.01885,4
24734,24734,2021-02-09 15:19:12.498,35.22072,4
24744,24744,2021-02-09 15:19:42.498,34.76093,4
24754,24754,2021-02-09 15:20:12.498,34.317352,4
24764,24764,2021-02-09 15:20:42.498,35.13013,4
24774,24774,2021-02-09 15:21:12.498,34.398922,4
24784,24784,2021-02-09 15:21:42.498,34.676840000000006,4
24794,24794,2021-02-09 15:22:12.498,34.28957,4
24804,24804,2021-02-09 15:22:42.498,34.92558,4
24814,24814,2021-02-09 15:23:12.498,36.20125,4
24824,24824,2021-02-09 15:23:42.498,34.51781,4
24834,24834,2021-02-09 15:24:12.498,35.14018,4
24844,24844,2021-02-09 15:24:42.498,34.226154,4
24854,24854,2021-02-09 15:25:12.498,35.78164,4
24864,24864,2021-02-09 15:25:42.498,34.282806,4
24874,24874,2021-02-09 15:26:12.498,33.491882000000004,4
24884,24884,2021-02-09 15:26:42.498,32.782013,4
24894,24894,2021-02-09 15:27:12.498,32.389538,4
24904,24904,2021-02-09 15:27:42.498,32.25397,4
24914,24914,2021-02-09 15:28:12.498,31.562396999999997,4
24924,24924,2021-02-09 15:28:42.498,30.388673999999998,4
24934,24934,2021-02-09 15:29:12.498,28.492962,4
24944,24944,2021-02-09 15:29:42.498,26.542659999999998,4
24954,24954,2021-02-09 15:30:12.498,25.97786,4
24964,24964,2021-02-09 15:30:42.498,25.39094,4
24974,24974,2021-02-09 15:31:12.498,29.210356,4
24984,24984,2021-02-09 15:31:42.498,46.616814,4
24994,24994,2021-02-09 15:32:12.498,49.373259999999995,4
25004,25004,2021-02-09 15:32:42.498,51.784195000000004,4
25014,25014,2021-02-09 15:33:12.498,56.33051,4
25024,25024,2021-02-09 15:33:42.498,60.264996,4
25034,25034,2021-02-09 15:34:12.498,68.11377,4
25044,25044,2021-02-09 15:34:42.498,75.414474,4
25054,25054,2021-02-09 15:35:12.498,89.8486,4
25064,25064,2021-02-09 15:35:42.498,103.37087,4
25074,25074,2021-02-09 15:36:12.498,136.40196,4
25084,25084,2021-02-09 15:36:42.498,170.23963999999998,4
25094,25094,2021-02-09 15:37:12.498,197.81061,4
25104,25104,2021-02-09 15:37:42.498,226.2708,4
