,Unnamed: 0,time,prediction,step
5265,5265,2021-02-10 07:47:42.950,89.50849000000001,5
5275,5275,2021-02-10 07:48:12.950,88.628975,5
5285,5285,2021-02-10 07:48:42.950,88.30933,5
5295,5295,2021-02-10 07:49:12.950,88.17376999999999,5
5305,5305,2021-02-10 07:49:42.950,87.7221,5
5315,5315,2021-02-10 07:50:12.950,87.24294,5
5325,5325,2021-02-10 07:50:42.950,87.11208,5
5335,5335,2021-02-10 07:51:12.950,86.96909000000001,5
5345,5345,2021-02-10 07:51:42.950,86.68445600000001,5
5355,5355,2021-02-10 07:52:12.950,86.580635,5
5365,5365,2021-02-10 07:52:42.950,86.48548000000001,5
5375,5375,2021-02-10 07:53:12.950,86.315315,5
5385,5385,2021-02-10 07:53:42.950,86.27624499999999,5
5395,5395,2021-02-10 07:54:12.950,86.23040999999999,5
5405,5405,2021-02-10 07:54:42.950,86.45906,5
5415,5415,2021-02-10 07:55:12.950,86.32683,5
5425,5425,2021-02-10 07:55:42.950,86.27888,5
5435,5435,2021-02-10 07:56:12.950,86.328766,5
5445,5445,2021-02-10 07:56:42.950,85.68764499999999,5
5455,5455,2021-02-10 07:57:12.950,85.24201,5
5465,5465,2021-02-10 07:57:42.950,84.90483,5
5475,5475,2021-02-10 07:58:12.950,84.62588000000001,5
5485,5485,2021-02-10 07:58:42.950,84.354485,5
5495,5495,2021-02-10 07:59:12.950,84.159485,5
5505,5505,2021-02-10 07:59:42.950,84.001396,5
5515,5515,2021-02-10 08:00:12.950,83.87185,5
5525,5525,2021-02-10 08:00:42.950,83.76685,5
5535,5535,2021-02-10 08:01:12.950,83.61429,5
5545,5545,2021-02-10 08:01:42.950,83.47564,5
5555,5555,2021-02-10 08:02:12.950,83.46229,5
5565,5565,2021-02-10 08:02:42.950,83.15949,5
5575,5575,2021-02-10 08:03:12.950,82.89818000000001,5
5585,5585,2021-02-10 08:03:42.950,82.67189,5
5595,5595,2021-02-10 08:04:12.950,82.56777,5
5605,5605,2021-02-10 08:04:42.950,82.51004,5
5615,5615,2021-02-10 08:05:12.950,82.50500500000001,5
5625,5625,2021-02-10 08:05:42.950,82.426384,5
5635,5635,2021-02-10 08:06:12.950,82.38509,5
5645,5645,2021-02-10 08:06:42.950,82.28837,5
5655,5655,2021-02-10 08:07:12.950,82.21167,5
5665,5665,2021-02-10 08:07:42.950,81.788414,5
5675,5675,2021-02-10 08:08:12.950,81.44882,5
5685,5685,2021-02-10 08:08:42.950,80.95123000000001,5
5695,5695,2021-02-10 08:09:12.950,80.54966,5
5705,5705,2021-02-10 08:09:42.950,80.33973,5
5715,5715,2021-02-10 08:10:12.950,80.082634,5
5725,5725,2021-02-10 08:10:42.950,79.88526999999999,5
5735,5735,2021-02-10 08:11:12.950,79.90003,5
5745,5745,2021-02-10 08:11:42.950,79.653275,5
5755,5755,2021-02-10 08:12:12.950,79.56586,5
5765,5765,2021-02-10 08:12:42.950,79.49122,5
5775,5775,2021-02-10 08:13:12.950,79.13504,5
5785,5785,2021-02-10 08:13:42.950,78.8294,5
5795,5795,2021-02-10 08:14:12.950,78.56781,5
5805,5805,2021-02-10 08:14:42.950,78.34640999999999,5
5815,5815,2021-02-10 08:15:12.950,78.16239,5
5825,5825,2021-02-10 08:15:42.950,78.01354,5
5835,5835,2021-02-10 08:16:12.950,77.89881,5
5845,5845,2021-02-10 08:16:42.950,77.81854,5
5855,5855,2021-02-10 08:17:12.950,77.91328,5
5865,5865,2021-02-10 08:17:42.950,77.823944,5
5875,5875,2021-02-10 08:18:12.950,77.61847,5
5885,5885,2021-02-10 08:18:42.950,77.45788,5
5895,5895,2021-02-10 08:19:12.950,77.3407,5
5905,5905,2021-02-10 08:19:42.950,77.26765400000001,5
5915,5915,2021-02-10 08:20:12.950,77.24155400000001,5
5925,5925,2021-02-10 08:20:42.950,77.267914,5
5935,5935,2021-02-10 08:21:12.950,77.355995,5
5945,5945,2021-02-10 08:21:42.950,77.52132399999999,5
5955,5955,2021-02-10 08:22:12.950,77.79445,5
5965,5965,2021-02-10 08:22:42.950,77.373245,5
5975,5975,2021-02-10 08:23:12.950,77.24971,5
5985,5985,2021-02-10 08:23:42.950,77.07857,5
5995,5995,2021-02-10 08:24:12.950,76.93043,5
6005,6005,2021-02-10 08:24:42.950,76.80364,5
6015,6015,2021-02-10 08:25:12.950,76.69719,5
6025,6025,2021-02-10 08:25:42.950,76.61063,5
6035,6035,2021-02-10 08:26:12.950,76.54406999999999,5
6045,6045,2021-02-10 08:26:42.950,76.4982,5
6055,6055,2021-02-10 08:27:12.950,76.62033000000001,5
6065,6065,2021-02-10 08:27:42.950,76.121544,5
6075,6075,2021-02-10 08:28:12.950,75.53418,5
6085,6085,2021-02-10 08:28:42.950,75.05456,5
6095,6095,2021-02-10 08:29:12.950,74.65029,5
6105,6105,2021-02-10 08:29:42.950,74.30431,5
6115,6115,2021-02-10 08:30:12.950,74.16317,5
6125,6125,2021-02-10 08:30:42.950,74.04601,5
6135,6135,2021-02-10 08:31:12.950,73.95354499999999,5
6145,6145,2021-02-10 08:31:42.950,73.55858,5
6155,6155,2021-02-10 08:32:12.950,73.230576,5
6165,6165,2021-02-10 08:32:42.950,72.96126,5
6175,6175,2021-02-10 08:33:12.950,72.67043000000001,5
6185,6185,2021-02-10 08:33:42.950,72.41791500000001,5
6195,6195,2021-02-10 08:34:12.950,72.20088,5
6205,6205,2021-02-10 08:34:42.950,72.01776,5
6215,6215,2021-02-10 08:35:12.950,71.86779,5
6225,6225,2021-02-10 08:35:42.950,71.601,5
6235,6235,2021-02-10 08:36:12.950,71.38525,5
6245,6245,2021-02-10 08:36:42.950,71.21826,5
6255,6255,2021-02-10 08:37:12.950,71.10098,5
6265,6265,2021-02-10 08:37:42.950,70.882774,5
6275,6275,2021-02-10 08:38:12.950,70.74268000000001,5
6285,6285,2021-02-10 08:38:42.950,70.63634,5
6295,6295,2021-02-10 08:39:12.950,70.67192,5
6305,6305,2021-02-10 08:39:42.950,70.30400999999999,5
6315,6315,2021-02-10 08:40:12.950,70.02121,5
6325,6325,2021-02-10 08:40:42.950,69.81221,5
6335,6335,2021-02-10 08:41:12.950,69.68021999999999,5
6345,6345,2021-02-10 08:41:42.950,69.63586,5
6355,6355,2021-02-10 08:42:12.950,69.69799,5
6365,6365,2021-02-10 08:42:42.950,69.46418,5
6375,6375,2021-02-10 08:43:12.950,69.26247,5
6385,6385,2021-02-10 08:43:42.950,68.718925,5
6395,6395,2021-02-10 08:44:12.950,68.26649,5
6405,6405,2021-02-10 08:44:42.950,67.89102,5
6415,6415,2021-02-10 08:45:12.950,67.68261,5
6425,6425,2021-02-10 08:45:42.950,67.55104,5
6435,6435,2021-02-10 08:46:12.950,67.493774,5
6445,6445,2021-02-10 08:46:42.950,67.41476999999999,5
6455,6455,2021-02-10 08:47:12.950,67.06564,5
6465,6465,2021-02-10 08:47:42.950,66.77293,5
6475,6475,2021-02-10 08:48:12.950,66.52838,5
6485,6485,2021-02-10 08:48:42.950,66.32741,5
6495,6495,2021-02-10 08:49:12.950,66.16795,5
6505,6505,2021-02-10 08:49:42.950,66.04998,5
6515,6515,2021-02-10 08:50:12.950,65.9753,5
6525,6525,2021-02-10 08:50:42.950,65.70856500000001,5
6535,6535,2021-02-10 08:51:12.950,65.4897,5
6545,6545,2021-02-10 08:51:42.950,65.31509,5
6555,6555,2021-02-10 08:52:12.950,65.02849,5
6565,6565,2021-02-10 08:52:42.950,64.95113,5
6575,6575,2021-02-10 08:53:12.950,64.7773,5
6585,6585,2021-02-10 08:53:42.950,64.67005,5
6595,6595,2021-02-10 08:54:12.950,64.80533,5
6605,6605,2021-02-10 08:54:42.950,64.625244,5
6615,6615,2021-02-10 08:55:12.950,64.48063,5
6625,6625,2021-02-10 08:55:42.950,64.371895,5
6635,6635,2021-02-10 08:56:12.950,63.961086,5
6645,6645,2021-02-10 08:56:42.950,63.63346,5
6655,6655,2021-02-10 08:57:12.950,63.539665,5
6665,6665,2021-02-10 08:57:42.950,63.49869,5
6675,6675,2021-02-10 08:58:12.950,63.51928,5
6685,6685,2021-02-10 08:58:42.950,63.384330000000006,5
6695,6695,2021-02-10 08:59:12.950,62.715412,5
6705,6705,2021-02-10 08:59:42.950,62.363631999999996,5
6715,6715,2021-02-10 09:00:12.950,62.065746,5
6725,6725,2021-02-10 09:00:42.950,61.81650500000001,5
6735,6735,2021-02-10 09:01:12.950,61.44548399999999,5
6745,6745,2021-02-10 09:01:42.950,61.251575,5
6755,6755,2021-02-10 09:02:12.950,60.93630600000001,5
6765,6765,2021-02-10 09:02:42.950,60.6674,5
6775,6775,2021-02-10 09:03:12.950,60.442375,5
6785,6785,2021-02-10 09:03:42.950,59.910045999999994,5
6795,6795,2021-02-10 09:04:12.950,59.468212,5
6805,6805,2021-02-10 09:04:42.950,59.267844999999994,5
6815,6815,2021-02-10 09:05:12.950,59.12124,5
6825,6825,2021-02-10 09:05:42.950,58.603508,5
6835,6835,2021-02-10 09:06:12.950,58.169773,5
6845,6845,2021-02-10 09:06:42.950,57.809605000000005,5
6855,6855,2021-02-10 09:07:12.950,57.442443999999995,5
6865,6865,2021-02-10 09:07:42.950,56.84165600000001,5
6875,6875,2021-02-10 09:08:12.950,56.268227,5
6885,6885,2021-02-10 09:08:42.950,55.36521,5
