,Unnamed: 0,time,prediction,step
5264,5264,2021-02-10 07:47:12.950,89.61223000000001,4
5274,5274,2021-02-10 07:47:42.950,88.75106,4
5284,5284,2021-02-10 07:48:12.950,88.44561999999999,4
5294,5294,2021-02-10 07:48:42.950,88.29373000000001,4
5304,5304,2021-02-10 07:49:12.950,87.764404,4
5314,5314,2021-02-10 07:49:42.950,87.26861600000001,4
5324,5324,2021-02-10 07:50:12.950,87.13927,4
5334,5334,2021-02-10 07:50:42.950,87.00992600000001,4
5344,5344,2021-02-10 07:51:12.950,86.73182,4
5354,5354,2021-02-10 07:51:42.950,86.61851,4
5364,5364,2021-02-10 07:52:12.950,86.52434000000001,4
5374,5374,2021-02-10 07:52:42.950,86.3662,4
5384,5384,2021-02-10 07:53:12.950,86.33535,4
5394,5394,2021-02-10 07:53:42.950,86.29929,4
5404,5404,2021-02-10 07:54:12.950,86.51621999999999,4
5414,5414,2021-02-10 07:54:42.950,86.40111999999999,4
5424,5424,2021-02-10 07:55:12.950,86.36201,4
5434,5434,2021-02-10 07:55:42.950,86.424095,4
5444,5444,2021-02-10 07:56:12.950,85.78604,4
5454,5454,2021-02-10 07:56:42.950,85.343544,4
5464,5464,2021-02-10 07:57:12.950,85.012825,4
5474,5474,2021-02-10 07:57:42.950,84.74179000000001,4
5484,5484,2021-02-10 07:58:12.950,84.47879,4
5494,5494,2021-02-10 07:58:42.950,84.28850600000001,4
5504,5504,2021-02-10 07:59:12.950,84.13449,4
5514,5514,2021-02-10 07:59:42.950,84.00813000000001,4
5524,5524,2021-02-10 08:00:12.950,83.90524,4
5534,5534,2021-02-10 08:00:42.950,83.75815,4
5544,5544,2021-02-10 08:01:12.950,83.62423000000001,4
5554,5554,2021-02-10 08:01:42.950,83.61572,4
5564,5564,2021-02-10 08:02:12.950,83.31475,4
5574,5574,2021-02-10 08:02:42.950,83.05711,4
5584,5584,2021-02-10 08:03:12.950,82.83414,4
5594,5594,2021-02-10 08:03:42.950,82.7262,4
5604,5604,2021-02-10 08:04:12.950,82.66255,4
5614,5614,2021-02-10 08:04:42.950,82.64905,4
5624,5624,2021-02-10 08:05:12.950,82.56792,4
5634,5634,2021-02-10 08:05:42.950,82.52248,4
5644,5644,2021-02-10 08:06:12.950,82.4264,4
5654,5654,2021-02-10 08:06:42.950,82.34952,4
5664,5664,2021-02-10 08:07:12.950,81.9324,4
5674,5674,2021-02-10 08:07:42.950,81.59674,4
5684,5684,2021-02-10 08:08:12.950,81.107574,4
5694,5694,2021-02-10 08:08:42.950,80.71149399999999,4
5704,5704,2021-02-10 08:09:12.950,80.49794,4
5714,5714,2021-02-10 08:09:42.950,80.242386,4
5724,5724,2021-02-10 08:10:12.950,80.04472,4
5734,5734,2021-02-10 08:10:42.950,80.04836,4
5744,5744,2021-02-10 08:11:12.950,79.807976,4
5754,5754,2021-02-10 08:11:42.950,79.72363,4
5764,5764,2021-02-10 08:12:12.950,79.65066,4
5774,5774,2021-02-10 08:12:42.950,79.30148,4
5784,5784,2021-02-10 08:13:12.950,79.00189,4
5794,5794,2021-02-10 08:13:42.950,78.74515,4
5804,5804,2021-02-10 08:14:12.950,78.52725,4
5814,5814,2021-02-10 08:14:42.950,78.345375,4
5824,5824,2021-02-10 08:15:12.950,78.19726,4
5834,5834,2021-02-10 08:15:42.950,78.08173000000001,4
5844,5844,2021-02-10 08:16:12.950,77.99903,4
5854,5854,2021-02-10 08:16:42.950,78.081345,4
5864,5864,2021-02-10 08:17:12.950,77.99129,4
5874,5874,2021-02-10 08:17:42.950,77.78676,4
5884,5884,2021-02-10 08:18:12.950,77.625786,4
5894,5894,2021-02-10 08:18:42.950,77.50665,4
5904,5904,2021-02-10 08:19:12.950,77.42985999999999,4
5914,5914,2021-02-10 08:19:42.950,77.39803,4
5924,5924,2021-02-10 08:20:12.950,77.416336,4
5934,5934,2021-02-10 08:20:42.950,77.49354,4
5944,5944,2021-02-10 08:21:12.950,77.64426999999999,4
5954,5954,2021-02-10 08:21:42.950,77.8975,4
5964,5964,2021-02-10 08:22:12.950,77.48562,4
5974,5974,2021-02-10 08:22:42.950,77.36120600000001,4
5984,5984,2021-02-10 08:23:12.950,77.193306,4
5994,5994,2021-02-10 08:23:42.950,77.04760999999999,4
6004,6004,2021-02-10 08:24:12.950,76.92246999999999,4
6014,6014,2021-02-10 08:24:42.950,76.81687,4
6024,6024,2021-02-10 08:25:12.950,76.73036,4
6034,6034,2021-02-10 08:25:42.950,76.66301999999999,4
6044,6044,2021-02-10 08:26:12.950,76.61545600000001,4
6054,6054,2021-02-10 08:26:42.950,76.72653000000001,4
6064,6064,2021-02-10 08:27:12.950,76.2368,4
6074,6074,2021-02-10 08:27:42.950,75.66545,4
6084,6084,2021-02-10 08:28:12.950,75.19799,4
6094,6094,2021-02-10 08:28:42.950,74.80343,4
6104,6104,2021-02-10 08:29:12.950,74.46526999999999,4
6114,6114,2021-02-10 08:29:42.950,74.326126,4
6124,6124,2021-02-10 08:30:12.950,74.20968,4
6134,6134,2021-02-10 08:30:42.950,74.11674000000001,4
6144,6144,2021-02-10 08:31:12.950,73.72948000000001,4
6154,6154,2021-02-10 08:31:42.950,73.40706,4
6164,6164,2021-02-10 08:32:12.950,73.1413,4
6174,6174,2021-02-10 08:32:42.950,72.85699,4
6184,6184,2021-02-10 08:33:12.950,72.609505,4
6194,6194,2021-02-10 08:33:42.950,72.39609499999999,4
6204,6204,2021-02-10 08:34:12.950,72.21519,4
6214,6214,2021-02-10 08:34:42.950,72.06603,4
6224,6224,2021-02-10 08:35:12.950,71.80256,4
6234,6234,2021-02-10 08:35:42.950,71.5884,4
6244,6244,2021-02-10 08:36:12.950,71.42109,4
6254,6254,2021-02-10 08:36:42.950,71.30141400000001,4
6264,6264,2021-02-10 08:37:12.950,71.088776,4
6274,6274,2021-02-10 08:37:42.950,70.94939000000001,4
6284,6284,2021-02-10 08:38:12.950,70.842316,4
6294,6294,2021-02-10 08:38:42.950,70.874504,4
6304,6304,2021-02-10 08:39:12.950,70.50761,4
6314,6314,2021-02-10 08:39:42.950,70.22577,4
6324,6324,2021-02-10 08:40:12.950,70.01547,4
6334,6334,2021-02-10 08:40:42.950,69.87908,4
6344,6344,2021-02-10 08:41:12.950,69.82628000000001,4
6354,6354,2021-02-10 08:41:42.950,69.8747,4
6364,6364,2021-02-10 08:42:12.950,69.64775999999999,4
6374,6374,2021-02-10 08:42:42.950,69.45136,4
6384,6384,2021-02-10 08:43:12.950,68.922485,4
6394,6394,2021-02-10 08:43:42.950,68.48257,4
6404,6404,2021-02-10 08:44:12.950,68.116425,4
6414,6414,2021-02-10 08:44:42.950,67.907036,4
6424,6424,2021-02-10 08:45:12.950,67.770424,4
6434,6434,2021-02-10 08:45:42.950,67.70465,4
6444,6444,2021-02-10 08:46:12.950,67.62626,4
6454,6454,2021-02-10 08:46:42.950,67.283936,4
6464,6464,2021-02-10 08:47:12.950,66.99659,4
6474,6474,2021-02-10 08:47:42.950,66.75582,4
6484,6484,2021-02-10 08:48:12.950,66.55679,4
6494,6494,2021-02-10 08:48:42.950,66.39735,4
6504,6504,2021-02-10 08:49:12.950,66.27725,4
6514,6514,2021-02-10 08:49:42.950,66.198135,4
6524,6524,2021-02-10 08:50:12.950,65.93502,4
6534,6534,2021-02-10 08:50:42.950,65.71819,4
6544,6544,2021-02-10 08:51:12.950,65.54358,4
6554,6554,2021-02-10 08:51:42.950,65.259224,4
6564,6564,2021-02-10 08:52:12.950,65.177635,4
6574,6574,2021-02-10 08:52:42.950,65.00010999999999,4
6584,6584,2021-02-10 08:53:12.950,64.88636,4
6594,6594,2021-02-10 08:53:42.950,65.00017,4
6604,6604,2021-02-10 08:54:12.950,64.82168,4
6614,6614,2021-02-10 08:54:42.950,64.67685999999999,4
6624,6624,2021-02-10 08:55:12.950,64.56604,4
6634,6634,2021-02-10 08:55:42.950,64.16196,4
6644,6644,2021-02-10 08:56:12.950,63.83803,4
6654,6654,2021-02-10 08:56:42.950,63.73980699999999,4
6664,6664,2021-02-10 08:57:12.950,63.69113,4
6674,6674,2021-02-10 08:57:42.950,63.70059200000001,4
6684,6684,2021-02-10 08:58:12.950,63.56686800000001,4
6694,6694,2021-02-10 08:58:42.950,62.917255000000004,4
6704,6704,2021-02-10 08:59:12.950,62.57291800000001,4
6714,6714,2021-02-10 08:59:42.950,62.280330000000006,4
6724,6724,2021-02-10 09:00:12.950,62.03415,4
6734,6734,2021-02-10 09:00:42.950,61.669419999999995,4
6744,6744,2021-02-10 09:01:12.950,61.471171999999996,4
6754,6754,2021-02-10 09:01:42.950,61.162519999999994,4
6764,6764,2021-02-10 09:02:12.950,60.89808299999999,4
6774,6774,2021-02-10 09:02:42.950,60.675380000000004,4
6784,6784,2021-02-10 09:03:12.950,60.154895999999994,4
6794,6794,2021-02-10 09:03:42.950,59.721394,4
6804,6804,2021-02-10 09:04:12.950,59.52089300000001,4
6814,6814,2021-02-10 09:04:42.950,59.37096,4
6824,6824,2021-02-10 09:05:12.950,58.864323,4
6834,6834,2021-02-10 09:05:42.950,58.43865600000001,4
6844,6844,2021-02-10 09:06:12.950,58.08343000000001,4
6854,6854,2021-02-10 09:06:42.950,57.723824,4
6864,6864,2021-02-10 09:07:12.950,57.1343,4
6874,6874,2021-02-10 09:07:42.950,56.573887,4
6884,6884,2021-02-10 09:08:12.950,55.695243999999995,4
