,Unnamed: 0,prediction,real,time,split
2593,2593,38.3961296081543,52.0,2021-01-18 16:15:55.785,train
2594,2594,41.32074737548828,39.0,2021-01-18 16:16:55.785,train
2595,2595,30.96307945251465,15.0,2021-01-18 16:17:55.785,train
2596,2596,18.94878387451172,23.0,2021-01-18 16:18:55.785,train
2597,2597,11.988914489746096,13.0,2021-01-18 16:19:55.785,train
2598,2598,6.233537673950195,5.0,2021-01-18 16:20:55.785,train
2599,2599,2.8997645378112797,3.0,2021-01-18 16:21:55.785,train
2600,2600,5.0364909172058105,5.0,2021-01-18 16:22:55.785,train
2601,2601,10.257731437683104,11.0,2021-01-18 16:23:55.785,train
2602,2602,18.91213035583496,10.0,2021-01-18 16:24:55.785,train
2603,2603,24.957313537597656,27.0,2021-01-18 16:25:55.785,train
2604,2604,48.4282455444336,43.0,2021-01-18 16:26:55.785,train
2605,2605,55.78416442871094,44.0,2021-01-18 16:27:55.785,train
2606,2606,62.8497543334961,48.0,2021-01-18 16:28:55.785,train
2607,2607,69.49372863769531,79.0,2021-01-18 16:29:55.785,train
2608,2608,68.35549163818361,39.0,2021-01-18 16:30:55.785,train
2609,2609,55.5820541381836,64.0,2021-01-18 16:31:55.785,train
2610,2610,41.3546028137207,57.0,2021-01-18 16:32:55.785,train
2611,2611,40.10362243652344,25.0,2021-01-18 16:33:55.785,train
2612,2612,38.173301696777344,39.0,2021-01-18 16:34:55.785,train
2613,2613,25.34332275390625,33.0,2021-01-18 16:35:55.785,train
2614,2614,15.75169849395752,15.0,2021-01-18 16:36:55.785,train
2615,2615,9.817461967468262,6.0,2021-01-18 16:37:55.785,train
2616,2616,5.54487943649292,2.0,2021-01-18 16:38:55.785,train
2617,2617,2.913274049758911,3.0,2021-01-18 16:39:55.785,train
2618,2618,3.92313289642334,7.0,2021-01-18 16:40:55.785,train
2619,2619,8.862654685974121,15.0,2021-01-18 16:41:55.785,train
2620,2620,17.12895393371582,11.0,2021-01-18 16:42:55.785,train
2621,2621,23.94041633605957,36.0,2021-01-18 16:43:55.785,train
2622,2622,46.13767623901367,52.0,2021-01-18 16:44:55.785,train
2623,2623,59.75734329223633,30.0,2021-01-18 16:45:55.785,train
2624,2624,65.50461578369139,70.0,2021-01-18 16:46:55.785,train
2625,2625,71.15077209472656,77.0,2021-01-18 16:47:55.785,train
2626,2626,58.27898406982422,37.0,2021-01-18 16:48:55.785,train
2627,2627,41.86105728149414,61.0,2021-01-18 16:49:55.785,train
2628,2628,39.2187614440918,53.0,2021-01-18 16:50:55.785,train
2629,2629,42.096439361572266,20.0,2021-01-18 16:51:55.785,train
2630,2630,31.319425582885746,36.0,2021-01-18 16:52:55.785,train
2631,2631,19.26036262512207,27.0,2021-01-18 16:53:55.785,train
2632,2632,12.205537796020508,14.0,2021-01-18 16:54:55.785,train
2633,2633,6.949826717376709,4.0,2021-01-18 16:55:55.785,train
2634,2634,3.3680400848388667,3.0,2021-01-18 16:56:55.785,train
2635,2635,2.802221775054932,5.0,2021-01-18 16:57:55.785,train
2636,2636,7.188943386077881,8.0,2021-01-18 16:58:55.785,train
2637,2637,16.311424255371097,11.0,2021-01-18 16:59:55.785,train
2638,2638,24.28697967529297,26.0,2021-01-18 17:00:55.785,train
2639,2639,40.47323226928711,43.0,2021-01-18 17:01:55.785,train
2640,2640,55.88088989257813,25.0,2021-01-18 17:02:55.785,train
2641,2641,60.64026260375977,67.0,2021-01-18 17:03:55.785,train
2642,2642,68.03224945068361,74.0,2021-01-18 17:04:55.785,train
2643,2643,67.64670562744139,44.0,2021-01-18 17:05:55.785,train
2644,2644,66.98464965820311,69.0,2021-01-18 17:06:55.785,train
2645,2645,50.50114440917969,58.0,2021-01-18 17:07:55.785,train
2646,2646,38.67743682861328,25.0,2021-01-18 17:08:55.785,train
2647,2647,40.57287216186523,39.0,2021-01-18 17:09:55.785,train
2648,2648,28.73624992370605,31.0,2021-01-18 17:10:55.785,train
2649,2649,16.108642578125,18.0,2021-01-18 17:11:55.785,train
2650,2650,10.163739204406738,5.0,2021-01-18 17:12:55.785,train
2651,2651,5.655002117156982,9.0,2021-01-18 17:13:55.785,train
2652,2652,2.9060180187225337,4.0,2021-01-18 17:14:55.785,train
2653,2653,4.343916416168213,5.0,2021-01-18 17:15:55.785,train
2654,2654,9.365589141845703,6.0,2021-01-18 17:16:55.785,train
2655,2655,16.759347915649414,22.0,2021-01-18 17:17:55.785,train
2656,2656,23.43268394470215,32.0,2021-01-18 17:18:55.785,train
2657,2657,30.714752197265625,25.0,2021-01-18 17:19:55.785,train
2658,2658,50.7420768737793,56.0,2021-01-18 17:20:55.785,train
2659,2659,60.946815490722656,71.0,2021-01-18 17:21:55.785,train
2660,2660,63.68535232543945,40.0,2021-01-18 17:22:55.785,train
2661,2661,68.69667053222656,73.0,2021-01-18 17:23:55.785,train
2662,2662,64.81330871582031,50.0,2021-01-18 17:24:55.785,train
2663,2663,37.79154968261719,34.0,2021-01-18 17:25:55.785,train
2664,2664,41.34542083740234,46.0,2021-01-18 17:26:55.785,train
2665,2665,38.8262939453125,34.0,2021-01-18 17:27:55.785,train
2666,2666,21.68534278869629,13.0,2021-01-18 17:28:55.785,train
2667,2667,12.652671813964846,18.0,2021-01-18 17:29:55.785,train
2668,2668,9.197588920593262,8.0,2021-01-18 17:30:55.785,train
2669,2669,3.4002115726470947,2.0,2021-01-18 17:31:55.785,train
2670,2670,3.3948442935943604,2.0,2021-01-18 17:32:55.785,train
2671,2671,8.97119140625,6.0,2021-01-18 17:33:55.785,train
2672,2672,16.362756729125973,11.0,2021-01-18 17:34:55.785,train
2673,2673,22.561384201049805,25.0,2021-01-18 17:35:55.785,train
2674,2674,29.69421768188477,20.0,2021-01-18 17:36:55.785,train
2675,2675,49.779014587402344,51.0,2021-01-18 17:37:55.785,train
2676,2676,58.732887268066406,62.0,2021-01-18 17:38:55.785,train
2677,2677,62.81017303466797,40.0,2021-01-18 17:39:55.785,train
2678,2678,67.46923065185547,79.0,2021-01-18 17:40:55.785,train
2679,2679,68.368408203125,67.0,2021-01-18 17:41:55.785,train
2680,2680,41.464839935302734,29.0,2021-01-18 17:42:55.785,train
2681,2681,39.4661750793457,48.0,2021-01-18 17:43:55.785,train
2682,2682,38.8502197265625,39.0,2021-01-18 17:44:55.785,train
2683,2683,25.215147018432614,30.0,2021-01-18 17:45:55.785,train
2684,2684,12.334716796875,11.0,2021-01-18 17:46:55.785,train
2685,2685,9.941560745239258,12.0,2021-01-18 17:47:55.785,train
2686,2686,5.596142768859863,8.0,2021-01-18 17:48:55.785,train
2687,2687,2.592415571212769,2.0,2021-01-18 17:49:55.785,train
2688,2688,4.54305362701416,3.0,2021-01-18 17:50:55.785,train
2689,2689,10.58649444580078,9.0,2021-01-18 17:51:55.785,train
2690,2690,17.775938034057614,18.0,2021-01-18 17:52:55.785,train
2691,2691,23.48873519897461,37.0,2021-01-18 17:53:55.785,train
2692,2692,38.55315399169922,24.0,2021-01-18 17:54:55.785,train
2693,2693,55.66192626953125,57.0,2021-01-18 17:55:55.785,train
2694,2694,63.23623657226562,35.0,2021-01-18 17:56:55.785,train
2695,2695,64.77722930908203,73.0,2021-01-18 17:57:55.785,train
2696,2696,68.78296661376953,73.0,2021-01-18 17:58:55.785,train
2697,2697,49.62801742553711,30.0,2021-01-18 17:59:55.785,train
2698,2698,38.05448913574219,57.0,2021-01-18 18:00:55.785,train
2699,2699,42.21424865722656,44.0,2021-01-18 18:01:55.785,train
2700,2700,38.887733459472656,36.0,2021-01-18 18:02:55.785,train
2701,2701,23.52412223815918,15.0,2021-01-18 18:03:55.785,train
2702,2702,14.426451683044435,19.0,2021-01-18 18:04:55.785,train
2703,2703,10.878024101257324,10.0,2021-01-18 18:05:55.785,train
2704,2704,4.275597095489502,5.0,2021-01-18 18:06:55.785,train
2705,2705,2.3911709785461426,2.0,2021-01-18 18:07:55.785,train
2706,2706,6.310317516326903,6.0,2021-01-18 18:08:55.785,train
2707,2707,13.853386878967285,13.0,2021-01-18 18:09:55.785,train
2708,2708,20.96274757385254,28.0,2021-01-18 18:10:55.785,train
2709,2709,26.417991638183594,23.0,2021-01-18 18:11:55.785,train
2710,2710,49.664100646972656,52.0,2021-01-18 18:12:55.785,train
2711,2711,61.168724060058594,63.0,2021-01-18 18:13:55.785,train
2712,2712,62.95199203491211,36.0,2021-01-18 18:14:55.785,train
2713,2713,67.79519653320311,78.0,2021-01-18 18:15:55.785,train
2714,2714,59.75660705566406,65.0,2021-01-18 18:16:55.785,train
2715,2715,36.50332260131836,29.0,2021-01-18 18:17:55.785,train
2716,2716,41.39198303222656,52.0,2021-01-18 18:18:55.785,train
2717,2717,36.15498352050781,39.0,2021-01-18 18:19:55.785,train
2718,2718,21.30169105529785,29.0,2021-01-18 18:20:55.785,train
2719,2719,12.037657737731935,13.0,2021-01-18 18:21:55.785,train
2720,2720,10.100870132446287,14.0,2021-01-18 18:22:55.785,train
2721,2721,5.42115592956543,5.0,2021-01-18 18:23:55.785,train
2722,2722,2.6241929531097408,2.0,2021-01-18 18:24:55.785,train
2723,2723,4.568933963775635,2.0,2021-01-18 18:25:55.785,train
2724,2724,11.936812400817873,10.0,2021-01-18 18:26:55.785,train
2725,2725,19.063459396362305,18.0,2021-01-18 18:27:55.785,train
2726,2726,24.54267883300781,35.0,2021-01-18 18:28:55.785,train
2727,2727,42.225440979003906,25.0,2021-01-18 18:29:55.785,train
2728,2728,57.90868759155274,58.0,2021-01-18 18:30:55.785,train
2729,2729,64.33564758300781,74.0,2021-01-18 18:31:55.785,train
2730,2730,65.76465606689453,40.0,2021-01-18 18:32:55.785,train
2731,2731,67.45375823974611,70.0,2021-01-18 18:33:55.785,train
2732,2732,53.33728408813477,62.0,2021-01-18 18:34:55.785,train
2733,2733,39.29580307006836,25.0,2021-01-18 18:35:55.785,train
2734,2734,43.255470275878906,45.0,2021-01-18 18:36:55.785,train
2735,2735,34.63436889648437,35.0,2021-01-18 18:37:55.785,train
2736,2736,18.099082946777344,13.0,2021-01-18 18:38:55.785,train
2737,2737,11.04724407196045,20.0,2021-01-18 18:39:55.785,train
2738,2738,7.220141887664795,10.0,2021-01-18 18:40:55.785,train
2739,2739,2.740712404251098,6.0,2021-01-18 18:41:55.785,train
2740,2740,2.5772416591644287,1.0,2021-01-18 18:42:55.785,train
2741,2741,7.386189460754394,4.0,2021-01-18 18:43:55.785,train
2742,2742,14.91723346710205,13.0,2021-01-18 18:44:55.785,train
2743,2743,21.30063819885254,26.0,2021-01-18 18:45:55.785,train
2744,2744,24.48289680480957,38.0,2021-01-18 18:46:55.785,train
2745,2745,41.41585540771485,31.0,2021-01-18 18:47:55.785,train
2746,2746,59.56254196166992,62.0,2021-01-18 18:48:55.785,train
2747,2747,65.83465576171875,37.0,2021-01-18 18:49:55.785,train
2748,2748,66.54143524169922,76.0,2021-01-18 18:50:55.785,train
2749,2749,62.08412170410156,67.0,2021-01-18 18:51:55.785,train
2750,2750,38.83892822265625,30.0,2021-01-18 18:52:55.785,train
2751,2751,44.9744873046875,50.0,2021-01-18 18:53:55.785,train
2752,2752,41.28131103515625,41.0,2021-01-18 18:54:55.785,train
2753,2753,30.279848098754886,18.0,2021-01-18 18:55:55.785,train
2754,2754,13.494133949279785,26.0,2021-01-18 18:56:55.785,train
2755,2755,11.21677017211914,14.0,2021-01-18 18:57:55.785,train
2756,2756,5.647506713867188,7.0,2021-01-18 18:58:55.785,train
2757,2757,2.7261946201324463,2.0,2021-01-18 18:59:55.785,train
2758,2758,3.393661499023437,2.0,2021-01-18 19:00:55.785,train
2759,2759,9.866539001464844,9.0,2021-01-18 19:01:55.785,train
2760,2760,17.955827713012695,19.0,2021-01-18 19:02:55.785,train
2761,2761,23.486013412475586,16.0,2021-01-18 19:03:55.785,train
2762,2762,37.486732482910156,46.0,2021-01-18 19:04:55.785,train
2763,2763,55.49252319335938,58.0,2021-01-18 19:05:55.785,train
2764,2764,59.91162872314453,32.0,2021-01-18 19:06:55.785,train
2765,2765,67.58473968505861,76.0,2021-01-18 19:07:55.785,train
2766,2766,65.40976715087889,72.0,2021-01-18 19:08:55.785,train
2767,2767,39.99453353881836,31.0,2021-01-18 19:09:55.785,train
2768,2768,46.25590896606445,55.0,2021-01-18 19:10:55.785,train
2769,2769,43.42123031616211,45.0,2021-01-18 19:11:55.785,train
2770,2770,38.01953887939453,37.0,2021-01-18 19:12:55.785,train
2771,2771,20.23872375488281,13.0,2021-01-18 19:13:55.785,train
2772,2772,14.040590286254885,17.0,2021-01-18 19:14:55.785,train
2773,2773,10.183951377868652,10.0,2021-01-18 19:15:55.785,train
2774,2774,3.4089386463165283,4.0,2021-01-18 19:16:55.785,train
2775,2775,1.5145926475524902,2.0,2021-01-18 19:17:55.785,train
2776,2776,7.491365909576416,6.0,2021-01-18 19:18:55.785,train
2777,2777,16.693872451782227,14.0,2021-01-18 19:19:55.785,train
2778,2778,23.994977951049805,25.0,2021-01-18 19:20:55.785,train
2779,2779,32.619762420654304,22.0,2021-01-18 19:21:55.785,train
2780,2780,51.88079833984375,54.0,2021-01-18 19:22:55.785,train
2781,2781,62.11162567138672,62.0,2021-01-18 19:23:55.785,train
2782,2782,64.75154113769531,38.0,2021-01-18 19:24:55.785,train
2783,2783,67.56949615478516,76.0,2021-01-18 19:25:55.785,train
2784,2784,52.577674865722656,63.0,2021-01-18 19:26:55.785,train
2785,2785,44.33284759521485,30.0,2021-01-18 19:27:55.785,train
2786,2786,46.32723617553711,50.0,2021-01-18 19:28:55.785,train
2787,2787,40.05299377441406,41.0,2021-01-18 19:29:55.785,train
2788,2788,25.53863525390625,17.0,2021-01-18 19:30:55.785,train
2789,2789,12.367642402648926,28.0,2021-01-18 19:31:55.785,train
2790,2790,10.085663795471193,12.0,2021-01-18 19:32:55.785,train
2791,2791,4.165632247924806,9.0,2021-01-18 19:33:55.785,train
2792,2792,1.9108078479766848,1.0,2021-01-18 19:34:55.785,train
2793,2793,3.095876216888428,3.0,2021-01-18 19:35:55.785,train
2794,2794,10.249065399169922,10.0,2021-01-18 19:36:55.785,train
2795,2795,17.636310577392578,14.0,2021-01-18 19:37:55.785,train
2796,2796,24.64790916442871,20.0,2021-01-18 19:38:55.785,train
2797,2797,38.80257415771485,46.0,2021-01-18 19:39:55.785,train
2798,2798,52.6070671081543,50.0,2021-01-18 19:40:55.785,train
2799,2799,60.08319473266602,36.0,2021-01-18 19:41:55.785,train
2800,2800,67.65880584716797,76.0,2021-01-18 19:42:55.785,train
2801,2801,61.91566848754883,38.0,2021-01-18 19:43:55.785,train
2802,2802,44.53554916381836,64.0,2021-01-18 19:44:55.785,train
2803,2803,48.54423904418945,56.0,2021-01-18 19:45:55.785,train
2804,2804,47.91308975219727,43.0,2021-01-18 19:46:55.785,train
2805,2805,40.25843811035156,23.0,2021-01-18 19:47:55.785,train
2806,2806,28.18563461303711,33.0,2021-01-18 19:48:55.785,train
2807,2807,15.494099617004395,16.0,2021-01-18 19:49:55.785,train
2808,2808,9.081107139587402,7.0,2021-01-18 19:50:55.785,train
2809,2809,4.527973651885986,1.0,2021-01-18 19:51:55.785,train
2810,2810,1.5668152570724487,2.0,2021-01-18 19:52:55.785,train
2811,2811,3.3346767425537114,5.0,2021-01-18 19:53:55.785,train
2812,2812,10.988290786743164,16.0,2021-01-18 19:54:55.785,train
2813,2813,20.79393196105957,11.0,2021-01-18 19:55:55.785,train
2814,2814,28.194602966308594,38.0,2021-01-18 19:56:55.785,train
2815,2815,48.13534927368164,54.0,2021-01-18 19:57:55.785,train
2816,2816,58.37273025512695,39.0,2021-01-18 19:58:55.785,train
2817,2817,67.79472351074219,62.0,2021-01-18 19:59:55.785,train
2818,2818,62.7081184387207,60.0,2021-01-18 20:00:55.785,train
2819,2819,44.68546676635742,53.0,2021-01-18 20:01:55.785,train
2820,2820,48.43804931640625,62.0,2021-01-18 20:02:55.785,train
2821,2821,45.14662551879883,46.0,2021-01-18 20:03:55.785,train
2822,2822,40.33939743041992,30.0,2021-01-18 20:04:55.785,train
2823,2823,28.48065757751465,34.0,2021-01-18 20:05:55.785,train
2824,2824,17.38468360900879,22.0,2021-01-18 20:06:55.785,train
2825,2825,10.67822551727295,10.0,2021-01-18 20:07:55.785,train
2826,2826,5.049680233001709,6.0,2021-01-18 20:08:55.785,train
2827,2827,2.4183807373046875,3.0,2021-01-18 20:09:55.785,train
2828,2828,2.3511292934417725,4.0,2021-01-18 20:10:55.785,train
2829,2829,8.288185119628906,8.0,2021-01-18 20:11:55.785,train
2830,2830,16.988479614257812,10.0,2021-01-18 20:12:55.785,train
2831,2831,25.32109260559082,24.0,2021-01-18 20:13:55.785,train
2832,2832,37.22097396850586,44.0,2021-01-18 20:14:55.785,train
2833,2833,46.552101135253906,27.0,2021-01-18 20:15:55.785,train
2834,2834,55.42775344848633,65.0,2021-01-18 20:16:55.785,train
2835,2835,66.57537841796875,80.0,2021-01-18 20:17:55.785,train
2836,2836,64.53224945068361,38.0,2021-01-18 20:18:55.785,train
2837,2837,54.42449951171875,67.0,2021-01-18 20:19:55.785,train
2838,2838,47.227439880371094,56.0,2021-01-18 20:20:55.785,train
2839,2839,47.93754196166992,23.0,2021-01-18 20:21:55.785,train
2840,2840,40.62486267089844,39.0,2021-01-18 20:22:55.785,train
2841,2841,28.91073799133301,32.0,2021-01-18 20:23:55.785,train
2842,2842,16.096529006958008,19.0,2021-01-18 20:24:55.785,train
2843,2843,7.9682393074035645,6.0,2021-01-18 20:25:55.785,train
2844,2844,4.141202449798584,5.0,2021-01-18 20:26:55.785,train
2845,2845,2.1438524723052983,2.0,2021-01-18 20:27:55.785,train
2846,2846,3.199336290359497,5.0,2021-01-18 20:28:55.785,train
2847,2847,9.243049621582033,13.0,2021-01-18 20:29:55.785,train
2848,2848,17.99494171142578,10.0,2021-01-18 20:30:55.785,train
2849,2849,26.39480781555176,35.0,2021-01-18 20:31:55.785,train
2850,2850,42.30948257446289,54.0,2021-01-18 20:32:55.785,train
2851,2851,52.20853805541992,30.0,2021-01-18 20:33:55.785,train
2852,2852,66.38676452636719,72.0,2021-01-18 20:34:55.785,train
2853,2853,64.97420501708984,40.0,2021-01-18 20:35:55.785,train
2854,2854,49.26899337768555,70.0,2021-01-18 20:36:55.785,train
2855,2855,46.36265563964844,61.0,2021-01-18 20:37:55.785,train
2856,2856,46.774131774902344,53.0,2021-01-18 20:38:55.785,train
2857,2857,41.26257705688477,21.0,2021-01-18 20:39:55.785,train
2858,2858,29.826608657836914,35.0,2021-01-18 20:40:55.785,train
2859,2859,18.633914947509766,23.0,2021-01-18 20:41:55.785,train
2860,2860,10.187883377075195,13.0,2021-01-18 20:42:55.785,train
2861,2861,4.341197490692139,2.0,2021-01-18 20:43:55.785,train
2862,2862,2.2213592529296875,5.0,2021-01-18 20:44:55.785,train
2863,2863,2.294886350631714,4.0,2021-01-18 20:45:55.785,train
2864,2864,8.513168334960938,10.0,2021-01-18 20:46:55.785,train
2865,2865,16.866643905639652,7.0,2021-01-18 20:47:55.785,train
2866,2866,25.93774032592773,26.0,2021-01-18 20:48:55.785,train
2867,2867,40.885169982910156,42.0,2021-01-18 20:49:55.785,train
2868,2868,49.4805793762207,54.0,2021-01-18 20:50:55.785,train
2869,2869,61.38301086425781,33.0,2021-01-18 20:51:55.785,train
2870,2870,68.324462890625,77.0,2021-01-18 20:52:55.785,train
2871,2871,58.675819396972656,37.0,2021-01-18 20:53:55.785,train
2872,2872,46.77880859375,68.0,2021-01-18 20:54:55.785,train
2873,2873,47.077110290527344,59.0,2021-01-18 20:55:55.785,train
2874,2874,45.643592834472656,25.0,2021-01-18 20:56:55.785,train
2875,2875,38.2207145690918,38.0,2021-01-18 20:57:55.785,train
2876,2876,25.78117561340332,30.0,2021-01-18 20:58:55.785,train
2877,2877,14.699737548828125,18.0,2021-01-18 20:59:55.785,train
2878,2878,6.941139221191406,6.0,2021-01-18 21:00:55.785,train
2879,2879,3.75073504447937,3.0,2021-01-18 21:01:55.785,train
2880,2880,2.0901360511779785,3.0,2021-01-18 21:02:55.785,train
2881,2881,3.0790016651153564,4.0,2021-01-18 21:03:55.785,train
2882,2882,9.959108352661133,5.0,2021-01-18 21:04:55.785,train
2883,2883,20.36977767944336,21.0,2021-01-18 21:05:55.785,train
2884,2884,29.89281272888184,38.0,2021-01-18 21:06:55.785,train
2885,2885,42.17024993896485,49.0,2021-01-18 21:07:55.785,train
2886,2886,51.66510391235352,30.0,2021-01-18 21:08:55.785,train
2887,2887,66.64565277099611,70.0,2021-01-18 21:09:55.785,train
2888,2888,66.35915374755861,78.0,2021-01-18 21:10:55.785,train
2889,2889,56.73753356933594,33.0,2021-01-18 21:11:55.785,train
2890,2890,48.93498611450195,60.0,2021-01-18 21:12:55.785,train
2891,2891,47.203407287597656,51.0,2021-01-18 21:13:55.785,train
2892,2892,43.384422302246094,42.0,2021-01-18 21:14:55.785,train
2893,2893,30.726215362548828,16.0,2021-01-18 21:15:55.785,train
2894,2894,19.04923439025879,24.0,2021-01-18 21:16:55.785,train
2895,2895,10.475521087646484,12.0,2021-01-18 21:17:55.785,train
2896,2896,3.5191187858581543,7.0,2021-01-18 21:18:55.785,train
2897,2897,1.8828911781311035,3.0,2021-01-18 21:19:55.785,train
2898,2898,3.5809109210968018,2.0,2021-01-18 21:20:55.785,train
2899,2899,11.448659896850586,10.0,2021-01-18 21:21:55.785,train
2900,2900,19.777313232421875,19.0,2021-01-18 21:22:55.785,train
2901,2901,26.94464874267578,18.0,2021-01-18 21:23:55.785,train
2902,2902,42.26422882080078,42.0,2021-01-18 21:24:55.785,train
2903,2903,55.47945785522461,59.0,2021-01-18 21:25:55.785,train
2904,2904,62.34679412841797,32.0,2021-01-18 21:26:55.785,train
2905,2905,68.38848114013672,78.0,2021-01-18 21:27:55.785,train
2906,2906,63.6416244506836,71.0,2021-01-18 21:28:55.785,train
2907,2907,46.24584197998047,31.0,2021-01-18 21:29:55.785,train
2908,2908,45.95734405517578,57.0,2021-01-18 21:30:55.785,train
2909,2909,43.64946746826172,46.0,2021-01-18 21:31:55.785,train
2910,2910,36.08184814453125,36.0,2021-01-18 21:32:55.785,train
2911,2911,20.11562728881836,15.0,2021-01-18 21:33:55.785,train
2912,2912,14.09660816192627,18.0,2021-01-18 21:34:55.785,train
2913,2913,7.4762091636657715,8.0,2021-01-18 21:35:55.785,train
2914,2914,2.614322662353516,3.0,2021-01-18 21:36:55.785,train
2915,2915,1.835558295249939,1.0,2021-01-18 21:37:55.785,train
2916,2916,5.575521945953369,7.0,2021-01-18 21:38:55.785,train
2917,2917,13.837485313415527,12.0,2021-01-18 21:39:55.785,train
2918,2918,23.491830825805664,25.0,2021-01-18 21:40:55.785,train
2919,2919,36.90290451049805,23.0,2021-01-18 21:41:55.785,train
2920,2920,50.46972274780274,52.0,2021-01-18 21:42:55.785,train
2921,2921,62.20856475830078,63.0,2021-01-18 21:43:55.785,train
2922,2922,65.18966674804689,36.0,2021-01-18 21:44:55.785,train
2923,2923,68.98963928222656,78.0,2021-01-18 21:45:55.785,train
2924,2924,58.57574844360352,39.0,2021-01-18 21:46:55.785,train
2925,2925,44.11320877075195,55.0,2021-01-18 21:47:55.785,train
2926,2926,45.878089904785156,50.0,2021-01-18 21:48:55.785,train
2927,2927,40.76028823852539,40.0,2021-01-18 21:49:55.785,train
2928,2928,31.030799865722656,15.0,2021-01-18 21:50:55.785,train
2929,2929,19.7367000579834,27.0,2021-01-18 21:51:55.785,train
2930,2930,11.91893482208252,13.0,2021-01-18 21:52:55.785,train
2931,2931,3.716540098190308,5.0,2021-01-18 21:53:55.785,train
2932,2932,1.8459975719451904,3.0,2021-01-18 21:54:55.785,train
2933,2933,3.6077516078948975,2.0,2021-01-18 21:55:55.785,train
2934,2934,11.49573040008545,11.0,2021-01-18 21:56:55.785,train
2935,2935,20.004016876220703,18.0,2021-01-18 21:57:55.785,train
2936,2936,27.65002632141113,12.0,2021-01-18 21:58:55.785,train
2937,2937,43.4352912902832,46.0,2021-01-18 21:59:55.785,train
2938,2938,57.2667350769043,58.0,2021-01-18 22:00:55.785,train
2939,2939,60.95674133300781,36.0,2021-01-18 22:01:55.785,train
2940,2940,68.57693481445311,76.0,2021-01-18 22:02:55.785,train
2941,2941,67.63083648681639,73.0,2021-01-18 22:03:55.785,train
2942,2942,48.59688949584961,45.0,2021-01-18 22:04:55.785,train
2943,2943,45.8631706237793,45.0,2021-01-18 22:05:55.785,train
2944,2944,42.74856567382813,46.0,2021-01-18 22:06:55.785,train
2945,2945,37.09475326538086,35.0,2021-01-18 22:07:55.785,train
2946,2946,20.51823616027832,14.0,2021-01-18 22:08:55.785,train
2947,2947,13.684037208557127,17.0,2021-01-18 22:09:55.785,train
2948,2948,7.786527156829834,9.0,2021-01-18 22:10:55.785,train
2949,2949,2.674656629562378,3.0,2021-01-18 22:11:55.785,train
2950,2950,1.7698106765747068,1.0,2021-01-18 22:12:55.785,train
2951,2951,6.229644775390625,6.0,2021-01-18 22:13:55.785,train
2952,2952,14.761862754821776,12.0,2021-01-18 22:14:55.785,train
2953,2953,23.75402069091797,27.0,2021-01-18 22:15:55.785,train
2954,2954,34.64206314086914,20.0,2021-01-18 22:16:55.785,train
2955,2955,47.96795654296875,49.0,2021-01-18 22:17:55.785,train
2956,2956,61.11327743530274,50.0,2021-01-18 22:18:55.785,train
2957,2957,64.17361450195311,50.0,2021-01-18 22:19:55.785,train
2958,2958,68.69517517089844,77.0,2021-01-18 22:20:55.785,train
2959,2959,59.00106811523438,37.0,2021-01-18 22:21:55.785,train
2960,2960,49.5101432800293,60.0,2021-01-18 22:22:55.785,train
2961,2961,46.17737579345703,50.0,2021-01-18 22:23:55.785,train
2962,2962,45.15822982788086,22.0,2021-01-18 22:24:55.785,train
2963,2963,37.48860549926758,36.0,2021-01-18 22:25:55.785,train
2964,2964,24.26392364501953,23.0,2021-01-18 22:26:55.785,train
2965,2965,13.928448677062988,13.0,2021-01-18 22:27:55.785,train
2966,2966,6.299826622009277,2.0,2021-01-18 22:28:55.785,train
2967,2967,2.6691548824310303,2.0,2021-01-18 22:29:55.785,train
2968,2968,2.2127013206481934,5.0,2021-01-18 22:30:55.785,train
2969,2969,6.1801090240478525,10.0,2021-01-18 22:31:55.785,train
2970,2970,15.646547317504885,10.0,2021-01-18 22:32:55.785,train
2971,2971,25.26332855224609,23.0,2021-01-18 22:33:55.785,train
2972,2972,40.27482223510742,41.0,2021-01-18 22:34:55.785,train
2973,2973,51.44866561889648,56.0,2021-01-18 22:35:55.785,train
2974,2974,59.9639663696289,31.0,2021-01-18 22:36:55.785,train
2975,2975,67.59982299804689,79.0,2021-01-18 22:37:55.785,train
2976,2976,63.69720458984375,72.0,2021-01-18 22:38:55.785,train
2977,2977,49.47162246704102,32.0,2021-01-18 22:39:55.785,train
2978,2978,44.6661262512207,59.0,2021-01-18 22:40:55.785,train
2979,2979,43.0107650756836,47.0,2021-01-18 22:41:55.785,train
2980,2980,36.3902587890625,35.0,2021-01-18 22:42:55.785,train
2981,2981,20.918115615844727,13.0,2021-01-18 22:43:55.785,train
2982,2982,14.897052764892578,16.0,2021-01-18 22:44:55.785,train
2983,2983,8.422684669494629,8.0,2021-01-18 22:45:55.785,train
2984,2984,2.7500507831573486,6.0,2021-01-18 22:46:55.785,train
2985,2985,2.0364503860473637,2.0,2021-01-18 22:47:55.785,train
2986,2986,5.877880573272705,5.0,2021-01-18 22:48:55.785,train
2987,2987,14.318405151367188,13.0,2021-01-18 22:49:55.785,train
2988,2988,23.685821533203125,26.0,2021-01-18 22:50:55.785,train
2989,2989,34.27325439453125,17.0,2021-01-18 22:51:55.785,train
2990,2990,49.31164932250977,49.0,2021-01-18 22:52:55.785,train
2991,2991,61.6054573059082,62.0,2021-01-18 22:53:55.785,train
2992,2992,63.78953552246094,74.0,2021-01-18 22:54:55.785,train
2993,2993,68.29372406005861,43.0,2021-01-18 22:55:55.785,train
2994,2994,62.52177047729492,68.0,2021-01-18 22:56:55.785,train
2995,2995,50.41378402709961,29.0,2021-01-18 22:57:55.785,train
2996,2996,45.77420043945313,51.0,2021-01-18 22:58:55.785,train
2997,2997,41.78372573852539,42.0,2021-01-18 22:59:55.785,train
2998,2998,28.36578750610352,19.0,2021-01-18 23:00:55.785,train
2999,2999,14.953512191772461,25.0,2021-01-18 23:01:55.785,train
3000,3000,10.852816581726074,14.0,2021-01-18 23:02:55.785,train
3001,3001,3.974437475204468,5.0,2021-01-18 23:03:55.785,train
3002,3002,2.166879653930664,3.0,2021-01-18 23:04:55.785,train
3003,3003,3.095467090606689,1.0,2021-01-18 23:05:55.785,train
3004,3004,9.744829177856444,10.0,2021-01-18 23:06:55.785,train
3005,3005,17.005935668945312,19.0,2021-01-18 23:07:55.785,train
3006,3006,24.95850944519043,37.0,2021-01-18 23:08:55.785,train
3007,3007,40.31485366821289,25.0,2021-01-18 23:09:55.785,train
3008,3008,55.5068359375,56.0,2021-01-18 23:10:55.785,train
3009,3009,65.82571411132811,32.0,2021-01-18 23:11:55.785,train
3010,3010,66.54355621337889,78.0,2021-01-18 23:12:55.785,train
3011,3011,65.84100341796875,71.0,2021-01-18 23:13:55.785,train
3012,3012,51.05498886108398,32.0,2021-01-18 23:14:55.785,train
3013,3013,44.59207153320313,57.0,2021-01-18 23:15:55.785,train
3014,3014,43.03142166137695,47.0,2021-01-18 23:16:55.785,train
3015,3015,35.77820587158203,18.0,2021-01-18 23:17:55.785,train
3016,3016,20.25101661682129,31.0,2021-01-18 23:18:55.785,train
3017,3017,15.05174732208252,17.0,2021-01-18 23:19:55.785,train
3018,3018,6.307259559631348,11.0,2021-01-18 23:20:55.785,train
3019,3019,2.814298391342163,2.0,2021-01-18 23:21:55.785,train
3020,3020,2.4453051090240483,3.0,2021-01-18 23:22:55.785,train
3021,3021,6.409109115600586,7.0,2021-01-18 23:23:55.785,train
3022,3022,14.498669624328613,16.0,2021-01-18 23:24:55.785,train
3023,3023,23.76545143127441,10.0,2021-01-18 23:25:55.785,train
3024,3024,36.60567474365234,36.0,2021-01-18 23:26:55.785,train
3025,3025,53.63480758666992,53.0,2021-01-18 23:27:55.785,train
3026,3026,58.72225570678711,31.0,2021-01-18 23:28:55.785,train
3027,3027,67.66088104248047,71.0,2021-01-18 23:29:55.785,train
3028,3028,69.22562408447266,57.0,2021-01-18 23:30:55.785,train
3029,3029,55.82471466064453,54.0,2021-01-18 23:31:55.785,train
3030,3030,46.30759048461914,60.0,2021-01-18 23:32:55.785,train
3031,3031,45.83748245239258,29.0,2021-01-18 23:33:55.785,train
3032,3032,42.96311950683594,44.0,2021-01-18 23:34:55.785,train
3033,3033,33.41275405883789,35.0,2021-01-18 23:35:55.785,train
3034,3034,18.970903396606445,25.0,2021-01-18 23:36:55.785,train
3035,3035,10.05276107788086,7.0,2021-01-18 23:37:55.785,train
3036,3036,5.238251209259033,8.0,2021-01-18 23:38:55.785,train
3037,3037,3.2535665035247803,4.0,2021-01-18 23:39:55.785,train
3038,3038,2.383911371231079,3.0,2021-01-18 23:40:55.785,train
3039,3039,5.559797286987305,9.0,2021-01-18 23:41:55.785,train
3040,3040,14.07578945159912,9.0,2021-01-18 23:42:55.785,train
3041,3041,23.81927299499512,26.0,2021-01-18 23:43:55.785,train
3042,3042,36.698490142822266,46.0,2021-01-18 23:44:55.785,train
3043,3043,47.650856018066406,25.0,2021-01-18 23:45:55.785,train
3044,3044,56.95378875732422,65.0,2021-01-18 23:46:55.785,train
3045,3045,67.14737701416016,80.0,2021-01-18 23:47:55.785,train
3046,3046,67.60608673095703,37.0,2021-01-18 23:48:55.785,train
3047,3047,61.88224411010742,63.0,2021-01-18 23:49:55.785,train
3048,3048,50.87341690063477,57.0,2021-01-18 23:50:55.785,train
3049,3049,45.61919021606445,25.0,2021-01-18 23:51:55.785,train
3050,3050,41.3418197631836,42.0,2021-01-18 23:52:55.785,train
3051,3051,28.975038528442386,31.0,2021-01-18 23:53:55.785,train
3052,3052,17.37015724182129,16.0,2021-01-18 23:54:55.785,train
3053,3053,8.97385025024414,5.0,2021-01-18 23:55:55.785,train
3054,3054,4.506484508514403,5.0,2021-01-18 23:56:55.785,train
3055,3055,2.765925884246826,3.0,2021-01-18 23:57:55.785,train
3056,3056,3.6008872985839844,4.0,2021-01-18 23:58:55.785,train
3057,3057,8.994648933410645,13.0,2021-01-18 23:59:55.785,train
3058,3058,18.672277450561523,11.0,2021-01-19 00:00:55.785,train
3059,3059,27.51691436767578,37.0,2021-01-19 00:01:55.785,train
3060,3060,44.10739517211914,51.0,2021-01-19 00:02:55.785,train
3061,3061,55.34184646606445,30.0,2021-01-19 00:03:55.785,train
3062,3062,66.35328674316406,73.0,2021-01-19 00:04:55.785,train
3063,3063,69.32358551025389,78.0,2021-01-19 00:05:55.785,train
3064,3064,59.0986557006836,37.0,2021-01-19 00:06:55.785,train
3065,3065,49.19528198242188,62.0,2021-01-19 00:07:55.785,train
3066,3066,45.83084487915039,52.0,2021-01-19 00:08:55.785,train
3067,3067,44.25109481811523,21.0,2021-01-19 00:09:55.785,train
3068,3068,33.22951889038086,34.0,2021-01-19 00:10:55.785,train
3069,3069,20.84600067138672,23.0,2021-01-19 00:11:55.785,train
3070,3070,12.81967067718506,15.0,2021-01-19 00:12:55.785,train
3071,3071,5.26989221572876,3.0,2021-01-19 00:13:55.785,train
3072,3072,2.4539966583251958,5.0,2021-01-19 00:14:55.785,train
3073,3073,2.35111927986145,2.0,2021-01-19 00:15:55.785,train
3074,3074,7.0344648361206055,9.0,2021-01-19 00:16:55.785,train
3075,3075,15.779054641723633,9.0,2021-01-19 00:17:55.785,train
3076,3076,24.769805908203125,22.0,2021-01-19 00:18:55.785,train
3077,3077,39.602577209472656,47.0,2021-01-19 00:19:55.785,train
3078,3078,50.5147590637207,57.0,2021-01-19 00:20:55.785,train
3079,3079,59.34764099121094,33.0,2021-01-19 00:21:55.785,train
3080,3080,68.45789337158203,77.0,2021-01-19 00:22:55.785,train
3081,3081,66.64303588867189,39.0,2021-01-19 00:23:55.785,train
3082,3082,51.30229187011719,66.0,2021-01-19 00:24:55.785,train
3083,3083,45.5366325378418,56.0,2021-01-19 00:25:55.785,train
3084,3084,46.15234375,46.0,2021-01-19 00:26:55.785,train
3085,3085,38.299476623535156,18.0,2021-01-19 00:27:55.785,train
3086,3086,25.4321231842041,29.0,2021-01-19 00:28:55.785,train
3087,3087,15.238292694091795,19.0,2021-01-19 00:29:55.785,train
3088,3088,6.74070930480957,7.0,2021-01-19 00:30:55.785,train
3089,3089,3.0450561046600337,6.0,2021-01-19 00:31:55.785,train
3090,3090,2.258756399154663,2.0,2021-01-19 00:32:55.785,train
3091,3091,5.5380210876464835,7.0,2021-01-19 00:33:55.785,train
3092,3092,12.672778129577635,6.0,2021-01-19 00:34:55.785,train
3093,3093,21.722139358520508,19.0,2021-01-19 00:35:55.785,train
3094,3094,33.462928771972656,38.0,2021-01-19 00:36:55.785,train
3095,3095,47.544715881347656,53.0,2021-01-19 00:37:55.785,train
3096,3096,53.80377578735352,30.0,2021-01-19 00:38:55.785,train
3097,3097,66.20853424072266,72.0,2021-01-19 00:39:55.785,train
3098,3098,70.21941375732422,77.0,2021-01-19 00:40:55.785,train
3099,3099,59.48660278320313,36.0,2021-01-19 00:41:55.785,train
3100,3100,48.87321472167969,62.0,2021-01-19 00:42:55.785,train
3101,3101,46.54144668579102,51.0,2021-01-19 00:43:55.785,train
3102,3102,43.75679016113281,41.0,2021-01-19 00:44:55.785,train
3103,3103,32.65737152099609,16.0,2021-01-19 00:45:55.785,train
3104,3104,21.00333404541016,23.0,2021-01-19 00:46:55.785,train
3105,3105,12.067486763000488,14.0,2021-01-19 00:47:55.785,train
3106,3106,4.639898300170898,6.0,2021-01-19 00:48:55.785,train
3107,3107,2.3614342212677,1.0,2021-01-19 00:49:55.785,train
3108,3108,3.0171489715576167,4.0,2021-01-19 00:50:55.785,train
3109,3109,9.106467247009276,10.0,2021-01-19 00:51:55.785,train
3110,3110,18.21629905700684,15.0,2021-01-19 00:52:55.785,train
3111,3111,26.92076873779297,19.0,2021-01-19 00:53:55.785,train
3112,3112,42.96357345581055,49.0,2021-01-19 00:54:55.785,train
3113,3113,56.0943603515625,57.0,2021-01-19 00:55:55.785,train
3114,3114,62.4350700378418,33.0,2021-01-19 00:56:55.785,train
3115,3115,69.29570007324219,76.0,2021-01-19 00:57:55.785,train
3116,3116,68.26856994628906,38.0,2021-01-19 00:58:55.785,train
3117,3117,51.33629989624024,64.0,2021-01-19 00:59:55.785,train
3118,3118,45.715858459472656,56.0,2021-01-19 01:00:55.785,train
3119,3119,46.568077087402344,25.0,2021-01-19 01:01:55.785,train
3120,3120,38.83147048950195,39.0,2021-01-19 01:02:55.785,train
3121,3121,25.742979049682614,32.0,2021-01-19 01:03:55.785,train
3122,3122,15.721719741821287,15.0,2021-01-19 01:04:55.785,train
3123,3123,8.039010047912598,7.0,2021-01-19 01:05:55.785,train
3124,3124,4.1105384826660165,4.0,2021-01-19 01:06:55.785,train
3125,3125,2.26072359085083,3.0,2021-01-19 01:07:55.785,train
3126,3126,3.4043302536010738,3.0,2021-01-19 01:08:55.785,train
3127,3127,9.487056732177734,10.0,2021-01-19 01:09:55.785,train
3128,3128,19.21485710144043,17.0,2021-01-19 01:10:55.785,train
3129,3129,28.299495697021484,39.0,2021-01-19 01:11:55.785,train
3130,3130,43.81587219238281,24.0,2021-01-19 01:12:55.785,train
3131,3131,55.93400192260742,55.0,2021-01-19 01:13:55.785,train
3132,3132,66.72032928466797,74.0,2021-01-19 01:14:55.785,train
3133,3133,67.07666015625,79.0,2021-01-19 01:15:55.785,train
3134,3134,67.36338043212889,32.0,2021-01-19 01:16:55.785,train
3135,3135,57.49785614013672,61.0,2021-01-19 01:17:55.785,train
3136,3136,46.86521911621094,53.0,2021-01-19 01:18:55.785,train
3137,3137,45.84342575073242,22.0,2021-01-19 01:19:55.785,train
3138,3138,35.88698959350586,38.0,2021-01-19 01:20:55.785,train
3139,3139,23.87743377685547,21.0,2021-01-19 01:21:55.785,train
3140,3140,14.175941467285154,13.0,2021-01-19 01:22:55.785,train
3141,3141,6.470917224884032,2.0,2021-01-19 01:23:55.785,train
3142,3142,2.608126640319824,5.0,2021-01-19 01:24:55.785,train
3143,3143,2.7530081272125244,3.0,2021-01-19 01:25:55.785,train
3144,3144,7.260622024536133,11.0,2021-01-19 01:26:55.785,train
3145,3145,15.862054824829102,22.0,2021-01-19 01:27:55.785,train
3146,3146,24.94075965881348,14.0,2021-01-19 01:28:55.785,train
3147,3147,41.1026725769043,44.0,2021-01-19 01:29:55.785,train
3148,3148,60.0997428894043,56.0,2021-01-19 01:30:55.785,train
3149,3149,63.11831665039063,31.0,2021-01-19 01:31:55.785,train
3150,3150,69.65967559814453,76.0,2021-01-19 01:32:55.785,train
3151,3151,66.93947601318361,73.0,2021-01-19 01:33:55.785,train
3152,3152,49.72052764892578,31.0,2021-01-19 01:34:55.785,train
3153,3153,45.23335647583008,54.0,2021-01-19 01:35:55.785,train
3154,3154,43.3101692199707,46.0,2021-01-19 01:36:55.785,train
3155,3155,35.033370971679695,34.0,2021-01-19 01:37:55.785,train
3156,3156,19.352252960205078,13.0,2021-01-19 01:38:55.785,val
3157,3157,14.336491584777832,16.0,2021-01-19 01:39:55.785,val
3158,3158,7.71058464050293,10.0,2021-01-19 01:40:55.785,val
3159,3159,2.767000436782837,2.0,2021-01-19 01:41:55.785,val
3160,3160,2.416644334793091,2.0,2021-01-19 01:42:55.785,val
3161,3161,7.220932483673097,6.0,2021-01-19 01:43:55.785,val
3162,3162,15.909685134887695,15.0,2021-01-19 01:44:55.785,val
3163,3163,25.426441192626953,28.0,2021-01-19 01:45:55.785,val
3164,3164,39.80279922485352,21.0,2021-01-19 01:46:55.785,val
3165,3165,53.76348495483398,50.0,2021-01-19 01:47:55.785,val
3166,3166,64.18539428710939,67.0,2021-01-19 01:48:55.785,val
3167,3167,65.13320922851561,40.0,2021-01-19 01:49:55.785,val
3168,3168,69.08184814453125,78.0,2021-01-19 01:50:55.785,val
3169,3169,60.5181884765625,63.0,2021-01-19 01:51:55.785,val
3170,3170,44.03083038330078,29.0,2021-01-19 01:52:55.785,val
3171,3171,45.00871276855469,51.0,2021-01-19 01:53:55.785,val
3172,3172,37.25781631469727,39.0,2021-01-19 01:54:55.785,val
3173,3173,22.222240447998047,22.0,2021-01-19 01:55:55.785,val
3174,3174,12.346041679382324,19.0,2021-01-19 01:56:55.785,val
3175,3175,7.8662567138671875,14.0,2021-01-19 01:57:55.785,val
3176,3176,3.1812355518341064,6.0,2021-01-19 01:58:55.785,val
3177,3177,2.3127777576446533,1.0,2021-01-19 01:59:55.785,val
3178,3178,3.777509212493897,2.0,2021-01-19 02:00:55.785,val
3179,3179,10.285833358764648,11.0,2021-01-19 02:01:55.785,val
3180,3180,17.463167190551758,19.0,2021-01-19 02:02:55.785,val
3181,3181,25.52558898925781,16.0,2021-01-19 02:03:55.785,val
3182,3182,41.62226104736328,44.0,2021-01-19 02:04:55.785,val
3183,3183,57.26432418823242,60.0,2021-01-19 02:05:55.785,val
3184,3184,62.11921691894531,37.0,2021-01-19 02:06:55.785,val
3185,3185,68.89111328125,73.0,2021-01-19 02:07:55.785,val
3186,3186,70.39227294921875,75.0,2021-01-19 02:08:55.785,val
3187,3187,51.162498474121094,31.0,2021-01-19 02:09:55.785,val
3188,3188,45.82688522338867,54.0,2021-01-19 02:10:55.785,val
3189,3189,44.69709014892578,45.0,2021-01-19 02:11:55.785,val
3190,3190,38.12232971191406,18.0,2021-01-19 02:12:55.785,val
3191,3191,22.798503875732425,30.0,2021-01-19 02:13:55.785,val
3192,3192,15.793076515197756,19.0,2021-01-19 02:14:55.785,val
3193,3193,7.415691375732423,12.0,2021-01-19 02:15:55.785,val
3194,3194,3.0197625160217285,3.0,2021-01-19 02:16:55.785,val
3195,3195,2.3277957439422607,1.0,2021-01-19 02:17:55.785,val
3196,3196,6.29244327545166,5.0,2021-01-19 02:18:55.785,val
3197,3197,14.079133987426758,14.0,2021-01-19 02:19:55.785,val
3198,3198,22.857988357543945,17.0,2021-01-19 02:20:55.785,val
3199,3199,32.14083480834961,31.0,2021-01-19 02:21:55.785,val
3200,3200,48.26158905029297,52.0,2021-01-19 02:22:55.785,val
3201,3201,59.52069091796875,61.0,2021-01-19 02:23:55.785,val
3202,3202,66.23306274414061,43.0,2021-01-19 02:24:55.785,val
3203,3203,69.76788330078125,77.0,2021-01-19 02:25:55.785,val
3204,3204,60.4911994934082,65.0,2021-01-19 02:26:55.785,val
3205,3205,45.45919799804688,56.0,2021-01-19 02:27:55.785,val
3206,3206,44.732120513916016,25.0,2021-01-19 02:28:55.785,val
3207,3207,39.87126922607422,41.0,2021-01-19 02:29:55.785,val
3208,3208,27.829030990600586,30.0,2021-01-19 02:30:55.785,val
3209,3209,16.226066589355472,17.0,2021-01-19 02:31:55.785,val
3210,3210,8.556798934936522,7.0,2021-01-19 02:32:55.785,val
3211,3211,4.111360549926759,5.0,2021-01-19 02:33:55.785,val
3212,3212,2.368358612060547,4.0,2021-01-19 02:34:55.785,val
3213,3213,3.386912107467652,2.0,2021-01-19 02:35:55.785,val
3214,3214,8.661198616027832,9.0,2021-01-19 02:36:55.785,val
3215,3215,17.80292320251465,18.0,2021-01-19 02:37:55.785,val
3216,3216,26.097368240356445,33.0,2021-01-19 02:38:55.785,val
3217,3217,40.74030685424805,51.0,2021-01-19 02:39:55.785,val
3218,3218,53.248512268066406,31.0,2021-01-19 02:40:55.785,val
3219,3219,64.62805938720703,73.0,2021-01-19 02:41:55.785,val
3220,3220,70.05826568603516,39.0,2021-01-19 02:42:55.785,val
3221,3221,62.58578109741211,72.0,2021-01-19 02:43:55.785,val
3222,3222,53.51714324951172,61.0,2021-01-19 02:44:55.785,val
3223,3223,45.22846603393555,28.0,2021-01-19 02:45:55.785,val
3224,3224,43.05654525756836,47.0,2021-01-19 02:46:55.785,val
3225,3225,33.062145233154304,36.0,2021-01-19 02:47:55.785,val
3226,3226,18.81124496459961,22.0,2021-01-19 02:48:55.785,val
3227,3227,10.409592628479004,8.0,2021-01-19 02:49:55.785,val
3228,3228,5.861594200134277,10.0,2021-01-19 02:50:55.785,val
3229,3229,3.333763599395752,4.0,2021-01-19 02:51:55.785,val
3230,3230,2.5147242546081543,4.0,2021-01-19 02:52:55.785,val
3231,3231,5.771995067596436,5.0,2021-01-19 02:53:55.785,val
3232,3232,14.000155448913574,15.0,2021-01-19 02:54:55.785,val
3233,3233,23.69862174987793,24.0,2021-01-19 02:55:55.785,val
3234,3234,32.101146697998054,45.0,2021-01-19 02:56:55.785,val
3235,3235,47.04405212402344,27.0,2021-01-19 02:57:55.785,val
3236,3236,60.46525573730469,63.0,2021-01-19 02:58:55.785,val
3237,3237,67.50667572021484,78.0,2021-01-19 02:59:55.785,val
3238,3238,67.60865783691406,37.0,2021-01-19 03:00:55.785,val
3239,3239,64.95009613037111,66.0,2021-01-19 03:01:55.785,val
3240,3240,53.02721405029297,42.0,2021-01-19 03:02:55.785,val
3241,3241,45.3764533996582,41.0,2021-01-19 03:03:55.785,val
3242,3242,41.96630096435547,40.0,2021-01-19 03:04:55.785,val
3243,3243,31.67878532409668,29.0,2021-01-19 03:05:55.785,val
3244,3244,18.81454467773437,8.0,2021-01-19 03:06:55.785,val
3245,3245,12.23353672027588,12.0,2021-01-19 03:07:55.785,val
3246,3246,5.5327324867248535,9.0,2021-01-19 03:08:55.785,val
3247,3247,2.4464659690856934,3.0,2021-01-19 03:09:55.785,val
3248,3248,4.013793468475342,3.0,2021-01-19 03:10:55.785,val
3249,3249,11.227749824523926,8.0,2021-01-19 03:11:55.785,val
3250,3250,19.88509178161621,21.0,2021-01-19 03:12:55.785,val
3251,3251,28.21772003173828,33.0,2021-01-19 03:13:55.785,val
3252,3252,41.77803039550781,24.0,2021-01-19 03:14:55.785,val
3253,3253,52.9580078125,57.0,2021-01-19 03:15:55.785,val
3254,3254,64.59066009521484,70.0,2021-01-19 03:16:55.785,val
3255,3255,65.97250366210939,54.0,2021-01-19 03:17:55.785,val
3256,3256,67.16419982910156,56.0,2021-01-19 03:18:55.785,val
3257,3257,57.70320129394531,60.0,2021-01-19 03:19:55.785,val
3258,3258,44.8754768371582,44.0,2021-01-19 03:20:55.785,val
3259,3259,45.74066543579102,26.0,2021-01-19 03:21:55.785,val
3260,3260,40.2492790222168,35.0,2021-01-19 03:22:55.785,val
3261,3261,29.71832656860352,26.0,2021-01-19 03:23:55.785,val
3262,3262,16.552238464355472,14.0,2021-01-19 03:24:55.785,val
3263,3263,8.92059326171875,3.0,2021-01-19 03:25:55.785,val
3264,3264,4.063428878784181,5.0,2021-01-19 03:26:55.785,val
3265,3265,2.562023639678955,3.0,2021-01-19 03:27:55.785,val
3266,3266,4.782266139984131,10.0,2021-01-19 03:28:55.785,val
3267,3267,12.246487617492676,10.0,2021-01-19 03:29:55.785,val
3268,3268,20.866722106933594,28.0,2021-01-19 03:30:55.785,val
3269,3269,34.03195953369141,47.0,2021-01-19 03:31:55.785,val
3270,3270,48.24394226074219,27.0,2021-01-19 03:32:55.785,val
3271,3271,59.35488510131836,60.0,2021-01-19 03:33:55.785,val
3272,3272,67.37761688232422,75.0,2021-01-19 03:34:55.785,val
3273,3273,67.66352844238281,38.0,2021-01-19 03:35:55.785,val
3274,3274,59.33529281616211,64.0,2021-01-19 03:36:55.785,val
3275,3275,48.31534957885742,54.0,2021-01-19 03:37:55.785,val
3276,3276,45.747047424316406,24.0,2021-01-19 03:38:55.785,val
3277,3277,39.498146057128906,40.0,2021-01-19 03:39:55.785,val
3278,3278,26.234418869018555,33.0,2021-01-19 03:40:55.785,val
3279,3279,16.026702880859375,18.0,2021-01-19 03:41:55.785,val
3280,3280,8.549238204956055,5.0,2021-01-19 03:42:55.785,val
3281,3281,4.8979835510253915,8.0,2021-01-19 03:43:55.785,val
3282,3282,3.1422510147094727,4.0,2021-01-19 03:44:55.785,val
3283,3283,3.905085802078247,5.0,2021-01-19 03:45:55.785,val
3284,3284,9.492369651794434,5.0,2021-01-19 03:46:55.785,val
3285,3285,18.083297729492188,19.0,2021-01-19 03:47:55.785,val
3286,3286,27.16486358642578,33.0,2021-01-19 03:48:55.785,val
3287,3287,37.0802116394043,30.0,2021-01-19 03:49:55.785,val
3288,3288,47.88249969482422,52.0,2021-01-19 03:50:55.785,val
3289,3289,61.44404220581055,72.0,2021-01-19 03:51:55.785,val
3290,3290,65.72406768798828,40.0,2021-01-19 03:52:55.785,val
3291,3291,64.51979064941406,72.0,2021-01-19 03:53:55.785,val
3292,3292,57.44275283813477,62.0,2021-01-19 03:54:55.785,val
3293,3293,43.803977966308594,27.0,2021-01-19 03:55:55.785,val
3294,3294,42.99650573730469,45.0,2021-01-19 03:56:55.785,val
3295,3295,33.26803970336914,37.0,2021-01-19 03:57:55.785,val
3296,3296,19.39247703552246,23.0,2021-01-19 03:58:55.785,val
3297,3297,10.292747497558594,8.0,2021-01-19 03:59:55.785,val
3298,3298,6.442299842834473,8.0,2021-01-19 04:00:55.785,val
3299,3299,3.885940790176392,4.0,2021-01-19 04:01:55.785,val
3300,3300,3.081468105316162,4.0,2021-01-19 04:02:55.785,val
3301,3301,5.985781669616699,3.0,2021-01-19 04:03:55.785,val
3302,3302,14.506181716918945,14.0,2021-01-19 04:04:55.785,val
3303,3303,23.46389961242676,26.0,2021-01-19 04:05:55.785,val
3304,3304,30.436777114868164,24.0,2021-01-19 04:06:55.785,val
3305,3305,43.65570831298828,51.0,2021-01-19 04:07:55.785,val
3306,3306,58.76039123535156,65.0,2021-01-19 04:08:55.785,val
3307,3307,62.80166625976562,37.0,2021-01-19 04:09:55.785,val
3308,3308,66.64639282226561,78.0,2021-01-19 04:10:55.785,val
3309,3309,63.21671676635742,66.0,2021-01-19 04:11:55.785,val
3310,3310,44.60923385620117,30.0,2021-01-19 04:12:55.785,val
3311,3311,43.93148422241211,51.0,2021-01-19 04:13:55.785,val
3312,3312,40.5041389465332,42.0,2021-01-19 04:14:55.785,val
3313,3313,27.146467208862305,18.0,2021-01-19 04:15:55.785,val
3314,3314,14.836585998535154,23.0,2021-01-19 04:16:55.785,val
3315,3315,11.428356170654295,12.0,2021-01-19 04:17:55.785,val
3316,3316,4.74535608291626,7.0,2021-01-19 04:18:55.785,val
3317,3317,2.937617063522339,3.0,2021-01-19 04:19:55.785,val
3318,3318,3.727880716323853,4.0,2021-01-19 04:20:55.785,val
3319,3319,10.283121109008787,8.0,2021-01-19 04:21:55.785,val
3320,3320,17.501846313476562,21.0,2021-01-19 04:22:55.785,val
3321,3321,25.32473945617676,15.0,2021-01-19 04:23:55.785,val
3322,3322,39.06072998046875,44.0,2021-01-19 04:24:55.785,val
3323,3323,50.77294540405274,58.0,2021-01-19 04:25:55.785,val
3324,3324,59.31792831420898,34.0,2021-01-19 04:26:55.785,val
3325,3325,67.38428497314453,75.0,2021-01-19 04:27:55.785,val
3326,3326,68.43968200683594,70.0,2021-01-19 04:28:55.785,val
3327,3327,52.93521118164063,61.0,2021-01-19 04:29:55.785,val
3328,3328,44.937660217285156,31.0,2021-01-19 04:30:55.785,val
3329,3329,43.36603546142578,39.0,2021-01-19 04:31:55.785,val
3330,3330,35.79963302612305,35.0,2021-01-19 04:32:55.785,val
3331,3331,20.27315330505371,24.0,2021-01-19 04:33:55.785,val
3332,3332,10.59397029876709,7.0,2021-01-19 04:34:55.785,val
3333,3333,6.0673651695251465,7.0,2021-01-19 04:35:55.785,val
3334,3334,3.344259023666382,5.0,2021-01-19 04:36:55.785,val
3335,3335,2.5962836742401123,2.0,2021-01-19 04:37:55.785,test
3336,3336,5.568366527557373,8.0,2021-01-19 04:38:55.785,test
3337,3337,13.158747673034668,12.0,2021-01-19 04:39:55.785,test
3338,3338,22.033315658569336,28.0,2021-01-19 04:40:55.785,test
3339,3339,34.163330078125,47.0,2021-01-19 04:41:55.785,test
3340,3340,49.46302032470703,28.0,2021-01-19 04:42:55.785,test
3341,3341,61.32464218139648,64.0,2021-01-19 04:43:55.785,test
3342,3342,68.57632446289061,76.0,2021-01-19 04:44:55.785,test
3343,3343,68.28678894042969,38.0,2021-01-19 04:45:55.785,test
3344,3344,60.48269271850586,62.0,2021-01-19 04:46:55.785,test
3345,3345,49.50997543334961,58.0,2021-01-19 04:47:55.785,test
3346,3346,46.17676162719727,46.0,2021-01-19 04:48:55.785,test
3347,3347,40.85594177246094,18.0,2021-01-19 04:49:55.785,test
3348,3348,28.22594451904297,31.0,2021-01-19 04:50:55.785,test
3349,3349,17.271163940429688,19.0,2021-01-19 04:51:55.785,test
3350,3350,8.725532531738281,7.0,2021-01-19 04:52:55.785,test
3351,3351,3.618943452835083,5.0,2021-01-19 04:53:55.785,test
3352,3352,2.4698865413665767,3.0,2021-01-19 04:54:55.785,test
3353,3353,5.385923862457275,6.0,2021-01-19 04:55:55.785,test
3354,3354,12.588998794555664,6.0,2021-01-19 04:56:55.785,test
3355,3355,21.111900329589844,19.0,2021-01-19 04:57:55.785,test
3356,3356,30.916656494140625,40.0,2021-01-19 04:58:55.785,test
3357,3357,44.83627700805664,54.0,2021-01-19 04:59:55.785,test
3358,3358,52.33327865600586,30.0,2021-01-19 05:00:55.785,test
3359,3359,65.26360321044922,71.0,2021-01-19 05:01:55.785,test
3360,3360,70.09283447265625,76.0,2021-01-19 05:02:55.785,test
3361,3361,60.06340408325195,34.0,2021-01-19 05:03:55.785,test
3362,3362,49.31877136230469,61.0,2021-01-19 05:04:55.785,test
3363,3363,46.35560607910156,51.0,2021-01-19 05:05:55.785,test
3364,3364,43.39183807373047,39.0,2021-01-19 05:06:55.785,test
3365,3365,32.18521499633789,15.0,2021-01-19 05:07:55.785,test
3366,3366,21.029296875,24.0,2021-01-19 05:08:55.785,test
3367,3367,12.911309242248535,14.0,2021-01-19 05:09:55.785,test
3368,3368,4.778816223144531,9.0,2021-01-19 05:10:55.785,test
3369,3369,2.4231560230255127,2.0,2021-01-19 05:11:55.785,test
3370,3370,3.3292157649993896,3.0,2021-01-19 05:12:55.785,test
3371,3371,9.467935562133787,10.0,2021-01-19 05:13:55.785,test
3372,3372,17.642162322998047,17.0,2021-01-19 05:14:55.785,test
3373,3373,26.24132537841797,19.0,2021-01-19 05:15:55.785,test
3374,3374,41.53738021850586,44.0,2021-01-19 05:16:55.785,test
3375,3375,56.0015640258789,58.0,2021-01-19 05:17:55.785,test
3376,3376,62.19411087036133,56.0,2021-01-19 05:18:55.785,test
3377,3377,68.55687713623047,58.0,2021-01-19 05:19:55.785,test
3378,3378,68.38079071044922,70.0,2021-01-19 05:20:55.785,test
3379,3379,56.44750213623047,61.0,2021-01-19 05:21:55.785,test
3380,3380,47.85443115234375,28.0,2021-01-19 05:22:55.785,test
3381,3381,45.168724060058594,43.0,2021-01-19 05:23:55.785,test
3382,3382,39.03835678100586,37.0,2021-01-19 05:24:55.785,test
3383,3383,21.913314819335934,15.0,2021-01-19 05:25:55.785,test
3384,3384,11.899727821350098,19.0,2021-01-19 05:26:55.785,test
3385,3385,7.223920822143555,12.0,2021-01-19 05:27:55.785,test
3386,3386,3.1215021610260014,4.0,2021-01-19 05:28:55.785,test
3387,3387,2.4936504364013667,2.0,2021-01-19 05:29:55.785,test
3388,3388,4.8407301902771,7.0,2021-01-19 05:30:55.785,test
3389,3389,12.54792022705078,16.0,2021-01-19 05:31:55.785,test
3390,3390,20.6986026763916,27.0,2021-01-19 05:32:55.785,test
3391,3391,29.78659629821777,24.0,2021-01-19 05:33:55.785,test
3392,3392,46.76580810546875,52.0,2021-01-19 05:34:55.785,test
3393,3393,62.23571395874024,64.0,2021-01-19 05:35:55.785,test
3394,3394,64.23235321044922,40.0,2021-01-19 05:36:55.785,test
3395,3395,68.48342895507811,77.0,2021-01-19 05:37:55.785,test
3396,3396,63.916236877441406,67.0,2021-01-19 05:38:55.785,test
3397,3397,44.454681396484375,29.0,2021-01-19 05:39:55.785,test
3398,3398,45.28955078125,50.0,2021-01-19 05:40:55.785,test
3399,3399,40.099609375,43.0,2021-01-19 05:41:55.785,test
3400,3400,25.09921264648437,16.0,2021-01-19 05:42:55.785,test
3401,3401,13.628639221191404,22.0,2021-01-19 05:43:55.785,test
3402,3402,9.883099555969238,13.0,2021-01-19 05:44:55.785,test
3403,3403,4.171857833862306,8.0,2021-01-19 05:45:55.785,test
3404,3404,2.8280460834503174,1.0,2021-01-19 05:46:55.785,test
3405,3405,5.237387180328369,4.0,2021-01-19 05:47:55.785,test
3406,3406,13.131348609924315,9.0,2021-01-19 05:48:55.785,test
3407,3407,20.823713302612305,20.0,2021-01-19 05:49:55.785,test
3408,3408,28.249378204345703,16.0,2021-01-19 05:50:55.785,test
3409,3409,41.572731018066406,41.0,2021-01-19 05:51:55.785,test
3410,3410,52.19913864135742,56.0,2021-01-19 05:52:55.785,test
3411,3411,60.54563522338867,38.0,2021-01-19 05:53:55.785,test
3412,3412,68.01026153564453,75.0,2021-01-19 05:54:55.785,test
3413,3413,68.61669158935547,74.0,2021-01-19 05:55:55.785,test
3414,3414,55.82513046264648,60.0,2021-01-19 05:56:55.785,test
3415,3415,47.45596694946289,27.0,2021-01-19 05:57:55.785,test
3416,3416,45.64934921264648,45.0,2021-01-19 05:58:55.785,test
3417,3417,41.17304229736328,36.0,2021-01-19 05:59:55.785,test
3418,3418,23.968618392944336,26.0,2021-01-19 06:00:55.785,test
3419,3419,12.65369701385498,8.0,2021-01-19 06:01:55.785,test
3420,3420,7.665799617767334,9.0,2021-01-19 06:02:55.785,test
3421,3421,4.160632133483887,2.0,2021-01-19 06:03:55.785,test
3422,3422,2.9086809158325195,2.0,2021-01-19 06:04:55.785,test
