,Unnamed: 0,prediction,real,time,split
616,616,7.662073612213135,7.0,2020-10-26 13:27:42.931,train
617,617,5.987070083618164,8.0,2020-10-26 13:28:42.931,train
618,618,8.115336418151855,14.0,2020-10-26 13:29:42.931,train
619,619,5.363956928253174,4.0,2020-10-26 13:30:42.931,train
620,620,5.853769779205322,11.0,2020-10-26 13:31:42.931,train
621,621,6.9174675941467285,7.0,2020-10-26 13:32:42.931,train
622,622,7.19212532043457,8.0,2020-10-26 13:33:42.931,train
623,623,8.940486907958984,10.0,2020-10-26 13:34:42.931,train
624,624,6.8306884765625,10.0,2020-10-26 13:35:42.931,train
625,625,6.534336566925049,16.0,2020-10-26 13:36:42.931,train
626,626,6.715561389923097,9.0,2020-10-26 13:37:42.931,train
627,627,6.638792991638184,18.0,2020-10-26 13:38:42.931,train
628,628,6.702472686767577,5.0,2020-10-26 13:39:42.931,train
629,629,6.843179225921631,8.0,2020-10-26 13:40:42.931,train
630,630,6.1709184646606445,14.0,2020-10-26 13:41:42.931,train
631,631,6.0658488273620605,4.0,2020-10-26 13:42:42.931,train
632,632,7.707064151763916,9.0,2020-10-26 13:43:42.931,train
633,633,7.661005973815918,9.0,2020-10-26 13:44:42.931,train
634,634,7.949531078338622,9.0,2020-10-26 13:45:42.931,train
635,635,12.313722610473633,14.0,2020-10-26 13:46:42.931,train
636,636,7.895660400390625,3.0,2020-10-26 13:47:42.931,train
637,637,7.133484363555907,3.0,2020-10-26 13:48:42.931,train
638,638,6.949018478393555,10.0,2020-10-26 13:49:42.931,train
639,639,6.533509254455566,7.0,2020-10-26 13:50:42.931,train
640,640,10.281176567077637,7.0,2020-10-26 13:51:42.931,train
641,641,13.305980682373047,6.0,2020-10-26 13:52:42.931,train
642,642,8.020611763000487,7.0,2020-10-26 13:53:42.931,train
643,643,5.625324726104736,3.0,2020-10-26 13:54:42.931,train
644,644,5.317641258239746,10.0,2020-10-26 13:55:42.931,train
645,645,6.169425487518311,11.0,2020-10-26 13:56:42.931,train
646,646,6.6131086349487305,6.0,2020-10-26 13:57:42.931,train
647,647,10.447761535644533,16.0,2020-10-26 13:58:42.931,train
648,648,7.21469783782959,9.0,2020-10-26 13:59:42.931,train
649,649,5.79340934753418,7.0,2020-10-26 14:00:42.931,train
650,650,5.282471656799316,4.0,2020-10-26 14:01:42.931,train
651,651,4.580309867858887,10.0,2020-10-26 14:02:42.931,train
652,652,6.349617004394531,9.0,2020-10-26 14:03:42.931,train
653,653,8.073674201965332,10.0,2020-10-26 14:04:42.931,train
654,654,12.38582992553711,7.0,2020-10-26 14:05:42.931,train
655,655,7.629812240600586,2.0,2020-10-26 14:06:42.931,train
656,656,5.9933834075927725,18.0,2020-10-26 14:07:42.931,train
657,657,4.666680812835693,8.0,2020-10-26 14:08:42.931,train
658,658,5.429857730865479,1.0,2020-10-26 14:09:42.931,train
659,659,9.24716567993164,6.0,2020-10-26 14:10:42.931,train
660,660,6.169791221618652,13.0,2020-10-26 14:11:42.931,val
661,661,4.473403453826903,4.0,2020-10-26 14:12:42.931,val
662,662,9.155904769897461,9.0,2020-10-26 14:13:42.931,val
663,663,6.799154281616211,4.0,2020-10-26 14:14:42.931,val
664,664,5.51784086227417,3.0,2020-10-26 14:15:42.931,val
665,665,6.201606750488281,9.0,2020-10-26 14:16:42.931,val
666,666,5.9004106521606445,7.0,2020-10-26 14:17:42.931,val
667,667,10.975390434265137,15.0,2020-10-26 14:18:42.931,val
668,668,9.915246963500977,4.0,2020-10-26 14:19:42.931,val
669,669,6.986296653747559,9.0,2020-10-26 14:20:42.931,val
670,670,4.655210971832275,10.0,2020-10-26 14:21:42.931,val
671,671,3.329323530197144,16.0,2020-10-26 14:22:42.931,val
672,672,6.890959739685059,7.0,2020-10-26 14:23:42.931,val
673,673,7.0362868309021,16.0,2020-10-26 14:24:42.931,val
674,674,6.2475829124450675,7.0,2020-10-26 14:25:42.931,val
675,675,6.739628314971924,9.0,2020-10-26 14:26:42.931,val
676,676,5.576061248779297,11.0,2020-10-26 14:27:42.931,val
677,677,5.490095138549805,10.0,2020-10-26 14:28:42.931,val
678,678,6.225386619567871,19.0,2020-10-26 14:29:42.931,val
679,679,7.690639972686768,11.0,2020-10-26 14:30:42.931,val
680,680,6.9474287033081055,2.0,2020-10-26 14:31:42.931,val
681,681,6.758875846862793,12.0,2020-10-26 14:32:42.931,val
682,682,6.702481746673584,8.0,2020-10-26 14:33:42.931,val
683,683,6.0311431884765625,1.0,2020-10-26 14:34:42.931,val
684,684,10.963422775268556,16.0,2020-10-26 14:35:42.931,val
685,685,7.0838141441345215,14.0,2020-10-26 14:36:42.931,val
686,686,5.80711030960083,4.0,2020-10-26 14:37:42.931,val
687,687,9.421075820922852,7.0,2020-10-26 14:38:42.931,val
688,688,5.643697738647461,11.0,2020-10-26 14:39:42.931,val
689,689,3.7052056789398193,6.0,2020-10-26 14:40:42.931,val
690,690,6.96357011795044,11.0,2020-10-26 14:41:42.931,val
691,691,6.512923717498778,10.0,2020-10-26 14:42:42.931,test
692,692,6.492002010345459,9.0,2020-10-26 14:43:42.931,test
693,693,5.975154399871826,9.0,2020-10-26 14:44:42.931,test
694,694,6.137624263763428,10.0,2020-10-26 14:45:42.931,test
695,695,5.976384162902832,5.0,2020-10-26 14:46:42.931,test
696,696,6.119314193725586,11.0,2020-10-26 14:47:42.931,test
697,697,6.343292236328125,10.0,2020-10-26 14:48:42.931,test
698,698,6.507213592529298,10.0,2020-10-26 14:49:42.931,test
699,699,7.58974552154541,13.0,2020-10-26 14:50:42.931,test
700,700,6.78461217880249,9.0,2020-10-26 14:51:42.931,test
701,701,6.031904697418213,8.0,2020-10-26 14:52:42.931,test
702,702,5.814551830291747,15.0,2020-10-26 14:53:42.931,test
703,703,5.325265407562256,2.0,2020-10-26 14:54:42.931,test
704,704,6.5142149925231925,7.0,2020-10-26 14:55:42.931,test
705,705,7.60549259185791,13.0,2020-10-26 14:56:42.931,test
