,Unnamed: 0,time,prediction,step
3816,3816,2021-02-18 14:17:47.715,78.4743,6
3826,3826,2021-02-18 14:18:17.715,78.7548,6
3836,3836,2021-02-18 14:18:47.715,78.58949,6
3846,3846,2021-02-18 14:19:17.715,77.25358,6
3856,3856,2021-02-18 14:19:47.715,77.55303,6
3866,3866,2021-02-18 14:20:17.715,77.54394,6
3876,3876,2021-02-18 14:20:47.715,77.220314,6
3886,3886,2021-02-18 14:21:17.715,77.187256,6
3896,3896,2021-02-18 14:21:47.715,77.14435999999999,6
3906,3906,2021-02-18 14:22:17.715,77.061745,6
3916,3916,2021-02-18 14:22:47.715,77.04786,6
3926,3926,2021-02-18 14:23:17.715,76.99279,6
3936,3936,2021-02-18 14:23:47.715,77.141785,6
3946,3946,2021-02-18 14:24:17.715,76.79981,6
3956,3956,2021-02-18 14:24:47.715,76.61011500000001,6
3966,3966,2021-02-18 14:25:17.715,76.20091,6
3976,3976,2021-02-18 14:25:47.715,75.87443499999999,6
3986,3986,2021-02-18 14:26:17.715,75.790565,6
3996,3996,2021-02-18 14:26:47.715,75.72236,6
4006,4006,2021-02-18 14:27:17.715,75.77771,6
4016,4016,2021-02-18 14:27:47.715,75.87688399999999,6
4026,4026,2021-02-18 14:28:17.715,75.86872,6
4036,4036,2021-02-18 14:28:47.715,75.81844,6
4046,4046,2021-02-18 14:29:17.715,75.77128,6
4056,4056,2021-02-18 14:29:47.715,75.55604,6
4066,4066,2021-02-18 14:30:17.715,75.36541,6
4076,4076,2021-02-18 14:30:47.715,75.195045,6
4086,4086,2021-02-18 14:31:17.715,75.041756,6
4096,4096,2021-02-18 14:31:47.715,74.96672,6
4106,4106,2021-02-18 14:32:17.715,74.91874,6
4116,4116,2021-02-18 14:32:47.715,74.90135,6
4126,4126,2021-02-18 14:33:17.715,74.91949,6
4136,4136,2021-02-18 14:33:47.715,74.8552,6
4146,4146,2021-02-18 14:34:17.715,74.78064,6
4156,4156,2021-02-18 14:34:47.715,74.55974,6
4166,4166,2021-02-18 14:35:17.715,74.37857,6
4176,4176,2021-02-18 14:35:47.715,74.1888,6
4186,4186,2021-02-18 14:36:17.715,74.061195,6
4196,4196,2021-02-18 14:36:47.715,73.96011999999999,6
4206,4206,2021-02-18 14:37:17.715,73.88521999999999,6
4216,4216,2021-02-18 14:37:47.715,73.837,6
4226,4226,2021-02-18 14:38:17.715,73.8177,6
4236,4236,2021-02-18 14:38:47.715,74.05065,6
4246,4246,2021-02-18 14:39:17.715,73.99173,6
4256,4256,2021-02-18 14:39:47.715,73.76221,6
4266,4266,2021-02-18 14:40:17.715,73.53645,6
4276,4276,2021-02-18 14:40:47.715,73.33573,6
4286,4286,2021-02-18 14:41:17.715,73.19681,6
4296,4296,2021-02-18 14:41:47.715,73.08476,6
4306,4306,2021-02-18 14:42:17.715,72.99845,6
4316,4316,2021-02-18 14:42:47.715,72.93814,6
4326,4326,2021-02-18 14:43:17.715,72.90531,6
4336,4336,2021-02-18 14:43:47.715,72.90283000000001,6
4346,4346,2021-02-18 14:44:17.715,72.74728,6
4356,4356,2021-02-18 14:44:47.715,72.52575,6
4366,4366,2021-02-18 14:45:17.715,72.491486,6
4376,4376,2021-02-18 14:45:47.715,72.46875,6
4386,4386,2021-02-18 14:46:17.715,72.45952,6
4396,4396,2021-02-18 14:46:47.715,72.46545,6
4406,4406,2021-02-18 14:47:17.715,72.48846400000001,6
4416,4416,2021-02-18 14:47:47.715,72.53081999999999,6
4426,4426,2021-02-18 14:48:17.715,72.59569499999999,6
4436,4436,2021-02-18 14:48:47.715,72.29099000000001,6
4446,4446,2021-02-18 14:49:17.715,72.06469,6
4456,4456,2021-02-18 14:49:47.715,71.78483,6
4466,4466,2021-02-18 14:50:17.715,71.54645,6
4476,4476,2021-02-18 14:50:47.715,71.34196999999999,6
4486,4486,2021-02-18 14:51:17.715,71.16713,6
4496,4496,2021-02-18 14:51:47.715,71.01954,6
4506,4506,2021-02-18 14:52:17.715,70.89801,6
4516,4516,2021-02-18 14:52:47.715,70.3502,6
4526,4526,2021-02-18 14:53:17.715,69.90677,6
4536,4536,2021-02-18 14:53:47.715,69.54333000000001,6
4546,4546,2021-02-18 14:54:17.715,69.24855,6
4556,4556,2021-02-18 14:54:47.715,68.94131,6
4566,4566,2021-02-18 14:55:17.715,68.67734,6
4576,4576,2021-02-18 14:55:47.715,68.452095,6
4586,4586,2021-02-18 14:56:17.715,68.38953000000001,6
4596,4596,2021-02-18 14:56:47.715,68.04669,6
4606,4606,2021-02-18 14:57:17.715,67.76179499999999,6
4616,4616,2021-02-18 14:57:47.715,67.52335,6
4626,4626,2021-02-18 14:58:17.715,67.32443,6
4636,4636,2021-02-18 14:58:47.715,67.16152,6
4646,4646,2021-02-18 14:59:17.715,66.96931,6
4656,4656,2021-02-18 14:59:47.715,66.799545,6
4666,4666,2021-02-18 15:00:17.715,66.72316,6
4676,4676,2021-02-18 15:00:47.715,66.53839,6
4686,4686,2021-02-18 15:01:17.715,66.4056,6
4696,4696,2021-02-18 15:01:47.715,66.32448000000001,6
4706,4706,2021-02-18 15:02:17.715,66.298355,6
4716,4716,2021-02-18 15:02:47.715,66.33491500000001,6
4726,4726,2021-02-18 15:03:17.715,66.44799,6
4736,4736,2021-02-18 15:03:47.715,66.354225,6
4746,4746,2021-02-18 15:04:17.715,66.289055,6
4756,4756,2021-02-18 15:04:47.715,65.90366999999999,6
4766,4766,2021-02-18 15:05:17.715,65.59995,6
4776,4776,2021-02-18 15:05:47.715,65.36444,6
4786,4786,2021-02-18 15:06:17.715,65.19153,6
4796,4796,2021-02-18 15:06:47.715,65.08046999999999,6
4806,4806,2021-02-18 15:07:17.715,65.03492,6
4816,4816,2021-02-18 15:07:47.715,64.65160999999999,6
4826,4826,2021-02-18 15:08:17.715,64.32343,6
4836,4836,2021-02-18 15:08:47.715,64.04157,6
4846,4846,2021-02-18 15:09:17.715,63.80080400000001,6
4856,4856,2021-02-18 15:09:47.715,63.59819,6
4866,4866,2021-02-18 15:10:17.715,63.4324,6
4876,4876,2021-02-18 15:10:47.715,63.303309999999996,6
4886,4886,2021-02-18 15:11:17.715,62.97772,6
4896,4896,2021-02-18 15:11:47.715,62.541743999999994,6
4906,4906,2021-02-18 15:12:17.715,62.170563,6
4916,4916,2021-02-18 15:12:47.715,61.854206000000005,6
4926,4926,2021-02-18 15:13:17.715,61.587177000000004,6
4936,4936,2021-02-18 15:13:47.715,61.366802,6
4946,4946,2021-02-18 15:14:17.715,60.827923,6
4956,4956,2021-02-18 15:14:47.715,60.38585,6
4966,4966,2021-02-18 15:15:17.715,60.0269,6
4976,4976,2021-02-18 15:15:47.715,59.656265000000005,6
4986,4986,2021-02-18 15:16:17.715,59.343414,6
4996,4996,2021-02-18 15:16:47.715,58.915524,6
5006,5006,2021-02-18 15:17:17.715,58.56234,6
5016,5016,2021-02-18 15:17:47.715,58.279026,6
5026,5026,2021-02-18 15:18:17.715,58.064476,6
5036,5036,2021-02-18 15:18:47.715,57.920730000000006,6
5046,5046,2021-02-18 15:19:17.715,57.69151,6
5056,5056,2021-02-18 15:19:47.715,57.34288000000001,6
5066,5066,2021-02-18 15:20:17.715,57.050019999999996,6
5076,5076,2021-02-18 15:20:47.715,56.810894,6
5086,5086,2021-02-18 15:21:17.715,56.625397,6
5096,5096,2021-02-18 15:21:47.715,56.34206,6
5106,5106,2021-02-18 15:22:17.715,56.13289,6
5116,5116,2021-02-18 15:22:47.715,55.891833999999996,6
5126,5126,2021-02-18 15:23:17.715,55.706055000000006,6
5136,5136,2021-02-18 15:23:47.715,55.576775,6
5146,5146,2021-02-18 15:24:17.715,55.356678,6
5156,5156,2021-02-18 15:24:47.715,55.039227000000004,6
5166,5166,2021-02-18 15:25:17.715,54.990111999999996,6
5176,5176,2021-02-18 15:25:47.715,54.66804499999999,6
5186,5186,2021-02-18 15:26:17.715,54.21374,6
5196,5196,2021-02-18 15:26:47.715,53.842197,6
5206,5206,2021-02-18 15:27:17.715,53.547405000000005,6
5216,5216,2021-02-18 15:27:47.715,52.926678,6
5226,5226,2021-02-18 15:28:17.715,52.43294,6
5236,5236,2021-02-18 15:28:47.715,52.054493,6
5246,5246,2021-02-18 15:29:17.715,51.574096999999995,6
5256,5256,2021-02-18 15:29:47.715,51.165318,6
