,Unnamed: 0,time,prediction,step
3817,3817,2021-02-18 14:18:17.715,78.34116999999999,7
3827,3827,2021-02-18 14:18:47.715,78.61567,7
3837,3837,2021-02-18 14:19:17.715,78.46958000000001,7
3847,3847,2021-02-18 14:19:47.715,77.19111,7
3857,3857,2021-02-18 14:20:17.715,77.50532,7
3867,3867,2021-02-18 14:20:47.715,77.496025,7
3877,3877,2021-02-18 14:21:17.715,77.15685,7
3887,3887,2021-02-18 14:21:47.715,77.1238,7
3897,3897,2021-02-18 14:22:17.715,77.08184,7
3907,3907,2021-02-18 14:22:47.715,76.99639,7
3917,3917,2021-02-18 14:23:17.715,76.985825,7
3927,3927,2021-02-18 14:23:47.715,76.92989,7
3937,3937,2021-02-18 14:24:17.715,77.07796,7
3947,3947,2021-02-18 14:24:47.715,76.73485,7
3957,3957,2021-02-18 14:25:17.715,76.546524,7
3967,3967,2021-02-18 14:25:47.715,76.134514,7
3977,3977,2021-02-18 14:26:17.715,75.80554000000001,7
3987,3987,2021-02-18 14:26:47.715,75.72126,7
3997,3997,2021-02-18 14:27:17.715,75.65278,7
4007,4007,2021-02-18 14:27:47.715,75.7126,7
4017,4017,2021-02-18 14:28:17.715,75.81708499999999,7
4027,4027,2021-02-18 14:28:47.715,75.8095,7
4037,4037,2021-02-18 14:29:17.715,75.75802,7
4047,4047,2021-02-18 14:29:47.715,75.709724,7
4057,4057,2021-02-18 14:30:17.715,75.49289,7
4067,4067,2021-02-18 14:30:47.715,75.30039000000001,7
4077,4077,2021-02-18 14:31:17.715,75.12824,7
4087,4087,2021-02-18 14:31:47.715,74.97328,7
4097,4097,2021-02-18 14:32:17.715,74.89981,7
4107,4107,2021-02-18 14:32:47.715,74.85413,7
4117,4117,2021-02-18 14:33:17.715,74.83981999999999,7
4127,4127,2021-02-18 14:33:47.715,74.86198,7
4137,4137,2021-02-18 14:34:17.715,74.797585,7
4147,4147,2021-02-18 14:34:47.715,74.72168,7
4157,4157,2021-02-18 14:35:17.715,74.49937,7
4167,4167,2021-02-18 14:35:47.715,74.31703,7
4177,4177,2021-02-18 14:36:17.715,74.12445,7
4187,4187,2021-02-18 14:36:47.715,73.996346,7
4197,4197,2021-02-18 14:37:17.715,73.89531,7
4207,4207,2021-02-18 14:37:47.715,73.82105,7
4217,4217,2021-02-18 14:38:17.715,73.77414,7
4227,4227,2021-02-18 14:38:47.715,73.75695,7
4237,4237,2021-02-18 14:39:17.715,74.00121,7
4247,4247,2021-02-18 14:39:47.715,73.94198,7
4257,4257,2021-02-18 14:40:17.715,73.70999,7
4267,4267,2021-02-18 14:40:47.715,73.48047,7
4277,4277,2021-02-18 14:41:17.715,73.27624,7
4287,4287,2021-02-18 14:41:47.715,73.13606,7
4297,4297,2021-02-18 14:42:17.715,73.02332,7
4307,4307,2021-02-18 14:42:47.715,72.93690500000001,7
4317,4317,2021-02-18 14:43:17.715,72.87716999999999,7
4327,4327,2021-02-18 14:43:47.715,72.845665,7
4337,4337,2021-02-18 14:44:17.715,72.84541,7
4347,4347,2021-02-18 14:44:47.715,72.6905,7
4357,4357,2021-02-18 14:45:17.715,72.465805,7
4367,4367,2021-02-18 14:45:47.715,72.43085500000001,7
4377,4377,2021-02-18 14:46:17.715,72.40834,7
4387,4387,2021-02-18 14:46:47.715,72.39989,7
4397,4397,2021-02-18 14:47:17.715,72.40713000000001,7
4407,4407,2021-02-18 14:47:47.715,72.43204,7
4417,4417,2021-02-18 14:48:17.715,72.47694399999999,7
4427,4427,2021-02-18 14:48:47.715,72.54518,7
4437,4437,2021-02-18 14:49:17.715,72.23975,7
4447,4447,2021-02-18 14:49:47.715,72.0126,7
4457,4457,2021-02-18 14:50:17.715,71.72801,7
4467,4467,2021-02-18 14:50:47.715,71.48539,7
4477,4477,2021-02-18 14:51:17.715,71.277176,7
4487,4487,2021-02-18 14:51:47.715,71.09916,7
4497,4497,2021-02-18 14:52:17.715,70.94901999999999,7
4507,4507,2021-02-18 14:52:47.715,70.82562,7
4517,4517,2021-02-18 14:53:17.715,70.268105,7
4527,4527,2021-02-18 14:53:47.715,69.81656,7
4537,4537,2021-02-18 14:54:17.715,69.44662,7
4547,4547,2021-02-18 14:54:47.715,69.14699,7
4557,4557,2021-02-18 14:55:17.715,68.8334,7
4567,4567,2021-02-18 14:55:47.715,68.56436,7
4577,4577,2021-02-18 14:56:17.715,68.33529,7
4587,4587,2021-02-18 14:56:47.715,68.271866,7
4597,4597,2021-02-18 14:57:17.715,67.92436,7
4607,4607,2021-02-18 14:57:47.715,67.635796,7
4617,4617,2021-02-18 14:58:17.715,67.39463,7
4627,4627,2021-02-18 14:58:47.715,67.193634,7
4637,4637,2021-02-18 14:59:17.715,67.02929,7
4647,4647,2021-02-18 14:59:47.715,66.83327,7
4657,4657,2021-02-18 15:00:17.715,66.660164,7
4667,4667,2021-02-18 15:00:47.715,66.58439,7
4677,4677,2021-02-18 15:01:17.715,66.39959,7
4687,4687,2021-02-18 15:01:47.715,66.26777,7
4697,4697,2021-02-18 15:02:17.715,66.18923000000001,7
4707,4707,2021-02-18 15:02:47.715,66.16774000000001,7
4717,4717,2021-02-18 15:03:17.715,66.21145,7
4727,4727,2021-02-18 15:03:47.715,66.334816,7
4737,4737,2021-02-18 15:04:17.715,66.241066,7
4747,4747,2021-02-18 15:04:47.715,66.17697,7
4757,4757,2021-02-18 15:05:17.715,65.788765,7
4767,4767,2021-02-18 15:05:47.715,65.48328000000001,7
4777,4777,2021-02-18 15:06:17.715,65.24735,7
4787,4787,2021-02-18 15:06:47.715,65.075615,7
4797,4797,2021-02-18 15:07:17.715,64.96758,7
4807,4807,2021-02-18 15:07:47.715,64.927216,7
4817,4817,2021-02-18 15:08:17.715,64.53683000000001,7
4827,4827,2021-02-18 15:08:47.715,64.20262,7
4837,4837,2021-02-18 15:09:17.715,63.91585500000001,7
4847,4847,2021-02-18 15:09:47.715,63.671319999999994,7
4857,4857,2021-02-18 15:10:17.715,63.46609,7
4867,4867,2021-02-18 15:10:47.715,63.29889300000001,7
4877,4877,2021-02-18 15:11:17.715,63.169685,7
4887,4887,2021-02-18 15:11:47.715,62.845009999999995,7
4897,4897,2021-02-18 15:12:17.715,62.401493,7
4907,4907,2021-02-18 15:12:47.715,62.024235,7
4917,4917,2021-02-18 15:13:17.715,61.70326,7
4927,4927,2021-02-18 15:13:47.715,61.433037,7
4937,4937,2021-02-18 15:14:17.715,61.210938,7
4947,4947,2021-02-18 15:14:47.715,60.6653,7
4957,4957,2021-02-18 15:15:17.715,60.21829,7
4967,4967,2021-02-18 15:15:47.715,59.85643,7
4977,4977,2021-02-18 15:16:17.715,59.480442000000004,7
4987,4987,2021-02-18 15:16:47.715,59.163853,7
4997,4997,2021-02-18 15:17:17.715,58.731003,7
5007,5007,2021-02-18 15:17:47.715,58.374545999999995,7
5017,5017,2021-02-18 15:18:17.715,58.089977000000005,7
5027,5027,2021-02-18 15:18:47.715,57.876369999999994,7
5037,5037,2021-02-18 15:19:17.715,57.735966000000005,7
5047,5047,2021-02-18 15:19:47.715,57.510113,7
5057,5057,2021-02-18 15:20:17.715,57.156864,7
5067,5067,2021-02-18 15:20:47.715,56.86094,7
5077,5077,2021-02-18 15:21:17.715,56.620445,7
5087,5087,2021-02-18 15:21:47.715,56.435364,7
5097,5097,2021-02-18 15:22:17.715,56.152275,7
5107,5107,2021-02-18 15:22:47.715,55.944995999999996,7
5117,5117,2021-02-18 15:23:17.715,55.70295,7
5127,5127,2021-02-18 15:23:47.715,55.51795,7
5137,5137,2021-02-18 15:24:17.715,55.391388,7
5147,5147,2021-02-18 15:24:47.715,55.17426999999999,7
5157,5157,2021-02-18 15:25:17.715,54.858788,7
5167,5167,2021-02-18 15:25:47.715,54.816685,7
5177,5177,2021-02-18 15:26:17.715,54.49879,7
5187,5187,2021-02-18 15:26:47.715,54.039455000000004,7
5197,5197,2021-02-18 15:27:17.715,53.664864,7
5207,5207,2021-02-18 15:27:47.715,53.36915,7
5217,5217,2021-02-18 15:28:17.715,52.741463,7
5227,5227,2021-02-18 15:28:47.715,52.24378,7
5237,5237,2021-02-18 15:29:17.715,51.864445,7
5247,5247,2021-02-18 15:29:47.715,51.375941999999995,7
5257,5257,2021-02-18 15:30:17.715,50.96097,7
