,Unnamed: 0,time,prediction,real,step
3817,3817,2021-01-22 12:30:25.480,3.0,3.0,7
3827,3827,2021-01-22 12:30:55.480,3.0,3.0,7
3837,3837,2021-01-22 12:31:25.480,3.0,3.0,7
3847,3847,2021-01-22 12:31:55.480,3.0,3.0,7
3857,3857,2021-01-22 12:32:25.480,3.0,3.0,7
3867,3867,2021-01-22 12:32:55.480,3.0,3.0,7
3877,3877,2021-01-22 12:33:25.480,3.0,3.0,7
3887,3887,2021-01-22 12:33:55.480,3.0,3.0,7
3897,3897,2021-01-22 12:34:25.480,3.0,3.0,7
3907,3907,2021-01-22 12:34:55.480,3.0,3.0,7
3917,3917,2021-01-22 12:35:25.480,3.0,3.0,7
3927,3927,2021-01-22 12:35:55.480,3.0,3.0,7
3937,3937,2021-01-22 12:36:25.480,3.0,3.0,7
3947,3947,2021-01-22 12:36:55.480,3.0,3.0,7
3957,3957,2021-01-22 12:37:25.480,3.0,3.0,7
3967,3967,2021-01-22 12:37:55.480,3.0,3.0,7
3977,3977,2021-01-22 12:38:25.480,3.0,3.0,7
3987,3987,2021-01-22 12:38:55.480,3.0,3.0,7
3997,3997,2021-01-22 12:39:25.480,3.0,3.0,7
4007,4007,2021-01-22 12:39:55.480,3.0,3.0,7
4017,4017,2021-01-22 12:40:25.480,3.0,3.0,7
4027,4027,2021-01-22 12:40:55.480,3.0,3.0,7
4037,4037,2021-01-22 12:41:25.480,3.0,3.0,7
4047,4047,2021-01-22 12:41:55.480,3.0,3.0,7
4057,4057,2021-01-22 12:42:25.480,3.0,3.0,7
4067,4067,2021-01-22 12:42:55.480,3.0,3.0,7
4077,4077,2021-01-22 12:43:25.480,3.0,3.0,7
4087,4087,2021-01-22 12:43:55.480,3.0,3.0,7
4097,4097,2021-01-22 12:44:25.480,3.0,3.0,7
4107,4107,2021-01-22 12:44:55.480,3.0,3.0,7
4117,4117,2021-01-22 12:45:25.480,3.0,3.0,7
4127,4127,2021-01-22 12:45:55.480,3.0,3.0,7
4137,4137,2021-01-22 12:46:25.480,3.0,3.0,7
4147,4147,2021-01-22 12:46:55.480,3.0,3.0,7
4157,4157,2021-01-22 12:47:25.480,3.0,3.0,7
4167,4167,2021-01-22 12:47:55.480,3.0,3.0,7
4177,4177,2021-01-22 12:48:25.480,3.0,3.0,7
4187,4187,2021-01-22 12:48:55.480,3.0,3.0,7
4197,4197,2021-01-22 12:49:25.480,3.0,3.0,7
4207,4207,2021-01-22 12:49:55.480,3.0,3.0,7
4217,4217,2021-01-22 12:50:25.480,3.0,3.0,7
4227,4227,2021-01-22 12:50:55.480,3.0,3.0,7
4237,4237,2021-01-22 12:51:25.480,3.0,3.0,7
4247,4247,2021-01-22 12:51:55.480,3.0,3.0,7
4257,4257,2021-01-22 12:52:25.480,3.0,3.0,7
4267,4267,2021-01-22 12:52:55.480,3.0,3.0,7
4277,4277,2021-01-22 12:53:25.480,3.0,3.0,7
4287,4287,2021-01-22 12:53:55.480,3.0,3.0,7
4297,4297,2021-01-22 12:54:25.480,3.0,3.0,7
4307,4307,2021-01-22 12:54:55.480,3.0,3.0,7
4317,4317,2021-01-22 12:55:25.480,3.0,3.0,7
4327,4327,2021-01-22 12:55:55.480,3.0,3.0,7
4337,4337,2021-01-22 12:56:25.480,3.0,3.0,7
4347,4347,2021-01-22 12:56:55.480,3.0,3.0,7
4357,4357,2021-01-22 12:57:25.480,3.0,3.0,7
4367,4367,2021-01-22 12:57:55.480,3.0,3.0,7
4377,4377,2021-01-22 12:58:25.480,3.0,3.0,7
4387,4387,2021-01-22 12:58:55.480,3.0,3.0,7
4397,4397,2021-01-22 12:59:25.480,3.0,3.0,7
4407,4407,2021-01-22 12:59:55.480,3.0,3.0,7
4417,4417,2021-01-22 13:00:25.480,3.0,3.0,7
4427,4427,2021-01-22 13:00:55.480,3.0,3.0,7
4437,4437,2021-01-22 13:01:25.480,3.0,3.0,7
4447,4447,2021-01-22 13:01:55.480,3.0,3.0,7
4457,4457,2021-01-22 13:02:25.480,3.0,3.0,7
4467,4467,2021-01-22 13:02:55.480,3.0,3.0,7
4477,4477,2021-01-22 13:03:25.480,3.0,3.0,7
4487,4487,2021-01-22 13:03:55.480,3.0,3.0,7
4497,4497,2021-01-22 13:04:25.480,3.0,3.0,7
4507,4507,2021-01-22 13:04:55.480,3.0,3.0,7
4517,4517,2021-01-22 13:05:25.480,3.0,3.0,7
4527,4527,2021-01-22 13:05:55.480,3.0,3.0,7
4537,4537,2021-01-22 13:06:25.480,3.0,3.0,7
4547,4547,2021-01-22 13:06:55.480,3.0,3.0,7
4557,4557,2021-01-22 13:07:25.480,3.0,3.0,7
4567,4567,2021-01-22 13:07:55.480,3.0,3.0,7
4577,4577,2021-01-22 13:08:25.480,3.0,3.0,7
4587,4587,2021-01-22 13:08:55.480,3.0,3.0,7
4597,4597,2021-01-22 13:09:25.480,3.0,3.0,7
4607,4607,2021-01-22 13:09:55.480,3.0,3.0,7
4617,4617,2021-01-22 13:10:25.480,3.0,3.0,7
4627,4627,2021-01-22 13:10:55.480,3.0,3.0,7
4637,4637,2021-01-22 13:11:25.480,3.0,3.0,7
4647,4647,2021-01-22 13:11:55.480,3.0,3.0,7
4657,4657,2021-01-22 13:12:25.480,3.0,3.0,7
4667,4667,2021-01-22 13:12:55.480,3.0,3.0,7
4677,4677,2021-01-22 13:13:25.480,3.0,3.0,7
4687,4687,2021-01-22 13:13:55.480,3.0,3.0,7
4697,4697,2021-01-22 13:14:25.480,3.0,3.0,7
4707,4707,2021-01-22 13:14:55.480,3.0,3.0,7
4717,4717,2021-01-22 13:15:25.480,3.0,3.0,7
4727,4727,2021-01-22 13:15:55.480,3.0,3.0,7
4737,4737,2021-01-22 13:16:25.480,3.0,3.0,7
4747,4747,2021-01-22 13:16:55.480,3.0,3.0,7
4757,4757,2021-01-22 13:17:25.480,3.0,3.0,7
4767,4767,2021-01-22 13:17:55.480,3.0,3.0,7
4777,4777,2021-01-22 13:18:25.480,3.0,3.0,7
4787,4787,2021-01-22 13:18:55.480,3.0,3.0,7
4797,4797,2021-01-22 13:19:25.480,3.0,3.0,7
4807,4807,2021-01-22 13:19:55.480,3.0,3.0,7
4817,4817,2021-01-22 13:20:25.480,3.0,3.0,7
4827,4827,2021-01-22 13:20:55.480,3.0,3.0,7
4837,4837,2021-01-22 13:21:25.480,3.0,3.0,7
4847,4847,2021-01-22 13:21:55.480,3.0,3.0,7
4857,4857,2021-01-22 13:22:25.480,3.0,3.0,7
4867,4867,2021-01-22 13:22:55.480,3.0,3.0,7
4877,4877,2021-01-22 13:23:25.480,3.0,3.0,7
4887,4887,2021-01-22 13:23:55.480,3.0,3.0,7
4897,4897,2021-01-22 13:24:25.480,3.0,3.0,7
4907,4907,2021-01-22 13:24:55.480,3.0,3.0,7
4917,4917,2021-01-22 13:25:25.480,3.0,3.0,7
4927,4927,2021-01-22 13:25:55.480,3.0,3.0,7
4937,4937,2021-01-22 13:26:25.480,3.0,3.0,7
4947,4947,2021-01-22 13:26:55.480,3.0,3.0,7
4957,4957,2021-01-22 13:27:25.480,3.0,3.0,7
4967,4967,2021-01-22 13:27:55.480,3.0,3.0,7
4977,4977,2021-01-22 13:28:25.480,3.0,3.0,7
4987,4987,2021-01-22 13:28:55.480,3.0,3.0,7
4997,4997,2021-01-22 13:29:25.480,3.0,3.0,7
5007,5007,2021-01-22 13:29:55.480,3.0,3.0,7
5017,5017,2021-01-22 13:30:25.480,3.0,3.0,7
5027,5027,2021-01-22 13:30:55.480,3.0,3.0,7
5037,5037,2021-01-22 13:31:25.480,3.0,3.0,7
5047,5047,2021-01-22 13:31:55.480,3.0,3.0,7
5057,5057,2021-01-22 13:32:25.480,3.0,3.0,7
5067,5067,2021-01-22 13:32:55.480,3.0,3.0,7
5077,5077,2021-01-22 13:33:25.480,3.0,3.0,7
5087,5087,2021-01-22 13:33:55.480,3.0,3.0,7
5097,5097,2021-01-22 13:34:25.480,3.0,3.0,7
5107,5107,2021-01-22 13:34:55.480,3.0,3.0,7
5117,5117,2021-01-22 13:35:25.480,3.0,3.0,7
5127,5127,2021-01-22 13:35:55.480,3.0,3.0,7
5137,5137,2021-01-22 13:36:25.480,3.0,3.0,7
5147,5147,2021-01-22 13:36:55.480,3.0,3.0,7
5157,5157,2021-01-22 13:37:25.480,3.0,3.0,7
5167,5167,2021-01-22 13:37:55.480,3.0,3.0,7
5177,5177,2021-01-22 13:38:25.480,3.0,3.0,7
5187,5187,2021-01-22 13:38:55.480,3.0,3.0,7
5197,5197,2021-01-22 13:39:25.480,3.0,3.0,7
5207,5207,2021-01-22 13:39:55.480,3.0,3.0,7
5217,5217,2021-01-22 13:40:25.480,3.0,3.0,7
5227,5227,2021-01-22 13:40:55.480,3.0,3.0,7
5237,5237,2021-01-22 13:41:25.480,3.0,3.0,7
5247,5247,2021-01-22 13:41:55.480,3.0,3.0,7
5257,5257,2021-01-22 13:42:25.480,3.0,3.0,7
5267,5267,2021-01-22 13:42:55.480,3.0,3.0,7
5277,5277,2021-01-22 13:43:25.480,3.0,3.0,7
5287,5287,2021-01-22 13:43:55.480,3.0,3.0,7
5297,5297,2021-01-22 13:44:25.480,3.0,3.0,7
5307,5307,2021-01-22 13:44:55.480,3.0,3.0,7
5317,5317,2021-01-22 13:45:25.480,3.0,3.0,7
5327,5327,2021-01-22 13:45:55.480,3.0,3.0,7
5337,5337,2021-01-22 13:46:25.480,3.0,3.0,7
5347,5347,2021-01-22 13:46:55.480,3.0,3.0,7
5357,5357,2021-01-22 13:47:25.480,3.0,3.0,7
5367,5367,2021-01-22 13:47:55.480,3.0,3.0,7
5377,5377,2021-01-22 13:48:25.480,3.0,3.0,7
5387,5387,2021-01-22 13:48:55.480,3.0,3.0,7
5397,5397,2021-01-22 13:49:25.480,3.0,3.0,7
5407,5407,2021-01-22 13:49:55.480,3.0,3.0,7
5417,5417,2021-01-22 13:50:25.480,3.0,3.0,7
5427,5427,2021-01-22 13:50:55.480,3.0,3.0,7
5437,5437,2021-01-22 13:51:25.480,3.0,3.0,7
5447,5447,2021-01-22 13:51:55.480,3.0,3.0,7
5457,5457,2021-01-22 13:52:25.480,3.0,3.0,7
5467,5467,2021-01-22 13:52:55.480,3.0,3.0,7
5477,5477,2021-01-22 13:53:25.480,3.0,3.0,7
5487,5487,2021-01-22 13:53:55.480,3.0,3.0,7
5497,5497,2021-01-22 13:54:25.480,3.0,3.0,7
5507,5507,2021-01-22 13:54:55.480,3.0,3.0,7
5517,5517,2021-01-22 13:55:25.480,3.0,3.0,7
5527,5527,2021-01-22 13:55:55.480,3.0,3.0,7
5537,5537,2021-01-22 13:56:25.480,3.0,3.0,7
5547,5547,2021-01-22 13:56:55.480,3.0,3.0,7
5557,5557,2021-01-22 13:57:25.480,3.0,3.0,7
5567,5567,2021-01-22 13:57:55.480,3.0,3.0,7
5577,5577,2021-01-22 13:58:25.480,3.0,3.0,7
5587,5587,2021-01-22 13:58:55.480,3.0,3.0,7
5597,5597,2021-01-22 13:59:25.480,3.0,3.0,7
5607,5607,2021-01-22 13:59:55.480,3.0,3.0,7
5617,5617,2021-01-22 14:00:25.480,3.0,3.0,7
5627,5627,2021-01-22 14:00:55.480,3.0,3.0,7
5637,5637,2021-01-22 14:01:25.480,3.0,3.0,7
5647,5647,2021-01-22 14:01:55.480,3.0,3.0,7
5657,5657,2021-01-22 14:02:25.480,3.0,3.0,7
5667,5667,2021-01-22 14:02:55.480,3.0,3.0,7
5677,5677,2021-01-22 14:03:25.480,3.0,3.0,7
5687,5687,2021-01-22 14:03:55.480,3.0,3.0,7
5697,5697,2021-01-22 14:04:25.480,3.0,3.0,7
5707,5707,2021-01-22 14:04:55.480,3.0,3.0,7
5717,5717,2021-01-22 14:05:25.480,3.0,3.0,7
5727,5727,2021-01-22 14:05:55.480,3.0,3.0,7
5737,5737,2021-01-22 14:06:25.480,3.0,3.0,7
5747,5747,2021-01-22 14:06:55.480,3.0,3.0,7
5757,5757,2021-01-22 14:07:25.480,3.0,3.0,7
5767,5767,2021-01-22 14:07:55.480,3.0,3.0,7
5777,5777,2021-01-22 14:08:25.480,3.0,3.0,7
5787,5787,2021-01-22 14:08:55.480,3.0,3.0,7
5797,5797,2021-01-22 14:09:25.480,3.0,3.0,7
5807,5807,2021-01-22 14:09:55.480,3.0,3.0,7
5817,5817,2021-01-22 14:10:25.480,3.0,3.0,7
5827,5827,2021-01-22 14:10:55.480,3.0,3.0,7
5837,5837,2021-01-22 14:11:25.480,3.0,3.0,7
5847,5847,2021-01-22 14:11:55.480,3.0,3.0,7
5857,5857,2021-01-22 14:12:25.480,3.0,3.0,7
5867,5867,2021-01-22 14:12:55.480,3.0,3.0,7
5877,5877,2021-01-22 14:13:25.480,3.0,3.0,7
5887,5887,2021-01-22 14:13:55.480,3.0,3.0,7
5897,5897,2021-01-22 14:14:25.480,3.0,3.0,7
5907,5907,2021-01-22 14:14:55.480,3.0,3.0,7
5917,5917,2021-01-22 14:15:25.480,3.0,3.0,7
5927,5927,2021-01-22 14:15:55.480,3.0,3.0,7
5937,5937,2021-01-22 14:16:25.480,3.0,3.0,7
5947,5947,2021-01-22 14:16:55.480,3.0,3.0,7
5957,5957,2021-01-22 14:17:25.480,3.0,3.0,7
5967,5967,2021-01-22 14:17:55.480,3.0,3.0,7
5977,5977,2021-01-22 14:18:25.480,3.0,3.0,7
5987,5987,2021-01-22 14:18:55.480,3.0,3.0,7
5997,5997,2021-01-22 14:19:25.480,3.0,3.0,7
6007,6007,2021-01-22 14:19:55.480,3.0,3.0,7
6017,6017,2021-01-22 14:20:25.480,3.0,3.0,7
6027,6027,2021-01-22 14:20:55.480,3.0,3.0,7
6037,6037,2021-01-22 14:21:25.480,3.0,3.0,7
6047,6047,2021-01-22 14:21:55.480,3.0,3.0,7
6057,6057,2021-01-22 14:22:25.480,3.0,3.0,7
6067,6067,2021-01-22 14:22:55.480,3.0,3.0,7
6077,6077,2021-01-22 14:23:25.480,3.0,3.0,7
6087,6087,2021-01-22 14:23:55.480,3.0,3.0,7
6097,6097,2021-01-22 14:24:25.480,3.0,3.0,7
6107,6107,2021-01-22 14:24:55.480,3.0,3.0,7
6117,6117,2021-01-22 14:25:25.480,3.0,3.0,7
6127,6127,2021-01-22 14:25:55.480,3.0,3.0,7
6137,6137,2021-01-22 14:26:25.480,3.0,3.0,7
6147,6147,2021-01-22 14:26:55.480,3.0,3.0,7
6157,6157,2021-01-22 14:27:25.480,3.0,3.0,7
6167,6167,2021-01-22 14:27:55.480,3.0,3.0,7
6177,6177,2021-01-22 14:28:25.480,3.0,3.0,7
6187,6187,2021-01-22 14:28:55.480,3.0,3.0,7
6197,6197,2021-01-22 14:29:25.480,3.0,3.0,7
6207,6207,2021-01-22 14:29:55.480,3.0,3.0,7
6217,6217,2021-01-22 14:30:25.480,3.0,3.0,7
6227,6227,2021-01-22 14:30:55.480,3.0,3.0,7
6237,6237,2021-01-22 14:31:25.480,3.0,3.0,7
6247,6247,2021-01-22 14:31:55.480,3.0,3.0,7
6257,6257,2021-01-22 14:32:25.480,3.0,3.0,7
6267,6267,2021-01-22 14:32:55.480,3.0,3.0,7
6277,6277,2021-01-22 14:33:25.480,3.0,3.0,7
6287,6287,2021-01-22 14:33:55.480,3.0,3.0,7
6297,6297,2021-01-22 14:34:25.480,3.0,3.0,7
6307,6307,2021-01-22 14:34:55.480,3.0,3.0,7
6317,6317,2021-01-22 14:35:25.480,3.0,3.0,7
6327,6327,2021-01-22 14:35:55.480,3.0,3.0,7
6337,6337,2021-01-22 14:36:25.480,3.0,3.0,7
6347,6347,2021-01-22 14:36:55.480,3.0,3.0,7
6357,6357,2021-01-22 14:37:25.480,3.0,3.0,7
6367,6367,2021-01-22 14:37:55.480,3.0,3.0,7
6377,6377,2021-01-22 14:38:25.480,3.0,3.0,7
6387,6387,2021-01-22 14:38:55.480,3.0,3.0,7
6397,6397,2021-01-22 14:39:25.480,3.0,3.0,7
6407,6407,2021-01-22 14:39:55.480,3.0,3.0,7
6417,6417,2021-01-22 14:40:25.480,3.0,3.0,7
6427,6427,2021-01-22 14:40:55.480,3.0,3.0,7
6437,6437,2021-01-22 14:41:25.480,3.0,3.0,7
6447,6447,2021-01-22 14:41:55.480,3.0,3.0,7
6457,6457,2021-01-22 14:42:25.480,3.0,3.0,7
6467,6467,2021-01-22 14:42:55.480,3.0,3.0,7
6477,6477,2021-01-22 14:43:25.480,3.0,3.0,7
6487,6487,2021-01-22 14:43:55.480,3.0,3.0,7
6497,6497,2021-01-22 14:44:25.480,3.0,3.0,7
6507,6507,2021-01-22 14:44:55.480,3.0,3.0,7
6517,6517,2021-01-22 14:45:25.480,3.0,3.0,7
6527,6527,2021-01-22 14:45:55.480,3.0,3.0,7
6537,6537,2021-01-22 14:46:25.480,3.0,3.0,7
6547,6547,2021-01-22 14:46:55.480,3.0,3.0,7
6557,6557,2021-01-22 14:47:25.480,3.0,3.0,7
6567,6567,2021-01-22 14:47:55.480,3.0,3.0,7
6577,6577,2021-01-22 14:48:25.480,3.0,3.0,7
6587,6587,2021-01-22 14:48:55.480,3.0,3.0,7
6597,6597,2021-01-22 14:49:25.480,3.0,3.0,7
6607,6607,2021-01-22 14:49:55.480,3.0,3.0,7
6617,6617,2021-01-22 14:50:25.480,3.0,3.0,7
6627,6627,2021-01-22 14:50:55.480,3.0,3.0,7
6637,6637,2021-01-22 14:51:25.480,3.0,3.0,7
6647,6647,2021-01-22 14:51:55.480,3.0,3.0,7
6657,6657,2021-01-22 14:52:25.480,3.0,3.0,7
6667,6667,2021-01-22 14:52:55.480,3.0,3.0,7
6677,6677,2021-01-22 14:53:25.480,3.0,3.0,7
6687,6687,2021-01-22 14:53:55.480,3.0,3.0,7
6697,6697,2021-01-22 14:54:25.480,3.0,3.0,7
6707,6707,2021-01-22 14:54:55.480,3.0,3.0,7
6717,6717,2021-01-22 14:55:25.480,3.0,3.0,7
6727,6727,2021-01-22 14:55:55.480,3.0,3.0,7
6737,6737,2021-01-22 14:56:25.480,3.0,3.0,7
6747,6747,2021-01-22 14:56:55.480,3.0,3.0,7
6757,6757,2021-01-22 14:57:25.480,3.0,3.0,7
6767,6767,2021-01-22 14:57:55.480,3.0,3.0,7
6777,6777,2021-01-22 14:58:25.480,3.0,3.0,7
6787,6787,2021-01-22 14:58:55.480,3.0,3.0,7
6797,6797,2021-01-22 14:59:25.480,3.0,3.0,7
6807,6807,2021-01-22 14:59:55.480,3.0,3.0,7
6817,6817,2021-01-22 15:00:25.480,3.0,3.0,7
6827,6827,2021-01-22 15:00:55.480,3.0,3.0,7
6837,6837,2021-01-22 15:01:25.480,3.0,3.0,7
6847,6847,2021-01-22 15:01:55.480,3.0,3.0,7
6857,6857,2021-01-22 15:02:25.480,3.0,3.0,7
6867,6867,2021-01-22 15:02:55.480,3.0,3.0,7
6877,6877,2021-01-22 15:03:25.480,3.0,3.0,7
6887,6887,2021-01-22 15:03:55.480,3.0,3.0,7
6897,6897,2021-01-22 15:04:25.480,3.0,3.0,7
6907,6907,2021-01-22 15:04:55.480,3.0,3.0,7
6917,6917,2021-01-22 15:05:25.480,3.0,3.0,7
6927,6927,2021-01-22 15:05:55.480,3.0,3.0,7
6937,6937,2021-01-22 15:06:25.480,3.0,3.0,7
6947,6947,2021-01-22 15:06:55.480,3.0,3.0,7
6957,6957,2021-01-22 15:07:25.480,3.0,3.0,7
6967,6967,2021-01-22 15:07:55.480,3.0,3.0,7
6977,6977,2021-01-22 15:08:25.480,3.0,3.0,7
6987,6987,2021-01-22 15:08:55.480,3.0,3.0,7
6997,6997,2021-01-22 15:09:25.480,3.0,3.0,7
7007,7007,2021-01-22 15:09:55.480,3.0,3.0,7
7017,7017,2021-01-22 15:10:25.480,3.0,3.0,7
7027,7027,2021-01-22 15:10:55.480,3.0,3.0,7
7037,7037,2021-01-22 15:11:25.480,3.0,3.0,7
7047,7047,2021-01-22 15:11:55.480,3.0,3.0,7
7057,7057,2021-01-22 15:12:25.480,3.0,3.0,7
7067,7067,2021-01-22 15:12:55.480,3.0,3.0,7
7077,7077,2021-01-22 15:13:25.480,3.0,3.0,7
7087,7087,2021-01-22 15:13:55.480,3.0,3.0,7
7097,7097,2021-01-22 15:14:25.480,3.0,3.0,7
7107,7107,2021-01-22 15:14:55.480,3.0,3.0,7
7117,7117,2021-01-22 15:15:25.480,3.0,3.0,7
7127,7127,2021-01-22 15:15:55.480,3.0,3.0,7
7137,7137,2021-01-22 15:16:25.480,3.0,3.0,7
7147,7147,2021-01-22 15:16:55.480,3.0,3.0,7
7157,7157,2021-01-22 15:17:25.480,3.0,3.0,7
7167,7167,2021-01-22 15:17:55.480,3.0,3.0,7
7177,7177,2021-01-22 15:18:25.480,3.0,3.0,7
7187,7187,2021-01-22 15:18:55.480,3.0,3.0,7
7197,7197,2021-01-22 15:19:25.480,3.0,3.0,7
7207,7207,2021-01-22 15:19:55.480,3.0,3.0,7
7217,7217,2021-01-22 15:20:25.480,3.0,3.0,7
7227,7227,2021-01-22 15:20:55.480,3.0,3.0,7
7237,7237,2021-01-22 15:21:25.480,3.0,3.0,7
7247,7247,2021-01-22 15:21:55.480,3.0,3.0,7
7257,7257,2021-01-22 15:22:25.480,3.0,3.0,7
7267,7267,2021-01-22 15:22:55.480,3.0,3.0,7
7277,7277,2021-01-22 15:23:25.480,3.0,3.0,7
7287,7287,2021-01-22 15:23:55.480,3.0,3.0,7
7297,7297,2021-01-22 15:24:25.480,3.0,3.0,7
7307,7307,2021-01-22 15:24:55.480,3.0,3.0,7
7317,7317,2021-01-22 15:25:25.480,3.0,3.0,7
7327,7327,2021-01-22 15:25:55.480,3.0,3.0,7
7337,7337,2021-01-22 15:26:25.480,3.0,3.0,7
7347,7347,2021-01-22 15:26:55.480,3.0,3.0,7
7357,7357,2021-01-22 15:27:25.480,3.0,3.0,7
7367,7367,2021-01-22 15:27:55.480,3.0,3.0,7
7377,7377,2021-01-22 15:28:25.480,3.0,3.0,7
7387,7387,2021-01-22 15:28:55.480,3.0,3.0,7
7397,7397,2021-01-22 15:29:25.480,3.0,3.0,7
7407,7407,2021-01-22 15:29:55.480,3.0,3.0,7
7417,7417,2021-01-22 15:30:25.480,3.0,3.0,7
7427,7427,2021-01-22 15:30:55.480,3.0,3.0,7
7437,7437,2021-01-22 15:31:25.480,3.0,3.0,7
7447,7447,2021-01-22 15:31:55.480,3.0,3.0,7
7457,7457,2021-01-22 15:32:25.480,3.0,3.0,7
7467,7467,2021-01-22 15:32:55.480,3.0,3.0,7
7477,7477,2021-01-22 15:33:25.480,3.0,3.0,7
7487,7487,2021-01-22 15:33:55.480,3.0,3.0,7
7497,7497,2021-01-22 15:34:25.480,3.0,3.0,7
7507,7507,2021-01-22 15:34:55.480,3.0,3.0,7
7517,7517,2021-01-22 15:35:25.480,3.0,3.0,7
7527,7527,2021-01-22 15:35:55.480,3.0,3.0,7
7537,7537,2021-01-22 15:36:25.480,3.0,3.0,7
7547,7547,2021-01-22 15:36:55.480,3.0,3.0,7
7557,7557,2021-01-22 15:37:25.480,3.0,3.0,7
7567,7567,2021-01-22 15:37:55.480,3.0,3.0,7
7577,7577,2021-01-22 15:38:25.480,3.0,3.0,7
7587,7587,2021-01-22 15:38:55.480,3.0,3.0,7
7597,7597,2021-01-22 15:39:25.480,3.0,3.0,7
7607,7607,2021-01-22 15:39:55.480,3.0,3.0,7
7617,7617,2021-01-22 15:40:25.480,3.0,3.0,7
7627,7627,2021-01-22 15:40:55.480,3.0,3.0,7
7637,7637,2021-01-22 15:41:25.480,3.0,3.0,7
7647,7647,2021-01-22 15:41:55.480,3.0,3.0,7
7657,7657,2021-01-22 15:42:25.480,3.0,3.0,7
7667,7667,2021-01-22 15:42:55.480,3.0,3.0,7
7677,7677,2021-01-22 15:43:25.480,3.0,3.0,7
7687,7687,2021-01-22 15:43:55.480,3.0,3.0,7
7697,7697,2021-01-22 15:44:25.480,3.0,3.0,7
7707,7707,2021-01-22 15:44:55.480,3.0,3.0,7
7717,7717,2021-01-22 15:45:25.480,3.0,3.0,7
7727,7727,2021-01-22 15:45:55.480,3.0,3.0,7
7737,7737,2021-01-22 15:46:25.480,3.0,3.0,7
7747,7747,2021-01-22 15:46:55.480,3.0,3.0,7
7757,7757,2021-01-22 15:47:25.480,3.0,3.0,7
7767,7767,2021-01-22 15:47:55.480,3.0,3.0,7
7777,7777,2021-01-22 15:48:25.480,3.0,3.0,7
7787,7787,2021-01-22 15:48:55.480,3.0,3.0,7
7797,7797,2021-01-22 15:49:25.480,3.0,3.0,7
7807,7807,2021-01-22 15:49:55.480,3.0,3.0,7
7817,7817,2021-01-22 15:50:25.480,3.0,3.0,7
7827,7827,2021-01-22 15:50:55.480,3.0,3.0,7
7837,7837,2021-01-22 15:51:25.480,3.0,3.0,7
7847,7847,2021-01-22 15:51:55.480,3.0,3.0,7
7857,7857,2021-01-22 15:52:25.480,3.0,3.0,7
7867,7867,2021-01-22 15:52:55.480,3.0,3.0,7
7877,7877,2021-01-22 15:53:25.480,3.0,3.0,7
7887,7887,2021-01-22 15:53:55.480,3.0,3.0,7
7897,7897,2021-01-22 15:54:25.480,3.0,3.0,7
7907,7907,2021-01-22 15:54:55.480,3.0,3.0,7
7917,7917,2021-01-22 15:55:25.480,3.0,3.0,7
7927,7927,2021-01-22 15:55:55.480,3.0,3.0,7
7937,7937,2021-01-22 15:56:25.480,3.0,3.0,7
7947,7947,2021-01-22 15:56:55.480,3.0,3.0,7
7957,7957,2021-01-22 15:57:25.480,3.0,3.0,7
7967,7967,2021-01-22 15:57:55.480,3.0,3.0,7
7977,7977,2021-01-22 15:58:25.480,3.0,3.0,7
7987,7987,2021-01-22 15:58:55.480,3.0,3.0,7
7997,7997,2021-01-22 15:59:25.480,3.0,3.0,7
8007,8007,2021-01-22 15:59:55.480,3.0,3.0,7
8017,8017,2021-01-22 16:00:25.480,3.0,3.0,7
8027,8027,2021-01-22 16:00:55.480,3.0,3.0,7
8037,8037,2021-01-22 16:01:25.480,3.0,3.0,7
8047,8047,2021-01-22 16:01:55.480,3.0,3.0,7
8057,8057,2021-01-22 16:02:25.480,3.0,3.0,7
8067,8067,2021-01-22 16:02:55.480,3.0,3.0,7
8077,8077,2021-01-22 16:03:25.480,3.0,3.0,7
8087,8087,2021-01-22 16:03:55.480,3.0,3.0,7
8097,8097,2021-01-22 16:04:25.480,3.0,3.0,7
