,Unnamed: 0,time,prediction,real,step
3798,3798,2021-01-22 12:31:47.327,7064.451999999999,6556.125,8
3808,3808,2021-01-22 12:32:17.327,6967.0493,6586.125,8
3818,3818,2021-01-22 12:32:47.327,6659.2427,6595.375,8
3828,3828,2021-01-22 12:33:17.327,6755.8604,6722.0,8
3838,3838,2021-01-22 12:33:47.327,6574.797,6756.5,8
3848,3848,2021-01-22 12:34:17.327,6547.1304,6791.0,8
3858,3858,2021-01-22 12:34:47.327,6553.522,6791.0,8
3868,3868,2021-01-22 12:35:17.327,6566.3859999999995,6810.5,8
3878,3878,2021-01-22 12:35:47.327,6676.8984,6830.0,8
3888,3888,2021-01-22 12:36:17.327,6687.5103,6849.5,8
3898,3898,2021-01-22 12:36:47.327,6709.0474,6869.0,8
3908,3908,2021-01-22 12:37:17.327,6708.5483,6994.625,8
3918,3918,2021-01-22 12:37:47.327,6822.24,7014.0,8
3928,3928,2021-01-22 12:38:17.327,6844.4526,7033.375,8
3938,3938,2021-01-22 12:38:47.327,6875.736,7052.75,8
3948,3948,2021-01-22 12:39:17.327,6882.795999999999,7177.75,8
3958,3958,2021-01-22 12:39:47.327,6899.7017,7197.0,8
3968,3968,2021-01-22 12:40:17.327,6913.8457,7216.25,8
3978,3978,2021-01-22 12:40:47.327,6932.0176,7109.0,8
3988,3988,2021-01-22 12:41:17.327,6950.2437,7139.0,8
3998,3998,2021-01-22 12:41:47.327,7099.32,7032.5,8
4008,4008,2021-01-22 12:42:17.327,7131.6455,7062.5,8
4018,4018,2021-01-22 12:42:47.327,7117.1987,7092.5,8
4028,4028,2021-01-22 12:43:17.327,7140.119000000001,7091.0,8
4038,4038,2021-01-22 12:43:47.327,7304.936,7121.0,8
4048,4048,2021-01-22 12:44:17.327,7286.975,7151.0,8
4058,4058,2021-01-22 12:44:47.327,7315.0874,7160.0,8
4068,4068,2021-01-22 12:45:17.327,7232.039000000001,7179.5,8
4078,4078,2021-01-22 12:45:47.327,7281.5415,7209.5,8
4088,4088,2021-01-22 12:46:17.327,7160.272,7218.5,8
4098,4098,2021-01-22 12:46:47.327,7189.59,7253.0,8
4108,4108,2021-01-22 12:47:17.327,7218.3457,7277.0,8
4118,4118,2021-01-22 12:47:47.327,7208.3213,7277.0,8
4128,4128,2021-01-22 12:48:17.327,7234.7227,7399.625,8
4138,4138,2021-01-22 12:48:47.327,7262.2944,7429.625,8
4148,4148,2021-01-22 12:49:17.327,7265.0796,7438.375,8
4158,4158,2021-01-22 12:49:47.327,7279.3823,7457.75,8
4168,4168,2021-01-22 12:50:17.327,7306.6359999999995,7487.75,8
4178,4178,2021-01-22 12:50:47.327,7310.5605,7507.125,8
4188,4188,2021-01-22 12:51:17.327,7344.0723,7526.5,8
4198,4198,2021-01-22 12:51:47.327,7362.7847,7545.875,8
4208,4208,2021-01-22 12:52:17.327,7353.4575,7565.25,8
4218,4218,2021-01-22 12:52:47.327,7460.4517,7584.625,8
4228,4228,2021-01-22 12:53:17.327,7497.8604,7695.25,8
4238,4238,2021-01-22 12:53:47.327,7499.584,7725.25,8
4248,4248,2021-01-22 12:54:17.327,7520.536,7744.5,8
4258,4258,2021-01-22 12:54:47.327,7553.504,7518.5,8
4268,4268,2021-01-22 12:55:17.327,7574.9824,7548.5,8
4278,4278,2021-01-22 12:55:47.327,7595.2246,7456.625,8
4288,4288,2021-01-22 12:56:17.327,7614.839,7577.0,8
4298,4298,2021-01-22 12:56:47.327,7634.911,7607.0,8
4308,4308,2021-01-22 12:57:17.327,7657.8555,7515.5,8
4318,4318,2021-01-22 12:57:47.327,7774.1333,7535.125,8
4328,4328,2021-01-22 12:58:17.327,7824.8306,7565.125,8
4338,4338,2021-01-22 12:58:47.327,7843.646,7574.375,8
4348,4348,2021-01-22 12:59:17.327,7611.012,7604.375,8
4358,4358,2021-01-22 12:59:47.327,7653.6855,7624.0,8
4368,4368,2021-01-22 13:00:17.327,7542.2085,7743.5,8
4378,4378,2021-01-22 13:00:47.327,7677.909000000001,7763.0,8
4388,4388,2021-01-22 13:01:17.327,7709.765,7782.5,8
4398,4398,2021-01-22 13:01:47.327,7590.735,7802.0,8
4408,4408,2021-01-22 13:02:17.327,7633.135,7821.5,8
4418,4418,2021-01-22 13:02:47.327,7655.2919999999995,7841.0,8
4428,4428,2021-01-22 13:03:17.327,7656.956999999999,7860.5,8
4438,4438,2021-01-22 13:03:47.327,7682.649,7880.0,8
4448,4448,2021-01-22 13:04:17.327,7698.6323,7910.0,8
4458,4458,2021-01-22 13:04:47.327,7821.95,8032.75,8
4468,4468,2021-01-22 13:05:17.327,7834.6885,8067.125,8
4478,4478,2021-01-22 13:05:47.327,7852.6284,8090.875,8
4488,4488,2021-01-22 13:06:17.327,7870.2715,8090.875,8
4498,4498,2021-01-22 13:06:47.327,7887.5107,8125.25,8
4508,4508,2021-01-22 13:07:17.327,7909.433000000001,8125.25,8
4518,4518,2021-01-22 13:07:47.327,7928.6787,8144.625,8
4528,4528,2021-01-22 13:08:17.327,7947.554,8164.0,8
4538,4538,2021-01-22 13:08:47.327,7982.545999999999,8183.375,8
4548,4548,2021-01-22 13:09:17.327,8050.988,8063.0,8
4558,4558,2021-01-22 13:09:47.327,8105.1987,7975.0,8
4568,4568,2021-01-22 13:10:17.327,8157.8916,7994.625,8
4578,4578,2021-01-22 13:10:47.327,8202.207,8024.625,8
4588,4588,2021-01-22 13:11:17.327,8232.075,8033.875,8
4598,4598,2021-01-22 13:11:47.327,8228.833,8063.875,8
4608,4608,2021-01-22 13:12:17.327,8258.649,8083.5,8
4618,4618,2021-01-22 13:12:47.327,8290.739,8092.75,8
4628,4628,2021-01-22 13:13:17.327,8322.905999999999,8122.75,8
4638,4638,2021-01-22 13:13:47.327,8203.568000000001,8142.375,8
4648,4648,2021-01-22 13:14:17.327,8095.6724,8247.5,8
4658,4658,2021-01-22 13:14:47.327,8131.7119999999995,8277.5,8
4668,4668,2021-01-22 13:15:17.327,8152.6177,8297.0,8
4678,4678,2021-01-22 13:15:47.327,8155.293000000001,8306.0,8
4688,4688,2021-01-22 13:16:17.327,8184.5380000000005,8336.0,8
4698,4698,2021-01-22 13:16:47.327,8198.984,8355.5,8
4708,4708,2021-01-22 13:17:17.327,8202.043,8375.0,8
4718,4718,2021-01-22 13:17:47.327,8230.121,8394.5,8
4728,4728,2021-01-22 13:18:17.327,8248.572,8423.75,8
4738,4738,2021-01-22 13:18:47.327,8347.36,8453.0,8
4748,4748,2021-01-22 13:19:17.327,8357.278,8453.0,8
4758,4758,2021-01-22 13:19:47.327,8377.741,8472.5,8
4768,4768,2021-01-22 13:20:17.327,8392.761,8492.0,8
4778,4778,2021-01-22 13:20:47.327,8416.473,8511.5,8
4788,4788,2021-01-22 13:21:17.327,8435.392,8531.0,8
4798,4798,2021-01-22 13:21:47.327,8453.763,8550.5,8
4808,4808,2021-01-22 13:22:17.327,8472.732,8580.5,8
4818,4818,2021-01-22 13:22:47.327,8504.04,8360.75,8
4828,4828,2021-01-22 13:23:17.327,8540.439,8360.0,8
4838,4838,2021-01-22 13:23:47.327,8533.844000000001,8390.0,8
4848,4848,2021-01-22 13:24:17.327,8557.105,8420.0,8
4858,4858,2021-01-22 13:24:47.327,8583.082,8419.25,8
4868,4868,2021-01-22 13:25:17.327,8610.255,8449.25,8
4878,4878,2021-01-22 13:25:47.327,8637.349,8479.25,8
4888,4888,2021-01-22 13:26:17.327,8665.041,8498.625,8
4898,4898,2021-01-22 13:26:47.327,8698.187,8538.5,8
4908,4908,2021-01-22 13:27:17.327,8452.021,8538.5,8
4918,4918,2021-01-22 13:27:47.327,8486.895,8528.25,8
4928,4928,2021-01-22 13:28:17.327,8516.711,8567.75,8
4938,4938,2021-01-22 13:28:47.327,8538.501,8679.25,8
4948,4948,2021-01-22 13:29:17.327,8521.456,8709.25,8
4958,4958,2021-01-22 13:29:47.327,8553.36,8718.5,8
4968,4968,2021-01-22 13:30:17.327,8583.353000000001,8738.125,8
4978,4978,2021-01-22 13:30:47.327,8604.459,8768.125,8
4988,4988,2021-01-22 13:31:17.327,8662.743,8777.375,8
4998,4998,2021-01-22 13:31:47.327,8657.961,8797.0,8
5008,5008,2021-01-22 13:32:17.327,8636.443000000001,8827.0,8
5018,5018,2021-01-22 13:32:47.327,8665.347,8846.625,8
5028,5028,2021-01-22 13:33:17.327,8706.610999999999,8855.875,8
5038,5038,2021-01-22 13:33:47.327,8733.143,8885.875,8
5048,5048,2021-01-22 13:34:17.327,8759.838,8905.5,8
5058,5058,2021-01-22 13:34:47.327,8787.578000000001,8673.5,8
5068,5068,2021-01-22 13:35:17.327,8817.501,8703.5,8
5078,5078,2021-01-22 13:35:47.327,8847.110999999999,8713.25,8
5088,5088,2021-01-22 13:36:17.327,8877.396999999999,8733.125,8
5098,5098,2021-01-22 13:36:47.327,8910.633,8763.125,8
5108,5108,2021-01-22 13:37:17.327,8937.206,8783.0,8
5118,5118,2021-01-22 13:37:47.327,8945.871,8792.75,8
5128,5128,2021-01-22 13:38:17.327,8978.841,8822.75,8
5138,5138,2021-01-22 13:38:47.327,9007.79,8852.75,8
5148,5148,2021-01-22 13:39:17.327,8767.485999999999,8852.375,8
5158,5158,2021-01-22 13:39:47.327,8832.533000000001,8882.375,8
5168,5168,2021-01-22 13:40:17.327,8830.461,8912.375,8
5178,5178,2021-01-22 13:40:47.327,8845.255,8912.0,8
5188,5188,2021-01-22 13:41:17.327,8880.2,8942.0,8
5198,5198,2021-01-22 13:41:47.327,8902.3,8972.0,8
5208,5208,2021-01-22 13:42:17.327,8907.209,8971.625,8
5218,5218,2021-01-22 13:42:47.327,8944.232,9001.625,8
5228,5228,2021-01-22 13:43:17.327,8986.86,9031.625,8
5238,5238,2021-01-22 13:43:47.327,8980.622,9031.25,8
5248,5248,2021-01-22 13:44:17.327,9015.439,9061.25,8
5258,5258,2021-01-22 13:44:47.327,9030.457,9091.25,8
5268,5268,2021-01-22 13:45:17.327,9029.054,9188.0,8
5278,5278,2021-01-22 13:45:47.327,9039.583,9207.75,8
5288,5288,2021-01-22 13:46:17.327,9052.274,9237.75,8
5298,5298,2021-01-22 13:46:47.327,9053.259,9257.5,8
5308,5308,2021-01-22 13:47:17.327,9062.045,8938.375,8
5318,5318,2021-01-22 13:47:47.327,9087.898000000001,8873.0,8
5328,5328,2021-01-22 13:48:17.327,9092.85,8893.25,8
5338,5338,2021-01-22 13:48:47.327,9128.171999999999,8998.75,8
5348,5348,2021-01-22 13:49:17.327,9157.742,9018.875,8
5358,5358,2021-01-22 13:49:47.327,9204.985999999999,9039.0,8
5368,5368,2021-01-22 13:50:17.327,9251.511999999999,9059.125,8
5378,5378,2021-01-22 13:50:47.327,9298.938,9089.125,8
5388,5388,2021-01-22 13:51:17.327,9344.61,9099.375,8
5398,5398,2021-01-22 13:51:47.327,9070.440999999999,9119.5,8
5408,5408,2021-01-22 13:52:17.327,8961.233,9154.625,8
5418,5418,2021-01-22 13:52:47.327,9082.855,9189.75,8
5428,5428,2021-01-22 13:53:17.327,9202.405,9189.75,8
5438,5438,2021-01-22 13:53:47.327,9232.041,9210.0625,8
5448,5448,2021-01-22 13:54:17.327,9239.599,9250.125,8
5458,5458,2021-01-22 13:54:47.327,9239.458,9250.125,8
5468,5468,2021-01-22 13:55:17.327,9261.604,9260.375,8
5478,5478,2021-01-22 13:55:47.327,9259.581,9290.375,8
5488,5488,2021-01-22 13:56:17.327,9275.589,9310.5,8
5498,5498,2021-01-22 13:56:47.327,9301.555,9335.75,8
5508,5508,2021-01-22 13:57:17.327,9314.89,9464.0,8
5518,5518,2021-01-22 13:57:47.327,9317.777,9464.0,8
5528,5528,2021-01-22 13:58:17.327,9329.222,9494.0,8
5538,5538,2021-01-22 13:58:47.327,9346.768,9494.0,8
5548,5548,2021-01-22 13:59:17.327,9354.794,9188.75,8
5558,5558,2021-01-22 13:59:47.327,9368.276,9209.125,8
5568,5568,2021-01-22 14:00:17.327,9386.612,9219.875,8
5578,5578,2021-01-22 14:00:47.327,9404.517,9249.875,8
5588,5588,2021-01-22 14:01:17.327,9426.914,9270.25,8
5598,5598,2021-01-22 14:01:47.327,9504.528,9281.0,8
5608,5608,2021-01-22 14:02:17.327,9546.202,9311.0,8
5618,5618,2021-01-22 14:02:47.327,9589.832,9331.375,8
5628,5628,2021-01-22 14:03:17.327,9595.724,9342.125,8
5638,5638,2021-01-22 14:03:47.327,9319.99,9372.125,8
5648,5648,2021-01-22 14:04:17.327,9317.164,9392.5,8
5658,5658,2021-01-22 14:04:47.327,9392.773000000001,9422.5,8
5668,5668,2021-01-22 14:05:17.327,9427.417,9433.25,8
5678,5678,2021-01-22 14:05:47.327,9435.414,9453.625,8
5688,5688,2021-01-22 14:06:17.327,9415.26,9483.625,8
5698,5698,2021-01-22 14:06:47.327,9452.032,9574.25,8
5708,5708,2021-01-22 14:07:17.327,9477.896,9594.5,8
5718,5718,2021-01-22 14:07:47.327,9484.651,9624.5,8
5728,5728,2021-01-22 14:08:17.327,9523.403,9635.0,8
5738,5738,2021-01-22 14:08:47.327,9540.868,9670.25,8
5748,5748,2021-01-22 14:09:17.327,9557.58,9705.5,8
5758,5758,2021-01-22 14:09:47.327,9560.744,9705.5,8
5768,5768,2021-01-22 14:10:17.327,9569.128,9472.5,8
5778,5778,2021-01-22 14:10:47.327,9580.698,9502.5,8
5788,5788,2021-01-22 14:11:17.327,9631.961,9523.0,8
5798,5798,2021-01-22 14:11:47.327,9659.626,9534.0,8
5808,5808,2021-01-22 14:12:17.327,9692.212,9554.5,8
5818,5818,2021-01-22 14:12:47.327,9721.264000000001,9584.5,8
5828,5828,2021-01-22 14:13:17.327,9755.5,9595.5,8
5838,5838,2021-01-22 14:13:47.327,9794.9,9616.0,8
5848,5848,2021-01-22 14:14:17.327,9802.956,9646.0,8
5858,5858,2021-01-22 14:14:47.327,9569.84,9666.5,8
5868,5868,2021-01-22 14:15:17.327,9641.198,9692.5,8
5878,5878,2021-01-22 14:15:47.327,9657.719000000001,9737.5,8
5888,5888,2021-01-22 14:16:17.327,9650.7295,9737.5,8
5898,5898,2021-01-22 14:16:47.327,9675.291,9815.25,8
5908,5908,2021-01-22 14:17:17.327,9717.917,9845.25,8
5918,5918,2021-01-22 14:17:47.327,9729.955,9875.25,8
5928,5928,2021-01-22 14:18:17.327,9759.93,9876.375,8
5938,5938,2021-01-22 14:18:47.327,9799.133,9906.375,8
5948,5948,2021-01-22 14:19:17.327,9816.888,9936.375,8
5958,5958,2021-01-22 14:19:47.327,9833.136999999999,9937.5,8
5968,5968,2021-01-22 14:20:17.327,9853.546999999999,9967.5,8
5978,5978,2021-01-22 14:20:47.327,9858.576,9997.5,8
5988,5988,2021-01-22 14:21:17.327,9900.47,9754.625,8
5998,5998,2021-01-22 14:21:47.327,9936.645,9784.625,8
6008,6008,2021-01-22 14:22:17.327,9963.606,9805.25,8
6018,6018,2021-01-22 14:22:47.327,9967.931999999999,9825.875,8
6028,6028,2021-01-22 14:23:17.327,10001.768,9846.5,8
6038,6038,2021-01-22 14:23:47.327,10033.498,9867.125,8
6048,6048,2021-01-22 14:24:17.327,10032.617,9887.75,8
6058,6058,2021-01-22 14:24:47.327,10060.942,9899.0,8
6068,6068,2021-01-22 14:25:17.327,10093.593,9929.0,8
6078,6078,2021-01-22 14:25:47.327,9856.046999999999,9959.0,8
6088,6088,2021-01-22 14:26:17.327,9920.101999999999,9960.875,8
6098,6098,2021-01-22 14:26:47.327,9937.109,9990.875,8
6108,6108,2021-01-22 14:27:17.327,9949.190999999999,10020.875,8
6118,6118,2021-01-22 14:27:47.327,9968.492,10104.5,8
6128,6128,2021-01-22 14:28:17.327,9993.319,10125.0,8
6138,6138,2021-01-22 14:28:47.327,10021.457,10155.0,8
6148,6148,2021-01-22 14:29:17.327,10034.513,10166.0,8
6158,6158,2021-01-22 14:29:47.327,10078.028,10186.5,8
6168,6168,2021-01-22 14:30:17.327,10109.461,10216.5,8
6178,6178,2021-01-22 14:30:47.327,10108.979,10227.5,8
6188,6188,2021-01-22 14:31:17.327,10124.976999999999,9933.125,8
6198,6198,2021-01-22 14:31:47.327,10135.063,9963.125,8
6208,6208,2021-01-22 14:32:17.327,10188.593,9965.75,8
6218,6218,2021-01-22 14:32:47.327,10207.258,9995.75,8
6228,6228,2021-01-22 14:33:17.327,10228.757,10025.75,8
6238,6238,2021-01-22 14:33:47.327,10250.193000000001,10037.5,8
6248,6248,2021-01-22 14:34:17.327,10272.929,10058.375,8
6258,6258,2021-01-22 14:34:47.327,10299.712,10088.375,8
6268,6268,2021-01-22 14:35:17.327,10324.97,10100.125,8
6278,6278,2021-01-22 14:35:47.327,10069.228000000001,10121.0,8
6288,6288,2021-01-22 14:36:17.327,10052.981,10151.0,8
6298,6298,2021-01-22 14:36:47.327,10132.541,10240.75,8
6308,6308,2021-01-22 14:37:17.327,10165.171,10252.25,8
6318,6318,2021-01-22 14:37:47.327,10194.756,10282.25,8
6328,6328,2021-01-22 14:38:17.327,10205.837,10303.0,8
6338,6338,2021-01-22 14:38:47.327,10221.599,10314.5,8
6348,6348,2021-01-22 14:39:17.327,10250.839,10344.5,8
6358,6358,2021-01-22 14:39:47.327,10251.493,10365.25,8
6368,6368,2021-01-22 14:40:17.327,10274.1045,10386.0,8
6378,6378,2021-01-22 14:40:47.327,10304.586,10163.0,8
6388,6388,2021-01-22 14:41:17.327,10338.026,10184.0,8
6398,6398,2021-01-22 14:41:47.327,10349.47,10196.0,8
6408,6408,2021-01-22 14:42:17.327,10369.23,10217.0,8
6418,6418,2021-01-22 14:42:47.327,10388.315999999999,10247.0,8
6428,6428,2021-01-22 14:43:17.327,10403.982,10268.0,8
6438,6438,2021-01-22 14:43:47.327,10429.934000000001,10280.0,8
6448,6448,2021-01-22 14:44:17.327,10451.940999999999,10310.0,8
6458,6458,2021-01-22 14:44:47.327,10474.705,10331.0,8
6468,6468,2021-01-22 14:45:17.327,10260.562,10352.0,8
6478,6478,2021-01-22 14:45:47.327,10288.048,10373.0,8
6488,6488,2021-01-22 14:46:17.327,10327.402,10459.0,8
6498,6498,2021-01-22 14:46:47.327,10350.576,10479.875,8
6508,6508,2021-01-22 14:47:17.327,10381.896999999999,10511.1875,8
6518,6518,2021-01-22 14:47:47.327,10401.125,10557.5,8
6528,6528,2021-01-22 14:48:17.327,10407.485999999999,10557.5,8
6538,6538,2021-01-22 14:48:47.327,10452.061,10584.25,8
6548,6548,2021-01-22 14:49:17.327,10479.211,10614.25,8
6558,6558,2021-01-22 14:49:47.327,10500.171,10614.25,8
6568,6568,2021-01-22 14:50:17.327,10518.193000000001,10320.25,8
6578,6578,2021-01-22 14:50:47.327,10550.535,10341.5,8
6588,6588,2021-01-22 14:51:17.327,10569.571000000002,10362.75,8
6598,6598,2021-01-22 14:51:47.327,10602.738000000001,10446.0,8
6608,6608,2021-01-22 14:52:17.327,10640.931999999999,10467.125,8
6618,6618,2021-01-22 14:52:47.327,10658.117,10426.5,8
6628,6628,2021-01-22 14:53:17.327,10684.865,10456.5,8
6638,6638,2021-01-22 14:53:47.327,10714.398000000001,10530.5,8
6648,6648,2021-01-22 14:54:17.327,10713.499,10560.5,8
6658,6658,2021-01-22 14:54:47.327,10454.145,10581.625,8
6668,6668,2021-01-22 14:55:17.327,10431.347,10593.875,8
6678,6678,2021-01-22 14:55:47.327,10536.176000000001,10623.875,8
6688,6688,2021-01-22 14:56:17.327,10632.927,10645.0,8
6698,6698,2021-01-22 14:56:47.327,10658.747,10666.125,8
6708,6708,2021-01-22 14:57:17.327,10533.281,10687.25,8
6718,6718,2021-01-22 14:57:47.327,10587.954,10717.25,8
6728,6728,2021-01-22 14:58:17.327,10695.743999999999,10729.5,8
6738,6738,2021-01-22 14:58:47.327,10718.568000000001,10750.625,8
6748,6748,2021-01-22 14:59:17.327,10736.627,10780.625,8
6758,6758,2021-01-22 14:59:47.327,10752.911,10610.25,8
6768,6768,2021-01-22 15:00:17.327,10764.896,10622.75,8
6778,6778,2021-01-22 15:00:47.327,10775.343,10652.75,8
6788,6788,2021-01-22 15:01:17.327,10786.201000000001,10674.0,8
6798,6798,2021-01-22 15:01:47.327,10798.378,10704.0,8
6808,6808,2021-01-22 15:02:17.327,10816.045,10716.5,8
6818,6818,2021-01-22 15:02:47.327,10830.063,10737.75,8
6828,6828,2021-01-22 15:03:17.327,10846.944,10767.75,8
6838,6838,2021-01-22 15:03:47.327,10870.08,10780.25,8
6848,6848,2021-01-22 15:04:17.327,10684.192,10801.5,8
6858,6858,2021-01-22 15:04:47.327,10736.36,10831.5,8
6868,6868,2021-01-22 15:05:17.327,10769.826000000001,10844.0,8
6878,6878,2021-01-22 15:05:47.327,10789.515,10865.25,8
6888,6888,2021-01-22 15:06:17.327,10831.313,10895.25,8
6898,6898,2021-01-22 15:06:47.327,10845.889,10721.75,8
6908,6908,2021-01-22 15:07:17.327,10873.326000000001,10743.125,8
6918,6918,2021-01-22 15:07:47.327,10900.905,10710.0,8
6928,6928,2021-01-22 15:08:17.327,10916.105,10731.5,8
6938,6938,2021-01-22 15:08:47.327,10935.999,10753.0,8
6948,6948,2021-01-22 15:09:17.327,10960.569,10774.5,8
6958,6958,2021-01-22 15:09:47.327,10966.655,10804.5,8
6968,6968,2021-01-22 15:10:17.327,10974.607,10817.5,8
6978,6978,2021-01-22 15:10:47.327,10985.048,10839.0,8
6988,6988,2021-01-22 15:11:17.327,10801.931999999999,10922.75,8
6998,6998,2021-01-22 15:11:47.327,10840.47,10935.5,8
7008,7008,2021-01-22 15:12:17.327,10774.973,10956.875,8
7018,7018,2021-01-22 15:12:47.327,10820.038,10986.875,8
7028,7028,2021-01-22 15:13:17.327,10857.7295,10991.0,8
7038,7038,2021-01-22 15:13:47.327,10884.532,11021.0,8
7048,7048,2021-01-22 15:14:17.327,10910.901000000002,11051.0,8
7058,7058,2021-01-22 15:14:47.327,10914.222,10875.0,8
7068,7068,2021-01-22 15:15:17.327,10922.739,10896.5,8
7078,7078,2021-01-22 15:15:47.327,10960.768,10918.0,8
7088,7088,2021-01-22 15:16:17.327,10982.993999999999,10939.5,8
7098,7098,2021-01-22 15:16:47.327,11008.017,10961.0,8
7108,7108,2021-01-22 15:17:17.327,11037.706,10982.5,8
7118,7118,2021-01-22 15:17:47.327,11064.256000000001,11004.0,8
7128,7128,2021-01-22 15:18:17.327,11095.166000000001,11025.5,8
7138,7138,2021-01-22 15:18:47.327,11129.282,11047.0,8
7148,7148,2021-01-22 15:19:17.327,10972.848999999998,11077.0,8
7158,7158,2021-01-22 15:19:47.327,11034.19,11090.0,8
7168,7168,2021-01-22 15:20:17.327,11047.121000000001,11111.5,8
7178,7178,2021-01-22 15:20:47.327,11063.327,11141.5,8
7188,7188,2021-01-22 15:21:17.327,11082.569,11163.0,8
7198,7198,2021-01-22 15:21:47.327,11096.965,10937.75,8
7208,7208,2021-01-22 15:22:17.327,11108.253,10967.75,8
7218,7218,2021-01-22 15:22:47.327,11122.193000000001,10981.25,8
7228,7228,2021-01-22 15:23:17.327,11139.392,11003.0,8
7238,7238,2021-01-22 15:23:47.327,11161.725,11033.0,8
7248,7248,2021-01-22 15:24:17.327,11181.287,11046.5,8
7258,7258,2021-01-22 15:24:47.327,11204.548999999999,11068.25,8
7268,7268,2021-01-22 15:25:17.327,11232.09,11098.25,8
7278,7278,2021-01-22 15:25:47.327,11258.323,11126.75,8
7288,7288,2021-01-22 15:26:17.327,11046.426000000001,11163.5,8
7298,7298,2021-01-22 15:26:47.327,11055.785,11163.5,8
7308,7308,2021-01-22 15:27:17.327,11109.26,11185.25,8
7318,7318,2021-01-22 15:27:47.327,11131.915,11198.75,8
7328,7328,2021-01-22 15:28:17.327,11166.89,11228.75,8
7338,7338,2021-01-22 15:28:47.327,11175.84,11059.0,8
7348,7348,2021-01-22 15:29:17.327,11186.108,11072.75,8
7358,7358,2021-01-22 15:29:47.327,11195.383999999998,11094.625,8
7368,7368,2021-01-22 15:30:17.327,11199.763,11124.625,8
7378,7378,2021-01-22 15:30:47.327,11219.767,11138.375,8
7388,7388,2021-01-22 15:31:17.327,11229.133999999998,11160.25,8
7398,7398,2021-01-22 15:31:47.327,11248.01,11190.25,8
7408,7408,2021-01-22 15:32:17.327,11265.617,11220.25,8
7418,7418,2021-01-22 15:32:47.327,11293.847,11225.875,8
7428,7428,2021-01-22 15:33:17.327,11137.32,11255.875,8
7438,7438,2021-01-22 15:33:47.327,11143.546999999999,11285.875,8
7448,7448,2021-01-22 15:34:17.327,11201.162,11058.875,8
7458,7458,2021-01-22 15:34:47.327,11241.938999999998,11088.875,8
7468,7468,2021-01-22 15:35:17.327,11250.284,11072.0,8
7478,7478,2021-01-22 15:35:47.327,11263.382,11125.25,8
7488,7488,2021-01-22 15:36:17.327,11277.335,11155.25,8
7498,7498,2021-01-22 15:36:47.327,11289.538,11177.375,8
7508,7508,2021-01-22 15:37:17.327,11299.33,11191.625,8
7518,7518,2021-01-22 15:37:47.327,11317.633999999998,11221.625,8
7528,7528,2021-01-22 15:38:17.327,11347.53,11243.75,8
7538,7538,2021-01-22 15:38:47.327,11178.792,11258.0,8
7548,7548,2021-01-22 15:39:17.327,11161.171999999999,11288.0,8
7558,7558,2021-01-22 15:39:47.327,11200.639,11310.125,8
7568,7568,2021-01-22 15:40:17.327,11247.923999999999,11139.5,8
7578,7578,2021-01-22 15:40:47.327,11279.96,11154.0,8
7588,7588,2021-01-22 15:41:17.327,11305.551000000001,11191.25,8
7598,7598,2021-01-22 15:41:47.327,11310.177,11220.75,8
7608,7608,2021-01-22 15:42:17.327,11318.8,11250.75,8
7618,7618,2021-01-22 15:42:47.327,11322.687,11273.0,8
7628,7628,2021-01-22 15:43:17.327,11328.206,11287.5,8
7638,7638,2021-01-22 15:43:47.327,11341.146,11287.5,8
7648,7648,2021-01-22 15:44:17.327,11364.122,11317.5,8
7658,7658,2021-01-22 15:44:47.327,11231.575,11339.75,8
7668,7668,2021-01-22 15:45:17.327,11219.573,11167.875,8
7678,7678,2021-01-22 15:45:47.327,11289.28,11182.625,8
7688,7688,2021-01-22 15:46:17.327,11327.3955,11205.0,8
7698,7698,2021-01-22 15:46:47.327,11354.448,11235.0,8
7708,7708,2021-01-22 15:47:17.327,11365.033000000001,11249.75,8
7718,7718,2021-01-22 15:47:47.327,11372.222,11272.125,8
7728,7728,2021-01-22 15:48:17.327,11374.76,11302.125,8
7738,7738,2021-01-22 15:48:47.327,11385.701000000001,11347.25,8
7748,7748,2021-01-22 15:49:17.327,11398.686000000002,11116.5,8
7758,7758,2021-01-22 15:49:47.327,11257.024,11146.5,8
7768,7768,2021-01-22 15:50:17.327,11242.4,11154.375,8
7778,7778,2021-01-22 15:50:47.327,11303.027,11184.375,8
7788,7788,2021-01-22 15:51:17.327,11333.155,11214.375,8
7798,7798,2021-01-22 15:51:47.327,11353.614,11229.625,8
7808,7808,2021-01-22 15:52:17.327,11382.889,11252.25,8
7818,7818,2021-01-22 15:52:47.327,11402.382,11282.25,8
7828,7828,2021-01-22 15:53:17.327,11416.245,11147.75,8
7838,7838,2021-01-22 15:53:47.327,11266.917,11127.0,8
7848,7848,2021-01-22 15:54:17.327,11259.548,11126.375,8
7858,7858,2021-01-22 15:54:47.327,11285.006000000001,11149.25,8
7868,7868,2021-01-22 15:55:17.327,11300.86,11172.125,8
7878,7878,2021-01-22 15:55:47.327,11313.597,11195.0,8
7888,7888,2021-01-22 15:56:17.327,11320.171,11217.875,8
7898,7898,2021-01-22 15:56:47.327,11339.989,11037.125,8
7908,7908,2021-01-22 15:57:17.327,11382.237,11060.25,8
7918,7918,2021-01-22 15:57:47.327,11277.195,11069.625,8
7928,7928,2021-01-22 15:58:17.327,11278.615,11099.625,8
7938,7938,2021-01-22 15:58:47.327,11285.749,11129.625,8
7948,7948,2021-01-22 15:59:17.327,11287.74,10995.4375,8
7958,7958,2021-01-22 15:59:47.327,11292.532,10988.75,8
7968,7968,2021-01-22 16:00:17.327,11301.626,10988.75,8
7978,7978,2021-01-22 16:00:47.327,11314.827,11005.5,8
7988,7988,2021-01-22 16:01:17.327,11278.206,11035.5,8
7998,7998,2021-01-22 16:01:47.327,11276.065,11065.5,8
8008,8008,2021-01-22 16:02:17.327,11277.97,10891.5,8
8018,8018,2021-01-22 16:02:47.327,11278.108999999999,10921.5,8
8028,8028,2021-01-22 16:03:17.327,11279.12,10945.0,8
8038,8038,2021-01-22 16:03:47.327,11255.21,10776.5,8
8048,8048,2021-01-22 16:04:17.327,11244.052,10800.25,8
8058,8058,2021-01-22 16:04:47.327,11245.811000000002,10817.75,8
8068,8068,2021-01-22 16:05:17.327,11247.409,10658.0,8
8078,8078,2021-01-22 16:05:47.327,11249.318000000001,10688.0,8
