,Unnamed: 0,time,prediction,step
6877,6877,2021-02-18 11:51:12.752,603.1318,7
6887,6887,2021-02-18 11:51:42.752,389.80096000000003,7
6897,6897,2021-02-18 11:52:12.752,332.80283,7
6907,6907,2021-02-18 11:52:42.752,295.40448,7
6917,6917,2021-02-18 11:53:12.752,267.94388,7
6927,6927,2021-02-18 11:53:42.752,264.61508,7
6937,6937,2021-02-18 11:54:12.752,265.27094,7
6947,6947,2021-02-18 11:54:42.752,335.54636,7
6957,6957,2021-02-18 11:55:12.752,350.0214,7
6967,6967,2021-02-18 11:55:42.752,358.34177,7
6977,6977,2021-02-18 11:56:12.752,343.16116,7
6987,6987,2021-02-18 11:56:42.752,342.1469,7
6997,6997,2021-02-18 11:57:12.752,352.33127,7
7007,7007,2021-02-18 11:57:42.752,351.88833999999997,7
7017,7017,2021-02-18 11:58:12.752,354.39737,7
7027,7027,2021-02-18 11:58:42.752,350.57788,7
7037,7037,2021-02-18 11:59:12.752,340.9178,7
7047,7047,2021-02-18 11:59:42.752,335.59726,7
7057,7057,2021-02-18 12:00:12.752,343.67282,7
7067,7067,2021-02-18 12:00:42.752,346.96545,7
7077,7077,2021-02-18 12:01:12.752,348.34836,7
7087,7087,2021-02-18 12:01:42.752,346.0933,7
7097,7097,2021-02-18 12:02:12.752,342.41962,7
7107,7107,2021-02-18 12:02:42.752,335.855,7
7117,7117,2021-02-18 12:03:12.752,326.42505,7
7127,7127,2021-02-18 12:03:42.752,307.40533,7
7137,7137,2021-02-18 12:04:12.752,301.04565,7
7147,7147,2021-02-18 12:04:42.752,306.66348,7
7157,7157,2021-02-18 12:05:12.752,364.32767,7
7167,7167,2021-02-18 12:05:42.752,244.4335,7
7177,7177,2021-02-18 12:06:12.752,184.916,7
7187,7187,2021-02-18 12:06:42.752,179.04904,7
7197,7197,2021-02-18 12:07:12.752,186.57538,7
7207,7207,2021-02-18 12:07:42.752,202.37013000000002,7
7217,7217,2021-02-18 12:08:12.752,209.70628,7
7227,7227,2021-02-18 12:08:42.752,256.57207999999997,7
7237,7237,2021-02-18 12:09:12.752,282.8199,7
7247,7247,2021-02-18 12:09:42.752,291.41934,7
7257,7257,2021-02-18 12:10:12.752,264.7853,7
7267,7267,2021-02-18 12:10:42.752,251.46587000000002,7
7277,7277,2021-02-18 12:11:12.752,253.37294,7
7287,7287,2021-02-18 12:11:42.752,250.77392999999998,7
7297,7297,2021-02-18 12:12:12.752,268.20563,7
7307,7307,2021-02-18 12:12:42.752,274.8841,7
7317,7317,2021-02-18 12:13:12.752,279.66196,7
7327,7327,2021-02-18 12:13:42.752,279.99966,7
7337,7337,2021-02-18 12:14:12.752,282.6794,7
7347,7347,2021-02-18 12:14:42.752,284.78528,7
7357,7357,2021-02-18 12:15:12.752,285.56512000000004,7
7367,7367,2021-02-18 12:15:42.752,287.08945,7
7377,7377,2021-02-18 12:16:12.752,255.6732,7
7387,7387,2021-02-18 12:16:42.752,238.93513,7
7397,7397,2021-02-18 12:17:12.752,199.20224,7
7407,7407,2021-02-18 12:17:42.752,197.23396,7
7417,7417,2021-02-18 12:18:12.752,200.88745,7
7427,7427,2021-02-18 12:18:42.752,203.58041,7
7437,7437,2021-02-18 12:19:12.752,208.86553999999998,7
7447,7447,2021-02-18 12:19:42.752,208.67989,7
7457,7457,2021-02-18 12:20:12.752,201.71094,7
7467,7467,2021-02-18 12:20:42.752,202.78616,7
7477,7477,2021-02-18 12:21:12.752,206.61485,7
7487,7487,2021-02-18 12:21:42.752,212.63849,7
7497,7497,2021-02-18 12:22:12.752,218.97617999999997,7
7507,7507,2021-02-18 12:22:42.752,216.68597000000003,7
7517,7517,2021-02-18 12:23:12.752,226.88832000000002,7
7527,7527,2021-02-18 12:23:42.752,233.75032000000002,7
7537,7537,2021-02-18 12:24:12.752,222.77700000000002,7
7547,7547,2021-02-18 12:24:42.752,226.45406,7
7557,7557,2021-02-18 12:25:12.752,226.74127000000001,7
7567,7567,2021-02-18 12:25:42.752,228.13951,7
7577,7577,2021-02-18 12:26:12.752,227.7344,7
7587,7587,2021-02-18 12:26:42.752,228.5603,7
7597,7597,2021-02-18 12:27:12.752,241.24966,7
7607,7607,2021-02-18 12:27:42.752,247.38202,7
7617,7617,2021-02-18 12:28:12.752,249.62746,7
7627,7627,2021-02-18 12:28:42.752,249.52731,7
7637,7637,2021-02-18 12:29:12.752,248.33177,7
7647,7647,2021-02-18 12:29:42.752,244.10132000000002,7
7657,7657,2021-02-18 12:30:12.752,239.52022999999997,7
7667,7667,2021-02-18 12:30:42.752,235.79726000000002,7
7677,7677,2021-02-18 12:31:12.752,241.68558,7
7687,7687,2021-02-18 12:31:42.752,247.3975,7
7697,7697,2021-02-18 12:32:12.752,253.62581,7
7707,7707,2021-02-18 12:32:42.752,259.87045,7
7717,7717,2021-02-18 12:33:12.752,267.1171,7
7727,7727,2021-02-18 12:33:42.752,273.22635,7
7737,7737,2021-02-18 12:34:12.752,279.32428,7
7747,7747,2021-02-18 12:34:42.752,283.47696,7
7757,7757,2021-02-18 12:35:12.752,287.11447000000004,7
7767,7767,2021-02-18 12:35:42.752,290.90252999999996,7
7777,7777,2021-02-18 12:36:12.752,294.40283,7
7787,7787,2021-02-18 12:36:42.752,298.10098,7
7797,7797,2021-02-18 12:37:12.752,305.89797999999996,7
7807,7807,2021-02-18 12:37:42.752,314.85898,7
7817,7817,2021-02-18 12:38:12.752,323.6625,7
7827,7827,2021-02-18 12:38:42.752,331.26412999999997,7
7837,7837,2021-02-18 12:39:12.752,341.04565,7
