,Unnamed: 0,time,prediction,step
6871,6871,2021-02-18 11:48:12.752,534.5917,1
6881,6881,2021-02-18 11:48:42.752,341.20126,1
6891,6891,2021-02-18 11:49:12.752,278.19852000000003,1
6901,6901,2021-02-18 11:49:42.752,230.7182,1
6911,6911,2021-02-18 11:50:12.752,192.93169,1
6921,6921,2021-02-18 11:50:42.752,180.30643999999998,1
6931,6931,2021-02-18 11:51:12.752,184.8972,1
6941,6941,2021-02-18 11:51:42.752,239.31685,1
6951,6951,2021-02-18 11:52:12.752,256.32523,1
6961,6961,2021-02-18 11:52:42.752,270.06232,1
6971,6971,2021-02-18 11:53:12.752,262.71835,1
6981,6981,2021-02-18 11:53:42.752,261.61593999999997,1
6991,6991,2021-02-18 11:54:12.752,266.85947000000004,1
7001,7001,2021-02-18 11:54:42.752,266.48077,1
7011,7011,2021-02-18 11:55:12.752,276.16112999999996,1
7021,7021,2021-02-18 11:55:42.752,292.29553,1
7031,7031,2021-02-18 11:56:12.752,315.32097999999996,1
7041,7041,2021-02-18 11:56:42.752,338.93375,1
7051,7051,2021-02-18 11:57:12.752,354.6575,1
7061,7061,2021-02-18 11:57:42.752,353.26785,1
7071,7071,2021-02-18 11:58:12.752,361.0724,1
7081,7081,2021-02-18 11:58:42.752,359.03067000000004,1
7091,7091,2021-02-18 11:59:12.752,362.17053,1
7101,7101,2021-02-18 11:59:42.752,365.00406,1
7111,7111,2021-02-18 12:00:12.752,364.24316,1
7121,7121,2021-02-18 12:00:42.752,356.5815,1
7131,7131,2021-02-18 12:01:12.752,355.4362,1
7141,7141,2021-02-18 12:01:42.752,360.65192,1
7151,7151,2021-02-18 12:02:12.752,396.8684,1
7161,7161,2021-02-18 12:02:42.752,197.54123,1
7171,7171,2021-02-18 12:03:12.752,150.71684,1
7181,7181,2021-02-18 12:03:42.752,152.57925,1
7191,7191,2021-02-18 12:04:12.752,161.0144,1
7201,7201,2021-02-18 12:04:42.752,173.71712,1
7211,7211,2021-02-18 12:05:12.752,181.8755,1
7221,7221,2021-02-18 12:05:42.752,212.47055,1
7231,7231,2021-02-18 12:06:12.752,244.5338,1
7241,7241,2021-02-18 12:06:42.752,266.302,1
7251,7251,2021-02-18 12:07:12.752,224.30405,1
7261,7261,2021-02-18 12:07:42.752,217.30287,1
7271,7271,2021-02-18 12:08:12.752,221.38733,1
7281,7281,2021-02-18 12:08:42.752,221.85948,1
7291,7291,2021-02-18 12:09:12.752,241.16916,1
7301,7301,2021-02-18 12:09:42.752,256.28372,1
7311,7311,2021-02-18 12:10:12.752,271.29834,1
7321,7321,2021-02-18 12:10:42.752,273.95682,1
7331,7331,2021-02-18 12:11:12.752,285.2837,1
7341,7341,2021-02-18 12:11:42.752,294.20825,1
7351,7351,2021-02-18 12:12:12.752,300.86032,1
7361,7361,2021-02-18 12:12:42.752,306.6294,1
7371,7371,2021-02-18 12:13:12.752,226.18086,1
7381,7381,2021-02-18 12:13:42.752,200.07005,1
7391,7391,2021-02-18 12:14:12.752,174.58157,1
7401,7401,2021-02-18 12:14:42.752,174.6036,1
7411,7411,2021-02-18 12:15:12.752,177.59938,1
7421,7421,2021-02-18 12:15:42.752,185.02747,1
7431,7431,2021-02-18 12:16:12.752,196.51451,1
7441,7441,2021-02-18 12:16:42.752,200.6046,1
7451,7451,2021-02-18 12:17:12.752,199.3014,1
7461,7461,2021-02-18 12:17:42.752,208.05853000000002,1
7471,7471,2021-02-18 12:18:12.752,219.31454,1
7481,7481,2021-02-18 12:18:42.752,230.48987999999997,1
7491,7491,2021-02-18 12:19:12.752,214.21634,1
7501,7501,2021-02-18 12:19:42.752,208.63492,1
7511,7511,2021-02-18 12:20:12.752,217.01047999999997,1
7521,7521,2021-02-18 12:20:42.752,228.22115,1
7531,7531,2021-02-18 12:21:12.752,214.24707,1
7541,7541,2021-02-18 12:21:42.752,218.89622000000003,1
7551,7551,2021-02-18 12:22:12.752,219.4154,1
7561,7561,2021-02-18 12:22:42.752,223.97401000000002,1
7571,7571,2021-02-18 12:23:12.752,231.31627999999998,1
7581,7581,2021-02-18 12:23:42.752,239.7853,1
7591,7591,2021-02-18 12:24:12.752,240.7629,1
7601,7601,2021-02-18 12:24:42.752,248.06637999999998,1
7611,7611,2021-02-18 12:25:12.752,253.01369,1
7621,7621,2021-02-18 12:25:42.752,255.86707,1
7631,7631,2021-02-18 12:26:12.752,257.71367999999995,1
7641,7641,2021-02-18 12:26:42.752,257.18917999999996,1
7651,7651,2021-02-18 12:27:12.752,258.52206,1
7661,7661,2021-02-18 12:27:42.752,259.94577000000004,1
7671,7671,2021-02-18 12:28:12.752,267.77136,1
7681,7681,2021-02-18 12:28:42.752,274.70657,1
7691,7691,2021-02-18 12:29:12.752,281.84375,1
7701,7701,2021-02-18 12:29:42.752,288.19888,1
7711,7711,2021-02-18 12:30:12.752,295.503,1
7721,7721,2021-02-18 12:30:42.752,301.80405,1
7731,7731,2021-02-18 12:31:12.752,308.1977,1
7741,7741,2021-02-18 12:31:42.752,313.63504,1
7751,7751,2021-02-18 12:32:12.752,318.2475,1
7761,7761,2021-02-18 12:32:42.752,323.05695,1
7771,7771,2021-02-18 12:33:12.752,327.31876,1
7781,7781,2021-02-18 12:33:42.752,331.72046,1
7791,7791,2021-02-18 12:34:12.752,339.23697000000004,1
7801,7801,2021-02-18 12:34:42.752,347.91925,1
7811,7811,2021-02-18 12:35:12.752,356.66757,1
7821,7821,2021-02-18 12:35:42.752,364.32288,1
7831,7831,2021-02-18 12:36:12.752,374.21265,1
