,Unnamed: 0,time,prediction,step
27250,27250,2020-11-16 09:47:08.276,7949.946999999999,0
27260,27260,2020-11-16 09:47:38.276,7939.985,0
27270,27270,2020-11-16 09:48:08.276,7935.54,0
27280,27280,2020-11-16 09:48:38.276,7903.6416,0
27290,27290,2020-11-16 09:49:08.276,7834.839,0
27300,27300,2020-11-16 09:49:38.276,7822.988,0
27310,27310,2020-11-16 09:50:08.276,7995.1616,0
27320,27320,2020-11-16 09:50:38.276,7996.772,0
27330,27330,2020-11-16 09:51:08.276,7993.861999999999,0
27340,27340,2020-11-16 09:51:38.276,7994.1797,0
27350,27350,2020-11-16 09:52:08.276,7989.8726,0
27360,27360,2020-11-16 09:52:38.276,7983.068,0
27370,27370,2020-11-16 09:53:08.276,7981.8833,0
27380,27380,2020-11-16 09:53:38.276,7970.818,0
27390,27390,2020-11-16 09:54:08.276,7959.0674,0
27400,27400,2020-11-16 09:54:38.276,7947.0845,0
27410,27410,2020-11-16 09:55:08.276,7934.853,0
27420,27420,2020-11-16 09:55:38.276,7922.326,0
27430,27430,2020-11-16 09:56:08.276,7909.4697,0
27440,27440,2020-11-16 09:56:38.276,7870.73,0
27450,27450,2020-11-16 09:57:08.276,7504.5356,0
27460,27460,2020-11-16 09:57:38.276,7463.939,0
27470,27470,2020-11-16 09:58:08.276,7476.81,0
27480,27480,2020-11-16 09:58:38.276,7496.4727,0
27490,27490,2020-11-16 09:59:08.276,7520.6484,0
27500,27500,2020-11-16 09:59:38.276,7519.2,0
27510,27510,2020-11-16 10:00:08.276,7514.5874,0
27520,27520,2020-11-16 10:00:38.276,7500.326999999999,0
27530,27530,2020-11-16 10:01:08.276,7477.53,0
27540,27540,2020-11-16 10:01:38.276,7463.9717,0
27550,27550,2020-11-16 10:02:08.276,7453.786,0
27560,27560,2020-11-16 10:02:38.276,7450.746,0
27570,27570,2020-11-16 10:03:08.276,7442.1455,0
27580,27580,2020-11-16 10:03:38.276,7431.946999999999,0
27590,27590,2020-11-16 10:04:08.276,7419.6484,0
27600,27600,2020-11-16 10:04:38.276,7584.4272,0
27610,27610,2020-11-16 10:05:08.276,7584.401999999999,0
27620,27620,2020-11-16 10:05:38.276,7576.2266,0
27630,27630,2020-11-16 10:06:08.276,7564.4297,0
27640,27640,2020-11-16 10:06:38.276,7553.0146,0
27650,27650,2020-11-16 10:07:08.276,7541.2583,0
27660,27660,2020-11-16 10:07:38.276,7529.688,0
27670,27670,2020-11-16 10:08:08.276,7156.9336,0
27680,27680,2020-11-16 10:08:38.276,7184.944,0
27690,27690,2020-11-16 10:09:08.276,7054.9490000000005,0
27700,27700,2020-11-16 10:09:38.276,6951.883000000001,0
27710,27710,2020-11-16 10:10:08.276,7107.0723,0
27720,27720,2020-11-16 10:10:38.276,7114.358,0
27730,27730,2020-11-16 10:11:08.276,7120.0864,0
27740,27740,2020-11-16 10:11:38.276,7139.6196,0
27750,27750,2020-11-16 10:12:08.276,7153.93,0
27760,27760,2020-11-16 10:12:38.276,7143.3823,0
27770,27770,2020-11-16 10:13:08.276,7129.647,0
27780,27780,2020-11-16 10:13:38.276,7114.9795,0
27790,27790,2020-11-16 10:14:08.276,7099.5806,0
27800,27800,2020-11-16 10:14:38.276,7083.658,0
27810,27810,2020-11-16 10:15:08.276,7067.151999999999,0
27820,27820,2020-11-16 10:15:38.276,7049.7256,0
27830,27830,2020-11-16 10:16:08.276,7033.5483,0
27840,27840,2020-11-16 10:16:38.276,7027.81,0
27850,27850,2020-11-16 10:17:08.276,7012.1553,0
27860,27860,2020-11-16 10:17:38.276,6996.4907,0
27870,27870,2020-11-16 10:18:08.276,6981.172,0
27880,27880,2020-11-16 10:18:38.276,6966.0103,0
27890,27890,2020-11-16 10:19:08.276,6950.887,0
27900,27900,2020-11-16 10:19:38.276,6589.0254,0
27910,27910,2020-11-16 10:20:08.276,6569.798000000001,0
27920,27920,2020-11-16 10:20:38.276,6588.331999999999,0
27930,27930,2020-11-16 10:21:08.276,6583.249,0
27940,27940,2020-11-16 10:21:38.276,6554.474,0
27950,27950,2020-11-16 10:22:08.276,6534.571,0
27960,27960,2020-11-16 10:22:38.276,6538.536,0
27970,27970,2020-11-16 10:23:08.276,6536.401,0
27980,27980,2020-11-16 10:23:38.276,6521.491,0
27990,27990,2020-11-16 10:24:08.276,6500.085,0
28000,28000,2020-11-16 10:24:38.276,6491.5625,0
28010,28010,2020-11-16 10:25:08.276,6492.3906,0
28020,28020,2020-11-16 10:25:38.276,6477.7476,0
28030,28030,2020-11-16 10:26:08.276,6468.755999999999,0
28040,28040,2020-11-16 10:26:38.276,6473.388000000001,0
28050,28050,2020-11-16 10:27:08.276,6461.874,0
28060,28060,2020-11-16 10:27:38.276,6447.954000000001,0
28070,28070,2020-11-16 10:28:08.276,6432.9224,0
28080,28080,2020-11-16 10:28:38.276,6415.784000000001,0
28090,28090,2020-11-16 10:29:08.276,6566.8125,0
28100,28100,2020-11-16 10:29:38.276,6559.944,0
28110,28110,2020-11-16 10:30:08.276,6005.6504,0
28120,28120,2020-11-16 10:30:38.276,5998.0713,0
28130,28130,2020-11-16 10:31:08.276,6029.727,0
28140,28140,2020-11-16 10:31:38.276,6018.501,0
28150,28150,2020-11-16 10:32:08.276,5981.2944,0
28160,28160,2020-11-16 10:32:38.276,5958.3887,0
28170,28170,2020-11-16 10:33:08.276,6124.0034,0
28180,28180,2020-11-16 10:33:38.276,6159.5605,0
28190,28190,2020-11-16 10:34:08.276,6170.682,0
28200,28200,2020-11-16 10:34:38.276,6159.8640000000005,0
28210,28210,2020-11-16 10:35:08.276,6157.179,0
28220,28220,2020-11-16 10:35:38.276,6142.6206,0
28230,28230,2020-11-16 10:36:08.276,6129.3823,0
28240,28240,2020-11-16 10:36:38.276,6117.0796,0
28250,28250,2020-11-16 10:37:08.276,6102.2163,0
28260,28260,2020-11-16 10:37:38.276,6090.749,0
28270,28270,2020-11-16 10:38:08.276,6078.951999999999,0
28280,28280,2020-11-16 10:38:38.276,6066.1694,0
28290,28290,2020-11-16 10:39:08.276,6052.9746,0
28300,28300,2020-11-16 10:39:38.276,6039.565,0
28310,28310,2020-11-16 10:40:08.276,5700.927,0
28320,28320,2020-11-16 10:40:38.276,5670.879,0
28330,28330,2020-11-16 10:41:08.276,5709.9263,0
28340,28340,2020-11-16 10:41:38.276,5691.6123,0
28350,28350,2020-11-16 10:42:08.276,5675.1816,0
28360,28360,2020-11-16 10:42:38.276,5650.851,0
28370,28370,2020-11-16 10:43:08.276,5621.1836,0
28380,28380,2020-11-16 10:43:38.276,5607.4185,0
28390,28390,2020-11-16 10:44:08.276,5606.9043,0
28400,28400,2020-11-16 10:44:38.276,5613.56,0
28410,28410,2020-11-16 10:45:08.276,5607.053000000001,0
28420,28420,2020-11-16 10:45:38.276,5598.616,0
28430,28430,2020-11-16 10:46:08.276,5585.8145,0
28440,28440,2020-11-16 10:46:38.276,5576.531999999999,0
28450,28450,2020-11-16 10:47:08.276,5566.3643,0
28460,28460,2020-11-16 10:47:38.276,5554.2607,0
28470,28470,2020-11-16 10:48:08.276,5541.4346,0
28480,28480,2020-11-16 10:48:38.276,5526.544,0
28490,28490,2020-11-16 10:49:08.276,5507.684,0
28500,28500,2020-11-16 10:49:38.276,5368.111,0
28510,28510,2020-11-16 10:50:08.276,5151.380999999999,0
28520,28520,2020-11-16 10:50:38.276,5125.137,0
28530,28530,2020-11-16 10:51:08.276,5149.1787,0
28540,28540,2020-11-16 10:51:38.276,5123.128,0
28550,28550,2020-11-16 10:52:08.276,5104.6045,0
28560,28560,2020-11-16 10:52:38.276,5076.0186,0
28570,28570,2020-11-16 10:53:08.276,5064.651,0
28580,28580,2020-11-16 10:53:38.276,5057.725,0
28590,28590,2020-11-16 10:54:08.276,5051.5425,0
28600,28600,2020-11-16 10:54:38.276,5051.3413,0
28610,28610,2020-11-16 10:55:08.276,5046.519,0
28620,28620,2020-11-16 10:55:38.276,5052.2197,0
28630,28630,2020-11-16 10:56:08.276,5193.7227,0
28640,28640,2020-11-16 10:56:38.276,5185.9775,0
28650,28650,2020-11-16 10:57:08.276,5177.782,0
28660,28660,2020-11-16 10:57:38.276,5178.909000000001,0
28670,28670,2020-11-16 10:58:08.276,5168.1846,0
28680,28680,2020-11-16 10:58:38.276,5158.0986,0
28690,28690,2020-11-16 10:59:08.276,4764.9863,0
28700,28700,2020-11-16 10:59:38.276,4796.9507,0
28710,28710,2020-11-16 11:00:08.276,4814.5405,0
28720,28720,2020-11-16 11:00:38.276,4801.4883,0
28730,28730,2020-11-16 11:01:08.276,4790.3726,0
28740,28740,2020-11-16 11:01:38.276,4781.014,0
28750,28750,2020-11-16 11:02:08.276,4774.688,0
28760,28760,2020-11-16 11:02:38.276,4765.096,0
28770,28770,2020-11-16 11:03:08.276,4744.6694,0
28780,28780,2020-11-16 11:03:38.276,4744.462,0
28790,28790,2020-11-16 11:04:08.276,4733.8037,0
28800,28800,2020-11-16 11:04:38.276,4722.4927,0
28810,28810,2020-11-16 11:05:08.276,4718.2754,0
28820,28820,2020-11-16 11:05:38.276,4709.1836,0
28830,28830,2020-11-16 11:06:08.276,4697.9272,0
28840,28840,2020-11-16 11:06:38.276,4686.155,0
28850,28850,2020-11-16 11:07:08.276,4431.946,0
28860,28860,2020-11-16 11:07:38.276,4334.0986,0
28870,28870,2020-11-16 11:08:08.276,4354.647,0
28880,28880,2020-11-16 11:08:38.276,4343.729,0
28890,28890,2020-11-16 11:09:08.276,4313.858,0
28900,28900,2020-11-16 11:09:38.276,4285.744000000001,0
28910,28910,2020-11-16 11:10:08.276,4268.043,0
28920,28920,2020-11-16 11:10:38.276,4227.573,0
28930,28930,2020-11-16 11:11:08.276,4222.9995,0
28940,28940,2020-11-16 11:11:38.276,4228.5470000000005,0
28950,28950,2020-11-16 11:12:08.276,4240.0596,0
28960,28960,2020-11-16 11:12:38.276,4245.3594,0
28970,28970,2020-11-16 11:13:08.276,4235.4116,0
28980,28980,2020-11-16 11:13:38.276,4224.101,0
28990,28990,2020-11-16 11:14:08.276,4213.9890000000005,0
29000,29000,2020-11-16 11:14:38.276,4202.3687,0
29010,29010,2020-11-16 11:15:08.276,4037.8489,0
29020,29020,2020-11-16 11:15:38.276,3867.0537,0
29030,29030,2020-11-16 11:16:08.276,3834.638,0
29040,29040,2020-11-16 11:16:38.276,3849.2502,0
29050,29050,2020-11-16 11:17:08.276,3833.7705,0
29060,29060,2020-11-16 11:17:38.276,3812.9746,0
29070,29070,2020-11-16 11:18:08.276,3795.6106,0
29080,29080,2020-11-16 11:18:38.276,3762.469,0
29090,29090,2020-11-16 11:19:08.276,3741.015,0
29100,29100,2020-11-16 11:19:38.276,3883.7095,0
29110,29110,2020-11-16 11:20:08.276,3909.395,0
29120,29120,2020-11-16 11:20:38.276,3905.361,0
29130,29130,2020-11-16 11:21:08.276,3898.1685,0
29140,29140,2020-11-16 11:21:38.276,3891.7961,0
29150,29150,2020-11-16 11:22:08.276,3880.097,0
29160,29160,2020-11-16 11:22:38.276,3552.3208,0
29170,29170,2020-11-16 11:23:08.276,3534.676,0
29180,29180,2020-11-16 11:23:38.276,3564.8467,0
29190,29190,2020-11-16 11:24:08.276,3549.8135,0
29200,29200,2020-11-16 11:24:38.276,3529.6968,0
29210,29210,2020-11-16 11:25:08.276,3514.5637,0
29220,29220,2020-11-16 11:25:38.276,3513.239,0
29230,29230,2020-11-16 11:26:08.276,3506.3635,0
29240,29240,2020-11-16 11:26:38.276,3487.3672,0
29250,29250,2020-11-16 11:27:08.276,3481.3162,0
29260,29260,2020-11-16 11:27:38.276,3474.055,0
29270,29270,2020-11-16 11:28:08.276,3476.953,0
29280,29280,2020-11-16 11:28:38.276,3467.4509999999996,0
29290,29290,2020-11-16 11:29:08.276,3457.7998,0
29300,29300,2020-11-16 11:29:38.276,3221.1501,0
29310,29310,2020-11-16 11:30:08.276,3107.841,0
29320,29320,2020-11-16 11:30:38.276,3114.9648,0
29330,29330,2020-11-16 11:31:08.276,3124.8520000000003,0
29340,29340,2020-11-16 11:31:38.276,3103.7065,0
29350,29350,2020-11-16 11:32:08.276,3078.5366,0
29360,29360,2020-11-16 11:32:38.276,3067.5864,0
29370,29370,2020-11-16 11:33:08.276,3052.0718,0
29380,29380,2020-11-16 11:33:38.276,3028.3298,0
29390,29390,2020-11-16 11:34:08.276,3024.8901,0
29400,29400,2020-11-16 11:34:38.276,3037.218,0
29410,29410,2020-11-16 11:35:08.276,3029.8977,0
29420,29420,2020-11-16 11:35:38.276,2655.889,0
29430,29430,2020-11-16 11:36:08.276,2555.9343,0
29440,29440,2020-11-16 11:36:38.276,2636.2822,0
29450,29450,2020-11-16 11:37:08.276,2680.722,0
29460,29460,2020-11-16 11:37:38.276,2677.685,0
29470,29470,2020-11-16 11:38:08.276,2657.7952,0
29480,29480,2020-11-16 11:38:38.276,2638.5164,0
29490,29490,2020-11-16 11:39:08.276,2787.0088,0
29500,29500,2020-11-16 11:39:38.276,2780.469,0
29510,29510,2020-11-16 11:40:08.276,2776.6653,0
29520,29520,2020-11-16 11:40:38.276,2742.6812,0
29530,29530,2020-11-16 11:41:08.276,2730.3464,0
29540,29540,2020-11-16 11:41:38.276,2440.7874,0
29550,29550,2020-11-16 11:42:08.276,2394.136,0
29560,29560,2020-11-16 11:42:38.276,2398.1033,0
29570,29570,2020-11-16 11:43:08.276,2401.5603,0
29580,29580,2020-11-16 11:43:38.276,2396.1555,0
29590,29590,2020-11-16 11:44:08.276,2391.5835,0
29600,29600,2020-11-16 11:44:38.276,2391.4316,0
29610,29610,2020-11-16 11:45:08.276,2386.2932,0
29620,29620,2020-11-16 11:45:38.276,2374.169,0
29630,29630,2020-11-16 11:46:08.276,2371.6345,0
29640,29640,2020-11-16 11:46:38.276,1963.4181,0
29650,29650,2020-11-16 11:47:08.276,1834.14,0
29660,29660,2020-11-16 11:47:38.276,1952.5616,0
29670,29670,2020-11-16 11:48:08.276,2017.9269,0
29680,29680,2020-11-16 11:48:38.276,2023.7125,0
29690,29690,2020-11-16 11:49:08.276,2010.884,0
29700,29700,2020-11-16 11:49:38.276,1999.7877,0
29710,29710,2020-11-16 11:50:08.276,1985.8208,0
29720,29720,2020-11-16 11:50:38.276,1980.8574,0
29730,29730,2020-11-16 11:51:08.276,1860.2358,0
29740,29740,2020-11-16 11:51:38.276,1671.2671,0
29750,29750,2020-11-16 11:52:08.276,1540.0277,0
29760,29760,2020-11-16 11:52:38.276,1605.7815,0
29770,29770,2020-11-16 11:53:08.276,1729.0833,0
29780,29780,2020-11-16 11:53:38.276,1769.8749,0
29790,29790,2020-11-16 11:54:08.276,1778.6396,0
29800,29800,2020-11-16 11:54:38.276,1785.0105,0
29810,29810,2020-11-16 11:55:08.276,1789.5718,0
29820,29820,2020-11-16 11:55:38.276,1330.0276,0
29830,29830,2020-11-16 11:56:08.276,1441.8020000000001,0
29840,29840,2020-11-16 11:56:38.276,1397.1,0
29850,29850,2020-11-16 11:57:08.276,1407.2184,0
29860,29860,2020-11-16 11:57:38.276,1405.2041,0
29870,29870,2020-11-16 11:58:08.276,1403.1149,0
29880,29880,2020-11-16 11:58:38.276,1413.8365,0
29890,29890,2020-11-16 11:59:08.276,1425.396,0
29900,29900,2020-11-16 11:59:38.276,1087.9714,0
29910,29910,2020-11-16 12:00:08.276,956.0375,0
29920,29920,2020-11-16 12:00:38.276,1047.9389999999999,0
29930,29930,2020-11-16 12:01:08.276,1105.3737,0
29940,29940,2020-11-16 12:01:38.276,1102.5808,0
29950,29950,2020-11-16 12:02:08.276,1093.1232,0
29960,29960,2020-11-16 12:02:38.276,754.90094,0
29970,29970,2020-11-16 12:03:08.276,708.2766,0
29980,29980,2020-11-16 12:03:38.276,765.4011,0
29990,29990,2020-11-16 12:04:08.276,844.98175,0
