,Unnamed: 0,time,preds,step
10627,10627,2021-02-18 11:51:23.552,30.017794,7
10637,10637,2021-02-18 11:51:53.552,30.228070000000002,7
10647,10647,2021-02-18 11:52:23.552,26.977166999999998,7
10657,10657,2021-02-18 11:52:53.552,27.91095,7
10667,10667,2021-02-18 11:53:23.552,28.029840000000004,7
10677,10677,2021-02-18 11:53:53.552,33.5401,7
10687,10687,2021-02-18 11:54:23.552,34.618815999999995,7
10697,10697,2021-02-18 11:54:53.552,34.4031,7
10707,10707,2021-02-18 11:55:23.552,31.237282,7
10717,10717,2021-02-18 11:55:53.552,26.701147,7
10727,10727,2021-02-18 11:56:23.552,24.01529,7
10737,10737,2021-02-18 11:56:53.552,24.418917,7
10747,10747,2021-02-18 11:57:23.552,24.832968,7
10757,10757,2021-02-18 11:57:53.552,26.118748,7
10767,10767,2021-02-18 11:58:23.552,26.221188,7
10777,10777,2021-02-18 11:58:53.552,26.875092,7
10787,10787,2021-02-18 11:59:23.552,30.740953,7
10797,10797,2021-02-18 11:59:53.552,36.483090000000004,7
10807,10807,2021-02-18 12:00:23.552,36.2542,7
10817,10817,2021-02-18 12:00:53.552,34.798157,7
10827,10827,2021-02-18 12:01:23.552,35.523685,7
10837,10837,2021-02-18 12:01:53.552,36.67222,7
10847,10847,2021-02-18 12:02:23.552,37.092186,7
10857,10857,2021-02-18 12:02:53.552,39.74657,7
10867,10867,2021-02-18 12:03:23.552,39.241695,7
10877,10877,2021-02-18 12:03:53.552,40.754013,7
10887,10887,2021-02-18 12:04:23.552,40.351467,7
10897,10897,2021-02-18 12:04:53.552,41.905654999999996,7
10907,10907,2021-02-18 12:05:23.552,33.473804,7
10917,10917,2021-02-18 12:05:53.552,30.778229999999997,7
10927,10927,2021-02-18 12:06:23.552,36.35888,7
10937,10937,2021-02-18 12:06:53.552,38.809709999999995,7
10947,10947,2021-02-18 12:07:23.552,35.185608,7
10957,10957,2021-02-18 12:07:53.552,37.540718,7
10967,10967,2021-02-18 12:08:23.552,44.813934,7
10977,10977,2021-02-18 12:08:53.552,46.347958,7
10987,10987,2021-02-18 12:09:23.552,40.46925,7
10997,10997,2021-02-18 12:09:53.552,37.607696999999995,7
11007,11007,2021-02-18 12:10:23.552,34.677902,7
11017,11017,2021-02-18 12:10:53.552,34.065509999999996,7
11027,11027,2021-02-18 12:11:23.552,36.19715,7
11037,11037,2021-02-18 12:11:53.552,37.274258,7
11047,11047,2021-02-18 12:12:23.552,44.95898,7
11057,11057,2021-02-18 12:12:53.552,44.13752,7
11067,11067,2021-02-18 12:13:23.552,41.03348,7
11077,11077,2021-02-18 12:13:53.552,47.84166,7
11087,11087,2021-02-18 12:14:23.552,48.89145,7
11097,11097,2021-02-18 12:14:53.552,51.809307000000004,7
11107,11107,2021-02-18 12:15:23.552,51.655357,7
11117,11117,2021-02-18 12:15:53.552,53.24946,7
11127,11127,2021-02-18 12:16:23.552,40.304653,7
11137,11137,2021-02-18 12:16:53.552,37.825523,7
11147,11147,2021-02-18 12:17:23.552,37.38844,7
11157,11157,2021-02-18 12:17:53.552,42.393240000000006,7
11167,11167,2021-02-18 12:18:23.552,44.508114,7
11177,11177,2021-02-18 12:18:53.552,52.60911,7
11187,11187,2021-02-18 12:19:23.552,67.36853,7
11197,11197,2021-02-18 12:19:53.552,66.857025,7
11207,11207,2021-02-18 12:20:23.552,65.29223,7
11217,11217,2021-02-18 12:20:53.552,69.26679,7
11227,11227,2021-02-18 12:21:23.552,68.93573,7
11237,11237,2021-02-18 12:21:53.552,46.045265,7
11247,11247,2021-02-18 12:22:23.552,45.212543,7
11257,11257,2021-02-18 12:22:53.552,46.826252000000004,7
11267,11267,2021-02-18 12:23:23.552,43.38735,7
11277,11277,2021-02-18 12:23:53.552,46.256294,7
11287,11287,2021-02-18 12:24:23.552,52.768578000000005,7
11297,11297,2021-02-18 12:24:53.552,99.86797,7
11307,11307,2021-02-18 12:25:23.552,105.86516599999999,7
11317,11317,2021-02-18 12:25:53.552,124.85587,7
11327,11327,2021-02-18 12:26:23.552,124.493614,7
11337,11337,2021-02-18 12:26:53.552,128.81815,7
11347,11347,2021-02-18 12:27:23.552,130.66037,7
11357,11357,2021-02-18 12:27:53.552,121.424576,7
11367,11367,2021-02-18 12:28:23.552,126.13738000000001,7
11377,11377,2021-02-18 12:28:53.552,91.41303,7
11387,11387,2021-02-18 12:29:23.552,177.38715,7
11397,11397,2021-02-18 12:29:53.552,122.617966,7
11407,11407,2021-02-18 12:30:23.552,252.82363999999998,7
11417,11417,2021-02-18 12:30:53.552,234.96187999999998,7
11427,11427,2021-02-18 12:31:23.552,94.43086,7
11437,11437,2021-02-18 12:31:53.552,298.75793,7
11447,11447,2021-02-18 12:32:23.552,398.22067000000004,7
11457,11457,2021-02-18 12:32:53.552,531.0001,7
11467,11467,2021-02-18 12:33:23.552,477.28033,7
11477,11477,2021-02-18 12:33:53.552,407.19635,7
11487,11487,2021-02-18 12:34:23.552,71.1344,7
11497,11497,2021-02-18 12:34:53.552,45.276955,7
11507,11507,2021-02-18 12:35:23.552,56.484733999999996,7
11517,11517,2021-02-18 12:35:53.552,53.39114,7
11527,11527,2021-02-18 12:36:23.552,31.484295,7
11537,11537,2021-02-18 12:36:53.552,31.736904,7
11547,11547,2021-02-18 12:37:23.552,24.279451,7
