,Unnamed: 0,time,prediction,step
10626,10626,2021-02-18 11:50:53.552,38.571265999999994,6
10636,10636,2021-02-18 11:51:23.552,37.935875,6
10646,10646,2021-02-18 11:51:53.552,36.664307,6
10656,10656,2021-02-18 11:52:23.552,34.88454,6
10666,10666,2021-02-18 11:52:53.552,34.200176,6
10676,10676,2021-02-18 11:53:23.552,33.853165000000004,6
10686,10686,2021-02-18 11:53:53.552,33.708206,6
10696,10696,2021-02-18 11:54:23.552,33.216,6
10706,10706,2021-02-18 11:54:53.552,32.58842,6
10716,10716,2021-02-18 11:55:23.552,31.988815000000002,6
10726,10726,2021-02-18 11:55:53.552,31.112472999999998,6
10736,10736,2021-02-18 11:56:23.552,31.574478000000003,6
10746,10746,2021-02-18 11:56:53.552,31.978493,6
10756,10756,2021-02-18 11:57:23.552,32.49009,6
10766,10766,2021-02-18 11:57:53.552,32.929863,6
10776,10776,2021-02-18 11:58:23.552,33.298140000000004,6
10786,10786,2021-02-18 11:58:53.552,33.756786,6
10796,10796,2021-02-18 11:59:23.552,34.125935,6
10806,10806,2021-02-18 11:59:53.552,34.536037,6
10816,10816,2021-02-18 12:00:23.552,34.877277,6
10826,10826,2021-02-18 12:00:53.552,35.304443,6
10836,10836,2021-02-18 12:01:23.552,35.643772,6
10846,10846,2021-02-18 12:01:53.552,35.89063,6
10856,10856,2021-02-18 12:02:23.552,36.44639,6
10866,10866,2021-02-18 12:02:53.552,36.83323,6
10876,10876,2021-02-18 12:03:23.552,37.297596,6
10886,10886,2021-02-18 12:03:53.552,37.65775,6
10896,10896,2021-02-18 12:04:23.552,38.077187,6
10906,10906,2021-02-18 12:04:53.552,41.0462,6
10916,10916,2021-02-18 12:05:23.552,40.972023,6
10926,10926,2021-02-18 12:05:53.552,41.160416,6
10936,10936,2021-02-18 12:06:23.552,41.44705,6
10946,10946,2021-02-18 12:06:53.552,41.082024,6
10956,10956,2021-02-18 12:07:23.552,41.277440000000006,6
10966,10966,2021-02-18 12:07:53.552,41.810688,6
10976,10976,2021-02-18 12:08:23.552,43.24589,6
10986,10986,2021-02-18 12:08:53.552,43.444179999999996,6
10996,10996,2021-02-18 12:09:23.552,43.957504,6
11006,11006,2021-02-18 12:09:53.552,44.176643,6
11016,11016,2021-02-18 12:10:23.552,44.257175,6
11026,11026,2021-02-18 12:10:53.552,44.645584,6
11036,11036,2021-02-18 12:11:23.552,44.904697,6
11046,11046,2021-02-18 12:11:53.552,45.497868,6
11056,11056,2021-02-18 12:12:23.552,46.142185,6
11066,11066,2021-02-18 12:12:53.552,46.415997,6
11076,11076,2021-02-18 12:13:23.552,47.288222999999995,6
11086,11086,2021-02-18 12:13:53.552,47.92617,6
11096,11096,2021-02-18 12:14:23.552,49.22003,6
11106,11106,2021-02-18 12:14:53.552,50.29419,6
11116,11116,2021-02-18 12:15:23.552,51.727142,6
11126,11126,2021-02-18 12:15:53.552,52.34558,6
11136,11136,2021-02-18 12:16:23.552,53.295612,6
11146,11146,2021-02-18 12:16:53.552,54.054714000000004,6
11156,11156,2021-02-18 12:17:23.552,55.641135999999996,6
11166,11166,2021-02-18 12:17:53.552,57.013187,6
11176,11176,2021-02-18 12:18:23.552,59.25983000000001,6
11186,11186,2021-02-18 12:18:53.552,62.261677,6
11196,11196,2021-02-18 12:19:23.552,65.24559,6
11206,11206,2021-02-18 12:19:53.552,67.64106,6
11216,11216,2021-02-18 12:20:23.552,71.05355,6
11226,11226,2021-02-18 12:20:53.552,74.62462,6
11236,11236,2021-02-18 12:21:23.552,77.48739,6
11246,11246,2021-02-18 12:21:53.552,81.28801,6
11256,11256,2021-02-18 12:22:23.552,85.17128000000001,6
11266,11266,2021-02-18 12:22:53.552,88.774086,6
11276,11276,2021-02-18 12:23:23.552,92.42785,6
11286,11286,2021-02-18 12:23:53.552,96.0619,6
11296,11296,2021-02-18 12:24:23.552,102.85091,6
11306,11306,2021-02-18 12:24:53.552,109.18953,6
11316,11316,2021-02-18 12:25:23.552,119.80855600000001,6
11326,11326,2021-02-18 12:25:53.552,129.56255,6
11336,11336,2021-02-18 12:26:23.552,145.77743999999998,6
11346,11346,2021-02-18 12:26:53.552,161.95241000000001,6
11356,11356,2021-02-18 12:27:23.552,179.81493,6
11366,11366,2021-02-18 12:27:53.552,212.12642999999997,6
11376,11376,2021-02-18 12:28:23.552,243.66895,6
11386,11386,2021-02-18 12:28:53.552,294.06503,6
11396,11396,2021-02-18 12:29:23.552,348.15932999999995,6
11406,11406,2021-02-18 12:29:53.552,458.6687,6
11416,11416,2021-02-18 12:30:23.552,553.3402,6
11426,11426,2021-02-18 12:30:53.552,546.8642,6
11436,11436,2021-02-18 12:31:23.552,585.2607,6
11446,11446,2021-02-18 12:31:53.552,584.4427,6
11456,11456,2021-02-18 12:32:23.552,488.2441,6
11466,11466,2021-02-18 12:32:53.552,383.60565,6
11476,11476,2021-02-18 12:33:23.552,319.53024,6
11486,11486,2021-02-18 12:33:53.552,312.9208,6
11496,11496,2021-02-18 12:34:23.552,333.54865,6
11506,11506,2021-02-18 12:34:53.552,346.02263999999997,6
11516,11516,2021-02-18 12:35:23.552,365.4012,6
11526,11526,2021-02-18 12:35:53.552,86.40754,6
11536,11536,2021-02-18 12:36:23.552,71.40951,6
11546,11546,2021-02-18 12:36:53.552,53.858830000000005,6
