,Unnamed: 0,time,prediction,step
5242,5242,2021-02-10 07:47:34.683,2208.0513,2
5252,5252,2021-02-10 07:48:04.683,2231.8423,2
5262,5262,2021-02-10 07:48:34.683,2252.967,2
5272,5272,2021-02-10 07:49:04.683,2276.979,2
5282,5282,2021-02-10 07:49:34.683,2285.3916,2
5292,5292,2021-02-10 07:50:04.683,2145.871,2
5302,5302,2021-02-10 07:50:34.683,2141.8884,2
5312,5312,2021-02-10 07:51:04.683,2154.4539999999997,2
5322,5322,2021-02-10 07:51:34.683,2165.9610000000002,2
5332,5332,2021-02-10 07:52:04.683,2174.6584,2
5342,5342,2021-02-10 07:52:34.683,2185.2134,2
5352,5352,2021-02-10 07:53:04.683,2198.8645,2
5362,5362,2021-02-10 07:53:34.683,2204.2556,2
5372,5372,2021-02-10 07:54:04.683,2210.6199,2
5382,5382,2021-02-10 07:54:34.683,2225.0227,2
5392,5392,2021-02-10 07:55:04.683,2229.8806,2
5402,5402,2021-02-10 07:55:34.683,2232.593,2
5412,5412,2021-02-10 07:56:04.683,2242.676,2
5422,5422,2021-02-10 07:56:34.683,2229.1243,2
5432,5432,2021-02-10 07:57:04.683,2221.3704,2
5442,5442,2021-02-10 07:57:34.683,2214.791,2
5452,5452,2021-02-10 07:58:04.683,2207.3218,2
5462,5462,2021-02-10 07:58:34.683,2205.799,2
5472,5472,2021-02-10 07:59:04.683,2212.1543,2
5482,5482,2021-02-10 07:59:34.683,2219.0525,2
5492,5492,2021-02-10 08:00:04.683,2227.0273,2
5502,5502,2021-02-10 08:00:34.683,2238.073,2
5512,5512,2021-02-10 08:01:04.683,2245.7588,2
5522,5522,2021-02-10 08:01:34.683,2253.7263,2
5532,5532,2021-02-10 08:02:04.683,2274.6694,2
5542,5542,2021-02-10 08:02:34.683,2275.2517,2
5552,5552,2021-02-10 08:03:04.683,2278.9983,2
5562,5562,2021-02-10 08:03:34.683,2284.7483,2
5572,5572,2021-02-10 08:04:04.683,2296.0466,2
5582,5582,2021-02-10 08:04:34.683,2307.5444,2
5592,5592,2021-02-10 08:05:04.683,2321.549,2
5602,5602,2021-02-10 08:05:34.683,2333.9548,2
5612,5612,2021-02-10 08:06:04.683,2347.0332,2
5622,5622,2021-02-10 08:06:34.683,2358.5144,2
5632,5632,2021-02-10 08:07:04.683,2372.2737,2
5642,5642,2021-02-10 08:07:34.683,2371.4941,2
5652,5652,2021-02-10 08:08:04.683,2373.0818,2
5662,5662,2021-02-10 08:08:34.683,2371.2036,2
5672,5672,2021-02-10 08:09:04.683,2372.9502,2
5682,5682,2021-02-10 08:09:34.683,2378.692,2
5692,5692,2021-02-10 08:10:04.683,2383.6917,2
5702,5702,2021-02-10 08:10:34.683,2391.0305,2
5712,5712,2021-02-10 08:11:04.683,2400.2947,2
5722,5722,2021-02-10 08:11:34.683,2402.5874,2
5732,5732,2021-02-10 08:12:04.683,2414.6174,2
5742,5742,2021-02-10 08:12:34.683,2429.7166,2
5752,5752,2021-02-10 08:13:04.683,2426.3555,2
5762,5762,2021-02-10 08:13:34.683,2425.798,2
5772,5772,2021-02-10 08:14:04.683,2429.2175,2
5782,5782,2021-02-10 08:14:34.683,2432.834,2
5792,5792,2021-02-10 08:15:04.683,2438.833,2
5802,5802,2021-02-10 08:15:34.683,2448.942,2
5812,5812,2021-02-10 08:16:04.683,2460.6667,2
5822,5822,2021-02-10 08:16:34.683,2473.9875,2
5832,5832,2021-02-10 08:17:04.683,2491.2996,2
5842,5842,2021-02-10 08:17:34.683,2505.012,2
5852,5852,2021-02-10 08:18:04.683,2508.5662,2
5862,5862,2021-02-10 08:18:34.683,2514.4084,2
5872,5872,2021-02-10 08:19:04.683,2522.0947,2
5882,5882,2021-02-10 08:19:34.683,2532.4004,2
5892,5892,2021-02-10 08:20:04.683,2544.7026,2
5902,5902,2021-02-10 08:20:34.683,2559.2732,2
5912,5912,2021-02-10 08:21:04.683,2575.7021,2
5922,5922,2021-02-10 08:21:34.683,2593.2095,2
5932,5932,2021-02-10 08:22:04.683,2613.0127,2
5942,5942,2021-02-10 08:22:34.683,2612.6482,2
5952,5952,2021-02-10 08:23:04.683,2619.6033,2
5962,5962,2021-02-10 08:23:34.683,2623.1887,2
5972,5972,2021-02-10 08:24:04.683,2628.9368,2
5982,5982,2021-02-10 08:24:34.683,2637.8035,2
5992,5992,2021-02-10 08:25:04.683,2646.95,2
6002,6002,2021-02-10 08:25:34.683,2659.4556,2
6012,6012,2021-02-10 08:26:04.683,2674.4133,2
6022,6022,2021-02-10 08:26:34.683,2689.8965,2
6032,6032,2021-02-10 08:27:04.683,2710.1929999999998,2
6042,6042,2021-02-10 08:27:34.683,2711.1824,2
6052,6052,2021-02-10 08:28:04.683,2707.3520000000003,2
6062,6062,2021-02-10 08:28:34.683,2705.0366,2
6072,6072,2021-02-10 08:29:04.683,2704.9202,2
6082,6082,2021-02-10 08:29:34.683,2706.0190000000002,2
6092,6092,2021-02-10 08:30:04.683,2714.4578,2
6102,6102,2021-02-10 08:30:34.683,2725.1106,2
6112,6112,2021-02-10 08:31:04.683,2739.8142,2
6122,6122,2021-02-10 08:31:34.683,2739.0532,2
6132,6132,2021-02-10 08:32:04.683,2740.9453,2
6142,6142,2021-02-10 08:32:34.683,2745.7644,2
6152,6152,2021-02-10 08:33:04.683,2746.4192,2
6162,6162,2021-02-10 08:33:34.683,2748.1904,2
6172,6172,2021-02-10 08:34:04.683,2753.1897,2
6182,6182,2021-02-10 08:34:34.683,2761.7273,2
6192,6192,2021-02-10 08:35:04.683,2772.0879999999997,2
6202,6202,2021-02-10 08:35:34.683,2772.8567,2
6212,6212,2021-02-10 08:36:04.683,2776.805,2
6222,6222,2021-02-10 08:36:34.683,2782.6690000000003,2
6232,6232,2021-02-10 08:37:04.683,2791.4849,2
6242,6242,2021-02-10 08:37:34.683,2792.1208,2
6252,6252,2021-02-10 08:38:04.683,2800.2664,2
6262,6262,2021-02-10 08:38:34.683,2811.415,2
6272,6272,2021-02-10 08:39:04.683,2832.3767,2
6282,6282,2021-02-10 08:39:34.683,2832.2751,2
6292,6292,2021-02-10 08:40:04.683,2834.8552,2
6302,6302,2021-02-10 08:40:34.683,2839.8340000000003,2
6312,6312,2021-02-10 08:41:04.683,2846.7207,2
6322,6322,2021-02-10 08:41:34.683,2854.8590000000004,2
6332,6332,2021-02-10 08:42:04.683,2864.8237,2
6342,6342,2021-02-10 08:42:34.683,2870.0159,2
6352,6352,2021-02-10 08:43:04.683,2877.8289,2
6362,6362,2021-02-10 08:43:34.683,2872.2812,2
6372,6372,2021-02-10 08:44:04.683,2870.3728,2
6382,6382,2021-02-10 08:44:34.683,2870.1655,2
6392,6392,2021-02-10 08:45:04.683,2875.1638,2
6402,6402,2021-02-10 08:45:34.683,2883.4126,2
6412,6412,2021-02-10 08:46:04.683,2893.7195,2
6422,6422,2021-02-10 08:46:34.683,2905.614,2
6432,6432,2021-02-10 08:47:04.683,2901.4485,2
6442,6442,2021-02-10 08:47:34.683,2900.5383,2
6452,6452,2021-02-10 08:48:04.683,2902.3394,2
6462,6462,2021-02-10 08:48:34.683,2908.046,2
6472,6472,2021-02-10 08:49:04.683,2915.9927,2
6482,6482,2021-02-10 08:49:34.683,2926.2922,2
6492,6492,2021-02-10 08:50:04.683,2940.8733,2
6502,6502,2021-02-10 08:50:34.683,2937.85,2
6512,6512,2021-02-10 08:51:04.683,2938.4062,2
6522,6522,2021-02-10 08:51:34.683,2941.7397,2
6532,6532,2021-02-10 08:52:04.683,2945.6606,2
6542,6542,2021-02-10 08:52:34.683,2955.7070000000003,2
6552,6552,2021-02-10 08:53:04.683,2956.2776,2
6562,6562,2021-02-10 08:53:34.683,2960.5286,2
6572,6572,2021-02-10 08:54:04.683,2964.1420000000003,2
6582,6582,2021-02-10 08:54:34.683,2964.61,2
6592,6592,2021-02-10 08:55:04.683,2970.3054,2
6602,6602,2021-02-10 08:55:34.683,2977.8904,2
6612,6612,2021-02-10 08:56:04.683,2974.9636,2
6622,6622,2021-02-10 08:56:34.683,2976.0046,2
6632,6632,2021-02-10 08:57:04.683,2980.6455,2
6642,6642,2021-02-10 08:57:34.683,2988.4172,2
6652,6652,2021-02-10 08:58:04.683,2998.6492,2
6662,6662,2021-02-10 08:58:34.683,3005.136,2
6672,6672,2021-02-10 08:59:04.683,2997.4246,2
6682,6682,2021-02-10 08:59:34.683,2995.8918,2
6692,6692,2021-02-10 09:00:04.683,2997.1147,2
6702,6702,2021-02-10 09:00:34.683,3001.0066,2
6712,6712,2021-02-10 09:01:04.683,2997.2990000000004,2
6722,6722,2021-02-10 09:01:34.683,2998.3718,2
6732,6732,2021-02-10 09:02:04.683,2995.2874,2
6742,6742,2021-02-10 09:02:34.683,2995.0098,2
6752,6752,2021-02-10 09:03:04.683,2998.366,2
6762,6762,2021-02-10 09:03:34.683,2993.785,2
6772,6772,2021-02-10 09:04:04.683,2991.4717,2
6782,6782,2021-02-10 09:04:34.683,2995.6357,2
6792,6792,2021-02-10 09:05:04.683,2999.2476,2
6802,6802,2021-02-10 09:05:34.683,2992.093,2
6812,6812,2021-02-10 09:06:04.683,2987.8086,2
6822,6822,2021-02-10 09:06:34.683,2986.8528,2
6832,6832,2021-02-10 09:07:04.683,2987.8508,2
6842,6842,2021-02-10 09:07:34.683,2983.2148,2
6852,6852,2021-02-10 09:08:04.683,2976.1865,2
6862,6862,2021-02-10 09:08:34.683,2991.2778,2
