,Unnamed: 0,time,prediction,step
7866,7866,2021-02-09 14:53:39.866,13.168407,6
7876,7876,2021-02-09 14:54:09.866,13.304504000000001,6
7886,7886,2021-02-09 14:54:39.866,13.655938,6
7896,7896,2021-02-09 14:55:09.866,13.876935000000001,6
7906,7906,2021-02-09 14:55:39.866,13.976779,6
7916,7916,2021-02-09 14:56:09.866,14.29831,6
7926,7926,2021-02-09 14:56:39.866,14.477245000000002,6
7936,7936,2021-02-09 14:57:09.866,14.528739000000002,6
7946,7946,2021-02-09 14:57:39.866,15.089044,6
7956,7956,2021-02-09 14:58:09.866,15.525085,6
7966,7966,2021-02-09 14:58:39.866,15.840964999999999,6
7976,7976,2021-02-09 14:59:09.866,16.219929,6
7986,7986,2021-02-09 14:59:39.866,16.496632,6
7996,7996,2021-02-09 15:00:09.866,16.687817000000003,6
8006,8006,2021-02-09 15:00:39.866,16.807535,6
8016,8016,2021-02-09 15:01:09.866,16.857872,6
8026,8026,2021-02-09 15:01:39.866,16.840310000000002,6
8036,8036,2021-02-09 15:02:09.866,16.755415,6
8046,8046,2021-02-09 15:02:39.866,16.609653,6
8056,8056,2021-02-09 15:03:09.866,16.583351,6
8066,8066,2021-02-09 15:03:39.866,16.688797,6
8076,8076,2021-02-09 15:04:09.866,16.758236,6
8086,8086,2021-02-09 15:04:39.866,16.80408,6
8096,8096,2021-02-09 15:05:09.866,16.95433,6
8106,8106,2021-02-09 15:05:39.866,17.092589999999998,6
8116,8116,2021-02-09 15:06:09.866,17.219929,6
8126,8126,2021-02-09 15:06:39.866,17.335151999999997,6
8136,8136,2021-02-09 15:07:09.866,17.434504999999998,6
8146,8146,2021-02-09 15:07:39.866,17.511608,6
8156,8156,2021-02-09 15:08:09.866,17.557516,6
8166,8166,2021-02-09 15:08:39.866,17.559639999999998,6
8176,8176,2021-02-09 15:09:09.866,17.497917,6
8186,8186,2021-02-09 15:09:39.866,17.52414,6
8196,8196,2021-02-09 15:10:09.866,17.506437,6
8206,8206,2021-02-09 15:10:39.866,17.425179,6
8216,8216,2021-02-09 15:11:09.866,17.447110000000002,6
8226,8226,2021-02-09 15:11:39.866,17.44095,6
8236,8236,2021-02-09 15:12:09.866,17.395985,6
8246,8246,2021-02-09 15:12:39.866,17.439042999999998,6
8256,8256,2021-02-09 15:13:09.866,17.475847,6
8266,8266,2021-02-09 15:13:39.866,17.50583,6
8276,8276,2021-02-09 15:14:09.866,17.528192999999998,6
8286,8286,2021-02-09 15:14:39.866,17.541807000000002,6
8296,8296,2021-02-09 15:15:09.866,17.545042000000002,6
8306,8306,2021-02-09 15:15:39.866,17.53538,6
8316,8316,2021-02-09 15:16:09.866,17.508598000000003,6
8326,8326,2021-02-09 15:16:39.866,17.456526,6
8336,8336,2021-02-09 15:17:09.866,17.358324,6
8346,8346,2021-02-09 15:17:39.866,17.492264000000002,6
8356,8356,2021-02-09 15:18:09.866,17.725048,6
8366,8366,2021-02-09 15:18:39.866,17.912092,6
8376,8376,2021-02-09 15:19:09.866,18.074131,6
8386,8386,2021-02-09 15:19:39.866,18.219275,6
8396,8396,2021-02-09 15:20:09.866,18.351692,6
8406,8406,2021-02-09 15:20:39.866,18.473858,6
8416,8416,2021-02-09 15:21:09.866,18.58736,6
8426,8426,2021-02-09 15:21:39.866,18.693289,6
8436,8436,2021-02-09 15:22:09.866,18.792398000000002,6
8446,8446,2021-02-09 15:22:39.866,18.885239000000002,6
8456,8456,2021-02-09 15:23:09.866,18.972193,6
8466,8466,2021-02-09 15:23:39.866,19.053535,6
8476,8476,2021-02-09 15:24:09.866,19.129438,6
8486,8486,2021-02-09 15:24:39.866,19.199995,6
8496,8496,2021-02-09 15:25:09.866,19.265223000000002,6
8506,8506,2021-02-09 15:25:39.866,19.325067999999998,6
8516,8516,2021-02-09 15:26:09.866,19.379402,6
8526,8526,2021-02-09 15:26:39.866,19.428017,6
8536,8536,2021-02-09 15:27:09.866,19.470598000000003,6
8546,8546,2021-02-09 15:27:39.866,19.506714000000002,6
8556,8556,2021-02-09 15:28:09.866,19.535774,6
8566,8566,2021-02-09 15:28:39.866,19.556955,6
8576,8576,2021-02-09 15:29:09.866,19.569109,6
8586,8586,2021-02-09 15:29:39.866,19.570545000000003,6
8596,8596,2021-02-09 15:30:09.866,19.558685,6
8606,8606,2021-02-09 15:30:39.866,19.559313,6
8616,8616,2021-02-09 15:31:09.866,19.559858,6
8626,8626,2021-02-09 15:31:39.866,19.768559,6
8636,8636,2021-02-09 15:32:09.866,19.915802,6
8646,8646,2021-02-09 15:32:39.866,19.993156,6
8656,8656,2021-02-09 15:33:09.866,20.192632999999997,6
8666,8666,2021-02-09 15:33:39.866,20.29413,6
8676,8676,2021-02-09 15:34:09.866,20.33425,6
8686,8686,2021-02-09 15:34:39.866,20.33004,6
8696,8696,2021-02-09 15:35:09.866,20.291114999999998,6
8706,8706,2021-02-09 15:35:39.866,20.223536,6
8716,8716,2021-02-09 15:36:09.866,20.131367,6
8726,8726,2021-02-09 15:36:39.866,20.017445000000002,6
8736,8736,2021-02-09 15:37:09.866,19.883802,6
8746,8746,2021-02-09 15:37:39.866,19.731904999999998,6
8756,8756,2021-02-09 15:38:09.866,19.562778,6
8766,8766,2021-02-09 15:38:39.866,19.377095999999998,6
