,Unnamed: 0,time,prediction,step
9607,9607,2020-11-16 09:50:36.187,5975.615,7
9617,9617,2020-11-16 09:51:06.187,5945.7056,7
9627,9627,2020-11-16 09:51:36.187,5915.798000000001,7
9637,9637,2020-11-16 09:52:06.187,5885.8926,7
9647,9647,2020-11-16 09:52:36.187,5855.9883,7
9657,9657,2020-11-16 09:53:06.187,5826.085999999999,7
9667,9667,2020-11-16 09:53:36.187,5796.1855,7
9677,9677,2020-11-16 09:54:06.187,5766.286999999999,7
9687,9687,2020-11-16 09:54:36.187,5736.39,7
9697,9697,2020-11-16 09:55:06.187,5706.4946,7
9707,9707,2020-11-16 09:55:36.187,5676.601,7
9717,9717,2020-11-16 09:56:06.187,5646.7095,7
9727,9727,2020-11-16 09:56:36.187,5616.82,7
9737,9737,2020-11-16 09:57:06.187,5586.9316,7
9747,9747,2020-11-16 09:57:36.187,5557.0454,7
9757,9757,2020-11-16 09:58:06.187,5527.161,7
9767,9767,2020-11-16 09:58:36.187,5497.2783,7
9777,9777,2020-11-16 09:59:06.187,5467.3975,7
9787,9787,2020-11-16 09:59:36.187,5437.518,7
9797,9797,2020-11-16 10:00:06.187,5407.6406,7
9807,9807,2020-11-16 10:00:36.187,5377.7646,7
9817,9817,2020-11-16 10:01:06.187,5347.8906,7
9827,9827,2020-11-16 10:01:36.187,5318.018,7
9837,9837,2020-11-16 10:02:06.187,5288.1475,7
9847,9847,2020-11-16 10:02:36.187,5258.2783,7
9857,9857,2020-11-16 10:03:06.187,5228.41,7
9867,9867,2020-11-16 10:03:36.187,5198.5444,7
9877,9877,2020-11-16 10:04:06.187,5168.6797,7
9887,9887,2020-11-16 10:04:36.187,5138.8164,7
9897,9897,2020-11-16 10:05:06.187,5108.955,7
9907,9907,2020-11-16 10:05:36.187,5079.0947,7
9917,9917,2020-11-16 10:06:06.187,5049.2363,7
9927,9927,2020-11-16 10:06:36.187,5019.379,7
9937,9937,2020-11-16 10:07:06.187,4989.5225,7
9947,9947,2020-11-16 10:07:36.187,4959.6675,7
9957,9957,2020-11-16 10:08:06.187,4929.814,7
9967,9967,2020-11-16 10:08:36.187,4899.9614,7
9977,9977,2020-11-16 10:09:06.187,4870.1094,7
9987,9987,2020-11-16 10:09:36.187,4840.2593,7
9997,9997,2020-11-16 10:10:06.187,4810.41,7
10007,10007,2020-11-16 10:10:36.187,4780.562,7
10017,10017,2020-11-16 10:11:06.187,4750.7153,7
10027,10027,2020-11-16 10:11:36.187,4720.869000000001,7
10037,10037,2020-11-16 10:12:06.187,4691.0244,7
10047,10047,2020-11-16 10:12:36.187,4661.18,7
10057,10057,2020-11-16 10:13:06.187,4631.337,7
10067,10067,2020-11-16 10:13:36.187,4601.495,7
10077,10077,2020-11-16 10:14:06.187,4571.6533,7
10087,10087,2020-11-16 10:14:36.187,4541.8125,7
10097,10097,2020-11-16 10:15:06.187,4511.972,7
10107,10107,2020-11-16 10:15:36.187,4482.1323,7
10117,10117,2020-11-16 10:16:06.187,4452.2935,7
10127,10127,2020-11-16 10:16:36.187,4422.4546,7
10137,10137,2020-11-16 10:17:06.187,4392.6167,7
10147,10147,2020-11-16 10:17:36.187,4362.779,7
10157,10157,2020-11-16 10:18:06.187,4332.9414,7
10167,10167,2020-11-16 10:18:36.187,4303.105,7
10177,10177,2020-11-16 10:19:06.187,4273.269,7
10187,10187,2020-11-16 10:19:36.187,4243.434,7
10197,10197,2020-11-16 10:20:06.187,4213.599,7
10207,10207,2020-11-16 10:20:36.187,4183.765,7
10217,10217,2020-11-16 10:21:06.187,4153.9316,7
10227,10227,2020-11-16 10:21:36.187,4124.0986,7
10237,10237,2020-11-16 10:22:06.187,4094.2651,7
10247,10247,2020-11-16 10:22:36.187,4064.4304,7
10257,10257,2020-11-16 10:23:06.187,4034.5952,7
10267,10267,2020-11-16 10:23:36.187,4004.7585,7
10277,10277,2020-11-16 10:24:06.187,3974.9207,7
10287,10287,2020-11-16 10:24:36.187,3945.0815,7
10297,10297,2020-11-16 10:25:06.187,3915.2412,7
10307,10307,2020-11-16 10:25:36.187,3885.3992,7
10317,10317,2020-11-16 10:26:06.187,3855.5557,7
10327,10327,2020-11-16 10:26:36.187,3825.7104,7
10337,10337,2020-11-16 10:27:06.187,3795.8633,7
10347,10347,2020-11-16 10:27:36.187,3766.0142,7
10357,10357,2020-11-16 10:28:06.187,3736.1633,7
10367,10367,2020-11-16 10:28:36.187,3706.3103,7
10377,10377,2020-11-16 10:29:06.187,3676.4548,7
10387,10387,2020-11-16 10:29:36.187,3646.5977,7
10397,10397,2020-11-16 10:30:06.187,3616.7385,7
10407,10407,2020-11-16 10:30:36.187,3586.877,7
10417,10417,2020-11-16 10:31:06.187,3557.0132,7
10427,10427,2020-11-16 10:31:36.187,3527.147,7
10437,10437,2020-11-16 10:32:06.187,3497.2778,7
10447,10447,2020-11-16 10:32:36.187,3467.4055,7
10457,10457,2020-11-16 10:33:06.187,3437.5308,7
10467,10467,2020-11-16 10:33:36.187,3407.6533,7
10477,10477,2020-11-16 10:34:06.187,3377.7725,7
10487,10487,2020-11-16 10:34:36.187,3347.889,7
10497,10497,2020-11-16 10:35:06.187,3318.0024,7
10507,10507,2020-11-16 10:35:36.187,3288.1128,7
10517,10517,2020-11-16 10:36:06.187,3258.2207,7
10527,10527,2020-11-16 10:36:36.187,3228.3254,7
10537,10537,2020-11-16 10:37:06.187,3198.4277,7
10547,10547,2020-11-16 10:37:36.187,3168.5273,7
10557,10557,2020-11-16 10:38:06.187,3138.6245,7
10567,10567,2020-11-16 10:38:36.187,3108.7195,7
10577,10577,2020-11-16 10:39:06.187,3078.812,7
10587,10587,2020-11-16 10:39:36.187,3048.9023,7
10597,10597,2020-11-16 10:40:06.187,3018.9907,7
10607,10607,2020-11-16 10:40:36.187,2989.077,7
10617,10617,2020-11-16 10:41:06.187,2959.1614,7
10627,10627,2020-11-16 10:41:36.187,2929.2437,7
10637,10637,2020-11-16 10:42:06.187,2899.3242,7
10647,10647,2020-11-16 10:42:36.187,2869.4033,7
10657,10657,2020-11-16 10:43:06.187,2839.4802,7
10667,10667,2020-11-16 10:43:36.187,2809.5554,7
10677,10677,2020-11-16 10:44:06.187,2779.6290000000004,7
10687,10687,2020-11-16 10:44:36.187,2749.7004,7
10697,10697,2020-11-16 10:45:06.187,2719.77,7
10707,10707,2020-11-16 10:45:36.187,2689.8374,7
10717,10717,2020-11-16 10:46:06.187,2659.903,7
10727,10727,2020-11-16 10:46:36.187,2629.9666,7
10737,10737,2020-11-16 10:47:06.187,2600.0278,7
10747,10747,2020-11-16 10:47:36.187,2570.087,7
10757,10757,2020-11-16 10:48:06.187,2540.1436,7
10767,10767,2020-11-16 10:48:36.187,2510.1978,7
10777,10777,2020-11-16 10:49:06.187,2480.2493,7
10787,10787,2020-11-16 10:49:36.187,2450.2983,7
10797,10797,2020-11-16 10:50:06.187,2420.3447,7
10807,10807,2020-11-16 10:50:36.187,2390.3884,7
10817,10817,2020-11-16 10:51:06.187,2360.4292,7
10827,10827,2020-11-16 10:51:36.187,2330.4673,7
10837,10837,2020-11-16 10:52:06.187,2300.5022,7
10847,10847,2020-11-16 10:52:36.187,2270.5342,7
10857,10857,2020-11-16 10:53:06.187,2240.563,7
10867,10867,2020-11-16 10:53:36.187,2210.5884,7
10877,10877,2020-11-16 10:54:06.187,2180.6108,7
10887,10887,2020-11-16 10:54:36.187,2150.6294,7
10897,10897,2020-11-16 10:55:06.187,2120.645,7
10907,10907,2020-11-16 10:55:36.187,2090.657,7
10917,10917,2020-11-16 10:56:06.187,2060.6655,7
10927,10927,2020-11-16 10:56:36.187,2030.6705,7
10937,10937,2020-11-16 10:57:06.187,2000.6719,7
10947,10947,2020-11-16 10:57:36.187,1970.6694,7
10957,10957,2020-11-16 10:58:06.187,1940.6632,7
10967,10967,2020-11-16 10:58:36.187,1910.6536,7
10977,10977,2020-11-16 10:59:06.187,1880.6401,7
10987,10987,2020-11-16 10:59:36.187,1850.6227,7
10997,10997,2020-11-16 11:00:06.187,1820.6016,7
11007,11007,2020-11-16 11:00:36.187,1790.5764,7
11017,11017,2020-11-16 11:01:06.187,1760.5471,7
11027,11027,2020-11-16 11:01:36.187,1730.514,7
11037,11037,2020-11-16 11:02:06.187,1700.4769,7
11047,11047,2020-11-16 11:02:36.187,1670.4358,7
11057,11057,2020-11-16 11:03:06.187,1640.3904,7
11067,11067,2020-11-16 11:03:36.187,1610.3410000000001,7
11077,11077,2020-11-16 11:04:06.187,1580.287,7
11087,11087,2020-11-16 11:04:36.187,1550.2289,7
11097,11097,2020-11-16 11:05:06.187,1520.1666,7
11107,11107,2020-11-16 11:05:36.187,1490.0997,7
11117,11117,2020-11-16 11:06:06.187,1460.0286,7
11127,11127,2020-11-16 11:06:36.187,1429.953,7
11137,11137,2020-11-16 11:07:06.187,1399.8728,7
11147,11147,2020-11-16 11:07:36.187,1369.7879999999998,7
11157,11157,2020-11-16 11:08:06.187,1339.6985,7
11167,11167,2020-11-16 11:08:36.187,1309.6041,7
11177,11177,2020-11-16 11:09:06.187,1279.5048,7
11187,11187,2020-11-16 11:09:36.187,1249.4004,7
11197,11197,2020-11-16 11:10:06.187,1219.2908,7
11207,11207,2020-11-16 11:10:36.187,1189.1755,7
11217,11217,2020-11-16 11:11:06.187,1159.0548,7
11227,11227,2020-11-16 11:11:36.187,1128.9281,7
11237,11237,2020-11-16 11:12:06.187,1098.7952,7
11247,11247,2020-11-16 11:12:36.187,1068.6556,7
11257,11257,2020-11-16 11:13:06.187,1038.5093,7
11267,11267,2020-11-16 11:13:36.187,1008.35565,7
11277,11277,2020-11-16 11:14:06.187,978.1939,7
11287,11287,2020-11-16 11:14:36.187,948.0238,7
11297,11297,2020-11-16 11:15:06.187,917.8446,7
11307,11307,2020-11-16 11:15:36.187,887.6553,7
11317,11317,2020-11-16 11:16:06.187,857.45514,7
11327,11327,2020-11-16 11:16:36.187,827.24255,7
11337,11337,2020-11-16 11:17:06.187,797.0169,7
11347,11347,2020-11-16 11:17:36.187,766.7760000000001,7
11357,11357,2020-11-16 11:18:06.187,736.5183,7
11367,11367,2020-11-16 11:18:36.187,706.24133,7
11377,11377,2020-11-16 11:19:06.187,675.9424,7
11387,11387,2020-11-16 11:19:36.187,645.618,7
11397,11397,2020-11-16 11:20:06.187,615.2641,7
11407,11407,2020-11-16 11:20:36.187,584.8755,7
11417,11417,2020-11-16 11:21:06.187,554.4456,7
11427,11427,2020-11-16 11:21:36.187,523.9663,7
11437,11437,2020-11-16 11:22:06.187,493.42715,7
11447,11447,2020-11-16 11:22:36.187,462.8141,7
11457,11457,2020-11-16 11:23:06.187,432.11185,7
11467,11467,2020-11-16 11:23:36.187,401.30096000000003,7
11477,11477,2020-11-16 11:24:06.187,370.3515,7
11487,11487,2020-11-16 11:24:36.187,339.22107,7
11497,11497,2020-11-16 11:25:06.187,307.84866,7
11507,11507,2020-11-16 11:25:36.187,276.14612,7
11517,11517,2020-11-16 11:26:06.187,243.97827,7
11527,11527,2020-11-16 11:26:36.187,211.11028,7
11537,11537,2020-11-16 11:27:06.187,177.11964,7
11547,11547,2020-11-16 11:27:36.187,141.2706,7
11557,11557,2020-11-16 11:28:06.187,102.68099000000001,7
11567,11567,2020-11-16 11:28:36.187,61.83575,7
11577,11577,2020-11-16 11:29:06.187,16.539406,7
11587,11587,2020-11-16 11:29:36.187,-36.26932,7
11597,11597,2020-11-16 11:30:06.187,-63.021,7
11607,11607,2020-11-16 11:30:36.187,20.390863,7
11617,11617,2020-11-16 11:31:06.187,256.8771,7
11627,11627,2020-11-16 11:31:36.187,371.52222,7
11637,11637,2020-11-16 11:32:06.187,403.38907,7
11647,11647,2020-11-16 11:32:36.187,403.24252,7
11657,11657,2020-11-16 11:33:06.187,388.03775,7
11667,11667,2020-11-16 11:33:36.187,365.64502000000005,7
11677,11677,2020-11-16 11:34:06.187,339.4443,7
11687,11687,2020-11-16 11:34:36.187,311.0949,7
11697,11697,2020-11-16 11:35:06.187,283.91397,7
11707,11707,2020-11-16 11:35:36.187,259.57898,7
11717,11717,2020-11-16 11:36:06.187,238.3304,7
11727,11727,2020-11-16 11:36:36.187,220.23549,7
11737,11737,2020-11-16 11:37:06.187,205.26053000000002,7
11747,11747,2020-11-16 11:37:36.187,193.30142,7
11757,11757,2020-11-16 11:38:06.187,184.19388,7
11767,11767,2020-11-16 11:38:36.187,177.71498,7
11777,11777,2020-11-16 11:39:06.187,173.5684,7
11787,11787,2020-11-16 11:39:36.187,171.3854,7
11797,11797,2020-11-16 11:40:06.187,170.69398,7
11807,11807,2020-11-16 11:40:36.187,170.89648,7
11817,11817,2020-11-16 11:41:06.187,171.44331,7
11827,11827,2020-11-16 11:41:36.187,172.14485,7
11837,11837,2020-11-16 11:42:06.187,173.11569,7
11847,11847,2020-11-16 11:42:36.187,174.56099,7
11857,11857,2020-11-16 11:43:06.187,176.66713000000001,7
11867,11867,2020-11-16 11:43:36.187,179.62437,7
11877,11877,2020-11-16 11:44:06.187,183.64993,7
11887,11887,2020-11-16 11:44:36.187,188.96732,7
11897,11897,2020-11-16 11:45:06.187,195.80033999999998,7
11907,11907,2020-11-16 11:45:36.187,204.37453,7
11917,11917,2020-11-16 11:46:06.187,214.90846000000002,7
11927,11927,2020-11-16 11:46:36.187,227.60123,7
11937,11937,2020-11-16 11:47:06.187,242.62407000000002,7
11947,11947,2020-11-16 11:47:36.187,260.11957,7
11957,11957,2020-11-16 11:48:06.187,280.19565,7
11967,11967,2020-11-16 11:48:36.187,302.91083,7
11977,11977,2020-11-16 11:49:06.187,328.2314,7
11987,11987,2020-11-16 11:49:36.187,355.9362,7
11997,11997,2020-11-16 11:50:06.187,383.43723,7
12007,12007,2020-11-16 11:50:36.187,408.97696,7
12017,12017,2020-11-16 11:51:06.187,430.67315999999994,7
12027,12027,2020-11-16 11:51:36.187,444.94485,7
12037,12037,2020-11-16 11:52:06.187,443.43298,7
12047,12047,2020-11-16 11:52:36.187,410.72925,7
12057,12057,2020-11-16 11:53:06.187,310.63428,7
12067,12067,2020-11-16 11:53:36.187,119.56093999999999,7
12077,12077,2020-11-16 11:54:06.187,2.9605202999999998,7
12087,12087,2020-11-16 11:54:36.187,-1.1216612,7
12097,12097,2020-11-16 11:55:06.187,32.44695,7
12107,12107,2020-11-16 11:55:36.187,77.11653000000001,7
12117,12117,2020-11-16 11:56:06.187,121.6351,7
12127,12127,2020-11-16 11:56:36.187,161.2015,7
12137,12137,2020-11-16 11:57:06.187,196.64018000000002,7
12147,12147,2020-11-16 11:57:36.187,229.65385,7
12157,12157,2020-11-16 11:58:06.187,261.39547999999996,7
12167,12167,2020-11-16 11:58:36.187,292.4835,7
12177,12177,2020-11-16 11:59:06.187,323.21814,7
12187,12187,2020-11-16 11:59:36.187,353.745,7
12197,12197,2020-11-16 12:00:06.187,384.14083999999997,7
12207,12207,2020-11-16 12:00:36.187,414.4478,7
12217,12217,2020-11-16 12:01:06.187,444.6911,7
12227,12227,2020-11-16 12:01:36.187,474.88513,7
12237,12237,2020-11-16 12:02:06.187,505.0392,7
12247,12247,2020-11-16 12:02:36.187,535.1614,7
12257,12257,2020-11-16 12:03:06.187,565.2573,7
12267,12267,2020-11-16 12:03:36.187,595.3315,7
12277,12277,2020-11-16 12:04:06.187,625.3876,7
12287,12287,2020-11-16 12:04:36.187,655.428,7
12297,12297,2020-11-16 12:05:06.187,685.4554400000001,7
12307,12307,2020-11-16 12:05:36.187,715.47144,7
12317,12317,2020-11-16 12:06:06.187,745.4775400000001,7
12327,12327,2020-11-16 12:06:36.187,775.4753400000001,7
12337,12337,2020-11-16 12:07:06.187,805.46533,7
12347,12347,2020-11-16 12:07:36.187,835.449,7
