,Unnamed: 0,time,prediction,step
3810,3810,2021-02-18 14:14:47.715,6200.781,0
3820,3820,2021-02-18 14:15:17.715,6170.7964,0
3830,3830,2021-02-18 14:15:47.715,6140.813,0
3840,3840,2021-02-18 14:16:17.715,6110.8306,0
3850,3850,2021-02-18 14:16:47.715,6080.848000000001,0
3860,3860,2021-02-18 14:17:17.715,6050.866999999999,0
3870,3870,2021-02-18 14:17:47.715,6020.8867,0
3880,3880,2021-02-18 14:18:17.715,5990.906999999999,0
3890,3890,2021-02-18 14:18:47.715,5960.928000000001,0
3900,3900,2021-02-18 14:19:17.715,5930.95,0
3910,3910,2021-02-18 14:19:47.715,5900.9727,0
3920,3920,2021-02-18 14:20:17.715,5870.9956,0
3930,3930,2021-02-18 14:20:47.715,5841.0195,0
3940,3940,2021-02-18 14:21:17.715,5811.044,0
3950,3950,2021-02-18 14:21:47.715,5781.0693,0
3960,3960,2021-02-18 14:22:17.715,5751.095,0
3970,3970,2021-02-18 14:22:47.715,5721.1216,0
3980,3980,2021-02-18 14:23:17.715,5691.1484,0
3990,3990,2021-02-18 14:23:47.715,5661.1753,0
4000,4000,2021-02-18 14:24:17.715,5631.203,0
4010,4010,2021-02-18 14:24:47.715,5601.232,0
4020,4020,2021-02-18 14:25:17.715,5571.2603,0
4030,4030,2021-02-18 14:25:47.715,5541.2905,0
4040,4040,2021-02-18 14:26:17.715,5511.3203,0
4050,4050,2021-02-18 14:26:47.715,5481.351,0
4060,4060,2021-02-18 14:27:17.715,5451.3833,0
4070,4070,2021-02-18 14:27:47.715,5421.4155,0
4080,4080,2021-02-18 14:28:17.715,5391.4487,0
4090,4090,2021-02-18 14:28:47.715,5361.483,0
4100,4100,2021-02-18 14:29:17.715,5331.5176,0
4110,4110,2021-02-18 14:29:47.715,5301.553000000001,0
4120,4120,2021-02-18 14:30:17.715,5271.59,0
4130,4130,2021-02-18 14:30:47.715,5241.627,0
4140,4140,2021-02-18 14:31:17.715,5211.6655,0
4150,4150,2021-02-18 14:31:47.715,5181.7046,0
4160,4160,2021-02-18 14:32:17.715,5151.7446,0
4170,4170,2021-02-18 14:32:47.715,5121.786,0
4180,4180,2021-02-18 14:33:17.715,5091.8286,0
4190,4190,2021-02-18 14:33:47.715,5061.872,0
4200,4200,2021-02-18 14:34:17.715,5031.9165,0
4210,4210,2021-02-18 14:34:47.715,5001.9624,0
4220,4220,2021-02-18 14:35:17.715,4972.01,0
4230,4230,2021-02-18 14:35:47.715,4942.058,0
4240,4240,2021-02-18 14:36:17.715,4912.1074,0
4250,4250,2021-02-18 14:36:47.715,4882.1587,0
4260,4260,2021-02-18 14:37:17.715,4852.210999999999,0
4270,4270,2021-02-18 14:37:47.715,4822.265,0
4280,4280,2021-02-18 14:38:17.715,4792.32,0
4290,4290,2021-02-18 14:38:47.715,4762.377,0
4300,4300,2021-02-18 14:39:17.715,4732.435,0
4310,4310,2021-02-18 14:39:47.715,4702.495,0
4320,4320,2021-02-18 14:40:17.715,4672.556,0
4330,4330,2021-02-18 14:40:47.715,4642.619000000001,0
4340,4340,2021-02-18 14:41:17.715,4612.6836,0
4350,4350,2021-02-18 14:41:47.715,4582.7495,0
4360,4360,2021-02-18 14:42:17.715,4552.817,0
4370,4370,2021-02-18 14:42:47.715,4522.8853,0
4380,4380,2021-02-18 14:43:17.715,4492.9556,0
4390,4390,2021-02-18 14:43:47.715,4463.027,0
4400,4400,2021-02-18 14:44:17.715,4433.1,0
4410,4410,2021-02-18 14:44:47.715,4403.175,0
4420,4420,2021-02-18 14:45:17.715,4373.251,0
4430,4430,2021-02-18 14:45:47.715,4343.3286,0
4440,4440,2021-02-18 14:46:17.715,4313.407999999999,0
4450,4450,2021-02-18 14:46:47.715,4283.4890000000005,0
4460,4460,2021-02-18 14:47:17.715,4253.5713,0
4470,4470,2021-02-18 14:47:47.715,4223.6543,0
4480,4480,2021-02-18 14:48:17.715,4193.7390000000005,0
4490,4490,2021-02-18 14:48:47.715,4163.8247,0
4500,4500,2021-02-18 14:49:17.715,4133.912,0
4510,4510,2021-02-18 14:49:47.715,4104.0005,0
4520,4520,2021-02-18 14:50:17.715,4074.0890000000004,0
4530,4530,2021-02-18 14:50:47.715,4044.179,0
4540,4540,2021-02-18 14:51:17.715,4014.2695,0
4550,4550,2021-02-18 14:51:47.715,3984.3604,0
4560,4560,2021-02-18 14:52:17.715,3954.4517,0
4570,4570,2021-02-18 14:52:47.715,3924.5437,0
4580,4580,2021-02-18 14:53:17.715,3894.6357,0
4590,4590,2021-02-18 14:53:47.715,3864.7283,0
4600,4600,2021-02-18 14:54:17.715,3834.821,0
4610,4610,2021-02-18 14:54:47.715,3804.9138,0
4620,4620,2021-02-18 14:55:17.715,3775.0068,0
4630,4630,2021-02-18 14:55:47.715,3745.0996,0
4640,4640,2021-02-18 14:56:17.715,3715.1924,0
4650,4650,2021-02-18 14:56:47.715,3685.2847,0
4660,4660,2021-02-18 14:57:17.715,3655.3765,0
4670,4670,2021-02-18 14:57:47.715,3625.468,0
4680,4680,2021-02-18 14:58:17.715,3595.559,0
4690,4690,2021-02-18 14:58:47.715,3565.6497,0
4700,4700,2021-02-18 14:59:17.715,3535.7397,0
4710,4710,2021-02-18 14:59:47.715,3505.8293,0
4720,4720,2021-02-18 15:00:17.715,3475.9185,0
4730,4730,2021-02-18 15:00:47.715,3446.007,0
4740,4740,2021-02-18 15:01:17.715,3416.095,0
4750,4750,2021-02-18 15:01:47.715,3386.1821,0
4760,4760,2021-02-18 15:02:17.715,3356.2686,0
4770,4770,2021-02-18 15:02:47.715,3326.3545,0
4780,4780,2021-02-18 15:03:17.715,3296.4395,0
4790,4790,2021-02-18 15:03:47.715,3266.5242,0
4800,4800,2021-02-18 15:04:17.715,3236.6077,0
4810,4810,2021-02-18 15:04:47.715,3206.6907,0
4820,4820,2021-02-18 15:05:17.715,3176.7727,0
4830,4830,2021-02-18 15:05:47.715,3146.8542,0
4840,4840,2021-02-18 15:06:17.715,3116.9348,0
4850,4850,2021-02-18 15:06:47.715,3087.0146,0
4860,4860,2021-02-18 15:07:17.715,3057.0935,0
4870,4870,2021-02-18 15:07:47.715,3027.1719,0
4880,4880,2021-02-18 15:08:17.715,2997.2490000000003,0
4890,4890,2021-02-18 15:08:47.715,2967.3254,0
4900,4900,2021-02-18 15:09:17.715,2937.4011,0
4910,4910,2021-02-18 15:09:47.715,2907.4758,0
4920,4920,2021-02-18 15:10:17.715,2877.5496,0
4930,4930,2021-02-18 15:10:47.715,2847.6223,0
4940,4940,2021-02-18 15:11:17.715,2817.6943,0
4950,4950,2021-02-18 15:11:47.715,2787.7651,0
4960,4960,2021-02-18 15:12:17.715,2757.8352,0
4970,4970,2021-02-18 15:12:47.715,2727.9040000000005,0
4980,4980,2021-02-18 15:13:17.715,2697.9717,0
4990,4990,2021-02-18 15:13:47.715,2668.0383,0
5000,5000,2021-02-18 15:14:17.715,2638.1040000000003,0
5010,5010,2021-02-18 15:14:47.715,2608.1685,0
5020,5020,2021-02-18 15:15:17.715,2578.2317,0
5030,5030,2021-02-18 15:15:47.715,2548.294,0
5040,5040,2021-02-18 15:16:17.715,2518.3547,0
5050,5050,2021-02-18 15:16:47.715,2488.4143,0
5060,5060,2021-02-18 15:17:17.715,2458.4727,0
5070,5070,2021-02-18 15:17:47.715,2428.5298,0
5080,5080,2021-02-18 15:18:17.715,2398.5860000000002,0
5090,5090,2021-02-18 15:18:47.715,2368.6404,0
5100,5100,2021-02-18 15:19:17.715,2338.6938,0
5110,5110,2021-02-18 15:19:47.715,2308.7458,0
5120,5120,2021-02-18 15:20:17.715,2278.7966,0
5130,5130,2021-02-18 15:20:47.715,2248.846,0
5140,5140,2021-02-18 15:21:17.715,2218.894,0
5150,5150,2021-02-18 15:21:47.715,2188.9407,0
5160,5160,2021-02-18 15:22:17.715,2158.9858,0
5170,5170,2021-02-18 15:22:47.715,2129.0298,0
5180,5180,2021-02-18 15:23:17.715,2099.0725,0
5190,5190,2021-02-18 15:23:47.715,2069.1135,0
5200,5200,2021-02-18 15:24:17.715,2039.1533,0
5210,5210,2021-02-18 15:24:47.715,2009.1917,0
5220,5220,2021-02-18 15:25:17.715,1979.2286,0
5230,5230,2021-02-18 15:25:47.715,1949.2642,0
5240,5240,2021-02-18 15:26:17.715,1919.2982,0
5250,5250,2021-02-18 15:26:47.715,1889.3309,0
