,Unnamed: 0,time,prediction,step
3811,3811,2021-02-18 14:15:17.715,6169.916,1
3821,3821,2021-02-18 14:15:47.715,6139.9365,1
3831,3831,2021-02-18 14:16:17.715,6109.9575,1
3841,3841,2021-02-18 14:16:47.715,6079.979,1
3851,3851,2021-02-18 14:17:17.715,6050.0019999999995,1
3861,3861,2021-02-18 14:17:47.715,6020.0254,1
3871,3871,2021-02-18 14:18:17.715,5990.049,1
3881,3881,2021-02-18 14:18:47.715,5960.0740000000005,1
3891,3891,2021-02-18 14:19:17.715,5930.0996,1
3901,3901,2021-02-18 14:19:47.715,5900.126,1
3911,3911,2021-02-18 14:20:17.715,5870.1533,1
3921,3921,2021-02-18 14:20:47.715,5840.181,1
3931,3931,2021-02-18 14:21:17.715,5810.209,1
3941,3941,2021-02-18 14:21:47.715,5780.238,1
3951,3951,2021-02-18 14:22:17.715,5750.267,1
3961,3961,2021-02-18 14:22:47.715,5720.297,1
3971,3971,2021-02-18 14:23:17.715,5690.326999999999,1
3981,3981,2021-02-18 14:23:47.715,5660.358,1
3991,3991,2021-02-18 14:24:17.715,5630.3896,1
4001,4001,2021-02-18 14:24:47.715,5600.420999999999,1
4011,4011,2021-02-18 14:25:17.715,5570.453,1
4021,4021,2021-02-18 14:25:47.715,5540.4854,1
4031,4031,2021-02-18 14:26:17.715,5510.5186,1
4041,4041,2021-02-18 14:26:47.715,5480.5522,1
4051,4051,2021-02-18 14:27:17.715,5450.5869999999995,1
4061,4061,2021-02-18 14:27:47.715,5420.621999999999,1
4071,4071,2021-02-18 14:28:17.715,5390.6577,1
4081,4081,2021-02-18 14:28:47.715,5360.6943,1
4091,4091,2021-02-18 14:29:17.715,5330.732,1
4101,4101,2021-02-18 14:29:47.715,5300.77,1
4111,4111,2021-02-18 14:30:17.715,5270.809,1
4121,4121,2021-02-18 14:30:47.715,5240.8486,1
4131,4131,2021-02-18 14:31:17.715,5210.889,1
4141,4141,2021-02-18 14:31:47.715,5180.9307,1
4151,4151,2021-02-18 14:32:17.715,5150.9727,1
4161,4161,2021-02-18 14:32:47.715,5121.0156,1
4171,4171,2021-02-18 14:33:17.715,5091.0596,1
4181,4181,2021-02-18 14:33:47.715,5061.105,1
4191,4191,2021-02-18 14:34:17.715,5031.151,1
4201,4201,2021-02-18 14:34:47.715,5001.1987,1
4211,4211,2021-02-18 14:35:17.715,4971.2466,1
4221,4221,2021-02-18 14:35:47.715,4941.2964,1
4231,4231,2021-02-18 14:36:17.715,4911.347,1
4241,4241,2021-02-18 14:36:47.715,4881.3994,1
4251,4251,2021-02-18 14:37:17.715,4851.4529999999995,1
4261,4261,2021-02-18 14:37:47.715,4821.508,1
4271,4271,2021-02-18 14:38:17.715,4791.564,1
4281,4281,2021-02-18 14:38:47.715,4761.6216,1
4291,4291,2021-02-18 14:39:17.715,4731.6807,1
4301,4301,2021-02-18 14:39:47.715,4701.741,1
4311,4311,2021-02-18 14:40:17.715,4671.8027,1
4321,4321,2021-02-18 14:40:47.715,4641.866,1
4331,4331,2021-02-18 14:41:17.715,4611.9316,1
4341,4341,2021-02-18 14:41:47.715,4581.998,1
4351,4351,2021-02-18 14:42:17.715,4552.066,1
4361,4361,2021-02-18 14:42:47.715,4522.1357,1
4371,4371,2021-02-18 14:43:17.715,4492.207,1
4381,4381,2021-02-18 14:43:47.715,4462.2793,1
4391,4391,2021-02-18 14:44:17.715,4432.354,1
4401,4401,2021-02-18 14:44:47.715,4402.4297,1
4411,4411,2021-02-18 14:45:17.715,4372.508,1
4421,4421,2021-02-18 14:45:47.715,4342.587,1
4431,4431,2021-02-18 14:46:17.715,4312.6685,1
4441,4441,2021-02-18 14:46:47.715,4282.752,1
4451,4451,2021-02-18 14:47:17.715,4252.837,1
4461,4461,2021-02-18 14:47:47.715,4222.9233,1
4471,4471,2021-02-18 14:48:17.715,4193.0109999999995,1
4481,4481,2021-02-18 14:48:47.715,4163.1,1
4491,4491,2021-02-18 14:49:17.715,4133.1904,1
4501,4501,2021-02-18 14:49:47.715,4103.2817,1
4511,4511,2021-02-18 14:50:17.715,4073.3745,1
4521,4521,2021-02-18 14:50:47.715,4043.4685,1
4531,4531,2021-02-18 14:51:17.715,4013.5632,1
4541,4541,2021-02-18 14:51:47.715,3983.6584,1
4551,4551,2021-02-18 14:52:17.715,3953.7544,1
4561,4561,2021-02-18 14:52:47.715,3923.8509999999997,1
4571,4571,2021-02-18 14:53:17.715,3893.948,1
4581,4581,2021-02-18 14:53:47.715,3864.0447,1
4591,4591,2021-02-18 14:54:17.715,3834.1423,1
4601,4601,2021-02-18 14:54:47.715,3804.24,1
4611,4611,2021-02-18 14:55:17.715,3774.3379999999997,1
4621,4621,2021-02-18 14:55:47.715,3744.4353,1
4631,4631,2021-02-18 14:56:17.715,3714.5325,1
4641,4641,2021-02-18 14:56:47.715,3684.6294,1
4651,4651,2021-02-18 14:57:17.715,3654.7256,1
4661,4661,2021-02-18 14:57:47.715,3624.8215,1
4671,4671,2021-02-18 14:58:17.715,3594.9165,1
4681,4681,2021-02-18 14:58:47.715,3565.0105,1
4691,4691,2021-02-18 14:59:17.715,3535.1040000000003,1
4701,4701,2021-02-18 14:59:47.715,3505.1968,1
4711,4711,2021-02-18 15:00:17.715,3475.2888,1
4721,4721,2021-02-18 15:00:47.715,3445.38,1
4731,4731,2021-02-18 15:01:17.715,3415.4702,1
4741,4741,2021-02-18 15:01:47.715,3385.5596,1
4751,4751,2021-02-18 15:02:17.715,3355.6479999999997,1
4761,4761,2021-02-18 15:02:47.715,3325.7354,1
4771,4771,2021-02-18 15:03:17.715,3295.8218,1
4781,4781,2021-02-18 15:03:47.715,3265.9072,1
4791,4791,2021-02-18 15:04:17.715,3235.9917,1
4801,4801,2021-02-18 15:04:47.715,3206.0752,1
4811,4811,2021-02-18 15:05:17.715,3176.1575,1
4821,4821,2021-02-18 15:05:47.715,3146.2385,1
4831,4831,2021-02-18 15:06:17.715,3116.3188,1
4841,4841,2021-02-18 15:06:47.715,3086.3979999999997,1
4851,4851,2021-02-18 15:07:17.715,3056.4758,1
4861,4861,2021-02-18 15:07:47.715,3026.5527,1
4871,4871,2021-02-18 15:08:17.715,2996.6287,1
4881,4881,2021-02-18 15:08:47.715,2966.7036,1
4891,4891,2021-02-18 15:09:17.715,2936.7773,1
4901,4901,2021-02-18 15:09:47.715,2906.85,1
4911,4911,2021-02-18 15:10:17.715,2876.9214,1
4921,4921,2021-02-18 15:10:47.715,2846.9917,1
4931,4931,2021-02-18 15:11:17.715,2817.0608,1
4941,4941,2021-02-18 15:11:47.715,2787.1284,1
4951,4951,2021-02-18 15:12:17.715,2757.1948,1
4961,4961,2021-02-18 15:12:47.715,2727.2598,1
4971,4971,2021-02-18 15:13:17.715,2697.3235,1
4981,4981,2021-02-18 15:13:47.715,2667.3857,1
4991,4991,2021-02-18 15:14:17.715,2637.447,1
5001,5001,2021-02-18 15:14:47.715,2607.5063,1
5011,5011,2021-02-18 15:15:17.715,2577.564,1
5021,5021,2021-02-18 15:15:47.715,2547.6206,1
5031,5031,2021-02-18 15:16:17.715,2517.6755,1
5041,5041,2021-02-18 15:16:47.715,2487.7288,1
5051,5051,2021-02-18 15:17:17.715,2457.7803,1
5061,5061,2021-02-18 15:17:47.715,2427.8303,1
5071,5071,2021-02-18 15:18:17.715,2397.8787,1
5081,5081,2021-02-18 15:18:47.715,2367.9253,1
5091,5091,2021-02-18 15:19:17.715,2337.9705,1
5101,5101,2021-02-18 15:19:47.715,2308.0137,1
5111,5111,2021-02-18 15:20:17.715,2278.0552,1
5121,5121,2021-02-18 15:20:47.715,2248.095,1
5131,5131,2021-02-18 15:21:17.715,2218.133,1
5141,5141,2021-02-18 15:21:47.715,2188.1692,1
5151,5151,2021-02-18 15:22:17.715,2158.2036,1
5161,5161,2021-02-18 15:22:47.715,2128.2363,1
5171,5171,2021-02-18 15:23:17.715,2098.2670000000003,1
5181,5181,2021-02-18 15:23:47.715,2068.2961,1
5191,5191,2021-02-18 15:24:17.715,2038.3231,1
5201,5201,2021-02-18 15:24:47.715,2008.3484,1
5211,5211,2021-02-18 15:25:17.715,1978.3717,1
5221,5221,2021-02-18 15:25:47.715,1948.3933,1
5231,5231,2021-02-18 15:26:17.715,1918.4127,1
5241,5241,2021-02-18 15:26:47.715,1888.4304,1
5251,5251,2021-02-18 15:27:17.715,1858.4460000000001,1
