,Unnamed: 0,time,prediction,step
42952,42952,2021-01-21 14:31:06.178,24.089144,2
42962,42962,2021-01-21 14:31:36.178,34.011456,2
42972,42972,2021-01-21 14:32:06.178,34.213684,2
42982,42982,2021-01-21 14:32:36.178,33.727936,2
42992,42992,2021-01-21 14:33:06.178,32.64325,2
43002,43002,2021-01-21 14:33:36.178,32.610915999999996,2
43012,43012,2021-01-21 14:34:06.178,32.61902,2
43022,43022,2021-01-21 14:34:36.178,32.604416,2
43032,43032,2021-01-21 14:35:06.178,33.131413,2
43042,43042,2021-01-21 14:35:36.178,33.710545,2
43052,43052,2021-01-21 14:36:06.178,34.154109999999996,2
43062,43062,2021-01-21 14:36:36.178,34.445297,2
43072,43072,2021-01-21 14:37:06.178,34.747196,2
43082,43082,2021-01-21 14:37:36.178,34.84982,2
43092,43092,2021-01-21 14:38:06.178,35.371753999999996,2
43102,43102,2021-01-21 14:38:36.178,35.78386,2
43112,43112,2021-01-21 14:39:06.178,36.213190000000004,2
43122,43122,2021-01-21 14:39:36.178,36.688778000000006,2
43132,43132,2021-01-21 14:40:06.178,37.011433000000004,2
43142,43142,2021-01-21 14:40:36.178,37.355667,2
43152,43152,2021-01-21 14:41:06.178,37.73219,2
43162,43162,2021-01-21 14:41:36.178,38.291664000000004,2
43172,43172,2021-01-21 14:42:06.178,38.90585,2
43182,43182,2021-01-21 14:42:36.178,39.553986,2
43192,43192,2021-01-21 14:43:06.178,40.065945,2
43202,43202,2021-01-21 14:43:36.178,40.58869,2
43212,43212,2021-01-21 14:44:06.178,41.452422999999996,2
43222,43222,2021-01-21 14:44:36.178,42.16091,2
43232,43232,2021-01-21 14:45:06.178,42.869896000000004,2
43242,43242,2021-01-21 14:45:36.178,43.648277,2
43252,43252,2021-01-21 14:46:06.178,44.634921999999996,2
43262,43262,2021-01-21 14:46:36.178,45.552723,2
43272,43272,2021-01-21 14:47:06.178,46.323887,2
43282,43282,2021-01-21 14:47:36.178,47.311474,2
43292,43292,2021-01-21 14:48:06.178,48.122147,2
43302,43302,2021-01-21 14:48:36.178,48.861458,2
43312,43312,2021-01-21 14:49:06.178,49.9897,2
43322,43322,2021-01-21 14:49:36.178,51.078632,2
43332,43332,2021-01-21 14:50:06.178,52.29923,2
43342,43342,2021-01-21 14:50:36.178,53.581425,2
43352,43352,2021-01-21 14:51:06.178,55.171524,2
43362,43362,2021-01-21 14:51:36.178,56.471798,2
43372,43372,2021-01-21 14:52:06.178,57.732727000000004,2
43382,43382,2021-01-21 14:52:36.178,59.287163,2
43392,43392,2021-01-21 14:53:06.178,60.79979,2
43402,43402,2021-01-21 14:53:36.178,61.98068000000001,2
43412,43412,2021-01-21 14:54:06.178,63.8217,2
43422,43422,2021-01-21 14:54:36.178,65.41424,2
43432,43432,2021-01-21 14:55:06.178,67.359695,2
43442,43442,2021-01-21 14:55:36.178,69.34135,2
43452,43452,2021-01-21 14:56:06.178,70.9122,2
43462,43462,2021-01-21 14:56:36.178,73.21355,2
43472,43472,2021-01-21 14:57:06.178,75.24977,2
43482,43482,2021-01-21 14:57:36.178,76.99678,2
43492,43492,2021-01-21 14:58:06.178,79.562004,2
43502,43502,2021-01-21 14:58:36.178,81.71942,2
43512,43512,2021-01-21 14:59:06.178,83.76654,2
43522,43522,2021-01-21 14:59:36.178,86.78094499999999,2
43532,43532,2021-01-21 15:00:06.178,89.42402,2
43542,43542,2021-01-21 15:00:36.178,91.44022,2
43552,43552,2021-01-21 15:01:06.178,95.14568,2
43562,43562,2021-01-21 15:01:36.178,98.22109,2
43572,43572,2021-01-21 15:02:06.178,100.642555,2
43582,43582,2021-01-21 15:02:36.178,105.18876999999999,2
43592,43592,2021-01-21 15:03:06.178,108.93111,2
43602,43602,2021-01-21 15:03:36.178,114.16363999999999,2
43612,43612,2021-01-21 15:04:06.178,119.84853999999999,2
43622,43622,2021-01-21 15:04:36.178,124.36216,2
43632,43632,2021-01-21 15:05:06.178,131.71368,2
43642,43642,2021-01-21 15:05:36.178,138.4178,2
43652,43652,2021-01-21 15:06:06.178,148.38786000000002,2
43662,43662,2021-01-21 15:06:36.178,158.30017,2
43672,43672,2021-01-21 15:07:06.178,166.90988000000002,2
43682,43682,2021-01-21 15:07:36.178,180.94386,2
43692,43692,2021-01-21 15:08:06.178,194.26773,2
43702,43702,2021-01-21 15:08:36.178,205.4545,2
43712,43712,2021-01-21 15:09:06.178,226.00533,2
43722,43722,2021-01-21 15:09:36.178,245.42206000000002,2
43732,43732,2021-01-21 15:10:06.178,277.82855,2
43742,43742,2021-01-21 15:10:36.178,311.7615,2
43752,43752,2021-01-21 15:11:06.178,342.6786,2
43762,43762,2021-01-21 15:11:36.178,404.42456,2
43772,43772,2021-01-21 15:12:06.178,466.70025999999996,2
43782,43782,2021-01-21 15:12:36.178,522.86316,2
43792,43792,2021-01-21 15:13:06.178,678.21643,2
43802,43802,2021-01-21 15:13:36.178,840.1001,2
43812,43812,2021-01-21 15:14:06.178,1000.44025,2
43822,43822,2021-01-21 15:14:36.178,1187.0454,2
43832,43832,2021-01-21 15:15:06.178,1372.0006,2
43842,43842,2021-01-21 15:15:36.178,1548.8558,2
43852,43852,2021-01-21 15:16:06.178,1721.1171,2
43862,43862,2021-01-21 15:16:36.178,1867.0599,2
43872,43872,2021-01-21 15:17:06.178,316.14026,2
43882,43882,2021-01-21 15:17:36.178,266.40585,2
43892,43892,2021-01-21 15:18:06.178,201.11,2
43902,43902,2021-01-21 15:18:36.178,150.6982,2
43912,43912,2021-01-21 15:19:06.178,119.14177,2
43922,43922,2021-01-21 15:19:36.178,117.78551000000002,2
43932,43932,2021-01-21 15:20:06.178,120.51925,2
43942,43942,2021-01-21 15:20:36.178,125.98597,2
43952,43952,2021-01-21 15:21:06.178,127.76651000000001,2
43962,43962,2021-01-21 15:21:36.178,129.84476,2
43972,43972,2021-01-21 15:22:06.178,132.0646,2
43982,43982,2021-01-21 15:22:36.178,129.32271,2
43992,43992,2021-01-21 15:23:06.178,126.71358000000001,2
44002,44002,2021-01-21 15:23:36.178,124.20791000000001,2
44012,44012,2021-01-21 15:24:06.178,117.4745,2
44022,44022,2021-01-21 15:24:36.178,111.35666,2
44032,44032,2021-01-21 15:25:06.178,102.58681,2
44042,44042,2021-01-21 15:25:36.178,94.934105,2
44052,44052,2021-01-21 15:26:06.178,88.19842,2
44062,44062,2021-01-21 15:26:36.178,80.513664,2
44072,44072,2021-01-21 15:27:06.178,73.97222,2
44082,44082,2021-01-21 15:27:36.178,68.36218000000001,2
44092,44092,2021-01-21 15:28:06.178,63.973953,2
44102,44102,2021-01-21 15:28:36.178,60.60819,2
44112,44112,2021-01-21 15:29:06.178,58.158606999999996,2
44122,44122,2021-01-21 15:29:36.178,56.12304,2
44132,44132,2021-01-21 15:30:06.178,55.05829,2
44142,44142,2021-01-21 15:30:36.178,54.54806,2
44152,44152,2021-01-21 15:31:06.178,55.36865600000001,2
44162,44162,2021-01-21 15:31:36.178,58.058384,2
44172,44172,2021-01-21 15:32:06.178,57.132538000000004,2
44182,44182,2021-01-21 15:32:36.178,57.179737,2
44192,44192,2021-01-21 15:33:06.178,55.907963,2
44202,44202,2021-01-21 15:33:36.178,54.771587,2
44212,44212,2021-01-21 15:34:06.178,54.340527,2
44222,44222,2021-01-21 15:34:36.178,53.158646,2
44232,44232,2021-01-21 15:35:06.178,52.066326000000004,2
44242,44242,2021-01-21 15:35:36.178,51.52427,2
44252,44252,2021-01-21 15:36:06.178,50.500572,2
44262,44262,2021-01-21 15:36:36.178,49.469276,2
44272,44272,2021-01-21 15:37:06.178,48.895245,2
44282,44282,2021-01-21 15:37:36.178,48.000206,2
44292,44292,2021-01-21 15:38:06.178,47.137493,2
44302,44302,2021-01-21 15:38:36.178,46.671482,2
44312,44312,2021-01-21 15:39:06.178,45.926285,2
44322,44322,2021-01-21 15:39:36.178,45.160294,2
44332,44332,2021-01-21 15:40:06.178,44.23944,2
44342,44342,2021-01-21 15:40:36.178,43.348675,2
44352,44352,2021-01-21 15:41:06.178,42.738335,2
44362,44362,2021-01-21 15:41:36.178,41.6434,2
44372,44372,2021-01-21 15:42:06.178,40.798134000000005,2
44382,44382,2021-01-21 15:42:36.178,39.95625,2
44392,44392,2021-01-21 15:43:06.178,39.03145,2
44402,44402,2021-01-21 15:43:36.178,38.313423,2
44412,44412,2021-01-21 15:44:06.178,37.6887,2
44422,44422,2021-01-21 15:44:36.178,37.023967999999996,2
44432,44432,2021-01-21 15:45:06.178,36.305316999999995,2
44442,44442,2021-01-21 15:45:36.178,35.541121999999994,2
44452,44452,2021-01-21 15:46:06.178,34.930572999999995,2
44462,44462,2021-01-21 15:46:36.178,34.243927,2
44472,44472,2021-01-21 15:47:06.178,33.556828,2
44482,44482,2021-01-21 15:47:36.178,33.011448,2
44492,44492,2021-01-21 15:48:06.178,32.497414,2
44502,44502,2021-01-21 15:48:36.178,31.951565000000002,2
44512,44512,2021-01-21 15:49:06.178,31.416824,2
44522,44522,2021-01-21 15:49:36.178,31.01476,2
44532,44532,2021-01-21 15:50:06.178,30.589959999999998,2
44542,44542,2021-01-21 15:50:36.178,30.051815,2
44552,44552,2021-01-21 15:51:06.178,29.646179999999998,2
44562,44562,2021-01-21 15:51:36.178,29.207603000000002,2
44572,44572,2021-01-21 15:52:06.178,28.760231,2
44582,44582,2021-01-21 15:52:36.178,28.429316999999998,2
44592,44592,2021-01-21 15:53:06.178,28.084307,2
44602,44602,2021-01-21 15:53:36.178,27.726274,2
44612,44612,2021-01-21 15:54:06.178,27.480762,2
44622,44622,2021-01-21 15:54:36.178,27.203049,2
44632,44632,2021-01-21 15:55:06.178,26.907183000000003,2
44642,44642,2021-01-21 15:55:36.178,26.617641,2
44652,44652,2021-01-21 15:56:06.178,26.420391,2
44662,44662,2021-01-21 15:56:36.178,26.053698,2
44672,44672,2021-01-21 15:57:06.178,25.767265,2
44682,44682,2021-01-21 15:57:36.178,25.469759,2
44692,44692,2021-01-21 15:58:06.178,25.121170000000003,2
44702,44702,2021-01-21 15:58:36.178,24.848858,2
44712,44712,2021-01-21 15:59:06.178,24.603374,2
44722,44722,2021-01-21 15:59:36.178,24.427347,2
44732,44732,2021-01-21 16:00:06.178,24.221424,2
44742,44742,2021-01-21 16:00:36.178,23.960639999999998,2
44752,44752,2021-01-21 16:01:06.178,23.767729,2
44762,44762,2021-01-21 16:01:36.178,23.540762,2
44772,44772,2021-01-21 16:02:06.178,23.247892,2
44782,44782,2021-01-21 16:02:36.178,23.018335,2
44792,44792,2021-01-21 16:03:06.178,22.799326,2
44802,44802,2021-01-21 16:03:36.178,22.511553,2
44812,44812,2021-01-21 16:04:06.178,22.239114999999998,2
44822,44822,2021-01-21 16:04:36.178,22.02385,2
44832,44832,2021-01-21 16:05:06.178,21.866817,2
44842,44842,2021-01-21 16:05:36.178,21.662542000000002,2
44852,44852,2021-01-21 16:06:06.178,21.378823999999998,2
44862,44862,2021-01-21 16:06:36.178,21.148283,2
44872,44872,2021-01-21 16:07:06.178,20.920961,2
44882,44882,2021-01-21 16:07:36.178,20.735529999999997,2
44892,44892,2021-01-21 16:08:06.178,20.592411,2
44902,44902,2021-01-21 16:08:36.178,20.441976999999998,2
44912,44912,2021-01-21 16:09:06.178,20.212304999999997,2
44922,44922,2021-01-21 16:09:36.178,20.029833,2
44932,44932,2021-01-21 16:10:06.178,19.710653,2
44942,44942,2021-01-21 16:10:36.178,19.443928,2
44952,44952,2021-01-21 16:11:06.178,19.225548,2
44962,44962,2021-01-21 16:11:36.178,19.005991,2
44972,44972,2021-01-21 16:12:06.178,18.823511,2
44982,44982,2021-01-21 16:12:36.178,18.677816,2
44992,44992,2021-01-21 16:13:06.178,18.522472,2
45002,45002,2021-01-21 16:13:36.178,18.278906,2
45012,45012,2021-01-21 16:14:06.178,18.076610000000002,2
45022,45022,2021-01-21 16:14:36.178,17.913828,2
45032,45032,2021-01-21 16:15:06.178,17.790928,2
45042,45042,2021-01-21 16:15:36.178,17.653828,2
45052,45052,2021-01-21 16:16:06.178,17.54816,2
45062,45062,2021-01-21 16:16:36.178,17.475914000000003,2
45072,45072,2021-01-21 16:17:06.178,17.382101000000002,2
45082,45082,2021-01-21 16:17:36.178,17.20055,2
45092,45092,2021-01-21 16:18:06.178,17.056204,2
45102,45102,2021-01-21 16:18:36.178,16.896235,2
45112,45112,2021-01-21 16:19:06.178,16.76256,2
45122,45122,2021-01-21 16:19:36.178,16.655079999999998,2
45132,45132,2021-01-21 16:20:06.178,16.574783,2
45142,45142,2021-01-21 16:20:36.178,16.401073,2
45152,45152,2021-01-21 16:21:06.178,16.212582,2
45162,45162,2021-01-21 16:21:36.178,16.05422,2
45172,45172,2021-01-21 16:22:06.178,15.924662,2
45182,45182,2021-01-21 16:22:36.178,15.824035999999998,2
45192,45192,2021-01-21 16:23:06.178,15.618271,2
45202,45202,2021-01-21 16:23:36.178,15.457256,2
45212,45212,2021-01-21 16:24:06.178,15.276777,2
45222,45222,2021-01-21 16:24:36.178,15.127842000000001,2
45232,45232,2021-01-21 16:25:06.178,14.9643,2
45242,45242,2021-01-21 16:25:36.178,14.821944,2
45252,45252,2021-01-21 16:26:06.178,14.565941,2
45262,45262,2021-01-21 16:26:36.178,14.347151,2
45272,45272,2021-01-21 16:27:06.178,14.160661,2
45282,45282,2021-01-21 16:27:36.178,14.003706,2
45292,45292,2021-01-21 16:28:06.178,13.875029000000001,2
45302,45302,2021-01-21 16:28:36.178,13.731646,2
45312,45312,2021-01-21 16:29:06.178,13.607356,2
45322,45322,2021-01-21 16:29:36.178,13.501569,2
45332,45332,2021-01-21 16:30:06.178,13.414163,2
45342,45342,2021-01-21 16:30:36.178,13.345601,2
45352,45352,2021-01-21 16:31:06.178,13.296945000000001,2
45362,45362,2021-01-21 16:31:36.178,13.27012,2
45372,45372,2021-01-21 16:32:06.178,13.268313000000001,2
45382,45382,2021-01-21 16:32:36.178,13.121442000000002,2
45392,45392,2021-01-21 16:33:06.178,12.999574,2
45402,45402,2021-01-21 16:33:36.178,12.901601,2
45412,45412,2021-01-21 16:34:06.178,12.827645,2
45422,45422,2021-01-21 16:34:36.178,12.779212,2
45432,45432,2021-01-21 16:35:06.178,12.759547,2
45442,45442,2021-01-21 16:35:36.178,12.697113,2
45452,45452,2021-01-21 16:36:06.178,12.651409,2
45462,45462,2021-01-21 16:36:36.178,12.623904,2
45472,45472,2021-01-21 16:37:06.178,12.617169,2
45482,45482,2021-01-21 16:37:36.178,12.635703999999999,2
45492,45492,2021-01-21 16:38:06.178,12.467647999999999,2
45502,45502,2021-01-21 16:38:36.178,12.325911999999999,2
45512,45512,2021-01-21 16:39:06.178,12.206667999999999,2
45522,45522,2021-01-21 16:39:36.178,12.107842,2
45532,45532,2021-01-21 16:40:06.178,12.028623,2
45542,45542,2021-01-21 16:40:36.178,11.969233500000001,2
45552,45552,2021-01-21 16:41:06.178,11.878308,2
45562,45562,2021-01-21 16:41:36.178,11.797391000000001,2
45572,45572,2021-01-21 16:42:06.178,11.725856,2
45582,45582,2021-01-21 16:42:36.178,11.663339,2
45592,45592,2021-01-21 16:43:06.178,11.609677,2
45602,45602,2021-01-21 16:43:36.178,11.564919999999999,2
45612,45612,2021-01-21 16:44:06.178,11.529325,2
45622,45622,2021-01-21 16:44:36.178,11.503389,2
45632,45632,2021-01-21 16:45:06.178,11.487969,2
45642,45642,2021-01-21 16:45:36.178,11.361080000000001,2
45652,45652,2021-01-21 16:46:06.178,11.258448,2
45662,45662,2021-01-21 16:46:36.178,11.178554,2
45672,45672,2021-01-21 16:47:06.178,11.121443,2
45682,45682,2021-01-21 16:47:36.178,11.024919500000001,2
45692,45692,2021-01-21 16:48:06.178,10.940114999999999,2
45702,45702,2021-01-21 16:48:36.178,10.86611,2
45712,45712,2021-01-21 16:49:06.178,10.802364,2
45722,45722,2021-01-21 16:49:36.178,10.7486515,2
45732,45732,2021-01-21 16:50:06.178,10.705008,2
45742,45742,2021-01-21 16:50:36.178,10.671812,2
45752,45752,2021-01-21 16:51:06.178,10.649813,2
45762,45762,2021-01-21 16:51:36.178,10.640298,2
45772,45772,2021-01-21 16:52:06.178,10.645389,2
45782,45782,2021-01-21 16:52:36.178,10.524585,2
45792,45792,2021-01-21 16:53:06.178,10.374674,2
45802,45802,2021-01-21 16:53:36.178,10.244796000000001,2
45812,45812,2021-01-21 16:54:06.178,10.130865,2
45822,45822,2021-01-21 16:54:36.178,10.030378,2
45832,45832,2021-01-21 16:55:06.178,9.941742,2
45842,45842,2021-01-21 16:55:36.178,9.863872,2
45852,45852,2021-01-21 16:56:06.178,9.796105,2
45862,45862,2021-01-21 16:56:36.178,9.738069,2
45872,45872,2021-01-21 16:57:06.178,9.689666,2
45882,45882,2021-01-21 16:57:36.178,9.651048,2
45892,45892,2021-01-21 16:58:06.178,9.62268,2
45902,45902,2021-01-21 16:58:36.178,9.605427,2
45912,45912,2021-01-21 16:59:06.178,9.600703999999999,2
45922,45922,2021-01-21 16:59:36.178,9.610839,2
45932,45932,2021-01-21 17:00:06.178,9.639816999999999,2
45942,45942,2021-01-21 17:00:36.178,9.614305499999999,2
45952,45952,2021-01-21 17:01:06.178,9.592445,2
45962,45962,2021-01-21 17:01:36.178,9.574341,2
45972,45972,2021-01-21 17:02:06.178,9.5601635,2
45982,45982,2021-01-21 17:02:36.178,9.550168,2
45992,45992,2021-01-21 17:03:06.178,9.415030499999999,2
46002,46002,2021-01-21 17:03:36.178,9.301575999999999,2
46012,46012,2021-01-21 17:04:06.178,9.205573,2
46022,46022,2021-01-21 17:04:36.178,9.124533,2
46032,46032,2021-01-21 17:05:06.178,9.057121,2
46042,46042,2021-01-21 17:05:36.178,9.002788,2
46052,46052,2021-01-21 17:06:06.178,8.96161,2
46062,46062,2021-01-21 17:06:36.178,8.934372999999999,2
46072,46072,2021-01-21 17:07:06.178,8.922799000000001,2
46082,46082,2021-01-21 17:07:36.178,8.870281,2
46092,46092,2021-01-21 17:08:06.178,8.822287,2
46102,46102,2021-01-21 17:08:36.178,8.778478,2
46112,46112,2021-01-21 17:09:06.178,8.5845375,2
46122,46122,2021-01-21 17:09:36.178,8.422463,2
46132,46132,2021-01-21 17:10:06.178,8.282898,2
46142,46142,2021-01-21 17:10:36.178,8.160699000000001,2
46152,46152,2021-01-21 17:11:06.178,8.052777,2
46162,46162,2021-01-21 17:11:36.178,7.9571247000000005,2
46172,46172,2021-01-21 17:12:06.178,7.872382000000001,2
46182,46182,2021-01-21 17:12:36.178,7.797619,2
46192,46192,2021-01-21 17:13:06.178,7.7322235,2
46202,46202,2021-01-21 17:13:36.178,7.675838499999999,2
46212,46212,2021-01-21 17:14:06.178,7.62833,2
46222,46222,2021-01-21 17:14:36.178,7.5897913,2
46232,46232,2021-01-21 17:15:06.178,7.560549000000001,2
46242,46242,2021-01-21 17:15:36.178,7.5412445,2
46252,46252,2021-01-21 17:16:06.178,7.532938000000001,2
46262,46262,2021-01-21 17:16:36.178,7.537331599999999,2
46272,46272,2021-01-21 17:17:06.178,7.557205000000001,2
46282,46282,2021-01-21 17:17:36.178,7.5974216,2
46292,46292,2021-01-21 17:18:06.178,7.579711,2
46302,46302,2021-01-21 17:18:36.178,7.5658617,2
46312,46312,2021-01-21 17:19:06.178,7.5561112999999995,2
46322,46322,2021-01-21 17:19:36.178,7.5508156,2
46332,46332,2021-01-21 17:20:06.178,7.550461,2
46342,46342,2021-01-21 17:20:36.178,7.5557604000000005,2
46352,46352,2021-01-21 17:21:06.178,7.567774000000001,2
46362,46362,2021-01-21 17:21:36.178,7.588147,2
46372,46372,2021-01-21 17:22:06.178,7.6196632,2
46382,46382,2021-01-21 17:22:36.178,7.667762799999999,2
46392,46392,2021-01-21 17:23:06.178,7.746399,2
46402,46402,2021-01-21 17:23:36.178,7.648308,2
46412,46412,2021-01-21 17:24:06.178,7.493677000000001,2
46422,46422,2021-01-21 17:24:36.178,7.3746985999999985,2
46432,46432,2021-01-21 17:25:06.178,7.275233999999999,2
46442,46442,2021-01-21 17:25:36.178,7.1888570000000005,2
46452,46452,2021-01-21 17:26:06.178,7.112245599999999,2
46462,46462,2021-01-21 17:26:36.178,7.043421700000001,2
46472,46472,2021-01-21 17:27:06.178,6.9811015,2
46482,46482,2021-01-21 17:27:36.178,6.9243975,2
46492,46492,2021-01-21 17:28:06.178,6.872675,2
46502,46502,2021-01-21 17:28:36.178,6.82547,2
46512,46512,2021-01-21 17:29:06.178,6.782432000000001,2
46522,46522,2021-01-21 17:29:36.178,6.743308,2
46532,46532,2021-01-21 17:30:06.178,6.707917,2
46542,46542,2021-01-21 17:30:36.178,6.676139,2
46552,46552,2021-01-21 17:31:06.178,6.647900999999999,2
46562,46562,2021-01-21 17:31:36.178,6.6231919999999995,2
46572,46572,2021-01-21 17:32:06.178,6.6020417,2
46582,46582,2021-01-21 17:32:36.178,6.5845460000000005,2
46592,46592,2021-01-21 17:33:06.178,6.570857000000001,2
46602,46602,2021-01-21 17:33:36.178,6.561219,2
46612,46612,2021-01-21 17:34:06.178,6.555971,2
46622,46622,2021-01-21 17:34:36.178,6.555592999999999,2
46632,46632,2021-01-21 17:35:06.178,6.5607953,2
46642,46642,2021-01-21 17:35:36.178,6.572615600000001,2
46652,46652,2021-01-21 17:36:06.178,6.592681,2
46662,46662,2021-01-21 17:36:36.178,6.6237535,2
46672,46672,2021-01-21 17:37:06.178,6.671212,2
46682,46682,2021-01-21 17:37:36.178,6.7488837,2
46692,46692,2021-01-21 17:38:06.178,6.999998,2
46702,46702,2021-01-21 17:38:36.178,6.999998,2
46712,46712,2021-01-21 17:39:06.178,6.999998,2
46722,46722,2021-01-21 17:39:36.178,6.999998,2
46732,46732,2021-01-21 17:40:06.178,6.6471133,2
46742,46742,2021-01-21 17:40:36.178,6.4925027,2
46752,46752,2021-01-21 17:41:06.178,6.373789299999999,2
46762,46762,2021-01-21 17:41:36.178,6.274712,2
46772,46772,2021-01-21 17:42:06.178,6.188796,2
46782,46782,2021-01-21 17:42:36.178,6.112685,2
46792,46792,2021-01-21 17:43:06.178,6.044389,2
46802,46802,2021-01-21 17:43:36.178,5.9826083,2
46812,46812,2021-01-21 17:44:06.178,5.9264470000000005,2
46822,46822,2021-01-21 17:44:36.178,5.8752623,2
46832,46832,2021-01-21 17:45:06.178,5.828578,2
46842,46842,2021-01-21 17:45:36.178,5.7860456,2
46852,46852,2021-01-21 17:46:06.178,5.7474027,2
46862,46862,2021-01-21 17:46:36.178,5.712463,2
46872,46872,2021-01-21 17:47:06.178,5.681099400000001,2
46882,46882,2021-01-21 17:47:36.178,5.653241599999999,2
46892,46892,2021-01-21 17:48:06.178,5.6288656999999995,2
46902,46902,2021-01-21 17:48:36.178,5.6080027,2
46912,46912,2021-01-21 17:49:06.178,5.590739,2
46922,46922,2021-01-21 17:49:36.178,5.5772247,2
46932,46932,2021-01-21 17:50:06.178,5.5676904,2
46942,46942,2021-01-21 17:50:36.178,5.5624747,2
46952,46952,2021-01-21 17:51:06.178,5.5620456,2
46962,46962,2021-01-21 17:51:36.178,5.5670986,2
46972,46972,2021-01-21 17:52:06.178,5.578658,2
46982,46982,2021-01-21 17:52:36.178,5.598328599999999,2
46992,46992,2021-01-21 17:53:06.178,5.628831,2
47002,47002,2021-01-21 17:53:36.178,5.675485,2
47012,47012,2021-01-21 17:54:06.178,5.751955000000001,2
47022,47022,2021-01-21 17:54:36.178,6.000004,2
47032,47032,2021-01-21 17:55:06.178,6.000004,2
47042,47042,2021-01-21 17:55:36.178,6.000004,2
47052,47052,2021-01-21 17:56:06.178,5.645336,2
47062,47062,2021-01-21 17:56:36.178,5.490668299999999,2
47072,47072,2021-01-21 17:57:06.178,5.3722305,2
47082,47082,2021-01-21 17:57:36.178,5.2735977,2
47092,47092,2021-01-21 17:58:06.178,5.1882215,2
47102,47102,2021-01-21 17:58:36.178,5.1127152,2
47112,47112,2021-01-21 17:59:06.178,5.045058999999999,2
47122,47122,2021-01-21 17:59:36.178,4.983937999999999,2
47132,47132,2021-01-21 18:00:06.178,4.9284434,2
47142,47142,2021-01-21 18:00:36.178,4.8779182,2
47152,47152,2021-01-21 18:01:06.178,4.831883400000001,2
47162,47162,2021-01-21 18:01:36.178,4.7899785,2
47172,47172,2021-01-21 18:02:06.178,4.7519355,2
47182,47182,2021-01-21 18:02:36.178,4.717562,2
47192,47192,2021-01-21 18:03:06.178,4.686726,2
47202,47202,2021-01-21 18:03:36.178,4.659347,2
47212,47212,2021-01-21 18:04:06.178,4.6353993,2
47222,47222,2021-01-21 18:04:36.178,4.614907700000001,2
47232,47232,2021-01-21 18:05:06.178,4.5979486,2
47242,47242,2021-01-21 18:05:36.178,4.5846663,2
47252,47252,2021-01-21 18:06:06.178,4.575284,2
47262,47262,2021-01-21 18:06:36.178,4.570128400000001,2
47272,47272,2021-01-21 18:07:06.178,4.569659,2
47282,47282,2021-01-21 18:07:36.178,4.5745544,2
47292,47292,2021-01-21 18:08:06.178,4.585819,2
47302,47302,2021-01-21 18:08:36.178,4.605029,2
47312,47312,2021-01-21 18:09:06.178,4.6348634,2
47322,47322,2021-01-21 18:09:36.178,4.680562,2
47332,47332,2021-01-21 18:10:06.178,4.755603,2
47342,47342,2021-01-21 18:10:36.178,5.0,2
47352,47352,2021-01-21 18:11:06.178,5.0,2
47362,47362,2021-01-21 18:11:36.178,5.0,2
47372,47372,2021-01-21 18:12:06.178,5.0,2
47382,47382,2021-01-21 18:12:36.178,5.0,2
47392,47392,2021-01-21 18:13:06.178,5.0,2
47402,47402,2021-01-21 18:13:36.178,5.0,2
47412,47412,2021-01-21 18:14:06.178,5.0,2
47422,47422,2021-01-21 18:14:36.178,5.0,2
47432,47432,2021-01-21 18:15:06.178,5.0,2
47442,47442,2021-01-21 18:15:36.178,5.0,2
47452,47452,2021-01-21 18:16:06.178,5.0,2
47462,47462,2021-01-21 18:16:36.178,5.0,2
47472,47472,2021-01-21 18:17:06.178,5.0,2
47482,47482,2021-01-21 18:17:36.178,5.0,2
47492,47492,2021-01-21 18:18:06.178,5.0,2
47502,47502,2021-01-21 18:18:36.178,5.0,2
47512,47512,2021-01-21 18:19:06.178,5.0,2
47522,47522,2021-01-21 18:19:36.178,5.0,2
47532,47532,2021-01-21 18:20:06.178,4.642671,2
47542,47542,2021-01-21 18:20:36.178,4.4878535,2
47552,47552,2021-01-21 18:21:06.178,4.3697386,2
47562,47562,2021-01-21 18:21:36.178,4.271664,2
47572,47572,2021-01-21 18:22:06.178,4.1869884,2
47582,47582,2021-01-21 18:22:36.178,4.1122694,2
47592,47592,2021-01-21 18:23:06.178,4.0454555,2
47602,47602,2021-01-21 18:23:36.178,3.9852042,2
47612,47612,2021-01-21 18:24:06.178,3.9305915999999996,2
47622,47622,2021-01-21 18:24:36.178,3.8809447,2
47632,47632,2021-01-21 18:25:06.178,3.835773,2
47642,47642,2021-01-21 18:25:36.178,3.7947044,2
47652,47652,2021-01-21 18:26:06.178,3.7574635,2
47662,47662,2021-01-21 18:26:36.178,3.7238488,2
47672,47672,2021-01-21 18:27:06.178,3.693719,2
47682,47682,2021-01-21 18:27:36.178,3.666987,2
47692,47692,2021-01-21 18:28:06.178,3.6436186,2
47702,47702,2021-01-21 18:28:36.178,3.623629,2
47712,47712,2021-01-21 18:29:06.178,3.6070889999999998,2
47722,47722,2021-01-21 18:29:36.178,3.5941315,2
47732,47732,2021-01-21 18:30:06.178,3.584968,2
47742,47742,2021-01-21 18:30:36.178,3.5799131,2
47752,47752,2021-01-21 18:31:06.178,3.5794148,2
47762,47762,2021-01-21 18:31:36.178,3.5841269999999996,2
47772,47772,2021-01-21 18:32:06.178,3.5950284,2
47782,47782,2021-01-21 18:32:36.178,3.6136613,2
47792,47792,2021-01-21 18:33:06.178,3.6426468,2
47802,47802,2021-01-21 18:33:36.178,3.6871204,2
47812,47812,2021-01-21 18:34:06.178,3.7603178,2
47822,47822,2021-01-21 18:34:36.178,3.9999971,2
47832,47832,2021-01-21 18:35:06.178,3.9999971,2
47842,47842,2021-01-21 18:35:36.178,3.9999971,2
47852,47852,2021-01-21 18:36:06.178,3.9999971,2
47862,47862,2021-01-21 18:36:36.178,3.9999971,2
47872,47872,2021-01-21 18:37:06.178,3.9999971,2
47882,47882,2021-01-21 18:37:36.178,3.9999971,2
47892,47892,2021-01-21 18:38:06.178,3.9999971,2
47902,47902,2021-01-21 18:38:36.178,3.9999971,2
47912,47912,2021-01-21 18:39:06.178,3.9999971,2
47922,47922,2021-01-21 18:39:36.178,3.9999971,2
47932,47932,2021-01-21 18:40:06.178,3.9999971,2
47942,47942,2021-01-21 18:40:36.178,3.9999971,2
47952,47952,2021-01-21 18:41:06.178,3.9999971,2
47962,47962,2021-01-21 18:41:36.178,3.9999971,2
47972,47972,2021-01-21 18:42:06.178,3.9999971,2
47982,47982,2021-01-21 18:42:36.178,3.9999971,2
47992,47992,2021-01-21 18:43:06.178,3.9999971,2
48002,48002,2021-01-21 18:43:36.178,3.9999971,2
48012,48012,2021-01-21 18:44:06.178,3.9999971,2
48022,48022,2021-01-21 18:44:36.178,3.9999971,2
48032,48032,2021-01-21 18:45:06.178,3.9999971,2
48042,48042,2021-01-21 18:45:36.178,3.9999971,2
48052,48052,2021-01-21 18:46:06.178,3.9999971,2
48062,48062,2021-01-21 18:46:36.178,3.9999971,2
48072,48072,2021-01-21 18:47:06.178,3.9999971,2
48082,48082,2021-01-21 18:47:36.178,3.9999971,2
48092,48092,2021-01-21 18:48:06.178,3.9999971,2
48102,48102,2021-01-21 18:48:36.178,3.9999971,2
48112,48112,2021-01-21 18:49:06.178,3.9999971,2
48122,48122,2021-01-21 18:49:36.178,3.9999971,2
48132,48132,2021-01-21 18:50:06.178,3.9999971,2
48142,48142,2021-01-21 18:50:36.178,3.9999971,2
48152,48152,2021-01-21 18:51:06.178,3.9999971,2
48162,48162,2021-01-21 18:51:36.178,3.9999971,2
48172,48172,2021-01-21 18:52:06.178,3.9999971,2
48182,48182,2021-01-21 18:52:36.178,3.9999971,2
48192,48192,2021-01-21 18:53:06.178,3.9999971,2
48202,48202,2021-01-21 18:53:36.178,3.9999971,2
48212,48212,2021-01-21 18:54:06.178,3.9999971,2
48222,48222,2021-01-21 18:54:36.178,3.9999971,2
48232,48232,2021-01-21 18:55:06.178,3.638332,2
48242,48242,2021-01-21 18:55:36.178,3.483169,2
48252,48252,2021-01-21 18:56:06.178,3.3654322999999997,2
48262,48262,2021-01-21 18:56:36.178,3.2681012000000003,2
48272,48272,2021-01-21 18:57:06.178,3.1843847999999997,2
48282,48282,2021-01-21 18:57:36.178,3.1107607,2
48292,48292,2021-01-21 18:58:06.178,3.0451245,2
48302,48302,2021-01-21 18:58:36.178,2.9860992000000004,2
48312,48312,2021-01-21 18:59:06.178,2.9327307,2
48322,48322,2021-01-21 18:59:36.178,2.8843277,2
48332,48332,2021-01-21 19:00:06.178,2.8403794999999996,2
48342,48342,2021-01-21 19:00:36.178,2.8005006000000003,2
48352,48352,2021-01-21 19:01:06.178,2.7644017000000005,2
48362,48362,2021-01-21 19:01:36.178,2.7318689999999997,2
48372,48372,2021-01-21 19:02:06.178,2.7027493,2
48382,48382,2021-01-21 19:02:36.178,2.6769474,2
48392,48392,2021-01-21 19:03:06.178,2.6544144,2
48402,48402,2021-01-21 19:03:36.178,2.6351564,2
48412,48412,2021-01-21 19:04:06.178,2.6192314999999997,2
48422,48422,2021-01-21 19:04:36.178,2.6067595,2
48432,48432,2021-01-21 19:05:06.178,2.5979368999999997,2
48442,48442,2021-01-21 19:05:36.178,2.5930595000000003,2
48452,48452,2021-01-21 19:06:06.178,2.5925567000000003,2
48462,48462,2021-01-21 19:06:36.178,2.5970552000000002,2
48472,48472,2021-01-21 19:07:06.178,2.607498,2
48482,48482,2021-01-21 19:07:36.178,2.6253743,2
48492,48492,2021-01-21 19:08:06.178,2.6532283,2
48502,48502,2021-01-21 19:08:36.178,2.6960554,2
48512,48512,2021-01-21 19:09:06.178,2.7667575,2
48522,48522,2021-01-21 19:09:36.178,3.0000023999999996,2
48532,48532,2021-01-21 19:10:06.178,3.0000023999999996,2
48542,48542,2021-01-21 19:10:36.178,3.0000023999999996,2
48552,48552,2021-01-21 19:11:06.178,3.0000023999999996,2
48562,48562,2021-01-21 19:11:36.178,3.0000023999999996,2
48572,48572,2021-01-21 19:12:06.178,3.0000023999999996,2
48582,48582,2021-01-21 19:12:36.178,3.0000023999999996,2
48592,48592,2021-01-21 19:13:06.178,3.0000023999999996,2
48602,48602,2021-01-21 19:13:36.178,3.0000023999999996,2
48612,48612,2021-01-21 19:14:06.178,3.0000023999999996,2
48622,48622,2021-01-21 19:14:36.178,3.0000023999999996,2
48632,48632,2021-01-21 19:15:06.178,3.0000023999999996,2
48642,48642,2021-01-21 19:15:36.178,3.0000023999999996,2
48652,48652,2021-01-21 19:16:06.178,3.0000023999999996,2
48662,48662,2021-01-21 19:16:36.178,3.0000023999999996,2
48672,48672,2021-01-21 19:17:06.178,3.0000023999999996,2
48682,48682,2021-01-21 19:17:36.178,3.0000023999999996,2
48692,48692,2021-01-21 19:18:06.178,3.0000023999999996,2
48702,48702,2021-01-21 19:18:36.178,3.0000023999999996,2
48712,48712,2021-01-21 19:19:06.178,3.0000023999999996,2
48722,48722,2021-01-21 19:19:36.178,3.0000023999999996,2
48732,48732,2021-01-21 19:20:06.178,3.0000023999999996,2
48742,48742,2021-01-21 19:20:36.178,3.0000023999999996,2
48752,48752,2021-01-21 19:21:06.178,3.0000023999999996,2
48762,48762,2021-01-21 19:21:36.178,3.0000023999999996,2
48772,48772,2021-01-21 19:22:06.178,3.0000023999999996,2
48782,48782,2021-01-21 19:22:36.178,3.0000023999999996,2
48792,48792,2021-01-21 19:23:06.178,3.0000023999999996,2
48802,48802,2021-01-21 19:23:36.178,3.0000023999999996,2
48812,48812,2021-01-21 19:24:06.178,3.0000023999999996,2
48822,48822,2021-01-21 19:24:36.178,3.0000023999999996,2
48832,48832,2021-01-21 19:25:06.178,3.0000023999999996,2
48842,48842,2021-01-21 19:25:36.178,3.0000023999999996,2
48852,48852,2021-01-21 19:26:06.178,3.0000023999999996,2
48862,48862,2021-01-21 19:26:36.178,3.0000023999999996,2
48872,48872,2021-01-21 19:27:06.178,3.0000023999999996,2
48882,48882,2021-01-21 19:27:36.178,3.0000023999999996,2
48892,48892,2021-01-21 19:28:06.178,3.0000023999999996,2
48902,48902,2021-01-21 19:28:36.178,3.0000023999999996,2
48912,48912,2021-01-21 19:29:06.178,3.0000023999999996,2
48922,48922,2021-01-21 19:29:36.178,3.0000023999999996,2
48932,48932,2021-01-21 19:30:06.178,3.0000023999999996,2
48942,48942,2021-01-21 19:30:36.178,3.0000023999999996,2
48952,48952,2021-01-21 19:31:06.178,3.0000023999999996,2
48962,48962,2021-01-21 19:31:36.178,3.0000023999999996,2
48972,48972,2021-01-21 19:32:06.178,3.0000023999999996,2
48982,48982,2021-01-21 19:32:36.178,3.0000023999999996,2
48992,48992,2021-01-21 19:33:06.178,3.0000023999999996,2
49002,49002,2021-01-21 19:33:36.178,3.0000023999999996,2
49012,49012,2021-01-21 19:34:06.178,3.0000023999999996,2
49022,49022,2021-01-21 19:34:36.178,3.0000023999999996,2
49032,49032,2021-01-21 19:35:06.178,3.0000023999999996,2
49042,49042,2021-01-21 19:35:36.178,3.0000023999999996,2
49052,49052,2021-01-21 19:36:06.178,3.0000023999999996,2
49062,49062,2021-01-21 19:36:36.178,3.0000023999999996,2
49072,49072,2021-01-21 19:37:06.178,3.0000023999999996,2
49082,49082,2021-01-21 19:37:36.178,3.0000023999999996,2
49092,49092,2021-01-21 19:38:06.178,3.0000023999999996,2
49102,49102,2021-01-21 19:38:36.178,3.0000023999999996,2
49112,49112,2021-01-21 19:39:06.178,3.0000023999999996,2
49122,49122,2021-01-21 19:39:36.178,3.0000023999999996,2
49132,49132,2021-01-21 19:40:06.178,3.0000023999999996,2
49142,49142,2021-01-21 19:40:36.178,3.0000023999999996,2
49152,49152,2021-01-21 19:41:06.178,3.0000023999999996,2
49162,49162,2021-01-21 19:41:36.178,3.0000023999999996,2
49172,49172,2021-01-21 19:42:06.178,3.0000023999999996,2
49182,49182,2021-01-21 19:42:36.178,3.0000023999999996,2
49192,49192,2021-01-21 19:43:06.178,3.0000023999999996,2
49202,49202,2021-01-21 19:43:36.178,3.0000023999999996,2
49212,49212,2021-01-21 19:44:06.178,3.0000023999999996,2
49222,49222,2021-01-21 19:44:36.178,3.0000023999999996,2
49232,49232,2021-01-21 19:45:06.178,3.0000023999999996,2
49242,49242,2021-01-21 19:45:36.178,3.0000023999999996,2
49252,49252,2021-01-21 19:46:06.178,3.0000023999999996,2
49262,49262,2021-01-21 19:46:36.178,2.6310437,2
49272,49272,2021-01-21 19:47:06.178,2.4752479,2
49282,49282,2021-01-21 19:47:36.178,2.3580544,2
49292,49292,2021-01-21 19:48:06.178,2.2618557999999997,2
49302,49302,2021-01-21 19:48:36.178,2.1796157000000003,2
49312,49312,2021-01-21 19:49:06.178,2.1076806,2
49322,49322,2021-01-21 19:49:36.178,2.0438628,2
49332,49332,2021-01-21 19:50:06.178,1.9867264999999998,2
49342,49342,2021-01-21 19:50:36.178,1.9352748,2
49352,49352,2021-01-21 19:51:06.178,1.8887842000000001,2
49362,49362,2021-01-21 19:51:36.178,1.8467164,2
49372,49372,2021-01-21 19:52:06.178,1.8086631000000002,2
49382,49382,2021-01-21 19:52:36.178,1.7743161,2
49392,49392,2021-01-21 19:53:06.178,1.743442,2
49402,49402,2021-01-21 19:53:36.178,1.7158725,2
49412,49412,2021-01-21 19:54:06.178,1.691495,2
49422,49422,2021-01-21 19:54:36.178,1.6702461,2
49432,49432,2021-01-21 19:55:06.178,1.6521139,2
49442,49442,2021-01-21 19:55:36.178,1.6371393,2
49452,49452,2021-01-21 19:56:06.178,1.6254233999999999,2
49462,49462,2021-01-21 19:56:36.178,1.6171412,2
49472,49472,2021-01-21 19:57:06.178,1.6125598,2
49482,49482,2021-01-21 19:57:36.178,1.6120806,2
49492,49492,2021-01-21 19:58:06.178,1.616291,2
49502,49502,2021-01-21 19:58:36.178,1.6260793,2
49512,49512,2021-01-21 19:59:06.178,1.6428578,2
49522,49522,2021-01-21 19:59:36.178,1.6690526,2
49532,49532,2021-01-21 20:00:06.178,1.7094455000000002,2
49542,49542,2021-01-21 20:00:36.178,1.7764304,2
49552,49552,2021-01-21 20:01:06.178,1.999999,2
49562,49562,2021-01-21 20:01:36.178,1.999999,2
49572,49572,2021-01-21 20:02:06.178,1.999999,2
49582,49582,2021-01-21 20:02:36.178,1.999999,2
49592,49592,2021-01-21 20:03:06.178,1.999999,2
49602,49602,2021-01-21 20:03:36.178,1.999999,2
49612,49612,2021-01-21 20:04:06.178,1.999999,2
49622,49622,2021-01-21 20:04:36.178,1.999999,2
49632,49632,2021-01-21 20:05:06.178,1.999999,2
49642,49642,2021-01-21 20:05:36.178,1.999999,2
49652,49652,2021-01-21 20:06:06.178,1.999999,2
49662,49662,2021-01-21 20:06:36.178,1.999999,2
49672,49672,2021-01-21 20:07:06.178,1.999999,2
49682,49682,2021-01-21 20:07:36.178,1.999999,2
49692,49692,2021-01-21 20:08:06.178,1.999999,2
49702,49702,2021-01-21 20:08:36.178,1.999999,2
49712,49712,2021-01-21 20:09:06.178,1.999999,2
49722,49722,2021-01-21 20:09:36.178,1.999999,2
49732,49732,2021-01-21 20:10:06.178,1.999999,2
49742,49742,2021-01-21 20:10:36.178,1.999999,2
49752,49752,2021-01-21 20:11:06.178,1.999999,2
49762,49762,2021-01-21 20:11:36.178,1.999999,2
49772,49772,2021-01-21 20:12:06.178,1.999999,2
49782,49782,2021-01-21 20:12:36.178,1.999999,2
49792,49792,2021-01-21 20:13:06.178,1.999999,2
49802,49802,2021-01-21 20:13:36.178,1.999999,2
49812,49812,2021-01-21 20:14:06.178,1.999999,2
49822,49822,2021-01-21 20:14:36.178,1.999999,2
49832,49832,2021-01-21 20:15:06.178,1.999999,2
49842,49842,2021-01-21 20:15:36.178,1.999999,2
49852,49852,2021-01-21 20:16:06.178,1.999999,2
49862,49862,2021-01-21 20:16:36.178,1.999999,2
49872,49872,2021-01-21 20:17:06.178,1.999999,2
49882,49882,2021-01-21 20:17:36.178,1.999999,2
49892,49892,2021-01-21 20:18:06.178,1.999999,2
49902,49902,2021-01-21 20:18:36.178,1.999999,2
49912,49912,2021-01-21 20:19:06.178,1.999999,2
49922,49922,2021-01-21 20:19:36.178,1.999999,2
49932,49932,2021-01-21 20:20:06.178,1.999999,2
49942,49942,2021-01-21 20:20:36.178,1.999999,2
49952,49952,2021-01-21 20:21:06.178,1.999999,2
49962,49962,2021-01-21 20:21:36.178,1.999999,2
49972,49972,2021-01-21 20:22:06.178,1.999999,2
49982,49982,2021-01-21 20:22:36.178,1.999999,2
49992,49992,2021-01-21 20:23:06.178,1.999999,2
50002,50002,2021-01-21 20:23:36.178,1.999999,2
50012,50012,2021-01-21 20:24:06.178,1.999999,2
50022,50022,2021-01-21 20:24:36.178,1.999999,2
50032,50032,2021-01-21 20:25:06.178,1.999999,2
50042,50042,2021-01-21 20:25:36.178,1.999999,2
50052,50052,2021-01-21 20:26:06.178,1.999999,2
50062,50062,2021-01-21 20:26:36.178,1.999999,2
50072,50072,2021-01-21 20:27:06.178,1.999999,2
50082,50082,2021-01-21 20:27:36.178,1.999999,2
50092,50092,2021-01-21 20:28:06.178,1.999999,2
50102,50102,2021-01-21 20:28:36.178,1.999999,2
50112,50112,2021-01-21 20:29:06.178,1.999999,2
50122,50122,2021-01-21 20:29:36.178,1.999999,2
50132,50132,2021-01-21 20:30:06.178,1.999999,2
50142,50142,2021-01-21 20:30:36.178,1.999999,2
50152,50152,2021-01-21 20:31:06.178,1.999999,2
50162,50162,2021-01-21 20:31:36.178,1.999999,2
50172,50172,2021-01-21 20:32:06.178,1.999999,2
50182,50182,2021-01-21 20:32:36.178,1.999999,2
50192,50192,2021-01-21 20:33:06.178,1.999999,2
50202,50202,2021-01-21 20:33:36.178,1.999999,2
50212,50212,2021-01-21 20:34:06.178,1.999999,2
50222,50222,2021-01-21 20:34:36.178,1.999999,2
50232,50232,2021-01-21 20:35:06.178,1.999999,2
50242,50242,2021-01-21 20:35:36.178,1.999999,2
50252,50252,2021-01-21 20:36:06.178,1.999999,2
50262,50262,2021-01-21 20:36:36.178,1.999999,2
50272,50272,2021-01-21 20:37:06.178,1.999999,2
50282,50282,2021-01-21 20:37:36.178,1.999999,2
50292,50292,2021-01-21 20:38:06.178,1.999999,2
50302,50302,2021-01-21 20:38:36.178,1.999999,2
50312,50312,2021-01-21 20:39:06.178,1.999999,2
50322,50322,2021-01-21 20:39:36.178,1.999999,2
50332,50332,2021-01-21 20:40:06.178,1.999999,2
50342,50342,2021-01-21 20:40:36.178,1.999999,2
50352,50352,2021-01-21 20:41:06.178,1.999999,2
50362,50362,2021-01-21 20:41:36.178,1.999999,2
50372,50372,2021-01-21 20:42:06.178,1.999999,2
50382,50382,2021-01-21 20:42:36.178,1.999999,2
50392,50392,2021-01-21 20:43:06.178,1.999999,2
50402,50402,2021-01-21 20:43:36.178,1.999999,2
50412,50412,2021-01-21 20:44:06.178,1.999999,2
50422,50422,2021-01-21 20:44:36.178,1.999999,2
50432,50432,2021-01-21 20:45:06.178,1.999999,2
50442,50442,2021-01-21 20:45:36.178,1.999999,2
50452,50452,2021-01-21 20:46:06.178,1.999999,2
50462,50462,2021-01-21 20:46:36.178,1.999999,2
50472,50472,2021-01-21 20:47:06.178,1.999999,2
50482,50482,2021-01-21 20:47:36.178,1.999999,2
50492,50492,2021-01-21 20:48:06.178,1.999999,2
50502,50502,2021-01-21 20:48:36.178,1.999999,2
50512,50512,2021-01-21 20:49:06.178,1.999999,2
50522,50522,2021-01-21 20:49:36.178,1.999999,2
50532,50532,2021-01-21 20:50:06.178,1.999999,2
50542,50542,2021-01-21 20:50:36.178,1.999999,2
50552,50552,2021-01-21 20:51:06.178,1.999999,2
50562,50562,2021-01-21 20:51:36.178,1.999999,2
50572,50572,2021-01-21 20:52:06.178,1.999999,2
50582,50582,2021-01-21 20:52:36.178,1.999999,2
50592,50592,2021-01-21 20:53:06.178,1.999999,2
50602,50602,2021-01-21 20:53:36.178,1.999999,2
50612,50612,2021-01-21 20:54:06.178,1.999999,2
50622,50622,2021-01-21 20:54:36.178,1.999999,2
50632,50632,2021-01-21 20:55:06.178,1.999999,2
50642,50642,2021-01-21 20:55:36.178,1.999999,2
50652,50652,2021-01-21 20:56:06.178,1.999999,2
50662,50662,2021-01-21 20:56:36.178,1.999999,2
50672,50672,2021-01-21 20:57:06.178,1.999999,2
50682,50682,2021-01-21 20:57:36.178,1.999999,2
50692,50692,2021-01-21 20:58:06.178,1.999999,2
50702,50702,2021-01-21 20:58:36.178,1.999999,2
50712,50712,2021-01-21 20:59:06.178,1.999999,2
50722,50722,2021-01-21 20:59:36.178,1.999999,2
50732,50732,2021-01-21 21:00:06.178,1.999999,2
50742,50742,2021-01-21 21:00:36.178,1.999999,2
50752,50752,2021-01-21 21:01:06.178,1.999999,2
50762,50762,2021-01-21 21:01:36.178,1.999999,2
50772,50772,2021-01-21 21:02:06.178,1.999999,2
50782,50782,2021-01-21 21:02:36.178,1.999999,2
50792,50792,2021-01-21 21:03:06.178,1.999999,2
50802,50802,2021-01-21 21:03:36.178,1.999999,2
50812,50812,2021-01-21 21:04:06.178,1.999999,2
50822,50822,2021-01-21 21:04:36.178,1.999999,2
50832,50832,2021-01-21 21:05:06.178,1.999999,2
50842,50842,2021-01-21 21:05:36.178,1.999999,2
50852,50852,2021-01-21 21:06:06.178,1.999999,2
50862,50862,2021-01-21 21:06:36.178,1.999999,2
50872,50872,2021-01-21 21:07:06.178,1.999999,2
50882,50882,2021-01-21 21:07:36.178,1.999999,2
50892,50892,2021-01-21 21:08:06.178,1.999999,2
50902,50902,2021-01-21 21:08:36.178,1.999999,2
50912,50912,2021-01-21 21:09:06.178,1.999999,2
50922,50922,2021-01-21 21:09:36.178,1.999999,2
50932,50932,2021-01-21 21:10:06.178,1.999999,2
50942,50942,2021-01-21 21:10:36.178,1.999999,2
50952,50952,2021-01-21 21:11:06.178,1.999999,2
50962,50962,2021-01-21 21:11:36.178,1.999999,2
50972,50972,2021-01-21 21:12:06.178,1.999999,2
50982,50982,2021-01-21 21:12:36.178,1.999999,2
50992,50992,2021-01-21 21:13:06.178,1.999999,2
51002,51002,2021-01-21 21:13:36.178,1.999999,2
51012,51012,2021-01-21 21:14:06.178,1.999999,2
51022,51022,2021-01-21 21:14:36.178,1.999999,2
51032,51032,2021-01-21 21:15:06.178,1.999999,2
51042,51042,2021-01-21 21:15:36.178,1.999999,2
51052,51052,2021-01-21 21:16:06.178,1.999999,2
51062,51062,2021-01-21 21:16:36.178,1.999999,2
51072,51072,2021-01-21 21:17:06.178,1.999999,2
51082,51082,2021-01-21 21:17:36.178,1.999999,2
51092,51092,2021-01-21 21:18:06.178,1.999999,2
51102,51102,2021-01-21 21:18:36.178,1.999999,2
51112,51112,2021-01-21 21:19:06.178,1.999999,2
51122,51122,2021-01-21 21:19:36.178,1.999999,2
51132,51132,2021-01-21 21:20:06.178,1.999999,2
51142,51142,2021-01-21 21:20:36.178,1.999999,2
51152,51152,2021-01-21 21:21:06.178,1.999999,2
51162,51162,2021-01-21 21:21:36.178,1.999999,2
51172,51172,2021-01-21 21:22:06.178,1.999999,2
51182,51182,2021-01-21 21:22:36.178,1.999999,2
51192,51192,2021-01-21 21:23:06.178,1.999999,2
51202,51202,2021-01-21 21:23:36.178,1.999999,2
51212,51212,2021-01-21 21:24:06.178,1.999999,2
51222,51222,2021-01-21 21:24:36.178,1.999999,2
51232,51232,2021-01-21 21:25:06.178,1.999999,2
51242,51242,2021-01-21 21:25:36.178,1.999999,2
51252,51252,2021-01-21 21:26:06.178,1.999999,2
51262,51262,2021-01-21 21:26:36.178,1.999999,2
51272,51272,2021-01-21 21:27:06.178,1.999999,2
51282,51282,2021-01-21 21:27:36.178,1.999999,2
51292,51292,2021-01-21 21:28:06.178,1.999999,2
51302,51302,2021-01-21 21:28:36.178,1.999999,2
51312,51312,2021-01-21 21:29:06.178,1.999999,2
51322,51322,2021-01-21 21:29:36.178,1.999999,2
51332,51332,2021-01-21 21:30:06.178,1.999999,2
51342,51342,2021-01-21 21:30:36.178,1.999999,2
51352,51352,2021-01-21 21:31:06.178,1.999999,2
51362,51362,2021-01-21 21:31:36.178,1.999999,2
51372,51372,2021-01-21 21:32:06.178,1.999999,2
51382,51382,2021-01-21 21:32:36.178,1.999999,2
51392,51392,2021-01-21 21:33:06.178,1.999999,2
51402,51402,2021-01-21 21:33:36.178,1.999999,2
51412,51412,2021-01-21 21:34:06.178,1.999999,2
51422,51422,2021-01-21 21:34:36.178,1.999999,2
51432,51432,2021-01-21 21:35:06.178,1.999999,2
51442,51442,2021-01-21 21:35:36.178,1.999999,2
51452,51452,2021-01-21 21:36:06.178,1.999999,2
51462,51462,2021-01-21 21:36:36.178,1.999999,2
51472,51472,2021-01-21 21:37:06.178,1.999999,2
51482,51482,2021-01-21 21:37:36.178,1.999999,2
51492,51492,2021-01-21 21:38:06.178,1.999999,2
51502,51502,2021-01-21 21:38:36.178,1.999999,2
51512,51512,2021-01-21 21:39:06.178,1.999999,2
51522,51522,2021-01-21 21:39:36.178,1.999999,2
51532,51532,2021-01-21 21:40:06.178,1.999999,2
51542,51542,2021-01-21 21:40:36.178,1.999999,2
51552,51552,2021-01-21 21:41:06.178,1.999999,2
51562,51562,2021-01-21 21:41:36.178,1.999999,2
51572,51572,2021-01-21 21:42:06.178,1.999999,2
51582,51582,2021-01-21 21:42:36.178,1.999999,2
51592,51592,2021-01-21 21:43:06.178,1.999999,2
51602,51602,2021-01-21 21:43:36.178,1.999999,2
51612,51612,2021-01-21 21:44:06.178,1.999999,2
51622,51622,2021-01-21 21:44:36.178,1.999999,2
51632,51632,2021-01-21 21:45:06.178,1.999999,2
51642,51642,2021-01-21 21:45:36.178,1.999999,2
51652,51652,2021-01-21 21:46:06.178,1.999999,2
51662,51662,2021-01-21 21:46:36.178,1.999999,2
51672,51672,2021-01-21 21:47:06.178,1.999999,2
51682,51682,2021-01-21 21:47:36.178,1.999999,2
51692,51692,2021-01-21 21:48:06.178,1.999999,2
51702,51702,2021-01-21 21:48:36.178,1.999999,2
51712,51712,2021-01-21 21:49:06.178,1.999999,2
51722,51722,2021-01-21 21:49:36.178,1.999999,2
51732,51732,2021-01-21 21:50:06.178,1.999999,2
51742,51742,2021-01-21 21:50:36.178,1.999999,2
51752,51752,2021-01-21 21:51:06.178,1.999999,2
51762,51762,2021-01-21 21:51:36.178,1.999999,2
51772,51772,2021-01-21 21:52:06.178,1.999999,2
51782,51782,2021-01-21 21:52:36.178,1.999999,2
51792,51792,2021-01-21 21:53:06.178,1.999999,2
51802,51802,2021-01-21 21:53:36.178,1.999999,2
51812,51812,2021-01-21 21:54:06.178,1.999999,2
51822,51822,2021-01-21 21:54:36.178,1.999999,2
51832,51832,2021-01-21 21:55:06.178,1.999999,2
51842,51842,2021-01-21 21:55:36.178,1.999999,2
51852,51852,2021-01-21 21:56:06.178,1.999999,2
51862,51862,2021-01-21 21:56:36.178,1.999999,2
51872,51872,2021-01-21 21:57:06.178,1.999999,2
51882,51882,2021-01-21 21:57:36.178,1.999999,2
51892,51892,2021-01-21 21:58:06.178,1.999999,2
51902,51902,2021-01-21 21:58:36.178,1.6174357,2
51912,51912,2021-01-21 21:59:06.178,1.6192787,2
51922,51922,2021-01-21 21:59:36.178,1.6201729999999999,2
51932,51932,2021-01-21 22:00:06.178,1.6204648000000001,2
51942,51942,2021-01-21 22:00:36.178,1.6205684999999999,2
51952,51952,2021-01-21 22:01:06.178,1.6206040000000002,2
51962,51962,2021-01-21 22:01:36.178,1.6206176,2
51972,51972,2021-01-21 22:02:06.178,1.4620278,2
51982,51982,2021-01-21 22:02:36.178,1.3449996000000002,2
51992,51992,2021-01-21 22:03:06.178,1.2505593000000002,2
52002,52002,2021-01-21 22:03:36.178,1.1708789,2
52012,52012,2021-01-21 22:04:06.178,1.1019263000000001,2
52022,52022,2021-01-21 22:04:36.178,1.0413200999999999,2
52032,52032,2021-01-21 22:05:06.178,0.987509,2
52042,52042,2021-01-21 22:05:36.178,0.93941593,2
52052,52052,2021-01-21 22:06:06.178,0.89625835,2
52062,52062,2021-01-21 22:06:36.178,0.8574525,2
52072,52072,2021-01-21 22:07:06.178,0.8225528,2
52082,52082,2021-01-21 22:07:36.178,0.7912183,2
52092,52092,2021-01-21 22:08:06.178,0.76318777,2
52102,52102,2021-01-21 22:08:36.178,0.73826706,2
52112,52112,2021-01-21 22:09:06.178,0.7163174,2
52122,52122,2021-01-21 22:09:36.178,0.6972513000000001,2
52132,52132,2021-01-21 22:10:06.178,0.6810311,2
52142,52142,2021-01-21 22:10:36.178,0.66767,2
52152,52152,2021-01-21 22:11:06.178,0.65723836,2
52162,52162,2021-01-21 22:11:36.178,0.6498753,2
52172,52172,2021-01-21 22:12:06.178,0.64580727,2
52182,52182,2021-01-21 22:12:36.178,0.6453806,2
52192,52192,2021-01-21 22:13:06.178,0.64911866,2
52202,52202,2021-01-21 22:13:36.178,0.64912105,2
52212,52212,2021-01-21 22:14:06.178,0.6578248999999999,2
52222,52222,2021-01-21 22:14:36.178,0.67277455,2
52232,52232,2021-01-21 22:15:06.178,0.69619024,2
52242,52242,2021-01-21 22:15:36.178,0.7324816999999999,2
52252,52252,2021-01-21 22:16:06.178,0.79315543,2
52262,52262,2021-01-21 22:16:36.178,1.0000007,2
52272,52272,2021-01-21 22:17:06.178,1.0000007,2
52282,52282,2021-01-21 22:17:36.178,1.0000007,2
52292,52292,2021-01-21 22:18:06.178,1.0000007,2
52302,52302,2021-01-21 22:18:36.178,1.0000007,2
52312,52312,2021-01-21 22:19:06.178,1.0000007,2
52322,52322,2021-01-21 22:19:36.178,1.0000007,2
52332,52332,2021-01-21 22:20:06.178,1.0000007,2
52342,52342,2021-01-21 22:20:36.178,1.0000007,2
52352,52352,2021-01-21 22:21:06.178,1.0000007,2
52362,52362,2021-01-21 22:21:36.178,1.0000007,2
52372,52372,2021-01-21 22:22:06.178,1.0000007,2
52382,52382,2021-01-21 22:22:36.178,1.0000007,2
52392,52392,2021-01-21 22:23:06.178,1.0000007,2
52402,52402,2021-01-21 22:23:36.178,1.0000007,2
52412,52412,2021-01-21 22:24:06.178,1.0000007,2
52422,52422,2021-01-21 22:24:36.178,1.0000007,2
52432,52432,2021-01-21 22:25:06.178,1.0000007,2
52442,52442,2021-01-21 22:25:36.178,1.0000007,2
52452,52452,2021-01-21 22:26:06.178,1.0000007,2
52462,52462,2021-01-21 22:26:36.178,1.0000007,2
52472,52472,2021-01-21 22:27:06.178,1.0000007,2
52482,52482,2021-01-21 22:27:36.178,1.0000007,2
52492,52492,2021-01-21 22:28:06.178,1.0000007,2
52502,52502,2021-01-21 22:28:36.178,1.0000007,2
52512,52512,2021-01-21 22:29:06.178,1.0000007,2
52522,52522,2021-01-21 22:29:36.178,1.0000007,2
52532,52532,2021-01-21 22:30:06.178,1.0000007,2
52542,52542,2021-01-21 22:30:36.178,1.0000007,2
52552,52552,2021-01-21 22:31:06.178,1.0000007,2
52562,52562,2021-01-21 22:31:36.178,1.0000007,2
52572,52572,2021-01-21 22:32:06.178,1.0000007,2
52582,52582,2021-01-21 22:32:36.178,1.0000007,2
52592,52592,2021-01-21 22:33:06.178,1.0000007,2
52602,52602,2021-01-21 22:33:36.178,1.0000007,2
52612,52612,2021-01-21 22:34:06.178,1.0000007,2
52622,52622,2021-01-21 22:34:36.178,1.0000007,2
52632,52632,2021-01-21 22:35:06.178,1.0000007,2
52642,52642,2021-01-21 22:35:36.178,1.0000007,2
52652,52652,2021-01-21 22:36:06.178,1.0000007,2
52662,52662,2021-01-21 22:36:36.178,1.0000007,2
52672,52672,2021-01-21 22:37:06.178,1.0000007,2
52682,52682,2021-01-21 22:37:36.178,1.0000007,2
52692,52692,2021-01-21 22:38:06.178,1.0000007,2
52702,52702,2021-01-21 22:38:36.178,1.0000007,2
52712,52712,2021-01-21 22:39:06.178,1.0000007,2
52722,52722,2021-01-21 22:39:36.178,1.0000007,2
52732,52732,2021-01-21 22:40:06.178,1.0000007,2
52742,52742,2021-01-21 22:40:36.178,1.0000007,2
52752,52752,2021-01-21 22:41:06.178,1.0000007,2
52762,52762,2021-01-21 22:41:36.178,1.0000007,2
52772,52772,2021-01-21 22:42:06.178,1.0000007,2
52782,52782,2021-01-21 22:42:36.178,1.0000007,2
52792,52792,2021-01-21 22:43:06.178,1.0000007,2
52802,52802,2021-01-21 22:43:36.178,1.0000007,2
52812,52812,2021-01-21 22:44:06.178,1.0000007,2
52822,52822,2021-01-21 22:44:36.178,1.0000007,2
52832,52832,2021-01-21 22:45:06.178,1.0000007,2
52842,52842,2021-01-21 22:45:36.178,1.0000007,2
52852,52852,2021-01-21 22:46:06.178,1.0000007,2
52862,52862,2021-01-21 22:46:36.178,1.0000007,2
52872,52872,2021-01-21 22:47:06.178,1.0000007,2
52882,52882,2021-01-21 22:47:36.178,1.0000007,2
52892,52892,2021-01-21 22:48:06.178,1.0000007,2
52902,52902,2021-01-21 22:48:36.178,1.0000007,2
52912,52912,2021-01-21 22:49:06.178,1.0000007,2
52922,52922,2021-01-21 22:49:36.178,1.0000007,2
52932,52932,2021-01-21 22:50:06.178,1.0000007,2
52942,52942,2021-01-21 22:50:36.178,1.0000007,2
52952,52952,2021-01-21 22:51:06.178,1.0000007,2
52962,52962,2021-01-21 22:51:36.178,1.0000007,2
52972,52972,2021-01-21 22:52:06.178,1.0000007,2
52982,52982,2021-01-21 22:52:36.178,1.0000007,2
52992,52992,2021-01-21 22:53:06.178,1.0000007,2
53002,53002,2021-01-21 22:53:36.178,1.0000007,2
53012,53012,2021-01-21 22:54:06.178,1.0000007,2
53022,53022,2021-01-21 22:54:36.178,1.0000007,2
53032,53032,2021-01-21 22:55:06.178,1.0000007,2
53042,53042,2021-01-21 22:55:36.178,1.0000007,2
53052,53052,2021-01-21 22:56:06.178,1.0000007,2
53062,53062,2021-01-21 22:56:36.178,1.0000007,2
53072,53072,2021-01-21 22:57:06.178,1.0000007,2
53082,53082,2021-01-21 22:57:36.178,1.0000007,2
53092,53092,2021-01-21 22:58:06.178,1.0000007,2
53102,53102,2021-01-21 22:58:36.178,1.0000007,2
53112,53112,2021-01-21 22:59:06.178,1.0000007,2
53122,53122,2021-01-21 22:59:36.178,1.0000007,2
53132,53132,2021-01-21 23:00:06.178,1.0000007,2
53142,53142,2021-01-21 23:00:36.178,1.0000007,2
53152,53152,2021-01-21 23:01:06.178,1.0000007,2
53162,53162,2021-01-21 23:01:36.178,1.0000007,2
53172,53172,2021-01-21 23:02:06.178,1.0000007,2
53182,53182,2021-01-21 23:02:36.178,1.0000007,2
53192,53192,2021-01-21 23:03:06.178,1.0000007,2
53202,53202,2021-01-21 23:03:36.178,1.0000007,2
53212,53212,2021-01-21 23:04:06.178,1.0000007,2
53222,53222,2021-01-21 23:04:36.178,1.0000007,2
53232,53232,2021-01-21 23:05:06.178,1.0000007,2
53242,53242,2021-01-21 23:05:36.178,1.0000007,2
53252,53252,2021-01-21 23:06:06.178,1.0000007,2
53262,53262,2021-01-21 23:06:36.178,1.0000007,2
53272,53272,2021-01-21 23:07:06.178,1.0000007,2
53282,53282,2021-01-21 23:07:36.178,1.0000007,2
53292,53292,2021-01-21 23:08:06.178,1.0000007,2
53302,53302,2021-01-21 23:08:36.178,1.0000007,2
53312,53312,2021-01-21 23:09:06.178,1.0000007,2
53322,53322,2021-01-21 23:09:36.178,1.0000007,2
53332,53332,2021-01-21 23:10:06.178,1.0000007,2
53342,53342,2021-01-21 23:10:36.178,1.0000007,2
53352,53352,2021-01-21 23:11:06.178,1.0000007,2
53362,53362,2021-01-21 23:11:36.178,1.0000007,2
53372,53372,2021-01-21 23:12:06.178,1.0000007,2
53382,53382,2021-01-21 23:12:36.178,1.0000007,2
53392,53392,2021-01-21 23:13:06.178,1.0000007,2
53402,53402,2021-01-21 23:13:36.178,1.0000007,2
53412,53412,2021-01-21 23:14:06.178,1.0000007,2
53422,53422,2021-01-21 23:14:36.178,1.0000007,2
53432,53432,2021-01-21 23:15:06.178,1.0000007,2
53442,53442,2021-01-21 23:15:36.178,1.0000007,2
53452,53452,2021-01-21 23:16:06.178,1.0000007,2
53462,53462,2021-01-21 23:16:36.178,1.0000007,2
53472,53472,2021-01-21 23:17:06.178,1.0000007,2
53482,53482,2021-01-21 23:17:36.178,1.0000007,2
53492,53492,2021-01-21 23:18:06.178,1.0000007,2
53502,53502,2021-01-21 23:18:36.178,1.0000007,2
53512,53512,2021-01-21 23:19:06.178,1.0000007,2
53522,53522,2021-01-21 23:19:36.178,1.0000007,2
53532,53532,2021-01-21 23:20:06.178,1.0000007,2
53542,53542,2021-01-21 23:20:36.178,1.0000007,2
53552,53552,2021-01-21 23:21:06.178,1.0000007,2
53562,53562,2021-01-21 23:21:36.178,1.0000007,2
53572,53572,2021-01-21 23:22:06.178,1.0000007,2
53582,53582,2021-01-21 23:22:36.178,1.0000007,2
53592,53592,2021-01-21 23:23:06.178,1.0000007,2
53602,53602,2021-01-21 23:23:36.178,1.0000007,2
53612,53612,2021-01-21 23:24:06.178,1.0000007,2
53622,53622,2021-01-21 23:24:36.178,1.0000007,2
53632,53632,2021-01-21 23:25:06.178,1.0000007,2
53642,53642,2021-01-21 23:25:36.178,1.0000007,2
53652,53652,2021-01-21 23:26:06.178,1.0000007,2
53662,53662,2021-01-21 23:26:36.178,1.0000007,2
53672,53672,2021-01-21 23:27:06.178,1.0000007,2
53682,53682,2021-01-21 23:27:36.178,1.0000007,2
53692,53692,2021-01-21 23:28:06.178,1.0000007,2
53702,53702,2021-01-21 23:28:36.178,1.0000007,2
53712,53712,2021-01-21 23:29:06.178,1.0000007,2
53722,53722,2021-01-21 23:29:36.178,1.0000007,2
53732,53732,2021-01-21 23:30:06.178,1.0000007,2
53742,53742,2021-01-21 23:30:36.178,1.0000007,2
53752,53752,2021-01-21 23:31:06.178,1.0000007,2
53762,53762,2021-01-21 23:31:36.178,1.0000007,2
53772,53772,2021-01-21 23:32:06.178,1.0000007,2
53782,53782,2021-01-21 23:32:36.178,1.0000007,2
53792,53792,2021-01-21 23:33:06.178,1.0000007,2
53802,53802,2021-01-21 23:33:36.178,1.0000007,2
53812,53812,2021-01-21 23:34:06.178,1.0000007,2
53822,53822,2021-01-21 23:34:36.178,1.0000007,2
53832,53832,2021-01-21 23:35:06.178,1.0000007,2
53842,53842,2021-01-21 23:35:36.178,1.0000007,2
53852,53852,2021-01-21 23:36:06.178,1.0000007,2
53862,53862,2021-01-21 23:36:36.178,1.0000007,2
53872,53872,2021-01-21 23:37:06.178,1.0000007,2
53882,53882,2021-01-21 23:37:36.178,1.0000007,2
53892,53892,2021-01-21 23:38:06.178,1.0000007,2
53902,53902,2021-01-21 23:38:36.178,1.0000007,2
53912,53912,2021-01-21 23:39:06.178,1.0000007,2
53922,53922,2021-01-21 23:39:36.178,1.0000007,2
53932,53932,2021-01-21 23:40:06.178,1.0000007,2
53942,53942,2021-01-21 23:40:36.178,1.0000007,2
53952,53952,2021-01-21 23:41:06.178,1.0000007,2
53962,53962,2021-01-21 23:41:36.178,1.0000007,2
53972,53972,2021-01-21 23:42:06.178,1.0000007,2
53982,53982,2021-01-21 23:42:36.178,1.0000007,2
53992,53992,2021-01-21 23:43:06.178,1.0000007,2
54002,54002,2021-01-21 23:43:36.178,1.0000007,2
54012,54012,2021-01-21 23:44:06.178,1.0000007,2
54022,54022,2021-01-21 23:44:36.178,1.0000007,2
54032,54032,2021-01-21 23:45:06.178,1.0000007,2
54042,54042,2021-01-21 23:45:36.178,1.0000007,2
54052,54052,2021-01-21 23:46:06.178,1.0000007,2
54062,54062,2021-01-21 23:46:36.178,1.0000007,2
54072,54072,2021-01-21 23:47:06.178,1.0000007,2
54082,54082,2021-01-21 23:47:36.178,1.0000007,2
54092,54092,2021-01-21 23:48:06.178,1.0000007,2
54102,54102,2021-01-21 23:48:36.178,1.0000007,2
54112,54112,2021-01-21 23:49:06.178,1.0000007,2
54122,54122,2021-01-21 23:49:36.178,1.0000007,2
54132,54132,2021-01-21 23:50:06.178,1.0000007,2
54142,54142,2021-01-21 23:50:36.178,1.0000007,2
54152,54152,2021-01-21 23:51:06.178,1.0000007,2
54162,54162,2021-01-21 23:51:36.178,1.0000007,2
54172,54172,2021-01-21 23:52:06.178,1.0000007,2
54182,54182,2021-01-21 23:52:36.178,1.0000007,2
54192,54192,2021-01-21 23:53:06.178,1.0000007,2
54202,54202,2021-01-21 23:53:36.178,1.0000007,2
54212,54212,2021-01-21 23:54:06.178,1.0000007,2
54222,54222,2021-01-21 23:54:36.178,1.0000007,2
54232,54232,2021-01-21 23:55:06.178,1.0000007,2
54242,54242,2021-01-21 23:55:36.178,1.0000007,2
54252,54252,2021-01-21 23:56:06.178,1.0000007,2
54262,54262,2021-01-21 23:56:36.178,1.0000007,2
54272,54272,2021-01-21 23:57:06.178,1.0000007,2
54282,54282,2021-01-21 23:57:36.178,1.0000007,2
54292,54292,2021-01-21 23:58:06.178,1.0000007,2
54302,54302,2021-01-21 23:58:36.178,1.0000007,2
54312,54312,2021-01-21 23:59:06.178,1.0000007,2
54322,54322,2021-01-21 23:59:36.178,1.0000007,2
54332,54332,2021-01-22 00:00:06.178,1.0000007,2
54342,54342,2021-01-22 00:00:36.178,1.0000007,2
54352,54352,2021-01-22 00:01:06.178,1.0000007,2
54362,54362,2021-01-22 00:01:36.178,1.0000007,2
54372,54372,2021-01-22 00:02:06.178,1.0000007,2
54382,54382,2021-01-22 00:02:36.178,1.0000007,2
54392,54392,2021-01-22 00:03:06.178,1.0000007,2
54402,54402,2021-01-22 00:03:36.178,1.0000007,2
54412,54412,2021-01-22 00:04:06.178,1.0000007,2
54422,54422,2021-01-22 00:04:36.178,1.0000007,2
54432,54432,2021-01-22 00:05:06.178,1.0000007,2
54442,54442,2021-01-22 00:05:36.178,1.0000007,2
54452,54452,2021-01-22 00:06:06.178,1.0000007,2
54462,54462,2021-01-22 00:06:36.178,1.0000007,2
54472,54472,2021-01-22 00:07:06.178,1.0000007,2
54482,54482,2021-01-22 00:07:36.178,1.0000007,2
54492,54492,2021-01-22 00:08:06.178,1.0000007,2
54502,54502,2021-01-22 00:08:36.178,1.0000007,2
54512,54512,2021-01-22 00:09:06.178,1.0000007,2
54522,54522,2021-01-22 00:09:36.178,1.0000007,2
54532,54532,2021-01-22 00:10:06.178,1.0000007,2
54542,54542,2021-01-22 00:10:36.178,1.0000007,2
54552,54552,2021-01-22 00:11:06.178,1.0000007,2
54562,54562,2021-01-22 00:11:36.178,1.0000007,2
54572,54572,2021-01-22 00:12:06.178,1.0000007,2
54582,54582,2021-01-22 00:12:36.178,1.0000007,2
54592,54592,2021-01-22 00:13:06.178,1.0000007,2
54602,54602,2021-01-22 00:13:36.178,1.0000007,2
54612,54612,2021-01-22 00:14:06.178,1.0000007,2
54622,54622,2021-01-22 00:14:36.178,1.0000007,2
54632,54632,2021-01-22 00:15:06.178,1.0000007,2
54642,54642,2021-01-22 00:15:36.178,1.0000007,2
54652,54652,2021-01-22 00:16:06.178,1.0000007,2
54662,54662,2021-01-22 00:16:36.178,1.0000007,2
54672,54672,2021-01-22 00:17:06.178,1.0000007,2
54682,54682,2021-01-22 00:17:36.178,1.0000007,2
54692,54692,2021-01-22 00:18:06.178,1.0000007,2
54702,54702,2021-01-22 00:18:36.178,1.0000007,2
54712,54712,2021-01-22 00:19:06.178,1.0000007,2
54722,54722,2021-01-22 00:19:36.178,1.0000007,2
54732,54732,2021-01-22 00:20:06.178,1.0000007,2
54742,54742,2021-01-22 00:20:36.178,1.0000007,2
54752,54752,2021-01-22 00:21:06.178,1.0000007,2
54762,54762,2021-01-22 00:21:36.178,1.0000007,2
54772,54772,2021-01-22 00:22:06.178,1.0000007,2
54782,54782,2021-01-22 00:22:36.178,1.0000007,2
54792,54792,2021-01-22 00:23:06.178,1.0000007,2
54802,54802,2021-01-22 00:23:36.178,1.0000007,2
54812,54812,2021-01-22 00:24:06.178,1.0000007,2
54822,54822,2021-01-22 00:24:36.178,1.0000007,2
54832,54832,2021-01-22 00:25:06.178,1.0000007,2
54842,54842,2021-01-22 00:25:36.178,1.0000007,2
54852,54852,2021-01-22 00:26:06.178,1.0000007,2
54862,54862,2021-01-22 00:26:36.178,1.0000007,2
54872,54872,2021-01-22 00:27:06.178,1.0000007,2
54882,54882,2021-01-22 00:27:36.178,1.0000007,2
54892,54892,2021-01-22 00:28:06.178,1.0000007,2
54902,54902,2021-01-22 00:28:36.178,1.0000007,2
54912,54912,2021-01-22 00:29:06.178,1.0000007,2
54922,54922,2021-01-22 00:29:36.178,1.0000007,2
54932,54932,2021-01-22 00:30:06.178,1.0000007,2
54942,54942,2021-01-22 00:30:36.178,1.0000007,2
54952,54952,2021-01-22 00:31:06.178,1.0000007,2
54962,54962,2021-01-22 00:31:36.178,1.0000007,2
54972,54972,2021-01-22 00:32:06.178,1.0000007,2
54982,54982,2021-01-22 00:32:36.178,1.0000007,2
54992,54992,2021-01-22 00:33:06.178,1.0000007,2
55002,55002,2021-01-22 00:33:36.178,1.0000007,2
55012,55012,2021-01-22 00:34:06.178,1.0000007,2
55022,55022,2021-01-22 00:34:36.178,1.0000007,2
55032,55032,2021-01-22 00:35:06.178,1.0000007,2
55042,55042,2021-01-22 00:35:36.178,1.0000007,2
55052,55052,2021-01-22 00:36:06.178,1.0000007,2
55062,55062,2021-01-22 00:36:36.178,1.0000007,2
55072,55072,2021-01-22 00:37:06.178,1.0000007,2
55082,55082,2021-01-22 00:37:36.178,1.0000007,2
55092,55092,2021-01-22 00:38:06.178,1.0000007,2
55102,55102,2021-01-22 00:38:36.178,1.0000007,2
55112,55112,2021-01-22 00:39:06.178,1.0000007,2
55122,55122,2021-01-22 00:39:36.178,1.0000007,2
55132,55132,2021-01-22 00:40:06.178,1.0000007,2
55142,55142,2021-01-22 00:40:36.178,1.0000007,2
55152,55152,2021-01-22 00:41:06.178,1.0000007,2
55162,55162,2021-01-22 00:41:36.178,1.0000007,2
55172,55172,2021-01-22 00:42:06.178,1.0000007,2
55182,55182,2021-01-22 00:42:36.178,1.0000007,2
55192,55192,2021-01-22 00:43:06.178,1.0000007,2
55202,55202,2021-01-22 00:43:36.178,1.0000007,2
55212,55212,2021-01-22 00:44:06.178,1.0000007,2
55222,55222,2021-01-22 00:44:36.178,1.0000007,2
55232,55232,2021-01-22 00:45:06.178,1.0000007,2
55242,55242,2021-01-22 00:45:36.178,1.0000007,2
55252,55252,2021-01-22 00:46:06.178,1.0000007,2
55262,55262,2021-01-22 00:46:36.178,1.0000007,2
55272,55272,2021-01-22 00:47:06.178,1.0000007,2
55282,55282,2021-01-22 00:47:36.178,1.0000007,2
55292,55292,2021-01-22 00:48:06.178,1.0000007,2
55302,55302,2021-01-22 00:48:36.178,1.0000007,2
55312,55312,2021-01-22 00:49:06.178,1.0000007,2
55322,55322,2021-01-22 00:49:36.178,1.0000007,2
55332,55332,2021-01-22 00:50:06.178,1.0000007,2
55342,55342,2021-01-22 00:50:36.178,1.0000007,2
55352,55352,2021-01-22 00:51:06.178,1.0000007,2
55362,55362,2021-01-22 00:51:36.178,1.0000007,2
55372,55372,2021-01-22 00:52:06.178,1.0000007,2
55382,55382,2021-01-22 00:52:36.178,1.0000007,2
55392,55392,2021-01-22 00:53:06.178,1.0000007,2
55402,55402,2021-01-22 00:53:36.178,1.0000007,2
55412,55412,2021-01-22 00:54:06.178,1.0000007,2
55422,55422,2021-01-22 00:54:36.178,1.0000007,2
55432,55432,2021-01-22 00:55:06.178,1.0000007,2
55442,55442,2021-01-22 00:55:36.178,1.0000007,2
55452,55452,2021-01-22 00:56:06.178,1.0000007,2
55462,55462,2021-01-22 00:56:36.178,1.0000007,2
55472,55472,2021-01-22 00:57:06.178,1.0000007,2
55482,55482,2021-01-22 00:57:36.178,1.0000007,2
55492,55492,2021-01-22 00:58:06.178,1.0000007,2
55502,55502,2021-01-22 00:58:36.178,1.0000007,2
55512,55512,2021-01-22 00:59:06.178,1.0000007,2
55522,55522,2021-01-22 00:59:36.178,1.0000007,2
55532,55532,2021-01-22 01:00:06.178,1.0000007,2
55542,55542,2021-01-22 01:00:36.178,1.0000007,2
55552,55552,2021-01-22 01:01:06.178,1.0000007,2
55562,55562,2021-01-22 01:01:36.178,1.0000007,2
55572,55572,2021-01-22 01:02:06.178,1.0000007,2
55582,55582,2021-01-22 01:02:36.178,1.0000007,2
55592,55592,2021-01-22 01:03:06.178,1.0000007,2
55602,55602,2021-01-22 01:03:36.178,1.0000007,2
55612,55612,2021-01-22 01:04:06.178,1.0000007,2
55622,55622,2021-01-22 01:04:36.178,1.0000007,2
55632,55632,2021-01-22 01:05:06.178,1.0000007,2
55642,55642,2021-01-22 01:05:36.178,1.0000007,2
55652,55652,2021-01-22 01:06:06.178,1.0000007,2
55662,55662,2021-01-22 01:06:36.178,1.0000007,2
55672,55672,2021-01-22 01:07:06.178,1.0000007,2
55682,55682,2021-01-22 01:07:36.178,1.0000007,2
55692,55692,2021-01-22 01:08:06.178,1.0000007,2
55702,55702,2021-01-22 01:08:36.178,1.0000007,2
55712,55712,2021-01-22 01:09:06.178,1.0000007,2
55722,55722,2021-01-22 01:09:36.178,1.0000007,2
55732,55732,2021-01-22 01:10:06.178,1.0000007,2
55742,55742,2021-01-22 01:10:36.178,1.0000007,2
55752,55752,2021-01-22 01:11:06.178,1.0000007,2
55762,55762,2021-01-22 01:11:36.178,1.0000007,2
55772,55772,2021-01-22 01:12:06.178,1.0000007,2
55782,55782,2021-01-22 01:12:36.178,1.0000007,2
55792,55792,2021-01-22 01:13:06.178,1.0000007,2
55802,55802,2021-01-22 01:13:36.178,1.0000007,2
55812,55812,2021-01-22 01:14:06.178,1.0000007,2
55822,55822,2021-01-22 01:14:36.178,1.0000007,2
55832,55832,2021-01-22 01:15:06.178,1.0000007,2
55842,55842,2021-01-22 01:15:36.178,1.0000007,2
55852,55852,2021-01-22 01:16:06.178,1.0000007,2
55862,55862,2021-01-22 01:16:36.178,1.0000007,2
55872,55872,2021-01-22 01:17:06.178,1.0000007,2
55882,55882,2021-01-22 01:17:36.178,1.0000007,2
55892,55892,2021-01-22 01:18:06.178,1.0000007,2
55902,55902,2021-01-22 01:18:36.178,1.0000007,2
55912,55912,2021-01-22 01:19:06.178,1.0000007,2
55922,55922,2021-01-22 01:19:36.178,1.0000007,2
55932,55932,2021-01-22 01:20:06.178,1.0000007,2
55942,55942,2021-01-22 01:20:36.178,1.0000007,2
55952,55952,2021-01-22 01:21:06.178,1.0000007,2
55962,55962,2021-01-22 01:21:36.178,1.0000007,2
55972,55972,2021-01-22 01:22:06.178,1.0000007,2
55982,55982,2021-01-22 01:22:36.178,1.0000007,2
55992,55992,2021-01-22 01:23:06.178,1.0000007,2
56002,56002,2021-01-22 01:23:36.178,1.0000007,2
56012,56012,2021-01-22 01:24:06.178,1.0000007,2
56022,56022,2021-01-22 01:24:36.178,1.0000007,2
56032,56032,2021-01-22 01:25:06.178,1.0000007,2
56042,56042,2021-01-22 01:25:36.178,1.0000007,2
56052,56052,2021-01-22 01:26:06.178,1.0000007,2
56062,56062,2021-01-22 01:26:36.178,1.0000007,2
56072,56072,2021-01-22 01:27:06.178,1.0000007,2
56082,56082,2021-01-22 01:27:36.178,1.0000007,2
56092,56092,2021-01-22 01:28:06.178,1.0000007,2
56102,56102,2021-01-22 01:28:36.178,1.0000007,2
56112,56112,2021-01-22 01:29:06.178,1.0000007,2
56122,56122,2021-01-22 01:29:36.178,1.0000007,2
56132,56132,2021-01-22 01:30:06.178,1.0000007,2
56142,56142,2021-01-22 01:30:36.178,1.0000007,2
56152,56152,2021-01-22 01:31:06.178,1.0000007,2
56162,56162,2021-01-22 01:31:36.178,1.0000007,2
56172,56172,2021-01-22 01:32:06.178,1.0000007,2
56182,56182,2021-01-22 01:32:36.178,1.0000007,2
56192,56192,2021-01-22 01:33:06.178,1.0000007,2
56202,56202,2021-01-22 01:33:36.178,1.0000007,2
56212,56212,2021-01-22 01:34:06.178,1.0000007,2
