,Unnamed: 0,time,prediction,step
42958,42958,2021-01-21 14:34:06.178,15.578215,8
42968,42968,2021-01-21 14:34:36.178,30.342556,8
42978,42978,2021-01-21 14:35:06.178,32.266502,8
42988,42988,2021-01-21 14:35:36.178,32.230846,8
42998,42998,2021-01-21 14:36:06.178,31.529128999999998,8
43008,43008,2021-01-21 14:36:36.178,31.575440000000004,8
43018,43018,2021-01-21 14:37:06.178,31.630165,8
43028,43028,2021-01-21 14:37:36.178,31.662739000000002,8
43038,43038,2021-01-21 14:38:06.178,32.185375,8
43048,43048,2021-01-21 14:38:36.178,32.73981,8
43058,43058,2021-01-21 14:39:06.178,33.18098,8
43068,43068,2021-01-21 14:39:36.178,33.492740000000005,8
43078,43078,2021-01-21 14:40:06.178,33.79592,8
43088,43088,2021-01-21 14:40:36.178,33.942640000000004,8
43098,43098,2021-01-21 14:41:06.178,34.458626,8
43108,43108,2021-01-21 14:41:36.178,34.861247999999996,8
43118,43118,2021-01-21 14:42:06.178,35.302574,8
43128,43128,2021-01-21 14:42:36.178,35.75357,8
43138,43138,2021-01-21 14:43:06.178,36.096268,8
43148,43148,2021-01-21 14:43:36.178,36.441853,8
43158,43158,2021-01-21 14:44:06.178,36.827988,8
43168,43168,2021-01-21 14:44:36.178,37.39152,8
43178,43178,2021-01-21 14:45:06.178,37.98731,8
43188,43188,2021-01-21 14:45:36.178,38.601704,8
43198,43198,2021-01-21 14:46:06.178,39.08019,8
43208,43208,2021-01-21 14:46:36.178,39.58486,8
43218,43218,2021-01-21 14:47:06.178,40.424004,8
43228,43228,2021-01-21 14:47:36.178,41.115368,8
43238,43238,2021-01-21 14:48:06.178,41.832146,8
43248,43248,2021-01-21 14:48:36.178,42.536415000000005,8
43258,43258,2021-01-21 14:49:06.178,43.471706,8
43268,43268,2021-01-21 14:49:36.178,44.367207,8
43278,43278,2021-01-21 14:50:06.178,45.116620000000005,8
43288,43288,2021-01-21 14:50:36.178,46.04319,8
43298,43298,2021-01-21 14:51:06.178,46.81745,8
43308,43308,2021-01-21 14:51:36.178,47.56477,8
43318,43318,2021-01-21 14:52:06.178,48.625828000000006,8
43328,43328,2021-01-21 14:52:36.178,49.68326,8
43338,43338,2021-01-21 14:53:06.178,50.848392,8
43348,43348,2021-01-21 14:53:36.178,52.01511,8
43358,43358,2021-01-21 14:54:06.178,53.52429,8
43368,43368,2021-01-21 14:54:36.178,54.772490000000005,8
43378,43378,2021-01-21 14:55:06.178,55.961932999999995,8
43388,43388,2021-01-21 14:55:36.178,57.437225,8
43398,43398,2021-01-21 14:56:06.178,58.83806,8
43408,43408,2021-01-21 14:56:36.178,60.00895,8
43418,43418,2021-01-21 14:57:06.178,61.737595,8
43428,43428,2021-01-21 14:57:36.178,63.26152,8
43438,43438,2021-01-21 14:58:06.178,65.14339,8
43448,43448,2021-01-21 14:58:36.178,66.93621999999999,8
43458,43458,2021-01-21 14:59:06.178,68.44875,8
43468,43468,2021-01-21 14:59:36.178,70.61524,8
43478,43478,2021-01-21 15:00:06.178,72.5018,8
43488,43488,2021-01-21 15:00:36.178,74.22784,8
43498,43498,2021-01-21 15:01:06.178,76.61468,8
43508,43508,2021-01-21 15:01:36.178,78.71011,8
43518,43518,2021-01-21 15:02:06.178,80.69332,8
43528,43528,2021-01-21 15:02:36.178,83.39477,8
43538,43538,2021-01-21 15:03:06.178,85.91694,8
43548,43548,2021-01-21 15:03:36.178,87.95830500000001,8
43558,43558,2021-01-21 15:04:06.178,91.27605,8
43568,43568,2021-01-21 15:04:36.178,94.2527,8
43578,43578,2021-01-21 15:05:06.178,96.6186,8
43588,43588,2021-01-21 15:05:36.178,100.674355,8
43598,43598,2021-01-21 15:06:06.178,104.25098,8
43608,43608,2021-01-21 15:06:36.178,109.10265,8
43618,43618,2021-01-21 15:07:06.178,114.25121000000001,8
43628,43628,2021-01-21 15:07:36.178,118.49478,8
43638,43638,2021-01-21 15:08:06.178,125.19275,8
43648,43648,2021-01-21 15:08:36.178,131.29112,8
43658,43658,2021-01-21 15:09:06.178,140.64763,8
43668,43668,2021-01-21 15:09:36.178,149.3504,8
43678,43678,2021-01-21 15:10:06.178,157.2242,8
43688,43688,2021-01-21 15:10:36.178,169.86275,8
43698,43698,2021-01-21 15:11:06.178,181.71947,8
43708,43708,2021-01-21 15:11:36.178,192.25497,8
43718,43718,2021-01-21 15:12:06.178,210.25692999999998,8
43728,43728,2021-01-21 15:12:36.178,227.50829,8
43738,43738,2021-01-21 15:13:06.178,256.3955,8
43748,43748,2021-01-21 15:13:36.178,285.7313,8
43758,43758,2021-01-21 15:14:06.178,313.2347,8
43768,43768,2021-01-21 15:14:36.178,365.9289,8
43778,43778,2021-01-21 15:15:06.178,419.2185,8
43788,43788,2021-01-21 15:15:36.178,470.0528,8
43798,43798,2021-01-21 15:16:06.178,597.5826400000001,8
43808,43808,2021-01-21 15:16:36.178,733.9437,8
43818,43818,2021-01-21 15:17:06.178,866.3556,8
43828,43828,2021-01-21 15:17:36.178,1017.6123699999999,8
43838,43838,2021-01-21 15:18:06.178,1166.7892,8
43848,43848,2021-01-21 15:18:36.178,1310.3976,8
43858,43858,2021-01-21 15:19:06.178,1452.5818,8
43868,43868,2021-01-21 15:19:36.178,1585.6671,8
43878,43878,2021-01-21 15:20:06.178,159.74016,8
43888,43888,2021-01-21 15:20:36.178,142.17265,8
43898,43898,2021-01-21 15:21:06.178,110.3944,8
43908,43908,2021-01-21 15:21:36.178,83.39199,8
43918,43918,2021-01-21 15:22:06.178,86.92904,8
43928,43928,2021-01-21 15:22:36.178,90.36771,8
43938,43938,2021-01-21 15:23:06.178,94.146614,8
43948,43948,2021-01-21 15:23:36.178,99.42142,8
43958,43958,2021-01-21 15:24:06.178,101.19975,8
43968,43968,2021-01-21 15:24:36.178,103.16221,8
43978,43978,2021-01-21 15:25:06.178,105.23161,8
43988,43988,2021-01-21 15:25:36.178,102.744736,8
43998,43998,2021-01-21 15:26:06.178,100.36145,8
44008,44008,2021-01-21 15:26:36.178,98.07141,8
44018,44018,2021-01-21 15:27:06.178,91.98794000000001,8
44028,44028,2021-01-21 15:27:36.178,86.50187,8
44038,44038,2021-01-21 15:28:06.178,78.7883,8
44048,44048,2021-01-21 15:28:36.178,72.14688000000001,8
44058,44058,2021-01-21 15:29:06.178,66.38003,8
44068,44068,2021-01-21 15:29:36.178,60.01514399999999,8
44078,44078,2021-01-21 15:30:06.178,54.68193,8
44088,44088,2021-01-21 15:30:36.178,50.180240000000005,8
44098,44098,2021-01-21 15:31:06.178,47.073048,8
44108,44108,2021-01-21 15:31:36.178,44.829056,8
44118,44118,2021-01-21 15:32:06.178,43.370693,8
44128,44128,2021-01-21 15:32:36.178,42.290714,8
44138,44138,2021-01-21 15:33:06.178,42.083534,8
44148,44148,2021-01-21 15:33:36.178,42.430347,8
44158,44158,2021-01-21 15:34:06.178,44.077434999999994,8
44168,44168,2021-01-21 15:34:36.178,47.663647,8
44178,44178,2021-01-21 15:35:06.178,47.42107,8
44188,44188,2021-01-21 15:35:36.178,48.17123,8
44198,44198,2021-01-21 15:36:06.178,47.389736,8
44208,44208,2021-01-21 15:36:36.178,46.770752,8
44218,44218,2021-01-21 15:37:06.178,46.881370000000004,8
44228,44228,2021-01-21 15:37:36.178,46.074303,8
44238,44238,2021-01-21 15:38:06.178,45.38051,8
44248,44248,2021-01-21 15:38:36.178,45.265305,8
44258,44258,2021-01-21 15:39:06.178,44.537907000000004,8
44268,44268,2021-01-21 15:39:36.178,43.823326,8
44278,44278,2021-01-21 15:40:06.178,43.595936,8
44288,44288,2021-01-21 15:40:36.178,42.94493,8
44298,44298,2021-01-21 15:41:06.178,42.345729999999996,8
44308,44308,2021-01-21 15:41:36.178,42.176544,8
44318,44318,2021-01-21 15:42:06.178,41.636585,8
44328,44328,2021-01-21 15:42:36.178,41.0919,8
44338,44338,2021-01-21 15:43:06.178,40.32051,8
44348,44348,2021-01-21 15:43:36.178,39.592293,8
44358,44358,2021-01-21 15:44:06.178,39.171593,8
44368,44368,2021-01-21 15:44:36.178,38.185559999999995,8
44378,44378,2021-01-21 15:45:06.178,37.47211,8
44388,44388,2021-01-21 15:45:36.178,36.772743,8
44398,44398,2021-01-21 15:46:06.178,35.938446,8
44408,44408,2021-01-21 15:46:36.178,35.33313,8
44418,44418,2021-01-21 15:47:06.178,34.837917,8
44428,44428,2021-01-21 15:47:36.178,34.267826,8
44438,44438,2021-01-21 15:48:06.178,33.649136,8
44448,44448,2021-01-21 15:48:36.178,32.9468,8
44458,44458,2021-01-21 15:49:06.178,32.41581,8
44468,44468,2021-01-21 15:49:36.178,31.811496999999996,8
44478,44478,2021-01-21 15:50:06.178,31.182213,8
44488,44488,2021-01-21 15:50:36.178,30.711401000000002,8
44498,44498,2021-01-21 15:51:06.178,30.282154,8
44508,44508,2021-01-21 15:51:36.178,29.793314000000002,8
44518,44518,2021-01-21 15:52:06.178,29.322933000000003,8
44528,44528,2021-01-21 15:52:36.178,29.001503000000003,8
44538,44538,2021-01-21 15:53:06.178,28.63552,8
44548,44548,2021-01-21 15:53:36.178,28.153954,8
44558,44558,2021-01-21 15:54:06.178,27.820690000000003,8
44568,44568,2021-01-21 15:54:36.178,27.430172,8
44578,44578,2021-01-21 15:55:06.178,27.036127,8
44588,44588,2021-01-21 15:55:36.178,26.773840000000003,8
44598,44598,2021-01-21 15:56:06.178,26.480602,8
44608,44608,2021-01-21 15:56:36.178,26.17936,8
44618,44618,2021-01-21 15:57:06.178,26.006335999999997,8
44628,44628,2021-01-21 15:57:36.178,25.781176000000002,8
44638,44638,2021-01-21 15:58:06.178,25.542317999999998,8
44648,44648,2021-01-21 15:58:36.178,25.299404,8
44658,44658,2021-01-21 15:59:06.178,25.163086,8
44668,44668,2021-01-21 15:59:36.178,24.821898,8
44678,44678,2021-01-21 16:00:06.178,24.572517,8
44688,44688,2021-01-21 16:00:36.178,24.299103,8
44698,44698,2021-01-21 16:01:06.178,23.973545,8
44708,44708,2021-01-21 16:01:36.178,23.735344,8
44718,44718,2021-01-21 16:02:06.178,23.522491,8
44728,44728,2021-01-21 16:02:36.178,23.390532,8
44738,44738,2021-01-21 16:03:06.178,23.212763,8
44748,44748,2021-01-21 16:03:36.178,22.9785,8
44758,44758,2021-01-21 16:04:06.178,22.82242,8
44768,44768,2021-01-21 16:04:36.178,22.614843,8
44778,44778,2021-01-21 16:05:06.178,22.337585,8
44788,44788,2021-01-21 16:05:36.178,22.133204,8
44798,44798,2021-01-21 16:06:06.178,21.935072,8
44808,44808,2021-01-21 16:06:36.178,21.663754,8
44818,44818,2021-01-21 16:07:06.178,21.403479,8
44828,44828,2021-01-21 16:07:36.178,21.209797000000002,8
44838,44838,2021-01-21 16:08:06.178,21.084385,8
44848,44848,2021-01-21 16:08:36.178,20.891907,8
44858,44858,2021-01-21 16:09:06.178,20.613692999999998,8
44868,44868,2021-01-21 16:09:36.178,20.396788,8
44878,44878,2021-01-21 16:10:06.178,20.177443,8
44888,44888,2021-01-21 16:10:36.178,20.007177,8
44898,44898,2021-01-21 16:11:06.178,19.88661,8
44908,44908,2021-01-21 16:11:36.178,19.751598,8
44918,44918,2021-01-21 16:12:06.178,19.531088,8
44928,44928,2021-01-21 16:12:36.178,19.364986,8
44938,44938,2021-01-21 16:13:06.178,19.03935,8
44948,44948,2021-01-21 16:13:36.178,18.774296,8
44958,44958,2021-01-21 16:14:06.178,18.565642999999998,8
44968,44968,2021-01-21 16:14:36.178,18.349697,8
44978,44978,2021-01-21 16:15:06.178,18.177225,8
44988,44988,2021-01-21 16:15:36.178,18.047915,8
44998,44998,2021-01-21 16:16:06.178,17.901457,8
45008,45008,2021-01-21 16:16:36.178,17.658983,8
45018,45018,2021-01-21 16:17:06.178,17.4639,8
45028,45028,2021-01-21 16:17:36.178,17.314781,8
45038,45038,2021-01-21 16:18:06.178,17.212418,8
45048,45048,2021-01-21 16:18:36.178,17.087545000000002,8
45058,45058,2021-01-21 16:19:06.178,16.999598000000002,8
45068,45068,2021-01-21 16:19:36.178,16.95102,8
45078,45078,2021-01-21 16:20:06.178,16.871202,8
45088,45088,2021-01-21 16:20:36.178,16.695732,8
45098,45098,2021-01-21 16:21:06.178,16.562996,8
45108,45108,2021-01-21 16:21:36.178,16.405558,8
45118,45118,2021-01-21 16:22:06.178,16.278957000000002,8
45128,45128,2021-01-21 16:22:36.178,16.183138,8
45138,45138,2021-01-21 16:23:06.178,16.11927,8
45148,45148,2021-01-21 16:23:36.178,15.952886999999999,8
45158,45158,2021-01-21 16:24:06.178,15.762248999999999,8
45168,45168,2021-01-21 16:24:36.178,15.606685999999998,8
45178,45178,2021-01-21 16:25:06.178,15.484871,8
45188,45188,2021-01-21 16:25:36.178,15.396984,8
45198,45198,2021-01-21 16:26:06.178,15.192768,8
45208,45208,2021-01-21 16:26:36.178,15.040131,8
45218,45218,2021-01-21 16:27:06.178,14.858524,8
45228,45228,2021-01-21 16:27:36.178,14.713833,8
45238,45238,2021-01-21 16:28:06.178,14.546235000000001,8
45248,45248,2021-01-21 16:28:36.178,14.403460500000001,8
45258,45258,2021-01-21 16:29:06.178,14.134867999999999,8
45268,45268,2021-01-21 16:29:36.178,13.909042999999999,8
45278,45278,2021-01-21 16:30:06.178,13.720642000000002,8
45288,45288,2021-01-21 16:30:36.178,13.566564999999999,8
45298,45298,2021-01-21 16:31:06.178,13.445338000000001,8
45308,45308,2021-01-21 16:31:36.178,13.301438000000001,8
45318,45318,2021-01-21 16:32:06.178,13.179723999999998,8
45328,45328,2021-01-21 16:32:36.178,13.079456,8
45338,45338,2021-01-21 16:33:06.178,13.000519,8
45348,45348,2021-01-21 16:33:36.178,12.943445,8
45358,45358,2021-01-21 16:34:06.178,12.909528,8
45368,45368,2021-01-21 16:34:36.178,12.901071,8
45378,45378,2021-01-21 16:35:06.178,12.9219,8
45388,45388,2021-01-21 16:35:36.178,12.774886,8
45398,45398,2021-01-21 16:36:06.178,12.656158,8
45408,45408,2021-01-21 16:36:36.178,12.564906,8
45418,45418,2021-01-21 16:37:06.178,12.501549,8
45428,45428,2021-01-21 16:37:36.178,12.467961,8
45438,45438,2021-01-21 16:38:06.178,12.468055,8
45448,45448,2021-01-21 16:38:36.178,12.412449,8
45458,45458,2021-01-21 16:39:06.178,12.376408,8
45468,45468,2021-01-21 16:39:36.178,12.361704,8
45478,45478,2021-01-21 16:40:06.178,12.371424000000001,8
45488,45488,2021-01-21 16:40:36.178,12.410959,8
45498,45498,2021-01-21 16:41:06.178,12.232437,8
45508,45508,2021-01-21 16:41:36.178,12.084178,8
45518,45518,2021-01-21 16:42:06.178,11.962033,8
45528,45528,2021-01-21 16:42:36.178,11.863738,8
45538,45538,2021-01-21 16:43:06.178,11.788364999999999,8
45548,45548,2021-01-21 16:43:36.178,11.736197,8
45558,45558,2021-01-21 16:44:06.178,11.64132,8
45568,45568,2021-01-21 16:44:36.178,11.558164,8
45578,45578,2021-01-21 16:45:06.178,11.485984,8
45588,45588,2021-01-21 16:45:36.178,11.424342,8
45598,45598,2021-01-21 16:46:06.178,11.3730545,8
45608,45608,2021-01-21 16:46:36.178,11.332168,8
45618,45618,2021-01-21 16:47:06.178,11.3019905,8
45628,45628,2021-01-21 16:47:36.178,11.283132,8
45638,45638,2021-01-21 16:48:06.178,11.276608,8
45648,45648,2021-01-21 16:48:36.178,11.146459,8
45658,45658,2021-01-21 16:49:06.178,11.044008999999999,8
45668,45668,2021-01-21 16:49:36.178,10.967837,8
45678,45678,2021-01-21 16:50:06.178,10.918246,8
45688,45688,2021-01-21 16:50:36.178,10.81676,8
45698,45698,2021-01-21 16:51:06.178,10.728987,8
45708,45708,2021-01-21 16:51:36.178,10.653846000000001,8
45718,45718,2021-01-21 16:52:06.178,10.590691,8
45728,45728,2021-01-21 16:52:36.178,10.5392475,8
45738,45738,2021-01-21 16:53:06.178,10.499583,8
45748,45748,2021-01-21 16:53:36.178,10.472138000000001,8
45758,45758,2021-01-21 16:54:06.178,10.457818,8
45768,45768,2021-01-21 16:54:36.178,10.458162,8
45778,45778,2021-01-21 16:55:06.178,10.475712,8
45788,45788,2021-01-21 16:55:36.178,10.352414999999999,8
45798,45798,2021-01-21 16:56:06.178,10.188678999999999,8
45808,45808,2021-01-21 16:56:36.178,10.04827,8
45818,45818,2021-01-21 16:57:06.178,9.926513,8
45828,45828,2021-01-21 16:57:36.178,9.82048,8
45838,45838,2021-01-21 16:58:06.178,9.728273,8
45848,45848,2021-01-21 16:58:36.178,9.648621,8
45858,45858,2021-01-21 16:59:06.178,9.580731,8
45868,45868,2021-01-21 16:59:36.178,9.524169,8
45878,45878,2021-01-21 17:00:06.178,9.478819,8
45888,45888,2021-01-21 17:00:36.178,9.444871000000001,8
45898,45898,2021-01-21 17:01:06.178,9.422888,8
45908,45908,2021-01-21 17:01:36.178,9.413903,8
45918,45918,2021-01-21 17:02:06.178,9.419611,8
45928,45928,2021-01-21 17:02:36.178,9.442791999999999,8
45938,45938,2021-01-21 17:03:06.178,9.488209,8
45948,45948,2021-01-21 17:03:36.178,9.464004,8
45958,45958,2021-01-21 17:04:06.178,9.444077,8
45968,45968,2021-01-21 17:04:36.178,9.428557000000001,8
45978,45978,2021-01-21 17:05:06.178,9.417641,8
45988,45988,2021-01-21 17:05:36.178,9.411634,8
45998,45998,2021-01-21 17:06:06.178,9.265703,8
46008,46008,2021-01-21 17:06:36.178,9.144757,8
46018,46018,2021-01-21 17:07:06.178,9.043963,8
46028,46028,2021-01-21 17:07:36.178,8.96058,8
46038,46038,2021-01-21 17:08:06.178,8.893097000000001,8
46048,46048,2021-01-21 17:08:36.178,8.840883999999999,8
46058,46058,2021-01-21 17:09:06.178,8.804053,8
46068,46068,2021-01-21 17:09:36.178,8.783549,8
46078,46078,2021-01-21 17:10:06.178,8.781444,8
46088,46088,2021-01-21 17:10:36.178,8.725598,8
46098,46098,2021-01-21 17:11:06.178,8.675056,8
46108,46108,2021-01-21 17:11:36.178,8.629411,8
46118,46118,2021-01-21 17:12:06.178,8.4149475,8
46128,46128,2021-01-21 17:12:36.178,8.237478999999999,8
46138,46138,2021-01-21 17:13:06.178,8.086184,8
46148,46148,2021-01-21 17:13:36.178,7.9551353,8
46158,46158,2021-01-21 17:14:06.178,7.8407086999999995,8
46168,46168,2021-01-21 17:14:36.178,7.740533,8
46178,46178,2021-01-21 17:15:06.178,7.652997999999999,8
46188,46188,2021-01-21 17:15:36.178,7.5770073,8
46198,46198,2021-01-21 17:16:06.178,7.511843700000001,8
46208,46208,2021-01-21 17:16:36.178,7.457088499999999,8
46218,46218,2021-01-21 17:17:06.178,7.412591,8
46228,46228,2021-01-21 17:17:36.178,7.378463000000001,8
46238,46238,2021-01-21 17:18:06.178,7.355111999999999,8
46248,46248,2021-01-21 17:18:36.178,7.343302,8
46258,46258,2021-01-21 17:19:06.178,7.344306,8
46268,46268,2021-01-21 17:19:36.178,7.3601589999999995,8
46278,46278,2021-01-21 17:20:06.178,7.394185,8
46288,46288,2021-01-21 17:20:36.178,7.452199,8
46298,46298,2021-01-21 17:21:06.178,7.4370337,8
46308,46308,2021-01-21 17:21:36.178,7.426382,8
46318,46318,2021-01-21 17:22:06.178,7.420533,8
46328,46328,2021-01-21 17:22:36.178,7.419904700000001,8
46338,46338,2021-01-21 17:23:06.178,7.425088000000001,8
46348,46348,2021-01-21 17:23:36.178,7.4369335,8
46358,46358,2021-01-21 17:24:06.178,7.456703999999999,8
46368,46368,2021-01-21 17:24:36.178,7.48637,8
46378,46378,2021-01-21 17:25:06.178,7.529265400000001,8
46388,46388,2021-01-21 17:25:36.178,7.591897,8
46398,46398,2021-01-21 17:26:06.178,7.690995,8
46408,46408,2021-01-21 17:26:36.178,7.587604499999999,8
46418,46418,2021-01-21 17:27:06.178,7.411949000000001,8
46428,46428,2021-01-21 17:27:36.178,7.278223,8
46438,46438,2021-01-21 17:28:06.178,7.1673746,8
46448,46448,2021-01-21 17:28:36.178,7.071891,8
46458,46458,2021-01-21 17:29:06.178,6.9878800000000005,8
46468,46468,2021-01-21 17:29:36.178,6.913015,8
46478,46478,2021-01-21 17:30:06.178,6.845771000000001,8
46488,46488,2021-01-21 17:30:36.178,6.785106699999999,8
46498,46498,2021-01-21 17:31:06.178,6.730264699999999,8
46508,46508,2021-01-21 17:31:36.178,6.680691700000001,8
46518,46518,2021-01-21 17:32:06.178,6.635981599999999,8
46528,46528,2021-01-21 17:32:36.178,6.5958295,8
46538,46538,2021-01-21 17:33:06.178,6.5600257,8
46548,46548,2021-01-21 17:33:36.178,6.5284247,8
46558,46558,2021-01-21 17:34:06.178,6.50095,8
46568,46568,2021-01-21 17:34:36.178,6.477578599999999,8
46578,46578,2021-01-21 17:35:06.178,6.458356,8
46588,46588,2021-01-21 17:35:36.178,6.443397,8
46598,46598,2021-01-21 17:36:06.178,6.432884,8
46608,46608,2021-01-21 17:36:36.178,6.427106,8
46618,46618,2021-01-21 17:37:06.178,6.42647,8
46628,46628,2021-01-21 17:37:36.178,6.4315553,8
46638,46638,2021-01-21 17:38:06.178,6.443207,8
46648,46648,2021-01-21 17:38:36.178,6.462671299999999,8
46658,46658,2021-01-21 17:39:06.178,6.491892,8
46668,46668,2021-01-21 17:39:36.178,6.534178,8
46678,46678,2021-01-21 17:40:06.178,6.5959744,8
46688,46688,2021-01-21 17:40:36.178,6.693869599999999,8
46698,46698,2021-01-21 17:41:06.178,6.999998,8
46708,46708,2021-01-21 17:41:36.178,6.999998,8
46718,46718,2021-01-21 17:42:06.178,6.999998,8
46728,46728,2021-01-21 17:42:36.178,6.999998,8
46738,46738,2021-01-21 17:43:06.178,6.586081500000001,8
46748,46748,2021-01-21 17:43:36.178,6.410548,8
46758,46758,2021-01-21 17:44:06.178,6.277236,8
46768,46768,2021-01-21 17:44:36.178,6.166938,8
46778,46778,2021-01-21 17:45:06.178,6.0720873,8
46788,46788,2021-01-21 17:45:36.178,5.988752,8
46798,46798,2021-01-21 17:46:06.178,5.914581,8
46808,46808,2021-01-21 17:46:36.178,5.848040599999999,8
46818,46818,2021-01-21 17:47:06.178,5.788069,8
46828,46828,2021-01-21 17:47:36.178,5.733905,8
46838,46838,2021-01-21 17:48:06.178,5.6849856,8
46848,46848,2021-01-21 17:48:36.178,5.640897,8
46858,46858,2021-01-21 17:49:06.178,5.6013303,8
46868,46868,2021-01-21 17:49:36.178,5.566066,8
46878,46878,2021-01-21 17:50:06.178,5.5349555,8
46888,46888,2021-01-21 17:50:36.178,5.5079155,8
46898,46898,2021-01-21 17:51:06.178,5.484921,8
46908,46908,2021-01-21 17:51:36.178,5.466011,8
46918,46918,2021-01-21 17:52:06.178,5.451288,8
46928,46928,2021-01-21 17:52:36.178,5.4409375,8
46938,46938,2021-01-21 17:53:06.178,5.435231,8
46948,46948,2021-01-21 17:53:36.178,5.4345756,8
46958,46958,2021-01-21 17:54:06.178,5.4395347,8
46968,46968,2021-01-21 17:54:36.178,5.450939,8
46978,46978,2021-01-21 17:55:06.178,5.470017400000001,8
46988,46988,2021-01-21 17:55:36.178,5.498689,8
46998,46998,2021-01-21 17:56:06.178,5.5402203000000005,8
47008,47008,2021-01-21 17:56:36.178,5.6009855,8
47018,47018,2021-01-21 17:57:06.178,5.6973970000000005,8
47028,47028,2021-01-21 17:57:36.178,6.000004,8
47038,47038,2021-01-21 17:58:06.178,6.000004,8
47048,47048,2021-01-21 17:58:36.178,6.000004,8
47058,47058,2021-01-21 17:59:06.178,5.5838947,8
47068,47068,2021-01-21 17:59:36.178,5.4084496,8
47078,47078,2021-01-21 18:00:06.178,5.27562,8
47088,47088,2021-01-21 18:00:36.178,5.1659975,8
47098,47098,2021-01-21 18:01:06.178,5.071929,8
47108,47108,2021-01-21 18:01:36.178,4.989437000000001,8
47118,47118,2021-01-21 18:02:06.178,4.9161415,8
47128,47128,2021-01-21 18:02:36.178,4.850485,8
47138,47138,2021-01-21 18:03:06.178,4.791391,8
47148,47148,2021-01-21 18:03:36.178,4.7380843,8
47158,47158,2021-01-21 18:04:06.178,4.6899934000000005,8
47168,47168,2021-01-21 18:04:36.178,4.6466947,8
47178,47178,2021-01-21 18:05:06.178,4.6078715,8
47188,47188,2021-01-21 18:05:36.178,4.5732985,8
47198,47198,2021-01-21 18:06:06.178,4.5428180000000005,8
47208,47208,2021-01-21 18:06:36.178,4.5163400000000005,8
47218,47218,2021-01-21 18:07:06.178,4.493832,8
47228,47228,2021-01-21 18:07:36.178,4.475328,8
47238,47238,2021-01-21 18:08:06.178,4.4609227,8
47248,47248,2021-01-21 18:08:36.178,4.450789,8
47258,47258,2021-01-21 18:09:06.178,4.445194,8
47268,47268,2021-01-21 18:09:36.178,4.444528,8
47278,47278,2021-01-21 18:10:06.178,4.4493465,8
47288,47288,2021-01-21 18:10:36.178,4.460458999999999,8
47298,47298,2021-01-21 18:11:06.178,4.479072,8
47308,47308,2021-01-21 18:11:36.178,4.507075,8
47318,47318,2021-01-21 18:12:06.178,4.5476790000000005,8
47328,47328,2021-01-21 18:12:36.178,4.607172,8
47338,47338,2021-01-21 18:13:06.178,4.7017517,8
47348,47348,2021-01-21 18:13:36.178,5.0,8
47358,47358,2021-01-21 18:14:06.178,5.0,8
47368,47368,2021-01-21 18:14:36.178,5.0,8
47378,47378,2021-01-21 18:15:06.178,5.0,8
47388,47388,2021-01-21 18:15:36.178,5.0,8
47398,47398,2021-01-21 18:16:06.178,5.0,8
47408,47408,2021-01-21 18:16:36.178,5.0,8
47418,47418,2021-01-21 18:17:06.178,5.0,8
47428,47428,2021-01-21 18:17:36.178,5.0,8
47438,47438,2021-01-21 18:18:06.178,5.0,8
47448,47448,2021-01-21 18:18:36.178,5.0,8
47458,47458,2021-01-21 18:19:06.178,5.0,8
47468,47468,2021-01-21 18:19:36.178,5.0,8
47478,47478,2021-01-21 18:20:06.178,5.0,8
47488,47488,2021-01-21 18:20:36.178,5.0,8
47498,47498,2021-01-21 18:21:06.178,5.0,8
47508,47508,2021-01-21 18:21:36.178,5.0,8
47518,47518,2021-01-21 18:22:06.178,5.0,8
47528,47528,2021-01-21 18:22:36.178,5.0,8
47538,47538,2021-01-21 18:23:06.178,4.5807185,8
47548,47548,2021-01-21 18:23:36.178,4.4053379999999995,8
47558,47558,2021-01-21 18:24:06.178,4.2731314000000005,8
47568,47568,2021-01-21 18:24:36.178,4.1643989999999995,8
47578,47578,2021-01-21 18:25:06.178,4.071368700000001,8
47588,47588,2021-01-21 18:25:36.178,3.9900007000000004,8
47598,47598,2021-01-21 18:26:06.178,3.9178714999999995,8
47608,47608,2021-01-21 18:26:36.178,3.853394,8
47618,47618,2021-01-21 18:27:06.178,3.7954730000000003,8
47628,47628,2021-01-21 18:27:36.178,3.7433127999999996,8
47638,47638,2021-01-21 18:28:06.178,3.6963305,8
47648,47648,2021-01-21 18:28:36.178,3.654089,8
47658,47658,2021-01-21 18:29:06.178,3.6162634,8
47668,47668,2021-01-21 18:29:36.178,3.582614,8
47678,47678,2021-01-21 18:30:06.178,3.5529785000000005,8
47688,47688,2021-01-21 18:30:36.178,3.5272546,8
47698,47698,2021-01-21 18:31:06.178,3.505405,8
47708,47708,2021-01-21 18:31:36.178,3.4874492,8
47718,47718,2021-01-21 18:32:06.178,3.4734754999999997,8
47728,47728,2021-01-21 18:32:36.178,3.4636430000000002,8
47738,47738,2021-01-21 18:33:06.178,3.4582071000000005,8
47748,47748,2021-01-21 18:33:36.178,3.4575443,8
47758,47758,2021-01-21 18:34:06.178,3.4621943999999996,8
47768,47768,2021-01-21 18:34:36.178,3.4729395,8
47778,47778,2021-01-21 18:35:06.178,3.4909548999999997,8
47788,47788,2021-01-21 18:35:36.178,3.5180898000000003,8
47798,47798,2021-01-21 18:36:06.178,3.5574879999999998,8
47808,47808,2021-01-21 18:36:36.178,3.6153169000000003,8
47818,47818,2021-01-21 18:37:06.178,3.7074904,8
47828,47828,2021-01-21 18:37:36.178,3.9999971,8
47838,47838,2021-01-21 18:38:06.178,3.9999971,8
47848,47848,2021-01-21 18:38:36.178,3.9999971,8
47858,47858,2021-01-21 18:39:06.178,3.9999971,8
47868,47868,2021-01-21 18:39:36.178,3.9999971,8
47878,47878,2021-01-21 18:40:06.178,3.9999971,8
47888,47888,2021-01-21 18:40:36.178,3.9999971,8
47898,47898,2021-01-21 18:41:06.178,3.9999971,8
47908,47908,2021-01-21 18:41:36.178,3.9999971,8
47918,47918,2021-01-21 18:42:06.178,3.9999971,8
47928,47928,2021-01-21 18:42:36.178,3.9999971,8
47938,47938,2021-01-21 18:43:06.178,3.9999971,8
47948,47948,2021-01-21 18:43:36.178,3.9999971,8
47958,47958,2021-01-21 18:44:06.178,3.9999971,8
47968,47968,2021-01-21 18:44:36.178,3.9999971,8
47978,47978,2021-01-21 18:45:06.178,3.9999971,8
47988,47988,2021-01-21 18:45:36.178,3.9999971,8
47998,47998,2021-01-21 18:46:06.178,3.9999971,8
48008,48008,2021-01-21 18:46:36.178,3.9999971,8
48018,48018,2021-01-21 18:47:06.178,3.9999971,8
48028,48028,2021-01-21 18:47:36.178,3.9999971,8
48038,48038,2021-01-21 18:48:06.178,3.9999971,8
48048,48048,2021-01-21 18:48:36.178,3.9999971,8
48058,48058,2021-01-21 18:49:06.178,3.9999971,8
48068,48068,2021-01-21 18:49:36.178,3.9999971,8
48078,48078,2021-01-21 18:50:06.178,3.9999971,8
48088,48088,2021-01-21 18:50:36.178,3.9999971,8
48098,48098,2021-01-21 18:51:06.178,3.9999971,8
48108,48108,2021-01-21 18:51:36.178,3.9999971,8
48118,48118,2021-01-21 18:52:06.178,3.9999971,8
48128,48128,2021-01-21 18:52:36.178,3.9999971,8
48138,48138,2021-01-21 18:53:06.178,3.9999971,8
48148,48148,2021-01-21 18:53:36.178,3.9999971,8
48158,48158,2021-01-21 18:54:06.178,3.9999971,8
48168,48168,2021-01-21 18:54:36.178,3.9999971,8
48178,48178,2021-01-21 18:55:06.178,3.9999971,8
48188,48188,2021-01-21 18:55:36.178,3.9999971,8
48198,48198,2021-01-21 18:56:06.178,3.9999971,8
48208,48208,2021-01-21 18:56:36.178,3.9999971,8
48218,48218,2021-01-21 18:57:06.178,3.9999971,8
48228,48228,2021-01-21 18:57:36.178,3.9999971,8
48238,48238,2021-01-21 18:58:06.178,3.5758424,8
48248,48248,2021-01-21 18:58:36.178,3.4004903,8
48258,48258,2021-01-21 18:59:06.178,3.2691374,8
48268,48268,2021-01-21 18:59:36.178,3.1616560000000002,8
48278,48278,2021-01-21 19:00:06.178,3.0700955000000003,8
48288,48288,2021-01-21 19:00:36.178,2.990319,8
48298,48298,2021-01-21 19:01:06.178,2.9198413,8
48308,48308,2021-01-21 19:01:36.178,2.857036,8
48318,48318,2021-01-21 19:02:06.178,2.8007734,8
48328,48328,2021-01-21 19:02:36.178,2.750237,8
48338,48338,2021-01-21 19:03:06.178,2.7048223,8
48348,48348,2021-01-21 19:03:36.178,2.6640770000000003,8
48358,48358,2021-01-21 19:04:06.178,2.6276585999999997,8
48368,48368,2021-01-21 19:04:36.178,2.5953180000000002,8
48378,48378,2021-01-21 19:05:06.178,2.566877,8
48388,48388,2021-01-21 19:05:36.178,2.542225,8
48398,48398,2021-01-21 19:06:06.178,2.521307,8
48408,48408,2021-01-21 19:06:36.178,2.5041347000000003,8
48418,48418,2021-01-21 19:07:06.178,2.4907782000000003,8
48428,48428,2021-01-21 19:07:36.178,2.481386,8
48438,48438,2021-01-21 19:08:06.178,2.476193,8
48448,48448,2021-01-21 19:08:36.178,2.4755547000000004,8
48458,48458,2021-01-21 19:09:06.178,2.4799870999999998,8
48468,48468,2021-01-21 19:09:36.178,2.4902422000000004,8
48478,48478,2021-01-21 19:10:06.178,2.5074520000000002,8
48488,48488,2021-01-21 19:10:36.178,2.5334017,8
48498,48498,2021-01-21 19:11:06.178,2.5711434,8
48508,48508,2021-01-21 19:11:36.178,2.6266757999999997,8
48518,48518,2021-01-21 19:12:06.178,2.7155158999999998,8
48528,48528,2021-01-21 19:12:36.178,3.0000023999999996,8
48538,48538,2021-01-21 19:13:06.178,3.0000023999999996,8
48548,48548,2021-01-21 19:13:36.178,3.0000023999999996,8
48558,48558,2021-01-21 19:14:06.178,3.0000023999999996,8
48568,48568,2021-01-21 19:14:36.178,3.0000023999999996,8
48578,48578,2021-01-21 19:15:06.178,3.0000023999999996,8
48588,48588,2021-01-21 19:15:36.178,3.0000023999999996,8
48598,48598,2021-01-21 19:16:06.178,3.0000023999999996,8
48608,48608,2021-01-21 19:16:36.178,3.0000023999999996,8
48618,48618,2021-01-21 19:17:06.178,3.0000023999999996,8
48628,48628,2021-01-21 19:17:36.178,3.0000023999999996,8
48638,48638,2021-01-21 19:18:06.178,3.0000023999999996,8
48648,48648,2021-01-21 19:18:36.178,3.0000023999999996,8
48658,48658,2021-01-21 19:19:06.178,3.0000023999999996,8
48668,48668,2021-01-21 19:19:36.178,3.0000023999999996,8
48678,48678,2021-01-21 19:20:06.178,3.0000023999999996,8
48688,48688,2021-01-21 19:20:36.178,3.0000023999999996,8
48698,48698,2021-01-21 19:21:06.178,3.0000023999999996,8
48708,48708,2021-01-21 19:21:36.178,3.0000023999999996,8
48718,48718,2021-01-21 19:22:06.178,3.0000023999999996,8
48728,48728,2021-01-21 19:22:36.178,3.0000023999999996,8
48738,48738,2021-01-21 19:23:06.178,3.0000023999999996,8
48748,48748,2021-01-21 19:23:36.178,3.0000023999999996,8
48758,48758,2021-01-21 19:24:06.178,3.0000023999999996,8
48768,48768,2021-01-21 19:24:36.178,3.0000023999999996,8
48778,48778,2021-01-21 19:25:06.178,3.0000023999999996,8
48788,48788,2021-01-21 19:25:36.178,3.0000023999999996,8
48798,48798,2021-01-21 19:26:06.178,3.0000023999999996,8
48808,48808,2021-01-21 19:26:36.178,3.0000023999999996,8
48818,48818,2021-01-21 19:27:06.178,3.0000023999999996,8
48828,48828,2021-01-21 19:27:36.178,3.0000023999999996,8
48838,48838,2021-01-21 19:28:06.178,3.0000023999999996,8
48848,48848,2021-01-21 19:28:36.178,3.0000023999999996,8
48858,48858,2021-01-21 19:29:06.178,3.0000023999999996,8
48868,48868,2021-01-21 19:29:36.178,3.0000023999999996,8
48878,48878,2021-01-21 19:30:06.178,3.0000023999999996,8
48888,48888,2021-01-21 19:30:36.178,3.0000023999999996,8
48898,48898,2021-01-21 19:31:06.178,3.0000023999999996,8
48908,48908,2021-01-21 19:31:36.178,3.0000023999999996,8
48918,48918,2021-01-21 19:32:06.178,3.0000023999999996,8
48928,48928,2021-01-21 19:32:36.178,3.0000023999999996,8
48938,48938,2021-01-21 19:33:06.178,3.0000023999999996,8
48948,48948,2021-01-21 19:33:36.178,3.0000023999999996,8
48958,48958,2021-01-21 19:34:06.178,3.0000023999999996,8
48968,48968,2021-01-21 19:34:36.178,3.0000023999999996,8
48978,48978,2021-01-21 19:35:06.178,3.0000023999999996,8
48988,48988,2021-01-21 19:35:36.178,3.0000023999999996,8
48998,48998,2021-01-21 19:36:06.178,3.0000023999999996,8
49008,49008,2021-01-21 19:36:36.178,3.0000023999999996,8
49018,49018,2021-01-21 19:37:06.178,3.0000023999999996,8
49028,49028,2021-01-21 19:37:36.178,3.0000023999999996,8
49038,49038,2021-01-21 19:38:06.178,3.0000023999999996,8
49048,49048,2021-01-21 19:38:36.178,3.0000023999999996,8
49058,49058,2021-01-21 19:39:06.178,3.0000023999999996,8
49068,49068,2021-01-21 19:39:36.178,3.0000023999999996,8
49078,49078,2021-01-21 19:40:06.178,3.0000023999999996,8
49088,49088,2021-01-21 19:40:36.178,3.0000023999999996,8
49098,49098,2021-01-21 19:41:06.178,3.0000023999999996,8
49108,49108,2021-01-21 19:41:36.178,3.0000023999999996,8
49118,49118,2021-01-21 19:42:06.178,3.0000023999999996,8
49128,49128,2021-01-21 19:42:36.178,3.0000023999999996,8
49138,49138,2021-01-21 19:43:06.178,3.0000023999999996,8
49148,49148,2021-01-21 19:43:36.178,3.0000023999999996,8
49158,49158,2021-01-21 19:44:06.178,3.0000023999999996,8
49168,49168,2021-01-21 19:44:36.178,3.0000023999999996,8
49178,49178,2021-01-21 19:45:06.178,3.0000023999999996,8
49188,49188,2021-01-21 19:45:36.178,3.0000023999999996,8
49198,49198,2021-01-21 19:46:06.178,3.0000023999999996,8
49208,49208,2021-01-21 19:46:36.178,3.0000023999999996,8
49218,49218,2021-01-21 19:47:06.178,3.0000023999999996,8
49228,49228,2021-01-21 19:47:36.178,3.0000023999999996,8
49238,49238,2021-01-21 19:48:06.178,3.0000023999999996,8
49248,49248,2021-01-21 19:48:36.178,3.0000023999999996,8
49258,49258,2021-01-21 19:49:06.178,3.0000023999999996,8
49268,49268,2021-01-21 19:49:36.178,2.567949,8
49278,49278,2021-01-21 19:50:06.178,2.3926344,8
49288,49288,2021-01-21 19:50:36.178,2.2626242999999997,8
49298,49298,2021-01-21 19:51:06.178,2.157099,8
49308,49308,2021-01-21 19:51:36.178,2.0678253,8
49318,49318,2021-01-21 19:52:06.178,1.9905121,8
49328,49328,2021-01-21 19:52:36.178,1.9225832999999999,8
49338,49338,2021-01-21 19:53:06.178,1.8623456999999999,8
49348,49348,2021-01-21 19:53:36.178,1.8086243000000002,8
49358,49358,2021-01-21 19:54:06.178,1.7605669999999998,8
49368,49368,2021-01-21 19:54:36.178,1.7175395,8
49378,49378,2021-01-21 19:55:06.178,1.6790657,8
49388,49388,2021-01-21 19:55:36.178,1.6447836999999998,8
49398,49398,2021-01-21 19:56:06.178,1.6144233000000001,8
49408,49408,2021-01-21 19:56:36.178,1.5877893,8
49418,49418,2021-01-21 19:57:06.178,1.5647526000000003,8
49428,49428,2021-01-21 19:57:36.178,1.5452436999999999,8
49438,49438,2021-01-21 19:58:06.178,1.529253,8
49448,49448,2021-01-21 19:58:36.178,1.5168326,8
49458,49458,2021-01-21 19:59:06.178,1.5081073999999999,8
49468,49468,2021-01-21 19:59:36.178,1.5032889999999999,8
49478,49478,2021-01-21 20:00:06.178,1.5026999,8
49488,49488,2021-01-21 20:00:36.178,1.5068202,8
49498,49498,2021-01-21 20:01:06.178,1.5163562,8
49508,49508,2021-01-21 20:01:36.178,1.5323726999999998,8
49518,49518,2021-01-21 20:02:06.178,1.5565627,8
49528,49528,2021-01-21 20:02:36.178,1.5918348,8
49538,49538,2021-01-21 20:03:06.178,1.6439278000000002,8
49548,49548,2021-01-21 20:03:36.178,1.7277424,8
49558,49558,2021-01-21 20:04:06.178,1.999999,8
49568,49568,2021-01-21 20:04:36.178,1.999999,8
49578,49578,2021-01-21 20:05:06.178,1.999999,8
49588,49588,2021-01-21 20:05:36.178,1.999999,8
49598,49598,2021-01-21 20:06:06.178,1.999999,8
49608,49608,2021-01-21 20:06:36.178,1.999999,8
49618,49618,2021-01-21 20:07:06.178,1.999999,8
49628,49628,2021-01-21 20:07:36.178,1.999999,8
49638,49638,2021-01-21 20:08:06.178,1.999999,8
49648,49648,2021-01-21 20:08:36.178,1.999999,8
49658,49658,2021-01-21 20:09:06.178,1.999999,8
49668,49668,2021-01-21 20:09:36.178,1.999999,8
49678,49678,2021-01-21 20:10:06.178,1.999999,8
49688,49688,2021-01-21 20:10:36.178,1.999999,8
49698,49698,2021-01-21 20:11:06.178,1.999999,8
49708,49708,2021-01-21 20:11:36.178,1.999999,8
49718,49718,2021-01-21 20:12:06.178,1.999999,8
49728,49728,2021-01-21 20:12:36.178,1.999999,8
49738,49738,2021-01-21 20:13:06.178,1.999999,8
49748,49748,2021-01-21 20:13:36.178,1.999999,8
49758,49758,2021-01-21 20:14:06.178,1.999999,8
49768,49768,2021-01-21 20:14:36.178,1.999999,8
49778,49778,2021-01-21 20:15:06.178,1.999999,8
49788,49788,2021-01-21 20:15:36.178,1.999999,8
49798,49798,2021-01-21 20:16:06.178,1.999999,8
49808,49808,2021-01-21 20:16:36.178,1.999999,8
49818,49818,2021-01-21 20:17:06.178,1.999999,8
49828,49828,2021-01-21 20:17:36.178,1.999999,8
49838,49838,2021-01-21 20:18:06.178,1.999999,8
49848,49848,2021-01-21 20:18:36.178,1.999999,8
49858,49858,2021-01-21 20:19:06.178,1.999999,8
49868,49868,2021-01-21 20:19:36.178,1.999999,8
49878,49878,2021-01-21 20:20:06.178,1.999999,8
49888,49888,2021-01-21 20:20:36.178,1.999999,8
49898,49898,2021-01-21 20:21:06.178,1.999999,8
49908,49908,2021-01-21 20:21:36.178,1.999999,8
49918,49918,2021-01-21 20:22:06.178,1.999999,8
49928,49928,2021-01-21 20:22:36.178,1.999999,8
49938,49938,2021-01-21 20:23:06.178,1.999999,8
49948,49948,2021-01-21 20:23:36.178,1.999999,8
49958,49958,2021-01-21 20:24:06.178,1.999999,8
49968,49968,2021-01-21 20:24:36.178,1.999999,8
49978,49978,2021-01-21 20:25:06.178,1.999999,8
49988,49988,2021-01-21 20:25:36.178,1.999999,8
49998,49998,2021-01-21 20:26:06.178,1.999999,8
50008,50008,2021-01-21 20:26:36.178,1.999999,8
50018,50018,2021-01-21 20:27:06.178,1.999999,8
50028,50028,2021-01-21 20:27:36.178,1.999999,8
50038,50038,2021-01-21 20:28:06.178,1.999999,8
50048,50048,2021-01-21 20:28:36.178,1.999999,8
50058,50058,2021-01-21 20:29:06.178,1.999999,8
50068,50068,2021-01-21 20:29:36.178,1.999999,8
50078,50078,2021-01-21 20:30:06.178,1.999999,8
50088,50088,2021-01-21 20:30:36.178,1.999999,8
50098,50098,2021-01-21 20:31:06.178,1.999999,8
50108,50108,2021-01-21 20:31:36.178,1.999999,8
50118,50118,2021-01-21 20:32:06.178,1.999999,8
50128,50128,2021-01-21 20:32:36.178,1.999999,8
50138,50138,2021-01-21 20:33:06.178,1.999999,8
50148,50148,2021-01-21 20:33:36.178,1.999999,8
50158,50158,2021-01-21 20:34:06.178,1.999999,8
50168,50168,2021-01-21 20:34:36.178,1.999999,8
50178,50178,2021-01-21 20:35:06.178,1.999999,8
50188,50188,2021-01-21 20:35:36.178,1.999999,8
50198,50198,2021-01-21 20:36:06.178,1.999999,8
50208,50208,2021-01-21 20:36:36.178,1.999999,8
50218,50218,2021-01-21 20:37:06.178,1.999999,8
50228,50228,2021-01-21 20:37:36.178,1.999999,8
50238,50238,2021-01-21 20:38:06.178,1.999999,8
50248,50248,2021-01-21 20:38:36.178,1.999999,8
50258,50258,2021-01-21 20:39:06.178,1.999999,8
50268,50268,2021-01-21 20:39:36.178,1.999999,8
50278,50278,2021-01-21 20:40:06.178,1.999999,8
50288,50288,2021-01-21 20:40:36.178,1.999999,8
50298,50298,2021-01-21 20:41:06.178,1.999999,8
50308,50308,2021-01-21 20:41:36.178,1.999999,8
50318,50318,2021-01-21 20:42:06.178,1.999999,8
50328,50328,2021-01-21 20:42:36.178,1.999999,8
50338,50338,2021-01-21 20:43:06.178,1.999999,8
50348,50348,2021-01-21 20:43:36.178,1.999999,8
50358,50358,2021-01-21 20:44:06.178,1.999999,8
50368,50368,2021-01-21 20:44:36.178,1.999999,8
50378,50378,2021-01-21 20:45:06.178,1.999999,8
50388,50388,2021-01-21 20:45:36.178,1.999999,8
50398,50398,2021-01-21 20:46:06.178,1.999999,8
50408,50408,2021-01-21 20:46:36.178,1.999999,8
50418,50418,2021-01-21 20:47:06.178,1.999999,8
50428,50428,2021-01-21 20:47:36.178,1.999999,8
50438,50438,2021-01-21 20:48:06.178,1.999999,8
50448,50448,2021-01-21 20:48:36.178,1.999999,8
50458,50458,2021-01-21 20:49:06.178,1.999999,8
50468,50468,2021-01-21 20:49:36.178,1.999999,8
50478,50478,2021-01-21 20:50:06.178,1.999999,8
50488,50488,2021-01-21 20:50:36.178,1.999999,8
50498,50498,2021-01-21 20:51:06.178,1.999999,8
50508,50508,2021-01-21 20:51:36.178,1.999999,8
50518,50518,2021-01-21 20:52:06.178,1.999999,8
50528,50528,2021-01-21 20:52:36.178,1.999999,8
50538,50538,2021-01-21 20:53:06.178,1.999999,8
50548,50548,2021-01-21 20:53:36.178,1.999999,8
50558,50558,2021-01-21 20:54:06.178,1.999999,8
50568,50568,2021-01-21 20:54:36.178,1.999999,8
50578,50578,2021-01-21 20:55:06.178,1.999999,8
50588,50588,2021-01-21 20:55:36.178,1.999999,8
50598,50598,2021-01-21 20:56:06.178,1.999999,8
50608,50608,2021-01-21 20:56:36.178,1.999999,8
50618,50618,2021-01-21 20:57:06.178,1.999999,8
50628,50628,2021-01-21 20:57:36.178,1.999999,8
50638,50638,2021-01-21 20:58:06.178,1.999999,8
50648,50648,2021-01-21 20:58:36.178,1.999999,8
50658,50658,2021-01-21 20:59:06.178,1.999999,8
50668,50668,2021-01-21 20:59:36.178,1.999999,8
50678,50678,2021-01-21 21:00:06.178,1.999999,8
50688,50688,2021-01-21 21:00:36.178,1.999999,8
50698,50698,2021-01-21 21:01:06.178,1.999999,8
50708,50708,2021-01-21 21:01:36.178,1.999999,8
50718,50718,2021-01-21 21:02:06.178,1.999999,8
50728,50728,2021-01-21 21:02:36.178,1.999999,8
50738,50738,2021-01-21 21:03:06.178,1.999999,8
50748,50748,2021-01-21 21:03:36.178,1.999999,8
50758,50758,2021-01-21 21:04:06.178,1.999999,8
50768,50768,2021-01-21 21:04:36.178,1.999999,8
50778,50778,2021-01-21 21:05:06.178,1.999999,8
50788,50788,2021-01-21 21:05:36.178,1.999999,8
50798,50798,2021-01-21 21:06:06.178,1.999999,8
50808,50808,2021-01-21 21:06:36.178,1.999999,8
50818,50818,2021-01-21 21:07:06.178,1.999999,8
50828,50828,2021-01-21 21:07:36.178,1.999999,8
50838,50838,2021-01-21 21:08:06.178,1.999999,8
50848,50848,2021-01-21 21:08:36.178,1.999999,8
50858,50858,2021-01-21 21:09:06.178,1.999999,8
50868,50868,2021-01-21 21:09:36.178,1.999999,8
50878,50878,2021-01-21 21:10:06.178,1.999999,8
50888,50888,2021-01-21 21:10:36.178,1.999999,8
50898,50898,2021-01-21 21:11:06.178,1.999999,8
50908,50908,2021-01-21 21:11:36.178,1.999999,8
50918,50918,2021-01-21 21:12:06.178,1.999999,8
50928,50928,2021-01-21 21:12:36.178,1.999999,8
50938,50938,2021-01-21 21:13:06.178,1.999999,8
50948,50948,2021-01-21 21:13:36.178,1.999999,8
50958,50958,2021-01-21 21:14:06.178,1.999999,8
50968,50968,2021-01-21 21:14:36.178,1.999999,8
50978,50978,2021-01-21 21:15:06.178,1.999999,8
50988,50988,2021-01-21 21:15:36.178,1.999999,8
50998,50998,2021-01-21 21:16:06.178,1.999999,8
51008,51008,2021-01-21 21:16:36.178,1.999999,8
51018,51018,2021-01-21 21:17:06.178,1.999999,8
51028,51028,2021-01-21 21:17:36.178,1.999999,8
51038,51038,2021-01-21 21:18:06.178,1.999999,8
51048,51048,2021-01-21 21:18:36.178,1.999999,8
51058,51058,2021-01-21 21:19:06.178,1.999999,8
51068,51068,2021-01-21 21:19:36.178,1.999999,8
51078,51078,2021-01-21 21:20:06.178,1.999999,8
51088,51088,2021-01-21 21:20:36.178,1.999999,8
51098,51098,2021-01-21 21:21:06.178,1.999999,8
51108,51108,2021-01-21 21:21:36.178,1.999999,8
51118,51118,2021-01-21 21:22:06.178,1.999999,8
51128,51128,2021-01-21 21:22:36.178,1.999999,8
51138,51138,2021-01-21 21:23:06.178,1.999999,8
51148,51148,2021-01-21 21:23:36.178,1.999999,8
51158,51158,2021-01-21 21:24:06.178,1.999999,8
51168,51168,2021-01-21 21:24:36.178,1.999999,8
51178,51178,2021-01-21 21:25:06.178,1.999999,8
51188,51188,2021-01-21 21:25:36.178,1.999999,8
51198,51198,2021-01-21 21:26:06.178,1.999999,8
51208,51208,2021-01-21 21:26:36.178,1.999999,8
51218,51218,2021-01-21 21:27:06.178,1.999999,8
51228,51228,2021-01-21 21:27:36.178,1.999999,8
51238,51238,2021-01-21 21:28:06.178,1.999999,8
51248,51248,2021-01-21 21:28:36.178,1.999999,8
51258,51258,2021-01-21 21:29:06.178,1.999999,8
51268,51268,2021-01-21 21:29:36.178,1.999999,8
51278,51278,2021-01-21 21:30:06.178,1.999999,8
51288,51288,2021-01-21 21:30:36.178,1.999999,8
51298,51298,2021-01-21 21:31:06.178,1.999999,8
51308,51308,2021-01-21 21:31:36.178,1.999999,8
51318,51318,2021-01-21 21:32:06.178,1.999999,8
51328,51328,2021-01-21 21:32:36.178,1.999999,8
51338,51338,2021-01-21 21:33:06.178,1.999999,8
51348,51348,2021-01-21 21:33:36.178,1.999999,8
51358,51358,2021-01-21 21:34:06.178,1.999999,8
51368,51368,2021-01-21 21:34:36.178,1.999999,8
51378,51378,2021-01-21 21:35:06.178,1.999999,8
51388,51388,2021-01-21 21:35:36.178,1.999999,8
51398,51398,2021-01-21 21:36:06.178,1.999999,8
51408,51408,2021-01-21 21:36:36.178,1.999999,8
51418,51418,2021-01-21 21:37:06.178,1.999999,8
51428,51428,2021-01-21 21:37:36.178,1.999999,8
51438,51438,2021-01-21 21:38:06.178,1.999999,8
51448,51448,2021-01-21 21:38:36.178,1.999999,8
51458,51458,2021-01-21 21:39:06.178,1.999999,8
51468,51468,2021-01-21 21:39:36.178,1.999999,8
51478,51478,2021-01-21 21:40:06.178,1.999999,8
51488,51488,2021-01-21 21:40:36.178,1.999999,8
51498,51498,2021-01-21 21:41:06.178,1.999999,8
51508,51508,2021-01-21 21:41:36.178,1.999999,8
51518,51518,2021-01-21 21:42:06.178,1.999999,8
51528,51528,2021-01-21 21:42:36.178,1.999999,8
51538,51538,2021-01-21 21:43:06.178,1.999999,8
51548,51548,2021-01-21 21:43:36.178,1.999999,8
51558,51558,2021-01-21 21:44:06.178,1.999999,8
51568,51568,2021-01-21 21:44:36.178,1.999999,8
51578,51578,2021-01-21 21:45:06.178,1.999999,8
51588,51588,2021-01-21 21:45:36.178,1.999999,8
51598,51598,2021-01-21 21:46:06.178,1.999999,8
51608,51608,2021-01-21 21:46:36.178,1.999999,8
51618,51618,2021-01-21 21:47:06.178,1.999999,8
51628,51628,2021-01-21 21:47:36.178,1.999999,8
51638,51638,2021-01-21 21:48:06.178,1.999999,8
51648,51648,2021-01-21 21:48:36.178,1.999999,8
51658,51658,2021-01-21 21:49:06.178,1.999999,8
51668,51668,2021-01-21 21:49:36.178,1.999999,8
51678,51678,2021-01-21 21:50:06.178,1.999999,8
51688,51688,2021-01-21 21:50:36.178,1.999999,8
51698,51698,2021-01-21 21:51:06.178,1.999999,8
51708,51708,2021-01-21 21:51:36.178,1.999999,8
51718,51718,2021-01-21 21:52:06.178,1.999999,8
51728,51728,2021-01-21 21:52:36.178,1.999999,8
51738,51738,2021-01-21 21:53:06.178,1.999999,8
51748,51748,2021-01-21 21:53:36.178,1.999999,8
51758,51758,2021-01-21 21:54:06.178,1.999999,8
51768,51768,2021-01-21 21:54:36.178,1.999999,8
51778,51778,2021-01-21 21:55:06.178,1.999999,8
51788,51788,2021-01-21 21:55:36.178,1.999999,8
51798,51798,2021-01-21 21:56:06.178,1.999999,8
51808,51808,2021-01-21 21:56:36.178,1.999999,8
51818,51818,2021-01-21 21:57:06.178,1.999999,8
51828,51828,2021-01-21 21:57:36.178,1.999999,8
51838,51838,2021-01-21 21:58:06.178,1.999999,8
51848,51848,2021-01-21 21:58:36.178,1.999999,8
51858,51858,2021-01-21 21:59:06.178,1.999999,8
51868,51868,2021-01-21 21:59:36.178,1.999999,8
51878,51878,2021-01-21 22:00:06.178,1.999999,8
51888,51888,2021-01-21 22:00:36.178,1.999999,8
51898,51898,2021-01-21 22:01:06.178,1.999999,8
51908,51908,2021-01-21 22:01:36.178,1.5534346,8
51918,51918,2021-01-21 22:02:06.178,1.5533559,8
51928,51928,2021-01-21 22:02:36.178,1.5533686000000002,8
51938,51938,2021-01-21 22:03:06.178,1.5533655,8
51948,51948,2021-01-21 22:03:36.178,1.5533652,8
51958,51958,2021-01-21 22:04:06.178,1.5533649999999999,8
51968,51968,2021-01-21 22:04:36.178,1.5533645,8
51978,51978,2021-01-21 22:05:06.178,1.3783406999999999,8
51988,51988,2021-01-21 22:05:36.178,1.2508503999999998,8
51998,51998,2021-01-21 22:06:06.178,1.1488934,8
52008,52008,2021-01-21 22:06:36.178,1.063725,8
52018,52018,2021-01-21 22:07:06.178,0.99078476,8
52028,52028,2021-01-21 22:07:36.178,0.92733276,8
52038,52038,2021-01-21 22:08:06.178,0.8715699,8
52048,52048,2021-01-21 22:08:36.178,0.8222437,8
52058,52058,2021-01-21 22:09:06.178,0.77844524,8
52068,52068,2021-01-21 22:09:36.178,0.7394967,8
52078,52078,2021-01-21 22:10:06.178,0.7048843000000001,8
52088,52088,2021-01-21 22:10:36.178,0.6742147,8
52098,52098,2021-01-21 22:11:06.178,0.64719045,8
52108,52108,2021-01-21 22:11:36.178,0.6235901,8
52118,52118,2021-01-21 22:12:06.178,0.6032585,8
52128,52128,2021-01-21 22:12:36.178,0.5861002,8
52138,52138,2021-01-21 22:13:06.178,0.57207763,8
52148,52148,2021-01-21 22:13:36.178,0.5612134,8
52158,52158,2021-01-21 22:14:06.178,0.55359745,8
52168,52168,2021-01-21 22:14:36.178,0.5494003000000001,8
52178,52178,2021-01-21 22:15:06.178,0.5488960999999999,8
52188,52188,2021-01-21 22:15:36.178,0.55250144,8
52198,52198,2021-01-21 22:16:06.178,0.56084335,8
52208,52208,2021-01-21 22:16:36.178,0.5608432,8
52218,52218,2021-01-21 22:17:06.178,0.57488084,8
52228,52228,2021-01-21 22:17:36.178,0.5961455,8
52238,52238,2021-01-21 22:18:06.178,0.62729394,8
52248,52248,2021-01-21 22:18:36.178,0.6736108000000001,8
52258,52258,2021-01-21 22:19:06.178,0.74891245,8
52268,52268,2021-01-21 22:19:36.178,1.0000007,8
52278,52278,2021-01-21 22:20:06.178,1.0000007,8
52288,52288,2021-01-21 22:20:36.178,1.0000007,8
52298,52298,2021-01-21 22:21:06.178,1.0000007,8
52308,52308,2021-01-21 22:21:36.178,1.0000007,8
52318,52318,2021-01-21 22:22:06.178,1.0000007,8
52328,52328,2021-01-21 22:22:36.178,1.0000007,8
52338,52338,2021-01-21 22:23:06.178,1.0000007,8
52348,52348,2021-01-21 22:23:36.178,1.0000007,8
52358,52358,2021-01-21 22:24:06.178,1.0000007,8
52368,52368,2021-01-21 22:24:36.178,1.0000007,8
52378,52378,2021-01-21 22:25:06.178,1.0000007,8
52388,52388,2021-01-21 22:25:36.178,1.0000007,8
52398,52398,2021-01-21 22:26:06.178,1.0000007,8
52408,52408,2021-01-21 22:26:36.178,1.0000007,8
52418,52418,2021-01-21 22:27:06.178,1.0000007,8
52428,52428,2021-01-21 22:27:36.178,1.0000007,8
52438,52438,2021-01-21 22:28:06.178,1.0000007,8
52448,52448,2021-01-21 22:28:36.178,1.0000007,8
52458,52458,2021-01-21 22:29:06.178,1.0000007,8
52468,52468,2021-01-21 22:29:36.178,1.0000007,8
52478,52478,2021-01-21 22:30:06.178,1.0000007,8
52488,52488,2021-01-21 22:30:36.178,1.0000007,8
52498,52498,2021-01-21 22:31:06.178,1.0000007,8
52508,52508,2021-01-21 22:31:36.178,1.0000007,8
52518,52518,2021-01-21 22:32:06.178,1.0000007,8
52528,52528,2021-01-21 22:32:36.178,1.0000007,8
52538,52538,2021-01-21 22:33:06.178,1.0000007,8
52548,52548,2021-01-21 22:33:36.178,1.0000007,8
52558,52558,2021-01-21 22:34:06.178,1.0000007,8
52568,52568,2021-01-21 22:34:36.178,1.0000007,8
52578,52578,2021-01-21 22:35:06.178,1.0000007,8
52588,52588,2021-01-21 22:35:36.178,1.0000007,8
52598,52598,2021-01-21 22:36:06.178,1.0000007,8
52608,52608,2021-01-21 22:36:36.178,1.0000007,8
52618,52618,2021-01-21 22:37:06.178,1.0000007,8
52628,52628,2021-01-21 22:37:36.178,1.0000007,8
52638,52638,2021-01-21 22:38:06.178,1.0000007,8
52648,52648,2021-01-21 22:38:36.178,1.0000007,8
52658,52658,2021-01-21 22:39:06.178,1.0000007,8
52668,52668,2021-01-21 22:39:36.178,1.0000007,8
52678,52678,2021-01-21 22:40:06.178,1.0000007,8
52688,52688,2021-01-21 22:40:36.178,1.0000007,8
52698,52698,2021-01-21 22:41:06.178,1.0000007,8
52708,52708,2021-01-21 22:41:36.178,1.0000007,8
52718,52718,2021-01-21 22:42:06.178,1.0000007,8
52728,52728,2021-01-21 22:42:36.178,1.0000007,8
52738,52738,2021-01-21 22:43:06.178,1.0000007,8
52748,52748,2021-01-21 22:43:36.178,1.0000007,8
52758,52758,2021-01-21 22:44:06.178,1.0000007,8
52768,52768,2021-01-21 22:44:36.178,1.0000007,8
52778,52778,2021-01-21 22:45:06.178,1.0000007,8
52788,52788,2021-01-21 22:45:36.178,1.0000007,8
52798,52798,2021-01-21 22:46:06.178,1.0000007,8
52808,52808,2021-01-21 22:46:36.178,1.0000007,8
52818,52818,2021-01-21 22:47:06.178,1.0000007,8
52828,52828,2021-01-21 22:47:36.178,1.0000007,8
52838,52838,2021-01-21 22:48:06.178,1.0000007,8
52848,52848,2021-01-21 22:48:36.178,1.0000007,8
52858,52858,2021-01-21 22:49:06.178,1.0000007,8
52868,52868,2021-01-21 22:49:36.178,1.0000007,8
52878,52878,2021-01-21 22:50:06.178,1.0000007,8
52888,52888,2021-01-21 22:50:36.178,1.0000007,8
52898,52898,2021-01-21 22:51:06.178,1.0000007,8
52908,52908,2021-01-21 22:51:36.178,1.0000007,8
52918,52918,2021-01-21 22:52:06.178,1.0000007,8
52928,52928,2021-01-21 22:52:36.178,1.0000007,8
52938,52938,2021-01-21 22:53:06.178,1.0000007,8
52948,52948,2021-01-21 22:53:36.178,1.0000007,8
52958,52958,2021-01-21 22:54:06.178,1.0000007,8
52968,52968,2021-01-21 22:54:36.178,1.0000007,8
52978,52978,2021-01-21 22:55:06.178,1.0000007,8
52988,52988,2021-01-21 22:55:36.178,1.0000007,8
52998,52998,2021-01-21 22:56:06.178,1.0000007,8
53008,53008,2021-01-21 22:56:36.178,1.0000007,8
53018,53018,2021-01-21 22:57:06.178,1.0000007,8
53028,53028,2021-01-21 22:57:36.178,1.0000007,8
53038,53038,2021-01-21 22:58:06.178,1.0000007,8
53048,53048,2021-01-21 22:58:36.178,1.0000007,8
53058,53058,2021-01-21 22:59:06.178,1.0000007,8
53068,53068,2021-01-21 22:59:36.178,1.0000007,8
53078,53078,2021-01-21 23:00:06.178,1.0000007,8
53088,53088,2021-01-21 23:00:36.178,1.0000007,8
53098,53098,2021-01-21 23:01:06.178,1.0000007,8
53108,53108,2021-01-21 23:01:36.178,1.0000007,8
53118,53118,2021-01-21 23:02:06.178,1.0000007,8
53128,53128,2021-01-21 23:02:36.178,1.0000007,8
53138,53138,2021-01-21 23:03:06.178,1.0000007,8
53148,53148,2021-01-21 23:03:36.178,1.0000007,8
53158,53158,2021-01-21 23:04:06.178,1.0000007,8
53168,53168,2021-01-21 23:04:36.178,1.0000007,8
53178,53178,2021-01-21 23:05:06.178,1.0000007,8
53188,53188,2021-01-21 23:05:36.178,1.0000007,8
53198,53198,2021-01-21 23:06:06.178,1.0000007,8
53208,53208,2021-01-21 23:06:36.178,1.0000007,8
53218,53218,2021-01-21 23:07:06.178,1.0000007,8
53228,53228,2021-01-21 23:07:36.178,1.0000007,8
53238,53238,2021-01-21 23:08:06.178,1.0000007,8
53248,53248,2021-01-21 23:08:36.178,1.0000007,8
53258,53258,2021-01-21 23:09:06.178,1.0000007,8
53268,53268,2021-01-21 23:09:36.178,1.0000007,8
53278,53278,2021-01-21 23:10:06.178,1.0000007,8
53288,53288,2021-01-21 23:10:36.178,1.0000007,8
53298,53298,2021-01-21 23:11:06.178,1.0000007,8
53308,53308,2021-01-21 23:11:36.178,1.0000007,8
53318,53318,2021-01-21 23:12:06.178,1.0000007,8
53328,53328,2021-01-21 23:12:36.178,1.0000007,8
53338,53338,2021-01-21 23:13:06.178,1.0000007,8
53348,53348,2021-01-21 23:13:36.178,1.0000007,8
53358,53358,2021-01-21 23:14:06.178,1.0000007,8
53368,53368,2021-01-21 23:14:36.178,1.0000007,8
53378,53378,2021-01-21 23:15:06.178,1.0000007,8
53388,53388,2021-01-21 23:15:36.178,1.0000007,8
53398,53398,2021-01-21 23:16:06.178,1.0000007,8
53408,53408,2021-01-21 23:16:36.178,1.0000007,8
53418,53418,2021-01-21 23:17:06.178,1.0000007,8
53428,53428,2021-01-21 23:17:36.178,1.0000007,8
53438,53438,2021-01-21 23:18:06.178,1.0000007,8
53448,53448,2021-01-21 23:18:36.178,1.0000007,8
53458,53458,2021-01-21 23:19:06.178,1.0000007,8
53468,53468,2021-01-21 23:19:36.178,1.0000007,8
53478,53478,2021-01-21 23:20:06.178,1.0000007,8
53488,53488,2021-01-21 23:20:36.178,1.0000007,8
53498,53498,2021-01-21 23:21:06.178,1.0000007,8
53508,53508,2021-01-21 23:21:36.178,1.0000007,8
53518,53518,2021-01-21 23:22:06.178,1.0000007,8
53528,53528,2021-01-21 23:22:36.178,1.0000007,8
53538,53538,2021-01-21 23:23:06.178,1.0000007,8
53548,53548,2021-01-21 23:23:36.178,1.0000007,8
53558,53558,2021-01-21 23:24:06.178,1.0000007,8
53568,53568,2021-01-21 23:24:36.178,1.0000007,8
53578,53578,2021-01-21 23:25:06.178,1.0000007,8
53588,53588,2021-01-21 23:25:36.178,1.0000007,8
53598,53598,2021-01-21 23:26:06.178,1.0000007,8
53608,53608,2021-01-21 23:26:36.178,1.0000007,8
53618,53618,2021-01-21 23:27:06.178,1.0000007,8
53628,53628,2021-01-21 23:27:36.178,1.0000007,8
53638,53638,2021-01-21 23:28:06.178,1.0000007,8
53648,53648,2021-01-21 23:28:36.178,1.0000007,8
53658,53658,2021-01-21 23:29:06.178,1.0000007,8
53668,53668,2021-01-21 23:29:36.178,1.0000007,8
53678,53678,2021-01-21 23:30:06.178,1.0000007,8
53688,53688,2021-01-21 23:30:36.178,1.0000007,8
53698,53698,2021-01-21 23:31:06.178,1.0000007,8
53708,53708,2021-01-21 23:31:36.178,1.0000007,8
53718,53718,2021-01-21 23:32:06.178,1.0000007,8
53728,53728,2021-01-21 23:32:36.178,1.0000007,8
53738,53738,2021-01-21 23:33:06.178,1.0000007,8
53748,53748,2021-01-21 23:33:36.178,1.0000007,8
53758,53758,2021-01-21 23:34:06.178,1.0000007,8
53768,53768,2021-01-21 23:34:36.178,1.0000007,8
53778,53778,2021-01-21 23:35:06.178,1.0000007,8
53788,53788,2021-01-21 23:35:36.178,1.0000007,8
53798,53798,2021-01-21 23:36:06.178,1.0000007,8
53808,53808,2021-01-21 23:36:36.178,1.0000007,8
53818,53818,2021-01-21 23:37:06.178,1.0000007,8
53828,53828,2021-01-21 23:37:36.178,1.0000007,8
53838,53838,2021-01-21 23:38:06.178,1.0000007,8
53848,53848,2021-01-21 23:38:36.178,1.0000007,8
53858,53858,2021-01-21 23:39:06.178,1.0000007,8
53868,53868,2021-01-21 23:39:36.178,1.0000007,8
53878,53878,2021-01-21 23:40:06.178,1.0000007,8
53888,53888,2021-01-21 23:40:36.178,1.0000007,8
53898,53898,2021-01-21 23:41:06.178,1.0000007,8
53908,53908,2021-01-21 23:41:36.178,1.0000007,8
53918,53918,2021-01-21 23:42:06.178,1.0000007,8
53928,53928,2021-01-21 23:42:36.178,1.0000007,8
53938,53938,2021-01-21 23:43:06.178,1.0000007,8
53948,53948,2021-01-21 23:43:36.178,1.0000007,8
53958,53958,2021-01-21 23:44:06.178,1.0000007,8
53968,53968,2021-01-21 23:44:36.178,1.0000007,8
53978,53978,2021-01-21 23:45:06.178,1.0000007,8
53988,53988,2021-01-21 23:45:36.178,1.0000007,8
53998,53998,2021-01-21 23:46:06.178,1.0000007,8
54008,54008,2021-01-21 23:46:36.178,1.0000007,8
54018,54018,2021-01-21 23:47:06.178,1.0000007,8
54028,54028,2021-01-21 23:47:36.178,1.0000007,8
54038,54038,2021-01-21 23:48:06.178,1.0000007,8
54048,54048,2021-01-21 23:48:36.178,1.0000007,8
54058,54058,2021-01-21 23:49:06.178,1.0000007,8
54068,54068,2021-01-21 23:49:36.178,1.0000007,8
54078,54078,2021-01-21 23:50:06.178,1.0000007,8
54088,54088,2021-01-21 23:50:36.178,1.0000007,8
54098,54098,2021-01-21 23:51:06.178,1.0000007,8
54108,54108,2021-01-21 23:51:36.178,1.0000007,8
54118,54118,2021-01-21 23:52:06.178,1.0000007,8
54128,54128,2021-01-21 23:52:36.178,1.0000007,8
54138,54138,2021-01-21 23:53:06.178,1.0000007,8
54148,54148,2021-01-21 23:53:36.178,1.0000007,8
54158,54158,2021-01-21 23:54:06.178,1.0000007,8
54168,54168,2021-01-21 23:54:36.178,1.0000007,8
54178,54178,2021-01-21 23:55:06.178,1.0000007,8
54188,54188,2021-01-21 23:55:36.178,1.0000007,8
54198,54198,2021-01-21 23:56:06.178,1.0000007,8
54208,54208,2021-01-21 23:56:36.178,1.0000007,8
54218,54218,2021-01-21 23:57:06.178,1.0000007,8
54228,54228,2021-01-21 23:57:36.178,1.0000007,8
54238,54238,2021-01-21 23:58:06.178,1.0000007,8
54248,54248,2021-01-21 23:58:36.178,1.0000007,8
54258,54258,2021-01-21 23:59:06.178,1.0000007,8
54268,54268,2021-01-21 23:59:36.178,1.0000007,8
54278,54278,2021-01-22 00:00:06.178,1.0000007,8
54288,54288,2021-01-22 00:00:36.178,1.0000007,8
54298,54298,2021-01-22 00:01:06.178,1.0000007,8
54308,54308,2021-01-22 00:01:36.178,1.0000007,8
54318,54318,2021-01-22 00:02:06.178,1.0000007,8
54328,54328,2021-01-22 00:02:36.178,1.0000007,8
54338,54338,2021-01-22 00:03:06.178,1.0000007,8
54348,54348,2021-01-22 00:03:36.178,1.0000007,8
54358,54358,2021-01-22 00:04:06.178,1.0000007,8
54368,54368,2021-01-22 00:04:36.178,1.0000007,8
54378,54378,2021-01-22 00:05:06.178,1.0000007,8
54388,54388,2021-01-22 00:05:36.178,1.0000007,8
54398,54398,2021-01-22 00:06:06.178,1.0000007,8
54408,54408,2021-01-22 00:06:36.178,1.0000007,8
54418,54418,2021-01-22 00:07:06.178,1.0000007,8
54428,54428,2021-01-22 00:07:36.178,1.0000007,8
54438,54438,2021-01-22 00:08:06.178,1.0000007,8
54448,54448,2021-01-22 00:08:36.178,1.0000007,8
54458,54458,2021-01-22 00:09:06.178,1.0000007,8
54468,54468,2021-01-22 00:09:36.178,1.0000007,8
54478,54478,2021-01-22 00:10:06.178,1.0000007,8
54488,54488,2021-01-22 00:10:36.178,1.0000007,8
54498,54498,2021-01-22 00:11:06.178,1.0000007,8
54508,54508,2021-01-22 00:11:36.178,1.0000007,8
54518,54518,2021-01-22 00:12:06.178,1.0000007,8
54528,54528,2021-01-22 00:12:36.178,1.0000007,8
54538,54538,2021-01-22 00:13:06.178,1.0000007,8
54548,54548,2021-01-22 00:13:36.178,1.0000007,8
54558,54558,2021-01-22 00:14:06.178,1.0000007,8
54568,54568,2021-01-22 00:14:36.178,1.0000007,8
54578,54578,2021-01-22 00:15:06.178,1.0000007,8
54588,54588,2021-01-22 00:15:36.178,1.0000007,8
54598,54598,2021-01-22 00:16:06.178,1.0000007,8
54608,54608,2021-01-22 00:16:36.178,1.0000007,8
54618,54618,2021-01-22 00:17:06.178,1.0000007,8
54628,54628,2021-01-22 00:17:36.178,1.0000007,8
54638,54638,2021-01-22 00:18:06.178,1.0000007,8
54648,54648,2021-01-22 00:18:36.178,1.0000007,8
54658,54658,2021-01-22 00:19:06.178,1.0000007,8
54668,54668,2021-01-22 00:19:36.178,1.0000007,8
54678,54678,2021-01-22 00:20:06.178,1.0000007,8
54688,54688,2021-01-22 00:20:36.178,1.0000007,8
54698,54698,2021-01-22 00:21:06.178,1.0000007,8
54708,54708,2021-01-22 00:21:36.178,1.0000007,8
54718,54718,2021-01-22 00:22:06.178,1.0000007,8
54728,54728,2021-01-22 00:22:36.178,1.0000007,8
54738,54738,2021-01-22 00:23:06.178,1.0000007,8
54748,54748,2021-01-22 00:23:36.178,1.0000007,8
54758,54758,2021-01-22 00:24:06.178,1.0000007,8
54768,54768,2021-01-22 00:24:36.178,1.0000007,8
54778,54778,2021-01-22 00:25:06.178,1.0000007,8
54788,54788,2021-01-22 00:25:36.178,1.0000007,8
54798,54798,2021-01-22 00:26:06.178,1.0000007,8
54808,54808,2021-01-22 00:26:36.178,1.0000007,8
54818,54818,2021-01-22 00:27:06.178,1.0000007,8
54828,54828,2021-01-22 00:27:36.178,1.0000007,8
54838,54838,2021-01-22 00:28:06.178,1.0000007,8
54848,54848,2021-01-22 00:28:36.178,1.0000007,8
54858,54858,2021-01-22 00:29:06.178,1.0000007,8
54868,54868,2021-01-22 00:29:36.178,1.0000007,8
54878,54878,2021-01-22 00:30:06.178,1.0000007,8
54888,54888,2021-01-22 00:30:36.178,1.0000007,8
54898,54898,2021-01-22 00:31:06.178,1.0000007,8
54908,54908,2021-01-22 00:31:36.178,1.0000007,8
54918,54918,2021-01-22 00:32:06.178,1.0000007,8
54928,54928,2021-01-22 00:32:36.178,1.0000007,8
54938,54938,2021-01-22 00:33:06.178,1.0000007,8
54948,54948,2021-01-22 00:33:36.178,1.0000007,8
54958,54958,2021-01-22 00:34:06.178,1.0000007,8
54968,54968,2021-01-22 00:34:36.178,1.0000007,8
54978,54978,2021-01-22 00:35:06.178,1.0000007,8
54988,54988,2021-01-22 00:35:36.178,1.0000007,8
54998,54998,2021-01-22 00:36:06.178,1.0000007,8
55008,55008,2021-01-22 00:36:36.178,1.0000007,8
55018,55018,2021-01-22 00:37:06.178,1.0000007,8
55028,55028,2021-01-22 00:37:36.178,1.0000007,8
55038,55038,2021-01-22 00:38:06.178,1.0000007,8
55048,55048,2021-01-22 00:38:36.178,1.0000007,8
55058,55058,2021-01-22 00:39:06.178,1.0000007,8
55068,55068,2021-01-22 00:39:36.178,1.0000007,8
55078,55078,2021-01-22 00:40:06.178,1.0000007,8
55088,55088,2021-01-22 00:40:36.178,1.0000007,8
55098,55098,2021-01-22 00:41:06.178,1.0000007,8
55108,55108,2021-01-22 00:41:36.178,1.0000007,8
55118,55118,2021-01-22 00:42:06.178,1.0000007,8
55128,55128,2021-01-22 00:42:36.178,1.0000007,8
55138,55138,2021-01-22 00:43:06.178,1.0000007,8
55148,55148,2021-01-22 00:43:36.178,1.0000007,8
55158,55158,2021-01-22 00:44:06.178,1.0000007,8
55168,55168,2021-01-22 00:44:36.178,1.0000007,8
55178,55178,2021-01-22 00:45:06.178,1.0000007,8
55188,55188,2021-01-22 00:45:36.178,1.0000007,8
55198,55198,2021-01-22 00:46:06.178,1.0000007,8
55208,55208,2021-01-22 00:46:36.178,1.0000007,8
55218,55218,2021-01-22 00:47:06.178,1.0000007,8
55228,55228,2021-01-22 00:47:36.178,1.0000007,8
55238,55238,2021-01-22 00:48:06.178,1.0000007,8
55248,55248,2021-01-22 00:48:36.178,1.0000007,8
55258,55258,2021-01-22 00:49:06.178,1.0000007,8
55268,55268,2021-01-22 00:49:36.178,1.0000007,8
55278,55278,2021-01-22 00:50:06.178,1.0000007,8
55288,55288,2021-01-22 00:50:36.178,1.0000007,8
55298,55298,2021-01-22 00:51:06.178,1.0000007,8
55308,55308,2021-01-22 00:51:36.178,1.0000007,8
55318,55318,2021-01-22 00:52:06.178,1.0000007,8
55328,55328,2021-01-22 00:52:36.178,1.0000007,8
55338,55338,2021-01-22 00:53:06.178,1.0000007,8
55348,55348,2021-01-22 00:53:36.178,1.0000007,8
55358,55358,2021-01-22 00:54:06.178,1.0000007,8
55368,55368,2021-01-22 00:54:36.178,1.0000007,8
55378,55378,2021-01-22 00:55:06.178,1.0000007,8
55388,55388,2021-01-22 00:55:36.178,1.0000007,8
55398,55398,2021-01-22 00:56:06.178,1.0000007,8
55408,55408,2021-01-22 00:56:36.178,1.0000007,8
55418,55418,2021-01-22 00:57:06.178,1.0000007,8
55428,55428,2021-01-22 00:57:36.178,1.0000007,8
55438,55438,2021-01-22 00:58:06.178,1.0000007,8
55448,55448,2021-01-22 00:58:36.178,1.0000007,8
55458,55458,2021-01-22 00:59:06.178,1.0000007,8
55468,55468,2021-01-22 00:59:36.178,1.0000007,8
55478,55478,2021-01-22 01:00:06.178,1.0000007,8
55488,55488,2021-01-22 01:00:36.178,1.0000007,8
55498,55498,2021-01-22 01:01:06.178,1.0000007,8
55508,55508,2021-01-22 01:01:36.178,1.0000007,8
55518,55518,2021-01-22 01:02:06.178,1.0000007,8
55528,55528,2021-01-22 01:02:36.178,1.0000007,8
55538,55538,2021-01-22 01:03:06.178,1.0000007,8
55548,55548,2021-01-22 01:03:36.178,1.0000007,8
55558,55558,2021-01-22 01:04:06.178,1.0000007,8
55568,55568,2021-01-22 01:04:36.178,1.0000007,8
55578,55578,2021-01-22 01:05:06.178,1.0000007,8
55588,55588,2021-01-22 01:05:36.178,1.0000007,8
55598,55598,2021-01-22 01:06:06.178,1.0000007,8
55608,55608,2021-01-22 01:06:36.178,1.0000007,8
55618,55618,2021-01-22 01:07:06.178,1.0000007,8
55628,55628,2021-01-22 01:07:36.178,1.0000007,8
55638,55638,2021-01-22 01:08:06.178,1.0000007,8
55648,55648,2021-01-22 01:08:36.178,1.0000007,8
55658,55658,2021-01-22 01:09:06.178,1.0000007,8
55668,55668,2021-01-22 01:09:36.178,1.0000007,8
55678,55678,2021-01-22 01:10:06.178,1.0000007,8
55688,55688,2021-01-22 01:10:36.178,1.0000007,8
55698,55698,2021-01-22 01:11:06.178,1.0000007,8
55708,55708,2021-01-22 01:11:36.178,1.0000007,8
55718,55718,2021-01-22 01:12:06.178,1.0000007,8
55728,55728,2021-01-22 01:12:36.178,1.0000007,8
55738,55738,2021-01-22 01:13:06.178,1.0000007,8
55748,55748,2021-01-22 01:13:36.178,1.0000007,8
55758,55758,2021-01-22 01:14:06.178,1.0000007,8
55768,55768,2021-01-22 01:14:36.178,1.0000007,8
55778,55778,2021-01-22 01:15:06.178,1.0000007,8
55788,55788,2021-01-22 01:15:36.178,1.0000007,8
55798,55798,2021-01-22 01:16:06.178,1.0000007,8
55808,55808,2021-01-22 01:16:36.178,1.0000007,8
55818,55818,2021-01-22 01:17:06.178,1.0000007,8
55828,55828,2021-01-22 01:17:36.178,1.0000007,8
55838,55838,2021-01-22 01:18:06.178,1.0000007,8
55848,55848,2021-01-22 01:18:36.178,1.0000007,8
55858,55858,2021-01-22 01:19:06.178,1.0000007,8
55868,55868,2021-01-22 01:19:36.178,1.0000007,8
55878,55878,2021-01-22 01:20:06.178,1.0000007,8
55888,55888,2021-01-22 01:20:36.178,1.0000007,8
55898,55898,2021-01-22 01:21:06.178,1.0000007,8
55908,55908,2021-01-22 01:21:36.178,1.0000007,8
55918,55918,2021-01-22 01:22:06.178,1.0000007,8
55928,55928,2021-01-22 01:22:36.178,1.0000007,8
55938,55938,2021-01-22 01:23:06.178,1.0000007,8
55948,55948,2021-01-22 01:23:36.178,1.0000007,8
55958,55958,2021-01-22 01:24:06.178,1.0000007,8
55968,55968,2021-01-22 01:24:36.178,1.0000007,8
55978,55978,2021-01-22 01:25:06.178,1.0000007,8
55988,55988,2021-01-22 01:25:36.178,1.0000007,8
55998,55998,2021-01-22 01:26:06.178,1.0000007,8
56008,56008,2021-01-22 01:26:36.178,1.0000007,8
56018,56018,2021-01-22 01:27:06.178,1.0000007,8
56028,56028,2021-01-22 01:27:36.178,1.0000007,8
56038,56038,2021-01-22 01:28:06.178,1.0000007,8
56048,56048,2021-01-22 01:28:36.178,1.0000007,8
56058,56058,2021-01-22 01:29:06.178,1.0000007,8
56068,56068,2021-01-22 01:29:36.178,1.0000007,8
56078,56078,2021-01-22 01:30:06.178,1.0000007,8
56088,56088,2021-01-22 01:30:36.178,1.0000007,8
56098,56098,2021-01-22 01:31:06.178,1.0000007,8
56108,56108,2021-01-22 01:31:36.178,1.0000007,8
56118,56118,2021-01-22 01:32:06.178,1.0000007,8
56128,56128,2021-01-22 01:32:36.178,1.0000007,8
56138,56138,2021-01-22 01:33:06.178,1.0000007,8
56148,56148,2021-01-22 01:33:36.178,1.0000007,8
56158,56158,2021-01-22 01:34:06.178,1.0000007,8
56168,56168,2021-01-22 01:34:36.178,1.0000007,8
56178,56178,2021-01-22 01:35:06.178,1.0000007,8
56188,56188,2021-01-22 01:35:36.178,1.0000007,8
56198,56198,2021-01-22 01:36:06.178,1.0000007,8
56208,56208,2021-01-22 01:36:36.178,1.0000007,8
56218,56218,2021-01-22 01:37:06.178,1.0000007,8
