,Unnamed: 0,time,prediction,step
25516,25516,2020-10-21 11:47:32.926,2226.3833,6
25526,25526,2020-10-21 11:48:02.926,2061.2876,6
25536,25536,2020-10-21 11:48:32.926,2005.586,6
25546,25546,2020-10-21 11:49:02.926,1930.1986,6
25556,25556,2020-10-21 11:49:32.926,1884.3188,6
25566,25566,2020-10-21 11:50:02.926,1844.0785,6
25576,25576,2020-10-21 11:50:32.926,1841.0697,6
25586,25586,2020-10-21 11:51:02.926,1808.0094,6
25596,25596,2020-10-21 11:51:32.926,1254.6989,6
25606,25606,2020-10-21 11:52:02.926,1167.2322,6
25616,25616,2020-10-21 11:52:32.926,1307.3599,6
25626,25626,2020-10-21 11:53:02.926,1255.1863,6
25636,25636,2020-10-21 11:53:32.926,1286.0742,6
25646,25646,2020-10-21 11:54:02.926,1469.9175,6
25656,25656,2020-10-21 11:54:32.926,1774.8759,6
25666,25666,2020-10-21 11:55:02.926,1768.7920000000001,6
25676,25676,2020-10-21 11:55:32.926,1769.0244,6
25686,25686,2020-10-21 11:56:02.926,1734.9497,6
25696,25696,2020-10-21 11:56:32.926,1751.5022,6
25706,25706,2020-10-21 11:57:02.926,1761.5911,6
25716,25716,2020-10-21 11:57:32.926,1776.4857,6
25726,25726,2020-10-21 11:58:02.926,1818.5643,6
25736,25736,2020-10-21 11:58:32.926,1834.3513,6
25746,25746,2020-10-21 11:59:02.926,1752.3447,6
25756,25756,2020-10-21 11:59:32.926,1747.8877,6
25766,25766,2020-10-21 12:00:02.926,1738.6757,6
25776,25776,2020-10-21 12:00:32.926,1724.7251,6
25786,25786,2020-10-21 12:01:02.926,1711.5829,6
25796,25796,2020-10-21 12:01:32.926,1704.3165,6
25806,25806,2020-10-21 12:02:02.926,1707.1185,6
25816,25816,2020-10-21 12:02:32.926,1113.9576,6
25826,25826,2020-10-21 12:03:02.926,908.8173,6
25836,25836,2020-10-21 12:03:32.926,897.3964,6
25846,25846,2020-10-21 12:04:02.926,866.8316699999999,6
25856,25856,2020-10-21 12:04:32.926,899.2692,6
25866,25866,2020-10-21 12:05:02.926,1124.3107,6
25876,25876,2020-10-21 12:05:32.926,1511.0668,6
25886,25886,2020-10-21 12:06:02.926,1508.9103,6
25896,25896,2020-10-21 12:06:32.926,1464.7717,6
25906,25906,2020-10-21 12:07:02.926,1459.5162,6
25916,25916,2020-10-21 12:07:32.926,1452.1165,6
25926,25926,2020-10-21 12:08:02.926,1436.3035,6
25936,25936,2020-10-21 12:08:32.926,1430.6418,6
25946,25946,2020-10-21 12:09:02.926,1351.3795,6
25956,25956,2020-10-21 12:09:32.926,1350.4021,6
25966,25966,2020-10-21 12:10:02.926,1340.8636,6
25976,25976,2020-10-21 12:10:32.926,1362.4707,6
25986,25986,2020-10-21 12:11:02.926,1354.9684,6
25996,25996,2020-10-21 12:11:32.926,940.6196,6
26006,26006,2020-10-21 12:12:02.926,842.97705,6
26016,26016,2020-10-21 12:12:32.926,872.1765,6
26026,26026,2020-10-21 12:13:02.926,883.207,6
26036,26036,2020-10-21 12:13:32.926,1026.1266,6
26046,26046,2020-10-21 12:14:02.926,996.7685,6
26056,26056,2020-10-21 12:14:32.926,977.9772300000001,6
26066,26066,2020-10-21 12:15:02.926,968.60596,6
26076,26076,2020-10-21 12:15:32.926,958.27716,6
26086,26086,2020-10-21 12:16:02.926,737.2755,6
26096,26096,2020-10-21 12:16:32.926,747.24677,6
26106,26106,2020-10-21 12:17:02.926,740.2139,6
26116,26116,2020-10-21 12:17:32.926,595.40656,6
26126,26126,2020-10-21 12:18:02.926,418.82937999999996,6
26136,26136,2020-10-21 12:18:32.926,396.08878,6
26146,26146,2020-10-21 12:19:02.926,380.49167,6
26156,26156,2020-10-21 12:19:32.926,399.26337,6
26166,26166,2020-10-21 12:20:02.926,321.44897000000003,6
26176,26176,2020-10-21 12:20:32.926,392.54828,6
26186,26186,2020-10-21 12:21:02.926,343.30945,6
26196,26196,2020-10-21 12:21:32.926,415.7553,6
26206,26206,2020-10-21 12:22:02.926,427.73175,6
26216,26216,2020-10-21 12:22:32.926,422.3994,6
26226,26226,2020-10-21 12:23:02.926,374.90442,6
26236,26236,2020-10-21 12:23:32.926,361.37282999999996,6
26246,26246,2020-10-21 12:24:02.926,306.58942,6
26256,26256,2020-10-21 12:24:32.926,239.02945,6
26266,26266,2020-10-21 12:25:02.926,219.4384,6
26276,26276,2020-10-21 12:25:32.926,143.69861,6
26286,26286,2020-10-21 12:26:02.926,60.603737,6
26296,26296,2020-10-21 12:26:32.926,-34.398434,6
26306,26306,2020-10-21 12:27:02.926,-144.05255,6
26316,26316,2020-10-21 12:27:32.926,-127.66244499999999,6
26326,26326,2020-10-21 12:28:02.926,84.64838,6
26336,26336,2020-10-21 12:28:32.926,111.40628000000001,6
