,Unnamed: 0,time,prediction,step
25514,25514,2020-10-21 11:46:32.926,2285.5398,4
25524,25524,2020-10-21 11:47:02.926,2122.4138,4
25534,25534,2020-10-21 11:47:32.926,2068.8545,4
25544,25544,2020-10-21 11:48:02.926,1995.2281,4
25554,25554,2020-10-21 11:48:32.926,1949.5936,4
25564,25564,2020-10-21 11:49:02.926,1910.1383,4
25574,25574,2020-10-21 11:49:32.926,1913.3984,4
25584,25584,2020-10-21 11:50:02.926,1894.6549,4
25594,25594,2020-10-21 11:50:32.926,1354.6058,4
25604,25604,2020-10-21 11:51:02.926,1258.4403,4
25614,25614,2020-10-21 11:51:32.926,1365.1085,4
25624,25624,2020-10-21 11:52:02.926,1328.207,4
25634,25634,2020-10-21 11:52:32.926,1365.2615,4
25644,25644,2020-10-21 11:53:02.926,1535.2094,4
25654,25654,2020-10-21 11:53:32.926,1834.274,4
25664,25664,2020-10-21 11:54:02.926,1829.8837,4
25674,25674,2020-10-21 11:54:32.926,1824.514,4
25684,25684,2020-10-21 11:55:02.926,1785.445,4
25694,25694,2020-10-21 11:55:32.926,1797.6237,4
25704,25704,2020-10-21 11:56:02.926,1802.5508,4
25714,25714,2020-10-21 11:56:32.926,1811.1351,4
25724,25724,2020-10-21 11:57:02.926,1847.4958,4
25734,25734,2020-10-21 11:57:32.926,1859.5299,4
25744,25744,2020-10-21 11:58:02.926,1775.0413,4
25754,25754,2020-10-21 11:58:32.926,1770.6145,4
25764,25764,2020-10-21 11:59:02.926,1761.6017,4
25774,25774,2020-10-21 11:59:32.926,1748.0845,4
25784,25784,2020-10-21 12:00:02.926,1735.579,4
25794,25794,2020-10-21 12:00:32.926,1729.5848,4
25804,25804,2020-10-21 12:01:02.926,1732.5870000000002,4
25814,25814,2020-10-21 12:01:32.926,1133.1082,4
25824,25824,2020-10-21 12:02:02.926,928.11053,4
25834,25834,2020-10-21 12:02:32.926,932.2318,4
25844,25844,2020-10-21 12:03:02.926,906.9916,4
25854,25854,2020-10-21 12:03:32.926,936.8028,4
25864,25864,2020-10-21 12:04:02.926,1141.4928,4
25874,25874,2020-10-21 12:04:32.926,1524.0121,4
25884,25884,2020-10-21 12:05:02.926,1529.8484,4
25894,25894,2020-10-21 12:05:32.926,1490.3997,4
25904,25904,2020-10-21 12:06:02.926,1485.5951,4
25914,25914,2020-10-21 12:06:32.926,1477.963,4
25924,25924,2020-10-21 12:07:02.926,1461.4843,4
25934,25934,2020-10-21 12:07:32.926,1455.3738,4
25944,25944,2020-10-21 12:08:02.926,1374.3309,4
25954,25954,2020-10-21 12:08:32.926,1372.9366,4
25964,25964,2020-10-21 12:09:02.926,1362.9968,4
25974,25974,2020-10-21 12:09:32.926,1384.8064,4
25984,25984,2020-10-21 12:10:02.926,1377.1166,4
25994,25994,2020-10-21 12:10:32.926,959.9122,4
26004,26004,2020-10-21 12:11:02.926,861.1794,4
26014,26014,2020-10-21 12:11:32.926,899.9018599999999,4
26024,26024,2020-10-21 12:12:02.926,909.84375,4
26034,26034,2020-10-21 12:12:32.926,1036.9003,4
26044,26044,2020-10-21 12:13:02.926,1009.95825,4
26054,26054,2020-10-21 12:13:32.926,992.3924,4
26064,26064,2020-10-21 12:14:02.926,984.6723,4
26074,26074,2020-10-21 12:14:32.926,974.3913,4
26084,26084,2020-10-21 12:15:02.926,777.0047599999999,4
26094,26094,2020-10-21 12:15:32.926,775.8223,4
26104,26104,2020-10-21 12:16:02.926,765.9904,4
26114,26114,2020-10-21 12:16:32.926,639.5495,4
26124,26124,2020-10-21 12:17:02.926,462.50305,4
26134,26134,2020-10-21 12:17:32.926,443.46185,4
26144,26144,2020-10-21 12:18:02.926,425.90195,4
26154,26154,2020-10-21 12:18:32.926,433.13608,4
26164,26164,2020-10-21 12:19:02.926,364.2277,4
26174,26174,2020-10-21 12:19:32.926,425.78155999999996,4
26184,26184,2020-10-21 12:20:02.926,383.6579,4
26194,26194,2020-10-21 12:20:32.926,441.84232000000003,4
26204,26204,2020-10-21 12:21:02.926,449.96634000000006,4
26214,26214,2020-10-21 12:21:32.926,442.62515,4
26224,26224,2020-10-21 12:22:02.926,394.5082,4
26234,26234,2020-10-21 12:22:32.926,379.7578,4
26244,26244,2020-10-21 12:23:02.926,324.5336,4
26254,26254,2020-10-21 12:23:32.926,260.11084,4
26264,26264,2020-10-21 12:24:02.926,243.56671,4
26274,26274,2020-10-21 12:24:32.926,180.28781,4
26284,26284,2020-10-21 12:25:02.926,101.86045,4
26294,26294,2020-10-21 12:25:32.926,6.479773000000001,4
26304,26304,2020-10-21 12:26:02.926,-104.592445,4
26314,26314,2020-10-21 12:26:32.926,-90.29659000000001,4
26324,26324,2020-10-21 12:27:02.926,102.76700600000001,4
26334,26334,2020-10-21 12:27:32.926,127.38046999999999,4
