,Unnamed: 0,time,prediction,step
5264,5264,2021-02-10 07:47:12.950,6089.964,4
5274,5274,2021-02-10 07:47:42.950,6059.8755,4
5284,5284,2021-02-10 07:48:12.950,6029.951999999999,4
5294,5294,2021-02-10 07:48:42.950,6000.0205,4
5304,5304,2021-02-10 07:49:12.950,5970.1865,4
5314,5314,2021-02-10 07:49:42.950,5940.3535,4
5324,5324,2021-02-10 07:50:12.950,5910.5215,4
5334,5334,2021-02-10 07:50:42.950,5880.585999999999,4
5344,5344,2021-02-10 07:51:12.950,5850.7476,4
5354,5354,2021-02-10 07:51:42.950,5820.8047,4
5364,5364,2021-02-10 07:52:12.950,5790.9595,4
5374,5374,2021-02-10 07:52:42.950,5761.0103,4
5384,5384,2021-02-10 07:53:12.950,5731.0527,4
5394,5394,2021-02-10 07:53:42.950,5701.0869999999995,4
5404,5404,2021-02-10 07:54:12.950,5671.113,4
5414,5414,2021-02-10 07:54:42.950,5641.1313,4
5424,5424,2021-02-10 07:55:12.950,5611.246,4
5434,5434,2021-02-10 07:55:42.950,5581.3623,4
5444,5444,2021-02-10 07:56:12.950,5551.2104,4
5454,5454,2021-02-10 07:56:42.950,5521.3276,4
5464,5464,2021-02-10 07:57:12.950,5491.3403,4
5474,5474,2021-02-10 07:57:42.950,5461.4497,4
5484,5484,2021-02-10 07:58:12.950,5431.56,4
5494,5494,2021-02-10 07:58:42.950,5401.670999999999,4
5504,5504,2021-02-10 07:59:12.950,5371.5156,4
5514,5514,2021-02-10 07:59:42.950,5341.6284,4
5524,5524,2021-02-10 08:00:12.950,5311.741999999999,4
5534,5534,2021-02-10 08:00:42.950,5281.8574,4
5544,5544,2021-02-10 08:01:12.950,5251.973000000001,4
5554,5554,2021-02-10 08:01:42.950,5222.09,4
5564,5564,2021-02-10 08:02:12.950,5192.1025,4
5574,5574,2021-02-10 08:02:42.950,5162.108,4
5584,5584,2021-02-10 08:03:12.950,5132.2095,4
5594,5594,2021-02-10 08:03:42.950,5102.3115,4
5604,5604,2021-02-10 08:04:12.950,5072.252,4
5614,5614,2021-02-10 08:04:42.950,5042.3647,4
5624,5624,2021-02-10 08:05:12.950,5012.316,4
5634,5634,2021-02-10 08:05:42.950,4982.4404,4
5644,5644,2021-02-10 08:06:12.950,4952.565,4
5654,5654,2021-02-10 08:06:42.950,4922.6904,4
5664,5664,2021-02-10 08:07:12.950,4892.8174,4
5674,5674,2021-02-10 08:07:42.950,4862.782,4
5684,5684,2021-02-10 08:08:12.950,4832.92,4
5694,5694,2021-02-10 08:08:42.950,4803.0586,4
5704,5704,2021-02-10 08:09:12.950,4773.198,4
5714,5714,2021-02-10 08:09:42.950,4743.1759999999995,4
5724,5724,2021-02-10 08:10:12.950,4713.326,4
5734,5734,2021-02-10 08:10:42.950,4683.478,4
5744,5744,2021-02-10 08:11:12.950,4653.5273,4
5754,5754,2021-02-10 08:11:42.950,4623.6720000000005,4
5764,5764,2021-02-10 08:12:12.950,4593.8184,4
5774,5774,2021-02-10 08:12:42.950,4563.9653,4
5784,5784,2021-02-10 08:13:12.950,4534.1140000000005,4
5794,5794,2021-02-10 08:13:42.950,4504.263,4
5804,5804,2021-02-10 08:14:12.950,4474.31,4
5814,5814,2021-02-10 08:14:42.950,4444.291,4
5824,5824,2021-02-10 08:15:12.950,4414.4443,4
5834,5834,2021-02-10 08:15:42.950,4384.599,4
5844,5844,2021-02-10 08:16:12.950,4354.7554,4
5854,5854,2021-02-10 08:16:42.950,4324.913,4
5864,5864,2021-02-10 08:17:12.950,4295.0728,4
5874,5874,2021-02-10 08:17:42.950,4265.234,4
5884,5884,2021-02-10 08:18:12.950,4235.3975,4
5894,5894,2021-02-10 08:18:42.950,4205.3994,4
5904,5904,2021-02-10 08:19:12.950,4175.4717,4
5914,5914,2021-02-10 08:19:42.950,4145.639,4
5924,5924,2021-02-10 08:20:12.950,4115.704000000001,4
5934,5934,2021-02-10 08:20:42.950,4085.864,4
5944,5944,2021-02-10 08:21:12.950,4056.0244,4
5954,5954,2021-02-10 08:21:42.950,4026.1855,4
5964,5964,2021-02-10 08:22:12.950,3996.3477,4
5974,5974,2021-02-10 08:22:42.950,3966.406,4
5984,5984,2021-02-10 08:23:12.950,3936.5593,4
5994,5994,2021-02-10 08:23:42.950,3906.5503,4
6004,6004,2021-02-10 08:24:12.950,3876.55,4
6014,6014,2021-02-10 08:24:42.950,3846.617,4
6024,6024,2021-02-10 08:25:12.950,3816.7776,4
6034,6034,2021-02-10 08:25:42.950,3786.9373,4
6044,6044,2021-02-10 08:26:12.950,3757.0964,4
6054,6054,2021-02-10 08:26:42.950,3727.2554,4
6064,6064,2021-02-10 08:27:12.950,3697.4133,4
6074,6074,2021-02-10 08:27:42.950,3667.4087,4
6084,6084,2021-02-10 08:28:12.950,3637.574,4
6094,6094,2021-02-10 08:28:42.950,3607.7378,4
6104,6104,2021-02-10 08:29:12.950,3577.9001,4
6114,6114,2021-02-10 08:29:42.950,3547.7961,4
6124,6124,2021-02-10 08:30:12.950,3517.9558,4
6134,6134,2021-02-10 08:30:42.950,3488.1138,4
6144,6144,2021-02-10 08:31:12.950,3458.27,4
6154,6154,2021-02-10 08:31:42.950,3428.4246,4
6164,6164,2021-02-10 08:32:12.950,3398.5774,4
6174,6174,2021-02-10 08:32:42.950,3368.5674,4
6184,6184,2021-02-10 08:33:12.950,3338.7259999999997,4
6194,6194,2021-02-10 08:33:42.950,3308.6187,4
6204,6204,2021-02-10 08:34:12.950,3278.6123,4
6214,6214,2021-02-10 08:34:42.950,3248.7751,4
6224,6224,2021-02-10 08:35:12.950,3218.9363,4
6234,6234,2021-02-10 08:35:42.950,3189.0955,4
6244,6244,2021-02-10 08:36:12.950,3159.2532,4
6254,6254,2021-02-10 08:36:42.950,3129.4087,4
6264,6264,2021-02-10 08:37:12.950,3099.4016,4
6274,6274,2021-02-10 08:37:42.950,3069.563,4
6284,6284,2021-02-10 08:38:12.950,3039.7227,4
6294,6294,2021-02-10 08:38:42.950,3009.7776,4
6304,6304,2021-02-10 08:39:12.950,2979.6606,4
6314,6314,2021-02-10 08:39:42.950,2949.8064,4
6324,6324,2021-02-10 08:40:12.950,2919.9504,4
6334,6334,2021-02-10 08:40:42.950,2889.9314,4
6344,6344,2021-02-10 08:41:12.950,2859.9190000000003,4
6354,6354,2021-02-10 08:41:42.950,2830.075,4
6364,6364,2021-02-10 08:42:12.950,2800.2290000000003,4
6374,6374,2021-02-10 08:42:42.950,2770.278,4
6384,6384,2021-02-10 08:43:12.950,2740.2573,4
6394,6394,2021-02-10 08:43:42.950,2710.405,4
6404,6404,2021-02-10 08:44:12.950,2680.389,4
6414,6414,2021-02-10 08:44:42.950,2650.438,4
6424,6424,2021-02-10 08:45:12.950,2620.5784,4
6434,6434,2021-02-10 08:45:42.950,2590.7166,4
6444,6444,2021-02-10 08:46:12.950,2560.8523,4
6454,6454,2021-02-10 08:46:42.950,2530.824,4
6464,6464,2021-02-10 08:47:12.950,2500.9631,4
6474,6474,2021-02-10 08:47:42.950,2470.9970000000003,4
6484,6484,2021-02-10 08:48:12.950,2441.1220000000003,4
6494,6494,2021-02-10 08:48:42.950,2411.1420000000003,4
6504,6504,2021-02-10 08:49:12.950,2381.1501,4
6514,6514,2021-02-10 08:49:42.950,2351.2493,4
6524,6524,2021-02-10 08:50:12.950,2321.3457,4
6534,6534,2021-02-10 08:50:42.950,2291.4387,4
6544,6544,2021-02-10 08:51:12.950,2261.3682,4
6554,6554,2021-02-10 08:51:42.950,2231.4646,4
6564,6564,2021-02-10 08:52:12.950,2201.4556,4
6574,6574,2021-02-10 08:52:42.950,2171.5369,4
6584,6584,2021-02-10 08:53:12.950,2141.4539999999997,4
6594,6594,2021-02-10 08:53:42.950,2111.5386,4
6604,6604,2021-02-10 08:54:12.950,2081.5168,4
6614,6614,2021-02-10 08:54:42.950,2051.5862,4
6624,6624,2021-02-10 08:55:12.950,2021.6521,4
6634,6634,2021-02-10 08:55:42.950,1991.6124,4
6644,6644,2021-02-10 08:56:12.950,1961.3992,4
6654,6654,2021-02-10 08:56:42.950,1931.4470000000001,4
6664,6664,2021-02-10 08:57:12.950,1901.4915,4
6674,6674,2021-02-10 08:57:42.950,1871.3708,4
6684,6684,2021-02-10 08:58:12.950,1841.1536,4
6694,6694,2021-02-10 08:58:42.950,1811.1969,4
6704,6704,2021-02-10 08:59:12.950,1781.1343,4
6714,6714,2021-02-10 08:59:42.950,1751.1616,4
6724,6724,2021-02-10 09:00:12.950,1721.1852,4
6734,6734,2021-02-10 09:00:42.950,1691.2056,4
6744,6744,2021-02-10 09:01:12.950,1661.2218,4
6754,6754,2021-02-10 09:01:42.950,1630.9702,4
6764,6764,2021-02-10 09:02:12.950,1600.9794,4
6774,6774,2021-02-10 09:02:42.950,1570.8226,4
6784,6784,2021-02-10 09:03:12.950,1540.6713,4
6794,6794,2021-02-10 09:03:42.950,1510.5247,4
6804,6804,2021-02-10 09:04:12.950,1480.5444,4
6814,6814,2021-02-10 09:04:42.950,1450.5598,4
6824,6824,2021-02-10 09:05:12.950,1420.5707,4
6834,6834,2021-02-10 09:05:42.950,1390.415,4
6844,6844,2021-02-10 09:06:12.950,1360.1608,4
6854,6854,2021-02-10 09:06:42.950,1330.0049,4
6864,6864,2021-02-10 09:07:12.950,1299.8523,4
6874,6874,2021-02-10 09:07:42.950,1269.8656,4
6884,6884,2021-02-10 09:08:12.950,1239.7698,4
