,Unnamed: 0,time,prediction,step
5267,5267,2021-02-10 07:48:42.950,5986.848000000001,7
5277,5277,2021-02-10 07:49:12.950,5956.7744,7
5287,5287,2021-02-10 07:49:42.950,5926.8887,7
5297,5297,2021-02-10 07:50:12.950,5896.9937,7
5307,5307,2021-02-10 07:50:42.950,5867.2188,7
5317,5317,2021-02-10 07:51:12.950,5837.4453,7
5327,5327,2021-02-10 07:51:42.950,5807.674,7
5337,5337,2021-02-10 07:52:12.950,5777.775,7
5347,5347,2021-02-10 07:52:42.950,5747.9956,7
5357,5357,2021-02-10 07:53:12.950,5718.0894,7
5367,5367,2021-02-10 07:53:42.950,5688.3027,7
5377,5377,2021-02-10 07:54:12.950,5658.3896,7
5387,5387,2021-02-10 07:54:42.950,5628.4663,7
5397,5397,2021-02-10 07:55:12.950,5598.535,7
5407,5407,2021-02-10 07:55:42.950,5568.594,7
5417,5417,2021-02-10 07:56:12.950,5538.645,7
5427,5427,2021-02-10 07:56:42.950,5508.8145,7
5437,5437,2021-02-10 07:57:12.950,5478.985,7
5447,5447,2021-02-10 07:57:42.950,5448.8438,7
5457,5457,2021-02-10 07:58:12.950,5419.0176,7
5467,5467,2021-02-10 07:58:42.950,5389.064,7
5477,5477,2021-02-10 07:59:12.950,5359.229,7
5487,5487,2021-02-10 07:59:42.950,5329.3955,7
5497,5497,2021-02-10 08:00:12.950,5299.563,7
5507,5507,2021-02-10 08:00:42.950,5269.4194,7
5517,5517,2021-02-10 08:01:12.950,5239.5903,7
5527,5527,2021-02-10 08:01:42.950,5209.762,7
5537,5537,2021-02-10 08:02:12.950,5179.935,7
5547,5547,2021-02-10 08:02:42.950,5150.1094,7
5557,5557,2021-02-10 08:03:12.950,5120.2847,7
5567,5567,2021-02-10 08:03:42.950,5090.333,7
5577,5577,2021-02-10 08:04:12.950,5060.3726,7
5587,5587,2021-02-10 08:04:42.950,5030.531,7
5597,5597,2021-02-10 08:05:12.950,5000.6895,7
5607,5607,2021-02-10 08:05:42.950,4970.665,7
5617,5617,2021-02-10 08:06:12.950,4940.8364,7
5627,5627,2021-02-10 08:06:42.950,4910.8240000000005,7
5637,5637,2021-02-10 08:07:12.950,4881.0083,7
5647,5647,2021-02-10 08:07:42.950,4851.1934,7
5657,5657,2021-02-10 08:08:12.950,4821.3794,7
5667,5667,2021-02-10 08:08:42.950,4791.5664,7
5677,5677,2021-02-10 08:09:12.950,4761.57,7
5687,5687,2021-02-10 08:09:42.950,4731.769,7
5697,5697,2021-02-10 08:10:12.950,4701.969,7
5707,5707,2021-02-10 08:10:42.950,4672.1704,7
5717,5717,2021-02-10 08:11:12.950,4642.188,7
5727,5727,2021-02-10 08:11:42.950,4612.4014,7
5737,5737,2021-02-10 08:12:12.950,4582.6157,7
5747,5747,2021-02-10 08:12:42.950,4552.704000000001,7
5757,5757,2021-02-10 08:13:12.950,4522.9097,7
5767,5767,2021-02-10 08:13:42.950,4493.116,7
5777,5777,2021-02-10 08:14:12.950,4463.323,7
5787,5787,2021-02-10 08:14:42.950,4433.5317,7
5797,5797,2021-02-10 08:15:12.950,4403.7407,7
5807,5807,2021-02-10 08:15:42.950,4373.823,7
5817,5817,2021-02-10 08:16:12.950,4343.8403,7
5827,5827,2021-02-10 08:16:42.950,4314.0522,7
5837,5837,2021-02-10 08:17:12.950,4284.2656,7
5847,5847,2021-02-10 08:17:42.950,4254.4795,7
5857,5857,2021-02-10 08:18:12.950,4224.6953,7
5867,5867,2021-02-10 08:18:42.950,4194.912,7
5877,5877,2021-02-10 08:19:12.950,4165.1294,7
5887,5887,2021-02-10 08:19:42.950,4135.3486,7
5897,5897,2021-02-10 08:20:12.950,4105.384,7
5907,5907,2021-02-10 08:20:42.950,4075.4873,7
5917,5917,2021-02-10 08:21:12.950,4045.7065,7
5927,5927,2021-02-10 08:21:42.950,4015.7979,7
5937,5937,2021-02-10 08:22:12.950,3986.005,7
5947,5947,2021-02-10 08:22:42.950,3956.2114,7
5957,5957,2021-02-10 08:23:12.950,3926.4167,7
5967,5967,2021-02-10 08:23:42.950,3896.6213,7
5977,5977,2021-02-10 08:24:12.950,3866.6978,7
5987,5987,2021-02-10 08:24:42.950,3836.8894,7
5997,5997,2021-02-10 08:25:12.950,3806.8965,7
6007,6007,2021-02-10 08:25:42.950,3776.9128,7
6017,6017,2021-02-10 08:26:12.950,3746.9946,7
6027,6027,2021-02-10 08:26:42.950,3717.191,7
6037,6037,2021-02-10 08:27:12.950,3687.3853,7
6047,6047,2021-02-10 08:27:42.950,3657.5784,7
6057,6057,2021-02-10 08:28:12.950,3627.7698,7
6067,6067,2021-02-10 08:28:42.950,3597.9595,7
6077,6077,2021-02-10 08:29:12.950,3567.9644,7
6087,6087,2021-02-10 08:29:42.950,3538.1604,7
6097,6097,2021-02-10 08:30:12.950,3508.3545,7
6107,6107,2021-02-10 08:30:42.950,3478.5461,7
6117,6117,2021-02-10 08:31:12.950,3448.4263,7
6127,6127,2021-02-10 08:31:42.950,3418.6135,7
6137,6137,2021-02-10 08:32:12.950,3388.798,7
6147,6147,2021-02-10 08:32:42.950,3358.9802,7
6157,6157,2021-02-10 08:33:12.950,3329.1602,7
6167,6167,2021-02-10 08:33:42.950,3299.3372,7
6177,6177,2021-02-10 08:34:12.950,3269.3293,7
6187,6187,2021-02-10 08:34:42.950,3239.5125,7
6197,6197,2021-02-10 08:35:12.950,3209.3845,7
6207,6207,2021-02-10 08:35:42.950,3179.3796,7
6217,6217,2021-02-10 08:36:12.950,3149.566,7
6227,6227,2021-02-10 08:36:42.950,3119.7498,7
6237,6237,2021-02-10 08:37:12.950,3089.9314,7
6247,6247,2021-02-10 08:37:42.950,3060.1106,7
6257,6257,2021-02-10 08:38:12.950,3030.2874,7
6267,6267,2021-02-10 08:38:42.950,3000.2793,7
6277,6277,2021-02-10 08:39:12.950,2970.4624,7
6287,6287,2021-02-10 08:39:42.950,2940.6426,7
6297,6297,2021-02-10 08:40:12.950,2910.6948,7
6307,6307,2021-02-10 08:40:42.950,2880.5518,7
6317,6317,2021-02-10 08:41:12.950,2850.7144,7
6327,6327,2021-02-10 08:41:42.950,2820.8745,7
6337,6337,2021-02-10 08:42:12.950,2790.8499,7
6347,6347,2021-02-10 08:42:42.950,2760.8323,7
6357,6357,2021-02-10 08:43:12.950,2731.0051,7
6367,6367,2021-02-10 08:43:42.950,2701.1753,7
6377,6377,2021-02-10 08:44:12.950,2671.2166,7
6387,6387,2021-02-10 08:44:42.950,2641.1877,7
6397,6397,2021-02-10 08:45:12.950,2611.3489,7
6407,6407,2021-02-10 08:45:42.950,2581.3245,7
6417,6417,2021-02-10 08:46:12.950,2551.3643,7
6427,6427,2021-02-10 08:46:42.950,2521.5159,7
6437,6437,2021-02-10 08:47:12.950,2491.6643,7
6447,6447,2021-02-10 08:47:42.950,2461.8093,7
6457,6457,2021-02-10 08:48:12.950,2431.7683,7
6467,6467,2021-02-10 08:48:42.950,2401.917,7
6477,6477,2021-02-10 08:49:12.950,2371.9368,7
6487,6487,2021-02-10 08:49:42.950,2342.0679,7
6497,6497,2021-02-10 08:50:12.950,2312.0703,7
6507,6507,2021-02-10 08:50:42.950,2282.0588,7
6517,6517,2021-02-10 08:51:12.950,2252.159,7
6527,6527,2021-02-10 08:51:42.950,2222.2551,7
6537,6537,2021-02-10 08:52:12.950,2192.348,7
6547,6547,2021-02-10 08:52:42.950,2162.2544,7
6557,6557,2021-02-10 08:53:12.950,2132.3499,7
6567,6567,2021-02-10 08:53:42.950,2102.3162,7
6577,6577,2021-02-10 08:54:12.950,2072.394,7
6587,6587,2021-02-10 08:54:42.950,2042.2854,7
6597,6597,2021-02-10 08:55:12.950,2012.3657,7
6607,6607,2021-02-10 08:55:42.950,1982.3168,7
6617,6617,2021-02-10 08:56:12.950,1952.379,7
6627,6627,2021-02-10 08:56:42.950,1922.4373,7
6637,6637,2021-02-10 08:57:12.950,1892.3666,7
6647,6647,2021-02-10 08:57:42.950,1862.0989,7
6657,6657,2021-02-10 08:58:12.950,1832.1354,7
6667,6667,2021-02-10 08:58:42.950,1802.168,7
6677,6677,2021-02-10 08:59:12.950,1772.0135,7
6687,6687,2021-02-10 08:59:42.950,1741.7401,7
6697,6697,2021-02-10 09:00:12.950,1711.7712,7
6707,6707,2021-02-10 09:00:42.950,1681.6724,7
6717,6717,2021-02-10 09:01:12.950,1651.6846,7
6727,6727,2021-02-10 09:01:42.950,1621.6926,7
6737,6737,2021-02-10 09:02:12.950,1591.6963,7
6747,6747,2021-02-10 09:02:42.950,1561.6958,7
6757,6757,2021-02-10 09:03:12.950,1531.3826,7
6767,6767,2021-02-10 09:03:42.950,1501.3737,7
6777,6777,2021-02-10 09:04:12.950,1471.1772,7
6787,6787,2021-02-10 09:04:42.950,1440.9872,7
6797,6797,2021-02-10 09:05:12.950,1410.8025,7
6807,6807,2021-02-10 09:05:42.950,1380.8069,7
6817,6817,2021-02-10 09:06:12.950,1350.8064,7
6827,6827,2021-02-10 09:06:42.950,1320.8011,7
6837,6837,2021-02-10 09:07:12.950,1290.6074,7
6847,6847,2021-02-10 09:07:42.950,1260.2932,7
6857,6857,2021-02-10 09:08:12.950,1230.1,7
6867,6867,2021-02-10 09:08:42.950,1199.9116,7
6877,6877,2021-02-10 09:09:12.950,1169.9114,7
6887,6887,2021-02-10 09:09:42.950,1139.7788,7
