,Unnamed: 0,time,preds,step
13257,13257,2020-11-16 09:50:46.276,1.0000007,7
13267,13267,2020-11-16 09:51:16.276,1.0000007,7
13277,13277,2020-11-16 09:51:46.276,1.0000007,7
13287,13287,2020-11-16 09:52:16.276,1.0000007,7
13297,13297,2020-11-16 09:52:46.276,1.0000007,7
13307,13307,2020-11-16 09:53:16.276,1.0000007,7
13317,13317,2020-11-16 09:53:46.276,1.0000007,7
13327,13327,2020-11-16 09:54:16.276,1.0000007,7
13337,13337,2020-11-16 09:54:46.276,1.0000007,7
13347,13347,2020-11-16 09:55:16.276,1.0000007,7
13357,13357,2020-11-16 09:55:46.276,1.0000007,7
13367,13367,2020-11-16 09:56:16.276,1.0000007,7
13377,13377,2020-11-16 09:56:46.276,1.0000007,7
13387,13387,2020-11-16 09:57:16.276,1.0000007,7
13397,13397,2020-11-16 09:57:46.276,1.0000007,7
13407,13407,2020-11-16 09:58:16.276,1.0000007,7
13417,13417,2020-11-16 09:58:46.276,1.0000007,7
13427,13427,2020-11-16 09:59:16.276,1.0000007,7
13437,13437,2020-11-16 09:59:46.276,1.0000007,7
13447,13447,2020-11-16 10:00:16.276,1.0000007,7
13457,13457,2020-11-16 10:00:46.276,1.0000007,7
13467,13467,2020-11-16 10:01:16.276,1.0000007,7
13477,13477,2020-11-16 10:01:46.276,1.0000007,7
13487,13487,2020-11-16 10:02:16.276,1.0000007,7
13497,13497,2020-11-16 10:02:46.276,1.0000007,7
13507,13507,2020-11-16 10:03:16.276,1.0000007,7
13517,13517,2020-11-16 10:03:46.276,1.0000007,7
13527,13527,2020-11-16 10:04:16.276,1.0000007,7
13537,13537,2020-11-16 10:04:46.276,1.0000007,7
13547,13547,2020-11-16 10:05:16.276,1.0000007,7
13557,13557,2020-11-16 10:05:46.276,1.0000007,7
13567,13567,2020-11-16 10:06:16.276,1.0000007,7
13577,13577,2020-11-16 10:06:46.276,1.0000007,7
13587,13587,2020-11-16 10:07:16.276,1.0000007,7
13597,13597,2020-11-16 10:07:46.276,1.0000007,7
13607,13607,2020-11-16 10:08:16.276,1.0000007,7
13617,13617,2020-11-16 10:08:46.276,1.0000007,7
13627,13627,2020-11-16 10:09:16.276,1.0000007,7
13637,13637,2020-11-16 10:09:46.276,1.0000007,7
13647,13647,2020-11-16 10:10:16.276,1.0000007,7
13657,13657,2020-11-16 10:10:46.276,1.0000007,7
13667,13667,2020-11-16 10:11:16.276,1.0000007,7
13677,13677,2020-11-16 10:11:46.276,1.0000007,7
13687,13687,2020-11-16 10:12:16.276,1.0000007,7
13697,13697,2020-11-16 10:12:46.276,1.0000007,7
13707,13707,2020-11-16 10:13:16.276,1.0000007,7
13717,13717,2020-11-16 10:13:46.276,1.0000007,7
13727,13727,2020-11-16 10:14:16.276,1.0000007,7
13737,13737,2020-11-16 10:14:46.276,1.0000007,7
13747,13747,2020-11-16 10:15:16.276,1.0000007,7
13757,13757,2020-11-16 10:15:46.276,1.0000007,7
13767,13767,2020-11-16 10:16:16.276,1.0000007,7
13777,13777,2020-11-16 10:16:46.276,1.0000007,7
13787,13787,2020-11-16 10:17:16.276,1.0000007,7
13797,13797,2020-11-16 10:17:46.276,1.0000007,7
13807,13807,2020-11-16 10:18:16.276,1.0000007,7
13817,13817,2020-11-16 10:18:46.276,1.0000007,7
13827,13827,2020-11-16 10:19:16.276,1.0000007,7
13837,13837,2020-11-16 10:19:46.276,1.0000007,7
13847,13847,2020-11-16 10:20:16.276,1.0000007,7
13857,13857,2020-11-16 10:20:46.276,1.0000007,7
13867,13867,2020-11-16 10:21:16.276,1.0000007,7
13877,13877,2020-11-16 10:21:46.276,1.0000007,7
13887,13887,2020-11-16 10:22:16.276,1.0000007,7
13897,13897,2020-11-16 10:22:46.276,1.0000007,7
13907,13907,2020-11-16 10:23:16.276,1.0000007,7
13917,13917,2020-11-16 10:23:46.276,1.0000007,7
13927,13927,2020-11-16 10:24:16.276,1.0000007,7
13937,13937,2020-11-16 10:24:46.276,1.0000007,7
13947,13947,2020-11-16 10:25:16.276,1.0000007,7
13957,13957,2020-11-16 10:25:46.276,1.0000007,7
13967,13967,2020-11-16 10:26:16.276,1.0000007,7
13977,13977,2020-11-16 10:26:46.276,1.0000007,7
13987,13987,2020-11-16 10:27:16.276,1.0000007,7
13997,13997,2020-11-16 10:27:46.276,1.0000007,7
14007,14007,2020-11-16 10:28:16.276,1.0000007,7
14017,14017,2020-11-16 10:28:46.276,1.0000007,7
14027,14027,2020-11-16 10:29:16.276,1.0000007,7
14037,14037,2020-11-16 10:29:46.276,1.0000007,7
14047,14047,2020-11-16 10:30:16.276,1.0000007,7
14057,14057,2020-11-16 10:30:46.276,1.0000007,7
14067,14067,2020-11-16 10:31:16.276,1.0000007,7
14077,14077,2020-11-16 10:31:46.276,1.0000007,7
14087,14087,2020-11-16 10:32:16.276,1.0000007,7
14097,14097,2020-11-16 10:32:46.276,1.0000007,7
14107,14107,2020-11-16 10:33:16.276,1.0000007,7
14117,14117,2020-11-16 10:33:46.276,1.0000007,7
14127,14127,2020-11-16 10:34:16.276,1.0000007,7
14137,14137,2020-11-16 10:34:46.276,1.0000007,7
14147,14147,2020-11-16 10:35:16.276,1.0000007,7
14157,14157,2020-11-16 10:35:46.276,1.0000007,7
14167,14167,2020-11-16 10:36:16.276,1.0000007,7
14177,14177,2020-11-16 10:36:46.276,1.0000007,7
14187,14187,2020-11-16 10:37:16.276,1.0000007,7
14197,14197,2020-11-16 10:37:46.276,1.0000007,7
14207,14207,2020-11-16 10:38:16.276,1.0000007,7
14217,14217,2020-11-16 10:38:46.276,1.0000007,7
14227,14227,2020-11-16 10:39:16.276,1.0000007,7
14237,14237,2020-11-16 10:39:46.276,1.0000007,7
14247,14247,2020-11-16 10:40:16.276,1.0000007,7
14257,14257,2020-11-16 10:40:46.276,1.0000007,7
14267,14267,2020-11-16 10:41:16.276,1.0000007,7
14277,14277,2020-11-16 10:41:46.276,1.0000007,7
14287,14287,2020-11-16 10:42:16.276,1.0000007,7
14297,14297,2020-11-16 10:42:46.276,1.0000007,7
14307,14307,2020-11-16 10:43:16.276,1.0000007,7
14317,14317,2020-11-16 10:43:46.276,1.0000007,7
14327,14327,2020-11-16 10:44:16.276,1.0000007,7
14337,14337,2020-11-16 10:44:46.276,1.0000007,7
14347,14347,2020-11-16 10:45:16.276,1.0000007,7
14357,14357,2020-11-16 10:45:46.276,1.0000007,7
14367,14367,2020-11-16 10:46:16.276,1.0000007,7
14377,14377,2020-11-16 10:46:46.276,1.0000007,7
14387,14387,2020-11-16 10:47:16.276,1.0000007,7
14397,14397,2020-11-16 10:47:46.276,1.0000007,7
14407,14407,2020-11-16 10:48:16.276,1.0000007,7
14417,14417,2020-11-16 10:48:46.276,1.0000007,7
14427,14427,2020-11-16 10:49:16.276,1.0000007,7
14437,14437,2020-11-16 10:49:46.276,1.0000007,7
14447,14447,2020-11-16 10:50:16.276,1.0000007,7
14457,14457,2020-11-16 10:50:46.276,1.0000007,7
14467,14467,2020-11-16 10:51:16.276,1.0000007,7
14477,14477,2020-11-16 10:51:46.276,1.0000007,7
14487,14487,2020-11-16 10:52:16.276,1.0000007,7
14497,14497,2020-11-16 10:52:46.276,1.0000007,7
14507,14507,2020-11-16 10:53:16.276,1.0000007,7
14517,14517,2020-11-16 10:53:46.276,1.0000007,7
14527,14527,2020-11-16 10:54:16.276,1.0000007,7
14537,14537,2020-11-16 10:54:46.276,1.0000007,7
14547,14547,2020-11-16 10:55:16.276,1.0000007,7
14557,14557,2020-11-16 10:55:46.276,1.0000007,7
14567,14567,2020-11-16 10:56:16.276,1.0000007,7
14577,14577,2020-11-16 10:56:46.276,1.0000007,7
14587,14587,2020-11-16 10:57:16.276,1.0000007,7
14597,14597,2020-11-16 10:57:46.276,1.0000007,7
14607,14607,2020-11-16 10:58:16.276,1.0000007,7
14617,14617,2020-11-16 10:58:46.276,1.0000007,7
14627,14627,2020-11-16 10:59:16.276,1.0000007,7
14637,14637,2020-11-16 10:59:46.276,1.0000007,7
14647,14647,2020-11-16 11:00:16.276,1.0000007,7
14657,14657,2020-11-16 11:00:46.276,1.0000007,7
14667,14667,2020-11-16 11:01:16.276,1.0000007,7
14677,14677,2020-11-16 11:01:46.276,1.0000007,7
14687,14687,2020-11-16 11:02:16.276,1.0000007,7
14697,14697,2020-11-16 11:02:46.276,1.0000007,7
14707,14707,2020-11-16 11:03:16.276,1.0000007,7
14717,14717,2020-11-16 11:03:46.276,1.0000007,7
14727,14727,2020-11-16 11:04:16.276,1.0000007,7
14737,14737,2020-11-16 11:04:46.276,1.0000007,7
14747,14747,2020-11-16 11:05:16.276,1.0000007,7
14757,14757,2020-11-16 11:05:46.276,1.0000007,7
14767,14767,2020-11-16 11:06:16.276,1.0000007,7
14777,14777,2020-11-16 11:06:46.276,1.0000007,7
14787,14787,2020-11-16 11:07:16.276,1.0000007,7
14797,14797,2020-11-16 11:07:46.276,1.0000007,7
14807,14807,2020-11-16 11:08:16.276,1.0000007,7
14817,14817,2020-11-16 11:08:46.276,1.0000007,7
14827,14827,2020-11-16 11:09:16.276,1.0000007,7
14837,14837,2020-11-16 11:09:46.276,1.0000007,7
14847,14847,2020-11-16 11:10:16.276,1.0000007,7
14857,14857,2020-11-16 11:10:46.276,1.0000007,7
14867,14867,2020-11-16 11:11:16.276,1.0000007,7
14877,14877,2020-11-16 11:11:46.276,1.0000007,7
14887,14887,2020-11-16 11:12:16.276,1.0000007,7
14897,14897,2020-11-16 11:12:46.276,1.0000007,7
14907,14907,2020-11-16 11:13:16.276,1.0000007,7
14917,14917,2020-11-16 11:13:46.276,1.0000007,7
14927,14927,2020-11-16 11:14:16.276,1.0000007,7
14937,14937,2020-11-16 11:14:46.276,1.0000007,7
14947,14947,2020-11-16 11:15:16.276,1.0000007,7
14957,14957,2020-11-16 11:15:46.276,1.0000007,7
14967,14967,2020-11-16 11:16:16.276,1.0000007,7
14977,14977,2020-11-16 11:16:46.276,1.0000007,7
14987,14987,2020-11-16 11:17:16.276,1.0000007,7
14997,14997,2020-11-16 11:17:46.276,1.0000007,7
15007,15007,2020-11-16 11:18:16.276,1.0000007,7
15017,15017,2020-11-16 11:18:46.276,1.0000007,7
15027,15027,2020-11-16 11:19:16.276,1.0000007,7
15037,15037,2020-11-16 11:19:46.276,1.0000007,7
15047,15047,2020-11-16 11:20:16.276,1.0000007,7
15057,15057,2020-11-16 11:20:46.276,1.0000007,7
15067,15067,2020-11-16 11:21:16.276,1.0000007,7
15077,15077,2020-11-16 11:21:46.276,1.0000007,7
15087,15087,2020-11-16 11:22:16.276,1.0000007,7
15097,15097,2020-11-16 11:22:46.276,1.0000007,7
15107,15107,2020-11-16 11:23:16.276,1.0000007,7
15117,15117,2020-11-16 11:23:46.276,1.0000007,7
15127,15127,2020-11-16 11:24:16.276,1.0000007,7
15137,15137,2020-11-16 11:24:46.276,1.0000007,7
15147,15147,2020-11-16 11:25:16.276,1.0000007,7
15157,15157,2020-11-16 11:25:46.276,1.0000007,7
15167,15167,2020-11-16 11:26:16.276,1.0000007,7
15177,15177,2020-11-16 11:26:46.276,1.0000007,7
15187,15187,2020-11-16 11:27:16.276,1.0000007,7
15197,15197,2020-11-16 11:27:46.276,1.0000007,7
15207,15207,2020-11-16 11:28:16.276,1.0000007,7
15217,15217,2020-11-16 11:28:46.276,1.0000007,7
15227,15227,2020-11-16 11:29:16.276,1.0000007,7
15237,15237,2020-11-16 11:29:46.276,1.0000007,7
15247,15247,2020-11-16 11:30:16.276,1.0000007,7
15257,15257,2020-11-16 11:30:46.276,1.0000007,7
15267,15267,2020-11-16 11:31:16.276,1.0000007,7
15277,15277,2020-11-16 11:31:46.276,1.0000007,7
15287,15287,2020-11-16 11:32:16.276,1.0000007,7
15297,15297,2020-11-16 11:32:46.276,1.0000007,7
15307,15307,2020-11-16 11:33:16.276,1.0000007,7
15317,15317,2020-11-16 11:33:46.276,1.0000007,7
15327,15327,2020-11-16 11:34:16.276,1.0000007,7
15337,15337,2020-11-16 11:34:46.276,1.0000007,7
15347,15347,2020-11-16 11:35:16.276,1.0000007,7
15357,15357,2020-11-16 11:35:46.276,1.0000007,7
15367,15367,2020-11-16 11:36:16.276,1.0000007,7
15377,15377,2020-11-16 11:36:46.276,1.0000007,7
15387,15387,2020-11-16 11:37:16.276,1.0000007,7
15397,15397,2020-11-16 11:37:46.276,1.0000007,7
15407,15407,2020-11-16 11:38:16.276,1.0000007,7
15417,15417,2020-11-16 11:38:46.276,1.0000007,7
15427,15427,2020-11-16 11:39:16.276,1.0000007,7
15437,15437,2020-11-16 11:39:46.276,1.0000007,7
15447,15447,2020-11-16 11:40:16.276,1.0000007,7
15457,15457,2020-11-16 11:40:46.276,1.0000007,7
15467,15467,2020-11-16 11:41:16.276,1.0000007,7
15477,15477,2020-11-16 11:41:46.276,1.0000007,7
15487,15487,2020-11-16 11:42:16.276,1.0000007,7
15497,15497,2020-11-16 11:42:46.276,1.0000007,7
15507,15507,2020-11-16 11:43:16.276,1.0000007,7
15517,15517,2020-11-16 11:43:46.276,1.0000007,7
15527,15527,2020-11-16 11:44:16.276,1.0000007,7
15537,15537,2020-11-16 11:44:46.276,1.0000007,7
15547,15547,2020-11-16 11:45:16.276,1.0000007,7
15557,15557,2020-11-16 11:45:46.276,1.0000007,7
15567,15567,2020-11-16 11:46:16.276,1.0000007,7
15577,15577,2020-11-16 11:46:46.276,1.0000007,7
15587,15587,2020-11-16 11:47:16.276,1.0000007,7
15597,15597,2020-11-16 11:47:46.276,1.0000007,7
15607,15607,2020-11-16 11:48:16.276,1.0000007,7
15617,15617,2020-11-16 11:48:46.276,1.0000007,7
15627,15627,2020-11-16 11:49:16.276,1.0000007,7
15637,15637,2020-11-16 11:49:46.276,1.0000007,7
15647,15647,2020-11-16 11:50:16.276,1.0000007,7
15657,15657,2020-11-16 11:50:46.276,1.0000007,7
15667,15667,2020-11-16 11:51:16.276,1.0000007,7
15677,15677,2020-11-16 11:51:46.276,1.0000007,7
15687,15687,2020-11-16 11:52:16.276,1.0000007,7
15697,15697,2020-11-16 11:52:46.276,1.0000007,7
15707,15707,2020-11-16 11:53:16.276,1.0000007,7
15717,15717,2020-11-16 11:53:46.276,1.0000007,7
15727,15727,2020-11-16 11:54:16.276,1.0000007,7
15737,15737,2020-11-16 11:54:46.276,1.0000007,7
15747,15747,2020-11-16 11:55:16.276,1.0000007,7
15757,15757,2020-11-16 11:55:46.276,1.0000007,7
15767,15767,2020-11-16 11:56:16.276,1.0000007,7
15777,15777,2020-11-16 11:56:46.276,1.0000007,7
15787,15787,2020-11-16 11:57:16.276,1.0000007,7
15797,15797,2020-11-16 11:57:46.276,1.0000007,7
15807,15807,2020-11-16 11:58:16.276,1.0000007,7
15817,15817,2020-11-16 11:58:46.276,1.0000007,7
15827,15827,2020-11-16 11:59:16.276,1.0000007,7
15837,15837,2020-11-16 11:59:46.276,1.0000007,7
15847,15847,2020-11-16 12:00:16.276,1.0000007,7
15857,15857,2020-11-16 12:00:46.276,1.0000007,7
15867,15867,2020-11-16 12:01:16.276,1.0000007,7
15877,15877,2020-11-16 12:01:46.276,1.0000007,7
15887,15887,2020-11-16 12:02:16.276,1.0000007,7
15897,15897,2020-11-16 12:02:46.276,1.0000007,7
15907,15907,2020-11-16 12:03:16.276,1.0000007,7
15917,15917,2020-11-16 12:03:46.276,1.0000007,7
15927,15927,2020-11-16 12:04:16.276,1.0000007,7
15937,15937,2020-11-16 12:04:46.276,1.0000007,7
15947,15947,2020-11-16 12:05:16.276,1.0000007,7
15957,15957,2020-11-16 12:05:46.276,1.0000007,7
15967,15967,2020-11-16 12:06:16.276,1.0000007,7
15977,15977,2020-11-16 12:06:46.276,1.0000007,7
15987,15987,2020-11-16 12:07:16.276,1.0000007,7
15997,15997,2020-11-16 12:07:46.276,1.0000007,7
