,Unnamed: 0,time,preds,step
13254,13254,2020-11-16 09:49:16.276,1.0000007,4
13264,13264,2020-11-16 09:49:46.276,1.0000007,4
13274,13274,2020-11-16 09:50:16.276,1.0000007,4
13284,13284,2020-11-16 09:50:46.276,1.0000007,4
13294,13294,2020-11-16 09:51:16.276,1.0000007,4
13304,13304,2020-11-16 09:51:46.276,1.0000007,4
13314,13314,2020-11-16 09:52:16.276,1.0000007,4
13324,13324,2020-11-16 09:52:46.276,1.0000007,4
13334,13334,2020-11-16 09:53:16.276,1.0000007,4
13344,13344,2020-11-16 09:53:46.276,1.0000007,4
13354,13354,2020-11-16 09:54:16.276,1.0000007,4
13364,13364,2020-11-16 09:54:46.276,1.0000007,4
13374,13374,2020-11-16 09:55:16.276,1.0000007,4
13384,13384,2020-11-16 09:55:46.276,1.0000007,4
13394,13394,2020-11-16 09:56:16.276,1.0000007,4
13404,13404,2020-11-16 09:56:46.276,1.0000007,4
13414,13414,2020-11-16 09:57:16.276,1.0000007,4
13424,13424,2020-11-16 09:57:46.276,1.0000007,4
13434,13434,2020-11-16 09:58:16.276,1.0000007,4
13444,13444,2020-11-16 09:58:46.276,1.0000007,4
13454,13454,2020-11-16 09:59:16.276,1.0000007,4
13464,13464,2020-11-16 09:59:46.276,1.0000007,4
13474,13474,2020-11-16 10:00:16.276,1.0000007,4
13484,13484,2020-11-16 10:00:46.276,1.0000007,4
13494,13494,2020-11-16 10:01:16.276,1.0000007,4
13504,13504,2020-11-16 10:01:46.276,1.0000007,4
13514,13514,2020-11-16 10:02:16.276,1.0000007,4
13524,13524,2020-11-16 10:02:46.276,1.0000007,4
13534,13534,2020-11-16 10:03:16.276,1.0000007,4
13544,13544,2020-11-16 10:03:46.276,1.0000007,4
13554,13554,2020-11-16 10:04:16.276,1.0000007,4
13564,13564,2020-11-16 10:04:46.276,1.0000007,4
13574,13574,2020-11-16 10:05:16.276,1.0000007,4
13584,13584,2020-11-16 10:05:46.276,1.0000007,4
13594,13594,2020-11-16 10:06:16.276,1.0000007,4
13604,13604,2020-11-16 10:06:46.276,1.0000007,4
13614,13614,2020-11-16 10:07:16.276,1.0000007,4
13624,13624,2020-11-16 10:07:46.276,1.0000007,4
13634,13634,2020-11-16 10:08:16.276,1.0000007,4
13644,13644,2020-11-16 10:08:46.276,1.0000007,4
13654,13654,2020-11-16 10:09:16.276,1.0000007,4
13664,13664,2020-11-16 10:09:46.276,1.0000007,4
13674,13674,2020-11-16 10:10:16.276,1.0000007,4
13684,13684,2020-11-16 10:10:46.276,1.0000007,4
13694,13694,2020-11-16 10:11:16.276,1.0000007,4
13704,13704,2020-11-16 10:11:46.276,1.0000007,4
13714,13714,2020-11-16 10:12:16.276,1.0000007,4
13724,13724,2020-11-16 10:12:46.276,1.0000007,4
13734,13734,2020-11-16 10:13:16.276,1.0000007,4
13744,13744,2020-11-16 10:13:46.276,1.0000007,4
13754,13754,2020-11-16 10:14:16.276,1.0000007,4
13764,13764,2020-11-16 10:14:46.276,1.0000007,4
13774,13774,2020-11-16 10:15:16.276,1.0000007,4
13784,13784,2020-11-16 10:15:46.276,1.0000007,4
13794,13794,2020-11-16 10:16:16.276,1.0000007,4
13804,13804,2020-11-16 10:16:46.276,1.0000007,4
13814,13814,2020-11-16 10:17:16.276,1.0000007,4
13824,13824,2020-11-16 10:17:46.276,1.0000007,4
13834,13834,2020-11-16 10:18:16.276,1.0000007,4
13844,13844,2020-11-16 10:18:46.276,1.0000007,4
13854,13854,2020-11-16 10:19:16.276,1.0000007,4
13864,13864,2020-11-16 10:19:46.276,1.0000007,4
13874,13874,2020-11-16 10:20:16.276,1.0000007,4
13884,13884,2020-11-16 10:20:46.276,1.0000007,4
13894,13894,2020-11-16 10:21:16.276,1.0000007,4
13904,13904,2020-11-16 10:21:46.276,1.0000007,4
13914,13914,2020-11-16 10:22:16.276,1.0000007,4
13924,13924,2020-11-16 10:22:46.276,1.0000007,4
13934,13934,2020-11-16 10:23:16.276,1.0000007,4
13944,13944,2020-11-16 10:23:46.276,1.0000007,4
13954,13954,2020-11-16 10:24:16.276,1.0000007,4
13964,13964,2020-11-16 10:24:46.276,1.0000007,4
13974,13974,2020-11-16 10:25:16.276,1.0000007,4
13984,13984,2020-11-16 10:25:46.276,1.0000007,4
13994,13994,2020-11-16 10:26:16.276,1.0000007,4
14004,14004,2020-11-16 10:26:46.276,1.0000007,4
14014,14014,2020-11-16 10:27:16.276,1.0000007,4
14024,14024,2020-11-16 10:27:46.276,1.0000007,4
14034,14034,2020-11-16 10:28:16.276,1.0000007,4
14044,14044,2020-11-16 10:28:46.276,1.0000007,4
14054,14054,2020-11-16 10:29:16.276,1.0000007,4
14064,14064,2020-11-16 10:29:46.276,1.0000007,4
14074,14074,2020-11-16 10:30:16.276,1.0000007,4
14084,14084,2020-11-16 10:30:46.276,1.0000007,4
14094,14094,2020-11-16 10:31:16.276,1.0000007,4
14104,14104,2020-11-16 10:31:46.276,1.0000007,4
14114,14114,2020-11-16 10:32:16.276,1.0000007,4
14124,14124,2020-11-16 10:32:46.276,1.0000007,4
14134,14134,2020-11-16 10:33:16.276,1.0000007,4
14144,14144,2020-11-16 10:33:46.276,1.0000007,4
14154,14154,2020-11-16 10:34:16.276,1.0000007,4
14164,14164,2020-11-16 10:34:46.276,1.0000007,4
14174,14174,2020-11-16 10:35:16.276,1.0000007,4
14184,14184,2020-11-16 10:35:46.276,1.0000007,4
14194,14194,2020-11-16 10:36:16.276,1.0000007,4
14204,14204,2020-11-16 10:36:46.276,1.0000007,4
14214,14214,2020-11-16 10:37:16.276,1.0000007,4
14224,14224,2020-11-16 10:37:46.276,1.0000007,4
14234,14234,2020-11-16 10:38:16.276,1.0000007,4
14244,14244,2020-11-16 10:38:46.276,1.0000007,4
14254,14254,2020-11-16 10:39:16.276,1.0000007,4
14264,14264,2020-11-16 10:39:46.276,1.0000007,4
14274,14274,2020-11-16 10:40:16.276,1.0000007,4
14284,14284,2020-11-16 10:40:46.276,1.0000007,4
14294,14294,2020-11-16 10:41:16.276,1.0000007,4
14304,14304,2020-11-16 10:41:46.276,1.0000007,4
14314,14314,2020-11-16 10:42:16.276,1.0000007,4
14324,14324,2020-11-16 10:42:46.276,1.0000007,4
14334,14334,2020-11-16 10:43:16.276,1.0000007,4
14344,14344,2020-11-16 10:43:46.276,1.0000007,4
14354,14354,2020-11-16 10:44:16.276,1.0000007,4
14364,14364,2020-11-16 10:44:46.276,1.0000007,4
14374,14374,2020-11-16 10:45:16.276,1.0000007,4
14384,14384,2020-11-16 10:45:46.276,1.0000007,4
14394,14394,2020-11-16 10:46:16.276,1.0000007,4
14404,14404,2020-11-16 10:46:46.276,1.0000007,4
14414,14414,2020-11-16 10:47:16.276,1.0000007,4
14424,14424,2020-11-16 10:47:46.276,1.0000007,4
14434,14434,2020-11-16 10:48:16.276,1.0000007,4
14444,14444,2020-11-16 10:48:46.276,1.0000007,4
14454,14454,2020-11-16 10:49:16.276,1.0000007,4
14464,14464,2020-11-16 10:49:46.276,1.0000007,4
14474,14474,2020-11-16 10:50:16.276,1.0000007,4
14484,14484,2020-11-16 10:50:46.276,1.0000007,4
14494,14494,2020-11-16 10:51:16.276,1.0000007,4
14504,14504,2020-11-16 10:51:46.276,1.0000007,4
14514,14514,2020-11-16 10:52:16.276,1.0000007,4
14524,14524,2020-11-16 10:52:46.276,1.0000007,4
14534,14534,2020-11-16 10:53:16.276,1.0000007,4
14544,14544,2020-11-16 10:53:46.276,1.0000007,4
14554,14554,2020-11-16 10:54:16.276,1.0000007,4
14564,14564,2020-11-16 10:54:46.276,1.0000007,4
14574,14574,2020-11-16 10:55:16.276,1.0000007,4
14584,14584,2020-11-16 10:55:46.276,1.0000007,4
14594,14594,2020-11-16 10:56:16.276,1.0000007,4
14604,14604,2020-11-16 10:56:46.276,1.0000007,4
14614,14614,2020-11-16 10:57:16.276,1.0000007,4
14624,14624,2020-11-16 10:57:46.276,1.0000007,4
14634,14634,2020-11-16 10:58:16.276,1.0000007,4
14644,14644,2020-11-16 10:58:46.276,1.0000007,4
14654,14654,2020-11-16 10:59:16.276,1.0000007,4
14664,14664,2020-11-16 10:59:46.276,1.0000007,4
14674,14674,2020-11-16 11:00:16.276,1.0000007,4
14684,14684,2020-11-16 11:00:46.276,1.0000007,4
14694,14694,2020-11-16 11:01:16.276,1.0000007,4
14704,14704,2020-11-16 11:01:46.276,1.0000007,4
14714,14714,2020-11-16 11:02:16.276,1.0000007,4
14724,14724,2020-11-16 11:02:46.276,1.0000007,4
14734,14734,2020-11-16 11:03:16.276,1.0000007,4
14744,14744,2020-11-16 11:03:46.276,1.0000007,4
14754,14754,2020-11-16 11:04:16.276,1.0000007,4
14764,14764,2020-11-16 11:04:46.276,1.0000007,4
14774,14774,2020-11-16 11:05:16.276,1.0000007,4
14784,14784,2020-11-16 11:05:46.276,1.0000007,4
14794,14794,2020-11-16 11:06:16.276,1.0000007,4
14804,14804,2020-11-16 11:06:46.276,1.0000007,4
14814,14814,2020-11-16 11:07:16.276,1.0000007,4
14824,14824,2020-11-16 11:07:46.276,1.0000007,4
14834,14834,2020-11-16 11:08:16.276,1.0000007,4
14844,14844,2020-11-16 11:08:46.276,1.0000007,4
14854,14854,2020-11-16 11:09:16.276,1.0000007,4
14864,14864,2020-11-16 11:09:46.276,1.0000007,4
14874,14874,2020-11-16 11:10:16.276,1.0000007,4
14884,14884,2020-11-16 11:10:46.276,1.0000007,4
14894,14894,2020-11-16 11:11:16.276,1.0000007,4
14904,14904,2020-11-16 11:11:46.276,1.0000007,4
14914,14914,2020-11-16 11:12:16.276,1.0000007,4
14924,14924,2020-11-16 11:12:46.276,1.0000007,4
14934,14934,2020-11-16 11:13:16.276,1.0000007,4
14944,14944,2020-11-16 11:13:46.276,1.0000007,4
14954,14954,2020-11-16 11:14:16.276,1.0000007,4
14964,14964,2020-11-16 11:14:46.276,1.0000007,4
14974,14974,2020-11-16 11:15:16.276,1.0000007,4
14984,14984,2020-11-16 11:15:46.276,1.0000007,4
14994,14994,2020-11-16 11:16:16.276,1.0000007,4
15004,15004,2020-11-16 11:16:46.276,1.0000007,4
15014,15014,2020-11-16 11:17:16.276,1.0000007,4
15024,15024,2020-11-16 11:17:46.276,1.0000007,4
15034,15034,2020-11-16 11:18:16.276,1.0000007,4
15044,15044,2020-11-16 11:18:46.276,1.0000007,4
15054,15054,2020-11-16 11:19:16.276,1.0000007,4
15064,15064,2020-11-16 11:19:46.276,1.0000007,4
15074,15074,2020-11-16 11:20:16.276,1.0000007,4
15084,15084,2020-11-16 11:20:46.276,1.0000007,4
15094,15094,2020-11-16 11:21:16.276,1.0000007,4
15104,15104,2020-11-16 11:21:46.276,1.0000007,4
15114,15114,2020-11-16 11:22:16.276,1.0000007,4
15124,15124,2020-11-16 11:22:46.276,1.0000007,4
15134,15134,2020-11-16 11:23:16.276,1.0000007,4
15144,15144,2020-11-16 11:23:46.276,1.0000007,4
15154,15154,2020-11-16 11:24:16.276,1.0000007,4
15164,15164,2020-11-16 11:24:46.276,1.0000007,4
15174,15174,2020-11-16 11:25:16.276,1.0000007,4
15184,15184,2020-11-16 11:25:46.276,1.0000007,4
15194,15194,2020-11-16 11:26:16.276,1.0000007,4
15204,15204,2020-11-16 11:26:46.276,1.0000007,4
15214,15214,2020-11-16 11:27:16.276,1.0000007,4
15224,15224,2020-11-16 11:27:46.276,1.0000007,4
15234,15234,2020-11-16 11:28:16.276,1.0000007,4
15244,15244,2020-11-16 11:28:46.276,1.0000007,4
15254,15254,2020-11-16 11:29:16.276,1.0000007,4
15264,15264,2020-11-16 11:29:46.276,1.0000007,4
15274,15274,2020-11-16 11:30:16.276,1.0000007,4
15284,15284,2020-11-16 11:30:46.276,1.0000007,4
15294,15294,2020-11-16 11:31:16.276,1.0000007,4
15304,15304,2020-11-16 11:31:46.276,1.0000007,4
15314,15314,2020-11-16 11:32:16.276,1.0000007,4
15324,15324,2020-11-16 11:32:46.276,1.0000007,4
15334,15334,2020-11-16 11:33:16.276,1.0000007,4
15344,15344,2020-11-16 11:33:46.276,1.0000007,4
15354,15354,2020-11-16 11:34:16.276,1.0000007,4
15364,15364,2020-11-16 11:34:46.276,1.0000007,4
15374,15374,2020-11-16 11:35:16.276,1.0000007,4
15384,15384,2020-11-16 11:35:46.276,1.0000007,4
15394,15394,2020-11-16 11:36:16.276,1.0000007,4
15404,15404,2020-11-16 11:36:46.276,1.0000007,4
15414,15414,2020-11-16 11:37:16.276,1.0000007,4
15424,15424,2020-11-16 11:37:46.276,1.0000007,4
15434,15434,2020-11-16 11:38:16.276,1.0000007,4
15444,15444,2020-11-16 11:38:46.276,1.0000007,4
15454,15454,2020-11-16 11:39:16.276,1.0000007,4
15464,15464,2020-11-16 11:39:46.276,1.0000007,4
15474,15474,2020-11-16 11:40:16.276,1.0000007,4
15484,15484,2020-11-16 11:40:46.276,1.0000007,4
15494,15494,2020-11-16 11:41:16.276,1.0000007,4
15504,15504,2020-11-16 11:41:46.276,1.0000007,4
15514,15514,2020-11-16 11:42:16.276,1.0000007,4
15524,15524,2020-11-16 11:42:46.276,1.0000007,4
15534,15534,2020-11-16 11:43:16.276,1.0000007,4
15544,15544,2020-11-16 11:43:46.276,1.0000007,4
15554,15554,2020-11-16 11:44:16.276,1.0000007,4
15564,15564,2020-11-16 11:44:46.276,1.0000007,4
15574,15574,2020-11-16 11:45:16.276,1.0000007,4
15584,15584,2020-11-16 11:45:46.276,1.0000007,4
15594,15594,2020-11-16 11:46:16.276,1.0000007,4
15604,15604,2020-11-16 11:46:46.276,1.0000007,4
15614,15614,2020-11-16 11:47:16.276,1.0000007,4
15624,15624,2020-11-16 11:47:46.276,1.0000007,4
15634,15634,2020-11-16 11:48:16.276,1.0000007,4
15644,15644,2020-11-16 11:48:46.276,1.0000007,4
15654,15654,2020-11-16 11:49:16.276,1.0000007,4
15664,15664,2020-11-16 11:49:46.276,1.0000007,4
15674,15674,2020-11-16 11:50:16.276,1.0000007,4
15684,15684,2020-11-16 11:50:46.276,1.0000007,4
15694,15694,2020-11-16 11:51:16.276,1.0000007,4
15704,15704,2020-11-16 11:51:46.276,1.0000007,4
15714,15714,2020-11-16 11:52:16.276,1.0000007,4
15724,15724,2020-11-16 11:52:46.276,1.0000007,4
15734,15734,2020-11-16 11:53:16.276,1.0000007,4
15744,15744,2020-11-16 11:53:46.276,1.0000007,4
15754,15754,2020-11-16 11:54:16.276,1.0000007,4
15764,15764,2020-11-16 11:54:46.276,1.0000007,4
15774,15774,2020-11-16 11:55:16.276,1.0000007,4
15784,15784,2020-11-16 11:55:46.276,1.0000007,4
15794,15794,2020-11-16 11:56:16.276,1.0000007,4
15804,15804,2020-11-16 11:56:46.276,1.0000007,4
15814,15814,2020-11-16 11:57:16.276,1.0000007,4
15824,15824,2020-11-16 11:57:46.276,1.0000007,4
15834,15834,2020-11-16 11:58:16.276,1.0000007,4
15844,15844,2020-11-16 11:58:46.276,1.0000007,4
15854,15854,2020-11-16 11:59:16.276,1.0000007,4
15864,15864,2020-11-16 11:59:46.276,1.0000007,4
15874,15874,2020-11-16 12:00:16.276,1.0000007,4
15884,15884,2020-11-16 12:00:46.276,1.0000007,4
15894,15894,2020-11-16 12:01:16.276,1.0000007,4
15904,15904,2020-11-16 12:01:46.276,1.0000007,4
15914,15914,2020-11-16 12:02:16.276,1.0000007,4
15924,15924,2020-11-16 12:02:46.276,1.0000007,4
15934,15934,2020-11-16 12:03:16.276,1.0000007,4
15944,15944,2020-11-16 12:03:46.276,1.0000007,4
15954,15954,2020-11-16 12:04:16.276,1.0000007,4
15964,15964,2020-11-16 12:04:46.276,1.0000007,4
15974,15974,2020-11-16 12:05:16.276,1.0000007,4
15984,15984,2020-11-16 12:05:46.276,1.0000007,4
15994,15994,2020-11-16 12:06:16.276,1.0000007,4
