,Unnamed: 0,time,prediction,step
25116,25116,2020-11-16 09:50:16.276,1.0000007,6
25126,25126,2020-11-16 09:50:46.276,1.0000007,6
25136,25136,2020-11-16 09:51:16.276,1.0000007,6
25146,25146,2020-11-16 09:51:46.276,1.0000007,6
25156,25156,2020-11-16 09:52:16.276,1.0000007,6
25166,25166,2020-11-16 09:52:46.276,1.0000007,6
25176,25176,2020-11-16 09:53:16.276,1.0000007,6
25186,25186,2020-11-16 09:53:46.276,1.0000007,6
25196,25196,2020-11-16 09:54:16.276,1.0000007,6
25206,25206,2020-11-16 09:54:46.276,1.0000007,6
25216,25216,2020-11-16 09:55:16.276,1.0000007,6
25226,25226,2020-11-16 09:55:46.276,1.0000007,6
25236,25236,2020-11-16 09:56:16.276,1.0000007,6
25246,25246,2020-11-16 09:56:46.276,1.0000007,6
25256,25256,2020-11-16 09:57:16.276,1.0000007,6
25266,25266,2020-11-16 09:57:46.276,1.0000007,6
25276,25276,2020-11-16 09:58:16.276,1.0000007,6
25286,25286,2020-11-16 09:58:46.276,1.0000007,6
25296,25296,2020-11-16 09:59:16.276,1.0000007,6
25306,25306,2020-11-16 09:59:46.276,1.0000007,6
25316,25316,2020-11-16 10:00:16.276,1.0000007,6
25326,25326,2020-11-16 10:00:46.276,1.0000007,6
25336,25336,2020-11-16 10:01:16.276,1.0000007,6
25346,25346,2020-11-16 10:01:46.276,1.0000007,6
25356,25356,2020-11-16 10:02:16.276,1.0000007,6
25366,25366,2020-11-16 10:02:46.276,1.0000007,6
25376,25376,2020-11-16 10:03:16.276,1.0000007,6
25386,25386,2020-11-16 10:03:46.276,1.0000007,6
25396,25396,2020-11-16 10:04:16.276,1.0000007,6
25406,25406,2020-11-16 10:04:46.276,1.0000007,6
25416,25416,2020-11-16 10:05:16.276,1.0000007,6
25426,25426,2020-11-16 10:05:46.276,1.0000007,6
25436,25436,2020-11-16 10:06:16.276,1.0000007,6
25446,25446,2020-11-16 10:06:46.276,1.0000007,6
25456,25456,2020-11-16 10:07:16.276,1.0000007,6
25466,25466,2020-11-16 10:07:46.276,1.0000007,6
25476,25476,2020-11-16 10:08:16.276,1.0000007,6
25486,25486,2020-11-16 10:08:46.276,1.0000007,6
25496,25496,2020-11-16 10:09:16.276,1.0000007,6
25506,25506,2020-11-16 10:09:46.276,1.0000007,6
25516,25516,2020-11-16 10:10:16.276,1.0000007,6
25526,25526,2020-11-16 10:10:46.276,1.0000007,6
25536,25536,2020-11-16 10:11:16.276,1.0000007,6
25546,25546,2020-11-16 10:11:46.276,1.0000007,6
25556,25556,2020-11-16 10:12:16.276,1.0000007,6
25566,25566,2020-11-16 10:12:46.276,1.0000007,6
25576,25576,2020-11-16 10:13:16.276,1.0000007,6
25586,25586,2020-11-16 10:13:46.276,1.0000007,6
25596,25596,2020-11-16 10:14:16.276,1.0000007,6
25606,25606,2020-11-16 10:14:46.276,1.0000007,6
25616,25616,2020-11-16 10:15:16.276,1.0000007,6
25626,25626,2020-11-16 10:15:46.276,1.0000007,6
25636,25636,2020-11-16 10:16:16.276,1.0000007,6
25646,25646,2020-11-16 10:16:46.276,1.0000007,6
25656,25656,2020-11-16 10:17:16.276,1.0000007,6
25666,25666,2020-11-16 10:17:46.276,1.0000007,6
25676,25676,2020-11-16 10:18:16.276,1.0000007,6
25686,25686,2020-11-16 10:18:46.276,1.0000007,6
25696,25696,2020-11-16 10:19:16.276,1.0000007,6
25706,25706,2020-11-16 10:19:46.276,1.0000007,6
25716,25716,2020-11-16 10:20:16.276,1.0000007,6
25726,25726,2020-11-16 10:20:46.276,1.0000007,6
25736,25736,2020-11-16 10:21:16.276,1.0000007,6
25746,25746,2020-11-16 10:21:46.276,1.0000007,6
25756,25756,2020-11-16 10:22:16.276,1.0000007,6
25766,25766,2020-11-16 10:22:46.276,1.0000007,6
25776,25776,2020-11-16 10:23:16.276,1.0000007,6
25786,25786,2020-11-16 10:23:46.276,1.0000007,6
25796,25796,2020-11-16 10:24:16.276,1.0000007,6
25806,25806,2020-11-16 10:24:46.276,1.0000007,6
25816,25816,2020-11-16 10:25:16.276,1.0000007,6
25826,25826,2020-11-16 10:25:46.276,1.0000007,6
25836,25836,2020-11-16 10:26:16.276,1.0000007,6
25846,25846,2020-11-16 10:26:46.276,1.0000007,6
25856,25856,2020-11-16 10:27:16.276,1.0000007,6
25866,25866,2020-11-16 10:27:46.276,1.0000007,6
25876,25876,2020-11-16 10:28:16.276,1.0000007,6
25886,25886,2020-11-16 10:28:46.276,1.0000007,6
25896,25896,2020-11-16 10:29:16.276,1.0000007,6
25906,25906,2020-11-16 10:29:46.276,1.0000007,6
25916,25916,2020-11-16 10:30:16.276,1.0000007,6
25926,25926,2020-11-16 10:30:46.276,1.0000007,6
25936,25936,2020-11-16 10:31:16.276,1.0000007,6
25946,25946,2020-11-16 10:31:46.276,1.0000007,6
25956,25956,2020-11-16 10:32:16.276,1.0000007,6
25966,25966,2020-11-16 10:32:46.276,1.0000007,6
25976,25976,2020-11-16 10:33:16.276,1.0000007,6
25986,25986,2020-11-16 10:33:46.276,1.0000007,6
25996,25996,2020-11-16 10:34:16.276,1.0000007,6
26006,26006,2020-11-16 10:34:46.276,1.0000007,6
26016,26016,2020-11-16 10:35:16.276,1.0000007,6
26026,26026,2020-11-16 10:35:46.276,1.0000007,6
26036,26036,2020-11-16 10:36:16.276,1.0000007,6
26046,26046,2020-11-16 10:36:46.276,1.0000007,6
26056,26056,2020-11-16 10:37:16.276,1.0000007,6
26066,26066,2020-11-16 10:37:46.276,1.0000007,6
26076,26076,2020-11-16 10:38:16.276,1.0000007,6
26086,26086,2020-11-16 10:38:46.276,1.0000007,6
26096,26096,2020-11-16 10:39:16.276,1.0000007,6
26106,26106,2020-11-16 10:39:46.276,1.0000007,6
26116,26116,2020-11-16 10:40:16.276,1.0000007,6
26126,26126,2020-11-16 10:40:46.276,1.0000007,6
26136,26136,2020-11-16 10:41:16.276,1.0000007,6
26146,26146,2020-11-16 10:41:46.276,1.0000007,6
26156,26156,2020-11-16 10:42:16.276,1.0000007,6
26166,26166,2020-11-16 10:42:46.276,1.0000007,6
26176,26176,2020-11-16 10:43:16.276,1.0000007,6
26186,26186,2020-11-16 10:43:46.276,1.0000007,6
26196,26196,2020-11-16 10:44:16.276,1.0000007,6
26206,26206,2020-11-16 10:44:46.276,1.0000007,6
26216,26216,2020-11-16 10:45:16.276,1.0000007,6
26226,26226,2020-11-16 10:45:46.276,1.0000007,6
26236,26236,2020-11-16 10:46:16.276,1.0000007,6
26246,26246,2020-11-16 10:46:46.276,1.0000007,6
26256,26256,2020-11-16 10:47:16.276,1.0000007,6
26266,26266,2020-11-16 10:47:46.276,1.0000007,6
26276,26276,2020-11-16 10:48:16.276,1.0000007,6
26286,26286,2020-11-16 10:48:46.276,1.0000007,6
26296,26296,2020-11-16 10:49:16.276,1.0000007,6
26306,26306,2020-11-16 10:49:46.276,1.0000007,6
26316,26316,2020-11-16 10:50:16.276,1.0000007,6
26326,26326,2020-11-16 10:50:46.276,1.0000007,6
26336,26336,2020-11-16 10:51:16.276,1.0000007,6
26346,26346,2020-11-16 10:51:46.276,1.0000007,6
26356,26356,2020-11-16 10:52:16.276,1.0000007,6
26366,26366,2020-11-16 10:52:46.276,1.0000007,6
26376,26376,2020-11-16 10:53:16.276,1.0000007,6
26386,26386,2020-11-16 10:53:46.276,1.0000007,6
26396,26396,2020-11-16 10:54:16.276,1.0000007,6
26406,26406,2020-11-16 10:54:46.276,1.0000007,6
26416,26416,2020-11-16 10:55:16.276,1.0000007,6
26426,26426,2020-11-16 10:55:46.276,1.0000007,6
26436,26436,2020-11-16 10:56:16.276,1.0000007,6
26446,26446,2020-11-16 10:56:46.276,1.0000007,6
26456,26456,2020-11-16 10:57:16.276,1.0000007,6
26466,26466,2020-11-16 10:57:46.276,1.0000007,6
26476,26476,2020-11-16 10:58:16.276,1.0000007,6
26486,26486,2020-11-16 10:58:46.276,1.0000007,6
26496,26496,2020-11-16 10:59:16.276,1.0000007,6
26506,26506,2020-11-16 10:59:46.276,1.0000007,6
26516,26516,2020-11-16 11:00:16.276,1.0000007,6
26526,26526,2020-11-16 11:00:46.276,1.0000007,6
26536,26536,2020-11-16 11:01:16.276,1.0000007,6
26546,26546,2020-11-16 11:01:46.276,1.0000007,6
26556,26556,2020-11-16 11:02:16.276,1.0000007,6
26566,26566,2020-11-16 11:02:46.276,1.0000007,6
26576,26576,2020-11-16 11:03:16.276,1.0000007,6
26586,26586,2020-11-16 11:03:46.276,1.0000007,6
26596,26596,2020-11-16 11:04:16.276,1.0000007,6
26606,26606,2020-11-16 11:04:46.276,1.0000007,6
26616,26616,2020-11-16 11:05:16.276,1.0000007,6
26626,26626,2020-11-16 11:05:46.276,1.0000007,6
26636,26636,2020-11-16 11:06:16.276,1.0000007,6
26646,26646,2020-11-16 11:06:46.276,1.0000007,6
26656,26656,2020-11-16 11:07:16.276,1.0000007,6
26666,26666,2020-11-16 11:07:46.276,1.0000007,6
26676,26676,2020-11-16 11:08:16.276,1.0000007,6
26686,26686,2020-11-16 11:08:46.276,1.0000007,6
26696,26696,2020-11-16 11:09:16.276,1.0000007,6
26706,26706,2020-11-16 11:09:46.276,1.0000007,6
26716,26716,2020-11-16 11:10:16.276,1.0000007,6
26726,26726,2020-11-16 11:10:46.276,1.0000007,6
26736,26736,2020-11-16 11:11:16.276,1.0000007,6
26746,26746,2020-11-16 11:11:46.276,1.0000007,6
26756,26756,2020-11-16 11:12:16.276,1.0000007,6
26766,26766,2020-11-16 11:12:46.276,1.0000007,6
26776,26776,2020-11-16 11:13:16.276,1.0000007,6
26786,26786,2020-11-16 11:13:46.276,1.0000007,6
26796,26796,2020-11-16 11:14:16.276,1.0000007,6
26806,26806,2020-11-16 11:14:46.276,1.0000007,6
26816,26816,2020-11-16 11:15:16.276,1.0000007,6
26826,26826,2020-11-16 11:15:46.276,1.0000007,6
26836,26836,2020-11-16 11:16:16.276,1.0000007,6
26846,26846,2020-11-16 11:16:46.276,1.0000007,6
26856,26856,2020-11-16 11:17:16.276,1.0000007,6
26866,26866,2020-11-16 11:17:46.276,1.0000007,6
26876,26876,2020-11-16 11:18:16.276,1.0000007,6
26886,26886,2020-11-16 11:18:46.276,1.0000007,6
26896,26896,2020-11-16 11:19:16.276,1.0000007,6
26906,26906,2020-11-16 11:19:46.276,1.0000007,6
26916,26916,2020-11-16 11:20:16.276,1.0000007,6
26926,26926,2020-11-16 11:20:46.276,1.0000007,6
26936,26936,2020-11-16 11:21:16.276,1.0000007,6
26946,26946,2020-11-16 11:21:46.276,1.0000007,6
26956,26956,2020-11-16 11:22:16.276,1.0000007,6
26966,26966,2020-11-16 11:22:46.276,1.0000007,6
26976,26976,2020-11-16 11:23:16.276,1.0000007,6
26986,26986,2020-11-16 11:23:46.276,1.0000007,6
26996,26996,2020-11-16 11:24:16.276,1.0000007,6
27006,27006,2020-11-16 11:24:46.276,1.0000007,6
27016,27016,2020-11-16 11:25:16.276,1.0000007,6
27026,27026,2020-11-16 11:25:46.276,1.0000007,6
27036,27036,2020-11-16 11:26:16.276,1.0000007,6
27046,27046,2020-11-16 11:26:46.276,1.0000007,6
27056,27056,2020-11-16 11:27:16.276,1.0000007,6
27066,27066,2020-11-16 11:27:46.276,1.0000007,6
27076,27076,2020-11-16 11:28:16.276,1.0000007,6
27086,27086,2020-11-16 11:28:46.276,1.0000007,6
27096,27096,2020-11-16 11:29:16.276,1.0000007,6
27106,27106,2020-11-16 11:29:46.276,1.0000007,6
27116,27116,2020-11-16 11:30:16.276,1.0000007,6
27126,27126,2020-11-16 11:30:46.276,1.0000007,6
27136,27136,2020-11-16 11:31:16.276,1.0000007,6
27146,27146,2020-11-16 11:31:46.276,1.0000007,6
27156,27156,2020-11-16 11:32:16.276,1.0000007,6
27166,27166,2020-11-16 11:32:46.276,1.0000007,6
27176,27176,2020-11-16 11:33:16.276,1.0000007,6
27186,27186,2020-11-16 11:33:46.276,1.0000007,6
27196,27196,2020-11-16 11:34:16.276,1.0000007,6
27206,27206,2020-11-16 11:34:46.276,1.0000007,6
27216,27216,2020-11-16 11:35:16.276,1.0000007,6
27226,27226,2020-11-16 11:35:46.276,1.0000007,6
27236,27236,2020-11-16 11:36:16.276,1.0000007,6
27246,27246,2020-11-16 11:36:46.276,1.0000007,6
27256,27256,2020-11-16 11:37:16.276,1.0000007,6
27266,27266,2020-11-16 11:37:46.276,1.0000007,6
27276,27276,2020-11-16 11:38:16.276,1.0000007,6
27286,27286,2020-11-16 11:38:46.276,1.0000007,6
27296,27296,2020-11-16 11:39:16.276,1.0000007,6
27306,27306,2020-11-16 11:39:46.276,1.0000007,6
27316,27316,2020-11-16 11:40:16.276,1.0000007,6
27326,27326,2020-11-16 11:40:46.276,1.0000007,6
27336,27336,2020-11-16 11:41:16.276,1.0000007,6
27346,27346,2020-11-16 11:41:46.276,1.0000007,6
27356,27356,2020-11-16 11:42:16.276,1.0000007,6
27366,27366,2020-11-16 11:42:46.276,1.0000007,6
27376,27376,2020-11-16 11:43:16.276,1.0000007,6
27386,27386,2020-11-16 11:43:46.276,1.0000007,6
27396,27396,2020-11-16 11:44:16.276,1.0000007,6
27406,27406,2020-11-16 11:44:46.276,1.0000007,6
27416,27416,2020-11-16 11:45:16.276,1.0000007,6
27426,27426,2020-11-16 11:45:46.276,1.0000007,6
27436,27436,2020-11-16 11:46:16.276,1.0000007,6
27446,27446,2020-11-16 11:46:46.276,1.0000007,6
27456,27456,2020-11-16 11:47:16.276,1.0000007,6
27466,27466,2020-11-16 11:47:46.276,1.0000007,6
27476,27476,2020-11-16 11:48:16.276,1.0000007,6
27486,27486,2020-11-16 11:48:46.276,1.0000007,6
27496,27496,2020-11-16 11:49:16.276,1.0000007,6
27506,27506,2020-11-16 11:49:46.276,1.0000007,6
27516,27516,2020-11-16 11:50:16.276,1.0000007,6
27526,27526,2020-11-16 11:50:46.276,1.0000007,6
27536,27536,2020-11-16 11:51:16.276,1.0000007,6
27546,27546,2020-11-16 11:51:46.276,1.0000007,6
27556,27556,2020-11-16 11:52:16.276,1.0000007,6
27566,27566,2020-11-16 11:52:46.276,1.0000007,6
27576,27576,2020-11-16 11:53:16.276,1.0000007,6
27586,27586,2020-11-16 11:53:46.276,1.0000007,6
27596,27596,2020-11-16 11:54:16.276,1.0000007,6
27606,27606,2020-11-16 11:54:46.276,1.0000007,6
27616,27616,2020-11-16 11:55:16.276,1.0000007,6
27626,27626,2020-11-16 11:55:46.276,1.0000007,6
27636,27636,2020-11-16 11:56:16.276,1.0000007,6
27646,27646,2020-11-16 11:56:46.276,1.0000007,6
27656,27656,2020-11-16 11:57:16.276,1.0000007,6
27666,27666,2020-11-16 11:57:46.276,1.0000007,6
27676,27676,2020-11-16 11:58:16.276,1.0000007,6
27686,27686,2020-11-16 11:58:46.276,1.0000007,6
27696,27696,2020-11-16 11:59:16.276,1.0000007,6
27706,27706,2020-11-16 11:59:46.276,1.0000007,6
27716,27716,2020-11-16 12:00:16.276,1.0000007,6
27726,27726,2020-11-16 12:00:46.276,1.0000007,6
27736,27736,2020-11-16 12:01:16.276,1.0000007,6
27746,27746,2020-11-16 12:01:46.276,1.0000007,6
27756,27756,2020-11-16 12:02:16.276,1.0000007,6
27766,27766,2020-11-16 12:02:46.276,1.0000007,6
27776,27776,2020-11-16 12:03:16.276,1.0000007,6
27786,27786,2020-11-16 12:03:46.276,1.0000007,6
27796,27796,2020-11-16 12:04:16.276,1.0000007,6
27806,27806,2020-11-16 12:04:46.276,1.0000007,6
27816,27816,2020-11-16 12:05:16.276,1.0000007,6
27826,27826,2020-11-16 12:05:46.276,1.0000007,6
27836,27836,2020-11-16 12:06:16.276,1.0000007,6
27846,27846,2020-11-16 12:06:46.276,1.0000007,6
27856,27856,2020-11-16 12:07:16.276,1.0000007,6
