,Unnamed: 0,time,prediction,step
25118,25118,2020-11-16 09:51:16.276,1.0000007,8
25128,25128,2020-11-16 09:51:46.276,1.0000007,8
25138,25138,2020-11-16 09:52:16.276,1.0000007,8
25148,25148,2020-11-16 09:52:46.276,1.0000007,8
25158,25158,2020-11-16 09:53:16.276,1.0000007,8
25168,25168,2020-11-16 09:53:46.276,1.0000007,8
25178,25178,2020-11-16 09:54:16.276,1.0000007,8
25188,25188,2020-11-16 09:54:46.276,1.0000007,8
25198,25198,2020-11-16 09:55:16.276,1.0000007,8
25208,25208,2020-11-16 09:55:46.276,1.0000007,8
25218,25218,2020-11-16 09:56:16.276,1.0000007,8
25228,25228,2020-11-16 09:56:46.276,1.0000007,8
25238,25238,2020-11-16 09:57:16.276,1.0000007,8
25248,25248,2020-11-16 09:57:46.276,1.0000007,8
25258,25258,2020-11-16 09:58:16.276,1.0000007,8
25268,25268,2020-11-16 09:58:46.276,1.0000007,8
25278,25278,2020-11-16 09:59:16.276,1.0000007,8
25288,25288,2020-11-16 09:59:46.276,1.0000007,8
25298,25298,2020-11-16 10:00:16.276,1.0000007,8
25308,25308,2020-11-16 10:00:46.276,1.0000007,8
25318,25318,2020-11-16 10:01:16.276,1.0000007,8
25328,25328,2020-11-16 10:01:46.276,1.0000007,8
25338,25338,2020-11-16 10:02:16.276,1.0000007,8
25348,25348,2020-11-16 10:02:46.276,1.0000007,8
25358,25358,2020-11-16 10:03:16.276,1.0000007,8
25368,25368,2020-11-16 10:03:46.276,1.0000007,8
25378,25378,2020-11-16 10:04:16.276,1.0000007,8
25388,25388,2020-11-16 10:04:46.276,1.0000007,8
25398,25398,2020-11-16 10:05:16.276,1.0000007,8
25408,25408,2020-11-16 10:05:46.276,1.0000007,8
25418,25418,2020-11-16 10:06:16.276,1.0000007,8
25428,25428,2020-11-16 10:06:46.276,1.0000007,8
25438,25438,2020-11-16 10:07:16.276,1.0000007,8
25448,25448,2020-11-16 10:07:46.276,1.0000007,8
25458,25458,2020-11-16 10:08:16.276,1.0000007,8
25468,25468,2020-11-16 10:08:46.276,1.0000007,8
25478,25478,2020-11-16 10:09:16.276,1.0000007,8
25488,25488,2020-11-16 10:09:46.276,1.0000007,8
25498,25498,2020-11-16 10:10:16.276,1.0000007,8
25508,25508,2020-11-16 10:10:46.276,1.0000007,8
25518,25518,2020-11-16 10:11:16.276,1.0000007,8
25528,25528,2020-11-16 10:11:46.276,1.0000007,8
25538,25538,2020-11-16 10:12:16.276,1.0000007,8
25548,25548,2020-11-16 10:12:46.276,1.0000007,8
25558,25558,2020-11-16 10:13:16.276,1.0000007,8
25568,25568,2020-11-16 10:13:46.276,1.0000007,8
25578,25578,2020-11-16 10:14:16.276,1.0000007,8
25588,25588,2020-11-16 10:14:46.276,1.0000007,8
25598,25598,2020-11-16 10:15:16.276,1.0000007,8
25608,25608,2020-11-16 10:15:46.276,1.0000007,8
25618,25618,2020-11-16 10:16:16.276,1.0000007,8
25628,25628,2020-11-16 10:16:46.276,1.0000007,8
25638,25638,2020-11-16 10:17:16.276,1.0000007,8
25648,25648,2020-11-16 10:17:46.276,1.0000007,8
25658,25658,2020-11-16 10:18:16.276,1.0000007,8
25668,25668,2020-11-16 10:18:46.276,1.0000007,8
25678,25678,2020-11-16 10:19:16.276,1.0000007,8
25688,25688,2020-11-16 10:19:46.276,1.0000007,8
25698,25698,2020-11-16 10:20:16.276,1.0000007,8
25708,25708,2020-11-16 10:20:46.276,1.0000007,8
25718,25718,2020-11-16 10:21:16.276,1.0000007,8
25728,25728,2020-11-16 10:21:46.276,1.0000007,8
25738,25738,2020-11-16 10:22:16.276,1.0000007,8
25748,25748,2020-11-16 10:22:46.276,1.0000007,8
25758,25758,2020-11-16 10:23:16.276,1.0000007,8
25768,25768,2020-11-16 10:23:46.276,1.0000007,8
25778,25778,2020-11-16 10:24:16.276,1.0000007,8
25788,25788,2020-11-16 10:24:46.276,1.0000007,8
25798,25798,2020-11-16 10:25:16.276,1.0000007,8
25808,25808,2020-11-16 10:25:46.276,1.0000007,8
25818,25818,2020-11-16 10:26:16.276,1.0000007,8
25828,25828,2020-11-16 10:26:46.276,1.0000007,8
25838,25838,2020-11-16 10:27:16.276,1.0000007,8
25848,25848,2020-11-16 10:27:46.276,1.0000007,8
25858,25858,2020-11-16 10:28:16.276,1.0000007,8
25868,25868,2020-11-16 10:28:46.276,1.0000007,8
25878,25878,2020-11-16 10:29:16.276,1.0000007,8
25888,25888,2020-11-16 10:29:46.276,1.0000007,8
25898,25898,2020-11-16 10:30:16.276,1.0000007,8
25908,25908,2020-11-16 10:30:46.276,1.0000007,8
25918,25918,2020-11-16 10:31:16.276,1.0000007,8
25928,25928,2020-11-16 10:31:46.276,1.0000007,8
25938,25938,2020-11-16 10:32:16.276,1.0000007,8
25948,25948,2020-11-16 10:32:46.276,1.0000007,8
25958,25958,2020-11-16 10:33:16.276,1.0000007,8
25968,25968,2020-11-16 10:33:46.276,1.0000007,8
25978,25978,2020-11-16 10:34:16.276,1.0000007,8
25988,25988,2020-11-16 10:34:46.276,1.0000007,8
25998,25998,2020-11-16 10:35:16.276,1.0000007,8
26008,26008,2020-11-16 10:35:46.276,1.0000007,8
26018,26018,2020-11-16 10:36:16.276,1.0000007,8
26028,26028,2020-11-16 10:36:46.276,1.0000007,8
26038,26038,2020-11-16 10:37:16.276,1.0000007,8
26048,26048,2020-11-16 10:37:46.276,1.0000007,8
26058,26058,2020-11-16 10:38:16.276,1.0000007,8
26068,26068,2020-11-16 10:38:46.276,1.0000007,8
26078,26078,2020-11-16 10:39:16.276,1.0000007,8
26088,26088,2020-11-16 10:39:46.276,1.0000007,8
26098,26098,2020-11-16 10:40:16.276,1.0000007,8
26108,26108,2020-11-16 10:40:46.276,1.0000007,8
26118,26118,2020-11-16 10:41:16.276,1.0000007,8
26128,26128,2020-11-16 10:41:46.276,1.0000007,8
26138,26138,2020-11-16 10:42:16.276,1.0000007,8
26148,26148,2020-11-16 10:42:46.276,1.0000007,8
26158,26158,2020-11-16 10:43:16.276,1.0000007,8
26168,26168,2020-11-16 10:43:46.276,1.0000007,8
26178,26178,2020-11-16 10:44:16.276,1.0000007,8
26188,26188,2020-11-16 10:44:46.276,1.0000007,8
26198,26198,2020-11-16 10:45:16.276,1.0000007,8
26208,26208,2020-11-16 10:45:46.276,1.0000007,8
26218,26218,2020-11-16 10:46:16.276,1.0000007,8
26228,26228,2020-11-16 10:46:46.276,1.0000007,8
26238,26238,2020-11-16 10:47:16.276,1.0000007,8
26248,26248,2020-11-16 10:47:46.276,1.0000007,8
26258,26258,2020-11-16 10:48:16.276,1.0000007,8
26268,26268,2020-11-16 10:48:46.276,1.0000007,8
26278,26278,2020-11-16 10:49:16.276,1.0000007,8
26288,26288,2020-11-16 10:49:46.276,1.0000007,8
26298,26298,2020-11-16 10:50:16.276,1.0000007,8
26308,26308,2020-11-16 10:50:46.276,1.0000007,8
26318,26318,2020-11-16 10:51:16.276,1.0000007,8
26328,26328,2020-11-16 10:51:46.276,1.0000007,8
26338,26338,2020-11-16 10:52:16.276,1.0000007,8
26348,26348,2020-11-16 10:52:46.276,1.0000007,8
26358,26358,2020-11-16 10:53:16.276,1.0000007,8
26368,26368,2020-11-16 10:53:46.276,1.0000007,8
26378,26378,2020-11-16 10:54:16.276,1.0000007,8
26388,26388,2020-11-16 10:54:46.276,1.0000007,8
26398,26398,2020-11-16 10:55:16.276,1.0000007,8
26408,26408,2020-11-16 10:55:46.276,1.0000007,8
26418,26418,2020-11-16 10:56:16.276,1.0000007,8
26428,26428,2020-11-16 10:56:46.276,1.0000007,8
26438,26438,2020-11-16 10:57:16.276,1.0000007,8
26448,26448,2020-11-16 10:57:46.276,1.0000007,8
26458,26458,2020-11-16 10:58:16.276,1.0000007,8
26468,26468,2020-11-16 10:58:46.276,1.0000007,8
26478,26478,2020-11-16 10:59:16.276,1.0000007,8
26488,26488,2020-11-16 10:59:46.276,1.0000007,8
26498,26498,2020-11-16 11:00:16.276,1.0000007,8
26508,26508,2020-11-16 11:00:46.276,1.0000007,8
26518,26518,2020-11-16 11:01:16.276,1.0000007,8
26528,26528,2020-11-16 11:01:46.276,1.0000007,8
26538,26538,2020-11-16 11:02:16.276,1.0000007,8
26548,26548,2020-11-16 11:02:46.276,1.0000007,8
26558,26558,2020-11-16 11:03:16.276,1.0000007,8
26568,26568,2020-11-16 11:03:46.276,1.0000007,8
26578,26578,2020-11-16 11:04:16.276,1.0000007,8
26588,26588,2020-11-16 11:04:46.276,1.0000007,8
26598,26598,2020-11-16 11:05:16.276,1.0000007,8
26608,26608,2020-11-16 11:05:46.276,1.0000007,8
26618,26618,2020-11-16 11:06:16.276,1.0000007,8
26628,26628,2020-11-16 11:06:46.276,1.0000007,8
26638,26638,2020-11-16 11:07:16.276,1.0000007,8
26648,26648,2020-11-16 11:07:46.276,1.0000007,8
26658,26658,2020-11-16 11:08:16.276,1.0000007,8
26668,26668,2020-11-16 11:08:46.276,1.0000007,8
26678,26678,2020-11-16 11:09:16.276,1.0000007,8
26688,26688,2020-11-16 11:09:46.276,1.0000007,8
26698,26698,2020-11-16 11:10:16.276,1.0000007,8
26708,26708,2020-11-16 11:10:46.276,1.0000007,8
26718,26718,2020-11-16 11:11:16.276,1.0000007,8
26728,26728,2020-11-16 11:11:46.276,1.0000007,8
26738,26738,2020-11-16 11:12:16.276,1.0000007,8
26748,26748,2020-11-16 11:12:46.276,1.0000007,8
26758,26758,2020-11-16 11:13:16.276,1.0000007,8
26768,26768,2020-11-16 11:13:46.276,1.0000007,8
26778,26778,2020-11-16 11:14:16.276,1.0000007,8
26788,26788,2020-11-16 11:14:46.276,1.0000007,8
26798,26798,2020-11-16 11:15:16.276,1.0000007,8
26808,26808,2020-11-16 11:15:46.276,1.0000007,8
26818,26818,2020-11-16 11:16:16.276,1.0000007,8
26828,26828,2020-11-16 11:16:46.276,1.0000007,8
26838,26838,2020-11-16 11:17:16.276,1.0000007,8
26848,26848,2020-11-16 11:17:46.276,1.0000007,8
26858,26858,2020-11-16 11:18:16.276,1.0000007,8
26868,26868,2020-11-16 11:18:46.276,1.0000007,8
26878,26878,2020-11-16 11:19:16.276,1.0000007,8
26888,26888,2020-11-16 11:19:46.276,1.0000007,8
26898,26898,2020-11-16 11:20:16.276,1.0000007,8
26908,26908,2020-11-16 11:20:46.276,1.0000007,8
26918,26918,2020-11-16 11:21:16.276,1.0000007,8
26928,26928,2020-11-16 11:21:46.276,1.0000007,8
26938,26938,2020-11-16 11:22:16.276,1.0000007,8
26948,26948,2020-11-16 11:22:46.276,1.0000007,8
26958,26958,2020-11-16 11:23:16.276,1.0000007,8
26968,26968,2020-11-16 11:23:46.276,1.0000007,8
26978,26978,2020-11-16 11:24:16.276,1.0000007,8
26988,26988,2020-11-16 11:24:46.276,1.0000007,8
26998,26998,2020-11-16 11:25:16.276,1.0000007,8
27008,27008,2020-11-16 11:25:46.276,1.0000007,8
27018,27018,2020-11-16 11:26:16.276,1.0000007,8
27028,27028,2020-11-16 11:26:46.276,1.0000007,8
27038,27038,2020-11-16 11:27:16.276,1.0000007,8
27048,27048,2020-11-16 11:27:46.276,1.0000007,8
27058,27058,2020-11-16 11:28:16.276,1.0000007,8
27068,27068,2020-11-16 11:28:46.276,1.0000007,8
27078,27078,2020-11-16 11:29:16.276,1.0000007,8
27088,27088,2020-11-16 11:29:46.276,1.0000007,8
27098,27098,2020-11-16 11:30:16.276,1.0000007,8
27108,27108,2020-11-16 11:30:46.276,1.0000007,8
27118,27118,2020-11-16 11:31:16.276,1.0000007,8
27128,27128,2020-11-16 11:31:46.276,1.0000007,8
27138,27138,2020-11-16 11:32:16.276,1.0000007,8
27148,27148,2020-11-16 11:32:46.276,1.0000007,8
27158,27158,2020-11-16 11:33:16.276,1.0000007,8
27168,27168,2020-11-16 11:33:46.276,1.0000007,8
27178,27178,2020-11-16 11:34:16.276,1.0000007,8
27188,27188,2020-11-16 11:34:46.276,1.0000007,8
27198,27198,2020-11-16 11:35:16.276,1.0000007,8
27208,27208,2020-11-16 11:35:46.276,1.0000007,8
27218,27218,2020-11-16 11:36:16.276,1.0000007,8
27228,27228,2020-11-16 11:36:46.276,1.0000007,8
27238,27238,2020-11-16 11:37:16.276,1.0000007,8
27248,27248,2020-11-16 11:37:46.276,1.0000007,8
27258,27258,2020-11-16 11:38:16.276,1.0000007,8
27268,27268,2020-11-16 11:38:46.276,1.0000007,8
27278,27278,2020-11-16 11:39:16.276,1.0000007,8
27288,27288,2020-11-16 11:39:46.276,1.0000007,8
27298,27298,2020-11-16 11:40:16.276,1.0000007,8
27308,27308,2020-11-16 11:40:46.276,1.0000007,8
27318,27318,2020-11-16 11:41:16.276,1.0000007,8
27328,27328,2020-11-16 11:41:46.276,1.0000007,8
27338,27338,2020-11-16 11:42:16.276,1.0000007,8
27348,27348,2020-11-16 11:42:46.276,1.0000007,8
27358,27358,2020-11-16 11:43:16.276,1.0000007,8
27368,27368,2020-11-16 11:43:46.276,1.0000007,8
27378,27378,2020-11-16 11:44:16.276,1.0000007,8
27388,27388,2020-11-16 11:44:46.276,1.0000007,8
27398,27398,2020-11-16 11:45:16.276,1.0000007,8
27408,27408,2020-11-16 11:45:46.276,1.0000007,8
27418,27418,2020-11-16 11:46:16.276,1.0000007,8
27428,27428,2020-11-16 11:46:46.276,1.0000007,8
27438,27438,2020-11-16 11:47:16.276,1.0000007,8
27448,27448,2020-11-16 11:47:46.276,1.0000007,8
27458,27458,2020-11-16 11:48:16.276,1.0000007,8
27468,27468,2020-11-16 11:48:46.276,1.0000007,8
27478,27478,2020-11-16 11:49:16.276,1.0000007,8
27488,27488,2020-11-16 11:49:46.276,1.0000007,8
27498,27498,2020-11-16 11:50:16.276,1.0000007,8
27508,27508,2020-11-16 11:50:46.276,1.0000007,8
27518,27518,2020-11-16 11:51:16.276,1.0000007,8
27528,27528,2020-11-16 11:51:46.276,1.0000007,8
27538,27538,2020-11-16 11:52:16.276,1.0000007,8
27548,27548,2020-11-16 11:52:46.276,1.0000007,8
27558,27558,2020-11-16 11:53:16.276,1.0000007,8
27568,27568,2020-11-16 11:53:46.276,1.0000007,8
27578,27578,2020-11-16 11:54:16.276,1.0000007,8
27588,27588,2020-11-16 11:54:46.276,1.0000007,8
27598,27598,2020-11-16 11:55:16.276,1.0000007,8
27608,27608,2020-11-16 11:55:46.276,1.0000007,8
27618,27618,2020-11-16 11:56:16.276,1.0000007,8
27628,27628,2020-11-16 11:56:46.276,1.0000007,8
27638,27638,2020-11-16 11:57:16.276,1.0000007,8
27648,27648,2020-11-16 11:57:46.276,1.0000007,8
27658,27658,2020-11-16 11:58:16.276,1.0000007,8
27668,27668,2020-11-16 11:58:46.276,1.0000007,8
27678,27678,2020-11-16 11:59:16.276,1.0000007,8
27688,27688,2020-11-16 11:59:46.276,1.0000007,8
27698,27698,2020-11-16 12:00:16.276,1.0000007,8
27708,27708,2020-11-16 12:00:46.276,1.0000007,8
27718,27718,2020-11-16 12:01:16.276,1.0000007,8
27728,27728,2020-11-16 12:01:46.276,1.0000007,8
27738,27738,2020-11-16 12:02:16.276,1.0000007,8
27748,27748,2020-11-16 12:02:46.276,1.0000007,8
27758,27758,2020-11-16 12:03:16.276,1.0000007,8
27768,27768,2020-11-16 12:03:46.276,1.0000007,8
27778,27778,2020-11-16 12:04:16.276,1.0000007,8
27788,27788,2020-11-16 12:04:46.276,1.0000007,8
27798,27798,2020-11-16 12:05:16.276,1.0000007,8
27808,27808,2020-11-16 12:05:46.276,1.0000007,8
27818,27818,2020-11-16 12:06:16.276,1.0000007,8
27828,27828,2020-11-16 12:06:46.276,1.0000007,8
27838,27838,2020-11-16 12:07:16.276,1.0000007,8
27848,27848,2020-11-16 12:07:46.276,1.0000007,8
27858,27858,2020-11-16 12:08:16.276,1.0000007,8
