name,time,countryCode,ipAddress,level,producer,value
SimulationLeftNumber,2020-11-16T09:31:36.187Z,IE,63.34.170.209,0,63.34.170.209,576
SimulationLeftNumber,2020-11-16T09:32:05.856Z,IE,63.34.170.209,0,63.34.170.209,575
SimulationLeftNumber,2020-11-16T09:32:35.915Z,IE,63.34.170.209,0,63.34.170.209,574
SimulationLeftNumber,2020-11-16T09:33:05.9Z,IE,63.34.170.209,0,63.34.170.209,573
SimulationLeftNumber,2020-11-16T09:33:35.95Z,IE,63.34.170.209,0,63.34.170.209,572
SimulationLeftNumber,2020-11-16T09:34:05.784Z,IE,63.34.170.209,0,63.34.170.209,571
SimulationLeftNumber,2020-11-16T09:34:35.804Z,IE,63.34.170.209,0,63.34.170.209,570
SimulationLeftNumber,2020-11-16T09:35:05.815Z,IE,63.34.170.209,0,63.34.170.209,569
SimulationLeftNumber,2020-11-16T09:35:35.836Z,IE,63.34.170.209,0,63.34.170.209,568
SimulationLeftNumber,2020-11-16T09:36:05.842Z,IE,63.34.170.209,0,63.34.170.209,567
SimulationLeftNumber,2020-11-16T09:36:35.835Z,IE,63.34.170.209,0,63.34.170.209,566
SimulationLeftNumber,2020-11-16T09:37:05.813Z,IE,63.34.170.209,0,63.34.170.209,565
SimulationLeftNumber,2020-11-16T09:37:35.793Z,IE,63.34.170.209,0,63.34.170.209,564
SimulationLeftNumber,2020-11-16T09:38:05.776Z,IE,63.34.170.209,0,63.34.170.209,563
SimulationLeftNumber,2020-11-16T09:38:35.789Z,IE,63.34.170.209,0,63.34.170.209,562
SimulationLeftNumber,2020-11-16T09:39:05.746Z,IE,63.34.170.209,0,63.34.170.209,562
SimulationLeftNumber,2020-11-16T09:39:35.768Z,IE,63.34.170.209,0,63.34.170.209,561
SimulationLeftNumber,2020-11-16T09:40:05.807Z,IE,63.34.170.209,0,63.34.170.209,560
SimulationLeftNumber,2020-11-16T09:40:35.792Z,IE,63.34.170.209,0,63.34.170.209,559
SimulationLeftNumber,2020-11-16T09:41:05.761Z,IE,63.34.170.209,0,63.34.170.209,558
SimulationLeftNumber,2020-11-16T09:41:35.764Z,IE,63.34.170.209,0,63.34.170.209,557
SimulationLeftNumber,2020-11-16T09:42:05.759Z,IE,63.34.170.209,0,63.34.170.209,556
SimulationLeftNumber,2020-11-16T09:42:35.848Z,IE,63.34.170.209,0,63.34.170.209,555
SimulationLeftNumber,2020-11-16T09:43:05.823Z,IE,63.34.170.209,0,63.34.170.209,554
SimulationLeftNumber,2020-11-16T09:43:35.756Z,IE,63.34.170.209,0,63.34.170.209,553
SimulationLeftNumber,2020-11-16T09:44:05.755Z,IE,63.34.170.209,0,63.34.170.209,551
SimulationLeftNumber,2020-11-16T09:44:35.814Z,IE,63.34.170.209,0,63.34.170.209,550
SimulationLeftNumber,2020-11-16T09:45:05.788Z,IE,63.34.170.209,0,63.34.170.209,549
SimulationLeftNumber,2020-11-16T09:45:35.766Z,IE,63.34.170.209,0,63.34.170.209,548
SimulationLeftNumber,2020-11-16T09:46:05.795Z,IE,63.34.170.209,0,63.34.170.209,547
SimulationLeftNumber,2020-11-16T09:46:35.753Z,IE,63.34.170.209,0,63.34.170.209,546
SimulationLeftNumber,2020-11-16T09:47:05.746Z,IE,63.34.170.209,0,63.34.170.209,545
SimulationLeftNumber,2020-11-16T09:47:35.752Z,IE,63.34.170.209,0,63.34.170.209,544
SimulationLeftNumber,2020-11-16T09:48:05.735Z,IE,63.34.170.209,0,63.34.170.209,544
SimulationLeftNumber,2020-11-16T09:48:35.762Z,IE,63.34.170.209,0,63.34.170.209,543
SimulationLeftNumber,2020-11-16T09:49:05.752Z,IE,63.34.170.209,0,63.34.170.209,542
SimulationLeftNumber,2020-11-16T09:49:35.743Z,IE,63.34.170.209,0,63.34.170.209,541
SimulationLeftNumber,2020-11-16T09:50:05.738Z,IE,63.34.170.209,0,63.34.170.209,540
SimulationLeftNumber,2020-11-16T09:50:35.788Z,IE,63.34.170.209,0,63.34.170.209,539
SimulationLeftNumber,2020-11-16T09:51:05.734Z,IE,63.34.170.209,0,63.34.170.209,538
SimulationLeftNumber,2020-11-16T09:51:35.759Z,IE,63.34.170.209,0,63.34.170.209,537
SimulationLeftNumber,2020-11-16T09:52:05.77Z,IE,63.34.170.209,0,63.34.170.209,536
SimulationLeftNumber,2020-11-16T09:52:35.725Z,IE,63.34.170.209,0,63.34.170.209,535
SimulationLeftNumber,2020-11-16T09:53:05.731Z,IE,63.34.170.209,0,63.34.170.209,535
SimulationLeftNumber,2020-11-16T09:53:35.766Z,IE,63.34.170.209,0,63.34.170.209,534
SimulationLeftNumber,2020-11-16T09:54:05.73Z,IE,63.34.170.209,0,63.34.170.209,533
SimulationLeftNumber,2020-11-16T09:54:35.837Z,IE,63.34.170.209,0,63.34.170.209,532
SimulationLeftNumber,2020-11-16T09:55:05.748Z,IE,63.34.170.209,0,63.34.170.209,531
SimulationLeftNumber,2020-11-16T09:55:35.736Z,IE,63.34.170.209,0,63.34.170.209,530
SimulationLeftNumber,2020-11-16T09:56:05.732Z,IE,63.34.170.209,0,63.34.170.209,529
SimulationLeftNumber,2020-11-16T09:56:35.728Z,IE,63.34.170.209,0,63.34.170.209,526
SimulationLeftNumber,2020-11-16T09:57:05.747Z,IE,63.34.170.209,0,63.34.170.209,525
SimulationLeftNumber,2020-11-16T09:57:35.742Z,IE,63.34.170.209,0,63.34.170.209,524
SimulationLeftNumber,2020-11-16T09:58:05.743Z,IE,63.34.170.209,0,63.34.170.209,523
SimulationLeftNumber,2020-11-16T09:58:35.739Z,IE,63.34.170.209,0,63.34.170.209,522
SimulationLeftNumber,2020-11-16T09:59:05.746Z,IE,63.34.170.209,0,63.34.170.209,521
SimulationLeftNumber,2020-11-16T09:59:35.749Z,IE,63.34.170.209,0,63.34.170.209,520
SimulationLeftNumber,2020-11-16T10:00:05.73Z,IE,63.34.170.209,0,63.34.170.209,519
SimulationLeftNumber,2020-11-16T10:00:35.779Z,IE,63.34.170.209,0,63.34.170.209,518
SimulationLeftNumber,2020-11-16T10:01:05.747Z,IE,63.34.170.209,0,63.34.170.209,517
SimulationLeftNumber,2020-11-16T10:01:35.746Z,IE,63.34.170.209,0,63.34.170.209,516
SimulationLeftNumber,2020-11-16T10:02:05.749Z,IE,63.34.170.209,0,63.34.170.209,515
SimulationLeftNumber,2020-11-16T10:02:35.747Z,IE,63.34.170.209,0,63.34.170.209,515
SimulationLeftNumber,2020-11-16T10:03:05.734Z,IE,63.34.170.209,0,63.34.170.209,514
SimulationLeftNumber,2020-11-16T10:03:35.763Z,IE,63.34.170.209,0,63.34.170.209,513
SimulationLeftNumber,2020-11-16T10:04:05.764Z,IE,63.34.170.209,0,63.34.170.209,512
SimulationLeftNumber,2020-11-16T10:04:35.733Z,IE,63.34.170.209,0,63.34.170.209,511
SimulationLeftNumber,2020-11-16T10:05:05.733Z,IE,63.34.170.209,0,63.34.170.209,510
SimulationLeftNumber,2020-11-16T10:05:35.739Z,IE,63.34.170.209,0,63.34.170.209,509
SimulationLeftNumber,2020-11-16T10:06:05.778Z,IE,63.34.170.209,0,63.34.170.209,508
SimulationLeftNumber,2020-11-16T10:06:35.732Z,IE,63.34.170.209,0,63.34.170.209,507
SimulationLeftNumber,2020-11-16T10:07:05.733Z,IE,63.34.170.209,0,63.34.170.209,506
SimulationLeftNumber,2020-11-16T10:07:35.766Z,IE,63.34.170.209,0,63.34.170.209,505
SimulationLeftNumber,2020-11-16T10:08:05.723Z,IE,63.34.170.209,0,63.34.170.209,501
SimulationLeftNumber,2020-11-16T10:08:35.734Z,IE,63.34.170.209,0,63.34.170.209,500
SimulationLeftNumber,2020-11-16T10:09:05.735Z,IE,63.34.170.209,0,63.34.170.209,499
SimulationLeftNumber,2020-11-16T10:09:35.748Z,IE,63.34.170.209,0,63.34.170.209,498
SimulationLeftNumber,2020-11-16T10:10:05.716Z,IE,63.34.170.209,0,63.34.170.209,497
SimulationLeftNumber,2020-11-16T10:10:35.716Z,IE,63.34.170.209,0,63.34.170.209,496
SimulationLeftNumber,2020-11-16T10:11:05.728Z,IE,63.34.170.209,0,63.34.170.209,495
SimulationLeftNumber,2020-11-16T10:11:35.808Z,IE,63.34.170.209,0,63.34.170.209,495
SimulationLeftNumber,2020-11-16T10:12:05.771Z,IE,63.34.170.209,0,63.34.170.209,494
SimulationLeftNumber,2020-11-16T10:12:35.804Z,IE,63.34.170.209,0,63.34.170.209,493
SimulationLeftNumber,2020-11-16T10:13:05.784Z,IE,63.34.170.209,0,63.34.170.209,492
SimulationLeftNumber,2020-11-16T10:13:35.738Z,IE,63.34.170.209,0,63.34.170.209,491
SimulationLeftNumber,2020-11-16T10:14:05.744Z,IE,63.34.170.209,0,63.34.170.209,490
SimulationLeftNumber,2020-11-16T10:14:35.764Z,IE,63.34.170.209,0,63.34.170.209,489
SimulationLeftNumber,2020-11-16T10:15:05.763Z,IE,63.34.170.209,0,63.34.170.209,488
SimulationLeftNumber,2020-11-16T10:15:35.759Z,IE,63.34.170.209,0,63.34.170.209,487
SimulationLeftNumber,2020-11-16T10:16:05.726Z,IE,63.34.170.209,0,63.34.170.209,486
SimulationLeftNumber,2020-11-16T10:16:35.759Z,IE,63.34.170.209,0,63.34.170.209,486
SimulationLeftNumber,2020-11-16T10:17:05.726Z,IE,63.34.170.209,0,63.34.170.209,485
SimulationLeftNumber,2020-11-16T10:17:35.747Z,IE,63.34.170.209,0,63.34.170.209,484
SimulationLeftNumber,2020-11-16T10:18:05.768Z,IE,63.34.170.209,0,63.34.170.209,483
SimulationLeftNumber,2020-11-16T10:18:35.735Z,IE,63.34.170.209,0,63.34.170.209,482
SimulationLeftNumber,2020-11-16T10:19:05.764Z,IE,63.34.170.209,0,63.34.170.209,481
SimulationLeftNumber,2020-11-16T10:19:35.725Z,IE,63.34.170.209,0,63.34.170.209,476
SimulationLeftNumber,2020-11-16T10:20:05.733Z,IE,63.34.170.209,0,63.34.170.209,475
SimulationLeftNumber,2020-11-16T10:20:35.741Z,IE,63.34.170.209,0,63.34.170.209,474
SimulationLeftNumber,2020-11-16T10:21:05.773Z,IE,63.34.170.209,0,63.34.170.209,473
SimulationLeftNumber,2020-11-16T10:21:35.727Z,IE,63.34.170.209,0,63.34.170.209,472
SimulationLeftNumber,2020-11-16T10:22:05.765Z,IE,63.34.170.209,0,63.34.170.209,471
SimulationLeftNumber,2020-11-16T10:22:35.74Z,IE,63.34.170.209,0,63.34.170.209,470
SimulationLeftNumber,2020-11-16T10:23:05.729Z,IE,63.34.170.209,0,63.34.170.209,469
SimulationLeftNumber,2020-11-16T10:23:35.737Z,IE,63.34.170.209,0,63.34.170.209,468
SimulationLeftNumber,2020-11-16T10:24:05.836Z,IE,63.34.170.209,0,63.34.170.209,467
SimulationLeftNumber,2020-11-16T10:24:35.732Z,IE,63.34.170.209,0,63.34.170.209,466
SimulationLeftNumber,2020-11-16T10:25:05.767Z,IE,63.34.170.209,0,63.34.170.209,465
SimulationLeftNumber,2020-11-16T10:25:35.716Z,IE,63.34.170.209,0,63.34.170.209,464
SimulationLeftNumber,2020-11-16T10:26:05.761Z,IE,63.34.170.209,0,63.34.170.209,463
SimulationLeftNumber,2020-11-16T10:26:35.723Z,IE,63.34.170.209,0,63.34.170.209,463
SimulationLeftNumber,2020-11-16T10:27:05.725Z,IE,63.34.170.209,0,63.34.170.209,462
SimulationLeftNumber,2020-11-16T10:27:35.847Z,IE,63.34.170.209,0,63.34.170.209,461
SimulationLeftNumber,2020-11-16T10:28:05.738Z,IE,63.34.170.209,0,63.34.170.209,460
SimulationLeftNumber,2020-11-16T10:28:35.755Z,IE,63.34.170.209,0,63.34.170.209,459
SimulationLeftNumber,2020-11-16T10:29:05.735Z,IE,63.34.170.209,0,63.34.170.209,458
SimulationLeftNumber,2020-11-16T10:29:35.731Z,IE,63.34.170.209,0,63.34.170.209,457
SimulationLeftNumber,2020-11-16T10:30:05.723Z,IE,63.34.170.209,0,63.34.170.209,451
SimulationLeftNumber,2020-11-16T10:30:35.739Z,IE,63.34.170.209,0,63.34.170.209,450
SimulationLeftNumber,2020-11-16T10:31:05.726Z,IE,63.34.170.209,0,63.34.170.209,449
SimulationLeftNumber,2020-11-16T10:31:35.727Z,IE,63.34.170.209,0,63.34.170.209,448
SimulationLeftNumber,2020-11-16T10:32:05.762Z,IE,63.34.170.209,0,63.34.170.209,447
SimulationLeftNumber,2020-11-16T10:32:35.756Z,IE,63.34.170.209,0,63.34.170.209,446
SimulationLeftNumber,2020-11-16T10:33:05.738Z,IE,63.34.170.209,0,63.34.170.209,445
SimulationLeftNumber,2020-11-16T10:33:35.743Z,IE,63.34.170.209,0,63.34.170.209,444
SimulationLeftNumber,2020-11-16T10:34:05.811Z,IE,63.34.170.209,0,63.34.170.209,443
SimulationLeftNumber,2020-11-16T10:34:35.761Z,IE,63.34.170.209,0,63.34.170.209,442
SimulationLeftNumber,2020-11-16T10:35:05.735Z,IE,63.34.170.209,0,63.34.170.209,442
SimulationLeftNumber,2020-11-16T10:35:35.72Z,IE,63.34.170.209,0,63.34.170.209,441
SimulationLeftNumber,2020-11-16T10:36:05.747Z,IE,63.34.170.209,0,63.34.170.209,440
SimulationLeftNumber,2020-11-16T10:36:35.717Z,IE,63.34.170.209,0,63.34.170.209,439
SimulationLeftNumber,2020-11-16T10:37:05.723Z,IE,63.34.170.209,0,63.34.170.209,438
SimulationLeftNumber,2020-11-16T10:37:35.723Z,IE,63.34.170.209,0,63.34.170.209,437
SimulationLeftNumber,2020-11-16T10:38:05.721Z,IE,63.34.170.209,0,63.34.170.209,436
SimulationLeftNumber,2020-11-16T10:38:35.77Z,IE,63.34.170.209,0,63.34.170.209,435
SimulationLeftNumber,2020-11-16T10:39:05.736Z,IE,63.34.170.209,0,63.34.170.209,434
SimulationLeftNumber,2020-11-16T10:39:35.839Z,IE,63.34.170.209,0,63.34.170.209,433
SimulationLeftNumber,2020-11-16T10:40:05.755Z,IE,63.34.170.209,0,63.34.170.209,427
SimulationLeftNumber,2020-11-16T10:40:35.721Z,IE,63.34.170.209,0,63.34.170.209,425
SimulationLeftNumber,2020-11-16T10:41:05.745Z,IE,63.34.170.209,0,63.34.170.209,424
SimulationLeftNumber,2020-11-16T10:41:35.732Z,IE,63.34.170.209,0,63.34.170.209,423
SimulationLeftNumber,2020-11-16T10:42:05.803Z,IE,63.34.170.209,0,63.34.170.209,422
SimulationLeftNumber,2020-11-16T10:42:35.715Z,IE,63.34.170.209,0,63.34.170.209,421
SimulationLeftNumber,2020-11-16T10:43:05.721Z,IE,63.34.170.209,0,63.34.170.209,421
SimulationLeftNumber,2020-11-16T10:43:35.738Z,IE,63.34.170.209,0,63.34.170.209,420
SimulationLeftNumber,2020-11-16T10:44:05.727Z,IE,63.34.170.209,0,63.34.170.209,419
SimulationLeftNumber,2020-11-16T10:44:35.736Z,IE,63.34.170.209,0,63.34.170.209,418
SimulationLeftNumber,2020-11-16T10:45:05.719Z,IE,63.34.170.209,0,63.34.170.209,417
SimulationLeftNumber,2020-11-16T10:45:35.735Z,IE,63.34.170.209,0,63.34.170.209,416
SimulationLeftNumber,2020-11-16T10:46:05.716Z,IE,63.34.170.209,0,63.34.170.209,415
SimulationLeftNumber,2020-11-16T10:46:35.719Z,IE,63.34.170.209,0,63.34.170.209,414
SimulationLeftNumber,2020-11-16T10:47:05.716Z,IE,63.34.170.209,0,63.34.170.209,413
SimulationLeftNumber,2020-11-16T10:47:35.818Z,IE,63.34.170.209,0,63.34.170.209,412
SimulationLeftNumber,2020-11-16T10:48:05.73Z,IE,63.34.170.209,0,63.34.170.209,411
SimulationLeftNumber,2020-11-16T10:48:35.721Z,IE,63.34.170.209,0,63.34.170.209,410
SimulationLeftNumber,2020-11-16T10:49:05.743Z,IE,63.34.170.209,0,63.34.170.209,409
SimulationLeftNumber,2020-11-16T10:49:35.753Z,IE,63.34.170.209,0,63.34.170.209,401
SimulationLeftNumber,2020-11-16T10:50:05.743Z,IE,63.34.170.209,0,63.34.170.209,400
SimulationLeftNumber,2020-11-16T10:50:35.754Z,IE,63.34.170.209,0,63.34.170.209,399
SimulationLeftNumber,2020-11-16T10:51:05.768Z,IE,63.34.170.209,0,63.34.170.209,398
SimulationLeftNumber,2020-11-16T10:51:35.74Z,IE,63.34.170.209,0,63.34.170.209,397
SimulationLeftNumber,2020-11-16T10:52:05.748Z,IE,63.34.170.209,0,63.34.170.209,396
SimulationLeftNumber,2020-11-16T10:52:35.725Z,IE,63.34.170.209,0,63.34.170.209,395
SimulationLeftNumber,2020-11-16T10:53:05.725Z,IE,63.34.170.209,0,63.34.170.209,395
SimulationLeftNumber,2020-11-16T10:53:35.728Z,IE,63.34.170.209,0,63.34.170.209,394
SimulationLeftNumber,2020-11-16T10:54:05.719Z,IE,63.34.170.209,0,63.34.170.209,393
SimulationLeftNumber,2020-11-16T10:54:35.746Z,IE,63.34.170.209,0,63.34.170.209,392
SimulationLeftNumber,2020-11-16T10:55:05.752Z,IE,63.34.170.209,0,63.34.170.209,391
SimulationLeftNumber,2020-11-16T10:55:35.73Z,IE,63.34.170.209,0,63.34.170.209,390
SimulationLeftNumber,2020-11-16T10:56:05.747Z,IE,63.34.170.209,0,63.34.170.209,389
SimulationLeftNumber,2020-11-16T10:56:35.72Z,IE,63.34.170.209,0,63.34.170.209,388
SimulationLeftNumber,2020-11-16T10:57:05.729Z,IE,63.34.170.209,0,63.34.170.209,387
SimulationLeftNumber,2020-11-16T10:57:35.721Z,IE,63.34.170.209,0,63.34.170.209,387
SimulationLeftNumber,2020-11-16T10:58:05.718Z,IE,63.34.170.209,0,63.34.170.209,386
SimulationLeftNumber,2020-11-16T10:58:35.726Z,IE,63.34.170.209,0,63.34.170.209,385
SimulationLeftNumber,2020-11-16T10:59:05.751Z,IE,63.34.170.209,0,63.34.170.209,375
SimulationLeftNumber,2020-11-16T10:59:35.726Z,IE,63.34.170.209,0,63.34.170.209,374
SimulationLeftNumber,2020-11-16T11:00:05.718Z,IE,63.34.170.209,0,63.34.170.209,373
SimulationLeftNumber,2020-11-16T11:00:35.723Z,IE,63.34.170.209,0,63.34.170.209,372
SimulationLeftNumber,2020-11-16T11:01:05.754Z,IE,63.34.170.209,0,63.34.170.209,371
SimulationLeftNumber,2020-11-16T11:01:35.716Z,IE,63.34.170.209,0,63.34.170.209,371
SimulationLeftNumber,2020-11-16T11:02:05.728Z,IE,63.34.170.209,0,63.34.170.209,370
SimulationLeftNumber,2020-11-16T11:02:35.741Z,IE,63.34.170.209,0,63.34.170.209,369
SimulationLeftNumber,2020-11-16T11:03:05.723Z,IE,63.34.170.209,0,63.34.170.209,368
SimulationLeftNumber,2020-11-16T11:03:35.727Z,IE,63.34.170.209,0,63.34.170.209,367
SimulationLeftNumber,2020-11-16T11:04:05.721Z,IE,63.34.170.209,0,63.34.170.209,366
SimulationLeftNumber,2020-11-16T11:04:35.767Z,IE,63.34.170.209,0,63.34.170.209,365
SimulationLeftNumber,2020-11-16T11:05:05.734Z,IE,63.34.170.209,0,63.34.170.209,364
SimulationLeftNumber,2020-11-16T11:05:35.72Z,IE,63.34.170.209,0,63.34.170.209,363
SimulationLeftNumber,2020-11-16T11:06:05.729Z,IE,63.34.170.209,0,63.34.170.209,362
SimulationLeftNumber,2020-11-16T11:06:35.739Z,IE,63.34.170.209,0,63.34.170.209,361
SimulationLeftNumber,2020-11-16T11:07:05.724Z,IE,63.34.170.209,0,63.34.170.209,351
SimulationLeftNumber,2020-11-16T11:07:35.769Z,IE,63.34.170.209,0,63.34.170.209,350
SimulationLeftNumber,2020-11-16T11:08:05.723Z,IE,63.34.170.209,0,63.34.170.209,349
SimulationLeftNumber,2020-11-16T11:08:35.718Z,IE,63.34.170.209,0,63.34.170.209,348
SimulationLeftNumber,2020-11-16T11:09:05.725Z,IE,63.34.170.209,0,63.34.170.209,347
SimulationLeftNumber,2020-11-16T11:09:35.724Z,IE,63.34.170.209,0,63.34.170.209,346
SimulationLeftNumber,2020-11-16T11:10:05.715Z,IE,63.34.170.209,0,63.34.170.209,345
SimulationLeftNumber,2020-11-16T11:10:35.719Z,IE,63.34.170.209,0,63.34.170.209,344
SimulationLeftNumber,2020-11-16T11:11:05.732Z,IE,63.34.170.209,0,63.34.170.209,344
SimulationLeftNumber,2020-11-16T11:11:35.722Z,IE,63.34.170.209,0,63.34.170.209,343
SimulationLeftNumber,2020-11-16T11:12:05.73Z,IE,63.34.170.209,0,63.34.170.209,342
SimulationLeftNumber,2020-11-16T11:12:35.73Z,IE,63.34.170.209,0,63.34.170.209,341
SimulationLeftNumber,2020-11-16T11:13:05.721Z,IE,63.34.170.209,0,63.34.170.209,340
SimulationLeftNumber,2020-11-16T11:13:35.719Z,IE,63.34.170.209,0,63.34.170.209,339
SimulationLeftNumber,2020-11-16T11:14:05.763Z,IE,63.34.170.209,0,63.34.170.209,338
SimulationLeftNumber,2020-11-16T11:14:35.727Z,IE,63.34.170.209,0,63.34.170.209,337
SimulationLeftNumber,2020-11-16T11:15:05.763Z,IE,63.34.170.209,0,63.34.170.209,326
SimulationLeftNumber,2020-11-16T11:15:35.724Z,IE,63.34.170.209,0,63.34.170.209,325
SimulationLeftNumber,2020-11-16T11:16:05.724Z,IE,63.34.170.209,0,63.34.170.209,324
SimulationLeftNumber,2020-11-16T11:16:35.728Z,IE,63.34.170.209,0,63.34.170.209,323
SimulationLeftNumber,2020-11-16T11:17:05.743Z,IE,63.34.170.209,0,63.34.170.209,322
SimulationLeftNumber,2020-11-16T11:17:35.731Z,IE,63.34.170.209,0,63.34.170.209,321
SimulationLeftNumber,2020-11-16T11:18:05.717Z,IE,63.34.170.209,0,63.34.170.209,320
SimulationLeftNumber,2020-11-16T11:18:35.729Z,IE,63.34.170.209,0,63.34.170.209,319
SimulationLeftNumber,2020-11-16T11:19:05.744Z,IE,63.34.170.209,0,63.34.170.209,318
SimulationLeftNumber,2020-11-16T11:19:35.735Z,IE,63.34.170.209,0,63.34.170.209,317
SimulationLeftNumber,2020-11-16T11:20:05.721Z,IE,63.34.170.209,0,63.34.170.209,317
SimulationLeftNumber,2020-11-16T11:20:35.731Z,IE,63.34.170.209,0,63.34.170.209,316
SimulationLeftNumber,2020-11-16T11:21:05.766Z,IE,63.34.170.209,0,63.34.170.209,315
SimulationLeftNumber,2020-11-16T11:21:35.736Z,IE,63.34.170.209,0,63.34.170.209,314
SimulationLeftNumber,2020-11-16T11:22:05.731Z,IE,63.34.170.209,0,63.34.170.209,313
SimulationLeftNumber,2020-11-16T11:22:35.758Z,IE,63.34.170.209,0,63.34.170.209,300
SimulationLeftNumber,2020-11-16T11:23:05.741Z,IE,63.34.170.209,0,63.34.170.209,299
SimulationLeftNumber,2020-11-16T11:23:35.736Z,IE,63.34.170.209,0,63.34.170.209,299
SimulationLeftNumber,2020-11-16T11:24:05.785Z,IE,63.34.170.209,0,63.34.170.209,298
SimulationLeftNumber,2020-11-16T11:24:35.726Z,IE,63.34.170.209,0,63.34.170.209,297
SimulationLeftNumber,2020-11-16T11:25:05.727Z,IE,63.34.170.209,0,63.34.170.209,296
SimulationLeftNumber,2020-11-16T11:25:35.751Z,IE,63.34.170.209,0,63.34.170.209,295
SimulationLeftNumber,2020-11-16T11:26:05.728Z,IE,63.34.170.209,0,63.34.170.209,294
SimulationLeftNumber,2020-11-16T11:26:35.78Z,IE,63.34.170.209,0,63.34.170.209,293
SimulationLeftNumber,2020-11-16T11:27:05.736Z,IE,63.34.170.209,0,63.34.170.209,292
SimulationLeftNumber,2020-11-16T11:27:35.725Z,IE,63.34.170.209,0,63.34.170.209,291
SimulationLeftNumber,2020-11-16T11:28:05.717Z,IE,63.34.170.209,0,63.34.170.209,291
SimulationLeftNumber,2020-11-16T11:28:35.739Z,IE,63.34.170.209,0,63.34.170.209,290
SimulationLeftNumber,2020-11-16T11:29:05.727Z,IE,63.34.170.209,0,63.34.170.209,289
SimulationLeftNumber,2020-11-16T11:29:35.736Z,IE,63.34.170.209,0,63.34.170.209,275
SimulationLeftNumber,2020-11-16T11:30:05.727Z,IE,63.34.170.209,0,63.34.170.209,274
SimulationLeftNumber,2020-11-16T11:30:35.726Z,IE,63.34.170.209,0,63.34.170.209,273
SimulationLeftNumber,2020-11-16T11:31:05.742Z,IE,63.34.170.209,0,63.34.170.209,273
SimulationLeftNumber,2020-11-16T11:31:35.731Z,IE,63.34.170.209,0,63.34.170.209,272
SimulationLeftNumber,2020-11-16T11:32:05.761Z,IE,63.34.170.209,0,63.34.170.209,271
SimulationLeftNumber,2020-11-16T11:32:35.729Z,IE,63.34.170.209,0,63.34.170.209,270
SimulationLeftNumber,2020-11-16T11:33:05.734Z,IE,63.34.170.209,0,63.34.170.209,269
SimulationLeftNumber,2020-11-16T11:33:35.725Z,IE,63.34.170.209,0,63.34.170.209,268
SimulationLeftNumber,2020-11-16T11:34:05.745Z,IE,63.34.170.209,0,63.34.170.209,267
SimulationLeftNumber,2020-11-16T11:34:35.732Z,IE,63.34.170.209,0,63.34.170.209,266
SimulationLeftNumber,2020-11-16T11:35:05.775Z,IE,63.34.170.209,0,63.34.170.209,265
SimulationLeftNumber,2020-11-16T11:35:35.743Z,IE,63.34.170.209,0,63.34.170.209,251
SimulationLeftNumber,2020-11-16T11:36:05.735Z,IE,63.34.170.209,0,63.34.170.209,250
SimulationLeftNumber,2020-11-16T11:36:35.733Z,IE,63.34.170.209,0,63.34.170.209,249
SimulationLeftNumber,2020-11-16T11:37:05.737Z,IE,63.34.170.209,0,63.34.170.209,248
SimulationLeftNumber,2020-11-16T11:37:35.743Z,IE,63.34.170.209,0,63.34.170.209,247
SimulationLeftNumber,2020-11-16T11:38:05.734Z,IE,63.34.170.209,0,63.34.170.209,246
SimulationLeftNumber,2020-11-16T11:38:35.741Z,IE,63.34.170.209,0,63.34.170.209,245
SimulationLeftNumber,2020-11-16T11:39:05.739Z,IE,63.34.170.209,0,63.34.170.209,244
SimulationLeftNumber,2020-11-16T11:39:35.734Z,IE,63.34.170.209,0,63.34.170.209,243
SimulationLeftNumber,2020-11-16T11:40:05.734Z,IE,63.34.170.209,0,63.34.170.209,243
SimulationLeftNumber,2020-11-16T11:40:35.725Z,IE,63.34.170.209,0,63.34.170.209,242
SimulationLeftNumber,2020-11-16T11:41:05.744Z,IE,63.34.170.209,0,63.34.170.209,241
SimulationLeftNumber,2020-11-16T11:41:35.732Z,IE,63.34.170.209,0,63.34.170.209,225
SimulationLeftNumber,2020-11-16T11:42:05.789Z,IE,63.34.170.209,0,63.34.170.209,224
SimulationLeftNumber,2020-11-16T11:42:35.729Z,IE,63.34.170.209,0,63.34.170.209,223
SimulationLeftNumber,2020-11-16T11:43:05.774Z,IE,63.34.170.209,0,63.34.170.209,223
SimulationLeftNumber,2020-11-16T11:43:35.775Z,IE,63.34.170.209,0,63.34.170.209,222
SimulationLeftNumber,2020-11-16T11:44:05.758Z,IE,63.34.170.209,0,63.34.170.209,221
SimulationLeftNumber,2020-11-16T11:44:35.742Z,IE,63.34.170.209,0,63.34.170.209,220
SimulationLeftNumber,2020-11-16T11:45:05.756Z,IE,63.34.170.209,0,63.34.170.209,219
SimulationLeftNumber,2020-11-16T11:45:35.802Z,IE,63.34.170.209,0,63.34.170.209,218
SimulationLeftNumber,2020-11-16T11:46:05.733Z,IE,63.34.170.209,0,63.34.170.209,217
SimulationLeftNumber,2020-11-16T11:46:35.741Z,IE,63.34.170.209,0,63.34.170.209,201
SimulationLeftNumber,2020-11-16T11:47:05.773Z,IE,63.34.170.209,0,63.34.170.209,200
SimulationLeftNumber,2020-11-16T11:47:35.751Z,IE,63.34.170.209,0,63.34.170.209,199
SimulationLeftNumber,2020-11-16T11:48:05.736Z,IE,63.34.170.209,0,63.34.170.209,198
SimulationLeftNumber,2020-11-16T11:48:35.743Z,IE,63.34.170.209,0,63.34.170.209,197
SimulationLeftNumber,2020-11-16T11:49:05.791Z,IE,63.34.170.209,0,63.34.170.209,196
SimulationLeftNumber,2020-11-16T11:49:35.729Z,IE,63.34.170.209,0,63.34.170.209,195
SimulationLeftNumber,2020-11-16T11:50:05.743Z,IE,63.34.170.209,0,63.34.170.209,194
SimulationLeftNumber,2020-11-16T11:50:35.726Z,IE,63.34.170.209,0,63.34.170.209,193
SimulationLeftNumber,2020-11-16T11:51:05.727Z,IE,63.34.170.209,0,63.34.170.209,178
SimulationLeftNumber,2020-11-16T11:51:35.774Z,IE,63.34.170.209,0,63.34.170.209,175
SimulationLeftNumber,2020-11-16T11:52:05.739Z,IE,63.34.170.209,0,63.34.170.209,174
SimulationLeftNumber,2020-11-16T11:52:35.758Z,IE,63.34.170.209,0,63.34.170.209,173
SimulationLeftNumber,2020-11-16T11:53:05.729Z,IE,63.34.170.209,0,63.34.170.209,173
SimulationLeftNumber,2020-11-16T11:53:35.752Z,IE,63.34.170.209,0,63.34.170.209,172
SimulationLeftNumber,2020-11-16T11:54:05.743Z,IE,63.34.170.209,0,63.34.170.209,171
SimulationLeftNumber,2020-11-16T11:54:35.73Z,IE,63.34.170.209,0,63.34.170.209,170
SimulationLeftNumber,2020-11-16T11:55:05.73Z,IE,63.34.170.209,0,63.34.170.209,169
SimulationLeftNumber,2020-11-16T11:55:35.736Z,IE,63.34.170.209,0,63.34.170.209,151
SimulationLeftNumber,2020-11-16T11:56:05.735Z,IE,63.34.170.209,0,63.34.170.209,150
SimulationLeftNumber,2020-11-16T11:56:35.735Z,IE,63.34.170.209,0,63.34.170.209,149
SimulationLeftNumber,2020-11-16T11:57:05.728Z,IE,63.34.170.209,0,63.34.170.209,148
SimulationLeftNumber,2020-11-16T11:57:35.749Z,IE,63.34.170.209,0,63.34.170.209,147
SimulationLeftNumber,2020-11-16T11:58:05.735Z,IE,63.34.170.209,0,63.34.170.209,146
SimulationLeftNumber,2020-11-16T11:58:35.729Z,IE,63.34.170.209,0,63.34.170.209,146
SimulationLeftNumber,2020-11-16T11:59:05.765Z,IE,63.34.170.209,0,63.34.170.209,145
SimulationLeftNumber,2020-11-16T11:59:35.741Z,IE,63.34.170.209,0,63.34.170.209,125
SimulationLeftNumber,2020-11-16T12:00:05.823Z,IE,63.34.170.209,0,63.34.170.209,125
SimulationLeftNumber,2020-11-16T12:00:35.734Z,IE,63.34.170.209,0,63.34.170.209,124
SimulationLeftNumber,2020-11-16T12:01:05.729Z,IE,63.34.170.209,0,63.34.170.209,123
SimulationLeftNumber,2020-11-16T12:01:35.733Z,IE,63.34.170.209,0,63.34.170.209,122
SimulationLeftNumber,2020-11-16T12:02:05.734Z,IE,63.34.170.209,0,63.34.170.209,121
SimulationLeftNumber,2020-11-16T12:02:35.745Z,IE,63.34.170.209,0,63.34.170.209,101
SimulationLeftNumber,2020-11-16T12:03:05.734Z,IE,63.34.170.209,0,63.34.170.209,100
SimulationLeftNumber,2020-11-16T12:03:35.757Z,IE,63.34.170.209,0,63.34.170.209,99
SimulationLeftNumber,2020-11-16T12:04:05.733Z,IE,63.34.170.209,0,63.34.170.209,98
SimulationLeftNumber,2020-11-16T12:04:35.758Z,IE,63.34.170.209,0,63.34.170.209,97
SimulationLeftNumber,2020-11-16T12:05:05.749Z,IE,63.34.170.209,0,63.34.170.209,76
SimulationLeftNumber,2020-11-16T12:05:35.738Z,IE,63.34.170.209,0,63.34.170.209,75
SimulationLeftNumber,2020-11-16T12:06:05.737Z,IE,63.34.170.209,0,63.34.170.209,74
SimulationLeftNumber,2020-11-16T12:06:35.747Z,IE,63.34.170.209,0,63.34.170.209,73
SimulationLeftNumber,2020-11-16T12:07:05.74Z,IE,63.34.170.209,0,63.34.170.209,51
SimulationLeftNumber,2020-11-16T12:07:35.737Z,IE,63.34.170.209,0,63.34.170.209,50
SimulationLeftNumber,2020-11-16T12:08:05.737Z,IE,63.34.170.209,0,63.34.170.209,49
SimulationLeftNumber,2020-11-16T12:08:35.732Z,IE,63.34.170.209,0,63.34.170.209,26
SimulationLeftNumber,2020-11-16T12:09:05.735Z,IE,63.34.170.209,0,63.34.170.209,25
SimulationLeftNumber,2020-11-16T12:09:35.779Z,IE,63.34.170.209,0,63.34.170.209,0
