,Unnamed: 0,time,prediction,real,step
3795,3795,2021-01-22 12:30:17.327,7962.880999999999,6878.7,5
3805,3805,2021-01-22 12:30:47.327,7836.5117,6902.7,5
3815,3815,2021-01-22 12:31:17.327,7535.1978,7013.7,5
3825,3825,2021-01-22 12:31:47.327,7470.7837,7027.325,5
3835,3835,2021-01-22 12:32:17.327,7108.7993,7051.325,5
3845,3845,2021-01-22 12:32:47.327,7067.687,7054.575,5
3855,3855,2021-01-22 12:33:17.327,7063.057,7175.2,5
3865,3865,2021-01-22 12:33:47.327,7075.363,7200.7,5
3875,3875,2021-01-22 12:34:17.327,7211.3125,7226.2,5
3885,3885,2021-01-22 12:34:47.327,7214.1055,7226.2,5
3895,3895,2021-01-22 12:35:17.327,7214.856,7239.7,5
3905,3905,2021-01-22 12:35:47.327,7202.1636,7253.2,5
3915,3915,2021-01-22 12:36:17.327,7288.691999999999,7266.7,5
3925,3925,2021-01-22 12:36:47.327,7316.3438,7280.2,5
3935,3935,2021-01-22 12:37:17.327,7327.6294,7399.825,5
3945,3945,2021-01-22 12:37:47.327,7330.81,7413.2,5
3955,3955,2021-01-22 12:38:17.327,7335.4893,7426.575,5
3965,3965,2021-01-22 12:38:47.327,7339.3315,7439.95,5
3975,3975,2021-01-22 12:39:17.327,7351.059,7558.95,5
3985,3985,2021-01-22 12:39:47.327,7363.3604,7572.2,5
3995,3995,2021-01-22 12:40:17.327,7421.6016,7585.45,5
4005,4005,2021-01-22 12:40:47.327,7462.3730000000005,7472.2,5
4015,4015,2021-01-22 12:41:17.327,7501.5083,7496.2,5
4025,4025,2021-01-22 12:41:47.327,7534.6157,7383.7,5
4035,4035,2021-01-22 12:42:17.327,7602.7627,7407.7,5
4045,4045,2021-01-22 12:42:47.327,7653.1094,7431.7,5
4055,4055,2021-01-22 12:43:17.327,7695.85,7424.2,5
4065,4065,2021-01-22 12:43:47.327,7645.981,7448.2,5
4075,4075,2021-01-22 12:44:17.327,7663.1597,7472.2,5
4085,4085,2021-01-22 12:44:47.327,7519.245,7475.2,5
4095,4095,2021-01-22 12:45:17.327,7545.979,7488.7,5
4105,4105,2021-01-22 12:45:47.327,7571.5728,7512.7,5
4115,4115,2021-01-22 12:46:17.327,7546.562,7515.7,5
4125,4125,2021-01-22 12:46:47.327,7567.898,7541.2,5
4135,4135,2021-01-22 12:47:17.327,7592.4,7556.2,5
4145,4145,2021-01-22 12:47:47.327,7585.3643,7556.2,5
4155,4155,2021-01-22 12:48:17.327,7592.545,7672.825,5
4165,4165,2021-01-22 12:48:47.327,7615.3325,7696.825,5
4175,4175,2021-01-22 12:49:17.327,7611.092,7699.575,5
4185,4185,2021-01-22 12:49:47.327,7636.2,7712.95,5
4195,4195,2021-01-22 12:50:17.327,7644.8506,7736.95,5
4205,4205,2021-01-22 12:50:47.327,7636.477,7750.325,5
4215,4215,2021-01-22 12:51:17.327,7704.5166,7763.7,5
4225,4225,2021-01-22 12:51:47.327,7732.956,7777.075,5
4235,4235,2021-01-22 12:52:17.327,7753.081,7790.45,5
4245,4245,2021-01-22 12:52:47.327,7771.1753,7803.825,5
4255,4255,2021-01-22 12:53:17.327,7789.319,7908.45,5
4265,4265,2021-01-22 12:53:47.327,7803.8125,7932.45,5
4275,4275,2021-01-22 12:54:17.327,7816.9014,7945.7,5
4285,4285,2021-01-22 12:54:47.327,7828.9214,7713.7,5
4295,4295,2021-01-22 12:55:17.327,7848.682,7737.7,5
4305,4305,2021-01-22 12:55:47.327,7867.87,7639.825,5
4315,4315,2021-01-22 12:56:17.327,7912.956999999999,7754.2,5
4325,4325,2021-01-22 12:56:47.327,7953.4385,7778.2,5
4335,4335,2021-01-22 12:57:17.327,7993.3877,7680.7,5
4345,4345,2021-01-22 12:57:47.327,7788.524,7694.325,5
4355,4355,2021-01-22 12:58:17.327,7827.1743,7718.325,5
4365,4365,2021-01-22 12:58:47.327,7717.5195,7721.575,5
4375,4375,2021-01-22 12:59:17.327,7852.3438,7745.575,5
4385,4385,2021-01-22 12:59:47.327,7903.4155,7759.2,5
4395,4395,2021-01-22 13:00:17.327,7758.903,7872.7,5
4405,4405,2021-01-22 13:00:47.327,7764.433000000001,7886.2,5
4415,4415,2021-01-22 13:01:17.327,7800.9175,7899.7,5
4425,4425,2021-01-22 13:01:47.327,7816.081,7913.2,5
4435,4435,2021-01-22 13:02:17.327,7849.221,7926.7,5
4445,4445,2021-01-22 13:02:47.327,7863.391,7940.2,5
4455,4455,2021-01-22 13:03:17.327,7969.1646,7953.7,5
4465,4465,2021-01-22 13:03:47.327,7982.3859999999995,7967.2,5
4475,4475,2021-01-22 13:04:17.327,7987.2905,7991.2,5
4485,4485,2021-01-22 13:04:47.327,7991.8857,8104.95,5
4495,4495,2021-01-22 13:05:17.327,7995.355,8130.325,5
4505,4505,2021-01-22 13:05:47.327,7997.0786,8145.075,5
4515,4515,2021-01-22 13:06:17.327,8009.031999999999,8145.075,5
4525,4525,2021-01-22 13:06:47.327,8022.755999999999,8170.45,5
4535,4535,2021-01-22 13:07:17.327,8041.616999999999,8170.45,5
4545,4545,2021-01-22 13:07:47.327,8085.7407,8183.825,5
4555,4555,2021-01-22 13:08:17.327,8127.773,8197.2,5
4565,4565,2021-01-22 13:08:47.327,8168.0596,8210.575,5
4575,4575,2021-01-22 13:09:17.327,8202.098,8084.2,5
4585,4585,2021-01-22 13:09:47.327,8236.804,7990.2,5
4595,4595,2021-01-22 13:10:17.327,8263.259,8003.825,5
4605,4605,2021-01-22 13:10:47.327,8287.49,8027.825,5
4615,4615,2021-01-22 13:11:17.327,8307.9,8031.075,5
4625,4625,2021-01-22 13:11:47.327,8327.289,8055.075,5
4635,4635,2021-01-22 13:12:17.327,8196.553,8068.7,5
4645,4645,2021-01-22 13:12:47.327,8078.4946,8071.95,5
4655,4655,2021-01-22 13:13:17.327,8087.5225,8095.95,5
4665,4665,2021-01-22 13:13:47.327,8122.503000000001,8109.575,5
4675,4675,2021-01-22 13:14:17.327,8147.6895,8208.7,5
4685,4685,2021-01-22 13:14:47.327,8189.5825,8232.7,5
4695,4695,2021-01-22 13:15:17.327,8198.976999999999,8246.2,5
4705,4705,2021-01-22 13:15:47.327,8188.723000000001,8249.2,5
4715,4715,2021-01-22 13:16:17.327,8216.16,8273.2,5
4725,4725,2021-01-22 13:16:47.327,8225.945,8286.7,5
4735,4735,2021-01-22 13:17:17.327,8304.835,8300.2,5
4745,4745,2021-01-22 13:17:47.327,8314.313,8313.7,5
4755,4755,2021-01-22 13:18:17.327,8327.694,8333.95,5
4765,4765,2021-01-22 13:18:47.327,8333.876,8354.2,5
4775,4775,2021-01-22 13:19:17.327,8344.678,8354.2,5
4785,4785,2021-01-22 13:19:47.327,8353.629,8367.7,5
4795,4795,2021-01-22 13:20:17.327,8363.81,8381.2,5
4805,4805,2021-01-22 13:20:47.327,8374.953000000001,8394.7,5
4815,4815,2021-01-22 13:21:17.327,8389.0,8408.2,5
4825,4825,2021-01-22 13:21:47.327,8404.537,8421.7,5
4835,4835,2021-01-22 13:22:17.327,8415.839,8445.7,5
4845,4845,2021-01-22 13:22:47.327,8433.653,8219.95,5
4855,4855,2021-01-22 13:23:17.327,8451.788,8213.2,5
4865,4865,2021-01-22 13:23:47.327,8470.091,8237.2,5
4875,4875,2021-01-22 13:24:17.327,8488.287,8261.2,5
4885,4885,2021-01-22 13:24:47.327,8506.458,8254.45,5
4895,4895,2021-01-22 13:25:17.327,8531.483,8278.45,5
4905,4905,2021-01-22 13:25:47.327,8289.885,8302.45,5
4915,4915,2021-01-22 13:26:17.327,8287.608,8312.825,5
4925,4925,2021-01-22 13:26:47.327,8318.978000000001,8343.7,5
4935,4935,2021-01-22 13:27:17.327,8353.095,8343.7,5
4945,4945,2021-01-22 13:27:47.327,8344.511,8333.45,5
4955,4955,2021-01-22 13:28:17.327,8387.6875,8360.95,5
4965,4965,2021-01-22 13:28:47.327,8421.789,8466.45,5
4975,4975,2021-01-22 13:29:17.327,8426.28,8490.45,5
4985,4985,2021-01-22 13:29:47.327,8458.046,8493.7,5
4995,4995,2021-01-22 13:30:17.327,8447.726,8507.325,5
5005,5005,2021-01-22 13:30:47.327,8415.806999999999,8531.325,5
5015,5015,2021-01-22 13:31:17.327,8437.282,8534.575,5
5025,5025,2021-01-22 13:31:47.327,8481.085,8548.2,5
5035,5035,2021-01-22 13:32:17.327,8505.896999999999,8572.2,5
5045,5045,2021-01-22 13:32:47.327,8525.302,8585.825,5
5055,5055,2021-01-22 13:33:17.327,8544.146,8589.075,5
5065,5065,2021-01-22 13:33:47.327,8564.625,8613.075,5
5075,5075,2021-01-22 13:34:17.327,8582.55,8626.7,5
5085,5085,2021-01-22 13:34:47.327,8600.726,8388.7,5
5095,5095,2021-01-22 13:35:17.327,8622.154,8412.7,5
5105,5105,2021-01-22 13:35:47.327,8643.126,8416.45,5
5115,5115,2021-01-22 13:36:17.327,8660.4795,8430.325,5
5125,5125,2021-01-22 13:36:47.327,8682.936,8454.325,5
5135,5135,2021-01-22 13:37:17.327,8703.806,8468.2,5
5145,5145,2021-01-22 13:37:47.327,8435.825,8471.95,5
5155,5155,2021-01-22 13:38:17.327,8481.514000000001,8495.95,5
5165,5165,2021-01-22 13:38:47.327,8492.749,8519.95,5
5175,5175,2021-01-22 13:39:17.327,8513.226999999999,8513.575,5
5185,5185,2021-01-22 13:39:47.327,8553.768,8537.575,5
5195,5195,2021-01-22 13:40:17.327,8578.811,8561.575,5
5205,5205,2021-01-22 13:40:47.327,8586.792,8555.2,5
5215,5215,2021-01-22 13:41:17.327,8619.244,8579.2,5
5225,5225,2021-01-22 13:41:47.327,8641.609,8603.2,5
5235,5235,2021-01-22 13:42:17.327,8624.178,8596.825,5
5245,5245,2021-01-22 13:42:47.327,8643.588,8620.825,5
5255,5255,2021-01-22 13:43:17.327,8662.271999999999,8644.825,5
5265,5265,2021-01-22 13:43:47.327,8643.571,8638.45,5
5275,5275,2021-01-22 13:44:17.327,8664.181999999999,8662.45,5
5285,5285,2021-01-22 13:44:47.327,8680.774,8686.45,5
5295,5295,2021-01-22 13:45:17.327,8670.364,8777.2,5
5305,5305,2021-01-22 13:45:47.327,8683.73,8790.95,5
5315,5315,2021-01-22 13:46:17.327,8691.743,8814.95,5
5325,5325,2021-01-22 13:46:47.327,8696.386999999999,8828.7,5
5335,5335,2021-01-22 13:47:17.327,8712.709,8503.575,5
5345,5345,2021-01-22 13:47:47.327,8730.686,8432.2,5
5355,5355,2021-01-22 13:48:17.327,8768.355,8446.45,5
5365,5365,2021-01-22 13:48:47.327,8802.367,8545.95,5
5375,5375,2021-01-22 13:49:17.327,8837.606,8560.075,5
5385,5385,2021-01-22 13:49:47.327,8870.565999999999,8574.2,5
5395,5395,2021-01-22 13:50:17.327,8511.758,8588.325,5
5405,5405,2021-01-22 13:50:47.327,8496.573,8612.325,5
5415,5415,2021-01-22 13:51:17.327,8521.521,8616.575,5
5425,5425,2021-01-22 13:51:47.327,8626.827,8630.7,5
5435,5435,2021-01-22 13:52:17.327,8639.005,8656.825,5
5445,5445,2021-01-22 13:52:47.327,8656.136,8682.95,5
5455,5455,2021-01-22 13:53:17.327,8672.764000000001,8682.95,5
5465,5465,2021-01-22 13:53:47.327,8705.108,8694.263,5
5475,5475,2021-01-22 13:54:17.327,8703.266,8725.325,5
5485,5485,2021-01-22 13:54:47.327,8723.119,8725.325,5
5495,5495,2021-01-22 13:55:17.327,8760.974,8729.575,5
5505,5505,2021-01-22 13:55:47.327,8790.789,8753.575,5
5515,5515,2021-01-22 13:56:17.327,8789.263,8767.7,5
5525,5525,2021-01-22 13:56:47.327,8799.421,8783.95,5
5535,5535,2021-01-22 13:57:17.327,8830.511999999999,8900.2,5
5545,5545,2021-01-22 13:57:47.327,8824.239,8900.2,5
5555,5555,2021-01-22 13:58:17.327,8821.042,8921.2,5
5565,5565,2021-01-22 13:58:47.327,8848.942,8921.2,5
5575,5575,2021-01-22 13:59:17.327,8863.4375,8609.95,5
5585,5585,2021-01-22 13:59:47.327,8879.819,8624.325,5
5595,5595,2021-01-22 14:00:17.327,8935.527,8629.075,5
5605,5605,2021-01-22 14:00:47.327,8967.766,8653.075,5
5615,5615,2021-01-22 14:01:17.327,8997.4,8667.45,5
5625,5625,2021-01-22 14:01:47.327,9019.99,8672.2,5
5635,5635,2021-01-22 14:02:17.327,8616.343,8696.2,5
5645,5645,2021-01-22 14:02:47.327,8681.346,8710.575,5
5655,5655,2021-01-22 14:03:17.327,8698.096,8715.325,5
5665,5665,2021-01-22 14:03:47.327,8733.134,8739.325,5
5675,5675,2021-01-22 14:04:17.327,8753.69,8753.7,5
5685,5685,2021-01-22 14:04:47.327,8758.685,8777.7,5
5695,5695,2021-01-22 14:05:17.327,8789.1455,8782.45,5
5705,5705,2021-01-22 14:05:47.327,8797.532,8796.825,5
5715,5715,2021-01-22 14:06:17.327,8792.097,8820.825,5
5725,5725,2021-01-22 14:06:47.327,8824.921,8905.45,5
5735,5735,2021-01-22 14:07:17.327,8840.178,8919.7,5
5745,5745,2021-01-22 14:07:47.327,8870.321,8943.7,5
5755,5755,2021-01-22 14:08:17.327,8875.619,8948.2,5
5765,5765,2021-01-22 14:08:47.327,8889.751,8974.45,5
5775,5775,2021-01-22 14:09:17.327,8913.957,9000.7,5
5785,5785,2021-01-22 14:09:47.327,8961.524,9000.7,5
5795,5795,2021-01-22 14:10:17.327,8985.386,8761.7,5
5805,5805,2021-01-22 14:10:47.327,9008.048,8785.7,5
5815,5815,2021-01-22 14:11:17.327,9026.608,8800.2,5
5825,5825,2021-01-22 14:11:47.327,9047.855,8805.2,5
5835,5835,2021-01-22 14:12:17.327,9071.765,8819.7,5
5845,5845,2021-01-22 14:12:47.327,9090.568000000001,8843.7,5
5855,5855,2021-01-22 14:13:17.327,8786.899,8848.7,5
5865,5865,2021-01-22 14:13:47.327,8850.166,8863.2,5
5875,5875,2021-01-22 14:14:17.327,8875.440999999999,8887.2,5
5885,5885,2021-01-22 14:14:47.327,8884.394,8901.7,5
5895,5895,2021-01-22 14:15:17.327,8906.529,8918.7,5
5905,5905,2021-01-22 14:15:47.327,8946.399,8954.7,5
5915,5915,2021-01-22 14:16:17.327,8950.351999999999,8954.7,5
5925,5925,2021-01-22 14:16:47.327,8961.071,9026.45,5
5935,5935,2021-01-22 14:17:17.327,8991.507,9050.45,5
5945,5945,2021-01-22 14:17:47.327,9004.208,9074.45,5
5955,5955,2021-01-22 14:18:17.327,9018.76,9069.575,5
5965,5965,2021-01-22 14:18:47.327,9051.964,9093.575,5
5975,5975,2021-01-22 14:19:17.327,9050.134,9117.575,5
5985,5985,2021-01-22 14:19:47.327,9083.271,9112.7,5
5995,5995,2021-01-22 14:20:17.327,9105.051,9136.7,5
6005,6005,2021-01-22 14:20:47.327,9124.733,9160.7,5
6015,6015,2021-01-22 14:21:17.327,9137.056999999999,8911.825,5
6025,6025,2021-01-22 14:21:47.327,9153.952,8935.825,5
6035,6035,2021-01-22 14:22:17.327,9172.927,8950.45,5
6045,6045,2021-01-22 14:22:47.327,9187.208,8965.075,5
6055,6055,2021-01-22 14:23:17.327,9206.005,8979.7,5
6065,6065,2021-01-22 14:23:47.327,9226.899,8994.325,5
6075,6075,2021-01-22 14:24:17.327,8930.798,9008.95,5
6085,6085,2021-01-22 14:24:47.327,8996.225,9014.2,5
6095,6095,2021-01-22 14:25:17.327,9021.899,9038.2,5
6105,6105,2021-01-22 14:25:47.327,9042.601999999999,9062.2,5
6115,6115,2021-01-22 14:26:17.327,9064.733,9058.075,5
6125,6125,2021-01-22 14:26:47.327,9089.416,9082.075,5
6135,6135,2021-01-22 14:27:17.327,9114.183,9106.075,5
6145,6145,2021-01-22 14:27:47.327,9113.565,9183.7,5
6155,6155,2021-01-22 14:28:17.327,9142.234,9198.2,5
6165,6165,2021-01-22 14:28:47.327,9165.834,9222.2,5
6175,6175,2021-01-22 14:29:17.327,9153.69,9227.2,5
6185,6185,2021-01-22 14:29:47.327,9175.158000000001,9241.7,5
6195,6195,2021-01-22 14:30:17.327,9197.053,9265.7,5
6205,6205,2021-01-22 14:30:47.327,9233.115,9270.7,5
6215,6215,2021-01-22 14:31:17.327,9251.468,8970.325,5
6225,6225,2021-01-22 14:31:47.327,9268.3545,8994.325,5
6235,6235,2021-01-22 14:32:17.327,9282.793,8990.95,5
6245,6245,2021-01-22 14:32:47.327,9297.848,9014.95,5
6255,6255,2021-01-22 14:33:17.327,9316.169,9038.95,5
6265,6265,2021-01-22 14:33:47.327,9333.69,9044.7,5
6275,6275,2021-01-22 14:34:17.327,9025.919,9059.575,5
6285,6285,2021-01-22 14:34:47.327,9036.988000000001,9083.575,5
6295,6295,2021-01-22 14:35:17.327,9051.636,9089.325,5
6305,6305,2021-01-22 14:35:47.327,9084.415,9104.2,5
6315,6315,2021-01-22 14:36:17.327,9110.915,9128.2,5
6325,6325,2021-01-22 14:36:47.327,9109.940999999999,9211.95,5
6335,6335,2021-01-22 14:37:17.327,9126.3,9217.45,5
6345,6345,2021-01-22 14:37:47.327,9157.245,9241.45,5
6355,6355,2021-01-22 14:38:17.327,9163.037,9256.2,5
6365,6365,2021-01-22 14:38:47.327,9184.737,9261.7,5
6375,6375,2021-01-22 14:39:17.327,9214.815999999999,9285.7,5
6385,6385,2021-01-22 14:39:47.327,9305.921,9300.45,5
6395,6395,2021-01-22 14:40:17.327,9314.552,9315.2,5
6405,6405,2021-01-22 14:40:47.327,9333.921999999999,9086.2,5
6415,6415,2021-01-22 14:41:17.327,9348.935,9101.2,5
6425,6425,2021-01-22 14:41:47.327,9354.643,9107.2,5
6435,6435,2021-01-22 14:42:17.327,9375.348,9122.2,5
6445,6445,2021-01-22 14:42:47.327,9388.859,9146.2,5
6455,6455,2021-01-22 14:43:17.327,9402.768,9161.2,5
6465,6465,2021-01-22 14:43:47.327,9090.266,9167.2,5
6475,6475,2021-01-22 14:44:17.327,9147.738000000001,9191.2,5
6485,6485,2021-01-22 14:44:47.327,9162.495,9206.2,5
6495,6495,2021-01-22 14:45:17.327,9182.792,9221.2,5
6505,6505,2021-01-22 14:45:47.327,9214.764000000001,9236.2,5
6515,6515,2021-01-22 14:46:17.327,9232.982,9316.2,5
6525,6525,2021-01-22 14:46:47.327,9240.154,9331.075,5
6535,6535,2021-01-22 14:47:17.327,9277.65,9353.388,5
6545,6545,2021-01-22 14:47:47.327,9303.143,9387.7,5
6555,6555,2021-01-22 14:48:17.327,9317.795,9387.7,5
6565,6565,2021-01-22 14:48:47.327,9328.011999999999,9405.45,5
6575,6575,2021-01-22 14:49:17.327,9389.011999999999,9429.45,5
6585,6585,2021-01-22 14:49:47.327,9406.975,9429.45,5
6595,6595,2021-01-22 14:50:17.327,9420.613000000001,9129.45,5
6605,6605,2021-01-22 14:50:47.327,9438.636999999999,9144.7,5
6615,6615,2021-01-22 14:51:17.327,9453.403,9159.95,5
6625,6625,2021-01-22 14:51:47.327,9469.177,9237.2,5
6635,6635,2021-01-22 14:52:17.327,9487.683,9252.325,5
6645,6645,2021-01-22 14:52:47.327,9502.435,9205.7,5
6655,6655,2021-01-22 14:53:17.327,9178.484,9229.7,5
6665,6665,2021-01-22 14:53:47.327,9189.539,9297.7,5
6675,6675,2021-01-22 14:54:17.327,9220.882,9321.7,5
6685,6685,2021-01-22 14:54:47.327,9306.860999999999,9336.825,5
6695,6695,2021-01-22 14:55:17.327,9319.635,9343.075,5
6705,6705,2021-01-22 14:55:47.327,9262.045,9367.075,5
6715,6715,2021-01-22 14:56:17.327,9297.59,9382.2,5
6725,6725,2021-01-22 14:56:47.327,9391.358,9397.325,5
6735,6735,2021-01-22 14:57:17.327,9416.6875,9412.45,5
6745,6745,2021-01-22 14:57:47.327,9438.564,9436.45,5
6755,6755,2021-01-22 14:58:17.327,9444.607,9442.7,5
6765,6765,2021-01-22 14:58:47.327,9463.633,9457.825,5
6775,6775,2021-01-22 14:59:17.327,9474.371,9481.825,5
6785,6785,2021-01-22 14:59:47.327,9485.873,9305.45,5
6795,6795,2021-01-22 15:00:17.327,9498.222,9311.95,5
6805,6805,2021-01-22 15:00:47.327,9524.675,9335.95,5
6815,6815,2021-01-22 15:01:17.327,9526.737,9351.2,5
6825,6825,2021-01-22 15:01:47.327,9544.681999999999,9375.2,5
6835,6835,2021-01-22 15:02:17.327,9566.801,9381.7,5
6845,6845,2021-01-22 15:02:47.327,9341.385,9396.95,5
6855,6855,2021-01-22 15:03:17.327,9364.052,9420.95,5
6865,6865,2021-01-22 15:03:47.327,9394.3955,9427.45,5
6875,6875,2021-01-22 15:04:17.327,9411.65,9442.7,5
6885,6885,2021-01-22 15:04:47.327,9442.95,9466.7,5
6895,6895,2021-01-22 15:05:17.327,9451.41,9473.2,5
6905,6905,2021-01-22 15:05:47.327,9470.965,9488.45,5
6915,6915,2021-01-22 15:06:17.327,9502.779,9512.45,5
6925,6925,2021-01-22 15:06:47.327,9503.885,9332.95,5
6935,6935,2021-01-22 15:07:17.327,9515.177,9348.325,5
6945,6945,2021-01-22 15:07:47.327,9549.252,9309.2,5
6955,6955,2021-01-22 15:08:17.327,9551.575,9324.7,5
6965,6965,2021-01-22 15:08:47.327,9563.371,9340.2,5
6975,6975,2021-01-22 15:09:17.327,9576.45,9355.7,5
6985,6985,2021-01-22 15:09:47.327,9336.059000000001,9379.7,5
6995,6995,2021-01-22 15:10:17.327,9382.934000000001,9386.7,5
7005,7005,2021-01-22 15:10:47.327,9355.9,9402.2,5
7015,7015,2021-01-22 15:11:17.327,9370.252,9479.95,5
7025,7025,2021-01-22 15:11:47.327,9385.305,9486.7,5
7035,7035,2021-01-22 15:12:17.327,9400.239,9502.075,5
7045,7045,2021-01-22 15:12:47.327,9431.446,9526.075,5
7055,7055,2021-01-22 15:13:17.327,9436.701,9524.2,5
7065,7065,2021-01-22 15:13:47.327,9442.886999999999,9548.2,5
7075,7075,2021-01-22 15:14:17.327,9532.99,9572.2,5
7085,7085,2021-01-22 15:14:47.327,9542.515,9390.2,5
7095,7095,2021-01-22 15:15:17.327,9559.13,9405.7,5
7105,7105,2021-01-22 15:15:47.327,9575.684000000001,9421.2,5
7115,7115,2021-01-22 15:16:17.327,9585.652,9436.7,5
7125,7125,2021-01-22 15:16:47.327,9598.131,9452.2,5
7135,7135,2021-01-22 15:17:17.327,9612.431999999999,9467.7,5
7145,7145,2021-01-22 15:17:47.327,9402.57,9483.2,5
7155,7155,2021-01-22 15:18:17.327,9445.508,9498.7,5
7165,7165,2021-01-22 15:18:47.327,9468.292,9514.2,5
7175,7175,2021-01-22 15:19:17.327,9485.981,9538.2,5
7185,7185,2021-01-22 15:19:47.327,9505.489,9545.2,5
7195,7195,2021-01-22 15:20:17.327,9526.146,9560.7,5
7205,7205,2021-01-22 15:20:47.327,9548.041,9584.7,5
7215,7215,2021-01-22 15:21:17.327,9565.122,9600.2,5
7225,7225,2021-01-22 15:21:47.327,9580.562,9368.95,5
7235,7235,2021-01-22 15:22:17.327,9605.530999999999,9392.95,5
7245,7245,2021-01-22 15:22:47.327,9612.68,9400.45,5
7255,7255,2021-01-22 15:23:17.327,9625.974,9416.2,5
7265,7265,2021-01-22 15:23:47.327,9653.813,9440.2,5
7275,7275,2021-01-22 15:24:17.327,9668.612,9447.7,5
7285,7285,2021-01-22 15:24:47.327,9404.696,9463.45,5
7295,7295,2021-01-22 15:25:17.327,9429.801,9487.45,5
7305,7305,2021-01-22 15:25:47.327,9450.4375,9506.95,5
7315,7315,2021-01-22 15:26:17.327,9469.619,9534.7,5
7325,7325,2021-01-22 15:26:47.327,9495.767,9534.7,5
7335,7335,2021-01-22 15:27:17.327,9502.942,9550.45,5
7345,7345,2021-01-22 15:27:47.327,9522.631,9557.95,5
7355,7355,2021-01-22 15:28:17.327,9539.931,9581.95,5
7365,7365,2021-01-22 15:28:47.327,9552.613000000001,9406.2,5
7375,7375,2021-01-22 15:29:17.327,9588.386999999999,9413.95,5
7385,7385,2021-01-22 15:29:47.327,9589.979,9429.825,5
7395,7395,2021-01-22 15:30:17.327,9606.749,9453.825,5
7405,7405,2021-01-22 15:30:47.327,9614.55,9461.575,5
7415,7415,2021-01-22 15:31:17.327,9637.76,9477.45,5
7425,7425,2021-01-22 15:31:47.327,9439.285,9501.45,5
7435,7435,2021-01-22 15:32:17.327,9444.03,9525.45,5
7445,7445,2021-01-22 15:32:47.327,9472.871,9525.075,5
7455,7455,2021-01-22 15:33:17.327,9502.987,9549.075,5
7465,7465,2021-01-22 15:33:47.327,9511.575,9573.075,5
7475,7475,2021-01-22 15:34:17.327,9526.773000000001,9340.075,5
7485,7485,2021-01-22 15:34:47.327,9544.617,9364.075,5
7495,7495,2021-01-22 15:35:17.327,9571.474,9341.2,5
7505,7505,2021-01-22 15:35:47.327,9564.976999999999,9388.45,5
7515,7515,2021-01-22 15:36:17.327,9598.177,9412.45,5
7525,7525,2021-01-22 15:36:47.327,9633.073,9428.575,5
7535,7535,2021-01-22 15:37:17.327,9444.318000000001,9436.825,5
7545,7545,2021-01-22 15:37:47.327,9425.35,9460.825,5
7555,7555,2021-01-22 15:38:17.327,9421.368,9476.95,5
7565,7565,2021-01-22 15:38:47.327,9446.787,9485.2,5
7575,7575,2021-01-22 15:39:17.327,9466.044,9509.2,5
7585,7585,2021-01-22 15:39:47.327,9482.598,9525.325,5
7595,7595,2021-01-22 15:40:17.327,9492.072,9348.7,5
7605,7605,2021-01-22 15:40:47.327,9528.3545,9357.2,5
7615,7615,2021-01-22 15:41:17.327,9534.673,9385.45,5
7625,7625,2021-01-22 15:41:47.327,9530.254,9405.95,5
7635,7635,2021-01-22 15:42:17.327,9561.301,9429.95,5
7645,7645,2021-01-22 15:42:47.327,9579.401,9446.2,5
7655,7655,2021-01-22 15:43:17.327,9424.586,9454.7,5
7665,7665,2021-01-22 15:43:47.327,9419.059000000001,9454.7,5
7675,7675,2021-01-22 15:44:17.327,9444.229,9478.7,5
7685,7685,2021-01-22 15:44:47.327,9462.107,9494.95,5
7695,7695,2021-01-22 15:45:17.327,9489.782,9317.075,5
7705,7705,2021-01-22 15:45:47.327,9503.849,9325.825,5
7715,7715,2021-01-22 15:46:17.327,9495.087,9342.2,5
7725,7725,2021-01-22 15:46:47.327,9495.775,9366.2,5
7735,7735,2021-01-22 15:47:17.327,9528.1,9374.95,5
7745,7745,2021-01-22 15:47:47.327,9549.115,9391.325,5
7755,7755,2021-01-22 15:48:17.327,9403.413,9415.325,5
7765,7765,2021-01-22 15:48:47.327,9392.03,9454.45,5
7775,7775,2021-01-22 15:49:17.327,9406.463,9217.7,5
7785,7785,2021-01-22 15:49:47.327,9424.1,9241.7,5
7795,7795,2021-01-22 15:50:17.327,9430.269,9243.575,5
7805,7805,2021-01-22 15:50:47.327,9445.976999999999,9267.575,5
7815,7815,2021-01-22 15:51:17.327,9477.39,9291.575,5
7825,7825,2021-01-22 15:51:47.327,9494.589,9300.825,5
7835,7835,2021-01-22 15:52:17.327,9370.761,9317.45,5
7845,7845,2021-01-22 15:52:47.327,9354.401,9341.45,5
7855,7855,2021-01-22 15:53:17.327,9358.846,9200.95,5
7865,7865,2021-01-22 15:53:47.327,9358.962,9174.2,5
7875,7875,2021-01-22 15:54:17.327,9367.66,9167.575,5
7885,7885,2021-01-22 15:54:47.327,9372.594000000001,9184.45,5
7895,7895,2021-01-22 15:55:17.327,9384.911,9201.325,5
7905,7905,2021-01-22 15:55:47.327,9408.482,9218.2,5
7915,7915,2021-01-22 15:56:17.327,9320.729,9235.075,5
7925,7925,2021-01-22 15:56:47.327,9311.435,9048.325,5
7935,7935,2021-01-22 15:57:17.327,9301.572,9065.45,5
7945,7945,2021-01-22 15:57:47.327,9296.739,9068.825,5
7955,7955,2021-01-22 15:58:17.327,9298.061,9092.825,5
7965,7965,2021-01-22 15:58:47.327,9305.06,9116.825,5
7975,7975,2021-01-22 15:59:17.327,9315.733,8973.638,5
7985,7985,2021-01-22 15:59:47.327,9251.291,8957.95,5
7995,7995,2021-01-22 16:00:17.327,9235.484,8957.95,5
8005,8005,2021-01-22 16:00:47.327,9227.129,8968.7,5
8015,8015,2021-01-22 16:01:17.327,9223.187,8992.7,5
8025,8025,2021-01-22 16:01:47.327,9232.155,9016.7,5
8035,8035,2021-01-22 16:02:17.327,9196.535,8836.7,5
8045,8045,2021-01-22 16:02:47.327,9160.293,8860.7,5
8055,8055,2021-01-22 16:03:17.327,9145.905999999999,8878.2,5
8065,8065,2021-01-22 16:03:47.327,9136.193000000001,8703.7,5
8075,8075,2021-01-22 16:04:17.327,9135.984,8721.45,5
