,Unnamed: 0,time,preds,step
13878,13878,2020-11-16 09:51:06.187,534.98303,8
13888,13888,2020-11-16 09:51:36.187,533.8468,8
13898,13898,2020-11-16 09:52:06.187,533.6755,8
13908,13908,2020-11-16 09:52:36.187,532.7655,8
13918,13918,2020-11-16 09:53:06.187,531.9594,8
13928,13928,2020-11-16 09:53:36.187,530.97766,8
13938,13938,2020-11-16 09:54:06.187,529.8171,8
13948,13948,2020-11-16 09:54:36.187,528.8727,8
13958,13958,2020-11-16 09:55:06.187,527.74347,8
13968,13968,2020-11-16 09:55:36.187,526.77527,8
13978,13978,2020-11-16 09:56:06.187,525.8882,8
13988,13988,2020-11-16 09:56:36.187,524.7674,8
13998,13998,2020-11-16 09:57:06.187,524.1196,8
14008,14008,2020-11-16 09:57:36.187,523.15967,8
14018,14018,2020-11-16 09:58:06.187,522.254,8
14028,14028,2020-11-16 09:58:36.187,521.5028,8
14038,14038,2020-11-16 09:59:06.187,520.8801,8
14048,14048,2020-11-16 09:59:36.187,520.0397,8
14058,14058,2020-11-16 10:00:06.187,519.2451,8
14068,14068,2020-11-16 10:00:36.187,517.72473,8
14078,14078,2020-11-16 10:01:06.187,516.6488,8
14088,14088,2020-11-16 10:01:36.187,515.2945,8
14098,14098,2020-11-16 10:02:06.187,514.36523,8
14108,14108,2020-11-16 10:02:36.187,513.3245,8
14118,14118,2020-11-16 10:03:06.187,512.0766,8
14128,14128,2020-11-16 10:03:36.187,510.86352999999997,8
14138,14138,2020-11-16 10:04:06.187,509.74987999999996,8
14148,14148,2020-11-16 10:04:36.187,508.58234000000004,8
14158,14158,2020-11-16 10:05:06.187,507.12325999999996,8
14168,14168,2020-11-16 10:05:36.187,505.95804000000004,8
14178,14178,2020-11-16 10:06:06.187,504.85162,8
14188,14188,2020-11-16 10:06:36.187,503.83646,8
14198,14198,2020-11-16 10:07:06.187,502.95092999999997,8
14208,14208,2020-11-16 10:07:36.187,501.87183,8
14218,14218,2020-11-16 10:08:06.187,500.7506,8
14228,14228,2020-11-16 10:08:36.187,499.85602,8
14238,14238,2020-11-16 10:09:06.187,498.96017,8
14248,14248,2020-11-16 10:09:36.187,498.0862,8
14258,14258,2020-11-16 10:10:06.187,497.2239,8
14268,14268,2020-11-16 10:10:36.187,496.33435,8
14278,14278,2020-11-16 10:11:06.187,495.55124000000006,8
14288,14288,2020-11-16 10:11:36.187,494.7631,8
14298,14298,2020-11-16 10:12:06.187,492.68158,8
14308,14308,2020-11-16 10:12:36.187,491.73062000000004,8
14318,14318,2020-11-16 10:13:06.187,490.7461,8
14328,14328,2020-11-16 10:13:36.187,489.98932,8
14338,14338,2020-11-16 10:14:06.187,489.27292,8
14348,14348,2020-11-16 10:14:36.187,488.1562,8
14358,14358,2020-11-16 10:15:06.187,486.54544000000004,8
14368,14368,2020-11-16 10:15:36.187,486.17023,8
14378,14378,2020-11-16 10:16:06.187,484.92892,8
14388,14388,2020-11-16 10:16:36.187,483.39633,8
14398,14398,2020-11-16 10:17:06.187,481.78345,8
14408,14408,2020-11-16 10:17:36.187,480.54172,8
14418,14418,2020-11-16 10:18:06.187,479.16638,8
14428,14428,2020-11-16 10:18:36.187,478.02945,8
14438,14438,2020-11-16 10:19:06.187,476.7319,8
14448,14448,2020-11-16 10:19:36.187,475.68807999999996,8
14458,14458,2020-11-16 10:20:06.187,474.66913,8
14468,14468,2020-11-16 10:20:36.187,473.87177,8
14478,14478,2020-11-16 10:21:06.187,472.86453,8
14488,14488,2020-11-16 10:21:36.187,472.02975,8
14498,14498,2020-11-16 10:22:06.187,471.21795999999995,8
14508,14508,2020-11-16 10:22:36.187,470.6733,8
14518,14518,2020-11-16 10:23:06.187,470.24857000000003,8
14528,14528,2020-11-16 10:23:36.187,468.0701,8
14538,14538,2020-11-16 10:24:06.187,467.35904000000005,8
14548,14548,2020-11-16 10:24:36.187,466.4441,8
14558,14558,2020-11-16 10:25:06.187,465.67605999999995,8
14568,14568,2020-11-16 10:25:36.187,465.05118,8
14578,14578,2020-11-16 10:26:06.187,464.19968,8
14588,14588,2020-11-16 10:26:36.187,462.2128,8
14598,14598,2020-11-16 10:27:06.187,461.01828,8
14608,14608,2020-11-16 10:27:36.187,460.01443,8
14618,14618,2020-11-16 10:28:06.187,458.3682,8
14628,14628,2020-11-16 10:28:36.187,456.51013,8
14638,14638,2020-11-16 10:29:06.187,454.90887000000004,8
14648,14648,2020-11-16 10:29:36.187,452.90527000000003,8
14658,14658,2020-11-16 10:30:06.187,451.41525,8
14668,14668,2020-11-16 10:30:36.187,450.37247,8
14678,14678,2020-11-16 10:31:06.187,449.28155999999996,8
14688,14688,2020-11-16 10:31:36.187,448.38516,8
14698,14698,2020-11-16 10:32:06.187,447.48685,8
14708,14708,2020-11-16 10:32:36.187,446.58643,8
14718,14718,2020-11-16 10:33:06.187,445.79984,8
14728,14728,2020-11-16 10:33:36.187,445.02704000000006,8
14738,14738,2020-11-16 10:34:06.187,442.57755,8
14748,14748,2020-11-16 10:34:36.187,442.27893,8
14758,14758,2020-11-16 10:35:06.187,441.33353,8
14768,14768,2020-11-16 10:35:36.187,440.67947000000004,8
14778,14778,2020-11-16 10:36:06.187,439.7962,8
14788,14788,2020-11-16 10:36:36.187,438.80267000000003,8
14798,14798,2020-11-16 10:37:06.187,437.27667,8
14808,14808,2020-11-16 10:37:36.187,435.7534,8
14818,14818,2020-11-16 10:38:06.187,434.7541,8
14828,14828,2020-11-16 10:38:36.187,432.89795,8
14838,14838,2020-11-16 10:39:06.187,431.2161,8
14848,14848,2020-11-16 10:39:36.187,429.7877,8
14858,14858,2020-11-16 10:40:06.187,428.1031,8
14868,14868,2020-11-16 10:40:36.187,427.05935999999997,8
14878,14878,2020-11-16 10:41:06.187,425.559,8
14888,14888,2020-11-16 10:41:36.187,424.4222,8
14898,14898,2020-11-16 10:42:06.187,423.4922,8
14908,14908,2020-11-16 10:42:36.187,422.48627,8
14918,14918,2020-11-16 10:43:06.187,421.60587000000004,8
14928,14928,2020-11-16 10:43:36.187,420.88125999999994,8
14938,14938,2020-11-16 10:44:06.187,418.17618,8
14948,14948,2020-11-16 10:44:36.187,417.29123,8
14958,14958,2020-11-16 10:45:06.187,416.7574,8
14968,14968,2020-11-16 10:45:36.187,415.88794,8
14978,14978,2020-11-16 10:46:06.187,414.84366,8
14988,14988,2020-11-16 10:46:36.187,413.7703,8
14998,14998,2020-11-16 10:47:06.187,412.4531,8
15008,15008,2020-11-16 10:47:36.187,410.68036,8
15018,15018,2020-11-16 10:48:06.187,409.4667,8
15028,15028,2020-11-16 10:48:36.187,408.62646,8
15038,15038,2020-11-16 10:49:06.187,406.6275,8
15048,15048,2020-11-16 10:49:36.187,404.83627,8
15058,15058,2020-11-16 10:50:06.187,403.02567,8
15068,15068,2020-11-16 10:50:36.187,401.8631,8
15078,15078,2020-11-16 10:51:06.187,400.29877,8
15088,15088,2020-11-16 10:51:36.187,399.01086000000004,8
15098,15098,2020-11-16 10:52:06.187,398.045,8
15108,15108,2020-11-16 10:52:36.187,396.81427,8
15118,15118,2020-11-16 10:53:06.187,395.86508,8
15128,15128,2020-11-16 10:53:36.187,392.11383,8
15138,15138,2020-11-16 10:54:06.187,391.88275,8
15148,15148,2020-11-16 10:54:36.187,391.23532,8
15158,15158,2020-11-16 10:55:06.187,390.6945,8
15168,15168,2020-11-16 10:55:36.187,389.56888,8
15178,15178,2020-11-16 10:56:06.187,388.47162000000003,8
15188,15188,2020-11-16 10:56:36.187,386.48544,8
15198,15198,2020-11-16 10:57:06.187,384.43265,8
15208,15208,2020-11-16 10:57:36.187,383.09708,8
15218,15218,2020-11-16 10:58:06.187,380.82605,8
15228,15228,2020-11-16 10:58:36.187,380.44,8
15238,15238,2020-11-16 10:59:06.187,379.38696,8
15248,15248,2020-11-16 10:59:36.187,377.35495,8
15258,15258,2020-11-16 11:00:06.187,376.27847,8
15268,15268,2020-11-16 11:00:36.187,374.64435,8
15278,15278,2020-11-16 11:01:06.187,373.50824,8
15288,15288,2020-11-16 11:01:36.187,372.6198,8
15298,15298,2020-11-16 11:02:06.187,371.806,8
15308,15308,2020-11-16 11:02:36.187,371.05548,8
15318,15318,2020-11-16 11:03:06.187,366.3275,8
15328,15328,2020-11-16 11:03:36.187,366.24637,8
15338,15338,2020-11-16 11:04:06.187,365.7848,8
15348,15348,2020-11-16 11:04:36.187,365.21634,8
15358,15358,2020-11-16 11:05:06.187,363.99615,8
15368,15368,2020-11-16 11:05:36.187,363.21347000000003,8
15378,15378,2020-11-16 11:06:06.187,361.24146,8
15388,15388,2020-11-16 11:06:36.187,359.0123,8
15398,15398,2020-11-16 11:07:06.187,357.66086,8
15408,15408,2020-11-16 11:07:36.187,355.6034,8
15418,15418,2020-11-16 11:08:06.187,355.15677,8
15428,15428,2020-11-16 11:08:36.187,353.57883,8
15438,15438,2020-11-16 11:09:06.187,351.6044,8
15448,15448,2020-11-16 11:09:36.187,350.26199999999994,8
15458,15458,2020-11-16 11:10:06.187,348.36847,8
15468,15468,2020-11-16 11:10:36.187,347.15625,8
15478,15478,2020-11-16 11:11:06.187,341.5646,8
15488,15488,2020-11-16 11:11:36.187,339.7161,8
15498,15498,2020-11-16 11:12:06.187,339.96198,8
15508,15508,2020-11-16 11:12:36.187,339.51223999999996,8
15518,15518,2020-11-16 11:13:06.187,337.91315,8
15528,15528,2020-11-16 11:13:36.187,336.95364,8
15538,15538,2020-11-16 11:14:06.187,334.63055,8
15548,15548,2020-11-16 11:14:36.187,332.18576,8
15558,15558,2020-11-16 11:15:06.187,330.06293,8
15568,15568,2020-11-16 11:15:36.187,326.6034,8
15578,15578,2020-11-16 11:16:06.187,323.35748,8
15588,15588,2020-11-16 11:16:36.187,322.12485,8
15598,15598,2020-11-16 11:17:06.187,322.82986,8
15608,15608,2020-11-16 11:17:36.187,325.8443,8
15618,15618,2020-11-16 11:18:06.187,324.16782,8
15628,15628,2020-11-16 11:18:36.187,323.2651,8
15638,15638,2020-11-16 11:19:06.187,316.75586,8
15648,15648,2020-11-16 11:19:36.187,314.9435,8
15658,15658,2020-11-16 11:20:06.187,315.12462999999997,8
15668,15668,2020-11-16 11:20:36.187,314.49854,8
15678,15678,2020-11-16 11:21:06.187,312.80435,8
15688,15688,2020-11-16 11:21:36.187,311.7836,8
15698,15698,2020-11-16 11:22:06.187,309.50977,8
15708,15708,2020-11-16 11:22:36.187,306.94138,8
15718,15718,2020-11-16 11:23:06.187,304.50806,8
15728,15728,2020-11-16 11:23:36.187,300.71924,8
15738,15738,2020-11-16 11:24:06.187,297.63372999999996,8
15748,15748,2020-11-16 11:24:36.187,296.45526,8
15758,15758,2020-11-16 11:25:06.187,297.27588,8
15768,15768,2020-11-16 11:25:36.187,300.6771,8
15778,15778,2020-11-16 11:26:06.187,299.01227,8
15788,15788,2020-11-16 11:26:36.187,290.19476000000003,8
15798,15798,2020-11-16 11:27:06.187,288.63223,8
15808,15808,2020-11-16 11:27:36.187,288.40598,8
15818,15818,2020-11-16 11:28:06.187,288.0567,8
15828,15828,2020-11-16 11:28:36.187,286.7127,8
15838,15838,2020-11-16 11:29:06.187,285.52112,8
15848,15848,2020-11-16 11:29:36.187,283.26044,8
15858,15858,2020-11-16 11:30:06.187,280.26376,8
15868,15868,2020-11-16 11:30:36.187,277.66112999999996,8
15878,15878,2020-11-16 11:31:06.187,274.56052,8
15888,15888,2020-11-16 11:31:36.187,271.48737,8
15898,15898,2020-11-16 11:32:06.187,270.19452,8
15908,15908,2020-11-16 11:32:36.187,269.834,8
15918,15918,2020-11-16 11:33:06.187,271.37305,8
15928,15928,2020-11-16 11:33:36.187,263.8071,8
15938,15938,2020-11-16 11:34:06.187,262.10748,8
15948,15948,2020-11-16 11:34:36.187,261.5428,8
15958,15958,2020-11-16 11:35:06.187,261.36478,8
15968,15968,2020-11-16 11:35:36.187,260.0519,8
15978,15978,2020-11-16 11:36:06.187,259.47700000000003,8
15988,15988,2020-11-16 11:36:36.187,257.01706,8
15998,15998,2020-11-16 11:37:06.187,254.77422,8
16008,16008,2020-11-16 11:37:36.187,251.78796,8
16018,16018,2020-11-16 11:38:06.187,248.48947,8
16028,16028,2020-11-16 11:38:36.187,245.62282000000002,8
16038,16038,2020-11-16 11:39:06.187,244.3687,8
16048,16048,2020-11-16 11:39:36.187,237.93547,8
16058,16058,2020-11-16 11:40:06.187,235.34885,8
16068,16068,2020-11-16 11:40:36.187,232.14726000000002,8
16078,16078,2020-11-16 11:41:06.187,232.3203,8
16088,16088,2020-11-16 11:41:36.187,232.95416,8
16098,16098,2020-11-16 11:42:06.187,231.69466,8
16108,16108,2020-11-16 11:42:36.187,228.447,8
16118,16118,2020-11-16 11:43:06.187,227.64705,8
16128,16128,2020-11-16 11:43:36.187,225.20285,8
16138,16138,2020-11-16 11:44:06.187,222.22614,8
16148,16148,2020-11-16 11:44:36.187,220.5092,8
16158,16158,2020-11-16 11:45:06.187,219.93436,8
16168,16168,2020-11-16 11:45:36.187,212.30638,8
16178,16178,2020-11-16 11:46:06.187,208.91714,8
16188,16188,2020-11-16 11:46:36.187,205.37157,8
16198,16198,2020-11-16 11:47:06.187,204.94707,8
16208,16208,2020-11-16 11:47:36.187,205.48872,8
16218,16218,2020-11-16 11:48:06.187,206.10162,8
16228,16228,2020-11-16 11:48:36.187,202.62444,8
16238,16238,2020-11-16 11:49:06.187,201.61624,8
16248,16248,2020-11-16 11:49:36.187,198.96326000000002,8
16258,16258,2020-11-16 11:50:06.187,195.24768,8
16268,16268,2020-11-16 11:50:36.187,187.3998,8
16278,16278,2020-11-16 11:51:06.187,185.05957,8
16288,16288,2020-11-16 11:51:36.187,181.3283,8
16298,16298,2020-11-16 11:52:06.187,178.74544,8
16308,16308,2020-11-16 11:52:36.187,176.77007,8
16318,16318,2020-11-16 11:53:06.187,174.26286000000002,8
16328,16328,2020-11-16 11:53:36.187,174.76166,8
16338,16338,2020-11-16 11:54:06.187,173.96275,8
16348,16348,2020-11-16 11:54:36.187,172.61522,8
16358,16358,2020-11-16 11:55:06.187,161.48557,8
16368,16368,2020-11-16 11:55:36.187,156.61635,8
16378,16378,2020-11-16 11:56:06.187,154.43323999999998,8
16388,16388,2020-11-16 11:56:36.187,153.04506,8
16398,16398,2020-11-16 11:57:06.187,151.35822,8
16408,16408,2020-11-16 11:57:36.187,148.52177,8
16418,16418,2020-11-16 11:58:06.187,146.51262,8
16428,16428,2020-11-16 11:58:36.187,142.64061,8
16438,16438,2020-11-16 11:59:06.187,141.39594,8
16448,16448,2020-11-16 11:59:36.187,130.52553999999998,8
16458,16458,2020-11-16 12:00:06.187,130.01352,8
16468,16468,2020-11-16 12:00:36.187,127.38261000000001,8
16478,16478,2020-11-16 12:01:06.187,125.42161599999999,8
16488,16488,2020-11-16 12:01:36.187,124.75574499999999,8
16498,16498,2020-11-16 12:02:06.187,120.93542,8
16508,16508,2020-11-16 12:02:36.187,120.55756000000001,8
16518,16518,2020-11-16 12:03:06.187,116.075226,8
16528,16528,2020-11-16 12:03:36.187,103.25845,8
16538,16538,2020-11-16 12:04:06.187,99.14956,8
16548,16548,2020-11-16 12:04:36.187,96.58941,8
16558,16558,2020-11-16 12:05:06.187,98.99534,8
16568,16568,2020-11-16 12:05:36.187,96.98507,8
16578,16578,2020-11-16 12:06:06.187,94.38955,8
16588,16588,2020-11-16 12:06:36.187,72.04174,8
16598,16598,2020-11-16 12:07:06.187,69.30163,8
16608,16608,2020-11-16 12:07:36.187,66.40593,8
16618,16618,2020-11-16 12:08:06.187,64.74218,8
