,Unnamed: 0,time,prediction,step
9585,9585,2020-11-16 09:49:36.187,536.788,5
9595,9595,2020-11-16 09:50:06.187,535.6924,5
9605,9605,2020-11-16 09:50:36.187,534.7805,5
9615,9615,2020-11-16 09:51:06.187,533.8589,5
9625,9625,2020-11-16 09:51:36.187,532.92737,5
9635,9635,2020-11-16 09:52:06.187,531.98584,5
9645,9645,2020-11-16 09:52:36.187,531.0344,5
9655,9655,2020-11-16 09:53:06.187,530.0730599999999,5
9665,9665,2020-11-16 09:53:36.187,529.1018,5
9675,9675,2020-11-16 09:54:06.187,528.12067,5
9685,9685,2020-11-16 09:54:36.187,527.1297599999999,5
9695,9695,2020-11-16 09:55:06.187,526.1291,5
9705,9705,2020-11-16 09:55:36.187,525.29474,5
9715,9715,2020-11-16 09:56:06.187,524.44135,5
9725,9725,2020-11-16 09:56:36.187,523.69476,5
9735,9735,2020-11-16 09:57:06.187,522.9398,5
9745,9745,2020-11-16 09:57:36.187,522.17633,5
9755,9755,2020-11-16 09:58:06.187,521.404,5
9765,9765,2020-11-16 09:58:36.187,520.6226,5
9775,9775,2020-11-16 09:59:06.187,519.4503,5
9785,9785,2020-11-16 09:59:36.187,518.2905,5
9795,9795,2020-11-16 10:00:06.187,517.1429,5
9805,9805,2020-11-16 10:00:36.187,516.0073,5
9815,9815,2020-11-16 10:01:06.187,514.8836,5
9825,9825,2020-11-16 10:01:36.187,513.6456,5
9835,9835,2020-11-16 10:02:06.187,512.41095,5
9845,9845,2020-11-16 10:02:36.187,511.17947000000004,5
9855,9855,2020-11-16 10:03:06.187,509.9511,5
9865,9865,2020-11-16 10:03:36.187,508.72577,5
9875,9875,2020-11-16 10:04:06.187,507.5034,5
9885,9885,2020-11-16 10:04:36.187,506.2839,5
9895,9895,2020-11-16 10:05:06.187,505.24414,5
9905,9905,2020-11-16 10:05:36.187,504.3093,5
9915,9915,2020-11-16 10:06:06.187,503.37473,5
9925,9925,2020-11-16 10:06:36.187,502.4404,5
9935,9935,2020-11-16 10:07:06.187,501.50625999999994,5
9945,9945,2020-11-16 10:07:36.187,500.57232999999997,5
9955,9955,2020-11-16 10:08:06.187,499.63858,5
9965,9965,2020-11-16 10:08:36.187,498.70502,5
9975,9975,2020-11-16 10:09:06.187,497.77164000000005,5
9985,9985,2020-11-16 10:09:36.187,496.8384,5
9995,9995,2020-11-16 10:10:06.187,495.90536,5
10005,10005,2020-11-16 10:10:36.187,494.5348,5
10015,10015,2020-11-16 10:11:06.187,493.21097000000003,5
10025,10025,2020-11-16 10:11:36.187,491.93274,5
10035,10035,2020-11-16 10:12:06.187,490.69904,5
10045,10045,2020-11-16 10:12:36.187,489.5092,5
10055,10055,2020-11-16 10:13:06.187,488.36255,5
10065,10065,2020-11-16 10:13:36.187,487.25894000000005,5
10075,10075,2020-11-16 10:14:06.187,486.13272,5
10085,10085,2020-11-16 10:14:36.187,485.017,5
10095,10095,2020-11-16 10:15:06.187,483.91152999999997,5
10105,10105,2020-11-16 10:15:36.187,482.8162,5
10115,10115,2020-11-16 10:16:06.187,481.7309,5
10125,10125,2020-11-16 10:16:36.187,480.65545999999995,5
10135,10135,2020-11-16 10:17:06.187,479.58972,5
10145,10145,2020-11-16 10:17:36.187,478.5337,5
10155,10155,2020-11-16 10:18:06.187,477.4873,5
10165,10165,2020-11-16 10:18:36.187,476.4504,5
10175,10175,2020-11-16 10:19:06.187,475.5892,5
10185,10185,2020-11-16 10:19:36.187,474.72842,5
10195,10195,2020-11-16 10:20:06.187,473.98703,5
10205,10205,2020-11-16 10:20:36.187,473.25797,5
10215,10215,2020-11-16 10:21:06.187,472.54166,5
10225,10225,2020-11-16 10:21:36.187,471.83856,5
10235,10235,2020-11-16 10:22:06.187,470.40587999999997,5
10245,10245,2020-11-16 10:22:36.187,469.03174,5
10255,10255,2020-11-16 10:23:06.187,467.71423,5
10265,10265,2020-11-16 10:23:36.187,466.45224,5
10275,10275,2020-11-16 10:24:06.187,465.24475,5
10285,10285,2020-11-16 10:24:36.187,464.09122,5
10295,10295,2020-11-16 10:25:06.187,462.99155,5
10305,10305,2020-11-16 10:25:36.187,461.58105,5
10315,10315,2020-11-16 10:26:06.187,460.19552999999996,5
10325,10325,2020-11-16 10:26:36.187,458.83385999999996,5
10335,10335,2020-11-16 10:27:06.187,457.49515,5
10345,10345,2020-11-16 10:27:36.187,456.1785,5
10355,10355,2020-11-16 10:28:06.187,454.88324000000006,5
10365,10365,2020-11-16 10:28:36.187,453.60857999999996,5
10375,10375,2020-11-16 10:29:06.187,452.62424000000004,5
10385,10385,2020-11-16 10:29:36.187,451.65792999999996,5
10395,10395,2020-11-16 10:30:06.187,450.70984000000004,5
10405,10405,2020-11-16 10:30:36.187,449.78005999999993,5
10415,10415,2020-11-16 10:31:06.187,448.8689,5
10425,10425,2020-11-16 10:31:36.187,447.9765,5
10435,10435,2020-11-16 10:32:06.187,447.10332999999997,5
10445,10445,2020-11-16 10:32:36.187,445.3402,5
10455,10455,2020-11-16 10:33:06.187,443.66115999999994,5
10465,10465,2020-11-16 10:33:36.187,442.06165,5
10475,10475,2020-11-16 10:34:06.187,440.65655999999996,5
10485,10485,2020-11-16 10:34:36.187,439.3348,5
10495,10495,2020-11-16 10:35:06.187,438.09564000000006,5
10505,10505,2020-11-16 10:35:36.187,436.93895999999995,5
10515,10515,2020-11-16 10:36:06.187,435.86545,5
10525,10525,2020-11-16 10:36:36.187,434.87674000000004,5
10535,10535,2020-11-16 10:37:06.187,433.48846,5
10545,10545,2020-11-16 10:37:36.187,432.31015,5
10555,10555,2020-11-16 10:38:06.187,431.1591,5
10565,10565,2020-11-16 10:38:36.187,430.03488,5
10575,10575,2020-11-16 10:39:06.187,428.93744000000004,5
10585,10585,2020-11-16 10:39:36.187,427.8666,5
10595,10595,2020-11-16 10:40:06.187,426.82245,5
10605,10605,2020-11-16 10:40:36.187,425.805,5
10615,10615,2020-11-16 10:41:06.187,424.81435999999997,5
10625,10625,2020-11-16 10:41:36.187,423.85085999999995,5
10635,10635,2020-11-16 10:42:06.187,422.9148,5
10645,10645,2020-11-16 10:42:36.187,421.11523,5
10655,10655,2020-11-16 10:43:06.187,419.21335,5
10665,10665,2020-11-16 10:43:36.187,417.4159,5
10675,10675,2020-11-16 10:44:06.187,415.83078,5
10685,10685,2020-11-16 10:44:36.187,414.34933,5
10695,10695,2020-11-16 10:45:06.187,412.96967,5
10705,10705,2020-11-16 10:45:36.187,411.86652000000004,5
10715,10715,2020-11-16 10:46:06.187,410.8541,5
10725,10725,2020-11-16 10:46:36.187,409.93512000000004,5
10735,10735,2020-11-16 10:47:06.187,409.1133,5
10745,10745,2020-11-16 10:47:36.187,407.78717,5
10755,10755,2020-11-16 10:48:06.187,406.49802,5
10765,10765,2020-11-16 10:48:36.187,405.2451,5
10775,10775,2020-11-16 10:49:06.187,404.02786000000003,5
10785,10785,2020-11-16 10:49:36.187,402.8459,5
10795,10795,2020-11-16 10:50:06.187,401.69882,5
10805,10805,2020-11-16 10:50:36.187,400.58655,5
10815,10815,2020-11-16 10:51:06.187,399.50903,5
10825,10825,2020-11-16 10:51:36.187,398.46637000000004,5
10835,10835,2020-11-16 10:52:06.187,396.19266,5
10845,10845,2020-11-16 10:52:36.187,394.16373,5
10855,10855,2020-11-16 10:53:06.187,392.2694,5
10865,10865,2020-11-16 10:53:36.187,390.5026,5
10875,10875,2020-11-16 10:54:06.187,388.85822,5
10885,10885,2020-11-16 10:54:36.187,387.33304,5
10895,10895,2020-11-16 10:55:06.187,385.92517000000004,5
10905,10905,2020-11-16 10:55:36.187,384.80400000000003,5
10915,10915,2020-11-16 10:56:06.187,383.79086,5
10925,10925,2020-11-16 10:56:36.187,382.88962000000004,5
10935,10935,2020-11-16 10:57:06.187,382.1055,5
10945,10945,2020-11-16 10:57:36.187,380.8367,5
10955,10955,2020-11-16 10:58:06.187,379.52274,5
10965,10965,2020-11-16 10:58:36.187,378.2519,5
10975,10975,2020-11-16 10:59:06.187,377.02365,5
10985,10985,2020-11-16 10:59:36.187,375.8376,5
10995,10995,2020-11-16 11:00:06.187,374.8455,5
11005,11005,2020-11-16 11:00:36.187,373.99057,5
11015,11015,2020-11-16 11:01:06.187,373.18185,5
11025,11025,2020-11-16 11:01:36.187,370.81497,5
11035,11035,2020-11-16 11:02:06.187,368.61987,5
11045,11045,2020-11-16 11:02:36.187,366.58362,5
11055,11055,2020-11-16 11:03:06.187,364.69702,5
11065,11065,2020-11-16 11:03:36.187,362.95364,5
11075,11075,2020-11-16 11:04:06.187,361.52466,5
11085,11085,2020-11-16 11:04:36.187,360.22037,5
11095,11095,2020-11-16 11:05:06.187,359.04218,5
11105,11105,2020-11-16 11:05:36.187,357.9931,5
11115,11115,2020-11-16 11:06:06.187,357.07802999999996,5
11125,11125,2020-11-16 11:06:36.187,356.30405,5
11135,11135,2020-11-16 11:07:06.187,354.8484,5
11145,11145,2020-11-16 11:07:36.187,353.44565,5
11155,11155,2020-11-16 11:08:06.187,352.0945,5
11165,11165,2020-11-16 11:08:36.187,350.79416000000003,5
11175,11175,2020-11-16 11:09:06.187,349.5439,5
11185,11185,2020-11-16 11:09:36.187,346.718,5
11195,11195,2020-11-16 11:10:06.187,344.0915,5
11205,11205,2020-11-16 11:10:36.187,341.73654,5
11215,11215,2020-11-16 11:11:06.187,339.55147999999997,5
11225,11225,2020-11-16 11:11:36.187,337.52617999999995,5
11235,11235,2020-11-16 11:12:06.187,335.65356,5
11245,11245,2020-11-16 11:12:36.187,333.92883,5
11255,11255,2020-11-16 11:13:06.187,332.34924,5
11265,11265,2020-11-16 11:13:36.187,331.07397000000003,5
11275,11275,2020-11-16 11:14:06.187,329.9342,5
11285,11285,2020-11-16 11:14:36.187,328.93414,5
11295,11295,2020-11-16 11:15:06.187,328.2085,5
11305,11305,2020-11-16 11:15:36.187,327.6596,5
11315,11315,2020-11-16 11:16:06.187,327.30466,5
11325,11325,2020-11-16 11:16:36.187,326.02454,5
11335,11335,2020-11-16 11:17:06.187,324.80176,5
11345,11345,2020-11-16 11:17:36.187,321.84286000000003,5
11355,11355,2020-11-16 11:18:06.187,319.10623,5
11365,11365,2020-11-16 11:18:36.187,316.56845,5
11375,11375,2020-11-16 11:19:06.187,314.30672999999996,5
11385,11385,2020-11-16 11:19:36.187,312.22283999999996,5
11395,11395,2020-11-16 11:20:06.187,310.30922999999996,5
11405,11405,2020-11-16 11:20:36.187,308.56122,5
11415,11415,2020-11-16 11:21:06.187,306.9765,5
11425,11425,2020-11-16 11:21:36.187,305.55518,5
11435,11435,2020-11-16 11:22:06.187,304.29953,5
11445,11445,2020-11-16 11:22:36.187,303.36966,5
11455,11455,2020-11-16 11:23:06.187,302.61057,5
11465,11465,2020-11-16 11:23:36.187,302.03472999999997,5
11475,11475,2020-11-16 11:24:06.187,301.6597,5
11485,11485,2020-11-16 11:24:36.187,300.38196,5
11495,11495,2020-11-16 11:25:06.187,296.97775,5
11505,11505,2020-11-16 11:25:36.187,293.85434,5
11515,11515,2020-11-16 11:26:06.187,291.16724,5
11525,11525,2020-11-16 11:26:36.187,288.68106,5
11535,11535,2020-11-16 11:27:06.187,286.38184,5
11545,11545,2020-11-16 11:27:36.187,284.25946,5
11555,11555,2020-11-16 11:28:06.187,282.30685,5
11565,11565,2020-11-16 11:28:36.187,280.61887,5
11575,11575,2020-11-16 11:29:06.187,279.10675,5
11585,11585,2020-11-16 11:29:36.187,277.77246,5
11595,11595,2020-11-16 11:30:06.187,276.62076,5
11605,11605,2020-11-16 11:30:36.187,275.80927,5
11615,11615,2020-11-16 11:31:06.187,275.1927,5
11625,11625,2020-11-16 11:31:36.187,274.78854,5
11635,11635,2020-11-16 11:32:06.187,272.24207,5
11645,11645,2020-11-16 11:32:36.187,268.90845,5
11655,11655,2020-11-16 11:33:06.187,265.84732,5
11665,11665,2020-11-16 11:33:36.187,263.21255,5
11675,11675,2020-11-16 11:34:06.187,260.78283999999996,5
11685,11685,2020-11-16 11:34:36.187,258.54675,5
11695,11695,2020-11-16 11:35:06.187,256.4962,5
11705,11705,2020-11-16 11:35:36.187,254.6262,5
11715,11715,2020-11-16 11:36:06.187,252.93433,5
11725,11725,2020-11-16 11:36:36.187,251.42057999999997,5
11735,11735,2020-11-16 11:37:06.187,250.08742999999998,5
11745,11745,2020-11-16 11:37:36.187,249.05517999999998,5
11755,11755,2020-11-16 11:38:06.187,245.9297,5
11765,11765,2020-11-16 11:38:36.187,243.19995,5
11775,11775,2020-11-16 11:39:06.187,240.84927000000002,5
11785,11785,2020-11-16 11:39:36.187,238.87239,5
11795,11795,2020-11-16 11:40:06.187,235.95967000000002,5
11805,11805,2020-11-16 11:40:36.187,233.26872000000003,5
11815,11815,2020-11-16 11:41:06.187,230.86732,5
11825,11825,2020-11-16 11:41:36.187,228.6722,5
11835,11835,2020-11-16 11:42:06.187,226.67754,5
11845,11845,2020-11-16 11:42:36.187,225.03116,5
11855,11855,2020-11-16 11:43:06.187,223.57202,5
11865,11865,2020-11-16 11:43:36.187,222.30411,5
11875,11875,2020-11-16 11:44:06.187,218.64622000000003,5
11885,11885,2020-11-16 11:44:36.187,215.40999,5
11895,11895,2020-11-16 11:45:06.187,212.56832999999997,5
11905,11905,2020-11-16 11:45:36.187,210.40265,5
11915,11915,2020-11-16 11:46:06.187,208.61606,5
11925,11925,2020-11-16 11:46:36.187,207.22092,5
11935,11935,2020-11-16 11:47:06.187,204.75427,5
11945,11945,2020-11-16 11:47:36.187,202.49777,5
11955,11955,2020-11-16 11:48:06.187,200.44543000000002,5
11965,11965,2020-11-16 11:48:36.187,198.68726,5
11975,11975,2020-11-16 11:49:06.187,194.50581,5
11985,11985,2020-11-16 11:49:36.187,190.78786000000002,5
11995,11995,2020-11-16 11:50:06.187,187.4953,5
12005,12005,2020-11-16 11:50:36.187,184.60442,5
12015,12015,2020-11-16 11:51:06.187,182.10262,5
12025,12025,2020-11-16 11:51:36.187,179.98665,5
12035,12035,2020-11-16 11:52:06.187,178.26237,5
12045,12045,2020-11-16 11:52:36.187,176.94548,5
12055,12055,2020-11-16 11:53:06.187,174.6004,5
12065,12065,2020-11-16 11:53:36.187,170.0211,5
12075,12075,2020-11-16 11:54:06.187,165.5291,5
12085,12085,2020-11-16 11:54:36.187,161.50784,5
12095,12095,2020-11-16 11:55:06.187,157.91763,5
12105,12105,2020-11-16 11:55:36.187,154.90034,5
12115,12115,2020-11-16 11:56:06.187,152.25735,5
12125,12125,2020-11-16 11:56:36.187,149.98428,5
12135,12135,2020-11-16 11:57:06.187,148.08417,5
12145,12145,2020-11-16 11:57:36.187,146.68623,5
12155,12155,2020-11-16 11:58:06.187,142.75003,5
12165,12165,2020-11-16 11:58:36.187,139.48439,5
12175,12175,2020-11-16 11:59:06.187,135.23654,5
12185,12185,2020-11-16 11:59:36.187,131.43343000000002,5
12195,12195,2020-11-16 12:00:06.187,128.04591000000002,5
12205,12205,2020-11-16 12:00:36.187,125.14708,5
12215,12215,2020-11-16 12:01:06.187,122.80221599999999,5
12225,12225,2020-11-16 12:01:36.187,120.84626999999999,5
12235,12235,2020-11-16 12:02:06.187,116.00551000000002,5
12245,12245,2020-11-16 12:02:36.187,112.05778000000001,5
12255,12255,2020-11-16 12:03:06.187,108.75795,5
12265,12265,2020-11-16 12:03:36.187,106.09663,5
12275,12275,2020-11-16 12:04:06.187,102.45991500000001,5
12285,12285,2020-11-16 12:04:36.187,99.24164,5
12295,12295,2020-11-16 12:05:06.187,93.01861,5
12305,12305,2020-11-16 12:05:36.187,87.50158,5
12315,12315,2020-11-16 12:06:06.187,82.66427,5
12325,12325,2020-11-16 12:06:36.187,78.48761999999999,5
