,Unnamed: 0,time,preds,step
13876,13876,2020-11-16 09:50:06.187,537.18494,6
13886,13886,2020-11-16 09:50:36.187,536.1981,6
13896,13896,2020-11-16 09:51:06.187,536.0254,6
13906,13906,2020-11-16 09:51:36.187,535.1827400000001,6
13916,13916,2020-11-16 09:52:06.187,534.41,6
13926,13926,2020-11-16 09:52:36.187,533.47186,6
13936,13936,2020-11-16 09:53:06.187,532.3443,6
13946,13946,2020-11-16 09:53:36.187,531.3512,6
13956,13956,2020-11-16 09:54:06.187,530.17084,6
13966,13966,2020-11-16 09:54:36.187,529.08276,6
13976,13976,2020-11-16 09:55:06.187,528.06854,6
13986,13986,2020-11-16 09:55:36.187,526.8989,6
13996,13996,2020-11-16 09:56:06.187,526.1747,6
14006,14006,2020-11-16 09:56:36.187,525.1796,6
14016,14016,2020-11-16 09:57:06.187,524.3203,6
14026,14026,2020-11-16 09:57:36.187,523.6195700000001,6
14036,14036,2020-11-16 09:58:06.187,522.9984,6
14046,14046,2020-11-16 09:58:36.187,522.2119,6
14056,14056,2020-11-16 09:59:06.187,521.4222,6
14066,14066,2020-11-16 09:59:36.187,519.9213,6
14076,14076,2020-11-16 10:00:06.187,518.6396,6
14086,14086,2020-11-16 10:00:36.187,517.2384,6
14096,14096,2020-11-16 10:01:06.187,516.15607,6
14106,14106,2020-11-16 10:01:36.187,515.13513,6
14116,14116,2020-11-16 10:02:06.187,513.92267,6
14126,14126,2020-11-16 10:02:36.187,512.8859,6
14136,14136,2020-11-16 10:03:06.187,511.9801,6
14146,14146,2020-11-16 10:03:36.187,510.8974,6
14156,14156,2020-11-16 10:04:06.187,509.60962,6
14166,14166,2020-11-16 10:04:36.187,508.48685,6
14176,14176,2020-11-16 10:05:06.187,507.4056,6
14186,14186,2020-11-16 10:05:36.187,506.40915,6
14196,14196,2020-11-16 10:06:06.187,505.4906,6
14206,14206,2020-11-16 10:06:36.187,504.4808,6
14216,14216,2020-11-16 10:07:06.187,503.3729,6
14226,14226,2020-11-16 10:07:36.187,502.4154,6
14236,14236,2020-11-16 10:08:06.187,501.4301,6
14246,14246,2020-11-16 10:08:36.187,500.3817,6
14256,14256,2020-11-16 10:09:06.187,499.3575,6
14266,14266,2020-11-16 10:09:36.187,498.3815,6
14276,14276,2020-11-16 10:10:06.187,497.51788,6
14286,14286,2020-11-16 10:10:36.187,496.6536,6
14296,14296,2020-11-16 10:11:06.187,494.6187,6
14306,14306,2020-11-16 10:11:36.187,493.51672,6
14316,14316,2020-11-16 10:12:06.187,492.47222999999997,6
14326,14326,2020-11-16 10:12:36.187,491.50244000000004,6
14336,14336,2020-11-16 10:13:06.187,490.73562999999996,6
14346,14346,2020-11-16 10:13:36.187,489.77515,6
14356,14356,2020-11-16 10:14:06.187,488.5414,6
14366,14366,2020-11-16 10:14:36.187,488.46747,6
14376,14376,2020-11-16 10:15:06.187,487.4547,6
14386,14386,2020-11-16 10:15:36.187,486.30627000000004,6
14396,14396,2020-11-16 10:16:06.187,484.846,6
14406,14406,2020-11-16 10:16:36.187,483.44946,6
14416,14416,2020-11-16 10:17:06.187,482.0345,6
14426,14426,2020-11-16 10:17:36.187,480.7538,6
14436,14436,2020-11-16 10:18:06.187,479.34744000000006,6
14446,14446,2020-11-16 10:18:36.187,478.17145,6
14456,14456,2020-11-16 10:19:06.187,477.03087999999997,6
14466,14466,2020-11-16 10:19:36.187,476.15195,6
14476,14476,2020-11-16 10:20:06.187,475.05334000000005,6
14486,14486,2020-11-16 10:20:36.187,474.14792,6
14496,14496,2020-11-16 10:21:06.187,473.38315,6
14506,14506,2020-11-16 10:21:36.187,472.80463,6
14516,14516,2020-11-16 10:22:06.187,472.32352000000003,6
14526,14526,2020-11-16 10:22:36.187,470.07828,6
14536,14536,2020-11-16 10:23:06.187,469.05984000000007,6
14546,14546,2020-11-16 10:23:36.187,468.06732,6
14556,14556,2020-11-16 10:24:06.187,466.98037999999997,6
14566,14566,2020-11-16 10:24:36.187,466.23862,6
14576,14576,2020-11-16 10:25:06.187,465.579,6
14586,14586,2020-11-16 10:25:36.187,464.07135,6
14596,14596,2020-11-16 10:26:06.187,463.1906,6
14606,14606,2020-11-16 10:26:36.187,462.37778,6
14616,14616,2020-11-16 10:27:06.187,460.9921,6
14626,14626,2020-11-16 10:27:36.187,459.32523,6
14636,14636,2020-11-16 10:28:06.187,457.69788,6
14646,14646,2020-11-16 10:28:36.187,455.81937,6
14656,14656,2020-11-16 10:29:06.187,454.34753,6
14666,14666,2020-11-16 10:29:36.187,453.2191,6
14676,14676,2020-11-16 10:30:06.187,452.03394000000003,6
14686,14686,2020-11-16 10:30:36.187,451.10828,6
14696,14696,2020-11-16 10:31:06.187,450.13525,6
14706,14706,2020-11-16 10:31:36.187,449.05643,6
14716,14716,2020-11-16 10:32:06.187,448.0749,6
14726,14726,2020-11-16 10:32:36.187,447.26532000000003,6
14736,14736,2020-11-16 10:33:06.187,444.47598,6
14746,14746,2020-11-16 10:33:36.187,443.68185,6
14756,14756,2020-11-16 10:34:06.187,442.7486,6
14766,14766,2020-11-16 10:34:36.187,441.9089,6
14776,14776,2020-11-16 10:35:06.187,441.14877,6
14786,14786,2020-11-16 10:35:36.187,440.3987,6
14796,14796,2020-11-16 10:36:06.187,439.42065,6
14806,14806,2020-11-16 10:36:36.187,438.42432,6
14816,14816,2020-11-16 10:37:06.187,437.4295,6
14826,14826,2020-11-16 10:37:36.187,436.04202000000004,6
14836,14836,2020-11-16 10:38:06.187,434.6452,6
14846,14846,2020-11-16 10:38:36.187,432.97925,6
14856,14856,2020-11-16 10:39:06.187,431.2314,6
14866,14866,2020-11-16 10:39:36.187,430.06395999999995,6
14876,14876,2020-11-16 10:40:06.187,428.54947000000004,6
14886,14886,2020-11-16 10:40:36.187,427.2213,6
14896,14896,2020-11-16 10:41:06.187,426.18435999999997,6
14906,14906,2020-11-16 10:41:36.187,424.9908,6
14916,14916,2020-11-16 10:42:06.187,423.75754000000006,6
14926,14926,2020-11-16 10:42:36.187,422.86672999999996,6
14936,14936,2020-11-16 10:43:06.187,419.8761,6
14946,14946,2020-11-16 10:43:36.187,418.8007,6
14956,14956,2020-11-16 10:44:06.187,418.13037,6
14966,14966,2020-11-16 10:44:36.187,417.216,6
14976,14976,2020-11-16 10:45:06.187,416.27914,6
14986,14986,2020-11-16 10:45:36.187,415.4596,6
14996,14996,2020-11-16 10:46:06.187,414.83926,6
15006,15006,2020-11-16 10:46:36.187,413.85657000000003,6
15016,15016,2020-11-16 10:47:06.187,413.13425,6
15026,15026,2020-11-16 10:47:36.187,412.09842000000003,6
15036,15036,2020-11-16 10:48:06.187,410.3532,6
15046,15046,2020-11-16 10:48:36.187,408.336,6
15056,15056,2020-11-16 10:49:06.187,406.30400000000003,6
15066,15066,2020-11-16 10:49:36.187,404.86465,6
15076,15076,2020-11-16 10:50:06.187,403.10663,6
15086,15086,2020-11-16 10:50:36.187,401.68677,6
15096,15096,2020-11-16 10:51:06.187,400.6616,6
15106,15106,2020-11-16 10:51:36.187,399.34222,6
15116,15116,2020-11-16 10:52:06.187,398.12534,6
15126,15126,2020-11-16 10:52:36.187,393.6743,6
15136,15136,2020-11-16 10:53:06.187,393.2655,6
15146,15146,2020-11-16 10:53:36.187,392.74045,6
15156,15156,2020-11-16 10:54:06.187,392.11593999999997,6
15166,15166,2020-11-16 10:54:36.187,391.14645,6
15176,15176,2020-11-16 10:55:06.187,390.26953,6
15186,15186,2020-11-16 10:55:36.187,389.01,6
15196,15196,2020-11-16 10:56:06.187,388.28275,6
15206,15206,2020-11-16 10:56:36.187,387.41763,6
15216,15216,2020-11-16 10:57:06.187,385.52765,6
15226,15226,2020-11-16 10:57:36.187,384.58426000000003,6
15236,15236,2020-11-16 10:58:06.187,382.92026,6
15246,15246,2020-11-16 10:58:36.187,380.74786,6
15256,15256,2020-11-16 10:59:06.187,379.36699999999996,6
15266,15266,2020-11-16 10:59:36.187,377.54355,6
15276,15276,2020-11-16 11:00:06.187,376.20493,6
15286,15286,2020-11-16 11:00:36.187,375.15237,6
15296,15296,2020-11-16 11:01:06.187,374.25586,6
15306,15306,2020-11-16 11:01:36.187,373.28042999999997,6
15316,15316,2020-11-16 11:02:06.187,368.01218,6
15326,15326,2020-11-16 11:02:36.187,367.61737,6
15336,15336,2020-11-16 11:03:06.187,367.23615,6
15346,15346,2020-11-16 11:03:36.187,366.52435,6
15356,15356,2020-11-16 11:04:06.187,365.44632,6
15366,15366,2020-11-16 11:04:36.187,364.9119,6
15376,15376,2020-11-16 11:05:06.187,363.7694,6
15386,15386,2020-11-16 11:05:36.187,362.88135,6
15396,15396,2020-11-16 11:06:06.187,362.13202,6
15406,15406,2020-11-16 11:06:36.187,360.5491,6
15416,15416,2020-11-16 11:07:06.187,359.55343999999997,6
15426,15426,2020-11-16 11:07:36.187,357.2534,6
15436,15436,2020-11-16 11:08:06.187,354.9017,6
15446,15446,2020-11-16 11:08:36.187,353.24136,6
15456,15456,2020-11-16 11:09:06.187,351.2208,6
15466,15466,2020-11-16 11:09:36.187,349.89694,6
15476,15476,2020-11-16 11:10:06.187,343.7608,6
15486,15486,2020-11-16 11:10:36.187,341.80408,6
15496,15496,2020-11-16 11:11:06.187,341.33487,6
15506,15506,2020-11-16 11:11:36.187,340.99802,6
15516,15516,2020-11-16 11:12:06.187,339.7609,6
15526,15526,2020-11-16 11:12:36.187,339.12332000000004,6
15536,15536,2020-11-16 11:13:06.187,337.64563,6
15546,15546,2020-11-16 11:13:36.187,336.80115,6
15556,15556,2020-11-16 11:14:06.187,335.92400000000004,6
15566,15566,2020-11-16 11:14:36.187,333.54822,6
15576,15576,2020-11-16 11:15:06.187,330.28247000000005,6
15586,15586,2020-11-16 11:15:36.187,327.41205,6
15596,15596,2020-11-16 11:16:06.187,326.95172,6
15606,15606,2020-11-16 11:16:36.187,328.961,6
15616,15616,2020-11-16 11:17:06.187,327.06683,6
15626,15626,2020-11-16 11:17:36.187,325.92874,6
15636,15636,2020-11-16 11:18:06.187,318.82034,6
15646,15646,2020-11-16 11:18:36.187,316.84943,6
15656,15656,2020-11-16 11:19:06.187,316.42843999999997,6
15666,15666,2020-11-16 11:19:36.187,316.04272000000003,6
15676,15676,2020-11-16 11:20:06.187,314.7092,6
15686,15686,2020-11-16 11:20:36.187,313.9707,6
15696,15696,2020-11-16 11:21:06.187,312.59055,6
15706,15706,2020-11-16 11:21:36.187,311.76648,6
15716,15716,2020-11-16 11:22:06.187,310.64847000000003,6
15726,15726,2020-11-16 11:22:36.187,308.05527,6
15736,15736,2020-11-16 11:23:06.187,304.90932999999995,6
15746,15746,2020-11-16 11:23:36.187,302.00903,6
15756,15756,2020-11-16 11:24:06.187,301.5528,6
15766,15766,2020-11-16 11:24:36.187,303.8132,6
15776,15776,2020-11-16 11:25:06.187,301.9256,6
15786,15786,2020-11-16 11:25:36.187,293.23703,6
15796,15796,2020-11-16 11:26:06.187,291.1421,6
15806,15806,2020-11-16 11:26:36.187,290.19086,6
15816,15816,2020-11-16 11:27:06.187,289.52325,6
15826,15826,2020-11-16 11:27:36.187,288.6602,6
15836,15836,2020-11-16 11:28:06.187,287.8807,6
15846,15846,2020-11-16 11:28:36.187,286.51285,6
15856,15856,2020-11-16 11:29:06.187,285.2468,6
15866,15866,2020-11-16 11:29:36.187,284.3065,6
15876,15876,2020-11-16 11:30:06.187,282.18744,6
15886,15886,2020-11-16 11:30:36.187,279.26758,6
15896,15896,2020-11-16 11:31:06.187,276.5202,6
15906,15906,2020-11-16 11:31:36.187,274.39294,6
15916,15916,2020-11-16 11:32:06.187,274.95447,6
15926,15926,2020-11-16 11:32:36.187,267.28592000000003,6
15936,15936,2020-11-16 11:33:06.187,265.60193,6
15946,15946,2020-11-16 11:33:36.187,264.06494,6
15956,15956,2020-11-16 11:34:06.187,263.01923,6
15966,15966,2020-11-16 11:34:36.187,261.80554,6
15976,15976,2020-11-16 11:35:06.187,261.82117,6
15986,15986,2020-11-16 11:35:36.187,260.4395,6
15996,15996,2020-11-16 11:36:06.187,259.43997,6
16006,16006,2020-11-16 11:36:36.187,258.05887,6
16016,16016,2020-11-16 11:37:06.187,256.0862,6
16026,16026,2020-11-16 11:37:36.187,253.5434,6
16036,16036,2020-11-16 11:38:06.187,250.88887000000003,6
16046,16046,2020-11-16 11:38:36.187,242.68477000000001,6
16056,16056,2020-11-16 11:39:06.187,239.3503,6
16066,16066,2020-11-16 11:39:36.187,236.17838999999998,6
16076,16076,2020-11-16 11:40:06.187,235.87497000000002,6
16086,16086,2020-11-16 11:40:36.187,235.31635,6
16096,16096,2020-11-16 11:41:06.187,233.9578,6
16106,16106,2020-11-16 11:41:36.187,231.72214,6
16116,16116,2020-11-16 11:42:06.187,231.83132999999998,6
16126,16126,2020-11-16 11:42:36.187,230.49018999999998,6
16136,16136,2020-11-16 11:43:06.187,228.86302,6
16146,16146,2020-11-16 11:43:36.187,227.34325,6
16156,16156,2020-11-16 11:44:06.187,226.02022000000002,6
16166,16166,2020-11-16 11:44:36.187,217.27898,6
16176,16176,2020-11-16 11:45:06.187,213.84002999999998,6
16186,16186,2020-11-16 11:45:36.187,209.65587,6
16196,16196,2020-11-16 11:46:06.187,207.5545,6
16206,16206,2020-11-16 11:46:36.187,207.015,6
16216,16216,2020-11-16 11:47:06.187,208.37816,6
16226,16226,2020-11-16 11:47:36.187,206.065,6
16236,16236,2020-11-16 11:48:06.187,206.08844,6
16246,16246,2020-11-16 11:48:36.187,204.79745,6
16256,16256,2020-11-16 11:49:06.187,202.54762,6
16266,16266,2020-11-16 11:49:36.187,193.74477,6
16276,16276,2020-11-16 11:50:06.187,190.41577,6
16286,16286,2020-11-16 11:50:36.187,186.4623,6
16296,16296,2020-11-16 11:51:06.187,183.15749,6
16306,16306,2020-11-16 11:51:36.187,180.33864,6
16316,16316,2020-11-16 11:52:06.187,177.21765,6
16326,16326,2020-11-16 11:52:36.187,178.57295,6
16336,16336,2020-11-16 11:53:06.187,178.69572,6
16346,16346,2020-11-16 11:53:36.187,177.95692,6
16356,16356,2020-11-16 11:54:06.187,168.4311,6
16366,16366,2020-11-16 11:54:36.187,163.28798,6
16376,16376,2020-11-16 11:55:06.187,160.00626,6
16386,16386,2020-11-16 11:55:36.187,157.15683,6
16396,16396,2020-11-16 11:56:06.187,155.18842,6
16406,16406,2020-11-16 11:56:36.187,152.26842,6
16416,16416,2020-11-16 11:57:06.187,151.25092,6
16426,16426,2020-11-16 11:57:36.187,149.45537,6
16436,16436,2020-11-16 11:58:06.187,148.66905,6
16446,16446,2020-11-16 11:58:36.187,138.62053,6
16456,16456,2020-11-16 11:59:06.187,136.90056,6
16466,16466,2020-11-16 11:59:36.187,133.45178,6
16476,16476,2020-11-16 12:00:06.187,129.91176000000002,6
16486,16486,2020-11-16 12:00:36.187,128.5243,6
16496,16496,2020-11-16 12:01:06.187,124.72013999999999,6
16506,16506,2020-11-16 12:01:36.187,125.25358999999999,6
16516,16516,2020-11-16 12:02:06.187,123.16776000000002,6
16526,16526,2020-11-16 12:02:36.187,112.37111000000002,6
16536,16536,2020-11-16 12:03:06.187,107.96626,6
16546,16546,2020-11-16 12:03:36.187,103.66311999999999,6
16556,16556,2020-11-16 12:04:06.187,104.16966,6
16566,16566,2020-11-16 12:04:36.187,101.08375500000001,6
16576,16576,2020-11-16 12:05:06.187,98.75143,6
16586,16586,2020-11-16 12:05:36.187,80.291916,6
16596,16596,2020-11-16 12:06:06.187,78.13276,6
16606,16606,2020-11-16 12:06:36.187,75.82074,6
16616,16616,2020-11-16 12:07:06.187,72.952774,6
