,Unnamed: 0,time,prediction,step
9581,9581,2020-11-16 09:47:36.187,541.35504,1
9591,9591,2020-11-16 09:48:06.187,540.2772,1
9601,9601,2020-11-16 09:48:36.187,539.3534,1
9611,9611,2020-11-16 09:49:06.187,538.4217,1
9621,9621,2020-11-16 09:49:36.187,537.4820599999999,1
9631,9631,2020-11-16 09:50:06.187,536.5345,1
9641,9641,2020-11-16 09:50:36.187,535.57886,1
9651,9651,2020-11-16 09:51:06.187,534.6153,1
9661,9661,2020-11-16 09:51:36.187,533.64386,1
9671,9671,2020-11-16 09:52:06.187,532.6644,1
9681,9681,2020-11-16 09:52:36.187,531.6772,1
9691,9691,2020-11-16 09:53:06.187,530.682,1
9701,9701,2020-11-16 09:53:36.187,529.827,1
9711,9711,2020-11-16 09:54:06.187,528.95667,1
9721,9721,2020-11-16 09:54:36.187,528.1654,1
9731,9731,2020-11-16 09:55:06.187,527.36755,1
9741,9741,2020-11-16 09:55:36.187,526.5628,1
9751,9751,2020-11-16 09:56:06.187,525.751,1
9761,9761,2020-11-16 09:56:36.187,524.93195,1
9771,9771,2020-11-16 09:57:06.187,523.7858,1
9781,9781,2020-11-16 09:57:36.187,522.6498,1
9791,9791,2020-11-16 09:58:06.187,521.52356,1
9801,9801,2020-11-16 09:58:36.187,520.40704,1
9811,9811,2020-11-16 09:59:06.187,519.3,1
9821,9821,2020-11-16 09:59:36.187,518.1078,1
9831,9831,2020-11-16 10:00:06.187,516.9182,1
9841,9841,2020-11-16 10:00:36.187,515.7312,1
9851,9851,2020-11-16 10:01:06.187,514.5467,1
9861,9861,2020-11-16 10:01:36.187,513.36456,1
9871,9871,2020-11-16 10:02:06.187,512.1848,1
9881,9881,2020-11-16 10:02:36.187,511.00735,1
9891,9891,2020-11-16 10:03:06.187,509.9809,1
9901,9901,2020-11-16 10:03:36.187,509.03217,1
9911,9911,2020-11-16 10:04:06.187,508.08362,1
9921,9921,2020-11-16 10:04:36.187,507.13527999999997,1
9931,9931,2020-11-16 10:05:06.187,506.1871,1
9941,9941,2020-11-16 10:05:36.187,505.2391,1
9951,9951,2020-11-16 10:06:06.187,504.29125999999997,1
9961,9961,2020-11-16 10:06:36.187,503.3436,1
9971,9971,2020-11-16 10:07:06.187,502.3961,1
9981,9981,2020-11-16 10:07:36.187,501.4487,1
9991,9991,2020-11-16 10:08:06.187,500.50145999999995,1
10001,10001,2020-11-16 10:08:36.187,499.17624000000006,1
10011,10011,2020-11-16 10:09:06.187,497.8887,1
10021,10021,2020-11-16 10:09:36.187,496.6379,1
10031,10031,2020-11-16 10:10:06.187,495.42294000000004,1
10041,10041,2020-11-16 10:10:36.187,494.24325999999996,1
10051,10051,2020-11-16 10:11:06.187,493.0984,1
10061,10061,2020-11-16 10:11:36.187,491.9882,1
10071,10071,2020-11-16 10:12:06.187,490.87945999999994,1
10081,10081,2020-11-16 10:12:36.187,489.7791,1
10091,10091,2020-11-16 10:13:06.187,488.68704,1
10101,10101,2020-11-16 10:13:36.187,487.60315,1
10111,10111,2020-11-16 10:14:06.187,486.52734000000004,1
10121,10121,2020-11-16 10:14:36.187,485.45947,1
10131,10131,2020-11-16 10:15:06.187,484.3994,1
10141,10141,2020-11-16 10:15:36.187,483.34722999999997,1
10151,10151,2020-11-16 10:16:06.187,482.30276,1
10161,10161,2020-11-16 10:16:36.187,481.26595999999995,1
10171,10171,2020-11-16 10:17:06.187,480.37708,1
10181,10181,2020-11-16 10:17:36.187,479.4885,1
10191,10191,2020-11-16 10:18:06.187,478.6895,1
10201,10201,2020-11-16 10:18:36.187,477.9005,1
10211,10211,2020-11-16 10:19:06.187,477.12177,1
10221,10221,2020-11-16 10:19:36.187,476.3537,1
10231,10231,2020-11-16 10:20:06.187,474.97235,1
10241,10241,2020-11-16 10:20:36.187,473.63824000000005,1
10251,10251,2020-11-16 10:21:06.187,472.34988,1
10261,10261,2020-11-16 10:21:36.187,471.10623,1
10271,10271,2020-11-16 10:22:06.187,469.90652,1
10281,10281,2020-11-16 10:22:36.187,468.75027,1
10291,10291,2020-11-16 10:23:06.187,467.63745,1
10301,10301,2020-11-16 10:23:36.187,466.2941,1
10311,10311,2020-11-16 10:24:06.187,464.9708,1
10321,10321,2020-11-16 10:24:36.187,463.66677999999996,1
10331,10331,2020-11-16 10:25:06.187,462.3812,1
10341,10341,2020-11-16 10:25:36.187,461.1134,1
10351,10351,2020-11-16 10:26:06.187,459.86282,1
10361,10361,2020-11-16 10:26:36.187,458.6289,1
10371,10371,2020-11-16 10:27:06.187,457.6286,1
10381,10381,2020-11-16 10:27:36.187,456.64282000000003,1
10391,10391,2020-11-16 10:28:06.187,455.6717,1
10401,10401,2020-11-16 10:28:36.187,454.7153,1
10411,10411,2020-11-16 10:29:06.187,453.7739,1
10421,10421,2020-11-16 10:29:36.187,452.84763,1
10431,10431,2020-11-16 10:30:06.187,451.9368,1
10441,10441,2020-11-16 10:30:36.187,450.27698,1
10451,10451,2020-11-16 10:31:06.187,448.68505999999996,1
10461,10461,2020-11-16 10:31:36.187,447.1573,1
10471,10471,2020-11-16 10:32:06.187,445.77948,1
10481,10481,2020-11-16 10:32:36.187,444.46887000000004,1
10491,10491,2020-11-16 10:33:06.187,443.22472999999997,1
10501,10501,2020-11-16 10:33:36.187,442.04703,1
10511,10511,2020-11-16 10:34:06.187,440.93627999999995,1
10521,10521,2020-11-16 10:34:36.187,439.8938,1
10531,10531,2020-11-16 10:35:06.187,438.5559,1
10541,10541,2020-11-16 10:35:36.187,437.3935,1
10551,10551,2020-11-16 10:36:06.187,436.25300000000004,1
10561,10561,2020-11-16 10:36:36.187,435.1341,1
10571,10571,2020-11-16 10:37:06.187,434.0367,1
10581,10581,2020-11-16 10:37:36.187,432.96075,1
10591,10591,2020-11-16 10:38:06.187,431.90622,1
10601,10601,2020-11-16 10:38:36.187,430.8732,1
10611,10611,2020-11-16 10:39:06.187,429.86175999999995,1
10621,10621,2020-11-16 10:39:36.187,428.87212999999997,1
10631,10631,2020-11-16 10:40:06.187,427.90457000000004,1
10641,10641,2020-11-16 10:40:36.187,426.2096,1
10651,10651,2020-11-16 10:41:06.187,424.42596,1
10661,10661,2020-11-16 10:41:36.187,422.72655999999995,1
10671,10671,2020-11-16 10:42:06.187,421.1915,1
10681,10681,2020-11-16 10:42:36.187,419.73992999999996,1
10691,10691,2020-11-16 10:43:06.187,418.37023999999997,1
10701,10701,2020-11-16 10:43:36.187,417.22958,1
10711,10711,2020-11-16 10:44:06.187,416.16187,1
10721,10721,2020-11-16 10:44:36.187,415.1693,1
10731,10731,2020-11-16 10:45:06.187,414.2549,1
10741,10741,2020-11-16 10:45:36.187,412.9676,1
10751,10751,2020-11-16 10:46:06.187,411.71002000000004,1
10761,10761,2020-11-16 10:46:36.187,410.48163,1
10771,10771,2020-11-16 10:47:06.187,409.28192,1
10781,10781,2020-11-16 10:47:36.187,408.1105,1
10791,10791,2020-11-16 10:48:06.187,406.96722,1
10801,10801,2020-11-16 10:48:36.187,405.85184,1
10811,10811,2020-11-16 10:49:06.187,404.76443,1
10821,10821,2020-11-16 10:49:36.187,403.70502,1
10831,10831,2020-11-16 10:50:06.187,401.60977,1
10841,10841,2020-11-16 10:50:36.187,399.70517,1
10851,10851,2020-11-16 10:51:06.187,397.90897,1
10861,10861,2020-11-16 10:51:36.187,396.21533,1
10871,10871,2020-11-16 10:52:06.187,394.62018,1
10881,10881,2020-11-16 10:52:36.187,393.12088,1
10891,10891,2020-11-16 10:53:06.187,391.71587999999997,1
10901,10901,2020-11-16 10:53:36.187,390.54787999999996,1
10911,10911,2020-11-16 10:54:06.187,389.46667,1
10921,10921,2020-11-16 10:54:36.187,388.4753,1
10931,10931,2020-11-16 10:55:06.187,387.5781,1
10941,10941,2020-11-16 10:55:36.187,386.3242,1
10951,10951,2020-11-16 10:56:06.187,385.04053,1
10961,10961,2020-11-16 10:56:36.187,383.79156,1
10971,10971,2020-11-16 10:57:06.187,382.57672,1
10981,10981,2020-11-16 10:57:36.187,381.39578,1
10991,10991,2020-11-16 10:58:06.187,380.37717000000004,1
11001,11001,2020-11-16 10:58:36.187,379.46207000000004,1
11011,11011,2020-11-16 10:59:06.187,378.58405,1
11021,11021,2020-11-16 10:59:36.187,376.39508,1
11031,11031,2020-11-16 11:00:06.187,374.34454,1
11041,11041,2020-11-16 11:00:36.187,372.42177999999996,1
11051,11051,2020-11-16 11:01:06.187,370.61935,1
11061,11061,2020-11-16 11:01:36.187,368.93195,1
11071,11071,2020-11-16 11:02:06.187,367.50363,1
11081,11081,2020-11-16 11:02:36.187,366.17548,1
11091,11091,2020-11-16 11:03:06.187,364.9485,1
11101,11101,2020-11-16 11:03:36.187,363.82516,1
11111,11111,2020-11-16 11:04:06.187,362.8094,1
11121,11121,2020-11-16 11:04:36.187,361.90686,1
11131,11131,2020-11-16 11:05:06.187,360.50327000000004,1
11141,11141,2020-11-16 11:05:36.187,359.14212000000003,1
11151,11151,2020-11-16 11:06:06.187,357.82236,1
11161,11161,2020-11-16 11:06:36.187,356.54332999999997,1
11171,11171,2020-11-16 11:07:06.187,355.3045,1
11181,11181,2020-11-16 11:07:36.187,352.74152000000004,1
11191,11191,2020-11-16 11:08:06.187,350.33907999999997,1
11201,11201,2020-11-16 11:08:36.187,348.1481,1
11211,11211,2020-11-16 11:09:06.187,346.09354,1
11221,11221,2020-11-16 11:09:36.187,344.16724,1
11231,11231,2020-11-16 11:10:06.187,342.36346000000003,1
11241,11241,2020-11-16 11:10:36.187,340.67838,1
11251,11251,2020-11-16 11:11:06.187,339.10967999999997,1
11261,11261,2020-11-16 11:11:36.187,337.79172,1
11271,11271,2020-11-16 11:12:06.187,336.58234,1
11281,11281,2020-11-16 11:12:36.187,335.485,1
11291,11291,2020-11-16 11:13:06.187,334.60098,1
11301,11301,2020-11-16 11:13:36.187,333.8587,1
11311,11311,2020-11-16 11:14:06.187,333.27182,1
11321,11321,2020-11-16 11:14:36.187,332.00256,1
11331,11331,2020-11-16 11:15:06.187,330.77924,1
11341,11341,2020-11-16 11:15:36.187,328.0974,1
11351,11351,2020-11-16 11:16:06.187,325.5943,1
11361,11361,2020-11-16 11:16:36.187,323.25082000000003,1
11371,11371,2020-11-16 11:17:06.187,321.12212999999997,1
11381,11381,2020-11-16 11:17:36.187,319.13602000000003,1
11391,11391,2020-11-16 11:18:06.187,317.28643999999997,1
11401,11401,2020-11-16 11:18:36.187,315.56964,1
11411,11411,2020-11-16 11:19:06.187,313.9837,1
11421,11421,2020-11-16 11:19:36.187,312.52872,1
11431,11431,2020-11-16 11:20:06.187,311.20645,1
11441,11441,2020-11-16 11:20:36.187,310.15186,1
11451,11451,2020-11-16 11:21:06.187,309.23395,1
11461,11461,2020-11-16 11:21:36.187,308.4628,1
11471,11471,2020-11-16 11:22:06.187,307.8524,1
11481,11481,2020-11-16 11:22:36.187,306.57852,1
11491,11491,2020-11-16 11:23:06.187,303.5209,1
11501,11501,2020-11-16 11:23:36.187,300.68887,1
11511,11511,2020-11-16 11:24:06.187,298.21326,1
11521,11521,2020-11-16 11:24:36.187,295.89867999999996,1
11531,11531,2020-11-16 11:25:06.187,293.7339,1
11541,11541,2020-11-16 11:25:36.187,291.71072000000004,1
11551,11551,2020-11-16 11:26:06.187,289.82358,1
11561,11561,2020-11-16 11:26:36.187,288.14175,1
11571,11571,2020-11-16 11:27:06.187,286.6007,1
11581,11581,2020-11-16 11:27:36.187,285.20203,1
11591,11591,2020-11-16 11:28:06.187,283.94952,1
11601,11601,2020-11-16 11:28:36.187,282.97598,1
11611,11611,2020-11-16 11:29:06.187,282.15836,1
11621,11621,2020-11-16 11:29:36.187,281.5107,1
11631,11631,2020-11-16 11:30:06.187,279.0608,1
11641,11641,2020-11-16 11:30:36.187,276.04803,1
11651,11651,2020-11-16 11:31:06.187,273.25357,1
11661,11661,2020-11-16 11:31:36.187,270.80722000000003,1
11671,11671,2020-11-16 11:32:06.187,268.52505,1
11681,11681,2020-11-16 11:32:36.187,266.39786000000004,1
11691,11691,2020-11-16 11:33:06.187,264.41916000000003,1
11701,11701,2020-11-16 11:33:36.187,262.585,1
11711,11711,2020-11-16 11:34:06.187,260.89337,1
11721,11721,2020-11-16 11:34:36.187,259.34427,1
11731,11731,2020-11-16 11:35:06.187,257.93964,1
11741,11741,2020-11-16 11:35:36.187,256.76907,1
11751,11751,2020-11-16 11:36:06.187,253.83617,1
11761,11761,2020-11-16 11:36:36.187,251.22047,1
11771,11771,2020-11-16 11:37:06.187,248.90832999999998,1
11781,11781,2020-11-16 11:37:36.187,246.89532000000003,1
11791,11791,2020-11-16 11:38:06.187,244.21364,1
11801,11801,2020-11-16 11:38:36.187,241.70934,1
11811,11811,2020-11-16 11:39:06.187,239.43007000000003,1
11821,11821,2020-11-16 11:39:36.187,237.31582999999998,1
11831,11831,2020-11-16 11:40:06.187,235.36192000000003,1
11841,11841,2020-11-16 11:40:36.187,233.69332999999997,1
11851,11851,2020-11-16 11:41:06.187,232.17445,1
11861,11861,2020-11-16 11:41:36.187,230.8085,1
11871,11871,2020-11-16 11:42:06.187,227.42955,1
11881,11881,2020-11-16 11:42:36.187,224.38858,1
11891,11891,2020-11-16 11:43:06.187,221.66348,1
11901,11901,2020-11-16 11:43:36.187,219.47942,1
11911,11911,2020-11-16 11:44:06.187,217.5986,1
11921,11921,2020-11-16 11:44:36.187,216.03087999999997,1
11931,11931,2020-11-16 11:45:06.187,213.69276000000002,1
11941,11941,2020-11-16 11:45:36.187,211.52267,1
11951,11951,2020-11-16 11:46:06.187,209.51587,1
11961,11961,2020-11-16 11:46:36.187,207.73766,1
11971,11971,2020-11-16 11:47:06.187,203.91977,1
11981,11981,2020-11-16 11:47:36.187,200.47328000000002,1
11991,11991,2020-11-16 11:48:06.187,197.36732,1
12001,12001,2020-11-16 11:48:36.187,194.58284,1
12011,12011,2020-11-16 11:49:06.187,192.10966000000002,1
12021,12021,2020-11-16 11:49:36.187,189.94523999999998,1
12031,12031,2020-11-16 11:50:06.187,188.09416000000002,1
12041,12041,2020-11-16 11:50:36.187,186.56892,1
12051,12051,2020-11-16 11:51:06.187,184.30782,1
12061,12061,2020-11-16 11:51:36.187,180.16486,1
12071,12071,2020-11-16 11:52:06.187,176.07878,1
12081,12081,2020-11-16 11:52:36.187,172.36966999999999,1
12091,12091,2020-11-16 11:53:06.187,169.00569,1
12101,12101,2020-11-16 11:53:36.187,166.10692,1
12111,12111,2020-11-16 11:54:06.187,163.5076,1
12121,12121,2020-11-16 11:54:36.187,161.20413,1
12131,12131,2020-11-16 11:55:06.187,159.19885,1
12141,12141,2020-11-16 11:55:36.187,157.58841,1
12151,12151,2020-11-16 11:56:06.187,153.83345,1
12161,12161,2020-11-16 11:56:36.187,150.61563,1
12171,12171,2020-11-16 11:57:06.187,146.71397,1
12181,12181,2020-11-16 11:57:36.187,143.16885,1
12191,12191,2020-11-16 11:58:06.187,139.95658999999998,1
12201,12201,2020-11-16 11:58:36.187,137.1282,1
12211,12211,2020-11-16 11:59:06.187,134.74857,1
12221,12221,2020-11-16 11:59:36.187,132.67886000000001,1
12231,12231,2020-11-16 12:00:06.187,128.18352,1
12241,12241,2020-11-16 12:00:36.187,124.409874,1
12251,12251,2020-11-16 12:01:06.187,121.15263999999999,1
12261,12261,2020-11-16 12:01:36.187,118.40229,1
12271,12271,2020-11-16 12:02:06.187,114.98463400000001,1
12281,12281,2020-11-16 12:02:36.187,111.89988000000001,1
12291,12291,2020-11-16 12:03:06.187,106.312706,1
12301,12301,2020-11-16 12:03:36.187,101.2749,1
12311,12311,2020-11-16 12:04:06.187,96.767235,1
12321,12321,2020-11-16 12:04:36.187,92.781006,1
