original,predictions
724.821428571429,733.8521728515625
696.428571428571,689.3428955078125
750.571428571429,670.15185546875
748.035714285714,622.4755249023438
741.696428571429,637.7252807617188
630.125,639.6415405273438
626.796875,598.9541625976562
619.03125,581.1470947265625
615.703125,622.4326782226562
588.4375,579.5543823242188
578.59375,544.7575073242188
576.40625,611.096435546875
580.578125,588.2201538085938
569.171875,568.5015869140625
568.03125,565.6257934570312
532.5,583.0615234375
520.296875,534.1814575195312
525.375,530.15380859375
477.0625,525.5071411132812
465.375,517.7937622070312
463.25,629.8885498046875
414.0,796.7608032226562
407.0,896.6124267578125
373.9375,852.8779907226562
368.125,825.1931762695312
343.90625,809.500732421875
341.96875,781.916015625
330.34375,741.1702880859375
300.9375,777.7379760742188
298.125,848.84814453125
267.34375,712.3903198242188
262.734375,701.8955688476562
234.71875,743.140625
201.25,832.5770874023438
194.25,825.59814453125
169.296875,853.6260375976562
142.65625,865.0538940429688
110.5,822.901611328125
60.15625,809.9740600585938
19.140625,850.9570922851562
5.359375,809.3712768554688
0.765625,819.896728515625
