name,time,countryCode,countryCode_1,id,name,privateIp,publicIp,state,state_1,totalCount,user
_node,2020-10-21T11:23:11.213Z,IE,IE,f8cec6c3-424a-43f1-80f0-c1fb0fef6315,component-spark-worker-instance-1-0,172.31.41.223,54.247.5.215,RUNNING,RUNNING,1,admin
_node,2020-10-21T11:24:11.122Z,IE,IE,f8cec6c3-424a-43f1-80f0-c1fb0fef6315,component-spark-worker-instance-1-0,172.31.41.223,54.247.5.215,RUNNING,RUNNING,1,admin
_node,2020-10-21T11:25:11.112Z,IE,IE,f8cec6c3-424a-43f1-80f0-c1fb0fef6315,component-spark-worker-instance-1-0,172.31.41.223,54.247.5.215,RUNNING,RUNNING,1,admin
_node,2020-10-21T11:26:11.117Z,IE,IE,f8cec6c3-424a-43f1-80f0-c1fb0fef6315,component-spark-worker-instance-1-0,172.31.41.223,54.247.5.215,RUNNING,RUNNING,1,admin
_node,2020-10-21T11:27:11.117Z,IE,IE,f8cec6c3-424a-43f1-80f0-c1fb0fef6315,component-spark-worker-instance-1-0,172.31.41.223,54.247.5.215,RUNNING,RUNNING,1,admin
_node,2020-10-21T11:28:11.115Z,IE,IE,f8cec6c3-424a-43f1-80f0-c1fb0fef6315,component-spark-worker-instance-1-0,172.31.41.223,54.247.5.215,RUNNING,RUNNING,1,admin
_node,2020-10-21T11:29:11.114Z,IE,IE,f8cec6c3-424a-43f1-80f0-c1fb0fef6315,component-spark-worker-instance-1-0,172.31.41.223,54.247.5.215,RUNNING,RUNNING,1,admin
_node,2020-10-21T11:30:11.113Z,IE,IE,f8cec6c3-424a-43f1-80f0-c1fb0fef6315,component-spark-worker-instance-1-0,172.31.41.223,54.247.5.215,RUNNING,RUNNING,1,admin
_node,2020-10-21T11:31:11.134Z,IE,IE,f8cec6c3-424a-43f1-80f0-c1fb0fef6315,component-spark-worker-instance-1-0,172.31.41.223,54.247.5.215,RUNNING,RUNNING,1,admin
_node,2020-10-21T11:32:11.122Z,IE,IE,f8cec6c3-424a-43f1-80f0-c1fb0fef6315,component-spark-worker-instance-1-0,172.31.41.223,54.247.5.215,RUNNING,RUNNING,2,admin
_node,2020-10-21T11:33:11.116Z,IE,IE,f8cec6c3-424a-43f1-80f0-c1fb0fef6315,component-spark-worker-instance-1-0,172.31.41.223,54.247.5.215,RUNNING,RUNNING,2,admin
_node,2020-10-21T11:33:11.148Z,IE,IE,a2448e88-bac0-487d-8697-1893e782a7cb,component-spark-worker-instance-2-2,172.31.35.131,3.250.164.233,RUNNING,RUNNING,2,admin
_node,2020-10-21T11:34:11.117Z,IE,IE,f8cec6c3-424a-43f1-80f0-c1fb0fef6315,component-spark-worker-instance-1-0,172.31.41.223,54.247.5.215,RUNNING,RUNNING,2,admin
_node,2020-10-21T11:34:11.122Z,IE,IE,a2448e88-bac0-487d-8697-1893e782a7cb,component-spark-worker-instance-2-2,172.31.35.131,3.250.164.233,RUNNING,RUNNING,2,admin
_node,2020-10-21T11:35:11.115Z,IE,IE,f8cec6c3-424a-43f1-80f0-c1fb0fef6315,component-spark-worker-instance-1-0,172.31.41.223,54.247.5.215,RUNNING,RUNNING,2,admin
_node,2020-10-21T11:35:11.118Z,IE,IE,a2448e88-bac0-487d-8697-1893e782a7cb,component-spark-worker-instance-2-2,172.31.35.131,3.250.164.233,RUNNING,RUNNING,2,admin
_node,2020-10-21T11:36:11.117Z,IE,IE,f8cec6c3-424a-43f1-80f0-c1fb0fef6315,component-spark-worker-instance-1-0,172.31.41.223,54.247.5.215,RUNNING,RUNNING,2,admin
_node,2020-10-21T11:36:11.122Z,IE,IE,a2448e88-bac0-487d-8697-1893e782a7cb,component-spark-worker-instance-2-2,172.31.35.131,3.250.164.233,RUNNING,RUNNING,2,admin
_node,2020-10-21T11:37:11.111Z,IE,IE,f8cec6c3-424a-43f1-80f0-c1fb0fef6315,component-spark-worker-instance-1-0,172.31.41.223,54.247.5.215,RUNNING,RUNNING,3,admin
_node,2020-10-21T11:37:11.116Z,IE,IE,a2448e88-bac0-487d-8697-1893e782a7cb,component-spark-worker-instance-2-2,172.31.35.131,3.250.164.233,RUNNING,RUNNING,3,admin
_node,2020-10-21T11:38:11.123Z,IE,IE,f8cec6c3-424a-43f1-80f0-c1fb0fef6315,component-spark-worker-instance-1-0,172.31.41.223,54.247.5.215,RUNNING,RUNNING,3,admin
_node,2020-10-21T11:38:11.128Z,IE,IE,a2448e88-bac0-487d-8697-1893e782a7cb,component-spark-worker-instance-2-2,172.31.35.131,3.250.164.233,RUNNING,RUNNING,3,admin
_node,2020-10-21T11:38:11.16Z,IE,IE,7ed8d649-4d21-45e6-87a4-907948323f9e,component-spark-worker-instance-3-4,172.31.39.122,176.34.72.253,RUNNING,RUNNING,3,admin
_node,2020-10-21T11:39:11.116Z,IE,IE,f8cec6c3-424a-43f1-80f0-c1fb0fef6315,component-spark-worker-instance-1-0,172.31.41.223,54.247.5.215,RUNNING,RUNNING,3,admin
_node,2020-10-21T11:39:11.15Z,IE,IE,a2448e88-bac0-487d-8697-1893e782a7cb,component-spark-worker-instance-2-2,172.31.35.131,3.250.164.233,RUNNING,RUNNING,3,admin
_node,2020-10-21T11:39:11.155Z,IE,IE,7ed8d649-4d21-45e6-87a4-907948323f9e,component-spark-worker-instance-3-4,172.31.39.122,176.34.72.253,RUNNING,RUNNING,3,admin
_node,2020-10-21T11:40:11.117Z,IE,IE,f8cec6c3-424a-43f1-80f0-c1fb0fef6315,component-spark-worker-instance-1-0,172.31.41.223,54.247.5.215,RUNNING,RUNNING,3,admin
_node,2020-10-21T11:40:11.121Z,IE,IE,a2448e88-bac0-487d-8697-1893e782a7cb,component-spark-worker-instance-2-2,172.31.35.131,3.250.164.233,RUNNING,RUNNING,3,admin
_node,2020-10-21T11:40:11.126Z,IE,IE,7ed8d649-4d21-45e6-87a4-907948323f9e,component-spark-worker-instance-3-4,172.31.39.122,176.34.72.253,RUNNING,RUNNING,3,admin
_node,2020-10-21T11:41:11.103Z,IE,IE,f8cec6c3-424a-43f1-80f0-c1fb0fef6315,component-spark-worker-instance-1-0,172.31.41.223,54.247.5.215,RUNNING,RUNNING,3,admin
_node,2020-10-21T11:41:11.108Z,IE,IE,a2448e88-bac0-487d-8697-1893e782a7cb,component-spark-worker-instance-2-2,172.31.35.131,3.250.164.233,RUNNING,RUNNING,3,admin
_node,2020-10-21T11:41:11.112Z,IE,IE,7ed8d649-4d21-45e6-87a4-907948323f9e,component-spark-worker-instance-3-4,172.31.39.122,176.34.72.253,RUNNING,RUNNING,3,admin
_node,2020-10-21T11:42:11.14Z,IE,IE,f8cec6c3-424a-43f1-80f0-c1fb0fef6315,component-spark-worker-instance-1-0,172.31.41.223,54.247.5.215,RUNNING,RUNNING,3,admin
_node,2020-10-21T11:42:11.144Z,IE,IE,a2448e88-bac0-487d-8697-1893e782a7cb,component-spark-worker-instance-2-2,172.31.35.131,3.250.164.233,RUNNING,RUNNING,3,admin
_node,2020-10-21T11:42:11.148Z,IE,IE,7ed8d649-4d21-45e6-87a4-907948323f9e,component-spark-worker-instance-3-4,172.31.39.122,176.34.72.253,RUNNING,RUNNING,3,admin
_node,2020-10-21T11:43:11.123Z,IE,IE,f8cec6c3-424a-43f1-80f0-c1fb0fef6315,component-spark-worker-instance-1-0,172.31.41.223,54.247.5.215,RUNNING,RUNNING,3,admin
_node,2020-10-21T11:43:11.128Z,IE,IE,a2448e88-bac0-487d-8697-1893e782a7cb,component-spark-worker-instance-2-2,172.31.35.131,3.250.164.233,RUNNING,RUNNING,3,admin
_node,2020-10-21T11:43:11.132Z,IE,IE,7ed8d649-4d21-45e6-87a4-907948323f9e,component-spark-worker-instance-3-4,172.31.39.122,176.34.72.253,RUNNING,RUNNING,3,admin
_node,2020-10-21T11:44:11.287Z,IE,IE,f8cec6c3-424a-43f1-80f0-c1fb0fef6315,component-spark-worker-instance-1-0,172.31.41.223,54.247.5.215,RUNNING,RUNNING,3,admin
_node,2020-10-21T11:44:11.316Z,IE,IE,a2448e88-bac0-487d-8697-1893e782a7cb,component-spark-worker-instance-2-2,172.31.35.131,3.250.164.233,RUNNING,RUNNING,3,admin
_node,2020-10-21T11:44:11.333Z,IE,IE,7ed8d649-4d21-45e6-87a4-907948323f9e,component-spark-worker-instance-3-4,172.31.39.122,176.34.72.253,RUNNING,RUNNING,3,admin
_node,2020-10-21T11:45:11.123Z,IE,IE,f8cec6c3-424a-43f1-80f0-c1fb0fef6315,component-spark-worker-instance-1-0,172.31.41.223,54.247.5.215,RUNNING,RUNNING,4,admin
_node,2020-10-21T11:45:11.128Z,IE,IE,a2448e88-bac0-487d-8697-1893e782a7cb,component-spark-worker-instance-2-2,172.31.35.131,3.250.164.233,RUNNING,RUNNING,4,admin
_node,2020-10-21T11:45:11.132Z,IE,IE,7ed8d649-4d21-45e6-87a4-907948323f9e,component-spark-worker-instance-3-4,172.31.39.122,176.34.72.253,RUNNING,RUNNING,4,admin
_node,2020-10-21T11:46:11.147Z,IE,IE,f8cec6c3-424a-43f1-80f0-c1fb0fef6315,component-spark-worker-instance-1-0,172.31.41.223,54.247.5.215,RUNNING,RUNNING,4,admin
_node,2020-10-21T11:46:11.152Z,IE,IE,a2448e88-bac0-487d-8697-1893e782a7cb,component-spark-worker-instance-2-2,172.31.35.131,3.250.164.233,RUNNING,RUNNING,4,admin
_node,2020-10-21T11:46:11.157Z,IE,IE,7ed8d649-4d21-45e6-87a4-907948323f9e,component-spark-worker-instance-3-4,172.31.39.122,176.34.72.253,RUNNING,RUNNING,4,admin
_node,2020-10-21T11:46:11.189Z,IE,IE,c7581d71-4b9a-454b-a9cf-16a719592506,component-spark-worker-instance-4-6,172.31.33.50,34.242.213.84,RUNNING,RUNNING,4,admin
_node,2020-10-21T11:47:11.132Z,IE,IE,f8cec6c3-424a-43f1-80f0-c1fb0fef6315,component-spark-worker-instance-1-0,172.31.41.223,54.247.5.215,RUNNING,RUNNING,4,admin
_node,2020-10-21T11:47:11.137Z,IE,IE,a2448e88-bac0-487d-8697-1893e782a7cb,component-spark-worker-instance-2-2,172.31.35.131,3.250.164.233,RUNNING,RUNNING,4,admin
_node,2020-10-21T11:47:11.142Z,IE,IE,7ed8d649-4d21-45e6-87a4-907948323f9e,component-spark-worker-instance-3-4,172.31.39.122,176.34.72.253,RUNNING,RUNNING,4,admin
_node,2020-10-21T11:47:11.146Z,IE,IE,c7581d71-4b9a-454b-a9cf-16a719592506,component-spark-worker-instance-4-6,172.31.33.50,34.242.213.84,RUNNING,RUNNING,4,admin
_node,2020-10-21T11:48:11.145Z,IE,IE,f8cec6c3-424a-43f1-80f0-c1fb0fef6315,component-spark-worker-instance-1-0,172.31.41.223,54.247.5.215,RUNNING,RUNNING,4,admin
_node,2020-10-21T11:48:11.15Z,IE,IE,a2448e88-bac0-487d-8697-1893e782a7cb,component-spark-worker-instance-2-2,172.31.35.131,3.250.164.233,RUNNING,RUNNING,4,admin
_node,2020-10-21T11:48:11.154Z,IE,IE,7ed8d649-4d21-45e6-87a4-907948323f9e,component-spark-worker-instance-3-4,172.31.39.122,176.34.72.253,RUNNING,RUNNING,4,admin
_node,2020-10-21T11:48:11.159Z,IE,IE,c7581d71-4b9a-454b-a9cf-16a719592506,component-spark-worker-instance-4-6,172.31.33.50,34.242.213.84,RUNNING,RUNNING,4,admin
_node,2020-10-21T11:49:11.125Z,IE,IE,f8cec6c3-424a-43f1-80f0-c1fb0fef6315,component-spark-worker-instance-1-0,172.31.41.223,54.247.5.215,RUNNING,RUNNING,4,admin
_node,2020-10-21T11:49:11.131Z,IE,IE,a2448e88-bac0-487d-8697-1893e782a7cb,component-spark-worker-instance-2-2,172.31.35.131,3.250.164.233,RUNNING,RUNNING,4,admin
_node,2020-10-21T11:49:11.135Z,IE,IE,7ed8d649-4d21-45e6-87a4-907948323f9e,component-spark-worker-instance-3-4,172.31.39.122,176.34.72.253,RUNNING,RUNNING,4,admin
_node,2020-10-21T11:49:11.139Z,IE,IE,c7581d71-4b9a-454b-a9cf-16a719592506,component-spark-worker-instance-4-6,172.31.33.50,34.242.213.84,RUNNING,RUNNING,4,admin
_node,2020-10-21T11:50:11.132Z,IE,IE,f8cec6c3-424a-43f1-80f0-c1fb0fef6315,component-spark-worker-instance-1-0,172.31.41.223,54.247.5.215,RUNNING,RUNNING,4,admin
_node,2020-10-21T11:50:11.161Z,IE,IE,a2448e88-bac0-487d-8697-1893e782a7cb,component-spark-worker-instance-2-2,172.31.35.131,3.250.164.233,RUNNING,RUNNING,4,admin
_node,2020-10-21T11:50:11.189Z,IE,IE,7ed8d649-4d21-45e6-87a4-907948323f9e,component-spark-worker-instance-3-4,172.31.39.122,176.34.72.253,RUNNING,RUNNING,4,admin
_node,2020-10-21T11:50:11.194Z,IE,IE,c7581d71-4b9a-454b-a9cf-16a719592506,component-spark-worker-instance-4-6,172.31.33.50,34.242.213.84,RUNNING,RUNNING,4,admin
_node,2020-10-21T11:51:11.124Z,IE,IE,f8cec6c3-424a-43f1-80f0-c1fb0fef6315,component-spark-worker-instance-1-0,172.31.41.223,54.247.5.215,RUNNING,RUNNING,4,admin
_node,2020-10-21T11:51:11.129Z,IE,IE,a2448e88-bac0-487d-8697-1893e782a7cb,component-spark-worker-instance-2-2,172.31.35.131,3.250.164.233,RUNNING,RUNNING,4,admin
_node,2020-10-21T11:51:11.133Z,IE,IE,7ed8d649-4d21-45e6-87a4-907948323f9e,component-spark-worker-instance-3-4,172.31.39.122,176.34.72.253,RUNNING,RUNNING,4,admin
_node,2020-10-21T11:51:11.138Z,IE,IE,c7581d71-4b9a-454b-a9cf-16a719592506,component-spark-worker-instance-4-6,172.31.33.50,34.242.213.84,RUNNING,RUNNING,4,admin
_node,2020-10-21T11:52:11.123Z,IE,IE,f8cec6c3-424a-43f1-80f0-c1fb0fef6315,component-spark-worker-instance-1-0,172.31.41.223,54.247.5.215,RUNNING,RUNNING,3,admin
_node,2020-10-21T11:52:11.128Z,IE,IE,a2448e88-bac0-487d-8697-1893e782a7cb,component-spark-worker-instance-2-2,172.31.35.131,3.250.164.233,RUNNING,RUNNING,3,admin
_node,2020-10-21T11:52:11.132Z,IE,IE,7ed8d649-4d21-45e6-87a4-907948323f9e,component-spark-worker-instance-3-4,172.31.39.122,176.34.72.253,RUNNING,RUNNING,3,admin
_node,2020-10-21T11:53:11.128Z,IE,IE,f8cec6c3-424a-43f1-80f0-c1fb0fef6315,component-spark-worker-instance-1-0,172.31.41.223,54.247.5.215,RUNNING,RUNNING,3,admin
_node,2020-10-21T11:53:11.133Z,IE,IE,a2448e88-bac0-487d-8697-1893e782a7cb,component-spark-worker-instance-2-2,172.31.35.131,3.250.164.233,RUNNING,RUNNING,3,admin
_node,2020-10-21T11:53:11.137Z,IE,IE,7ed8d649-4d21-45e6-87a4-907948323f9e,component-spark-worker-instance-3-4,172.31.39.122,176.34.72.253,RUNNING,RUNNING,3,admin
_node,2020-10-21T11:54:11.139Z,IE,IE,f8cec6c3-424a-43f1-80f0-c1fb0fef6315,component-spark-worker-instance-1-0,172.31.41.223,54.247.5.215,RUNNING,RUNNING,3,admin
_node,2020-10-21T11:54:11.144Z,IE,IE,a2448e88-bac0-487d-8697-1893e782a7cb,component-spark-worker-instance-2-2,172.31.35.131,3.250.164.233,RUNNING,RUNNING,3,admin
_node,2020-10-21T11:54:11.147Z,IE,IE,7ed8d649-4d21-45e6-87a4-907948323f9e,component-spark-worker-instance-3-4,172.31.39.122,176.34.72.253,RUNNING,RUNNING,3,admin
_node,2020-10-21T11:55:11.114Z,IE,IE,f8cec6c3-424a-43f1-80f0-c1fb0fef6315,component-spark-worker-instance-1-0,172.31.41.223,54.247.5.215,RUNNING,RUNNING,3,admin
_node,2020-10-21T11:55:11.119Z,IE,IE,a2448e88-bac0-487d-8697-1893e782a7cb,component-spark-worker-instance-2-2,172.31.35.131,3.250.164.233,RUNNING,RUNNING,3,admin
_node,2020-10-21T11:55:11.123Z,IE,IE,7ed8d649-4d21-45e6-87a4-907948323f9e,component-spark-worker-instance-3-4,172.31.39.122,176.34.72.253,RUNNING,RUNNING,3,admin
_node,2020-10-21T11:56:11.116Z,IE,IE,f8cec6c3-424a-43f1-80f0-c1fb0fef6315,component-spark-worker-instance-1-0,172.31.41.223,54.247.5.215,RUNNING,RUNNING,4,admin
_node,2020-10-21T11:56:11.146Z,IE,IE,a2448e88-bac0-487d-8697-1893e782a7cb,component-spark-worker-instance-2-2,172.31.35.131,3.250.164.233,RUNNING,RUNNING,4,admin
_node,2020-10-21T11:56:11.164Z,IE,IE,7ed8d649-4d21-45e6-87a4-907948323f9e,component-spark-worker-instance-3-4,172.31.39.122,176.34.72.253,RUNNING,RUNNING,4,admin
_node,2020-10-21T11:57:11.112Z,IE,IE,f8cec6c3-424a-43f1-80f0-c1fb0fef6315,component-spark-worker-instance-1-0,172.31.41.223,54.247.5.215,RUNNING,RUNNING,4,admin
_node,2020-10-21T11:57:11.117Z,IE,IE,a2448e88-bac0-487d-8697-1893e782a7cb,component-spark-worker-instance-2-2,172.31.35.131,3.250.164.233,RUNNING,RUNNING,4,admin
_node,2020-10-21T11:57:11.121Z,IE,IE,7ed8d649-4d21-45e6-87a4-907948323f9e,component-spark-worker-instance-3-4,172.31.39.122,176.34.72.253,RUNNING,RUNNING,4,admin
_node,2020-10-21T11:57:11.155Z,IE,IE,7535cdd4-74ff-4920-ba64-8025379f339e,component-spark-worker-instance-6-6,172.31.38.40,34.242.162.213,RUNNING,RUNNING,4,admin
_node,2020-10-21T11:58:11.114Z,IE,IE,f8cec6c3-424a-43f1-80f0-c1fb0fef6315,component-spark-worker-instance-1-0,172.31.41.223,54.247.5.215,RUNNING,RUNNING,4,admin
_node,2020-10-21T11:58:11.12Z,IE,IE,a2448e88-bac0-487d-8697-1893e782a7cb,component-spark-worker-instance-2-2,172.31.35.131,3.250.164.233,RUNNING,RUNNING,4,admin
_node,2020-10-21T11:58:11.125Z,IE,IE,7ed8d649-4d21-45e6-87a4-907948323f9e,component-spark-worker-instance-3-4,172.31.39.122,176.34.72.253,RUNNING,RUNNING,4,admin
_node,2020-10-21T11:58:11.13Z,IE,IE,7535cdd4-74ff-4920-ba64-8025379f339e,component-spark-worker-instance-6-6,172.31.38.40,34.242.162.213,RUNNING,RUNNING,4,admin
_node,2020-10-21T11:59:11.111Z,IE,IE,f8cec6c3-424a-43f1-80f0-c1fb0fef6315,component-spark-worker-instance-1-0,172.31.41.223,54.247.5.215,RUNNING,RUNNING,4,admin
_node,2020-10-21T11:59:11.115Z,IE,IE,a2448e88-bac0-487d-8697-1893e782a7cb,component-spark-worker-instance-2-2,172.31.35.131,3.250.164.233,RUNNING,RUNNING,4,admin
_node,2020-10-21T11:59:11.119Z,IE,IE,7ed8d649-4d21-45e6-87a4-907948323f9e,component-spark-worker-instance-3-4,172.31.39.122,176.34.72.253,RUNNING,RUNNING,4,admin
_node,2020-10-21T11:59:11.122Z,IE,IE,7535cdd4-74ff-4920-ba64-8025379f339e,component-spark-worker-instance-6-6,172.31.38.40,34.242.162.213,RUNNING,RUNNING,4,admin
_node,2020-10-21T12:00:11.113Z,IE,IE,f8cec6c3-424a-43f1-80f0-c1fb0fef6315,component-spark-worker-instance-1-0,172.31.41.223,54.247.5.215,RUNNING,RUNNING,4,admin
_node,2020-10-21T12:00:11.118Z,IE,IE,a2448e88-bac0-487d-8697-1893e782a7cb,component-spark-worker-instance-2-2,172.31.35.131,3.250.164.233,RUNNING,RUNNING,4,admin
_node,2020-10-21T12:00:11.122Z,IE,IE,7ed8d649-4d21-45e6-87a4-907948323f9e,component-spark-worker-instance-3-4,172.31.39.122,176.34.72.253,RUNNING,RUNNING,4,admin
_node,2020-10-21T12:00:11.126Z,IE,IE,7535cdd4-74ff-4920-ba64-8025379f339e,component-spark-worker-instance-6-6,172.31.38.40,34.242.162.213,RUNNING,RUNNING,4,admin
_node,2020-10-21T12:01:11.105Z,IE,IE,f8cec6c3-424a-43f1-80f0-c1fb0fef6315,component-spark-worker-instance-1-0,172.31.41.223,54.247.5.215,RUNNING,RUNNING,4,admin
_node,2020-10-21T12:01:11.109Z,IE,IE,a2448e88-bac0-487d-8697-1893e782a7cb,component-spark-worker-instance-2-2,172.31.35.131,3.250.164.233,RUNNING,RUNNING,4,admin
_node,2020-10-21T12:01:11.113Z,IE,IE,7ed8d649-4d21-45e6-87a4-907948323f9e,component-spark-worker-instance-3-4,172.31.39.122,176.34.72.253,RUNNING,RUNNING,4,admin
_node,2020-10-21T12:01:11.117Z,IE,IE,7535cdd4-74ff-4920-ba64-8025379f339e,component-spark-worker-instance-6-6,172.31.38.40,34.242.162.213,RUNNING,RUNNING,4,admin
_node,2020-10-21T12:02:11.111Z,IE,IE,f8cec6c3-424a-43f1-80f0-c1fb0fef6315,component-spark-worker-instance-1-0,172.31.41.223,54.247.5.215,RUNNING,RUNNING,3,admin
_node,2020-10-21T12:02:11.138Z,IE,IE,a2448e88-bac0-487d-8697-1893e782a7cb,component-spark-worker-instance-2-2,172.31.35.131,3.250.164.233,RUNNING,RUNNING,3,admin
_node,2020-10-21T12:02:11.155Z,IE,IE,7ed8d649-4d21-45e6-87a4-907948323f9e,component-spark-worker-instance-3-4,172.31.39.122,176.34.72.253,RUNNING,RUNNING,3,admin
_node,2020-10-21T12:03:11.142Z,IE,IE,f8cec6c3-424a-43f1-80f0-c1fb0fef6315,component-spark-worker-instance-1-0,172.31.41.223,54.247.5.215,RUNNING,RUNNING,3,admin
_node,2020-10-21T12:03:11.147Z,IE,IE,a2448e88-bac0-487d-8697-1893e782a7cb,component-spark-worker-instance-2-2,172.31.35.131,3.250.164.233,RUNNING,RUNNING,3,admin
_node,2020-10-21T12:03:11.15Z,IE,IE,7ed8d649-4d21-45e6-87a4-907948323f9e,component-spark-worker-instance-3-4,172.31.39.122,176.34.72.253,RUNNING,RUNNING,3,admin
_node,2020-10-21T12:04:11.116Z,IE,IE,f8cec6c3-424a-43f1-80f0-c1fb0fef6315,component-spark-worker-instance-1-0,172.31.41.223,54.247.5.215,RUNNING,RUNNING,3,admin
_node,2020-10-21T12:04:11.121Z,IE,IE,a2448e88-bac0-487d-8697-1893e782a7cb,component-spark-worker-instance-2-2,172.31.35.131,3.250.164.233,RUNNING,RUNNING,3,admin
_node,2020-10-21T12:04:11.126Z,IE,IE,7ed8d649-4d21-45e6-87a4-907948323f9e,component-spark-worker-instance-3-4,172.31.39.122,176.34.72.253,RUNNING,RUNNING,3,admin
_node,2020-10-21T12:05:11.129Z,IE,IE,f8cec6c3-424a-43f1-80f0-c1fb0fef6315,component-spark-worker-instance-1-0,172.31.41.223,54.247.5.215,RUNNING,RUNNING,4,admin
_node,2020-10-21T12:05:11.134Z,IE,IE,a2448e88-bac0-487d-8697-1893e782a7cb,component-spark-worker-instance-2-2,172.31.35.131,3.250.164.233,RUNNING,RUNNING,4,admin
_node,2020-10-21T12:05:11.138Z,IE,IE,7ed8d649-4d21-45e6-87a4-907948323f9e,component-spark-worker-instance-3-4,172.31.39.122,176.34.72.253,RUNNING,RUNNING,4,admin
_node,2020-10-21T12:06:11.125Z,IE,IE,f8cec6c3-424a-43f1-80f0-c1fb0fef6315,component-spark-worker-instance-1-0,172.31.41.223,54.247.5.215,RUNNING,RUNNING,4,admin
_node,2020-10-21T12:06:11.13Z,IE,IE,a2448e88-bac0-487d-8697-1893e782a7cb,component-spark-worker-instance-2-2,172.31.35.131,3.250.164.233,RUNNING,RUNNING,4,admin
_node,2020-10-21T12:06:11.134Z,IE,IE,7ed8d649-4d21-45e6-87a4-907948323f9e,component-spark-worker-instance-3-4,172.31.39.122,176.34.72.253,RUNNING,RUNNING,4,admin
_node,2020-10-21T12:06:11.161Z,IE,IE,f5f01c93-e3dd-4708-863c-6e344adb4bec,component-spark-worker-instance-8-6,172.31.34.181,54.75.50.29,RUNNING,RUNNING,4,admin
_node,2020-10-21T12:07:11.125Z,IE,IE,f8cec6c3-424a-43f1-80f0-c1fb0fef6315,component-spark-worker-instance-1-0,172.31.41.223,54.247.5.215,RUNNING,RUNNING,4,admin
_node,2020-10-21T12:07:11.132Z,IE,IE,a2448e88-bac0-487d-8697-1893e782a7cb,component-spark-worker-instance-2-2,172.31.35.131,3.250.164.233,RUNNING,RUNNING,4,admin
_node,2020-10-21T12:07:11.136Z,IE,IE,7ed8d649-4d21-45e6-87a4-907948323f9e,component-spark-worker-instance-3-4,172.31.39.122,176.34.72.253,RUNNING,RUNNING,4,admin
_node,2020-10-21T12:07:11.141Z,IE,IE,f5f01c93-e3dd-4708-863c-6e344adb4bec,component-spark-worker-instance-8-6,172.31.34.181,54.75.50.29,RUNNING,RUNNING,4,admin
_node,2020-10-21T12:08:11.126Z,IE,IE,f8cec6c3-424a-43f1-80f0-c1fb0fef6315,component-spark-worker-instance-1-0,172.31.41.223,54.247.5.215,RUNNING,RUNNING,4,admin
_node,2020-10-21T12:08:11.16Z,IE,IE,a2448e88-bac0-487d-8697-1893e782a7cb,component-spark-worker-instance-2-2,172.31.35.131,3.250.164.233,RUNNING,RUNNING,4,admin
_node,2020-10-21T12:08:11.177Z,IE,IE,7ed8d649-4d21-45e6-87a4-907948323f9e,component-spark-worker-instance-3-4,172.31.39.122,176.34.72.253,RUNNING,RUNNING,4,admin
_node,2020-10-21T12:08:11.182Z,IE,IE,f5f01c93-e3dd-4708-863c-6e344adb4bec,component-spark-worker-instance-8-6,172.31.34.181,54.75.50.29,RUNNING,RUNNING,4,admin
_node,2020-10-21T12:09:11.124Z,IE,IE,f8cec6c3-424a-43f1-80f0-c1fb0fef6315,component-spark-worker-instance-1-0,172.31.41.223,54.247.5.215,RUNNING,RUNNING,4,admin
_node,2020-10-21T12:09:11.128Z,IE,IE,a2448e88-bac0-487d-8697-1893e782a7cb,component-spark-worker-instance-2-2,172.31.35.131,3.250.164.233,RUNNING,RUNNING,4,admin
_node,2020-10-21T12:09:11.132Z,IE,IE,7ed8d649-4d21-45e6-87a4-907948323f9e,component-spark-worker-instance-3-4,172.31.39.122,176.34.72.253,RUNNING,RUNNING,4,admin
_node,2020-10-21T12:09:11.136Z,IE,IE,f5f01c93-e3dd-4708-863c-6e344adb4bec,component-spark-worker-instance-8-6,172.31.34.181,54.75.50.29,RUNNING,RUNNING,4,admin
_node,2020-10-21T12:10:11.124Z,IE,IE,f8cec6c3-424a-43f1-80f0-c1fb0fef6315,component-spark-worker-instance-1-0,172.31.41.223,54.247.5.215,RUNNING,RUNNING,4,admin
_node,2020-10-21T12:10:11.129Z,IE,IE,a2448e88-bac0-487d-8697-1893e782a7cb,component-spark-worker-instance-2-2,172.31.35.131,3.250.164.233,RUNNING,RUNNING,4,admin
_node,2020-10-21T12:10:11.133Z,IE,IE,7ed8d649-4d21-45e6-87a4-907948323f9e,component-spark-worker-instance-3-4,172.31.39.122,176.34.72.253,RUNNING,RUNNING,4,admin
_node,2020-10-21T12:10:11.137Z,IE,IE,f5f01c93-e3dd-4708-863c-6e344adb4bec,component-spark-worker-instance-8-6,172.31.34.181,54.75.50.29,RUNNING,RUNNING,4,admin
_node,2020-10-21T12:11:11.126Z,IE,IE,f8cec6c3-424a-43f1-80f0-c1fb0fef6315,component-spark-worker-instance-1-0,172.31.41.223,54.247.5.215,RUNNING,RUNNING,5,admin
_node,2020-10-21T12:11:11.13Z,IE,IE,a2448e88-bac0-487d-8697-1893e782a7cb,component-spark-worker-instance-2-2,172.31.35.131,3.250.164.233,RUNNING,RUNNING,5,admin
_node,2020-10-21T12:11:11.134Z,IE,IE,7ed8d649-4d21-45e6-87a4-907948323f9e,component-spark-worker-instance-3-4,172.31.39.122,176.34.72.253,RUNNING,RUNNING,5,admin
_node,2020-10-21T12:11:11.138Z,IE,IE,f5f01c93-e3dd-4708-863c-6e344adb4bec,component-spark-worker-instance-8-6,172.31.34.181,54.75.50.29,RUNNING,RUNNING,5,admin
_node,2020-10-21T12:12:11.123Z,IE,IE,f8cec6c3-424a-43f1-80f0-c1fb0fef6315,component-spark-worker-instance-1-0,172.31.41.223,54.247.5.215,RUNNING,RUNNING,5,admin
_node,2020-10-21T12:12:11.128Z,IE,IE,a2448e88-bac0-487d-8697-1893e782a7cb,component-spark-worker-instance-2-2,172.31.35.131,3.250.164.233,RUNNING,RUNNING,5,admin
_node,2020-10-21T12:12:11.131Z,IE,IE,7ed8d649-4d21-45e6-87a4-907948323f9e,component-spark-worker-instance-3-4,172.31.39.122,176.34.72.253,RUNNING,RUNNING,5,admin
_node,2020-10-21T12:12:11.163Z,IE,IE,f5f01c93-e3dd-4708-863c-6e344adb4bec,component-spark-worker-instance-8-6,172.31.34.181,54.75.50.29,RUNNING,RUNNING,5,admin
_node,2020-10-21T12:12:11.18Z,IE,IE,a67ede23-5b03-4148-9553-fd40dbe64dc5,component-spark-worker-instance-9-8,172.31.41.106,3.248.217.60,RUNNING,RUNNING,5,admin
_node,2020-10-21T12:13:11.123Z,IE,IE,f8cec6c3-424a-43f1-80f0-c1fb0fef6315,component-spark-worker-instance-1-0,172.31.41.223,54.247.5.215,RUNNING,RUNNING,5,admin
_node,2020-10-21T12:13:11.127Z,IE,IE,a2448e88-bac0-487d-8697-1893e782a7cb,component-spark-worker-instance-2-2,172.31.35.131,3.250.164.233,RUNNING,RUNNING,5,admin
_node,2020-10-21T12:13:11.131Z,IE,IE,7ed8d649-4d21-45e6-87a4-907948323f9e,component-spark-worker-instance-3-4,172.31.39.122,176.34.72.253,RUNNING,RUNNING,5,admin
_node,2020-10-21T12:13:11.135Z,IE,IE,f5f01c93-e3dd-4708-863c-6e344adb4bec,component-spark-worker-instance-8-6,172.31.34.181,54.75.50.29,RUNNING,RUNNING,5,admin
_node,2020-10-21T12:13:11.139Z,IE,IE,a67ede23-5b03-4148-9553-fd40dbe64dc5,component-spark-worker-instance-9-8,172.31.41.106,3.248.217.60,RUNNING,RUNNING,5,admin
_node,2020-10-21T12:14:11.122Z,IE,IE,f8cec6c3-424a-43f1-80f0-c1fb0fef6315,component-spark-worker-instance-1-0,172.31.41.223,54.247.5.215,RUNNING,RUNNING,5,admin
_node,2020-10-21T12:14:11.149Z,IE,IE,a2448e88-bac0-487d-8697-1893e782a7cb,component-spark-worker-instance-2-2,172.31.35.131,3.250.164.233,RUNNING,RUNNING,5,admin
_node,2020-10-21T12:14:11.166Z,IE,IE,7ed8d649-4d21-45e6-87a4-907948323f9e,component-spark-worker-instance-3-4,172.31.39.122,176.34.72.253,RUNNING,RUNNING,5,admin
_node,2020-10-21T12:14:11.17Z,IE,IE,f5f01c93-e3dd-4708-863c-6e344adb4bec,component-spark-worker-instance-8-6,172.31.34.181,54.75.50.29,RUNNING,RUNNING,5,admin
_node,2020-10-21T12:14:11.174Z,IE,IE,a67ede23-5b03-4148-9553-fd40dbe64dc5,component-spark-worker-instance-9-8,172.31.41.106,3.248.217.60,RUNNING,RUNNING,5,admin
_node,2020-10-21T12:15:11.132Z,IE,IE,f8cec6c3-424a-43f1-80f0-c1fb0fef6315,component-spark-worker-instance-1-0,172.31.41.223,54.247.5.215,RUNNING,RUNNING,5,admin
_node,2020-10-21T12:15:11.137Z,IE,IE,a2448e88-bac0-487d-8697-1893e782a7cb,component-spark-worker-instance-2-2,172.31.35.131,3.250.164.233,RUNNING,RUNNING,5,admin
_node,2020-10-21T12:15:11.141Z,IE,IE,7ed8d649-4d21-45e6-87a4-907948323f9e,component-spark-worker-instance-3-4,172.31.39.122,176.34.72.253,RUNNING,RUNNING,5,admin
_node,2020-10-21T12:15:11.145Z,IE,IE,f5f01c93-e3dd-4708-863c-6e344adb4bec,component-spark-worker-instance-8-6,172.31.34.181,54.75.50.29,RUNNING,RUNNING,5,admin
_node,2020-10-21T12:15:11.148Z,IE,IE,a67ede23-5b03-4148-9553-fd40dbe64dc5,component-spark-worker-instance-9-8,172.31.41.106,3.248.217.60,RUNNING,RUNNING,5,admin
_node,2020-10-21T12:16:11.121Z,IE,IE,f8cec6c3-424a-43f1-80f0-c1fb0fef6315,component-spark-worker-instance-1-0,172.31.41.223,54.247.5.215,RUNNING,RUNNING,5,admin
_node,2020-10-21T12:16:11.125Z,IE,IE,a2448e88-bac0-487d-8697-1893e782a7cb,component-spark-worker-instance-2-2,172.31.35.131,3.250.164.233,RUNNING,RUNNING,5,admin
_node,2020-10-21T12:16:11.129Z,IE,IE,7ed8d649-4d21-45e6-87a4-907948323f9e,component-spark-worker-instance-3-4,172.31.39.122,176.34.72.253,RUNNING,RUNNING,5,admin
_node,2020-10-21T12:16:11.133Z,IE,IE,f5f01c93-e3dd-4708-863c-6e344adb4bec,component-spark-worker-instance-8-6,172.31.34.181,54.75.50.29,RUNNING,RUNNING,5,admin
_node,2020-10-21T12:16:11.136Z,IE,IE,a67ede23-5b03-4148-9553-fd40dbe64dc5,component-spark-worker-instance-9-8,172.31.41.106,3.248.217.60,RUNNING,RUNNING,5,admin
_node,2020-10-21T12:17:11.13Z,IE,IE,f8cec6c3-424a-43f1-80f0-c1fb0fef6315,component-spark-worker-instance-1-0,172.31.41.223,54.247.5.215,RUNNING,RUNNING,5,admin
_node,2020-10-21T12:17:11.135Z,IE,IE,a2448e88-bac0-487d-8697-1893e782a7cb,component-spark-worker-instance-2-2,172.31.35.131,3.250.164.233,RUNNING,RUNNING,5,admin
_node,2020-10-21T12:17:11.139Z,IE,IE,7ed8d649-4d21-45e6-87a4-907948323f9e,component-spark-worker-instance-3-4,172.31.39.122,176.34.72.253,RUNNING,RUNNING,5,admin
_node,2020-10-21T12:17:11.144Z,IE,IE,f5f01c93-e3dd-4708-863c-6e344adb4bec,component-spark-worker-instance-8-6,172.31.34.181,54.75.50.29,RUNNING,RUNNING,5,admin
_node,2020-10-21T12:17:11.148Z,IE,IE,a67ede23-5b03-4148-9553-fd40dbe64dc5,component-spark-worker-instance-9-8,172.31.41.106,3.248.217.60,RUNNING,RUNNING,5,admin
_node,2020-10-21T12:18:11.125Z,IE,IE,f8cec6c3-424a-43f1-80f0-c1fb0fef6315,component-spark-worker-instance-1-0,172.31.41.223,54.247.5.215,RUNNING,RUNNING,4,admin
_node,2020-10-21T12:18:11.13Z,IE,IE,a2448e88-bac0-487d-8697-1893e782a7cb,component-spark-worker-instance-2-2,172.31.35.131,3.250.164.233,RUNNING,RUNNING,4,admin
_node,2020-10-21T12:18:11.133Z,IE,IE,7ed8d649-4d21-45e6-87a4-907948323f9e,component-spark-worker-instance-3-4,172.31.39.122,176.34.72.253,RUNNING,RUNNING,4,admin
_node,2020-10-21T12:18:11.165Z,IE,IE,f5f01c93-e3dd-4708-863c-6e344adb4bec,component-spark-worker-instance-8-6,172.31.34.181,54.75.50.29,RUNNING,RUNNING,4,admin
_node,2020-10-21T12:19:11.129Z,IE,IE,f8cec6c3-424a-43f1-80f0-c1fb0fef6315,component-spark-worker-instance-1-0,172.31.41.223,54.247.5.215,RUNNING,RUNNING,4,admin
_node,2020-10-21T12:19:11.133Z,IE,IE,a2448e88-bac0-487d-8697-1893e782a7cb,component-spark-worker-instance-2-2,172.31.35.131,3.250.164.233,RUNNING,RUNNING,4,admin
_node,2020-10-21T12:19:11.137Z,IE,IE,7ed8d649-4d21-45e6-87a4-907948323f9e,component-spark-worker-instance-3-4,172.31.39.122,176.34.72.253,RUNNING,RUNNING,4,admin
_node,2020-10-21T12:19:11.141Z,IE,IE,f5f01c93-e3dd-4708-863c-6e344adb4bec,component-spark-worker-instance-8-6,172.31.34.181,54.75.50.29,RUNNING,RUNNING,4,admin
_node,2020-10-21T12:20:11.155Z,IE,IE,f8cec6c3-424a-43f1-80f0-c1fb0fef6315,component-spark-worker-instance-1-0,172.31.41.223,54.247.5.215,RUNNING,RUNNING,4,admin
_node,2020-10-21T12:20:11.184Z,IE,IE,a2448e88-bac0-487d-8697-1893e782a7cb,component-spark-worker-instance-2-2,172.31.35.131,3.250.164.233,RUNNING,RUNNING,4,admin
_node,2020-10-21T12:20:11.199Z,IE,IE,7ed8d649-4d21-45e6-87a4-907948323f9e,component-spark-worker-instance-3-4,172.31.39.122,176.34.72.253,RUNNING,RUNNING,4,admin
_node,2020-10-21T12:20:11.204Z,IE,IE,f5f01c93-e3dd-4708-863c-6e344adb4bec,component-spark-worker-instance-8-6,172.31.34.181,54.75.50.29,RUNNING,RUNNING,4,admin
_node,2020-10-21T12:21:11.149Z,IE,IE,f8cec6c3-424a-43f1-80f0-c1fb0fef6315,component-spark-worker-instance-1-0,172.31.41.223,54.247.5.215,RUNNING,RUNNING,4,admin
_node,2020-10-21T12:21:11.153Z,IE,IE,a2448e88-bac0-487d-8697-1893e782a7cb,component-spark-worker-instance-2-2,172.31.35.131,3.250.164.233,RUNNING,RUNNING,4,admin
_node,2020-10-21T12:21:11.157Z,IE,IE,7ed8d649-4d21-45e6-87a4-907948323f9e,component-spark-worker-instance-3-4,172.31.39.122,176.34.72.253,RUNNING,RUNNING,4,admin
_node,2020-10-21T12:21:11.161Z,IE,IE,f5f01c93-e3dd-4708-863c-6e344adb4bec,component-spark-worker-instance-8-6,172.31.34.181,54.75.50.29,RUNNING,RUNNING,4,admin
_node,2020-10-21T12:22:11.12Z,IE,IE,f8cec6c3-424a-43f1-80f0-c1fb0fef6315,component-spark-worker-instance-1-0,172.31.41.223,54.247.5.215,RUNNING,RUNNING,4,admin
_node,2020-10-21T12:22:11.124Z,IE,IE,a2448e88-bac0-487d-8697-1893e782a7cb,component-spark-worker-instance-2-2,172.31.35.131,3.250.164.233,RUNNING,RUNNING,4,admin
_node,2020-10-21T12:22:11.128Z,IE,IE,7ed8d649-4d21-45e6-87a4-907948323f9e,component-spark-worker-instance-3-4,172.31.39.122,176.34.72.253,RUNNING,RUNNING,4,admin
_node,2020-10-21T12:22:11.132Z,IE,IE,f5f01c93-e3dd-4708-863c-6e344adb4bec,component-spark-worker-instance-8-6,172.31.34.181,54.75.50.29,RUNNING,RUNNING,4,admin
_node,2020-10-21T12:23:11.126Z,IE,IE,f8cec6c3-424a-43f1-80f0-c1fb0fef6315,component-spark-worker-instance-1-0,172.31.41.223,54.247.5.215,RUNNING,RUNNING,4,admin
_node,2020-10-21T12:23:11.131Z,IE,IE,a2448e88-bac0-487d-8697-1893e782a7cb,component-spark-worker-instance-2-2,172.31.35.131,3.250.164.233,RUNNING,RUNNING,4,admin
_node,2020-10-21T12:23:11.136Z,IE,IE,7ed8d649-4d21-45e6-87a4-907948323f9e,component-spark-worker-instance-3-4,172.31.39.122,176.34.72.253,RUNNING,RUNNING,4,admin
_node,2020-10-21T12:23:11.14Z,IE,IE,f5f01c93-e3dd-4708-863c-6e344adb4bec,component-spark-worker-instance-8-6,172.31.34.181,54.75.50.29,RUNNING,RUNNING,4,admin
_node,2020-10-21T12:24:11.116Z,IE,IE,f8cec6c3-424a-43f1-80f0-c1fb0fef6315,component-spark-worker-instance-1-0,172.31.41.223,54.247.5.215,RUNNING,RUNNING,4,admin
_node,2020-10-21T12:24:11.121Z,IE,IE,a2448e88-bac0-487d-8697-1893e782a7cb,component-spark-worker-instance-2-2,172.31.35.131,3.250.164.233,RUNNING,RUNNING,4,admin
_node,2020-10-21T12:24:11.125Z,IE,IE,7ed8d649-4d21-45e6-87a4-907948323f9e,component-spark-worker-instance-3-4,172.31.39.122,176.34.72.253,RUNNING,RUNNING,4,admin
_node,2020-10-21T12:24:11.153Z,IE,IE,f5f01c93-e3dd-4708-863c-6e344adb4bec,component-spark-worker-instance-8-6,172.31.34.181,54.75.50.29,RUNNING,RUNNING,4,admin
_node,2020-10-21T12:25:11.135Z,IE,IE,f8cec6c3-424a-43f1-80f0-c1fb0fef6315,component-spark-worker-instance-1-0,172.31.41.223,54.247.5.215,RUNNING,RUNNING,3,admin
_node,2020-10-21T12:25:11.139Z,IE,IE,a2448e88-bac0-487d-8697-1893e782a7cb,component-spark-worker-instance-2-2,172.31.35.131,3.250.164.233,RUNNING,RUNNING,3,admin
_node,2020-10-21T12:25:11.143Z,IE,IE,7ed8d649-4d21-45e6-87a4-907948323f9e,component-spark-worker-instance-3-4,172.31.39.122,176.34.72.253,RUNNING,RUNNING,3,admin
_node,2020-10-21T12:26:11.113Z,IE,IE,f8cec6c3-424a-43f1-80f0-c1fb0fef6315,component-spark-worker-instance-1-0,172.31.41.223,54.247.5.215,RUNNING,RUNNING,3,admin
_node,2020-10-21T12:26:11.14Z,IE,IE,a2448e88-bac0-487d-8697-1893e782a7cb,component-spark-worker-instance-2-2,172.31.35.131,3.250.164.233,RUNNING,RUNNING,3,admin
_node,2020-10-21T12:26:11.155Z,IE,IE,7ed8d649-4d21-45e6-87a4-907948323f9e,component-spark-worker-instance-3-4,172.31.39.122,176.34.72.253,RUNNING,RUNNING,3,admin
_node,2020-10-21T12:27:11.128Z,IE,IE,f8cec6c3-424a-43f1-80f0-c1fb0fef6315,component-spark-worker-instance-1-0,172.31.41.223,54.247.5.215,RUNNING,RUNNING,7,admin
_node,2020-10-21T12:27:11.132Z,IE,IE,a2448e88-bac0-487d-8697-1893e782a7cb,component-spark-worker-instance-2-2,172.31.35.131,3.250.164.233,RUNNING,RUNNING,7,admin
_node,2020-10-21T12:27:11.139Z,IE,IE,7ed8d649-4d21-45e6-87a4-907948323f9e,component-spark-worker-instance-3-4,172.31.39.122,176.34.72.253,RUNNING,RUNNING,7,admin
_node,2020-10-21T12:28:11.117Z,IE,IE,f8cec6c3-424a-43f1-80f0-c1fb0fef6315,component-spark-worker-instance-1-0,172.31.41.223,54.247.5.215,RUNNING,RUNNING,7,admin
_node,2020-10-21T12:28:11.122Z,IE,IE,a2448e88-bac0-487d-8697-1893e782a7cb,component-spark-worker-instance-2-2,172.31.35.131,3.250.164.233,RUNNING,RUNNING,7,admin
_node,2020-10-21T12:28:11.125Z,IE,IE,7ed8d649-4d21-45e6-87a4-907948323f9e,component-spark-worker-instance-3-4,172.31.39.122,176.34.72.253,RUNNING,RUNNING,7,admin
_node,2020-10-21T12:28:11.153Z,IE,IE,91337322-4527-475d-9cd6-d2f002ab43a2,component-spark-worker-instance-12-8,172.31.33.205,18.203.171.124,RUNNING,RUNNING,7,admin
_node,2020-10-21T12:28:11.175Z,IE,IE,9e0364bb-dd2a-4524-9f89-4b8c07b6812d,component-spark-worker-instance-12-10,172.31.41.179,34.241.14.116,RUNNING,RUNNING,7,admin
_node,2020-10-21T12:28:11.191Z,IE,IE,70f58b0f-676a-4e28-990e-14e7b95dd501,component-spark-worker-instance-12-6,172.31.36.69,34.247.184.173,RUNNING,RUNNING,7,admin
_node,2020-10-21T12:28:11.208Z,IE,IE,5d6a29fa-2e59-4b90-9d82-6ff2c6db15df,component-spark-worker-instance-12-12,172.31.46.61,34.253.69.152,RUNNING,RUNNING,7,admin
_node,2020-10-21T12:29:11.111Z,IE,IE,f8cec6c3-424a-43f1-80f0-c1fb0fef6315,component-spark-worker-instance-1-0,172.31.41.223,54.247.5.215,RUNNING,RUNNING,7,admin
_node,2020-10-21T12:29:11.115Z,IE,IE,a2448e88-bac0-487d-8697-1893e782a7cb,component-spark-worker-instance-2-2,172.31.35.131,3.250.164.233,RUNNING,RUNNING,7,admin
_node,2020-10-21T12:29:11.119Z,IE,IE,7ed8d649-4d21-45e6-87a4-907948323f9e,component-spark-worker-instance-3-4,172.31.39.122,176.34.72.253,RUNNING,RUNNING,7,admin
_node,2020-10-21T12:29:11.122Z,IE,IE,91337322-4527-475d-9cd6-d2f002ab43a2,component-spark-worker-instance-12-8,172.31.33.205,18.203.171.124,RUNNING,RUNNING,7,admin
_node,2020-10-21T12:29:11.126Z,IE,IE,9e0364bb-dd2a-4524-9f89-4b8c07b6812d,component-spark-worker-instance-12-10,172.31.41.179,34.241.14.116,RUNNING,RUNNING,7,admin
_node,2020-10-21T12:29:11.129Z,IE,IE,70f58b0f-676a-4e28-990e-14e7b95dd501,component-spark-worker-instance-12-6,172.31.36.69,34.247.184.173,RUNNING,RUNNING,7,admin
_node,2020-10-21T12:29:11.133Z,IE,IE,5d6a29fa-2e59-4b90-9d82-6ff2c6db15df,component-spark-worker-instance-12-12,172.31.46.61,34.253.69.152,RUNNING,RUNNING,7,admin
_node,2020-10-21T12:30:11.117Z,IE,IE,f8cec6c3-424a-43f1-80f0-c1fb0fef6315,component-spark-worker-instance-1-0,172.31.41.223,54.247.5.215,RUNNING,RUNNING,7,admin
_node,2020-10-21T12:30:11.122Z,IE,IE,a2448e88-bac0-487d-8697-1893e782a7cb,component-spark-worker-instance-2-2,172.31.35.131,3.250.164.233,RUNNING,RUNNING,7,admin
_node,2020-10-21T12:30:11.126Z,IE,IE,7ed8d649-4d21-45e6-87a4-907948323f9e,component-spark-worker-instance-3-4,172.31.39.122,176.34.72.253,RUNNING,RUNNING,7,admin
_node,2020-10-21T12:30:11.13Z,IE,IE,91337322-4527-475d-9cd6-d2f002ab43a2,component-spark-worker-instance-12-8,172.31.33.205,18.203.171.124,RUNNING,RUNNING,7,admin
_node,2020-10-21T12:30:11.134Z,IE,IE,9e0364bb-dd2a-4524-9f89-4b8c07b6812d,component-spark-worker-instance-12-10,172.31.41.179,34.241.14.116,RUNNING,RUNNING,7,admin
_node,2020-10-21T12:30:11.138Z,IE,IE,70f58b0f-676a-4e28-990e-14e7b95dd501,component-spark-worker-instance-12-6,172.31.36.69,34.247.184.173,RUNNING,RUNNING,7,admin
_node,2020-10-21T12:30:11.143Z,IE,IE,5d6a29fa-2e59-4b90-9d82-6ff2c6db15df,component-spark-worker-instance-12-12,172.31.46.61,34.253.69.152,RUNNING,RUNNING,7,admin
_node,2020-10-21T12:31:11.114Z,IE,IE,f8cec6c3-424a-43f1-80f0-c1fb0fef6315,component-spark-worker-instance-1-0,172.31.41.223,54.247.5.215,RUNNING,RUNNING,7,admin
_node,2020-10-21T12:31:11.119Z,IE,IE,a2448e88-bac0-487d-8697-1893e782a7cb,component-spark-worker-instance-2-2,172.31.35.131,3.250.164.233,RUNNING,RUNNING,7,admin
_node,2020-10-21T12:31:11.122Z,IE,IE,7ed8d649-4d21-45e6-87a4-907948323f9e,component-spark-worker-instance-3-4,172.31.39.122,176.34.72.253,RUNNING,RUNNING,7,admin
_node,2020-10-21T12:31:11.126Z,IE,IE,91337322-4527-475d-9cd6-d2f002ab43a2,component-spark-worker-instance-12-8,172.31.33.205,18.203.171.124,RUNNING,RUNNING,7,admin
_node,2020-10-21T12:31:11.132Z,IE,IE,9e0364bb-dd2a-4524-9f89-4b8c07b6812d,component-spark-worker-instance-12-10,172.31.41.179,34.241.14.116,RUNNING,RUNNING,7,admin
_node,2020-10-21T12:31:11.139Z,IE,IE,70f58b0f-676a-4e28-990e-14e7b95dd501,component-spark-worker-instance-12-6,172.31.36.69,34.247.184.173,RUNNING,RUNNING,7,admin
_node,2020-10-21T12:31:11.142Z,IE,IE,5d6a29fa-2e59-4b90-9d82-6ff2c6db15df,component-spark-worker-instance-12-12,172.31.46.61,34.253.69.152,RUNNING,RUNNING,7,admin
_node,2020-10-21T12:32:11.122Z,IE,IE,f8cec6c3-424a-43f1-80f0-c1fb0fef6315,component-spark-worker-instance-1-0,172.31.41.223,54.247.5.215,RUNNING,RUNNING,7,admin
_node,2020-10-21T12:32:11.154Z,IE,IE,a2448e88-bac0-487d-8697-1893e782a7cb,component-spark-worker-instance-2-2,172.31.35.131,3.250.164.233,RUNNING,RUNNING,7,admin
_node,2020-10-21T12:32:11.172Z,IE,IE,7ed8d649-4d21-45e6-87a4-907948323f9e,component-spark-worker-instance-3-4,172.31.39.122,176.34.72.253,RUNNING,RUNNING,7,admin
_node,2020-10-21T12:32:11.175Z,IE,IE,91337322-4527-475d-9cd6-d2f002ab43a2,component-spark-worker-instance-12-8,172.31.33.205,18.203.171.124,RUNNING,RUNNING,7,admin
_node,2020-10-21T12:32:11.18Z,IE,IE,9e0364bb-dd2a-4524-9f89-4b8c07b6812d,component-spark-worker-instance-12-10,172.31.41.179,34.241.14.116,RUNNING,RUNNING,7,admin
_node,2020-10-21T12:32:11.183Z,IE,IE,70f58b0f-676a-4e28-990e-14e7b95dd501,component-spark-worker-instance-12-6,172.31.36.69,34.247.184.173,RUNNING,RUNNING,7,admin
_node,2020-10-21T12:32:11.187Z,IE,IE,5d6a29fa-2e59-4b90-9d82-6ff2c6db15df,component-spark-worker-instance-12-12,172.31.46.61,34.253.69.152,RUNNING,RUNNING,7,admin
_node,2020-10-21T12:33:11.112Z,IE,IE,f8cec6c3-424a-43f1-80f0-c1fb0fef6315,component-spark-worker-instance-1-0,172.31.41.223,54.247.5.215,RUNNING,RUNNING,7,admin
_node,2020-10-21T12:33:11.116Z,IE,IE,a2448e88-bac0-487d-8697-1893e782a7cb,component-spark-worker-instance-2-2,172.31.35.131,3.250.164.233,RUNNING,RUNNING,7,admin
_node,2020-10-21T12:33:11.12Z,IE,IE,7ed8d649-4d21-45e6-87a4-907948323f9e,component-spark-worker-instance-3-4,172.31.39.122,176.34.72.253,RUNNING,RUNNING,7,admin
_node,2020-10-21T12:33:11.124Z,IE,IE,91337322-4527-475d-9cd6-d2f002ab43a2,component-spark-worker-instance-12-8,172.31.33.205,18.203.171.124,RUNNING,RUNNING,7,admin
_node,2020-10-21T12:33:11.128Z,IE,IE,9e0364bb-dd2a-4524-9f89-4b8c07b6812d,component-spark-worker-instance-12-10,172.31.41.179,34.241.14.116,RUNNING,RUNNING,7,admin
_node,2020-10-21T12:33:11.133Z,IE,IE,70f58b0f-676a-4e28-990e-14e7b95dd501,component-spark-worker-instance-12-6,172.31.36.69,34.247.184.173,RUNNING,RUNNING,7,admin
_node,2020-10-21T12:33:11.137Z,IE,IE,5d6a29fa-2e59-4b90-9d82-6ff2c6db15df,component-spark-worker-instance-12-12,172.31.46.61,34.253.69.152,RUNNING,RUNNING,7,admin
_node,2020-10-21T12:34:11.114Z,IE,IE,f8cec6c3-424a-43f1-80f0-c1fb0fef6315,component-spark-worker-instance-1-0,172.31.41.223,54.247.5.215,RUNNING,RUNNING,7,admin
_node,2020-10-21T12:34:11.119Z,IE,IE,a2448e88-bac0-487d-8697-1893e782a7cb,component-spark-worker-instance-2-2,172.31.35.131,3.250.164.233,RUNNING,RUNNING,7,admin
_node,2020-10-21T12:34:11.123Z,IE,IE,7ed8d649-4d21-45e6-87a4-907948323f9e,component-spark-worker-instance-3-4,172.31.39.122,176.34.72.253,RUNNING,RUNNING,7,admin
_node,2020-10-21T12:34:11.153Z,IE,IE,91337322-4527-475d-9cd6-d2f002ab43a2,component-spark-worker-instance-12-8,172.31.33.205,18.203.171.124,RUNNING,RUNNING,7,admin
_node,2020-10-21T12:34:11.17Z,IE,IE,9e0364bb-dd2a-4524-9f89-4b8c07b6812d,component-spark-worker-instance-12-10,172.31.41.179,34.241.14.116,RUNNING,RUNNING,7,admin
_node,2020-10-21T12:34:11.187Z,IE,IE,70f58b0f-676a-4e28-990e-14e7b95dd501,component-spark-worker-instance-12-6,172.31.36.69,34.247.184.173,RUNNING,RUNNING,7,admin
_node,2020-10-21T12:34:11.204Z,IE,IE,5d6a29fa-2e59-4b90-9d82-6ff2c6db15df,component-spark-worker-instance-12-12,172.31.46.61,34.253.69.152,RUNNING,RUNNING,7,admin
_node,2020-10-21T12:35:11.1Z,IE,IE,f8cec6c3-424a-43f1-80f0-c1fb0fef6315,component-spark-worker-instance-1-0,172.31.41.223,54.247.5.215,RUNNING,RUNNING,7,admin
_node,2020-10-21T12:35:11.104Z,IE,IE,a2448e88-bac0-487d-8697-1893e782a7cb,component-spark-worker-instance-2-2,172.31.35.131,3.250.164.233,RUNNING,RUNNING,7,admin
_node,2020-10-21T12:35:11.109Z,IE,IE,7ed8d649-4d21-45e6-87a4-907948323f9e,component-spark-worker-instance-3-4,172.31.39.122,176.34.72.253,RUNNING,RUNNING,7,admin
_node,2020-10-21T12:35:11.115Z,IE,IE,91337322-4527-475d-9cd6-d2f002ab43a2,component-spark-worker-instance-12-8,172.31.33.205,18.203.171.124,RUNNING,RUNNING,7,admin
_node,2020-10-21T12:35:11.119Z,IE,IE,9e0364bb-dd2a-4524-9f89-4b8c07b6812d,component-spark-worker-instance-12-10,172.31.41.179,34.241.14.116,RUNNING,RUNNING,7,admin
_node,2020-10-21T12:35:11.122Z,IE,IE,70f58b0f-676a-4e28-990e-14e7b95dd501,component-spark-worker-instance-12-6,172.31.36.69,34.247.184.173,RUNNING,RUNNING,7,admin
_node,2020-10-21T12:35:11.126Z,IE,IE,5d6a29fa-2e59-4b90-9d82-6ff2c6db15df,component-spark-worker-instance-12-12,172.31.46.61,34.253.69.152,RUNNING,RUNNING,7,admin
_node,2020-10-21T12:36:11.147Z,IE,IE,f8cec6c3-424a-43f1-80f0-c1fb0fef6315,component-spark-worker-instance-1-0,172.31.41.223,54.247.5.215,RUNNING,RUNNING,7,admin
_node,2020-10-21T12:36:11.153Z,IE,IE,a2448e88-bac0-487d-8697-1893e782a7cb,component-spark-worker-instance-2-2,172.31.35.131,3.250.164.233,RUNNING,RUNNING,7,admin
_node,2020-10-21T12:36:11.158Z,IE,IE,7ed8d649-4d21-45e6-87a4-907948323f9e,component-spark-worker-instance-3-4,172.31.39.122,176.34.72.253,RUNNING,RUNNING,7,admin
_node,2020-10-21T12:36:11.162Z,IE,IE,91337322-4527-475d-9cd6-d2f002ab43a2,component-spark-worker-instance-12-8,172.31.33.205,18.203.171.124,RUNNING,RUNNING,7,admin
_node,2020-10-21T12:36:11.165Z,IE,IE,9e0364bb-dd2a-4524-9f89-4b8c07b6812d,component-spark-worker-instance-12-10,172.31.41.179,34.241.14.116,RUNNING,RUNNING,7,admin
_node,2020-10-21T12:36:11.169Z,IE,IE,70f58b0f-676a-4e28-990e-14e7b95dd501,component-spark-worker-instance-12-6,172.31.36.69,34.247.184.173,RUNNING,RUNNING,7,admin
_node,2020-10-21T12:36:11.173Z,IE,IE,5d6a29fa-2e59-4b90-9d82-6ff2c6db15df,component-spark-worker-instance-12-12,172.31.46.61,34.253.69.152,RUNNING,RUNNING,7,admin
_node,2020-10-21T12:37:11.123Z,IE,IE,f8cec6c3-424a-43f1-80f0-c1fb0fef6315,component-spark-worker-instance-1-0,172.31.41.223,54.247.5.215,RUNNING,RUNNING,7,admin
_node,2020-10-21T12:37:11.127Z,IE,IE,a2448e88-bac0-487d-8697-1893e782a7cb,component-spark-worker-instance-2-2,172.31.35.131,3.250.164.233,RUNNING,RUNNING,7,admin
_node,2020-10-21T12:37:11.131Z,IE,IE,7ed8d649-4d21-45e6-87a4-907948323f9e,component-spark-worker-instance-3-4,172.31.39.122,176.34.72.253,RUNNING,RUNNING,7,admin
_node,2020-10-21T12:37:11.134Z,IE,IE,91337322-4527-475d-9cd6-d2f002ab43a2,component-spark-worker-instance-12-8,172.31.33.205,18.203.171.124,RUNNING,RUNNING,7,admin
_node,2020-10-21T12:37:11.139Z,IE,IE,9e0364bb-dd2a-4524-9f89-4b8c07b6812d,component-spark-worker-instance-12-10,172.31.41.179,34.241.14.116,RUNNING,RUNNING,7,admin
_node,2020-10-21T12:37:11.144Z,IE,IE,70f58b0f-676a-4e28-990e-14e7b95dd501,component-spark-worker-instance-12-6,172.31.36.69,34.247.184.173,RUNNING,RUNNING,7,admin
_node,2020-10-21T12:37:11.151Z,IE,IE,5d6a29fa-2e59-4b90-9d82-6ff2c6db15df,component-spark-worker-instance-12-12,172.31.46.61,34.253.69.152,RUNNING,RUNNING,7,admin
_node,2020-10-21T12:38:11.124Z,IE,IE,f8cec6c3-424a-43f1-80f0-c1fb0fef6315,component-spark-worker-instance-1-0,172.31.41.223,54.247.5.215,RUNNING,RUNNING,7,admin
_node,2020-10-21T12:38:11.153Z,IE,IE,a2448e88-bac0-487d-8697-1893e782a7cb,component-spark-worker-instance-2-2,172.31.35.131,3.250.164.233,RUNNING,RUNNING,7,admin
_node,2020-10-21T12:38:11.169Z,IE,IE,7ed8d649-4d21-45e6-87a4-907948323f9e,component-spark-worker-instance-3-4,172.31.39.122,176.34.72.253,RUNNING,RUNNING,7,admin
_node,2020-10-21T12:38:11.173Z,IE,IE,91337322-4527-475d-9cd6-d2f002ab43a2,component-spark-worker-instance-12-8,172.31.33.205,18.203.171.124,RUNNING,RUNNING,7,admin
_node,2020-10-21T12:38:11.176Z,IE,IE,9e0364bb-dd2a-4524-9f89-4b8c07b6812d,component-spark-worker-instance-12-10,172.31.41.179,34.241.14.116,RUNNING,RUNNING,7,admin
_node,2020-10-21T12:38:11.18Z,IE,IE,70f58b0f-676a-4e28-990e-14e7b95dd501,component-spark-worker-instance-12-6,172.31.36.69,34.247.184.173,RUNNING,RUNNING,7,admin
_node,2020-10-21T12:38:11.183Z,IE,IE,5d6a29fa-2e59-4b90-9d82-6ff2c6db15df,component-spark-worker-instance-12-12,172.31.46.61,34.253.69.152,RUNNING,RUNNING,7,admin
_node,2020-10-21T12:39:11.136Z,IE,IE,f8cec6c3-424a-43f1-80f0-c1fb0fef6315,component-spark-worker-instance-1-0,172.31.41.223,54.247.5.215,RUNNING,RUNNING,7,admin
_node,2020-10-21T12:39:11.141Z,IE,IE,a2448e88-bac0-487d-8697-1893e782a7cb,component-spark-worker-instance-2-2,172.31.35.131,3.250.164.233,RUNNING,RUNNING,7,admin
_node,2020-10-21T12:39:11.148Z,IE,IE,7ed8d649-4d21-45e6-87a4-907948323f9e,component-spark-worker-instance-3-4,172.31.39.122,176.34.72.253,RUNNING,RUNNING,7,admin
_node,2020-10-21T12:39:11.177Z,IE,IE,91337322-4527-475d-9cd6-d2f002ab43a2,component-spark-worker-instance-12-8,172.31.33.205,18.203.171.124,RUNNING,RUNNING,7,admin
_node,2020-10-21T12:39:11.193Z,IE,IE,9e0364bb-dd2a-4524-9f89-4b8c07b6812d,component-spark-worker-instance-12-10,172.31.41.179,34.241.14.116,RUNNING,RUNNING,7,admin
_node,2020-10-21T12:39:11.21Z,IE,IE,70f58b0f-676a-4e28-990e-14e7b95dd501,component-spark-worker-instance-12-6,172.31.36.69,34.247.184.173,RUNNING,RUNNING,7,admin
_node,2020-10-21T12:39:11.227Z,IE,IE,5d6a29fa-2e59-4b90-9d82-6ff2c6db15df,component-spark-worker-instance-12-12,172.31.46.61,34.253.69.152,RUNNING,RUNNING,7,admin
_node,2020-10-21T12:40:11.185Z,IE,IE,f8cec6c3-424a-43f1-80f0-c1fb0fef6315,component-spark-worker-instance-1-0,172.31.41.223,54.247.5.215,RUNNING,RUNNING,7,admin
_node,2020-10-21T12:40:11.19Z,IE,IE,a2448e88-bac0-487d-8697-1893e782a7cb,component-spark-worker-instance-2-2,172.31.35.131,3.250.164.233,RUNNING,RUNNING,7,admin
_node,2020-10-21T12:40:11.194Z,IE,IE,7ed8d649-4d21-45e6-87a4-907948323f9e,component-spark-worker-instance-3-4,172.31.39.122,176.34.72.253,RUNNING,RUNNING,7,admin
_node,2020-10-21T12:40:11.198Z,IE,IE,91337322-4527-475d-9cd6-d2f002ab43a2,component-spark-worker-instance-12-8,172.31.33.205,18.203.171.124,RUNNING,RUNNING,7,admin
_node,2020-10-21T12:40:11.202Z,IE,IE,9e0364bb-dd2a-4524-9f89-4b8c07b6812d,component-spark-worker-instance-12-10,172.31.41.179,34.241.14.116,RUNNING,RUNNING,7,admin
_node,2020-10-21T12:40:11.208Z,IE,IE,70f58b0f-676a-4e28-990e-14e7b95dd501,component-spark-worker-instance-12-6,172.31.36.69,34.247.184.173,RUNNING,RUNNING,7,admin
_node,2020-10-21T12:40:11.212Z,IE,IE,5d6a29fa-2e59-4b90-9d82-6ff2c6db15df,component-spark-worker-instance-12-12,172.31.46.61,34.253.69.152,RUNNING,RUNNING,7,admin
_node,2020-10-21T12:41:11.123Z,IE,IE,f8cec6c3-424a-43f1-80f0-c1fb0fef6315,component-spark-worker-instance-1-0,172.31.41.223,54.247.5.215,RUNNING,RUNNING,7,admin
_node,2020-10-21T12:41:11.128Z,IE,IE,a2448e88-bac0-487d-8697-1893e782a7cb,component-spark-worker-instance-2-2,172.31.35.131,3.250.164.233,RUNNING,RUNNING,7,admin
_node,2020-10-21T12:41:11.132Z,IE,IE,7ed8d649-4d21-45e6-87a4-907948323f9e,component-spark-worker-instance-3-4,172.31.39.122,176.34.72.253,RUNNING,RUNNING,7,admin
_node,2020-10-21T12:41:11.136Z,IE,IE,91337322-4527-475d-9cd6-d2f002ab43a2,component-spark-worker-instance-12-8,172.31.33.205,18.203.171.124,RUNNING,RUNNING,7,admin
_node,2020-10-21T12:41:11.14Z,IE,IE,9e0364bb-dd2a-4524-9f89-4b8c07b6812d,component-spark-worker-instance-12-10,172.31.41.179,34.241.14.116,RUNNING,RUNNING,7,admin
_node,2020-10-21T12:41:11.143Z,IE,IE,70f58b0f-676a-4e28-990e-14e7b95dd501,component-spark-worker-instance-12-6,172.31.36.69,34.247.184.173,RUNNING,RUNNING,7,admin
_node,2020-10-21T12:41:11.147Z,IE,IE,5d6a29fa-2e59-4b90-9d82-6ff2c6db15df,component-spark-worker-instance-12-12,172.31.46.61,34.253.69.152,RUNNING,RUNNING,7,admin
_node,2020-10-21T12:42:11.195Z,IE,IE,f8cec6c3-424a-43f1-80f0-c1fb0fef6315,component-spark-worker-instance-1-0,172.31.41.223,54.247.5.215,RUNNING,RUNNING,7,admin
_node,2020-10-21T12:42:11.2Z,IE,IE,a2448e88-bac0-487d-8697-1893e782a7cb,component-spark-worker-instance-2-2,172.31.35.131,3.250.164.233,RUNNING,RUNNING,7,admin
_node,2020-10-21T12:42:11.204Z,IE,IE,7ed8d649-4d21-45e6-87a4-907948323f9e,component-spark-worker-instance-3-4,172.31.39.122,176.34.72.253,RUNNING,RUNNING,7,admin
_node,2020-10-21T12:42:11.209Z,IE,IE,91337322-4527-475d-9cd6-d2f002ab43a2,component-spark-worker-instance-12-8,172.31.33.205,18.203.171.124,RUNNING,RUNNING,7,admin
_node,2020-10-21T12:42:11.215Z,IE,IE,9e0364bb-dd2a-4524-9f89-4b8c07b6812d,component-spark-worker-instance-12-10,172.31.41.179,34.241.14.116,RUNNING,RUNNING,7,admin
_node,2020-10-21T12:42:11.219Z,IE,IE,70f58b0f-676a-4e28-990e-14e7b95dd501,component-spark-worker-instance-12-6,172.31.36.69,34.247.184.173,RUNNING,RUNNING,7,admin
_node,2020-10-21T12:42:11.223Z,IE,IE,5d6a29fa-2e59-4b90-9d82-6ff2c6db15df,component-spark-worker-instance-12-12,172.31.46.61,34.253.69.152,RUNNING,RUNNING,7,admin
