,Unnamed: 0,time,prediction,step
9542,9542,2020-11-16 09:48:18.276,8589.913,2
9552,9552,2020-11-16 09:48:48.276,8740.516,2
9562,9562,2020-11-16 09:49:18.276,8820.85,2
9572,9572,2020-11-16 09:49:48.276,8880.158000000001,2
9582,9582,2020-11-16 09:50:18.276,8907.843,2
9592,9592,2020-11-16 09:50:48.276,8924.47,2
9602,9602,2020-11-16 09:51:18.276,8894.087,2
9612,9612,2020-11-16 09:51:48.276,8873.884,2
9622,9622,2020-11-16 09:52:18.276,8843.317,2
9632,9632,2020-11-16 09:52:48.276,8818.395,2
9642,9642,2020-11-16 09:53:18.276,8798.049,2
9652,9652,2020-11-16 09:53:48.276,8781.8545,2
9662,9662,2020-11-16 09:54:18.276,8752.484,2
9672,9672,2020-11-16 09:54:48.276,8725.152,2
9682,9682,2020-11-16 09:55:18.276,8699.263,2
9692,9692,2020-11-16 09:55:48.276,8675.253,2
9702,9702,2020-11-16 09:56:18.276,8653.288,2
9712,9712,2020-11-16 09:56:48.276,8633.796999999999,2
9722,9722,2020-11-16 09:57:18.276,8616.913,2
9732,9732,2020-11-16 09:57:48.276,8598.538,2
9742,9742,2020-11-16 09:58:18.276,8615.671999999999,2
9752,9752,2020-11-16 09:58:48.276,8620.412,2
9762,9762,2020-11-16 09:59:18.276,8616.099,2
9772,9772,2020-11-16 09:59:48.276,8607.698,2
9782,9782,2020-11-16 10:00:18.276,8596.757,2
9792,9792,2020-11-16 10:00:48.276,8590.849,2
9802,9802,2020-11-16 10:01:18.276,8599.491,2
9812,9812,2020-11-16 10:01:48.276,8595.802,2
9822,9822,2020-11-16 10:02:18.276,8592.79,2
9832,9832,2020-11-16 10:02:48.276,8590.6,2
9842,9842,2020-11-16 10:03:18.276,8589.419,2
9852,9852,2020-11-16 10:03:48.276,8587.869,2
9862,9862,2020-11-16 10:04:18.276,8587.71,2
9872,9872,2020-11-16 10:04:48.276,8589.756,2
9882,9882,2020-11-16 10:05:18.276,8594.3955,2
9892,9892,2020-11-16 10:05:48.276,8565.764000000001,2
9902,9902,2020-11-16 10:06:18.276,8524.205,2
9912,9912,2020-11-16 10:06:48.276,8486.584,2
9922,9922,2020-11-16 10:07:18.276,8452.495,2
9932,9932,2020-11-16 10:07:48.276,8421.06,2
9942,9942,2020-11-16 10:08:18.276,8391.712,2
9952,9952,2020-11-16 10:08:48.276,8364.159,2
9962,9962,2020-11-16 10:09:18.276,8377.8125,2
9972,9972,2020-11-16 10:09:48.276,8385.305,2
9982,9982,2020-11-16 10:10:18.276,8411.644,2
9992,9992,2020-11-16 10:10:48.276,8417.004,2
10002,10002,2020-11-16 10:11:18.276,8391.968,2
10012,10012,2020-11-16 10:11:48.276,8377.473,2
10022,10022,2020-11-16 10:12:18.276,8368.347,2
10032,10032,2020-11-16 10:12:48.276,8357.15,2
10042,10042,2020-11-16 10:13:18.276,8346.872,2
10052,10052,2020-11-16 10:13:48.276,8336.931,2
10062,10062,2020-11-16 10:14:18.276,8327.097,2
10072,10072,2020-11-16 10:14:48.276,8317.284,2
10082,10082,2020-11-16 10:15:18.276,8307.456,2
10092,10092,2020-11-16 10:15:48.276,8297.589,2
10102,10102,2020-11-16 10:16:18.276,8287.666,2
10112,10112,2020-11-16 10:16:48.276,8277.666,2
10122,10122,2020-11-16 10:17:18.276,8267.57,2
10132,10132,2020-11-16 10:17:48.276,8255.507,2
10142,10142,2020-11-16 10:18:18.276,8243.616,2
10152,10152,2020-11-16 10:18:48.276,8231.465,2
10162,10162,2020-11-16 10:19:18.276,8219.353000000001,2
10172,10172,2020-11-16 10:19:48.276,8207.42,2
10182,10182,2020-11-16 10:20:18.276,8196.216,2
10192,10192,2020-11-16 10:20:48.276,8225.551,2
10202,10202,2020-11-16 10:21:18.276,8234.69,2
10212,10212,2020-11-16 10:21:48.276,8237.581,2
10222,10222,2020-11-16 10:22:18.276,8239.14,2
10232,10232,2020-11-16 10:22:48.276,8240.374,2
10242,10242,2020-11-16 10:23:18.276,8241.487,2
10252,10252,2020-11-16 10:23:48.276,8242.6455,2
10262,10262,2020-11-16 10:24:18.276,8237.035,2
10272,10272,2020-11-16 10:24:48.276,8231.279,2
10282,10282,2020-11-16 10:25:18.276,8233.78,2
10292,10292,2020-11-16 10:25:48.276,8240.847,2
10302,10302,2020-11-16 10:26:18.276,8236.364,2
10312,10312,2020-11-16 10:26:48.276,8231.576,2
10322,10322,2020-11-16 10:27:18.276,8226.253,2
10332,10332,2020-11-16 10:27:48.276,8218.324,2
10342,10342,2020-11-16 10:28:18.276,8209.809000000001,2
10352,10352,2020-11-16 10:28:48.276,8200.659,2
10362,10362,2020-11-16 10:29:18.276,8190.9259999999995,2
10372,10372,2020-11-16 10:29:48.276,8180.6484,2
10382,10382,2020-11-16 10:30:18.276,8140.2305,2
10392,10392,2020-11-16 10:30:48.276,8100.3486,2
10402,10402,2020-11-16 10:31:18.276,8132.5786,2
10412,10412,2020-11-16 10:31:48.276,8142.024,2
10422,10422,2020-11-16 10:32:18.276,8144.656,2
10432,10432,2020-11-16 10:32:48.276,8146.395,2
10442,10442,2020-11-16 10:33:18.276,8147.9775,2
10452,10452,2020-11-16 10:33:48.276,8149.621999999999,2
10462,10462,2020-11-16 10:34:18.276,8123.0034,2
10472,10472,2020-11-16 10:34:48.276,8104.9795,2
10482,10482,2020-11-16 10:35:18.276,8092.599,2
10492,10492,2020-11-16 10:35:48.276,8075.984,2
10502,10502,2020-11-16 10:36:18.276,8058.547,2
10512,10512,2020-11-16 10:36:48.276,8041.874,2
10522,10522,2020-11-16 10:37:18.276,8025.6123,2
10532,10532,2020-11-16 10:37:48.276,8009.55,2
10542,10542,2020-11-16 10:38:18.276,7993.563,2
10552,10552,2020-11-16 10:38:48.276,7977.5825,2
10562,10562,2020-11-16 10:39:18.276,7961.569,2
10572,10572,2020-11-16 10:39:48.276,7945.5005,2
10582,10582,2020-11-16 10:40:18.276,7929.357,2
10592,10592,2020-11-16 10:40:48.276,7913.1230000000005,2
10602,10602,2020-11-16 10:41:18.276,7940.355,2
10612,10612,2020-11-16 10:41:48.276,7948.3403,2
10622,10622,2020-11-16 10:42:18.276,7946.028,2
10632,10632,2020-11-16 10:42:48.276,7941.0723,2
10642,10642,2020-11-16 10:43:18.276,7935.198,2
10652,10652,2020-11-16 10:43:48.276,7928.8154,2
10662,10662,2020-11-16 10:44:18.276,7919.643,2
10672,10672,2020-11-16 10:44:48.276,7911.799,2
10682,10682,2020-11-16 10:45:18.276,7913.7896,2
10692,10692,2020-11-16 10:45:48.276,7918.275,2
10702,10702,2020-11-16 10:46:18.276,7911.5195,2
10712,10712,2020-11-16 10:46:48.276,7905.2725,2
10722,10722,2020-11-16 10:47:18.276,7899.7466,2
10732,10732,2020-11-16 10:47:48.276,7895.269,2
10742,10742,2020-11-16 10:48:18.276,7892.194,2
10752,10752,2020-11-16 10:48:48.276,7890.7734,2
10762,10762,2020-11-16 10:49:18.276,7881.751,2
10772,10772,2020-11-16 10:49:48.276,7871.978,2
10782,10782,2020-11-16 10:50:18.276,7861.5254,2
10792,10792,2020-11-16 10:50:48.276,7863.4490000000005,2
10802,10802,2020-11-16 10:51:18.276,7881.8105,2
10812,10812,2020-11-16 10:51:48.276,7885.111,2
10822,10822,2020-11-16 10:52:18.276,7886.0015,2
10832,10832,2020-11-16 10:52:48.276,7886.576999999999,2
10842,10842,2020-11-16 10:53:18.276,7887.2383,2
10852,10852,2020-11-16 10:53:48.276,7888.003000000001,2
10862,10862,2020-11-16 10:54:18.276,7887.214,2
10872,10872,2020-11-16 10:54:48.276,7886.674,2
10882,10882,2020-11-16 10:55:18.276,7887.3,2
10892,10892,2020-11-16 10:55:48.276,7890.5366,2
10902,10902,2020-11-16 10:56:18.276,7884.8857,2
10912,10912,2020-11-16 10:56:48.276,7878.9907,2
10922,10922,2020-11-16 10:57:18.276,7848.34,2
10932,10932,2020-11-16 10:57:48.276,7817.329000000001,2
10942,10942,2020-11-16 10:58:18.276,7788.4580000000005,2
10952,10952,2020-11-16 10:58:48.276,7760.295,2
10962,10962,2020-11-16 10:59:18.276,7734.3354,2
10972,10972,2020-11-16 10:59:48.276,7710.104,2
10982,10982,2020-11-16 11:00:18.276,7733.585999999999,2
10992,10992,2020-11-16 11:00:48.276,7741.2119999999995,2
11002,11002,2020-11-16 11:01:18.276,7738.156999999999,2
11012,11012,2020-11-16 11:01:48.276,7732.26,2
11022,11022,2020-11-16 11:02:18.276,7725.874,2
11032,11032,2020-11-16 11:02:48.276,7717.729,2
11042,11042,2020-11-16 11:03:18.276,7710.798000000001,2
11052,11052,2020-11-16 11:03:48.276,7704.185,2
11062,11062,2020-11-16 11:04:18.276,7697.566999999999,2
11072,11072,2020-11-16 11:04:48.276,7690.7583,2
11082,11082,2020-11-16 11:05:18.276,7683.526,2
11092,11092,2020-11-16 11:05:48.276,7673.855,2
11102,11102,2020-11-16 11:06:18.276,7663.4883,2
11112,11112,2020-11-16 11:06:48.276,7652.9805,2
11122,11122,2020-11-16 11:07:18.276,7642.299,2
11132,11132,2020-11-16 11:07:48.276,7631.4053,2
11142,11142,2020-11-16 11:08:18.276,7657.241999999999,2
11152,11152,2020-11-16 11:08:48.276,7660.118,2
11162,11162,2020-11-16 11:09:18.276,7658.505999999999,2
11172,11172,2020-11-16 11:09:48.276,7656.1978,2
11182,11182,2020-11-16 11:10:18.276,7653.8496,2
11192,11192,2020-11-16 11:10:48.276,7651.475,2
11202,11202,2020-11-16 11:11:18.276,7648.9473,2
11212,11212,2020-11-16 11:11:48.276,7646.2812,2
11222,11222,2020-11-16 11:12:18.276,7644.524,2
11232,11232,2020-11-16 11:12:48.276,7642.6636,2
11242,11242,2020-11-16 11:13:18.276,7641.478,2
11252,11252,2020-11-16 11:13:48.276,7643.3936,2
11262,11262,2020-11-16 11:14:18.276,7647.503000000001,2
11272,11272,2020-11-16 11:14:48.276,7653.4980000000005,2
11282,11282,2020-11-16 11:15:18.276,7644.884,2
11292,11292,2020-11-16 11:15:48.276,7635.4043,2
11302,11302,2020-11-16 11:16:18.276,7642.8135,2
11312,11312,2020-11-16 11:16:48.276,7654.3857,2
11322,11322,2020-11-16 11:17:18.276,7655.401,2
11332,11332,2020-11-16 11:17:48.276,7655.265,2
11342,11342,2020-11-16 11:18:18.276,7654.991999999999,2
11352,11352,2020-11-16 11:18:48.276,7654.7446,2
11362,11362,2020-11-16 11:19:18.276,7654.418000000001,2
11372,11372,2020-11-16 11:19:48.276,7653.7773,2
11382,11382,2020-11-16 11:20:18.276,7652.4746,2
11392,11392,2020-11-16 11:20:48.276,7632.1006,2
11402,11402,2020-11-16 11:21:18.276,7615.21,2
11412,11412,2020-11-16 11:21:48.276,7601.0776,2
11422,11422,2020-11-16 11:22:18.276,7588.2266,2
11432,11432,2020-11-16 11:22:48.276,7576.3384,2
11442,11442,2020-11-16 11:23:18.276,7557.3135,2
11452,11452,2020-11-16 11:23:48.276,7583.675,2
11462,11462,2020-11-16 11:24:18.276,7589.7236,2
11472,11472,2020-11-16 11:24:48.276,7586.368,2
11482,11482,2020-11-16 11:25:18.276,7581.185,2
11492,11492,2020-11-16 11:25:48.276,7575.2056,2
11502,11502,2020-11-16 11:26:18.276,7568.861,2
11512,11512,2020-11-16 11:26:48.276,7562.444,2
11522,11522,2020-11-16 11:27:18.276,7556.1943,2
11532,11532,2020-11-16 11:27:48.276,7550.0215,2
11542,11542,2020-11-16 11:28:18.276,7543.804,2
11552,11552,2020-11-16 11:28:48.276,7537.387,2
11562,11562,2020-11-16 11:29:18.276,7529.298000000001,2
11572,11572,2020-11-16 11:29:48.276,7521.073,2
11582,11582,2020-11-16 11:30:18.276,7512.445,2
11592,11592,2020-11-16 11:30:48.276,7539.76,2
11602,11602,2020-11-16 11:31:18.276,7542.8096,2
11612,11612,2020-11-16 11:31:48.276,7540.855,2
11622,11622,2020-11-16 11:32:18.276,7537.678000000001,2
11632,11632,2020-11-16 11:32:48.276,7534.621,2
11642,11642,2020-11-16 11:33:18.276,7531.488,2
11652,11652,2020-11-16 11:33:48.276,7528.076,2
11662,11662,2020-11-16 11:34:18.276,7524.142,2
11672,11672,2020-11-16 11:34:48.276,7519.4683,2
11682,11682,2020-11-16 11:35:18.276,7514.137,2
11692,11692,2020-11-16 11:35:48.276,7510.2725,2
11702,11702,2020-11-16 11:36:18.276,7507.871999999999,2
11712,11712,2020-11-16 11:36:48.276,7527.404,2
11722,11722,2020-11-16 11:37:18.276,7537.2915,2
11732,11732,2020-11-16 11:37:48.276,7548.8594,2
11742,11742,2020-11-16 11:38:18.276,7564.0967,2
11752,11752,2020-11-16 11:38:48.276,7563.0693,2
11762,11762,2020-11-16 11:39:18.276,7561.9756,2
11772,11772,2020-11-16 11:39:48.276,7560.84,2
11782,11782,2020-11-16 11:40:18.276,7546.128000000001,2
11792,11792,2020-11-16 11:40:48.276,7533.76,2
11802,11802,2020-11-16 11:41:18.276,7523.316999999999,2
11812,11812,2020-11-16 11:41:48.276,7513.7915,2
11822,11822,2020-11-16 11:42:18.276,7504.227,2
11832,11832,2020-11-16 11:42:48.276,7529.8076,2
11842,11842,2020-11-16 11:43:18.276,7536.351,2
11852,11852,2020-11-16 11:43:48.276,7539.776,2
11862,11862,2020-11-16 11:44:18.276,7543.79,2
11872,11872,2020-11-16 11:44:48.276,7549.044,2
11882,11882,2020-11-16 11:45:18.276,7556.17,2
11892,11892,2020-11-16 11:45:48.276,7549.863,2
11902,11902,2020-11-16 11:46:18.276,7543.382,2
11912,11912,2020-11-16 11:46:48.276,7536.8877,2
11922,11922,2020-11-16 11:47:18.276,7530.3374,2
11932,11932,2020-11-16 11:47:48.276,7547.4644,2
11942,11942,2020-11-16 11:48:18.276,7550.161,2
11952,11952,2020-11-16 11:48:48.276,7551.486,2
11962,11962,2020-11-16 11:49:18.276,7552.8335,2
11972,11972,2020-11-16 11:49:48.276,7554.414000000001,2
11982,11982,2020-11-16 11:50:18.276,7556.3574,2
11992,11992,2020-11-16 11:50:48.276,7558.93,2
12002,12002,2020-11-16 11:51:18.276,7562.4927,2
12012,12012,2020-11-16 11:51:48.276,7557.4976,2
12022,12022,2020-11-16 11:52:18.276,7562.36,2
12032,12032,2020-11-16 11:52:48.276,7562.78,2
12042,12042,2020-11-16 11:53:18.276,7562.7227,2
12052,12052,2020-11-16 11:53:48.276,7562.6533,2
12062,12062,2020-11-16 11:54:18.276,7559.6226,2
12072,12072,2020-11-16 11:54:48.276,7556.3315,2
12082,12082,2020-11-16 11:55:18.276,7558.669,2
12092,12092,2020-11-16 11:55:48.276,7561.313,2
12102,12102,2020-11-16 11:56:18.276,7566.255999999999,2
12112,12112,2020-11-16 11:56:48.276,7594.291,2
12122,12122,2020-11-16 11:57:18.276,7617.1426,2
12132,12132,2020-11-16 11:57:48.276,7617.7363,2
12142,12142,2020-11-16 11:58:18.276,7618.319,2
12152,12152,2020-11-16 11:58:48.276,7618.9355,2
12162,12162,2020-11-16 11:59:18.276,7620.0728,2
12172,12172,2020-11-16 11:59:48.276,7620.743,2
12182,12182,2020-11-16 12:00:18.276,7621.566,2
12192,12192,2020-11-16 12:00:48.276,7632.6113,2
12202,12202,2020-11-16 12:01:18.276,7643.598000000001,2
12212,12212,2020-11-16 12:01:48.276,7658.049,2
12222,12222,2020-11-16 12:02:18.276,7677.5215,2
12232,12232,2020-11-16 12:02:48.276,7677.7056,2
12242,12242,2020-11-16 12:03:18.276,7677.932,2
12252,12252,2020-11-16 12:03:48.276,7679.81,2
12262,12262,2020-11-16 12:04:18.276,7682.486,2
12272,12272,2020-11-16 12:04:48.276,7686.106,2
12282,12282,2020-11-16 12:05:18.276,7690.9507,2
