,Unnamed: 0,time,prediction,step
9541,9541,2020-11-16 09:47:48.276,8601.241,1
9551,9551,2020-11-16 09:48:18.276,8748.679,1
9561,9561,2020-11-16 09:48:48.276,8827.124,1
9571,9571,2020-11-16 09:49:18.276,8885.015,1
9581,9581,2020-11-16 09:49:48.276,8911.907,1
9591,9591,2020-11-16 09:50:18.276,8927.958,1
9601,9601,2020-11-16 09:50:48.276,8897.843,1
9611,9611,2020-11-16 09:51:18.276,8877.644,1
9621,9621,2020-11-16 09:51:48.276,8847.18,1
9631,9631,2020-11-16 09:52:18.276,8822.21,1
9641,9641,2020-11-16 09:52:48.276,8801.686,1
9651,9651,2020-11-16 09:53:18.276,8785.186,1
9661,9661,2020-11-16 09:53:48.276,8755.914,1
9671,9671,2020-11-16 09:54:18.276,8728.681,1
9681,9681,2020-11-16 09:54:48.276,8702.915,1
9691,9691,2020-11-16 09:55:18.276,8679.056999999999,1
9701,9701,2020-11-16 09:55:48.276,8657.292,1
9711,9711,2020-11-16 09:56:18.276,8638.078000000001,1
9721,9721,2020-11-16 09:56:48.276,8621.521999999999,1
9731,9731,2020-11-16 09:57:18.276,8603.349,1
9741,9741,2020-11-16 09:57:48.276,8619.999,1
9751,9751,2020-11-16 09:58:18.276,8623.824,1
9761,9761,2020-11-16 09:58:48.276,8619.17,1
9771,9771,2020-11-16 09:59:18.276,8610.644,1
9781,9781,2020-11-16 09:59:48.276,8599.582,1
9791,9791,2020-11-16 10:00:18.276,8593.7,1
9801,9801,2020-11-16 10:00:48.276,8601.836,1
9811,9811,2020-11-16 10:01:18.276,8598.135,1
9821,9821,2020-11-16 10:01:48.276,8595.106,1
9831,9831,2020-11-16 10:02:18.276,8592.89,1
9841,9841,2020-11-16 10:02:48.276,8591.669,1
9851,9851,2020-11-16 10:03:18.276,8590.109,1
9861,9861,2020-11-16 10:03:48.276,8589.921999999999,1
9871,9871,2020-11-16 10:04:18.276,8591.882,1
9881,9881,2020-11-16 10:04:48.276,8596.285,1
9891,9891,2020-11-16 10:05:18.276,8567.782,1
9901,9901,2020-11-16 10:05:48.276,8526.704,1
9911,9911,2020-11-16 10:06:18.276,8489.333,1
9921,9921,2020-11-16 10:06:48.276,8455.444,1
9931,9931,2020-11-16 10:07:18.276,8424.215,1
9941,9941,2020-11-16 10:07:48.276,8395.096,1
9951,9951,2020-11-16 10:08:18.276,8367.812,1
9961,9961,2020-11-16 10:08:48.276,8381.296,1
9971,9971,2020-11-16 10:09:18.276,8388.091,1
9981,9981,2020-11-16 10:09:48.276,8410.833,1
9991,9991,2020-11-16 10:10:18.276,8415.051,1
10001,10001,2020-11-16 10:10:48.276,8392.226999999999,1
10011,10011,2020-11-16 10:11:18.276,8379.530999999999,1
10021,10021,2020-11-16 10:11:48.276,8371.011999999999,1
10031,10031,2020-11-16 10:12:18.276,8360.081,1
10041,10041,2020-11-16 10:12:48.276,8350.021999999999,1
10051,10051,2020-11-16 10:13:18.276,8340.265,1
10061,10061,2020-11-16 10:13:48.276,8330.603000000001,1
10071,10071,2020-11-16 10:14:18.276,8320.963,1
10081,10081,2020-11-16 10:14:48.276,8311.313,1
10091,10091,2020-11-16 10:15:18.276,8301.636,1
10101,10101,2020-11-16 10:15:48.276,8291.911,1
10111,10111,2020-11-16 10:16:18.276,8282.112,1
10121,10121,2020-11-16 10:16:48.276,8272.211,1
10131,10131,2020-11-16 10:17:18.276,8260.360999999999,1
10141,10141,2020-11-16 10:17:48.276,8248.635,1
10151,10151,2020-11-16 10:18:18.276,8236.643,1
10161,10161,2020-11-16 10:18:48.276,8224.648000000001,1
10171,10171,2020-11-16 10:19:18.276,8212.821,1
10181,10181,2020-11-16 10:19:48.276,8201.825,1
10191,10191,2020-11-16 10:20:18.276,8228.725,1
10201,10201,2020-11-16 10:20:48.276,8236.786,1
10211,10211,2020-11-16 10:21:18.276,8238.921999999999,1
10221,10221,2020-11-16 10:21:48.276,8239.94,1
10231,10231,2020-11-16 10:22:18.276,8240.966,1
10241,10241,2020-11-16 10:22:48.276,8242.325,1
10251,10251,2020-11-16 10:23:18.276,8244.146999999999,1
10261,10261,2020-11-16 10:23:48.276,8238.966,1
10271,10271,2020-11-16 10:24:18.276,8233.752,1
10281,10281,2020-11-16 10:24:48.276,8235.301,1
10291,10291,2020-11-16 10:25:18.276,8241.532,1
10301,10301,2020-11-16 10:25:48.276,8237.373,1
10311,10311,2020-11-16 10:26:18.276,8232.824,1
10321,10321,2020-11-16 10:26:48.276,8227.687,1
10331,10331,2020-11-16 10:27:18.276,8219.997,1
10341,10341,2020-11-16 10:27:48.276,8211.723,1
10351,10351,2020-11-16 10:28:18.276,8202.825,1
10361,10361,2020-11-16 10:28:48.276,8193.354,1
10371,10371,2020-11-16 10:29:18.276,8183.3486,1
10381,10381,2020-11-16 10:29:48.276,8144.1973,1
10391,10391,2020-11-16 10:30:18.276,8104.55,1
10401,10401,2020-11-16 10:30:48.276,8133.74,1
10411,10411,2020-11-16 10:31:18.276,8142.4336,1
10421,10421,2020-11-16 10:31:48.276,8144.406999999999,1
10431,10431,2020-11-16 10:32:18.276,8145.6553,1
10441,10441,2020-11-16 10:32:48.276,8146.911999999999,1
10451,10451,2020-11-16 10:33:18.276,8148.331,1
10461,10461,2020-11-16 10:33:48.276,8123.5156,1
10471,10471,2020-11-16 10:34:18.276,8107.401,1
10481,10481,2020-11-16 10:34:48.276,8095.8240000000005,1
10491,10491,2020-11-16 10:35:18.276,8079.61,1
10501,10501,2020-11-16 10:35:48.276,8062.4907,1
10511,10511,2020-11-16 10:36:18.276,8046.075,1
10521,10521,2020-11-16 10:36:48.276,8030.0537,1
10531,10531,2020-11-16 10:37:18.276,8014.241999999999,1
10541,10541,2020-11-16 10:37:48.276,7998.5303,1
10551,10551,2020-11-16 10:38:18.276,7982.855,1
10561,10561,2020-11-16 10:38:48.276,7967.1797,1
10571,10571,2020-11-16 10:39:18.276,7951.4814,1
10581,10581,2020-11-16 10:39:48.276,7935.736,1
10591,10591,2020-11-16 10:40:18.276,7919.9224,1
10601,10601,2020-11-16 10:40:48.276,7944.8003,1
10611,10611,2020-11-16 10:41:18.276,7951.6140000000005,1
10621,10621,2020-11-16 10:41:48.276,7949.0024,1
10631,10631,2020-11-16 10:42:18.276,7944.007,1
10641,10641,2020-11-16 10:42:48.276,7938.2793,1
10651,10651,2020-11-16 10:43:18.276,7932.169,1
10661,10661,2020-11-16 10:43:48.276,7923.6704,1
10671,10671,2020-11-16 10:44:18.276,7916.481,1
10681,10681,2020-11-16 10:44:48.276,7919.5005,1
10691,10691,2020-11-16 10:45:18.276,7925.093000000001,1
10701,10701,2020-11-16 10:45:48.276,7918.018,1
10711,10711,2020-11-16 10:46:18.276,7911.305,1
10721,10721,2020-11-16 10:46:48.276,7905.1587,1
10731,10731,2020-11-16 10:47:18.276,7899.9023,1
10741,10741,2020-11-16 10:47:48.276,7895.8784,1
10751,10751,2020-11-16 10:48:18.276,7893.3613,1
10761,10761,2020-11-16 10:48:48.276,7884.573,1
10771,10771,2020-11-16 10:49:18.276,7875.0527,1
10781,10781,2020-11-16 10:49:48.276,7864.8640000000005,1
10791,10791,2020-11-16 10:50:18.276,7866.794,1
10801,10801,2020-11-16 10:50:48.276,7883.406,1
10811,10811,2020-11-16 10:51:18.276,7886.2773,1
10821,10821,2020-11-16 10:51:48.276,7886.594,1
10831,10831,2020-11-16 10:52:18.276,7886.654,1
10841,10841,2020-11-16 10:52:48.276,7886.874,1
10851,10851,2020-11-16 10:53:18.276,7887.258000000001,1
10861,10861,2020-11-16 10:53:48.276,7886.3027,1
10871,10871,2020-11-16 10:54:18.276,7886.3213,1
10881,10881,2020-11-16 10:54:48.276,7888.068,1
10891,10891,2020-11-16 10:55:18.276,7892.3853,1
10901,10901,2020-11-16 10:55:48.276,7886.9927,1
10911,10911,2020-11-16 10:56:18.276,7881.2603,1
10921,10921,2020-11-16 10:56:48.276,7851.303000000001,1
10931,10931,2020-11-16 10:57:18.276,7820.5317,1
10941,10941,2020-11-16 10:57:48.276,7791.7935,1
10951,10951,2020-11-16 10:58:18.276,7763.8267,1
10961,10961,2020-11-16 10:58:48.276,7738.148,1
10971,10971,2020-11-16 10:59:18.276,7714.2607,1
10981,10981,2020-11-16 10:59:48.276,7735.4805,1
10991,10991,2020-11-16 11:00:18.276,7742.2275,1
11001,11001,2020-11-16 11:00:48.276,7739.3223,1
11011,11011,2020-11-16 11:01:18.276,7733.8813,1
11021,11021,2020-11-16 11:01:48.276,7728.0405,1
11031,11031,2020-11-16 11:02:18.276,7720.5938,1
11041,11041,2020-11-16 11:02:48.276,7714.1865,1
11051,11051,2020-11-16 11:03:18.276,7708.0380000000005,1
11061,11061,2020-11-16 11:03:48.276,7701.861999999999,1
11071,11071,2020-11-16 11:04:18.276,7695.4775,1
11081,11081,2020-11-16 11:04:48.276,7688.6113,1
11091,11091,2020-11-16 11:05:18.276,7679.4497,1
11101,11101,2020-11-16 11:05:48.276,7669.1655,1
11111,11111,2020-11-16 11:06:18.276,7658.735,1
11121,11121,2020-11-16 11:06:48.276,7648.116999999999,1
11131,11131,2020-11-16 11:07:18.276,7637.267,1
11141,11141,2020-11-16 11:07:48.276,7660.054,1
11151,11151,2020-11-16 11:08:18.276,7661.9956,1
11161,11161,2020-11-16 11:08:48.276,7659.5176,1
11171,11171,2020-11-16 11:09:18.276,7656.541,1
11181,11181,2020-11-16 11:09:48.276,7653.7456,1
11191,11191,2020-11-16 11:10:18.276,7651.0605,1
11201,11201,2020-11-16 11:10:48.276,7648.272,1
11211,11211,2020-11-16 11:11:18.276,7645.4316,1
11221,11221,2020-11-16 11:11:48.276,7643.393,1
11231,11231,2020-11-16 11:12:18.276,7641.9326,1
11241,11241,2020-11-16 11:12:48.276,7641.6987,1
11251,11251,2020-11-16 11:13:18.276,7644.6646,1
11261,11261,2020-11-16 11:13:48.276,7649.6304,1
11271,11271,2020-11-16 11:14:18.276,7656.411999999999,1
11281,11281,2020-11-16 11:14:48.276,7647.986999999999,1
11291,11291,2020-11-16 11:15:18.276,7638.7114,1
11301,11301,2020-11-16 11:15:48.276,7645.4487,1
11311,11311,2020-11-16 11:16:18.276,7655.8755,1
11321,11321,2020-11-16 11:16:48.276,7656.5776,1
11331,11331,2020-11-16 11:17:18.276,7656.085999999999,1
11341,11341,2020-11-16 11:17:48.276,7655.531999999999,1
11351,11351,2020-11-16 11:18:18.276,7655.0405,1
11361,11361,2020-11-16 11:18:48.276,7654.4287,1
11371,11371,2020-11-16 11:19:18.276,7653.448,1
11381,11381,2020-11-16 11:19:48.276,7651.914000000001,1
11391,11391,2020-11-16 11:20:18.276,7633.1914,1
11401,11401,2020-11-16 11:20:48.276,7617.47,1
11411,11411,2020-11-16 11:21:18.276,7604.0854,1
11421,11421,2020-11-16 11:21:48.276,7591.852,1
11431,11431,2020-11-16 11:22:18.276,7580.485,1
11441,11441,2020-11-16 11:22:48.276,7561.6777,1
11451,11451,2020-11-16 11:23:18.276,7585.0713,1
11461,11461,2020-11-16 11:23:48.276,7590.46,1
11471,11471,2020-11-16 11:24:18.276,7586.8364,1
11481,11481,2020-11-16 11:24:48.276,7581.6587,1
11491,11491,2020-11-16 11:25:18.276,7575.985,1
11501,11501,2020-11-16 11:25:48.276,7570.181,1
11511,11511,2020-11-16 11:26:18.276,7564.4243,1
11521,11521,2020-11-16 11:26:48.276,7558.845,1
11531,11531,2020-11-16 11:27:18.276,7553.284000000001,1
11541,11541,2020-11-16 11:27:48.276,7547.6226,1
11551,11551,2020-11-16 11:28:18.276,7541.7236,1
11561,11561,2020-11-16 11:28:48.276,7534.1685,1
11571,11571,2020-11-16 11:29:18.276,7526.438,1
11581,11581,2020-11-16 11:29:48.276,7518.2456,1
11591,11591,2020-11-16 11:30:18.276,7542.908,1
11601,11601,2020-11-16 11:30:48.276,7545.4287,1
11611,11611,2020-11-16 11:31:18.276,7542.5986,1
11621,11621,2020-11-16 11:31:48.276,7538.7173,1
11631,11631,2020-11-16 11:32:18.276,7535.18,1
11641,11641,2020-11-16 11:32:48.276,7531.7036,1
11651,11651,2020-11-16 11:33:18.276,7528.0303,1
11661,11661,2020-11-16 11:33:48.276,7523.9062,1
11671,11671,2020-11-16 11:34:18.276,7519.1685,1
11681,11681,2020-11-16 11:34:48.276,7514.0728,1
11691,11691,2020-11-16 11:35:18.276,7510.769,1
11701,11701,2020-11-16 11:35:48.276,7509.1157,1
11711,11711,2020-11-16 11:36:18.276,7527.488,1
11721,11721,2020-11-16 11:36:48.276,7537.4,1
11731,11731,2020-11-16 11:37:18.276,7549.111,1
11741,11741,2020-11-16 11:37:48.276,7564.7725,1
11751,11751,2020-11-16 11:38:18.276,7563.613,1
11761,11761,2020-11-16 11:38:48.276,7562.456,1
11771,11771,2020-11-16 11:39:18.276,7561.234,1
11781,11781,2020-11-16 11:39:48.276,7546.7046,1
11791,11791,2020-11-16 11:40:18.276,7535.906999999999,1
11801,11801,2020-11-16 11:40:48.276,7526.3887,1
11811,11811,2020-11-16 11:41:18.276,7517.518,1
11821,11821,2020-11-16 11:41:48.276,7508.477,1
11831,11831,2020-11-16 11:42:18.276,7531.4927,1
11841,11841,2020-11-16 11:42:48.276,7537.3735,1
11851,11851,2020-11-16 11:43:18.276,7540.097,1
11861,11861,2020-11-16 11:43:48.276,7543.758000000001,1
11871,11871,2020-11-16 11:44:18.276,7549.182,1
11881,11881,2020-11-16 11:44:48.276,7557.3516,1
11891,11891,2020-11-16 11:45:18.276,7551.597,1
11901,11901,2020-11-16 11:45:48.276,7545.779,1
11911,11911,2020-11-16 11:46:18.276,7539.943,1
11921,11921,2020-11-16 11:46:48.276,7534.0117,1
11931,11931,2020-11-16 11:47:18.276,7549.7915,1
11941,11941,2020-11-16 11:47:48.276,7552.3003,1
11951,11951,2020-11-16 11:48:18.276,7553.23,1
11961,11961,2020-11-16 11:48:48.276,7554.148,1
11971,11971,2020-11-16 11:49:18.276,7555.273,1
11981,11981,2020-11-16 11:49:48.276,7556.768,1
11991,11991,2020-11-16 11:50:18.276,7559.0034,1
12001,12001,2020-11-16 11:50:48.276,7562.515,1
12011,12011,2020-11-16 11:51:18.276,7557.4834,1
12021,12021,2020-11-16 11:51:48.276,7562.4844,1
12031,12031,2020-11-16 11:52:18.276,7563.041,1
12041,12041,2020-11-16 11:52:48.276,7562.9155,1
12051,12051,2020-11-16 11:53:18.276,7562.6675,1
12061,12061,2020-11-16 11:53:48.276,7559.073,1
12071,12071,2020-11-16 11:54:18.276,7555.3193,1
12081,12081,2020-11-16 11:54:48.276,7557.4287,1
12091,12091,2020-11-16 11:55:18.276,7560.4443,1
12101,12101,2020-11-16 11:55:48.276,7566.677,1
12111,12111,2020-11-16 11:56:18.276,7594.9155,1
12121,12121,2020-11-16 11:56:48.276,7618.616,1
12131,12131,2020-11-16 11:57:18.276,7618.9854,1
12141,12141,2020-11-16 11:57:48.276,7619.281,1
12151,12151,2020-11-16 11:58:18.276,7619.523,1
12161,12161,2020-11-16 11:58:48.276,7620.1885,1
12171,12171,2020-11-16 11:59:18.276,7620.35,1
12181,12181,2020-11-16 11:59:48.276,7620.9487,1
12191,12191,2020-11-16 12:00:18.276,7632.5664,1
12201,12201,2020-11-16 12:00:48.276,7643.916,1
12211,12211,2020-11-16 12:01:18.276,7659.0073,1
12221,12221,2020-11-16 12:01:48.276,7679.423000000001,1
12231,12231,2020-11-16 12:02:18.276,7679.54,1
12241,12241,2020-11-16 12:02:48.276,7679.613,1
12251,12251,2020-11-16 12:03:18.276,7681.722,1
12261,12261,2020-11-16 12:03:48.276,7684.1514,1
12271,12271,2020-11-16 12:04:18.276,7687.3276,1
12281,12281,2020-11-16 12:04:48.276,7691.7354,1
