,Unnamed: 0,time,prediction,step
6152,6152,2021-02-18 11:48:42.752,364.95108,2
6162,6162,2021-02-18 11:49:12.752,335.61472000000003,2
6172,6172,2021-02-18 11:49:42.752,306.64563,2
6182,6182,2021-02-18 11:50:12.752,273.52652,2
6192,6192,2021-02-18 11:50:42.752,240.40466,2
6202,6202,2021-02-18 11:51:12.752,207.0957,2
6212,6212,2021-02-18 11:51:42.752,156.26707,2
6222,6222,2021-02-18 11:52:12.752,118.876305,2
6232,6232,2021-02-18 11:52:42.752,112.03133000000001,2
6242,6242,2021-02-18 11:53:12.752,105.261475,2
6252,6252,2021-02-18 11:53:42.752,98.55708,2
6262,6262,2021-02-18 11:54:12.752,91.91168,2
6272,6272,2021-02-18 11:54:42.752,84.01923000000001,2
6282,6282,2021-02-18 11:55:12.752,50.79032,2
6292,6292,2021-02-18 11:55:42.752,21.105043,2
6302,6302,2021-02-18 11:56:12.752,-2.0259752,2
6312,6312,2021-02-18 11:56:42.752,-16.209004999999998,2
6322,6322,2021-02-18 11:57:12.752,10.850182,2
6332,6332,2021-02-18 11:57:42.752,10.4198265,2
6342,6342,2021-02-18 11:58:12.752,9.991035,2
6352,6352,2021-02-18 11:58:42.752,9.563772,2
6362,6362,2021-02-18 11:59:12.752,9.105839,2
6372,6372,2021-02-18 11:59:42.752,8.664895,2
6382,6382,2021-02-18 12:00:12.752,10.054894,2
6392,6392,2021-02-18 12:00:42.752,12.071458,2
6402,6402,2021-02-18 12:01:12.752,11.888542999999999,2
6412,6412,2021-02-18 12:01:42.752,11.496466,2
6422,6422,2021-02-18 12:02:12.752,10.78814,2
6432,6432,2021-02-18 12:02:42.752,9.916250999999999,2
6442,6442,2021-02-18 12:03:12.752,9.052681,2
6452,6452,2021-02-18 12:03:42.752,7.2422886,2
6462,6462,2021-02-18 12:04:12.752,8.317148,2
6472,6472,2021-02-18 12:04:42.752,9.11585,2
6482,6482,2021-02-18 12:05:12.752,9.795910000000001,2
6492,6492,2021-02-18 12:05:42.752,10.430306,2
6502,6502,2021-02-18 12:06:12.752,11.036599,2
6512,6512,2021-02-18 12:06:42.752,11.617711,2
6522,6522,2021-02-18 12:07:12.752,12.177096,2
6532,6532,2021-02-18 12:07:42.752,12.719303,2
6542,6542,2021-02-18 12:08:12.752,13.248595000000002,2
6552,6552,2021-02-18 12:08:42.752,13.768428,2
6562,6562,2021-02-18 12:09:12.752,14.281389,2
6572,6572,2021-02-18 12:09:42.752,14.789321,2
6582,6582,2021-02-18 12:10:12.752,15.265618,2
6592,6592,2021-02-18 12:10:42.752,17.136374,2
6602,6602,2021-02-18 12:11:12.752,18.54226,2
6612,6612,2021-02-18 12:11:42.752,20.927914,2
6622,6622,2021-02-18 12:12:12.752,23.722725,2
6632,6632,2021-02-18 12:12:42.752,26.662437,2
6642,6642,2021-02-18 12:13:12.752,30.212362,2
6652,6652,2021-02-18 12:13:42.752,30.494587,2
6662,6662,2021-02-18 12:14:12.752,30.381552000000003,2
6672,6672,2021-02-18 12:14:42.752,30.538355,2
6682,6682,2021-02-18 12:15:12.752,29.385633000000002,2
6692,6692,2021-02-18 12:15:42.752,27.554579999999998,2
6702,6702,2021-02-18 12:16:12.752,25.068756,2
6712,6712,2021-02-18 12:16:42.752,23.6595,2
6722,6722,2021-02-18 12:17:12.752,24.127792000000003,2
6732,6732,2021-02-18 12:17:42.752,24.09893,2
6742,6742,2021-02-18 12:18:12.752,27.92077,2
6752,6752,2021-02-18 12:18:42.752,32.029892,2
6762,6762,2021-02-18 12:19:12.752,36.924213,2
6772,6772,2021-02-18 12:19:42.752,39.445004,2
6782,6782,2021-02-18 12:20:12.752,42.09066,2
6792,6792,2021-02-18 12:20:42.752,45.731213000000004,2
6802,6802,2021-02-18 12:21:12.752,50.29755,2
6812,6812,2021-02-18 12:21:42.752,54.455185,2
6822,6822,2021-02-18 12:22:12.752,59.763732999999995,2
6832,6832,2021-02-18 12:22:42.752,66.096695,2
6842,6842,2021-02-18 12:23:12.752,74.46916,2
6852,6852,2021-02-18 12:23:42.752,83.47192,2
6862,6862,2021-02-18 12:24:12.752,93.40389,2
6872,6872,2021-02-18 12:24:42.752,105.0063,2
6882,6882,2021-02-18 12:25:12.752,118.76163999999999,2
6892,6892,2021-02-18 12:25:42.752,130.57324,2
6902,6902,2021-02-18 12:26:12.752,143.92903,2
6912,6912,2021-02-18 12:26:42.752,154.63953999999998,2
6922,6922,2021-02-18 12:27:12.752,163.27823999999998,2
6932,6932,2021-02-18 12:27:42.752,169.31761,2
6942,6942,2021-02-18 12:28:12.752,173.74121,2
6952,6952,2021-02-18 12:28:42.752,196.09616,2
6962,6962,2021-02-18 12:29:12.752,220.74495,2
6972,6972,2021-02-18 12:29:42.752,248.85553,2
6982,6982,2021-02-18 12:30:12.752,279.5342,2
6992,6992,2021-02-18 12:30:42.752,311.47717,2
7002,7002,2021-02-18 12:31:12.752,345.13953,2
7012,7012,2021-02-18 12:31:42.752,374.15387000000004,2
7022,7022,2021-02-18 12:32:12.752,390.5372,2
7032,7032,2021-02-18 12:32:42.752,409.36758,2
7042,7042,2021-02-18 12:33:12.752,427.34937,2
7052,7052,2021-02-18 12:33:42.752,446.2768,2
7062,7062,2021-02-18 12:34:12.752,464.59002999999996,2
7072,7072,2021-02-18 12:34:42.752,500.3378,2
7082,7082,2021-02-18 12:35:12.752,537.1296,2
7092,7092,2021-02-18 12:35:42.752,570.0678,2
7102,7102,2021-02-18 12:36:12.752,596.93756,2
7112,7112,2021-02-18 12:36:42.752,622.1311,2
