,Unnamed: 0,time,prediction,step
8674,8674,2021-02-09 14:52:39.866,850.9132699999999,4
8684,8684,2021-02-09 14:53:09.866,847.52594,4
8694,8694,2021-02-09 14:53:39.866,843.81445,4
8704,8704,2021-02-09 14:54:09.866,839.7596,4
8714,8714,2021-02-09 14:54:39.866,835.6802,4
8724,8724,2021-02-09 14:55:09.866,831.1813400000001,4
8734,8734,2021-02-09 14:55:39.866,826.88184,4
8744,8744,2021-02-09 14:56:09.866,822.43463,4
8754,8754,2021-02-09 14:56:39.866,817.6764,4
8764,8764,2021-02-09 14:57:09.866,812.1578400000001,4
8774,8774,2021-02-09 14:57:39.866,807.1032,4
8784,8784,2021-02-09 14:58:09.866,801.6734,4
8794,8794,2021-02-09 14:58:39.866,795.6744,4
8804,8804,2021-02-09 14:59:09.866,790.0382,4
8814,8814,2021-02-09 14:59:39.866,784.5866,4
8824,8824,2021-02-09 15:00:09.866,777.6079,4
8834,8834,2021-02-09 15:00:39.866,770.7241,4
8844,8844,2021-02-09 15:01:09.866,764.2035,4
8854,8854,2021-02-09 15:01:39.866,757.3433,4
8864,8864,2021-02-09 15:02:09.866,750.8253,4
8874,8874,2021-02-09 15:02:39.866,744.3895,4
8884,8884,2021-02-09 15:03:09.866,736.6237,4
8894,8894,2021-02-09 15:03:39.866,729.5663,4
8904,8904,2021-02-09 15:04:09.866,722.1491,4
8914,8914,2021-02-09 15:04:39.866,714.4679,4
8924,8924,2021-02-09 15:05:09.866,706.13605,4
8934,8934,2021-02-09 15:05:39.866,697.88983,4
8944,8944,2021-02-09 15:06:09.866,689.22565,4
8954,8954,2021-02-09 15:06:39.866,681.4423,4
8964,8964,2021-02-09 15:07:09.866,674.33075,4
8974,8974,2021-02-09 15:07:39.866,664.916,4
8984,8984,2021-02-09 15:08:09.866,656.7109,4
8994,8994,2021-02-09 15:08:39.866,649.1726,4
9004,9004,2021-02-09 15:09:09.866,641.3604,4
9014,9014,2021-02-09 15:09:39.866,632.29,4
9024,9024,2021-02-09 15:10:09.866,623.9454,4
9034,9034,2021-02-09 15:10:39.866,615.471,4
9044,9044,2021-02-09 15:11:09.866,607.4669,4
9054,9054,2021-02-09 15:11:39.866,598.54675,4
9064,9064,2021-02-09 15:12:09.866,588.951,4
9074,9074,2021-02-09 15:12:39.866,580.3384,4
9084,9084,2021-02-09 15:13:09.866,572.4538,4
9094,9094,2021-02-09 15:13:39.866,562.36096,4
9104,9104,2021-02-09 15:14:09.866,553.0873,4
9114,9114,2021-02-09 15:14:39.866,544.9849,4
9124,9124,2021-02-09 15:15:09.866,534.2857,4
9134,9134,2021-02-09 15:15:39.866,523.93787,4
9144,9144,2021-02-09 15:16:09.866,514.6884,4
9154,9154,2021-02-09 15:16:39.866,504.03018,4
9164,9164,2021-02-09 15:17:09.866,493.56973,4
9174,9174,2021-02-09 15:17:39.866,484.1542,4
9184,9184,2021-02-09 15:18:09.866,472.57257000000004,4
9194,9194,2021-02-09 15:18:39.866,461.2222,4
9204,9204,2021-02-09 15:19:09.866,450.56296,4
9214,9214,2021-02-09 15:19:39.866,438.37285999999995,4
9224,9224,2021-02-09 15:20:09.866,426.15175999999997,4
9234,9234,2021-02-09 15:20:39.866,412.04263,4
9244,9244,2021-02-09 15:21:09.866,399.1192,4
9254,9254,2021-02-09 15:21:39.866,387.21313,4
9264,9264,2021-02-09 15:22:09.866,373.3436,4
9274,9274,2021-02-09 15:22:39.866,359.6665,4
9284,9284,2021-02-09 15:23:09.866,344.06924,4
9294,9294,2021-02-09 15:23:39.866,329.8324,4
9304,9304,2021-02-09 15:24:09.866,313.2727,4
9314,9314,2021-02-09 15:24:39.866,297.6065,4
9324,9324,2021-02-09 15:25:09.866,279.67258,4
9334,9334,2021-02-09 15:25:39.866,263.13507000000004,4
9344,9344,2021-02-09 15:26:09.866,244.74059,4
9354,9354,2021-02-09 15:26:39.866,224.79262000000003,4
9364,9364,2021-02-09 15:27:09.866,205.12788,4
9374,9374,2021-02-09 15:27:39.866,183.06505,4
9384,9384,2021-02-09 15:28:09.866,159.54091,4
9394,9394,2021-02-09 15:28:39.866,132.36174,4
9404,9404,2021-02-09 15:29:09.866,103.00916,4
9414,9414,2021-02-09 15:29:39.866,84.92948,4
9424,9424,2021-02-09 15:30:09.866,67.94424000000001,4
9434,9434,2021-02-09 15:30:39.866,63.047109999999996,4
9444,9444,2021-02-09 15:31:09.866,59.4449,4
9454,9454,2021-02-09 15:31:39.866,56.036926,4
9464,9464,2021-02-09 15:32:09.866,55.723907,4
9474,9474,2021-02-09 15:32:39.866,56.757397,4
9484,9484,2021-02-09 15:33:09.866,57.72294599999999,4
9494,9494,2021-02-09 15:33:39.866,59.49324,4
9504,9504,2021-02-09 15:34:09.866,62.788486,4
9514,9514,2021-02-09 15:34:39.866,65.93364,4
9524,9524,2021-02-09 15:35:09.866,69.77445999999999,4
9534,9534,2021-02-09 15:35:39.866,72.61861400000001,4
9544,9544,2021-02-09 15:36:09.866,76.878685,4
9554,9554,2021-02-09 15:36:39.866,80.94581600000001,4
9564,9564,2021-02-09 15:37:09.866,82.409454,4
9574,9574,2021-02-09 15:37:39.866,85.89200000000001,4
