,Unnamed: 0,time,preds,step
12964,12964,2021-02-09 14:52:39.866,842.05884,4
12974,12974,2021-02-09 14:53:09.866,839.8139,4
12984,12984,2021-02-09 14:53:39.866,834.8539,4
12994,12994,2021-02-09 14:54:09.866,831.3354,4
13004,13004,2021-02-09 14:54:39.866,827.1392,4
13014,13014,2021-02-09 14:55:09.866,820.65076,4
13024,13024,2021-02-09 14:55:39.866,818.0652,4
13034,13034,2021-02-09 14:56:09.866,814.5332599999999,4
13044,13044,2021-02-09 14:56:39.866,808.60046,4
13054,13054,2021-02-09 14:57:09.866,801.53485,4
13064,13064,2021-02-09 14:57:39.866,798.2965,4
13074,13074,2021-02-09 14:58:09.866,790.2596,4
13084,13084,2021-02-09 14:58:39.866,784.0111,4
13094,13094,2021-02-09 14:59:09.866,780.1098,4
13104,13104,2021-02-09 14:59:39.866,774.8542,4
13114,13114,2021-02-09 15:00:09.866,763.9484,4
13124,13124,2021-02-09 15:00:39.866,757.3126,4
13134,13134,2021-02-09 15:01:09.866,750.9231,4
13144,13144,2021-02-09 15:01:39.866,745.7207,4
13154,13154,2021-02-09 15:02:09.866,741.13776,4
13164,13164,2021-02-09 15:02:39.866,735.3620599999999,4
13174,13174,2021-02-09 15:03:09.866,725.50757,4
13184,13184,2021-02-09 15:03:39.866,719.7613,4
13194,13194,2021-02-09 15:04:09.866,710.63086,4
13204,13204,2021-02-09 15:04:39.866,705.00464,4
13214,13214,2021-02-09 15:05:09.866,696.8514,4
13224,13224,2021-02-09 15:05:39.866,687.42834,4
13234,13234,2021-02-09 15:06:09.866,677.7718,4
13244,13244,2021-02-09 15:06:39.866,674.5938,4
13254,13254,2021-02-09 15:07:09.866,669.0141,4
13264,13264,2021-02-09 15:07:39.866,658.02026,4
13274,13274,2021-02-09 15:08:09.866,652.357,4
13284,13284,2021-02-09 15:08:39.866,645.12427,4
13294,13294,2021-02-09 15:09:09.866,638.52844,4
13304,13304,2021-02-09 15:09:39.866,629.69135,4
13314,13314,2021-02-09 15:10:09.866,622.6604,4
13324,13324,2021-02-09 15:10:39.866,613.3167,4
13334,13334,2021-02-09 15:11:09.866,606.54987,4
13344,13344,2021-02-09 15:11:39.866,596.3283700000001,4
13354,13354,2021-02-09 15:12:09.866,587.1801,4
13364,13364,2021-02-09 15:12:39.866,579.2969400000001,4
13374,13374,2021-02-09 15:13:09.866,571.6837,4
13384,13384,2021-02-09 15:13:39.866,559.71155,4
13394,13394,2021-02-09 15:14:09.866,552.5600599999999,4
13404,13404,2021-02-09 15:14:39.866,541.82745,4
13414,13414,2021-02-09 15:15:09.866,529.4237,4
13424,13424,2021-02-09 15:15:39.866,521.864,4
13434,13434,2021-02-09 15:16:09.866,513.1755400000001,4
13444,13444,2021-02-09 15:16:39.866,501.18035999999995,4
13454,13454,2021-02-09 15:17:09.866,491.7369,4
13464,13464,2021-02-09 15:17:39.866,479.66015999999996,4
13474,13474,2021-02-09 15:18:09.866,465.4474,4
13484,13484,2021-02-09 15:18:39.866,455.71786,4
13494,13494,2021-02-09 15:19:09.866,443.97464,4
13504,13504,2021-02-09 15:19:39.866,427.53714,4
13514,13514,2021-02-09 15:20:09.866,417.25845,4
13524,13524,2021-02-09 15:20:39.866,398.15738,4
13534,13534,2021-02-09 15:21:09.866,389.2818,4
13544,13544,2021-02-09 15:21:39.866,378.98773,4
13554,13554,2021-02-09 15:22:09.866,355.85242,4
13564,13564,2021-02-09 15:22:39.866,348.81924,4
13574,13574,2021-02-09 15:23:09.866,328.94003,4
13584,13584,2021-02-09 15:23:39.866,311.52402,4
13594,13594,2021-02-09 15:24:09.866,289.4479,4
13604,13604,2021-02-09 15:24:39.866,282.79614,4
13614,13614,2021-02-09 15:25:09.866,256.03314,4
13624,13624,2021-02-09 15:25:39.866,241.51826,4
13634,13634,2021-02-09 15:26:09.866,218.04259,4
13644,13644,2021-02-09 15:26:39.866,193.7105,4
13654,13654,2021-02-09 15:27:09.866,174.27657,4
13664,13664,2021-02-09 15:27:39.866,148.44786000000002,4
13674,13674,2021-02-09 15:28:09.866,111.99315,4
13684,13684,2021-02-09 15:28:39.866,77.925735,4
13694,13694,2021-02-09 15:29:09.866,37.475212,4
13704,13704,2021-02-09 15:29:39.866,58.480923,4
13714,13714,2021-02-09 15:30:09.866,64.5007,4
13724,13724,2021-02-09 15:30:39.866,110.73091000000001,4
13734,13734,2021-02-09 15:31:09.866,117.64813000000001,4
13744,13744,2021-02-09 15:31:39.866,137.76468,4
13754,13754,2021-02-09 15:32:09.866,155.06118999999998,4
13764,13764,2021-02-09 15:32:39.866,170.16069,4
13774,13774,2021-02-09 15:33:09.866,178.78538999999998,4
13784,13784,2021-02-09 15:33:39.866,189.81728999999999,4
13794,13794,2021-02-09 15:34:09.866,198.93323999999998,4
13804,13804,2021-02-09 15:34:39.866,201.4005,4
13814,13814,2021-02-09 15:35:09.866,205.62178,4
13824,13824,2021-02-09 15:35:39.866,201.62733,4
13834,13834,2021-02-09 15:36:09.866,195.01167,4
13844,13844,2021-02-09 15:36:39.866,187.02249,4
13854,13854,2021-02-09 15:37:09.866,177.92148,4
13864,13864,2021-02-09 15:37:39.866,176.12032,4
