,Unnamed: 0,prediction,real,time,split
1260,1260,39.901283264160156,22.0,2020-10-29 14:54:10.029,train
1261,1261,34.087589263916016,37.0,2020-10-29 14:55:10.029,train
1262,1262,21.000226974487305,23.0,2020-10-29 14:56:10.029,train
1263,1263,12.988025665283205,7.0,2020-10-29 14:57:10.029,train
1264,1264,7.977131366729736,9.0,2020-10-29 14:58:10.029,train
1265,1265,3.4274196624755864,6.0,2020-10-29 14:59:10.029,train
1266,1266,4.083968162536621,3.0,2020-10-29 15:00:10.029,train
1267,1267,8.591435432434082,5.0,2020-10-29 15:01:10.029,train
1268,1268,15.740120887756348,15.0,2020-10-29 15:02:10.029,train
1269,1269,21.80804252624512,26.0,2020-10-29 15:03:10.029,train
1270,1270,27.20633316040039,42.0,2020-10-29 15:04:10.029,train
1271,1271,47.74652481079102,28.0,2020-10-29 15:05:10.029,train
1272,1272,60.03540802001953,65.0,2020-10-29 15:06:10.029,train
1273,1273,65.06307220458984,43.0,2020-10-29 15:07:10.029,train
1274,1274,65.85408020019531,71.0,2020-10-29 15:08:10.029,train
1275,1275,67.85102081298828,67.0,2020-10-29 15:09:10.029,train
1276,1276,44.03083801269531,56.0,2020-10-29 15:10:10.029,train
1277,1277,38.55945205688477,25.0,2020-10-29 15:11:10.029,train
1278,1278,39.674617767333984,41.0,2020-10-29 15:12:10.029,train
1279,1279,28.514780044555664,28.0,2020-10-29 15:13:10.029,train
1280,1280,16.44996452331543,16.0,2020-10-29 15:14:10.029,train
1281,1281,10.25544548034668,5.0,2020-10-29 15:15:10.029,train
1282,1282,5.523576259613037,3.0,2020-10-29 15:16:10.029,train
1283,1283,3.229112386703491,3.0,2020-10-29 15:17:10.029,train
1284,1284,4.81514835357666,7.0,2020-10-29 15:18:10.029,train
1285,1285,11.804845809936525,6.0,2020-10-29 15:19:10.029,train
1286,1286,19.01679801940918,21.0,2020-10-29 15:20:10.029,train
1287,1287,25.767860412597656,37.0,2020-10-29 15:21:10.029,train
1288,1288,36.67409133911133,24.0,2020-10-29 15:22:10.029,train
1289,1289,52.73199462890625,56.0,2020-10-29 15:23:10.029,train
1290,1290,61.591758728027344,66.0,2020-10-29 15:24:10.029,train
1291,1291,64.31086730957031,42.0,2020-10-29 15:25:10.029,train
1292,1292,68.65536499023439,71.0,2020-10-29 15:26:10.029,train
1293,1293,61.21715545654297,49.0,2020-10-29 15:27:10.029,train
1294,1294,37.06892013549805,39.0,2020-10-29 15:28:10.029,train
1295,1295,40.04484939575195,45.0,2020-10-29 15:29:10.029,train
1296,1296,38.0603141784668,36.0,2020-10-29 15:30:10.029,train
1297,1297,21.677091598510746,15.0,2020-10-29 15:31:10.029,train
1298,1298,12.84327793121338,16.0,2020-10-29 15:32:10.029,train
1299,1299,9.97920036315918,9.0,2020-10-29 15:33:10.029,train
1300,1300,4.1933884620666495,5.0,2020-10-29 15:34:10.029,train
1301,1301,2.9785730838775635,2.0,2020-10-29 15:35:10.029,train
1302,1302,7.090983867645264,8.0,2020-10-29 15:36:10.029,train
1303,1303,14.087178230285645,16.0,2020-10-29 15:37:10.029,train
1304,1304,20.225664138793945,26.0,2020-10-29 15:38:10.029,train
1305,1305,25.66393852233887,17.0,2020-10-29 15:39:10.029,train
1306,1306,48.41626739501953,52.0,2020-10-29 15:40:10.029,train
1307,1307,60.70232391357422,62.0,2020-10-29 15:41:10.029,train
1308,1308,61.82617950439453,40.0,2020-10-29 15:42:10.029,train
1309,1309,66.45082092285156,77.0,2020-10-29 15:43:10.029,train
1310,1310,67.58773803710939,63.0,2020-10-29 15:44:10.029,train
1311,1311,39.42355346679688,29.0,2020-10-29 15:45:10.029,train
1312,1312,38.84564208984375,52.0,2020-10-29 15:46:10.029,train
1313,1313,37.10585403442383,38.0,2020-10-29 15:47:10.029,train
1314,1314,22.60478782653809,15.0,2020-10-29 15:48:10.029,train
1315,1315,12.612117767333984,26.0,2020-10-29 15:49:10.029,train
1316,1316,10.525524139404297,13.0,2020-10-29 15:50:10.029,train
1317,1317,4.343646049499512,3.0,2020-10-29 15:51:10.029,train
1318,1318,2.932201862335205,1.0,2020-10-29 15:52:10.029,train
1319,1319,6.289605140686035,5.0,2020-10-29 15:53:10.029,train
1320,1320,13.163619995117188,10.0,2020-10-29 15:54:10.029,train
1321,1321,19.41108703613281,20.0,2020-10-29 15:55:10.029,train
1322,1322,24.76924133300781,13.0,2020-10-29 15:56:10.029,train
1323,1323,43.222557067871094,42.0,2020-10-29 15:57:10.029,train
1324,1324,57.3980941772461,58.0,2020-10-29 15:58:10.029,train
1325,1325,58.81155395507813,36.0,2020-10-29 15:59:10.029,train
1326,1326,65.34164428710939,75.0,2020-10-29 16:00:10.029,train
1327,1327,69.21324157714844,75.0,2020-10-29 16:01:10.029,train
1328,1328,47.0040168762207,61.0,2020-10-29 16:02:10.029,train
1329,1329,36.8676643371582,26.0,2020-10-29 16:03:10.029,train
1330,1330,41.2091064453125,44.0,2020-10-29 16:04:10.029,train
1331,1331,34.66150283813477,37.0,2020-10-29 16:05:10.029,train
1332,1332,18.75083923339844,21.0,2020-10-29 16:06:10.029,train
1333,1333,10.858962059020996,8.0,2020-10-29 16:07:10.029,train
1334,1334,7.479184627532959,7.0,2020-10-29 16:08:10.029,train
1335,1335,3.453779458999634,5.0,2020-10-29 16:09:10.029,train
1336,1336,3.4883005619049072,3.0,2020-10-29 16:10:10.029,train
1337,1337,7.4821834564208975,5.0,2020-10-29 16:11:10.029,train
1338,1338,15.287280082702635,14.0,2020-10-29 16:12:10.029,train
1339,1339,21.813961029052734,26.0,2020-10-29 16:13:10.029,train
1340,1340,26.664306640625,41.0,2020-10-29 16:14:10.029,train
1341,1341,45.90665817260742,29.0,2020-10-29 16:15:10.029,train
1342,1342,59.32399368286133,65.0,2020-10-29 16:16:10.029,train
1343,1343,64.77344512939453,37.0,2020-10-29 16:17:10.029,train
1344,1344,65.73866271972656,79.0,2020-10-29 16:18:10.029,train
1345,1345,66.79248046875,51.0,2020-10-29 16:19:10.029,train
1346,1346,42.3889045715332,42.0,2020-10-29 16:20:10.029,train
1347,1347,38.80218505859375,53.0,2020-10-29 16:21:10.029,train
1348,1348,42.37618637084961,43.0,2020-10-29 16:22:10.029,train
1349,1349,36.53837585449219,15.0,2020-10-29 16:23:10.029,train
1350,1350,21.67738914489746,22.0,2020-10-29 16:24:10.029,train
1351,1351,14.036828994750975,15.0,2020-10-29 16:25:10.029,train
1352,1352,8.173330307006836,7.0,2020-10-29 16:26:10.029,train
1353,1353,3.0156216621398926,2.0,2020-10-29 16:27:10.029,train
1354,1354,4.843384265899658,4.0,2020-10-29 16:28:10.029,train
1355,1355,10.939411163330078,11.0,2020-10-29 16:29:10.029,train
1356,1356,17.720186233520508,18.0,2020-10-29 16:30:10.029,train
1357,1357,23.33070373535156,12.0,2020-10-29 16:31:10.029,train
1358,1358,42.47922897338867,46.0,2020-10-29 16:32:10.029,train
1359,1359,58.9327621459961,56.0,2020-10-29 16:33:10.029,train
1360,1360,59.57811737060547,32.0,2020-10-29 16:34:10.029,train
1361,1361,66.87226104736328,75.0,2020-10-29 16:35:10.029,train
1362,1362,69.59092712402344,72.0,2020-10-29 16:36:10.029,train
1363,1363,43.94488143920898,51.0,2020-10-29 16:37:10.029,train
1364,1364,38.21754837036133,40.0,2020-10-29 16:38:10.029,train
1365,1365,39.53982543945313,46.0,2020-10-29 16:39:10.029,train
1366,1366,32.830230712890625,36.0,2020-10-29 16:40:10.029,train
1367,1367,16.32845115661621,13.0,2020-10-29 16:41:10.029,train
1368,1368,11.884238243103027,20.0,2020-10-29 16:42:10.029,train
1369,1369,8.023587226867676,7.0,2020-10-29 16:43:10.029,train
1370,1370,2.9139883518218994,4.0,2020-10-29 16:44:10.029,train
1371,1371,2.811430692672729,3.0,2020-10-29 16:45:10.029,train
1372,1372,7.246378421783447,3.0,2020-10-29 16:46:10.029,train
1373,1373,14.44859790802002,11.0,2020-10-29 16:47:10.029,train
1374,1374,21.752418518066406,23.0,2020-10-29 16:48:10.029,train
1375,1375,24.15419769287109,46.0,2020-10-29 16:49:10.029,train
1376,1376,41.34374237060547,28.0,2020-10-29 16:50:10.029,train
1377,1377,56.852928161621094,62.0,2020-10-29 16:51:10.029,train
1378,1378,65.52866363525389,66.0,2020-10-29 16:52:10.029,train
1379,1379,67.14364624023439,49.0,2020-10-29 16:53:10.029,train
1380,1380,66.88521575927734,63.0,2020-10-29 16:54:10.029,train
1381,1381,48.18188095092773,55.0,2020-10-29 16:55:10.029,train
1382,1382,41.02512741088867,25.0,2020-10-29 16:56:10.029,train
1383,1383,42.31946182250977,40.0,2020-10-29 16:57:10.029,train
1384,1384,32.130733489990234,30.0,2020-10-29 16:58:10.029,train
1385,1385,16.499691009521484,18.0,2020-10-29 16:59:10.029,train
1386,1386,10.5968599319458,5.0,2020-10-29 17:00:10.029,train
1387,1387,5.980239391326903,3.0,2020-10-29 17:01:10.029,train
1388,1388,2.901747941970825,4.0,2020-10-29 17:02:10.029,train
1389,1389,3.918616771697998,7.0,2020-10-29 17:03:10.029,train
1390,1390,10.662842750549316,6.0,2020-10-29 17:04:10.029,train
1391,1391,18.15060043334961,19.0,2020-10-29 17:05:10.029,train
1392,1392,24.602619171142575,30.0,2020-10-29 17:06:10.029,train
1393,1393,32.63482666015625,50.0,2020-10-29 17:07:10.029,train
1394,1394,50.19343566894531,30.0,2020-10-29 17:08:10.029,train
1395,1395,59.22024917602539,71.0,2020-10-29 17:09:10.029,train
1396,1396,66.82714080810547,39.0,2020-10-29 17:10:10.029,train
1397,1397,66.43463897705078,72.0,2020-10-29 17:11:10.029,train
1398,1398,54.90035629272461,60.0,2020-10-29 17:12:10.029,train
1399,1399,38.43643569946289,29.0,2020-10-29 17:13:10.029,train
1400,1400,42.97384643554688,46.0,2020-10-29 17:14:10.029,train
1401,1401,35.470054626464844,36.0,2020-10-29 17:15:10.029,train
1402,1402,19.35093307495117,24.0,2020-10-29 17:16:10.029,train
1403,1403,11.22154426574707,14.0,2020-10-29 17:17:10.029,train
1404,1404,8.043642997741701,1.0,2020-10-29 17:18:10.029,train
1405,1405,4.367620944976807,3.0,2020-10-29 17:19:10.029,train
1406,1406,2.330547332763672,5.0,2020-10-29 17:20:10.029,train
1407,1407,5.207835674285889,9.0,2020-10-29 17:21:10.029,train
1408,1408,14.237039566040039,10.0,2020-10-29 17:22:10.029,train
1409,1409,21.68031883239746,29.0,2020-10-29 17:23:10.029,train
1410,1410,31.394174575805664,41.0,2020-10-29 17:24:10.029,train
1411,1411,49.78472900390625,57.0,2020-10-29 17:25:10.029,train
1412,1412,58.27911376953125,36.0,2020-10-29 17:26:10.029,train
1413,1413,66.75801849365234,78.0,2020-10-29 17:27:10.029,train
1414,1414,64.04133605957031,73.0,2020-10-29 17:28:10.029,train
1415,1415,39.37567138671875,32.0,2020-10-29 17:29:10.029,train
1416,1416,44.6152229309082,55.0,2020-10-29 17:30:10.029,train
1417,1417,41.68536758422852,45.0,2020-10-29 17:31:10.029,train
1418,1418,34.37581253051758,34.0,2020-10-29 17:32:10.029,train
1419,1419,17.06794548034668,13.0,2020-10-29 17:33:10.029,train
1420,1420,12.961148262023926,15.0,2020-10-29 17:34:10.029,train
1421,1421,9.196578025817873,9.0,2020-10-29 17:35:10.029,train
1422,1422,3.264075517654419,2.0,2020-10-29 17:36:10.029,train
1423,1423,2.61637020111084,2.0,2020-10-29 17:37:10.029,train
1424,1424,9.102524757385254,5.0,2020-10-29 17:38:10.029,train
1425,1425,18.273515701293945,14.0,2020-10-29 17:39:10.029,train
1426,1426,24.388145446777344,24.0,2020-10-29 17:40:10.029,train
1427,1427,32.34820556640625,24.0,2020-10-29 17:41:10.029,train
1428,1428,52.7497444152832,51.0,2020-10-29 17:42:10.029,train
1429,1429,61.17578125,60.0,2020-10-29 17:43:10.029,train
1430,1430,64.85152435302734,37.0,2020-10-29 17:44:10.029,train
1431,1431,66.92095947265625,76.0,2020-10-29 17:45:10.029,train
1432,1432,54.62447738647461,37.0,2020-10-29 17:46:10.029,train
1433,1433,41.39562225341797,56.0,2020-10-29 17:47:10.029,train
1434,1434,45.60343551635742,52.0,2020-10-29 17:48:10.029,train
1435,1435,43.14659881591797,41.0,2020-10-29 17:49:10.029,train
1436,1436,35.39063262939453,18.0,2020-10-29 17:50:10.029,train
1437,1437,22.561939239501953,25.0,2020-10-29 17:51:10.029,train
1438,1438,12.482935905456545,15.0,2020-10-29 17:52:10.029,train
1439,1439,7.073782444000244,4.0,2020-10-29 17:53:10.029,train
1440,1440,2.5358407497406006,4.0,2020-10-29 17:54:10.029,train
1441,1441,2.974993705749512,3.0,2020-10-29 17:55:10.029,train
1442,1442,10.110454559326172,11.0,2020-10-29 17:56:10.029,train
1443,1443,18.63699150085449,18.0,2020-10-29 17:57:10.029,train
1444,1444,24.44072532653809,15.0,2020-10-29 17:58:10.029,train
1445,1445,41.69821166992188,46.0,2020-10-29 17:59:10.029,train
1446,1446,57.1962776184082,56.0,2020-10-29 18:00:10.029,train
1447,1447,60.4132194519043,66.0,2020-10-29 18:01:10.029,train
1448,1448,67.82802581787111,45.0,2020-10-29 18:02:10.029,train
1449,1449,62.19270324707031,70.0,2020-10-29 18:03:10.029,train
1450,1450,45.52670288085938,31.0,2020-10-29 18:04:10.029,train
1451,1451,47.27693557739258,56.0,2020-10-29 18:05:10.029,train
1452,1452,43.51317596435547,44.0,2020-10-29 18:06:10.029,train
1453,1453,35.959903717041016,18.0,2020-10-29 18:07:10.029,train
1454,1454,17.604551315307614,31.0,2020-10-29 18:08:10.029,train
1455,1455,12.519608497619627,20.0,2020-10-29 18:09:10.029,train
1456,1456,6.7504329681396475,9.0,2020-10-29 18:10:10.029,train
1457,1457,2.835718870162964,1.0,2020-10-29 18:11:10.029,train
1458,1458,1.5875165462493896,3.0,2020-10-29 18:12:10.029,train
1459,1459,7.244567394256593,5.0,2020-10-29 18:13:10.029,train
1460,1460,16.37491798400879,14.0,2020-10-29 18:14:10.029,train
1461,1461,24.03191947937012,23.0,2020-10-29 18:15:10.029,train
1462,1462,30.940113067626953,25.0,2020-10-29 18:16:10.029,train
1463,1463,49.29538345336914,49.0,2020-10-29 18:17:10.029,train
1464,1464,60.58330154418945,61.0,2020-10-29 18:18:10.029,train
1465,1465,64.75011444091797,38.0,2020-10-29 18:19:10.029,train
1466,1466,65.76409912109375,77.0,2020-10-29 18:20:10.029,train
1467,1467,52.21275329589844,67.0,2020-10-29 18:21:10.029,train
1468,1468,45.14966201782226,29.0,2020-10-29 18:22:10.029,train
1469,1469,46.92163467407226,52.0,2020-10-29 18:23:10.029,train
1470,1470,40.78052520751953,43.0,2020-10-29 18:24:10.029,train
1471,1471,28.06364631652832,32.0,2020-10-29 18:25:10.029,train
1472,1472,13.778970718383787,11.0,2020-10-29 18:26:10.029,train
1473,1473,10.973883628845217,14.0,2020-10-29 18:27:10.029,train
1474,1474,5.602478504180908,3.0,2020-10-29 18:28:10.029,train
1475,1475,1.6890091896057131,2.0,2020-10-29 18:29:10.029,train
1476,1476,2.98235297203064,4.0,2020-10-29 18:30:10.029,train
1477,1477,11.1532621383667,7.0,2020-10-29 18:31:10.029,train
1478,1478,20.6372184753418,22.0,2020-10-29 18:32:10.029,train
1479,1479,27.40389633178711,38.0,2020-10-29 18:33:10.029,train
1480,1480,40.60002517700195,25.0,2020-10-29 18:34:10.029,train
1481,1481,52.55671310424805,58.0,2020-10-29 18:35:10.029,train
1482,1482,65.91567230224611,74.0,2020-10-29 18:36:10.029,train
1483,1483,65.15829467773439,58.0,2020-10-29 18:37:10.029,train
1484,1484,57.879638671875,51.0,2020-10-29 18:38:10.029,train
1485,1485,47.3583984375,60.0,2020-10-29 18:39:10.029,train
1486,1486,47.03789901733398,27.0,2020-10-29 18:40:10.029,train
1487,1487,44.5799674987793,47.0,2020-10-29 18:41:10.029,train
1488,1488,37.85856628417969,35.0,2020-10-29 18:42:10.029,train
1489,1489,20.80402183532715,21.0,2020-10-29 18:43:10.029,train
1490,1490,11.424847602844238,15.0,2020-10-29 18:44:10.029,train
1491,1491,6.397068500518799,1.0,2020-10-29 18:45:10.029,train
1492,1492,2.6746511459350586,2.0,2020-10-29 18:46:10.029,train
1493,1493,2.059429168701172,4.0,2020-10-29 18:47:10.029,train
1494,1494,8.145163536071777,8.0,2020-10-29 18:48:10.029,train
1495,1495,17.9317569732666,8.0,2020-10-29 18:49:10.029,train
1496,1496,26.17235946655273,28.0,2020-10-29 18:50:10.029,train
1497,1497,38.92121505737305,46.0,2020-10-29 18:51:10.029,train
1498,1498,46.9955940246582,57.0,2020-10-29 18:52:10.029,train
1499,1499,58.89999389648438,36.0,2020-10-29 18:53:10.029,train
1500,1500,67.39222717285156,80.0,2020-10-29 18:54:10.029,train
1501,1501,57.22195816040039,38.0,2020-10-29 18:55:10.029,train
1502,1502,44.96803665161133,69.0,2020-10-29 18:56:10.029,train
1503,1503,48.224281311035156,58.0,2020-10-29 18:57:10.029,train
1504,1504,44.77073287963867,25.0,2020-10-29 18:58:10.029,train
1505,1505,35.80177307128906,40.0,2020-10-29 18:59:10.029,train
1506,1506,23.08980941772461,29.0,2020-10-29 19:00:10.029,train
1507,1507,14.219684600830078,20.0,2020-10-29 19:01:10.029,train
1508,1508,7.121856212615968,6.0,2020-10-29 19:02:10.029,train
1509,1509,3.6195669174194336,8.0,2020-10-29 19:03:10.029,train
1510,1510,1.9684191942214968,3.0,2020-10-29 19:04:10.029,train
1511,1511,3.52481460571289,2.0,2020-10-29 19:05:10.029,train
1512,1512,10.384713172912598,9.0,2020-10-29 19:06:10.029,train
1513,1513,19.10348892211914,17.0,2020-10-29 19:07:10.029,train
1514,1514,26.74037742614746,30.0,2020-10-29 19:08:10.029,train
1515,1515,40.75901412963867,50.0,2020-10-29 19:09:10.029,train
1516,1516,52.4531135559082,31.0,2020-10-29 19:10:10.029,train
1517,1517,65.69815826416016,71.0,2020-10-29 19:11:10.029,train
1518,1518,68.73888397216797,45.0,2020-10-29 19:12:10.029,train
1519,1519,56.99879837036133,65.0,2020-10-29 19:13:10.029,train
1520,1520,49.06749725341797,61.0,2020-10-29 19:14:10.029,train
1521,1521,48.59662246704102,53.0,2020-10-29 19:15:10.029,train
1522,1522,45.34890747070313,20.0,2020-10-29 19:16:10.029,train
1523,1523,38.45218276977539,35.0,2020-10-29 19:17:10.029,train
1524,1524,25.215251922607425,26.0,2020-10-29 19:18:10.029,train
1525,1525,13.336323738098145,14.0,2020-10-29 19:19:10.029,train
1526,1526,5.6191439628601065,4.0,2020-10-29 19:20:10.029,train
1527,1527,2.7492246627807617,4.0,2020-10-29 19:21:10.029,train
1528,1528,1.9705114364624023,4.0,2020-10-29 19:22:10.029,train
1529,1529,6.452206134796143,10.0,2020-10-29 19:23:10.029,train
1530,1530,14.553515434265135,8.0,2020-10-29 19:24:10.029,train
1531,1531,24.60744285583496,24.0,2020-10-29 19:25:10.029,train
1532,1532,38.28076171875,42.0,2020-10-29 19:26:10.029,train
1533,1533,48.99671936035156,31.0,2020-10-29 19:27:10.029,train
1534,1534,59.03902816772461,60.0,2020-10-29 19:28:10.029,train
1535,1535,68.37896728515625,80.0,2020-10-29 19:29:10.029,train
1536,1536,61.65903091430664,39.0,2020-10-29 19:30:10.029,train
1537,1537,53.50422668457031,64.0,2020-10-29 19:31:10.029,train
1538,1538,48.7696304321289,55.0,2020-10-29 19:32:10.029,train
1539,1539,46.7960319519043,25.0,2020-10-29 19:33:10.029,train
1540,1540,40.53067398071289,40.0,2020-10-29 19:34:10.029,train
1541,1541,27.343568801879886,30.0,2020-10-29 19:35:10.029,train
1542,1542,14.52891731262207,11.0,2020-10-29 19:36:10.029,train
1543,1543,7.3117313385009775,12.0,2020-10-29 19:37:10.029,train
1544,1544,3.773157835006714,6.0,2020-10-29 19:38:10.029,train
1545,1545,2.0610177516937256,3.0,2020-10-29 19:39:10.029,train
1546,1546,3.47921085357666,1.0,2020-10-29 19:40:10.029,train
1547,1547,10.647321701049805,8.0,2020-10-29 19:41:10.029,train
1548,1548,19.335567474365234,20.0,2020-10-29 19:42:10.029,train
1549,1549,27.33340263366699,37.0,2020-10-29 19:43:10.029,train
1550,1550,40.8708610534668,25.0,2020-10-29 19:44:10.029,train
1551,1551,52.01687622070313,58.0,2020-10-29 19:45:10.029,train
1552,1552,66.47050476074219,70.0,2020-10-29 19:46:10.029,train
1553,1553,66.89567565917969,39.0,2020-10-29 19:47:10.029,train
1554,1554,62.11783981323242,69.0,2020-10-29 19:48:10.029,train
1555,1555,51.20882797241211,61.0,2020-10-29 19:49:10.029,train
1556,1556,47.11472702026367,25.0,2020-10-29 19:50:10.029,train
1557,1557,43.69842147827149,43.0,2020-10-29 19:51:10.029,train
1558,1558,34.634822845458984,34.0,2020-10-29 19:52:10.029,train
1559,1559,18.12049865722656,25.0,2020-10-29 19:53:10.029,train
1560,1560,8.616887092590332,8.0,2020-10-29 19:54:10.029,train
1561,1561,4.457975387573242,11.0,2020-10-29 19:55:10.029,train
1562,1562,2.761050224304199,5.0,2020-10-29 19:56:10.029,train
1563,1563,2.382991075515747,5.0,2020-10-29 19:57:10.029,train
1564,1564,5.806450366973878,5.0,2020-10-29 19:58:10.029,train
1565,1565,13.493152618408205,14.0,2020-10-29 19:59:10.029,train
1566,1566,22.590959548950195,25.0,2020-10-29 20:00:10.029,train
1567,1567,31.09637260437012,39.0,2020-10-29 20:01:10.029,train
1568,1568,45.08773422241211,36.0,2020-10-29 20:02:10.029,train
1569,1569,59.02245712280274,61.0,2020-10-29 20:03:10.029,train
1570,1570,66.34308624267578,37.0,2020-10-29 20:04:10.029,train
1571,1571,64.82966613769531,76.0,2020-10-29 20:05:10.029,train
1572,1572,57.1580924987793,65.0,2020-10-29 20:06:10.029,train
1573,1573,44.76744842529297,30.0,2020-10-29 20:07:10.029,train
1574,1574,45.413352966308594,54.0,2020-10-29 20:08:10.029,train
1575,1575,40.64355850219727,41.0,2020-10-29 20:09:10.029,train
1576,1576,26.839786529541016,15.0,2020-10-29 20:10:10.029,train
1577,1577,14.427247047424315,27.0,2020-10-29 20:11:10.029,train
1578,1578,10.20411205291748,14.0,2020-10-29 20:12:10.029,train
1579,1579,3.9239122867584233,6.0,2020-10-29 20:13:10.029,train
1580,1580,2.453192710876465,3.0,2020-10-29 20:14:10.029,train
1581,1581,3.1277048587799072,3.0,2020-10-29 20:15:10.029,train
1582,1582,10.181970596313477,11.0,2020-10-29 20:16:10.029,train
1583,1583,18.02271270751953,20.0,2020-10-29 20:17:10.029,train
1584,1584,26.03296661376953,16.0,2020-10-29 20:18:10.029,train
1585,1585,41.33778762817383,49.0,2020-10-29 20:19:10.029,train
1586,1586,55.98706817626953,59.0,2020-10-29 20:20:10.029,train
1587,1587,61.21894073486328,32.0,2020-10-29 20:21:10.029,train
1588,1588,67.66361999511719,79.0,2020-10-29 20:22:10.029,train
1589,1589,64.51300048828125,75.0,2020-10-29 20:23:10.029,train
1590,1590,44.79503631591797,48.0,2020-10-29 20:24:10.029,train
1591,1591,44.6878547668457,37.0,2020-10-29 20:25:10.029,train
1592,1592,42.751380920410156,47.0,2020-10-29 20:26:10.029,train
1593,1593,36.89418029785156,37.0,2020-10-29 20:27:10.029,train
1594,1594,19.948808670043945,13.0,2020-10-29 20:28:10.029,train
1595,1595,12.64472198486328,19.0,2020-10-29 20:29:10.029,train
1596,1596,7.700759887695312,7.0,2020-10-29 20:30:10.029,train
1597,1597,2.5789482593536377,3.0,2020-10-29 20:31:10.029,train
1598,1598,2.220041513442993,3.0,2020-10-29 20:32:10.029,train
1599,1599,7.1301512718200675,5.0,2020-10-29 20:33:10.029,train
1600,1600,15.620099067687988,11.0,2020-10-29 20:34:10.029,train
1601,1601,24.495819091796875,23.0,2020-10-29 20:35:10.029,train
1602,1602,34.68349456787109,21.0,2020-10-29 20:36:10.029,train
1603,1603,45.565284729003906,54.0,2020-10-29 20:37:10.029,train
1604,1604,56.35697937011719,63.0,2020-10-29 20:38:10.029,train
1605,1605,63.18553161621094,37.0,2020-10-29 20:39:10.029,train
1606,1606,68.53900909423828,78.0,2020-10-29 20:40:10.029,train
1607,1607,61.544189453125,63.0,2020-10-29 20:41:10.029,train
1608,1608,44.67373275756836,34.0,2020-10-29 20:42:10.029,train
1609,1609,45.1473388671875,52.0,2020-10-29 20:43:10.029,train
1610,1610,41.02739334106445,40.0,2020-10-29 20:44:10.029,train
1611,1611,29.046344757080078,31.0,2020-10-29 20:45:10.029,train
1612,1612,15.40365982055664,8.0,2020-10-29 20:46:10.029,train
1613,1613,11.232349395751953,14.0,2020-10-29 20:47:10.029,train
1614,1614,5.0847740173339835,5.0,2020-10-29 20:48:10.029,train
1615,1615,2.252864122390747,2.0,2020-10-29 20:49:10.029,train
1616,1616,3.5439743995666504,1.0,2020-10-29 20:50:10.029,train
1617,1617,10.508102416992188,8.0,2020-10-29 20:51:10.029,train
1618,1618,19.30712127685547,22.0,2020-10-29 20:52:10.029,train
1619,1619,27.91375541687012,36.0,2020-10-29 20:53:10.029,train
1620,1620,41.424224853515625,24.0,2020-10-29 20:54:10.029,train
1621,1621,54.1178092956543,55.0,2020-10-29 20:55:10.029,train
1622,1622,66.16158294677734,68.0,2020-10-29 20:56:10.029,train
1623,1623,66.61126708984375,39.0,2020-10-29 20:57:10.029,train
1624,1624,65.90738677978516,75.0,2020-10-29 20:58:10.029,train
1625,1625,55.87081527709961,61.0,2020-10-29 20:59:10.029,train
1626,1626,45.2092399597168,28.0,2020-10-29 21:00:10.029,train
1627,1627,43.75313949584961,43.0,2020-10-29 21:01:10.029,train
1628,1628,35.10603713989258,37.0,2020-10-29 21:02:10.029,train
1629,1629,19.51719284057617,24.0,2020-10-29 21:03:10.029,train
1630,1630,9.777021408081056,8.0,2020-10-29 21:04:10.029,train
1631,1631,5.485301017761231,11.0,2020-10-29 21:05:10.029,train
1632,1632,2.95822548866272,3.0,2020-10-29 21:06:10.029,train
1633,1633,2.504040241241455,3.0,2020-10-29 21:07:10.029,train
1634,1634,5.282634735107422,5.0,2020-10-29 21:08:10.029,train
1635,1635,12.906057357788086,12.0,2020-10-29 21:09:10.029,train
1636,1636,22.62292671203613,27.0,2020-10-29 21:10:10.029,train
1637,1637,31.133588790893555,44.0,2020-10-29 21:11:10.029,train
1638,1638,45.47042465209961,27.0,2020-10-29 21:12:10.029,train
1639,1639,59.57060623168945,61.0,2020-10-29 21:13:10.029,train
1640,1640,68.21342468261719,78.0,2020-10-29 21:14:10.029,train
1641,1641,67.91107177734375,39.0,2020-10-29 21:15:10.029,train
1642,1642,63.45332717895508,67.0,2020-10-29 21:16:10.029,train
1643,1643,51.65625381469727,57.0,2020-10-29 21:17:10.029,train
1644,1644,47.20425033569336,23.0,2020-10-29 21:18:10.029,train
1645,1645,41.68428039550781,41.0,2020-10-29 21:19:10.029,train
1646,1646,29.405292510986328,32.0,2020-10-29 21:20:10.029,train
1647,1647,16.94245719909668,19.0,2020-10-29 21:21:10.029,train
1648,1648,8.241291046142576,5.0,2020-10-29 21:22:10.029,train
1649,1649,3.9722957611083984,8.0,2020-10-29 21:23:10.029,train
1650,1650,2.2995800971984863,2.0,2020-10-29 21:24:10.029,train
1651,1651,3.5321590900421143,5.0,2020-10-29 21:25:10.029,train
1652,1652,8.668386459350586,9.0,2020-10-29 21:26:10.029,train
1653,1653,16.91162109375,19.0,2020-10-29 21:27:10.029,train
1654,1654,26.55090141296387,35.0,2020-10-29 21:28:10.029,train
1655,1655,40.96876907348633,25.0,2020-10-29 21:29:10.029,train
1656,1656,54.28111267089844,56.0,2020-10-29 21:30:10.029,train
1657,1657,65.39466094970703,75.0,2020-10-29 21:31:10.029,train
1658,1658,66.52620697021484,40.0,2020-10-29 21:32:10.029,train
1659,1659,67.55770874023439,74.0,2020-10-29 21:33:10.029,train
1660,1660,56.9219741821289,59.0,2020-10-29 21:34:10.029,train
1661,1661,44.86693572998047,28.0,2020-10-29 21:35:10.029,train
1662,1662,43.71273422241211,47.0,2020-10-29 21:36:10.029,train
1663,1663,35.26375961303711,36.0,2020-10-29 21:37:10.029,train
1664,1664,19.46257209777832,25.0,2020-10-29 21:38:10.029,train
1665,1665,10.705938339233398,8.0,2020-10-29 21:39:10.029,train
1666,1666,5.819613456726074,10.0,2020-10-29 21:40:10.029,train
1667,1667,3.181824207305908,2.0,2020-10-29 21:41:10.029,train
1668,1668,2.4443223476409908,3.0,2020-10-29 21:42:10.029,train
1669,1669,5.483163833618164,8.0,2020-10-29 21:43:10.029,train
1670,1670,13.68681526184082,10.0,2020-10-29 21:44:10.029,train
1671,1671,23.790225982666016,27.0,2020-10-29 21:45:10.029,train
1672,1672,36.51646423339844,49.0,2020-10-29 21:46:10.029,train
1673,1673,49.28974914550781,54.0,2020-10-29 21:47:10.029,train
1674,1674,60.52640151977539,38.0,2020-10-29 21:48:10.029,train
1675,1675,68.89366149902344,78.0,2020-10-29 21:49:10.029,train
1676,1676,64.18309783935547,39.0,2020-10-29 21:50:10.029,train
1677,1677,51.35542297363281,68.0,2020-10-29 21:51:10.029,train
1678,1678,46.85443878173828,58.0,2020-10-29 21:52:10.029,train
1679,1679,46.1821403503418,48.0,2020-10-29 21:53:10.029,train
1680,1680,38.696556091308594,18.0,2020-10-29 21:54:10.029,train
1681,1681,25.399471282958984,30.0,2020-10-29 21:55:10.029,train
1682,1682,15.312005043029785,17.0,2020-10-29 21:56:10.029,train
1683,1683,7.199465751647949,8.0,2020-10-29 21:57:10.029,train
1684,1684,3.330053806304932,1.0,2020-10-29 21:58:10.029,train
1685,1685,2.3747243881225586,2.0,2020-10-29 21:59:10.029,train
1686,1686,5.961892127990723,7.0,2020-10-29 22:00:10.029,train
1687,1687,14.659491539001465,13.0,2020-10-29 22:01:10.029,train
1688,1688,24.671749114990234,17.0,2020-10-29 22:02:10.029,train
1689,1689,38.42333221435547,30.0,2020-10-29 22:03:10.029,train
1690,1690,54.3794059753418,54.0,2020-10-29 22:04:10.029,train
1691,1691,61.39350509643555,40.0,2020-10-29 22:05:10.029,train
1692,1692,67.46824645996094,57.0,2020-10-29 22:06:10.029,train
1693,1693,70.448486328125,55.0,2020-10-29 22:07:10.029,train
1694,1694,57.54790496826172,56.0,2020-10-29 22:08:10.029,train
1695,1695,50.86838150024414,59.0,2020-10-29 22:09:10.029,train
1696,1696,47.66059494018555,27.0,2020-10-29 22:10:10.029,train
1697,1697,45.95269012451172,46.0,2020-10-29 22:11:10.029,train
1698,1698,40.25001525878906,37.0,2020-10-29 22:12:10.029,train
1699,1699,23.53537368774414,28.0,2020-10-29 22:13:10.029,train
1700,1700,12.262314796447756,7.0,2020-10-29 22:14:10.029,train
1701,1701,7.830162048339844,11.0,2020-10-29 22:15:10.029,train
1702,1702,4.287155628204347,6.0,2020-10-29 22:16:10.029,train
1703,1703,2.8061156272888184,3.0,2020-10-29 22:17:10.029,train
1704,1704,4.451067924499512,3.0,2020-10-29 22:18:10.029,train
1705,1705,11.752238273620605,12.0,2020-10-29 22:19:10.029,train
1706,1706,21.164596557617188,24.0,2020-10-29 22:20:10.029,train
1707,1707,29.12257957458496,45.0,2020-10-29 22:21:10.029,train
1708,1708,42.5024528503418,28.0,2020-10-29 22:22:10.029,train
1709,1709,56.33845520019531,63.0,2020-10-29 22:23:10.029,train
1710,1710,66.33769989013672,40.0,2020-10-29 22:24:10.029,train
1711,1711,66.89787292480469,77.0,2020-10-29 22:25:10.029,train
1712,1712,65.54843902587889,67.0,2020-10-29 22:26:10.029,train
1713,1713,46.99249267578125,30.0,2020-10-29 22:27:10.029,train
1714,1714,45.17484664916992,51.0,2020-10-29 22:28:10.029,train
1715,1715,42.16473388671875,41.0,2020-10-29 22:29:10.029,train
1716,1716,29.087846755981445,23.0,2020-10-29 22:30:10.029,train
1717,1717,15.090630531311035,17.0,2020-10-29 22:31:10.029,train
1718,1718,11.063807487487793,13.0,2020-10-29 22:32:10.029,train
1719,1719,4.777143478393555,7.0,2020-10-29 22:33:10.029,train
1720,1720,3.0007295608520512,3.0,2020-10-29 22:34:10.029,train
1721,1721,3.8541045188903813,1.0,2020-10-29 22:35:10.029,train
1722,1722,10.534124374389648,8.0,2020-10-29 22:36:10.029,train
1723,1723,18.516986846923828,20.0,2020-10-29 22:37:10.029,train
1724,1724,26.20314598083496,34.0,2020-10-29 22:38:10.029,train
1725,1725,39.41402816772461,25.0,2020-10-29 22:39:10.029,train
1726,1726,51.75458145141602,56.0,2020-10-29 22:40:10.029,train
1727,1727,64.06240844726561,75.0,2020-10-29 22:41:10.029,train
1728,1728,65.468994140625,39.0,2020-10-29 22:42:10.029,train
1729,1729,66.14048767089844,70.0,2020-10-29 22:43:10.029,train
1730,1730,56.44970703125,59.0,2020-10-29 22:44:10.029,train
1731,1731,43.83390808105469,27.0,2020-10-29 22:45:10.029,train
1732,1732,43.091468811035156,48.0,2020-10-29 22:46:10.029,train
1733,1733,33.40103530883789,37.0,2020-10-29 22:47:10.029,train
1734,1734,19.07008552551269,13.0,2020-10-29 22:48:10.029,train
1735,1735,10.42632007598877,19.0,2020-10-29 22:49:10.029,train
1736,1736,6.090503692626952,10.0,2020-10-29 22:50:10.029,train
1737,1737,2.9557802677154537,6.0,2020-10-29 22:51:10.029,train
1738,1738,2.861323118209839,2.0,2020-10-29 22:52:10.029,train
1739,1739,6.85289478302002,7.0,2020-10-29 22:53:10.029,train
1740,1740,14.54084014892578,14.0,2020-10-29 22:54:10.029,train
1741,1741,22.48236083984375,23.0,2020-10-29 22:55:10.029,train
1742,1742,31.9991455078125,22.0,2020-10-29 22:56:10.029,train
1743,1743,46.29668807983398,51.0,2020-10-29 22:57:10.029,train
1744,1744,58.9930534362793,67.0,2020-10-29 22:58:10.029,train
1745,1745,62.37155151367188,79.0,2020-10-29 22:59:10.029,train
1746,1746,66.77893829345703,37.0,2020-10-29 23:00:10.029,train
1747,1747,64.74814605712889,69.0,2020-10-29 23:01:10.029,train
1748,1748,50.50788116455078,57.0,2020-10-29 23:02:10.029,train
1749,1749,44.63981246948242,23.0,2020-10-29 23:03:10.029,train
1750,1750,41.008460998535156,42.0,2020-10-29 23:04:10.029,train
1751,1751,28.399755477905273,31.0,2020-10-29 23:05:10.029,train
1752,1752,16.882970809936527,20.0,2020-10-29 23:06:10.029,train
1753,1753,8.81101131439209,6.0,2020-10-29 23:07:10.029,train
1754,1754,4.476595878601074,5.0,2020-10-29 23:08:10.029,train
1755,1755,2.8269708156585693,4.0,2020-10-29 23:09:10.029,train
1756,1756,3.699490785598755,6.0,2020-10-29 23:10:10.029,train
1757,1757,9.427361488342283,7.0,2020-10-29 23:11:10.029,train
1758,1758,17.90321922302246,18.0,2020-10-29 23:12:10.029,train
1759,1759,27.564998626708984,36.0,2020-10-29 23:13:10.029,train
1760,1760,41.07319259643555,37.0,2020-10-29 23:14:10.029,train
1761,1761,51.05682373046875,43.0,2020-10-29 23:15:10.029,train
1762,1762,64.50339508056639,68.0,2020-10-29 23:16:10.029,train
1763,1763,69.14760589599611,40.0,2020-10-29 23:17:10.029,train
1764,1764,62.2492790222168,74.0,2020-10-29 23:18:10.029,train
1765,1765,55.73362731933594,61.0,2020-10-29 23:19:10.029,train
1766,1766,45.82251358032226,25.0,2020-10-29 23:20:10.029,train
1767,1767,43.668251037597656,45.0,2020-10-29 23:21:10.029,train
1768,1768,34.42110061645508,33.0,2020-10-29 23:22:10.029,train
1769,1769,19.425954818725586,14.0,2020-10-29 23:23:10.029,train
1770,1770,9.82345199584961,18.0,2020-10-29 23:24:10.029,train
1771,1771,5.413666248321533,7.0,2020-10-29 23:25:10.029,train
1772,1772,2.7955188751220703,4.0,2020-10-29 23:26:10.029,train
1773,1773,2.331772804260254,2.0,2020-10-29 23:27:10.029,train
1774,1774,5.98378324508667,5.0,2020-10-29 23:28:10.029,train
1775,1775,13.721435546875,16.0,2020-10-29 23:29:10.029,train
1776,1776,22.80630874633789,24.0,2020-10-29 23:30:10.029,train
1777,1777,30.68478965759277,40.0,2020-10-29 23:31:10.029,train
1778,1778,44.91115951538086,35.0,2020-10-29 23:32:10.029,train
1779,1779,60.27839660644531,65.0,2020-10-29 23:33:10.029,train
1780,1780,66.93976593017578,37.0,2020-10-29 23:34:10.029,train
1781,1781,67.75968933105469,77.0,2020-10-29 23:35:10.029,train
1782,1782,61.71512985229492,65.0,2020-10-29 23:36:10.029,train
1783,1783,45.690589904785156,30.0,2020-10-29 23:37:10.029,train
1784,1784,44.46139907836914,52.0,2020-10-29 23:38:10.029,train
1785,1785,39.57157897949219,39.0,2020-10-29 23:39:10.029,train
1786,1786,24.75704765319824,16.0,2020-10-29 23:40:10.029,train
1787,1787,13.72928524017334,22.0,2020-10-29 23:41:10.029,train
1788,1788,9.68603229522705,12.0,2020-10-29 23:42:10.029,train
1789,1789,3.83943247795105,8.0,2020-10-29 23:43:10.029,train
1790,1790,2.526263952255249,2.0,2020-10-29 23:44:10.029,train
1791,1791,3.886706829071045,4.0,2020-10-29 23:45:10.029,train
1792,1792,11.25748348236084,10.0,2020-10-29 23:46:10.029,train
1793,1793,18.47283744812012,8.0,2020-10-29 23:47:10.029,train
1794,1794,26.504234313964844,24.0,2020-10-29 23:48:10.029,train
1795,1795,40.36667251586914,43.0,2020-10-29 23:49:10.029,train
1796,1796,47.17034530639648,52.0,2020-10-29 23:50:10.029,train
1797,1797,54.472557067871094,40.0,2020-10-29 23:51:10.029,train
1798,1798,67.208740234375,77.0,2020-10-29 23:52:10.029,train
1799,1799,65.95361328125,72.0,2020-10-29 23:53:10.029,train
1800,1800,54.70857238769531,32.0,2020-10-29 23:54:10.029,train
1801,1801,48.10441589355469,56.0,2020-10-29 23:55:10.029,train
1802,1802,44.49448776245117,46.0,2020-10-29 23:56:10.029,train
1803,1803,38.67138671875,18.0,2020-10-29 23:57:10.029,train
1804,1804,22.81837272644043,31.0,2020-10-29 23:58:10.029,train
1805,1805,16.145462036132812,18.0,2020-10-29 23:59:10.029,train
1806,1806,7.22406005859375,12.0,2020-10-30 00:00:10.029,train
1807,1807,3.253647327423096,1.0,2020-10-30 00:01:10.029,train
1808,1808,2.305018186569214,3.0,2020-10-30 00:02:10.029,train
1809,1809,4.339611530303955,6.0,2020-10-30 00:03:10.029,val
1810,1810,11.21956729888916,15.0,2020-10-30 00:04:10.029,val
1811,1811,19.774951934814453,12.0,2020-10-30 00:05:10.029,val
1812,1812,29.10234642028809,40.0,2020-10-30 00:06:10.029,val
1813,1813,47.42243194580078,52.0,2020-10-30 00:07:10.029,val
1814,1814,58.28205490112305,62.0,2020-10-30 00:08:10.029,val
1815,1815,66.52537536621094,36.0,2020-10-30 00:09:10.029,val
1816,1816,68.61744689941406,77.0,2020-10-30 00:10:10.029,val
1817,1817,57.846946716308594,33.0,2020-10-30 00:11:10.029,val
1818,1818,43.28948211669922,60.0,2020-10-30 00:12:10.029,val
1819,1819,42.474754333496094,50.0,2020-10-30 00:13:10.029,val
1820,1820,35.46218490600586,22.0,2020-10-30 00:14:10.029,val
1821,1821,21.036949157714844,37.0,2020-10-30 00:15:10.029,val
1822,1822,15.57076930999756,25.0,2020-10-30 00:16:10.029,val
1823,1823,8.344139099121094,13.0,2020-10-30 00:17:10.029,val
1824,1824,4.044013977050781,3.0,2020-10-30 00:18:10.029,val
1825,1825,2.374600648880005,6.0,2020-10-30 00:19:10.029,val
1826,1826,2.917532205581665,3.0,2020-10-30 00:20:10.029,val
1827,1827,8.770803451538086,10.0,2020-10-30 00:21:10.029,val
1828,1828,16.36471176147461,6.0,2020-10-30 00:22:10.029,val
1829,1829,25.52192687988281,25.0,2020-10-30 00:23:10.029,val
1830,1830,40.92940902709961,44.0,2020-10-30 00:24:10.029,val
1831,1831,49.55479431152344,32.0,2020-10-30 00:25:10.029,val
1832,1832,58.62201309204102,58.0,2020-10-30 00:26:10.029,val
1833,1833,68.14830017089844,78.0,2020-10-30 00:27:10.029,val
1834,1834,66.38519287109375,65.0,2020-10-30 00:28:10.029,val
1835,1835,58.00640487670898,40.0,2020-10-30 00:29:10.029,val
1836,1836,49.82206344604492,59.0,2020-10-30 00:30:10.029,val
1837,1837,45.98823165893555,46.0,2020-10-30 00:31:10.029,val
1838,1838,42.93025588989258,20.0,2020-10-30 00:32:10.029,val
1839,1839,30.766246795654297,31.0,2020-10-30 00:33:10.029,val
1840,1840,18.99110412597656,16.0,2020-10-30 00:34:10.029,val
1841,1841,10.417560577392578,10.0,2020-10-30 00:35:10.029,val
1842,1842,3.951147317886353,3.0,2020-10-30 00:36:10.029,val
1843,1843,2.1696972846984863,3.0,2020-10-30 00:37:10.029,val
1844,1844,4.09283447265625,7.0,2020-10-30 00:38:10.029,val
1845,1845,10.8047513961792,5.0,2020-10-30 00:39:10.029,val
1846,1846,20.678783416748047,18.0,2020-10-30 00:40:10.029,val
1847,1847,31.137958526611328,35.0,2020-10-30 00:41:10.029,val
1848,1848,45.31427001953125,49.0,2020-10-30 00:42:10.029,val
1849,1849,52.01731872558594,31.0,2020-10-30 00:43:10.029,val
1850,1850,64.43672180175781,70.0,2020-10-30 00:44:10.029,val
1851,1851,69.1177978515625,76.0,2020-10-30 00:45:10.029,val
1852,1852,60.52013397216797,37.0,2020-10-30 00:46:10.029,val
1853,1853,51.23023986816406,61.0,2020-10-30 00:47:10.029,val
1854,1854,46.31836318969727,53.0,2020-10-30 00:48:10.029,val
1855,1855,43.765541076660156,25.0,2020-10-30 00:49:10.029,val
1856,1856,33.61117553710937,33.0,2020-10-30 00:50:10.029,val
1857,1857,21.913990020751953,23.0,2020-10-30 00:51:10.029,val
1858,1858,13.806478500366213,15.0,2020-10-30 00:52:10.029,val
1859,1859,6.337483406066895,5.0,2020-10-30 00:53:10.029,val
1860,1860,2.957451581954956,5.0,2020-10-30 00:54:10.029,val
1861,1861,2.228182315826416,4.0,2020-10-30 00:55:10.029,val
1862,1862,5.120543956756592,9.0,2020-10-30 00:56:10.029,val
1863,1863,12.72682285308838,7.0,2020-10-30 00:57:10.029,val
1864,1864,22.07723617553711,27.0,2020-10-30 00:58:10.029,val
1865,1865,34.550155639648445,46.0,2020-10-30 00:59:10.029,val
1866,1866,47.5296630859375,59.0,2020-10-30 01:00:10.029,val
1867,1867,57.01990509033203,32.0,2020-10-30 01:01:10.029,val
1868,1868,67.73983001708984,78.0,2020-10-30 01:02:10.029,val
1869,1869,66.01948547363281,37.0,2020-10-30 01:03:10.029,val
1870,1870,49.56561660766602,69.0,2020-10-30 01:04:10.029,val
1871,1871,44.52705383300781,58.0,2020-10-30 01:05:10.029,val
1872,1872,45.04987716674805,33.0,2020-10-30 01:06:10.029,val
1873,1873,35.67010498046875,33.0,2020-10-30 01:07:10.029,val
1874,1874,24.12047004699707,31.0,2020-10-30 01:08:10.029,val
1875,1875,14.453713417053224,19.0,2020-10-30 01:09:10.029,val
1876,1876,7.622340679168701,7.0,2020-10-30 01:10:10.029,val
1877,1877,4.260802268981934,2.0,2020-10-30 01:11:10.029,val
1878,1878,2.551490306854248,3.0,2020-10-30 01:12:10.029,val
1879,1879,3.092630624771118,8.0,2020-10-30 01:13:10.029,val
1880,1880,9.413164138793944,12.0,2020-10-30 01:14:10.029,val
1881,1881,19.557907104492188,11.0,2020-10-30 01:15:10.029,val
1882,1882,31.8100643157959,37.0,2020-10-30 01:16:10.029,val
1883,1883,50.67218780517578,52.0,2020-10-30 01:17:10.029,val
1884,1884,58.72444915771485,31.0,2020-10-30 01:18:10.029,val
1885,1885,67.48802947998047,71.0,2020-10-30 01:19:10.029,val
1886,1886,70.17626953125,78.0,2020-10-30 01:20:10.029,val
1887,1887,59.35386657714844,34.0,2020-10-30 01:21:10.029,val
1888,1888,49.80855178833008,61.0,2020-10-30 01:22:10.029,val
1889,1889,46.64861679077149,50.0,2020-10-30 01:23:10.029,val
1890,1890,44.622474670410156,32.0,2020-10-30 01:24:10.029,val
1891,1891,33.713973999023445,25.0,2020-10-30 01:25:10.029,val
1892,1892,21.598459243774414,24.0,2020-10-30 01:26:10.029,val
1893,1893,12.847521781921387,14.0,2020-10-30 01:27:10.029,val
1894,1894,5.2592735290527335,2.0,2020-10-30 01:28:10.029,val
1895,1895,2.74572491645813,6.0,2020-10-30 01:29:10.029,val
1896,1896,2.5224761962890625,3.0,2020-10-30 01:30:10.029,val
1897,1897,7.343783378601074,9.0,2020-10-30 01:31:10.029,val
1898,1898,16.391401290893555,7.0,2020-10-30 01:32:10.029,val
1899,1899,25.20987319946289,25.0,2020-10-30 01:33:10.029,val
1900,1900,40.047706604003906,49.0,2020-10-30 01:34:10.029,val
1901,1901,49.20380401611328,28.0,2020-10-30 01:35:10.029,val
1902,1902,57.53915405273438,61.0,2020-10-30 01:36:10.029,val
1903,1903,68.67277526855469,76.0,2020-10-30 01:37:10.029,val
1904,1904,69.07894897460939,39.0,2020-10-30 01:38:10.029,val
1905,1905,59.15827560424805,65.0,2020-10-30 01:39:10.029,val
1906,1906,50.11851119995117,57.0,2020-10-30 01:40:10.029,val
1907,1907,46.66107559204102,25.0,2020-10-30 01:41:10.029,val
1908,1908,41.36351776123047,39.0,2020-10-30 01:42:10.029,val
1909,1909,28.61834716796875,30.0,2020-10-30 01:43:10.029,val
1910,1910,16.863481521606445,20.0,2020-10-30 01:44:10.029,val
1911,1911,8.798113822937012,10.0,2020-10-30 01:45:10.029,val
1912,1912,4.382387161254884,2.0,2020-10-30 01:46:10.029,val
1913,1913,2.761023759841919,3.0,2020-10-30 01:47:10.029,val
1914,1914,2.6424994468688965,6.0,2020-10-30 01:48:10.029,val
1915,1915,6.299347877502441,13.0,2020-10-30 01:49:10.029,val
1916,1916,15.142573356628418,12.0,2020-10-30 01:50:10.029,val
1917,1917,24.961505889892575,34.0,2020-10-30 01:51:10.029,val
1918,1918,41.406166076660156,50.0,2020-10-30 01:52:10.029,val
1919,1919,56.79228591918945,37.0,2020-10-30 01:53:10.029,val
1920,1920,65.85565185546875,65.0,2020-10-30 01:54:10.029,val
1921,1921,70.4642105102539,77.0,2020-10-30 01:55:10.029,val
1922,1922,60.14075469970703,36.0,2020-10-30 01:56:10.029,val
1923,1923,53.09376907348633,61.0,2020-10-30 01:57:10.029,val
1924,1924,47.33010864257813,52.0,2020-10-30 01:58:10.029,val
1925,1925,45.12903213500977,25.0,2020-10-30 01:59:10.029,val
1926,1926,35.30158615112305,32.0,2020-10-30 02:00:10.029,val
1927,1927,22.26031875610352,23.0,2020-10-30 02:01:10.029,val
1928,1928,13.636239051818848,12.0,2020-10-30 02:02:10.029,val
1929,1929,6.177379131317139,2.0,2020-10-30 02:03:10.029,val
1930,1930,2.900410890579224,5.0,2020-10-30 02:04:10.029,val
1931,1931,2.424386739730835,3.0,2020-10-30 02:05:10.029,val
1932,1932,7.542419910430907,8.0,2020-10-30 02:06:10.029,val
1933,1933,16.63908576965332,10.0,2020-10-30 02:07:10.029,val
1934,1934,25.97869873046875,25.0,2020-10-30 02:08:10.029,val
1935,1935,41.59126281738281,43.0,2020-10-30 02:09:10.029,val
1936,1936,51.91946411132813,58.0,2020-10-30 02:10:10.029,val
1937,1937,61.66226577758789,31.0,2020-10-30 02:11:10.029,val
1938,1938,68.96376800537111,76.0,2020-10-30 02:12:10.029,val
1939,1939,64.44585418701172,72.0,2020-10-30 02:13:10.029,val
1940,1940,50.60056686401367,32.0,2020-10-30 02:14:10.029,val
1941,1941,44.7950553894043,58.0,2020-10-30 02:15:10.029,val
1942,1942,42.667327880859375,47.0,2020-10-30 02:16:10.029,val
1943,1943,34.30588531494141,18.0,2020-10-30 02:17:10.029,val
1944,1944,19.75090789794922,32.0,2020-10-30 02:18:10.029,val
1945,1945,14.403483390808105,21.0,2020-10-30 02:19:10.029,val
1946,1946,6.1650428771972665,7.0,2020-10-30 02:20:10.029,val
1947,1947,3.1670567989349365,2.0,2020-10-30 02:21:10.029,val
1948,1948,2.2185182571411133,4.0,2020-10-30 02:22:10.029,val
1949,1949,5.133347511291504,7.0,2020-10-30 02:23:10.029,val
1950,1950,13.182579040527346,14.0,2020-10-30 02:24:10.029,val
1951,1951,22.9608154296875,12.0,2020-10-30 02:25:10.029,val
1952,1952,35.03647232055664,36.0,2020-10-30 02:26:10.029,val
1953,1953,53.25814437866211,49.0,2020-10-30 02:27:10.029,val
1954,1954,59.72021865844727,63.0,2020-10-30 02:28:10.029,val
1955,1955,67.45196533203125,40.0,2020-10-30 02:29:10.029,val
1956,1956,69.39236450195311,78.0,2020-10-30 02:30:10.029,val
1957,1957,59.49209976196289,66.0,2020-10-30 02:31:10.029,val
1958,1958,44.60095977783203,29.0,2020-10-30 02:32:10.029,val
1959,1959,44.32640838623047,53.0,2020-10-30 02:33:10.029,val
1960,1960,37.77002334594727,39.0,2020-10-30 02:34:10.029,val
1961,1961,22.723392486572266,32.0,2020-10-30 02:35:10.029,val
1962,1962,12.98532772064209,10.0,2020-10-30 02:36:10.029,val
1963,1963,8.729439735412598,15.0,2020-10-30 02:37:10.029,val
1964,1964,4.699337959289551,8.0,2020-10-30 02:38:10.029,val
1965,1965,2.4171831607818604,2.0,2020-10-30 02:39:10.029,val
1966,1966,3.23795223236084,1.0,2020-10-30 02:40:10.029,val
1967,1967,9.075347900390623,11.0,2020-10-30 02:41:10.029,val
1968,1968,17.81585121154785,17.0,2020-10-30 02:42:10.029,val
1969,1969,26.21185111999512,12.0,2020-10-30 02:43:10.029,val
1970,1970,43.1911735534668,43.0,2020-10-30 02:44:10.029,val
1971,1971,58.24791717529297,55.0,2020-10-30 02:45:10.029,val
1972,1972,60.838829040527344,33.0,2020-10-30 02:46:10.029,val
1973,1973,68.03348541259766,79.0,2020-10-30 02:47:10.029,val
1974,1974,70.06013488769531,75.0,2020-10-30 02:48:10.029,val
1975,1975,55.11401748657226,30.0,2020-10-30 02:49:10.029,val
1976,1976,46.36860656738281,59.0,2020-10-30 02:50:10.029,val
1977,1977,45.44896697998047,45.0,2020-10-30 02:51:10.029,val
1978,1978,40.470794677734375,34.0,2020-10-30 02:52:10.029,val
1979,1979,27.43672180175781,13.0,2020-10-30 02:53:10.029,val
1980,1980,18.218297958374023,18.0,2020-10-30 02:54:10.029,val
1981,1981,10.733415603637695,10.0,2020-10-30 02:55:10.029,val
1982,1982,3.622678518295288,6.0,2020-10-30 02:56:10.029,val
1983,1983,2.218754529953003,2.0,2020-10-30 02:57:10.029,test
1984,1984,5.05413293838501,5.0,2020-10-30 02:58:10.029,test
1985,1985,12.605642318725586,12.0,2020-10-30 02:59:10.029,test
1986,1986,21.768787384033203,11.0,2020-10-30 03:00:10.029,test
1987,1987,31.215126037597656,38.0,2020-10-30 03:01:10.029,test
1988,1988,47.89220428466797,50.0,2020-10-30 03:02:10.029,test
1989,1989,56.54969024658203,53.0,2020-10-30 03:03:10.029,test
1990,1990,67.65636444091797,46.0,2020-10-30 03:04:10.029,test
1991,1991,70.78541564941406,77.0,2020-10-30 03:05:10.029,test
1992,1992,59.5369873046875,33.0,2020-10-30 03:06:10.029,test
1993,1993,47.90909957885742,61.0,2020-10-30 03:07:10.029,test
1994,1994,46.185302734375,28.0,2020-10-30 03:08:10.029,test
1995,1995,43.30634689331055,47.0,2020-10-30 03:09:10.029,test
1996,1996,30.86349296569824,37.0,2020-10-30 03:10:10.029,test
1997,1997,17.931137084960938,24.0,2020-10-30 03:11:10.029,test
1998,1998,9.90184497833252,7.0,2020-10-30 03:12:10.029,test
1999,1999,5.268355369567871,8.0,2020-10-30 03:13:10.029,test
2000,2000,2.8613972663879395,2.0,2020-10-30 03:14:10.029,test
2001,2001,2.351233720779419,4.0,2020-10-30 03:15:10.029,test
2002,2002,5.882026672363281,4.0,2020-10-30 03:16:10.029,test
2003,2003,14.795948028564453,14.0,2020-10-30 03:17:10.029,test
2004,2004,25.00271987915039,26.0,2020-10-30 03:18:10.029,test
2005,2005,34.84436416625977,42.0,2020-10-30 03:19:10.029,test
2006,2006,50.10686492919922,59.0,2020-10-30 03:20:10.029,test
2007,2007,61.93548202514648,36.0,2020-10-30 03:21:10.029,test
2008,2008,68.02455139160156,76.0,2020-10-30 03:22:10.029,test
2009,2009,67.22350311279297,69.0,2020-10-30 03:23:10.029,test
2010,2010,51.25894165039063,30.0,2020-10-30 03:24:10.029,test
2011,2011,45.23088455200195,56.0,2020-10-30 03:25:10.029,test
2012,2012,43.37689208984375,45.0,2020-10-30 03:26:10.029,test
2013,2013,34.01919174194336,19.0,2020-10-30 03:27:10.029,test
2014,2014,19.090789794921875,31.0,2020-10-30 03:28:10.029,test
2015,2015,13.978681564331055,21.0,2020-10-30 03:29:10.029,test
2016,2016,5.723159790039063,6.0,2020-10-30 03:30:10.029,test
2017,2017,2.7968456745147705,3.0,2020-10-30 03:31:10.029,test
2018,2018,2.1365554332733154,2.0,2020-10-30 03:32:10.029,test
2019,2019,6.211618900299072,8.0,2020-10-30 03:33:10.029,test
2020,2020,13.653757095336914,15.0,2020-10-30 03:34:10.029,test
2021,2021,23.32705307006836,10.0,2020-10-30 03:35:10.029,test
2022,2022,37.42414855957031,38.0,2020-10-30 03:36:10.029,test
2023,2023,55.52599334716797,52.0,2020-10-30 03:37:10.029,test
2024,2024,60.08642959594727,62.0,2020-10-30 03:38:10.029,test
2025,2025,67.56758117675781,40.0,2020-10-30 03:39:10.029,test
2026,2026,69.19998931884766,78.0,2020-10-30 03:40:10.029,test
2027,2027,58.74127578735352,66.0,2020-10-30 03:41:10.029,test
2028,2028,44.02348327636719,29.0,2020-10-30 03:42:10.029,test
2029,2029,43.98664474487305,52.0,2020-10-30 03:43:10.029,test
2030,2030,36.3072624206543,42.0,2020-10-30 03:44:10.029,test
2031,2031,21.256349563598636,16.0,2020-10-30 03:45:10.029,test
2032,2032,12.368691444396973,26.0,2020-10-30 03:46:10.029,test
2033,2033,8.594589233398438,12.0,2020-10-30 03:47:10.029,test
2034,2034,3.230320930480957,2.0,2020-10-30 03:48:10.029,test
2035,2035,2.172790050506592,2.0,2020-10-30 03:49:10.029,test
2036,2036,3.3958950042724614,3.0,2020-10-30 03:50:10.029,test
2037,2037,10.508102416992188,11.0,2020-10-30 03:51:10.029,test
2038,2038,19.641788482666016,20.0,2020-10-30 03:52:10.029,test
2039,2039,27.5820426940918,14.0,2020-10-30 03:53:10.029,test
2040,2040,43.44867706298828,47.0,2020-10-30 03:54:10.029,test
2041,2041,58.32928466796875,56.0,2020-10-30 03:55:10.029,test
2042,2042,61.66842269897461,61.0,2020-10-30 03:56:10.029,test
2043,2043,68.34502410888672,47.0,2020-10-30 03:57:10.029,test
2044,2044,67.27430725097656,70.0,2020-10-30 03:58:10.029,test
2045,2045,56.97917938232422,32.0,2020-10-30 03:59:10.029,test
2046,2046,44.71174621582031,55.0,2020-10-30 04:00:10.029,test
2047,2047,44.805076599121094,44.0,2020-10-30 04:01:10.029,test
2048,2048,40.007999420166016,19.0,2020-10-30 04:02:10.029,test
2049,2049,26.43511962890625,30.0,2020-10-30 04:03:10.029,test
2050,2050,17.530710220336914,15.0,2020-10-30 04:04:10.029,test
2051,2051,8.664938926696777,9.0,2020-10-30 04:05:10.029,test
2052,2052,3.552870750427246,4.0,2020-10-30 04:06:10.029,test
2053,2053,2.3233602046966557,4.0,2020-10-30 04:07:10.029,test
2054,2054,6.392435073852539,6.0,2020-10-30 04:08:10.029,test
2055,2055,14.383101463317873,13.0,2020-10-30 04:09:10.029,test
2056,2056,22.69953918457031,13.0,2020-10-30 04:10:10.029,test
2057,2057,32.57575225830078,32.0,2020-10-30 04:11:10.029,test
2058,2058,48.13433837890625,50.0,2020-10-30 04:12:10.029,test
2059,2059,57.19427490234375,31.0,2020-10-30 04:13:10.029,test
2060,2060,65.34654998779297,69.0,2020-10-30 04:14:10.029,test
2061,2061,69.45014190673828,77.0,2020-10-30 04:15:10.029,test
2062,2062,59.57951354980469,34.0,2020-10-30 04:16:10.029,test
2063,2063,49.87137222290039,60.0,2020-10-30 04:17:10.029,test
2064,2064,46.15412139892578,49.0,2020-10-30 04:18:10.029,test
2065,2065,44.249507904052734,20.0,2020-10-30 04:19:10.029,test
2066,2066,34.37510299682617,35.0,2020-10-30 04:20:10.029,test
2067,2067,22.15032386779785,26.0,2020-10-30 04:21:10.029,test
2068,2068,13.185897827148438,14.0,2020-10-30 04:22:10.029,test
