,Unnamed: 0,prediction,real,time,split
221,221,29.529096603393555,12.0,2020-11-10 13:18:16.009,train
222,222,47.00705337524414,34.0,2020-11-10 13:19:16.009,train
223,223,85.04995727539062,103.0,2020-11-10 13:20:16.009,train
224,224,112.3004150390625,114.0,2020-11-10 13:21:16.009,train
225,225,94.69752502441406,104.0,2020-11-10 13:22:16.009,train
226,226,82.6161117553711,78.0,2020-11-10 13:23:16.009,train
227,227,50.34814071655274,59.0,2020-11-10 13:24:16.009,train
228,228,36.377742767333984,39.0,2020-11-10 13:25:16.009,train
229,229,13.338943481445312,8.0,2020-11-10 13:26:16.009,train
230,230,15.727652549743652,14.0,2020-11-10 13:27:16.009,train
231,231,40.49353790283203,35.0,2020-11-10 13:28:16.009,train
232,232,57.61537170410156,73.0,2020-11-10 13:29:16.009,train
233,233,102.84857940673828,136.0,2020-11-10 13:30:16.009,train
234,234,106.97842407226562,100.0,2020-11-10 13:31:16.009,train
235,235,88.56795501708984,86.0,2020-11-10 13:32:16.009,train
236,236,54.95868301391602,57.0,2020-11-10 13:33:16.009,train
237,237,42.838321685791016,31.0,2020-11-10 13:34:16.009,train
238,238,15.97482967376709,7.0,2020-11-10 13:35:16.009,train
239,239,10.618508338928224,9.0,2020-11-10 13:36:16.009,train
240,240,34.04208374023437,41.0,2020-11-10 13:37:16.009,train
241,241,59.95356750488281,73.0,2020-11-10 13:38:16.009,train
242,242,110.8045883178711,102.0,2020-11-10 13:39:16.009,train
243,243,101.111572265625,114.0,2020-11-10 13:40:16.009,train
244,244,83.7041244506836,88.0,2020-11-10 13:41:16.009,train
245,245,49.69187545776367,65.0,2020-11-10 13:42:16.009,train
246,246,39.22975158691406,46.0,2020-11-10 13:43:16.009,train
247,247,14.880327224731445,13.0,2020-11-10 13:44:16.009,train
248,248,13.6258544921875,5.0,2020-11-10 13:45:16.009,train
249,249,37.57046127319336,26.0,2020-11-10 13:46:16.009,train
250,250,61.30790328979492,60.0,2020-11-10 13:47:16.009,train
251,251,104.48181915283205,90.0,2020-11-10 13:48:16.009,train
252,252,109.17144012451172,94.0,2020-11-10 13:49:16.009,train
253,253,93.24993133544922,91.0,2020-11-10 13:50:16.009,train
254,254,56.83758163452149,101.0,2020-11-10 13:51:16.009,train
255,255,44.5432243347168,49.0,2020-11-10 13:52:16.009,train
256,256,27.079364776611328,22.0,2020-11-10 13:53:16.009,train
257,257,10.562664031982422,9.0,2020-11-10 13:54:16.009,train
258,258,17.85401153564453,11.0,2020-11-10 13:55:16.009,train
259,259,37.63044738769531,33.0,2020-11-10 13:56:16.009,train
260,260,60.7869873046875,86.0,2020-11-10 13:57:16.009,train
261,261,108.9985122680664,122.0,2020-11-10 13:58:16.009,train
262,262,96.80475616455078,100.0,2020-11-10 13:59:16.009,train
263,263,82.93476104736328,86.0,2020-11-10 14:00:16.009,train
264,264,51.28730392456055,60.0,2020-11-10 14:01:16.009,train
265,265,42.39645767211914,29.0,2020-11-10 14:02:16.009,train
266,266,15.578500747680664,11.0,2020-11-10 14:03:16.009,train
267,267,12.156436920166016,10.0,2020-11-10 14:04:16.009,train
268,268,37.93040466308594,28.0,2020-11-10 14:05:16.009,train
269,269,59.2553825378418,84.0,2020-11-10 14:06:16.009,train
270,270,108.19871520996094,101.0,2020-11-10 14:07:16.009,train
271,271,103.28423309326172,115.0,2020-11-10 14:08:16.009,train
272,272,85.53173065185547,86.0,2020-11-10 14:09:16.009,train
273,273,55.8306770324707,66.0,2020-11-10 14:10:16.009,train
274,274,41.64805603027344,49.0,2020-11-10 14:11:16.009,train
275,275,21.248538970947266,12.0,2020-11-10 14:12:16.009,train
276,276,8.191375732421875,4.0,2020-11-10 14:13:16.009,train
277,277,26.98586654663086,30.0,2020-11-10 14:14:16.009,train
278,278,52.17639541625977,60.0,2020-11-10 14:15:16.009,train
279,279,80.40599822998047,95.0,2020-11-10 14:16:16.009,train
280,280,109.78790283203124,117.0,2020-11-10 14:17:16.009,train
281,281,93.52243041992188,95.0,2020-11-10 14:18:16.009,train
282,282,49.63072204589844,93.0,2020-11-10 14:19:16.009,train
283,283,40.054046630859375,43.0,2020-11-10 14:20:16.009,train
284,284,20.53623580932617,15.0,2020-11-10 14:21:16.009,train
285,285,8.229674339294434,7.0,2020-11-10 14:22:16.009,train
286,286,29.707386016845703,17.0,2020-11-10 14:23:16.009,train
287,287,47.84956741333008,46.0,2020-11-10 14:24:16.009,train
288,288,90.82711029052734,80.0,2020-11-10 14:25:16.009,train
289,289,108.6887435913086,112.0,2020-11-10 14:26:16.009,train
290,290,87.75434875488281,103.0,2020-11-10 14:27:16.009,train
291,291,72.4045181274414,99.0,2020-11-10 14:28:16.009,train
292,292,47.408668518066406,58.0,2020-11-10 14:29:16.009,train
293,293,40.72233963012695,20.0,2020-11-10 14:30:16.009,train
294,294,13.978740692138672,9.0,2020-11-10 14:31:16.009,train
295,295,14.467000007629395,10.0,2020-11-10 14:32:16.009,train
296,296,36.98262786865234,45.0,2020-11-10 14:33:16.009,train
297,297,57.50724792480469,84.0,2020-11-10 14:34:16.009,train
298,298,107.8765869140625,81.0,2020-11-10 14:35:16.009,train
299,299,98.7301025390625,107.0,2020-11-10 14:36:16.009,train
300,300,84.08421325683594,111.0,2020-11-10 14:37:16.009,train
301,301,49.35277557373047,60.0,2020-11-10 14:38:16.009,train
302,302,40.92388153076172,33.0,2020-11-10 14:39:16.009,train
303,303,25.283735275268555,12.0,2020-11-10 14:40:16.009,train
304,304,9.063898086547852,7.0,2020-11-10 14:41:16.009,train
305,305,26.13279914855957,25.0,2020-11-10 14:42:16.009,train
306,306,50.8607063293457,88.0,2020-11-10 14:43:16.009,train
307,307,103.39361572265624,99.0,2020-11-10 14:44:16.009,train
308,308,103.76823425292969,94.0,2020-11-10 14:45:16.009,train
309,309,83.35506439208984,109.0,2020-11-10 14:46:16.009,train
310,310,51.10146713256836,63.0,2020-11-10 14:47:16.009,train
311,311,37.1356086730957,40.0,2020-11-10 14:48:16.009,train
312,312,18.84391975402832,22.0,2020-11-10 14:49:16.009,train
313,313,8.032339096069336,5.0,2020-11-10 14:50:16.009,train
314,314,24.94295883178711,15.0,2020-11-10 14:51:16.009,train
315,315,48.98843002319336,74.0,2020-11-10 14:52:16.009,train
316,316,91.71916198730469,90.0,2020-11-10 14:53:16.009,train
317,317,110.61878967285156,118.0,2020-11-10 14:54:16.009,train
318,318,97.1346664428711,93.0,2020-11-10 14:55:16.009,train
319,319,84.70987701416016,70.0,2020-11-10 14:56:16.009,train
320,320,47.09402084350586,51.0,2020-11-10 14:57:16.009,train
321,321,36.81159210205078,30.0,2020-11-10 14:58:16.009,train
322,322,9.947588920593262,6.0,2020-11-10 14:59:16.009,train
323,323,16.790639877319336,13.0,2020-11-10 15:00:16.009,train
324,324,46.57378768920898,48.0,2020-11-10 15:01:16.009,train
325,325,74.3393325805664,76.0,2020-11-10 15:02:16.009,train
326,326,108.87293243408205,109.0,2020-11-10 15:03:16.009,train
327,327,97.99879455566406,79.0,2020-11-10 15:04:16.009,train
328,328,78.83991241455078,88.0,2020-11-10 15:05:16.009,train
329,329,48.578041076660156,81.0,2020-11-10 15:06:16.009,train
330,330,39.77504348754883,31.0,2020-11-10 15:07:16.009,train
331,331,14.99461841583252,16.0,2020-11-10 15:08:16.009,train
332,332,9.298852920532227,7.0,2020-11-10 15:09:16.009,train
333,333,34.618953704833984,24.0,2020-11-10 15:10:16.009,train
334,334,51.92685317993164,85.0,2020-11-10 15:11:16.009,train
335,335,104.21541595458984,84.0,2020-11-10 15:12:16.009,train
336,336,101.45276641845705,95.0,2020-11-10 15:13:16.009,train
337,337,82.42525482177734,98.0,2020-11-10 15:14:16.009,train
338,338,52.3583984375,69.0,2020-11-10 15:15:16.009,train
339,339,39.58989715576172,61.0,2020-11-10 15:16:16.009,train
340,340,29.07045936584473,17.0,2020-11-10 15:17:16.009,train
341,341,10.960004806518556,9.0,2020-11-10 15:18:16.009,train
342,342,18.663328170776367,21.0,2020-11-10 15:19:16.009,train
343,343,45.82392883300781,46.0,2020-11-10 15:20:16.009,train
344,344,60.99823760986328,110.0,2020-11-10 15:21:16.009,train
345,345,105.55403900146484,119.0,2020-11-10 15:22:16.009,train
346,346,92.59601593017578,95.0,2020-11-10 15:23:16.009,train
347,347,61.606422424316406,72.0,2020-11-10 15:24:16.009,train
348,348,47.29834747314453,52.0,2020-11-10 15:25:16.009,train
349,349,28.76406669616699,28.0,2020-11-10 15:26:16.009,train
350,350,9.34558391571045,7.0,2020-11-10 15:27:16.009,train
351,351,17.67223358154297,11.0,2020-11-10 15:28:16.009,train
352,352,45.12605667114258,48.0,2020-11-10 15:29:16.009,train
353,353,68.15266418457031,81.0,2020-11-10 15:30:16.009,train
354,354,106.22724151611328,112.0,2020-11-10 15:31:16.009,train
355,355,94.0856704711914,105.0,2020-11-10 15:32:16.009,train
356,356,77.73919677734375,82.0,2020-11-10 15:33:16.009,train
357,357,48.66863250732422,56.0,2020-11-10 15:34:16.009,train
358,358,38.21319961547852,34.0,2020-11-10 15:35:16.009,train
359,359,14.56528377532959,12.0,2020-11-10 15:36:16.009,train
360,360,12.939579010009766,7.0,2020-11-10 15:37:16.009,train
361,361,36.79882049560547,41.0,2020-11-10 15:38:16.009,train
362,362,60.31723022460938,76.0,2020-11-10 15:39:16.009,train
363,363,104.88424682617188,106.0,2020-11-10 15:40:16.009,train
364,364,97.61418151855469,89.0,2020-11-10 15:41:16.009,train
365,365,75.8842544555664,91.0,2020-11-10 15:42:16.009,train
366,366,48.854347229003906,85.0,2020-11-10 15:43:16.009,train
367,367,35.66019058227539,39.0,2020-11-10 15:44:16.009,train
368,368,15.712095260620115,15.0,2020-11-10 15:45:16.009,train
369,369,9.562685012817383,7.0,2020-11-10 15:46:16.009,train
370,370,30.696033477783203,21.0,2020-11-10 15:47:16.009,train
371,371,49.64751434326172,49.0,2020-11-10 15:48:16.009,train
372,372,93.1203842163086,114.0,2020-11-10 15:49:16.009,train
373,373,101.46368408203124,75.0,2020-11-10 15:50:16.009,train
374,374,78.51839447021484,136.0,2020-11-10 15:51:16.009,train
375,375,55.30976104736328,72.0,2020-11-10 15:52:16.009,train
376,376,48.56189727783203,50.0,2020-11-10 15:53:16.009,train
377,377,26.02341079711914,23.0,2020-11-10 15:54:16.009,train
378,378,15.903839111328125,4.0,2020-11-10 15:55:16.009,train
379,379,15.269072532653807,15.0,2020-11-10 15:56:16.009,train
380,380,38.74211502075195,46.0,2020-11-10 15:57:16.009,train
381,381,59.03831100463867,80.0,2020-11-10 15:58:16.009,train
382,382,104.13574981689452,112.0,2020-11-10 15:59:16.009,train
383,383,88.01626586914062,103.0,2020-11-10 16:00:16.009,train
384,384,64.1763916015625,81.0,2020-11-10 16:01:16.009,train
385,385,49.74080276489258,58.0,2020-11-10 16:02:16.009,train
386,386,37.25550079345703,32.0,2020-11-10 16:03:16.009,train
387,387,13.914344787597654,14.0,2020-11-10 16:04:16.009,train
388,388,10.36251163482666,8.0,2020-11-10 16:05:16.009,train
389,389,34.152637481689446,39.0,2020-11-10 16:06:16.009,train
390,390,60.31356811523438,74.0,2020-11-10 16:07:16.009,train
391,391,104.7350082397461,99.0,2020-11-10 16:08:16.009,train
392,392,97.50955200195312,111.0,2020-11-10 16:09:16.009,train
393,393,71.7184829711914,85.0,2020-11-10 16:10:16.009,train
394,394,50.35142517089844,65.0,2020-11-10 16:11:16.009,train
395,395,34.63958740234375,44.0,2020-11-10 16:12:16.009,train
396,396,17.085063934326172,11.0,2020-11-10 16:13:16.009,train
397,397,6.70468282699585,9.0,2020-11-10 16:14:16.009,train
398,398,24.72736549377441,26.0,2020-11-10 16:15:16.009,train
399,399,55.52621078491211,55.0,2020-11-10 16:16:16.009,train
400,400,95.4921875,92.0,2020-11-10 16:17:16.009,train
401,401,102.4561996459961,115.0,2020-11-10 16:18:16.009,train
402,402,70.29604339599611,94.0,2020-11-10 16:19:16.009,train
403,403,50.98826217651367,75.0,2020-11-10 16:20:16.009,train
404,404,34.73488235473633,58.0,2020-11-10 16:21:16.009,train
405,405,21.531917572021484,19.0,2020-11-10 16:22:16.009,train
406,406,7.30023717880249,4.0,2020-11-10 16:23:16.009,train
407,407,15.09748077392578,13.0,2020-11-10 16:24:16.009,train
408,408,45.4459457397461,47.0,2020-11-10 16:25:16.009,train
409,409,64.32693481445311,82.0,2020-11-10 16:26:16.009,train
410,410,107.08448028564452,114.0,2020-11-10 16:27:16.009,train
411,411,83.00183868408203,97.0,2020-11-10 16:28:16.009,train
412,412,68.18093872070311,105.0,2020-11-10 16:29:16.009,train
413,413,51.56311798095703,47.0,2020-11-10 16:30:16.009,train
414,414,36.55158615112305,21.0,2020-11-10 16:31:16.009,train
415,415,12.336563110351562,6.0,2020-11-10 16:32:16.009,train
416,416,10.229010581970217,12.0,2020-11-10 16:33:16.009,train
417,417,30.06336212158203,53.0,2020-11-10 16:34:16.009,train
418,418,59.09011840820313,83.0,2020-11-10 16:35:16.009,train
419,419,108.490234375,113.0,2020-11-10 16:36:16.009,train
420,420,89.16944885253906,105.0,2020-11-10 16:37:16.009,train
421,421,66.92844390869139,81.0,2020-11-10 16:38:16.009,train
422,422,52.51801681518555,59.0,2020-11-10 16:39:16.009,train
423,423,34.84355926513672,33.0,2020-11-10 16:40:16.009,train
424,424,9.089396476745604,9.0,2020-11-10 16:41:16.009,train
425,425,13.97935676574707,10.0,2020-11-10 16:42:16.009,train
426,426,42.1190299987793,40.0,2020-11-10 16:43:16.009,train
427,427,67.0987548828125,69.0,2020-11-10 16:44:16.009,train
428,428,109.4080581665039,99.0,2020-11-10 16:45:16.009,train
429,429,100.11968231201172,113.0,2020-11-10 16:46:16.009,train
430,430,75.35545349121094,88.0,2020-11-10 16:47:16.009,train
431,431,52.37831115722656,65.0,2020-11-10 16:48:16.009,train
432,432,35.83085632324219,38.0,2020-11-10 16:49:16.009,train
433,433,17.411794662475586,22.0,2020-11-10 16:50:16.009,train
434,434,5.7333412170410165,4.0,2020-11-10 16:51:16.009,train
435,435,25.57193374633789,19.0,2020-11-10 16:52:16.009,train
436,436,57.56850051879883,47.0,2020-11-10 16:53:16.009,train
437,437,104.39774322509766,117.0,2020-11-10 16:54:16.009,train
438,438,112.20203399658205,114.0,2020-11-10 16:55:16.009,train
439,439,89.20539855957031,95.0,2020-11-10 16:56:16.009,train
440,440,62.02439498901367,71.0,2020-11-10 16:57:16.009,train
441,441,49.496543884277344,50.0,2020-11-10 16:58:16.009,train
442,442,23.24180603027344,26.0,2020-11-10 16:59:16.009,train
443,443,7.506270408630371,5.0,2020-11-10 17:00:16.009,train
444,444,14.993444442749025,16.0,2020-11-10 17:01:16.009,train
445,445,45.22024536132813,49.0,2020-11-10 17:02:16.009,train
446,446,73.39207458496094,81.0,2020-11-10 17:03:16.009,train
447,447,112.04029846191406,108.0,2020-11-10 17:04:16.009,train
448,448,98.57161712646484,105.0,2020-11-10 17:05:16.009,train
449,449,77.33988952636719,80.0,2020-11-10 17:06:16.009,train
450,450,52.60397720336914,59.0,2020-11-10 17:07:16.009,train
451,451,37.013084411621094,38.0,2020-11-10 17:08:16.009,train
452,452,12.63440227508545,7.0,2020-11-10 17:09:16.009,train
453,453,13.460256576538086,15.0,2020-11-10 17:10:16.009,train
454,454,40.8511962890625,33.0,2020-11-10 17:11:16.009,train
455,455,68.41720581054689,68.0,2020-11-10 17:12:16.009,train
456,456,108.85424041748048,102.0,2020-11-10 17:13:16.009,train
457,457,104.91773986816406,113.0,2020-11-10 17:14:16.009,train
458,458,81.61430358886719,88.0,2020-11-10 17:15:16.009,train
459,459,51.97944259643555,81.0,2020-11-10 17:16:16.009,train
460,460,36.214935302734375,32.0,2020-11-10 17:17:16.009,train
461,461,18.869483947753906,9.0,2020-11-10 17:18:16.009,train
462,462,8.193818092346191,7.0,2020-11-10 17:19:16.009,train
463,463,29.81257438659668,23.0,2020-11-10 17:20:16.009,train
464,464,53.97755432128906,85.0,2020-11-10 17:21:16.009,train
465,465,110.96038055419922,103.0,2020-11-10 17:22:16.009,train
466,466,104.20804595947266,108.0,2020-11-10 17:23:16.009,train
467,467,81.36150360107422,111.0,2020-11-10 17:24:16.009,train
468,468,52.97327041625977,59.0,2020-11-10 17:25:16.009,train
469,469,35.52972412109375,33.0,2020-11-10 17:26:16.009,train
470,470,16.019731521606445,11.0,2020-11-10 17:27:16.009,train
471,471,11.79101276397705,6.0,2020-11-10 17:28:16.009,train
472,472,33.70526885986328,25.0,2020-11-10 17:29:16.009,train
473,473,60.21209335327149,85.0,2020-11-10 17:30:16.009,train
474,474,109.44625091552734,97.0,2020-11-10 17:31:16.009,train
475,475,110.9977798461914,112.0,2020-11-10 17:32:16.009,train
476,476,94.94857788085938,86.0,2020-11-10 17:33:16.009,train
477,477,55.60161972045898,66.0,2020-11-10 17:34:16.009,train
478,478,42.47416305541992,40.0,2020-11-10 17:35:16.009,val
479,479,29.58134841918945,18.0,2020-11-10 17:36:16.009,val
480,480,8.072528839111326,5.0,2020-11-10 17:37:16.009,val
481,481,23.339845657348636,19.0,2020-11-10 17:38:16.009,val
482,482,55.98104476928711,64.0,2020-11-10 17:39:16.009,val
483,483,107.7180633544922,65.0,2020-11-10 17:40:16.009,val
484,484,114.20941162109376,146.0,2020-11-10 17:41:16.009,val
485,485,93.09423828125,85.0,2020-11-10 17:42:16.009,val
486,486,60.09381866455078,88.0,2020-11-10 17:43:16.009,val
487,487,44.04854202270508,52.0,2020-11-10 17:44:16.009,val
488,488,32.74704742431641,23.0,2020-11-10 17:45:16.009,val
489,489,8.274688720703125,7.0,2020-11-10 17:46:16.009,val
490,490,25.14980316162109,12.0,2020-11-10 17:47:16.009,val
491,491,51.46818923950195,54.0,2020-11-10 17:48:16.009,val
492,492,88.4358901977539,77.0,2020-11-10 17:49:16.009,val
493,493,118.9642105102539,121.0,2020-11-10 17:50:16.009,val
494,494,103.04850769042969,107.0,2020-11-10 17:51:16.009,val
495,495,84.20480346679688,80.0,2020-11-10 17:52:16.009,val
496,496,51.12246322631836,58.0,2020-11-10 17:53:16.009,val
497,497,36.730613708496094,29.0,2020-11-10 17:54:16.009,val
498,498,8.463648796081543,15.0,2020-11-10 17:55:16.009,val
499,499,22.706745147705078,6.0,2020-11-10 17:56:16.009,val
500,500,51.71263122558594,23.0,2020-11-10 17:57:16.009,val
501,501,85.76211547851562,85.0,2020-11-10 17:58:16.009,val
502,502,119.28726959228516,99.0,2020-11-10 17:59:16.009,val
503,503,109.57183074951172,112.0,2020-11-10 18:00:16.009,val
504,504,94.79719543457031,87.0,2020-11-10 18:01:16.009,val
505,505,57.35613250732422,66.0,2020-11-10 18:02:16.009,val
506,506,41.72312545776367,39.0,2020-11-10 18:03:16.009,val
507,507,23.43815803527832,13.0,2020-11-10 18:04:16.009,val
508,508,7.298951625823975,6.0,2020-11-10 18:05:16.009,val
509,509,29.26706886291504,28.0,2020-11-10 18:06:16.009,val
510,510,60.40631103515625,55.0,2020-11-10 18:07:16.009,val
511,511,112.3333969116211,92.0,2020-11-10 18:08:16.009,val
512,512,114.34625244140624,116.0,2020-11-10 18:09:16.009,val
513,513,91.5848617553711,126.0,2020-11-10 18:10:16.009,val
514,514,51.552467346191406,64.0,2020-11-10 18:11:16.009,val
515,515,35.82714080810547,45.0,2020-11-10 18:12:16.009,val
516,516,18.164630889892575,19.0,2020-11-10 18:13:16.009,val
517,517,8.405903816223145,5.0,2020-11-10 18:14:16.009,val
518,518,29.48897933959961,16.0,2020-11-10 18:15:16.009,val
519,519,59.41211318969727,64.0,2020-11-10 18:16:16.009,val
520,520,102.76815032958984,93.0,2020-11-10 18:17:16.009,val
521,521,121.57991790771484,112.0,2020-11-10 18:18:16.009,val
522,522,101.2950210571289,99.0,2020-11-10 18:19:16.009,val
523,523,74.18401336669922,71.0,2020-11-10 18:20:16.009,val
524,524,48.28686141967773,48.0,2020-11-10 18:21:16.009,val
525,525,27.846879959106445,24.0,2020-11-10 18:22:16.009,val
526,526,7.853118896484375,6.0,2020-11-10 18:23:16.009,val
527,527,26.083179473876953,12.0,2020-11-10 18:24:16.009,val
528,528,58.42995834350586,54.0,2020-11-10 18:25:16.009,val
529,529,105.77375030517578,78.0,2020-11-10 18:26:16.009,val
530,530,121.70252227783205,77.0,2020-11-10 18:27:16.009,val
531,531,101.61531066894531,110.0,2020-11-10 18:28:16.009,val
532,532,84.30970001220703,114.0,2020-11-10 18:29:16.009,val
533,533,50.05862045288086,55.0,2020-11-10 18:30:16.009,val
534,534,36.07484436035156,31.0,2020-11-10 18:31:16.009,val
535,535,19.74542808532715,15.0,2020-11-10 18:32:16.009,val
536,536,9.94396686553955,9.0,2020-11-10 18:33:16.009,val
537,537,35.206153869628906,21.0,2020-11-10 18:34:16.009,val
538,538,65.09387969970703,83.0,2020-11-10 18:35:16.009,val
539,539,116.48556518554688,104.0,2020-11-10 18:36:16.009,val
540,540,113.96475982666016,114.0,2020-11-10 18:37:16.009,val
541,541,93.66072082519531,87.0,2020-11-10 18:38:16.009,val
542,542,57.57887268066406,67.0,2020-11-10 18:39:16.009,val
543,543,42.129539489746094,47.0,2020-11-10 18:40:16.009,val
544,544,19.24327850341797,12.0,2020-11-10 18:41:16.009,val
545,545,10.931417465209961,5.0,2020-11-10 18:42:16.009,val
546,546,38.29883193969727,31.0,2020-11-10 18:43:16.009,val
547,547,68.78195190429689,55.0,2020-11-10 18:44:16.009,val
548,548,106.2975616455078,89.0,2020-11-10 18:45:16.009,val
549,549,116.2192611694336,114.0,2020-11-10 18:46:16.009,val
550,550,95.76538848876952,91.0,2020-11-10 18:47:16.009,val
551,551,51.05591583251953,88.0,2020-11-10 18:48:16.009,val
552,552,34.15567398071289,40.0,2020-11-10 18:49:16.009,val
553,553,19.35089111328125,16.0,2020-11-10 18:50:16.009,val
554,554,9.84315299987793,6.0,2020-11-10 18:51:16.009,val
555,555,39.62236785888672,18.0,2020-11-10 18:52:16.009,val
556,556,60.61307144165039,44.0,2020-11-10 18:53:16.009,val
557,557,115.74861145019531,99.0,2020-11-10 18:54:16.009,val
558,558,114.39495086669922,128.0,2020-11-10 18:55:16.009,val
559,559,86.92990112304688,91.0,2020-11-10 18:56:16.009,val
560,560,58.13203811645508,73.0,2020-11-10 18:57:16.009,val
561,561,46.43394088745117,48.0,2020-11-10 18:58:16.009,val
562,562,22.070735931396484,28.0,2020-11-10 18:59:16.009,val
563,563,8.08477783203125,8.0,2020-11-10 19:00:16.009,val
564,564,38.41874694824219,12.0,2020-11-10 19:01:16.009,val
565,565,68.90271759033203,62.0,2020-11-10 19:02:16.009,val
566,566,110.34236907958984,81.0,2020-11-10 19:03:16.009,val
567,567,121.47482299804688,116.0,2020-11-10 19:04:16.009,val
568,568,99.74222564697266,100.0,2020-11-10 19:05:16.009,val
569,569,82.56936645507812,80.0,2020-11-10 19:06:16.009,val
570,570,48.64794921875,56.0,2020-11-10 19:07:16.009,test
571,571,29.313922882080078,37.0,2020-11-10 19:08:16.009,test
572,572,8.340555191040039,6.0,2020-11-10 19:09:16.009,test
573,573,30.18497467041016,12.0,2020-11-10 19:10:16.009,test
574,574,57.18170166015625,35.0,2020-11-10 19:11:16.009,test
575,575,93.62361907958984,69.0,2020-11-10 19:12:16.009,test
576,576,120.6872329711914,101.0,2020-11-10 19:13:16.009,test
577,577,107.49314880371094,115.0,2020-11-10 19:14:16.009,test
578,578,88.84832763671875,90.0,2020-11-10 19:15:16.009,test
579,579,51.45729446411133,86.0,2020-11-10 19:16:16.009,test
580,580,38.90217208862305,33.0,2020-11-10 19:17:16.009,test
581,581,16.282829284667972,14.0,2020-11-10 19:18:16.009,test
582,582,15.370677947998047,6.0,2020-11-10 19:19:16.009,test
583,583,40.60759735107422,25.0,2020-11-10 19:20:16.009,test
584,584,59.2844123840332,83.0,2020-11-10 19:21:16.009,test
585,585,115.45037078857422,97.0,2020-11-10 19:22:16.009,test
586,586,111.48789978027344,113.0,2020-11-10 19:23:16.009,test
587,587,88.17456817626953,87.0,2020-11-10 19:24:16.009,test
588,588,52.29798889160156,81.0,2020-11-10 19:25:16.009,test
589,589,36.70696640014648,30.0,2020-11-10 19:26:16.009,test
590,590,15.357291221618652,12.0,2020-11-10 19:27:16.009,test
591,591,20.761499404907227,8.0,2020-11-10 19:28:16.009,test
592,592,47.49568176269531,25.0,2020-11-10 19:29:16.009,test
593,593,70.44258117675781,57.0,2020-11-10 19:30:16.009,test
594,594,119.82603454589844,89.0,2020-11-10 19:31:16.009,test
595,595,108.66366577148438,107.0,2020-11-10 19:32:16.009,test
596,596,86.89900207519531,105.0,2020-11-10 19:33:16.009,test
597,597,52.40182495117188,72.0,2020-11-10 19:34:16.009,test
598,598,42.87101364135742,53.0,2020-11-10 19:35:16.009,test
599,599,23.068025588989254,24.0,2020-11-10 19:36:16.009,test
600,600,8.952878952026367,5.0,2020-11-10 19:37:16.009,test
601,601,27.225297927856445,18.0,2020-11-10 19:38:16.009,test
602,602,53.76020812988281,51.0,2020-11-10 19:39:16.009,test
603,603,82.14735412597656,79.0,2020-11-10 19:40:16.009,test
604,604,118.05189514160156,113.0,2020-11-10 19:41:16.009,test
605,605,105.96527862548828,103.0,2020-11-10 19:42:16.009,test
606,606,82.53325653076172,77.0,2020-11-10 19:43:16.009,test
607,607,49.74502182006836,59.0,2020-11-10 19:44:16.009,test
608,608,39.7275276184082,35.0,2020-11-10 19:45:16.009,test
609,609,11.318827629089355,15.0,2020-11-10 19:46:16.009,test
610,610,26.688201904296875,5.0,2020-11-10 19:47:16.009,test
611,611,54.53642272949219,41.0,2020-11-10 19:48:16.009,test
612,612,89.83216857910156,73.0,2020-11-10 19:49:16.009,test
613,613,119.87342834472656,73.0,2020-11-10 19:50:16.009,test
614,614,110.50812530517578,139.0,2020-11-10 19:51:16.009,test
615,615,93.48411560058594,90.0,2020-11-10 19:52:16.009,test
