,Unnamed: 0,time,prediction,step
8088,8088,2020-12-02 15:43:10.692,19644.205,8
8098,8098,2020-12-02 15:43:40.692,19453.438000000002,8
8108,8108,2020-12-02 15:44:10.692,19345.234,8
8118,8118,2020-12-02 15:44:40.692,19183.635,8
8128,8128,2020-12-02 15:45:10.692,19129.045,8
8138,8138,2020-12-02 15:45:40.692,19094.26,8
8148,8148,2020-12-02 15:46:10.692,19243.44,8
8158,8158,2020-12-02 15:46:40.692,19274.086,8
8168,8168,2020-12-02 15:47:10.692,19271.16,8
8178,8178,2020-12-02 15:47:40.692,19218.357,8
8188,8188,2020-12-02 15:48:10.692,19194.252,8
8198,8198,2020-12-02 15:48:40.692,19193.576,8
8208,8208,2020-12-02 15:49:10.692,19184.2,8
8218,8218,2020-12-02 15:49:40.692,19163.54,8
8228,8228,2020-12-02 15:50:10.692,19172.95,8
8238,8238,2020-12-02 15:50:40.692,18543.182,8
8248,8248,2020-12-02 15:51:10.692,17626.828,8
8258,8258,2020-12-02 15:51:40.692,17784.307,8
8268,8268,2020-12-02 15:52:10.692,17995.492,8
8278,8278,2020-12-02 15:52:40.692,18072.818,8
8288,8288,2020-12-02 15:53:10.692,18072.42,8
8298,8298,2020-12-02 15:53:40.692,18448.06,8
8308,8308,2020-12-02 15:54:10.692,18491.879,8
8318,8318,2020-12-02 15:54:40.692,18456.51,8
8328,8328,2020-12-02 15:55:10.692,18435.943,8
8338,8338,2020-12-02 15:55:40.692,18439.52,8
8348,8348,2020-12-02 15:56:10.692,18417.652,8
8358,8358,2020-12-02 15:56:40.692,18420.785,8
8368,8368,2020-12-02 15:57:10.692,18390.531000000003,8
8378,8378,2020-12-02 15:57:40.692,18367.262,8
8388,8388,2020-12-02 15:58:10.692,18372.188000000002,8
8398,8398,2020-12-02 15:58:40.692,18349.447,8
8408,8408,2020-12-02 15:59:10.692,18327.488,8
8418,8418,2020-12-02 15:59:40.692,18330.078,8
8428,8428,2020-12-02 16:00:10.692,18306.355,8
8438,8438,2020-12-02 16:00:40.692,18308.203,8
8448,8448,2020-12-02 16:01:10.692,18288.588,8
8458,8458,2020-12-02 16:01:40.692,18591.193,8
8468,8468,2020-12-02 16:02:10.692,18666.707,8
8478,8478,2020-12-02 16:02:40.692,18676.441000000003,8
8488,8488,2020-12-02 16:03:10.692,18671.805,8
8498,8498,2020-12-02 16:03:40.692,18707.688000000002,8
8508,8508,2020-12-02 16:04:10.692,18735.295,8
8518,8518,2020-12-02 16:04:40.692,18765.016,8
8528,8528,2020-12-02 16:05:10.692,18726.191000000003,8
8538,8538,2020-12-02 16:05:40.692,18710.398,8
8548,8548,2020-12-02 16:06:10.692,18709.27,8
8558,8558,2020-12-02 16:06:40.692,18689.568,8
8568,8568,2020-12-02 16:07:10.692,18642.729,8
8578,8578,2020-12-02 16:07:40.692,18623.906000000003,8
8588,8588,2020-12-02 16:08:10.692,18565.023,8
8598,8598,2020-12-02 16:08:40.692,18508.908,8
8608,8608,2020-12-02 16:09:10.692,18510.053,8
8618,8618,2020-12-02 16:09:40.692,18445.717,8
8628,8628,2020-12-02 16:10:10.692,18448.549,8
8638,8638,2020-12-02 16:10:40.692,18376.896,8
8648,8648,2020-12-02 16:11:10.692,18345.086,8
8658,8658,2020-12-02 16:11:40.692,18437.275,8
8668,8668,2020-12-02 16:12:10.692,18448.814,8
8678,8678,2020-12-02 16:12:40.692,18278.346,8
8688,8688,2020-12-02 16:13:10.692,17930.064,8
8698,8698,2020-12-02 16:13:40.692,17822.558999999997,8
8708,8708,2020-12-02 16:14:10.692,17811.883,8
8718,8718,2020-12-02 16:14:40.692,17791.814,8
8728,8728,2020-12-02 16:15:10.692,17794.28,8
8738,8738,2020-12-02 16:15:40.692,17799.688000000002,8
8748,8748,2020-12-02 16:16:10.692,17822.654,8
8758,8758,2020-12-02 16:16:40.692,17815.67,8
8768,8768,2020-12-02 16:17:10.692,17798.068,8
8778,8778,2020-12-02 16:17:40.692,17783.504,8
8788,8788,2020-12-02 16:18:10.692,17786.25,8
8798,8798,2020-12-02 16:18:40.692,17745.826,8
8808,8808,2020-12-02 16:19:10.692,17760.652,8
8818,8818,2020-12-02 16:19:40.692,17750.195,8
8828,8828,2020-12-02 16:20:10.692,17756.709,8
8838,8838,2020-12-02 16:20:40.692,17732.637,8
8848,8848,2020-12-02 16:21:10.692,17693.047,8
8858,8858,2020-12-02 16:21:40.692,17675.34,8
8868,8868,2020-12-02 16:22:10.692,17649.926,8
8878,8878,2020-12-02 16:22:40.692,17629.498,8
8888,8888,2020-12-02 16:23:10.692,17631.658,8
8898,8898,2020-12-02 16:23:40.692,17613.707,8
8908,8908,2020-12-02 16:24:10.692,17596.504,8
8918,8918,2020-12-02 16:24:40.692,17601.297,8
8928,8928,2020-12-02 16:25:10.692,17911.932,8
8938,8938,2020-12-02 16:25:40.692,17980.293,8
8948,8948,2020-12-02 16:26:10.692,17989.842,8
8958,8958,2020-12-02 16:26:40.692,18058.254,8
8968,8968,2020-12-02 16:27:10.692,18039.943,8
8978,8978,2020-12-02 16:27:40.692,18018.883,8
8988,8988,2020-12-02 16:28:10.692,17997.496,8
8998,8998,2020-12-02 16:28:40.692,17994.912,8
9008,9008,2020-12-02 16:29:10.692,17973.908,8
9018,9018,2020-12-02 16:29:40.692,17970.283,8
9028,9028,2020-12-02 16:30:10.692,17942.49,8
9038,9038,2020-12-02 16:30:40.692,17901.68,8
9048,9048,2020-12-02 16:31:10.692,17900.088,8
9058,9058,2020-12-02 16:31:40.692,17859.305,8
9068,9068,2020-12-02 16:32:10.692,17801.436,8
9078,9078,2020-12-02 16:32:40.692,17804.643,8
9088,9088,2020-12-02 16:33:10.692,17738.72,8
9098,9098,2020-12-02 16:33:40.692,17744.46,8
9108,9108,2020-12-02 16:34:10.692,17676.87,8
9118,9118,2020-12-02 16:34:40.692,17265.676,8
9128,9128,2020-12-02 16:35:10.692,17158.064,8
9138,9138,2020-12-02 16:35:40.692,16975.61,8
9148,9148,2020-12-02 16:36:10.692,16840.096,8
9158,9158,2020-12-02 16:36:40.692,17065.463,8
9168,9168,2020-12-02 16:37:10.692,17120.533,8
9178,9178,2020-12-02 16:37:40.692,17122.299,8
9188,9188,2020-12-02 16:38:10.692,17108.293,8
9198,9198,2020-12-02 16:38:40.692,17144.576,8
9208,9208,2020-12-02 16:39:10.692,17137.51,8
9218,9218,2020-12-02 16:39:40.692,17135.738,8
9228,9228,2020-12-02 16:40:10.692,17114.262,8
9238,9238,2020-12-02 16:40:40.692,17090.975,8
9248,9248,2020-12-02 16:41:10.692,17082.299,8
9258,9258,2020-12-02 16:41:40.692,17061.49,8
9268,9268,2020-12-02 16:42:10.692,17043.367,8
9278,9278,2020-12-02 16:42:40.692,17042.076,8
9288,9288,2020-12-02 16:43:10.692,16992.635,8
9298,9298,2020-12-02 16:43:40.692,17001.658,8
9308,9308,2020-12-02 16:44:10.692,16982.68,8
9318,9318,2020-12-02 16:44:40.692,16965.041,8
9328,9328,2020-12-02 16:45:10.692,16974.146,8
9338,9338,2020-12-02 16:45:40.692,16954.168,8
9348,9348,2020-12-02 16:46:10.692,16936.428,8
9358,9358,2020-12-02 16:46:40.692,16945.797,8
9368,9368,2020-12-02 16:47:10.692,16925.936,8
9378,9378,2020-12-02 16:47:40.692,16908.715,8
9388,9388,2020-12-02 16:48:10.692,16955.172,8
9398,9398,2020-12-02 16:48:40.692,16901.195,8
9408,9408,2020-12-02 16:49:10.692,16867.168,8
9418,9418,2020-12-02 16:49:40.692,16798.617,8
9428,9428,2020-12-02 16:50:10.692,16744.53,8
9438,9438,2020-12-02 16:50:40.692,16755.467,8
9448,9448,2020-12-02 16:51:10.692,16689.182,8
9458,9458,2020-12-02 16:51:40.692,16659.299,8
9468,9468,2020-12-02 16:52:10.692,16670.535,8
9478,9478,2020-12-02 16:52:40.692,16643.824,8
9488,9488,2020-12-02 16:53:10.692,16660.08,8
9498,9498,2020-12-02 16:53:40.692,16629.658,8
9508,9508,2020-12-02 16:54:10.692,16598.746,8
9518,9518,2020-12-02 16:54:40.692,16611.025,8
9528,9528,2020-12-02 16:55:10.692,16582.885,8
9538,9538,2020-12-02 16:55:40.692,16310.746000000001,8
9548,9548,2020-12-02 16:56:10.692,16141.01,8
9558,9558,2020-12-02 16:56:40.692,16126.891000000001,8
9568,9568,2020-12-02 16:57:10.692,16095.277,8
9578,9578,2020-12-02 16:57:40.692,16064.191,8
9588,9588,2020-12-02 16:58:10.692,16064.101,8
9598,9598,2020-12-02 16:58:40.692,16084.005,8
9608,9608,2020-12-02 16:59:10.692,16104.896,8
9618,9618,2020-12-02 16:59:40.692,16093.228000000001,8
9628,9628,2020-12-02 17:00:10.692,16071.465,8
9638,9638,2020-12-02 17:00:40.692,16073.426000000001,8
9648,9648,2020-12-02 17:01:10.692,16056.339,8
9658,9658,2020-12-02 17:01:40.692,16039.261999999999,8
9668,9668,2020-12-02 17:02:10.692,16052.916000000001,8
9678,9678,2020-12-02 17:02:40.692,16039.088,8
9688,9688,2020-12-02 17:03:10.692,16014.917,8
9698,9698,2020-12-02 17:03:40.692,15992.9795,8
9708,9708,2020-12-02 17:04:10.692,15955.264,8
9718,9718,2020-12-02 17:04:40.692,15953.038999999999,8
9728,9728,2020-12-02 17:05:10.692,15934.645,8
9738,9738,2020-12-02 17:05:40.692,15916.925,8
9748,9748,2020-12-02 17:06:10.692,15921.167,8
9758,9758,2020-12-02 17:06:40.692,15903.488000000001,8
9768,9768,2020-12-02 17:07:10.692,15887.062,8
9778,9778,2020-12-02 17:07:40.692,15893.1455,8
9788,9788,2020-12-02 17:08:10.692,15876.697,8
9798,9798,2020-12-02 17:08:40.692,15911.045,8
9808,9808,2020-12-02 17:09:10.692,15870.431999999999,8
9818,9818,2020-12-02 17:09:40.692,16257.562,8
9828,9828,2020-12-02 17:10:10.692,16256.14,8
9838,9838,2020-12-02 17:10:40.692,16265.116000000002,8
9848,9848,2020-12-02 17:11:10.692,16255.642,8
9858,9858,2020-12-02 17:11:40.692,16254.726999999999,8
9868,9868,2020-12-02 17:12:10.692,16237.316,8
9878,9878,2020-12-02 17:12:40.692,16236.358999999999,8
9888,9888,2020-12-02 17:13:10.692,16215.49,8
9898,9898,2020-12-02 17:13:40.692,16184.094,8
9908,9908,2020-12-02 17:14:10.692,16177.855,8
9918,9918,2020-12-02 17:14:40.692,16148.776000000002,8
9928,9928,2020-12-02 17:15:10.692,16108.983,8
9938,9938,2020-12-02 17:15:40.692,16110.263,8
9948,9948,2020-12-02 17:16:10.692,15351.493,8
9958,9958,2020-12-02 17:16:40.692,15121.515,8
9968,9968,2020-12-02 17:17:10.692,15041.872,8
9978,9978,2020-12-02 17:17:40.692,15017.788,8
9988,9988,2020-12-02 17:18:10.692,15024.705,8
9998,9998,2020-12-02 17:18:40.692,15044.513,8
10008,10008,2020-12-02 17:19:10.692,15065.348,8
10018,10018,2020-12-02 17:19:40.692,15047.29,8
10028,10028,2020-12-02 17:20:10.692,15020.31,8
10038,10038,2020-12-02 17:20:40.692,14994.86,8
10048,10048,2020-12-02 17:21:10.692,15016.499,8
10058,10058,2020-12-02 17:21:40.692,14995.489,8
10068,10068,2020-12-02 17:22:10.692,15010.8545,8
10078,10078,2020-12-02 17:22:40.692,14995.345,8
10088,10088,2020-12-02 17:23:10.692,15319.213,8
10098,10098,2020-12-02 17:23:40.692,15302.028,8
10108,10108,2020-12-02 17:24:10.692,15284.916000000001,8
10118,10118,2020-12-02 17:24:40.692,15280.778,8
10128,10128,2020-12-02 17:25:10.692,15264.305,8
10138,10138,2020-12-02 17:25:40.692,15245.435,8
10148,10148,2020-12-02 17:26:10.692,15242.398000000001,8
10158,10158,2020-12-02 17:26:40.692,15225.046,8
10168,10168,2020-12-02 17:27:10.692,15208.917,8
10178,10178,2020-12-02 17:27:40.692,15209.33,8
10188,10188,2020-12-02 17:28:10.692,15196.361,8
10198,10198,2020-12-02 17:28:40.692,15184.618,8
10208,10208,2020-12-02 17:29:10.692,15189.942,8
10218,10218,2020-12-02 17:29:40.692,15184.208999999999,8
10228,10228,2020-12-02 17:30:10.692,15261.798,8
10238,10238,2020-12-02 17:30:40.692,15124.62,8
10248,10248,2020-12-02 17:31:10.692,15054.453000000001,8
10258,10258,2020-12-02 17:31:40.692,15020.25,8
10268,10268,2020-12-02 17:32:10.692,15088.223,8
10278,10278,2020-12-02 17:32:40.692,15090.085,8
10288,10288,2020-12-02 17:33:10.692,15146.271,8
10298,10298,2020-12-02 17:33:40.692,15115.181,8
10308,10308,2020-12-02 17:34:10.692,15079.716,8
10318,10318,2020-12-02 17:34:40.692,14638.846000000001,8
10328,10328,2020-12-02 17:35:10.692,14491.118999999999,8
10338,10338,2020-12-02 17:35:40.692,14461.975,8
10348,10348,2020-12-02 17:36:10.692,14271.786,8
10358,10358,2020-12-02 17:36:40.692,14153.657,8
10368,10368,2020-12-02 17:37:10.692,14049.778999999999,8
10378,10378,2020-12-02 17:37:40.692,14322.6455,8
10388,10388,2020-12-02 17:38:10.692,14377.721000000001,8
10398,10398,2020-12-02 17:38:40.692,14397.183,8
10408,10408,2020-12-02 17:39:10.692,14414.999,8
10418,10418,2020-12-02 17:39:40.692,14419.455,8
10428,10428,2020-12-02 17:40:10.692,14398.606000000002,8
10438,10438,2020-12-02 17:40:40.692,14390.436000000002,8
10448,10448,2020-12-02 17:41:10.692,14370.052,8
10458,10458,2020-12-02 17:41:40.692,14352.382,8
10468,10468,2020-12-02 17:42:10.692,14352.896,8
10478,10478,2020-12-02 17:42:40.692,14335.328000000001,8
10488,10488,2020-12-02 17:43:10.692,14291.708999999999,8
10498,10498,2020-12-02 17:43:40.692,14302.496000000001,8
10508,10508,2020-12-02 17:44:10.692,14285.023000000001,8
10518,10518,2020-12-02 17:44:40.692,14294.986,8
10528,10528,2020-12-02 17:45:10.692,14275.958999999999,8
10538,10538,2020-12-02 17:45:40.692,14258.988000000001,8
10548,10548,2020-12-02 17:46:10.692,14267.777,8
10558,10558,2020-12-02 17:46:40.692,14249.091999999999,8
10568,10568,2020-12-02 17:47:10.692,14232.3125,8
10578,10578,2020-12-02 17:47:40.692,14241.386,8
10588,10588,2020-12-02 17:48:10.692,14223.536,8
10598,10598,2020-12-02 17:48:40.692,14227.7705,8
10608,10608,2020-12-02 17:49:10.692,14174.073,8
10618,10618,2020-12-02 17:49:40.692,14109.385,8
10628,10628,2020-12-02 17:50:10.692,14139.638,8
10638,10638,2020-12-02 17:50:40.692,14075.706,8
10648,10648,2020-12-02 17:51:10.692,14019.018,8
10658,10658,2020-12-02 17:51:40.692,14021.292,8
10668,10668,2020-12-02 17:52:10.692,13981.851,8
10678,10678,2020-12-02 17:52:40.692,13954.903,8
10688,10688,2020-12-02 17:53:10.692,13962.806999999999,8
10698,10698,2020-12-02 17:53:40.692,13687.118999999999,8
10708,10708,2020-12-02 17:54:10.692,13514.091999999999,8
10718,10718,2020-12-02 17:54:40.692,13484.886,8
10728,10728,2020-12-02 17:55:10.692,13453.928,8
10738,10738,2020-12-02 17:55:40.692,13428.09,8
10748,10748,2020-12-02 17:56:10.692,13425.48,8
10758,10758,2020-12-02 17:56:40.692,13438.548999999999,8
10768,10768,2020-12-02 17:57:10.692,13454.261,8
10778,10778,2020-12-02 17:57:40.692,13454.263,8
10788,10788,2020-12-02 17:58:10.692,13435.192,8
10798,10798,2020-12-02 17:58:40.692,13413.108999999999,8
10808,10808,2020-12-02 17:59:10.692,13431.173,8
10818,10818,2020-12-02 17:59:40.692,13417.311000000002,8
10828,10828,2020-12-02 18:00:10.692,13426.098999999998,8
10838,10838,2020-12-02 18:00:40.692,13410.498,8
10848,10848,2020-12-02 18:01:10.692,13387.851,8
10858,10858,2020-12-02 18:01:40.692,13370.635,8
10868,10868,2020-12-02 18:02:10.692,13329.911,8
10878,10878,2020-12-02 18:02:40.692,13308.232,8
10888,10888,2020-12-02 18:03:10.692,13311.059,8
10898,10898,2020-12-02 18:03:40.692,13294.195,8
10908,10908,2020-12-02 18:04:10.692,13300.301000000001,8
10918,10918,2020-12-02 18:04:40.692,13283.161,8
10928,10928,2020-12-02 18:05:10.692,13267.552,8
10938,10938,2020-12-02 18:05:40.692,13274.683,8
10948,10948,2020-12-02 18:06:10.692,13257.899,8
10958,10958,2020-12-02 18:06:40.692,13253.841999999999,8
10968,10968,2020-12-02 18:07:10.692,13241.188999999998,8
10978,10978,2020-12-02 18:07:40.692,13151.383999999998,8
10988,10988,2020-12-02 18:08:10.692,13097.508,8
10998,10998,2020-12-02 18:08:40.692,13075.566,8
11008,11008,2020-12-02 18:09:10.692,13054.166000000001,8
11018,11018,2020-12-02 18:09:40.692,13053.542,8
11028,11028,2020-12-02 18:10:10.692,13033.847,8
11038,11038,2020-12-02 18:10:40.692,13012.058,8
11048,11048,2020-12-02 18:11:10.692,13012.976999999999,8
11058,11058,2020-12-02 18:11:40.692,12924.403,8
11068,11068,2020-12-02 18:12:10.692,12699.208999999999,8
11078,11078,2020-12-02 18:12:40.692,12627.313999999998,8
11088,11088,2020-12-02 18:13:10.692,12558.73,8
11098,11098,2020-12-02 18:13:40.692,12506.358,8
11108,11108,2020-12-02 18:14:10.692,12492.249,8
11118,11118,2020-12-02 18:14:40.692,12494.278999999999,8
11128,11128,2020-12-02 18:15:10.692,12511.901000000002,8
11138,11138,2020-12-02 18:15:40.692,12513.655,8
11148,11148,2020-12-02 18:16:10.692,12495.483999999999,8
11158,11158,2020-12-02 18:16:40.692,12473.291000000001,8
11168,11168,2020-12-02 18:17:10.692,12476.875,8
11178,11178,2020-12-02 18:17:40.692,12468.714,8
11188,11188,2020-12-02 18:18:10.692,12453.535,8
11198,11198,2020-12-02 18:18:40.692,12461.829,8
11208,11208,2020-12-02 18:19:10.692,12446.271999999999,8
11218,11218,2020-12-02 18:19:40.692,12440.288999999999,8
11228,11228,2020-12-02 18:20:10.692,12406.1875,8
11238,11238,2020-12-02 18:20:40.692,12368.687,8
11248,11248,2020-12-02 18:21:10.692,12366.597,8
11258,11258,2020-12-02 18:21:40.692,12350.17,8
11268,11268,2020-12-02 18:22:10.692,12334.392,8
11278,11278,2020-12-02 18:22:40.692,12339.445,8
11288,11288,2020-12-02 18:23:10.692,12323.389,8
11298,11298,2020-12-02 18:23:40.692,12580.764,8
11308,11308,2020-12-02 18:24:10.692,12609.955,8
11318,11318,2020-12-02 18:24:40.692,12611.936000000002,8
11328,11328,2020-12-02 18:25:10.692,12632.428999999998,8
11338,11338,2020-12-02 18:25:40.692,12638.515,8
11348,11348,2020-12-02 18:26:10.692,12385.186000000002,8
11358,11358,2020-12-02 18:26:40.692,12603.972,8
11368,11368,2020-12-02 18:27:10.692,12512.573,8
11378,11378,2020-12-02 18:27:40.692,12481.941,8
11388,11388,2020-12-02 18:28:10.692,12427.063,8
11398,11398,2020-12-02 18:28:40.692,12080.455,8
11408,11408,2020-12-02 18:29:10.692,11813.745,8
11418,11418,2020-12-02 18:29:40.692,11717.052,8
11428,11428,2020-12-02 18:30:10.692,11648.303,8
11438,11438,2020-12-02 18:30:40.692,11611.032,8
11448,11448,2020-12-02 18:31:10.692,11618.475,8
11458,11458,2020-12-02 18:31:40.692,11627.569,8
11468,11468,2020-12-02 18:32:10.692,11610.435,8
11478,11478,2020-12-02 18:32:40.692,11589.712,8
11488,11488,2020-12-02 18:33:10.692,11858.248,8
11498,11498,2020-12-02 18:33:40.692,11877.763,8
11508,11508,2020-12-02 18:34:10.692,11856.213,8
11518,11518,2020-12-02 18:34:40.692,11839.011,8
11528,11528,2020-12-02 18:35:10.692,11840.856000000002,8
11538,11538,2020-12-02 18:35:40.692,11811.628,8
11548,11548,2020-12-02 18:36:10.692,11796.956,8
11558,11558,2020-12-02 18:36:40.692,11801.687,8
11568,11568,2020-12-02 18:37:10.692,11781.816,8
11578,11578,2020-12-02 18:37:40.692,11763.07,8
11588,11588,2020-12-02 18:38:10.692,11764.813,8
11598,11598,2020-12-02 18:38:40.692,11747.434,8
11608,11608,2020-12-02 18:39:10.692,11750.442,8
11618,11618,2020-12-02 18:39:40.692,11733.562,8
11628,11628,2020-12-02 18:40:10.692,11718.57,8
11638,11638,2020-12-02 18:40:40.692,11722.809,8
11648,11648,2020-12-02 18:41:10.692,11709.428,8
11658,11658,2020-12-02 18:41:40.692,11698.627,8
11668,11668,2020-12-02 18:42:10.692,11708.038999999999,8
11678,11678,2020-12-02 18:42:40.692,11706.783000000001,8
11688,11688,2020-12-02 18:43:10.692,11580.489,8
11698,11698,2020-12-02 18:43:40.692,11580.972,8
11708,11708,2020-12-02 18:44:10.692,11557.958999999999,8
11718,11718,2020-12-02 18:44:40.692,11556.231000000002,8
11728,11728,2020-12-02 18:45:10.692,11242.743,8
11738,11738,2020-12-02 18:45:40.692,11086.656,8
11748,11748,2020-12-02 18:46:10.692,11048.206,8
11758,11758,2020-12-02 18:46:40.692,11019.282,8
11768,11768,2020-12-02 18:47:10.692,10998.671999999999,8
11778,11778,2020-12-02 18:47:40.692,10977.375,8
11788,11788,2020-12-02 18:48:10.692,11000.073,8
11798,11798,2020-12-02 18:48:40.692,11014.913999999999,8
11808,11808,2020-12-02 18:49:10.692,11003.39,8
11818,11818,2020-12-02 18:49:40.692,10987.761999999999,8
11828,11828,2020-12-02 18:50:10.692,10963.667,8
11838,11838,2020-12-02 18:50:40.692,10961.903999999999,8
11848,11848,2020-12-02 18:51:10.692,10966.768999999998,8
11858,11858,2020-12-02 18:51:40.692,10950.523000000001,8
11868,11868,2020-12-02 18:52:10.692,10934.965,8
11878,11878,2020-12-02 18:52:40.692,10930.396999999999,8
11888,11888,2020-12-02 18:53:10.692,10897.663,8
11898,11898,2020-12-02 18:53:40.692,10873.481000000002,8
11908,11908,2020-12-02 18:54:10.692,10851.665,8
11918,11918,2020-12-02 18:54:40.692,10835.665,8
11928,11928,2020-12-02 18:55:10.692,10839.408000000001,8
11938,11938,2020-12-02 18:55:40.692,10823.355,8
11948,11948,2020-12-02 18:56:10.692,10808.288,8
11958,11958,2020-12-02 18:56:40.692,10814.376,8
11968,11968,2020-12-02 18:57:10.692,10799.145,8
11978,11978,2020-12-02 18:57:40.692,10780.575,8
11988,11988,2020-12-02 18:58:10.692,10498.733,8
11998,11998,2020-12-02 18:58:40.692,10536.128999999999,8
12008,12008,2020-12-02 18:59:10.692,10580.535,8
12018,12018,2020-12-02 18:59:40.692,10635.357,8
12028,12028,2020-12-02 19:00:10.692,10371.058,8
12038,12038,2020-12-02 19:00:40.692,10204.546999999999,8
12048,12048,2020-12-02 19:01:10.692,10175.565999999999,8
12058,12058,2020-12-02 19:01:40.692,10149.353000000001,8
12068,12068,2020-12-02 19:02:10.692,10129.152,8
12078,12078,2020-12-02 19:02:40.692,10111.802,8
12088,12088,2020-12-02 19:03:10.692,10135.265,8
12098,12098,2020-12-02 19:03:40.692,10149.453000000001,8
12108,12108,2020-12-02 19:04:10.692,10146.78,8
12118,12118,2020-12-02 19:04:40.692,10125.818000000001,8
12128,12128,2020-12-02 19:05:10.692,10100.872,8
12138,12138,2020-12-02 19:05:40.692,10122.188,8
12148,12148,2020-12-02 19:06:10.692,10096.421999999999,8
12158,12158,2020-12-02 19:06:40.692,10074.314,8
12168,12168,2020-12-02 19:07:10.692,10075.685,8
12178,12178,2020-12-02 19:07:40.692,10053.075,8
12188,12188,2020-12-02 19:08:10.692,10031.24,8
12198,12198,2020-12-02 19:08:40.692,9984.1045,8
12208,12208,2020-12-02 19:09:10.692,9961.277,8
12218,12218,2020-12-02 19:09:40.692,9958.994,8
12228,12228,2020-12-02 19:10:10.692,9941.841,8
12238,12238,2020-12-02 19:10:40.692,9925.086,8
12248,12248,2020-12-02 19:11:10.692,9922.278,8
12258,12258,2020-12-02 19:11:40.692,9907.149,8
12268,12268,2020-12-02 19:12:10.692,9905.578000000001,8
12278,12278,2020-12-02 19:12:40.692,9895.463,8
12288,12288,2020-12-02 19:13:10.692,9665.53,8
12298,12298,2020-12-02 19:13:40.692,9717.681,8
12308,12308,2020-12-02 19:14:10.692,9760.911,8
12318,12318,2020-12-02 19:14:40.692,9539.841999999999,8
12328,12328,2020-12-02 19:15:10.692,9375.078000000001,8
12338,12338,2020-12-02 19:15:40.692,9347.412,8
12348,12348,2020-12-02 19:16:10.692,9315.905999999999,8
12358,12358,2020-12-02 19:16:40.692,9294.973,8
12368,12368,2020-12-02 19:17:10.692,9292.188,8
12378,12378,2020-12-02 19:17:40.692,9302.896999999999,8
12388,12388,2020-12-02 19:18:10.692,9316.579,8
12398,12398,2020-12-02 19:18:40.692,9313.984,8
12408,12408,2020-12-02 19:19:10.692,9293.402,8
12418,12418,2020-12-02 19:19:40.692,9280.687,8
12428,12428,2020-12-02 19:20:10.692,9283.661,8
12438,12438,2020-12-02 19:20:40.692,9233.234,8
12448,12448,2020-12-02 19:21:10.692,9231.846,8
12458,12458,2020-12-02 19:21:40.692,9214.0,8
12468,12468,2020-12-02 19:22:10.692,9185.653,8
12478,12478,2020-12-02 19:22:40.692,9136.924,8
12488,12488,2020-12-02 19:23:10.692,9029.519,8
12498,12498,2020-12-02 19:23:40.692,8979.959,8
12508,12508,2020-12-02 19:24:10.692,8950.049,8
12518,12518,2020-12-02 19:24:40.692,8922.913,8
12528,12528,2020-12-02 19:25:10.692,8875.372,8
12538,12538,2020-12-02 19:25:40.692,8862.243,8
12548,12548,2020-12-02 19:26:10.692,8856.593,8
12558,12558,2020-12-02 19:26:40.692,8839.372,8
12568,12568,2020-12-02 19:27:10.692,8926.184000000001,8
12578,12578,2020-12-02 19:27:40.692,9094.655999999999,8
12588,12588,2020-12-02 19:28:10.692,9162.388,8
12598,12598,2020-12-02 19:28:40.692,8738.862,8
12608,12608,2020-12-02 19:29:10.692,8686.379,8
12618,12618,2020-12-02 19:29:40.692,8615.3,8
12628,12628,2020-12-02 19:30:10.692,8561.976999999999,8
12638,12638,2020-12-02 19:30:40.692,8536.05,8
12648,12648,2020-12-02 19:31:10.692,8535.698,8
12658,12658,2020-12-02 19:31:40.692,8543.924,8
12668,12668,2020-12-02 19:32:10.692,8533.667,8
12678,12678,2020-12-02 19:32:40.692,8519.723,8
12688,12688,2020-12-02 19:33:10.692,8495.091999999999,8
12698,12698,2020-12-02 19:33:40.692,8697.498,8
12708,12708,2020-12-02 19:34:10.692,8684.741,8
12718,12718,2020-12-02 19:34:40.692,8294.233,8
12728,12728,2020-12-02 19:35:10.692,8212.907,8
12738,12738,2020-12-02 19:35:40.692,8195.610999999999,8
12748,12748,2020-12-02 19:36:10.692,8184.6187,8
12758,12758,2020-12-02 19:36:40.692,8185.6753,8
12768,12768,2020-12-02 19:37:10.692,8175.2065,8
12778,12778,2020-12-02 19:37:40.692,8166.8555,8
12788,12788,2020-12-02 19:38:10.692,8170.9824,8
12798,12798,2020-12-02 19:38:40.692,8165.4,8
12808,12808,2020-12-02 19:39:10.692,8172.894,8
12818,12818,2020-12-02 19:39:40.692,8169.6494,8
12828,12828,2020-12-02 19:40:10.692,8169.2275,8
12838,12838,2020-12-02 19:40:40.692,8181.4824,8
12848,12848,2020-12-02 19:41:10.692,8183.608,8
12858,12858,2020-12-02 19:41:40.692,8022.0605,8
12868,12868,2020-12-02 19:42:10.692,7847.7637,8
12878,12878,2020-12-02 19:42:40.692,7915.701,8
12888,12888,2020-12-02 19:43:10.692,7974.0327,8
12898,12898,2020-12-02 19:43:40.692,7981.0913,8
12908,12908,2020-12-02 19:44:10.692,7991.107,8
12918,12918,2020-12-02 19:44:40.692,7994.9844,8
12928,12928,2020-12-02 19:45:10.692,7999.0015,8
12938,12938,2020-12-02 19:45:40.692,7981.6934,8
12948,12948,2020-12-02 19:46:10.692,7957.173000000001,8
12958,12958,2020-12-02 19:46:40.692,7953.2905,8
12968,12968,2020-12-02 19:47:10.692,7831.354,8
12978,12978,2020-12-02 19:47:40.692,7728.0796,8
12988,12988,2020-12-02 19:48:10.692,7698.456,8
12998,12998,2020-12-02 19:48:40.692,7666.647,8
13008,13008,2020-12-02 19:49:10.692,7617.6914,8
13018,13018,2020-12-02 19:49:40.692,7494.3633,8
13028,13028,2020-12-02 19:50:10.692,7417.0737,8
13038,13038,2020-12-02 19:50:40.692,7406.991999999999,8
13048,13048,2020-12-02 19:51:10.692,7398.309,8
13058,13058,2020-12-02 19:51:40.692,7394.044,8
13068,13068,2020-12-02 19:52:10.692,7403.164000000001,8
13078,13078,2020-12-02 19:52:40.692,7405.268,8
13088,13088,2020-12-02 19:53:10.692,7413.307,8
13098,13098,2020-12-02 19:53:40.692,7437.488,8
13108,13108,2020-12-02 19:54:10.692,7033.7390000000005,8
13118,13118,2020-12-02 19:54:40.692,6985.3403,8
13128,13128,2020-12-02 19:55:10.692,7126.5376,8
13138,13138,2020-12-02 19:55:40.692,7173.206,8
13148,13148,2020-12-02 19:56:10.692,7192.0503,8
13158,13158,2020-12-02 19:56:40.692,7192.1553,8
13168,13168,2020-12-02 19:57:10.692,7203.2866,8
13178,13178,2020-12-02 19:57:40.692,7213.185,8
13188,13188,2020-12-02 19:58:10.692,7209.3804,8
13198,13198,2020-12-02 19:58:40.692,7189.56,8
13208,13208,2020-12-02 19:59:10.692,7165.8364,8
13218,13218,2020-12-02 19:59:40.692,7031.331999999999,8
13228,13228,2020-12-02 20:00:10.692,6856.2480000000005,8
13238,13238,2020-12-02 20:00:40.692,6811.7173,8
13248,13248,2020-12-02 20:01:10.692,6790.724,8
13258,13258,2020-12-02 20:01:40.692,6753.2324,8
13268,13268,2020-12-02 20:02:10.692,6687.3438,8
13278,13278,2020-12-02 20:02:40.692,6654.986,8
13288,13288,2020-12-02 20:03:10.692,6642.178000000001,8
13298,13298,2020-12-02 20:03:40.692,6634.3076,8
13308,13308,2020-12-02 20:04:10.692,6642.323,8
13318,13318,2020-12-02 20:04:40.692,6641.996999999999,8
13328,13328,2020-12-02 20:05:10.692,6532.218000000001,8
13338,13338,2020-12-02 20:05:40.692,6464.793000000001,8
13348,13348,2020-12-02 20:06:10.692,6353.746999999999,8
13358,13358,2020-12-02 20:06:40.692,6473.304,8
13368,13368,2020-12-02 20:07:10.692,6449.4707,8
13378,13378,2020-12-02 20:07:40.692,6439.481,8
13388,13388,2020-12-02 20:08:10.692,6457.3823,8
13398,13398,2020-12-02 20:08:40.692,6498.7764,8
13408,13408,2020-12-02 20:09:10.692,6488.5396,8
13418,13418,2020-12-02 20:09:40.692,6467.6353,8
13428,13428,2020-12-02 20:10:10.692,6452.9980000000005,8
13438,13438,2020-12-02 20:10:40.692,6189.436,8
13448,13448,2020-12-02 20:11:10.692,6100.445,8
13458,13458,2020-12-02 20:11:40.692,6069.168000000001,8
13468,13468,2020-12-02 20:12:10.692,6044.393,8
13478,13478,2020-12-02 20:12:40.692,6021.9893,8
13488,13488,2020-12-02 20:13:10.692,5979.241999999999,8
13498,13498,2020-12-02 20:13:40.692,5947.9893,8
13508,13508,2020-12-02 20:14:10.692,5945.6255,8
13518,13518,2020-12-02 20:14:40.692,5940.071999999999,8
13528,13528,2020-12-02 20:15:10.692,5943.1763,8
13538,13538,2020-12-02 20:15:40.692,5955.8325,8
13548,13548,2020-12-02 20:16:10.692,5807.8154,8
13558,13558,2020-12-02 20:16:40.692,5816.9746,8
13568,13568,2020-12-02 20:17:10.692,5517.4,8
13578,13578,2020-12-02 20:17:40.692,5789.558000000001,8
13588,13588,2020-12-02 20:18:10.692,5753.875,8
13598,13598,2020-12-02 20:18:40.692,5749.2646,8
13608,13608,2020-12-02 20:19:10.692,5767.105,8
13618,13618,2020-12-02 20:19:40.692,5802.209,8
13628,13628,2020-12-02 20:20:10.692,5797.7363,8
13638,13638,2020-12-02 20:20:40.692,5778.7124,8
13648,13648,2020-12-02 20:21:10.692,5940.892,8
13658,13658,2020-12-02 20:21:40.692,5903.4316,8
13668,13668,2020-12-02 20:22:10.692,5597.1743,8
13678,13678,2020-12-02 20:22:40.692,5528.6157,8
13688,13688,2020-12-02 20:23:10.692,5511.465999999999,8
13698,13698,2020-12-02 20:23:40.692,5492.225,8
13708,13708,2020-12-02 20:24:10.692,5497.982,8
13718,13718,2020-12-02 20:24:40.692,5491.4434,8
13728,13728,2020-12-02 20:25:10.692,5501.6826,8
13738,13738,2020-12-02 20:25:40.692,5499.562,8
13748,13748,2020-12-02 20:26:10.692,5338.2485,8
13758,13758,2020-12-02 20:26:40.692,5305.976,8
13768,13768,2020-12-02 20:27:10.692,5343.672,8
13778,13778,2020-12-02 20:27:40.692,5346.213000000001,8
13788,13788,2020-12-02 20:28:10.692,5340.236999999999,8
13798,13798,2020-12-02 20:28:40.692,5269.9624,8
13808,13808,2020-12-02 20:29:10.692,5286.6836,8
13818,13818,2020-12-02 20:29:40.692,5292.813,8
13828,13828,2020-12-02 20:30:10.692,5295.6772,8
13838,13838,2020-12-02 20:30:40.692,5290.861,8
13848,13848,2020-12-02 20:31:10.692,5228.4220000000005,8
13858,13858,2020-12-02 20:31:40.692,4961.9673,8
13868,13868,2020-12-02 20:32:10.692,4925.2544,8
13878,13878,2020-12-02 20:32:40.692,4913.491,8
13888,13888,2020-12-02 20:33:10.692,4893.745,8
13898,13898,2020-12-02 20:33:40.692,4862.0596,8
13908,13908,2020-12-02 20:34:10.692,4826.5347,8
13918,13918,2020-12-02 20:34:40.692,4793.1646,8
13928,13928,2020-12-02 20:35:10.692,4682.545,8
13938,13938,2020-12-02 20:35:40.692,4613.8564,8
13948,13948,2020-12-02 20:36:10.692,4663.9165,8
13958,13958,2020-12-02 20:36:40.692,4668.2915,8
13968,13968,2020-12-02 20:37:10.692,4662.5225,8
13978,13978,2020-12-02 20:37:40.692,4627.2866,8
13988,13988,2020-12-02 20:38:10.692,4600.378,8
13998,13998,2020-12-02 20:38:40.692,4602.852,8
14008,14008,2020-12-02 20:39:10.692,4604.248,8
14018,14018,2020-12-02 20:39:40.692,4599.2236,8
14028,14028,2020-12-02 20:40:10.692,4602.318,8
14038,14038,2020-12-02 20:40:40.692,4299.782,8
14048,14048,2020-12-02 20:41:10.692,4260.5073,8
14058,14058,2020-12-02 20:41:40.692,4234.619000000001,8
14068,14068,2020-12-02 20:42:10.692,4213.3784,8
14078,14078,2020-12-02 20:42:40.692,4197.3228,8
14088,14088,2020-12-02 20:43:10.692,4164.3457,8
14098,14098,2020-12-02 20:43:40.692,4051.4744,8
14108,14108,2020-12-02 20:44:10.692,3986.3445,8
14118,14118,2020-12-02 20:44:40.692,4033.1804,8
14128,14128,2020-12-02 20:45:10.692,4041.0867,8
14138,14138,2020-12-02 20:45:40.692,4025.965,8
14148,14148,2020-12-02 20:46:10.692,4014.887,8
14158,14158,2020-12-02 20:46:40.692,3984.7603,8
14168,14168,2020-12-02 20:47:10.692,3971.6553,8
14178,14178,2020-12-02 20:47:40.692,3977.7114,8
14188,14188,2020-12-02 20:48:10.692,3976.7803,8
14198,14198,2020-12-02 20:48:40.692,3834.2166,8
14208,14208,2020-12-02 20:49:10.692,3630.1104,8
14218,14218,2020-12-02 20:49:40.692,3638.9336,8
14228,14228,2020-12-02 20:50:10.692,3623.7722,8
14238,14238,2020-12-02 20:50:40.692,3603.2790000000005,8
14248,14248,2020-12-02 20:51:10.692,3481.335,8
14258,14258,2020-12-02 20:51:40.692,3376.0498,8
14268,14268,2020-12-02 20:52:10.692,3419.8564,8
14278,14278,2020-12-02 20:52:40.692,3452.8759999999997,8
14288,14288,2020-12-02 20:53:10.692,3443.1274,8
14298,14298,2020-12-02 20:53:40.692,3429.9153,8
14308,14308,2020-12-02 20:54:10.692,3407.9312,8
14318,14318,2020-12-02 20:54:40.692,3386.0256,8
14328,14328,2020-12-02 20:55:10.692,3386.0676,8
14338,14338,2020-12-02 20:55:40.692,3397.4363,8
14348,14348,2020-12-02 20:56:10.692,3139.538,8
14358,14358,2020-12-02 20:56:40.692,2987.907,8
14368,14368,2020-12-02 20:57:10.692,3032.3435,8
14378,14378,2020-12-02 20:57:40.692,2867.8235,8
14388,14388,2020-12-02 20:58:10.692,2930.0815,8
14398,14398,2020-12-02 20:58:40.692,2980.9258,8
14408,14408,2020-12-02 20:59:10.692,3003.9639,8
14418,14418,2020-12-02 20:59:40.692,2993.7909999999997,8
14428,14428,2020-12-02 21:00:10.692,2872.605,8
14438,14438,2020-12-02 21:00:40.692,2478.694,8
14448,14448,2020-12-02 21:01:10.692,2499.6665,8
14458,14458,2020-12-02 21:01:40.692,2922.2354,8
14468,14468,2020-12-02 21:02:10.692,2827.3704,8
14478,14478,2020-12-02 21:02:40.692,2598.9610000000002,8
14488,14488,2020-12-02 21:03:10.692,2540.768,8
14498,14498,2020-12-02 21:03:40.692,2098.172,8
14508,14508,2020-12-02 21:04:10.692,2057.5488,8
14518,14518,2020-12-02 21:04:40.692,2292.5981,8
14528,14528,2020-12-02 21:05:10.692,2454.0862,8
14538,14538,2020-12-02 21:05:40.692,2494.3225,8
14548,14548,2020-12-02 21:06:10.692,2481.2485,8
14558,14558,2020-12-02 21:06:40.692,2450.8862,8
14568,14568,2020-12-02 21:07:10.692,2429.888,8
14578,14578,2020-12-02 21:07:40.692,2413.3816,8
14588,14588,2020-12-02 21:08:10.692,2411.1624,8
14598,14598,2020-12-02 21:08:40.692,2427.1567,8
14608,14608,2020-12-02 21:09:10.692,1893.0494,8
14618,14618,2020-12-02 21:09:40.692,1531.9365,8
14628,14628,2020-12-02 21:10:10.692,1755.3026,8
14638,14638,2020-12-02 21:10:40.692,1900.7415,8
14648,14648,2020-12-02 21:11:10.692,1918.0947,8
14658,14658,2020-12-02 21:11:40.692,1907.9309,8
14668,14668,2020-12-02 21:12:10.692,1893.905,8
14678,14678,2020-12-02 21:12:40.692,1903.3116,8
14688,14688,2020-12-02 21:13:10.692,1919.0602,8
14698,14698,2020-12-02 21:13:40.692,1465.4282,8
14708,14708,2020-12-02 21:14:10.692,1068.7012,8
14718,14718,2020-12-02 21:14:40.692,1235.7748,8
14728,14728,2020-12-02 21:15:10.692,1388.1582,8
14738,14738,2020-12-02 21:15:40.692,1404.001,8
14748,14748,2020-12-02 21:16:10.692,1371.85,8
14758,14758,2020-12-02 21:16:40.692,596.5249,8
14768,14768,2020-12-02 21:17:10.692,559.4464,8
