,Unnamed: 0,time,prediction,step
2,2,2021-02-15 08:58:42.460,1845.8218,2
12,12,2021-02-15 08:59:12.460,1856.8108,2
22,22,2021-02-15 08:59:42.460,1869.9536,2
32,32,2021-02-15 09:00:12.460,1885.0620000000001,2
42,42,2021-02-15 09:00:42.460,1902.7518,2
52,52,2021-02-15 09:01:12.460,1924.2357,2
62,62,2021-02-15 09:01:42.460,1944.5292,2
72,72,2021-02-15 09:02:12.460,1976.5636,2
82,82,2021-02-15 09:02:42.460,2011.7219,2
92,92,2021-02-15 09:03:12.460,2046.7708,2
102,102,2021-02-15 09:03:42.460,2079.7983,2
112,112,2021-02-15 09:04:12.460,2115.6611,2
122,122,2021-02-15 09:04:42.460,2151.75,2
132,132,2021-02-15 09:05:12.460,2186.301,2
142,142,2021-02-15 09:05:42.460,2219.7732,2
152,152,2021-02-15 09:06:12.460,2254.522,2
162,162,2021-02-15 09:06:42.460,2288.8682,2
172,172,2021-02-15 09:07:12.460,2309.3687,2
182,182,2021-02-15 09:07:42.460,2330.2317,2
192,192,2021-02-15 09:08:12.460,2343.2573,2
202,202,2021-02-15 09:08:42.460,2356.3015,2
212,212,2021-02-15 09:09:12.460,2369.1577,2
222,222,2021-02-15 09:09:42.460,2386.9685,2
232,232,2021-02-15 09:10:12.460,2404.4829999999997,2
242,242,2021-02-15 09:10:42.460,2420.9717,2
252,252,2021-02-15 09:11:12.460,2435.6846,2
262,262,2021-02-15 09:11:42.460,2449.8848,2
272,272,2021-02-15 09:12:12.460,2468.7798,2
282,282,2021-02-15 09:12:42.460,2485.9570000000003,2
292,292,2021-02-15 09:13:12.460,2503.1074,2
302,302,2021-02-15 09:13:42.460,2519.82,2
312,312,2021-02-15 09:14:12.460,2549.1545,2
322,322,2021-02-15 09:14:42.460,2579.2847,2
332,332,2021-02-15 09:15:12.460,2608.2666,2
342,342,2021-02-15 09:15:42.460,2636.5417,2
352,352,2021-02-15 09:16:12.460,2664.5156,2
362,362,2021-02-15 09:16:42.460,2692.5952,2
372,372,2021-02-15 09:17:12.460,2724.199,2
382,382,2021-02-15 09:17:42.460,2755.7058,2
392,392,2021-02-15 09:18:12.460,2786.7498,2
402,402,2021-02-15 09:18:42.460,2818.188,2
412,412,2021-02-15 09:19:12.460,2834.2437,2
422,422,2021-02-15 09:19:42.460,2846.192,2
432,432,2021-02-15 09:20:12.460,2859.1033,2
442,442,2021-02-15 09:20:42.460,2873.1672,2
452,452,2021-02-15 09:21:12.460,2887.2527,2
462,462,2021-02-15 09:21:42.460,2902.9990000000003,2
472,472,2021-02-15 09:22:12.460,2917.3008,2
482,482,2021-02-15 09:22:42.460,2930.8735,2
492,492,2021-02-15 09:23:12.460,2944.5209999999997,2
502,502,2021-02-15 09:23:42.460,2958.4970000000003,2
512,512,2021-02-15 09:24:12.460,2971.6301,2
522,522,2021-02-15 09:24:42.460,2990.3274,2
532,532,2021-02-15 09:25:12.460,3009.8853,2
542,542,2021-02-15 09:25:42.460,3029.2217,2
552,552,2021-02-15 09:26:12.460,3048.5962,2
562,562,2021-02-15 09:26:42.460,3068.8759999999997,2
572,572,2021-02-15 09:27:12.460,3089.7754,2
582,582,2021-02-15 09:27:42.460,3110.9429999999998,2
592,592,2021-02-15 09:28:12.460,3132.848,2
602,602,2021-02-15 09:28:42.460,3163.3557,2
612,612,2021-02-15 09:29:12.460,3198.1934,2
622,622,2021-02-15 09:29:42.460,3233.583,2
632,632,2021-02-15 09:30:12.460,3268.8190000000004,2
642,642,2021-02-15 09:30:42.460,3304.107,2
652,652,2021-02-15 09:31:12.460,3322.7969,2
662,662,2021-02-15 09:31:42.460,3342.8882,2
672,672,2021-02-15 09:32:12.460,3364.2263,2
682,682,2021-02-15 09:32:42.460,3386.7493,2
692,692,2021-02-15 09:33:12.460,3410.2212,2
702,702,2021-02-15 09:33:42.460,3435.033,2
712,712,2021-02-15 09:34:12.460,3453.9348,2
722,722,2021-02-15 09:34:42.460,3469.0217,2
732,732,2021-02-15 09:35:12.460,3483.5515,2
742,742,2021-02-15 09:35:42.460,3498.8396,2
752,752,2021-02-15 09:36:12.460,3513.6775,2
762,762,2021-02-15 09:36:42.460,3528.2712,2
772,772,2021-02-15 09:37:12.460,3547.9065,2
782,782,2021-02-15 09:37:42.460,3567.5632,2
792,792,2021-02-15 09:38:12.460,3588.0615,2
802,802,2021-02-15 09:38:42.460,3609.0269,2
812,812,2021-02-15 09:39:12.460,3630.0747,2
822,822,2021-02-15 09:39:42.460,3652.1108,2
832,832,2021-02-15 09:40:12.460,3674.7817,2
842,842,2021-02-15 09:40:42.460,3705.3992,2
852,852,2021-02-15 09:41:12.460,3736.0938,2
862,862,2021-02-15 09:41:42.460,3766.8171,2
872,872,2021-02-15 09:42:12.460,3796.7935,2
882,882,2021-02-15 09:42:42.460,3827.6653,2
892,892,2021-02-15 09:43:12.460,3858.6284,2
902,902,2021-02-15 09:43:42.460,3876.0168,2
912,912,2021-02-15 09:44:12.460,3894.531,2
922,922,2021-02-15 09:44:42.460,3915.1135,2
932,932,2021-02-15 09:45:12.460,3937.0483,2
942,942,2021-02-15 09:45:42.460,3959.685,2
952,952,2021-02-15 09:46:12.460,3975.9438,2
962,962,2021-02-15 09:46:42.460,3992.7556,2
972,972,2021-02-15 09:47:12.460,4009.5215,2
982,982,2021-02-15 09:47:42.460,4026.9320000000002,2
992,992,2021-02-15 09:48:12.460,4044.9829999999997,2
1002,1002,2021-02-15 09:48:42.460,4063.6409999999996,2
1012,1012,2021-02-15 09:49:12.460,4082.8433,2
1022,1022,2021-02-15 09:49:42.460,4102.5195,2
1032,1032,2021-02-15 09:50:12.460,4122.1597,2
1042,1042,2021-02-15 09:50:42.460,4142.6167,2
1052,1052,2021-02-15 09:51:12.460,4162.8145,2
1062,1062,2021-02-15 09:51:42.460,4183.141,2
1072,1072,2021-02-15 09:52:12.460,4204.0825,2
1082,1082,2021-02-15 09:52:42.460,4233.2964,2
1092,1092,2021-02-15 09:53:12.460,4262.4443,2
1102,1102,2021-02-15 09:53:42.460,4291.6895,2
1112,1112,2021-02-15 09:54:12.460,4321.128,2
1122,1122,2021-02-15 09:54:42.460,4333.755999999999,2
1132,1132,2021-02-15 09:55:12.460,4342.0586,2
1142,1142,2021-02-15 09:55:42.460,4355.5806,2
1152,1152,2021-02-15 09:56:12.460,4371.3657,2
1162,1162,2021-02-15 09:56:42.460,4387.7236,2
1172,1172,2021-02-15 09:57:12.460,4406.045999999999,2
1182,1182,2021-02-15 09:57:42.460,4426.2715,2
1192,1192,2021-02-15 09:58:12.460,4447.4927,2
1202,1202,2021-02-15 09:58:42.460,4461.815,2
1212,1212,2021-02-15 09:59:12.460,4476.5537,2
1222,1222,2021-02-15 09:59:42.460,4492.01,2
1232,1232,2021-02-15 10:00:12.460,4509.1094,2
1242,1242,2021-02-15 10:00:42.460,4533.719,2
1252,1252,2021-02-15 10:01:12.460,4558.267,2
1262,1262,2021-02-15 10:01:42.460,4584.037,2
1272,1272,2021-02-15 10:02:12.460,4608.967000000001,2
1282,1282,2021-02-15 10:02:42.460,4634.3896,2
1292,1292,2021-02-15 10:03:12.460,4660.4,2
1302,1302,2021-02-15 10:03:42.460,4687.0576,2
1312,1312,2021-02-15 10:04:12.460,4714.3859999999995,2
1322,1322,2021-02-15 10:04:42.460,4742.388,2
1332,1332,2021-02-15 10:05:12.460,4754.6943,2
1342,1342,2021-02-15 10:05:42.460,4768.7227,2
1352,1352,2021-02-15 10:06:12.460,4783.432,2
1362,1362,2021-02-15 10:06:42.460,4799.7266,2
1372,1372,2021-02-15 10:07:12.460,4818.2026,2
1382,1382,2021-02-15 10:07:42.460,4840.598,2
1392,1392,2021-02-15 10:08:12.460,4864.6140000000005,2
1402,1402,2021-02-15 10:08:42.460,4890.1323,2
1412,1412,2021-02-15 10:09:12.460,4916.43,2
1422,1422,2021-02-15 10:09:42.460,4937.6759999999995,2
1432,1432,2021-02-15 10:10:12.460,4961.5854,2
1442,1442,2021-02-15 10:10:42.460,4984.837,2
1452,1452,2021-02-15 10:11:12.460,5009.3640000000005,2
1462,1462,2021-02-15 10:11:42.460,5033.0776,2
1472,1472,2021-02-15 10:12:12.460,5056.538,2
1482,1482,2021-02-15 10:12:42.460,5080.856,2
1492,1492,2021-02-15 10:13:12.460,5104.22,2
1502,1502,2021-02-15 10:13:42.460,5128.354,2
1512,1512,2021-02-15 10:14:12.460,5152.8916,2
1522,1522,2021-02-15 10:14:42.460,5177.4287,2
1532,1532,2021-02-15 10:15:12.460,5202.8496,2
1542,1542,2021-02-15 10:15:42.460,5232.537,2
1552,1552,2021-02-15 10:16:12.460,5251.075,2
1562,1562,2021-02-15 10:16:42.460,5271.986,2
1572,1572,2021-02-15 10:17:12.460,5293.3154,2
1582,1582,2021-02-15 10:17:42.460,5315.9106,2
1592,1592,2021-02-15 10:18:12.460,5339.701999999999,2
1602,1602,2021-02-15 10:18:42.460,5364.6255,2
1612,1612,2021-02-15 10:19:12.460,5390.6274,2
1622,1622,2021-02-15 10:19:42.460,5417.6465,2
1632,1632,2021-02-15 10:20:12.460,5436.725,2
1642,1642,2021-02-15 10:20:42.460,5456.0522,2
1652,1652,2021-02-15 10:21:12.460,5474.54,2
1662,1662,2021-02-15 10:21:42.460,5493.8640000000005,2
1672,1672,2021-02-15 10:22:12.460,5513.7856,2
1682,1682,2021-02-15 10:22:42.460,5532.7476,2
1692,1692,2021-02-15 10:23:12.460,5551.8516,2
1702,1702,2021-02-15 10:23:42.460,5571.8257,2
1712,1712,2021-02-15 10:24:12.460,5590.8965,2
1722,1722,2021-02-15 10:24:42.460,5610.7993,2
1732,1732,2021-02-15 10:25:12.460,5636.1064,2
1742,1742,2021-02-15 10:25:42.460,5661.0419999999995,2
1752,1752,2021-02-15 10:26:12.460,5671.2085,2
1762,1762,2021-02-15 10:26:42.460,5682.8438,2
1772,1772,2021-02-15 10:27:12.460,5695.031,2
1782,1782,2021-02-15 10:27:42.460,5709.6523,2
1792,1792,2021-02-15 10:28:12.460,5724.852,2
1802,1802,2021-02-15 10:28:42.460,5741.602,2
1812,1812,2021-02-15 10:29:12.460,5760.5146,2
1822,1822,2021-02-15 10:29:42.460,5785.318,2
1832,1832,2021-02-15 10:30:12.460,5812.02,2
1842,1842,2021-02-15 10:30:42.460,5840.512,2
1852,1852,2021-02-15 10:31:12.460,5861.759,2
1862,1862,2021-02-15 10:31:42.460,5884.7827,2
1872,1872,2021-02-15 10:32:12.460,5907.964,2
1882,1882,2021-02-15 10:32:42.460,5930.9663,2
1892,1892,2021-02-15 10:33:12.460,5955.1777,2
1902,1902,2021-02-15 10:33:42.460,5979.9580000000005,2
1912,1912,2021-02-15 10:34:12.460,6004.7390000000005,2
1922,1922,2021-02-15 10:34:42.460,6031.022,2
1932,1932,2021-02-15 10:35:12.460,6057.4263,2
1942,1942,2021-02-15 10:35:42.460,6068.6445,2
1952,1952,2021-02-15 10:36:12.460,6081.057,2
1962,1962,2021-02-15 10:36:42.460,6094.8945,2
1972,1972,2021-02-15 10:37:12.460,6110.8755,2
1982,1982,2021-02-15 10:37:42.460,6128.071999999999,2
1992,1992,2021-02-15 10:38:12.460,6146.2446,2
2002,2002,2021-02-15 10:38:42.460,6166.898,2
2012,2012,2021-02-15 10:39:12.460,6193.4204,2
2022,2022,2021-02-15 10:39:42.460,6221.0835,2
2032,2032,2021-02-15 10:40:12.460,6250.743,2
2042,2042,2021-02-15 10:40:42.460,6279.775,2
2052,2052,2021-02-15 10:41:12.460,6300.948,2
2062,2062,2021-02-15 10:41:42.460,6322.357,2
2072,2072,2021-02-15 10:42:12.460,6342.842,2
2082,2082,2021-02-15 10:42:42.460,6364.608,2
2092,2092,2021-02-15 10:43:12.460,6385.531,2
2102,2102,2021-02-15 10:43:42.460,6406.8794,2
2112,2112,2021-02-15 10:44:12.460,6429.9106,2
2122,2122,2021-02-15 10:44:42.460,6435.843000000001,2
2132,2132,2021-02-15 10:45:12.460,6443.2656,2
2142,2142,2021-02-15 10:45:42.460,6453.2446,2
2152,2152,2021-02-15 10:46:12.460,6463.7046,2
2162,2162,2021-02-15 10:46:42.460,6472.746,2
2172,2172,2021-02-15 10:47:12.460,6494.6455,2
2182,2182,2021-02-15 10:47:42.460,6513.954000000001,2
2192,2192,2021-02-15 10:48:12.460,6531.67,2
2202,2202,2021-02-15 10:48:42.460,6551.763000000001,2
2212,2212,2021-02-15 10:49:12.460,6572.6772,2
2222,2222,2021-02-15 10:49:42.460,6595.5234,2
2232,2232,2021-02-15 10:50:12.460,6619.6333,2
2242,2242,2021-02-15 10:50:42.460,6635.241,2
2252,2252,2021-02-15 10:51:12.460,6651.5957,2
2262,2262,2021-02-15 10:51:42.460,6673.639,2
2272,2272,2021-02-15 10:52:12.460,6696.7466,2
2282,2282,2021-02-15 10:52:42.460,6720.709,2
2292,2292,2021-02-15 10:53:12.460,6728.089,2
2302,2302,2021-02-15 10:53:42.460,6736.911,2
2312,2312,2021-02-15 10:54:12.460,6750.638000000001,2
2322,2322,2021-02-15 10:54:42.460,6766.281,2
2332,2332,2021-02-15 10:55:12.460,6784.226,2
2342,2342,2021-02-15 10:55:42.460,6798.8687,2
2352,2352,2021-02-15 10:56:12.460,6815.9526,2
2362,2362,2021-02-15 10:56:42.460,6835.1367,2
2372,2372,2021-02-15 10:57:12.460,6860.911999999999,2
2382,2382,2021-02-15 10:57:42.460,6888.5903,2
2392,2392,2021-02-15 10:58:12.460,6917.513000000001,2
2402,2402,2021-02-15 10:58:42.460,6947.7817,2
2412,2412,2021-02-15 10:59:12.460,6979.4165,2
2422,2422,2021-02-15 10:59:42.460,7000.6436,2
2432,2432,2021-02-15 11:00:12.460,7022.6753,2
2442,2442,2021-02-15 11:00:42.460,7044.994000000001,2
2452,2452,2021-02-15 11:01:12.460,7067.4854,2
2462,2462,2021-02-15 11:01:42.460,7077.5215,2
2472,2472,2021-02-15 11:02:12.460,7094.3330000000005,2
2482,2482,2021-02-15 11:02:42.460,7110.1904,2
2492,2492,2021-02-15 11:03:12.460,7125.852,2
2502,2502,2021-02-15 11:03:42.460,7143.4116,2
2512,2512,2021-02-15 11:04:12.460,7161.5474,2
2522,2522,2021-02-15 11:04:42.460,7181.799,2
2532,2532,2021-02-15 11:05:12.460,7203.5327,2
2542,2542,2021-02-15 11:05:42.460,7226.1074,2
2552,2552,2021-02-15 11:06:12.460,7250.7095,2
2562,2562,2021-02-15 11:06:42.460,7279.044,2
2572,2572,2021-02-15 11:07:12.460,7307.9985,2
2582,2582,2021-02-15 11:07:42.460,7338.0728,2
2592,2592,2021-02-15 11:08:12.460,7360.765,2
2602,2602,2021-02-15 11:08:42.460,7383.635,2
2612,2612,2021-02-15 11:09:12.460,7407.092,2
2622,2622,2021-02-15 11:09:42.460,7419.4053,2
2632,2632,2021-02-15 11:10:12.460,7429.3525,2
2642,2642,2021-02-15 11:10:42.460,7436.8223,2
2652,2652,2021-02-15 11:11:12.460,7445.389,2
2662,2662,2021-02-15 11:11:42.460,7455.14,2
2672,2672,2021-02-15 11:12:12.460,7469.7046,2
2682,2682,2021-02-15 11:12:42.460,7485.9736,2
2692,2692,2021-02-15 11:13:12.460,7503.9844,2
2702,2702,2021-02-15 11:13:42.460,7523.741,2
2712,2712,2021-02-15 11:14:12.460,7545.2134,2
2722,2722,2021-02-15 11:14:42.460,7571.8657,2
2732,2732,2021-02-15 11:15:12.460,7600.7383,2
2742,2742,2021-02-15 11:15:42.460,7630.376,2
2752,2752,2021-02-15 11:16:12.460,7660.3027,2
2762,2762,2021-02-15 11:16:42.460,7686.3027,2
2772,2772,2021-02-15 11:17:12.460,7695.4473,2
2782,2782,2021-02-15 11:17:42.460,7704.581999999999,2
2792,2792,2021-02-15 11:18:12.460,7716.101,2
2802,2802,2021-02-15 11:18:42.460,7729.2305,2
2812,2812,2021-02-15 11:19:12.460,7746.959,2
2822,2822,2021-02-15 11:19:42.460,7767.254,2
2832,2832,2021-02-15 11:20:12.460,7788.556,2
2842,2842,2021-02-15 11:20:42.460,7811.124,2
2852,2852,2021-02-15 11:21:12.460,7836.2217,2
2862,2862,2021-02-15 11:21:42.460,7862.1914,2
2872,2872,2021-02-15 11:22:12.460,7889.2495,2
2882,2882,2021-02-15 11:22:42.460,7918.1445,2
2892,2892,2021-02-15 11:23:12.460,7947.4673,2
2902,2902,2021-02-15 11:23:42.460,7965.599,2
2912,2912,2021-02-15 11:24:12.460,7984.8936,2
2922,2922,2021-02-15 11:24:42.460,7999.5957,2
2932,2932,2021-02-15 11:25:12.460,8013.3203,2
2942,2942,2021-02-15 11:25:42.460,8026.7734,2
2952,2952,2021-02-15 11:26:12.460,8042.0044,2
2962,2962,2021-02-15 11:26:42.460,8059.0767,2
2972,2972,2021-02-15 11:27:12.460,8076.326,2
2982,2982,2021-02-15 11:27:42.460,8095.523,2
2992,2992,2021-02-15 11:28:12.460,8116.672,2
3002,3002,2021-02-15 11:28:42.460,8137.948,2
3012,3012,2021-02-15 11:29:12.460,8161.1359999999995,2
3022,3022,2021-02-15 11:29:42.460,8188.2417,2
3032,3032,2021-02-15 11:30:12.460,8203.251,2
3042,3042,2021-02-15 11:30:42.460,8220.065999999999,2
3052,3052,2021-02-15 11:31:12.460,8238.452,2
3062,3062,2021-02-15 11:31:42.460,8255.904,2
3072,3072,2021-02-15 11:32:12.460,8265.629,2
3082,3082,2021-02-15 11:32:42.460,8275.786,2
3092,3092,2021-02-15 11:33:12.460,8287.71,2
3102,3102,2021-02-15 11:33:42.460,8301.117,2
3112,3112,2021-02-15 11:34:12.460,8322.17,2
3122,3122,2021-02-15 11:34:42.460,8345.226999999999,2
3132,3132,2021-02-15 11:35:12.460,8369.491,2
3142,3142,2021-02-15 11:35:42.460,8379.497,2
3152,3152,2021-02-15 11:36:12.460,8391.876,2
3162,3162,2021-02-15 11:36:42.460,8405.065999999999,2
3172,3172,2021-02-15 11:37:12.460,8420.8,2
3182,3182,2021-02-15 11:37:42.460,8439.38,2
3192,3192,2021-02-15 11:38:12.460,8458.683,2
3202,3202,2021-02-15 11:38:42.460,8472.901,2
3212,3212,2021-02-15 11:39:12.460,8488.464,2
3222,3222,2021-02-15 11:39:42.460,8505.293,2
3232,3232,2021-02-15 11:40:12.460,8524.987,2
3242,3242,2021-02-15 11:40:42.460,8545.793,2
3252,3252,2021-02-15 11:41:12.460,8553.025,2
3262,3262,2021-02-15 11:41:42.460,8562.822,2
3272,3272,2021-02-15 11:42:12.460,8573.767,2
3282,3282,2021-02-15 11:42:42.460,8587.843,2
3292,3292,2021-02-15 11:43:12.460,8601.931,2
3302,3302,2021-02-15 11:43:42.460,8617.409,2
3312,3312,2021-02-15 11:44:12.460,8636.134,2
3322,3322,2021-02-15 11:44:42.460,8660.366,2
3332,3332,2021-02-15 11:45:12.460,8678.546999999999,2
3342,3342,2021-02-15 11:45:42.460,8699.296999999999,2
3352,3352,2021-02-15 11:46:12.460,8709.212,2
3362,3362,2021-02-15 11:46:42.460,8718.629,2
3372,3372,2021-02-15 11:47:12.460,8729.799,2
3382,3382,2021-02-15 11:47:42.460,8743.754,2
3392,3392,2021-02-15 11:48:12.460,8760.021,2
3402,3402,2021-02-15 11:48:42.460,8778.094000000001,2
3412,3412,2021-02-15 11:49:12.460,8800.847,2
3422,3422,2021-02-15 11:49:42.460,8825.254,2
3432,3432,2021-02-15 11:50:12.460,8851.738000000001,2
3442,3442,2021-02-15 11:50:42.460,8857.782,2
3452,3452,2021-02-15 11:51:12.460,8865.606,2
3462,3462,2021-02-15 11:51:42.460,8874.591999999999,2
3472,3472,2021-02-15 11:52:12.460,8886.796999999999,2
3482,3482,2021-02-15 11:52:42.460,8903.586,2
3492,3492,2021-02-15 11:53:12.460,8922.104,2
3502,3502,2021-02-15 11:53:42.460,8943.811,2
3512,3512,2021-02-15 11:54:12.460,8967.226,2
3522,3522,2021-02-15 11:54:42.460,8979.985999999999,2
3532,3532,2021-02-15 11:55:12.460,8995.577,2
3542,3542,2021-02-15 11:55:42.460,9013.251,2
3552,3552,2021-02-15 11:56:12.460,9025.013,2
3562,3562,2021-02-15 11:56:42.460,9038.434000000001,2
3572,3572,2021-02-15 11:57:12.460,9053.687,2
3582,3582,2021-02-15 11:57:42.460,9072.024,2
3592,3592,2021-02-15 11:58:12.460,9077.52,2
3602,3602,2021-02-15 11:58:42.460,9085.534,2
3612,3612,2021-02-15 11:59:12.460,9096.561,2
3622,3622,2021-02-15 11:59:42.460,9111.591999999999,2
3632,3632,2021-02-15 12:00:12.460,9129.610999999999,2
3642,3642,2021-02-15 12:00:42.460,9150.487,2
3652,3652,2021-02-15 12:01:12.460,9153.049,2
3662,3662,2021-02-15 12:01:42.460,9157.612,2
3672,3672,2021-02-15 12:02:12.460,9164.438,2
3682,3682,2021-02-15 12:02:42.460,9174.462,2
3692,3692,2021-02-15 12:03:12.460,9187.49,2
3702,3702,2021-02-15 12:03:42.460,9191.143,2
3712,3712,2021-02-15 12:04:12.460,9198.017,2
3722,3722,2021-02-15 12:04:42.460,9207.016,2
