,Unnamed: 0,time,prediction,step
3797,3797,2021-01-22 12:30:17.228,9129.190999999999,7
3807,3807,2021-01-22 12:30:47.228,9075.806,7
3817,3817,2021-01-22 12:31:17.228,8749.446,7
3827,3827,2021-01-22 12:31:47.228,8831.146999999999,7
3837,3837,2021-01-22 12:32:17.228,8940.716999999999,7
3847,3847,2021-01-22 12:32:47.228,8878.912,7
3857,3857,2021-01-22 12:33:17.228,8825.07,7
3867,3867,2021-01-22 12:33:47.228,8779.408000000001,7
3877,3877,2021-01-22 12:34:17.228,8856.716,7
3887,3887,2021-01-22 12:34:47.228,8859.311,7
3897,3897,2021-01-22 12:35:17.228,8864.491,7
3907,3907,2021-01-22 12:35:47.228,8843.934000000001,7
3917,3917,2021-01-22 12:36:17.228,8913.266,7
3927,3927,2021-01-22 12:36:47.228,8917.73,7
3937,3937,2021-01-22 12:37:17.228,8907.201,7
3947,3947,2021-01-22 12:37:47.228,8907.851,7
3957,3957,2021-01-22 12:38:17.228,8900.976,7
3967,3967,2021-01-22 12:38:47.228,8893.451,7
3977,3977,2021-01-22 12:39:17.228,8884.609,7
3987,3987,2021-01-22 12:39:47.228,8875.444,7
3997,3997,2021-01-22 12:40:17.228,8942.814,7
4007,4007,2021-01-22 12:40:47.228,8953.136999999999,7
4017,4017,2021-01-22 12:41:17.228,8946.461,7
4027,4027,2021-01-22 12:41:47.228,8940.29,7
4037,4037,2021-01-22 12:42:17.228,9007.46,7
4047,4047,2021-01-22 12:42:47.228,9006.041,7
4057,4057,2021-01-22 12:43:17.228,9027.037,7
4067,4067,2021-01-22 12:43:47.228,8904.026,7
4077,4077,2021-01-22 12:44:17.228,8925.187,7
4087,4087,2021-01-22 12:44:47.228,8636.452,7
4097,4097,2021-01-22 12:45:17.228,8703.556,7
4107,4107,2021-01-22 12:45:47.228,8751.9795,7
4117,4117,2021-01-22 12:46:17.228,8740.037,7
4127,4127,2021-01-22 12:46:47.228,8735.465,7
4137,4137,2021-01-22 12:47:17.228,8730.24,7
4147,4147,2021-01-22 12:47:47.228,8700.128,7
4157,4157,2021-01-22 12:48:17.228,8646.287,7
4167,4167,2021-01-22 12:48:47.228,8644.59,7
4177,4177,2021-01-22 12:49:17.228,8611.023000000001,7
4187,4187,2021-01-22 12:49:47.228,8607.673,7
4197,4197,2021-01-22 12:50:17.228,8630.251,7
4207,4207,2021-01-22 12:50:47.228,8612.071,7
4217,4217,2021-01-22 12:51:17.228,8712.552,7
4227,4227,2021-01-22 12:51:47.228,8718.945,7
4237,4237,2021-01-22 12:52:17.228,8698.198,7
4247,4247,2021-01-22 12:52:47.228,8687.844000000001,7
4257,4257,2021-01-22 12:53:17.228,8679.526,7
4267,4267,2021-01-22 12:53:47.228,8665.434000000001,7
4277,4277,2021-01-22 12:54:17.228,8654.308,7
4287,4287,2021-01-22 12:54:47.228,8642.935,7
4297,4297,2021-01-22 12:55:17.228,8633.1455,7
4307,4307,2021-01-22 12:55:47.228,8623.544,7
4317,4317,2021-01-22 12:56:17.228,8663.579,7
4327,4327,2021-01-22 12:56:47.228,8654.08,7
4337,4337,2021-01-22 12:57:17.228,8649.749,7
4347,4347,2021-01-22 12:57:47.228,8472.959,7
4357,4357,2021-01-22 12:58:17.228,8413.161,7
4367,4367,2021-01-22 12:58:47.228,8371.108,7
4377,4377,2021-01-22 12:59:17.228,8396.163,7
4387,4387,2021-01-22 12:59:47.228,8413.485,7
4397,4397,2021-01-22 13:00:17.228,8356.923,7
4407,4407,2021-01-22 13:00:47.228,8325.535,7
4417,4417,2021-01-22 13:01:17.228,8305.565999999999,7
4427,4427,2021-01-22 13:01:47.228,8269.96,7
4437,4437,2021-01-22 13:02:17.228,8262.505,7
4447,4447,2021-01-22 13:02:47.228,8248.576,7
4457,4457,2021-01-22 13:03:17.228,8321.724,7
4467,4467,2021-01-22 13:03:47.228,8320.515,7
4477,4477,2021-01-22 13:04:17.228,8309.515,7
4487,4487,2021-01-22 13:04:47.228,8296.9375,7
4497,4497,2021-01-22 13:05:17.228,8283.983,7
4507,4507,2021-01-22 13:05:47.228,8270.8125,7
4517,4517,2021-01-22 13:06:17.228,8258.759,7
4527,4527,2021-01-22 13:06:47.228,8246.879,7
4537,4537,2021-01-22 13:07:17.228,8226.104,7
4547,4547,2021-01-22 13:07:47.228,8075.328,7
4557,4557,2021-01-22 13:08:17.228,8076.1990000000005,7
4567,4567,2021-01-22 13:08:47.228,8077.768,7
4577,4577,2021-01-22 13:09:17.228,8077.7919999999995,7
4587,4587,2021-01-22 13:09:47.228,8084.9259999999995,7
4597,4597,2021-01-22 13:10:17.228,8090.4116,7
4607,4607,2021-01-22 13:10:47.228,8097.5380000000005,7
4617,4617,2021-01-22 13:11:17.228,8123.682,7
4627,4627,2021-01-22 13:11:47.228,8163.869000000001,7
4637,4637,2021-01-22 13:12:17.228,8172.4585,7
4647,4647,2021-01-22 13:12:47.228,8053.9824,7
4657,4657,2021-01-22 13:13:17.228,8025.3037,7
4667,4667,2021-01-22 13:13:47.228,7991.919,7
4677,4677,2021-01-22 13:14:17.228,7973.8013,7
4687,4687,2021-01-22 13:14:47.228,7982.1934,7
4697,4697,2021-01-22 13:15:17.228,7980.3413,7
4707,4707,2021-01-22 13:15:47.228,7963.9316,7
4717,4717,2021-01-22 13:16:17.228,7954.813,7
4727,4727,2021-01-22 13:16:47.228,7940.4146,7
4737,4737,2021-01-22 13:17:17.228,7991.924,7
4747,4747,2021-01-22 13:17:47.228,7973.7217,7
4757,4757,2021-01-22 13:18:17.228,7950.486,7
4767,4767,2021-01-22 13:18:47.228,7934.514,7
4777,4777,2021-01-22 13:19:17.228,7924.5063,7
4787,4787,2021-01-22 13:19:47.228,7911.388000000001,7
4797,4797,2021-01-22 13:20:17.228,7898.0815,7
4807,4807,2021-01-22 13:20:47.228,7884.143,7
4817,4817,2021-01-22 13:21:17.228,7812.6226,7
4827,4827,2021-01-22 13:21:47.228,7712.9634,7
4837,4837,2021-01-22 13:22:17.228,7700.443,7
4847,4847,2021-01-22 13:22:47.228,7697.8716,7
4857,4857,2021-01-22 13:23:17.228,7698.918000000001,7
4867,4867,2021-01-22 13:23:47.228,7702.5347,7
4877,4877,2021-01-22 13:24:17.228,7707.203,7
4887,4887,2021-01-22 13:24:47.228,7717.0283,7
4897,4897,2021-01-22 13:25:17.228,7729.8330000000005,7
4907,4907,2021-01-22 13:25:47.228,7589.6494,7
4917,4917,2021-01-22 13:26:17.228,7514.7935,7
4927,4927,2021-01-22 13:26:47.228,7562.69,7
4937,4937,2021-01-22 13:27:17.228,7560.1274,7
4947,4947,2021-01-22 13:27:47.228,7529.6885,7
4957,4957,2021-01-22 13:28:17.228,7526.4443,7
4967,4967,2021-01-22 13:28:47.228,7539.571,7
4977,4977,2021-01-22 13:29:17.228,7530.3647,7
4987,4987,2021-01-22 13:29:47.228,7517.509,7
4997,4997,2021-01-22 13:30:17.228,7506.4517,7
5007,5007,2021-01-22 13:30:47.228,7489.922,7
5017,5017,2021-01-22 13:31:17.228,7368.621999999999,7
5027,5027,2021-01-22 13:31:47.228,7368.488,7
5037,5037,2021-01-22 13:32:17.228,7356.9893,7
5047,5047,2021-01-22 13:32:47.228,7355.138000000001,7
5057,5057,2021-01-22 13:33:17.228,7342.6147,7
5067,5067,2021-01-22 13:33:47.228,7320.9893,7
5077,5077,2021-01-22 13:34:17.228,7293.6206,7
5087,5087,2021-01-22 13:34:47.228,7242.8965,7
5097,5097,2021-01-22 13:35:17.228,7245.9259999999995,7
5107,5107,2021-01-22 13:35:47.228,7246.411,7
5117,5117,2021-01-22 13:36:17.228,7242.4497,7
5127,5127,2021-01-22 13:36:47.228,7251.63,7
5137,5137,2021-01-22 13:37:17.228,7257.056,7
5147,5147,2021-01-22 13:37:47.228,7194.73,7
5157,5157,2021-01-22 13:38:17.228,7160.204000000001,7
5167,5167,2021-01-22 13:38:47.228,7105.714,7
5177,5177,2021-01-22 13:39:17.228,7121.0864,7
5187,5187,2021-01-22 13:39:47.228,7127.0293,7
5197,5197,2021-01-22 13:40:17.228,7137.84,7
5207,5207,2021-01-22 13:40:47.228,7138.995,7
5217,5217,2021-01-22 13:41:17.228,7143.4805,7
5227,5227,2021-01-22 13:41:47.228,7137.914000000001,7
5237,5237,2021-01-22 13:42:17.228,7116.4424,7
5247,5247,2021-01-22 13:42:47.228,7096.1367,7
5257,5257,2021-01-22 13:43:17.228,6944.2417,7
5267,5267,2021-01-22 13:43:47.228,6885.6367,7
5277,5277,2021-01-22 13:44:17.228,6888.5566,7
5287,5287,2021-01-22 13:44:47.228,6887.1426,7
5297,5297,2021-01-22 13:45:17.228,6852.479,7
5307,5307,2021-01-22 13:45:47.228,6824.243,7
5317,5317,2021-01-22 13:46:17.228,6794.3423,7
5327,5327,2021-01-22 13:46:47.228,6764.257,7
5337,5337,2021-01-22 13:47:17.228,6751.6514,7
5347,5347,2021-01-22 13:47:47.228,6748.23,7
5357,5357,2021-01-22 13:48:17.228,6802.1,7
5367,5367,2021-01-22 13:48:47.228,6807.4224,7
5377,5377,2021-01-22 13:49:17.228,6824.4053,7
5387,5387,2021-01-22 13:49:47.228,6834.1626,7
5397,5397,2021-01-22 13:50:17.228,6699.4126,7
5407,5407,2021-01-22 13:50:47.228,6503.944,7
5417,5417,2021-01-22 13:51:17.228,6537.353,7
5427,5427,2021-01-22 13:51:47.228,6594.9165,7
5437,5437,2021-01-22 13:52:17.228,6609.2104,7
5447,5447,2021-01-22 13:52:47.228,6615.904,7
5457,5457,2021-01-22 13:53:17.228,6629.937,7
5467,5467,2021-01-22 13:53:47.228,6633.2764,7
5477,5477,2021-01-22 13:54:17.228,6617.3325,7
5487,5487,2021-01-22 13:54:47.228,6599.4473,7
5497,5497,2021-01-22 13:55:17.228,6609.43,7
5507,5507,2021-01-22 13:55:47.228,6583.201,7
5517,5517,2021-01-22 13:56:17.228,6453.98,7
5527,5527,2021-01-22 13:56:47.228,6346.0146,7
5537,5537,2021-01-22 13:57:17.228,6326.116,7
5547,5547,2021-01-22 13:57:47.228,6311.285,7
5557,5557,2021-01-22 13:58:17.228,6292.8086,7
5567,5567,2021-01-22 13:58:47.228,6271.9897,7
5577,5577,2021-01-22 13:59:17.228,6240.565,7
5587,5587,2021-01-22 13:59:47.228,6220.5737,7
5597,5597,2021-01-22 14:00:17.228,6217.6074,7
5607,5607,2021-01-22 14:00:47.228,6279.751,7
5617,5617,2021-01-22 14:01:17.228,6282.1865,7
5627,5627,2021-01-22 14:01:47.228,6286.5312,7
5637,5637,2021-01-22 14:02:17.228,6168.1343,7
5647,5647,2021-01-22 14:02:47.228,6166.7397,7
5657,5657,2021-01-22 14:03:17.228,6166.2119999999995,7
5667,5667,2021-01-22 14:03:47.228,6150.8115,7
5677,5677,2021-01-22 14:04:17.228,6145.007,7
5687,5687,2021-01-22 14:04:47.228,6151.9067,7
5697,5697,2021-01-22 14:05:17.228,6169.678000000001,7
5707,5707,2021-01-22 14:05:47.228,6171.7227,7
5717,5717,2021-01-22 14:06:17.228,6156.3125,7
5727,5727,2021-01-22 14:06:47.228,6145.0386,7
5737,5737,2021-01-22 14:07:17.228,6119.2607,7
5747,5747,2021-01-22 14:07:47.228,5909.429,7
5757,5757,2021-01-22 14:08:17.228,5877.4604,7
5767,5767,2021-01-22 14:08:47.228,5871.774,7
5777,5777,2021-01-22 14:09:17.228,5870.609,7
5787,5787,2021-01-22 14:09:47.228,5884.446,7
5797,5797,2021-01-22 14:10:17.228,5879.357,7
5807,5807,2021-01-22 14:10:47.228,5879.7,7
5817,5817,2021-01-22 14:11:17.228,5861.8076,7
5827,5827,2021-01-22 14:11:47.228,5855.1865,7
5837,5837,2021-01-22 14:12:17.228,5861.8115,7
5847,5847,2021-01-22 14:12:47.228,5862.533,7
5857,5857,2021-01-22 14:13:17.228,5779.392,7
5867,5867,2021-01-22 14:13:47.228,5802.0874,7
5877,5877,2021-01-22 14:14:17.228,5823.5776,7
5887,5887,2021-01-22 14:14:47.228,5823.5923,7
5897,5897,2021-01-22 14:15:17.228,5792.427,7
5907,5907,2021-01-22 14:15:47.228,5779.1704,7
5917,5917,2021-01-22 14:16:17.228,5784.3374,7
5927,5927,2021-01-22 14:16:47.228,5808.6655,7
5937,5937,2021-01-22 14:17:17.228,5805.0527,7
5947,5947,2021-01-22 14:17:47.228,5792.276999999999,7
5957,5957,2021-01-22 14:18:17.228,5748.170999999999,7
5967,5967,2021-01-22 14:18:47.228,5576.8315,7
5977,5977,2021-01-22 14:19:17.228,5562.815,7
5987,5987,2021-01-22 14:19:47.228,5590.8496,7
5997,5997,2021-01-22 14:20:17.228,5589.205,7
6007,6007,2021-01-22 14:20:47.228,5586.605,7
6017,6017,2021-01-22 14:21:17.228,5569.478,7
6027,6027,2021-01-22 14:21:47.228,5565.2314,7
6037,6037,2021-01-22 14:22:17.228,5554.1924,7
6047,6047,2021-01-22 14:22:47.228,5532.656,7
6057,6057,2021-01-22 14:23:17.228,5533.366999999999,7
6067,6067,2021-01-22 14:23:47.228,5535.3647,7
6077,6077,2021-01-22 14:24:17.228,5447.543000000001,7
6087,6087,2021-01-22 14:24:47.228,5437.4130000000005,7
6097,6097,2021-01-22 14:25:17.228,5464.5557,7
6107,6107,2021-01-22 14:25:47.228,5464.1064,7
6117,6117,2021-01-22 14:26:17.228,5411.188,7
6127,6127,2021-01-22 14:26:47.228,5404.2880000000005,7
6137,6137,2021-01-22 14:27:17.228,5418.7534,7
6147,6147,2021-01-22 14:27:47.228,5431.2173,7
6157,6157,2021-01-22 14:28:17.228,5427.0109999999995,7
6167,6167,2021-01-22 14:28:47.228,5418.554,7
6177,6177,2021-01-22 14:29:17.228,5379.528,7
6187,6187,2021-01-22 14:29:47.228,5192.475,7
6197,6197,2021-01-22 14:30:17.228,5179.358,7
6207,6207,2021-01-22 14:30:47.228,5206.531,7
6217,6217,2021-01-22 14:31:17.228,5199.5767,7
6227,6227,2021-01-22 14:31:47.228,5194.8643,7
6237,6237,2021-01-22 14:32:17.228,5181.835,7
6247,6247,2021-01-22 14:32:47.228,5169.2,7
6257,6257,2021-01-22 14:33:17.228,5157.5747,7
6267,6267,2021-01-22 14:33:47.228,5143.3574,7
6277,6277,2021-01-22 14:34:17.228,5042.0156,7
6287,6287,2021-01-22 14:34:47.228,5007.9375,7
6297,6297,2021-01-22 14:35:17.228,5023.096,7
6307,6307,2021-01-22 14:35:47.228,5032.268,7
6317,6317,2021-01-22 14:36:17.228,5029.7363,7
6327,6327,2021-01-22 14:36:47.228,4956.858,7
6337,6337,2021-01-22 14:37:17.228,4959.4717,7
6347,6347,2021-01-22 14:37:47.228,4982.6396,7
6357,6357,2021-01-22 14:38:17.228,4979.965,7
6367,6367,2021-01-22 14:38:47.228,4975.389,7
6377,6377,2021-01-22 14:39:17.228,4957.775,7
6387,6387,2021-01-22 14:39:47.228,4779.91,7
6397,6397,2021-01-22 14:40:17.228,4762.984,7
6407,6407,2021-01-22 14:40:47.228,4754.3640000000005,7
6417,6417,2021-01-22 14:41:17.228,4743.5493,7
6427,6427,2021-01-22 14:41:47.228,4729.6157,7
6437,6437,2021-01-22 14:42:17.228,4722.8784,7
6447,6447,2021-01-22 14:42:47.228,4704.2236,7
6457,6457,2021-01-22 14:43:17.228,4689.9897,7
6467,6467,2021-01-22 14:43:47.228,4611.861,7
6477,6477,2021-01-22 14:44:17.228,4631.6484,7
6487,6487,2021-01-22 14:44:47.228,4645.3975,7
6497,6497,2021-01-22 14:45:17.228,4626.1606,7
6507,6507,2021-01-22 14:45:47.228,4617.8174,7
6517,6517,2021-01-22 14:46:17.228,4607.3984,7
6527,6527,2021-01-22 14:46:47.228,4633.7275,7
6537,6537,2021-01-22 14:47:17.228,4626.4673,7
6547,6547,2021-01-22 14:47:47.228,4629.7476,7
6557,6557,2021-01-22 14:48:17.228,4630.5509999999995,7
6567,6567,2021-01-22 14:48:47.228,4625.634,7
6577,6577,2021-01-22 14:49:17.228,4481.476,7
6587,6587,2021-01-22 14:49:47.228,4470.936,7
6597,6597,2021-01-22 14:50:17.228,4460.1553,7
6607,6607,2021-01-22 14:50:47.228,4449.91,7
6617,6617,2021-01-22 14:51:17.228,4444.2896,7
6627,6627,2021-01-22 14:51:47.228,4431.201,7
6637,6637,2021-01-22 14:52:17.228,4408.6797,7
6647,6647,2021-01-22 14:52:47.228,4404.5884,7
6657,6657,2021-01-22 14:53:17.228,4304.2886,7
6667,6667,2021-01-22 14:53:47.228,4253.349,7
6677,6677,2021-01-22 14:54:17.228,4276.7544,7
6687,6687,2021-01-22 14:54:47.228,4319.7324,7
6697,6697,2021-01-22 14:55:17.228,4318.0693,7
6707,6707,2021-01-22 14:55:47.228,4279.07,7
6717,6717,2021-01-22 14:56:17.228,4225.9194,7
6727,6727,2021-01-22 14:56:47.228,4264.5093,7
6737,6737,2021-01-22 14:57:17.228,4277.349,7
6747,6747,2021-01-22 14:57:47.228,4278.98,7
6757,6757,2021-01-22 14:58:17.228,4281.0747,7
6767,6767,2021-01-22 14:58:47.228,4266.002,7
6777,6777,2021-01-22 14:59:17.228,4076.0240000000003,7
6787,6787,2021-01-22 14:59:47.228,4047.1714,7
6797,6797,2021-01-22 15:00:17.228,4032.6355,7
6807,6807,2021-01-22 15:00:47.228,4022.3477,7
6817,6817,2021-01-22 15:01:17.228,4000.7537,7
6827,6827,2021-01-22 15:01:47.228,3976.09,7
6837,6837,2021-01-22 15:02:17.228,3970.0405,7
6847,6847,2021-01-22 15:02:47.228,3892.055,7
6857,6857,2021-01-22 15:03:17.228,3922.7715,7
6867,6867,2021-01-22 15:03:47.228,3939.0469,7
6877,6877,2021-01-22 15:04:17.228,3929.2651,7
6887,6887,2021-01-22 15:04:47.228,3915.9036,7
6897,6897,2021-01-22 15:05:17.228,3800.921,7
6907,6907,2021-01-22 15:05:47.228,3663.482,7
6917,6917,2021-01-22 15:06:17.228,3954.2253,7
6927,6927,2021-01-22 15:06:47.228,3949.7393,7
6937,6937,2021-01-22 15:07:17.228,3948.8390000000004,7
6947,6947,2021-01-22 15:07:47.228,3951.5776,7
6957,6957,2021-01-22 15:08:17.228,3779.4685,7
6967,6967,2021-01-22 15:08:47.228,3751.2224,7
6977,6977,2021-01-22 15:09:17.228,3743.3709999999996,7
6987,6987,2021-01-22 15:09:47.228,3691.098,7
6997,6997,2021-01-22 15:10:17.228,3604.7683,7
7007,7007,2021-01-22 15:10:47.228,3564.1287,7
7017,7017,2021-01-22 15:11:17.228,3611.1616,7
7027,7027,2021-01-22 15:11:47.228,3617.0564,7
7037,7037,2021-01-22 15:12:17.228,3603.118,7
7047,7047,2021-01-22 15:12:47.228,3604.8826,7
7057,7057,2021-01-22 15:13:17.228,3589.3604,7
7067,7067,2021-01-22 15:13:47.228,3572.5676,7
7077,7077,2021-01-22 15:14:17.228,3607.3008,7
7087,7087,2021-01-22 15:14:47.228,3603.3237,7
7097,7097,2021-01-22 15:15:17.228,3429.205,7
7107,7107,2021-01-22 15:15:47.228,3364.9326,7
7117,7117,2021-01-22 15:16:17.228,3359.3271,7
7127,7127,2021-01-22 15:16:47.228,3366.7034,7
7137,7137,2021-01-22 15:17:17.228,3382.3293,7
7147,7147,2021-01-22 15:17:47.228,3309.6555,7
7157,7157,2021-01-22 15:18:17.228,3318.2131,7
7167,7167,2021-01-22 15:18:47.228,3341.4092,7
7177,7177,2021-01-22 15:19:17.228,3331.9429999999998,7
7187,7187,2021-01-22 15:19:47.228,3312.6968,7
7197,7197,2021-01-22 15:20:17.228,3249.1692,7
7207,7207,2021-01-22 15:20:47.228,3106.6606,7
7217,7217,2021-01-22 15:21:17.228,3315.2709999999997,7
7227,7227,2021-01-22 15:21:47.228,3304.5361,7
7237,7237,2021-01-22 15:22:17.228,3302.571,7
7247,7247,2021-01-22 15:22:47.228,3168.3564,7
7257,7257,2021-01-22 15:23:17.228,3103.7144,7
7267,7267,2021-01-22 15:23:47.228,3108.2522,7
7277,7277,2021-01-22 15:24:17.228,3117.7815,7
7287,7287,2021-01-22 15:24:47.228,3024.75,7
7297,7297,2021-01-22 15:25:17.228,2905.4456,7
7307,7307,2021-01-22 15:25:47.228,2927.6372,7
7317,7317,2021-01-22 15:26:17.228,2995.6748,7
7327,7327,2021-01-22 15:26:47.228,3005.9120000000003,7
7337,7337,2021-01-22 15:27:17.228,2990.7490000000003,7
7347,7347,2021-01-22 15:27:47.228,2973.6929999999998,7
7357,7357,2021-01-22 15:28:17.228,2958.8096,7
7367,7367,2021-01-22 15:28:47.228,2946.8865,7
7377,7377,2021-01-22 15:29:17.228,2933.1094,7
7387,7387,2021-01-22 15:29:47.228,2908.821,7
7397,7397,2021-01-22 15:30:17.228,2711.9590000000003,7
7407,7407,2021-01-22 15:30:47.228,2689.0332,7
7417,7417,2021-01-22 15:31:17.228,2687.8215,7
7427,7427,2021-01-22 15:31:47.228,2633.5186,7
7437,7437,2021-01-22 15:32:17.228,2624.2131,7
7447,7447,2021-01-22 15:32:47.228,2652.5325,7
7457,7457,2021-01-22 15:33:17.228,2680.0405,7
7467,7467,2021-01-22 15:33:47.228,2661.5098,7
7477,7477,2021-01-22 15:34:17.228,2575.7097,7
7487,7487,2021-01-22 15:34:47.228,2433.1023,7
7497,7497,2021-01-22 15:35:17.228,2411.5256,7
7507,7507,2021-01-22 15:35:47.228,2441.9136,7
7517,7517,2021-01-22 15:36:17.228,2598.6443,7
7527,7527,2021-01-22 15:36:47.228,2443.2627,7
7537,7537,2021-01-22 15:37:17.228,2284.82,7
7547,7547,2021-01-22 15:37:47.228,2151.1155,7
7557,7557,2021-01-22 15:38:17.228,2229.9495,7
7567,7567,2021-01-22 15:38:47.228,2347.5542,7
7577,7577,2021-01-22 15:39:17.228,2371.5764,7
7587,7587,2021-01-22 15:39:47.228,2361.2495,7
7597,7597,2021-01-22 15:40:17.228,2344.5757,7
7607,7607,2021-01-22 15:40:47.228,2331.66,7
7617,7617,2021-01-22 15:41:17.228,2318.374,7
7627,7627,2021-01-22 15:41:47.228,2313.5378,7
7637,7637,2021-01-22 15:42:17.228,2319.0024,7
7647,7647,2021-01-22 15:42:47.228,2286.7546,7
7657,7657,2021-01-22 15:43:17.228,1964.5753,7
7667,7667,2021-01-22 15:43:47.228,1951.2627,7
7677,7677,2021-01-22 15:44:17.228,2014.1156,7
7687,7687,2021-01-22 15:44:47.228,2050.5312,7
7697,7697,2021-01-22 15:45:17.228,2044.9747,7
7707,7707,2021-01-22 15:45:47.228,2013.2844,7
7717,7717,2021-01-22 15:46:17.228,1866.3956,7
7727,7727,2021-01-22 15:46:47.228,1830.8911,7
7737,7737,2021-01-22 15:47:17.228,1770.3068,7
7747,7747,2021-01-22 15:47:47.228,1728.569,7
7757,7757,2021-01-22 15:48:17.228,1727.6371,7
7767,7767,2021-01-22 15:48:47.228,1573.7554,7
7777,7777,2021-01-22 15:49:17.228,1698.3672,7
7787,7787,2021-01-22 15:49:47.228,1777.7512,7
7797,7797,2021-01-22 15:50:17.228,1780.6572,7
7807,7807,2021-01-22 15:50:47.228,1763.6342,7
7817,7817,2021-01-22 15:51:17.228,1664.2583,7
7827,7827,2021-01-22 15:51:47.228,1698.2655,7
7837,7837,2021-01-22 15:52:17.228,1537.8906,7
7847,7847,2021-01-22 15:52:47.228,1406.5688,7
7857,7857,2021-01-22 15:53:17.228,1423.5016,7
7867,7867,2021-01-22 15:53:47.228,1503.5269,7
7877,7877,2021-01-22 15:54:17.228,1510.5035,7
7887,7887,2021-01-22 15:54:47.228,1493.8594,7
7897,7897,2021-01-22 15:55:17.228,1478.3921,7
7907,7907,2021-01-22 15:55:47.228,1484.6771,7
7917,7917,2021-01-22 15:56:17.228,1281.3907,7
7927,7927,2021-01-22 15:56:47.228,1225.3738,7
7937,7937,2021-01-22 15:57:17.228,1136.266,7
7947,7947,2021-01-22 15:57:47.228,1177.712,7
7957,7957,2021-01-22 15:58:17.228,1185.6699,7
7967,7967,2021-01-22 15:58:47.228,1161.9546,7
7977,7977,2021-01-22 15:59:17.228,1069.0403,7
7987,7987,2021-01-22 15:59:47.228,627.5686,7
7997,7997,2021-01-22 16:00:17.228,545.7696,7
8007,8007,2021-01-22 16:00:47.228,661.8484,7
8017,8017,2021-01-22 16:01:17.228,910.4809,7
8027,8027,2021-01-22 16:01:47.228,942.3729,7
8037,8037,2021-01-22 16:02:17.228,707.5984,7
8047,8047,2021-01-22 16:02:47.228,340.0165,7
8057,8057,2021-01-22 16:03:17.228,313.4142,7
8067,8067,2021-01-22 16:03:47.228,477.67285,7
8077,8077,2021-01-22 16:04:17.228,660.6701,7
