,Unnamed: 0,time,prediction,step
3798,3798,2021-01-22 12:30:47.228,9019.059000000001,8
3808,3808,2021-01-22 12:31:17.228,8952.723,8
3818,3818,2021-01-22 12:31:47.228,8638.019,8
3828,3828,2021-01-22 12:32:17.228,8767.86,8
3838,3838,2021-01-22 12:32:47.228,8925.0205,8
3848,3848,2021-01-22 12:33:17.228,8867.982,8
3858,3858,2021-01-22 12:33:47.228,8832.568000000001,8
3868,3868,2021-01-22 12:34:17.228,8773.38,8
3878,3878,2021-01-22 12:34:47.228,8851.211,8
3888,3888,2021-01-22 12:35:17.228,8854.369,8
3898,3898,2021-01-22 12:35:47.228,8859.657,8
3908,3908,2021-01-22 12:36:17.228,8837.757,8
3918,3918,2021-01-22 12:36:47.228,8907.492,8
3928,3928,2021-01-22 12:37:17.228,8912.183,8
3938,3938,2021-01-22 12:37:47.228,8902.282,8
3948,3948,2021-01-22 12:38:17.228,8902.847,8
3958,3958,2021-01-22 12:38:47.228,8896.131,8
3968,3968,2021-01-22 12:39:17.228,8888.780999999999,8
3978,3978,2021-01-22 12:39:47.228,8879.9375,8
3988,3988,2021-01-22 12:40:17.228,8870.613000000001,8
3998,3998,2021-01-22 12:40:47.228,8935.578000000001,8
4008,4008,2021-01-22 12:41:17.228,8943.944,8
4018,4018,2021-01-22 12:41:47.228,8933.395,8
4028,4028,2021-01-22 12:42:17.228,8927.125,8
4038,4038,2021-01-22 12:42:47.228,9000.339,8
4048,4048,2021-01-22 12:43:17.228,8876.188,8
4058,4058,2021-01-22 12:43:47.228,8992.539,8
4068,4068,2021-01-22 12:44:17.228,8878.171,8
4078,4078,2021-01-22 12:44:47.228,8921.363000000001,8
4088,4088,2021-01-22 12:45:17.228,8635.074,8
4098,4098,2021-01-22 12:45:47.228,8697.64,8
4108,4108,2021-01-22 12:46:17.228,8748.107,8
4118,4118,2021-01-22 12:46:47.228,8734.969000000001,8
4128,4128,2021-01-22 12:47:17.228,8730.998,8
4138,4138,2021-01-22 12:47:47.228,8726.591999999999,8
4148,4148,2021-01-22 12:48:17.228,8693.237,8
4158,4158,2021-01-22 12:48:47.228,8635.998,8
4168,4168,2021-01-22 12:49:17.228,8632.376,8
4178,4178,2021-01-22 12:49:47.228,8596.674,8
4188,4188,2021-01-22 12:50:17.228,8593.97,8
4198,4198,2021-01-22 12:50:47.228,8619.007,8
4208,4208,2021-01-22 12:51:17.228,8600.732,8
4218,4218,2021-01-22 12:51:47.228,8706.936,8
4228,4228,2021-01-22 12:52:17.228,8713.581,8
4238,4238,2021-01-22 12:52:47.228,8692.688,8
4248,4248,2021-01-22 12:53:17.228,8681.48,8
4258,4258,2021-01-22 12:53:47.228,8668.216,8
4268,4268,2021-01-22 12:54:17.228,8653.013,8
4278,4278,2021-01-22 12:54:47.228,8641.826,8
4288,4288,2021-01-22 12:55:17.228,8630.375,8
4298,4298,2021-01-22 12:55:47.228,8620.574,8
4308,4308,2021-01-22 12:56:17.228,8611.041,8
4318,4318,2021-01-22 12:56:47.228,8598.507,8
4328,4328,2021-01-22 12:57:17.228,8582.033000000001,8
4338,4338,2021-01-22 12:57:47.228,8585.154,8
4348,4348,2021-01-22 12:58:17.228,8471.142,8
4358,4358,2021-01-22 12:58:47.228,8411.916,8
4368,4368,2021-01-22 12:59:17.228,8368.747,8
4378,4378,2021-01-22 12:59:47.228,8390.186,8
4388,4388,2021-01-22 13:00:17.228,8405.918,8
4398,4398,2021-01-22 13:00:47.228,8347.773000000001,8
4408,4408,2021-01-22 13:01:17.228,8315.582,8
4418,4418,2021-01-22 13:01:47.228,8295.573,8
4428,4428,2021-01-22 13:02:17.228,8260.123,8
4438,4438,2021-01-22 13:02:47.228,8253.898000000001,8
4448,4448,2021-01-22 13:03:17.228,8240.955,8
4458,4458,2021-01-22 13:03:47.228,8313.523000000001,8
4468,4468,2021-01-22 13:04:17.228,8309.454,8
4478,4478,2021-01-22 13:04:47.228,8298.778,8
4488,4488,2021-01-22 13:05:17.228,8286.277,8
4498,4498,2021-01-22 13:05:47.228,8272.95,8
4508,4508,2021-01-22 13:06:17.228,8259.155999999999,8
4518,4518,2021-01-22 13:06:47.228,8246.378,8
4528,4528,2021-01-22 13:07:17.228,8233.473,8
4538,4538,2021-01-22 13:07:47.228,8193.785,8
4548,4548,2021-01-22 13:08:17.228,8055.975,8
4558,4558,2021-01-22 13:08:47.228,8062.656,8
4568,4568,2021-01-22 13:09:17.228,8066.214,8
4578,4578,2021-01-22 13:09:47.228,8064.3296,8
4588,4588,2021-01-22 13:10:17.228,8075.4385,8
4598,4598,2021-01-22 13:10:47.228,8081.571,8
4608,4608,2021-01-22 13:11:17.228,8089.1875,8
4618,4618,2021-01-22 13:11:47.228,8115.901999999999,8
4628,4628,2021-01-22 13:12:17.228,8154.8984,8
4638,4638,2021-01-22 13:12:47.228,8170.9893,8
4648,4648,2021-01-22 13:13:17.228,8052.471,8
4658,4658,2021-01-22 13:13:47.228,8022.2925,8
4668,4668,2021-01-22 13:14:17.228,7986.6016,8
4678,4678,2021-01-22 13:14:47.228,7966.6777,8
4688,4688,2021-01-22 13:15:17.228,7973.7666,8
4698,4698,2021-01-22 13:15:47.228,7972.0264,8
4708,4708,2021-01-22 13:16:17.228,7956.1743,8
4718,4718,2021-01-22 13:16:47.228,7948.516,8
4728,4728,2021-01-22 13:17:17.228,7935.0654,8
4738,4738,2021-01-22 13:17:47.228,7987.814,8
4748,4748,2021-01-22 13:18:17.228,7942.8003,8
4758,4758,2021-01-22 13:18:47.228,7917.776,8
4768,4768,2021-01-22 13:19:17.228,7905.4175,8
4778,4778,2021-01-22 13:19:47.228,7892.5419999999995,8
4788,4788,2021-01-22 13:20:17.228,7878.4517,8
4798,4798,2021-01-22 13:20:47.228,7863.6455,8
4808,4808,2021-01-22 13:21:17.228,7847.389,8
4818,4818,2021-01-22 13:21:47.228,7740.806,8
4828,4828,2021-01-22 13:22:17.228,7687.803000000001,8
4838,4838,2021-01-22 13:22:47.228,7677.246,8
4848,4848,2021-01-22 13:23:17.228,7676.2925,8
4858,4858,2021-01-22 13:23:47.228,7678.4854,8
4868,4868,2021-01-22 13:24:17.228,7682.819,8
4878,4878,2021-01-22 13:24:47.228,7687.8696,8
4888,4888,2021-01-22 13:25:17.228,7697.509,8
4898,4898,2021-01-22 13:25:47.228,7713.7017,8
4908,4908,2021-01-22 13:26:17.228,7584.121,8
4918,4918,2021-01-22 13:26:47.228,7512.9756,8
4928,4928,2021-01-22 13:27:17.228,7557.9746,8
4938,4938,2021-01-22 13:27:47.228,7552.2666,8
4948,4948,2021-01-22 13:28:17.228,7520.3613,8
4958,4958,2021-01-22 13:28:47.228,7516.29,8
4968,4968,2021-01-22 13:29:17.228,7530.1284,8
4978,4978,2021-01-22 13:29:47.228,7522.2236,8
4988,4988,2021-01-22 13:30:17.228,7511.1333,8
4998,4998,2021-01-22 13:30:47.228,7501.508000000001,8
5008,5008,2021-01-22 13:31:17.228,7486.437,8
5018,5018,2021-01-22 13:31:47.228,7303.9097,8
5028,5028,2021-01-22 13:32:17.228,7310.4976,8
5038,5038,2021-01-22 13:32:47.228,7308.2715,8
5048,5048,2021-01-22 13:33:17.228,7305.1274,8
5058,5058,2021-01-22 13:33:47.228,7296.7627,8
5068,5068,2021-01-22 13:34:17.228,7284.6816,8
5078,5078,2021-01-22 13:34:47.228,7262.1323,8
5088,5088,2021-01-22 13:35:17.228,7236.590999999999,8
5098,5098,2021-01-22 13:35:47.228,7241.658,8
5108,5108,2021-01-22 13:36:17.228,7242.3135,8
5118,5118,2021-01-22 13:36:47.228,7237.406,8
5128,5128,2021-01-22 13:37:17.228,7247.7705,8
5138,5138,2021-01-22 13:37:47.228,7253.145,8
5148,5148,2021-01-22 13:38:17.228,7190.379,8
5158,5158,2021-01-22 13:38:47.228,7155.477,8
5168,5168,2021-01-22 13:39:17.228,7097.1943,8
5178,5178,2021-01-22 13:39:47.228,7110.878000000001,8
5188,5188,2021-01-22 13:40:17.228,7117.0493,8
5198,5198,2021-01-22 13:40:47.228,7128.286,8
5208,5208,2021-01-22 13:41:17.228,7129.380999999999,8
5218,5218,2021-01-22 13:41:47.228,7135.719,8
5228,5228,2021-01-22 13:42:17.228,7132.285,8
5238,5238,2021-01-22 13:42:47.228,7111.24,8
5248,5248,2021-01-22 13:43:17.228,7086.5205,8
5258,5258,2021-01-22 13:43:47.228,6902.562,8
5268,5268,2021-01-22 13:44:17.228,6853.234,8
5278,5278,2021-01-22 13:44:47.228,6851.1396,8
5288,5288,2021-01-22 13:45:17.228,6850.741999999999,8
5298,5298,2021-01-22 13:45:47.228,6817.2485,8
5308,5308,2021-01-22 13:46:17.228,6796.729,8
5318,5318,2021-01-22 13:46:47.228,6776.4277,8
5328,5328,2021-01-22 13:47:17.228,6750.361,8
5338,5338,2021-01-22 13:47:47.228,6743.465999999999,8
5348,5348,2021-01-22 13:48:17.228,6742.2715,8
5358,5358,2021-01-22 13:48:47.228,6799.6133,8
5368,5368,2021-01-22 13:49:17.228,6805.187,8
5378,5378,2021-01-22 13:49:47.228,6822.5503,8
5388,5388,2021-01-22 13:50:17.228,6832.4473,8
5398,5398,2021-01-22 13:50:47.228,6694.4966,8
5408,5408,2021-01-22 13:51:17.228,6500.715999999999,8
5418,5418,2021-01-22 13:51:47.228,6530.7344,8
5428,5428,2021-01-22 13:52:17.228,6583.437,8
5438,5438,2021-01-22 13:52:47.228,6598.0146,8
5448,5448,2021-01-22 13:53:17.228,6604.439,8
5458,5458,2021-01-22 13:53:47.228,6619.6074,8
5468,5468,2021-01-22 13:54:17.228,6625.9785,8
5478,5478,2021-01-22 13:54:47.228,6611.713000000001,8
5488,5488,2021-01-22 13:55:17.228,6594.3633,8
5498,5498,2021-01-22 13:55:47.228,6602.203,8
5508,5508,2021-01-22 13:56:17.228,6565.8945,8
5518,5518,2021-01-22 13:56:47.228,6367.0527,8
5528,5528,2021-01-22 13:57:17.228,6323.5903,8
5538,5538,2021-01-22 13:57:47.228,6306.107,8
5548,5548,2021-01-22 13:58:17.228,6295.0303,8
5558,5558,2021-01-22 13:58:47.228,6277.0723,8
5568,5568,2021-01-22 13:59:17.228,6259.6484,8
5578,5578,2021-01-22 13:59:47.228,6233.7856,8
5588,5588,2021-01-22 14:00:17.228,6215.3657,8
5598,5598,2021-01-22 14:00:47.228,6213.0254,8
5608,5608,2021-01-22 14:01:17.228,6276.991999999999,8
5618,5618,2021-01-22 14:01:47.228,6279.672,8
5628,5628,2021-01-22 14:02:17.228,6284.2236,8
5638,5638,2021-01-22 14:02:47.228,6161.7812,8
5648,5648,2021-01-22 14:03:17.228,6159.8438,8
5658,5658,2021-01-22 14:03:47.228,6152.9155,8
5668,5668,2021-01-22 14:04:17.228,6137.9937,8
5678,5678,2021-01-22 14:04:47.228,6133.293000000001,8
5688,5688,2021-01-22 14:05:17.228,6141.1846,8
5698,5698,2021-01-22 14:05:47.228,6159.311,8
5708,5708,2021-01-22 14:06:17.228,6163.1177,8
5718,5718,2021-01-22 14:06:47.228,6149.403,8
5728,5728,2021-01-22 14:07:17.228,6139.27,8
5738,5738,2021-01-22 14:07:47.228,6103.741999999999,8
5748,5748,2021-01-22 14:08:17.228,5891.7207,8
5758,5758,2021-01-22 14:08:47.228,5863.2017,8
5768,5768,2021-01-22 14:09:17.228,5857.335999999999,8
5778,5778,2021-01-22 14:09:47.228,5858.0645,8
5788,5788,2021-01-22 14:10:17.228,5879.8115,8
5798,5798,2021-01-22 14:10:47.228,5875.143,8
5808,5808,2021-01-22 14:11:17.228,5876.4404,8
5818,5818,2021-01-22 14:11:47.228,5858.1255,8
5828,5828,2021-01-22 14:12:17.228,5852.116,8
5838,5838,2021-01-22 14:12:47.228,5858.9937,8
5848,5848,2021-01-22 14:13:17.228,5859.8486,8
5858,5858,2021-01-22 14:13:47.228,5768.177,8
5868,5868,2021-01-22 14:14:17.228,5794.8525,8
5878,5878,2021-01-22 14:14:47.228,5811.8555,8
5888,5888,2021-01-22 14:15:17.228,5810.5596,8
5898,5898,2021-01-22 14:15:47.228,5781.8584,8
5908,5908,2021-01-22 14:16:17.228,5769.3926,8
5918,5918,2021-01-22 14:16:47.228,5775.119000000001,8
5928,5928,2021-01-22 14:17:17.228,5800.774,8
5938,5938,2021-01-22 14:17:47.228,5799.066999999999,8
5948,5948,2021-01-22 14:18:17.228,5786.5728,8
5958,5958,2021-01-22 14:18:47.228,5726.6333,8
5968,5968,2021-01-22 14:19:17.228,5564.109,8
5978,5978,2021-01-22 14:19:47.228,5553.2905,8
5988,5988,2021-01-22 14:20:17.228,5585.8037,8
5998,5998,2021-01-22 14:20:47.228,5585.3477,8
6008,6008,2021-01-22 14:21:17.228,5583.601,8
6018,6018,2021-01-22 14:21:47.228,5565.478,8
6028,6028,2021-01-22 14:22:17.228,5561.9263,8
6038,6038,2021-01-22 14:22:47.228,5551.1294,8
6048,6048,2021-01-22 14:23:17.228,5529.679,8
6058,6058,2021-01-22 14:23:47.228,5530.558000000001,8
6068,6068,2021-01-22 14:24:17.228,5532.7407,8
6078,6078,2021-01-22 14:24:47.228,5441.2827,8
6088,6088,2021-01-22 14:25:17.228,5432.088000000001,8
6098,6098,2021-01-22 14:25:47.228,5454.01,8
6108,6108,2021-01-22 14:26:17.228,5452.8164,8
6118,6118,2021-01-22 14:26:47.228,5400.215,8
6128,6128,2021-01-22 14:27:17.228,5394.196,8
6138,6138,2021-01-22 14:27:47.228,5409.4634,8
6148,6148,2021-01-22 14:28:17.228,5422.95,8
6158,6158,2021-01-22 14:28:47.228,5420.7085,8
6168,6168,2021-01-22 14:29:17.228,5413.273,8
6178,6178,2021-01-22 14:29:47.228,5361.7866,8
6188,6188,2021-01-22 14:30:17.228,5179.6963,8
6198,6198,2021-01-22 14:30:47.228,5169.1494,8
6208,6208,2021-01-22 14:31:17.228,5201.878,8
6218,6218,2021-01-22 14:31:47.228,5195.529,8
6228,6228,2021-01-22 14:32:17.228,5191.641,8
6238,6238,2021-01-22 14:32:47.228,5178.2593,8
6248,6248,2021-01-22 14:33:17.228,5165.3279999999995,8
6258,6258,2021-01-22 14:33:47.228,5154.4688,8
6268,6268,2021-01-22 14:34:17.228,5140.2886,8
6278,6278,2021-01-22 14:34:47.228,5035.674,8
6288,6288,2021-01-22 14:35:17.228,5001.999,8
6298,6298,2021-01-22 14:35:47.228,5010.6187,8
6308,6308,2021-01-22 14:36:17.228,5018.851,8
6318,6318,2021-01-22 14:36:47.228,5018.2793,8
6328,6328,2021-01-22 14:37:17.228,4944.505,8
6338,6338,2021-01-22 14:37:47.228,4948.2827,8
6348,6348,2021-01-22 14:38:17.228,4974.2964,8
6358,6358,2021-01-22 14:38:47.228,4973.561,8
6368,6368,2021-01-22 14:39:17.228,4969.5547,8
6378,6378,2021-01-22 14:39:47.228,4949.252,8
6388,6388,2021-01-22 14:40:17.228,4770.584,8
6398,6398,2021-01-22 14:40:47.228,4756.9097,8
6408,6408,2021-01-22 14:41:17.228,4749.3003,8
6418,6418,2021-01-22 14:41:47.228,4738.936,8
6428,6428,2021-01-22 14:42:17.228,4724.9126,8
6438,6438,2021-01-22 14:42:47.228,4718.8857,8
6448,6448,2021-01-22 14:43:17.228,4699.6987,8
6458,6458,2021-01-22 14:43:47.228,4686.3857,8
6468,6468,2021-01-22 14:44:17.228,4592.092000000001,8
6478,6478,2021-01-22 14:44:47.228,4619.295,8
6488,6488,2021-01-22 14:45:17.228,4627.0264,8
6498,6498,2021-01-22 14:45:47.228,4599.78,8
6508,6508,2021-01-22 14:46:17.228,4585.7017,8
6518,6518,2021-01-22 14:46:47.228,4563.1694,8
6528,6528,2021-01-22 14:47:17.228,4627.062,8
6538,6538,2021-01-22 14:47:47.228,4620.1353,8
6548,6548,2021-01-22 14:48:17.228,4624.575,8
6558,6558,2021-01-22 14:48:47.228,4625.429,8
6568,6568,2021-01-22 14:49:17.228,4616.4165,8
6578,6578,2021-01-22 14:49:47.228,4474.2609999999995,8
6588,6588,2021-01-22 14:50:17.228,4466.188,8
6598,6598,2021-01-22 14:50:47.228,4455.7407,8
6608,6608,2021-01-22 14:51:17.228,4445.8047,8
6618,6618,2021-01-22 14:51:47.228,4440.8926,8
6628,6628,2021-01-22 14:52:17.228,4427.4259999999995,8
6638,6638,2021-01-22 14:52:47.228,4405.027,8
6648,6648,2021-01-22 14:53:17.228,4401.5103,8
6658,6658,2021-01-22 14:53:47.228,4298.281,8
6668,6668,2021-01-22 14:54:17.228,4247.6543,8
6678,6678,2021-01-22 14:54:47.228,4264.525,8
6688,6688,2021-01-22 14:55:17.228,4308.622,8
6698,6698,2021-01-22 14:55:47.228,4309.849,8
6708,6708,2021-01-22 14:56:17.228,4270.0806,8
6718,6718,2021-01-22 14:56:47.228,4215.181,8
6728,6728,2021-01-22 14:57:17.228,4257.7666,8
6738,6738,2021-01-22 14:57:47.228,4272.4688,8
6748,6748,2021-01-22 14:58:17.228,4275.1406,8
6758,6758,2021-01-22 14:58:47.228,4276.666,8
6768,6768,2021-01-22 14:59:17.228,4217.1216,8
6778,6778,2021-01-22 14:59:47.228,4056.5217,8
6788,6788,2021-01-22 15:00:17.228,4040.2188,8
6798,6798,2021-01-22 15:00:47.228,4026.357,8
6808,6808,2021-01-22 15:01:17.228,4016.9673,8
6818,6818,2021-01-22 15:01:47.228,3994.7102,8
6828,6828,2021-01-22 15:02:17.228,3971.7454,8
6838,6838,2021-01-22 15:02:47.228,3966.2634,8
6848,6848,2021-01-22 15:03:17.228,3864.429,8
6858,6858,2021-01-22 15:03:47.228,3900.9148,8
6868,6868,2021-01-22 15:04:17.228,3909.4302,8
6878,6878,2021-01-22 15:04:47.228,3894.7893,8
6888,6888,2021-01-22 15:05:17.228,3872.9443,8
6898,6898,2021-01-22 15:05:47.228,3769.8557,8
6908,6908,2021-01-22 15:06:17.228,3657.0737,8
6918,6918,2021-01-22 15:06:47.228,3949.3779999999997,8
6928,6928,2021-01-22 15:07:17.228,3945.1484,8
6938,6938,2021-01-22 15:07:47.228,3943.9512,8
6948,6948,2021-01-22 15:08:17.228,3944.6624,8
6958,6958,2021-01-22 15:08:47.228,3766.8579999999997,8
6968,6968,2021-01-22 15:09:17.228,3741.7148,8
6978,6978,2021-01-22 15:09:47.228,3735.0552,8
6988,6988,2021-01-22 15:10:17.228,3677.8867,8
6998,6998,2021-01-22 15:10:47.228,3596.3364,8
7008,7008,2021-01-22 15:11:17.228,3553.7424,8
7018,7018,2021-01-22 15:11:47.228,3597.337,8
7028,7028,2021-01-22 15:12:17.228,3603.8774,8
7038,7038,2021-01-22 15:12:47.228,3590.752,8
7048,7048,2021-01-22 15:13:17.228,3595.5537,8
7058,7058,2021-01-22 15:13:47.228,3582.572,8
7068,7068,2021-01-22 15:14:17.228,3566.88,8
7078,7078,2021-01-22 15:14:47.228,3603.2495,8
7088,7088,2021-01-22 15:15:17.228,3571.4158,8
7098,7098,2021-01-22 15:15:47.228,3366.969,8
7108,7108,2021-01-22 15:16:17.228,3356.0483,8
7118,7118,2021-01-22 15:16:47.228,3351.2275,8
7128,7128,2021-01-22 15:17:17.228,3359.7468,8
7138,7138,2021-01-22 15:17:47.228,3376.5393,8
7148,7148,2021-01-22 15:18:17.228,3287.0447,8
7158,7158,2021-01-22 15:18:47.228,3304.304,8
7168,7168,2021-01-22 15:19:17.228,3324.8940000000002,8
7178,7178,2021-01-22 15:19:47.228,3311.2769,8
7188,7188,2021-01-22 15:20:17.228,3285.742,8
7198,7198,2021-01-22 15:20:47.228,3194.2317,8
7208,7208,2021-01-22 15:21:17.228,3090.5752,8
7218,7218,2021-01-22 15:21:47.228,3309.8975,8
7228,7228,2021-01-22 15:22:17.228,3299.4817,8
7238,7238,2021-01-22 15:22:47.228,3294.0845,8
7248,7248,2021-01-22 15:23:17.228,3121.409,8
7258,7258,2021-01-22 15:23:47.228,3091.6209999999996,8
7268,7268,2021-01-22 15:24:17.228,3098.9502,8
7278,7278,2021-01-22 15:24:47.228,3109.6123,8
7288,7288,2021-01-22 15:25:17.228,3014.4087,8
7298,7298,2021-01-22 15:25:47.228,2899.0645,8
7308,7308,2021-01-22 15:26:17.228,2917.0781,8
7318,7318,2021-01-22 15:26:47.228,2982.5654,8
7328,7328,2021-01-22 15:27:17.228,2994.9617,8
7338,7338,2021-01-22 15:27:47.228,2981.4644,8
7348,7348,2021-01-22 15:28:17.228,2966.842,8
7358,7358,2021-01-22 15:28:47.228,2953.2407,8
7368,7368,2021-01-22 15:29:17.228,2941.8467,8
7378,7378,2021-01-22 15:29:47.228,2928.1090000000004,8
7388,7388,2021-01-22 15:30:17.228,2838.2341,8
7398,7398,2021-01-22 15:30:47.228,2687.402,8
7408,7408,2021-01-22 15:31:17.228,2672.3887,8
7418,7418,2021-01-22 15:31:47.228,2674.345,8
7428,7428,2021-01-22 15:32:17.228,2604.8662,8
7438,7438,2021-01-22 15:32:47.228,2610.0627,8
7448,7448,2021-01-22 15:33:17.228,2637.7043,8
7458,7458,2021-01-22 15:33:47.228,2665.3225,8
7468,7468,2021-01-22 15:34:17.228,2641.2090000000003,8
7478,7478,2021-01-22 15:34:47.228,2512.9139999999998,8
7488,7488,2021-01-22 15:35:17.228,2405.2183,8
7498,7498,2021-01-22 15:35:47.228,2391.2239,8
7508,7508,2021-01-22 15:36:17.228,2399.0146,8
7518,7518,2021-01-22 15:36:47.228,2513.6628,8
7528,7528,2021-01-22 15:37:17.228,2406.158,8
7538,7538,2021-01-22 15:37:47.228,2270.081,8
7548,7548,2021-01-22 15:38:17.228,2141.4219,8
7558,7558,2021-01-22 15:38:47.228,2217.1458,8
7568,7568,2021-01-22 15:39:17.228,2333.5,8
7578,7578,2021-01-22 15:39:47.228,2360.2773,8
7588,7588,2021-01-22 15:40:17.228,2352.3208,8
7598,7598,2021-01-22 15:40:47.228,2337.3105,8
7608,7608,2021-01-22 15:41:17.228,2326.1748,8
7618,7618,2021-01-22 15:41:47.228,2313.5486,8
7628,7628,2021-01-22 15:42:17.228,2310.827,8
7638,7638,2021-01-22 15:42:47.228,2307.075,8
7648,7648,2021-01-22 15:43:17.228,2214.3313,8
7658,7658,2021-01-22 15:43:47.228,1924.3865,8
7668,7668,2021-01-22 15:44:17.228,1918.8120000000001,8
7678,7678,2021-01-22 15:44:47.228,1994.8531,8
7688,7688,2021-01-22 15:45:17.228,2035.9697,8
7698,7698,2021-01-22 15:45:47.228,2029.6805,8
7708,7708,2021-01-22 15:46:17.228,1960.398,8
7718,7718,2021-01-22 15:46:47.228,1817.0157,8
7728,7728,2021-01-22 15:47:17.228,1786.3143,8
7738,7738,2021-01-22 15:47:47.228,1746.5265,8
7748,7748,2021-01-22 15:48:17.228,1726.963,8
7758,7758,2021-01-22 15:48:47.228,1699.7515,8
7768,7768,2021-01-22 15:49:17.228,1558.7517,8
7778,7778,2021-01-22 15:49:47.228,1683.5079,8
7788,7788,2021-01-22 15:50:17.228,1764.5422,8
7798,7798,2021-01-22 15:50:47.228,1769.3717,8
7808,7808,2021-01-22 15:51:17.228,1749.2914,8
7818,7818,2021-01-22 15:51:47.228,1582.5693,8
7828,7828,2021-01-22 15:52:17.228,1622.4131,8
7838,7838,2021-01-22 15:52:47.228,1526.8221,8
7848,7848,2021-01-22 15:53:17.228,1395.5465,8
7858,7858,2021-01-22 15:53:47.228,1408.7557,8
7868,7868,2021-01-22 15:54:17.228,1489.2009,8
7878,7878,2021-01-22 15:54:47.228,1499.7753,8
7888,7888,2021-01-22 15:55:17.228,1485.0514,8
7898,7898,2021-01-22 15:55:47.228,1471.2433,8
7908,7908,2021-01-22 15:56:17.228,1471.3433,8
7918,7918,2021-01-22 15:56:47.228,1264.5922,8
7928,7928,2021-01-22 15:57:17.228,1210.3285,8
7938,7938,2021-01-22 15:57:47.228,1121.2589,8
7948,7948,2021-01-22 15:58:17.228,1162.4188,8
7958,7958,2021-01-22 15:58:47.228,1171.6895,8
7968,7968,2021-01-22 15:59:17.228,1144.4856,8
7978,7978,2021-01-22 15:59:47.228,1023.878,8
7988,7988,2021-01-22 16:00:17.228,620.4471,8
7998,7998,2021-01-22 16:00:47.228,535.9423,8
8008,8008,2021-01-22 16:01:17.228,640.3949,8
8018,8018,2021-01-22 16:01:47.228,894.2806400000001,8
8028,8028,2021-01-22 16:02:17.228,931.30396,8
8038,8038,2021-01-22 16:02:47.228,689.0417,8
8048,8048,2021-01-22 16:03:17.228,325.12237999999996,8
8058,8058,2021-01-22 16:03:47.228,292.80045,8
8068,8068,2021-01-22 16:04:17.228,455.50687,8
8078,8078,2021-01-22 16:04:47.228,644.6433,8
