,Unnamed: 0,time,prediction,real,step
11180,11180,2021-02-12 12:18:25.395,1.0,1.0,0
11190,11190,2021-02-12 12:18:55.395,1.0,1.0,0
11200,11200,2021-02-12 12:19:25.395,1.0,1.0,0
11210,11210,2021-02-12 12:19:55.395,1.0,1.0,0
11220,11220,2021-02-12 12:20:25.395,1.0,1.0,0
11230,11230,2021-02-12 12:20:55.395,1.0,1.0,0
11240,11240,2021-02-12 12:21:25.395,1.0,1.0,0
11250,11250,2021-02-12 12:21:55.395,1.0,1.0,0
11260,11260,2021-02-12 12:22:25.395,1.0,1.0,0
11270,11270,2021-02-12 12:22:55.395,1.0,1.0,0
11280,11280,2021-02-12 12:23:25.395,1.0,1.0,0
11290,11290,2021-02-12 12:23:55.395,1.0,1.0,0
11300,11300,2021-02-12 12:24:25.395,1.0,1.0,0
11310,11310,2021-02-12 12:24:55.395,1.0,1.0,0
11320,11320,2021-02-12 12:25:25.395,1.0,1.0,0
11330,11330,2021-02-12 12:25:55.395,1.0,1.0,0
11340,11340,2021-02-12 12:26:25.395,1.0,1.0,0
11350,11350,2021-02-12 12:26:55.395,1.0,1.0,0
11360,11360,2021-02-12 12:27:25.395,1.0,1.0,0
11370,11370,2021-02-12 12:27:55.395,1.0,1.0,0
11380,11380,2021-02-12 12:28:25.395,1.0,1.0,0
11390,11390,2021-02-12 12:28:55.395,1.0,1.0,0
11400,11400,2021-02-12 12:29:25.395,1.0,1.0,0
11410,11410,2021-02-12 12:29:55.395,1.0,1.0,0
11420,11420,2021-02-12 12:30:25.395,1.0,1.0,0
11430,11430,2021-02-12 12:30:55.395,1.0,1.0,0
11440,11440,2021-02-12 12:31:25.395,1.0,1.0,0
11450,11450,2021-02-12 12:31:55.395,1.0,1.0,0
11460,11460,2021-02-12 12:32:25.395,1.0,1.0,0
11470,11470,2021-02-12 12:32:55.395,1.0,1.0,0
11480,11480,2021-02-12 12:33:25.395,1.0,1.0,0
11490,11490,2021-02-12 12:33:55.395,1.0,1.0,0
11500,11500,2021-02-12 12:34:25.395,1.0,1.0,0
11510,11510,2021-02-12 12:34:55.395,1.0,1.0,0
11520,11520,2021-02-12 12:35:25.395,1.0,1.0,0
11530,11530,2021-02-12 12:35:55.395,1.0,1.0,0
11540,11540,2021-02-12 12:36:25.395,1.0,1.0,0
11550,11550,2021-02-12 12:36:55.395,1.0,1.0,0
11560,11560,2021-02-12 12:37:25.395,1.0,1.0,0
11570,11570,2021-02-12 12:37:55.395,1.0,1.0,0
11580,11580,2021-02-12 12:38:25.395,1.0,1.0,0
11590,11590,2021-02-12 12:38:55.395,1.0,1.0,0
11600,11600,2021-02-12 12:39:25.395,1.0,1.0,0
11610,11610,2021-02-12 12:39:55.395,1.0,1.0,0
11620,11620,2021-02-12 12:40:25.395,1.0,1.0,0
11630,11630,2021-02-12 12:40:55.395,1.0,1.0,0
11640,11640,2021-02-12 12:41:25.395,1.0,1.0,0
11650,11650,2021-02-12 12:41:55.395,1.0,1.0,0
11660,11660,2021-02-12 12:42:25.395,1.0,1.0,0
11670,11670,2021-02-12 12:42:55.395,1.0,1.0,0
11680,11680,2021-02-12 12:43:25.395,1.0,1.0,0
11690,11690,2021-02-12 12:43:55.395,1.0,1.0,0
11700,11700,2021-02-12 12:44:25.395,1.0,1.0,0
11710,11710,2021-02-12 12:44:55.395,1.0,1.0,0
11720,11720,2021-02-12 12:45:25.395,1.0,1.0,0
11730,11730,2021-02-12 12:45:55.395,1.0,1.0,0
11740,11740,2021-02-12 12:46:25.395,1.0,1.0,0
11750,11750,2021-02-12 12:46:55.395,1.0,1.0,0
11760,11760,2021-02-12 12:47:25.395,1.0,1.0,0
11770,11770,2021-02-12 12:47:55.395,1.0,1.0,0
11780,11780,2021-02-12 12:48:25.395,1.0,1.0,0
11790,11790,2021-02-12 12:48:55.395,1.0,1.0,0
11800,11800,2021-02-12 12:49:25.395,1.0,1.0,0
11810,11810,2021-02-12 12:49:55.395,1.0,1.0,0
11820,11820,2021-02-12 12:50:25.395,1.0,1.0,0
11830,11830,2021-02-12 12:50:55.395,1.0,1.0,0
11840,11840,2021-02-12 12:51:25.395,1.0,1.0,0
11850,11850,2021-02-12 12:51:55.395,1.0,1.0,0
11860,11860,2021-02-12 12:52:25.395,1.0,1.0,0
11870,11870,2021-02-12 12:52:55.395,1.0,1.0,0
11880,11880,2021-02-12 12:53:25.395,1.0,1.0,0
11890,11890,2021-02-12 12:53:55.395,1.0,1.0,0
11900,11900,2021-02-12 12:54:25.395,1.0,1.0,0
11910,11910,2021-02-12 12:54:55.395,1.0,1.0,0
11920,11920,2021-02-12 12:55:25.395,1.0,1.0,0
11930,11930,2021-02-12 12:55:55.395,1.0,1.0,0
11940,11940,2021-02-12 12:56:25.395,1.0,1.0,0
11950,11950,2021-02-12 12:56:55.395,1.0,1.0,0
11960,11960,2021-02-12 12:57:25.395,1.0,1.0,0
11970,11970,2021-02-12 12:57:55.395,1.0,1.0,0
11980,11980,2021-02-12 12:58:25.395,1.0,1.0,0
11990,11990,2021-02-12 12:58:55.395,1.0,1.0,0
12000,12000,2021-02-12 12:59:25.395,1.0,1.0,0
12010,12010,2021-02-12 12:59:55.395,1.0,1.0,0
12020,12020,2021-02-12 13:00:25.395,1.0,1.0,0
12030,12030,2021-02-12 13:00:55.395,1.0,1.0,0
12040,12040,2021-02-12 13:01:25.395,1.0,1.0,0
12050,12050,2021-02-12 13:01:55.395,1.0,1.0,0
12060,12060,2021-02-12 13:02:25.395,1.0,1.0,0
12070,12070,2021-02-12 13:02:55.395,1.0,1.0,0
12080,12080,2021-02-12 13:03:25.395,1.0,1.0,0
12090,12090,2021-02-12 13:03:55.395,1.0,1.0,0
12100,12100,2021-02-12 13:04:25.395,1.0,1.0,0
12110,12110,2021-02-12 13:04:55.395,1.0,1.0,0
12120,12120,2021-02-12 13:05:25.395,1.0,1.0,0
12130,12130,2021-02-12 13:05:55.395,1.0,1.0,0
12140,12140,2021-02-12 13:06:25.395,1.0,1.0,0
12150,12150,2021-02-12 13:06:55.395,1.0,1.0,0
12160,12160,2021-02-12 13:07:25.395,1.0,1.0,0
12170,12170,2021-02-12 13:07:55.395,1.0,1.0,0
12180,12180,2021-02-12 13:08:25.395,1.0,1.0,0
12190,12190,2021-02-12 13:08:55.395,1.0,1.0,0
12200,12200,2021-02-12 13:09:25.395,1.0,1.0,0
12210,12210,2021-02-12 13:09:55.395,1.0,1.0,0
12220,12220,2021-02-12 13:10:25.395,1.0,1.0,0
12230,12230,2021-02-12 13:10:55.395,1.0,1.0,0
12240,12240,2021-02-12 13:11:25.395,1.0,1.0,0
12250,12250,2021-02-12 13:11:55.395,1.0,1.0,0
12260,12260,2021-02-12 13:12:25.395,1.0,1.0,0
12270,12270,2021-02-12 13:12:55.395,1.0,1.0,0
12280,12280,2021-02-12 13:13:25.395,1.0,1.0,0
12290,12290,2021-02-12 13:13:55.395,1.0,1.0,0
12300,12300,2021-02-12 13:14:25.395,1.0,1.0,0
12310,12310,2021-02-12 13:14:55.395,1.0,1.0,0
12320,12320,2021-02-12 13:15:25.395,1.0,1.0,0
12330,12330,2021-02-12 13:15:55.395,1.0,1.0,0
12340,12340,2021-02-12 13:16:25.395,1.0,1.0,0
12350,12350,2021-02-12 13:16:55.395,1.0,1.0,0
12360,12360,2021-02-12 13:17:25.395,1.0,1.0,0
12370,12370,2021-02-12 13:17:55.395,1.0,1.0,0
12380,12380,2021-02-12 13:18:25.395,1.0,1.0,0
12390,12390,2021-02-12 13:18:55.395,1.0,1.0,0
12400,12400,2021-02-12 13:19:25.395,1.0,1.0,0
12410,12410,2021-02-12 13:19:55.395,1.0,1.0,0
12420,12420,2021-02-12 13:20:25.395,1.0,1.0,0
12430,12430,2021-02-12 13:20:55.395,1.0,1.0,0
12440,12440,2021-02-12 13:21:25.395,1.0,1.0,0
12450,12450,2021-02-12 13:21:55.395,1.0,1.0,0
12460,12460,2021-02-12 13:22:25.395,1.0,1.0,0
12470,12470,2021-02-12 13:22:55.395,1.0,1.0,0
12480,12480,2021-02-12 13:23:25.395,1.0,1.0,0
12490,12490,2021-02-12 13:23:55.395,1.0,1.0,0
12500,12500,2021-02-12 13:24:25.395,1.0,1.0,0
12510,12510,2021-02-12 13:24:55.395,1.0,1.0,0
12520,12520,2021-02-12 13:25:25.395,1.0,1.0,0
12530,12530,2021-02-12 13:25:55.395,1.0,1.0,0
12540,12540,2021-02-12 13:26:25.395,1.0,1.0,0
12550,12550,2021-02-12 13:26:55.395,1.0,1.0,0
12560,12560,2021-02-12 13:27:25.395,1.0,1.0,0
12570,12570,2021-02-12 13:27:55.395,1.0,1.0,0
12580,12580,2021-02-12 13:28:25.395,1.0,1.0,0
12590,12590,2021-02-12 13:28:55.395,1.0,1.0,0
12600,12600,2021-02-12 13:29:25.395,1.0,1.0,0
12610,12610,2021-02-12 13:29:55.395,1.0,1.0,0
12620,12620,2021-02-12 13:30:25.395,1.0,1.0,0
12630,12630,2021-02-12 13:30:55.395,1.0,1.0,0
12640,12640,2021-02-12 13:31:25.395,1.0,1.0,0
12650,12650,2021-02-12 13:31:55.395,1.0,1.0,0
12660,12660,2021-02-12 13:32:25.395,1.0,1.0,0
12670,12670,2021-02-12 13:32:55.395,1.0,1.0,0
12680,12680,2021-02-12 13:33:25.395,1.0,1.0,0
12690,12690,2021-02-12 13:33:55.395,1.0,1.0,0
12700,12700,2021-02-12 13:34:25.395,1.0,1.0,0
12710,12710,2021-02-12 13:34:55.395,1.0,1.0,0
12720,12720,2021-02-12 13:35:25.395,1.0,1.0,0
12730,12730,2021-02-12 13:35:55.395,1.0,1.0,0
12740,12740,2021-02-12 13:36:25.395,1.0,1.0,0
12750,12750,2021-02-12 13:36:55.395,1.0,1.0,0
12760,12760,2021-02-12 13:37:25.395,1.0,1.0,0
12770,12770,2021-02-12 13:37:55.395,1.0,1.0,0
12780,12780,2021-02-12 13:38:25.395,1.0,1.0,0
12790,12790,2021-02-12 13:38:55.395,1.0,1.0,0
12800,12800,2021-02-12 13:39:25.395,1.0,1.0,0
12810,12810,2021-02-12 13:39:55.395,1.0,1.0,0
12820,12820,2021-02-12 13:40:25.395,1.0,1.0,0
12830,12830,2021-02-12 13:40:55.395,1.0,1.0,0
12840,12840,2021-02-12 13:41:25.395,1.0,1.0,0
12850,12850,2021-02-12 13:41:55.395,1.0,1.0,0
12860,12860,2021-02-12 13:42:25.395,1.0,1.0,0
12870,12870,2021-02-12 13:42:55.395,1.0,1.0,0
12880,12880,2021-02-12 13:43:25.395,1.0,1.0,0
12890,12890,2021-02-12 13:43:55.395,1.0,1.0,0
12900,12900,2021-02-12 13:44:25.395,1.0,1.0,0
12910,12910,2021-02-12 13:44:55.395,1.0,1.0,0
12920,12920,2021-02-12 13:45:25.395,1.0,1.0,0
12930,12930,2021-02-12 13:45:55.395,1.0,1.0,0
12940,12940,2021-02-12 13:46:25.395,1.0,1.0,0
12950,12950,2021-02-12 13:46:55.395,1.0,1.0,0
12960,12960,2021-02-12 13:47:25.395,1.0,1.0,0
12970,12970,2021-02-12 13:47:55.395,1.0,1.0,0
12980,12980,2021-02-12 13:48:25.395,1.0,1.0,0
12990,12990,2021-02-12 13:48:55.395,1.0,1.0,0
13000,13000,2021-02-12 13:49:25.395,1.0,1.0,0
13010,13010,2021-02-12 13:49:55.395,1.0,1.0,0
13020,13020,2021-02-12 13:50:25.395,1.0,1.0,0
13030,13030,2021-02-12 13:50:55.395,1.0,1.0,0
13040,13040,2021-02-12 13:51:25.395,1.0,1.0,0
13050,13050,2021-02-12 13:51:55.395,1.0,1.0,0
13060,13060,2021-02-12 13:52:25.395,1.0,1.0,0
13070,13070,2021-02-12 13:52:55.395,1.0,1.0,0
13080,13080,2021-02-12 13:53:25.395,1.0,1.0,0
13090,13090,2021-02-12 13:53:55.395,1.0,1.0,0
13100,13100,2021-02-12 13:54:25.395,1.0,1.0,0
13110,13110,2021-02-12 13:54:55.395,1.0,1.0,0
13120,13120,2021-02-12 13:55:25.395,1.0,1.0,0
13130,13130,2021-02-12 13:55:55.395,1.0,1.0,0
13140,13140,2021-02-12 13:56:25.395,1.0,1.0,0
13150,13150,2021-02-12 13:56:55.395,1.0,1.0,0
13160,13160,2021-02-12 13:57:25.395,1.0,1.0,0
13170,13170,2021-02-12 13:57:55.395,1.0,1.0,0
13180,13180,2021-02-12 13:58:25.395,1.0,1.0,0
13190,13190,2021-02-12 13:58:55.395,1.0,1.0,0
13200,13200,2021-02-12 13:59:25.395,1.0,1.0,0
13210,13210,2021-02-12 13:59:55.395,1.0,1.0,0
13220,13220,2021-02-12 14:00:25.395,1.0,1.0,0
13230,13230,2021-02-12 14:00:55.395,1.0,1.0,0
13240,13240,2021-02-12 14:01:25.395,1.0,1.0,0
13250,13250,2021-02-12 14:01:55.395,1.0,1.0,0
13260,13260,2021-02-12 14:02:25.395,1.0,1.0,0
13270,13270,2021-02-12 14:02:55.395,1.0,1.0,0
13280,13280,2021-02-12 14:03:25.395,1.0,1.0,0
13290,13290,2021-02-12 14:03:55.395,1.0,1.0,0
13300,13300,2021-02-12 14:04:25.395,1.0,1.0,0
13310,13310,2021-02-12 14:04:55.395,1.0,1.0,0
13320,13320,2021-02-12 14:05:25.395,1.0,1.0,0
13330,13330,2021-02-12 14:05:55.395,1.0,1.0,0
13340,13340,2021-02-12 14:06:25.395,1.0,1.0,0
13350,13350,2021-02-12 14:06:55.395,1.0,1.0,0
13360,13360,2021-02-12 14:07:25.395,1.0,1.0,0
13370,13370,2021-02-12 14:07:55.395,1.0,1.0,0
13380,13380,2021-02-12 14:08:25.395,1.0,1.0,0
13390,13390,2021-02-12 14:08:55.395,1.0,1.0,0
13400,13400,2021-02-12 14:09:25.395,1.0,1.0,0
13410,13410,2021-02-12 14:09:55.395,1.0,1.0,0
13420,13420,2021-02-12 14:10:25.395,1.0,1.0,0
13430,13430,2021-02-12 14:10:55.395,1.0,1.0,0
13440,13440,2021-02-12 14:11:25.395,1.0,1.0,0
13450,13450,2021-02-12 14:11:55.395,1.0,1.0,0
13460,13460,2021-02-12 14:12:25.395,1.0,1.0,0
13470,13470,2021-02-12 14:12:55.395,1.0,1.0,0
13480,13480,2021-02-12 14:13:25.395,1.0,1.0,0
13490,13490,2021-02-12 14:13:55.395,1.0,1.0,0
13500,13500,2021-02-12 14:14:25.395,1.0,1.0,0
13510,13510,2021-02-12 14:14:55.395,1.0,1.0,0
13520,13520,2021-02-12 14:15:25.395,1.0,1.0,0
13530,13530,2021-02-12 14:15:55.395,1.0,1.0,0
13540,13540,2021-02-12 14:16:25.395,1.0,1.0,0
13550,13550,2021-02-12 14:16:55.395,1.0,1.0,0
13560,13560,2021-02-12 14:17:25.395,1.0,1.0,0
13570,13570,2021-02-12 14:17:55.395,1.0,1.0,0
13580,13580,2021-02-12 14:18:25.395,1.0,1.0,0
13590,13590,2021-02-12 14:18:55.395,1.0,1.0,0
13600,13600,2021-02-12 14:19:25.395,1.0,1.0,0
13610,13610,2021-02-12 14:19:55.395,1.0,1.0,0
13620,13620,2021-02-12 14:20:25.395,1.0,1.0,0
13630,13630,2021-02-12 14:20:55.395,1.0,1.0,0
13640,13640,2021-02-12 14:21:25.395,1.0,1.0,0
13650,13650,2021-02-12 14:21:55.395,1.0,1.0,0
13660,13660,2021-02-12 14:22:25.395,1.0,1.0,0
13670,13670,2021-02-12 14:22:55.395,1.0,1.0,0
13680,13680,2021-02-12 14:23:25.395,1.0,1.0,0
13690,13690,2021-02-12 14:23:55.395,1.0,1.0,0
13700,13700,2021-02-12 14:24:25.395,1.0,1.0,0
13710,13710,2021-02-12 14:24:55.395,1.0,1.0,0
13720,13720,2021-02-12 14:25:25.395,1.0,1.0,0
13730,13730,2021-02-12 14:25:55.395,1.0,1.0,0
13740,13740,2021-02-12 14:26:25.395,1.0,1.0,0
13750,13750,2021-02-12 14:26:55.395,1.0,1.0,0
13760,13760,2021-02-12 14:27:25.395,1.0,1.0,0
13770,13770,2021-02-12 14:27:55.395,1.0,1.0,0
13780,13780,2021-02-12 14:28:25.395,1.0,1.0,0
13790,13790,2021-02-12 14:28:55.395,1.0,1.0,0
13800,13800,2021-02-12 14:29:25.395,1.0,1.0,0
13810,13810,2021-02-12 14:29:55.395,1.0,1.0,0
13820,13820,2021-02-12 14:30:25.395,1.0,1.0,0
13830,13830,2021-02-12 14:30:55.395,1.0,1.0,0
13840,13840,2021-02-12 14:31:25.395,1.0,1.0,0
13850,13850,2021-02-12 14:31:55.395,1.0,1.0,0
13860,13860,2021-02-12 14:32:25.395,1.0,1.0,0
13870,13870,2021-02-12 14:32:55.395,1.0,1.0,0
13880,13880,2021-02-12 14:33:25.395,1.0,1.0,0
13890,13890,2021-02-12 14:33:55.395,1.0,1.0,0
13900,13900,2021-02-12 14:34:25.395,1.0,1.0,0
13910,13910,2021-02-12 14:34:55.395,1.0,1.0,0
13920,13920,2021-02-12 14:35:25.395,1.0,1.0,0
13930,13930,2021-02-12 14:35:55.395,1.0,1.0,0
13940,13940,2021-02-12 14:36:25.395,1.0,1.0,0
13950,13950,2021-02-12 14:36:55.395,1.0,1.0,0
13960,13960,2021-02-12 14:37:25.395,1.0,1.0,0
13970,13970,2021-02-12 14:37:55.395,1.0,1.0,0
13980,13980,2021-02-12 14:38:25.395,1.0,1.0,0
13990,13990,2021-02-12 14:38:55.395,1.0,1.0,0
14000,14000,2021-02-12 14:39:25.395,1.0,1.0,0
14010,14010,2021-02-12 14:39:55.395,1.0,1.0,0
14020,14020,2021-02-12 14:40:25.395,1.0,1.0,0
14030,14030,2021-02-12 14:40:55.395,1.0,1.0,0
14040,14040,2021-02-12 14:41:25.395,1.0,1.0,0
14050,14050,2021-02-12 14:41:55.395,1.0,1.0,0
14060,14060,2021-02-12 14:42:25.395,1.0,1.0,0
14070,14070,2021-02-12 14:42:55.395,1.0,1.0,0
14080,14080,2021-02-12 14:43:25.395,1.0,1.0,0
14090,14090,2021-02-12 14:43:55.395,1.0,1.0,0
14100,14100,2021-02-12 14:44:25.395,1.0,1.0,0
14110,14110,2021-02-12 14:44:55.395,1.0,1.0,0
14120,14120,2021-02-12 14:45:25.395,1.0,1.0,0
14130,14130,2021-02-12 14:45:55.395,1.0,1.0,0
14140,14140,2021-02-12 14:46:25.395,1.0,1.0,0
14150,14150,2021-02-12 14:46:55.395,1.0,1.0,0
14160,14160,2021-02-12 14:47:25.395,1.0,1.0,0
14170,14170,2021-02-12 14:47:55.395,1.0,1.0,0
14180,14180,2021-02-12 14:48:25.395,1.0,1.0,0
14190,14190,2021-02-12 14:48:55.395,1.0,1.0,0
14200,14200,2021-02-12 14:49:25.395,1.0,1.0,0
14210,14210,2021-02-12 14:49:55.395,1.0,1.0,0
14220,14220,2021-02-12 14:50:25.395,1.0,1.0,0
14230,14230,2021-02-12 14:50:55.395,1.0,1.0,0
14240,14240,2021-02-12 14:51:25.395,1.0,1.0,0
14250,14250,2021-02-12 14:51:55.395,1.0,1.0,0
14260,14260,2021-02-12 14:52:25.395,1.0,1.0,0
14270,14270,2021-02-12 14:52:55.395,1.0,1.0,0
14280,14280,2021-02-12 14:53:25.395,1.0,1.0,0
14290,14290,2021-02-12 14:53:55.395,1.0,1.0,0
14300,14300,2021-02-12 14:54:25.395,1.0,1.0,0
14310,14310,2021-02-12 14:54:55.395,1.0,1.0,0
14320,14320,2021-02-12 14:55:25.395,1.0,1.0,0
14330,14330,2021-02-12 14:55:55.395,1.0,1.0,0
14340,14340,2021-02-12 14:56:25.395,1.0,1.0,0
14350,14350,2021-02-12 14:56:55.395,1.0,1.0,0
14360,14360,2021-02-12 14:57:25.395,1.0,1.0,0
14370,14370,2021-02-12 14:57:55.395,1.0,1.0,0
14380,14380,2021-02-12 14:58:25.395,1.0,1.0,0
14390,14390,2021-02-12 14:58:55.395,1.0,1.0,0
14400,14400,2021-02-12 14:59:25.395,1.0,1.0,0
14410,14410,2021-02-12 14:59:55.395,1.0,1.0,0
14420,14420,2021-02-12 15:00:25.395,1.0,1.0,0
14430,14430,2021-02-12 15:00:55.395,1.0,1.0,0
14440,14440,2021-02-12 15:01:25.395,1.0,1.0,0
14450,14450,2021-02-12 15:01:55.395,1.0,1.0,0
14460,14460,2021-02-12 15:02:25.395,1.0,1.0,0
14470,14470,2021-02-12 15:02:55.395,1.0,1.0,0
14480,14480,2021-02-12 15:03:25.395,1.0,1.0,0
14490,14490,2021-02-12 15:03:55.395,1.0,1.0,0
14500,14500,2021-02-12 15:04:25.395,1.0,1.0,0
14510,14510,2021-02-12 15:04:55.395,1.0,1.0,0
14520,14520,2021-02-12 15:05:25.395,1.0,1.0,0
14530,14530,2021-02-12 15:05:55.395,1.0,1.0,0
14540,14540,2021-02-12 15:06:25.395,1.0,1.0,0
14550,14550,2021-02-12 15:06:55.395,1.0,1.0,0
14560,14560,2021-02-12 15:07:25.395,1.0,1.0,0
14570,14570,2021-02-12 15:07:55.395,1.0,1.0,0
14580,14580,2021-02-12 15:08:25.395,1.0,1.0,0
14590,14590,2021-02-12 15:08:55.395,1.0,1.0,0
14600,14600,2021-02-12 15:09:25.395,1.0,1.0,0
14610,14610,2021-02-12 15:09:55.395,1.0,1.0,0
14620,14620,2021-02-12 15:10:25.395,1.0,1.0,0
14630,14630,2021-02-12 15:10:55.395,1.0,1.0,0
14640,14640,2021-02-12 15:11:25.395,1.0,1.0,0
14650,14650,2021-02-12 15:11:55.395,1.0,1.0,0
14660,14660,2021-02-12 15:12:25.395,1.0,1.0,0
14670,14670,2021-02-12 15:12:55.395,1.0,1.0,0
14680,14680,2021-02-12 15:13:25.395,1.0,1.0,0
14690,14690,2021-02-12 15:13:55.395,1.0,1.0,0
14700,14700,2021-02-12 15:14:25.395,1.0,1.0,0
14710,14710,2021-02-12 15:14:55.395,1.0,1.0,0
14720,14720,2021-02-12 15:15:25.395,1.0,1.0,0
14730,14730,2021-02-12 15:15:55.395,1.0,1.0,0
14740,14740,2021-02-12 15:16:25.395,1.0,1.0,0
14750,14750,2021-02-12 15:16:55.395,1.0,1.0,0
14760,14760,2021-02-12 15:17:25.395,1.0,1.0,0
14770,14770,2021-02-12 15:17:55.395,1.0,1.0,0
14780,14780,2021-02-12 15:18:25.395,1.0,1.0,0
14790,14790,2021-02-12 15:18:55.395,1.0,1.0,0
14800,14800,2021-02-12 15:19:25.395,1.0,1.0,0
14810,14810,2021-02-12 15:19:55.395,1.0,1.0,0
14820,14820,2021-02-12 15:20:25.395,1.0,1.0,0
14830,14830,2021-02-12 15:20:55.395,1.0,1.0,0
14840,14840,2021-02-12 15:21:25.395,1.0,1.0,0
14850,14850,2021-02-12 15:21:55.395,1.0,1.0,0
14860,14860,2021-02-12 15:22:25.395,1.0,1.0,0
14870,14870,2021-02-12 15:22:55.395,1.0,1.0,0
14880,14880,2021-02-12 15:23:25.395,1.0,1.0,0
14890,14890,2021-02-12 15:23:55.395,1.0,1.0,0
14900,14900,2021-02-12 15:24:25.395,1.0,1.0,0
14910,14910,2021-02-12 15:24:55.395,1.0,1.0,0
14920,14920,2021-02-12 15:25:25.395,1.0,1.0,0
14930,14930,2021-02-12 15:25:55.395,1.0,1.0,0
14940,14940,2021-02-12 15:26:25.395,1.0,1.0,0
14950,14950,2021-02-12 15:26:55.395,1.0,1.0,0
14960,14960,2021-02-12 15:27:25.395,1.0,1.0,0
14970,14970,2021-02-12 15:27:55.395,1.0,1.0,0
14980,14980,2021-02-12 15:28:25.395,1.0,1.0,0
14990,14990,2021-02-12 15:28:55.395,1.0,1.0,0
15000,15000,2021-02-12 15:29:25.395,1.0,1.0,0
15010,15010,2021-02-12 15:29:55.395,1.0,1.0,0
15020,15020,2021-02-12 15:30:25.395,1.0,1.0,0
15030,15030,2021-02-12 15:30:55.395,1.0,1.0,0
15040,15040,2021-02-12 15:31:25.395,1.0,1.0,0
15050,15050,2021-02-12 15:31:55.395,1.0,1.0,0
15060,15060,2021-02-12 15:32:25.395,1.0,1.0,0
15070,15070,2021-02-12 15:32:55.395,1.0,1.0,0
15080,15080,2021-02-12 15:33:25.395,1.0,1.0,0
15090,15090,2021-02-12 15:33:55.395,1.0,1.0,0
15100,15100,2021-02-12 15:34:25.395,1.0,1.0,0
15110,15110,2021-02-12 15:34:55.395,1.0,1.0,0
15120,15120,2021-02-12 15:35:25.395,1.0,1.0,0
15130,15130,2021-02-12 15:35:55.395,1.0,1.0,0
15140,15140,2021-02-12 15:36:25.395,1.0,1.0,0
15150,15150,2021-02-12 15:36:55.395,1.0,1.0,0
15160,15160,2021-02-12 15:37:25.395,1.0,1.0,0
15170,15170,2021-02-12 15:37:55.395,1.0,1.0,0
15180,15180,2021-02-12 15:38:25.395,1.0,1.0,0
15190,15190,2021-02-12 15:38:55.395,1.0,1.0,0
15200,15200,2021-02-12 15:39:25.395,1.0,1.0,0
15210,15210,2021-02-12 15:39:55.395,1.0,1.0,0
15220,15220,2021-02-12 15:40:25.395,1.0,1.0,0
15230,15230,2021-02-12 15:40:55.395,1.0,1.0,0
15240,15240,2021-02-12 15:41:25.395,1.0,1.0,0
15250,15250,2021-02-12 15:41:55.395,1.0,1.0,0
15260,15260,2021-02-12 15:42:25.395,1.0,1.0,0
15270,15270,2021-02-12 15:42:55.395,1.0,1.0,0
15280,15280,2021-02-12 15:43:25.395,1.0,1.0,0
15290,15290,2021-02-12 15:43:55.395,1.0,1.0,0
15300,15300,2021-02-12 15:44:25.395,1.0,1.0,0
15310,15310,2021-02-12 15:44:55.395,1.0,1.0,0
15320,15320,2021-02-12 15:45:25.395,1.0,1.0,0
15330,15330,2021-02-12 15:45:55.395,1.0,1.0,0
15340,15340,2021-02-12 15:46:25.395,1.0,1.0,0
15350,15350,2021-02-12 15:46:55.395,1.0,1.0,0
15360,15360,2021-02-12 15:47:25.395,1.0,1.0,0
15370,15370,2021-02-12 15:47:55.395,1.0,1.0,0
15380,15380,2021-02-12 15:48:25.395,1.0,1.0,0
15390,15390,2021-02-12 15:48:55.395,1.0,1.0,0
15400,15400,2021-02-12 15:49:25.395,1.0,1.0,0
15410,15410,2021-02-12 15:49:55.395,1.0,1.0,0
15420,15420,2021-02-12 15:50:25.395,1.0,1.0,0
15430,15430,2021-02-12 15:50:55.395,1.0,1.0,0
15440,15440,2021-02-12 15:51:25.395,1.0,1.0,0
15450,15450,2021-02-12 15:51:55.395,1.0,1.0,0
15460,15460,2021-02-12 15:52:25.395,1.0,1.0,0
15470,15470,2021-02-12 15:52:55.395,1.0,1.0,0
15480,15480,2021-02-12 15:53:25.395,1.0,1.0,0
15490,15490,2021-02-12 15:53:55.395,1.0,1.0,0
15500,15500,2021-02-12 15:54:25.395,1.0,1.0,0
15510,15510,2021-02-12 15:54:55.395,1.0,1.0,0
15520,15520,2021-02-12 15:55:25.395,1.0,1.0,0
15530,15530,2021-02-12 15:55:55.395,1.0,1.0,0
15540,15540,2021-02-12 15:56:25.395,1.0,1.0,0
15550,15550,2021-02-12 15:56:55.395,1.0,1.0,0
15560,15560,2021-02-12 15:57:25.395,1.0,1.0,0
15570,15570,2021-02-12 15:57:55.395,1.0,1.0,0
15580,15580,2021-02-12 15:58:25.395,1.0,1.0,0
15590,15590,2021-02-12 15:58:55.395,1.0,1.0,0
15600,15600,2021-02-12 15:59:25.395,1.0,1.0,0
15610,15610,2021-02-12 15:59:55.395,1.0,1.0,0
15620,15620,2021-02-12 16:00:25.395,1.0,1.0,0
15630,15630,2021-02-12 16:00:55.395,1.0,1.0,0
15640,15640,2021-02-12 16:01:25.395,1.0,1.0,0
15650,15650,2021-02-12 16:01:55.395,1.0,1.0,0
15660,15660,2021-02-12 16:02:25.395,1.0,1.0,0
15670,15670,2021-02-12 16:02:55.395,1.0,1.0,0
15680,15680,2021-02-12 16:03:25.395,1.0,1.0,0
15690,15690,2021-02-12 16:03:55.395,1.0,1.0,0
15700,15700,2021-02-12 16:04:25.395,1.0,1.0,0
15710,15710,2021-02-12 16:04:55.395,1.0,1.0,0
15720,15720,2021-02-12 16:05:25.395,1.0,1.0,0
15730,15730,2021-02-12 16:05:55.395,1.0,1.0,0
15740,15740,2021-02-12 16:06:25.395,1.0,1.0,0
15750,15750,2021-02-12 16:06:55.395,1.0,1.0,0
15760,15760,2021-02-12 16:07:25.395,1.0,1.0,0
15770,15770,2021-02-12 16:07:55.395,1.0,1.0,0
15780,15780,2021-02-12 16:08:25.395,1.0,1.0,0
15790,15790,2021-02-12 16:08:55.395,1.0,1.0,0
15800,15800,2021-02-12 16:09:25.395,1.0,1.0,0
15810,15810,2021-02-12 16:09:55.395,1.0,1.0,0
15820,15820,2021-02-12 16:10:25.395,1.0,1.0,0
15830,15830,2021-02-12 16:10:55.395,1.0,1.0,0
15840,15840,2021-02-12 16:11:25.395,1.0,1.0,0
15850,15850,2021-02-12 16:11:55.395,1.0,1.0,0
15860,15860,2021-02-12 16:12:25.395,1.0,1.0,0
15870,15870,2021-02-12 16:12:55.395,1.0,1.0,0
15880,15880,2021-02-12 16:13:25.395,1.0,1.0,0
15890,15890,2021-02-12 16:13:55.395,1.0,1.0,0
15900,15900,2021-02-12 16:14:25.395,1.0,1.0,0
15910,15910,2021-02-12 16:14:55.395,1.0,1.0,0
15920,15920,2021-02-12 16:15:25.395,1.0,1.0,0
15930,15930,2021-02-12 16:15:55.395,1.0,1.0,0
15940,15940,2021-02-12 16:16:25.395,1.0,1.0,0
15950,15950,2021-02-12 16:16:55.395,1.0,1.0,0
15960,15960,2021-02-12 16:17:25.395,1.0,1.0,0
15970,15970,2021-02-12 16:17:55.395,1.0,1.0,0
15980,15980,2021-02-12 16:18:25.395,1.0,1.0,0
15990,15990,2021-02-12 16:18:55.395,1.0,1.0,0
16000,16000,2021-02-12 16:19:25.395,1.0,1.0,0
16010,16010,2021-02-12 16:19:55.395,1.0,1.0,0
16020,16020,2021-02-12 16:20:25.395,1.0,1.0,0
16030,16030,2021-02-12 16:20:55.395,1.0,1.0,0
16040,16040,2021-02-12 16:21:25.395,1.0,1.0,0
16050,16050,2021-02-12 16:21:55.395,1.0,1.0,0
16060,16060,2021-02-12 16:22:25.395,1.0,1.0,0
16070,16070,2021-02-12 16:22:55.395,1.0,1.0,0
16080,16080,2021-02-12 16:23:25.395,1.0,1.0,0
16090,16090,2021-02-12 16:23:55.395,1.0,1.0,0
16100,16100,2021-02-12 16:24:25.395,1.0,1.0,0
16110,16110,2021-02-12 16:24:55.395,1.0,1.0,0
16120,16120,2021-02-12 16:25:25.395,1.0,1.0,0
16130,16130,2021-02-12 16:25:55.395,1.0,1.0,0
16140,16140,2021-02-12 16:26:25.395,1.0,1.0,0
16150,16150,2021-02-12 16:26:55.395,1.0,1.0,0
16160,16160,2021-02-12 16:27:25.395,1.0,1.0,0
16170,16170,2021-02-12 16:27:55.395,1.0,1.0,0
16180,16180,2021-02-12 16:28:25.395,1.0,1.0,0
16190,16190,2021-02-12 16:28:55.395,1.0,1.0,0
16200,16200,2021-02-12 16:29:25.395,1.0,1.0,0
16210,16210,2021-02-12 16:29:55.395,1.0,1.0,0
16220,16220,2021-02-12 16:30:25.395,1.0,1.0,0
16230,16230,2021-02-12 16:30:55.395,1.0,1.0,0
16240,16240,2021-02-12 16:31:25.395,1.0,1.0,0
16250,16250,2021-02-12 16:31:55.395,1.0,1.0,0
16260,16260,2021-02-12 16:32:25.395,1.0,1.0,0
16270,16270,2021-02-12 16:32:55.395,1.0,1.0,0
16280,16280,2021-02-12 16:33:25.395,1.0,1.0,0
16290,16290,2021-02-12 16:33:55.395,1.0,1.0,0
16300,16300,2021-02-12 16:34:25.395,1.0,1.0,0
16310,16310,2021-02-12 16:34:55.395,1.0,1.0,0
16320,16320,2021-02-12 16:35:25.395,1.0,1.0,0
16330,16330,2021-02-12 16:35:55.395,1.0,1.0,0
16340,16340,2021-02-12 16:36:25.395,1.0,1.0,0
16350,16350,2021-02-12 16:36:55.395,1.0,1.0,0
16360,16360,2021-02-12 16:37:25.395,1.0,1.0,0
16370,16370,2021-02-12 16:37:55.395,1.0,1.0,0
16380,16380,2021-02-12 16:38:25.395,1.0,1.0,0
16390,16390,2021-02-12 16:38:55.395,1.0,1.0,0
16400,16400,2021-02-12 16:39:25.395,1.0,1.0,0
16410,16410,2021-02-12 16:39:55.395,1.0,1.0,0
16420,16420,2021-02-12 16:40:25.395,1.0,1.0,0
16430,16430,2021-02-12 16:40:55.395,1.0,1.0,0
16440,16440,2021-02-12 16:41:25.395,1.0,1.0,0
16450,16450,2021-02-12 16:41:55.395,1.0,1.0,0
16460,16460,2021-02-12 16:42:25.395,1.0,1.0,0
16470,16470,2021-02-12 16:42:55.395,1.0,1.0,0
16480,16480,2021-02-12 16:43:25.395,1.0,1.0,0
16490,16490,2021-02-12 16:43:55.395,1.0,1.0,0
16500,16500,2021-02-12 16:44:25.395,1.0,1.0,0
16510,16510,2021-02-12 16:44:55.395,1.0,1.0,0
16520,16520,2021-02-12 16:45:25.395,1.0,1.0,0
16530,16530,2021-02-12 16:45:55.395,1.0,1.0,0
16540,16540,2021-02-12 16:46:25.395,1.0,1.0,0
16550,16550,2021-02-12 16:46:55.395,1.0,1.0,0
16560,16560,2021-02-12 16:47:25.395,1.0,1.0,0
16570,16570,2021-02-12 16:47:55.395,1.0,1.0,0
16580,16580,2021-02-12 16:48:25.395,1.0,1.0,0
16590,16590,2021-02-12 16:48:55.395,1.0,1.0,0
16600,16600,2021-02-12 16:49:25.395,1.0,1.0,0
16610,16610,2021-02-12 16:49:55.395,1.0,1.0,0
16620,16620,2021-02-12 16:50:25.395,1.0,1.0,0
16630,16630,2021-02-12 16:50:55.395,1.0,1.0,0
16640,16640,2021-02-12 16:51:25.395,1.0,1.0,0
16650,16650,2021-02-12 16:51:55.395,1.0,1.0,0
16660,16660,2021-02-12 16:52:25.395,1.0,1.0,0
16670,16670,2021-02-12 16:52:55.395,1.0,1.0,0
16680,16680,2021-02-12 16:53:25.395,1.0,1.0,0
16690,16690,2021-02-12 16:53:55.395,1.0,1.0,0
16700,16700,2021-02-12 16:54:25.395,1.0,1.0,0
16710,16710,2021-02-12 16:54:55.395,1.0,1.0,0
16720,16720,2021-02-12 16:55:25.395,1.0,1.0,0
16730,16730,2021-02-12 16:55:55.395,1.0,1.0,0
16740,16740,2021-02-12 16:56:25.395,1.0,1.0,0
16750,16750,2021-02-12 16:56:55.395,1.0,1.0,0
16760,16760,2021-02-12 16:57:25.395,1.0,1.0,0
16770,16770,2021-02-12 16:57:55.395,1.0,1.0,0
16780,16780,2021-02-12 16:58:25.395,1.0,1.0,0
16790,16790,2021-02-12 16:58:55.395,1.0,1.0,0
16800,16800,2021-02-12 16:59:25.395,1.0,1.0,0
16810,16810,2021-02-12 16:59:55.395,1.0,1.0,0
16820,16820,2021-02-12 17:00:25.395,1.0,1.0,0
16830,16830,2021-02-12 17:00:55.395,1.0,1.0,0
16840,16840,2021-02-12 17:01:25.395,1.0,1.0,0
16850,16850,2021-02-12 17:01:55.395,1.0,1.0,0
16860,16860,2021-02-12 17:02:25.395,1.0,1.0,0
16870,16870,2021-02-12 17:02:55.395,1.0,1.0,0
16880,16880,2021-02-12 17:03:25.395,1.0,1.0,0
16890,16890,2021-02-12 17:03:55.395,1.0,1.0,0
16900,16900,2021-02-12 17:04:25.395,1.0,1.0,0
16910,16910,2021-02-12 17:04:55.395,1.0,1.0,0
16920,16920,2021-02-12 17:05:25.395,1.0,1.0,0
16930,16930,2021-02-12 17:05:55.395,1.0,1.0,0
16940,16940,2021-02-12 17:06:25.395,1.0,1.0,0
16950,16950,2021-02-12 17:06:55.395,1.0,1.0,0
16960,16960,2021-02-12 17:07:25.395,1.0,1.0,0
16970,16970,2021-02-12 17:07:55.395,1.0,1.0,0
16980,16980,2021-02-12 17:08:25.395,1.0,1.0,0
16990,16990,2021-02-12 17:08:55.395,1.0,1.0,0
17000,17000,2021-02-12 17:09:25.395,1.0,1.0,0
17010,17010,2021-02-12 17:09:55.395,1.0,1.0,0
17020,17020,2021-02-12 17:10:25.395,1.0,1.0,0
17030,17030,2021-02-12 17:10:55.395,1.0,1.0,0
17040,17040,2021-02-12 17:11:25.395,1.0,1.0,0
17050,17050,2021-02-12 17:11:55.395,1.0,1.0,0
17060,17060,2021-02-12 17:12:25.395,1.0,1.0,0
17070,17070,2021-02-12 17:12:55.395,1.0,1.0,0
17080,17080,2021-02-12 17:13:25.395,1.0,1.0,0
17090,17090,2021-02-12 17:13:55.395,1.0,1.0,0
17100,17100,2021-02-12 17:14:25.395,1.0,1.0,0
17110,17110,2021-02-12 17:14:55.395,1.0,1.0,0
17120,17120,2021-02-12 17:15:25.395,1.0,1.0,0
17130,17130,2021-02-12 17:15:55.395,1.0,1.0,0
17140,17140,2021-02-12 17:16:25.395,1.0,1.0,0
17150,17150,2021-02-12 17:16:55.395,1.0,1.0,0
17160,17160,2021-02-12 17:17:25.395,1.0,1.0,0
17170,17170,2021-02-12 17:17:55.395,1.0,1.0,0
17180,17180,2021-02-12 17:18:25.395,1.0,1.0,0
17190,17190,2021-02-12 17:18:55.395,1.0,1.0,0
17200,17200,2021-02-12 17:19:25.395,1.0,1.0,0
17210,17210,2021-02-12 17:19:55.395,1.0,1.0,0
17220,17220,2021-02-12 17:20:25.395,1.0,1.0,0
17230,17230,2021-02-12 17:20:55.395,1.0,1.0,0
17240,17240,2021-02-12 17:21:25.395,1.0,1.0,0
17250,17250,2021-02-12 17:21:55.395,1.0,1.0,0
17260,17260,2021-02-12 17:22:25.395,1.0,1.0,0
17270,17270,2021-02-12 17:22:55.395,1.0,1.0,0
17280,17280,2021-02-12 17:23:25.395,1.0,1.0,0
17290,17290,2021-02-12 17:23:55.395,1.0,1.0,0
17300,17300,2021-02-12 17:24:25.395,1.0,1.0,0
17310,17310,2021-02-12 17:24:55.395,1.0,1.0,0
17320,17320,2021-02-12 17:25:25.395,1.0,1.0,0
17330,17330,2021-02-12 17:25:55.395,1.0,1.0,0
17340,17340,2021-02-12 17:26:25.395,1.0,1.0,0
17350,17350,2021-02-12 17:26:55.395,1.0,1.0,0
17360,17360,2021-02-12 17:27:25.395,1.0,1.0,0
17370,17370,2021-02-12 17:27:55.395,1.0,1.0,0
17380,17380,2021-02-12 17:28:25.395,1.0,1.0,0
17390,17390,2021-02-12 17:28:55.395,1.0,1.0,0
17400,17400,2021-02-12 17:29:25.395,1.0,1.0,0
17410,17410,2021-02-12 17:29:55.395,1.0,1.0,0
17420,17420,2021-02-12 17:30:25.395,1.0,1.0,0
17430,17430,2021-02-12 17:30:55.395,1.0,1.0,0
17440,17440,2021-02-12 17:31:25.395,1.0,1.0,0
17450,17450,2021-02-12 17:31:55.395,1.0,1.0,0
17460,17460,2021-02-12 17:32:25.395,1.0,1.0,0
17470,17470,2021-02-12 17:32:55.395,1.0,1.0,0
17480,17480,2021-02-12 17:33:25.395,1.0,1.0,0
17490,17490,2021-02-12 17:33:55.395,1.0,1.0,0
17500,17500,2021-02-12 17:34:25.395,1.0,1.0,0
17510,17510,2021-02-12 17:34:55.395,1.0,1.0,0
17520,17520,2021-02-12 17:35:25.395,1.0,1.0,0
17530,17530,2021-02-12 17:35:55.395,1.0,1.0,0
17540,17540,2021-02-12 17:36:25.395,1.0,1.0,0
17550,17550,2021-02-12 17:36:55.395,1.0,1.0,0
17560,17560,2021-02-12 17:37:25.395,1.0,1.0,0
17570,17570,2021-02-12 17:37:55.395,1.0,1.0,0
17580,17580,2021-02-12 17:38:25.395,1.0,1.0,0
17590,17590,2021-02-12 17:38:55.395,1.0,1.0,0
17600,17600,2021-02-12 17:39:25.395,1.0,1.0,0
17610,17610,2021-02-12 17:39:55.395,1.0,1.0,0
17620,17620,2021-02-12 17:40:25.395,1.0,1.0,0
17630,17630,2021-02-12 17:40:55.395,1.0,1.0,0
17640,17640,2021-02-12 17:41:25.395,1.0,1.0,0
17650,17650,2021-02-12 17:41:55.395,1.0,1.0,0
17660,17660,2021-02-12 17:42:25.395,1.0,1.0,0
17670,17670,2021-02-12 17:42:55.395,1.0,1.0,0
17680,17680,2021-02-12 17:43:25.395,1.0,1.0,0
17690,17690,2021-02-12 17:43:55.395,1.0,1.0,0
17700,17700,2021-02-12 17:44:25.395,1.0,1.0,0
17710,17710,2021-02-12 17:44:55.395,1.0,1.0,0
17720,17720,2021-02-12 17:45:25.395,1.0,1.0,0
17730,17730,2021-02-12 17:45:55.395,1.0,1.0,0
17740,17740,2021-02-12 17:46:25.395,1.0,1.0,0
17750,17750,2021-02-12 17:46:55.395,1.0,1.0,0
17760,17760,2021-02-12 17:47:25.395,1.0,1.0,0
17770,17770,2021-02-12 17:47:55.395,1.0,1.0,0
17780,17780,2021-02-12 17:48:25.395,1.0,1.0,0
17790,17790,2021-02-12 17:48:55.395,1.0,1.0,0
17800,17800,2021-02-12 17:49:25.395,1.0,1.0,0
17810,17810,2021-02-12 17:49:55.395,1.0,1.0,0
17820,17820,2021-02-12 17:50:25.395,1.0,1.0,0
17830,17830,2021-02-12 17:50:55.395,1.0,1.0,0
17840,17840,2021-02-12 17:51:25.395,1.0,1.0,0
17850,17850,2021-02-12 17:51:55.395,1.0,1.0,0
17860,17860,2021-02-12 17:52:25.395,1.0,1.0,0
17870,17870,2021-02-12 17:52:55.395,1.0,1.0,0
17880,17880,2021-02-12 17:53:25.395,1.0,1.0,0
17890,17890,2021-02-12 17:53:55.395,1.0,1.0,0
17900,17900,2021-02-12 17:54:25.395,1.0,1.0,0
17910,17910,2021-02-12 17:54:55.395,1.0,1.0,0
17920,17920,2021-02-12 17:55:25.395,1.0,1.0,0
17930,17930,2021-02-12 17:55:55.395,1.0,1.0,0
17940,17940,2021-02-12 17:56:25.395,1.0,1.0,0
17950,17950,2021-02-12 17:56:55.395,1.0,1.0,0
17960,17960,2021-02-12 17:57:25.395,1.0,1.0,0
17970,17970,2021-02-12 17:57:55.395,1.0,1.0,0
17980,17980,2021-02-12 17:58:25.395,1.0,1.0,0
17990,17990,2021-02-12 17:58:55.395,1.0,1.0,0
18000,18000,2021-02-12 17:59:25.395,1.0,1.0,0
18010,18010,2021-02-12 17:59:55.395,1.0,1.0,0
18020,18020,2021-02-12 18:00:25.395,1.0,1.0,0
18030,18030,2021-02-12 18:00:55.395,1.0,1.0,0
18040,18040,2021-02-12 18:01:25.395,1.0,1.0,0
18050,18050,2021-02-12 18:01:55.395,1.0,1.0,0
18060,18060,2021-02-12 18:02:25.395,1.0,1.0,0
18070,18070,2021-02-12 18:02:55.395,1.0,1.0,0
18080,18080,2021-02-12 18:03:25.395,1.0,1.0,0
18090,18090,2021-02-12 18:03:55.395,1.0,1.0,0
18100,18100,2021-02-12 18:04:25.395,1.0,1.0,0
18110,18110,2021-02-12 18:04:55.395,1.0,1.0,0
18120,18120,2021-02-12 18:05:25.395,1.0,1.0,0
18130,18130,2021-02-12 18:05:55.395,1.0,1.0,0
18140,18140,2021-02-12 18:06:25.395,1.0,1.0,0
18150,18150,2021-02-12 18:06:55.395,1.0,1.0,0
18160,18160,2021-02-12 18:07:25.395,1.0,1.0,0
18170,18170,2021-02-12 18:07:55.395,1.0,1.0,0
18180,18180,2021-02-12 18:08:25.395,1.0,1.0,0
18190,18190,2021-02-12 18:08:55.395,1.0,1.0,0
18200,18200,2021-02-12 18:09:25.395,1.0,1.0,0
18210,18210,2021-02-12 18:09:55.395,1.0,1.0,0
18220,18220,2021-02-12 18:10:25.395,1.0,1.0,0
18230,18230,2021-02-12 18:10:55.395,1.0,1.0,0
18240,18240,2021-02-12 18:11:25.395,1.0,1.0,0
18250,18250,2021-02-12 18:11:55.395,1.0,1.0,0
18260,18260,2021-02-12 18:12:25.395,1.0,1.0,0
18270,18270,2021-02-12 18:12:55.395,1.0,1.0,0
18280,18280,2021-02-12 18:13:25.395,1.0,1.0,0
18290,18290,2021-02-12 18:13:55.395,1.0,1.0,0
18300,18300,2021-02-12 18:14:25.395,1.0,1.0,0
18310,18310,2021-02-12 18:14:55.395,1.0,1.0,0
18320,18320,2021-02-12 18:15:25.395,1.0,1.0,0
18330,18330,2021-02-12 18:15:55.395,1.0,1.0,0
18340,18340,2021-02-12 18:16:25.395,1.0,1.0,0
18350,18350,2021-02-12 18:16:55.395,1.0,1.0,0
18360,18360,2021-02-12 18:17:25.395,1.0,1.0,0
18370,18370,2021-02-12 18:17:55.395,1.0,1.0,0
18380,18380,2021-02-12 18:18:25.395,1.0,1.0,0
18390,18390,2021-02-12 18:18:55.395,1.0,1.0,0
18400,18400,2021-02-12 18:19:25.395,1.0,1.0,0
18410,18410,2021-02-12 18:19:55.395,1.0,1.0,0
18420,18420,2021-02-12 18:20:25.395,1.0,1.0,0
18430,18430,2021-02-12 18:20:55.395,1.0,1.0,0
18440,18440,2021-02-12 18:21:25.395,1.0,1.0,0
18450,18450,2021-02-12 18:21:55.395,1.0,1.0,0
18460,18460,2021-02-12 18:22:25.395,1.0,1.0,0
18470,18470,2021-02-12 18:22:55.395,1.0,1.0,0
18480,18480,2021-02-12 18:23:25.395,1.0,1.0,0
18490,18490,2021-02-12 18:23:55.395,1.0,1.0,0
18500,18500,2021-02-12 18:24:25.395,1.0,1.0,0
18510,18510,2021-02-12 18:24:55.395,1.0,1.0,0
18520,18520,2021-02-12 18:25:25.395,1.0,1.0,0
18530,18530,2021-02-12 18:25:55.395,1.0,1.0,0
18540,18540,2021-02-12 18:26:25.395,1.0,1.0,0
18550,18550,2021-02-12 18:26:55.395,1.0,1.0,0
18560,18560,2021-02-12 18:27:25.395,1.0,1.0,0
18570,18570,2021-02-12 18:27:55.395,1.0,1.0,0
18580,18580,2021-02-12 18:28:25.395,1.0,1.0,0
18590,18590,2021-02-12 18:28:55.395,1.0,1.0,0
18600,18600,2021-02-12 18:29:25.395,1.0,1.0,0
18610,18610,2021-02-12 18:29:55.395,1.0,1.0,0
18620,18620,2021-02-12 18:30:25.395,1.0,1.0,0
18630,18630,2021-02-12 18:30:55.395,1.0,1.0,0
18640,18640,2021-02-12 18:31:25.395,1.0,1.0,0
18650,18650,2021-02-12 18:31:55.395,1.0,1.0,0
18660,18660,2021-02-12 18:32:25.395,1.0,1.0,0
18670,18670,2021-02-12 18:32:55.395,1.0,1.0,0
18680,18680,2021-02-12 18:33:25.395,1.0,1.0,0
18690,18690,2021-02-12 18:33:55.395,1.0,1.0,0
18700,18700,2021-02-12 18:34:25.395,1.0,1.0,0
18710,18710,2021-02-12 18:34:55.395,1.0,1.0,0
18720,18720,2021-02-12 18:35:25.395,1.0,1.0,0
18730,18730,2021-02-12 18:35:55.395,1.0,1.0,0
18740,18740,2021-02-12 18:36:25.395,1.0,1.0,0
18750,18750,2021-02-12 18:36:55.395,1.0,1.0,0
18760,18760,2021-02-12 18:37:25.395,1.0,1.0,0
18770,18770,2021-02-12 18:37:55.395,1.0,1.0,0
18780,18780,2021-02-12 18:38:25.395,1.0,1.0,0
18790,18790,2021-02-12 18:38:55.395,1.0,1.0,0
18800,18800,2021-02-12 18:39:25.395,1.0,1.0,0
18810,18810,2021-02-12 18:39:55.395,1.0,1.0,0
18820,18820,2021-02-12 18:40:25.395,1.0,1.0,0
18830,18830,2021-02-12 18:40:55.395,1.0,1.0,0
18840,18840,2021-02-12 18:41:25.395,1.0,1.0,0
18850,18850,2021-02-12 18:41:55.395,1.0,1.0,0
18860,18860,2021-02-12 18:42:25.395,1.0,1.0,0
18870,18870,2021-02-12 18:42:55.395,1.0,1.0,0
18880,18880,2021-02-12 18:43:25.395,1.0,1.0,0
18890,18890,2021-02-12 18:43:55.395,1.0,1.0,0
18900,18900,2021-02-12 18:44:25.395,1.0,1.0,0
18910,18910,2021-02-12 18:44:55.395,1.0,1.0,0
18920,18920,2021-02-12 18:45:25.395,1.0,1.0,0
18930,18930,2021-02-12 18:45:55.395,1.0,1.0,0
18940,18940,2021-02-12 18:46:25.395,1.0,1.0,0
18950,18950,2021-02-12 18:46:55.395,1.0,1.0,0
18960,18960,2021-02-12 18:47:25.395,1.0,1.0,0
18970,18970,2021-02-12 18:47:55.395,1.0,1.0,0
18980,18980,2021-02-12 18:48:25.395,1.0,1.0,0
18990,18990,2021-02-12 18:48:55.395,1.0,1.0,0
19000,19000,2021-02-12 18:49:25.395,1.0,1.0,0
19010,19010,2021-02-12 18:49:55.395,1.0,1.0,0
19020,19020,2021-02-12 18:50:25.395,1.0,1.0,0
19030,19030,2021-02-12 18:50:55.395,1.0,1.0,0
19040,19040,2021-02-12 18:51:25.395,1.0,1.0,0
19050,19050,2021-02-12 18:51:55.395,1.0,1.0,0
19060,19060,2021-02-12 18:52:25.395,1.0,1.0,0
19070,19070,2021-02-12 18:52:55.395,1.0,1.0,0
19080,19080,2021-02-12 18:53:25.395,1.0,1.0,0
19090,19090,2021-02-12 18:53:55.395,1.0,1.0,0
19100,19100,2021-02-12 18:54:25.395,1.0,1.0,0
19110,19110,2021-02-12 18:54:55.395,1.0,1.0,0
19120,19120,2021-02-12 18:55:25.395,1.0,1.0,0
19130,19130,2021-02-12 18:55:55.395,1.0,1.0,0
19140,19140,2021-02-12 18:56:25.395,1.0,1.0,0
19150,19150,2021-02-12 18:56:55.395,1.0,1.0,0
19160,19160,2021-02-12 18:57:25.395,1.0,1.0,0
19170,19170,2021-02-12 18:57:55.395,1.0,1.0,0
19180,19180,2021-02-12 18:58:25.395,1.0,1.0,0
19190,19190,2021-02-12 18:58:55.395,1.0,1.0,0
19200,19200,2021-02-12 18:59:25.395,1.0,1.0,0
19210,19210,2021-02-12 18:59:55.395,1.0,1.0,0
19220,19220,2021-02-12 19:00:25.395,1.0,1.0,0
19230,19230,2021-02-12 19:00:55.395,1.0,1.0,0
19240,19240,2021-02-12 19:01:25.395,1.0,1.0,0
19250,19250,2021-02-12 19:01:55.395,1.0,1.0,0
19260,19260,2021-02-12 19:02:25.395,1.0,1.0,0
19270,19270,2021-02-12 19:02:55.395,1.0,1.0,0
19280,19280,2021-02-12 19:03:25.395,1.0,1.0,0
19290,19290,2021-02-12 19:03:55.395,1.0,1.0,0
19300,19300,2021-02-12 19:04:25.395,1.0,1.0,0
19310,19310,2021-02-12 19:04:55.395,1.0,1.0,0
19320,19320,2021-02-12 19:05:25.395,1.0,1.0,0
19330,19330,2021-02-12 19:05:55.395,1.0,1.0,0
19340,19340,2021-02-12 19:06:25.395,1.0,1.0,0
19350,19350,2021-02-12 19:06:55.395,1.0,1.0,0
19360,19360,2021-02-12 19:07:25.395,1.0,1.0,0
19370,19370,2021-02-12 19:07:55.395,1.0,1.0,0
19380,19380,2021-02-12 19:08:25.395,1.0,1.0,0
19390,19390,2021-02-12 19:08:55.395,1.0,1.0,0
19400,19400,2021-02-12 19:09:25.395,1.0,1.0,0
19410,19410,2021-02-12 19:09:55.395,1.0,1.0,0
19420,19420,2021-02-12 19:10:25.395,1.0,1.0,0
19430,19430,2021-02-12 19:10:55.395,1.0,1.0,0
19440,19440,2021-02-12 19:11:25.395,1.0,1.0,0
19450,19450,2021-02-12 19:11:55.395,1.0,1.0,0
19460,19460,2021-02-12 19:12:25.395,1.0,1.0,0
19470,19470,2021-02-12 19:12:55.395,1.0,1.0,0
19480,19480,2021-02-12 19:13:25.395,1.0,1.0,0
19490,19490,2021-02-12 19:13:55.395,1.0,1.0,0
19500,19500,2021-02-12 19:14:25.395,1.0,1.0,0
19510,19510,2021-02-12 19:14:55.395,1.0,1.0,0
19520,19520,2021-02-12 19:15:25.395,1.0,1.0,0
19530,19530,2021-02-12 19:15:55.395,1.0,1.0,0
19540,19540,2021-02-12 19:16:25.395,1.0,1.0,0
19550,19550,2021-02-12 19:16:55.395,1.0,1.0,0
19560,19560,2021-02-12 19:17:25.395,1.0,1.0,0
19570,19570,2021-02-12 19:17:55.395,1.0,1.0,0
19580,19580,2021-02-12 19:18:25.395,1.0,1.0,0
19590,19590,2021-02-12 19:18:55.395,1.0,1.0,0
19600,19600,2021-02-12 19:19:25.395,1.0,1.0,0
19610,19610,2021-02-12 19:19:55.395,1.0,1.0,0
19620,19620,2021-02-12 19:20:25.395,1.0,1.0,0
19630,19630,2021-02-12 19:20:55.395,1.0,1.0,0
19640,19640,2021-02-12 19:21:25.395,1.0,1.0,0
19650,19650,2021-02-12 19:21:55.395,1.0,1.0,0
19660,19660,2021-02-12 19:22:25.395,1.0,1.0,0
19670,19670,2021-02-12 19:22:55.395,1.0,1.0,0
19680,19680,2021-02-12 19:23:25.395,1.0,1.0,0
19690,19690,2021-02-12 19:23:55.395,1.0,1.0,0
19700,19700,2021-02-12 19:24:25.395,1.0,1.0,0
19710,19710,2021-02-12 19:24:55.395,1.0,1.0,0
19720,19720,2021-02-12 19:25:25.395,1.0,1.0,0
19730,19730,2021-02-12 19:25:55.395,1.0,1.0,0
19740,19740,2021-02-12 19:26:25.395,1.0,1.0,0
19750,19750,2021-02-12 19:26:55.395,1.0,1.0,0
19760,19760,2021-02-12 19:27:25.395,1.0,1.0,0
19770,19770,2021-02-12 19:27:55.395,1.0,1.0,0
19780,19780,2021-02-12 19:28:25.395,1.0,1.0,0
19790,19790,2021-02-12 19:28:55.395,1.0,1.0,0
19800,19800,2021-02-12 19:29:25.395,1.0,1.0,0
19810,19810,2021-02-12 19:29:55.395,1.0,1.0,0
19820,19820,2021-02-12 19:30:25.395,1.0,1.0,0
19830,19830,2021-02-12 19:30:55.395,1.0,1.0,0
19840,19840,2021-02-12 19:31:25.395,1.0,1.0,0
19850,19850,2021-02-12 19:31:55.395,1.0,1.0,0
19860,19860,2021-02-12 19:32:25.395,1.0,1.0,0
19870,19870,2021-02-12 19:32:55.395,1.0,1.0,0
19880,19880,2021-02-12 19:33:25.395,1.0,1.0,0
19890,19890,2021-02-12 19:33:55.395,1.0,1.0,0
19900,19900,2021-02-12 19:34:25.395,1.0,1.0,0
19910,19910,2021-02-12 19:34:55.395,1.0,1.0,0
19920,19920,2021-02-12 19:35:25.395,1.0,1.0,0
19930,19930,2021-02-12 19:35:55.395,1.0,1.0,0
19940,19940,2021-02-12 19:36:25.395,1.0,1.0,0
19950,19950,2021-02-12 19:36:55.395,1.0,1.0,0
19960,19960,2021-02-12 19:37:25.395,1.0,1.0,0
19970,19970,2021-02-12 19:37:55.395,1.0,1.0,0
19980,19980,2021-02-12 19:38:25.395,1.0,1.0,0
19990,19990,2021-02-12 19:38:55.395,1.0,1.0,0
20000,20000,2021-02-12 19:39:25.395,1.0,1.0,0
20010,20010,2021-02-12 19:39:55.395,1.0,1.0,0
20020,20020,2021-02-12 19:40:25.395,1.0,1.0,0
20030,20030,2021-02-12 19:40:55.395,1.0,1.0,0
20040,20040,2021-02-12 19:41:25.395,1.0,1.0,0
20050,20050,2021-02-12 19:41:55.395,1.0,1.0,0
20060,20060,2021-02-12 19:42:25.395,1.0,1.0,0
20070,20070,2021-02-12 19:42:55.395,1.0,1.0,0
20080,20080,2021-02-12 19:43:25.395,1.0,1.0,0
20090,20090,2021-02-12 19:43:55.395,1.0,1.0,0
20100,20100,2021-02-12 19:44:25.395,1.0,1.0,0
20110,20110,2021-02-12 19:44:55.395,1.0,1.0,0
20120,20120,2021-02-12 19:45:25.395,1.0,1.0,0
20130,20130,2021-02-12 19:45:55.395,1.0,1.0,0
20140,20140,2021-02-12 19:46:25.395,1.0,1.0,0
20150,20150,2021-02-12 19:46:55.395,1.0,1.0,0
20160,20160,2021-02-12 19:47:25.395,1.0,1.0,0
20170,20170,2021-02-12 19:47:55.395,1.0,1.0,0
20180,20180,2021-02-12 19:48:25.395,1.0,1.0,0
20190,20190,2021-02-12 19:48:55.395,1.0,1.0,0
20200,20200,2021-02-12 19:49:25.395,1.0,1.0,0
20210,20210,2021-02-12 19:49:55.395,1.0,1.0,0
20220,20220,2021-02-12 19:50:25.395,1.0,1.0,0
20230,20230,2021-02-12 19:50:55.395,1.0,1.0,0
20240,20240,2021-02-12 19:51:25.395,1.0,1.0,0
20250,20250,2021-02-12 19:51:55.395,1.0,1.0,0
20260,20260,2021-02-12 19:52:25.395,1.0,1.0,0
20270,20270,2021-02-12 19:52:55.395,1.0,1.0,0
20280,20280,2021-02-12 19:53:25.395,1.0,1.0,0
20290,20290,2021-02-12 19:53:55.395,1.0,1.0,0
20300,20300,2021-02-12 19:54:25.395,1.0,1.0,0
20310,20310,2021-02-12 19:54:55.395,1.0,1.0,0
20320,20320,2021-02-12 19:55:25.395,1.0,1.0,0
20330,20330,2021-02-12 19:55:55.395,1.0,1.0,0
20340,20340,2021-02-12 19:56:25.395,1.0,1.0,0
20350,20350,2021-02-12 19:56:55.395,1.0,1.0,0
20360,20360,2021-02-12 19:57:25.395,1.0,1.0,0
20370,20370,2021-02-12 19:57:55.395,1.0,1.0,0
20380,20380,2021-02-12 19:58:25.395,1.0,1.0,0
20390,20390,2021-02-12 19:58:55.395,1.0,1.0,0
20400,20400,2021-02-12 19:59:25.395,1.0,1.0,0
20410,20410,2021-02-12 19:59:55.395,1.0,1.0,0
20420,20420,2021-02-12 20:00:25.395,1.0,1.0,0
20430,20430,2021-02-12 20:00:55.395,1.0,1.0,0
20440,20440,2021-02-12 20:01:25.395,1.0,1.0,0
20450,20450,2021-02-12 20:01:55.395,1.0,1.0,0
20460,20460,2021-02-12 20:02:25.395,1.0,1.0,0
20470,20470,2021-02-12 20:02:55.395,1.0,1.0,0
20480,20480,2021-02-12 20:03:25.395,1.0,1.0,0
20490,20490,2021-02-12 20:03:55.395,1.0,1.0,0
20500,20500,2021-02-12 20:04:25.395,1.0,1.0,0
20510,20510,2021-02-12 20:04:55.395,1.0,1.0,0
20520,20520,2021-02-12 20:05:25.395,1.0,1.0,0
20530,20530,2021-02-12 20:05:55.395,1.0,1.0,0
20540,20540,2021-02-12 20:06:25.395,1.0,1.0,0
20550,20550,2021-02-12 20:06:55.395,1.0,1.0,0
20560,20560,2021-02-12 20:07:25.395,1.0,1.0,0
20570,20570,2021-02-12 20:07:55.395,1.0,1.0,0
20580,20580,2021-02-12 20:08:25.395,1.0,1.0,0
20590,20590,2021-02-12 20:08:55.395,1.0,1.0,0
20600,20600,2021-02-12 20:09:25.395,1.0,1.0,0
20610,20610,2021-02-12 20:09:55.395,1.0,1.0,0
20620,20620,2021-02-12 20:10:25.395,1.0,1.0,0
20630,20630,2021-02-12 20:10:55.395,1.0,1.0,0
20640,20640,2021-02-12 20:11:25.395,1.0,1.0,0
20650,20650,2021-02-12 20:11:55.395,1.0,1.0,0
20660,20660,2021-02-12 20:12:25.395,1.0,1.0,0
20670,20670,2021-02-12 20:12:55.395,1.0,1.0,0
20680,20680,2021-02-12 20:13:25.395,1.0,1.0,0
20690,20690,2021-02-12 20:13:55.395,1.0,1.0,0
20700,20700,2021-02-12 20:14:25.395,1.0,1.0,0
20710,20710,2021-02-12 20:14:55.395,1.0,1.0,0
20720,20720,2021-02-12 20:15:25.395,1.0,1.0,0
20730,20730,2021-02-12 20:15:55.395,1.0,1.0,0
20740,20740,2021-02-12 20:16:25.395,1.0,1.0,0
20750,20750,2021-02-12 20:16:55.395,1.0,1.0,0
20760,20760,2021-02-12 20:17:25.395,1.0,1.0,0
20770,20770,2021-02-12 20:17:55.395,1.0,1.0,0
20780,20780,2021-02-12 20:18:25.395,1.0,1.0,0
20790,20790,2021-02-12 20:18:55.395,1.0,1.0,0
20800,20800,2021-02-12 20:19:25.395,1.0,1.0,0
20810,20810,2021-02-12 20:19:55.395,1.0,1.0,0
20820,20820,2021-02-12 20:20:25.395,1.0,1.0,0
20830,20830,2021-02-12 20:20:55.395,1.0,1.0,0
20840,20840,2021-02-12 20:21:25.395,1.0,1.0,0
20850,20850,2021-02-12 20:21:55.395,1.0,1.0,0
20860,20860,2021-02-12 20:22:25.395,1.0,1.0,0
20870,20870,2021-02-12 20:22:55.395,1.0,1.0,0
20880,20880,2021-02-12 20:23:25.395,1.0,1.0,0
20890,20890,2021-02-12 20:23:55.395,1.0,1.0,0
20900,20900,2021-02-12 20:24:25.395,1.0,1.0,0
20910,20910,2021-02-12 20:24:55.395,1.0,1.0,0
20920,20920,2021-02-12 20:25:25.395,1.0,1.0,0
20930,20930,2021-02-12 20:25:55.395,1.0,1.0,0
20940,20940,2021-02-12 20:26:25.395,1.0,1.0,0
20950,20950,2021-02-12 20:26:55.395,1.0,1.0,0
20960,20960,2021-02-12 20:27:25.395,1.0,1.0,0
20970,20970,2021-02-12 20:27:55.395,1.0,1.0,0
20980,20980,2021-02-12 20:28:25.395,1.0,1.0,0
20990,20990,2021-02-12 20:28:55.395,1.0,1.0,0
21000,21000,2021-02-12 20:29:25.395,1.0,1.0,0
21010,21010,2021-02-12 20:29:55.395,1.0,1.0,0
21020,21020,2021-02-12 20:30:25.395,1.0,1.0,0
21030,21030,2021-02-12 20:30:55.395,1.0,1.0,0
21040,21040,2021-02-12 20:31:25.395,1.0,1.0,0
21050,21050,2021-02-12 20:31:55.395,1.0,1.0,0
21060,21060,2021-02-12 20:32:25.395,1.0,1.0,0
21070,21070,2021-02-12 20:32:55.395,1.0,1.0,0
21080,21080,2021-02-12 20:33:25.395,1.0,1.0,0
21090,21090,2021-02-12 20:33:55.395,1.0,1.0,0
21100,21100,2021-02-12 20:34:25.395,1.0,1.0,0
21110,21110,2021-02-12 20:34:55.395,1.0,1.0,0
21120,21120,2021-02-12 20:35:25.395,1.0,1.0,0
21130,21130,2021-02-12 20:35:55.395,1.0,1.0,0
21140,21140,2021-02-12 20:36:25.395,1.0,1.0,0
21150,21150,2021-02-12 20:36:55.395,1.0,1.0,0
21160,21160,2021-02-12 20:37:25.395,1.0,1.0,0
21170,21170,2021-02-12 20:37:55.395,1.0,1.0,0
21180,21180,2021-02-12 20:38:25.395,1.0,1.0,0
21190,21190,2021-02-12 20:38:55.395,1.0,1.0,0
21200,21200,2021-02-12 20:39:25.395,1.0,1.0,0
21210,21210,2021-02-12 20:39:55.395,1.0,1.0,0
21220,21220,2021-02-12 20:40:25.395,1.0,1.0,0
21230,21230,2021-02-12 20:40:55.395,1.0,1.0,0
21240,21240,2021-02-12 20:41:25.395,1.0,1.0,0
21250,21250,2021-02-12 20:41:55.395,1.0,1.0,0
21260,21260,2021-02-12 20:42:25.395,1.0,1.0,0
21270,21270,2021-02-12 20:42:55.395,1.0,1.0,0
21280,21280,2021-02-12 20:43:25.395,1.0,1.0,0
21290,21290,2021-02-12 20:43:55.395,1.0,1.0,0
21300,21300,2021-02-12 20:44:25.395,1.0,1.0,0
21310,21310,2021-02-12 20:44:55.395,1.0,1.0,0
21320,21320,2021-02-12 20:45:25.395,1.0,1.0,0
21330,21330,2021-02-12 20:45:55.395,1.0,1.0,0
21340,21340,2021-02-12 20:46:25.395,1.0,1.0,0
21350,21350,2021-02-12 20:46:55.395,1.0,1.0,0
21360,21360,2021-02-12 20:47:25.395,1.0,1.0,0
21370,21370,2021-02-12 20:47:55.395,1.0,1.0,0
21380,21380,2021-02-12 20:48:25.395,1.0,1.0,0
21390,21390,2021-02-12 20:48:55.395,1.0,1.0,0
21400,21400,2021-02-12 20:49:25.395,1.0,1.0,0
21410,21410,2021-02-12 20:49:55.395,1.0,1.0,0
21420,21420,2021-02-12 20:50:25.395,1.0,1.0,0
21430,21430,2021-02-12 20:50:55.395,1.0,1.0,0
21440,21440,2021-02-12 20:51:25.395,1.0,1.0,0
21450,21450,2021-02-12 20:51:55.395,1.0,1.0,0
21460,21460,2021-02-12 20:52:25.395,1.0,1.0,0
21470,21470,2021-02-12 20:52:55.395,1.0,1.0,0
21480,21480,2021-02-12 20:53:25.395,1.0,1.0,0
21490,21490,2021-02-12 20:53:55.395,1.0,1.0,0
21500,21500,2021-02-12 20:54:25.395,1.0,1.0,0
21510,21510,2021-02-12 20:54:55.395,1.0,1.0,0
21520,21520,2021-02-12 20:55:25.395,1.0,1.0,0
21530,21530,2021-02-12 20:55:55.395,1.0,1.0,0
21540,21540,2021-02-12 20:56:25.395,1.0,1.0,0
21550,21550,2021-02-12 20:56:55.395,1.0,1.0,0
21560,21560,2021-02-12 20:57:25.395,1.0,1.0,0
21570,21570,2021-02-12 20:57:55.395,1.0,1.0,0
21580,21580,2021-02-12 20:58:25.395,1.0,1.0,0
21590,21590,2021-02-12 20:58:55.395,1.0,1.0,0
21600,21600,2021-02-12 20:59:25.395,1.0,1.0,0
21610,21610,2021-02-12 20:59:55.395,1.0,1.0,0
21620,21620,2021-02-12 21:00:25.395,1.0,1.0,0
21630,21630,2021-02-12 21:00:55.395,1.0,1.0,0
21640,21640,2021-02-12 21:01:25.395,1.0,1.0,0
21650,21650,2021-02-12 21:01:55.395,1.0,1.0,0
21660,21660,2021-02-12 21:02:25.395,1.0,1.0,0
21670,21670,2021-02-12 21:02:55.395,1.0,1.0,0
21680,21680,2021-02-12 21:03:25.395,1.0,1.0,0
21690,21690,2021-02-12 21:03:55.395,1.0,1.0,0
21700,21700,2021-02-12 21:04:25.395,1.0,1.0,0
21710,21710,2021-02-12 21:04:55.395,1.0,1.0,0
21720,21720,2021-02-12 21:05:25.395,1.0,1.0,0
21730,21730,2021-02-12 21:05:55.395,1.0,1.0,0
21740,21740,2021-02-12 21:06:25.395,1.0,1.0,0
21750,21750,2021-02-12 21:06:55.395,1.0,1.0,0
21760,21760,2021-02-12 21:07:25.395,1.0,1.0,0
21770,21770,2021-02-12 21:07:55.395,1.0,1.0,0
21780,21780,2021-02-12 21:08:25.395,1.0,1.0,0
21790,21790,2021-02-12 21:08:55.395,1.0,1.0,0
21800,21800,2021-02-12 21:09:25.395,1.0,1.0,0
21810,21810,2021-02-12 21:09:55.395,1.0,1.0,0
21820,21820,2021-02-12 21:10:25.395,1.0,1.0,0
21830,21830,2021-02-12 21:10:55.395,1.0,1.0,0
21840,21840,2021-02-12 21:11:25.395,1.0,1.0,0
21850,21850,2021-02-12 21:11:55.395,1.0,1.0,0
21860,21860,2021-02-12 21:12:25.395,1.0,1.0,0
21870,21870,2021-02-12 21:12:55.395,1.0,1.0,0
21880,21880,2021-02-12 21:13:25.395,1.0,1.0,0
21890,21890,2021-02-12 21:13:55.395,1.0,1.0,0
21900,21900,2021-02-12 21:14:25.395,1.0,1.0,0
21910,21910,2021-02-12 21:14:55.395,1.0,1.0,0
21920,21920,2021-02-12 21:15:25.395,1.0,1.0,0
21930,21930,2021-02-12 21:15:55.395,1.0,1.0,0
21940,21940,2021-02-12 21:16:25.395,1.0,1.0,0
21950,21950,2021-02-12 21:16:55.395,1.0,1.0,0
21960,21960,2021-02-12 21:17:25.395,1.0,1.0,0
21970,21970,2021-02-12 21:17:55.395,1.0,1.0,0
21980,21980,2021-02-12 21:18:25.395,1.0,1.0,0
21990,21990,2021-02-12 21:18:55.395,1.0,1.0,0
22000,22000,2021-02-12 21:19:25.395,1.0,1.0,0
22010,22010,2021-02-12 21:19:55.395,1.0,1.0,0
22020,22020,2021-02-12 21:20:25.395,1.0,1.0,0
22030,22030,2021-02-12 21:20:55.395,1.0,1.0,0
22040,22040,2021-02-12 21:21:25.395,1.0,1.0,0
22050,22050,2021-02-12 21:21:55.395,1.0,1.0,0
22060,22060,2021-02-12 21:22:25.395,1.0,1.0,0
22070,22070,2021-02-12 21:22:55.395,1.0,1.0,0
22080,22080,2021-02-12 21:23:25.395,1.0,1.0,0
22090,22090,2021-02-12 21:23:55.395,1.0,1.0,0
22100,22100,2021-02-12 21:24:25.395,1.0,1.0,0
22110,22110,2021-02-12 21:24:55.395,1.0,1.0,0
22120,22120,2021-02-12 21:25:25.395,1.0,1.0,0
22130,22130,2021-02-12 21:25:55.395,1.0,1.0,0
22140,22140,2021-02-12 21:26:25.395,1.0,1.0,0
22150,22150,2021-02-12 21:26:55.395,1.0,1.0,0
22160,22160,2021-02-12 21:27:25.395,1.0,1.0,0
22170,22170,2021-02-12 21:27:55.395,1.0,1.0,0
22180,22180,2021-02-12 21:28:25.395,1.0,1.0,0
22190,22190,2021-02-12 21:28:55.395,1.0,1.0,0
22200,22200,2021-02-12 21:29:25.395,1.0,1.0,0
22210,22210,2021-02-12 21:29:55.395,1.0,1.0,0
22220,22220,2021-02-12 21:30:25.395,1.0,1.0,0
22230,22230,2021-02-12 21:30:55.395,1.0,1.0,0
22240,22240,2021-02-12 21:31:25.395,1.0,1.0,0
22250,22250,2021-02-12 21:31:55.395,1.0,1.0,0
22260,22260,2021-02-12 21:32:25.395,1.0,1.0,0
22270,22270,2021-02-12 21:32:55.395,1.0,1.0,0
22280,22280,2021-02-12 21:33:25.395,1.0,1.0,0
22290,22290,2021-02-12 21:33:55.395,1.0,1.0,0
22300,22300,2021-02-12 21:34:25.395,1.0,1.0,0
22310,22310,2021-02-12 21:34:55.395,1.0,1.0,0
22320,22320,2021-02-12 21:35:25.395,1.0,1.0,0
22330,22330,2021-02-12 21:35:55.395,1.0,1.0,0
22340,22340,2021-02-12 21:36:25.395,1.0,1.0,0
22350,22350,2021-02-12 21:36:55.395,1.0,1.0,0
22360,22360,2021-02-12 21:37:25.395,1.0,1.0,0
22370,22370,2021-02-12 21:37:55.395,1.0,1.0,0
22380,22380,2021-02-12 21:38:25.395,1.0,1.0,0
22390,22390,2021-02-12 21:38:55.395,1.0,1.0,0
22400,22400,2021-02-12 21:39:25.395,1.0,1.0,0
22410,22410,2021-02-12 21:39:55.395,1.0,1.0,0
22420,22420,2021-02-12 21:40:25.395,1.0,1.0,0
22430,22430,2021-02-12 21:40:55.395,1.0,1.0,0
22440,22440,2021-02-12 21:41:25.395,1.0,1.0,0
22450,22450,2021-02-12 21:41:55.395,1.0,1.0,0
22460,22460,2021-02-12 21:42:25.395,1.0,1.0,0
22470,22470,2021-02-12 21:42:55.395,1.0,1.0,0
22480,22480,2021-02-12 21:43:25.395,1.0,1.0,0
22490,22490,2021-02-12 21:43:55.395,1.0,1.0,0
22500,22500,2021-02-12 21:44:25.395,1.0,1.0,0
22510,22510,2021-02-12 21:44:55.395,1.0,1.0,0
22520,22520,2021-02-12 21:45:25.395,1.0,1.0,0
22530,22530,2021-02-12 21:45:55.395,1.0,1.0,0
22540,22540,2021-02-12 21:46:25.395,1.0,1.0,0
22550,22550,2021-02-12 21:46:55.395,1.0,1.0,0
22560,22560,2021-02-12 21:47:25.395,1.0,1.0,0
22570,22570,2021-02-12 21:47:55.395,1.0,1.0,0
22580,22580,2021-02-12 21:48:25.395,1.0,1.0,0
22590,22590,2021-02-12 21:48:55.395,1.0,1.0,0
22600,22600,2021-02-12 21:49:25.395,1.0,1.0,0
22610,22610,2021-02-12 21:49:55.395,1.0,1.0,0
22620,22620,2021-02-12 21:50:25.395,1.0,1.0,0
22630,22630,2021-02-12 21:50:55.395,1.0,1.0,0
22640,22640,2021-02-12 21:51:25.395,1.0,1.0,0
22650,22650,2021-02-12 21:51:55.395,1.0,1.0,0
22660,22660,2021-02-12 21:52:25.395,1.0,1.0,0
22670,22670,2021-02-12 21:52:55.395,1.0,1.0,0
22680,22680,2021-02-12 21:53:25.395,1.0,1.0,0
22690,22690,2021-02-12 21:53:55.395,1.0,1.0,0
22700,22700,2021-02-12 21:54:25.395,1.0,1.0,0
22710,22710,2021-02-12 21:54:55.395,1.0,1.0,0
22720,22720,2021-02-12 21:55:25.395,1.0,1.0,0
22730,22730,2021-02-12 21:55:55.395,1.0,1.0,0
22740,22740,2021-02-12 21:56:25.395,1.0,1.0,0
22750,22750,2021-02-12 21:56:55.395,1.0,1.0,0
22760,22760,2021-02-12 21:57:25.395,1.0,1.0,0
22770,22770,2021-02-12 21:57:55.395,1.0,1.0,0
22780,22780,2021-02-12 21:58:25.395,1.0,1.0,0
22790,22790,2021-02-12 21:58:55.395,1.0,1.0,0
22800,22800,2021-02-12 21:59:25.395,1.0,1.0,0
22810,22810,2021-02-12 21:59:55.395,1.0,1.0,0
22820,22820,2021-02-12 22:00:25.395,1.0,1.0,0
22830,22830,2021-02-12 22:00:55.395,1.0,1.0,0
22840,22840,2021-02-12 22:01:25.395,1.0,1.0,0
22850,22850,2021-02-12 22:01:55.395,1.0,1.0,0
22860,22860,2021-02-12 22:02:25.395,1.0,1.0,0
22870,22870,2021-02-12 22:02:55.395,1.0,1.0,0
22880,22880,2021-02-12 22:03:25.395,1.0,1.0,0
22890,22890,2021-02-12 22:03:55.395,1.0,1.0,0
22900,22900,2021-02-12 22:04:25.395,1.0,1.0,0
22910,22910,2021-02-12 22:04:55.395,1.0,1.0,0
22920,22920,2021-02-12 22:05:25.395,1.0,1.0,0
22930,22930,2021-02-12 22:05:55.395,1.0,1.0,0
22940,22940,2021-02-12 22:06:25.395,1.0,1.0,0
22950,22950,2021-02-12 22:06:55.395,1.0,1.0,0
22960,22960,2021-02-12 22:07:25.395,1.0,1.0,0
22970,22970,2021-02-12 22:07:55.395,1.0,1.0,0
22980,22980,2021-02-12 22:08:25.395,1.0,1.0,0
22990,22990,2021-02-12 22:08:55.395,1.0,1.0,0
23000,23000,2021-02-12 22:09:25.395,1.0,1.0,0
23010,23010,2021-02-12 22:09:55.395,1.0,1.0,0
23020,23020,2021-02-12 22:10:25.395,1.0,1.0,0
23030,23030,2021-02-12 22:10:55.395,1.0,1.0,0
23040,23040,2021-02-12 22:11:25.395,1.0,1.0,0
23050,23050,2021-02-12 22:11:55.395,1.0,1.0,0
23060,23060,2021-02-12 22:12:25.395,1.0,1.0,0
23070,23070,2021-02-12 22:12:55.395,1.0,1.0,0
23080,23080,2021-02-12 22:13:25.395,1.0,1.0,0
23090,23090,2021-02-12 22:13:55.395,1.0,1.0,0
23100,23100,2021-02-12 22:14:25.395,1.0,1.0,0
23110,23110,2021-02-12 22:14:55.395,1.0,1.0,0
23120,23120,2021-02-12 22:15:25.395,1.0,1.0,0
23130,23130,2021-02-12 22:15:55.395,1.0,1.0,0
23140,23140,2021-02-12 22:16:25.395,1.0,1.0,0
23150,23150,2021-02-12 22:16:55.395,1.0,1.0,0
23160,23160,2021-02-12 22:17:25.395,1.0,1.0,0
23170,23170,2021-02-12 22:17:55.395,1.0,1.0,0
23180,23180,2021-02-12 22:18:25.395,1.0,1.0,0
23190,23190,2021-02-12 22:18:55.395,1.0,1.0,0
23200,23200,2021-02-12 22:19:25.395,1.0,1.0,0
23210,23210,2021-02-12 22:19:55.395,1.0,1.0,0
23220,23220,2021-02-12 22:20:25.395,1.0,1.0,0
23230,23230,2021-02-12 22:20:55.395,1.0,1.0,0
23240,23240,2021-02-12 22:21:25.395,1.0,1.0,0
23250,23250,2021-02-12 22:21:55.395,1.0,1.0,0
23260,23260,2021-02-12 22:22:25.395,1.0,1.0,0
23270,23270,2021-02-12 22:22:55.395,1.0,1.0,0
23280,23280,2021-02-12 22:23:25.395,1.0,1.0,0
23290,23290,2021-02-12 22:23:55.395,1.0,1.0,0
23300,23300,2021-02-12 22:24:25.395,1.0,1.0,0
23310,23310,2021-02-12 22:24:55.395,1.0,1.0,0
23320,23320,2021-02-12 22:25:25.395,1.0,1.0,0
23330,23330,2021-02-12 22:25:55.395,1.0,1.0,0
23340,23340,2021-02-12 22:26:25.395,1.0,1.0,0
23350,23350,2021-02-12 22:26:55.395,1.0,1.0,0
23360,23360,2021-02-12 22:27:25.395,1.0,1.0,0
23370,23370,2021-02-12 22:27:55.395,1.0,1.0,0
23380,23380,2021-02-12 22:28:25.395,1.0,1.0,0
23390,23390,2021-02-12 22:28:55.395,1.0,1.0,0
23400,23400,2021-02-12 22:29:25.395,1.0,1.0,0
23410,23410,2021-02-12 22:29:55.395,1.0,1.0,0
23420,23420,2021-02-12 22:30:25.395,1.0,1.0,0
23430,23430,2021-02-12 22:30:55.395,1.0,1.0,0
23440,23440,2021-02-12 22:31:25.395,1.0,1.0,0
23450,23450,2021-02-12 22:31:55.395,1.0,1.0,0
23460,23460,2021-02-12 22:32:25.395,1.0,1.0,0
23470,23470,2021-02-12 22:32:55.395,1.0,1.0,0
23480,23480,2021-02-12 22:33:25.395,1.0,1.0,0
23490,23490,2021-02-12 22:33:55.395,1.0,1.0,0
23500,23500,2021-02-12 22:34:25.395,1.0,1.0,0
23510,23510,2021-02-12 22:34:55.395,1.0,1.0,0
23520,23520,2021-02-12 22:35:25.395,1.0,1.0,0
23530,23530,2021-02-12 22:35:55.395,1.0,1.0,0
23540,23540,2021-02-12 22:36:25.395,1.0,1.0,0
23550,23550,2021-02-12 22:36:55.395,1.0,1.0,0
23560,23560,2021-02-12 22:37:25.395,1.0,1.0,0
23570,23570,2021-02-12 22:37:55.395,1.0,1.0,0
23580,23580,2021-02-12 22:38:25.395,1.0,1.0,0
23590,23590,2021-02-12 22:38:55.395,1.0,1.0,0
23600,23600,2021-02-12 22:39:25.395,1.0,1.0,0
23610,23610,2021-02-12 22:39:55.395,1.0,1.0,0
23620,23620,2021-02-12 22:40:25.395,1.0,1.0,0
23630,23630,2021-02-12 22:40:55.395,1.0,1.0,0
23640,23640,2021-02-12 22:41:25.395,1.0,1.0,0
23650,23650,2021-02-12 22:41:55.395,1.0,1.0,0
23660,23660,2021-02-12 22:42:25.395,1.0,1.0,0
23670,23670,2021-02-12 22:42:55.395,1.0,1.0,0
23680,23680,2021-02-12 22:43:25.395,1.0,1.0,0
23690,23690,2021-02-12 22:43:55.395,1.0,1.0,0
23700,23700,2021-02-12 22:44:25.395,1.0,1.0,0
23710,23710,2021-02-12 22:44:55.395,1.0,1.0,0
23720,23720,2021-02-12 22:45:25.395,1.0,1.0,0
23730,23730,2021-02-12 22:45:55.395,1.0,1.0,0
23740,23740,2021-02-12 22:46:25.395,1.0,1.0,0
23750,23750,2021-02-12 22:46:55.395,1.0,1.0,0
23760,23760,2021-02-12 22:47:25.395,1.0,1.0,0
23770,23770,2021-02-12 22:47:55.395,1.0,1.0,0
23780,23780,2021-02-12 22:48:25.395,1.0,1.0,0
23790,23790,2021-02-12 22:48:55.395,1.0,1.0,0
23800,23800,2021-02-12 22:49:25.395,1.0,1.0,0
23810,23810,2021-02-12 22:49:55.395,1.0,1.0,0
23820,23820,2021-02-12 22:50:25.395,1.0,1.0,0
23830,23830,2021-02-12 22:50:55.395,1.0,1.0,0
23840,23840,2021-02-12 22:51:25.395,1.0,1.0,0
23850,23850,2021-02-12 22:51:55.395,1.0,1.0,0
23860,23860,2021-02-12 22:52:25.395,1.0,1.0,0
23870,23870,2021-02-12 22:52:55.395,1.0,1.0,0
23880,23880,2021-02-12 22:53:25.395,1.0,1.0,0
23890,23890,2021-02-12 22:53:55.395,1.0,1.0,0
23900,23900,2021-02-12 22:54:25.395,1.0,1.0,0
23910,23910,2021-02-12 22:54:55.395,1.0,1.0,0
23920,23920,2021-02-12 22:55:25.395,1.0,1.0,0
23930,23930,2021-02-12 22:55:55.395,1.0,1.0,0
23940,23940,2021-02-12 22:56:25.395,1.0,1.0,0
23950,23950,2021-02-12 22:56:55.395,1.0,1.0,0
23960,23960,2021-02-12 22:57:25.395,1.0,1.0,0
23970,23970,2021-02-12 22:57:55.395,1.0,1.0,0
23980,23980,2021-02-12 22:58:25.395,1.0,1.0,0
23990,23990,2021-02-12 22:58:55.395,1.0,1.0,0
24000,24000,2021-02-12 22:59:25.395,1.0,1.0,0
24010,24010,2021-02-12 22:59:55.395,1.0,1.0,0
24020,24020,2021-02-12 23:00:25.395,1.0,1.0,0
24030,24030,2021-02-12 23:00:55.395,1.0,1.0,0
24040,24040,2021-02-12 23:01:25.395,1.0,1.0,0
24050,24050,2021-02-12 23:01:55.395,1.0,1.0,0
24060,24060,2021-02-12 23:02:25.395,1.0,1.0,0
24070,24070,2021-02-12 23:02:55.395,1.0,1.0,0
24080,24080,2021-02-12 23:03:25.395,1.0,1.0,0
24090,24090,2021-02-12 23:03:55.395,1.0,1.0,0
24100,24100,2021-02-12 23:04:25.395,1.0,1.0,0
24110,24110,2021-02-12 23:04:55.395,1.0,1.0,0
24120,24120,2021-02-12 23:05:25.395,1.0,1.0,0
24130,24130,2021-02-12 23:05:55.395,1.0,1.0,0
24140,24140,2021-02-12 23:06:25.395,1.0,1.0,0
24150,24150,2021-02-12 23:06:55.395,1.0,1.0,0
24160,24160,2021-02-12 23:07:25.395,1.0,1.0,0
24170,24170,2021-02-12 23:07:55.395,1.0,1.0,0
24180,24180,2021-02-12 23:08:25.395,1.0,1.0,0
24190,24190,2021-02-12 23:08:55.395,1.0,1.0,0
24200,24200,2021-02-12 23:09:25.395,1.0,1.0,0
24210,24210,2021-02-12 23:09:55.395,1.0,1.0,0
24220,24220,2021-02-12 23:10:25.395,1.0,1.0,0
24230,24230,2021-02-12 23:10:55.395,1.0,1.0,0
24240,24240,2021-02-12 23:11:25.395,1.0,1.0,0
24250,24250,2021-02-12 23:11:55.395,1.0,1.0,0
24260,24260,2021-02-12 23:12:25.395,1.0,1.0,0
24270,24270,2021-02-12 23:12:55.395,1.0,1.0,0
24280,24280,2021-02-12 23:13:25.395,1.0,1.0,0
24290,24290,2021-02-12 23:13:55.395,1.0,1.0,0
24300,24300,2021-02-12 23:14:25.395,1.0,1.0,0
24310,24310,2021-02-12 23:14:55.395,1.0,1.0,0
24320,24320,2021-02-12 23:15:25.395,1.0,1.0,0
24330,24330,2021-02-12 23:15:55.395,1.0,1.0,0
24340,24340,2021-02-12 23:16:25.395,1.0,1.0,0
24350,24350,2021-02-12 23:16:55.395,1.0,1.0,0
24360,24360,2021-02-12 23:17:25.395,1.0,1.0,0
24370,24370,2021-02-12 23:17:55.395,1.0,1.0,0
24380,24380,2021-02-12 23:18:25.395,1.0,1.0,0
24390,24390,2021-02-12 23:18:55.395,1.0,1.0,0
24400,24400,2021-02-12 23:19:25.395,1.0,1.0,0
24410,24410,2021-02-12 23:19:55.395,1.0,1.0,0
24420,24420,2021-02-12 23:20:25.395,1.0,1.0,0
24430,24430,2021-02-12 23:20:55.395,1.0,1.0,0
24440,24440,2021-02-12 23:21:25.395,1.0,1.0,0
24450,24450,2021-02-12 23:21:55.395,1.0,1.0,0
24460,24460,2021-02-12 23:22:25.395,1.0,1.0,0
24470,24470,2021-02-12 23:22:55.395,1.0,1.0,0
24480,24480,2021-02-12 23:23:25.395,1.0,1.0,0
24490,24490,2021-02-12 23:23:55.395,1.0,1.0,0
24500,24500,2021-02-12 23:24:25.395,1.0,1.0,0
24510,24510,2021-02-12 23:24:55.395,1.0,1.0,0
24520,24520,2021-02-12 23:25:25.395,1.0,1.0,0
24530,24530,2021-02-12 23:25:55.395,1.0,1.0,0
24540,24540,2021-02-12 23:26:25.395,1.0,1.0,0
24550,24550,2021-02-12 23:26:55.395,1.0,1.0,0
24560,24560,2021-02-12 23:27:25.395,1.0,1.0,0
24570,24570,2021-02-12 23:27:55.395,1.0,1.0,0
24580,24580,2021-02-12 23:28:25.395,1.0,1.0,0
24590,24590,2021-02-12 23:28:55.395,1.0,1.0,0
24600,24600,2021-02-12 23:29:25.395,1.0,1.0,0
24610,24610,2021-02-12 23:29:55.395,1.0,1.0,0
24620,24620,2021-02-12 23:30:25.395,1.0,1.0,0
24630,24630,2021-02-12 23:30:55.395,1.0,1.0,0
24640,24640,2021-02-12 23:31:25.395,1.0,1.0,0
24650,24650,2021-02-12 23:31:55.395,1.0,1.0,0
24660,24660,2021-02-12 23:32:25.395,1.0,1.0,0
24670,24670,2021-02-12 23:32:55.395,1.0,1.0,0
24680,24680,2021-02-12 23:33:25.395,1.0,1.0,0
24690,24690,2021-02-12 23:33:55.395,1.0,1.0,0
24700,24700,2021-02-12 23:34:25.395,1.0,1.0,0
24710,24710,2021-02-12 23:34:55.395,1.0,1.0,0
24720,24720,2021-02-12 23:35:25.395,1.0,1.0,0
24730,24730,2021-02-12 23:35:55.395,1.0,1.0,0
24740,24740,2021-02-12 23:36:25.395,1.0,1.0,0
24750,24750,2021-02-12 23:36:55.395,1.0,1.0,0
24760,24760,2021-02-12 23:37:25.395,1.0,1.0,0
24770,24770,2021-02-12 23:37:55.395,1.0,1.0,0
24780,24780,2021-02-12 23:38:25.395,1.0,1.0,0
24790,24790,2021-02-12 23:38:55.395,1.0,1.0,0
24800,24800,2021-02-12 23:39:25.395,1.0,1.0,0
24810,24810,2021-02-12 23:39:55.395,1.0,1.0,0
24820,24820,2021-02-12 23:40:25.395,1.0,1.0,0
24830,24830,2021-02-12 23:40:55.395,1.0,1.0,0
24840,24840,2021-02-12 23:41:25.395,1.0,1.0,0
24850,24850,2021-02-12 23:41:55.395,1.0,1.0,0
24860,24860,2021-02-12 23:42:25.395,1.0,1.0,0
24870,24870,2021-02-12 23:42:55.395,1.0,1.0,0
24880,24880,2021-02-12 23:43:25.395,1.0,1.0,0
24890,24890,2021-02-12 23:43:55.395,1.0,1.0,0
24900,24900,2021-02-12 23:44:25.395,1.0,1.0,0
24910,24910,2021-02-12 23:44:55.395,1.0,1.0,0
24920,24920,2021-02-12 23:45:25.395,1.0,1.0,0
24930,24930,2021-02-12 23:45:55.395,1.0,1.0,0
24940,24940,2021-02-12 23:46:25.395,1.0,1.0,0
24950,24950,2021-02-12 23:46:55.395,1.0,1.0,0
24960,24960,2021-02-12 23:47:25.395,1.0,1.0,0
24970,24970,2021-02-12 23:47:55.395,1.0,1.0,0
24980,24980,2021-02-12 23:48:25.395,1.0,1.0,0
24990,24990,2021-02-12 23:48:55.395,1.0,1.0,0
25000,25000,2021-02-12 23:49:25.395,1.0,1.0,0
25010,25010,2021-02-12 23:49:55.395,1.0,1.0,0
25020,25020,2021-02-12 23:50:25.395,1.0,1.0,0
25030,25030,2021-02-12 23:50:55.395,1.0,1.0,0
25040,25040,2021-02-12 23:51:25.395,1.0,1.0,0
25050,25050,2021-02-12 23:51:55.395,1.0,1.0,0
25060,25060,2021-02-12 23:52:25.395,1.0,1.0,0
25070,25070,2021-02-12 23:52:55.395,1.0,1.0,0
25080,25080,2021-02-12 23:53:25.395,1.0,1.0,0
25090,25090,2021-02-12 23:53:55.395,1.0,1.0,0
25100,25100,2021-02-12 23:54:25.395,1.0,1.0,0
25110,25110,2021-02-12 23:54:55.395,1.0,1.0,0
25120,25120,2021-02-12 23:55:25.395,1.0,1.0,0
25130,25130,2021-02-12 23:55:55.395,1.0,1.0,0
25140,25140,2021-02-12 23:56:25.395,1.0,1.0,0
25150,25150,2021-02-12 23:56:55.395,1.0,1.0,0
25160,25160,2021-02-12 23:57:25.395,1.0,1.0,0
25170,25170,2021-02-12 23:57:55.395,1.0,1.0,0
25180,25180,2021-02-12 23:58:25.395,1.0,1.0,0
25190,25190,2021-02-12 23:58:55.395,1.0,1.0,0
25200,25200,2021-02-12 23:59:25.395,1.0,1.0,0
25210,25210,2021-02-12 23:59:55.395,1.0,1.0,0
25220,25220,2021-02-13 00:00:25.395,1.0,1.0,0
25230,25230,2021-02-13 00:00:55.395,1.0,1.0,0
25240,25240,2021-02-13 00:01:25.395,1.0,1.0,0
25250,25250,2021-02-13 00:01:55.395,1.0,1.0,0
25260,25260,2021-02-13 00:02:25.395,1.0,1.0,0
25270,25270,2021-02-13 00:02:55.395,1.0,1.0,0
25280,25280,2021-02-13 00:03:25.395,1.0,1.0,0
25290,25290,2021-02-13 00:03:55.395,1.0,1.0,0
25300,25300,2021-02-13 00:04:25.395,1.0,1.0,0
25310,25310,2021-02-13 00:04:55.395,1.0,1.0,0
25320,25320,2021-02-13 00:05:25.395,1.0,1.0,0
25330,25330,2021-02-13 00:05:55.395,1.0,1.0,0
25340,25340,2021-02-13 00:06:25.395,1.0,1.0,0
25350,25350,2021-02-13 00:06:55.395,1.0,1.0,0
25360,25360,2021-02-13 00:07:25.395,1.0,1.0,0
25370,25370,2021-02-13 00:07:55.395,1.0,1.0,0
25380,25380,2021-02-13 00:08:25.395,1.0,1.0,0
25390,25390,2021-02-13 00:08:55.395,1.0,1.0,0
25400,25400,2021-02-13 00:09:25.395,1.0,1.0,0
25410,25410,2021-02-13 00:09:55.395,1.0,1.0,0
25420,25420,2021-02-13 00:10:25.395,1.0,1.0,0
25430,25430,2021-02-13 00:10:55.395,1.0,1.0,0
25440,25440,2021-02-13 00:11:25.395,1.0,1.0,0
25450,25450,2021-02-13 00:11:55.395,1.0,1.0,0
25460,25460,2021-02-13 00:12:25.395,1.0,1.0,0
25470,25470,2021-02-13 00:12:55.395,1.0,1.0,0
25480,25480,2021-02-13 00:13:25.395,1.0,1.0,0
25490,25490,2021-02-13 00:13:55.395,1.0,1.0,0
25500,25500,2021-02-13 00:14:25.395,1.0,1.0,0
25510,25510,2021-02-13 00:14:55.395,1.0,1.0,0
25520,25520,2021-02-13 00:15:25.395,1.0,1.0,0
25530,25530,2021-02-13 00:15:55.395,1.0,1.0,0
25540,25540,2021-02-13 00:16:25.395,1.0,1.0,0
25550,25550,2021-02-13 00:16:55.395,1.0,1.0,0
25560,25560,2021-02-13 00:17:25.395,1.0,1.0,0
25570,25570,2021-02-13 00:17:55.395,1.0,1.0,0
25580,25580,2021-02-13 00:18:25.395,1.0,1.0,0
25590,25590,2021-02-13 00:18:55.395,1.0,1.0,0
25600,25600,2021-02-13 00:19:25.395,1.0,1.0,0
25610,25610,2021-02-13 00:19:55.395,1.0,1.0,0
25620,25620,2021-02-13 00:20:25.395,1.0,1.0,0
25630,25630,2021-02-13 00:20:55.395,1.0,1.0,0
25640,25640,2021-02-13 00:21:25.395,1.0,1.0,0
25650,25650,2021-02-13 00:21:55.395,1.0,1.0,0
25660,25660,2021-02-13 00:22:25.395,1.0,1.0,0
25670,25670,2021-02-13 00:22:55.395,1.0,1.0,0
25680,25680,2021-02-13 00:23:25.395,1.0,1.0,0
25690,25690,2021-02-13 00:23:55.395,1.0,1.0,0
25700,25700,2021-02-13 00:24:25.395,1.0,1.0,0
25710,25710,2021-02-13 00:24:55.395,1.0,1.0,0
25720,25720,2021-02-13 00:25:25.395,1.0,1.0,0
25730,25730,2021-02-13 00:25:55.395,1.0,1.0,0
25740,25740,2021-02-13 00:26:25.395,1.0,1.0,0
25750,25750,2021-02-13 00:26:55.395,1.0,1.0,0
25760,25760,2021-02-13 00:27:25.395,1.0,1.0,0
25770,25770,2021-02-13 00:27:55.395,1.0,1.0,0
25780,25780,2021-02-13 00:28:25.395,1.0,1.0,0
25790,25790,2021-02-13 00:28:55.395,1.0,1.0,0
25800,25800,2021-02-13 00:29:25.395,1.0,1.0,0
25810,25810,2021-02-13 00:29:55.395,1.0,1.0,0
25820,25820,2021-02-13 00:30:25.395,1.0,1.0,0
25830,25830,2021-02-13 00:30:55.395,1.0,1.0,0
25840,25840,2021-02-13 00:31:25.395,1.0,1.0,0
25850,25850,2021-02-13 00:31:55.395,1.0,1.0,0
25860,25860,2021-02-13 00:32:25.395,1.0,1.0,0
25870,25870,2021-02-13 00:32:55.395,1.0,1.0,0
25880,25880,2021-02-13 00:33:25.395,1.0,1.0,0
25890,25890,2021-02-13 00:33:55.395,1.0,1.0,0
25900,25900,2021-02-13 00:34:25.395,1.0,1.0,0
25910,25910,2021-02-13 00:34:55.395,1.0,1.0,0
25920,25920,2021-02-13 00:35:25.395,1.0,1.0,0
25930,25930,2021-02-13 00:35:55.395,1.0,1.0,0
25940,25940,2021-02-13 00:36:25.395,1.0,1.0,0
25950,25950,2021-02-13 00:36:55.395,1.0,1.0,0
25960,25960,2021-02-13 00:37:25.395,1.0,1.0,0
25970,25970,2021-02-13 00:37:55.395,1.0,1.0,0
25980,25980,2021-02-13 00:38:25.395,1.0,1.0,0
25990,25990,2021-02-13 00:38:55.395,1.0,1.0,0
26000,26000,2021-02-13 00:39:25.395,1.0,1.0,0
26010,26010,2021-02-13 00:39:55.395,1.0,1.0,0
26020,26020,2021-02-13 00:40:25.395,1.0,1.0,0
26030,26030,2021-02-13 00:40:55.395,1.0,1.0,0
26040,26040,2021-02-13 00:41:25.395,1.0,1.0,0
26050,26050,2021-02-13 00:41:55.395,1.0,1.0,0
26060,26060,2021-02-13 00:42:25.395,1.0,1.0,0
26070,26070,2021-02-13 00:42:55.395,1.0,1.0,0
26080,26080,2021-02-13 00:43:25.395,1.0,1.0,0
26090,26090,2021-02-13 00:43:55.395,1.0,1.0,0
26100,26100,2021-02-13 00:44:25.395,1.0,1.0,0
26110,26110,2021-02-13 00:44:55.395,1.0,1.0,0
26120,26120,2021-02-13 00:45:25.395,1.0,1.0,0
26130,26130,2021-02-13 00:45:55.395,1.0,1.0,0
26140,26140,2021-02-13 00:46:25.395,1.0,1.0,0
26150,26150,2021-02-13 00:46:55.395,1.0,1.0,0
26160,26160,2021-02-13 00:47:25.395,1.0,1.0,0
26170,26170,2021-02-13 00:47:55.395,1.0,1.0,0
26180,26180,2021-02-13 00:48:25.395,1.0,1.0,0
26190,26190,2021-02-13 00:48:55.395,1.0,1.0,0
26200,26200,2021-02-13 00:49:25.395,1.0,1.0,0
26210,26210,2021-02-13 00:49:55.395,1.0,1.0,0
26220,26220,2021-02-13 00:50:25.395,1.0,1.0,0
26230,26230,2021-02-13 00:50:55.395,1.0,1.0,0
26240,26240,2021-02-13 00:51:25.395,1.0,1.0,0
26250,26250,2021-02-13 00:51:55.395,1.0,1.0,0
26260,26260,2021-02-13 00:52:25.395,1.0,1.0,0
26270,26270,2021-02-13 00:52:55.395,1.0,1.0,0
26280,26280,2021-02-13 00:53:25.395,1.0,1.0,0
26290,26290,2021-02-13 00:53:55.395,1.0,1.0,0
26300,26300,2021-02-13 00:54:25.395,1.0,1.0,0
26310,26310,2021-02-13 00:54:55.395,1.0,1.0,0
26320,26320,2021-02-13 00:55:25.395,1.0,1.0,0
26330,26330,2021-02-13 00:55:55.395,1.0,1.0,0
26340,26340,2021-02-13 00:56:25.395,1.0,1.0,0
26350,26350,2021-02-13 00:56:55.395,1.0,1.0,0
26360,26360,2021-02-13 00:57:25.395,1.0,1.0,0
26370,26370,2021-02-13 00:57:55.395,1.0,1.0,0
26380,26380,2021-02-13 00:58:25.395,1.0,1.0,0
26390,26390,2021-02-13 00:58:55.395,1.0,1.0,0
26400,26400,2021-02-13 00:59:25.395,1.0,1.0,0
26410,26410,2021-02-13 00:59:55.395,1.0,1.0,0
26420,26420,2021-02-13 01:00:25.395,1.0,1.0,0
26430,26430,2021-02-13 01:00:55.395,1.0,1.0,0
26440,26440,2021-02-13 01:01:25.395,1.0,1.0,0
26450,26450,2021-02-13 01:01:55.395,1.0,1.0,0
26460,26460,2021-02-13 01:02:25.395,1.0,1.0,0
26470,26470,2021-02-13 01:02:55.395,1.0,1.0,0
26480,26480,2021-02-13 01:03:25.395,1.0,1.0,0
26490,26490,2021-02-13 01:03:55.395,1.0,1.0,0
26500,26500,2021-02-13 01:04:25.395,1.0,1.0,0
26510,26510,2021-02-13 01:04:55.395,1.0,1.0,0
26520,26520,2021-02-13 01:05:25.395,1.0,1.0,0
26530,26530,2021-02-13 01:05:55.395,1.0,1.0,0
26540,26540,2021-02-13 01:06:25.395,1.0,1.0,0
26550,26550,2021-02-13 01:06:55.395,1.0,1.0,0
26560,26560,2021-02-13 01:07:25.395,1.0,1.0,0
26570,26570,2021-02-13 01:07:55.395,1.0,1.0,0
26580,26580,2021-02-13 01:08:25.395,1.0,1.0,0
26590,26590,2021-02-13 01:08:55.395,1.0,1.0,0
26600,26600,2021-02-13 01:09:25.395,1.0,1.0,0
26610,26610,2021-02-13 01:09:55.395,1.0,1.0,0
26620,26620,2021-02-13 01:10:25.395,1.0,1.0,0
26630,26630,2021-02-13 01:10:55.395,1.0,1.0,0
26640,26640,2021-02-13 01:11:25.395,1.0,1.0,0
26650,26650,2021-02-13 01:11:55.395,1.0,1.0,0
26660,26660,2021-02-13 01:12:25.395,1.0,1.0,0
26670,26670,2021-02-13 01:12:55.395,1.0,1.0,0
26680,26680,2021-02-13 01:13:25.395,1.0,1.0,0
26690,26690,2021-02-13 01:13:55.395,1.0,1.0,0
26700,26700,2021-02-13 01:14:25.395,1.0,1.0,0
26710,26710,2021-02-13 01:14:55.395,1.0,1.0,0
26720,26720,2021-02-13 01:15:25.395,1.0,1.0,0
26730,26730,2021-02-13 01:15:55.395,1.0,1.0,0
26740,26740,2021-02-13 01:16:25.395,1.0,1.0,0
26750,26750,2021-02-13 01:16:55.395,1.0,1.0,0
26760,26760,2021-02-13 01:17:25.395,1.0,1.0,0
26770,26770,2021-02-13 01:17:55.395,1.0,1.0,0
26780,26780,2021-02-13 01:18:25.395,1.0,1.0,0
26790,26790,2021-02-13 01:18:55.395,1.0,1.0,0
26800,26800,2021-02-13 01:19:25.395,1.0,1.0,0
26810,26810,2021-02-13 01:19:55.395,1.0,1.0,0
26820,26820,2021-02-13 01:20:25.395,1.0,1.0,0
26830,26830,2021-02-13 01:20:55.395,1.0,1.0,0
26840,26840,2021-02-13 01:21:25.395,1.0,1.0,0
26850,26850,2021-02-13 01:21:55.395,1.0,1.0,0
26860,26860,2021-02-13 01:22:25.395,1.0,1.0,0
26870,26870,2021-02-13 01:22:55.395,1.0,1.0,0
26880,26880,2021-02-13 01:23:25.395,1.0,1.0,0
26890,26890,2021-02-13 01:23:55.395,1.0,1.0,0
26900,26900,2021-02-13 01:24:25.395,1.0,1.0,0
26910,26910,2021-02-13 01:24:55.395,1.0,1.0,0
26920,26920,2021-02-13 01:25:25.395,1.0,1.0,0
26930,26930,2021-02-13 01:25:55.395,1.0,1.0,0
26940,26940,2021-02-13 01:26:25.395,1.0,1.0,0
26950,26950,2021-02-13 01:26:55.395,1.0,1.0,0
26960,26960,2021-02-13 01:27:25.395,1.0,1.0,0
26970,26970,2021-02-13 01:27:55.395,1.0,1.0,0
26980,26980,2021-02-13 01:28:25.395,1.0,1.0,0
26990,26990,2021-02-13 01:28:55.395,1.0,1.0,0
27000,27000,2021-02-13 01:29:25.395,1.0,1.0,0
27010,27010,2021-02-13 01:29:55.395,1.0,1.0,0
27020,27020,2021-02-13 01:30:25.395,1.0,1.0,0
27030,27030,2021-02-13 01:30:55.395,1.0,1.0,0
27040,27040,2021-02-13 01:31:25.395,1.0,1.0,0
27050,27050,2021-02-13 01:31:55.395,1.0,1.0,0
27060,27060,2021-02-13 01:32:25.395,1.0,1.0,0
27070,27070,2021-02-13 01:32:55.395,1.0,1.0,0
27080,27080,2021-02-13 01:33:25.395,1.0,1.0,0
27090,27090,2021-02-13 01:33:55.395,1.0,1.0,0
27100,27100,2021-02-13 01:34:25.395,1.0,1.0,0
27110,27110,2021-02-13 01:34:55.395,1.0,1.0,0
27120,27120,2021-02-13 01:35:25.395,1.0,1.0,0
27130,27130,2021-02-13 01:35:55.395,1.0,1.0,0
27140,27140,2021-02-13 01:36:25.395,1.0,1.0,0
27150,27150,2021-02-13 01:36:55.395,1.0,1.0,0
27160,27160,2021-02-13 01:37:25.395,1.0,1.0,0
27170,27170,2021-02-13 01:37:55.395,1.0,1.0,0
27180,27180,2021-02-13 01:38:25.395,1.0,1.0,0
27190,27190,2021-02-13 01:38:55.395,1.0,1.0,0
27200,27200,2021-02-13 01:39:25.395,1.0,1.0,0
27210,27210,2021-02-13 01:39:55.395,1.0,1.0,0
27220,27220,2021-02-13 01:40:25.395,1.0,1.0,0
27230,27230,2021-02-13 01:40:55.395,1.0,1.0,0
27240,27240,2021-02-13 01:41:25.395,1.0,1.0,0
27250,27250,2021-02-13 01:41:55.395,1.0,1.0,0
27260,27260,2021-02-13 01:42:25.395,1.0,1.0,0
27270,27270,2021-02-13 01:42:55.395,1.0,1.0,0
27280,27280,2021-02-13 01:43:25.395,1.0,1.0,0
27290,27290,2021-02-13 01:43:55.395,1.0,1.0,0
27300,27300,2021-02-13 01:44:25.395,1.0,1.0,0
27310,27310,2021-02-13 01:44:55.395,1.0,1.0,0
27320,27320,2021-02-13 01:45:25.395,1.0,1.0,0
27330,27330,2021-02-13 01:45:55.395,1.0,1.0,0
27340,27340,2021-02-13 01:46:25.395,1.0,1.0,0
27350,27350,2021-02-13 01:46:55.395,1.0,1.0,0
27360,27360,2021-02-13 01:47:25.395,1.0,1.0,0
27370,27370,2021-02-13 01:47:55.395,1.0,1.0,0
27380,27380,2021-02-13 01:48:25.395,1.0,1.0,0
27390,27390,2021-02-13 01:48:55.395,1.0,1.0,0
27400,27400,2021-02-13 01:49:25.395,1.0,1.0,0
27410,27410,2021-02-13 01:49:55.395,1.0,1.0,0
27420,27420,2021-02-13 01:50:25.395,1.0,1.0,0
27430,27430,2021-02-13 01:50:55.395,1.0,1.0,0
27440,27440,2021-02-13 01:51:25.395,1.0,1.0,0
27450,27450,2021-02-13 01:51:55.395,1.0,1.0,0
27460,27460,2021-02-13 01:52:25.395,1.0,1.0,0
27470,27470,2021-02-13 01:52:55.395,1.0,1.0,0
27480,27480,2021-02-13 01:53:25.395,1.0,1.0,0
27490,27490,2021-02-13 01:53:55.395,1.0,1.0,0
27500,27500,2021-02-13 01:54:25.395,1.0,1.0,0
27510,27510,2021-02-13 01:54:55.395,1.0,1.0,0
27520,27520,2021-02-13 01:55:25.395,1.0,1.0,0
27530,27530,2021-02-13 01:55:55.395,1.0,1.0,0
27540,27540,2021-02-13 01:56:25.395,1.0,1.0,0
27550,27550,2021-02-13 01:56:55.395,1.0,1.0,0
27560,27560,2021-02-13 01:57:25.395,1.0,1.0,0
27570,27570,2021-02-13 01:57:55.395,1.0,1.0,0
27580,27580,2021-02-13 01:58:25.395,1.0,1.0,0
27590,27590,2021-02-13 01:58:55.395,1.0,1.0,0
27600,27600,2021-02-13 01:59:25.395,1.0,1.0,0
27610,27610,2021-02-13 01:59:55.395,1.0,1.0,0
27620,27620,2021-02-13 02:00:25.395,1.0,1.0,0
27630,27630,2021-02-13 02:00:55.395,1.0,1.0,0
27640,27640,2021-02-13 02:01:25.395,1.0,1.0,0
27650,27650,2021-02-13 02:01:55.395,1.0,1.0,0
27660,27660,2021-02-13 02:02:25.395,1.0,1.0,0
27670,27670,2021-02-13 02:02:55.395,1.0,1.0,0
27680,27680,2021-02-13 02:03:25.395,1.0,1.0,0
27690,27690,2021-02-13 02:03:55.395,1.0,1.0,0
27700,27700,2021-02-13 02:04:25.395,1.0,1.0,0
27710,27710,2021-02-13 02:04:55.395,1.0,1.0,0
27720,27720,2021-02-13 02:05:25.395,1.0,1.0,0
27730,27730,2021-02-13 02:05:55.395,1.0,1.0,0
27740,27740,2021-02-13 02:06:25.395,1.0,1.0,0
27750,27750,2021-02-13 02:06:55.395,1.0,1.0,0
27760,27760,2021-02-13 02:07:25.395,1.0,1.0,0
27770,27770,2021-02-13 02:07:55.395,1.0,1.0,0
27780,27780,2021-02-13 02:08:25.395,1.0,1.0,0
27790,27790,2021-02-13 02:08:55.395,1.0,1.0,0
27800,27800,2021-02-13 02:09:25.395,1.0,1.0,0
27810,27810,2021-02-13 02:09:55.395,1.0,1.0,0
27820,27820,2021-02-13 02:10:25.395,1.0,1.0,0
27830,27830,2021-02-13 02:10:55.395,1.0,1.0,0
27840,27840,2021-02-13 02:11:25.395,1.0,1.0,0
27850,27850,2021-02-13 02:11:55.395,1.0,1.0,0
27860,27860,2021-02-13 02:12:25.395,1.0,1.0,0
27870,27870,2021-02-13 02:12:55.395,1.0,1.0,0
27880,27880,2021-02-13 02:13:25.395,1.0,1.0,0
27890,27890,2021-02-13 02:13:55.395,1.0,1.0,0
27900,27900,2021-02-13 02:14:25.395,1.0,1.0,0
27910,27910,2021-02-13 02:14:55.395,1.0,1.0,0
27920,27920,2021-02-13 02:15:25.395,1.0,1.0,0
27930,27930,2021-02-13 02:15:55.395,1.0,1.0,0
27940,27940,2021-02-13 02:16:25.395,1.0,1.0,0
27950,27950,2021-02-13 02:16:55.395,1.0,1.0,0
27960,27960,2021-02-13 02:17:25.395,1.0,1.0,0
27970,27970,2021-02-13 02:17:55.395,1.0,1.0,0
27980,27980,2021-02-13 02:18:25.395,1.0,1.0,0
27990,27990,2021-02-13 02:18:55.395,1.0,1.0,0
28000,28000,2021-02-13 02:19:25.395,1.0,1.0,0
28010,28010,2021-02-13 02:19:55.395,1.0,1.0,0
28020,28020,2021-02-13 02:20:25.395,1.0,1.0,0
28030,28030,2021-02-13 02:20:55.395,1.0,1.0,0
28040,28040,2021-02-13 02:21:25.395,1.0,1.0,0
28050,28050,2021-02-13 02:21:55.395,1.0,1.0,0
28060,28060,2021-02-13 02:22:25.395,1.0,1.0,0
28070,28070,2021-02-13 02:22:55.395,1.0,1.0,0
28080,28080,2021-02-13 02:23:25.395,1.0,1.0,0
28090,28090,2021-02-13 02:23:55.395,1.0,1.0,0
28100,28100,2021-02-13 02:24:25.395,1.0,1.0,0
28110,28110,2021-02-13 02:24:55.395,1.0,1.0,0
28120,28120,2021-02-13 02:25:25.395,1.0,1.0,0
28130,28130,2021-02-13 02:25:55.395,1.0,1.0,0
28140,28140,2021-02-13 02:26:25.395,1.0,1.0,0
28150,28150,2021-02-13 02:26:55.395,1.0,1.0,0
28160,28160,2021-02-13 02:27:25.395,1.0,1.0,0
28170,28170,2021-02-13 02:27:55.395,1.0,1.0,0
28180,28180,2021-02-13 02:28:25.395,1.0,1.0,0
28190,28190,2021-02-13 02:28:55.395,1.0,1.0,0
28200,28200,2021-02-13 02:29:25.395,1.0,1.0,0
28210,28210,2021-02-13 02:29:55.395,1.0,1.0,0
28220,28220,2021-02-13 02:30:25.395,1.0,1.0,0
28230,28230,2021-02-13 02:30:55.395,1.0,1.0,0
28240,28240,2021-02-13 02:31:25.395,1.0,1.0,0
28250,28250,2021-02-13 02:31:55.395,1.0,1.0,0
28260,28260,2021-02-13 02:32:25.395,1.0,1.0,0
28270,28270,2021-02-13 02:32:55.395,1.0,1.0,0
28280,28280,2021-02-13 02:33:25.395,1.0,1.0,0
28290,28290,2021-02-13 02:33:55.395,1.0,1.0,0
28300,28300,2021-02-13 02:34:25.395,1.0,1.0,0
28310,28310,2021-02-13 02:34:55.395,1.0,1.0,0
28320,28320,2021-02-13 02:35:25.395,1.0,1.0,0
28330,28330,2021-02-13 02:35:55.395,1.0,1.0,0
28340,28340,2021-02-13 02:36:25.395,1.0,1.0,0
28350,28350,2021-02-13 02:36:55.395,1.0,1.0,0
28360,28360,2021-02-13 02:37:25.395,1.0,1.0,0
28370,28370,2021-02-13 02:37:55.395,1.0,1.0,0
28380,28380,2021-02-13 02:38:25.395,1.0,1.0,0
28390,28390,2021-02-13 02:38:55.395,1.0,1.0,0
28400,28400,2021-02-13 02:39:25.395,1.0,1.0,0
28410,28410,2021-02-13 02:39:55.395,1.0,1.0,0
28420,28420,2021-02-13 02:40:25.395,1.0,1.0,0
28430,28430,2021-02-13 02:40:55.395,1.0,1.0,0
28440,28440,2021-02-13 02:41:25.395,1.0,1.0,0
28450,28450,2021-02-13 02:41:55.395,1.0,1.0,0
28460,28460,2021-02-13 02:42:25.395,1.0,1.0,0
28470,28470,2021-02-13 02:42:55.395,1.0,1.0,0
28480,28480,2021-02-13 02:43:25.395,1.0,1.0,0
28490,28490,2021-02-13 02:43:55.395,1.0,1.0,0
28500,28500,2021-02-13 02:44:25.395,1.0,1.0,0
28510,28510,2021-02-13 02:44:55.395,1.0,1.0,0
28520,28520,2021-02-13 02:45:25.395,1.0,1.0,0
28530,28530,2021-02-13 02:45:55.395,1.0,1.0,0
28540,28540,2021-02-13 02:46:25.395,1.0,1.0,0
28550,28550,2021-02-13 02:46:55.395,1.0,1.0,0
28560,28560,2021-02-13 02:47:25.395,1.0,1.0,0
28570,28570,2021-02-13 02:47:55.395,1.0,1.0,0
28580,28580,2021-02-13 02:48:25.395,1.0,1.0,0
28590,28590,2021-02-13 02:48:55.395,1.0,1.0,0
28600,28600,2021-02-13 02:49:25.395,1.0,1.0,0
28610,28610,2021-02-13 02:49:55.395,1.0,1.0,0
28620,28620,2021-02-13 02:50:25.395,1.0,1.0,0
28630,28630,2021-02-13 02:50:55.395,1.0,1.0,0
28640,28640,2021-02-13 02:51:25.395,1.0,1.0,0
28650,28650,2021-02-13 02:51:55.395,1.0,1.0,0
28660,28660,2021-02-13 02:52:25.395,1.0,1.0,0
28670,28670,2021-02-13 02:52:55.395,1.0,1.0,0
28680,28680,2021-02-13 02:53:25.395,1.0,1.0,0
28690,28690,2021-02-13 02:53:55.395,1.0,1.0,0
28700,28700,2021-02-13 02:54:25.395,1.0,1.0,0
28710,28710,2021-02-13 02:54:55.395,1.0,1.0,0
28720,28720,2021-02-13 02:55:25.395,1.0,1.0,0
28730,28730,2021-02-13 02:55:55.395,1.0,1.0,0
28740,28740,2021-02-13 02:56:25.395,1.0,1.0,0
28750,28750,2021-02-13 02:56:55.395,1.0,1.0,0
28760,28760,2021-02-13 02:57:25.395,1.0,1.0,0
28770,28770,2021-02-13 02:57:55.395,1.0,1.0,0
28780,28780,2021-02-13 02:58:25.395,1.0,1.0,0
28790,28790,2021-02-13 02:58:55.395,1.0,1.0,0
28800,28800,2021-02-13 02:59:25.395,1.0,1.0,0
28810,28810,2021-02-13 02:59:55.395,1.0,1.0,0
28820,28820,2021-02-13 03:00:25.395,1.0,1.0,0
28830,28830,2021-02-13 03:00:55.395,1.0,1.0,0
28840,28840,2021-02-13 03:01:25.395,1.0,1.0,0
28850,28850,2021-02-13 03:01:55.395,1.0,1.0,0
28860,28860,2021-02-13 03:02:25.395,1.0,1.0,0
28870,28870,2021-02-13 03:02:55.395,1.0,1.0,0
28880,28880,2021-02-13 03:03:25.395,1.0,1.0,0
28890,28890,2021-02-13 03:03:55.395,1.0,1.0,0
28900,28900,2021-02-13 03:04:25.395,1.0,1.0,0
28910,28910,2021-02-13 03:04:55.395,1.0,1.0,0
28920,28920,2021-02-13 03:05:25.395,1.0,1.0,0
28930,28930,2021-02-13 03:05:55.395,1.0,1.0,0
28940,28940,2021-02-13 03:06:25.395,1.0,1.0,0
28950,28950,2021-02-13 03:06:55.395,1.0,1.0,0
28960,28960,2021-02-13 03:07:25.395,1.0,1.0,0
28970,28970,2021-02-13 03:07:55.395,1.0,1.0,0
28980,28980,2021-02-13 03:08:25.395,1.0,1.0,0
28990,28990,2021-02-13 03:08:55.395,1.0,1.0,0
29000,29000,2021-02-13 03:09:25.395,1.0,1.0,0
29010,29010,2021-02-13 03:09:55.395,1.0,1.0,0
29020,29020,2021-02-13 03:10:25.395,1.0,1.0,0
29030,29030,2021-02-13 03:10:55.395,1.0,1.0,0
29040,29040,2021-02-13 03:11:25.395,1.0,1.0,0
29050,29050,2021-02-13 03:11:55.395,1.0,1.0,0
29060,29060,2021-02-13 03:12:25.395,1.0,1.0,0
29070,29070,2021-02-13 03:12:55.395,1.0,1.0,0
29080,29080,2021-02-13 03:13:25.395,1.0,1.0,0
29090,29090,2021-02-13 03:13:55.395,1.0,1.0,0
29100,29100,2021-02-13 03:14:25.395,1.0,1.0,0
29110,29110,2021-02-13 03:14:55.395,1.0,1.0,0
29120,29120,2021-02-13 03:15:25.395,1.0,1.0,0
29130,29130,2021-02-13 03:15:55.395,1.0,1.0,0
29140,29140,2021-02-13 03:16:25.395,1.0,1.0,0
29150,29150,2021-02-13 03:16:55.395,1.0,1.0,0
29160,29160,2021-02-13 03:17:25.395,1.0,1.0,0
29170,29170,2021-02-13 03:17:55.395,1.0,1.0,0
29180,29180,2021-02-13 03:18:25.395,1.0,1.0,0
29190,29190,2021-02-13 03:18:55.395,1.0,1.0,0
29200,29200,2021-02-13 03:19:25.395,1.0,1.0,0
29210,29210,2021-02-13 03:19:55.395,1.0,1.0,0
29220,29220,2021-02-13 03:20:25.395,1.0,1.0,0
29230,29230,2021-02-13 03:20:55.395,1.0,1.0,0
29240,29240,2021-02-13 03:21:25.395,1.0,1.0,0
29250,29250,2021-02-13 03:21:55.395,1.0,1.0,0
29260,29260,2021-02-13 03:22:25.395,1.0,1.0,0
29270,29270,2021-02-13 03:22:55.395,1.0,1.0,0
29280,29280,2021-02-13 03:23:25.395,1.0,1.0,0
29290,29290,2021-02-13 03:23:55.395,1.0,1.0,0
29300,29300,2021-02-13 03:24:25.395,1.0,1.0,0
29310,29310,2021-02-13 03:24:55.395,1.0,1.0,0
29320,29320,2021-02-13 03:25:25.395,1.0,1.0,0
29330,29330,2021-02-13 03:25:55.395,1.0,1.0,0
29340,29340,2021-02-13 03:26:25.395,1.0,1.0,0
29350,29350,2021-02-13 03:26:55.395,1.0,1.0,0
29360,29360,2021-02-13 03:27:25.395,1.0,1.0,0
29370,29370,2021-02-13 03:27:55.395,1.0,1.0,0
29380,29380,2021-02-13 03:28:25.395,1.0,1.0,0
29390,29390,2021-02-13 03:28:55.395,1.0,1.0,0
29400,29400,2021-02-13 03:29:25.395,1.0,1.0,0
29410,29410,2021-02-13 03:29:55.395,1.0,1.0,0
29420,29420,2021-02-13 03:30:25.395,1.0,1.0,0
29430,29430,2021-02-13 03:30:55.395,1.0,1.0,0
29440,29440,2021-02-13 03:31:25.395,1.0,1.0,0
29450,29450,2021-02-13 03:31:55.395,1.0,1.0,0
29460,29460,2021-02-13 03:32:25.395,1.0,1.0,0
29470,29470,2021-02-13 03:32:55.395,1.0,1.0,0
29480,29480,2021-02-13 03:33:25.395,1.0,1.0,0
29490,29490,2021-02-13 03:33:55.395,1.0,1.0,0
29500,29500,2021-02-13 03:34:25.395,1.0,1.0,0
29510,29510,2021-02-13 03:34:55.395,1.0,1.0,0
29520,29520,2021-02-13 03:35:25.395,1.0,1.0,0
29530,29530,2021-02-13 03:35:55.395,1.0,1.0,0
29540,29540,2021-02-13 03:36:25.395,1.0,1.0,0
29550,29550,2021-02-13 03:36:55.395,1.0,1.0,0
29560,29560,2021-02-13 03:37:25.395,1.0,1.0,0
29570,29570,2021-02-13 03:37:55.395,1.0,1.0,0
29580,29580,2021-02-13 03:38:25.395,1.0,1.0,0
29590,29590,2021-02-13 03:38:55.395,1.0,1.0,0
29600,29600,2021-02-13 03:39:25.395,1.0,1.0,0
29610,29610,2021-02-13 03:39:55.395,1.0,1.0,0
29620,29620,2021-02-13 03:40:25.395,1.0,1.0,0
29630,29630,2021-02-13 03:40:55.395,1.0,1.0,0
29640,29640,2021-02-13 03:41:25.395,1.0,1.0,0
29650,29650,2021-02-13 03:41:55.395,1.0,1.0,0
29660,29660,2021-02-13 03:42:25.395,1.0,1.0,0
29670,29670,2021-02-13 03:42:55.395,1.0,1.0,0
29680,29680,2021-02-13 03:43:25.395,1.0,1.0,0
29690,29690,2021-02-13 03:43:55.395,1.0,1.0,0
29700,29700,2021-02-13 03:44:25.395,1.0,1.0,0
29710,29710,2021-02-13 03:44:55.395,1.0,1.0,0
29720,29720,2021-02-13 03:45:25.395,1.0,1.0,0
29730,29730,2021-02-13 03:45:55.395,1.0,1.0,0
29740,29740,2021-02-13 03:46:25.395,1.0,1.0,0
29750,29750,2021-02-13 03:46:55.395,1.0,1.0,0
29760,29760,2021-02-13 03:47:25.395,1.0,1.0,0
29770,29770,2021-02-13 03:47:55.395,1.0,1.0,0
29780,29780,2021-02-13 03:48:25.395,1.0,1.0,0
29790,29790,2021-02-13 03:48:55.395,1.0,1.0,0
29800,29800,2021-02-13 03:49:25.395,1.0,1.0,0
29810,29810,2021-02-13 03:49:55.395,1.0,1.0,0
29820,29820,2021-02-13 03:50:25.395,1.0,1.0,0
29830,29830,2021-02-13 03:50:55.395,1.0,1.0,0
29840,29840,2021-02-13 03:51:25.395,1.0,1.0,0
29850,29850,2021-02-13 03:51:55.395,1.0,1.0,0
29860,29860,2021-02-13 03:52:25.395,1.0,1.0,0
29870,29870,2021-02-13 03:52:55.395,1.0,1.0,0
29880,29880,2021-02-13 03:53:25.395,1.0,1.0,0
29890,29890,2021-02-13 03:53:55.395,1.0,1.0,0
29900,29900,2021-02-13 03:54:25.395,1.0,1.0,0
29910,29910,2021-02-13 03:54:55.395,1.0,1.0,0
29920,29920,2021-02-13 03:55:25.395,1.0,1.0,0
29930,29930,2021-02-13 03:55:55.395,1.0,1.0,0
29940,29940,2021-02-13 03:56:25.395,1.0,1.0,0
29950,29950,2021-02-13 03:56:55.395,1.0,1.0,0
29960,29960,2021-02-13 03:57:25.395,1.0,1.0,0
29970,29970,2021-02-13 03:57:55.395,1.0,1.0,0
29980,29980,2021-02-13 03:58:25.395,1.0,1.0,0
29990,29990,2021-02-13 03:58:55.395,1.0,1.0,0
30000,30000,2021-02-13 03:59:25.395,1.0,1.0,0
30010,30010,2021-02-13 03:59:55.395,1.0,1.0,0
30020,30020,2021-02-13 04:00:25.395,1.0,1.0,0
30030,30030,2021-02-13 04:00:55.395,1.0,1.0,0
30040,30040,2021-02-13 04:01:25.395,1.0,1.0,0
30050,30050,2021-02-13 04:01:55.395,1.0,1.0,0
30060,30060,2021-02-13 04:02:25.395,1.0,1.0,0
30070,30070,2021-02-13 04:02:55.395,1.0,1.0,0
30080,30080,2021-02-13 04:03:25.395,1.0,1.0,0
30090,30090,2021-02-13 04:03:55.395,1.0,1.0,0
30100,30100,2021-02-13 04:04:25.395,1.0,1.0,0
30110,30110,2021-02-13 04:04:55.395,1.0,1.0,0
30120,30120,2021-02-13 04:05:25.395,1.0,1.0,0
30130,30130,2021-02-13 04:05:55.395,1.0,1.0,0
30140,30140,2021-02-13 04:06:25.395,1.0,1.0,0
30150,30150,2021-02-13 04:06:55.395,1.0,1.0,0
30160,30160,2021-02-13 04:07:25.395,1.0,1.0,0
30170,30170,2021-02-13 04:07:55.395,1.0,1.0,0
30180,30180,2021-02-13 04:08:25.395,1.0,1.0,0
30190,30190,2021-02-13 04:08:55.395,1.0,1.0,0
30200,30200,2021-02-13 04:09:25.395,1.0,1.0,0
30210,30210,2021-02-13 04:09:55.395,1.0,1.0,0
30220,30220,2021-02-13 04:10:25.395,1.0,1.0,0
30230,30230,2021-02-13 04:10:55.395,1.0,1.0,0
30240,30240,2021-02-13 04:11:25.395,1.0,1.0,0
30250,30250,2021-02-13 04:11:55.395,1.0,1.0,0
30260,30260,2021-02-13 04:12:25.395,1.0,1.0,0
30270,30270,2021-02-13 04:12:55.395,1.0,1.0,0
30280,30280,2021-02-13 04:13:25.395,1.0,1.0,0
30290,30290,2021-02-13 04:13:55.395,1.0,1.0,0
30300,30300,2021-02-13 04:14:25.395,1.0,1.0,0
30310,30310,2021-02-13 04:14:55.395,1.0,1.0,0
30320,30320,2021-02-13 04:15:25.395,1.0,1.0,0
30330,30330,2021-02-13 04:15:55.395,1.0,1.0,0
30340,30340,2021-02-13 04:16:25.395,1.0,1.0,0
30350,30350,2021-02-13 04:16:55.395,1.0,1.0,0
30360,30360,2021-02-13 04:17:25.395,1.0,1.0,0
30370,30370,2021-02-13 04:17:55.395,1.0,1.0,0
30380,30380,2021-02-13 04:18:25.395,1.0,1.0,0
30390,30390,2021-02-13 04:18:55.395,1.0,1.0,0
30400,30400,2021-02-13 04:19:25.395,1.0,1.0,0
30410,30410,2021-02-13 04:19:55.395,1.0,1.0,0
30420,30420,2021-02-13 04:20:25.395,1.0,1.0,0
30430,30430,2021-02-13 04:20:55.395,1.0,1.0,0
30440,30440,2021-02-13 04:21:25.395,1.0,1.0,0
30450,30450,2021-02-13 04:21:55.395,1.0,1.0,0
30460,30460,2021-02-13 04:22:25.395,1.0,1.0,0
30470,30470,2021-02-13 04:22:55.395,1.0,1.0,0
30480,30480,2021-02-13 04:23:25.395,1.0,1.0,0
30490,30490,2021-02-13 04:23:55.395,1.0,1.0,0
30500,30500,2021-02-13 04:24:25.395,1.0,1.0,0
30510,30510,2021-02-13 04:24:55.395,1.0,1.0,0
30520,30520,2021-02-13 04:25:25.395,1.0,1.0,0
30530,30530,2021-02-13 04:25:55.395,1.0,1.0,0
30540,30540,2021-02-13 04:26:25.395,1.0,1.0,0
30550,30550,2021-02-13 04:26:55.395,1.0,1.0,0
30560,30560,2021-02-13 04:27:25.395,1.0,1.0,0
30570,30570,2021-02-13 04:27:55.395,1.0,1.0,0
30580,30580,2021-02-13 04:28:25.395,1.0,1.0,0
30590,30590,2021-02-13 04:28:55.395,1.0,1.0,0
30600,30600,2021-02-13 04:29:25.395,1.0,1.0,0
30610,30610,2021-02-13 04:29:55.395,1.0,1.0,0
30620,30620,2021-02-13 04:30:25.395,1.0,1.0,0
30630,30630,2021-02-13 04:30:55.395,1.0,1.0,0
30640,30640,2021-02-13 04:31:25.395,1.0,1.0,0
30650,30650,2021-02-13 04:31:55.395,1.0,1.0,0
30660,30660,2021-02-13 04:32:25.395,1.0,1.0,0
30670,30670,2021-02-13 04:32:55.395,1.0,1.0,0
30680,30680,2021-02-13 04:33:25.395,1.0,1.0,0
30690,30690,2021-02-13 04:33:55.395,1.0,1.0,0
30700,30700,2021-02-13 04:34:25.395,1.0,1.0,0
30710,30710,2021-02-13 04:34:55.395,1.0,1.0,0
30720,30720,2021-02-13 04:35:25.395,1.0,1.0,0
30730,30730,2021-02-13 04:35:55.395,1.0,1.0,0
30740,30740,2021-02-13 04:36:25.395,1.0,1.0,0
30750,30750,2021-02-13 04:36:55.395,1.0,1.0,0
30760,30760,2021-02-13 04:37:25.395,1.0,1.0,0
30770,30770,2021-02-13 04:37:55.395,1.0,1.0,0
30780,30780,2021-02-13 04:38:25.395,1.0,1.0,0
30790,30790,2021-02-13 04:38:55.395,1.0,1.0,0
30800,30800,2021-02-13 04:39:25.395,1.0,1.0,0
30810,30810,2021-02-13 04:39:55.395,1.0,1.0,0
30820,30820,2021-02-13 04:40:25.395,1.0,1.0,0
30830,30830,2021-02-13 04:40:55.395,1.0,1.0,0
30840,30840,2021-02-13 04:41:25.395,1.0,1.0,0
30850,30850,2021-02-13 04:41:55.395,1.0,1.0,0
30860,30860,2021-02-13 04:42:25.395,1.0,1.0,0
30870,30870,2021-02-13 04:42:55.395,1.0,1.0,0
30880,30880,2021-02-13 04:43:25.395,1.0,1.0,0
30890,30890,2021-02-13 04:43:55.395,1.0,1.0,0
30900,30900,2021-02-13 04:44:25.395,1.0,1.0,0
30910,30910,2021-02-13 04:44:55.395,1.0,1.0,0
30920,30920,2021-02-13 04:45:25.395,1.0,1.0,0
30930,30930,2021-02-13 04:45:55.395,1.0,1.0,0
30940,30940,2021-02-13 04:46:25.395,1.0,1.0,0
30950,30950,2021-02-13 04:46:55.395,1.0,1.0,0
30960,30960,2021-02-13 04:47:25.395,1.0,1.0,0
30970,30970,2021-02-13 04:47:55.395,1.0,1.0,0
30980,30980,2021-02-13 04:48:25.395,1.0,1.0,0
30990,30990,2021-02-13 04:48:55.395,1.0,1.0,0
31000,31000,2021-02-13 04:49:25.395,1.0,1.0,0
31010,31010,2021-02-13 04:49:55.395,1.0,1.0,0
31020,31020,2021-02-13 04:50:25.395,1.0,1.0,0
31030,31030,2021-02-13 04:50:55.395,1.0,1.0,0
31040,31040,2021-02-13 04:51:25.395,1.0,1.0,0
31050,31050,2021-02-13 04:51:55.395,1.0,1.0,0
31060,31060,2021-02-13 04:52:25.395,1.0,1.0,0
31070,31070,2021-02-13 04:52:55.395,1.0,1.0,0
31080,31080,2021-02-13 04:53:25.395,1.0,1.0,0
31090,31090,2021-02-13 04:53:55.395,1.0,1.0,0
31100,31100,2021-02-13 04:54:25.395,1.0,1.0,0
31110,31110,2021-02-13 04:54:55.395,1.0,1.0,0
31120,31120,2021-02-13 04:55:25.395,1.0,1.0,0
31130,31130,2021-02-13 04:55:55.395,1.0,1.0,0
31140,31140,2021-02-13 04:56:25.395,1.0,1.0,0
31150,31150,2021-02-13 04:56:55.395,1.0,1.0,0
31160,31160,2021-02-13 04:57:25.395,1.0,1.0,0
31170,31170,2021-02-13 04:57:55.395,1.0,1.0,0
31180,31180,2021-02-13 04:58:25.395,1.0,1.0,0
31190,31190,2021-02-13 04:58:55.395,1.0,1.0,0
31200,31200,2021-02-13 04:59:25.395,1.0,1.0,0
31210,31210,2021-02-13 04:59:55.395,1.0,1.0,0
31220,31220,2021-02-13 05:00:25.395,1.0,1.0,0
31230,31230,2021-02-13 05:00:55.395,1.0,1.0,0
31240,31240,2021-02-13 05:01:25.395,1.0,1.0,0
31250,31250,2021-02-13 05:01:55.395,1.0,1.0,0
31260,31260,2021-02-13 05:02:25.395,1.0,1.0,0
31270,31270,2021-02-13 05:02:55.395,1.0,1.0,0
31280,31280,2021-02-13 05:03:25.395,1.0,1.0,0
31290,31290,2021-02-13 05:03:55.395,1.0,1.0,0
31300,31300,2021-02-13 05:04:25.395,1.0,1.0,0
31310,31310,2021-02-13 05:04:55.395,1.0,1.0,0
31320,31320,2021-02-13 05:05:25.395,1.0,1.0,0
31330,31330,2021-02-13 05:05:55.395,1.0,1.0,0
31340,31340,2021-02-13 05:06:25.395,1.0,1.0,0
31350,31350,2021-02-13 05:06:55.395,1.0,1.0,0
31360,31360,2021-02-13 05:07:25.395,1.0,1.0,0
31370,31370,2021-02-13 05:07:55.395,1.0,1.0,0
31380,31380,2021-02-13 05:08:25.395,1.0,1.0,0
31390,31390,2021-02-13 05:08:55.395,1.0,1.0,0
31400,31400,2021-02-13 05:09:25.395,1.0,1.0,0
31410,31410,2021-02-13 05:09:55.395,1.0,1.0,0
31420,31420,2021-02-13 05:10:25.395,1.0,1.0,0
31430,31430,2021-02-13 05:10:55.395,1.0,1.0,0
31440,31440,2021-02-13 05:11:25.395,1.0,1.0,0
31450,31450,2021-02-13 05:11:55.395,1.0,1.0,0
31460,31460,2021-02-13 05:12:25.395,1.0,1.0,0
31470,31470,2021-02-13 05:12:55.395,1.0,1.0,0
31480,31480,2021-02-13 05:13:25.395,1.0,1.0,0
31490,31490,2021-02-13 05:13:55.395,1.0,1.0,0
31500,31500,2021-02-13 05:14:25.395,1.0,1.0,0
31510,31510,2021-02-13 05:14:55.395,1.0,1.0,0
31520,31520,2021-02-13 05:15:25.395,1.0,1.0,0
31530,31530,2021-02-13 05:15:55.395,1.0,1.0,0
31540,31540,2021-02-13 05:16:25.395,1.0,1.0,0
31550,31550,2021-02-13 05:16:55.395,1.0,1.0,0
31560,31560,2021-02-13 05:17:25.395,1.0,1.0,0
31570,31570,2021-02-13 05:17:55.395,1.0,1.0,0
31580,31580,2021-02-13 05:18:25.395,1.0,1.0,0
31590,31590,2021-02-13 05:18:55.395,1.0,1.0,0
31600,31600,2021-02-13 05:19:25.395,1.0,1.0,0
31610,31610,2021-02-13 05:19:55.395,1.0,1.0,0
31620,31620,2021-02-13 05:20:25.395,1.0,1.0,0
31630,31630,2021-02-13 05:20:55.395,1.0,1.0,0
31640,31640,2021-02-13 05:21:25.395,1.0,1.0,0
31650,31650,2021-02-13 05:21:55.395,1.0,1.0,0
31660,31660,2021-02-13 05:22:25.395,1.0,1.0,0
31670,31670,2021-02-13 05:22:55.395,1.0,1.0,0
31680,31680,2021-02-13 05:23:25.395,1.0,1.0,0
31690,31690,2021-02-13 05:23:55.395,1.0,1.0,0
31700,31700,2021-02-13 05:24:25.395,1.0,1.0,0
31710,31710,2021-02-13 05:24:55.395,1.0,1.0,0
31720,31720,2021-02-13 05:25:25.395,1.0,1.0,0
31730,31730,2021-02-13 05:25:55.395,1.0,1.0,0
31740,31740,2021-02-13 05:26:25.395,1.0,1.0,0
31750,31750,2021-02-13 05:26:55.395,1.0,1.0,0
31760,31760,2021-02-13 05:27:25.395,1.0,1.0,0
31770,31770,2021-02-13 05:27:55.395,1.0,1.0,0
31780,31780,2021-02-13 05:28:25.395,1.0,1.0,0
31790,31790,2021-02-13 05:28:55.395,1.0,1.0,0
31800,31800,2021-02-13 05:29:25.395,1.0,1.0,0
31810,31810,2021-02-13 05:29:55.395,1.0,1.0,0
31820,31820,2021-02-13 05:30:25.395,1.0,1.0,0
31830,31830,2021-02-13 05:30:55.395,1.0,1.0,0
31840,31840,2021-02-13 05:31:25.395,1.0,1.0,0
31850,31850,2021-02-13 05:31:55.395,1.0,1.0,0
31860,31860,2021-02-13 05:32:25.395,1.0,1.0,0
31870,31870,2021-02-13 05:32:55.395,1.0,1.0,0
31880,31880,2021-02-13 05:33:25.395,1.0,1.0,0
31890,31890,2021-02-13 05:33:55.395,1.0,1.0,0
31900,31900,2021-02-13 05:34:25.395,1.0,1.0,0
31910,31910,2021-02-13 05:34:55.395,1.0,1.0,0
31920,31920,2021-02-13 05:35:25.395,1.0,1.0,0
31930,31930,2021-02-13 05:35:55.395,1.0,1.0,0
31940,31940,2021-02-13 05:36:25.395,1.0,1.0,0
31950,31950,2021-02-13 05:36:55.395,1.0,1.0,0
31960,31960,2021-02-13 05:37:25.395,1.0,1.0,0
31970,31970,2021-02-13 05:37:55.395,1.0,1.0,0
31980,31980,2021-02-13 05:38:25.395,1.0,1.0,0
31990,31990,2021-02-13 05:38:55.395,1.0,1.0,0
32000,32000,2021-02-13 05:39:25.395,1.0,1.0,0
32010,32010,2021-02-13 05:39:55.395,1.0,1.0,0
32020,32020,2021-02-13 05:40:25.395,1.0,1.0,0
32030,32030,2021-02-13 05:40:55.395,1.0,1.0,0
32040,32040,2021-02-13 05:41:25.395,1.0,1.0,0
32050,32050,2021-02-13 05:41:55.395,1.0,1.0,0
32060,32060,2021-02-13 05:42:25.395,1.0,1.0,0
32070,32070,2021-02-13 05:42:55.395,1.0,1.0,0
32080,32080,2021-02-13 05:43:25.395,1.0,1.0,0
32090,32090,2021-02-13 05:43:55.395,1.0,1.0,0
32100,32100,2021-02-13 05:44:25.395,1.0,1.0,0
32110,32110,2021-02-13 05:44:55.395,1.0,1.0,0
32120,32120,2021-02-13 05:45:25.395,1.0,1.0,0
32130,32130,2021-02-13 05:45:55.395,1.0,1.0,0
32140,32140,2021-02-13 05:46:25.395,1.0,1.0,0
32150,32150,2021-02-13 05:46:55.395,1.0,1.0,0
32160,32160,2021-02-13 05:47:25.395,1.0,1.0,0
32170,32170,2021-02-13 05:47:55.395,1.0,1.0,0
32180,32180,2021-02-13 05:48:25.395,1.0,1.0,0
32190,32190,2021-02-13 05:48:55.395,1.0,1.0,0
32200,32200,2021-02-13 05:49:25.395,1.0,1.0,0
32210,32210,2021-02-13 05:49:55.395,1.0,1.0,0
32220,32220,2021-02-13 05:50:25.395,1.0,1.0,0
32230,32230,2021-02-13 05:50:55.395,1.0,1.0,0
32240,32240,2021-02-13 05:51:25.395,1.0,1.0,0
32250,32250,2021-02-13 05:51:55.395,1.0,1.0,0
32260,32260,2021-02-13 05:52:25.395,1.0,1.0,0
32270,32270,2021-02-13 05:52:55.395,1.0,1.0,0
32280,32280,2021-02-13 05:53:25.395,1.0,1.0,0
32290,32290,2021-02-13 05:53:55.395,1.0,1.0,0
32300,32300,2021-02-13 05:54:25.395,1.0,1.0,0
32310,32310,2021-02-13 05:54:55.395,1.0,1.0,0
32320,32320,2021-02-13 05:55:25.395,1.0,1.0,0
32330,32330,2021-02-13 05:55:55.395,1.0,1.0,0
32340,32340,2021-02-13 05:56:25.395,1.0,1.0,0
32350,32350,2021-02-13 05:56:55.395,1.0,1.0,0
32360,32360,2021-02-13 05:57:25.395,1.0,1.0,0
32370,32370,2021-02-13 05:57:55.395,1.0,1.0,0
32380,32380,2021-02-13 05:58:25.395,1.0,1.0,0
32390,32390,2021-02-13 05:58:55.395,1.0,1.0,0
32400,32400,2021-02-13 05:59:25.395,1.0,1.0,0
32410,32410,2021-02-13 05:59:55.395,1.0,1.0,0
32420,32420,2021-02-13 06:00:25.395,1.0,1.0,0
32430,32430,2021-02-13 06:00:55.395,1.0,1.0,0
32440,32440,2021-02-13 06:01:25.395,1.0,1.0,0
32450,32450,2021-02-13 06:01:55.395,1.0,1.0,0
32460,32460,2021-02-13 06:02:25.395,1.0,1.0,0
32470,32470,2021-02-13 06:02:55.395,1.0,1.0,0
32480,32480,2021-02-13 06:03:25.395,1.0,1.0,0
32490,32490,2021-02-13 06:03:55.395,1.0,1.0,0
32500,32500,2021-02-13 06:04:25.395,1.0,1.0,0
32510,32510,2021-02-13 06:04:55.395,1.0,1.0,0
32520,32520,2021-02-13 06:05:25.395,1.0,1.0,0
32530,32530,2021-02-13 06:05:55.395,1.0,1.0,0
32540,32540,2021-02-13 06:06:25.395,1.0,1.0,0
32550,32550,2021-02-13 06:06:55.395,1.0,1.0,0
32560,32560,2021-02-13 06:07:25.395,1.0,1.0,0
32570,32570,2021-02-13 06:07:55.395,1.0,1.0,0
32580,32580,2021-02-13 06:08:25.395,1.0,1.0,0
