,Unnamed: 0,time,prediction,real,step
11181,11181,2021-02-12 12:18:55.395,1.0,1.0,1
11191,11191,2021-02-12 12:19:25.395,1.0,1.0,1
11201,11201,2021-02-12 12:19:55.395,1.0,1.0,1
11211,11211,2021-02-12 12:20:25.395,1.0,1.0,1
11221,11221,2021-02-12 12:20:55.395,1.0,1.0,1
11231,11231,2021-02-12 12:21:25.395,1.0,1.0,1
11241,11241,2021-02-12 12:21:55.395,1.0,1.0,1
11251,11251,2021-02-12 12:22:25.395,1.0,1.0,1
11261,11261,2021-02-12 12:22:55.395,1.0,1.0,1
11271,11271,2021-02-12 12:23:25.395,1.0,1.0,1
11281,11281,2021-02-12 12:23:55.395,1.0,1.0,1
11291,11291,2021-02-12 12:24:25.395,1.0,1.0,1
11301,11301,2021-02-12 12:24:55.395,1.0,1.0,1
11311,11311,2021-02-12 12:25:25.395,1.0,1.0,1
11321,11321,2021-02-12 12:25:55.395,1.0,1.0,1
11331,11331,2021-02-12 12:26:25.395,1.0,1.0,1
11341,11341,2021-02-12 12:26:55.395,1.0,1.0,1
11351,11351,2021-02-12 12:27:25.395,1.0,1.0,1
11361,11361,2021-02-12 12:27:55.395,1.0,1.0,1
11371,11371,2021-02-12 12:28:25.395,1.0,1.0,1
11381,11381,2021-02-12 12:28:55.395,1.0,1.0,1
11391,11391,2021-02-12 12:29:25.395,1.0,1.0,1
11401,11401,2021-02-12 12:29:55.395,1.0,1.0,1
11411,11411,2021-02-12 12:30:25.395,1.0,1.0,1
11421,11421,2021-02-12 12:30:55.395,1.0,1.0,1
11431,11431,2021-02-12 12:31:25.395,1.0,1.0,1
11441,11441,2021-02-12 12:31:55.395,1.0,1.0,1
11451,11451,2021-02-12 12:32:25.395,1.0,1.0,1
11461,11461,2021-02-12 12:32:55.395,1.0,1.0,1
11471,11471,2021-02-12 12:33:25.395,1.0,1.0,1
11481,11481,2021-02-12 12:33:55.395,1.0,1.0,1
11491,11491,2021-02-12 12:34:25.395,1.0,1.0,1
11501,11501,2021-02-12 12:34:55.395,1.0,1.0,1
11511,11511,2021-02-12 12:35:25.395,1.0,1.0,1
11521,11521,2021-02-12 12:35:55.395,1.0,1.0,1
11531,11531,2021-02-12 12:36:25.395,1.0,1.0,1
11541,11541,2021-02-12 12:36:55.395,1.0,1.0,1
11551,11551,2021-02-12 12:37:25.395,1.0,1.0,1
11561,11561,2021-02-12 12:37:55.395,1.0,1.0,1
11571,11571,2021-02-12 12:38:25.395,1.0,1.0,1
11581,11581,2021-02-12 12:38:55.395,1.0,1.0,1
11591,11591,2021-02-12 12:39:25.395,1.0,1.0,1
11601,11601,2021-02-12 12:39:55.395,1.0,1.0,1
11611,11611,2021-02-12 12:40:25.395,1.0,1.0,1
11621,11621,2021-02-12 12:40:55.395,1.0,1.0,1
11631,11631,2021-02-12 12:41:25.395,1.0,1.0,1
11641,11641,2021-02-12 12:41:55.395,1.0,1.0,1
11651,11651,2021-02-12 12:42:25.395,1.0,1.0,1
11661,11661,2021-02-12 12:42:55.395,1.0,1.0,1
11671,11671,2021-02-12 12:43:25.395,1.0,1.0,1
11681,11681,2021-02-12 12:43:55.395,1.0,1.0,1
11691,11691,2021-02-12 12:44:25.395,1.0,1.0,1
11701,11701,2021-02-12 12:44:55.395,1.0,1.0,1
11711,11711,2021-02-12 12:45:25.395,1.0,1.0,1
11721,11721,2021-02-12 12:45:55.395,1.0,1.0,1
11731,11731,2021-02-12 12:46:25.395,1.0,1.0,1
11741,11741,2021-02-12 12:46:55.395,1.0,1.0,1
11751,11751,2021-02-12 12:47:25.395,1.0,1.0,1
11761,11761,2021-02-12 12:47:55.395,1.0,1.0,1
11771,11771,2021-02-12 12:48:25.395,1.0,1.0,1
11781,11781,2021-02-12 12:48:55.395,1.0,1.0,1
11791,11791,2021-02-12 12:49:25.395,1.0,1.0,1
11801,11801,2021-02-12 12:49:55.395,1.0,1.0,1
11811,11811,2021-02-12 12:50:25.395,1.0,1.0,1
11821,11821,2021-02-12 12:50:55.395,1.0,1.0,1
11831,11831,2021-02-12 12:51:25.395,1.0,1.0,1
11841,11841,2021-02-12 12:51:55.395,1.0,1.0,1
11851,11851,2021-02-12 12:52:25.395,1.0,1.0,1
11861,11861,2021-02-12 12:52:55.395,1.0,1.0,1
11871,11871,2021-02-12 12:53:25.395,1.0,1.0,1
11881,11881,2021-02-12 12:53:55.395,1.0,1.0,1
11891,11891,2021-02-12 12:54:25.395,1.0,1.0,1
11901,11901,2021-02-12 12:54:55.395,1.0,1.0,1
11911,11911,2021-02-12 12:55:25.395,1.0,1.0,1
11921,11921,2021-02-12 12:55:55.395,1.0,1.0,1
11931,11931,2021-02-12 12:56:25.395,1.0,1.0,1
11941,11941,2021-02-12 12:56:55.395,1.0,1.0,1
11951,11951,2021-02-12 12:57:25.395,1.0,1.0,1
11961,11961,2021-02-12 12:57:55.395,1.0,1.0,1
11971,11971,2021-02-12 12:58:25.395,1.0,1.0,1
11981,11981,2021-02-12 12:58:55.395,1.0,1.0,1
11991,11991,2021-02-12 12:59:25.395,1.0,1.0,1
12001,12001,2021-02-12 12:59:55.395,1.0,1.0,1
12011,12011,2021-02-12 13:00:25.395,1.0,1.0,1
12021,12021,2021-02-12 13:00:55.395,1.0,1.0,1
12031,12031,2021-02-12 13:01:25.395,1.0,1.0,1
12041,12041,2021-02-12 13:01:55.395,1.0,1.0,1
12051,12051,2021-02-12 13:02:25.395,1.0,1.0,1
12061,12061,2021-02-12 13:02:55.395,1.0,1.0,1
12071,12071,2021-02-12 13:03:25.395,1.0,1.0,1
12081,12081,2021-02-12 13:03:55.395,1.0,1.0,1
12091,12091,2021-02-12 13:04:25.395,1.0,1.0,1
12101,12101,2021-02-12 13:04:55.395,1.0,1.0,1
12111,12111,2021-02-12 13:05:25.395,1.0,1.0,1
12121,12121,2021-02-12 13:05:55.395,1.0,1.0,1
12131,12131,2021-02-12 13:06:25.395,1.0,1.0,1
12141,12141,2021-02-12 13:06:55.395,1.0,1.0,1
12151,12151,2021-02-12 13:07:25.395,1.0,1.0,1
12161,12161,2021-02-12 13:07:55.395,1.0,1.0,1
12171,12171,2021-02-12 13:08:25.395,1.0,1.0,1
12181,12181,2021-02-12 13:08:55.395,1.0,1.0,1
12191,12191,2021-02-12 13:09:25.395,1.0,1.0,1
12201,12201,2021-02-12 13:09:55.395,1.0,1.0,1
12211,12211,2021-02-12 13:10:25.395,1.0,1.0,1
12221,12221,2021-02-12 13:10:55.395,1.0,1.0,1
12231,12231,2021-02-12 13:11:25.395,1.0,1.0,1
12241,12241,2021-02-12 13:11:55.395,1.0,1.0,1
12251,12251,2021-02-12 13:12:25.395,1.0,1.0,1
12261,12261,2021-02-12 13:12:55.395,1.0,1.0,1
12271,12271,2021-02-12 13:13:25.395,1.0,1.0,1
12281,12281,2021-02-12 13:13:55.395,1.0,1.0,1
12291,12291,2021-02-12 13:14:25.395,1.0,1.0,1
12301,12301,2021-02-12 13:14:55.395,1.0,1.0,1
12311,12311,2021-02-12 13:15:25.395,1.0,1.0,1
12321,12321,2021-02-12 13:15:55.395,1.0,1.0,1
12331,12331,2021-02-12 13:16:25.395,1.0,1.0,1
12341,12341,2021-02-12 13:16:55.395,1.0,1.0,1
12351,12351,2021-02-12 13:17:25.395,1.0,1.0,1
12361,12361,2021-02-12 13:17:55.395,1.0,1.0,1
12371,12371,2021-02-12 13:18:25.395,1.0,1.0,1
12381,12381,2021-02-12 13:18:55.395,1.0,1.0,1
12391,12391,2021-02-12 13:19:25.395,1.0,1.0,1
12401,12401,2021-02-12 13:19:55.395,1.0,1.0,1
12411,12411,2021-02-12 13:20:25.395,1.0,1.0,1
12421,12421,2021-02-12 13:20:55.395,1.0,1.0,1
12431,12431,2021-02-12 13:21:25.395,1.0,1.0,1
12441,12441,2021-02-12 13:21:55.395,1.0,1.0,1
12451,12451,2021-02-12 13:22:25.395,1.0,1.0,1
12461,12461,2021-02-12 13:22:55.395,1.0,1.0,1
12471,12471,2021-02-12 13:23:25.395,1.0,1.0,1
12481,12481,2021-02-12 13:23:55.395,1.0,1.0,1
12491,12491,2021-02-12 13:24:25.395,1.0,1.0,1
12501,12501,2021-02-12 13:24:55.395,1.0,1.0,1
12511,12511,2021-02-12 13:25:25.395,1.0,1.0,1
12521,12521,2021-02-12 13:25:55.395,1.0,1.0,1
12531,12531,2021-02-12 13:26:25.395,1.0,1.0,1
12541,12541,2021-02-12 13:26:55.395,1.0,1.0,1
12551,12551,2021-02-12 13:27:25.395,1.0,1.0,1
12561,12561,2021-02-12 13:27:55.395,1.0,1.0,1
12571,12571,2021-02-12 13:28:25.395,1.0,1.0,1
12581,12581,2021-02-12 13:28:55.395,1.0,1.0,1
12591,12591,2021-02-12 13:29:25.395,1.0,1.0,1
12601,12601,2021-02-12 13:29:55.395,1.0,1.0,1
12611,12611,2021-02-12 13:30:25.395,1.0,1.0,1
12621,12621,2021-02-12 13:30:55.395,1.0,1.0,1
12631,12631,2021-02-12 13:31:25.395,1.0,1.0,1
12641,12641,2021-02-12 13:31:55.395,1.0,1.0,1
12651,12651,2021-02-12 13:32:25.395,1.0,1.0,1
12661,12661,2021-02-12 13:32:55.395,1.0,1.0,1
12671,12671,2021-02-12 13:33:25.395,1.0,1.0,1
12681,12681,2021-02-12 13:33:55.395,1.0,1.0,1
12691,12691,2021-02-12 13:34:25.395,1.0,1.0,1
12701,12701,2021-02-12 13:34:55.395,1.0,1.0,1
12711,12711,2021-02-12 13:35:25.395,1.0,1.0,1
12721,12721,2021-02-12 13:35:55.395,1.0,1.0,1
12731,12731,2021-02-12 13:36:25.395,1.0,1.0,1
12741,12741,2021-02-12 13:36:55.395,1.0,1.0,1
12751,12751,2021-02-12 13:37:25.395,1.0,1.0,1
12761,12761,2021-02-12 13:37:55.395,1.0,1.0,1
12771,12771,2021-02-12 13:38:25.395,1.0,1.0,1
12781,12781,2021-02-12 13:38:55.395,1.0,1.0,1
12791,12791,2021-02-12 13:39:25.395,1.0,1.0,1
12801,12801,2021-02-12 13:39:55.395,1.0,1.0,1
12811,12811,2021-02-12 13:40:25.395,1.0,1.0,1
12821,12821,2021-02-12 13:40:55.395,1.0,1.0,1
12831,12831,2021-02-12 13:41:25.395,1.0,1.0,1
12841,12841,2021-02-12 13:41:55.395,1.0,1.0,1
12851,12851,2021-02-12 13:42:25.395,1.0,1.0,1
12861,12861,2021-02-12 13:42:55.395,1.0,1.0,1
12871,12871,2021-02-12 13:43:25.395,1.0,1.0,1
12881,12881,2021-02-12 13:43:55.395,1.0,1.0,1
12891,12891,2021-02-12 13:44:25.395,1.0,1.0,1
12901,12901,2021-02-12 13:44:55.395,1.0,1.0,1
12911,12911,2021-02-12 13:45:25.395,1.0,1.0,1
12921,12921,2021-02-12 13:45:55.395,1.0,1.0,1
12931,12931,2021-02-12 13:46:25.395,1.0,1.0,1
12941,12941,2021-02-12 13:46:55.395,1.0,1.0,1
12951,12951,2021-02-12 13:47:25.395,1.0,1.0,1
12961,12961,2021-02-12 13:47:55.395,1.0,1.0,1
12971,12971,2021-02-12 13:48:25.395,1.0,1.0,1
12981,12981,2021-02-12 13:48:55.395,1.0,1.0,1
12991,12991,2021-02-12 13:49:25.395,1.0,1.0,1
13001,13001,2021-02-12 13:49:55.395,1.0,1.0,1
13011,13011,2021-02-12 13:50:25.395,1.0,1.0,1
13021,13021,2021-02-12 13:50:55.395,1.0,1.0,1
13031,13031,2021-02-12 13:51:25.395,1.0,1.0,1
13041,13041,2021-02-12 13:51:55.395,1.0,1.0,1
13051,13051,2021-02-12 13:52:25.395,1.0,1.0,1
13061,13061,2021-02-12 13:52:55.395,1.0,1.0,1
13071,13071,2021-02-12 13:53:25.395,1.0,1.0,1
13081,13081,2021-02-12 13:53:55.395,1.0,1.0,1
13091,13091,2021-02-12 13:54:25.395,1.0,1.0,1
13101,13101,2021-02-12 13:54:55.395,1.0,1.0,1
13111,13111,2021-02-12 13:55:25.395,1.0,1.0,1
13121,13121,2021-02-12 13:55:55.395,1.0,1.0,1
13131,13131,2021-02-12 13:56:25.395,1.0,1.0,1
13141,13141,2021-02-12 13:56:55.395,1.0,1.0,1
13151,13151,2021-02-12 13:57:25.395,1.0,1.0,1
13161,13161,2021-02-12 13:57:55.395,1.0,1.0,1
13171,13171,2021-02-12 13:58:25.395,1.0,1.0,1
13181,13181,2021-02-12 13:58:55.395,1.0,1.0,1
13191,13191,2021-02-12 13:59:25.395,1.0,1.0,1
13201,13201,2021-02-12 13:59:55.395,1.0,1.0,1
13211,13211,2021-02-12 14:00:25.395,1.0,1.0,1
13221,13221,2021-02-12 14:00:55.395,1.0,1.0,1
13231,13231,2021-02-12 14:01:25.395,1.0,1.0,1
13241,13241,2021-02-12 14:01:55.395,1.0,1.0,1
13251,13251,2021-02-12 14:02:25.395,1.0,1.0,1
13261,13261,2021-02-12 14:02:55.395,1.0,1.0,1
13271,13271,2021-02-12 14:03:25.395,1.0,1.0,1
13281,13281,2021-02-12 14:03:55.395,1.0,1.0,1
13291,13291,2021-02-12 14:04:25.395,1.0,1.0,1
13301,13301,2021-02-12 14:04:55.395,1.0,1.0,1
13311,13311,2021-02-12 14:05:25.395,1.0,1.0,1
13321,13321,2021-02-12 14:05:55.395,1.0,1.0,1
13331,13331,2021-02-12 14:06:25.395,1.0,1.0,1
13341,13341,2021-02-12 14:06:55.395,1.0,1.0,1
13351,13351,2021-02-12 14:07:25.395,1.0,1.0,1
13361,13361,2021-02-12 14:07:55.395,1.0,1.0,1
13371,13371,2021-02-12 14:08:25.395,1.0,1.0,1
13381,13381,2021-02-12 14:08:55.395,1.0,1.0,1
13391,13391,2021-02-12 14:09:25.395,1.0,1.0,1
13401,13401,2021-02-12 14:09:55.395,1.0,1.0,1
13411,13411,2021-02-12 14:10:25.395,1.0,1.0,1
13421,13421,2021-02-12 14:10:55.395,1.0,1.0,1
13431,13431,2021-02-12 14:11:25.395,1.0,1.0,1
13441,13441,2021-02-12 14:11:55.395,1.0,1.0,1
13451,13451,2021-02-12 14:12:25.395,1.0,1.0,1
13461,13461,2021-02-12 14:12:55.395,1.0,1.0,1
13471,13471,2021-02-12 14:13:25.395,1.0,1.0,1
13481,13481,2021-02-12 14:13:55.395,1.0,1.0,1
13491,13491,2021-02-12 14:14:25.395,1.0,1.0,1
13501,13501,2021-02-12 14:14:55.395,1.0,1.0,1
13511,13511,2021-02-12 14:15:25.395,1.0,1.0,1
13521,13521,2021-02-12 14:15:55.395,1.0,1.0,1
13531,13531,2021-02-12 14:16:25.395,1.0,1.0,1
13541,13541,2021-02-12 14:16:55.395,1.0,1.0,1
13551,13551,2021-02-12 14:17:25.395,1.0,1.0,1
13561,13561,2021-02-12 14:17:55.395,1.0,1.0,1
13571,13571,2021-02-12 14:18:25.395,1.0,1.0,1
13581,13581,2021-02-12 14:18:55.395,1.0,1.0,1
13591,13591,2021-02-12 14:19:25.395,1.0,1.0,1
13601,13601,2021-02-12 14:19:55.395,1.0,1.0,1
13611,13611,2021-02-12 14:20:25.395,1.0,1.0,1
13621,13621,2021-02-12 14:20:55.395,1.0,1.0,1
13631,13631,2021-02-12 14:21:25.395,1.0,1.0,1
13641,13641,2021-02-12 14:21:55.395,1.0,1.0,1
13651,13651,2021-02-12 14:22:25.395,1.0,1.0,1
13661,13661,2021-02-12 14:22:55.395,1.0,1.0,1
13671,13671,2021-02-12 14:23:25.395,1.0,1.0,1
13681,13681,2021-02-12 14:23:55.395,1.0,1.0,1
13691,13691,2021-02-12 14:24:25.395,1.0,1.0,1
13701,13701,2021-02-12 14:24:55.395,1.0,1.0,1
13711,13711,2021-02-12 14:25:25.395,1.0,1.0,1
13721,13721,2021-02-12 14:25:55.395,1.0,1.0,1
13731,13731,2021-02-12 14:26:25.395,1.0,1.0,1
13741,13741,2021-02-12 14:26:55.395,1.0,1.0,1
13751,13751,2021-02-12 14:27:25.395,1.0,1.0,1
13761,13761,2021-02-12 14:27:55.395,1.0,1.0,1
13771,13771,2021-02-12 14:28:25.395,1.0,1.0,1
13781,13781,2021-02-12 14:28:55.395,1.0,1.0,1
13791,13791,2021-02-12 14:29:25.395,1.0,1.0,1
13801,13801,2021-02-12 14:29:55.395,1.0,1.0,1
13811,13811,2021-02-12 14:30:25.395,1.0,1.0,1
13821,13821,2021-02-12 14:30:55.395,1.0,1.0,1
13831,13831,2021-02-12 14:31:25.395,1.0,1.0,1
13841,13841,2021-02-12 14:31:55.395,1.0,1.0,1
13851,13851,2021-02-12 14:32:25.395,1.0,1.0,1
13861,13861,2021-02-12 14:32:55.395,1.0,1.0,1
13871,13871,2021-02-12 14:33:25.395,1.0,1.0,1
13881,13881,2021-02-12 14:33:55.395,1.0,1.0,1
13891,13891,2021-02-12 14:34:25.395,1.0,1.0,1
13901,13901,2021-02-12 14:34:55.395,1.0,1.0,1
13911,13911,2021-02-12 14:35:25.395,1.0,1.0,1
13921,13921,2021-02-12 14:35:55.395,1.0,1.0,1
13931,13931,2021-02-12 14:36:25.395,1.0,1.0,1
13941,13941,2021-02-12 14:36:55.395,1.0,1.0,1
13951,13951,2021-02-12 14:37:25.395,1.0,1.0,1
13961,13961,2021-02-12 14:37:55.395,1.0,1.0,1
13971,13971,2021-02-12 14:38:25.395,1.0,1.0,1
13981,13981,2021-02-12 14:38:55.395,1.0,1.0,1
13991,13991,2021-02-12 14:39:25.395,1.0,1.0,1
14001,14001,2021-02-12 14:39:55.395,1.0,1.0,1
14011,14011,2021-02-12 14:40:25.395,1.0,1.0,1
14021,14021,2021-02-12 14:40:55.395,1.0,1.0,1
14031,14031,2021-02-12 14:41:25.395,1.0,1.0,1
14041,14041,2021-02-12 14:41:55.395,1.0,1.0,1
14051,14051,2021-02-12 14:42:25.395,1.0,1.0,1
14061,14061,2021-02-12 14:42:55.395,1.0,1.0,1
14071,14071,2021-02-12 14:43:25.395,1.0,1.0,1
14081,14081,2021-02-12 14:43:55.395,1.0,1.0,1
14091,14091,2021-02-12 14:44:25.395,1.0,1.0,1
14101,14101,2021-02-12 14:44:55.395,1.0,1.0,1
14111,14111,2021-02-12 14:45:25.395,1.0,1.0,1
14121,14121,2021-02-12 14:45:55.395,1.0,1.0,1
14131,14131,2021-02-12 14:46:25.395,1.0,1.0,1
14141,14141,2021-02-12 14:46:55.395,1.0,1.0,1
14151,14151,2021-02-12 14:47:25.395,1.0,1.0,1
14161,14161,2021-02-12 14:47:55.395,1.0,1.0,1
14171,14171,2021-02-12 14:48:25.395,1.0,1.0,1
14181,14181,2021-02-12 14:48:55.395,1.0,1.0,1
14191,14191,2021-02-12 14:49:25.395,1.0,1.0,1
14201,14201,2021-02-12 14:49:55.395,1.0,1.0,1
14211,14211,2021-02-12 14:50:25.395,1.0,1.0,1
14221,14221,2021-02-12 14:50:55.395,1.0,1.0,1
14231,14231,2021-02-12 14:51:25.395,1.0,1.0,1
14241,14241,2021-02-12 14:51:55.395,1.0,1.0,1
14251,14251,2021-02-12 14:52:25.395,1.0,1.0,1
14261,14261,2021-02-12 14:52:55.395,1.0,1.0,1
14271,14271,2021-02-12 14:53:25.395,1.0,1.0,1
14281,14281,2021-02-12 14:53:55.395,1.0,1.0,1
14291,14291,2021-02-12 14:54:25.395,1.0,1.0,1
14301,14301,2021-02-12 14:54:55.395,1.0,1.0,1
14311,14311,2021-02-12 14:55:25.395,1.0,1.0,1
14321,14321,2021-02-12 14:55:55.395,1.0,1.0,1
14331,14331,2021-02-12 14:56:25.395,1.0,1.0,1
14341,14341,2021-02-12 14:56:55.395,1.0,1.0,1
14351,14351,2021-02-12 14:57:25.395,1.0,1.0,1
14361,14361,2021-02-12 14:57:55.395,1.0,1.0,1
14371,14371,2021-02-12 14:58:25.395,1.0,1.0,1
14381,14381,2021-02-12 14:58:55.395,1.0,1.0,1
14391,14391,2021-02-12 14:59:25.395,1.0,1.0,1
14401,14401,2021-02-12 14:59:55.395,1.0,1.0,1
14411,14411,2021-02-12 15:00:25.395,1.0,1.0,1
14421,14421,2021-02-12 15:00:55.395,1.0,1.0,1
14431,14431,2021-02-12 15:01:25.395,1.0,1.0,1
14441,14441,2021-02-12 15:01:55.395,1.0,1.0,1
14451,14451,2021-02-12 15:02:25.395,1.0,1.0,1
14461,14461,2021-02-12 15:02:55.395,1.0,1.0,1
14471,14471,2021-02-12 15:03:25.395,1.0,1.0,1
14481,14481,2021-02-12 15:03:55.395,1.0,1.0,1
14491,14491,2021-02-12 15:04:25.395,1.0,1.0,1
14501,14501,2021-02-12 15:04:55.395,1.0,1.0,1
14511,14511,2021-02-12 15:05:25.395,1.0,1.0,1
14521,14521,2021-02-12 15:05:55.395,1.0,1.0,1
14531,14531,2021-02-12 15:06:25.395,1.0,1.0,1
14541,14541,2021-02-12 15:06:55.395,1.0,1.0,1
14551,14551,2021-02-12 15:07:25.395,1.0,1.0,1
14561,14561,2021-02-12 15:07:55.395,1.0,1.0,1
14571,14571,2021-02-12 15:08:25.395,1.0,1.0,1
14581,14581,2021-02-12 15:08:55.395,1.0,1.0,1
14591,14591,2021-02-12 15:09:25.395,1.0,1.0,1
14601,14601,2021-02-12 15:09:55.395,1.0,1.0,1
14611,14611,2021-02-12 15:10:25.395,1.0,1.0,1
14621,14621,2021-02-12 15:10:55.395,1.0,1.0,1
14631,14631,2021-02-12 15:11:25.395,1.0,1.0,1
14641,14641,2021-02-12 15:11:55.395,1.0,1.0,1
14651,14651,2021-02-12 15:12:25.395,1.0,1.0,1
14661,14661,2021-02-12 15:12:55.395,1.0,1.0,1
14671,14671,2021-02-12 15:13:25.395,1.0,1.0,1
14681,14681,2021-02-12 15:13:55.395,1.0,1.0,1
14691,14691,2021-02-12 15:14:25.395,1.0,1.0,1
14701,14701,2021-02-12 15:14:55.395,1.0,1.0,1
14711,14711,2021-02-12 15:15:25.395,1.0,1.0,1
14721,14721,2021-02-12 15:15:55.395,1.0,1.0,1
14731,14731,2021-02-12 15:16:25.395,1.0,1.0,1
14741,14741,2021-02-12 15:16:55.395,1.0,1.0,1
14751,14751,2021-02-12 15:17:25.395,1.0,1.0,1
14761,14761,2021-02-12 15:17:55.395,1.0,1.0,1
14771,14771,2021-02-12 15:18:25.395,1.0,1.0,1
14781,14781,2021-02-12 15:18:55.395,1.0,1.0,1
14791,14791,2021-02-12 15:19:25.395,1.0,1.0,1
14801,14801,2021-02-12 15:19:55.395,1.0,1.0,1
14811,14811,2021-02-12 15:20:25.395,1.0,1.0,1
14821,14821,2021-02-12 15:20:55.395,1.0,1.0,1
14831,14831,2021-02-12 15:21:25.395,1.0,1.0,1
14841,14841,2021-02-12 15:21:55.395,1.0,1.0,1
14851,14851,2021-02-12 15:22:25.395,1.0,1.0,1
14861,14861,2021-02-12 15:22:55.395,1.0,1.0,1
14871,14871,2021-02-12 15:23:25.395,1.0,1.0,1
14881,14881,2021-02-12 15:23:55.395,1.0,1.0,1
14891,14891,2021-02-12 15:24:25.395,1.0,1.0,1
14901,14901,2021-02-12 15:24:55.395,1.0,1.0,1
14911,14911,2021-02-12 15:25:25.395,1.0,1.0,1
14921,14921,2021-02-12 15:25:55.395,1.0,1.0,1
14931,14931,2021-02-12 15:26:25.395,1.0,1.0,1
14941,14941,2021-02-12 15:26:55.395,1.0,1.0,1
14951,14951,2021-02-12 15:27:25.395,1.0,1.0,1
14961,14961,2021-02-12 15:27:55.395,1.0,1.0,1
14971,14971,2021-02-12 15:28:25.395,1.0,1.0,1
14981,14981,2021-02-12 15:28:55.395,1.0,1.0,1
14991,14991,2021-02-12 15:29:25.395,1.0,1.0,1
15001,15001,2021-02-12 15:29:55.395,1.0,1.0,1
15011,15011,2021-02-12 15:30:25.395,1.0,1.0,1
15021,15021,2021-02-12 15:30:55.395,1.0,1.0,1
15031,15031,2021-02-12 15:31:25.395,1.0,1.0,1
15041,15041,2021-02-12 15:31:55.395,1.0,1.0,1
15051,15051,2021-02-12 15:32:25.395,1.0,1.0,1
15061,15061,2021-02-12 15:32:55.395,1.0,1.0,1
15071,15071,2021-02-12 15:33:25.395,1.0,1.0,1
15081,15081,2021-02-12 15:33:55.395,1.0,1.0,1
15091,15091,2021-02-12 15:34:25.395,1.0,1.0,1
15101,15101,2021-02-12 15:34:55.395,1.0,1.0,1
15111,15111,2021-02-12 15:35:25.395,1.0,1.0,1
15121,15121,2021-02-12 15:35:55.395,1.0,1.0,1
15131,15131,2021-02-12 15:36:25.395,1.0,1.0,1
15141,15141,2021-02-12 15:36:55.395,1.0,1.0,1
15151,15151,2021-02-12 15:37:25.395,1.0,1.0,1
15161,15161,2021-02-12 15:37:55.395,1.0,1.0,1
15171,15171,2021-02-12 15:38:25.395,1.0,1.0,1
15181,15181,2021-02-12 15:38:55.395,1.0,1.0,1
15191,15191,2021-02-12 15:39:25.395,1.0,1.0,1
15201,15201,2021-02-12 15:39:55.395,1.0,1.0,1
15211,15211,2021-02-12 15:40:25.395,1.0,1.0,1
15221,15221,2021-02-12 15:40:55.395,1.0,1.0,1
15231,15231,2021-02-12 15:41:25.395,1.0,1.0,1
15241,15241,2021-02-12 15:41:55.395,1.0,1.0,1
15251,15251,2021-02-12 15:42:25.395,1.0,1.0,1
15261,15261,2021-02-12 15:42:55.395,1.0,1.0,1
15271,15271,2021-02-12 15:43:25.395,1.0,1.0,1
15281,15281,2021-02-12 15:43:55.395,1.0,1.0,1
15291,15291,2021-02-12 15:44:25.395,1.0,1.0,1
15301,15301,2021-02-12 15:44:55.395,1.0,1.0,1
15311,15311,2021-02-12 15:45:25.395,1.0,1.0,1
15321,15321,2021-02-12 15:45:55.395,1.0,1.0,1
15331,15331,2021-02-12 15:46:25.395,1.0,1.0,1
15341,15341,2021-02-12 15:46:55.395,1.0,1.0,1
15351,15351,2021-02-12 15:47:25.395,1.0,1.0,1
15361,15361,2021-02-12 15:47:55.395,1.0,1.0,1
15371,15371,2021-02-12 15:48:25.395,1.0,1.0,1
15381,15381,2021-02-12 15:48:55.395,1.0,1.0,1
15391,15391,2021-02-12 15:49:25.395,1.0,1.0,1
15401,15401,2021-02-12 15:49:55.395,1.0,1.0,1
15411,15411,2021-02-12 15:50:25.395,1.0,1.0,1
15421,15421,2021-02-12 15:50:55.395,1.0,1.0,1
15431,15431,2021-02-12 15:51:25.395,1.0,1.0,1
15441,15441,2021-02-12 15:51:55.395,1.0,1.0,1
15451,15451,2021-02-12 15:52:25.395,1.0,1.0,1
15461,15461,2021-02-12 15:52:55.395,1.0,1.0,1
15471,15471,2021-02-12 15:53:25.395,1.0,1.0,1
15481,15481,2021-02-12 15:53:55.395,1.0,1.0,1
15491,15491,2021-02-12 15:54:25.395,1.0,1.0,1
15501,15501,2021-02-12 15:54:55.395,1.0,1.0,1
15511,15511,2021-02-12 15:55:25.395,1.0,1.0,1
15521,15521,2021-02-12 15:55:55.395,1.0,1.0,1
15531,15531,2021-02-12 15:56:25.395,1.0,1.0,1
15541,15541,2021-02-12 15:56:55.395,1.0,1.0,1
15551,15551,2021-02-12 15:57:25.395,1.0,1.0,1
15561,15561,2021-02-12 15:57:55.395,1.0,1.0,1
15571,15571,2021-02-12 15:58:25.395,1.0,1.0,1
15581,15581,2021-02-12 15:58:55.395,1.0,1.0,1
15591,15591,2021-02-12 15:59:25.395,1.0,1.0,1
15601,15601,2021-02-12 15:59:55.395,1.0,1.0,1
15611,15611,2021-02-12 16:00:25.395,1.0,1.0,1
15621,15621,2021-02-12 16:00:55.395,1.0,1.0,1
15631,15631,2021-02-12 16:01:25.395,1.0,1.0,1
15641,15641,2021-02-12 16:01:55.395,1.0,1.0,1
15651,15651,2021-02-12 16:02:25.395,1.0,1.0,1
15661,15661,2021-02-12 16:02:55.395,1.0,1.0,1
15671,15671,2021-02-12 16:03:25.395,1.0,1.0,1
15681,15681,2021-02-12 16:03:55.395,1.0,1.0,1
15691,15691,2021-02-12 16:04:25.395,1.0,1.0,1
15701,15701,2021-02-12 16:04:55.395,1.0,1.0,1
15711,15711,2021-02-12 16:05:25.395,1.0,1.0,1
15721,15721,2021-02-12 16:05:55.395,1.0,1.0,1
15731,15731,2021-02-12 16:06:25.395,1.0,1.0,1
15741,15741,2021-02-12 16:06:55.395,1.0,1.0,1
15751,15751,2021-02-12 16:07:25.395,1.0,1.0,1
15761,15761,2021-02-12 16:07:55.395,1.0,1.0,1
15771,15771,2021-02-12 16:08:25.395,1.0,1.0,1
15781,15781,2021-02-12 16:08:55.395,1.0,1.0,1
15791,15791,2021-02-12 16:09:25.395,1.0,1.0,1
15801,15801,2021-02-12 16:09:55.395,1.0,1.0,1
15811,15811,2021-02-12 16:10:25.395,1.0,1.0,1
15821,15821,2021-02-12 16:10:55.395,1.0,1.0,1
15831,15831,2021-02-12 16:11:25.395,1.0,1.0,1
15841,15841,2021-02-12 16:11:55.395,1.0,1.0,1
15851,15851,2021-02-12 16:12:25.395,1.0,1.0,1
15861,15861,2021-02-12 16:12:55.395,1.0,1.0,1
15871,15871,2021-02-12 16:13:25.395,1.0,1.0,1
15881,15881,2021-02-12 16:13:55.395,1.0,1.0,1
15891,15891,2021-02-12 16:14:25.395,1.0,1.0,1
15901,15901,2021-02-12 16:14:55.395,1.0,1.0,1
15911,15911,2021-02-12 16:15:25.395,1.0,1.0,1
15921,15921,2021-02-12 16:15:55.395,1.0,1.0,1
15931,15931,2021-02-12 16:16:25.395,1.0,1.0,1
15941,15941,2021-02-12 16:16:55.395,1.0,1.0,1
15951,15951,2021-02-12 16:17:25.395,1.0,1.0,1
15961,15961,2021-02-12 16:17:55.395,1.0,1.0,1
15971,15971,2021-02-12 16:18:25.395,1.0,1.0,1
15981,15981,2021-02-12 16:18:55.395,1.0,1.0,1
15991,15991,2021-02-12 16:19:25.395,1.0,1.0,1
16001,16001,2021-02-12 16:19:55.395,1.0,1.0,1
16011,16011,2021-02-12 16:20:25.395,1.0,1.0,1
16021,16021,2021-02-12 16:20:55.395,1.0,1.0,1
16031,16031,2021-02-12 16:21:25.395,1.0,1.0,1
16041,16041,2021-02-12 16:21:55.395,1.0,1.0,1
16051,16051,2021-02-12 16:22:25.395,1.0,1.0,1
16061,16061,2021-02-12 16:22:55.395,1.0,1.0,1
16071,16071,2021-02-12 16:23:25.395,1.0,1.0,1
16081,16081,2021-02-12 16:23:55.395,1.0,1.0,1
16091,16091,2021-02-12 16:24:25.395,1.0,1.0,1
16101,16101,2021-02-12 16:24:55.395,1.0,1.0,1
16111,16111,2021-02-12 16:25:25.395,1.0,1.0,1
16121,16121,2021-02-12 16:25:55.395,1.0,1.0,1
16131,16131,2021-02-12 16:26:25.395,1.0,1.0,1
16141,16141,2021-02-12 16:26:55.395,1.0,1.0,1
16151,16151,2021-02-12 16:27:25.395,1.0,1.0,1
16161,16161,2021-02-12 16:27:55.395,1.0,1.0,1
16171,16171,2021-02-12 16:28:25.395,1.0,1.0,1
16181,16181,2021-02-12 16:28:55.395,1.0,1.0,1
16191,16191,2021-02-12 16:29:25.395,1.0,1.0,1
16201,16201,2021-02-12 16:29:55.395,1.0,1.0,1
16211,16211,2021-02-12 16:30:25.395,1.0,1.0,1
16221,16221,2021-02-12 16:30:55.395,1.0,1.0,1
16231,16231,2021-02-12 16:31:25.395,1.0,1.0,1
16241,16241,2021-02-12 16:31:55.395,1.0,1.0,1
16251,16251,2021-02-12 16:32:25.395,1.0,1.0,1
16261,16261,2021-02-12 16:32:55.395,1.0,1.0,1
16271,16271,2021-02-12 16:33:25.395,1.0,1.0,1
16281,16281,2021-02-12 16:33:55.395,1.0,1.0,1
16291,16291,2021-02-12 16:34:25.395,1.0,1.0,1
16301,16301,2021-02-12 16:34:55.395,1.0,1.0,1
16311,16311,2021-02-12 16:35:25.395,1.0,1.0,1
16321,16321,2021-02-12 16:35:55.395,1.0,1.0,1
16331,16331,2021-02-12 16:36:25.395,1.0,1.0,1
16341,16341,2021-02-12 16:36:55.395,1.0,1.0,1
16351,16351,2021-02-12 16:37:25.395,1.0,1.0,1
16361,16361,2021-02-12 16:37:55.395,1.0,1.0,1
16371,16371,2021-02-12 16:38:25.395,1.0,1.0,1
16381,16381,2021-02-12 16:38:55.395,1.0,1.0,1
16391,16391,2021-02-12 16:39:25.395,1.0,1.0,1
16401,16401,2021-02-12 16:39:55.395,1.0,1.0,1
16411,16411,2021-02-12 16:40:25.395,1.0,1.0,1
16421,16421,2021-02-12 16:40:55.395,1.0,1.0,1
16431,16431,2021-02-12 16:41:25.395,1.0,1.0,1
16441,16441,2021-02-12 16:41:55.395,1.0,1.0,1
16451,16451,2021-02-12 16:42:25.395,1.0,1.0,1
16461,16461,2021-02-12 16:42:55.395,1.0,1.0,1
16471,16471,2021-02-12 16:43:25.395,1.0,1.0,1
16481,16481,2021-02-12 16:43:55.395,1.0,1.0,1
16491,16491,2021-02-12 16:44:25.395,1.0,1.0,1
16501,16501,2021-02-12 16:44:55.395,1.0,1.0,1
16511,16511,2021-02-12 16:45:25.395,1.0,1.0,1
16521,16521,2021-02-12 16:45:55.395,1.0,1.0,1
16531,16531,2021-02-12 16:46:25.395,1.0,1.0,1
16541,16541,2021-02-12 16:46:55.395,1.0,1.0,1
16551,16551,2021-02-12 16:47:25.395,1.0,1.0,1
16561,16561,2021-02-12 16:47:55.395,1.0,1.0,1
16571,16571,2021-02-12 16:48:25.395,1.0,1.0,1
16581,16581,2021-02-12 16:48:55.395,1.0,1.0,1
16591,16591,2021-02-12 16:49:25.395,1.0,1.0,1
16601,16601,2021-02-12 16:49:55.395,1.0,1.0,1
16611,16611,2021-02-12 16:50:25.395,1.0,1.0,1
16621,16621,2021-02-12 16:50:55.395,1.0,1.0,1
16631,16631,2021-02-12 16:51:25.395,1.0,1.0,1
16641,16641,2021-02-12 16:51:55.395,1.0,1.0,1
16651,16651,2021-02-12 16:52:25.395,1.0,1.0,1
16661,16661,2021-02-12 16:52:55.395,1.0,1.0,1
16671,16671,2021-02-12 16:53:25.395,1.0,1.0,1
16681,16681,2021-02-12 16:53:55.395,1.0,1.0,1
16691,16691,2021-02-12 16:54:25.395,1.0,1.0,1
16701,16701,2021-02-12 16:54:55.395,1.0,1.0,1
16711,16711,2021-02-12 16:55:25.395,1.0,1.0,1
16721,16721,2021-02-12 16:55:55.395,1.0,1.0,1
16731,16731,2021-02-12 16:56:25.395,1.0,1.0,1
16741,16741,2021-02-12 16:56:55.395,1.0,1.0,1
16751,16751,2021-02-12 16:57:25.395,1.0,1.0,1
16761,16761,2021-02-12 16:57:55.395,1.0,1.0,1
16771,16771,2021-02-12 16:58:25.395,1.0,1.0,1
16781,16781,2021-02-12 16:58:55.395,1.0,1.0,1
16791,16791,2021-02-12 16:59:25.395,1.0,1.0,1
16801,16801,2021-02-12 16:59:55.395,1.0,1.0,1
16811,16811,2021-02-12 17:00:25.395,1.0,1.0,1
16821,16821,2021-02-12 17:00:55.395,1.0,1.0,1
16831,16831,2021-02-12 17:01:25.395,1.0,1.0,1
16841,16841,2021-02-12 17:01:55.395,1.0,1.0,1
16851,16851,2021-02-12 17:02:25.395,1.0,1.0,1
16861,16861,2021-02-12 17:02:55.395,1.0,1.0,1
16871,16871,2021-02-12 17:03:25.395,1.0,1.0,1
16881,16881,2021-02-12 17:03:55.395,1.0,1.0,1
16891,16891,2021-02-12 17:04:25.395,1.0,1.0,1
16901,16901,2021-02-12 17:04:55.395,1.0,1.0,1
16911,16911,2021-02-12 17:05:25.395,1.0,1.0,1
16921,16921,2021-02-12 17:05:55.395,1.0,1.0,1
16931,16931,2021-02-12 17:06:25.395,1.0,1.0,1
16941,16941,2021-02-12 17:06:55.395,1.0,1.0,1
16951,16951,2021-02-12 17:07:25.395,1.0,1.0,1
16961,16961,2021-02-12 17:07:55.395,1.0,1.0,1
16971,16971,2021-02-12 17:08:25.395,1.0,1.0,1
16981,16981,2021-02-12 17:08:55.395,1.0,1.0,1
16991,16991,2021-02-12 17:09:25.395,1.0,1.0,1
17001,17001,2021-02-12 17:09:55.395,1.0,1.0,1
17011,17011,2021-02-12 17:10:25.395,1.0,1.0,1
17021,17021,2021-02-12 17:10:55.395,1.0,1.0,1
17031,17031,2021-02-12 17:11:25.395,1.0,1.0,1
17041,17041,2021-02-12 17:11:55.395,1.0,1.0,1
17051,17051,2021-02-12 17:12:25.395,1.0,1.0,1
17061,17061,2021-02-12 17:12:55.395,1.0,1.0,1
17071,17071,2021-02-12 17:13:25.395,1.0,1.0,1
17081,17081,2021-02-12 17:13:55.395,1.0,1.0,1
17091,17091,2021-02-12 17:14:25.395,1.0,1.0,1
17101,17101,2021-02-12 17:14:55.395,1.0,1.0,1
17111,17111,2021-02-12 17:15:25.395,1.0,1.0,1
17121,17121,2021-02-12 17:15:55.395,1.0,1.0,1
17131,17131,2021-02-12 17:16:25.395,1.0,1.0,1
17141,17141,2021-02-12 17:16:55.395,1.0,1.0,1
17151,17151,2021-02-12 17:17:25.395,1.0,1.0,1
17161,17161,2021-02-12 17:17:55.395,1.0,1.0,1
17171,17171,2021-02-12 17:18:25.395,1.0,1.0,1
17181,17181,2021-02-12 17:18:55.395,1.0,1.0,1
17191,17191,2021-02-12 17:19:25.395,1.0,1.0,1
17201,17201,2021-02-12 17:19:55.395,1.0,1.0,1
17211,17211,2021-02-12 17:20:25.395,1.0,1.0,1
17221,17221,2021-02-12 17:20:55.395,1.0,1.0,1
17231,17231,2021-02-12 17:21:25.395,1.0,1.0,1
17241,17241,2021-02-12 17:21:55.395,1.0,1.0,1
17251,17251,2021-02-12 17:22:25.395,1.0,1.0,1
17261,17261,2021-02-12 17:22:55.395,1.0,1.0,1
17271,17271,2021-02-12 17:23:25.395,1.0,1.0,1
17281,17281,2021-02-12 17:23:55.395,1.0,1.0,1
17291,17291,2021-02-12 17:24:25.395,1.0,1.0,1
17301,17301,2021-02-12 17:24:55.395,1.0,1.0,1
17311,17311,2021-02-12 17:25:25.395,1.0,1.0,1
17321,17321,2021-02-12 17:25:55.395,1.0,1.0,1
17331,17331,2021-02-12 17:26:25.395,1.0,1.0,1
17341,17341,2021-02-12 17:26:55.395,1.0,1.0,1
17351,17351,2021-02-12 17:27:25.395,1.0,1.0,1
17361,17361,2021-02-12 17:27:55.395,1.0,1.0,1
17371,17371,2021-02-12 17:28:25.395,1.0,1.0,1
17381,17381,2021-02-12 17:28:55.395,1.0,1.0,1
17391,17391,2021-02-12 17:29:25.395,1.0,1.0,1
17401,17401,2021-02-12 17:29:55.395,1.0,1.0,1
17411,17411,2021-02-12 17:30:25.395,1.0,1.0,1
17421,17421,2021-02-12 17:30:55.395,1.0,1.0,1
17431,17431,2021-02-12 17:31:25.395,1.0,1.0,1
17441,17441,2021-02-12 17:31:55.395,1.0,1.0,1
17451,17451,2021-02-12 17:32:25.395,1.0,1.0,1
17461,17461,2021-02-12 17:32:55.395,1.0,1.0,1
17471,17471,2021-02-12 17:33:25.395,1.0,1.0,1
17481,17481,2021-02-12 17:33:55.395,1.0,1.0,1
17491,17491,2021-02-12 17:34:25.395,1.0,1.0,1
17501,17501,2021-02-12 17:34:55.395,1.0,1.0,1
17511,17511,2021-02-12 17:35:25.395,1.0,1.0,1
17521,17521,2021-02-12 17:35:55.395,1.0,1.0,1
17531,17531,2021-02-12 17:36:25.395,1.0,1.0,1
17541,17541,2021-02-12 17:36:55.395,1.0,1.0,1
17551,17551,2021-02-12 17:37:25.395,1.0,1.0,1
17561,17561,2021-02-12 17:37:55.395,1.0,1.0,1
17571,17571,2021-02-12 17:38:25.395,1.0,1.0,1
17581,17581,2021-02-12 17:38:55.395,1.0,1.0,1
17591,17591,2021-02-12 17:39:25.395,1.0,1.0,1
17601,17601,2021-02-12 17:39:55.395,1.0,1.0,1
17611,17611,2021-02-12 17:40:25.395,1.0,1.0,1
17621,17621,2021-02-12 17:40:55.395,1.0,1.0,1
17631,17631,2021-02-12 17:41:25.395,1.0,1.0,1
17641,17641,2021-02-12 17:41:55.395,1.0,1.0,1
17651,17651,2021-02-12 17:42:25.395,1.0,1.0,1
17661,17661,2021-02-12 17:42:55.395,1.0,1.0,1
17671,17671,2021-02-12 17:43:25.395,1.0,1.0,1
17681,17681,2021-02-12 17:43:55.395,1.0,1.0,1
17691,17691,2021-02-12 17:44:25.395,1.0,1.0,1
17701,17701,2021-02-12 17:44:55.395,1.0,1.0,1
17711,17711,2021-02-12 17:45:25.395,1.0,1.0,1
17721,17721,2021-02-12 17:45:55.395,1.0,1.0,1
17731,17731,2021-02-12 17:46:25.395,1.0,1.0,1
17741,17741,2021-02-12 17:46:55.395,1.0,1.0,1
17751,17751,2021-02-12 17:47:25.395,1.0,1.0,1
17761,17761,2021-02-12 17:47:55.395,1.0,1.0,1
17771,17771,2021-02-12 17:48:25.395,1.0,1.0,1
17781,17781,2021-02-12 17:48:55.395,1.0,1.0,1
17791,17791,2021-02-12 17:49:25.395,1.0,1.0,1
17801,17801,2021-02-12 17:49:55.395,1.0,1.0,1
17811,17811,2021-02-12 17:50:25.395,1.0,1.0,1
17821,17821,2021-02-12 17:50:55.395,1.0,1.0,1
17831,17831,2021-02-12 17:51:25.395,1.0,1.0,1
17841,17841,2021-02-12 17:51:55.395,1.0,1.0,1
17851,17851,2021-02-12 17:52:25.395,1.0,1.0,1
17861,17861,2021-02-12 17:52:55.395,1.0,1.0,1
17871,17871,2021-02-12 17:53:25.395,1.0,1.0,1
17881,17881,2021-02-12 17:53:55.395,1.0,1.0,1
17891,17891,2021-02-12 17:54:25.395,1.0,1.0,1
17901,17901,2021-02-12 17:54:55.395,1.0,1.0,1
17911,17911,2021-02-12 17:55:25.395,1.0,1.0,1
17921,17921,2021-02-12 17:55:55.395,1.0,1.0,1
17931,17931,2021-02-12 17:56:25.395,1.0,1.0,1
17941,17941,2021-02-12 17:56:55.395,1.0,1.0,1
17951,17951,2021-02-12 17:57:25.395,1.0,1.0,1
17961,17961,2021-02-12 17:57:55.395,1.0,1.0,1
17971,17971,2021-02-12 17:58:25.395,1.0,1.0,1
17981,17981,2021-02-12 17:58:55.395,1.0,1.0,1
17991,17991,2021-02-12 17:59:25.395,1.0,1.0,1
18001,18001,2021-02-12 17:59:55.395,1.0,1.0,1
18011,18011,2021-02-12 18:00:25.395,1.0,1.0,1
18021,18021,2021-02-12 18:00:55.395,1.0,1.0,1
18031,18031,2021-02-12 18:01:25.395,1.0,1.0,1
18041,18041,2021-02-12 18:01:55.395,1.0,1.0,1
18051,18051,2021-02-12 18:02:25.395,1.0,1.0,1
18061,18061,2021-02-12 18:02:55.395,1.0,1.0,1
18071,18071,2021-02-12 18:03:25.395,1.0,1.0,1
18081,18081,2021-02-12 18:03:55.395,1.0,1.0,1
18091,18091,2021-02-12 18:04:25.395,1.0,1.0,1
18101,18101,2021-02-12 18:04:55.395,1.0,1.0,1
18111,18111,2021-02-12 18:05:25.395,1.0,1.0,1
18121,18121,2021-02-12 18:05:55.395,1.0,1.0,1
18131,18131,2021-02-12 18:06:25.395,1.0,1.0,1
18141,18141,2021-02-12 18:06:55.395,1.0,1.0,1
18151,18151,2021-02-12 18:07:25.395,1.0,1.0,1
18161,18161,2021-02-12 18:07:55.395,1.0,1.0,1
18171,18171,2021-02-12 18:08:25.395,1.0,1.0,1
18181,18181,2021-02-12 18:08:55.395,1.0,1.0,1
18191,18191,2021-02-12 18:09:25.395,1.0,1.0,1
18201,18201,2021-02-12 18:09:55.395,1.0,1.0,1
18211,18211,2021-02-12 18:10:25.395,1.0,1.0,1
18221,18221,2021-02-12 18:10:55.395,1.0,1.0,1
18231,18231,2021-02-12 18:11:25.395,1.0,1.0,1
18241,18241,2021-02-12 18:11:55.395,1.0,1.0,1
18251,18251,2021-02-12 18:12:25.395,1.0,1.0,1
18261,18261,2021-02-12 18:12:55.395,1.0,1.0,1
18271,18271,2021-02-12 18:13:25.395,1.0,1.0,1
18281,18281,2021-02-12 18:13:55.395,1.0,1.0,1
18291,18291,2021-02-12 18:14:25.395,1.0,1.0,1
18301,18301,2021-02-12 18:14:55.395,1.0,1.0,1
18311,18311,2021-02-12 18:15:25.395,1.0,1.0,1
18321,18321,2021-02-12 18:15:55.395,1.0,1.0,1
18331,18331,2021-02-12 18:16:25.395,1.0,1.0,1
18341,18341,2021-02-12 18:16:55.395,1.0,1.0,1
18351,18351,2021-02-12 18:17:25.395,1.0,1.0,1
18361,18361,2021-02-12 18:17:55.395,1.0,1.0,1
18371,18371,2021-02-12 18:18:25.395,1.0,1.0,1
18381,18381,2021-02-12 18:18:55.395,1.0,1.0,1
18391,18391,2021-02-12 18:19:25.395,1.0,1.0,1
18401,18401,2021-02-12 18:19:55.395,1.0,1.0,1
18411,18411,2021-02-12 18:20:25.395,1.0,1.0,1
18421,18421,2021-02-12 18:20:55.395,1.0,1.0,1
18431,18431,2021-02-12 18:21:25.395,1.0,1.0,1
18441,18441,2021-02-12 18:21:55.395,1.0,1.0,1
18451,18451,2021-02-12 18:22:25.395,1.0,1.0,1
18461,18461,2021-02-12 18:22:55.395,1.0,1.0,1
18471,18471,2021-02-12 18:23:25.395,1.0,1.0,1
18481,18481,2021-02-12 18:23:55.395,1.0,1.0,1
18491,18491,2021-02-12 18:24:25.395,1.0,1.0,1
18501,18501,2021-02-12 18:24:55.395,1.0,1.0,1
18511,18511,2021-02-12 18:25:25.395,1.0,1.0,1
18521,18521,2021-02-12 18:25:55.395,1.0,1.0,1
18531,18531,2021-02-12 18:26:25.395,1.0,1.0,1
18541,18541,2021-02-12 18:26:55.395,1.0,1.0,1
18551,18551,2021-02-12 18:27:25.395,1.0,1.0,1
18561,18561,2021-02-12 18:27:55.395,1.0,1.0,1
18571,18571,2021-02-12 18:28:25.395,1.0,1.0,1
18581,18581,2021-02-12 18:28:55.395,1.0,1.0,1
18591,18591,2021-02-12 18:29:25.395,1.0,1.0,1
18601,18601,2021-02-12 18:29:55.395,1.0,1.0,1
18611,18611,2021-02-12 18:30:25.395,1.0,1.0,1
18621,18621,2021-02-12 18:30:55.395,1.0,1.0,1
18631,18631,2021-02-12 18:31:25.395,1.0,1.0,1
18641,18641,2021-02-12 18:31:55.395,1.0,1.0,1
18651,18651,2021-02-12 18:32:25.395,1.0,1.0,1
18661,18661,2021-02-12 18:32:55.395,1.0,1.0,1
18671,18671,2021-02-12 18:33:25.395,1.0,1.0,1
18681,18681,2021-02-12 18:33:55.395,1.0,1.0,1
18691,18691,2021-02-12 18:34:25.395,1.0,1.0,1
18701,18701,2021-02-12 18:34:55.395,1.0,1.0,1
18711,18711,2021-02-12 18:35:25.395,1.0,1.0,1
18721,18721,2021-02-12 18:35:55.395,1.0,1.0,1
18731,18731,2021-02-12 18:36:25.395,1.0,1.0,1
18741,18741,2021-02-12 18:36:55.395,1.0,1.0,1
18751,18751,2021-02-12 18:37:25.395,1.0,1.0,1
18761,18761,2021-02-12 18:37:55.395,1.0,1.0,1
18771,18771,2021-02-12 18:38:25.395,1.0,1.0,1
18781,18781,2021-02-12 18:38:55.395,1.0,1.0,1
18791,18791,2021-02-12 18:39:25.395,1.0,1.0,1
18801,18801,2021-02-12 18:39:55.395,1.0,1.0,1
18811,18811,2021-02-12 18:40:25.395,1.0,1.0,1
18821,18821,2021-02-12 18:40:55.395,1.0,1.0,1
18831,18831,2021-02-12 18:41:25.395,1.0,1.0,1
18841,18841,2021-02-12 18:41:55.395,1.0,1.0,1
18851,18851,2021-02-12 18:42:25.395,1.0,1.0,1
18861,18861,2021-02-12 18:42:55.395,1.0,1.0,1
18871,18871,2021-02-12 18:43:25.395,1.0,1.0,1
18881,18881,2021-02-12 18:43:55.395,1.0,1.0,1
18891,18891,2021-02-12 18:44:25.395,1.0,1.0,1
18901,18901,2021-02-12 18:44:55.395,1.0,1.0,1
18911,18911,2021-02-12 18:45:25.395,1.0,1.0,1
18921,18921,2021-02-12 18:45:55.395,1.0,1.0,1
18931,18931,2021-02-12 18:46:25.395,1.0,1.0,1
18941,18941,2021-02-12 18:46:55.395,1.0,1.0,1
18951,18951,2021-02-12 18:47:25.395,1.0,1.0,1
18961,18961,2021-02-12 18:47:55.395,1.0,1.0,1
18971,18971,2021-02-12 18:48:25.395,1.0,1.0,1
18981,18981,2021-02-12 18:48:55.395,1.0,1.0,1
18991,18991,2021-02-12 18:49:25.395,1.0,1.0,1
19001,19001,2021-02-12 18:49:55.395,1.0,1.0,1
19011,19011,2021-02-12 18:50:25.395,1.0,1.0,1
19021,19021,2021-02-12 18:50:55.395,1.0,1.0,1
19031,19031,2021-02-12 18:51:25.395,1.0,1.0,1
19041,19041,2021-02-12 18:51:55.395,1.0,1.0,1
19051,19051,2021-02-12 18:52:25.395,1.0,1.0,1
19061,19061,2021-02-12 18:52:55.395,1.0,1.0,1
19071,19071,2021-02-12 18:53:25.395,1.0,1.0,1
19081,19081,2021-02-12 18:53:55.395,1.0,1.0,1
19091,19091,2021-02-12 18:54:25.395,1.0,1.0,1
19101,19101,2021-02-12 18:54:55.395,1.0,1.0,1
19111,19111,2021-02-12 18:55:25.395,1.0,1.0,1
19121,19121,2021-02-12 18:55:55.395,1.0,1.0,1
19131,19131,2021-02-12 18:56:25.395,1.0,1.0,1
19141,19141,2021-02-12 18:56:55.395,1.0,1.0,1
19151,19151,2021-02-12 18:57:25.395,1.0,1.0,1
19161,19161,2021-02-12 18:57:55.395,1.0,1.0,1
19171,19171,2021-02-12 18:58:25.395,1.0,1.0,1
19181,19181,2021-02-12 18:58:55.395,1.0,1.0,1
19191,19191,2021-02-12 18:59:25.395,1.0,1.0,1
19201,19201,2021-02-12 18:59:55.395,1.0,1.0,1
19211,19211,2021-02-12 19:00:25.395,1.0,1.0,1
19221,19221,2021-02-12 19:00:55.395,1.0,1.0,1
19231,19231,2021-02-12 19:01:25.395,1.0,1.0,1
19241,19241,2021-02-12 19:01:55.395,1.0,1.0,1
19251,19251,2021-02-12 19:02:25.395,1.0,1.0,1
19261,19261,2021-02-12 19:02:55.395,1.0,1.0,1
19271,19271,2021-02-12 19:03:25.395,1.0,1.0,1
19281,19281,2021-02-12 19:03:55.395,1.0,1.0,1
19291,19291,2021-02-12 19:04:25.395,1.0,1.0,1
19301,19301,2021-02-12 19:04:55.395,1.0,1.0,1
19311,19311,2021-02-12 19:05:25.395,1.0,1.0,1
19321,19321,2021-02-12 19:05:55.395,1.0,1.0,1
19331,19331,2021-02-12 19:06:25.395,1.0,1.0,1
19341,19341,2021-02-12 19:06:55.395,1.0,1.0,1
19351,19351,2021-02-12 19:07:25.395,1.0,1.0,1
19361,19361,2021-02-12 19:07:55.395,1.0,1.0,1
19371,19371,2021-02-12 19:08:25.395,1.0,1.0,1
19381,19381,2021-02-12 19:08:55.395,1.0,1.0,1
19391,19391,2021-02-12 19:09:25.395,1.0,1.0,1
19401,19401,2021-02-12 19:09:55.395,1.0,1.0,1
19411,19411,2021-02-12 19:10:25.395,1.0,1.0,1
19421,19421,2021-02-12 19:10:55.395,1.0,1.0,1
19431,19431,2021-02-12 19:11:25.395,1.0,1.0,1
19441,19441,2021-02-12 19:11:55.395,1.0,1.0,1
19451,19451,2021-02-12 19:12:25.395,1.0,1.0,1
19461,19461,2021-02-12 19:12:55.395,1.0,1.0,1
19471,19471,2021-02-12 19:13:25.395,1.0,1.0,1
19481,19481,2021-02-12 19:13:55.395,1.0,1.0,1
19491,19491,2021-02-12 19:14:25.395,1.0,1.0,1
19501,19501,2021-02-12 19:14:55.395,1.0,1.0,1
19511,19511,2021-02-12 19:15:25.395,1.0,1.0,1
19521,19521,2021-02-12 19:15:55.395,1.0,1.0,1
19531,19531,2021-02-12 19:16:25.395,1.0,1.0,1
19541,19541,2021-02-12 19:16:55.395,1.0,1.0,1
19551,19551,2021-02-12 19:17:25.395,1.0,1.0,1
19561,19561,2021-02-12 19:17:55.395,1.0,1.0,1
19571,19571,2021-02-12 19:18:25.395,1.0,1.0,1
19581,19581,2021-02-12 19:18:55.395,1.0,1.0,1
19591,19591,2021-02-12 19:19:25.395,1.0,1.0,1
19601,19601,2021-02-12 19:19:55.395,1.0,1.0,1
19611,19611,2021-02-12 19:20:25.395,1.0,1.0,1
19621,19621,2021-02-12 19:20:55.395,1.0,1.0,1
19631,19631,2021-02-12 19:21:25.395,1.0,1.0,1
19641,19641,2021-02-12 19:21:55.395,1.0,1.0,1
19651,19651,2021-02-12 19:22:25.395,1.0,1.0,1
19661,19661,2021-02-12 19:22:55.395,1.0,1.0,1
19671,19671,2021-02-12 19:23:25.395,1.0,1.0,1
19681,19681,2021-02-12 19:23:55.395,1.0,1.0,1
19691,19691,2021-02-12 19:24:25.395,1.0,1.0,1
19701,19701,2021-02-12 19:24:55.395,1.0,1.0,1
19711,19711,2021-02-12 19:25:25.395,1.0,1.0,1
19721,19721,2021-02-12 19:25:55.395,1.0,1.0,1
19731,19731,2021-02-12 19:26:25.395,1.0,1.0,1
19741,19741,2021-02-12 19:26:55.395,1.0,1.0,1
19751,19751,2021-02-12 19:27:25.395,1.0,1.0,1
19761,19761,2021-02-12 19:27:55.395,1.0,1.0,1
19771,19771,2021-02-12 19:28:25.395,1.0,1.0,1
19781,19781,2021-02-12 19:28:55.395,1.0,1.0,1
19791,19791,2021-02-12 19:29:25.395,1.0,1.0,1
19801,19801,2021-02-12 19:29:55.395,1.0,1.0,1
19811,19811,2021-02-12 19:30:25.395,1.0,1.0,1
19821,19821,2021-02-12 19:30:55.395,1.0,1.0,1
19831,19831,2021-02-12 19:31:25.395,1.0,1.0,1
19841,19841,2021-02-12 19:31:55.395,1.0,1.0,1
19851,19851,2021-02-12 19:32:25.395,1.0,1.0,1
19861,19861,2021-02-12 19:32:55.395,1.0,1.0,1
19871,19871,2021-02-12 19:33:25.395,1.0,1.0,1
19881,19881,2021-02-12 19:33:55.395,1.0,1.0,1
19891,19891,2021-02-12 19:34:25.395,1.0,1.0,1
19901,19901,2021-02-12 19:34:55.395,1.0,1.0,1
19911,19911,2021-02-12 19:35:25.395,1.0,1.0,1
19921,19921,2021-02-12 19:35:55.395,1.0,1.0,1
19931,19931,2021-02-12 19:36:25.395,1.0,1.0,1
19941,19941,2021-02-12 19:36:55.395,1.0,1.0,1
19951,19951,2021-02-12 19:37:25.395,1.0,1.0,1
19961,19961,2021-02-12 19:37:55.395,1.0,1.0,1
19971,19971,2021-02-12 19:38:25.395,1.0,1.0,1
19981,19981,2021-02-12 19:38:55.395,1.0,1.0,1
19991,19991,2021-02-12 19:39:25.395,1.0,1.0,1
20001,20001,2021-02-12 19:39:55.395,1.0,1.0,1
20011,20011,2021-02-12 19:40:25.395,1.0,1.0,1
20021,20021,2021-02-12 19:40:55.395,1.0,1.0,1
20031,20031,2021-02-12 19:41:25.395,1.0,1.0,1
20041,20041,2021-02-12 19:41:55.395,1.0,1.0,1
20051,20051,2021-02-12 19:42:25.395,1.0,1.0,1
20061,20061,2021-02-12 19:42:55.395,1.0,1.0,1
20071,20071,2021-02-12 19:43:25.395,1.0,1.0,1
20081,20081,2021-02-12 19:43:55.395,1.0,1.0,1
20091,20091,2021-02-12 19:44:25.395,1.0,1.0,1
20101,20101,2021-02-12 19:44:55.395,1.0,1.0,1
20111,20111,2021-02-12 19:45:25.395,1.0,1.0,1
20121,20121,2021-02-12 19:45:55.395,1.0,1.0,1
20131,20131,2021-02-12 19:46:25.395,1.0,1.0,1
20141,20141,2021-02-12 19:46:55.395,1.0,1.0,1
20151,20151,2021-02-12 19:47:25.395,1.0,1.0,1
20161,20161,2021-02-12 19:47:55.395,1.0,1.0,1
20171,20171,2021-02-12 19:48:25.395,1.0,1.0,1
20181,20181,2021-02-12 19:48:55.395,1.0,1.0,1
20191,20191,2021-02-12 19:49:25.395,1.0,1.0,1
20201,20201,2021-02-12 19:49:55.395,1.0,1.0,1
20211,20211,2021-02-12 19:50:25.395,1.0,1.0,1
20221,20221,2021-02-12 19:50:55.395,1.0,1.0,1
20231,20231,2021-02-12 19:51:25.395,1.0,1.0,1
20241,20241,2021-02-12 19:51:55.395,1.0,1.0,1
20251,20251,2021-02-12 19:52:25.395,1.0,1.0,1
20261,20261,2021-02-12 19:52:55.395,1.0,1.0,1
20271,20271,2021-02-12 19:53:25.395,1.0,1.0,1
20281,20281,2021-02-12 19:53:55.395,1.0,1.0,1
20291,20291,2021-02-12 19:54:25.395,1.0,1.0,1
20301,20301,2021-02-12 19:54:55.395,1.0,1.0,1
20311,20311,2021-02-12 19:55:25.395,1.0,1.0,1
20321,20321,2021-02-12 19:55:55.395,1.0,1.0,1
20331,20331,2021-02-12 19:56:25.395,1.0,1.0,1
20341,20341,2021-02-12 19:56:55.395,1.0,1.0,1
20351,20351,2021-02-12 19:57:25.395,1.0,1.0,1
20361,20361,2021-02-12 19:57:55.395,1.0,1.0,1
20371,20371,2021-02-12 19:58:25.395,1.0,1.0,1
20381,20381,2021-02-12 19:58:55.395,1.0,1.0,1
20391,20391,2021-02-12 19:59:25.395,1.0,1.0,1
20401,20401,2021-02-12 19:59:55.395,1.0,1.0,1
20411,20411,2021-02-12 20:00:25.395,1.0,1.0,1
20421,20421,2021-02-12 20:00:55.395,1.0,1.0,1
20431,20431,2021-02-12 20:01:25.395,1.0,1.0,1
20441,20441,2021-02-12 20:01:55.395,1.0,1.0,1
20451,20451,2021-02-12 20:02:25.395,1.0,1.0,1
20461,20461,2021-02-12 20:02:55.395,1.0,1.0,1
20471,20471,2021-02-12 20:03:25.395,1.0,1.0,1
20481,20481,2021-02-12 20:03:55.395,1.0,1.0,1
20491,20491,2021-02-12 20:04:25.395,1.0,1.0,1
20501,20501,2021-02-12 20:04:55.395,1.0,1.0,1
20511,20511,2021-02-12 20:05:25.395,1.0,1.0,1
20521,20521,2021-02-12 20:05:55.395,1.0,1.0,1
20531,20531,2021-02-12 20:06:25.395,1.0,1.0,1
20541,20541,2021-02-12 20:06:55.395,1.0,1.0,1
20551,20551,2021-02-12 20:07:25.395,1.0,1.0,1
20561,20561,2021-02-12 20:07:55.395,1.0,1.0,1
20571,20571,2021-02-12 20:08:25.395,1.0,1.0,1
20581,20581,2021-02-12 20:08:55.395,1.0,1.0,1
20591,20591,2021-02-12 20:09:25.395,1.0,1.0,1
20601,20601,2021-02-12 20:09:55.395,1.0,1.0,1
20611,20611,2021-02-12 20:10:25.395,1.0,1.0,1
20621,20621,2021-02-12 20:10:55.395,1.0,1.0,1
20631,20631,2021-02-12 20:11:25.395,1.0,1.0,1
20641,20641,2021-02-12 20:11:55.395,1.0,1.0,1
20651,20651,2021-02-12 20:12:25.395,1.0,1.0,1
20661,20661,2021-02-12 20:12:55.395,1.0,1.0,1
20671,20671,2021-02-12 20:13:25.395,1.0,1.0,1
20681,20681,2021-02-12 20:13:55.395,1.0,1.0,1
20691,20691,2021-02-12 20:14:25.395,1.0,1.0,1
20701,20701,2021-02-12 20:14:55.395,1.0,1.0,1
20711,20711,2021-02-12 20:15:25.395,1.0,1.0,1
20721,20721,2021-02-12 20:15:55.395,1.0,1.0,1
20731,20731,2021-02-12 20:16:25.395,1.0,1.0,1
20741,20741,2021-02-12 20:16:55.395,1.0,1.0,1
20751,20751,2021-02-12 20:17:25.395,1.0,1.0,1
20761,20761,2021-02-12 20:17:55.395,1.0,1.0,1
20771,20771,2021-02-12 20:18:25.395,1.0,1.0,1
20781,20781,2021-02-12 20:18:55.395,1.0,1.0,1
20791,20791,2021-02-12 20:19:25.395,1.0,1.0,1
20801,20801,2021-02-12 20:19:55.395,1.0,1.0,1
20811,20811,2021-02-12 20:20:25.395,1.0,1.0,1
20821,20821,2021-02-12 20:20:55.395,1.0,1.0,1
20831,20831,2021-02-12 20:21:25.395,1.0,1.0,1
20841,20841,2021-02-12 20:21:55.395,1.0,1.0,1
20851,20851,2021-02-12 20:22:25.395,1.0,1.0,1
20861,20861,2021-02-12 20:22:55.395,1.0,1.0,1
20871,20871,2021-02-12 20:23:25.395,1.0,1.0,1
20881,20881,2021-02-12 20:23:55.395,1.0,1.0,1
20891,20891,2021-02-12 20:24:25.395,1.0,1.0,1
20901,20901,2021-02-12 20:24:55.395,1.0,1.0,1
20911,20911,2021-02-12 20:25:25.395,1.0,1.0,1
20921,20921,2021-02-12 20:25:55.395,1.0,1.0,1
20931,20931,2021-02-12 20:26:25.395,1.0,1.0,1
20941,20941,2021-02-12 20:26:55.395,1.0,1.0,1
20951,20951,2021-02-12 20:27:25.395,1.0,1.0,1
20961,20961,2021-02-12 20:27:55.395,1.0,1.0,1
20971,20971,2021-02-12 20:28:25.395,1.0,1.0,1
20981,20981,2021-02-12 20:28:55.395,1.0,1.0,1
20991,20991,2021-02-12 20:29:25.395,1.0,1.0,1
21001,21001,2021-02-12 20:29:55.395,1.0,1.0,1
21011,21011,2021-02-12 20:30:25.395,1.0,1.0,1
21021,21021,2021-02-12 20:30:55.395,1.0,1.0,1
21031,21031,2021-02-12 20:31:25.395,1.0,1.0,1
21041,21041,2021-02-12 20:31:55.395,1.0,1.0,1
21051,21051,2021-02-12 20:32:25.395,1.0,1.0,1
21061,21061,2021-02-12 20:32:55.395,1.0,1.0,1
21071,21071,2021-02-12 20:33:25.395,1.0,1.0,1
21081,21081,2021-02-12 20:33:55.395,1.0,1.0,1
21091,21091,2021-02-12 20:34:25.395,1.0,1.0,1
21101,21101,2021-02-12 20:34:55.395,1.0,1.0,1
21111,21111,2021-02-12 20:35:25.395,1.0,1.0,1
21121,21121,2021-02-12 20:35:55.395,1.0,1.0,1
21131,21131,2021-02-12 20:36:25.395,1.0,1.0,1
21141,21141,2021-02-12 20:36:55.395,1.0,1.0,1
21151,21151,2021-02-12 20:37:25.395,1.0,1.0,1
21161,21161,2021-02-12 20:37:55.395,1.0,1.0,1
21171,21171,2021-02-12 20:38:25.395,1.0,1.0,1
21181,21181,2021-02-12 20:38:55.395,1.0,1.0,1
21191,21191,2021-02-12 20:39:25.395,1.0,1.0,1
21201,21201,2021-02-12 20:39:55.395,1.0,1.0,1
21211,21211,2021-02-12 20:40:25.395,1.0,1.0,1
21221,21221,2021-02-12 20:40:55.395,1.0,1.0,1
21231,21231,2021-02-12 20:41:25.395,1.0,1.0,1
21241,21241,2021-02-12 20:41:55.395,1.0,1.0,1
21251,21251,2021-02-12 20:42:25.395,1.0,1.0,1
21261,21261,2021-02-12 20:42:55.395,1.0,1.0,1
21271,21271,2021-02-12 20:43:25.395,1.0,1.0,1
21281,21281,2021-02-12 20:43:55.395,1.0,1.0,1
21291,21291,2021-02-12 20:44:25.395,1.0,1.0,1
21301,21301,2021-02-12 20:44:55.395,1.0,1.0,1
21311,21311,2021-02-12 20:45:25.395,1.0,1.0,1
21321,21321,2021-02-12 20:45:55.395,1.0,1.0,1
21331,21331,2021-02-12 20:46:25.395,1.0,1.0,1
21341,21341,2021-02-12 20:46:55.395,1.0,1.0,1
21351,21351,2021-02-12 20:47:25.395,1.0,1.0,1
21361,21361,2021-02-12 20:47:55.395,1.0,1.0,1
21371,21371,2021-02-12 20:48:25.395,1.0,1.0,1
21381,21381,2021-02-12 20:48:55.395,1.0,1.0,1
21391,21391,2021-02-12 20:49:25.395,1.0,1.0,1
21401,21401,2021-02-12 20:49:55.395,1.0,1.0,1
21411,21411,2021-02-12 20:50:25.395,1.0,1.0,1
21421,21421,2021-02-12 20:50:55.395,1.0,1.0,1
21431,21431,2021-02-12 20:51:25.395,1.0,1.0,1
21441,21441,2021-02-12 20:51:55.395,1.0,1.0,1
21451,21451,2021-02-12 20:52:25.395,1.0,1.0,1
21461,21461,2021-02-12 20:52:55.395,1.0,1.0,1
21471,21471,2021-02-12 20:53:25.395,1.0,1.0,1
21481,21481,2021-02-12 20:53:55.395,1.0,1.0,1
21491,21491,2021-02-12 20:54:25.395,1.0,1.0,1
21501,21501,2021-02-12 20:54:55.395,1.0,1.0,1
21511,21511,2021-02-12 20:55:25.395,1.0,1.0,1
21521,21521,2021-02-12 20:55:55.395,1.0,1.0,1
21531,21531,2021-02-12 20:56:25.395,1.0,1.0,1
21541,21541,2021-02-12 20:56:55.395,1.0,1.0,1
21551,21551,2021-02-12 20:57:25.395,1.0,1.0,1
21561,21561,2021-02-12 20:57:55.395,1.0,1.0,1
21571,21571,2021-02-12 20:58:25.395,1.0,1.0,1
21581,21581,2021-02-12 20:58:55.395,1.0,1.0,1
21591,21591,2021-02-12 20:59:25.395,1.0,1.0,1
21601,21601,2021-02-12 20:59:55.395,1.0,1.0,1
21611,21611,2021-02-12 21:00:25.395,1.0,1.0,1
21621,21621,2021-02-12 21:00:55.395,1.0,1.0,1
21631,21631,2021-02-12 21:01:25.395,1.0,1.0,1
21641,21641,2021-02-12 21:01:55.395,1.0,1.0,1
21651,21651,2021-02-12 21:02:25.395,1.0,1.0,1
21661,21661,2021-02-12 21:02:55.395,1.0,1.0,1
21671,21671,2021-02-12 21:03:25.395,1.0,1.0,1
21681,21681,2021-02-12 21:03:55.395,1.0,1.0,1
21691,21691,2021-02-12 21:04:25.395,1.0,1.0,1
21701,21701,2021-02-12 21:04:55.395,1.0,1.0,1
21711,21711,2021-02-12 21:05:25.395,1.0,1.0,1
21721,21721,2021-02-12 21:05:55.395,1.0,1.0,1
21731,21731,2021-02-12 21:06:25.395,1.0,1.0,1
21741,21741,2021-02-12 21:06:55.395,1.0,1.0,1
21751,21751,2021-02-12 21:07:25.395,1.0,1.0,1
21761,21761,2021-02-12 21:07:55.395,1.0,1.0,1
21771,21771,2021-02-12 21:08:25.395,1.0,1.0,1
21781,21781,2021-02-12 21:08:55.395,1.0,1.0,1
21791,21791,2021-02-12 21:09:25.395,1.0,1.0,1
21801,21801,2021-02-12 21:09:55.395,1.0,1.0,1
21811,21811,2021-02-12 21:10:25.395,1.0,1.0,1
21821,21821,2021-02-12 21:10:55.395,1.0,1.0,1
21831,21831,2021-02-12 21:11:25.395,1.0,1.0,1
21841,21841,2021-02-12 21:11:55.395,1.0,1.0,1
21851,21851,2021-02-12 21:12:25.395,1.0,1.0,1
21861,21861,2021-02-12 21:12:55.395,1.0,1.0,1
21871,21871,2021-02-12 21:13:25.395,1.0,1.0,1
21881,21881,2021-02-12 21:13:55.395,1.0,1.0,1
21891,21891,2021-02-12 21:14:25.395,1.0,1.0,1
21901,21901,2021-02-12 21:14:55.395,1.0,1.0,1
21911,21911,2021-02-12 21:15:25.395,1.0,1.0,1
21921,21921,2021-02-12 21:15:55.395,1.0,1.0,1
21931,21931,2021-02-12 21:16:25.395,1.0,1.0,1
21941,21941,2021-02-12 21:16:55.395,1.0,1.0,1
21951,21951,2021-02-12 21:17:25.395,1.0,1.0,1
21961,21961,2021-02-12 21:17:55.395,1.0,1.0,1
21971,21971,2021-02-12 21:18:25.395,1.0,1.0,1
21981,21981,2021-02-12 21:18:55.395,1.0,1.0,1
21991,21991,2021-02-12 21:19:25.395,1.0,1.0,1
22001,22001,2021-02-12 21:19:55.395,1.0,1.0,1
22011,22011,2021-02-12 21:20:25.395,1.0,1.0,1
22021,22021,2021-02-12 21:20:55.395,1.0,1.0,1
22031,22031,2021-02-12 21:21:25.395,1.0,1.0,1
22041,22041,2021-02-12 21:21:55.395,1.0,1.0,1
22051,22051,2021-02-12 21:22:25.395,1.0,1.0,1
22061,22061,2021-02-12 21:22:55.395,1.0,1.0,1
22071,22071,2021-02-12 21:23:25.395,1.0,1.0,1
22081,22081,2021-02-12 21:23:55.395,1.0,1.0,1
22091,22091,2021-02-12 21:24:25.395,1.0,1.0,1
22101,22101,2021-02-12 21:24:55.395,1.0,1.0,1
22111,22111,2021-02-12 21:25:25.395,1.0,1.0,1
22121,22121,2021-02-12 21:25:55.395,1.0,1.0,1
22131,22131,2021-02-12 21:26:25.395,1.0,1.0,1
22141,22141,2021-02-12 21:26:55.395,1.0,1.0,1
22151,22151,2021-02-12 21:27:25.395,1.0,1.0,1
22161,22161,2021-02-12 21:27:55.395,1.0,1.0,1
22171,22171,2021-02-12 21:28:25.395,1.0,1.0,1
22181,22181,2021-02-12 21:28:55.395,1.0,1.0,1
22191,22191,2021-02-12 21:29:25.395,1.0,1.0,1
22201,22201,2021-02-12 21:29:55.395,1.0,1.0,1
22211,22211,2021-02-12 21:30:25.395,1.0,1.0,1
22221,22221,2021-02-12 21:30:55.395,1.0,1.0,1
22231,22231,2021-02-12 21:31:25.395,1.0,1.0,1
22241,22241,2021-02-12 21:31:55.395,1.0,1.0,1
22251,22251,2021-02-12 21:32:25.395,1.0,1.0,1
22261,22261,2021-02-12 21:32:55.395,1.0,1.0,1
22271,22271,2021-02-12 21:33:25.395,1.0,1.0,1
22281,22281,2021-02-12 21:33:55.395,1.0,1.0,1
22291,22291,2021-02-12 21:34:25.395,1.0,1.0,1
22301,22301,2021-02-12 21:34:55.395,1.0,1.0,1
22311,22311,2021-02-12 21:35:25.395,1.0,1.0,1
22321,22321,2021-02-12 21:35:55.395,1.0,1.0,1
22331,22331,2021-02-12 21:36:25.395,1.0,1.0,1
22341,22341,2021-02-12 21:36:55.395,1.0,1.0,1
22351,22351,2021-02-12 21:37:25.395,1.0,1.0,1
22361,22361,2021-02-12 21:37:55.395,1.0,1.0,1
22371,22371,2021-02-12 21:38:25.395,1.0,1.0,1
22381,22381,2021-02-12 21:38:55.395,1.0,1.0,1
22391,22391,2021-02-12 21:39:25.395,1.0,1.0,1
22401,22401,2021-02-12 21:39:55.395,1.0,1.0,1
22411,22411,2021-02-12 21:40:25.395,1.0,1.0,1
22421,22421,2021-02-12 21:40:55.395,1.0,1.0,1
22431,22431,2021-02-12 21:41:25.395,1.0,1.0,1
22441,22441,2021-02-12 21:41:55.395,1.0,1.0,1
22451,22451,2021-02-12 21:42:25.395,1.0,1.0,1
22461,22461,2021-02-12 21:42:55.395,1.0,1.0,1
22471,22471,2021-02-12 21:43:25.395,1.0,1.0,1
22481,22481,2021-02-12 21:43:55.395,1.0,1.0,1
22491,22491,2021-02-12 21:44:25.395,1.0,1.0,1
22501,22501,2021-02-12 21:44:55.395,1.0,1.0,1
22511,22511,2021-02-12 21:45:25.395,1.0,1.0,1
22521,22521,2021-02-12 21:45:55.395,1.0,1.0,1
22531,22531,2021-02-12 21:46:25.395,1.0,1.0,1
22541,22541,2021-02-12 21:46:55.395,1.0,1.0,1
22551,22551,2021-02-12 21:47:25.395,1.0,1.0,1
22561,22561,2021-02-12 21:47:55.395,1.0,1.0,1
22571,22571,2021-02-12 21:48:25.395,1.0,1.0,1
22581,22581,2021-02-12 21:48:55.395,1.0,1.0,1
22591,22591,2021-02-12 21:49:25.395,1.0,1.0,1
22601,22601,2021-02-12 21:49:55.395,1.0,1.0,1
22611,22611,2021-02-12 21:50:25.395,1.0,1.0,1
22621,22621,2021-02-12 21:50:55.395,1.0,1.0,1
22631,22631,2021-02-12 21:51:25.395,1.0,1.0,1
22641,22641,2021-02-12 21:51:55.395,1.0,1.0,1
22651,22651,2021-02-12 21:52:25.395,1.0,1.0,1
22661,22661,2021-02-12 21:52:55.395,1.0,1.0,1
22671,22671,2021-02-12 21:53:25.395,1.0,1.0,1
22681,22681,2021-02-12 21:53:55.395,1.0,1.0,1
22691,22691,2021-02-12 21:54:25.395,1.0,1.0,1
22701,22701,2021-02-12 21:54:55.395,1.0,1.0,1
22711,22711,2021-02-12 21:55:25.395,1.0,1.0,1
22721,22721,2021-02-12 21:55:55.395,1.0,1.0,1
22731,22731,2021-02-12 21:56:25.395,1.0,1.0,1
22741,22741,2021-02-12 21:56:55.395,1.0,1.0,1
22751,22751,2021-02-12 21:57:25.395,1.0,1.0,1
22761,22761,2021-02-12 21:57:55.395,1.0,1.0,1
22771,22771,2021-02-12 21:58:25.395,1.0,1.0,1
22781,22781,2021-02-12 21:58:55.395,1.0,1.0,1
22791,22791,2021-02-12 21:59:25.395,1.0,1.0,1
22801,22801,2021-02-12 21:59:55.395,1.0,1.0,1
22811,22811,2021-02-12 22:00:25.395,1.0,1.0,1
22821,22821,2021-02-12 22:00:55.395,1.0,1.0,1
22831,22831,2021-02-12 22:01:25.395,1.0,1.0,1
22841,22841,2021-02-12 22:01:55.395,1.0,1.0,1
22851,22851,2021-02-12 22:02:25.395,1.0,1.0,1
22861,22861,2021-02-12 22:02:55.395,1.0,1.0,1
22871,22871,2021-02-12 22:03:25.395,1.0,1.0,1
22881,22881,2021-02-12 22:03:55.395,1.0,1.0,1
22891,22891,2021-02-12 22:04:25.395,1.0,1.0,1
22901,22901,2021-02-12 22:04:55.395,1.0,1.0,1
22911,22911,2021-02-12 22:05:25.395,1.0,1.0,1
22921,22921,2021-02-12 22:05:55.395,1.0,1.0,1
22931,22931,2021-02-12 22:06:25.395,1.0,1.0,1
22941,22941,2021-02-12 22:06:55.395,1.0,1.0,1
22951,22951,2021-02-12 22:07:25.395,1.0,1.0,1
22961,22961,2021-02-12 22:07:55.395,1.0,1.0,1
22971,22971,2021-02-12 22:08:25.395,1.0,1.0,1
22981,22981,2021-02-12 22:08:55.395,1.0,1.0,1
22991,22991,2021-02-12 22:09:25.395,1.0,1.0,1
23001,23001,2021-02-12 22:09:55.395,1.0,1.0,1
23011,23011,2021-02-12 22:10:25.395,1.0,1.0,1
23021,23021,2021-02-12 22:10:55.395,1.0,1.0,1
23031,23031,2021-02-12 22:11:25.395,1.0,1.0,1
23041,23041,2021-02-12 22:11:55.395,1.0,1.0,1
23051,23051,2021-02-12 22:12:25.395,1.0,1.0,1
23061,23061,2021-02-12 22:12:55.395,1.0,1.0,1
23071,23071,2021-02-12 22:13:25.395,1.0,1.0,1
23081,23081,2021-02-12 22:13:55.395,1.0,1.0,1
23091,23091,2021-02-12 22:14:25.395,1.0,1.0,1
23101,23101,2021-02-12 22:14:55.395,1.0,1.0,1
23111,23111,2021-02-12 22:15:25.395,1.0,1.0,1
23121,23121,2021-02-12 22:15:55.395,1.0,1.0,1
23131,23131,2021-02-12 22:16:25.395,1.0,1.0,1
23141,23141,2021-02-12 22:16:55.395,1.0,1.0,1
23151,23151,2021-02-12 22:17:25.395,1.0,1.0,1
23161,23161,2021-02-12 22:17:55.395,1.0,1.0,1
23171,23171,2021-02-12 22:18:25.395,1.0,1.0,1
23181,23181,2021-02-12 22:18:55.395,1.0,1.0,1
23191,23191,2021-02-12 22:19:25.395,1.0,1.0,1
23201,23201,2021-02-12 22:19:55.395,1.0,1.0,1
23211,23211,2021-02-12 22:20:25.395,1.0,1.0,1
23221,23221,2021-02-12 22:20:55.395,1.0,1.0,1
23231,23231,2021-02-12 22:21:25.395,1.0,1.0,1
23241,23241,2021-02-12 22:21:55.395,1.0,1.0,1
23251,23251,2021-02-12 22:22:25.395,1.0,1.0,1
23261,23261,2021-02-12 22:22:55.395,1.0,1.0,1
23271,23271,2021-02-12 22:23:25.395,1.0,1.0,1
23281,23281,2021-02-12 22:23:55.395,1.0,1.0,1
23291,23291,2021-02-12 22:24:25.395,1.0,1.0,1
23301,23301,2021-02-12 22:24:55.395,1.0,1.0,1
23311,23311,2021-02-12 22:25:25.395,1.0,1.0,1
23321,23321,2021-02-12 22:25:55.395,1.0,1.0,1
23331,23331,2021-02-12 22:26:25.395,1.0,1.0,1
23341,23341,2021-02-12 22:26:55.395,1.0,1.0,1
23351,23351,2021-02-12 22:27:25.395,1.0,1.0,1
23361,23361,2021-02-12 22:27:55.395,1.0,1.0,1
23371,23371,2021-02-12 22:28:25.395,1.0,1.0,1
23381,23381,2021-02-12 22:28:55.395,1.0,1.0,1
23391,23391,2021-02-12 22:29:25.395,1.0,1.0,1
23401,23401,2021-02-12 22:29:55.395,1.0,1.0,1
23411,23411,2021-02-12 22:30:25.395,1.0,1.0,1
23421,23421,2021-02-12 22:30:55.395,1.0,1.0,1
23431,23431,2021-02-12 22:31:25.395,1.0,1.0,1
23441,23441,2021-02-12 22:31:55.395,1.0,1.0,1
23451,23451,2021-02-12 22:32:25.395,1.0,1.0,1
23461,23461,2021-02-12 22:32:55.395,1.0,1.0,1
23471,23471,2021-02-12 22:33:25.395,1.0,1.0,1
23481,23481,2021-02-12 22:33:55.395,1.0,1.0,1
23491,23491,2021-02-12 22:34:25.395,1.0,1.0,1
23501,23501,2021-02-12 22:34:55.395,1.0,1.0,1
23511,23511,2021-02-12 22:35:25.395,1.0,1.0,1
23521,23521,2021-02-12 22:35:55.395,1.0,1.0,1
23531,23531,2021-02-12 22:36:25.395,1.0,1.0,1
23541,23541,2021-02-12 22:36:55.395,1.0,1.0,1
23551,23551,2021-02-12 22:37:25.395,1.0,1.0,1
23561,23561,2021-02-12 22:37:55.395,1.0,1.0,1
23571,23571,2021-02-12 22:38:25.395,1.0,1.0,1
23581,23581,2021-02-12 22:38:55.395,1.0,1.0,1
23591,23591,2021-02-12 22:39:25.395,1.0,1.0,1
23601,23601,2021-02-12 22:39:55.395,1.0,1.0,1
23611,23611,2021-02-12 22:40:25.395,1.0,1.0,1
23621,23621,2021-02-12 22:40:55.395,1.0,1.0,1
23631,23631,2021-02-12 22:41:25.395,1.0,1.0,1
23641,23641,2021-02-12 22:41:55.395,1.0,1.0,1
23651,23651,2021-02-12 22:42:25.395,1.0,1.0,1
23661,23661,2021-02-12 22:42:55.395,1.0,1.0,1
23671,23671,2021-02-12 22:43:25.395,1.0,1.0,1
23681,23681,2021-02-12 22:43:55.395,1.0,1.0,1
23691,23691,2021-02-12 22:44:25.395,1.0,1.0,1
23701,23701,2021-02-12 22:44:55.395,1.0,1.0,1
23711,23711,2021-02-12 22:45:25.395,1.0,1.0,1
23721,23721,2021-02-12 22:45:55.395,1.0,1.0,1
23731,23731,2021-02-12 22:46:25.395,1.0,1.0,1
23741,23741,2021-02-12 22:46:55.395,1.0,1.0,1
23751,23751,2021-02-12 22:47:25.395,1.0,1.0,1
23761,23761,2021-02-12 22:47:55.395,1.0,1.0,1
23771,23771,2021-02-12 22:48:25.395,1.0,1.0,1
23781,23781,2021-02-12 22:48:55.395,1.0,1.0,1
23791,23791,2021-02-12 22:49:25.395,1.0,1.0,1
23801,23801,2021-02-12 22:49:55.395,1.0,1.0,1
23811,23811,2021-02-12 22:50:25.395,1.0,1.0,1
23821,23821,2021-02-12 22:50:55.395,1.0,1.0,1
23831,23831,2021-02-12 22:51:25.395,1.0,1.0,1
23841,23841,2021-02-12 22:51:55.395,1.0,1.0,1
23851,23851,2021-02-12 22:52:25.395,1.0,1.0,1
23861,23861,2021-02-12 22:52:55.395,1.0,1.0,1
23871,23871,2021-02-12 22:53:25.395,1.0,1.0,1
23881,23881,2021-02-12 22:53:55.395,1.0,1.0,1
23891,23891,2021-02-12 22:54:25.395,1.0,1.0,1
23901,23901,2021-02-12 22:54:55.395,1.0,1.0,1
23911,23911,2021-02-12 22:55:25.395,1.0,1.0,1
23921,23921,2021-02-12 22:55:55.395,1.0,1.0,1
23931,23931,2021-02-12 22:56:25.395,1.0,1.0,1
23941,23941,2021-02-12 22:56:55.395,1.0,1.0,1
23951,23951,2021-02-12 22:57:25.395,1.0,1.0,1
23961,23961,2021-02-12 22:57:55.395,1.0,1.0,1
23971,23971,2021-02-12 22:58:25.395,1.0,1.0,1
23981,23981,2021-02-12 22:58:55.395,1.0,1.0,1
23991,23991,2021-02-12 22:59:25.395,1.0,1.0,1
24001,24001,2021-02-12 22:59:55.395,1.0,1.0,1
24011,24011,2021-02-12 23:00:25.395,1.0,1.0,1
24021,24021,2021-02-12 23:00:55.395,1.0,1.0,1
24031,24031,2021-02-12 23:01:25.395,1.0,1.0,1
24041,24041,2021-02-12 23:01:55.395,1.0,1.0,1
24051,24051,2021-02-12 23:02:25.395,1.0,1.0,1
24061,24061,2021-02-12 23:02:55.395,1.0,1.0,1
24071,24071,2021-02-12 23:03:25.395,1.0,1.0,1
24081,24081,2021-02-12 23:03:55.395,1.0,1.0,1
24091,24091,2021-02-12 23:04:25.395,1.0,1.0,1
24101,24101,2021-02-12 23:04:55.395,1.0,1.0,1
24111,24111,2021-02-12 23:05:25.395,1.0,1.0,1
24121,24121,2021-02-12 23:05:55.395,1.0,1.0,1
24131,24131,2021-02-12 23:06:25.395,1.0,1.0,1
24141,24141,2021-02-12 23:06:55.395,1.0,1.0,1
24151,24151,2021-02-12 23:07:25.395,1.0,1.0,1
24161,24161,2021-02-12 23:07:55.395,1.0,1.0,1
24171,24171,2021-02-12 23:08:25.395,1.0,1.0,1
24181,24181,2021-02-12 23:08:55.395,1.0,1.0,1
24191,24191,2021-02-12 23:09:25.395,1.0,1.0,1
24201,24201,2021-02-12 23:09:55.395,1.0,1.0,1
24211,24211,2021-02-12 23:10:25.395,1.0,1.0,1
24221,24221,2021-02-12 23:10:55.395,1.0,1.0,1
24231,24231,2021-02-12 23:11:25.395,1.0,1.0,1
24241,24241,2021-02-12 23:11:55.395,1.0,1.0,1
24251,24251,2021-02-12 23:12:25.395,1.0,1.0,1
24261,24261,2021-02-12 23:12:55.395,1.0,1.0,1
24271,24271,2021-02-12 23:13:25.395,1.0,1.0,1
24281,24281,2021-02-12 23:13:55.395,1.0,1.0,1
24291,24291,2021-02-12 23:14:25.395,1.0,1.0,1
24301,24301,2021-02-12 23:14:55.395,1.0,1.0,1
24311,24311,2021-02-12 23:15:25.395,1.0,1.0,1
24321,24321,2021-02-12 23:15:55.395,1.0,1.0,1
24331,24331,2021-02-12 23:16:25.395,1.0,1.0,1
24341,24341,2021-02-12 23:16:55.395,1.0,1.0,1
24351,24351,2021-02-12 23:17:25.395,1.0,1.0,1
24361,24361,2021-02-12 23:17:55.395,1.0,1.0,1
24371,24371,2021-02-12 23:18:25.395,1.0,1.0,1
24381,24381,2021-02-12 23:18:55.395,1.0,1.0,1
24391,24391,2021-02-12 23:19:25.395,1.0,1.0,1
24401,24401,2021-02-12 23:19:55.395,1.0,1.0,1
24411,24411,2021-02-12 23:20:25.395,1.0,1.0,1
24421,24421,2021-02-12 23:20:55.395,1.0,1.0,1
24431,24431,2021-02-12 23:21:25.395,1.0,1.0,1
24441,24441,2021-02-12 23:21:55.395,1.0,1.0,1
24451,24451,2021-02-12 23:22:25.395,1.0,1.0,1
24461,24461,2021-02-12 23:22:55.395,1.0,1.0,1
24471,24471,2021-02-12 23:23:25.395,1.0,1.0,1
24481,24481,2021-02-12 23:23:55.395,1.0,1.0,1
24491,24491,2021-02-12 23:24:25.395,1.0,1.0,1
24501,24501,2021-02-12 23:24:55.395,1.0,1.0,1
24511,24511,2021-02-12 23:25:25.395,1.0,1.0,1
24521,24521,2021-02-12 23:25:55.395,1.0,1.0,1
24531,24531,2021-02-12 23:26:25.395,1.0,1.0,1
24541,24541,2021-02-12 23:26:55.395,1.0,1.0,1
24551,24551,2021-02-12 23:27:25.395,1.0,1.0,1
24561,24561,2021-02-12 23:27:55.395,1.0,1.0,1
24571,24571,2021-02-12 23:28:25.395,1.0,1.0,1
24581,24581,2021-02-12 23:28:55.395,1.0,1.0,1
24591,24591,2021-02-12 23:29:25.395,1.0,1.0,1
24601,24601,2021-02-12 23:29:55.395,1.0,1.0,1
24611,24611,2021-02-12 23:30:25.395,1.0,1.0,1
24621,24621,2021-02-12 23:30:55.395,1.0,1.0,1
24631,24631,2021-02-12 23:31:25.395,1.0,1.0,1
24641,24641,2021-02-12 23:31:55.395,1.0,1.0,1
24651,24651,2021-02-12 23:32:25.395,1.0,1.0,1
24661,24661,2021-02-12 23:32:55.395,1.0,1.0,1
24671,24671,2021-02-12 23:33:25.395,1.0,1.0,1
24681,24681,2021-02-12 23:33:55.395,1.0,1.0,1
24691,24691,2021-02-12 23:34:25.395,1.0,1.0,1
24701,24701,2021-02-12 23:34:55.395,1.0,1.0,1
24711,24711,2021-02-12 23:35:25.395,1.0,1.0,1
24721,24721,2021-02-12 23:35:55.395,1.0,1.0,1
24731,24731,2021-02-12 23:36:25.395,1.0,1.0,1
24741,24741,2021-02-12 23:36:55.395,1.0,1.0,1
24751,24751,2021-02-12 23:37:25.395,1.0,1.0,1
24761,24761,2021-02-12 23:37:55.395,1.0,1.0,1
24771,24771,2021-02-12 23:38:25.395,1.0,1.0,1
24781,24781,2021-02-12 23:38:55.395,1.0,1.0,1
24791,24791,2021-02-12 23:39:25.395,1.0,1.0,1
24801,24801,2021-02-12 23:39:55.395,1.0,1.0,1
24811,24811,2021-02-12 23:40:25.395,1.0,1.0,1
24821,24821,2021-02-12 23:40:55.395,1.0,1.0,1
24831,24831,2021-02-12 23:41:25.395,1.0,1.0,1
24841,24841,2021-02-12 23:41:55.395,1.0,1.0,1
24851,24851,2021-02-12 23:42:25.395,1.0,1.0,1
24861,24861,2021-02-12 23:42:55.395,1.0,1.0,1
24871,24871,2021-02-12 23:43:25.395,1.0,1.0,1
24881,24881,2021-02-12 23:43:55.395,1.0,1.0,1
24891,24891,2021-02-12 23:44:25.395,1.0,1.0,1
24901,24901,2021-02-12 23:44:55.395,1.0,1.0,1
24911,24911,2021-02-12 23:45:25.395,1.0,1.0,1
24921,24921,2021-02-12 23:45:55.395,1.0,1.0,1
24931,24931,2021-02-12 23:46:25.395,1.0,1.0,1
24941,24941,2021-02-12 23:46:55.395,1.0,1.0,1
24951,24951,2021-02-12 23:47:25.395,1.0,1.0,1
24961,24961,2021-02-12 23:47:55.395,1.0,1.0,1
24971,24971,2021-02-12 23:48:25.395,1.0,1.0,1
24981,24981,2021-02-12 23:48:55.395,1.0,1.0,1
24991,24991,2021-02-12 23:49:25.395,1.0,1.0,1
25001,25001,2021-02-12 23:49:55.395,1.0,1.0,1
25011,25011,2021-02-12 23:50:25.395,1.0,1.0,1
25021,25021,2021-02-12 23:50:55.395,1.0,1.0,1
25031,25031,2021-02-12 23:51:25.395,1.0,1.0,1
25041,25041,2021-02-12 23:51:55.395,1.0,1.0,1
25051,25051,2021-02-12 23:52:25.395,1.0,1.0,1
25061,25061,2021-02-12 23:52:55.395,1.0,1.0,1
25071,25071,2021-02-12 23:53:25.395,1.0,1.0,1
25081,25081,2021-02-12 23:53:55.395,1.0,1.0,1
25091,25091,2021-02-12 23:54:25.395,1.0,1.0,1
25101,25101,2021-02-12 23:54:55.395,1.0,1.0,1
25111,25111,2021-02-12 23:55:25.395,1.0,1.0,1
25121,25121,2021-02-12 23:55:55.395,1.0,1.0,1
25131,25131,2021-02-12 23:56:25.395,1.0,1.0,1
25141,25141,2021-02-12 23:56:55.395,1.0,1.0,1
25151,25151,2021-02-12 23:57:25.395,1.0,1.0,1
25161,25161,2021-02-12 23:57:55.395,1.0,1.0,1
25171,25171,2021-02-12 23:58:25.395,1.0,1.0,1
25181,25181,2021-02-12 23:58:55.395,1.0,1.0,1
25191,25191,2021-02-12 23:59:25.395,1.0,1.0,1
25201,25201,2021-02-12 23:59:55.395,1.0,1.0,1
25211,25211,2021-02-13 00:00:25.395,1.0,1.0,1
25221,25221,2021-02-13 00:00:55.395,1.0,1.0,1
25231,25231,2021-02-13 00:01:25.395,1.0,1.0,1
25241,25241,2021-02-13 00:01:55.395,1.0,1.0,1
25251,25251,2021-02-13 00:02:25.395,1.0,1.0,1
25261,25261,2021-02-13 00:02:55.395,1.0,1.0,1
25271,25271,2021-02-13 00:03:25.395,1.0,1.0,1
25281,25281,2021-02-13 00:03:55.395,1.0,1.0,1
25291,25291,2021-02-13 00:04:25.395,1.0,1.0,1
25301,25301,2021-02-13 00:04:55.395,1.0,1.0,1
25311,25311,2021-02-13 00:05:25.395,1.0,1.0,1
25321,25321,2021-02-13 00:05:55.395,1.0,1.0,1
25331,25331,2021-02-13 00:06:25.395,1.0,1.0,1
25341,25341,2021-02-13 00:06:55.395,1.0,1.0,1
25351,25351,2021-02-13 00:07:25.395,1.0,1.0,1
25361,25361,2021-02-13 00:07:55.395,1.0,1.0,1
25371,25371,2021-02-13 00:08:25.395,1.0,1.0,1
25381,25381,2021-02-13 00:08:55.395,1.0,1.0,1
25391,25391,2021-02-13 00:09:25.395,1.0,1.0,1
25401,25401,2021-02-13 00:09:55.395,1.0,1.0,1
25411,25411,2021-02-13 00:10:25.395,1.0,1.0,1
25421,25421,2021-02-13 00:10:55.395,1.0,1.0,1
25431,25431,2021-02-13 00:11:25.395,1.0,1.0,1
25441,25441,2021-02-13 00:11:55.395,1.0,1.0,1
25451,25451,2021-02-13 00:12:25.395,1.0,1.0,1
25461,25461,2021-02-13 00:12:55.395,1.0,1.0,1
25471,25471,2021-02-13 00:13:25.395,1.0,1.0,1
25481,25481,2021-02-13 00:13:55.395,1.0,1.0,1
25491,25491,2021-02-13 00:14:25.395,1.0,1.0,1
25501,25501,2021-02-13 00:14:55.395,1.0,1.0,1
25511,25511,2021-02-13 00:15:25.395,1.0,1.0,1
25521,25521,2021-02-13 00:15:55.395,1.0,1.0,1
25531,25531,2021-02-13 00:16:25.395,1.0,1.0,1
25541,25541,2021-02-13 00:16:55.395,1.0,1.0,1
25551,25551,2021-02-13 00:17:25.395,1.0,1.0,1
25561,25561,2021-02-13 00:17:55.395,1.0,1.0,1
25571,25571,2021-02-13 00:18:25.395,1.0,1.0,1
25581,25581,2021-02-13 00:18:55.395,1.0,1.0,1
25591,25591,2021-02-13 00:19:25.395,1.0,1.0,1
25601,25601,2021-02-13 00:19:55.395,1.0,1.0,1
25611,25611,2021-02-13 00:20:25.395,1.0,1.0,1
25621,25621,2021-02-13 00:20:55.395,1.0,1.0,1
25631,25631,2021-02-13 00:21:25.395,1.0,1.0,1
25641,25641,2021-02-13 00:21:55.395,1.0,1.0,1
25651,25651,2021-02-13 00:22:25.395,1.0,1.0,1
25661,25661,2021-02-13 00:22:55.395,1.0,1.0,1
25671,25671,2021-02-13 00:23:25.395,1.0,1.0,1
25681,25681,2021-02-13 00:23:55.395,1.0,1.0,1
25691,25691,2021-02-13 00:24:25.395,1.0,1.0,1
25701,25701,2021-02-13 00:24:55.395,1.0,1.0,1
25711,25711,2021-02-13 00:25:25.395,1.0,1.0,1
25721,25721,2021-02-13 00:25:55.395,1.0,1.0,1
25731,25731,2021-02-13 00:26:25.395,1.0,1.0,1
25741,25741,2021-02-13 00:26:55.395,1.0,1.0,1
25751,25751,2021-02-13 00:27:25.395,1.0,1.0,1
25761,25761,2021-02-13 00:27:55.395,1.0,1.0,1
25771,25771,2021-02-13 00:28:25.395,1.0,1.0,1
25781,25781,2021-02-13 00:28:55.395,1.0,1.0,1
25791,25791,2021-02-13 00:29:25.395,1.0,1.0,1
25801,25801,2021-02-13 00:29:55.395,1.0,1.0,1
25811,25811,2021-02-13 00:30:25.395,1.0,1.0,1
25821,25821,2021-02-13 00:30:55.395,1.0,1.0,1
25831,25831,2021-02-13 00:31:25.395,1.0,1.0,1
25841,25841,2021-02-13 00:31:55.395,1.0,1.0,1
25851,25851,2021-02-13 00:32:25.395,1.0,1.0,1
25861,25861,2021-02-13 00:32:55.395,1.0,1.0,1
25871,25871,2021-02-13 00:33:25.395,1.0,1.0,1
25881,25881,2021-02-13 00:33:55.395,1.0,1.0,1
25891,25891,2021-02-13 00:34:25.395,1.0,1.0,1
25901,25901,2021-02-13 00:34:55.395,1.0,1.0,1
25911,25911,2021-02-13 00:35:25.395,1.0,1.0,1
25921,25921,2021-02-13 00:35:55.395,1.0,1.0,1
25931,25931,2021-02-13 00:36:25.395,1.0,1.0,1
25941,25941,2021-02-13 00:36:55.395,1.0,1.0,1
25951,25951,2021-02-13 00:37:25.395,1.0,1.0,1
25961,25961,2021-02-13 00:37:55.395,1.0,1.0,1
25971,25971,2021-02-13 00:38:25.395,1.0,1.0,1
25981,25981,2021-02-13 00:38:55.395,1.0,1.0,1
25991,25991,2021-02-13 00:39:25.395,1.0,1.0,1
26001,26001,2021-02-13 00:39:55.395,1.0,1.0,1
26011,26011,2021-02-13 00:40:25.395,1.0,1.0,1
26021,26021,2021-02-13 00:40:55.395,1.0,1.0,1
26031,26031,2021-02-13 00:41:25.395,1.0,1.0,1
26041,26041,2021-02-13 00:41:55.395,1.0,1.0,1
26051,26051,2021-02-13 00:42:25.395,1.0,1.0,1
26061,26061,2021-02-13 00:42:55.395,1.0,1.0,1
26071,26071,2021-02-13 00:43:25.395,1.0,1.0,1
26081,26081,2021-02-13 00:43:55.395,1.0,1.0,1
26091,26091,2021-02-13 00:44:25.395,1.0,1.0,1
26101,26101,2021-02-13 00:44:55.395,1.0,1.0,1
26111,26111,2021-02-13 00:45:25.395,1.0,1.0,1
26121,26121,2021-02-13 00:45:55.395,1.0,1.0,1
26131,26131,2021-02-13 00:46:25.395,1.0,1.0,1
26141,26141,2021-02-13 00:46:55.395,1.0,1.0,1
26151,26151,2021-02-13 00:47:25.395,1.0,1.0,1
26161,26161,2021-02-13 00:47:55.395,1.0,1.0,1
26171,26171,2021-02-13 00:48:25.395,1.0,1.0,1
26181,26181,2021-02-13 00:48:55.395,1.0,1.0,1
26191,26191,2021-02-13 00:49:25.395,1.0,1.0,1
26201,26201,2021-02-13 00:49:55.395,1.0,1.0,1
26211,26211,2021-02-13 00:50:25.395,1.0,1.0,1
26221,26221,2021-02-13 00:50:55.395,1.0,1.0,1
26231,26231,2021-02-13 00:51:25.395,1.0,1.0,1
26241,26241,2021-02-13 00:51:55.395,1.0,1.0,1
26251,26251,2021-02-13 00:52:25.395,1.0,1.0,1
26261,26261,2021-02-13 00:52:55.395,1.0,1.0,1
26271,26271,2021-02-13 00:53:25.395,1.0,1.0,1
26281,26281,2021-02-13 00:53:55.395,1.0,1.0,1
26291,26291,2021-02-13 00:54:25.395,1.0,1.0,1
26301,26301,2021-02-13 00:54:55.395,1.0,1.0,1
26311,26311,2021-02-13 00:55:25.395,1.0,1.0,1
26321,26321,2021-02-13 00:55:55.395,1.0,1.0,1
26331,26331,2021-02-13 00:56:25.395,1.0,1.0,1
26341,26341,2021-02-13 00:56:55.395,1.0,1.0,1
26351,26351,2021-02-13 00:57:25.395,1.0,1.0,1
26361,26361,2021-02-13 00:57:55.395,1.0,1.0,1
26371,26371,2021-02-13 00:58:25.395,1.0,1.0,1
26381,26381,2021-02-13 00:58:55.395,1.0,1.0,1
26391,26391,2021-02-13 00:59:25.395,1.0,1.0,1
26401,26401,2021-02-13 00:59:55.395,1.0,1.0,1
26411,26411,2021-02-13 01:00:25.395,1.0,1.0,1
26421,26421,2021-02-13 01:00:55.395,1.0,1.0,1
26431,26431,2021-02-13 01:01:25.395,1.0,1.0,1
26441,26441,2021-02-13 01:01:55.395,1.0,1.0,1
26451,26451,2021-02-13 01:02:25.395,1.0,1.0,1
26461,26461,2021-02-13 01:02:55.395,1.0,1.0,1
26471,26471,2021-02-13 01:03:25.395,1.0,1.0,1
26481,26481,2021-02-13 01:03:55.395,1.0,1.0,1
26491,26491,2021-02-13 01:04:25.395,1.0,1.0,1
26501,26501,2021-02-13 01:04:55.395,1.0,1.0,1
26511,26511,2021-02-13 01:05:25.395,1.0,1.0,1
26521,26521,2021-02-13 01:05:55.395,1.0,1.0,1
26531,26531,2021-02-13 01:06:25.395,1.0,1.0,1
26541,26541,2021-02-13 01:06:55.395,1.0,1.0,1
26551,26551,2021-02-13 01:07:25.395,1.0,1.0,1
26561,26561,2021-02-13 01:07:55.395,1.0,1.0,1
26571,26571,2021-02-13 01:08:25.395,1.0,1.0,1
26581,26581,2021-02-13 01:08:55.395,1.0,1.0,1
26591,26591,2021-02-13 01:09:25.395,1.0,1.0,1
26601,26601,2021-02-13 01:09:55.395,1.0,1.0,1
26611,26611,2021-02-13 01:10:25.395,1.0,1.0,1
26621,26621,2021-02-13 01:10:55.395,1.0,1.0,1
26631,26631,2021-02-13 01:11:25.395,1.0,1.0,1
26641,26641,2021-02-13 01:11:55.395,1.0,1.0,1
26651,26651,2021-02-13 01:12:25.395,1.0,1.0,1
26661,26661,2021-02-13 01:12:55.395,1.0,1.0,1
26671,26671,2021-02-13 01:13:25.395,1.0,1.0,1
26681,26681,2021-02-13 01:13:55.395,1.0,1.0,1
26691,26691,2021-02-13 01:14:25.395,1.0,1.0,1
26701,26701,2021-02-13 01:14:55.395,1.0,1.0,1
26711,26711,2021-02-13 01:15:25.395,1.0,1.0,1
26721,26721,2021-02-13 01:15:55.395,1.0,1.0,1
26731,26731,2021-02-13 01:16:25.395,1.0,1.0,1
26741,26741,2021-02-13 01:16:55.395,1.0,1.0,1
26751,26751,2021-02-13 01:17:25.395,1.0,1.0,1
26761,26761,2021-02-13 01:17:55.395,1.0,1.0,1
26771,26771,2021-02-13 01:18:25.395,1.0,1.0,1
26781,26781,2021-02-13 01:18:55.395,1.0,1.0,1
26791,26791,2021-02-13 01:19:25.395,1.0,1.0,1
26801,26801,2021-02-13 01:19:55.395,1.0,1.0,1
26811,26811,2021-02-13 01:20:25.395,1.0,1.0,1
26821,26821,2021-02-13 01:20:55.395,1.0,1.0,1
26831,26831,2021-02-13 01:21:25.395,1.0,1.0,1
26841,26841,2021-02-13 01:21:55.395,1.0,1.0,1
26851,26851,2021-02-13 01:22:25.395,1.0,1.0,1
26861,26861,2021-02-13 01:22:55.395,1.0,1.0,1
26871,26871,2021-02-13 01:23:25.395,1.0,1.0,1
26881,26881,2021-02-13 01:23:55.395,1.0,1.0,1
26891,26891,2021-02-13 01:24:25.395,1.0,1.0,1
26901,26901,2021-02-13 01:24:55.395,1.0,1.0,1
26911,26911,2021-02-13 01:25:25.395,1.0,1.0,1
26921,26921,2021-02-13 01:25:55.395,1.0,1.0,1
26931,26931,2021-02-13 01:26:25.395,1.0,1.0,1
26941,26941,2021-02-13 01:26:55.395,1.0,1.0,1
26951,26951,2021-02-13 01:27:25.395,1.0,1.0,1
26961,26961,2021-02-13 01:27:55.395,1.0,1.0,1
26971,26971,2021-02-13 01:28:25.395,1.0,1.0,1
26981,26981,2021-02-13 01:28:55.395,1.0,1.0,1
26991,26991,2021-02-13 01:29:25.395,1.0,1.0,1
27001,27001,2021-02-13 01:29:55.395,1.0,1.0,1
27011,27011,2021-02-13 01:30:25.395,1.0,1.0,1
27021,27021,2021-02-13 01:30:55.395,1.0,1.0,1
27031,27031,2021-02-13 01:31:25.395,1.0,1.0,1
27041,27041,2021-02-13 01:31:55.395,1.0,1.0,1
27051,27051,2021-02-13 01:32:25.395,1.0,1.0,1
27061,27061,2021-02-13 01:32:55.395,1.0,1.0,1
27071,27071,2021-02-13 01:33:25.395,1.0,1.0,1
27081,27081,2021-02-13 01:33:55.395,1.0,1.0,1
27091,27091,2021-02-13 01:34:25.395,1.0,1.0,1
27101,27101,2021-02-13 01:34:55.395,1.0,1.0,1
27111,27111,2021-02-13 01:35:25.395,1.0,1.0,1
27121,27121,2021-02-13 01:35:55.395,1.0,1.0,1
27131,27131,2021-02-13 01:36:25.395,1.0,1.0,1
27141,27141,2021-02-13 01:36:55.395,1.0,1.0,1
27151,27151,2021-02-13 01:37:25.395,1.0,1.0,1
27161,27161,2021-02-13 01:37:55.395,1.0,1.0,1
27171,27171,2021-02-13 01:38:25.395,1.0,1.0,1
27181,27181,2021-02-13 01:38:55.395,1.0,1.0,1
27191,27191,2021-02-13 01:39:25.395,1.0,1.0,1
27201,27201,2021-02-13 01:39:55.395,1.0,1.0,1
27211,27211,2021-02-13 01:40:25.395,1.0,1.0,1
27221,27221,2021-02-13 01:40:55.395,1.0,1.0,1
27231,27231,2021-02-13 01:41:25.395,1.0,1.0,1
27241,27241,2021-02-13 01:41:55.395,1.0,1.0,1
27251,27251,2021-02-13 01:42:25.395,1.0,1.0,1
27261,27261,2021-02-13 01:42:55.395,1.0,1.0,1
27271,27271,2021-02-13 01:43:25.395,1.0,1.0,1
27281,27281,2021-02-13 01:43:55.395,1.0,1.0,1
27291,27291,2021-02-13 01:44:25.395,1.0,1.0,1
27301,27301,2021-02-13 01:44:55.395,1.0,1.0,1
27311,27311,2021-02-13 01:45:25.395,1.0,1.0,1
27321,27321,2021-02-13 01:45:55.395,1.0,1.0,1
27331,27331,2021-02-13 01:46:25.395,1.0,1.0,1
27341,27341,2021-02-13 01:46:55.395,1.0,1.0,1
27351,27351,2021-02-13 01:47:25.395,1.0,1.0,1
27361,27361,2021-02-13 01:47:55.395,1.0,1.0,1
27371,27371,2021-02-13 01:48:25.395,1.0,1.0,1
27381,27381,2021-02-13 01:48:55.395,1.0,1.0,1
27391,27391,2021-02-13 01:49:25.395,1.0,1.0,1
27401,27401,2021-02-13 01:49:55.395,1.0,1.0,1
27411,27411,2021-02-13 01:50:25.395,1.0,1.0,1
27421,27421,2021-02-13 01:50:55.395,1.0,1.0,1
27431,27431,2021-02-13 01:51:25.395,1.0,1.0,1
27441,27441,2021-02-13 01:51:55.395,1.0,1.0,1
27451,27451,2021-02-13 01:52:25.395,1.0,1.0,1
27461,27461,2021-02-13 01:52:55.395,1.0,1.0,1
27471,27471,2021-02-13 01:53:25.395,1.0,1.0,1
27481,27481,2021-02-13 01:53:55.395,1.0,1.0,1
27491,27491,2021-02-13 01:54:25.395,1.0,1.0,1
27501,27501,2021-02-13 01:54:55.395,1.0,1.0,1
27511,27511,2021-02-13 01:55:25.395,1.0,1.0,1
27521,27521,2021-02-13 01:55:55.395,1.0,1.0,1
27531,27531,2021-02-13 01:56:25.395,1.0,1.0,1
27541,27541,2021-02-13 01:56:55.395,1.0,1.0,1
27551,27551,2021-02-13 01:57:25.395,1.0,1.0,1
27561,27561,2021-02-13 01:57:55.395,1.0,1.0,1
27571,27571,2021-02-13 01:58:25.395,1.0,1.0,1
27581,27581,2021-02-13 01:58:55.395,1.0,1.0,1
27591,27591,2021-02-13 01:59:25.395,1.0,1.0,1
27601,27601,2021-02-13 01:59:55.395,1.0,1.0,1
27611,27611,2021-02-13 02:00:25.395,1.0,1.0,1
27621,27621,2021-02-13 02:00:55.395,1.0,1.0,1
27631,27631,2021-02-13 02:01:25.395,1.0,1.0,1
27641,27641,2021-02-13 02:01:55.395,1.0,1.0,1
27651,27651,2021-02-13 02:02:25.395,1.0,1.0,1
27661,27661,2021-02-13 02:02:55.395,1.0,1.0,1
27671,27671,2021-02-13 02:03:25.395,1.0,1.0,1
27681,27681,2021-02-13 02:03:55.395,1.0,1.0,1
27691,27691,2021-02-13 02:04:25.395,1.0,1.0,1
27701,27701,2021-02-13 02:04:55.395,1.0,1.0,1
27711,27711,2021-02-13 02:05:25.395,1.0,1.0,1
27721,27721,2021-02-13 02:05:55.395,1.0,1.0,1
27731,27731,2021-02-13 02:06:25.395,1.0,1.0,1
27741,27741,2021-02-13 02:06:55.395,1.0,1.0,1
27751,27751,2021-02-13 02:07:25.395,1.0,1.0,1
27761,27761,2021-02-13 02:07:55.395,1.0,1.0,1
27771,27771,2021-02-13 02:08:25.395,1.0,1.0,1
27781,27781,2021-02-13 02:08:55.395,1.0,1.0,1
27791,27791,2021-02-13 02:09:25.395,1.0,1.0,1
27801,27801,2021-02-13 02:09:55.395,1.0,1.0,1
27811,27811,2021-02-13 02:10:25.395,1.0,1.0,1
27821,27821,2021-02-13 02:10:55.395,1.0,1.0,1
27831,27831,2021-02-13 02:11:25.395,1.0,1.0,1
27841,27841,2021-02-13 02:11:55.395,1.0,1.0,1
27851,27851,2021-02-13 02:12:25.395,1.0,1.0,1
27861,27861,2021-02-13 02:12:55.395,1.0,1.0,1
27871,27871,2021-02-13 02:13:25.395,1.0,1.0,1
27881,27881,2021-02-13 02:13:55.395,1.0,1.0,1
27891,27891,2021-02-13 02:14:25.395,1.0,1.0,1
27901,27901,2021-02-13 02:14:55.395,1.0,1.0,1
27911,27911,2021-02-13 02:15:25.395,1.0,1.0,1
27921,27921,2021-02-13 02:15:55.395,1.0,1.0,1
27931,27931,2021-02-13 02:16:25.395,1.0,1.0,1
27941,27941,2021-02-13 02:16:55.395,1.0,1.0,1
27951,27951,2021-02-13 02:17:25.395,1.0,1.0,1
27961,27961,2021-02-13 02:17:55.395,1.0,1.0,1
27971,27971,2021-02-13 02:18:25.395,1.0,1.0,1
27981,27981,2021-02-13 02:18:55.395,1.0,1.0,1
27991,27991,2021-02-13 02:19:25.395,1.0,1.0,1
28001,28001,2021-02-13 02:19:55.395,1.0,1.0,1
28011,28011,2021-02-13 02:20:25.395,1.0,1.0,1
28021,28021,2021-02-13 02:20:55.395,1.0,1.0,1
28031,28031,2021-02-13 02:21:25.395,1.0,1.0,1
28041,28041,2021-02-13 02:21:55.395,1.0,1.0,1
28051,28051,2021-02-13 02:22:25.395,1.0,1.0,1
28061,28061,2021-02-13 02:22:55.395,1.0,1.0,1
28071,28071,2021-02-13 02:23:25.395,1.0,1.0,1
28081,28081,2021-02-13 02:23:55.395,1.0,1.0,1
28091,28091,2021-02-13 02:24:25.395,1.0,1.0,1
28101,28101,2021-02-13 02:24:55.395,1.0,1.0,1
28111,28111,2021-02-13 02:25:25.395,1.0,1.0,1
28121,28121,2021-02-13 02:25:55.395,1.0,1.0,1
28131,28131,2021-02-13 02:26:25.395,1.0,1.0,1
28141,28141,2021-02-13 02:26:55.395,1.0,1.0,1
28151,28151,2021-02-13 02:27:25.395,1.0,1.0,1
28161,28161,2021-02-13 02:27:55.395,1.0,1.0,1
28171,28171,2021-02-13 02:28:25.395,1.0,1.0,1
28181,28181,2021-02-13 02:28:55.395,1.0,1.0,1
28191,28191,2021-02-13 02:29:25.395,1.0,1.0,1
28201,28201,2021-02-13 02:29:55.395,1.0,1.0,1
28211,28211,2021-02-13 02:30:25.395,1.0,1.0,1
28221,28221,2021-02-13 02:30:55.395,1.0,1.0,1
28231,28231,2021-02-13 02:31:25.395,1.0,1.0,1
28241,28241,2021-02-13 02:31:55.395,1.0,1.0,1
28251,28251,2021-02-13 02:32:25.395,1.0,1.0,1
28261,28261,2021-02-13 02:32:55.395,1.0,1.0,1
28271,28271,2021-02-13 02:33:25.395,1.0,1.0,1
28281,28281,2021-02-13 02:33:55.395,1.0,1.0,1
28291,28291,2021-02-13 02:34:25.395,1.0,1.0,1
28301,28301,2021-02-13 02:34:55.395,1.0,1.0,1
28311,28311,2021-02-13 02:35:25.395,1.0,1.0,1
28321,28321,2021-02-13 02:35:55.395,1.0,1.0,1
28331,28331,2021-02-13 02:36:25.395,1.0,1.0,1
28341,28341,2021-02-13 02:36:55.395,1.0,1.0,1
28351,28351,2021-02-13 02:37:25.395,1.0,1.0,1
28361,28361,2021-02-13 02:37:55.395,1.0,1.0,1
28371,28371,2021-02-13 02:38:25.395,1.0,1.0,1
28381,28381,2021-02-13 02:38:55.395,1.0,1.0,1
28391,28391,2021-02-13 02:39:25.395,1.0,1.0,1
28401,28401,2021-02-13 02:39:55.395,1.0,1.0,1
28411,28411,2021-02-13 02:40:25.395,1.0,1.0,1
28421,28421,2021-02-13 02:40:55.395,1.0,1.0,1
28431,28431,2021-02-13 02:41:25.395,1.0,1.0,1
28441,28441,2021-02-13 02:41:55.395,1.0,1.0,1
28451,28451,2021-02-13 02:42:25.395,1.0,1.0,1
28461,28461,2021-02-13 02:42:55.395,1.0,1.0,1
28471,28471,2021-02-13 02:43:25.395,1.0,1.0,1
28481,28481,2021-02-13 02:43:55.395,1.0,1.0,1
28491,28491,2021-02-13 02:44:25.395,1.0,1.0,1
28501,28501,2021-02-13 02:44:55.395,1.0,1.0,1
28511,28511,2021-02-13 02:45:25.395,1.0,1.0,1
28521,28521,2021-02-13 02:45:55.395,1.0,1.0,1
28531,28531,2021-02-13 02:46:25.395,1.0,1.0,1
28541,28541,2021-02-13 02:46:55.395,1.0,1.0,1
28551,28551,2021-02-13 02:47:25.395,1.0,1.0,1
28561,28561,2021-02-13 02:47:55.395,1.0,1.0,1
28571,28571,2021-02-13 02:48:25.395,1.0,1.0,1
28581,28581,2021-02-13 02:48:55.395,1.0,1.0,1
28591,28591,2021-02-13 02:49:25.395,1.0,1.0,1
28601,28601,2021-02-13 02:49:55.395,1.0,1.0,1
28611,28611,2021-02-13 02:50:25.395,1.0,1.0,1
28621,28621,2021-02-13 02:50:55.395,1.0,1.0,1
28631,28631,2021-02-13 02:51:25.395,1.0,1.0,1
28641,28641,2021-02-13 02:51:55.395,1.0,1.0,1
28651,28651,2021-02-13 02:52:25.395,1.0,1.0,1
28661,28661,2021-02-13 02:52:55.395,1.0,1.0,1
28671,28671,2021-02-13 02:53:25.395,1.0,1.0,1
28681,28681,2021-02-13 02:53:55.395,1.0,1.0,1
28691,28691,2021-02-13 02:54:25.395,1.0,1.0,1
28701,28701,2021-02-13 02:54:55.395,1.0,1.0,1
28711,28711,2021-02-13 02:55:25.395,1.0,1.0,1
28721,28721,2021-02-13 02:55:55.395,1.0,1.0,1
28731,28731,2021-02-13 02:56:25.395,1.0,1.0,1
28741,28741,2021-02-13 02:56:55.395,1.0,1.0,1
28751,28751,2021-02-13 02:57:25.395,1.0,1.0,1
28761,28761,2021-02-13 02:57:55.395,1.0,1.0,1
28771,28771,2021-02-13 02:58:25.395,1.0,1.0,1
28781,28781,2021-02-13 02:58:55.395,1.0,1.0,1
28791,28791,2021-02-13 02:59:25.395,1.0,1.0,1
28801,28801,2021-02-13 02:59:55.395,1.0,1.0,1
28811,28811,2021-02-13 03:00:25.395,1.0,1.0,1
28821,28821,2021-02-13 03:00:55.395,1.0,1.0,1
28831,28831,2021-02-13 03:01:25.395,1.0,1.0,1
28841,28841,2021-02-13 03:01:55.395,1.0,1.0,1
28851,28851,2021-02-13 03:02:25.395,1.0,1.0,1
28861,28861,2021-02-13 03:02:55.395,1.0,1.0,1
28871,28871,2021-02-13 03:03:25.395,1.0,1.0,1
28881,28881,2021-02-13 03:03:55.395,1.0,1.0,1
28891,28891,2021-02-13 03:04:25.395,1.0,1.0,1
28901,28901,2021-02-13 03:04:55.395,1.0,1.0,1
28911,28911,2021-02-13 03:05:25.395,1.0,1.0,1
28921,28921,2021-02-13 03:05:55.395,1.0,1.0,1
28931,28931,2021-02-13 03:06:25.395,1.0,1.0,1
28941,28941,2021-02-13 03:06:55.395,1.0,1.0,1
28951,28951,2021-02-13 03:07:25.395,1.0,1.0,1
28961,28961,2021-02-13 03:07:55.395,1.0,1.0,1
28971,28971,2021-02-13 03:08:25.395,1.0,1.0,1
28981,28981,2021-02-13 03:08:55.395,1.0,1.0,1
28991,28991,2021-02-13 03:09:25.395,1.0,1.0,1
29001,29001,2021-02-13 03:09:55.395,1.0,1.0,1
29011,29011,2021-02-13 03:10:25.395,1.0,1.0,1
29021,29021,2021-02-13 03:10:55.395,1.0,1.0,1
29031,29031,2021-02-13 03:11:25.395,1.0,1.0,1
29041,29041,2021-02-13 03:11:55.395,1.0,1.0,1
29051,29051,2021-02-13 03:12:25.395,1.0,1.0,1
29061,29061,2021-02-13 03:12:55.395,1.0,1.0,1
29071,29071,2021-02-13 03:13:25.395,1.0,1.0,1
29081,29081,2021-02-13 03:13:55.395,1.0,1.0,1
29091,29091,2021-02-13 03:14:25.395,1.0,1.0,1
29101,29101,2021-02-13 03:14:55.395,1.0,1.0,1
29111,29111,2021-02-13 03:15:25.395,1.0,1.0,1
29121,29121,2021-02-13 03:15:55.395,1.0,1.0,1
29131,29131,2021-02-13 03:16:25.395,1.0,1.0,1
29141,29141,2021-02-13 03:16:55.395,1.0,1.0,1
29151,29151,2021-02-13 03:17:25.395,1.0,1.0,1
29161,29161,2021-02-13 03:17:55.395,1.0,1.0,1
29171,29171,2021-02-13 03:18:25.395,1.0,1.0,1
29181,29181,2021-02-13 03:18:55.395,1.0,1.0,1
29191,29191,2021-02-13 03:19:25.395,1.0,1.0,1
29201,29201,2021-02-13 03:19:55.395,1.0,1.0,1
29211,29211,2021-02-13 03:20:25.395,1.0,1.0,1
29221,29221,2021-02-13 03:20:55.395,1.0,1.0,1
29231,29231,2021-02-13 03:21:25.395,1.0,1.0,1
29241,29241,2021-02-13 03:21:55.395,1.0,1.0,1
29251,29251,2021-02-13 03:22:25.395,1.0,1.0,1
29261,29261,2021-02-13 03:22:55.395,1.0,1.0,1
29271,29271,2021-02-13 03:23:25.395,1.0,1.0,1
29281,29281,2021-02-13 03:23:55.395,1.0,1.0,1
29291,29291,2021-02-13 03:24:25.395,1.0,1.0,1
29301,29301,2021-02-13 03:24:55.395,1.0,1.0,1
29311,29311,2021-02-13 03:25:25.395,1.0,1.0,1
29321,29321,2021-02-13 03:25:55.395,1.0,1.0,1
29331,29331,2021-02-13 03:26:25.395,1.0,1.0,1
29341,29341,2021-02-13 03:26:55.395,1.0,1.0,1
29351,29351,2021-02-13 03:27:25.395,1.0,1.0,1
29361,29361,2021-02-13 03:27:55.395,1.0,1.0,1
29371,29371,2021-02-13 03:28:25.395,1.0,1.0,1
29381,29381,2021-02-13 03:28:55.395,1.0,1.0,1
29391,29391,2021-02-13 03:29:25.395,1.0,1.0,1
29401,29401,2021-02-13 03:29:55.395,1.0,1.0,1
29411,29411,2021-02-13 03:30:25.395,1.0,1.0,1
29421,29421,2021-02-13 03:30:55.395,1.0,1.0,1
29431,29431,2021-02-13 03:31:25.395,1.0,1.0,1
29441,29441,2021-02-13 03:31:55.395,1.0,1.0,1
29451,29451,2021-02-13 03:32:25.395,1.0,1.0,1
29461,29461,2021-02-13 03:32:55.395,1.0,1.0,1
29471,29471,2021-02-13 03:33:25.395,1.0,1.0,1
29481,29481,2021-02-13 03:33:55.395,1.0,1.0,1
29491,29491,2021-02-13 03:34:25.395,1.0,1.0,1
29501,29501,2021-02-13 03:34:55.395,1.0,1.0,1
29511,29511,2021-02-13 03:35:25.395,1.0,1.0,1
29521,29521,2021-02-13 03:35:55.395,1.0,1.0,1
29531,29531,2021-02-13 03:36:25.395,1.0,1.0,1
29541,29541,2021-02-13 03:36:55.395,1.0,1.0,1
29551,29551,2021-02-13 03:37:25.395,1.0,1.0,1
29561,29561,2021-02-13 03:37:55.395,1.0,1.0,1
29571,29571,2021-02-13 03:38:25.395,1.0,1.0,1
29581,29581,2021-02-13 03:38:55.395,1.0,1.0,1
29591,29591,2021-02-13 03:39:25.395,1.0,1.0,1
29601,29601,2021-02-13 03:39:55.395,1.0,1.0,1
29611,29611,2021-02-13 03:40:25.395,1.0,1.0,1
29621,29621,2021-02-13 03:40:55.395,1.0,1.0,1
29631,29631,2021-02-13 03:41:25.395,1.0,1.0,1
29641,29641,2021-02-13 03:41:55.395,1.0,1.0,1
29651,29651,2021-02-13 03:42:25.395,1.0,1.0,1
29661,29661,2021-02-13 03:42:55.395,1.0,1.0,1
29671,29671,2021-02-13 03:43:25.395,1.0,1.0,1
29681,29681,2021-02-13 03:43:55.395,1.0,1.0,1
29691,29691,2021-02-13 03:44:25.395,1.0,1.0,1
29701,29701,2021-02-13 03:44:55.395,1.0,1.0,1
29711,29711,2021-02-13 03:45:25.395,1.0,1.0,1
29721,29721,2021-02-13 03:45:55.395,1.0,1.0,1
29731,29731,2021-02-13 03:46:25.395,1.0,1.0,1
29741,29741,2021-02-13 03:46:55.395,1.0,1.0,1
29751,29751,2021-02-13 03:47:25.395,1.0,1.0,1
29761,29761,2021-02-13 03:47:55.395,1.0,1.0,1
29771,29771,2021-02-13 03:48:25.395,1.0,1.0,1
29781,29781,2021-02-13 03:48:55.395,1.0,1.0,1
29791,29791,2021-02-13 03:49:25.395,1.0,1.0,1
29801,29801,2021-02-13 03:49:55.395,1.0,1.0,1
29811,29811,2021-02-13 03:50:25.395,1.0,1.0,1
29821,29821,2021-02-13 03:50:55.395,1.0,1.0,1
29831,29831,2021-02-13 03:51:25.395,1.0,1.0,1
29841,29841,2021-02-13 03:51:55.395,1.0,1.0,1
29851,29851,2021-02-13 03:52:25.395,1.0,1.0,1
29861,29861,2021-02-13 03:52:55.395,1.0,1.0,1
29871,29871,2021-02-13 03:53:25.395,1.0,1.0,1
29881,29881,2021-02-13 03:53:55.395,1.0,1.0,1
29891,29891,2021-02-13 03:54:25.395,1.0,1.0,1
29901,29901,2021-02-13 03:54:55.395,1.0,1.0,1
29911,29911,2021-02-13 03:55:25.395,1.0,1.0,1
29921,29921,2021-02-13 03:55:55.395,1.0,1.0,1
29931,29931,2021-02-13 03:56:25.395,1.0,1.0,1
29941,29941,2021-02-13 03:56:55.395,1.0,1.0,1
29951,29951,2021-02-13 03:57:25.395,1.0,1.0,1
29961,29961,2021-02-13 03:57:55.395,1.0,1.0,1
29971,29971,2021-02-13 03:58:25.395,1.0,1.0,1
29981,29981,2021-02-13 03:58:55.395,1.0,1.0,1
29991,29991,2021-02-13 03:59:25.395,1.0,1.0,1
30001,30001,2021-02-13 03:59:55.395,1.0,1.0,1
30011,30011,2021-02-13 04:00:25.395,1.0,1.0,1
30021,30021,2021-02-13 04:00:55.395,1.0,1.0,1
30031,30031,2021-02-13 04:01:25.395,1.0,1.0,1
30041,30041,2021-02-13 04:01:55.395,1.0,1.0,1
30051,30051,2021-02-13 04:02:25.395,1.0,1.0,1
30061,30061,2021-02-13 04:02:55.395,1.0,1.0,1
30071,30071,2021-02-13 04:03:25.395,1.0,1.0,1
30081,30081,2021-02-13 04:03:55.395,1.0,1.0,1
30091,30091,2021-02-13 04:04:25.395,1.0,1.0,1
30101,30101,2021-02-13 04:04:55.395,1.0,1.0,1
30111,30111,2021-02-13 04:05:25.395,1.0,1.0,1
30121,30121,2021-02-13 04:05:55.395,1.0,1.0,1
30131,30131,2021-02-13 04:06:25.395,1.0,1.0,1
30141,30141,2021-02-13 04:06:55.395,1.0,1.0,1
30151,30151,2021-02-13 04:07:25.395,1.0,1.0,1
30161,30161,2021-02-13 04:07:55.395,1.0,1.0,1
30171,30171,2021-02-13 04:08:25.395,1.0,1.0,1
30181,30181,2021-02-13 04:08:55.395,1.0,1.0,1
30191,30191,2021-02-13 04:09:25.395,1.0,1.0,1
30201,30201,2021-02-13 04:09:55.395,1.0,1.0,1
30211,30211,2021-02-13 04:10:25.395,1.0,1.0,1
30221,30221,2021-02-13 04:10:55.395,1.0,1.0,1
30231,30231,2021-02-13 04:11:25.395,1.0,1.0,1
30241,30241,2021-02-13 04:11:55.395,1.0,1.0,1
30251,30251,2021-02-13 04:12:25.395,1.0,1.0,1
30261,30261,2021-02-13 04:12:55.395,1.0,1.0,1
30271,30271,2021-02-13 04:13:25.395,1.0,1.0,1
30281,30281,2021-02-13 04:13:55.395,1.0,1.0,1
30291,30291,2021-02-13 04:14:25.395,1.0,1.0,1
30301,30301,2021-02-13 04:14:55.395,1.0,1.0,1
30311,30311,2021-02-13 04:15:25.395,1.0,1.0,1
30321,30321,2021-02-13 04:15:55.395,1.0,1.0,1
30331,30331,2021-02-13 04:16:25.395,1.0,1.0,1
30341,30341,2021-02-13 04:16:55.395,1.0,1.0,1
30351,30351,2021-02-13 04:17:25.395,1.0,1.0,1
30361,30361,2021-02-13 04:17:55.395,1.0,1.0,1
30371,30371,2021-02-13 04:18:25.395,1.0,1.0,1
30381,30381,2021-02-13 04:18:55.395,1.0,1.0,1
30391,30391,2021-02-13 04:19:25.395,1.0,1.0,1
30401,30401,2021-02-13 04:19:55.395,1.0,1.0,1
30411,30411,2021-02-13 04:20:25.395,1.0,1.0,1
30421,30421,2021-02-13 04:20:55.395,1.0,1.0,1
30431,30431,2021-02-13 04:21:25.395,1.0,1.0,1
30441,30441,2021-02-13 04:21:55.395,1.0,1.0,1
30451,30451,2021-02-13 04:22:25.395,1.0,1.0,1
30461,30461,2021-02-13 04:22:55.395,1.0,1.0,1
30471,30471,2021-02-13 04:23:25.395,1.0,1.0,1
30481,30481,2021-02-13 04:23:55.395,1.0,1.0,1
30491,30491,2021-02-13 04:24:25.395,1.0,1.0,1
30501,30501,2021-02-13 04:24:55.395,1.0,1.0,1
30511,30511,2021-02-13 04:25:25.395,1.0,1.0,1
30521,30521,2021-02-13 04:25:55.395,1.0,1.0,1
30531,30531,2021-02-13 04:26:25.395,1.0,1.0,1
30541,30541,2021-02-13 04:26:55.395,1.0,1.0,1
30551,30551,2021-02-13 04:27:25.395,1.0,1.0,1
30561,30561,2021-02-13 04:27:55.395,1.0,1.0,1
30571,30571,2021-02-13 04:28:25.395,1.0,1.0,1
30581,30581,2021-02-13 04:28:55.395,1.0,1.0,1
30591,30591,2021-02-13 04:29:25.395,1.0,1.0,1
30601,30601,2021-02-13 04:29:55.395,1.0,1.0,1
30611,30611,2021-02-13 04:30:25.395,1.0,1.0,1
30621,30621,2021-02-13 04:30:55.395,1.0,1.0,1
30631,30631,2021-02-13 04:31:25.395,1.0,1.0,1
30641,30641,2021-02-13 04:31:55.395,1.0,1.0,1
30651,30651,2021-02-13 04:32:25.395,1.0,1.0,1
30661,30661,2021-02-13 04:32:55.395,1.0,1.0,1
30671,30671,2021-02-13 04:33:25.395,1.0,1.0,1
30681,30681,2021-02-13 04:33:55.395,1.0,1.0,1
30691,30691,2021-02-13 04:34:25.395,1.0,1.0,1
30701,30701,2021-02-13 04:34:55.395,1.0,1.0,1
30711,30711,2021-02-13 04:35:25.395,1.0,1.0,1
30721,30721,2021-02-13 04:35:55.395,1.0,1.0,1
30731,30731,2021-02-13 04:36:25.395,1.0,1.0,1
30741,30741,2021-02-13 04:36:55.395,1.0,1.0,1
30751,30751,2021-02-13 04:37:25.395,1.0,1.0,1
30761,30761,2021-02-13 04:37:55.395,1.0,1.0,1
30771,30771,2021-02-13 04:38:25.395,1.0,1.0,1
30781,30781,2021-02-13 04:38:55.395,1.0,1.0,1
30791,30791,2021-02-13 04:39:25.395,1.0,1.0,1
30801,30801,2021-02-13 04:39:55.395,1.0,1.0,1
30811,30811,2021-02-13 04:40:25.395,1.0,1.0,1
30821,30821,2021-02-13 04:40:55.395,1.0,1.0,1
30831,30831,2021-02-13 04:41:25.395,1.0,1.0,1
30841,30841,2021-02-13 04:41:55.395,1.0,1.0,1
30851,30851,2021-02-13 04:42:25.395,1.0,1.0,1
30861,30861,2021-02-13 04:42:55.395,1.0,1.0,1
30871,30871,2021-02-13 04:43:25.395,1.0,1.0,1
30881,30881,2021-02-13 04:43:55.395,1.0,1.0,1
30891,30891,2021-02-13 04:44:25.395,1.0,1.0,1
30901,30901,2021-02-13 04:44:55.395,1.0,1.0,1
30911,30911,2021-02-13 04:45:25.395,1.0,1.0,1
30921,30921,2021-02-13 04:45:55.395,1.0,1.0,1
30931,30931,2021-02-13 04:46:25.395,1.0,1.0,1
30941,30941,2021-02-13 04:46:55.395,1.0,1.0,1
30951,30951,2021-02-13 04:47:25.395,1.0,1.0,1
30961,30961,2021-02-13 04:47:55.395,1.0,1.0,1
30971,30971,2021-02-13 04:48:25.395,1.0,1.0,1
30981,30981,2021-02-13 04:48:55.395,1.0,1.0,1
30991,30991,2021-02-13 04:49:25.395,1.0,1.0,1
31001,31001,2021-02-13 04:49:55.395,1.0,1.0,1
31011,31011,2021-02-13 04:50:25.395,1.0,1.0,1
31021,31021,2021-02-13 04:50:55.395,1.0,1.0,1
31031,31031,2021-02-13 04:51:25.395,1.0,1.0,1
31041,31041,2021-02-13 04:51:55.395,1.0,1.0,1
31051,31051,2021-02-13 04:52:25.395,1.0,1.0,1
31061,31061,2021-02-13 04:52:55.395,1.0,1.0,1
31071,31071,2021-02-13 04:53:25.395,1.0,1.0,1
31081,31081,2021-02-13 04:53:55.395,1.0,1.0,1
31091,31091,2021-02-13 04:54:25.395,1.0,1.0,1
31101,31101,2021-02-13 04:54:55.395,1.0,1.0,1
31111,31111,2021-02-13 04:55:25.395,1.0,1.0,1
31121,31121,2021-02-13 04:55:55.395,1.0,1.0,1
31131,31131,2021-02-13 04:56:25.395,1.0,1.0,1
31141,31141,2021-02-13 04:56:55.395,1.0,1.0,1
31151,31151,2021-02-13 04:57:25.395,1.0,1.0,1
31161,31161,2021-02-13 04:57:55.395,1.0,1.0,1
31171,31171,2021-02-13 04:58:25.395,1.0,1.0,1
31181,31181,2021-02-13 04:58:55.395,1.0,1.0,1
31191,31191,2021-02-13 04:59:25.395,1.0,1.0,1
31201,31201,2021-02-13 04:59:55.395,1.0,1.0,1
31211,31211,2021-02-13 05:00:25.395,1.0,1.0,1
31221,31221,2021-02-13 05:00:55.395,1.0,1.0,1
31231,31231,2021-02-13 05:01:25.395,1.0,1.0,1
31241,31241,2021-02-13 05:01:55.395,1.0,1.0,1
31251,31251,2021-02-13 05:02:25.395,1.0,1.0,1
31261,31261,2021-02-13 05:02:55.395,1.0,1.0,1
31271,31271,2021-02-13 05:03:25.395,1.0,1.0,1
31281,31281,2021-02-13 05:03:55.395,1.0,1.0,1
31291,31291,2021-02-13 05:04:25.395,1.0,1.0,1
31301,31301,2021-02-13 05:04:55.395,1.0,1.0,1
31311,31311,2021-02-13 05:05:25.395,1.0,1.0,1
31321,31321,2021-02-13 05:05:55.395,1.0,1.0,1
31331,31331,2021-02-13 05:06:25.395,1.0,1.0,1
31341,31341,2021-02-13 05:06:55.395,1.0,1.0,1
31351,31351,2021-02-13 05:07:25.395,1.0,1.0,1
31361,31361,2021-02-13 05:07:55.395,1.0,1.0,1
31371,31371,2021-02-13 05:08:25.395,1.0,1.0,1
31381,31381,2021-02-13 05:08:55.395,1.0,1.0,1
31391,31391,2021-02-13 05:09:25.395,1.0,1.0,1
31401,31401,2021-02-13 05:09:55.395,1.0,1.0,1
31411,31411,2021-02-13 05:10:25.395,1.0,1.0,1
31421,31421,2021-02-13 05:10:55.395,1.0,1.0,1
31431,31431,2021-02-13 05:11:25.395,1.0,1.0,1
31441,31441,2021-02-13 05:11:55.395,1.0,1.0,1
31451,31451,2021-02-13 05:12:25.395,1.0,1.0,1
31461,31461,2021-02-13 05:12:55.395,1.0,1.0,1
31471,31471,2021-02-13 05:13:25.395,1.0,1.0,1
31481,31481,2021-02-13 05:13:55.395,1.0,1.0,1
31491,31491,2021-02-13 05:14:25.395,1.0,1.0,1
31501,31501,2021-02-13 05:14:55.395,1.0,1.0,1
31511,31511,2021-02-13 05:15:25.395,1.0,1.0,1
31521,31521,2021-02-13 05:15:55.395,1.0,1.0,1
31531,31531,2021-02-13 05:16:25.395,1.0,1.0,1
31541,31541,2021-02-13 05:16:55.395,1.0,1.0,1
31551,31551,2021-02-13 05:17:25.395,1.0,1.0,1
31561,31561,2021-02-13 05:17:55.395,1.0,1.0,1
31571,31571,2021-02-13 05:18:25.395,1.0,1.0,1
31581,31581,2021-02-13 05:18:55.395,1.0,1.0,1
31591,31591,2021-02-13 05:19:25.395,1.0,1.0,1
31601,31601,2021-02-13 05:19:55.395,1.0,1.0,1
31611,31611,2021-02-13 05:20:25.395,1.0,1.0,1
31621,31621,2021-02-13 05:20:55.395,1.0,1.0,1
31631,31631,2021-02-13 05:21:25.395,1.0,1.0,1
31641,31641,2021-02-13 05:21:55.395,1.0,1.0,1
31651,31651,2021-02-13 05:22:25.395,1.0,1.0,1
31661,31661,2021-02-13 05:22:55.395,1.0,1.0,1
31671,31671,2021-02-13 05:23:25.395,1.0,1.0,1
31681,31681,2021-02-13 05:23:55.395,1.0,1.0,1
31691,31691,2021-02-13 05:24:25.395,1.0,1.0,1
31701,31701,2021-02-13 05:24:55.395,1.0,1.0,1
31711,31711,2021-02-13 05:25:25.395,1.0,1.0,1
31721,31721,2021-02-13 05:25:55.395,1.0,1.0,1
31731,31731,2021-02-13 05:26:25.395,1.0,1.0,1
31741,31741,2021-02-13 05:26:55.395,1.0,1.0,1
31751,31751,2021-02-13 05:27:25.395,1.0,1.0,1
31761,31761,2021-02-13 05:27:55.395,1.0,1.0,1
31771,31771,2021-02-13 05:28:25.395,1.0,1.0,1
31781,31781,2021-02-13 05:28:55.395,1.0,1.0,1
31791,31791,2021-02-13 05:29:25.395,1.0,1.0,1
31801,31801,2021-02-13 05:29:55.395,1.0,1.0,1
31811,31811,2021-02-13 05:30:25.395,1.0,1.0,1
31821,31821,2021-02-13 05:30:55.395,1.0,1.0,1
31831,31831,2021-02-13 05:31:25.395,1.0,1.0,1
31841,31841,2021-02-13 05:31:55.395,1.0,1.0,1
31851,31851,2021-02-13 05:32:25.395,1.0,1.0,1
31861,31861,2021-02-13 05:32:55.395,1.0,1.0,1
31871,31871,2021-02-13 05:33:25.395,1.0,1.0,1
31881,31881,2021-02-13 05:33:55.395,1.0,1.0,1
31891,31891,2021-02-13 05:34:25.395,1.0,1.0,1
31901,31901,2021-02-13 05:34:55.395,1.0,1.0,1
31911,31911,2021-02-13 05:35:25.395,1.0,1.0,1
31921,31921,2021-02-13 05:35:55.395,1.0,1.0,1
31931,31931,2021-02-13 05:36:25.395,1.0,1.0,1
31941,31941,2021-02-13 05:36:55.395,1.0,1.0,1
31951,31951,2021-02-13 05:37:25.395,1.0,1.0,1
31961,31961,2021-02-13 05:37:55.395,1.0,1.0,1
31971,31971,2021-02-13 05:38:25.395,1.0,1.0,1
31981,31981,2021-02-13 05:38:55.395,1.0,1.0,1
31991,31991,2021-02-13 05:39:25.395,1.0,1.0,1
32001,32001,2021-02-13 05:39:55.395,1.0,1.0,1
32011,32011,2021-02-13 05:40:25.395,1.0,1.0,1
32021,32021,2021-02-13 05:40:55.395,1.0,1.0,1
32031,32031,2021-02-13 05:41:25.395,1.0,1.0,1
32041,32041,2021-02-13 05:41:55.395,1.0,1.0,1
32051,32051,2021-02-13 05:42:25.395,1.0,1.0,1
32061,32061,2021-02-13 05:42:55.395,1.0,1.0,1
32071,32071,2021-02-13 05:43:25.395,1.0,1.0,1
32081,32081,2021-02-13 05:43:55.395,1.0,1.0,1
32091,32091,2021-02-13 05:44:25.395,1.0,1.0,1
32101,32101,2021-02-13 05:44:55.395,1.0,1.0,1
32111,32111,2021-02-13 05:45:25.395,1.0,1.0,1
32121,32121,2021-02-13 05:45:55.395,1.0,1.0,1
32131,32131,2021-02-13 05:46:25.395,1.0,1.0,1
32141,32141,2021-02-13 05:46:55.395,1.0,1.0,1
32151,32151,2021-02-13 05:47:25.395,1.0,1.0,1
32161,32161,2021-02-13 05:47:55.395,1.0,1.0,1
32171,32171,2021-02-13 05:48:25.395,1.0,1.0,1
32181,32181,2021-02-13 05:48:55.395,1.0,1.0,1
32191,32191,2021-02-13 05:49:25.395,1.0,1.0,1
32201,32201,2021-02-13 05:49:55.395,1.0,1.0,1
32211,32211,2021-02-13 05:50:25.395,1.0,1.0,1
32221,32221,2021-02-13 05:50:55.395,1.0,1.0,1
32231,32231,2021-02-13 05:51:25.395,1.0,1.0,1
32241,32241,2021-02-13 05:51:55.395,1.0,1.0,1
32251,32251,2021-02-13 05:52:25.395,1.0,1.0,1
32261,32261,2021-02-13 05:52:55.395,1.0,1.0,1
32271,32271,2021-02-13 05:53:25.395,1.0,1.0,1
32281,32281,2021-02-13 05:53:55.395,1.0,1.0,1
32291,32291,2021-02-13 05:54:25.395,1.0,1.0,1
32301,32301,2021-02-13 05:54:55.395,1.0,1.0,1
32311,32311,2021-02-13 05:55:25.395,1.0,1.0,1
32321,32321,2021-02-13 05:55:55.395,1.0,1.0,1
32331,32331,2021-02-13 05:56:25.395,1.0,1.0,1
32341,32341,2021-02-13 05:56:55.395,1.0,1.0,1
32351,32351,2021-02-13 05:57:25.395,1.0,1.0,1
32361,32361,2021-02-13 05:57:55.395,1.0,1.0,1
32371,32371,2021-02-13 05:58:25.395,1.0,1.0,1
32381,32381,2021-02-13 05:58:55.395,1.0,1.0,1
32391,32391,2021-02-13 05:59:25.395,1.0,1.0,1
32401,32401,2021-02-13 05:59:55.395,1.0,1.0,1
32411,32411,2021-02-13 06:00:25.395,1.0,1.0,1
32421,32421,2021-02-13 06:00:55.395,1.0,1.0,1
32431,32431,2021-02-13 06:01:25.395,1.0,1.0,1
32441,32441,2021-02-13 06:01:55.395,1.0,1.0,1
32451,32451,2021-02-13 06:02:25.395,1.0,1.0,1
32461,32461,2021-02-13 06:02:55.395,1.0,1.0,1
32471,32471,2021-02-13 06:03:25.395,1.0,1.0,1
32481,32481,2021-02-13 06:03:55.395,1.0,1.0,1
32491,32491,2021-02-13 06:04:25.395,1.0,1.0,1
32501,32501,2021-02-13 06:04:55.395,1.0,1.0,1
32511,32511,2021-02-13 06:05:25.395,1.0,1.0,1
32521,32521,2021-02-13 06:05:55.395,1.0,1.0,1
32531,32531,2021-02-13 06:06:25.395,1.0,1.0,1
32541,32541,2021-02-13 06:06:55.395,1.0,1.0,1
32551,32551,2021-02-13 06:07:25.395,1.0,1.0,1
32561,32561,2021-02-13 06:07:55.395,1.0,1.0,1
32571,32571,2021-02-13 06:08:25.395,1.0,1.0,1
32581,32581,2021-02-13 06:08:55.395,1.0,1.0,1
