name,time,countryCode,ipAddress,level,producer,value
NotFinished,2021-02-10T07:33:34.683Z,IN,13.127.247.106,3.0,13.127.247.106,404.5
NotFinished,2021-02-10T07:34:04.683Z,IN,13.127.247.106,3.0,13.127.247.106,1249.125
NotFinished,2021-02-10T07:34:34.683Z,IN,13.127.247.106,3.0,13.127.247.106,1438.875
NotFinished,2021-02-10T07:35:04.683Z,IN,13.127.247.106,3.0,13.127.247.106,1569.5
NotFinished,2021-02-10T07:35:34.683Z,IN,13.127.247.106,3.0,13.127.247.106,1521.5625
NotFinished,2021-02-10T07:36:04.683Z,IN,13.127.247.106,3.0,13.127.247.106,1547.125
NotFinished,2021-02-10T07:36:34.683Z,IN,13.127.247.106,3.0,13.127.247.106,1615.5
NotFinished,2021-02-10T07:37:04.683Z,IN,13.127.247.106,3.0,13.127.247.106,1509.25
NotFinished,2021-02-10T07:37:34.683Z,IN,13.127.247.106,3.0,13.127.247.106,1528.5
NotFinished,2021-02-10T07:38:04.683Z,IN,13.127.247.106,3.0,13.127.247.106,1558.5
NotFinished,2021-02-10T07:38:34.683Z,IN,13.127.247.106,3.0,13.127.247.106,1576.75
NotFinished,2021-02-10T07:39:04.683Z,IN,13.127.247.106,3.0,13.127.247.106,1579.875
NotFinished,2021-02-10T07:39:34.683Z,IN,13.127.247.106,3.0,13.127.247.106,1610.875
NotFinished,2021-02-10T07:40:04.683Z,IN,13.127.247.106,3.0,13.127.247.106,1634.5
NotFinished,2021-02-10T07:40:34.683Z,IN,13.127.247.106,3.0,13.127.247.106,1692.0625
NotFinished,2021-02-10T07:41:04.683Z,IN,13.127.247.106,3.0,13.127.247.106,1715.625
NotFinished,2021-02-10T07:41:34.683Z,IN,13.127.247.106,3.0,13.127.247.106,1745.625
NotFinished,2021-02-10T07:42:04.683Z,IN,13.127.247.106,3.0,13.127.247.106,1801.5
NotFinished,2021-02-10T07:42:34.683Z,IN,13.127.247.106,3.0,13.127.247.106,1874.4375
NotFinished,2021-02-10T07:43:04.683Z,IN,13.127.247.106,3.0,13.127.247.106,1903.4375
NotFinished,2021-02-10T07:43:34.683Z,IN,13.127.247.106,3.0,13.127.247.106,1894.5
NotFinished,2021-02-10T07:44:04.683Z,IN,13.127.247.106,3.0,13.127.247.106,1913.375
NotFinished,2021-02-10T07:44:34.683Z,IN,13.127.247.106,3.0,13.127.247.106,1885.5
NotFinished,2021-02-10T07:45:04.683Z,IN,13.127.247.106,3.0,13.127.247.106,1899
NotFinished,2021-02-10T07:45:34.683Z,IN,13.127.247.106,3.0,13.127.247.106,1924.5
NotFinished,2021-02-10T07:46:04.683Z,IN,13.127.247.106,3.0,13.127.247.106,1938
NotFinished,2021-02-10T07:46:34.683Z,IN,13.127.247.106,3.0,13.127.247.106,1961.5
NotFinished,2021-02-10T07:47:04.683Z,IN,13.127.247.106,3.0,13.127.247.106,1975
NotFinished,2021-02-10T07:47:34.683Z,IN,13.127.247.106,3.0,13.127.247.106,2039.9375
NotFinished,2021-02-10T07:48:04.683Z,IN,13.127.247.106,3.0,13.127.247.106,2064.375
NotFinished,2021-02-10T07:48:34.683Z,IN,13.127.247.106,3.0,13.127.247.106,2077.6875
NotFinished,2021-02-10T07:49:04.683Z,IN,13.127.247.106,3.0,13.127.247.106,2023.5
NotFinished,2021-02-10T07:49:34.683Z,IN,13.127.247.106,3.0,13.127.247.106,2048
NotFinished,2021-02-10T07:50:04.683Z,IN,13.127.247.106,3.0,13.127.247.106,2005.5
NotFinished,2021-02-10T07:50:34.683Z,IN,13.127.247.106,3.0,13.127.247.106,2024.625
NotFinished,2021-02-10T07:51:04.683Z,IN,13.127.247.106,3.0,13.127.247.106,2049.1875
NotFinished,2021-02-10T07:51:34.683Z,IN,13.127.247.106,3.0,13.127.247.106,2062.875
NotFinished,2021-02-10T07:52:04.683Z,IN,13.127.247.106,3.0,13.127.247.106,2076.5625
NotFinished,2021-02-10T07:52:34.683Z,IN,13.127.247.106,3.0,13.127.247.106,2101.125
NotFinished,2021-02-10T07:53:04.683Z,IN,13.127.247.106,3.0,13.127.247.106,2170
NotFinished,2021-02-10T07:53:34.683Z,IN,13.127.247.106,3.0,13.127.247.106,2128.5
NotFinished,2021-02-10T07:54:04.683Z,IN,13.127.247.106,3.0,13.127.247.106,2153.0625
NotFinished,2021-02-10T07:54:34.683Z,IN,13.127.247.106,3.0,13.127.247.106,2222.5
NotFinished,2021-02-10T07:55:04.683Z,IN,13.127.247.106,3.0,13.127.247.106,2061.0625
NotFinished,2021-02-10T07:55:34.683Z,IN,13.127.247.106,3.0,13.127.247.106,2085.75
NotFinished,2021-02-10T07:56:04.683Z,IN,13.127.247.106,3.0,13.127.247.106,2110.4375
NotFinished,2021-02-10T07:56:34.683Z,IN,13.127.247.106,3.0,13.127.247.106,2113.875
NotFinished,2021-02-10T07:57:04.683Z,IN,13.127.247.106,3.0,13.127.247.106,2138.5625
NotFinished,2021-02-10T07:57:34.683Z,IN,13.127.247.106,3.0,13.127.247.106,2164.25
NotFinished,2021-02-10T07:58:04.684Z,IN,13.127.247.106,3.0,13.127.247.106,2166.6875
NotFinished,2021-02-10T07:58:34.683Z,IN,13.127.247.106,3.0,13.127.247.106,2191.375
NotFinished,2021-02-10T07:59:04.683Z,IN,13.127.247.106,3.0,13.127.247.106,2216.0625
NotFinished,2021-02-10T07:59:34.683Z,IN,13.127.247.106,3.0,13.127.247.106,2230.125
NotFinished,2021-02-10T08:00:04.683Z,IN,13.127.247.106,3.0,13.127.247.106,2244.1875
NotFinished,2021-02-10T08:00:34.683Z,IN,13.127.247.106,3.0,13.127.247.106,2316.25
NotFinished,2021-02-10T08:01:04.683Z,IN,13.127.247.106,3.0,13.127.247.106,2204.25
NotFinished,2021-02-10T08:01:34.683Z,IN,13.127.247.106,3.0,13.127.247.106,2223.75
NotFinished,2021-02-10T08:02:04.683Z,IN,13.127.247.106,3.0,13.127.247.106,2243.25
NotFinished,2021-02-10T08:02:34.683Z,IN,13.127.247.106,3.0,13.127.247.106,2263.75
NotFinished,2021-02-10T08:03:04.683Z,IN,13.127.247.106,3.0,13.127.247.106,2271.75
NotFinished,2021-02-10T08:03:34.683Z,IN,13.127.247.106,3.0,13.127.247.106,2297.5
NotFinished,2021-02-10T08:04:04.683Z,IN,13.127.247.106,3.0,13.127.247.106,2316
NotFinished,2021-02-10T08:04:34.683Z,IN,13.127.247.106,3.0,13.127.247.106,2325
NotFinished,2021-02-10T08:05:04.683Z,IN,13.127.247.106,3.0,13.127.247.106,2349.75
NotFinished,2021-02-10T08:05:34.683Z,IN,13.127.247.106,3.0,13.127.247.106,2369.25
NotFinished,2021-02-10T08:06:04.683Z,IN,13.127.247.106,3.0,13.127.247.106,2263
NotFinished,2021-02-10T08:06:34.683Z,IN,13.127.247.106,3.0,13.127.247.106,2281.75
NotFinished,2021-02-10T08:07:04.683Z,IN,13.127.247.106,3.0,13.127.247.106,2251.6875
NotFinished,2021-02-10T08:07:34.683Z,IN,13.127.247.106,3.0,13.127.247.106,2271.5625
NotFinished,2021-02-10T08:08:04.683Z,IN,13.127.247.106,3.0,13.127.247.106,2292.4375
NotFinished,2021-02-10T08:08:34.683Z,IN,13.127.247.106,3.0,13.127.247.106,2306.25
NotFinished,2021-02-10T08:09:04.683Z,IN,13.127.247.106,3.0,13.127.247.106,2326.125
NotFinished,2021-02-10T08:09:34.683Z,IN,13.127.247.106,3.0,13.127.247.106,2346
NotFinished,2021-02-10T08:10:04.683Z,IN,13.127.247.106,3.0,13.127.247.106,2365.875
NotFinished,2021-02-10T08:10:34.683Z,IN,13.127.247.106,3.0,13.127.247.106,2424.375
NotFinished,2021-02-10T08:11:04.683Z,IN,13.127.247.106,3.0,13.127.247.106,2444.125
NotFinished,2021-02-10T08:11:34.683Z,IN,13.127.247.106,3.0,13.127.247.106,2342
NotFinished,2021-02-10T08:12:04.683Z,IN,13.127.247.106,3.0,13.127.247.106,2357
NotFinished,2021-02-10T08:12:34.683Z,IN,13.127.247.106,3.0,13.127.247.106,2382
NotFinished,2021-02-10T08:13:04.683Z,IN,13.127.247.106,3.0,13.127.247.106,2398
NotFinished,2021-02-10T08:13:34.683Z,IN,13.127.247.106,3.0,13.127.247.106,2412
NotFinished,2021-02-10T08:14:04.683Z,IN,13.127.247.106,3.0,13.127.247.106,2437
NotFinished,2021-02-10T08:14:34.683Z,IN,13.127.247.106,3.0,13.127.247.106,2452
NotFinished,2021-02-10T08:15:04.683Z,IN,13.127.247.106,3.0,13.127.247.106,2467
NotFinished,2021-02-10T08:15:34.683Z,IN,13.127.247.106,3.0,13.127.247.106,2492
NotFinished,2021-02-10T08:16:04.683Z,IN,13.127.247.106,3.0,13.127.247.106,2507
NotFinished,2021-02-10T08:16:34.683Z,IN,13.127.247.106,3.0,13.127.247.106,2445.9375
NotFinished,2021-02-10T08:17:04.683Z,IN,13.127.247.106,3.0,13.127.247.106,2462.125
NotFinished,2021-02-10T08:17:34.683Z,IN,13.127.247.106,3.0,13.127.247.106,2476.3125
NotFinished,2021-02-10T08:18:04.683Z,IN,13.127.247.106,3.0,13.127.247.106,2501.375
NotFinished,2021-02-10T08:18:34.683Z,IN,13.127.247.106,3.0,13.127.247.106,2516.5625
NotFinished,2021-02-10T08:19:04.683Z,IN,13.127.247.106,3.0,13.127.247.106,2536.6875
NotFinished,2021-02-10T08:19:34.683Z,IN,13.127.247.106,3.0,13.127.247.106,2556.8125
NotFinished,2021-02-10T08:20:04.683Z,IN,13.127.247.106,3.0,13.127.247.106,2572
NotFinished,2021-02-10T08:20:34.683Z,IN,13.127.247.106,3.0,13.127.247.106,2597.0625
NotFinished,2021-02-10T08:21:04.683Z,IN,13.127.247.106,3.0,13.127.247.106,2489.4375
NotFinished,2021-02-10T08:21:34.683Z,IN,13.127.247.106,3.0,13.127.247.106,2548.875
NotFinished,2021-02-10T08:22:04.683Z,IN,13.127.247.106,3.0,13.127.247.106,2565.25
NotFinished,2021-02-10T08:22:34.683Z,IN,13.127.247.106,3.0,13.127.247.106,2585.5
NotFinished,2021-02-10T08:23:04.683Z,IN,13.127.247.106,3.0,13.127.247.106,2609.625
NotFinished,2021-02-10T08:23:34.683Z,IN,13.127.247.106,3.0,13.127.247.106,2620.125
NotFinished,2021-02-10T08:24:04.683Z,IN,13.127.247.106,3.0,13.127.247.106,2645.25
NotFinished,2021-02-10T08:24:34.683Z,IN,13.127.247.106,3.0,13.127.247.106,2665.5
NotFinished,2021-02-10T08:25:04.683Z,IN,13.127.247.106,3.0,13.127.247.106,2676
NotFinished,2021-02-10T08:25:34.683Z,IN,13.127.247.106,3.0,13.127.247.106,2701.125
NotFinished,2021-02-10T08:26:04.683Z,IN,13.127.247.106,3.0,13.127.247.106,2557.375
NotFinished,2021-02-10T08:26:34.683Z,IN,13.127.247.106,3.0,13.127.247.106,2572.3125
NotFinished,2021-02-10T08:27:04.683Z,IN,13.127.247.106,3.0,13.127.247.106,2592.9375
NotFinished,2021-02-10T08:27:34.683Z,IN,13.127.247.106,3.0,13.127.247.106,2613.5625
NotFinished,2021-02-10T08:28:04.683Z,IN,13.127.247.106,3.0,13.127.247.106,2630.5
NotFinished,2021-02-10T08:28:34.683Z,IN,13.127.247.106,3.0,13.127.247.106,2686.5
NotFinished,2021-02-10T08:29:04.683Z,IN,13.127.247.106,3.0,13.127.247.106,2702.25
NotFinished,2021-02-10T08:29:34.683Z,IN,13.127.247.106,3.0,13.127.247.106,2732.25
NotFinished,2021-02-10T08:30:04.683Z,IN,13.127.247.106,3.0,13.127.247.106,2625.125
NotFinished,2021-02-10T08:30:34.683Z,IN,13.127.247.106,3.0,13.127.247.106,2636.625
NotFinished,2021-02-10T08:31:04.683Z,IN,13.127.247.106,3.0,13.127.247.106,2663
NotFinished,2021-02-10T08:31:34.683Z,IN,13.127.247.106,3.0,13.127.247.106,2682.75
NotFinished,2021-02-10T08:32:04.683Z,IN,13.127.247.106,3.0,13.127.247.106,2695.25
NotFinished,2021-02-10T08:32:34.683Z,IN,13.127.247.106,3.0,13.127.247.106,2720.625
NotFinished,2021-02-10T08:33:04.683Z,IN,13.127.247.106,3.0,13.127.247.106,2740.375
NotFinished,2021-02-10T08:33:34.683Z,IN,13.127.247.106,3.0,13.127.247.106,2756.5
NotFinished,2021-02-10T08:34:04.683Z,IN,13.127.247.106,3.0,13.127.247.106,2688.375
NotFinished,2021-02-10T08:34:34.684Z,IN,13.127.247.106,3.0,13.127.247.106,2709.25
NotFinished,2021-02-10T08:35:04.683Z,IN,13.127.247.106,3.0,13.127.247.106,2725.5625
NotFinished,2021-02-10T08:35:34.683Z,IN,13.127.247.106,3.0,13.127.247.106,2747.4375
NotFinished,2021-02-10T08:36:04.683Z,IN,13.127.247.106,3.0,13.127.247.106,2767.3125
NotFinished,2021-02-10T08:36:34.683Z,IN,13.127.247.106,3.0,13.127.247.106,2783.625
NotFinished,2021-02-10T08:37:04.683Z,IN,13.127.247.106,3.0,13.127.247.106,2804.5
NotFinished,2021-02-10T08:37:34.683Z,IN,13.127.247.106,3.0,13.127.247.106,2858.75
NotFinished,2021-02-10T08:38:04.683Z,IN,13.127.247.106,3.0,13.127.247.106,2719.625
NotFinished,2021-02-10T08:38:34.683Z,IN,13.127.247.106,3.0,13.127.247.106,2740.75
NotFinished,2021-02-10T08:39:04.683Z,IN,13.127.247.106,3.0,13.127.247.106,2762.875
NotFinished,2021-02-10T08:39:34.683Z,IN,13.127.247.106,3.0,13.127.247.106,2784
NotFinished,2021-02-10T08:40:04.683Z,IN,13.127.247.106,3.0,13.127.247.106,2799.6875
NotFinished,2021-02-10T08:40:34.683Z,IN,13.127.247.106,3.0,13.127.247.106,2820.8125
NotFinished,2021-02-10T08:41:04.683Z,IN,13.127.247.106,3.0,13.127.247.106,2841.9375
NotFinished,2021-02-10T08:41:34.683Z,IN,13.127.247.106,3.0,13.127.247.106,2864.0625
NotFinished,2021-02-10T08:42:04.683Z,IN,13.127.247.106,3.0,13.127.247.106,2758.875
NotFinished,2021-02-10T08:42:34.683Z,IN,13.127.247.106,3.0,13.127.247.106,2781.25
NotFinished,2021-02-10T08:43:04.683Z,IN,13.127.247.106,3.0,13.127.247.106,2797.3125
NotFinished,2021-02-10T08:43:34.683Z,IN,13.127.247.106,3.0,13.127.247.106,2818.6875
NotFinished,2021-02-10T08:44:04.683Z,IN,13.127.247.106,3.0,13.127.247.106,2844.375
NotFinished,2021-02-10T08:44:34.683Z,IN,13.127.247.106,3.0,13.127.247.106,2861.4375
NotFinished,2021-02-10T08:45:04.683Z,IN,13.127.247.106,3.0,13.127.247.106,2912.375
NotFinished,2021-02-10T08:45:34.683Z,IN,13.127.247.106,3.0,13.127.247.106,2816.25
NotFinished,2021-02-10T08:46:04.684Z,IN,13.127.247.106,3.0,13.127.247.106,2829.25
NotFinished,2021-02-10T08:46:34.683Z,IN,13.127.247.106,3.0,13.127.247.106,2846.5
NotFinished,2021-02-10T08:47:04.683Z,IN,13.127.247.106,3.0,13.127.247.106,2876.5
NotFinished,2021-02-10T08:47:34.683Z,IN,13.127.247.106,3.0,13.127.247.106,2889.5
NotFinished,2021-02-10T08:48:04.683Z,IN,13.127.247.106,3.0,13.127.247.106,2906.75
NotFinished,2021-02-10T08:48:34.683Z,IN,13.127.247.106,3.0,13.127.247.106,2936.75
NotFinished,2021-02-10T08:49:04.683Z,IN,13.127.247.106,3.0,13.127.247.106,2856.3125
NotFinished,2021-02-10T08:49:34.683Z,IN,13.127.247.106,3.0,13.127.247.106,2878.9375
NotFinished,2021-02-10T08:50:04.683Z,IN,13.127.247.106,3.0,13.127.247.106,2899.5625
NotFinished,2021-02-10T08:50:34.683Z,IN,13.127.247.106,3.0,13.127.247.106,2900.25
NotFinished,2021-02-10T08:51:04.683Z,IN,13.127.247.106,3.0,13.127.247.106,2938.625
NotFinished,2021-02-10T08:51:34.683Z,IN,13.127.247.106,3.0,13.127.247.106,2866.375
NotFinished,2021-02-10T08:52:04.683Z,IN,13.127.247.106,3.0,13.127.247.106,2895.375
NotFinished,2021-02-10T08:52:34.683Z,IN,13.127.247.106,3.0,13.127.247.106,2904.75
NotFinished,2021-02-10T08:53:04.683Z,IN,13.127.247.106,3.0,13.127.247.106,2926.5
NotFinished,2021-02-10T08:53:34.683Z,IN,13.127.247.106,3.0,13.127.247.106,2956.5
NotFinished,2021-02-10T08:54:04.683Z,IN,13.127.247.106,3.0,13.127.247.106,2965.875
NotFinished,2021-02-10T08:54:34.683Z,IN,13.127.247.106,3.0,13.127.247.106,2875
NotFinished,2021-02-10T08:55:04.683Z,IN,13.127.247.106,3.0,13.127.247.106,2900
NotFinished,2021-02-10T08:55:34.683Z,IN,13.127.247.106,3.0,13.127.247.106,2931.375
NotFinished,2021-02-10T08:56:04.683Z,IN,13.127.247.106,3.0,13.127.247.106,2958.3125
NotFinished,2021-02-10T08:56:34.683Z,IN,13.127.247.106,3.0,13.127.247.106,2980.1875
NotFinished,2021-02-10T08:57:04.683Z,IN,13.127.247.106,3.0,13.127.247.106,3005.125
NotFinished,2021-02-10T08:57:34.683Z,IN,13.127.247.106,3.0,13.127.247.106,2882.625
NotFinished,2021-02-10T08:58:04.683Z,IN,13.127.247.106,3.0,13.127.247.106,2920.5
NotFinished,2021-02-10T08:58:34.683Z,IN,13.127.247.106,3.0,13.127.247.106,2946.5625
NotFinished,2021-02-10T08:59:04.683Z,IN,13.127.247.106,3.0,13.127.247.106,2964.75
NotFinished,2021-02-10T08:59:34.683Z,IN,13.127.247.106,3.0,13.127.247.106,2886.375
NotFinished,2021-02-10T09:00:04.683Z,IN,13.127.247.106,3.0,13.127.247.106,2917.375
NotFinished,2021-02-10T09:00:34.683Z,IN,13.127.247.106,3.0,13.127.247.106,2927
NotFinished,2021-02-10T09:01:04.683Z,IN,13.127.247.106,3.0,13.127.247.106,2954.125
NotFinished,2021-02-10T09:01:34.683Z,IN,13.127.247.106,3.0,13.127.247.106,2980.25
NotFinished,2021-02-10T09:02:04.683Z,IN,13.127.247.106,3.0,13.127.247.106,2889.25
NotFinished,2021-02-10T09:02:34.683Z,IN,13.127.247.106,3.0,13.127.247.106,2903.25
NotFinished,2021-02-10T09:03:04.683Z,IN,13.127.247.106,3.0,13.127.247.106,2941.3125
NotFinished,2021-02-10T09:03:34.683Z,IN,13.127.247.106,3.0,13.127.247.106,2967.5
NotFinished,2021-02-10T09:04:04.683Z,IN,13.127.247.106,3.0,13.127.247.106,2871.625
NotFinished,2021-02-10T09:04:34.683Z,IN,13.127.247.106,3.0,13.127.247.106,2894.25
NotFinished,2021-02-10T09:05:04.683Z,IN,13.127.247.106,3.0,13.127.247.106,2916.875
NotFinished,2021-02-10T09:05:34.683Z,IN,13.127.247.106,3.0,13.127.247.106,2932.125
NotFinished,2021-02-10T09:06:04.683Z,IN,13.127.247.106,3.0,13.127.247.106,2848.875
NotFinished,2021-02-10T09:06:34.683Z,IN,13.127.247.106,3.0,13.127.247.106,2871.75
NotFinished,2021-02-10T09:07:04.683Z,IN,13.127.247.106,3.0,13.127.247.106,2788.875
NotFinished,2021-02-10T09:07:34.683Z,IN,13.127.247.106,3.0,13.127.247.106,2812
NotFinished,2021-02-10T09:08:04.683Z,IN,13.127.247.106,3.0,13.127.247.106,2831.6875
NotFinished,2021-02-10T09:08:34.683Z,IN,13.127.247.106,3.0,13.127.247.106,2760.75
NotFinished,2021-02-10T09:09:04.683Z,IN,13.127.247.106,3.0,13.127.247.106,2780.625
NotFinished,2021-02-10T09:09:34.683Z,IN,13.127.247.106,3.0,13.127.247.106,2707.625
NotFinished,2021-02-10T09:10:04.683Z,IN,13.127.247.106,3.0,13.127.247.106,2733.3125
NotFinished,2021-02-10T09:10:34.683Z,IN,13.127.247.106,3.0,13.127.247.106,2563.125
NotFinished,2021-02-10T09:11:04.683Z,IN,13.127.247.106,3.0,13.127.247.106,2589
NotFinished,2021-02-10T09:11:34.684Z,IN,13.127.247.106,3.0,13.127.247.106,2517.625
NotFinished,2021-02-10T09:12:04.683Z,IN,13.127.247.106,3.0,13.127.247.106,2536.125
NotFinished,2021-02-10T09:12:34.683Z,IN,13.127.247.106,3.0,13.127.247.106,2533
